0.9999999999996347,1,0.999337
1.0,1,0.999395
0.9999999999999992,1,0.998999
1.0,1,0.999326
1.0,1,0.999279
1.0,1,0.999218
1.0,1,0.999224
1.0,1,0.999275
1.0,1,0.999102
0.9999999999999977,1,0.999356
0.9999999999999994,1,0.999144
1.0,1,0.999159
0.9999999999999997,1,0.999009
1.0,1,0.999181
0.9999999999999981,1,0.999360
1.0,1,0.999366
0.9999999999999968,1,0.999334
1.0,1,0.999300
0.9999999999999996,1,0.999378
0.9999999999999982,1,0.999159
0.9999999999999982,1,0.999206
0.9999999999999977,1,0.999133
1.0,1,0.999208
1.0,1,0.999386
0.9999999999999996,1,0.999273
0.9999999999999991,1,0.999265
0.9999999999999947,1,0.999355
0.9999999999999983,1,0.999213
1.0,1,0.999289
0.9999999999999992,1,0.999384
0.9999999999999963,1,0.999223
0.9999999999999996,1,0.999364
0.9999999999999982,1,0.999360
1.0,1,0.999300
1.0,1,0.999307
0.9999999999999999,1,0.999372
0.9999999999999989,1,0.999251
0.9999999999999987,1,0.999255
1.0,1,0.999267
1.0,1,0.999221
0.9999999999999981,1,0.999206
0.9999999999999973,1,0.999245
0.9999999999999998,1,0.999287
1.0,1,0.999216
1.0,1,0.998952
0.9999999999999991,1,0.999171
1.0,1,0.999165
0.9999999999999991,1,0.999251
0.9999999999999951,1,0.999292
0.9999999999999981,1,0.999348
0.9999999999999983,1,0.999100
0.9999999999999989,1,0.999372
0.9999999999999944,1,0.999317
1.0,1,0.999151
0.999999999999999,1,0.998875
0.9999999999999957,1,0.999357
1.0,1,0.999195
0.9999999999999996,1,0.999127
0.999999999999995,1,0.999288
1.0,1,0.999206
1.0,1,0.999271
0.9999999999999974,1,0.999165
0.9999999999999999,1,0.999292
1.0,1,0.999361
1.0,1,0.999299
1.0,1,0.999157
1.0,1,0.998990
1.0,1,0.999333
0.9999999999999986,1,0.999223
1.0,1,0.999285
0.9999999999999994,1,0.999341
0.9999999999999997,1,0.999300
1.0,1,0.999287
1.0,1,0.999359
0.9999999999999993,1,0.999192
1.0,1,0.999302
0.9999999999999938,1,0.999312
1.0,1,0.999203
0.9999999999999941,1,0.999186
1.0,1,0.999277
1.0,1,0.999095
0.9999999999999988,1,0.999226
0.9999999999999925,1,0.999246
1.0,1,0.999152
1.0,1,0.999302
1.0,1,0.999216
0.9999999999999977,1,0.999233
0.9999999999999982,1,0.999083
1.0,1,0.999281
0.9999999999999956,1,0.998871
0.9999999999999968,1,0.999226
0.999999999999998,1,0.998864
0.9999999999999989,1,0.999261
0.9999999999999976,1,0.999158
1.0,1,0.999240
1.0,1,0.999221
0.9999999999999994,1,0.999335
0.9999999999999981,1,0.999310
0.9999999999999993,1,0.999351
1.0,1,0.999311
0.9999999999999979,1,0.999319
1.0,1,0.999217
0.9999999999999969,1,0.999400
1.0,1,0.999184
1.0,1,0.999285
0.9999999999999976,1,0.999206
0.9999999999999998,1,0.999155
0.9999999999999984,1,0.999298
0.9999999999999969,1,0.999146
0.9999999999999971,1,0.999350
0.9999999999999988,1,0.999394
0.9999999999999987,1,0.999044
1.0,1,0.999381
0.9999999999999992,1,0.999227
0.9999999999999941,1,0.999320
1.0,1,0.998985
0.9999999999999969,1,0.999348
1.0,1,0.999350
1.0,1,0.999235
1.0,1,0.999356
0.9999999999999996,1,0.999230
0.9999999999999999,1,0.998953
1.0,1,0.999119
0.9999999999999978,1,0.999211
0.9999999999999974,1,0.999262
0.9999999999999999,1,0.999297
1.0,1,0.999204
0.9999999999999949,1,0.999374
1.0,1,0.999208
1.0,1,0.999217
1.0,1,0.999260
1.0,1,0.999162
1.0,1,0.999216
1.0,1,0.999342
1.0,1,0.999311
1.0,1,0.999322
1.0,1,0.999347
1.0,1,0.999340
0.9999999999999976,1,0.999382
1.0,1,0.999233
1.0,1,0.999312
0.9999999999999989,1,0.999056
1.0,1,0.999277
1.0,1,0.998689
0.9999999999999987,1,0.999182
0.9999999999999998,1,0.999280
1.0,1,0.999361
0.9999999999999994,1,0.999335
1.0,1,0.999358
0.9999999999999986,1,0.999270
1.0,1,0.999200
0.9999999999999972,1,0.999322
1.0,1,0.999103
1.0,1,0.999256
0.9999999999999982,1,0.999199
0.9999999999999982,1,0.999158
1.0,1,0.999267
0.9999999999999983,1,0.999325
0.9999999999999973,1,0.999259
1.0,1,0.999162
1.0,1,0.998906
1.0,1,0.999160
1.0,1,0.998814
0.9999999999999989,1,0.999206
1.0,1,0.999373
1.0,1,0.999411
0.9999999999999966,1,0.999226
1.0,1,0.999260
0.9999999999999968,1,0.999201
1.0,1,0.999396
1.0,1,0.999193
1.0,1,0.999386
1.0,1,0.999255
0.9999999999999986,1,0.999183
0.999999999999998,1,0.998946
0.9999999999999976,1,0.998912
0.9999999999999944,1,0.999304
1.0,1,0.999351
0.9999999999999982,1,0.999271
0.9999999999999988,1,0.999213
0.9999999999999987,1,0.999230
0.9999999999999991,1,0.999244
0.9999999999999994,1,0.999420
0.9999999999999931,1,0.999290
1.0,1,0.999272
1.0,1,0.999365
1.0,1,0.999399
1.0,1,0.999343
0.9999999999999966,1,0.998978
1.0,1,0.999248
1.0,1,0.999256
0.9999999999999981,1,0.999153
1.0,1,0.999047
0.9999999999999992,1,0.999248
0.9999999999999983,1,0.998946
0.9999999999999942,1,0.999324
1.0,1,0.999106
0.9999999999999988,1,0.999316
1.0,1,0.999392
1.0,1,0.999332
1.0,1,0.999277
1.0,1,0.999373
0.9999999999999996,1,0.999235
1.0,1,0.999224
0.9999999999999987,1,0.999378
1.0,1,0.999287
1.0,1,0.999171
1.0,1,0.999371
0.9999999999999971,1,0.999301
0.9999999999999974,1,0.999309
0.9999999999999983,1,0.999051
0.9999999999999999,1,0.999363
0.9999999999999997,1,0.999280
1.0,1,0.999341
1.0,1,0.999329
1.0,1,0.999371
0.9999999999999976,1,0.999245
1.0,1,0.999320
1.0,1,0.999352
1.0,1,0.999354
1.0,1,0.999242
0.9999999999999994,1,0.999338
1.0,1,0.999329
0.9999999999999991,1,0.999389
0.9999999999999983,1,0.999330
1.0,1,0.999185
1.0,1,0.999275
1.0,1,0.999221
0.9999999999999952,1,0.999305
1.0,1,0.999258
1.0,1,0.999099
1.0,1,0.999209
1.0,1,0.999197
1.0,1,0.999320
0.9999999999999989,1,0.999373
0.9999999999999978,1,0.999105
0.9999999999999998,1,0.999258
1.0,1,0.999317
0.9999999999999998,1,0.999398
0.9999999999999967,1,0.999264
1.0,1,0.999316
1.0,1,0.999228
0.9999999999999993,1,0.999152
0.9999999999999979,1,0.999351
0.9999999999999972,1,0.999230
1.0,1,0.999282
0.9999999999999971,1,0.999349
1.0,1,0.999340
1.0,1,0.998985
1.0,1,0.998917
1.0,1,0.999144
0.9999999999999979,1,0.999242
1.0,1,0.999018
1.0,1,0.999278
1.0,1,0.999201
1.0,1,0.999412
0.9999999999999998,1,0.999242
0.9999999999999959,1,0.999407
1.0,1,0.999263
0.9999999999999971,1,0.999137
1.0,1,0.999193
1.0,1,0.999230
0.9999999999999987,1,0.999280
1.0,1,0.999366
0.9999999999999988,1,0.999083
1.0,1,0.999341
0.9999999999999991,1,0.999314
0.9999999999999962,1,0.999215
1.0,1,0.999300
1.0,1,0.999254
0.9999999999999978,1,0.999097
0.9999999999999961,1,0.999059
1.0,1,0.999174
1.0,1,0.999418
0.9999999999999958,1,0.999178
0.9999999999999977,1,0.999273
0.9999999999999988,1,0.999088
1.0,1,0.999196
1.0,1,0.999305
1.0,1,0.998927
0.9999999999999958,1,0.999349
1.0,1,0.999215
0.9999999999999948,1,0.998844
1.0,1,0.999321
0.9999999999999993,1,0.999257
0.9999999999999978,1,0.999322
0.9999999999999963,1,0.999029
0.9999999999999979,1,0.999298
1.0,1,0.999189
1.0,1,0.999249
1.0,1,0.999213
0.999999999999998,1,0.999138
1.0,1,0.999153
1.0,1,0.999214
0.9999999999999993,1,0.999312
0.9999999999999964,1,0.999355
0.9999999999999984,1,0.999119
1.0,1,0.998966
1.0,1,0.999245
0.9999999999999989,1,0.999281
1.0,1,0.999200
0.9999999999999969,1,0.999284
1.0,1,0.999264
1.0,1,0.999312
0.9999999999999998,1,0.999083
0.9999999999999988,1,0.999123
1.0,1,0.999184
0.9999999999999988,1,0.999232
1.0,1,0.999107
1.0,1,0.999214
1.0,1,0.999322
0.9999999999999999,1,0.999195
0.9999999999999987,1,0.999277
0.9999999999999984,1,0.998895
1.0,1,0.999361
0.9999999999999949,1,0.999054
0.9999999999999978,1,0.998840
0.9999999999999974,1,0.999235
1.0,1,0.999293
1.0,1,0.999308
1.0,1,0.999261
1.0,1,0.999267
0.9999999999999979,1,0.999171
1.0,1,0.999331
0.9999999999999982,1,0.999270
0.9999999999999983,1,0.998886
0.9999999999999988,1,0.999327
1.0,1,0.999273
0.9999999999999952,1,0.998623
1.0,1,0.999427
0.9999999999999998,1,0.999165
1.0,1,0.999369
0.9999999999999944,1,0.999352
0.9999999999999983,1,0.999356
0.9999999999999984,1,0.999296
0.9999999999999981,1,0.999296
1.0,1,0.999375
0.9999999999999999,1,0.999406
0.9999999999999992,1,0.999299
1.0,1,0.998821
1.0,1,0.999377
1.0,1,0.999343
1.0,1,0.999309
0.9999999999999997,1,0.999328
1.0,1,0.999275
1.0,1,0.999321
0.9999999999999971,1,0.999220
0.9999999999999991,1,0.999380
1.0,1,0.999337
0.9999999999999968,1,0.999318
0.999999999999997,1,0.999378
0.9999999999999969,1,0.999068
1.0,1,0.999268
0.9999999999999991,1,0.999194
1.0,1,0.999229
1.0,1,0.999219
0.9999999999999988,1,0.998883
1.0,1,0.999361
0.9999999999999974,1,0.998865
1.0,1,0.999396
0.9999999999999997,1,0.998979
0.9999999999999964,1,0.999395
1.0,1,0.999349
0.9999999999999986,1,0.999275
1.0,1,0.999213
0.9999999999999973,1,0.999236
1.0,1,0.998848
0.9999999999999973,1,0.999232
1.0,1,0.999303
1.0,1,0.999014
1.0,1,0.999334
0.9999999999999979,1,0.999249
1.0,1,0.999329
0.9999999999999944,1,0.999233
0.9999999999999984,1,0.999209
1.0,1,0.999246
1.0,1,0.999311
0.9999999999999967,1,0.999289
1.0,1,0.999349
1.0,1,0.999321
0.9999999999999988,1,0.999296
0.9999999999999999,1,0.999253
1.0,1,0.999278
0.9999999999999993,1,0.999369
1.0,1,0.999159
1.0,1,0.999194
0.9999999999999992,1,0.998993
1.0,1,0.999114
0.9999999999999959,1,0.999289
0.9999999999999996,1,0.999248
1.0,1,0.999331
0.9999999999999953,1,0.999359
1.0,1,0.999241
0.9999999999999978,1,0.999181
1.0,1,0.999086
0.9999999999999998,1,0.999093
0.9999999999999971,1,0.999316
1.0,1,0.999325
1.0,1,0.999090
0.9999999999999973,1,0.999378
0.9999999999999968,1,0.999233
0.9999999999999974,1,0.999015
0.9999999999999991,1,0.999289
1.0,1,0.999295
0.9999999999999979,1,0.999289
1.0,1,0.999248
1.0,1,0.999337
0.9999999999999978,1,0.999181
0.9999999999999986,1,0.999207
0.999999999999996,1,0.998989
1.0,1,0.999221
0.9999999999999991,1,0.999282
0.9999999999999996,1,0.999092
0.9999999999999979,1,0.999071
0.9999999999999994,1,0.999190
1.0,1,0.999314
1.0,1,0.999383
0.9999999999999979,1,0.999314
1.0,1,0.999032
0.999999999999997,1,0.999295
1.0,1,0.999174
0.9999999999999994,1,0.999206
1.0,1,0.999375
0.9999999999999982,1,0.999180
0.9999999999999972,1,0.999302
0.9999999999999976,1,0.999284
1.0,1,0.999088
1.0,1,0.999313
0.999999999999998,1,0.998830
1.0,1,0.999264
1.0,1,0.999370
1.0,1,0.999304
0.999999999999999,1,0.998998
1.0,1,0.998880
0.9999999999999982,1,0.998930
0.9999999999999994,1,0.999306
1.0,1,0.999133
0.9999999999999976,1,0.999348
1.0,1,0.999329
0.9999999999999989,1,0.999358
0.9999999999999953,1,0.999368
0.9999999999999989,1,0.999322
1.0,1,0.999189
1.0,1,0.999292
0.9999999999999988,1,0.999224
0.9999999999999984,1,0.999162
1.0,1,0.999008
0.9999999999999992,1,0.999265
0.9999999999999984,1,0.999221
1.0,1,0.999376
1.0,1,0.998770
1.0,1,0.999320
0.9999999999999992,1,0.998861
1.0,1,0.998957
1.0,1,0.999312
1.0,1,0.999235
1.0,1,0.999363
1.0,1,0.999162
0.9999999999999941,1,0.998865
0.9999999999999984,1,0.999257
1.0,1,0.998811
0.9999999999999981,1,0.999337
1.0,1,0.999167
1.0,1,0.999330
1.0,1,0.999187
1.0,1,0.999346
1.0,1,0.999317
1.0,1,0.999237
1.0,1,0.999247
1.0,1,0.999095
1.0,1,0.999360
0.9999999999999987,1,0.999139
1.0,1,0.999145
1.0,1,0.999288
1.0,1,0.999258
1.0,1,0.999241
1.0,1,0.998728
0.9999999999999999,1,0.999255
0.9999999999999967,1,0.999347
0.999999999999995,1,0.998979
1.0,1,0.999340
0.9999999999999954,1,0.999224
1.0,1,0.999280
1.0,1,0.999254
1.0,1,0.998928
0.9999999999999982,1,0.999173
0.9999999999999998,1,0.998894
1.0,1,0.999313
1.0,1,0.999281
0.9999999999999996,1,0.999379
1.0,1,0.999322
1.0,1,0.999357
1.0,1,0.999323
0.9999999999999987,1,0.999018
1.0,1,0.999245
0.9999999999999966,1,0.999137
0.9999999999999997,1,0.998824
1.0,1,0.999359
0.9999999999999998,1,0.999126
0.9999999999999992,1,0.999003
1.0,1,0.999361
0.9999999999999959,1,0.999354
1.0,1,0.999437
1.0,1,0.999169
0.9999999999999984,1,0.998791
0.9999999999999992,1,0.999272
0.999999999999998,1,0.999258
1.0,1,0.999132
0.9999999999999998,1,0.999248
0.9999999999999977,1,0.999240
1.0,1,0.998976
1.0,1,0.999364
0.9999999999999957,1,0.999349
1.0,1,0.998609
0.999999999999999,1,0.999250
0.9999999999999978,1,0.999234
1.0,1,0.998920
0.9999999999999997,1,0.999296
1.0,1,0.999358
1.0,1,0.999135
0.9999999999999997,1,0.998998
0.9999999999999986,1,0.999052
1.0,1,0.999245
0.9999999999999991,1,0.999222
0.9999999999999989,1,0.999369
1.0,1,0.999271
1.0,1,0.999405
1.0,1,0.999308
1.0,1,0.999071
0.999999999999995,1,0.999306
1.0,1,0.999289
0.999999999999999,1,0.999352
0.9999999999999994,1,0.999358
1.0,1,0.999315
1.0,1,0.999244
0.9999999999999982,1,0.999322
1.0,1,0.999368
1.0,1,0.999074
1.0,1,0.999223
0.9999999999999961,1,0.999277
0.9999999999999988,1,0.998951
0.9999999999999996,1,0.999123
1.0,1,0.999320
0.999999999999999,1,0.999303
1.0,1,0.999352
0.9999999999999989,1,0.999195
1.0,1,0.999210
0.9999999999999989,1,0.999379
0.9999999999999976,1,0.999385
0.999999999999999,1,0.999063
1.0,1,0.999310
0.9999999999999988,1,0.999299
1.0,1,0.999302
1.0,1,0.999240
1.0,1,0.999310
1.0,1,0.999213
1.0,1,0.999353
0.999999999999995,1,0.999227
0.9999999999999992,1,0.999051
0.999999999999999,1,0.999357
0.9999999999999994,1,0.999065
1.0,1,0.999268
0.9999999999999986,1,0.999338
0.9999999999999993,1,0.999290
0.999999999999999,1,0.999252
1.0,1,0.999275
1.0,1,0.999312
1.0,1,0.999242
0.9999999999999966,1,0.999261
1.0,1,0.999112
1.0,1,0.999352
0.9999999999999994,1,0.999438
0.9999999999999981,1,0.999328
0.999999999999999,1,0.999278
0.9999999999999809,1,0.999108
1.0,1,0.999342
1.0,1,0.999287
0.9999999999999971,1,0.999296
1.0,1,0.999258
1.0,1,0.998857
1.0,1,0.999115
0.9999999999999999,1,0.999363
0.999999999999985,1,0.999329
1.0,1,0.999314
0.9999999999999978,1,0.999346
0.9999999999999996,1,0.999277
1.0,1,0.999174
0.9999999999999968,1,0.999416
0.9999999999999959,1,0.999331
0.9999999999999984,1,0.999340
0.999999999999999,1,0.999259
1.0,1,0.999389
1.0,1,0.999389
1.0,1,0.999250
1.0,1,0.999378
0.999999999999999,1,0.999322
1.0,1,0.999133
0.9999999999999971,1,0.999306
0.9999999999999993,1,0.999230
1.0,1,0.999318
1.0,1,0.999218
1.0,1,0.998881
0.9999999999999982,1,0.999403
0.9999999999999994,1,0.999245
0.9999999999999998,1,0.999231
0.9999999999999992,1,0.999257
0.9999999999999983,1,0.998992
0.9999999999999957,1,0.999230
0.9999999999999988,1,0.999237
0.9999999999999958,1,0.999206
1.0,1,0.999270
1.0,1,0.999260
1.0,1,0.999298
1.0,1,0.999371
0.9999999999999984,1,0.999237
0.9999999999999998,1,0.999282
0.9999999999999987,1,0.999400
0.9999999999999992,1,0.999355
0.9999999999999998,1,0.999279
1.0,1,0.999325
1.0,1,0.999277
1.0,1,0.999089
0.9999999999999974,1,0.999209
0.9999999999999992,1,0.999384
0.9999999999999992,1,0.999218
0.9999999999999992,1,0.999355
1.0,1,0.999340
1.0,1,0.999372
1.0,1,0.999248
1.0,1,0.998688
1.0,1,0.999319
0.9999999999999987,1,0.999105
1.0,1,0.999455
0.9999999999999989,1,0.999334
1.0,1,0.999302
1.0,1,0.999260
0.999999999999999,1,0.999400
1.0,1,0.999169
1.0,1,0.999386
0.9999999999999972,1,0.999221
1.0,1,0.998895
1.0,1,0.999251
0.9999999999999972,1,0.999376
0.9999999999999954,1,0.999288
0.9999999999999954,1,0.999202
0.9999999999999989,1,0.999306
1.0,1,0.999203
1.0,1,0.999396
1.0,1,0.999070
0.999999999999997,1,0.999286
1.0,1,0.999363
1.0,1,0.998943
0.9999999999999988,1,0.998634
1.0,1,0.999382
0.9999999999999992,1,0.999158
1.0,1,0.999198
1.0,1,0.999255
0.9999999999999979,1,0.999086
1.0,1,0.999335
1.0,1,0.999377
0.9999999999999994,1,0.999132
0.999999999999997,1,0.999425
1.0,1,0.999289
1.0,1,0.999329
0.9999999999999967,1,0.999325
0.9999999999999966,1,0.999352
0.9999999999999998,1,0.999321
1.0,1,0.999104
1.0,1,0.999234
0.9999999999999997,1,0.999271
0.9999999999999941,1,0.999338
0.9999999999999991,1,0.999325
1.0,1,0.999260
0.9999999999999982,1,0.999391
1.0,1,0.999305
1.0,1,0.999395
1.0,1,0.999176
1.0,1,0.999295
0.9999999999999977,1,0.999019
0.9999999999999987,1,0.999241
0.9999999999999988,1,0.999270
0.9999999999999987,1,0.999323
0.9999999999999982,1,0.999153
0.999999999999999,1,0.999303
0.9999999999999988,1,0.999089
0.9999999999999986,1,0.999155
1.0,1,0.998862
1.0,1,0.998952
1.0,1,0.999381
1.0,1,0.999281
1.0,1,0.999323
1.0,1,0.999264
0.9999999999999993,1,0.999392
0.9999999999999987,1,0.999398
1.0,1,0.999289
1.0,1,0.999288
0.9999999999999984,1,0.999375
0.9999999999999972,1,0.999367
1.0,1,0.999253
1.0,1,0.999355
1.0,1,0.999365
0.9999999999999984,1,0.999389
1.0,1,0.999430
0.9999999999999964,1,0.999238
1.0,1,0.999117
1.0,1,0.998889
0.9999999999999983,1,0.999386
0.9999999999999992,1,0.999022
1.0,1,0.999150
1.0,1,0.999258
1.0,1,0.999245
1.0,1,0.999346
1.0,1,0.999375
0.9999999999999982,1,0.999416
1.0,1,0.999359
0.9999999999999987,1,0.999378
0.9999999999999984,1,0.999321
0.9999995288609189,1,0.999224
1.0,1,0.999374
0.999999999999998,1,0.999197
1.0,1,0.999322
0.999999999999998,1,0.999418
0.9999999999999933,1,0.999304
1.0,1,0.999167
1.0,1,0.999196
1.0,1,0.999315
0.9999999999999987,1,0.999375
0.9999999999999977,1,0.999361
0.9999999999999996,1,0.999263
0.9999999999999967,1,0.999187
0.9999999999999996,1,0.998716
1.0,1,0.999293
1.0,1,0.998928
0.999999999999998,1,0.999240
1.0,1,0.998885
0.9999999999999988,1,0.999088
1.0,1,0.999008
1.0,1,0.998954
1.0,1,0.999259
1.0,1,0.999322
1.0,1,0.999140
0.9999999999999999,1,0.999085
1.0,1,0.999183
1.0,1,0.999201
0.9999999999999998,1,0.999172
0.9999999999999956,1,0.999176
0.9999999999999986,1,0.999233
1.0,1,0.999311
0.9999999999999977,1,0.999089
0.9999999999999996,1,0.999214
1.0,1,0.999003
0.9999999999999993,1,0.999376
0.9999999999999976,1,0.998976
0.9999999999999943,1,0.999325
1.0,1,0.999191
1.0,1,0.999315
1.0,1,0.999284
0.9999999999999966,1,0.999397
1.0,1,0.999289
0.9999999999999978,1,0.999227
0.9999999999999981,1,0.999291
0.9999999999999982,1,0.999372
1.0,1,0.999249
1.0,1,0.999092
0.9999999999999983,1,0.999139
1.0,1,0.999309
0.999999999999999,1,0.999451
1.0,1,0.999150
1.0,1,0.999176
1.0,1,0.999270
1.0,1,0.999339
1.0,1,0.998970
1.0,1,0.999228
1.0,1,0.999088
1.0,1,0.999359
1.0,1,0.999344
1.0,1,0.998932
0.9999999999999964,1,0.999138
1.0,1,0.999115
1.0,1,0.999341
1.0,1,0.999373
0.9999999999999968,1,0.999415
0.9999999999999991,1,0.999350
0.9999999999999976,1,0.999342
0.9999999999999982,1,0.999344
1.0,1,0.999374
0.999999999999997,1,0.999186
0.9999999999999973,1,0.999255
0.9999999999999982,1,0.999089
0.9999999999999984,1,0.999367
1.0,1,0.999265
1.0,1,0.999405
0.999999999999997,1,0.999309
1.0,1,0.999328
1.0,1,0.999300
0.9999999999999999,1,0.999405
0.9999999999999988,1,0.999408
0.9999999999999994,1,0.999118
1.0,1,0.999350
0.9999999999999974,1,0.999386
0.9999999999999996,1,0.999338
0.9999999999999952,1,0.999284
0.999999999999999,1,0.999365
0.999999999999999,1,0.999127
1.0,1,0.999238
0.9999999999924154,1,0.999116
0.9999999999999951,1,0.999297
1.0,1,0.999174
0.9999999999999992,1,0.999069
1.0,1,0.998871
0.9999999999999993,1,0.998932
1.0,1,0.999291
0.9999999999999996,1,0.999161
0.9999999999999996,1,0.999332
1.0,1,0.999203
0.9999999999999963,1,0.999346
0.9999999999999966,1,0.999088
1.0,1,0.999364
0.9999999999999981,1,0.999417
0.9999999999999966,1,0.998982
0.999999999999999,1,0.999416
0.9999999999999994,1,0.999385
1.0,1,0.999259
0.999999999999999,1,0.999324
0.9999999999999991,1,0.999407
0.9999999999999984,1,0.999248
0.999999999999996,1,0.999197
0.9999999999999958,1,0.999391
0.9999999999999978,1,0.999357
0.9999999999999946,1,0.999071
1.0,1,0.999299
0.9999999999999992,1,0.999268
1.0,1,0.998833
1.0,1,0.999254
0.9999999999999962,1,0.999249
0.9999999999999972,1,0.999300
0.9999999999999998,1,0.999264
1.0,1,0.999375
1.0,1,0.999381
1.0,1,0.999234
1.0,1,0.999248
0.9999999999999996,1,0.999173
0.9999999999999957,1,0.999357
0.999999999999995,1,0.999126
0.9999999999999978,1,0.999051
0.9999999999999987,1,0.999335
0.999999999999998,1,0.999112
0.9999999999999987,1,0.999309
0.9999999999999978,1,0.999368
1.0,1,0.999274
0.9999999999999984,1,0.999281
1.0,1,0.999228
0.9999999999999978,1,0.999356
1.0,1,0.998888
0.9999999999999979,1,0.999290
0.9999999999999993,1,0.999400
0.9999999999999999,1,0.999416
0.9999999999999967,1,0.999337
0.999999999999997,1,0.999255
0.9999999999999997,1,0.999221
0.9999999999999984,1,0.998979
0.9999999999999996,1,0.998849
0.9999999999999982,1,0.999231
0.9999999999999967,1,0.999027
0.9999999999999976,1,0.999377
0.9999999999999963,1,0.999330
0.999999999999999,1,0.999349
0.9999999999999983,1,0.999233
1.0,1,0.999338
0.9999999999999988,1,0.999031
0.9999999999999968,1,0.999450
0.9999999999999984,1,0.999272
1.0,1,0.999052
1.0,1,0.999175
0.9999999999999982,1,0.999093
1.0,1,0.999130
1.0,1,0.999199
1.0,1,0.999379
1.0,1,0.999244
1.0,1,0.999256
0.9999999999999966,1,0.999133
1.0,1,0.999070
0.9999999999999976,1,0.999294
0.9999999999999991,1,0.999352
0.9999999999999978,1,0.998927
1.0,1,0.999101
1.0,1,0.999162
0.9999999999999997,1,0.999006
1.0,1,0.999258
0.9999999999999981,1,0.999375
1.0,1,0.999146
1.0,1,0.999351
0.9999999999999984,1,0.999307
1.0,1,0.999195
1.0,1,0.999365
1.0,1,0.998756
1.0,1,0.999282
1.0,1,0.999206
0.9999999999999979,1,0.999301
0.999999999999998,1,0.999259
1.0,1,0.999123
1.0,1,0.999371
1.0,1,0.999378
1.0,1,0.999205
0.9999999999999972,1,0.999290
0.999999999999998,1,0.999255
0.9999999999998418,1,0.999191
0.9999999999999977,1,0.999403
0.9999999999999991,1,0.999254
1.0,1,0.998988
1.0,1,0.999255
1.0,1,0.999302
0.999999999999999,1,0.999412
0.9999999999999986,1,0.999272
1.0,1,0.999006
0.9999999999999997,1,0.999327
1.0,1,0.999351
1.0,1,0.999329
0.9999999999999993,1,0.999336
0.9999999999999988,1,0.999206
1.0,1,0.999292
0.9999999999999963,1,0.999298
1.0,1,0.999197
0.9999999999999998,1,0.999343
0.9999999999999984,1,0.999349
0.9999999999999971,1,0.999245
1.0,1,0.999305
0.9999999999999992,1,0.999290
0.9999999999999977,1,0.999315
1.0,1,0.999288
1.0,1,0.999378
1.0,1,0.999393
1.0,1,0.999346
1.0,1,0.998946
1.0,1,0.999306
0.9999999999999984,1,0.999211
1.0,1,0.999118
0.9999999999999992,1,0.999277
0.9999999999999992,1,0.998765
0.9999999999999999,1,0.999301
1.0,1,0.999111
0.9999999999999991,1,0.999311
1.0,1,0.999398
1.0,1,0.999342
0.9999999999999957,1,0.999330
0.9999999999999999,1,0.999342
1.0,1,0.999287
0.9999999999999984,1,0.999231
0.9999999999999993,1,0.999228
1.0,1,0.999288
0.9999999999999997,1,0.999415
1.0,1,0.999363
0.9999999999999983,1,0.999267
0.9999999999999966,1,0.999335
0.9999999999999998,1,0.999314
0.9999999999999978,1,0.998902
0.999999999999999,1,0.998789
1.0,1,0.999206
0.9999999999999981,1,0.999361
1.0,1,0.999310
0.9999999999999978,1,0.999347
0.9999999999999951,1,0.999316
1.0,1,0.999405
0.9999999999999971,1,0.999155
1.0,1,0.999235
1.0,1,0.999274
1.0,1,0.999242
1.0,1,0.999370
1.0,1,0.999299
0.9999999999999982,1,0.999277
1.0,1,0.998789
1.0,1,0.999305
0.9999999999999964,1,0.999398
0.9999999999999997,1,0.999335
1.0,1,0.999281
0.9999999999999946,1,0.999331
0.9999999999999996,1,0.999320
1.0,1,0.999316
1.0,1,0.999421
1.0,1,0.999472
1.0,1,0.999329
1.0,1,0.999185
0.9999999999999981,1,0.999254
0.9999999999999991,1,0.999399
1.0,1,0.999266
1.0,1,0.999358
0.9999999999999939,1,0.999191
1.0,1,0.999232
0.9999999999999996,1,0.999317
0.9999999999999974,1,0.999419
1.0,1,0.998942
1.0,1,0.999256
0.9999999999999984,1,0.999230
0.9999999999999998,1,0.999300
1.0,1,0.999078
0.9999999999999976,1,0.999380
1.0,1,0.999214
1.0,1,0.999387
1.0,1,0.999272
1.0,1,0.999371
1.0,1,0.999367
1.0,1,0.999380
1.0,1,0.999043
1.0,1,0.999422
1.0,1,0.999338
0.9999999999999996,1,0.999285
1.0,1,0.999147
1.0,1,0.999372
0.9999999999999969,1,0.998999
1.0,1,0.999308
0.9999999999999953,1,0.999210
0.999999999999997,1,0.998569
0.9999999999999991,1,0.999330
0.9999999999999974,1,0.999305
0.9999999999999976,1,0.999246
0.999999999999994,1,0.999369
0.9999999999999986,1,0.998943
0.9999999999999983,1,0.998663
1.0,1,0.999381
0.9999999999999962,1,0.999301
0.9999999999999988,1,0.999357
1.0,1,0.999295
1.0,1,0.999288
0.999999999999996,1,0.999172
1.0,1,0.999364
1.0,1,0.999357
0.9999999999999998,1,0.999148
1.0,1,0.999365
1.0,1,0.999478
0.9999999999999977,1,0.999345
0.9999999999999981,1,0.999189
0.9999999999999978,1,0.999414
0.9999999999999983,1,0.998974
1.0,1,0.999245
1.0,1,0.999116
0.9999999999999998,1,0.999110
0.999999999999999,1,0.999358
1.0,1,0.999365
1.0,1,0.999175
1.0,1,0.999324
1.0,1,0.999331
1.0,1,0.999274
1.0,1,0.999351
0.9999999999999983,1,0.998929
0.9999999999999943,1,0.999208
1.0,1,0.999382
0.9999999999999994,1,0.999086
1.0,1,0.999349
1.0,1,0.999327
0.9999999999999993,1,0.999396
0.9999999999999993,1,0.999371
1.0,1,0.999323
1.0,1,0.999061
1.0,1,0.999412
1.0,1,0.999326
1.0,1,0.999268
1.0,1,0.999204
0.9999999999999986,1,0.999375
0.9999999999999976,1,0.999284
1.0,1,0.999214
1.0,1,0.999379
0.9999999999999941,1,0.999307
1.0,1,0.999286
0.9999999999999962,1,0.999267
1.0,1,0.999134
0.9999999999999993,1,0.999139
1.0,1,0.999399
0.9999999999999982,1,0.999180
1.0,1,0.999260
1.0,1,0.999299
1.0,1,0.999319
1.0,1,0.999335
0.9999999999999979,1,0.999349
1.0,1,0.999322
1.0,1,0.999200
0.999999999999999,1,0.999366
1.0,1,0.999248
0.9999999999999992,1,0.999081
1.0,1,0.999328
1.0,1,0.999336
1.0,1,0.999425
0.9999999999999969,1,0.999150
1.0,1,0.999360
1.0,1,0.999339
0.9999999999999951,1,0.999088
1.0,1,0.998804
1.0,1,0.999296
0.9999999999999956,1,0.998874
0.9999999999999981,1,0.999228
0.9999999999999957,1,0.999293
1.0,1,0.999046
1.0,1,0.999396
1.0,1,0.999343
1.0,1,0.999392
0.9999999999999967,1,0.999209
1.0,1,0.999277
0.999999999999999,1,0.999265
1.0,1,0.998871
1.0,1,0.999348
1.0,1,0.999139
1.0,1,0.999264
0.9999999999999994,1,0.999203
1.0,1,0.999058
0.999999999999994,1,0.999222
0.9999999999999976,1,0.999316
0.9999999999999992,1,0.999320
1.0,1,0.999334
1.0,1,0.999118
1.0,1,0.999179
0.9999999999999956,1,0.999367
1.0,1,0.999005
1.0,1,0.999164
1.0,1,0.999448
1.0,1,0.999319
0.9999999999999972,1,0.999359
1.0,1,0.999365
1.0,1,0.999334
1.0,1,0.999153
1.0,1,0.999125
1.0,1,0.999353
1.0,1,0.999328
1.0,1,0.999327
0.9999999999999999,1,0.999277
0.9999999999999977,1,0.999255
0.9999999999999978,1,0.999074
0.9999999999999986,1,0.999384
1.0,1,0.999307
0.9999999999999991,1,0.999377
0.9999999999999997,1,0.999328
1.0,1,0.999233
0.999999999999999,1,0.999199
1.0,1,0.999384
1.0,1,0.999340
0.9999999999999981,1,0.999368
0.9999999999999997,1,0.999277
0.999999999999997,1,0.999178
0.9999999999999979,1,0.999357
0.9999999999999992,1,0.999274
1.0,1,0.998981
0.9999999999999981,1,0.999343
1.0,1,0.999124
1.0,1,0.999405
1.0,1,0.999267
1.0,1,0.999339
1.0,1,0.999263
0.9999999999999971,1,0.998885
1.0,1,0.999276
0.9999999999999969,1,0.999278
0.9999999999999987,1,0.999181
0.9999999999999979,1,0.999354
1.0,1,0.999209
1.0,1,0.999333
1.0,1,0.999240
0.9999999999999964,1,0.999394
0.999999999999999,1,0.999318
0.999999999999997,1,0.999285
0.9999999999999976,1,0.999354
0.9999999999999997,1,0.999284
0.9999999999999997,1,0.999253
1.0,1,0.999303
0.9999999999999967,1,0.999398
0.9999999999999986,1,0.999388
0.9999999999999982,1,0.999283
0.9999999999999982,1,0.999339
1.0,1,0.999201
0.9999999999999992,1,0.999078
0.9999999999999968,1,0.999070
1.0,1,0.999337
0.9999999999999984,1,0.999004
1.0,1,0.999152
0.9999999999999976,1,0.999266
0.9999999999999974,1,0.999240
1.0,1,0.999402
0.9999999999999994,1,0.999044
1.0,1,0.999343
0.9999999999999976,1,0.999381
0.9999999999999997,1,0.999428
1.0,1,0.999147
0.9999999999999967,1,0.999380
1.0,1,0.999325
1.0,1,0.999204
0.9999999999999968,1,0.998987
0.9999999999999982,1,0.999255
0.9999999999999997,1,0.999356
1.0,1,0.999148
0.9999999999999998,1,0.999137
0.9999999999999994,1,0.999316
1.0,1,0.999198
1.0,1,0.998951
0.9999999999999976,1,0.998995
0.9999999999999973,1,0.999328
1.0,1,0.999376
0.9999999999999989,1,0.999120
1.0,1,0.999058
0.9999999999999968,1,0.999204
1.0,1,0.999326
1.0,1,0.999294
0.9999999999999998,1,0.999408
1.0,1,0.999155
1.0,1,0.999086
0.999999999999999,1,0.999444
1.0,1,0.999241
1.0,1,0.999302
0.9999999999999984,1,0.999336
0.9999999999999989,1,0.999125
0.9999999999999966,1,0.999178
1.0,1,0.999328
0.9999999999999971,1,0.999358
1.0,1,0.999356
0.999999999999999,1,0.999350
1.0,1,0.999147
0.9999999999999989,1,0.999162
1.0,1,0.999362
1.0,1,0.999242
0.9999999999999984,1,0.999097
1.0,1,0.999152
1.0,1,0.999348
1.0,1,0.999296
0.9999999999999984,1,0.999342
0.9999999999999977,1,0.998819
0.9999999999999997,1,0.999344
1.0,1,0.999118
1.0,1,0.999229
0.9999999999999992,1,0.999190
1.0,1,0.999383
0.9999999999999989,1,0.999165
1.0,1,0.999127
1.0,1,0.999132
1.0,1,0.999349
1.0,1,0.999003
0.9999999999999981,1,0.999301
1.0,1,0.999118
1.0,1,0.999364
1.0,1,0.999347
0.9999999999999994,1,0.999356
1.0,1,0.999292
0.9999999999999952,1,0.999396
1.0,1,0.999290
0.9999999999999999,1,0.999350
0.9999999999999989,1,0.999190
1.0,1,0.999334
0.999999999999999,1,0.999135
0.9999999999999998,1,0.999266
1.0,1,0.998897
1.0,1,0.999216
0.9999999999999983,1,0.999191
1.0,1,0.999118
0.9999999999999968,1,0.999050
0.9999999999999983,1,0.999311
1.0,1,0.999061
1.0,1,0.999157
0.9999999999999934,1,0.999292
1.0,1,0.999183
1.0,1,0.999332
0.9999999999999978,1,0.999309
0.9999975495167767,1,0.999351
1.0,1,0.999224
1.0,1,0.999184
0.9999999999999967,1,0.999053
0.9999999999999999,1,0.999237
0.9999999999999958,1,0.999413
0.9999999999999981,1,0.999335
1.0,1,0.999259
0.9999999999999983,1,0.999384
1.0,1,0.999373
1.0,1,0.999303
0.999999999999999,1,0.999263
0.9999999999999987,1,0.998943
0.9999999999999968,1,0.999274
0.9999999999999951,1,0.999402
0.999999999999998,1,0.999186
0.9999999999999992,1,0.999070
1.0,1,0.999349
1.0,1,0.999077
1.0,1,0.999248
0.9999999999999992,1,0.999343
0.9999999999999984,1,0.999192
0.9999999999999999,1,0.999335
1.0,1,0.999223
1.0,1,0.999361
0.9999999999999966,1,0.999325
1.0,1,0.999331
1.0,1,0.998996
1.0,1,0.999342
0.9999999999999964,1,0.999324
0.999999999999999,1,0.999383
0.9999999999999963,1,0.999288
0.999999999999998,1,0.999296
0.9999999999999986,1,0.999249
0.9999999999999963,1,0.999316
0.9999999999999968,1,0.999323
0.9999999999999999,1,0.999293
1.0,1,0.999351
1.0,1,0.999297
1.0,1,0.999363
0.999999999999996,1,0.999074
1.0,1,0.999429
1.0,1,0.999441
0.9999999999999982,1,0.999378
1.0,1,0.999261
0.999999999999998,1,0.999219
1.0,1,0.999385
0.999999999999997,1,0.999348
0.9999999999999997,1,0.999310
1.0,1,0.999272
0.9999999999999982,1,0.999164
0.9999999999999994,1,0.999338
1.0,1,0.999276
1.0,1,0.999181
0.9999999999999933,1,0.999247
1.0,1,0.999296
0.9999999999999986,1,0.999225
0.9999999999999979,1,0.999197
1.0,1,0.999356
1.0,1,0.999346
0.9999999999999969,1,0.999160
1.0,1,0.999155
0.9999999999999984,1,0.999154
0.9999999999999964,1,0.999336
1.0,1,0.999267
0.9999999999999993,1,0.999388
0.9999999999999979,1,0.999104
0.9999999999999943,1,0.999318
0.9999999999999964,1,0.999286
1.0,1,0.999290
1.0,1,0.999296
1.0,1,0.999391
1.0,1,0.999142
0.9999999999999968,1,0.999340
0.9999999999999984,1,0.999328
1.0,1,0.999066
1.0,1,0.999349
0.9999999999999993,1,0.999366
1.0,1,0.999244
0.999999999999999,1,0.999369
1.0,1,0.999372
0.9999999999999947,1,0.999352
1.0,1,0.999387
0.9999999999999999,1,0.999336
0.9999999999999982,1,0.999361
0.9999999999999976,1,0.999417
0.9999999999999981,1,0.999349
1.0,1,0.999336
1.0,1,0.999425
1.0,1,0.999043
1.0,1,0.999238
1.0,1,0.999363
0.999999999999996,1,0.999339
1.0,1,0.999205
1.0,1,0.999267
0.9999999999999977,1,0.999368
0.9999999999999981,1,0.999327
0.9999999999999986,1,0.999375
0.9999999999999992,1,0.999007
1.0,1,0.999265
0.999999999999997,1,0.999337
0.9999999999999971,1,0.999437
0.9999999999999983,1,0.999208
1.0,1,0.999186
0.9999999999999999,1,0.999324
1.0,1,0.999346
1.0,1,0.999046
1.0,1,0.999280
1.0,1,0.999387
1.0,1,0.999312
1.0,1,0.999400
1.0,1,0.999028
1.0,1,0.999325
0.9999999999999968,1,0.999285
1.0,1,0.999142
1.0,1,0.999113
1.0,1,0.999300
0.9999999999999999,1,0.999293
1.0,1,0.999274
0.9999999999999999,1,0.999353
1.0,1,0.999193
1.0,1,0.998985
0.999999999999999,1,0.999306
1.0,1,0.999177
0.9999999999999999,1,0.999355
0.9999999999999996,1,0.998997
0.9999999999999986,1,0.999264
1.0,1,0.999344
0.9999999999999987,1,0.999314
0.9999999999999999,1,0.999347
0.999999999999996,1,0.999450
1.0,1,0.999374
0.9999999999999961,1,0.999304
1.0,1,0.999344
1.0,1,0.999322
0.9999999999999982,1,0.999396
1.0,1,0.999340
1.0,1,0.999124
1.0,1,0.999029
0.9999999999999954,1,0.999390
1.0,1,0.998985
0.9999999999999997,1,0.999281
1.0,1,0.999274
0.9999999999999999,1,0.999286
1.0,1,0.999171
1.0,1,0.999348
0.9999999999999996,1,0.999354
0.9999999999999968,1,0.999373
0.9999999999999996,1,0.999158
0.9999999999999962,1,0.999145
1.0,1,0.999104
1.0,1,0.999359
1.0,1,0.999184
1.0,1,0.999351
0.9999999999999959,1,0.999335
0.999999999999999,1,0.999361
1.0,1,0.999150
0.9999999999999977,1,0.999361
0.999999999999998,1,0.999282
1.0,1,0.999353
0.9999999999999984,1,0.999366
1.0,1,0.999189
0.9999999999999971,1,0.999364
0.9999999999999986,1,0.999215
1.0,1,0.999328
0.999999999999996,1,0.999416
1.0,1,0.999373
1.0,1,0.999237
1.0,1,0.999415
1.0,1,0.999343
0.9999999999999956,1,0.999382
1.0,1,0.999158
1.0,1,0.999278
0.9999999999999992,1,0.999160
1.0,1,0.999165
1.0,1,0.999313
1.0,1,0.999339
1.0,1,0.999425
0.9999999999999994,1,0.998750
0.9999999999999988,1,0.999408
0.999999999999998,1,0.999397
0.9999999999999979,1,0.999401
0.9999999999999971,1,0.999065
1.0,1,0.999331
0.9999999999999966,1,0.999342
0.9999999999999992,1,0.999287
0.9999999999999996,1,0.999400
1.0,1,0.999045
0.9999999999999998,1,0.999221
0.9999999999999973,1,0.999214
0.9999999999999978,1,0.999273
0.9999999999999986,1,0.999378
0.9999999999999979,1,0.999267
0.9999999999999994,1,0.999343
0.9999999999999992,1,0.999300
0.9999999999999988,1,0.999145
0.9999999999999929,1,0.999390
0.999999999999999,1,0.999342
1.0,1,0.999364
1.0,1,0.999402
0.9999999999999988,1,0.999330
1.0,1,0.999344
0.9999999999999996,1,0.999222
1.0,1,0.999328
0.9999999999999959,1,0.999354
1.0,1,0.999353
1.0,1,0.999167
0.9999999999999951,1,0.999446
0.9999999999999991,1,0.999184
0.9999999999999983,1,0.998829
1.0,1,0.999369
1.0,1,0.999042
1.0,1,0.999351
0.9999999999999973,1,0.999276
1.0,1,0.999234
1.0,1,0.999335
1.0,1,0.999224
1.0,1,0.999336
1.0,1,0.999342
1.0,1,0.999068
0.9999999999999988,1,0.999188
1.0,1,0.999158
1.0,1,0.999258
1.0,1,0.999205
1.0,1,0.999338
1.0,1,0.999296
0.9999999999999977,1,0.999240
1.0,1,0.999409
0.9999999999999983,1,0.998691
1.0,1,0.999008
0.9999999999999998,1,0.999341
1.0,1,0.999304
1.0,1,0.999061
1.0,1,0.999335
0.9999999999999982,1,0.999361
1.0,1,0.999250
1.0,1,0.999196
1.0,1,0.999203
1.0,1,0.999046
1.0,1,0.999182
1.0,1,0.999393
0.9999999999999993,1,0.999057
1.0,1,0.999306
1.0,1,0.999364
0.9999999999999986,1,0.999071
1.0,1,0.999411
1.0,1,0.999250
0.9999999999999987,1,0.999332
0.9999999999999991,1,0.999160
1.0,1,0.999377
0.9999999999999973,1,0.999322
0.999999999999997,1,0.999288
1.0,1,0.999310
0.9999999999999992,1,0.999334
0.9999999999999994,1,0.999275
1.0,1,0.999315
1.0,1,0.999326
0.9999999999999999,1,0.999406
1.0,1,0.999378
0.9999999999999972,1,0.999145
1.0,1,0.998786
1.0,1,0.999440
0.9999999999999978,1,0.998782
0.9999999999999987,1,0.999108
0.9999999999999968,1,0.999361
1.0,1,0.999143
0.9999999999999987,1,0.999225
0.999999999999997,1,0.999206
1.0,1,0.999408
0.9999999999999992,1,0.999284
0.9999999999999988,1,0.999184
1.0,1,0.999045
0.9999999999999974,1,0.999344
1.0,1,0.999136
0.9999999999999976,1,0.999302
1.0,1,0.999251
1.0,1,0.998922
1.0,1,0.999056
1.0,1,0.999265
0.9999999999999979,1,0.999201
0.9999999999999976,1,0.999373
1.0,1,0.999219
0.999999999999998,1,0.999203
1.0,1,0.999310
1.0,1,0.999309
1.0,1,0.998917
0.999999999999999,1,0.999322
0.9999999999999967,1,0.999428
0.9999999999999982,1,0.999347
1.0,1,0.999221
1.0,1,0.999273
1.0,1,0.999272
0.9999999999999968,1,0.998847
0.9999999999999986,1,0.999274
0.9999999999999994,1,0.999330
1.0,1,0.999354
0.9999946287825383,1,0.999339
0.9999999999999973,1,0.999204
0.999999999999995,1,0.999351
1.0,1,0.998828
1.0,1,0.999012
0.9999999999999976,1,0.999315
0.9999999999999999,1,0.999303
0.9999999999999964,1,0.999157
0.9999999999999981,1,0.999387
1.0,1,0.999370
0.9999999999999959,1,0.999399
1.0,1,0.999118
1.0,1,0.999093
1.0,1,0.999325
1.0,1,0.999316
0.9999999999999957,1,0.999262
0.999999999999995,1,0.999358
0.9999999999999997,1,0.999379
0.9999999999999947,1,0.999365
0.9999999999999981,1,0.999427
1.0,1,0.999364
1.0,1,0.998956
1.0,1,0.999235
0.9999999999999993,1,0.999132
1.0,1,0.999397
0.9999999999999957,1,0.999235
0.9999999999999992,1,0.999243
1.0,1,0.999413
1.0,1,0.999214
1.0,1,0.999017
0.9999999999999948,1,0.998918
1.0,1,0.999268
0.9999999999999968,1,0.999389
1.0,1,0.999342
1.0,1,0.999319
0.9999999999999967,1,0.999260
1.0,1,0.999013
0.9999999999999972,1,0.999296
1.0,1,0.999356
1.0,1,0.999298
0.9999999999999992,1,0.999270
0.999999999999997,1,0.999289
1.0,1,0.999355
0.9999999999999959,1,0.999361
0.9999999999999994,1,0.999342
1.0,1,0.999357
0.999999999999998,1,0.999288
1.0,1,0.999346
1.0,1,0.999389
1.0,1,0.999328
0.9999999999999998,1,0.999216
0.9999999999999986,1,0.999354
0.9999999999999971,1,0.999093
0.9999999999999963,1,0.999360
1.0,1,0.999177
1.0,1,0.999346
1.0,1,0.999235
0.9999999999999981,1,0.999284
1.0,1,0.999213
0.9999999999999992,1,0.999386
1.0,1,0.999204
1.0,1,0.999300
1.0,1,0.999385
1.0,1,0.999261
1.0,1,0.999409
0.9999999999999973,1,0.999412
0.9999999999999942,1,0.999192
1.0,1,0.999141
1.0,1,0.999272
1.0,1,0.999418
0.9999999999999989,1,0.999111
1.0,1,0.999198
0.9999999999999994,1,0.999303
0.9999999999999994,1,0.999157
1.0,1,0.999336
0.9999999999999999,1,0.999392
0.9999999999999947,1,0.999431
0.9999999999999974,1,0.999334
0.9999999999999998,1,0.999154
1.0,1,0.999397
0.9999999999999967,1,0.999225
1.0,1,0.999302
1.0,1,0.999281
1.0,1,0.999139
1.0,1,0.999334
0.9999999999999994,1,0.999225
0.9999999999999973,1,0.999194
0.9999999999999971,1,0.999283
1.0,1,0.999404
0.9999999999999976,1,0.999097
0.999999999999998,1,0.999303
0.9999999999999978,1,0.999217
1.0,1,0.998681
0.9999999999999981,1,0.999255
0.9999999999999992,1,0.999389
0.9999999999999978,1,0.999299
1.0,1,0.999168
0.999999999999998,1,0.999389
0.9999999999999987,1,0.999367
0.9999999999999982,1,0.999345
0.9999999999999999,1,0.999186
0.9999999999999997,1,0.999171
1.0,1,0.998864
0.9999999999999998,1,0.999429
1.0,1,0.999406
1.0,1,0.999167
1.0,1,0.999354
1.0,1,0.999278
1.0,1,0.999089
0.9999999999999986,1,0.998819
0.9999999999999987,1,0.999257
1.0,1,0.999321
1.0,1,0.999138
0.9999999999999984,1,0.999276
0.9999999999999997,1,0.999383
1.0,1,0.998950
1.0,1,0.999298
1.0,1,0.999342
1.0,1,0.999202
0.9999999999999979,1,0.999203
1.0,1,0.999222
0.9999999999999986,1,0.999225
1.0,1,0.999084
0.9999999999999991,1,0.998973
0.9999999999999986,1,0.999399
0.9999999999999998,1,0.999349
0.9999999999999982,1,0.999428
1.0,1,0.999346
0.9999999999999977,1,0.999290
0.9999999999999992,1,0.999351
1.0,1,0.999246
0.9999999999999977,1,0.999332
0.9999999999999952,1,0.999379
1.0,1,0.999018
1.0,1,0.999453
1.0,1,0.999334
0.9999999999999948,1,0.999250
1.0,1,0.999336
0.9999999999999961,1,0.999264
1.0,1,0.999298
0.9999999999999996,1,0.998905
0.999999999999999,1,0.999050
1.0,1,0.999046
0.999999999999999,1,0.999249
1.0,1,0.999302
0.9999999999999987,1,0.999114
0.9999999999999976,1,0.999156
1.0,1,0.999298
0.999999999999999,1,0.998966
1.0,1,0.999242
1.0,1,0.999195
1.0,1,0.999308
0.9999999999999972,1,0.999029
0.9999999999999973,1,0.999137
0.9999999999999944,1,0.998862
1.0,1,0.999219
1.0,1,0.999166
0.9999999999999997,1,0.999240
1.0,1,0.999015
1.0,1,0.999225
1.0,1,0.999178
0.9999999999999967,1,0.999222
1.0,1,0.999362
1.0,1,0.999251
1.0,1,0.999167
0.9999999999999971,1,0.999333
1.0,1,0.999388
1.0,1,0.999190
0.9999999999999994,1,0.999057
0.9999999999999994,1,0.999090
0.9999999999999983,1,0.999384
1.0,1,0.999269
0.9999999999999963,1,0.999263
0.9999999999999964,1,0.999095
0.9999999999999941,1,0.999284
1.0,1,0.999363
0.9999999999999994,1,0.999418
0.9999999999999942,1,0.999182
0.9999999999999989,1,0.999252
1.0,1,0.999279
0.9999999999999969,1,0.999287
0.9999999999999956,1,0.999343
0.9999999999999986,1,0.999347
1.0,1,0.999180
0.9999999999999984,1,0.999255
1.0,1,0.999134
0.9999999999999966,1,0.999416
0.9999999999999983,1,0.998681
0.9999999999999992,1,0.999002
1.0,1,0.999183
1.0,1,0.999357
1.0,1,0.999373
1.0,1,0.999404
1.0,1,0.999266
0.9999999999999992,1,0.998866
0.9999999999999991,1,0.999334
0.999999999999995,1,0.999268
0.9999999999999986,1,0.999232
0.999999999999997,1,0.999319
1.0,1,0.999307
0.9999999999999989,1,0.999259
0.999999999999997,1,0.999204
1.0,1,0.999276
1.0,1,0.999106
0.9999999999999976,1,0.999145
1.0,1,0.999239
1.0,1,0.999306
0.9999999999999971,1,0.999222
1.0,1,0.999322
0.9999999999999984,1,0.999277
1.0,1,0.999315
1.0,1,0.999195
1.0,1,0.999236
1.0,1,0.999328
0.999999999999998,1,0.999260
1.0,1,0.999240
0.9999999999999993,1,0.999210
1.0,1,0.999286
0.9999999999999982,1,0.999204
1.0,1,0.999371
0.9999999999999996,1,0.999211
1.0,1,0.999209
1.0,1,0.999458
0.9999999999999982,1,0.999158
0.9999999999999977,1,0.999330
1.0,1,0.999363
0.9999999999999961,1,0.999363
1.0,1,0.999182
1.0,1,0.999147
0.9999999999999983,1,0.999172
1.0,1,0.999302
0.9999999999999973,1,0.999097
0.9999999999999964,1,0.999337
0.9999999999999978,1,0.999394
1.0,1,0.999254
1.0,1,0.999194
0.9999999999999992,1,0.999201
1.0,1,0.999332
1.0,1,0.999379
1.0,1,0.999370
1.0,1,0.999004
1.0,1,0.999145
0.9999999999999966,1,0.999022
0.9999999999999987,1,0.999204
1.0,1,0.999273
1.0,1,0.999299
1.0,1,0.999162
1.0,1,0.999238
0.9999999999999992,1,0.999152
0.9999999999999996,1,0.999216
1.0,1,0.999228
1.0,1,0.999369
1.0,1,0.999397
0.9999999999999974,1,0.999290
0.9999999999999998,1,0.999299
0.9999999999999974,1,0.999178
0.9999999999999957,1,0.999280
1.0,1,0.999238
1.0,1,0.999380
0.9999999999999973,1,0.999253
0.9999999999999946,1,0.999354
1.0,1,0.999120
1.0,1,0.999126
0.9999999999999963,1,0.999302
1.0,1,0.999321
1.0,1,0.999095
1.0,1,0.999249
0.9999999999999993,1,0.999252
1.0,1,0.999165
1.0,1,0.999360
1.0,1,0.999365
0.9999999999999971,1,0.999292
0.9999999999999982,1,0.999174
0.9999999999999999,1,0.999180
1.0,1,0.999229
0.9999999999999988,1,0.999327
0.9999999999999986,1,0.999249
0.9999999999999992,1,0.999387
1.0,1,0.999379
0.9999999999999989,1,0.999234
1.0,1,0.999429
1.0,1,0.999293
0.9999999999999981,1,0.999116
0.9999999999999994,1,0.999320
0.999999999999996,1,0.999372
1.0,1,0.999244
1.0,1,0.999375
1.0,1,0.999335
1.0,1,0.999299
0.9999999999999988,1,0.999294
1.0,1,0.999294
1.0,1,0.999394
0.9999999999999983,1,0.999319
1.0,1,0.999293
0.9999999999999973,1,0.999157
1.0,1,0.999234
1.0,1,0.998866
0.9999999999999981,1,0.999124
0.9999999999999961,1,0.999373
0.9999999999999996,1,0.999331
0.9999999999999956,1,0.999421
1.0,1,0.999185
1.0,1,0.999374
0.9999999999999948,1,0.999356
1.0,1,0.998946
0.9999999999999988,1,0.999405
1.0,1,0.999243
0.9999999999999998,1,0.999155
1.0,1,0.999180
0.9999999999999983,1,0.999318
1.0,1,0.999160
1.0,1,0.999263
0.9999999999999988,1,0.999344
0.999999999999999,1,0.999290
0.999999999999996,1,0.999369
0.9999999999999999,1,0.999457
1.0,1,0.999160
0.9999999999999981,1,0.999339
0.9999999999999953,1,0.999098
1.0,1,0.999253
1.0,1,0.999388
1.0,1,0.999233
1.0,1,0.999434
0.9999999999999997,1,0.999293
0.9999999999999978,1,0.999083
1.0,1,0.999199
1.0,1,0.999105
0.9999999999999957,1,0.999413
0.9999999999999993,1,0.999172
0.9999999999999929,1,0.999375
0.9999999999999946,1,0.999334
1.0,1,0.999226
0.9999999999999968,1,0.998972
0.9999999999999996,1,0.999282
1.0,1,0.999264
0.9999999999999963,1,0.999186
1.0,1,0.999270
0.9999999999999962,1,0.999353
1.0,1,0.999400
0.9999999999999966,1,0.999231
1.0,1,0.999234
1.0,1,0.999254
1.0,1,0.999309
1.0,1,0.999149
0.9999999999999978,1,0.999266
0.9999999999999989,1,0.999356
0.9999999999999986,1,0.999148
0.9999999999999972,1,0.999245
0.9999999999999977,1,0.999305
0.999999999999995,1,0.999023
0.9999999999999993,1,0.999344
1.0,1,0.999273
0.9999999999999962,1,0.999189
0.9999999999999983,1,0.999351
1.0,1,0.999304
0.9999999999999963,1,0.999365
1.0,1,0.999333
1.0,1,0.999308
1.0,1,0.999323
1.0,1,0.999243
1.0,1,0.999323
1.0,1,0.999081
1.0,1,0.999183
0.9999999999999996,1,0.999222
1.0,1,0.999305
1.0,1,0.999252
0.9999999999999999,1,0.999321
0.9999999999999994,1,0.999084
1.0,1,0.998913
1.0,1,0.999212
1.0,1,0.999299
1.0,1,0.999295
0.999999999999997,1,0.999395
1.0,1,0.999229
1.0,1,0.999354
0.9999999999999959,1,0.999270
0.9999999999999987,1,0.998812
0.9999999999999997,1,0.999211
1.0,1,0.999374
1.0,1,0.999356
1.0,1,0.999336
0.9999999999999981,1,0.999076
1.0,1,0.999272
1.0,1,0.999402
0.9999999999999989,1,0.999394
0.9999999999999993,1,0.999237
0.9999999999999973,1,0.999371
0.9999999999999989,1,0.999331
1.0,1,0.998965
1.0,1,0.999336
1.0,1,0.999292
1.0,1,0.999296
0.9999999999999939,1,0.999327
0.9999999999999996,1,0.999336
1.0,1,0.999165
0.9999999999999998,1,0.999308
1.0,1,0.999296
1.0,1,0.999310
0.9999999999999991,1,0.999391
0.9999999999999983,1,0.998915
0.9999999999999952,1,0.999217
0.9999999999999986,1,0.999056
1.0,1,0.999332
0.9999999999999993,1,0.999251
1.0,1,0.999260
1.0,1,0.999162
1.0,1,0.999224
1.0,1,0.999315
0.9999999999999936,1,0.999269
1.0,1,0.999043
1.0,1,0.998893
1.0,1,0.999309
1.0,1,0.999330
1.0,1,0.999284
0.9999999999999964,1,0.999190
0.9999999999999998,1,0.999224
0.9999999999999983,1,0.999315
1.0,1,0.999332
1.0,1,0.998713
1.0,1,0.999276
0.9999999999999986,1,0.999147
0.9999999999999972,1,0.999248
1.0,1,0.999323
1.0,1,0.999319
1.0,1,0.999171
1.0,1,0.999245
1.0,1,0.998978
0.999999999999999,1,0.999360
1.0,1,0.999354
0.9999999999999972,1,0.999205
0.9999999999999988,1,0.999286
0.9999999999999997,1,0.999280
1.0,1,0.999425
1.0,1,0.999425
1.0,1,0.999285
1.0,1,0.999219
0.9999999999999974,1,0.999285
1.0,1,0.999308
1.0,1,0.999171
0.9999999999999981,1,0.999399
1.0,1,0.999165
1.0,1,0.999223
1.0,1,0.999350
0.9999999999999983,1,0.999310
1.0,1,0.999402
1.0,1,0.999205
0.9999999999999952,1,0.999184
1.0,1,0.998998
0.9999999999999978,1,0.999397
1.0,1,0.999377
1.0,1,0.999351
0.9999999999999964,1,0.999379
0.999999999999999,1,0.999321
1.0,1,0.999160
1.0,1,0.999285
0.9999999999999968,1,0.999091
0.9999999999999933,1,0.999188
0.9999999999999942,1,0.999276
1.0,1,0.999238
1.0,1,0.999327
1.0,1,0.999261
0.9999999999999973,1,0.999260
0.9999999999999962,1,0.999290
0.9999999999999968,1,0.999394
1.0,1,0.999361
1.0,1,0.999272
0.9999999999999974,1,0.999263
0.9999999999999966,1,0.999327
1.0,1,0.999278
1.0,1,0.999340
0.9999999999999994,1,0.999275
0.9999999999999963,1,0.999190
1.0,1,0.999225
0.9999999999999982,1,0.998915
0.9999999999999999,1,0.998996
0.9999999999999971,1,0.999463
0.9999999999999991,1,0.999281
0.9999999999999967,1,0.999375
1.0,1,0.999328
0.9999999999999998,1,0.999359
0.9999999999999978,1,0.999344
0.9999999999999959,1,0.999295
1.0,1,0.999377
0.9999999996698336,1,0.999186
1.0,1,0.999205
0.999999999999997,1,0.999335
1.0,1,0.999110
1.0,1,0.999154
1.0,1,0.999356
0.9999999999999981,1,0.999287
1.0,1,0.999218
1.0,1,0.999406
1.0,1,0.999379
1.0,1,0.999211
1.0,1,0.999235
0.9999999999999982,1,0.999380
1.0,1,0.999367
1.0,1,0.999280
1.0,1,0.999342
0.9999999999999988,1,0.999336
0.9999999999999951,1,0.999316
1.0,1,0.999386
1.0,1,0.999346
1.0,1,0.999376
0.9999999999999976,1,0.999325
1.0,1,0.999322
0.9999999999999993,1,0.999283
0.9999999999999996,1,0.999164
1.0,1,0.999314
1.0,1,0.999359
0.9999999999999959,1,0.999213
0.9999999999999969,1,0.999057
1.0,1,0.999295
1.0,1,0.999264
0.9999999999999992,1,0.999209
1.0,1,0.999217
1.0,1,0.999190
1.0,1,0.999266
1.0,1,0.999337
1.0,1,0.999173
0.9999999999999976,1,0.999304
0.9999999999999999,1,0.999277
0.9999999999999974,1,0.999319
0.9999999999999983,1,0.999297
0.999999999999998,1,0.999382
0.999999999999995,1,0.999276
1.0,1,0.998705
0.9999999999999997,1,0.999413
0.9999999999999992,1,0.999318
1.0,1,0.999241
1.0,1,0.999257
0.9999999999999989,1,0.999269
1.0,1,0.999295
0.9999999999999987,1,0.999268
0.9999999999999986,1,0.999337
0.9999999999999963,1,0.999249
1.0,1,0.999084
0.9999999999999949,1,0.999340
1.0,1,0.999250
0.9999999999999991,1,0.999197
1.0,1,0.999238
1.0,1,0.999305
1.0,1,0.999402
1.0,1,0.999253
1.0,1,0.999171
0.9999999999999996,1,0.999320
0.9999999999999994,1,0.999293
1.0,1,0.999267
1.0,1,0.999396
1.0,1,0.999351
0.9999999999999957,1,0.999350
1.0,1,0.999105
0.999999999999999,1,0.999286
0.9999999999999986,1,0.999329
0.9999999999999982,1,0.998968
0.9999999999999984,1,0.999356
1.0,1,0.999209
0.9999999999999961,1,0.999377
1.0,1,0.999307
0.9999999999999996,1,0.999347
0.9999999999999982,1,0.999404
0.9999999999999997,1,0.999427
0.9999999999999974,1,0.999408
1.0,1,0.999129
0.9999999999999961,1,0.999234
1.0,1,0.998957
0.9999999999999983,1,0.999325
0.9999999999999999,1,0.999301
1.0,1,0.999120
0.9999999999999996,1,0.999367
1.0,1,0.999211
0.9999999999999972,1,0.999327
0.9999999999999969,1,0.999150
1.0,1,0.999311
1.0,1,0.999264
0.9999999999999976,1,0.999312
0.9999999999999957,1,0.998966
0.9999999999999974,1,0.999171
0.9999999999999941,1,0.999134
1.0,1,0.999222
1.0,1,0.999118
1.0,1,0.999350
1.0,1,0.999317
0.9999999999999951,1,0.999421
0.9999999999999971,1,0.999118
1.0,1,0.999297
0.9999999999999977,1,0.999317
1.0,1,0.999343
0.999999999999999,1,0.999270
1.0,1,0.999390
1.0,1,0.999402
0.999999999999996,1,0.999314
1.0,1,0.999216
1.0,1,0.999308
0.9999999999999986,1,0.999316
1.0,1,0.999398
1.0,1,0.999390
0.9999999999999986,1,0.999351
0.999999999999999,1,0.999342
1.0,1,0.999382
1.0,1,0.999278
0.9999999999999966,1,0.999360
1.0,1,0.999333
0.9999999999999981,1,0.999280
1.0,1,0.999204
0.9999999999999954,1,0.999270
1.0,1,0.999312
0.9999999999999989,1,0.999241
1.0,1,0.999137
0.9999999999999949,1,0.999272
1.0,1,0.999133
0.9999999999999969,1,0.999233
0.9999999999999973,1,0.999065
1.0,1,0.999277
0.9999999999999984,1,0.999297
1.0,1,0.999076
0.9999999999999977,1,0.998742
0.9999999999999983,1,0.999307
1.0,1,0.999305
1.0,1,0.999150
1.0,1,0.999172
1.0,1,0.999281
1.0,1,0.999297
1.0,1,0.999164
1.0,1,0.999265
1.0,1,0.999246
1.0,1,0.999295
1.0,1,0.999241
0.9999999999999981,1,0.999228
0.999999999999997,1,0.998540
0.999999999999999,1,0.999317
1.0,1,0.999111
1.0,1,0.999395
1.0,1,0.999281
0.9999999999999989,1,0.999233
1.0,1,0.999255
1.0,1,0.999235
1.0,1,0.999331
1.0,1,0.999291
1.0,1,0.999261
1.0,1,0.999105
0.9999999999999992,1,0.999350
1.0,1,0.998895
1.0,1,0.999187
0.9999999999999963,1,0.999204
0.9999999999999974,1,0.998824
0.9999999999999989,1,0.998959
1.0,1,0.999296
1.0,1,0.999038
1.0,1,0.999035
0.9999999999999982,1,0.999142
