0.4487356224346193,0,0.926814
0.7110364576561984,0,0.989764
0.8682404650412278,1,0.996243
0.913395632578953,1,0.999121
0.9261965987794244,1,0.999220
0.9248085506457464,1,0.994862
0.9247482225099155,1,0.996580
0.9225110551074677,1,0.997619
0.921276154014253,1,0.999101
0.9198058762625339,1,0.998837
0.916886253077947,1,0.999170
0.9224266366880188,1,0.999354
0.9252217416945514,1,0.997358
0.925539708039738,1,0.999315
0.9255798970052396,1,0.990687
0.9262110438283719,1,0.999363
0.9267109924865521,1,0.997065
0.926770734231001,1,0.999327
0.925682482253323,1,0.999024
0.9251527396113208,1,0.999389
0.9233689399512733,1,0.998627
0.9224885972390298,1,0.999317
0.9211092354248701,1,0.999213
0.9369779002664882,1,0.999281
0.9365048437251602,1,0.999274
0.9353652496645292,1,0.997980
0.9338264982622504,1,0.999304
0.9324884089422912,1,0.998615
0.9306055671985957,1,0.999339
0.9282314040480203,1,0.998779
0.9259153895641546,1,0.999435
0.9245681740429397,1,0.999346
0.9235600573209942,1,0.999326
0.9226388810236928,1,0.999288
0.9215592774350987,1,0.999292
0.920418663928639,1,0.999242
0.9193989755599783,1,0.999340
0.9489981120197039,1,0.997529
0.9480876724691469,1,0.999333
0.9461675357690739,1,0.998120
0.9428521884875296,1,0.997996
0.9402881279517132,1,0.997124
0.9378464838156968,1,0.998450
0.9358760659396207,1,0.997854
0.9336655916681117,1,0.999001
0.9321379955793322,1,0.997691
0.9304370201289286,1,0.999145
0.9286136570893692,1,0.999319
0.9272492733611338,1,0.999315
0.9257923651858622,1,0.999321
0.9243651010893273,1,0.999331
0.9238253673755662,1,0.999293
0.9241699021913468,1,0.998591
0.9565197139728521,1,0.996321
0.9562733492699192,1,0.997337
0.9539310154703495,1,0.998684
0.9513682469878816,1,0.998976
0.9488614569522177,1,0.997636
0.9459312634509979,1,0.998589
0.9427598685615369,1,0.998298
0.9406901449884488,1,0.999389
0.9385868603445559,1,0.999357
0.9362838898364099,1,0.999159
0.9343689544022514,1,0.999379
0.9321681332596737,1,0.999389
0.9307407997302518,1,0.999337
0.9294769333785872,1,0.999268
0.9279666694091351,1,0.999205
0.9266092876340113,1,0.999211
0.9252287980158335,1,0.999016
0.9242008607810073,1,0.998575
0.9238734802685121,1,0.999220
0.9628936493410502,1,0.998718
0.9607039390148004,1,0.998359
0.9575235857035336,1,0.998148
0.9547715917965411,1,0.998602
0.9517192508450227,1,0.999117
0.9489639340442796,1,0.998621
0.9462801397882519,1,0.999355
0.9434215995491811,1,0.999333
0.9412223458883039,1,0.999328
0.9388465942800728,1,0.999389
0.9369225401056663,1,0.999356
0.9354922994984631,1,0.998638
0.9344638265449222,1,0.999297
0.9326745052854168,1,0.999350
0.9313887119406444,1,0.998932
0.9311147822958289,1,0.999322
0.9307265061372538,1,0.999363
0.9302259478832446,1,0.999254
0.9297528805564561,1,0.998603
0.9291661522018158,1,0.999385
0.9673046504636968,1,0.998557
0.964813274770153,1,0.999268
0.9619060718578204,1,0.999251
0.9588764523469578,1,0.997620
0.9558273712880216,1,0.999387
0.9531753460695372,1,0.998654
0.9505515726440408,1,0.997429
0.9478234305942069,1,0.999388
0.9448353310705268,1,0.999375
0.9426012582515654,1,0.999237
0.9408941017307952,1,0.999298
0.9390318524365212,1,0.999382
0.9370934438396389,1,0.999254
0.9354909832132762,1,0.999385
0.9337022984483908,1,0.997699
0.9322398634755903,1,0.998741
0.931372968853217,1,0.999320
0.9302678245574956,1,0.999206
0.9294082054449858,1,0.999384
0.9279193614265814,1,0.999381
0.9270930405571105,1,0.999341
0.9261992652731916,1,0.999225
0.9694561601555691,1,0.999231
0.9676620494279644,1,0.998189
0.9652056889635864,1,0.999315
0.9625306895361588,1,0.999197
0.9594837206683701,1,0.999188
0.9566192798306601,1,0.996532
0.9531974718029365,1,0.999369
0.9499315348630322,1,0.998569
0.948288192051814,1,0.998776
0.9471885698131007,1,0.999351
0.9467978004737324,1,0.998314
0.9455783087333289,1,0.999327
0.943827142688202,1,0.998645
0.9425698877640981,1,0.999227
0.9418349218786828,1,0.999387
0.9401510142595911,1,0.999298
0.9387665172132795,1,0.999251
0.9376933982412591,1,0.998615
0.9369590108527575,1,0.999433
0.9361526273409508,1,0.999382
0.935107217150804,1,0.999317
0.9341150837693573,1,0.999323
0.9332827825075789,1,0.999247
0.932461281643649,1,0.998605
0.9317326914287672,1,0.999275
0.9715998136962558,1,0.998072
0.970078479264459,1,0.999324
0.9679542137872127,1,0.998739
0.9652507230787466,1,0.999358
0.9623176608425668,1,0.999325
0.9597891616717801,1,0.999389
0.9577457179688139,1,0.999220
0.9552199956325854,1,0.999252
0.952436879769991,1,0.999195
0.949840588399877,1,0.999362
0.9469695692729714,1,0.998636
0.9450083963974735,1,0.998051
0.943603618362466,1,0.999329
0.9421354861732505,1,0.999379
0.9406545989523146,1,0.999275
0.9399213638168028,1,0.999224
0.9387554879565173,1,0.999270
0.9371893613598098,1,0.999410
0.9360135248942206,1,0.999328
0.9348536274314315,1,0.999330
0.933597326910623,1,0.996044
0.9326233163871812,1,0.999380
0.9317703957546049,1,0.999334
0.9312441990392639,1,0.999127
0.9304779581704999,1,0.999393
0.9293109199575107,1,0.999294
0.972391880314826,1,0.999194
0.9714649999550982,1,0.998435
0.9699001087784422,1,0.998111
0.9678018165670269,1,0.999366
0.9655642883369575,1,0.999197
0.9628389869204941,1,0.999368
0.9601978514267323,1,0.999251
0.9577983487549147,1,0.999165
0.9554107681175025,1,0.999237
0.9528958649570513,1,0.998077
0.9506468983016509,1,0.999195
0.9482245945753054,1,0.999240
0.9467265657936682,1,0.999318
0.9448511415851573,1,0.999281
0.9437387516347558,1,0.999343
0.9426415505051917,1,0.999250
0.9418174250280076,1,0.999288
0.9406082233955908,1,0.999333
0.9390057103878549,1,0.999358
0.9375247939016264,1,0.999110
0.9365082285834643,1,0.999229
0.9353921455504909,1,0.998720
0.9346025962497825,1,0.999235
0.9334552804646862,1,0.999233
0.9322666198880797,1,0.999321
0.9308676955222002,1,0.999129
0.9298338710175488,1,0.999373
0.9287939406972918,1,0.999263
0.9728297136521054,1,0.998399
0.9727802305289175,1,0.999354
0.9710555108908243,1,0.998769
0.9683203161228526,1,0.998491
0.9654633785304975,1,0.998737
0.9621730995834853,1,0.998759
0.9594057699371012,1,0.999328
0.956768137951864,1,0.999235
0.9541997250918461,1,0.999378
0.9513569087013904,1,0.999322
0.9492648624349326,1,0.999259
0.9471808380039867,1,0.999218
0.9449997888984388,1,0.999075
0.9436230428965889,1,0.999254
0.9420106155527923,1,0.999332
0.9401065942356546,1,0.999334
0.9385659308252841,1,0.999282
0.9372950955090912,1,0.999376
0.9359171112534144,1,0.998723
0.9340390132229922,1,0.999288
0.9324960360801359,1,0.999353
0.9309198479421843,1,0.999349
0.9311322054189428,1,0.999292
0.9314577375299604,1,0.999209
0.9315085174454131,1,0.999357
0.9313820786181881,1,0.999327
0.9312694678170359,1,0.999392
0.9311349337121134,1,0.999199
0.9308071217862162,1,0.999203
0.9306410456977944,1,0.998715
0.9306826292013018,1,0.999346
0.9715411091007292,1,0.999300
0.9704977298396126,1,0.999352
0.9687620083326609,1,0.998130
0.9665406343523593,1,0.999338
0.9638379939744404,1,0.998395
0.9612597353291696,1,0.999069
0.9588976568738398,1,0.999231
0.95643584129023,1,0.998725
0.9549045659090574,1,0.999305
0.9536604082848804,1,0.998739
0.951763573135331,1,0.999065
0.9500245562507078,1,0.999377
0.9484306791479261,1,0.999323
0.9470334799847857,1,0.998126
0.9455575644877451,1,0.999361
0.9445534580432485,1,0.998271
0.9435456943349171,1,0.999335
0.9421320523455509,1,0.999296
0.9408698778040828,1,0.999382
0.9395172555391375,1,0.997043
0.9380866832436231,1,0.999286
0.9369860191862338,1,0.999325
0.9360387813705138,1,0.997908
0.9357566725217271,1,0.994318
0.9352521598913375,1,0.999381
0.9343958617287437,1,0.999373
0.9335378838460826,1,0.998557
0.9329142263221457,1,0.999302
0.9321617291148299,1,0.999344
0.9313648227885454,1,0.999365
0.9308473796640764,1,0.999363
0.9301791889200327,1,0.999246
0.9711332233950515,1,0.999186
0.970463709980808,1,0.998493
0.969477458360674,1,0.998307
0.9677238150022139,1,0.999228
0.9659841856679544,1,0.999319
0.9639597303835081,1,0.999316
0.9615541441219928,1,0.999344
0.9587478448908993,1,0.999377
0.9567427254046275,1,0.999310
0.9545705847561701,1,0.998711
0.9525409814562952,1,0.999313
0.9511130540084894,1,0.999184
0.9495584543876454,1,0.999060
0.9479906364559726,1,0.999348
0.9460492404549947,1,0.999403
0.9444482611417712,1,0.997537
0.9431266099240255,1,0.999297
0.9418403445659917,1,0.999266
0.9404553777620169,1,0.999363
0.9394439643445204,1,0.999226
0.9386168192091376,1,0.999303
0.9374329450429957,1,0.999130
0.9365042282741923,1,0.999367
0.9355124713139751,1,0.997015
0.9342762428416669,1,0.999370
0.9333114217677145,1,0.997475
0.9322361027005848,1,0.999292
0.930920481119079,1,0.999307
0.9300754284216439,1,0.999155
0.928989627043574,1,0.999374
0.9286689139199158,1,0.999365
0.9285212762412501,1,0.999316
0.9284120693861305,1,0.999293
0.9281115745076295,1,0.999391
0.927901639193515,1,0.998780
0.9709980967373265,1,0.999145
0.9705984568506622,1,0.998599
0.9691153770703518,1,0.999308
0.9673187640543325,1,0.997638
0.965794656401771,1,0.998382
0.9638848172688571,1,0.999224
0.9616211132975121,1,0.999313
0.9593417716134156,1,0.999296
0.9568680253355324,1,0.999298
0.9546819077543092,1,0.999389
0.9527013257768495,1,0.999367
0.9507379006093727,1,0.999344
0.948461277480037,1,0.998141
0.9462363165205272,1,0.998335
0.9449276560937095,1,0.999328
0.9435846686059369,1,0.999319
0.9422238773346238,1,0.998742
0.9408731684788647,1,0.997665
0.9397779139997325,1,0.999331
0.9385852755793701,1,0.999286
0.9375593224269597,1,0.999139
0.9363119156484617,1,0.998096
0.9354425131012384,1,0.998129
0.9344889105555325,1,0.999237
0.933600823845184,1,0.999348
0.9327452752719116,1,0.999303
0.9316220926342962,1,0.999301
0.9309117431832374,1,0.999289
0.9304121514172179,1,0.999279
0.9293209980943715,1,0.999361
0.9282064124917215,1,0.999394
0.9270960103935638,1,0.999339
0.9259052337352857,1,0.999392
0.9254998201792337,1,0.999386
0.9250064320285118,1,0.999382
0.9245759945289609,1,0.999363
0.9678185064579394,1,0.999130
0.9689398462735772,1,0.998124
0.9688019857535445,1,0.998652
0.9680679804474519,1,0.998101
0.9671019271626,1,0.997924
0.965691315582678,1,0.998515
0.9641655599370557,1,0.999159
0.9622792706384812,1,0.998851
0.9604659823781854,1,0.998498
0.958955571782058,1,0.999058
0.9573151582349054,1,0.999081
0.9557569282936619,1,0.999246
0.9540485407004768,1,0.998779
0.9526347552782504,1,0.999352
0.9507019040385787,1,0.999285
0.9488556338630044,1,0.999349
0.9471359297952727,1,0.998789
0.945884217145564,1,0.999330
0.94445620809682,1,0.999326
0.9431355004185711,1,0.999246
0.9420129479787669,1,0.998704
0.9408061233763138,1,0.999326
0.9398397190486432,1,0.999351
0.9385729597801621,1,0.999276
0.9375104229797843,1,0.999248
0.9365327718293415,1,0.999308
0.9357035979844194,1,0.999342
0.9348970522943817,1,0.999338
0.9342958130107145,1,0.999202
0.9333137353194512,1,0.999225
0.9323813063597005,1,0.999090
0.9313873857342512,1,0.999336
0.9303714565550688,1,0.999190
0.9295014303733434,1,0.999348
0.9284003199572521,1,0.999382
0.9279271442210324,1,0.999358
0.9282296567357072,1,0.999327
0.9283723071570975,1,0.999238
0.9648018986436415,1,0.996914
0.9657839743125178,1,0.997890
0.9656554735969206,1,0.998660
0.9648868059879804,1,0.999336
0.9635853359071425,1,0.995413
0.9621449647740649,1,0.999170
0.960627686491678,1,0.999174
0.9590960077661119,1,0.999294
0.9574892189577372,1,0.999203
0.9558929881979454,1,0.999161
0.9541634187447302,1,0.999224
0.9525102415640466,1,0.999342
0.9509947547905879,1,0.998749
0.9491364866477277,1,0.999363
0.9478344147216448,1,0.998724
0.9467756915607302,1,0.999305
0.9453228276369751,1,0.999351
0.944341846434911,1,0.999332
0.9431842770211148,1,0.999240
0.94193939631374,1,0.999330
0.9407795077273671,1,0.998095
0.9396931457732576,1,0.999349
0.9387280657717084,1,0.999297
0.9375712782484197,1,0.999289
0.9364682740357195,1,0.999310
0.9357014305195784,1,0.999314
0.9354481908590725,1,0.995619
0.9347266549039409,1,0.999283
0.933976855470549,1,0.999313
0.9331976366693935,1,0.999303
0.9326691179093307,1,0.999339
0.9320003478168715,1,0.999182
0.9312483431150383,1,0.999275
0.9306369336477996,1,0.998743
0.9300921846996758,1,0.999340
0.9295910431903728,1,0.999227
0.9292709648192271,1,0.999359
0.9287205989418474,1,0.999253
0.928221563491201,1,0.999222
0.9276729913922415,1,0.999269
0.9274285398755652,1,0.999380
0.9645131956346132,1,0.999142
0.9654267611649624,1,0.999313
0.9653483019050699,1,0.999197
0.9649694676796512,1,0.999077
0.963792071802815,1,0.999158
0.9623254678106637,1,0.998734
0.9604371248704667,1,0.999337
0.9588580200974521,1,0.997447
0.9577755668086939,1,0.998852
0.9571689069992625,1,0.998622
0.9563707336753517,1,0.999328
0.9553942424229266,1,0.999373
0.9543904413488054,1,0.999360
0.9530926090203788,1,0.999101
0.9517292252693004,1,0.999173
0.9505993102260192,1,0.999242
0.9495588836562113,1,0.998369
0.9486339725243059,1,0.999046
0.9476669690968195,1,0.994297
0.946656422050036,1,0.999357
0.9454871496696848,1,0.997875
0.9445654191156334,1,0.999140
0.9435326567062452,1,0.999373
0.942583811476171,1,0.997856
0.941839969531676,1,0.998326
0.9410655342393582,1,0.999337
0.9404809017695411,1,0.999326
0.9396643881521083,1,0.999311
0.9388284265539695,1,0.999323
0.9380062760680429,1,0.999298
0.9371406209016431,1,0.998657
0.9362812030417381,1,0.999147
0.935632535478889,1,0.999065
0.9348571871913647,1,0.999262
0.9342449700444897,1,0.999201
0.9336653536754351,1,0.999276
0.9332514815410713,1,0.999093
0.9329296137749806,1,0.999133
0.932229430374917,1,0.999123
0.9315656656405509,1,0.998960
0.930954266293174,1,0.998711
0.9303205613647958,1,0.999369
0.9596875316102326,1,0.997874
0.9631435106876327,1,0.999238
0.9644435126083305,1,0.999203
0.9644770667458296,1,0.999350
0.9639237111492137,1,0.999218
0.9635120543879852,1,0.999136
0.9624474222731437,1,0.999376
0.9614111000816258,1,0.997874
0.9596660091008274,1,0.997888
0.9582447562955763,1,0.997468
0.95682949723957,1,0.997506
0.955645709333578,1,0.999213
0.9540868630958094,1,0.999355
0.9526797220225118,1,0.999230
0.9511883330663453,1,0.999149
0.949590840640095,1,0.997526
0.9484727087168069,1,0.999232
0.9480390602357089,1,0.999270
0.9475779655394726,1,0.999341
0.9470709698672309,1,0.999351
0.9464396837725254,1,0.999098
0.9459801521700855,1,0.999271
0.9454996058718882,1,0.998894
0.9449011219228494,1,0.999318
0.944354549528047,1,0.999429
0.9435232933614897,1,0.999413
0.942946040517464,1,0.999275
0.9424161268503461,1,0.998951
0.9418465281572928,1,0.999410
0.941218413333048,1,0.997784
0.9405145455072126,1,0.999345
0.9399003649506409,1,0.999409
0.9393453678030417,1,0.999354
0.9389307526702291,1,0.999222
0.9383018369964835,1,0.998079
0.9378320678755696,1,0.999354
0.9372850036542802,1,0.999298
0.9366623980596367,1,0.999081
0.936151032057802,1,0.997565
0.935498242936512,1,0.999315
0.935035453568098,1,0.998762
0.9345286104719439,1,0.999310
0.9340734857734557,1,0.999216
0.9335901243667298,1,0.998709
0.9514478416375046,1,0.998262
0.956171270015425,1,0.999332
0.9591047093906363,1,0.999048
0.961105559998454,1,0.998394
0.9623083862009393,1,0.995032
0.962578364142299,1,0.998701
0.9622062072427122,1,0.999464
0.9620498597458659,1,0.998751
0.9616280005661432,1,0.999310
0.9609862777185838,1,0.999115
0.9599033660217496,1,0.999311
0.9588944143430672,1,0.998632
0.9577850675088925,1,0.998175
0.9566209573459781,1,0.998700
0.9552431804719184,1,0.998496
0.9537853350950032,1,0.998789
0.9525580321738041,1,0.999266
0.9515107064032704,1,0.999158
0.950278091878564,1,0.998639
0.94893681402354,1,0.997783
0.947466936416745,1,0.999362
0.9460582612820517,1,0.999323
0.9449098721970157,1,0.999346
0.9438900106849039,1,0.999162
0.9430572253815664,1,0.999327
0.9420566228772664,1,0.999097
0.9410625421194099,1,0.998701
0.9400114359033385,1,0.999374
0.9391790339131602,1,0.999332
0.9383676861318,1,0.999220
0.9376982861647791,1,0.998129
0.936896269625423,1,0.998720
0.9361270188156696,1,0.999359
0.9355041461756831,1,0.999214
0.9346663105317862,1,0.998703
0.934041414751822,1,0.999245
0.9333373366000522,1,0.998301
0.9326845170740079,1,0.999306
0.9320246298853825,1,0.999257
0.931205199911936,1,0.997760
0.930588019335675,1,0.996785
0.9301014933417242,1,0.999208
0.9302567035925899,1,0.999105
0.9302588193416852,1,0.998268
0.9303324696729351,1,0.999178
0.9303800189587459,1,0.999335
0.9304287846887822,1,0.998664
0.9493693065291713,1,0.998404
0.9522786581888174,1,0.998457
0.9547390888184022,1,0.999030
0.9564505022827967,1,0.999296
0.9579284683136955,1,0.999220
0.9585321567630416,1,0.998442
0.9585594717501353,1,0.997944
0.9579385828315349,1,0.999201
0.9571030467490904,1,0.999348
0.9563363108818518,1,0.999346
0.9555124852359614,1,0.999343
0.9544812463166663,1,0.999234
0.9535052194535724,1,0.999111
0.952737511919059,1,0.999273
0.9518420626828482,1,0.999320
0.9507817874441069,1,0.996995
0.9497926828796187,1,0.999284
0.9488268448013909,1,0.999350
0.9479294806132758,1,0.999127
0.9469793080591032,1,0.998632
0.9460068372310257,1,0.994106
0.9450510109282707,1,0.998672
0.9441441897414754,1,0.999300
0.9432050515841321,1,0.999310
0.9424146037721922,1,0.999300
0.9413692234536395,1,0.999162
0.9403643051647466,1,0.999328
0.9394809195258319,1,0.999166
0.9389350900761433,1,0.998759
0.9387178908878391,1,0.999314
0.9383119504209778,1,0.999338
0.9376957486489881,1,0.999141
0.9370873601534153,1,0.999362
0.9365099328991724,1,0.999275
0.9360034696310322,1,0.999307
0.9355369312778514,1,0.999079
0.9350048598110323,1,0.999301
0.9343106649713152,1,0.999283
0.9338743445557539,1,0.999094
0.9333675932202137,1,0.999165
0.9328078052391133,1,0.999265
0.9323809524327431,1,0.999276
0.9318935086218678,1,0.999266
0.9314204535674587,1,0.998436
0.9309217134409512,1,0.999228
0.9302701459763072,1,0.998145
0.9298552656641493,1,0.999251
0.9293770704504491,1,0.999199
0.9289427965047355,1,0.999191
0.9447517916252886,1,0.999333
0.9490151983606285,1,0.995668
0.9517829873856065,1,0.998454
0.9539468026770355,1,0.999330
0.9548672549867209,1,0.999121
0.9555075578301023,1,0.999130
0.9558774092186633,1,0.999097
0.9557482222441119,1,0.997866
0.9551616993792025,1,0.999292
0.954596086186024,1,0.999213
0.9540780113929599,1,0.999261
0.9532719869033196,1,0.998647
0.9525092580230474,1,0.999090
0.9522683404640604,1,0.998976
0.9521425966788294,1,0.999370
0.9517403748756007,1,0.998608
0.9512924758823239,1,0.999182
0.9504923339973308,1,0.999217
0.9499897268473818,1,0.997454
0.9493411007801993,1,0.999185
0.9484153060984417,1,0.998670
0.9475311906959422,1,0.999190
0.9465779818586784,1,0.999211
0.946000000424105,1,0.997951
0.9452925065123808,1,0.999317
0.9445192515498502,1,0.999266
0.9438362334770624,1,0.999346
0.9431878017241149,1,0.998382
0.9424705238442781,1,0.999114
0.9419017854771091,1,0.999106
0.9413421968145489,1,0.999231
0.9405699100578743,1,0.999324
0.939663190375385,1,0.999120
0.9389455819200423,1,0.999201
0.9382485996309836,1,0.999175
0.9376825017487457,1,0.999088
0.9372769490549815,1,0.999279
0.9366729143241926,1,0.998876
0.9359782795929537,1,0.998312
0.9353755391202058,1,0.999334
0.9348273448161845,1,0.999237
0.9342033171616744,1,0.998849
0.9337589180124568,1,0.998096
0.9331406573688426,1,0.999339
0.932715637301401,1,0.999356
0.9321414932672978,1,0.999343
0.9315757595132798,1,0.999127
0.9310844226933134,1,0.996929
0.9306175191732788,1,0.999248
0.9301665117381214,1,0.999171
0.9347221904651367,1,0.999317
0.9415163604613934,1,0.995215
0.9460076793297835,1,0.996047
0.9490320526010393,1,0.999276
0.9514422520057029,1,0.995643
0.9528350331351053,1,0.999245
0.9539015114660583,1,0.999353
0.9540078225901708,1,0.999220
0.9541919261088098,1,0.998556
0.9542721055557845,1,0.997957
0.9545477789399414,1,0.999230
0.9542240067739681,1,0.999175
0.9537788067162866,1,0.999210
0.9535967688510179,1,0.998764
0.953247430250409,1,0.998216
0.9525114237180121,1,0.999335
0.9515851213441662,1,0.998280
0.950527815441104,1,0.999388
0.9496113989228384,1,0.999156
0.9488407847973266,1,0.999309
0.947988145206148,1,0.998348
0.9469938365370555,1,0.999336
0.9460312795416088,1,0.998735
0.944903753116897,1,0.999322
0.9438094804474877,1,0.998444
0.9429105053692873,1,0.998703
0.9420315273376092,1,0.999333
0.9412729191227933,1,0.998492
0.9404766760608716,1,0.999277
0.9395995044259394,1,0.999315
0.9389286905989043,1,0.999255
0.9382309316311778,1,0.998605
0.9375675087383782,1,0.999327
0.9364909791887709,1,0.999274
0.9356521419802011,1,0.997721
0.9348823906399947,1,0.999224
0.9342524126541626,1,0.999344
0.9334742457111762,1,0.998912
0.9330660343965618,1,0.999131
0.9325350898299359,1,0.999195
0.9320508297295592,1,0.998068
0.931447447169982,1,0.999224
0.9307638251196992,1,0.999270
0.9302554476738665,1,0.999273
0.9296923513048966,1,0.999363
0.9290065167900486,1,0.999270
0.928263231321091,1,0.999159
0.9273552579774094,1,0.999307
0.9267682659221299,1,0.999065
0.9261153660318497,1,0.999155
0.9256828233232629,1,0.998798
0.9255612768764984,1,0.999311
0.9260359696050353,1,0.999246
0.9293855780698861,1,0.994660
0.9357281331725714,1,0.999190
0.9408272757878979,1,0.999329
0.9454462973227634,1,0.997547
0.9487864417060478,1,0.999322
0.9510481824100757,1,0.997522
0.9525344556499774,1,0.996506
0.9537051613941061,1,0.999113
0.9544094364987928,1,0.998593
0.95452601366036,1,0.997344
0.9543252066305957,1,0.997428
0.9541357829309565,1,0.999117
0.9538544682840262,1,0.998656
0.9532233889068207,1,0.999257
0.952608233357709,1,0.999182
0.9523475392587385,1,0.998662
0.9518031946726796,1,0.999038
0.9512170430301755,1,0.998738
0.9505029823923203,1,0.999208
0.9498944104090419,1,0.999195
0.9491746258367231,1,0.998953
0.9483325680676471,1,0.997862
0.9474155258563977,1,0.998572
0.9466569795845992,1,0.999211
0.945795887181531,1,0.997363
0.9453331264579821,1,0.998677
0.9447243374556484,1,0.997713
0.9440886902235137,1,0.997434
0.9434069386617673,1,0.997419
0.9428589151660433,1,0.999279
0.9421604915578496,1,0.999325
0.941418657244619,1,0.999308
0.9407662853362816,1,0.999244
0.9405443761448345,1,0.998507
0.9403082711952907,1,0.999302
0.9398852483652781,1,0.998737
0.9395526485180165,1,0.999331
0.9390822914016184,1,0.999302
0.9386181520503651,1,0.999307
0.9382001036069728,1,0.999375
0.9377378712223978,1,0.999252
0.9373985184173622,1,0.999337
0.9370970911382126,1,0.999244
0.9367010059995903,1,0.999141
0.9363665856728015,1,0.999321
0.9360109510908009,1,0.999328
0.9356261920197909,1,0.999328
0.9352689913944168,1,0.999158
0.9348447353240561,1,0.998560
0.9344068206494959,1,0.998947
0.9339965919977754,1,0.999276
0.933764612395655,1,0.999270
0.9334250511311503,1,0.999248
0.9331626676811866,1,0.999269
0.9329320344389673,1,0.999329
0.928141321096738,1,0.996318
0.935442654210962,1,0.999241
0.9410498542293116,1,0.999136
0.9455247571796456,1,0.996416
0.9493119535027126,1,0.995423
0.951749873250984,1,0.999315
0.953554852513528,1,0.998711
0.9547907910585011,1,0.997970
0.9556557815482859,1,0.999264
0.9559826160371883,1,0.999338
0.9563029668933322,1,0.999330
0.9557777968165458,1,0.999214
0.9554067336830614,1,0.999339
0.9546790677492294,1,0.999321
0.9542445197697443,1,0.997416
0.9538895095840874,1,0.998606
0.9534285396089838,1,0.998540
0.9529845305785154,1,0.997378
0.9525038416212794,1,0.999293
0.9521331496302271,1,0.999349
0.9515672399208547,1,0.999348
0.9511025891876714,1,0.999198
0.9506367355878759,1,0.998613
0.9500616978795899,1,0.999324
0.9494260509483342,1,0.997970
0.9486536784519545,1,0.998555
0.9480248782681775,1,0.999339
0.9473468618781508,1,0.999305
0.9468267594570531,1,0.999315
0.9462228239247361,1,0.999200
0.9455602791233163,1,0.999242
0.944891382349061,1,0.999273
0.944274395899625,1,0.999339
0.943667867421683,1,0.998129
0.9432677555056861,1,0.998497
0.9427890695555461,1,0.999237
0.9421795868863815,1,0.999283
0.9414460062105877,1,0.999305
0.9406921189969601,1,0.998705
0.940042973247695,1,0.999325
0.9394817005960795,1,0.999434
0.9390460744786802,1,0.999338
0.9385244272618896,1,0.999267
0.9380080979450777,1,0.999171
0.9376183313931271,1,0.999290
0.9371603015385971,1,0.999300
0.9366027885736253,1,0.999153
0.9360824335362453,1,0.999344
0.93554052962741,1,0.999291
0.9351678079213654,1,0.999332
0.93457821280506,1,0.999261
0.9341326377210875,1,0.999174
0.9336793781111381,1,0.999130
0.9332537320242199,1,0.999111
0.9327738547056127,1,0.999307
0.9322929350401148,1,0.998711
0.9318758544278388,1,0.998597
0.9310850056993069,1,0.999279
0.9371528205820906,1,0.999278
0.9412734884719511,1,0.998704
0.9445489824726457,1,0.999279
0.9471541364874408,1,0.999310
0.9493265430679367,1,0.998742
0.9505811515050594,1,0.997338
0.9513791861885602,1,0.998615
0.9520864036992431,1,0.997314
0.9522215378606745,1,0.998138
0.9524577603327492,1,0.996811
0.9520168878778671,1,0.999311
0.951365768720725,1,0.997922
0.9505834387851877,1,0.999343
0.9500109862997359,1,0.997476
0.9496687405318084,1,0.997555
0.9498382477004725,1,0.999325
0.9499151643769544,1,0.999286
0.9498394286083702,1,0.998527
0.949852945046998,1,0.998968
0.949470816915773,1,0.999316
0.9491354789317599,1,0.998521
0.9486791088878671,1,0.997902
0.9481415104577587,1,0.999268
0.9477805698941077,1,0.998589
0.947383839997259,1,0.999131
0.9468154173552009,1,0.999255
0.9463685695805356,1,0.999373
0.9457763386155474,1,0.998596
0.9452826029638993,1,0.998239
0.9446425482565224,1,0.998609
0.944007316410198,1,0.999262
0.9434429374247659,1,0.999330
0.9430082068836206,1,0.998724
0.9425323349456929,1,0.999336
0.9420896315239283,1,0.999404
0.9415908626345908,1,0.999135
0.9410592324003489,1,0.999340
0.9404979068660981,1,0.998348
0.9399804100047854,1,0.999329
0.9394724510919902,1,0.999319
0.938990782207477,1,0.999349
0.9385292003723658,1,0.999337
0.9379836731870004,1,0.999272
0.9372752910622244,1,0.998821
0.9368427175025478,1,0.999091
0.9362792827797206,1,0.999326
0.9356694436735817,1,0.999320
0.9351056347240057,1,0.999384
0.9344856714728739,1,0.999358
0.9338836080254102,1,0.999250
0.9336194269628637,1,0.999379
0.9333675138989285,1,0.999367
0.9329615618114141,1,0.999298
0.9325858365760367,1,0.999248
0.9322959856402129,1,0.999350
0.9319080424765064,1,0.999354
0.9315144547492157,1,0.999202
0.9311722832699334,1,0.999214
0.9323671375546562,1,0.999135
0.9373451361166151,1,0.995030
0.9408560969407023,1,0.999287
0.9443033415151166,1,0.995781
0.9471274824706396,1,0.996174
0.949418715761725,1,0.999188
0.9515231572629195,1,0.997211
0.9528893354690048,1,0.998648
0.9534930217590237,1,0.999058
0.9541008708433301,1,0.997306
0.954098210211126,1,0.999299
0.9539983416864787,1,0.999375
0.953955059145751,1,0.998542
0.9536592909895847,1,0.998746
0.9531253550373437,1,0.998520
0.9526510123396755,1,0.999368
0.952117478763972,1,0.997502
0.9516165397127352,1,0.999349
0.9511493736406587,1,0.998582
0.950494426988912,1,0.999038
0.9497750057926675,1,0.999174
0.9488498634884662,1,0.997976
0.9479417634679442,1,0.999167
0.9469045997306113,1,0.999305
0.9460890150676504,1,0.997658
0.9453448875230026,1,0.998653
0.9443114365170089,1,0.999116
0.9436296513293778,1,0.998507
0.943038115259537,1,0.999253
0.9420551112259805,1,0.998519
0.941348705773504,1,0.999281
0.9406226754523869,1,0.998516
0.9399447176192844,1,0.998487
0.9392400405293958,1,0.999242
0.9384669342563572,1,0.999174
0.937587237449064,1,0.999308
0.9376796864044735,1,0.998068
0.9376560752473271,1,0.999016
0.9376828876975788,1,0.999087
0.9375403736496549,1,0.999325
0.9375271749660826,1,0.998650
0.9373275909817166,1,0.999294
0.9370567506233148,1,0.999299
0.9368978295173397,1,0.997713
0.9366211834065585,1,0.999261
0.9364809638861215,1,0.999254
0.9363095315257333,1,0.999263
0.9360428936069373,1,0.999316
0.9357737337652671,1,0.999201
0.9356032070334503,1,0.999130
0.9353735071261539,1,0.999311
0.9352385600388281,1,0.999019
0.9349653253440877,1,0.999237
0.9346886632031606,1,0.999303
0.9344088441657503,1,0.999372
0.934150812024091,1,0.999223
0.9338282373915221,1,0.999309
0.9334659175414431,1,0.999320
0.9331470219260302,1,0.999293
0.9328198399943088,1,0.998105
0.9325216952326744,1,0.997845
0.9293144033013665,1,0.995597
0.935498070453228,1,0.999361
0.9401038053405844,1,0.999328
0.9441827683546704,1,0.999289
0.9469452957062817,1,0.998640
0.9491212378932856,1,0.995690
0.9505746587130934,1,0.999172
0.9519446491724016,1,0.998227
0.9530207390929732,1,0.997332
0.954012032089274,1,0.999340
0.954559229159264,1,0.999177
0.9547043195271058,1,0.999331
0.9547090781111631,1,0.999341
0.9543835499166974,1,0.996810
0.9536560020808641,1,0.999254
0.9529124860952496,1,0.999237
0.9524308771715745,1,0.997378
0.9519247858487175,1,0.997669
0.9512271229638474,1,0.998154
0.9506444579266337,1,0.999349
0.94967573180847,1,0.999346
0.9488699448529104,1,0.999275
0.9480167867467694,1,0.999175
0.947262849692153,1,0.998076
0.9465916253144326,1,0.999115
0.946008996065087,1,0.998492
0.9453629758963102,1,0.999259
0.9444954718184578,1,0.999365
0.943730226719775,1,0.999345
0.9429911427862652,1,0.999320
0.9423103413210926,1,0.998119
0.9416497013391104,1,0.999206
0.9409067379728926,1,0.998347
0.9402622941211017,1,0.999135
0.9393922448815556,1,0.998544
0.9387182791898107,1,0.998648
0.938202093423799,1,0.998644
0.9376816116296713,1,0.999306
0.9368983480574217,1,0.998593
0.9363176457964888,1,0.999307
0.935741844137283,1,0.999270
0.9349882811150038,1,0.999314
0.934293063156308,1,0.999306
0.9335082129364032,1,0.998130
0.9328262036383713,1,0.999249
0.932195603466946,1,0.999327
0.9321283186486417,1,0.999261
0.9320816889431194,1,0.999336
0.9321656490780473,1,0.999402
0.9320835785225865,1,0.999289
0.9318757564361357,1,0.998006
0.9317314901880872,1,0.997492
0.9318568480685857,1,0.999326
0.9317267814619141,1,0.998326
0.9316299442412002,1,0.999328
0.9315369633171391,1,0.999230
0.9314877905121638,1,0.997606
0.9314042658172131,1,0.999129
0.9311117891017539,1,0.999217
0.9308792376278456,1,0.999368
0.9307297825075487,1,0.999090
0.9306104060794892,1,0.999346
0.9176619336445972,1,0.999276
0.9249418721670397,1,0.999316
0.9314101371086081,1,0.999299
0.9363773895630135,1,0.995472
0.9406332057914758,1,0.996675
0.9444468623221971,1,0.995186
0.9476954486929633,1,0.999080
0.9494421423425152,1,0.999178
0.9506575883274557,1,0.999280
0.9516483848157956,1,0.997436
0.9521348218116825,1,0.997118
0.9522941352367236,1,0.999345
0.952731613149755,1,0.999117
0.9532973062621892,1,0.999263
0.9533524777000983,1,0.997426
0.9532968404655852,1,0.999273
0.952811061881207,1,0.999334
0.9524465440584984,1,0.999155
0.9520222588191907,1,0.999185
0.9515388914083437,1,0.999255
0.9507802211906826,1,0.998179
0.9499772584583146,1,0.999171
0.9491862411956832,1,0.999195
0.9482624493225708,1,0.999228
0.9472747410525435,1,0.999349
0.9467006573992908,1,0.997963
0.9459124655045674,1,0.999289
0.9452491800822227,1,0.999351
0.9442803874087332,1,0.999326
0.9438930816444207,1,0.999225
0.9434784449084214,1,0.999039
0.9431693553571843,1,0.998918
0.9427674624351957,1,0.998937
0.9422450731073593,1,0.999299
0.9418544467928052,1,0.998507
0.9413667378116557,1,0.998780
0.9409353557982894,1,0.998562
0.9404554407642854,1,0.999288
0.9399379805490972,1,0.999335
0.9393923338228048,1,0.998634
0.9387837469320193,1,0.999366
0.9382495568602769,1,0.998505
0.9376024442487958,1,0.999273
0.9369036526134187,1,0.998729
0.9364069547315377,1,0.998472
0.9358854015324755,1,0.997863
0.9353230521171488,1,0.999274
0.9346593404492576,1,0.999230
0.9341205390570233,1,0.999270
0.9335546941373122,1,0.999190
0.932996220614274,1,0.999133
0.9326093268548474,1,0.999288
0.9321969699615081,1,0.999176
0.931705648760171,1,0.998739
0.93126687641087,1,0.997911
0.9307380441703723,1,0.999066
0.9303550106816111,1,0.999308
0.929931828133946,1,0.998574
0.9296114449655685,1,0.999274
0.9292300846590277,1,0.999328
0.9287413089096531,1,0.999327
0.9282483983907452,1,0.999163
0.9276978676345229,1,0.999387
0.9272664408636774,1,0.997796
0.9268399633044223,1,0.999183
0.9148158739455354,1,0.998668
0.9218341041444568,1,0.995162
0.9294256045198585,1,0.999117
0.935827591071749,1,0.999204
0.9404645571410113,1,0.999040
0.9442745022929763,1,0.999196
0.9472463367139988,1,0.999367
0.9502314691580253,1,0.995856
0.9527175773192579,1,0.999245
0.9546980578313755,1,0.999250
0.9560296120844014,1,0.997495
0.9567872733718435,1,0.999232
0.9573877103606097,1,0.999252
0.9575108012421699,1,0.998065
0.957297737140021,1,0.999361
0.9569464836469807,1,0.997955
0.9563903927838773,1,0.997035
0.9558416838057064,1,0.997849
0.9553341047075986,1,0.998866
0.9548356410405324,1,0.999363
0.9543508806459986,1,0.997825
0.9537304439830863,1,0.999174
0.9528788182730469,1,0.999302
0.9519782557640896,1,0.998497
0.9509217611442692,1,0.999209
0.9501277547200423,1,0.999271
0.9494141588859579,1,0.999249
0.9486211221073464,1,0.999255
0.9478697581936918,1,0.998573
0.9472845255835903,1,0.999325
0.9466199565490061,1,0.999129
0.945902871528279,1,0.998687
0.9450735578710601,1,0.999324
0.9442965079975957,1,0.999139
0.9436267914704608,1,0.998101
0.9429270761936653,1,0.999330
0.9420694954050266,1,0.998519
0.9413171200855289,1,0.995475
0.9406298697867265,1,0.999176
0.9400551622950052,1,0.999322
0.9392752299505274,1,0.999325
0.9384739420401798,1,0.999319
0.9379454638830093,1,0.999270
0.9376004014761637,1,0.999328
0.9371497380217412,1,0.999342
0.9367334700129346,1,0.997500
0.9362080964677051,1,0.999351
0.9358762572574199,1,0.998453
0.9355847306649697,1,0.999352
0.9352561359719206,1,0.999121
0.9349752432234363,1,0.997888
0.934608739665407,1,0.998750
0.9341600209141038,1,0.999201
0.9339426658729819,1,0.998812
0.933559808810382,1,0.998051
0.9331693200389655,1,0.998602
0.9328049705117616,1,0.999347
0.9323529162014214,1,0.999365
0.931796173007873,1,0.999254
0.9313966032705783,1,0.999287
0.9308196180999188,1,0.999266
0.9304253944351122,1,0.999364
0.9299388192266267,1,0.999211
0.9295385146293341,1,0.999295
0.9292197696922931,1,0.999267
0.9286953086881132,1,0.999295
0.9282672639205173,1,0.998938
0.9089987751089852,0,0.993180
0.9167797983213756,1,0.999183
0.924085093495526,1,0.998628
0.9300837960589544,1,0.995723
0.9350154119446764,1,0.999317
0.9389672010452936,1,0.999189
0.9416945244107223,1,0.996209
0.9444191588192548,1,0.999365
0.9465931775180979,1,0.999346
0.9481324745029122,1,0.999327
0.9490297949479132,1,0.997155
0.949778210003526,1,0.997945
0.9503685205635032,1,0.999336
0.9506126600777189,1,0.998641
0.9504931118985389,1,0.999194
0.9502003012521828,1,0.997949
0.9499504824556503,1,0.999293
0.9497364467211705,1,0.998553
0.9492959934917836,1,0.999341
0.9488160505563893,1,0.998104
0.9481857163406604,1,0.998624
0.9476107044894575,1,0.997377
0.9467996648494175,1,0.998503
0.946880467733324,1,0.999309
0.9473647342537865,1,0.999329
0.9477827916894127,1,0.997905
0.9481602472334213,1,0.998104
0.9483815807518307,1,0.997834
0.9485400011007077,1,0.999198
0.9487020473635009,1,0.999264
0.9489395830860275,1,0.999343
0.9491765859909163,1,0.999314
0.9492294467360453,1,0.998582
0.9493141239455426,1,0.999267
0.9493730007783052,1,0.999239
0.9493548564355716,1,0.998493
0.9493349993828778,1,0.997884
0.949222653811472,1,0.998710
0.9490871658216921,1,0.997937
0.9489826759953807,1,0.999343
0.9488933618644237,1,0.998594
0.9486859868763703,1,0.999206
0.9485819578980743,1,0.999273
0.9484783948746253,1,0.998496
0.9482554692052286,1,0.998150
0.9479127488500194,1,0.999292
0.947634800132134,1,0.999261
0.9473519657619683,1,0.999130
0.9471098052654315,1,0.998572
0.9468830637845835,1,0.999335
0.9467648217652771,1,0.999259
0.9466056094391064,1,0.999061
0.9464801120756906,1,0.999308
0.9462782512937414,1,0.999320
0.9459760939679872,1,0.999214
0.94561346821658,1,0.999188
0.9453324386002937,1,0.998743
0.9449971769661628,1,0.999276
0.9447838795829651,1,0.998405
0.9445421296303749,1,0.998102
0.9442761762486872,1,0.998737
0.9441417752305246,1,0.999189
0.9440409003829386,1,0.999226
0.9438284971461428,1,0.999019
0.9436466484677517,1,0.999251
0.9434276187424239,1,0.998351
0.9432866823034841,1,0.999260
0.9430469869653307,1,0.999270
0.9428961760590658,1,0.999244
0.9047420465161977,1,0.996721
0.9118910615819217,1,0.997720
0.9175557152720129,1,0.996084
0.9218234066940079,1,0.999136
0.9252279114766713,1,0.999349
0.9283758447567682,1,0.999139
0.9310186319873186,1,0.998444
0.9334225211901227,1,0.999354
0.9353241176137469,1,0.999254
0.9369226940009985,1,0.998406
0.9378743810950062,1,0.999367
0.9395165039887652,1,0.994345
0.9409503268309352,1,0.998369
0.9422601974618167,1,0.997408
0.9430546204545727,1,0.998346
0.9438580319997739,1,0.996395
0.944760649951168,1,0.999344
0.9455368981075677,1,0.998012
0.94596336901997,1,0.999232
0.9463757759670248,1,0.998705
0.9467107107117072,1,0.998677
0.9469546566120667,1,0.999254
0.9469718830022668,1,0.999146
0.9468930867719869,1,0.998814
0.9466674923653415,1,0.999146
0.9464862159103585,1,0.999171
0.9463892330419504,1,0.999229
0.9459945649568889,1,0.999084
0.9454633353026335,1,0.998750
0.9451012839813389,1,0.999187
0.9447875562711783,1,0.999230
0.9443560565773097,1,0.999317
0.9439428924100798,1,0.999153
0.9434037225065924,1,0.998748
0.9427962343835709,1,0.999333
0.9423063830783363,1,0.998769
0.9417384931516763,1,0.999362
0.9412570296751914,1,0.998703
0.9408737451560766,1,0.999140
0.9405758530674353,1,0.999225
0.9403183677766401,1,0.998595
0.9399861881880544,1,0.999288
0.9395066376333162,1,0.998984
0.9391452653998877,1,0.998598
0.9386292605600349,1,0.999167
0.9380109093657109,1,0.999337
0.9375602015064748,1,0.999336
0.9370692193520102,1,0.999349
0.9366798336576848,1,0.999142
0.9362237806206185,1,0.999344
0.9358543490590606,1,0.999343
0.9353923207209797,1,0.999329
0.9349636723988407,1,0.999351
0.9346123061995705,1,0.999343
0.9342101304036496,1,0.999125
0.9337668600330877,1,0.999189
0.9332227930390616,1,0.999396
0.932774607489454,1,0.999343
0.9324108530269297,1,0.999312
0.9320607372450814,1,0.999277
0.9316010199325903,1,0.998421
0.9310450567691706,1,0.999231
0.9306993425630038,1,0.999325
0.9306384161376838,1,0.999343
0.9306382457629582,1,0.999308
0.9305418529429308,1,0.998177
0.9304322504588632,1,0.999361
0.9303801847003207,1,0.998869
0.9303247841541679,1,0.999238
0.9302951051379179,1,0.999414
0.9302554173582831,1,0.997931
0.9082232857890831,1,0.997990
0.9154338328699174,1,0.995916
0.9213386965134912,1,0.999125
0.9262666796251449,1,0.999083
0.9298840762489166,1,0.995129
0.9327938014177015,1,0.999192
0.9354679715505925,1,0.997986
0.9374808548183903,1,0.998113
0.9391719407707682,1,0.994490
0.9402935909150749,1,0.999177
0.9408830090786742,1,0.998048
0.9415999447391188,1,0.999038
0.9418425358914525,1,0.999193
0.941830556455418,1,0.999286
0.9419994062088535,1,0.999282
0.9422500139145571,1,0.999302
0.9430291972933039,1,0.999137
0.9432289364909137,1,0.997151
0.9428012664124561,1,0.999259
0.942412649793601,1,0.999286
0.9418607240554872,1,0.999340
0.9417111217969124,1,0.999229
0.9413405098717557,1,0.999351
0.9407868223802363,1,0.997561
0.9400944734081654,1,0.999335
0.9394688372480363,1,0.999271
0.9387255922550266,1,0.999092
0.9384076650390202,1,0.997859
0.9380666734039431,1,0.999241
0.9375411884233387,1,0.999352
0.9369608439713855,1,0.997768
0.9365121426255315,1,0.999170
0.9359721611157373,1,0.999284
0.9360119675727694,1,0.998053
0.9360749514879011,1,0.999158
0.9360962747017296,1,0.999315
0.935865377459253,1,0.999137
0.9356895844727883,1,0.999254
0.9355318044984127,1,0.999122
0.935145556573022,1,0.999319
0.9350881273070029,1,0.999162
0.9349694295984745,1,0.999339
0.9346934761290607,1,0.999335
0.9343365326302971,1,0.998582
0.9340121459715737,1,0.999182
0.9337719750797965,1,0.997976
0.9333657149196495,1,0.999321
0.9329430053851909,1,0.998623
0.9327199279132732,1,0.999150
0.9325085183479658,1,0.998335
0.9321665189550974,1,0.999301
0.9318432453236727,1,0.999314
0.9313903041942342,1,0.999152
0.9308884357315863,1,0.998759
0.9304522223030857,1,0.998706
0.9301149048956063,1,0.999138
0.92967916227502,1,0.999284
0.9292756876872039,1,0.999324
0.9290063338250042,1,0.999145
0.9286801535698063,1,0.999349
0.9284531603437759,1,0.998093
0.9281673364772668,1,0.999306
0.9277124601169751,1,0.999305
0.9273693696021207,1,0.999158
0.9271006479932988,1,0.999295
0.9267786383411546,1,0.999344
0.9264452060062163,1,0.999293
0.9261006253677714,1,0.999333
0.9258603954299872,1,0.997879
0.925590747210296,1,0.999367
0.9253350943643603,1,0.999199
0.9249986370236938,1,0.999315
0.9246771298051899,1,0.998068
0.9093770217716219,1,0.999264
0.9159800338599858,1,0.995608
0.9223015057546203,1,0.995987
0.9270999923029768,1,0.999313
0.9312155756430929,1,0.996076
0.935234159566289,1,0.999272
0.9388751696745505,1,0.998745
0.9413936463629093,1,0.999286
0.9433369311342311,1,0.999265
0.9448451056416106,1,0.998244
0.9459136417720911,1,0.999259
0.9466361683277971,1,0.997112
0.9468247657910212,1,0.999246
0.9472530627831701,1,0.996209
0.947641030470962,1,0.997778
0.9475646097418211,1,0.999292
0.9474646546846303,1,0.998116
0.9472303340113702,1,0.999028
0.9472209409249025,1,0.999184
0.9470115503430943,1,0.999355
0.9466102339055266,1,0.996680
0.9460440869811508,1,0.999063
0.9453691606393405,1,0.998157
0.9447960809900746,1,0.998853
0.9443393181046912,1,0.997890
0.9438807276616554,1,0.997414
0.9432478406954815,1,0.999167
0.9429207274276462,1,0.999174
0.9426390827937042,1,0.999245
0.9424712293348222,1,0.999323
0.9420827161461883,1,0.997901
0.9416247294470368,1,0.997222
0.9411637668441147,1,0.998746
0.940744124870059,1,0.998773
0.9403075707976738,1,0.999234
0.9398820964745305,1,0.998767
0.9395459419283718,1,0.997608
0.9390874816131204,1,0.999275
0.9386047582431645,1,0.997225
0.9382989890837657,1,0.999302
0.9380763610191342,1,0.999312
0.9375643419807236,1,0.999259
0.9370777869859438,1,0.999198
0.9365660809938516,1,0.997840
0.9361181082346879,1,0.999271
0.9354912286453648,1,0.998435
0.9350219368073523,1,0.999112
0.9344720978431736,1,0.998431
0.9339428975035768,1,0.999209
0.9336830865057675,1,0.999217
0.9333459704771659,1,0.999062
0.9330701988155244,1,0.999266
0.932917015638078,1,0.999178
0.9325411512282598,1,0.999228
0.932183104553615,1,0.999360
0.9318388771117802,1,0.999305
0.9315249295632564,1,0.997986
0.9311816419277984,1,0.999390
0.9308378935795272,1,0.999110
0.9304836301582825,1,0.999342
0.9300292620237602,1,0.999361
0.9296490006480133,1,0.999227
0.9292507629029496,1,0.999316
0.9287672218337024,1,0.999319
0.9285320964737876,1,0.999340
0.9281814314018231,1,0.999254
0.9277529271681345,1,0.999297
0.9273189008930194,1,0.999155
0.9270342180474109,1,0.994214
0.9266020580223823,1,0.999054
0.9262492756083689,1,0.999316
0.9259696926126001,1,0.999293
0.9257303195226572,1,0.999337
0.9256127846198513,1,0.999202
0.9254493052538164,1,0.999071
0.9095647177183414,1,0.994959
0.9160951064973012,1,0.999227
0.921292134661002,1,0.999333
0.9258719620596126,1,0.997483
0.9301828913312653,1,0.998670
0.9335388097654426,1,0.996581
0.9359877483175134,1,0.997400
0.9384837595992795,1,0.999356
0.940809246429092,1,0.997161
0.9424090049615824,1,0.999133
0.9437551085621224,1,0.999195
0.9444851993926402,1,0.997401
0.9448916286068773,1,0.997048
0.9449249561076968,1,0.997706
0.9449400627627158,1,0.999311
0.9448199590170137,1,0.998617
0.9449102459953644,1,0.999322
0.944617807888676,1,0.998618
0.9448495137887782,1,0.999120
0.9451256181135688,1,0.999238
0.9453103645183961,1,0.999132
0.9454771824401058,1,0.998627
0.9459356750682808,1,0.998129
0.9461401500281074,1,0.997815
0.9462020937167086,1,0.998692
0.9460100601688828,1,0.999336
0.9457869355464003,1,0.999268
0.9454733292933308,1,0.997366
0.9451617719845494,1,0.998112
0.9447655925348835,1,0.997956
0.9444961100454212,1,0.999233
0.9441157881068794,1,0.999282
0.943753824925135,1,0.998442
0.9432176297096883,1,0.998336
0.9427398493119871,1,0.999319
0.94239629354896,1,0.998620
0.9420129941782324,1,0.999004
0.9415720291115768,1,0.999252
0.9411152880159712,1,0.998936
0.9406346215436912,1,0.999107
0.9402048097909381,1,0.999301
0.9396870135081545,1,0.998742
0.9391582735510159,1,0.999315
0.9387155527180083,1,0.997927
0.9382385896086727,1,0.998744
0.9378656208630577,1,0.998460
0.9374439167479693,1,0.999294
0.9370983148562515,1,0.999254
0.936858818411313,1,0.999240
0.936477178840142,1,0.998738
0.9360218783415251,1,0.998714
0.9354464795129168,1,0.999347
0.9349238561048492,1,0.999344
0.9345514861110137,1,0.998621
0.934229683088564,1,0.999193
0.9339369725854728,1,0.999248
0.933647129036743,1,0.998187
0.9333470012552086,1,0.999282
0.9329037845703032,1,0.999336
0.9323522212436242,1,0.999320
0.9318923130116583,1,0.999267
0.9315890484570881,1,0.998331
0.9312813526428766,1,0.999270
0.9308418251512336,1,0.997708
0.9303922066810718,1,0.999306
0.9300346508475534,1,0.999367
0.9296204731639739,1,0.998359
0.9292372924602442,1,0.999312
0.9288709578969363,1,0.999350
0.9284072952222756,1,0.999163
0.9280244605208939,1,0.996413
0.9277464074360225,1,0.999322
0.9275179757720967,1,0.999214
0.9272019681610149,1,0.999336
0.926929121585464,1,0.999094
0.9266635715082364,1,0.999268
0.9010748351714193,1,0.994740
0.9075930004189954,1,0.999194
0.9136715498187115,1,0.994709
0.9185094197079144,1,0.999126
0.9226998288155769,1,0.997271
0.9261728370680717,1,0.999275
0.9290701929453924,1,0.999367
0.9313256659039164,1,0.997063
0.9330221931312903,1,0.999318
0.9342706373150876,1,0.999349
0.9359117013667358,1,0.997848
0.9383474740154805,1,0.997286
0.9401619091757558,1,0.999342
0.941779556446424,1,0.998672
0.9429709264931676,1,0.999334
0.9438925823558902,1,0.999276
0.94469733328179,1,0.999154
0.9452711979402671,1,0.998661
0.9456411883709964,1,0.999354
0.9457129752938238,1,0.999083
0.9455801243987483,1,0.999305
0.9453352447895395,1,0.998536
0.9450306838444004,1,0.999343
0.9446529491791235,1,0.999335
0.9442870876245125,1,0.998562
0.9439736945406055,1,0.999263
0.9435125097679967,1,0.999328
0.9431315226944047,1,0.998599
0.9425618188118478,1,0.999316
0.941914365392989,1,0.999132
0.9412673956536699,1,0.999319
0.9409882310371047,1,0.999354
0.9406205426473178,1,0.999328
0.9402250751278262,1,0.998688
0.9397844769551952,1,0.998695
0.9392859918499454,1,0.997657
0.938643095946099,1,0.998730
0.9381659855481794,1,0.998113
0.9377512389066764,1,0.998735
0.9372686106397361,1,0.998657
0.9368191323752855,1,0.998253
0.9363456835368524,1,0.999370
0.9356802042600019,1,0.998750
0.9351330361478036,1,0.999307
0.9345041532348515,1,0.997056
0.9340871802567305,1,0.999203
0.9336124697397119,1,0.999349
0.9333317029797527,1,0.999359
0.9329595703707424,1,0.995893
0.9325495603061816,1,0.998606
0.9320485534093989,1,0.999346
0.9317609453744006,1,0.999351
0.9312309050248674,1,0.999349
0.9307474258850649,1,0.999247
0.9302953793254147,1,0.999343
0.9297887214198539,1,0.999126
0.9294187478238463,1,0.999321
0.9289614337099947,1,0.999329
0.9284875529484052,1,0.998742
0.9279785504609089,1,0.999284
0.9275882788119436,1,0.998391
0.9271058119130035,1,0.999342
0.926638509183483,1,0.998746
0.9262555929653168,1,0.999396
0.9258172737443481,1,0.999313
0.9252281100109765,1,0.998312
0.9247717624115288,1,0.999345
0.9247428629795849,1,0.999233
0.9248578253194966,1,0.999254
0.9248761456115995,1,0.993976
0.9249323528144828,1,0.999357
0.9249655870391985,1,0.999291
0.9250435940075868,1,0.999333
0.9250335945941022,1,0.998695
0.9250154862394633,1,0.999318
0.9249476826083944,1,0.999286
0.9249291568131122,1,0.998629
0.9248002550758782,1,0.998692
0.9247112795292378,1,0.999352
0.9013205894101042,1,0.994642
0.9075720417030245,1,0.998728
0.9132846791583187,1,0.995404
0.9187786860615894,1,0.999257
0.9232763592248032,1,0.999258
0.9275195888915693,1,0.995819
0.9310888637636697,1,0.999237
0.9336173567860444,1,0.999257
0.9357790553854627,1,0.999062
0.9370315975484262,1,0.999294
0.937899413747652,1,0.999344
0.9397540593434006,1,0.997865
0.941207420759116,1,0.999208
0.9425353563193564,1,0.999267
0.943487263872843,1,0.998670
0.9440649729836125,1,0.998745
0.9444587261440928,1,0.999240
0.9446068086927722,1,0.999077
0.9445818031664588,1,0.997096
0.9445236892883622,1,0.998388
0.9441894627251245,1,0.999264
0.9438937804582106,1,0.999366
0.9438410466346084,1,0.998749
0.9436498409111892,1,0.999147
0.9433071961079369,1,0.999213
0.9429252054531837,1,0.998634
0.9424306228299819,1,0.997796
0.9418912608973947,1,0.999341
0.9413516709559416,1,0.999131
0.9407000985833666,1,0.999195
0.9400844756804881,1,0.999174
0.9394250902468281,1,0.999315
0.938593386642668,1,0.998739
0.9381575332983011,1,0.999345
0.9378511411800642,1,0.999192
0.9375184230914048,1,0.999333
0.9372802834511536,1,0.999354
0.9368821983287191,1,0.997854
0.9362600635433403,1,0.999203
0.9356571813462907,1,0.999323
0.9349370295163933,1,0.999327
0.9343791279749559,1,0.999339
0.9338748620295757,1,0.999349
0.9334091540052359,1,0.999188
0.9329733767375632,1,0.999042
0.9325102659130575,1,0.997790
0.9320650562478647,1,0.998577
0.9316924819024512,1,0.999331
0.931119036906484,1,0.995020
0.930670076155524,1,0.999153
0.9301443918848873,1,0.999264
0.9297147109117926,1,0.999259
0.9293046256939722,1,0.997862
0.9287743685925982,1,0.999250
0.9283195074267122,1,0.999118
0.9278299607783695,1,0.999236
0.927294651333109,1,0.998671
0.9273202944020253,1,0.999366
0.927160260404968,1,0.999339
0.9271413095009029,1,0.998657
0.9270770802025337,1,0.998606
0.92695806458829,1,0.997949
0.9268572398689403,1,0.999337
0.9266590892320893,1,0.999370
0.9265458462700934,1,0.998737
0.9263508512535165,1,0.998634
0.9262287835979167,1,0.999255
0.9260177005442422,1,0.999332
0.9257022156862326,1,0.999254
0.925521400453655,1,0.997703
0.9252611089560947,1,0.998430
0.9250106040252263,1,0.998614
0.9247279710744054,1,0.998772
0.92442500224743,1,0.997175
0.9241114946261277,1,0.998437
0.9238108754784782,1,0.999300
0.9235109635798404,1,0.999266
0.9232310151442029,1,0.998441
0.9229266670253418,1,0.999315
0.9226156485465464,1,0.999318
0.9224617704912093,1,0.999354
0.902251103635855,1,0.998675
0.9101795126318956,1,0.999265
0.9171165416505513,1,0.991632
0.9227623108751377,1,0.998248
0.928041287192171,1,0.996342
0.9319749115845999,1,0.999015
0.9349795045514003,1,0.996916
0.9381706781622585,1,0.997431
0.9405767747251939,1,0.999371
0.9426161909396297,1,0.998165
0.9443170816014648,1,0.999338
0.9454204121014854,1,0.999204
0.9463306601718678,1,0.997879
0.9470114211860321,1,0.997537
0.9473358883042879,1,0.997940
0.9473236076919418,1,0.999320
0.9474619559009572,1,0.997537
0.9478401556719798,1,0.999242
0.9481870706488431,1,0.998011
0.9483931078270326,1,0.998139
0.9483241034234101,1,0.999206
0.9481709617145386,1,0.999157
0.9477708695584283,1,0.998312
0.9473740895482041,1,0.997937
0.947061010172663,1,0.999138
0.9465935779377955,1,0.998748
0.9461364601690296,1,0.999025
0.9456574631386272,1,0.998107
0.9449114887771475,1,0.999211
0.9442263668901414,1,0.998703
0.943778357429194,1,0.998729
0.9433567032278213,1,0.997905
0.9429027643858892,1,0.999203
0.9424297139127817,1,0.998567
0.941929441058628,1,0.999398
0.941267732540684,1,0.999311
0.940629338754287,1,0.999338
0.9398838686729462,1,0.999291
0.9391993379566835,1,0.998675
0.9386647820383875,1,0.997908
0.9380396694882043,1,0.999349
0.9374558213779134,1,0.997632
0.9368238074023574,1,0.999202
0.9361474535911067,1,0.999244
0.9355467993308876,1,0.996616
0.9349102570804597,1,0.999228
0.9342707402135185,1,0.999261
0.9335938480050555,1,0.997708
0.9329278246832727,1,0.998597
0.932185084913232,1,0.998677
0.9320020571009142,1,0.997387
0.9323423968383351,1,0.999315
0.932673174234149,1,0.997959
0.9330172802837344,1,0.997963
0.933286622566742,1,0.998677
0.9334513124446745,1,0.999202
0.9336329177946225,1,0.999197
0.933829902649816,1,0.998668
0.9340227747394222,1,0.999186
0.9342099166332769,1,0.996044
0.9342893887007506,1,0.997288
0.9343206788703357,1,0.999351
0.9343113625328144,1,0.998814
0.9343590883633374,1,0.999356
0.9343300369563777,1,0.999250
0.9342734733095869,1,0.999274
0.9342401705942041,1,0.999323
0.9342306360526971,1,0.999303
0.9341690539028472,1,0.999208
0.934064535784852,1,0.999333
0.9339823610115333,1,0.999154
0.9339506584359476,1,0.999080
0.933935212100524,1,0.999319
0.9338754785754776,1,0.999281
0.9337709074419295,1,0.999258
0.9336909500822703,1,0.999360
0.9335078858145205,1,0.998517
0.9333728591806327,1,0.999221
0.9333027870598091,1,0.999325
0.9332412677554138,1,0.999302
0.9330639314058817,1,0.999174
0.9329949474503673,1,0.999328
0.932904715293344,1,0.999325
0.9008656988505743,1,0.999204
0.9072058524388543,1,0.996405
0.9130314619802691,1,0.999301
0.9190439010355199,1,0.995455
0.9242764312176066,1,0.999351
0.9286266830941555,1,0.995095
0.9321656146495734,1,0.995810
0.9352747099808361,1,0.999383
0.9378055083601576,1,0.998274
0.9397474425794993,1,0.999188
0.9415324841676842,1,0.998598
0.9432096925505223,1,0.998347
0.9442214366037491,1,0.995955
0.9449869896911484,1,0.999246
0.9456379668819589,1,0.997655
0.9460992885922691,1,0.999372
0.9463954149510266,1,0.999302
0.9465097862837318,1,0.999344
0.9465435685851554,1,0.999222
0.9468008293560877,1,0.997719
0.9469888884331251,1,0.999360
0.9469077788128161,1,0.999142
0.9467609802787549,1,0.999366
0.9465452423894307,1,0.998286
0.9462946505042737,1,0.998619
0.9460166544588802,1,0.998789
0.9458085757685165,1,0.999402
0.9454450589493785,1,0.999289
0.9449207114119941,1,0.998560
0.9444000334851836,1,0.998655
0.9439274441583676,1,0.999333
0.9433812878664205,1,0.999087
0.942833619049469,1,0.999134
0.9423965859020798,1,0.999398
0.9418971922349173,1,0.999363
0.9413904653222008,1,0.999327
0.9407464445851154,1,0.997828
0.9402173219271381,1,0.998570
0.9396233629714663,1,0.997743
0.9389740293249228,1,0.998423
0.9383324972579126,1,0.999357
0.9379670851653759,1,0.997911
0.93775763517812,1,0.999339
0.9375117471984665,1,0.999316
0.9371159543289217,1,0.998577
0.9367896602736738,1,0.998227
0.9365884627394925,1,0.999225
0.9363452847049348,1,0.998715
0.9358941233238316,1,0.999320
0.9355749767556809,1,0.999327
0.9353250908689699,1,0.998654
0.9349644564968205,1,0.999110
0.934353303638,1,0.999361
0.9338022411185435,1,0.999354
0.9331959984822515,1,0.999269
0.9328557056575735,1,0.999311
0.9324877889704036,1,0.998517
0.9322671873785308,1,0.997146
0.9319705122545553,1,0.997699
0.9315947388806378,1,0.999268
0.9311840314941976,1,0.999336
0.9308478177832796,1,0.995552
0.9305742611668002,1,0.998849
0.9302312856697025,1,0.998602
0.92979146503472,1,0.999315
0.9293443597936587,1,0.998541
0.929029136829565,1,0.998751
0.9288587384984054,1,0.999350
0.9286233545404161,1,0.999327
0.9284009954581829,1,0.999147
0.9280827843570055,1,0.998583
0.9276829323243384,1,0.999199
0.9273086197609663,1,0.999203
0.9269795718279357,1,0.999332
0.9266518730791539,1,0.999323
0.9262437449726694,1,0.999195
0.9258242590145528,1,0.999349
0.9254663297574113,1,0.999331
0.925433599459401,1,0.999175
0.9254276212210834,1,0.998805
0.9254940724933248,1,0.999186
0.9254749230733461,1,0.998465
0.9254353360374385,1,0.998262
0.9254674100072507,1,0.997345
0.9255587942149415,1,0.997350
0.9018001728472138,1,0.999318
0.908454882535285,1,0.997087
0.9146425228712618,1,0.995660
0.9202044762479229,1,0.996305
0.9253312751923766,1,0.999072
0.9296377470575281,1,0.995166
0.9331217389203457,1,0.997877
0.9356010919505938,1,0.996436
0.9378277842785063,1,0.999361
0.9398088634335288,1,0.997344
0.9414951930828463,1,0.999304
0.9427689349407785,1,0.999180
0.9438528251560598,1,0.999351
0.9444605483099295,1,0.997710
0.9449364839275189,1,0.999244
0.9454305262377342,1,0.998400
0.9458098187430716,1,0.997860
0.946130633912912,1,0.998286
0.9461725846314185,1,0.999396
0.9459908311480832,1,0.997220
0.945890004961823,1,0.997137
0.9456139749128881,1,0.999356
0.9451889304751088,1,0.998484
0.9445562173377533,1,0.998666
0.9442858868289046,1,0.999158
0.9444764930840103,1,0.997655
0.944522059145167,1,0.999292
0.9443870755605701,1,0.998615
0.9441275318588989,1,0.999328
0.9439652225722427,1,0.997734
0.9436175475455272,1,0.999344
0.9430865432756718,1,0.998117
0.9427669135210721,1,0.997676
0.9423166896677615,1,0.998569
0.9418590787798091,1,0.999421
0.9413970621296672,1,0.999400
0.9408118180366108,1,0.999056
0.940207506774525,1,0.999317
0.9398581609667668,1,0.997290
0.9395380662386859,1,0.999367
0.9391654914153955,1,0.999311
0.9388545574800607,1,0.999205
0.9384653517144136,1,0.999231
0.937991146945716,1,0.998494
0.9375006729047134,1,0.998123
0.9370868934611809,1,0.999334
0.9366116493378236,1,0.995357
0.9363084276927623,1,0.999359
0.9357180761921021,1,0.998604
0.9351718139468815,1,0.998138
0.9348733637742984,1,0.999190
0.9345454873975851,1,0.999087
0.93431278292186,1,0.998704
0.933998626070478,1,0.998164
0.9337282422450229,1,0.999370
0.9334675958134988,1,0.997949
0.9333376820856119,1,0.997865
0.9330479215346067,1,0.998268
0.9326748776284259,1,0.999349
0.9323302282554606,1,0.999338
0.9321072399550683,1,0.998236
0.9319045914528751,1,0.996201
0.9316617969176773,1,0.999227
0.9312315071612791,1,0.999230
0.9308642524282722,1,0.999312
0.9304126573870162,1,0.999321
0.93006208734589,1,0.999313
0.9297806831732934,1,0.999281
0.9295705236895885,1,0.999182
0.9294075416248256,1,0.999182
0.9290716175831454,1,0.999085
0.928716524540766,1,0.999336
0.9284043719578319,1,0.999243
0.9281581209346706,1,0.999305
0.9278379330675101,1,0.999281
0.9276068901223695,1,0.999258
0.9273362259896355,1,0.998844
0.9270655792735009,1,0.999346
0.9266714013930213,1,0.999256
0.9262819109993989,1,0.999224
0.925953739719576,1,0.997414
0.9255840339955703,1,0.999401
0.9253323192287656,1,0.999106
0.9253301564321101,1,0.998788
0.9253627619806054,1,0.995387
0.9253345114860316,1,0.999240
0.925346332841903,1,0.999331
0.9019344683251788,1,0.999357
0.9094006797584979,1,0.994000
0.915704908578743,1,0.996566
0.92102851630798,1,0.999234
0.9253932588660345,1,0.999339
0.9292437297882478,1,0.995202
0.9329213948792143,1,0.999259
0.9360228855352685,1,0.996459
0.9386508299188387,1,0.999339
0.940636527664399,1,0.997987
0.9423353226128101,1,0.997575
0.9437738352233681,1,0.999308
0.9448084227019722,1,0.999298
0.9456183975102086,1,0.997874
0.9460581064730113,1,0.999220
0.9466051424514762,1,0.996416
0.9468674449765314,1,0.999366
0.9467582879131288,1,0.997169
0.9465942259613171,1,0.997260
0.9464568496888666,1,0.999214
0.9463570405014778,1,0.999245
0.9459798843544908,1,0.999342
0.9455253254046762,1,0.997360
0.9452293540649574,1,0.999349
0.9449127011337008,1,0.997284
0.9444269618878538,1,0.998401
0.943684009600448,1,0.997635
0.9431228530040138,1,0.997797
0.943060292584296,1,0.999301
0.9429761490610801,1,0.997972
0.9428381160116104,1,0.999284
0.9425917185313092,1,0.999353
0.9422532476569966,1,0.997682
0.9419891577782941,1,0.999277
0.9415892419892794,1,0.999301
0.9412776126176862,1,0.998650
0.9409581053746473,1,0.999320
0.9403988397323956,1,0.998549
0.9398811203361973,1,0.999207
0.9394725940416867,1,0.999275
0.9390899246991312,1,0.999361
0.9387033098946468,1,0.998498
0.9382230965306433,1,0.999316
0.9377069725908966,1,0.999382
0.9371388740473394,1,0.998563
0.9366526341947563,1,0.998870
0.9360776807244898,1,0.998322
0.9356200141835059,1,0.998425
0.9353522535841919,1,0.999355
0.9350203564561355,1,0.999206
0.9346878010459317,1,0.998523
0.9343023920133335,1,0.999273
0.9339880078432047,1,0.998180
0.9336221798056946,1,0.999357
0.9333428995452224,1,0.999295
0.9329280351553817,1,0.999041
0.9325498556508252,1,0.998425
0.9321246787136618,1,0.999307
0.9316252729985441,1,0.999372
0.9311837379523198,1,0.999293
0.9306945776856689,1,0.999232
0.9302493489622784,1,0.997030
0.9299622982915806,1,0.999231
0.9296426704807274,1,0.997840
0.9295091575532236,1,0.999167
0.9291551077387792,1,0.997610
0.9289420730724998,1,0.999276
0.9286555521864253,1,0.999313
0.928533042050248,1,0.999334
0.9281158316346763,1,0.998794
0.9277126827175045,1,0.999146
0.9272418953359679,1,0.999203
0.9268074716098549,1,0.998750
0.9264447545120675,1,0.999363
0.9261428574965261,1,0.999294
0.9260742620336451,1,0.999047
0.9259183262270464,1,0.999325
0.9257369475820421,1,0.998830
0.925672685023109,1,0.999389
0.9255674555675272,1,0.997517
0.9254662044270752,1,0.999313
0.9254199792605303,1,0.998814
0.925347354957014,1,0.998728
0.92522565624669,1,0.999315
0.9251371698053038,1,0.999349
0.9250954850895976,1,0.999174
0.9249565766145061,1,0.999282
0.9248156407878853,1,0.999173
0.9246282006494609,1,0.999224
0.9010302209514238,1,0.993750
0.907784620734159,1,0.999002
0.9137257755423895,1,0.996549
0.9189022027448513,1,0.995331
0.9231642495771569,1,0.998759
0.9273546001951906,1,0.999366
0.9308791496017722,1,0.998849
0.9339932323317913,1,0.995222
0.9360907672216685,1,0.998466
0.9379857268110983,1,0.999345
0.9399332894187761,1,0.998855
0.9412242044141156,1,0.999323
0.9423034304611545,1,0.997179
0.9432131693134584,1,0.998776
0.9435647836268605,1,0.999297
0.9441716120504972,1,0.995628
0.94445396706761,1,0.998682
0.9452858923373869,1,0.999130
0.9460321779566815,1,0.997193
0.9465940893962878,1,0.998724
0.946890430389589,1,0.999363
0.9471626754740995,1,0.999244
0.9472259406566401,1,0.999314
0.9471881371326429,1,0.999209
0.9470873187265934,1,0.999278
0.9469604455718195,1,0.996840
0.9467528721438772,1,0.999392
0.9464483069115608,1,0.998769
0.9461831256660702,1,0.998118
0.9455275208198818,1,0.999351
0.9449960268741843,1,0.999393
0.9447539771373954,1,0.999317
0.94437742421702,1,0.999274
0.9440890046750359,1,0.999336
0.9436860442148145,1,0.999266
0.9434247357891552,1,0.998702
0.9430099656640487,1,0.999276
0.9425135127617736,1,0.999328
0.9420834764468609,1,0.999295
0.9416386886627484,1,0.999163
0.9409603040878912,1,0.998751
0.9404104631094109,1,0.998498
0.9398588691071696,1,0.999301
0.9392691396337854,1,0.998824
0.9386684141762827,1,0.999194
0.938487605326349,1,0.997741
0.9382364057018204,1,0.998314
0.9378591017622528,1,0.999262
0.9375298921162006,1,0.999315
0.9372284832635759,1,0.997336
0.9368694936827072,1,0.999423
0.9364407469404568,1,0.999331
0.9359055340962347,1,0.998575
0.9355132637911588,1,0.998446
0.935256376623282,1,0.999279
0.9347788230309689,1,0.999361
0.9343824953407553,1,0.998747
0.9339291232219026,1,0.997770
0.9335753804015146,1,0.999369
0.9331028884645775,1,0.999241
0.9326903831066623,1,0.997959
0.9322885016289668,1,0.999166
0.9320918883301287,1,0.999221
0.931709307991577,1,0.999277
0.9313755212428105,1,0.999300
0.9309773420376751,1,0.998733
0.9306161471967846,1,0.999187
0.9302842158520407,1,0.999228
0.9298831621050386,1,0.999180
0.9294114791104485,1,0.999334
0.9289837304733559,1,0.997884
0.9287181744830921,1,0.999345
0.9283837480108246,1,0.999271
0.9280420573820994,1,0.990599
0.9275662521010777,1,0.999395
0.9270907933558961,1,0.998613
0.9266319062290992,1,0.999326
0.926207651813038,1,0.997565
0.9261875732234649,1,0.999340
0.926302845432945,1,0.998111
0.9263824145760287,1,0.999165
0.9264577666075324,1,0.999289
0.9265106710246107,1,0.998593
0.9266193954155237,1,0.999331
0.9266771703201355,1,0.999338
0.926685427630701,1,0.999320
0.926672201553935,1,0.999359
0.9266522063092516,1,0.999311
0.926627421384913,1,0.998703
0.9265602455091204,1,0.999341
0.9264304011328028,1,0.999266
0.8967256464494093,1,0.994670
0.9028589493488822,1,0.997512
0.9078633107538631,1,0.994644
0.9122523654171387,1,0.994413
0.9172455930784165,1,0.999306
0.921137675904082,1,0.998735
0.9244158669758857,1,0.999339
0.9272234877956624,1,0.998900
0.9300161985235806,1,0.999307
0.9327593087132834,1,0.998609
0.9347515360238181,1,0.999192
0.9362539840677389,1,0.996782
0.9374619923230305,1,0.994807
0.9385269126570496,1,0.999027
0.9395883671764332,1,0.999261
0.9406761224600245,1,0.999160
0.9410129566050441,1,0.999265
0.9413699027539407,1,0.995693
0.9416604568959541,1,0.999315
0.9418960591241478,1,0.999347
0.9418803032562502,1,0.999289
0.9418332287727879,1,0.998710
0.941544960249515,1,0.999293
0.9413952493346576,1,0.999198
0.9411715632774109,1,0.999346
0.9409590120185012,1,0.997917
0.9409464165085746,1,0.997796
0.9407329221746867,1,0.997026
0.9404502425781961,1,0.997883
0.9401547950144218,1,0.997389
0.93985559485768,1,0.999321
0.9394132572707006,1,0.999369
0.9389233378785937,1,0.999327
0.9385032331587964,1,0.997918
0.9382505957426426,1,0.998344
0.9378676588163664,1,0.998106
0.9374884920802385,1,0.997583
0.9370660342429558,1,0.997874
0.9365024874590622,1,0.999277
0.9358957970233881,1,0.998742
0.9355517666139955,1,0.998081
0.935508827640421,1,0.999246
0.9353503947439412,1,0.998446
0.935246864717428,1,0.999296
0.9350232019409149,1,0.999234
0.9346928022582428,1,0.997703
0.934378923655366,1,0.998780
0.9340799366451193,1,0.999111
0.9338051309090205,1,0.998638
0.9333213083845329,1,0.999332
0.932946584809516,1,0.999208
0.9326611299205588,1,0.999304
0.9323251082358658,1,0.998280
0.9319622385392335,1,0.999307
0.9318826121498834,1,0.999150
0.9316246063277847,1,0.999311
0.9313214908913713,1,0.999283
0.9310429701230867,1,0.999148
0.930765530645042,1,0.998544
0.930428329148257,1,0.999364
0.9301146470566237,1,0.999275
0.9297342966729281,1,0.999213
0.9293516115599016,1,0.999342
0.928977089469548,1,0.999323
0.9286612984051702,1,0.999301
0.9282920585543833,1,0.999245
0.9278646839062288,1,0.998857
0.9275417699616874,1,0.999365
0.9271006059240547,1,0.999360
0.9266367548390497,1,0.998730
0.9263307207144833,1,0.995556
0.9261402079328186,1,0.998056
0.9258066394102212,1,0.998197
0.9254025234215022,1,0.998702
0.9250620140830841,1,0.999337
0.9247507291336712,1,0.999327
0.9243451260535895,1,0.998552
0.9240237861862225,1,0.999313
0.9237811496432308,1,0.999153
0.9235920309214207,1,0.997880
0.9232712773178688,1,0.999333
0.9229995570766112,1,0.999280
0.9227359098129084,1,0.999293
0.9223836304770797,1,0.998775
0.9221416112892373,1,0.999386
0.9217594838455783,1,0.999297
0.9216745733830926,1,0.999278
0.9217409369638417,1,0.999314
0.9217051373589431,1,0.999181
0.9216247985130274,1,0.998720
0.9215350620090128,1,0.998061
0.9215262005068836,1,0.999358
0.9214895026087591,1,0.999277
0.8961619563891349,1,0.997611
0.903149008502103,1,0.999127
0.9097333543318789,0,0.990646
0.9156429433085809,1,0.999314
0.9206384833801978,1,0.996045
0.9244646272015868,1,0.999335
0.9280149711526615,1,0.995018
0.9307450042395198,1,0.999319
0.933230088026154,1,0.999153
0.9352848283296114,1,0.995007
0.9375339190040906,1,0.998354
0.9394873706602884,1,0.996970
0.941027096939685,1,0.998656
0.9419247956125217,1,0.999249
0.9427120963218145,1,0.999308
0.9431606385583301,1,0.999341
0.9438282300219489,1,0.998255
0.9448715964545906,1,0.998569
0.9456215317912883,1,0.997015
0.9460856796724437,1,0.998702
0.9462905001116245,1,0.999205
0.9464122853492368,1,0.997506
0.9465684167153698,1,0.998403
0.9466128175004509,1,0.999243
0.9463954682814316,1,0.999380
0.9461334469872139,1,0.998052
0.9457436043668999,1,0.998783
0.9452497558775428,1,0.999320
0.9448633510421502,1,0.999210
0.9446899653615984,1,0.997653
0.9444421093387178,1,0.999316
0.9441922706273969,1,0.999307
0.9437660495374591,1,0.999334
0.9432474444646073,1,0.999318
0.9427560400208281,1,0.994929
0.942298916887418,1,0.996965
0.941857755678943,1,0.999197
0.9413398742737364,1,0.999067
0.9408661964234257,1,0.997862
0.9403964761950844,1,0.999158
0.939826610342077,1,0.999305
0.9393458370534993,1,0.997654
0.9388538909942807,1,0.998587
0.9383121613034785,1,0.999273
0.9380041736810962,1,0.999359
0.9377893809985167,1,0.999337
0.9373852504590776,1,0.999247
0.9369781850633737,1,0.999319
0.9365110403133894,1,0.999234
0.9360612874925647,1,0.999346
0.9356818950971976,1,0.999306
0.935327122472297,1,0.999356
0.935004153187931,1,0.998565
0.9345157002464078,1,0.999359
0.933996072879533,1,0.998071
0.933404821004821,1,0.998602
0.9329275162848173,1,0.999295
0.932395581004199,1,0.999311
0.9318338607016441,1,0.999124
0.9312605586852679,1,0.999206
0.9309267540595585,1,0.999343
0.9307513623563786,1,0.999316
0.9305470362943824,1,0.998674
0.9303316763169457,1,0.999343
0.9300995018719111,1,0.999324
0.9297325674469166,1,0.999144
0.9294659758393332,1,0.998053
0.9292347649309184,1,0.998168
0.9289033024287529,1,0.999273
0.9286121483440418,1,0.998752
0.9282700371963214,1,0.999366
0.928011316589982,1,0.998440
0.9276976488392475,1,0.999356
0.9274393946708468,1,0.999351
0.9271226134292649,1,0.999297
0.9269491614874232,1,0.998073
0.9266816962315659,1,0.998466
0.9263716633930814,1,0.999185
0.9261392358499935,1,0.998667
0.9259438541945872,1,0.999209
0.9257457890245696,1,0.997763
0.9255398266577414,1,0.999184
0.9252684676752774,1,0.999271
0.9250646450756177,1,0.999191
0.9248525118604699,1,0.999328
0.9245626740235534,1,0.999322
0.9242198778755524,1,0.999093
0.923954660688843,1,0.997449
0.9236397596776846,1,0.999289
0.9233015776890856,1,0.999331
0.923022109683457,1,0.998486
0.9227503280926682,1,0.999346
0.9224786860376367,1,0.999326
0.922145995690699,1,0.999306
0.9218371394305964,1,0.999292
0.8972793416663243,1,0.995283
0.9041272354677627,1,0.999305
0.9103253895749831,1,0.998390
0.9155234861898301,1,0.996633
0.9197883318793637,1,0.999193
0.9237028523656833,1,0.996032
0.9274231760190994,1,0.996119
0.9307623378201163,1,0.999309
0.9332204763546847,1,0.998759
0.9350969880943044,1,0.997368
0.937400597480371,1,0.997290
0.9391490354395527,1,0.995618
0.9405669028450185,1,0.999183
0.941621282836823,1,0.999132
0.9425360051756849,1,0.997258
0.9440278358505514,1,0.995893
0.9451329818435172,1,0.998029
0.9461708063763847,1,0.997059
0.94676584134481,1,0.996995
0.946927607934863,1,0.998484
0.9473855348744553,1,0.998659
0.9474620095927865,1,0.999366
0.9474620818342074,1,0.998534
0.9473780128545325,1,0.999069
0.9474228015830576,1,0.997541
0.9475825927084668,1,0.997908
0.9475001982675642,1,0.996405
0.9474162632904111,1,0.997549
0.9472693713775991,1,0.999150
0.9469059399121439,1,0.999130
0.9465017864085319,1,0.996324
0.9459631324230554,1,0.999298
0.9455267392355251,1,0.998176
0.945261148675611,1,0.998416
0.9447181630545299,1,0.999317
0.9441391567623748,1,0.997783
0.9435891463563135,1,0.999266
0.9429078041685516,1,0.999315
0.943242277948345,1,0.999343
0.943467621216751,1,0.999325
0.9437083097263266,1,0.999277
0.944005615472852,1,0.999206
0.9442182400764729,1,0.999166
0.9443990998600366,1,0.999343
0.9445597500856558,1,0.999204
0.9445779180599436,1,0.999126
0.9445920498923828,1,0.997930
0.9446263881985814,1,0.998383
0.9445166529675543,1,0.998590
0.9444667551622168,1,0.999170
0.9444776353932893,1,0.999312
0.944373607340705,1,0.998348
0.9441934779480122,1,0.998514
0.9440969298376704,1,0.999320
0.9440063253990475,1,0.999276
0.9438805339344161,1,0.999424
0.9438049193686149,1,0.998477
0.9437606313918906,1,0.998452
0.9436857099261367,1,0.998809
0.9435858259717765,1,0.997853
0.9434193674670435,1,0.998294
0.943268310763252,1,0.999306
0.9431326462813072,1,0.999327
0.9430026885524704,1,0.999206
0.9427985897318892,1,0.999304
0.9426129121296627,1,0.999290
0.9424257504965551,1,0.999310
0.9422729003113998,1,0.999336
0.9421027388417667,1,0.999290
0.9418602502322303,1,0.999332
0.9416094780593658,1,0.999127
0.9413451702651345,1,0.999328
0.9411563350179912,1,0.999308
0.9410703734079348,1,0.999232
0.9409206628881173,1,0.999046
0.9407551893627073,1,0.999313
0.9406174980924064,1,0.999332
0.9403869615074802,1,0.999272
0.9401616252431698,1,0.999353
0.9399222241005336,1,0.999324
0.9396773599303228,1,0.997648
0.9394451954402544,1,0.999280
0.9392393331928469,1,0.999381
0.9390040272918668,1,0.999371
0.9387432470168573,1,0.999332
0.9384587858333701,1,0.998565
0.9381580024212519,1,0.999307
0.9379900769160898,1,0.995633
0.937764781984538,1,0.999319
0.9375610941562155,1,0.999306
0.9372901296148863,1,0.999314
0.9370805282771585,1,0.998747
0.9368053348650156,1,0.999303
0.9366111535491021,1,0.999341
0.9363536349984891,1,0.999265
0.9361749897285541,1,0.999356
0.9360246917863437,1,0.999392
0.8964130062755067,1,0.994845
0.9028560038302961,1,0.999298
0.9083095606622394,1,0.999318
0.9135081505045617,1,0.999385
0.9177856241112209,1,0.995556
0.9215798162313728,1,0.998599
0.9248214645412893,1,0.998322
0.9275574836212901,1,0.999322
0.9299126166357282,1,0.997821
0.9319263069025169,1,0.999295
0.9332138316838344,1,0.999281
0.93440146835345,1,0.999311
0.935608708549367,1,0.997039
0.9364759067937235,1,0.998190
0.9373642903858652,1,0.997048
0.9378679801047324,1,0.996429
0.9383621102902767,1,0.998405
0.9392592049667617,1,0.997489
0.9397481594756398,1,0.999333
0.9401717134360377,1,0.999305
0.940609345307225,1,0.994741
0.9411257068375386,1,0.999340
0.9414191635842061,1,0.998160
0.9414036531599795,1,0.997218
0.941385854999467,1,0.996840
0.9411667955483608,1,0.994737
0.940771671884701,1,0.997108
0.9405833693271374,1,0.998577
0.9403210073470158,1,0.996006
0.9400061945981446,1,0.999278
0.9399664410342485,1,0.999373
0.9396257938544302,1,0.998040
0.9392921606378379,1,0.999359
0.9388078410407104,1,0.999385
0.9381408195203952,1,0.998286
0.9377731606143714,1,0.999330
0.9373687739740333,1,0.999363
0.936817648924332,1,0.999328
0.9364706308612175,1,0.999322
0.9360982681379013,1,0.999321
0.9356687771367573,1,0.999349
0.9353189686939589,1,0.998383
0.9353742667222591,1,0.999295
0.9351747666383096,1,0.998492
0.9350253022151931,1,0.997963
0.9348934996916367,1,0.999320
0.9346905042351711,1,0.999235
0.93441047196867,1,0.999325
0.9341016220439791,1,0.998444
0.9339935789757577,1,0.997853
0.9336612534215832,1,0.999114
0.933461639686419,1,0.999316
0.9332730675137424,1,0.997634
0.9331346421689893,1,0.999249
0.9329901469905908,1,0.996743
0.9328255952567934,1,0.998463
0.9326417530709469,1,0.999339
0.932419743984781,1,0.998696
0.9320972591277404,1,0.999359
0.9319684196474778,1,0.999120
0.9319055189557967,1,0.999392
0.9317379988979897,1,0.999306
0.9315719322211791,1,0.997794
0.9314574929876267,1,0.997736
0.9312164147818922,1,0.997815
0.9310790376058016,1,0.999282
0.9309353085756317,1,0.997159
0.930750020459868,1,0.999201
0.9304381502476263,1,0.999081
0.9301280245719551,1,0.999326
0.9297930273546209,1,0.999316
0.9294538505607028,1,0.999388
0.9291230682809,1,0.999336
0.9288006702615174,1,0.999332
0.928461223392335,1,0.999317
0.9282102824486824,1,0.999300
0.9279887358768723,1,0.998502
0.9276625060322339,1,0.996431
0.9273564653319644,1,0.999292
0.9270081844142551,1,0.997321
0.9267506232488973,1,0.999270
0.9264752069607068,1,0.997343
0.9262235897009016,1,0.999331
0.9259092791595753,1,0.999307
0.9255770788842682,1,0.999311
0.9253697952928851,1,0.998590
0.9252461854433316,1,0.992149
0.9250318238601131,1,0.999235
0.924807127286607,1,0.999292
0.9245748531356227,1,0.999298
0.9243073256678971,1,0.996124
0.9240327155598861,1,0.999090
0.923827465502146,1,0.999283
0.9235178469911153,1,0.999258
0.9232780379991644,1,0.999237
0.9229964085410212,1,0.998542
0.9228762335628465,1,0.998056
0.9226834998978931,1,0.999345
0.9225361800800548,1,0.998480
0.9223414197672762,1,0.998733
0.9007792027738872,0,0.992476
0.9056878241719256,1,0.995693
0.9104020494667296,1,0.994602
0.9140136473249204,1,0.994946
0.9172508344089803,1,0.998810
0.920253232142674,1,0.997131
0.9229787987537708,1,0.994913
0.9253241447358003,1,0.998566
0.9273777898496877,0,0.993518
0.9296182248062027,1,0.999213
0.9313920830819855,1,0.994656
0.9326524201046086,1,0.996949
0.9335492333345775,1,0.998710
0.9342602881361325,1,0.996241
0.9351403507781548,1,0.999050
0.9356806212529927,1,0.999289
0.9360218496739894,1,0.997792
0.9361359305794944,1,0.999123
0.936322423145621,1,0.998200
0.9367718978204135,1,0.994467
0.9370904119819669,1,0.999330
0.9375111086489745,1,0.999322
0.9377004355380331,1,0.998253
0.9376095876398992,1,0.998180
0.9375859607078101,1,0.999365
0.9372790916151394,1,0.998584
0.9372077883239474,1,0.998618
0.9367419945334873,1,0.999299
0.9363159296385295,1,0.999045
0.9360348024115697,1,0.997392
0.9355628706979962,1,0.998448
0.9352022543453781,1,0.997145
0.9346633770103158,1,0.998160
0.9340974050561088,1,0.998743
0.9337001546638082,1,0.998117
0.9341455078090916,1,0.998043
0.9344855355689766,1,0.992933
0.9347699903196304,1,0.999331
0.9349980822815948,1,0.997647
0.9349681643289914,1,0.998622
0.9349808118410988,1,0.999364
0.9350651858682394,1,0.998431
0.9350756139778509,1,0.997901
0.9348990896082314,1,0.997407
0.9348310901367098,1,0.998588
0.9346779529475356,1,0.998123
0.9344919634166086,1,0.999356
0.9342418777525164,1,0.999325
0.9339906559907163,1,0.998354
0.9337504982229117,1,0.997465
0.9334543358283288,1,0.999375
0.9331735939045903,1,0.998527
0.9330206709619371,1,0.998757
0.9328118697101788,1,0.999264
0.9325075733801157,1,0.998603
0.9322839041971464,1,0.998592
0.9320539591063239,1,0.999364
0.9317658935624407,1,0.998607
0.9315310762111024,1,0.999316
0.9312211549867088,1,0.998607
0.9308240809847047,1,0.998585
0.9304502136903023,1,0.999263
0.9302414877303873,1,0.999297
0.9299124513684581,1,0.998595
0.9294857063016555,1,0.998446
0.9291654661127485,1,0.999348
0.9288079435690733,1,0.999305
0.9286005970223304,1,0.999303
0.9284025074184674,1,0.998645
0.9281299145777396,1,0.999356
0.9278092412545567,1,0.999310
0.92754246219469,1,0.999180
0.9273309652275444,1,0.999297
0.9271309639054977,1,0.999292
0.9269168017626892,1,0.999313
0.9266325488358931,1,0.999318
0.9263353008243606,1,0.999315
0.92611250030815,1,0.999304
0.9260446542250447,1,0.997842
0.9259145790029832,1,0.998523
0.9257264359472025,1,0.999283
0.9256109089250921,1,0.997773
0.9253801869655676,1,0.998232
0.9251420451864291,1,0.998094
0.9249510142176851,1,0.999260
0.924730781657797,1,0.998658
0.9245108480259885,1,0.999230
0.924283758194422,1,0.997843
0.9240828881070874,1,0.999312
0.9238235060394878,1,0.999247
0.9235631929741486,1,0.999254
0.9233046874224995,1,0.999361
0.9230739580718126,1,0.992410
0.9229243092125673,1,0.998421
0.9227678514730192,1,0.997458
0.9225667864847316,1,0.997620
0.9223960289668686,1,0.998406
0.9221188406349766,1,0.999325
0.9219470142945018,1,0.999318
0.9217304240457521,1,0.999265
0.9214497386002423,1,0.999293
0.8984445535188285,1,0.999287
0.9039234041556641,1,0.994118
0.9090519202896735,1,0.997468
0.9137361456901216,1,0.994467
0.9188504895157226,1,0.999063
0.9229479816035197,1,0.995745
0.9269876702655939,1,0.999323
0.9302439640659945,1,0.999308
0.9329699980356343,1,0.999200
0.9351827359040639,1,0.995395
0.9370619641353671,1,0.999329
0.938562773363283,1,0.999127
0.9397843731077634,1,0.996198
0.9408183170089477,1,0.995942
0.9417353289115987,1,0.997906
0.9424513589057911,1,0.999088
0.9428898180686748,1,0.998708
0.9433161423039964,1,0.999349
0.9436772281890484,1,0.998741
0.9438107590419171,1,0.999340
0.9442061601620302,1,0.997106
0.9446354012946128,1,0.998733
0.9449401157168974,1,0.999245
0.9453605068800403,1,0.995942
0.9455206561724316,1,0.999297
0.9456849057021625,1,0.997758
0.9456355456083336,1,0.998649
0.9455812123439971,1,0.998642
0.9455407216207145,1,0.999352
0.9454866563987034,1,0.999196
0.9452263119945058,1,0.999338
0.9450572121387922,1,0.999317
0.9447107609336802,1,0.999331
0.944434080721661,1,0.999355
0.9440056704396946,1,0.999119
0.9435921566997757,1,0.998662
0.9432737033436149,1,0.998544
0.9427382207004475,1,0.999330
0.9422732443790913,1,0.998473
0.9418487916574485,1,0.999351
0.9413003751716965,1,0.997076
0.94085989041856,1,0.999290
0.9405481912607021,1,0.999152
0.940218139075538,1,0.999314
0.9398037856050365,1,0.999310
0.939391687119802,1,0.996860
0.9389125499965922,1,0.999105
0.9385020501565177,1,0.999246
0.9380867358312808,1,0.999296
0.9375574438737956,1,0.999308
0.9372547844661541,1,0.999316
0.9368896450995972,1,0.998147
0.9365982721218502,1,0.999178
0.9362870180370804,1,0.999313
0.9360813949292227,1,0.999333
0.9356447633101377,1,0.997799
0.9352471456797032,1,0.999224
0.9349116958629001,1,0.999332
0.9344921444137024,1,0.998564
0.9341780913429899,1,0.999314
0.9335435763432482,1,0.995995
0.9333308653778093,1,0.999276
0.9331257355283908,1,0.999361
0.9328344792335361,1,0.999357
0.9324846901012797,1,0.999299
0.9321890684043218,1,0.999255
0.9319691175456596,1,0.999278
0.9316816892329494,1,0.999117
0.9313635886970715,1,0.999350
0.9311015615416315,1,0.999281
0.9306811060746377,1,0.999276
0.9303582816025164,1,0.999303
0.9299636516378567,1,0.999338
0.929528737510405,1,0.998107
0.9290865321079416,1,0.999275
0.9288591635146626,1,0.999321
0.9286410255691987,1,0.999342
0.928324405249108,1,0.996545
0.9279464005752317,1,0.999359
0.9277268683194762,1,0.992474
0.9274001489311479,1,0.997887
0.9271766930407764,1,0.999359
0.9269555660691694,1,0.998201
0.9267202512215489,1,0.995349
0.9263602662404746,1,0.999165
0.926027444298635,1,0.999306
0.925742706688545,1,0.999338
0.9254255227075963,1,0.996958
0.9249963061574256,1,0.999343
0.9246976708922929,1,0.999248
0.924563599764815,1,0.999278
0.9244502456254036,1,0.999307
0.9242918621038283,1,0.997671
0.9240746855579681,1,0.999323
0.9239243299541815,1,0.999321
0.9237955542101692,1,0.999302
0.9236223325891333,1,0.992746
0.9234326445781771,1,0.999334
0.9232609832091415,1,0.998777
0.9230884719288648,1,0.999297
0.9227768682220375,1,0.999385
0.9225210448258602,1,0.999174
0.922300010940885,1,0.999298
0.8979595719970327,1,0.998431
0.9028965311627244,1,0.998695
0.9073476733318062,0,0.986907
0.9110622041898215,1,0.999184
0.9142152827775033,1,0.999333
0.9173584567859601,1,0.998675
0.9201777985162739,1,0.997232
0.922926279224116,1,0.999154
0.9252696363086729,1,0.995858
0.9279301978900385,1,0.997251
0.9302562494081702,1,0.998727
0.9322716346490557,1,0.997332
