0.35823650620192776,0,0.462465
0.6584515697300929,0,0.990879
0.7438379056138453,0,0.978214
0.785029300387418,1,0.992602
0.7766994649115461,0,0.704333
0.8429695089895681,0,0.857402
0.7830361033553243,1,0.999263
0.8374849548092662,0,0.849449
0.8481478542610541,0,0.895116
0.8648905042743937,1,0.996326
0.9026107418849447,0,0.979436
0.8219399258518622,1,0.999209
0.8879089211815572,0,0.990984
0.9314143850480312,0,0.808230
0.9364517305265313,1,0.994569
0.9447904440326654,1,0.995745
0.9442621938411663,1,0.995925
0.9366347620278802,0,0.974125
0.9387089178122537,0,0.872598
0.93418127209052,0,0.989979
0.9173114284604038,1,0.999314
0.9493648280962227,1,0.999221
0.9446300950760415,1,0.997999
0.8030245325503631,1,0.998636
0.8959787180060436,1,0.998419
0.8927495149439356,0,0.831533
0.9072386589311769,1,0.996266
0.9444677840789003,1,0.997802
0.919832494737797,0,0.948179
0.919473842220537,1,0.999261
0.940245719306671,0,0.987032
0.9495810159719383,0,0.916092
0.9220374458791132,1,0.998162
0.9189691174801533,0,0.934898
0.9291453823051299,1,0.999235
0.9267838117371022,0,0.940343
0.9265859217045985,0,0.791315
0.920445400215196,0,0.954114
0.8785618685413569,0,0.844941
0.8788328551299105,0,0.991339
0.9224704964347515,0,0.991085
0.9323738967062792,1,0.999285
0.9401854284373276,1,0.996171
0.9408864271308159,0,0.982502
0.9462879243531696,0,0.768010
0.931572215866749,1,0.997143
0.9344154821184576,1,0.997066
0.949060646203803,1,0.997729
0.9451839292051752,1,0.999333
0.9428424913523643,1,0.999244
0.9393389364497474,1,0.997906
0.9394109447824235,1,0.991968
0.9550426482302682,1,0.995118
0.9441594302635955,1,0.998729
0.9621576269057851,0,0.979562
0.9097874682352938,1,0.999056
0.8994800276747162,1,0.997290
0.9109768281076681,0,0.908803
0.9377622612916799,1,0.999292
0.9233234820313396,1,0.998619
0.9383555064636294,1,0.999343
0.8915103050355677,0,0.982974
0.9197803375533541,1,0.998464
0.9147839430801388,1,0.999123
0.9388256758688467,0,0.989652
0.957530055045424,1,0.998682
0.9362182511017223,0,0.951363
0.9493520172433394,1,0.999230
0.941302011054734,0,0.986083
0.9655866571413937,1,0.996823
0.950475882276615,0,0.946176
0.9579827208348864,1,0.996902
0.9548448003719904,1,0.997843
0.954711538771633,1,0.998680
0.918150581722263,1,0.999281
0.8944673285266045,1,0.996198
0.8932874211082543,0,0.965706
0.9359082929273148,1,0.998623
0.9376796257242127,0,0.968968
0.9429174670255327,1,0.998538
0.917468793218408,0,0.987715
0.8986995401725506,0,0.959091
0.9247530643143732,1,0.999316
0.9039971796660303,0,0.985133
0.8903456860317285,1,0.998575
0.9309835492855895,1,0.993316
0.9279999915608113,1,0.993140
0.9513205123439344,1,0.997481
0.92798781577051,0,0.991881
0.9373561773110197,1,0.997099
0.9579683393979391,1,0.996880
0.9434434040411559,1,0.997705
0.9250788590248884,1,0.997019
0.9390662786151616,1,0.994599
0.9343125540882166,1,0.997991
0.88906643063917,1,0.999292
0.8829624988159561,1,0.998689
0.9128461900974313,1,0.998685
0.918954036554797,0,0.943220
0.938669349490903,1,0.996868
0.939319906385779,0,0.987745
0.9345575814658766,1,0.994917
0.9146550115826757,0,0.990558
0.9067803454602121,1,0.999351
0.951202748901625,0,0.896180
0.9564500970885973,1,0.998416
0.9517200117626337,1,0.992933
0.9441369129303799,1,0.998550
0.9584181080234998,0,0.945720
0.9310603978189907,0,0.984490
0.9444872329060745,1,0.998199
0.9451146420674226,1,0.994052
0.9487375790658092,0,0.979253
0.9495416609950874,1,0.999439
0.9485797690541121,1,0.999309
0.9481667949251136,1,0.991961
0.9371589496789389,0,0.934153
0.842027540833689,0,0.807729
0.8799704040731015,1,0.997099
0.9219238116147196,1,0.994331
0.9100090578812249,0,0.976244
0.9136411729637987,0,0.773029
0.9112447696193449,1,0.999302
0.9162105513829487,1,0.995598
0.9332278965056923,0,0.991266
0.9402543105625493,1,0.998028
0.9185401106238275,1,0.999257
0.9394237478008399,1,0.998676
0.9386199743378777,1,0.998554
0.9529919036224244,1,0.998250
0.946387380047296,1,0.993939
0.9384696814429487,1,0.998231
0.9535104844906132,1,0.996861
0.9551570739380396,1,0.998649
0.9540502732796116,1,0.999199
0.9609116275474502,1,0.996511
0.9565106472972554,1,0.998778
0.9678624666959645,1,0.998624
0.9704979212098322,1,0.999297
0.9704291232362252,0,0.989721
0.9437047438205418,1,0.994914
0.9573763369723434,1,0.998710
0.8834101262654808,1,0.992982
0.9115838685200098,1,0.999249
0.9122456356869639,1,0.997451
0.9264714084903167,1,0.997791
0.9283447457637398,1,0.991857
0.9373306596358315,1,0.999229
0.9220146901874752,1,0.997840
0.9317518661096625,0,0.936393
0.9405229390005949,1,0.997159
0.9461043722726215,0,0.989831
0.9432012847535013,0,0.992253
0.9419332825389354,0,0.790812
0.9457137784625566,0,0.912945
0.8996574924597697,1,0.994378
0.9187279747036278,1,0.995598
0.9207374923008035,1,0.995019
0.9542113765214898,1,0.997398
0.9279878549536961,0,0.990665
0.9407022442390794,0,0.967597
0.9517540779503157,1,0.995422
0.9540184880281934,1,0.996271
0.9619363710175556,1,0.998258
0.9616094540783542,0,0.988065
0.9371506601865635,1,0.991632
0.9400449673142478,0,0.967279
0.950694971098127,1,0.999374
0.9594285492595604,1,0.999204
0.8335787843851449,1,0.998112
0.9056687427993454,0,0.990398
0.9196968567647779,1,0.993827
0.9209614898123526,1,0.995807
0.9072065625370583,1,0.997931
0.9332834699125149,0,0.989130
0.9366470546808354,0,0.918227
0.9295684283453101,0,0.943326
0.9505443735865492,1,0.997315
0.9332434932671343,0,0.925421
0.9416717413626202,0,0.977153
0.9551998271403386,1,0.999107
0.9314682931207826,1,0.998647
0.9364569687167577,1,0.999306
0.9297509261057901,0,0.892527
0.9287975427487656,0,0.933406
0.9516233949442915,1,0.994068
0.9502893114332467,1,0.999155
0.9538892485692998,1,0.996759
0.9537003738449795,1,0.995501
0.9328009508736298,1,0.999382
0.9487370668194316,0,0.909414
0.9413644586988871,1,0.997788
0.9348633388017165,1,0.999247
0.9315403003316401,0,0.981771
0.9527903737932548,1,0.998483
0.9550877842895228,1,0.999289
0.9370136368027886,1,0.992794
0.9565752439954888,1,0.999357
0.8333070704037259,1,0.999314
0.893927696821054,1,0.999317
0.909054417207137,1,0.997692
0.9310183541432788,1,0.996305
0.9225295801617799,0,0.989943
0.9422365154037362,1,0.998168
0.9213201274290196,0,0.951168
0.9304738104377496,0,0.861374
0.9436345305698274,1,0.996186
0.9112784142664349,1,0.994705
0.9452362201128606,0,0.992777
0.9225505686033398,1,0.998524
0.9612981983296272,1,0.999299
0.9208131171986301,1,0.993320
0.9365574433220737,0,0.991632
0.9490681440964185,1,0.999297
0.915326979594012,1,0.998789
0.9459233428126154,1,0.999365
0.931926077264752,0,0.918919
0.9451608424576564,1,0.999357
0.9363437789489941,0,0.951261
0.9459432409214115,1,0.995455
0.9148944296587874,1,0.993590
0.9170772109067844,1,0.995652
0.9297561446603493,1,0.996951
0.9341138332536896,1,0.999378
0.9481804748375635,0,0.985612
0.9194495194415792,1,0.998810
0.9335294468358317,1,0.999317
0.9349117467035423,1,0.995305
0.9184135477792666,1,0.996762
0.9242650247985741,1,0.997391
0.8983809761737751,0,0.910276
0.9141324913285889,0,0.984671
0.9287518990863123,0,0.986159
0.9219405413084374,1,0.993002
0.9301960085258141,0,0.984028
0.9212872747110993,1,0.998783
0.9354467114228876,1,0.998687
0.9228460631260543,1,0.999300
0.9207299506744485,1,0.999309
0.9355939776845928,1,0.994531
0.9536714959535663,1,0.994152
0.9548176861866502,1,0.994048
0.9515641241190573,1,0.996766
0.9288034701014845,1,0.998856
0.9339480907629035,1,0.998047
0.9276096532739626,1,0.994083
0.9502387093870663,1,0.996000
0.9473145770887142,0,0.937056
0.9624952498645307,1,0.999293
0.9567552042296477,0,0.991971
0.9494675257085313,1,0.999303
0.9415283784191755,1,0.997856
0.95590620265265,1,0.998062
0.9460979617908161,1,0.997165
0.9339759441894036,1,0.997105
0.9639462697186363,1,0.999199
0.9505942224227205,1,0.999323
0.9452553745022659,1,0.991416
0.9356834456350377,0,0.988718
0.9461527853521171,1,0.996372
0.9557447583142312,1,0.999321
0.953570879827351,1,0.996014
0.8787583189603912,1,0.994030
0.9290702075535263,1,0.996992
0.9175662280327496,1,0.998680
0.9040704023293148,1,0.994276
0.9160990108255231,1,0.999127
0.9124345551070772,1,0.999359
0.9130086464901543,1,0.999433
0.8927648058127051,0,0.985975
0.918056195451585,0,0.961449
0.9340695776435362,1,0.992851
0.9167314641584171,0,0.991347
0.9319590268151801,0,0.974265
0.9296268304649331,1,0.996999
0.940523109623468,1,0.996148
0.9515120741258829,1,0.991651
0.9365293033233346,1,0.999216
0.9156155617606951,1,0.995986
0.9520542555571136,1,0.997433
0.9463190601643987,1,0.998641
0.9542218675360303,1,0.991788
0.950330983541631,1,0.999112
0.9599964035658484,1,0.998031
0.9464818690865898,0,0.965909
0.9555747131224929,1,0.999136
0.9420508412780034,1,0.998067
0.9437756467068117,1,0.998544
0.9558258254822556,1,0.998160
0.9442332981559285,1,0.997124
0.9357865689442316,1,0.999098
0.9343419401554979,1,0.994561
0.9326233678456395,1,0.998061
0.9280115305448151,1,0.993363
0.9234678732802994,1,0.998615
0.921892968805637,0,0.988977
0.9275350740022568,1,0.998184
0.8583943725030615,0,0.941889
0.9177876119479164,1,0.999299
0.8933622004542432,1,0.998573
0.8676397340522407,1,0.998836
0.9199395702330279,1,0.997034
0.9363458664234726,1,0.995000
0.9315944065530182,1,0.997073
0.9405929675807305,1,0.997754
0.9459116822313988,1,0.994902
0.9506855704663014,1,0.997928
0.9511463648547689,1,0.994648
0.9565060744747469,1,0.997497
0.941543217574305,1,0.998737
0.9510691188159776,1,0.993368
0.9524450939054961,1,0.997877
0.949380294216288,1,0.997914
0.9571809487378359,0,0.990984
0.93924718141706,0,0.972340
0.9407973436505158,1,0.999274
0.9117023237155388,0,0.951761
0.8985530409038718,0,0.979100
0.951689120991514,0,0.929810
0.9470612056299625,1,0.994475
0.9359866143946715,0,0.962107
0.9679120680594407,0,0.988604
0.9475324689882922,0,0.923642
0.9355548586105586,1,0.996875
0.933014000687666,1,0.998720
0.9472216844503257,1,0.999238
0.959979053658325,0,0.843179
0.950517868948791,1,0.991994
0.9392150861625697,1,0.993360
0.9540657134790441,0,0.921027
0.9442964003106268,0,0.939527
0.9532384424462004,1,0.997898
0.9516635063969494,0,0.983227
0.9488201075040985,1,0.998710
0.9007432224433591,1,0.998470
0.9088769134276563,1,0.999337
0.9234889945684797,1,0.994002
0.9358946830879339,0,0.883244
0.9282251914742276,1,0.998048
0.9419612866408179,1,0.998727
0.9170093757094149,1,0.997528
0.9326539051325861,0,0.986981
0.9382333162018327,1,0.999350
0.9306201766916309,0,0.970324
0.9397469379674305,1,0.999347
0.9374739328717477,1,0.996676
0.9087395555512834,1,0.998612
0.9271367901851558,1,0.991729
0.938792132087984,1,0.999122
0.9414639900488793,1,0.996616
0.9569247602418889,1,0.995571
0.9434417727996102,1,0.999112
0.9322098809469095,1,0.999201
0.9508102085011421,1,0.998639
0.954551391877379,1,0.997810
0.9420744468891799,1,0.997565
0.935590137788869,1,0.992742
0.9240651061885279,1,0.996333
0.9213695493580407,1,0.998528
0.9486394732813851,1,0.992308
0.9441070361599636,1,0.997154
0.9342121872784639,1,0.992800
0.9130903203432907,1,0.998908
0.9217915766744769,1,0.993080
0.9261649376654353,1,0.993837
0.943414135113852,1,0.997559
0.9429836073058048,1,0.991453
0.9510720229677148,1,0.996337
0.9535871997733094,1,0.994267
0.9403624537511696,1,0.998556
0.9366226083626814,1,0.999347
0.9501280230577832,1,0.998715
0.9489261871351704,0,0.983630
0.888364094521701,1,0.992627
0.9328219231583168,1,0.999270
0.9121509340185803,0,0.940735
0.9053573180012306,1,0.997909
0.9226840209196738,1,0.997778
0.9126245993234596,0,0.987715
0.9180596806679528,1,0.998200
0.9207508812545718,0,0.963813
0.9009184018980876,1,0.999084
0.9112723938870765,1,0.997569
0.9081290445164485,1,0.997924
0.898741539307538,0,0.966160
0.9377603800501718,1,0.993506
0.9276868569612845,1,0.991554
0.9426320977892805,1,0.999198
0.9427428339204019,1,0.993985
0.9419170017811599,1,0.997634
0.938641729947338,0,0.839969
0.931022339722314,1,0.999346
0.8968823951705517,1,0.997807
0.9294493069846926,1,0.998679
0.9327519821714099,0,0.961380
0.9531024165210533,1,0.994458
0.9436848064208551,0,0.986538
0.9542429454989553,0,0.980515
0.927675347978438,1,0.998606
0.9400572194723137,1,0.999247
0.950697662047525,1,0.999274
0.9237340051929327,1,0.997339
0.9431814842624597,1,0.999336
0.9307005350549651,1,0.998538
0.9221769693417661,1,0.996132
0.9224608197131688,0,0.891304
0.916061258499007,0,0.937997
0.9312927036879988,0,0.992393
0.9078305209383251,1,0.989349
0.9339075916629588,1,0.992082
0.9375564464143491,0,0.989474
0.9453292878418047,1,0.996664
0.9501633533040944,0,0.975749
0.9439531136788941,1,0.999381
0.9341784409129071,1,0.993876
0.8592740542048607,1,0.999120
0.911632995209099,0,0.919052
0.9271149602422578,1,0.997651
0.8930929414380441,1,0.997143
0.9156605688360445,1,0.999367
0.9219447229445197,1,0.994401
0.9270459258694143,1,0.993250
0.9216935603302027,1,0.999319
0.9174575411958804,1,0.995730
0.9136181666747715,1,0.999334
0.9258671061381905,1,0.998340
0.9402405635026074,1,0.997053
0.9175536437846991,1,0.998549
0.9115296087324767,1,0.995833
0.9177430820324817,1,0.996995
0.9234000071325902,0,0.970978
0.9375035925700328,1,0.996921
0.9455277649423921,0,0.971002
0.9504603138585704,1,0.999352
0.9186293337642955,1,0.996174
0.9224109196374021,1,0.996940
0.9494877105979954,1,0.998328
0.9355379527549998,1,0.998680
0.9320881275179502,1,0.999272
0.9456756367102449,0,0.990305
0.9425656193814997,1,0.998222
0.9568323251840439,1,0.996908
0.9206304963797226,0,0.928459
0.9619998560232382,0,0.962500
0.9398536460183722,1,0.997905
0.9343253309842704,1,0.998681
0.9477758961554597,1,0.992891
0.9235522925194082,1,0.994466
0.929068809707542,1,0.999323
0.9444898764113775,1,0.999103
0.9358501017886449,1,0.999273
0.9410668880119384,1,0.999283
0.9423756784070044,0,0.979167
0.93206465922002,1,0.995467
0.9510911934865777,0,0.941718
0.9382264674180665,0,0.951489
0.9332076055502391,1,0.994733
0.9163490637544827,0,0.987971
0.8755880223236231,1,0.999127
0.8868143654346663,1,0.998489
0.8889491816660168,1,0.994131
0.9160089731428324,1,0.999341
0.9000167564403938,0,0.922881
0.9327643362701867,1,0.992126
0.94231547542336,1,0.997898
0.9311672193396168,0,0.953939
0.9411330106341481,1,0.994180
0.9409348057705973,1,0.996496
0.8980480958759486,0,0.989362
0.9406147027794669,0,0.985959
0.9484722623321069,1,0.998528
0.9436502821104358,1,0.996452
0.9519139944946288,1,0.997577
0.9191756100616169,1,0.999220
0.9453492187815592,1,0.996892
0.9225446971076812,1,0.999080
0.9239786008534538,1,0.998450
0.9145155556187542,1,0.994373
0.9416586380851399,0,0.960728
0.9223924059884401,1,0.998590
0.9422090711230567,1,0.998357
0.9198405596097967,1,0.991658
0.9330700383977397,1,0.998291
0.929448589942059,1,0.996416
0.9405523492740417,0,0.939061
0.9599376964891979,0,0.966184
0.9335925398039925,1,0.999147
0.9276206952479543,0,0.960478
0.8961629206696571,0,0.986207
0.9474407204211781,1,0.997516
0.9506359451648507,0,0.989402
0.947269198162203,0,0.992148
0.9251540270925236,0,0.989392
0.9319293428717754,1,0.999231
0.9004986918435451,1,0.999270
0.9072575256075391,0,0.990415
0.9085448607028136,0,0.940392
0.9372110539152402,0,0.981919
0.9190902391446063,1,0.997984
0.8985609589490042,1,0.997468
0.8929882943657598,1,0.999166
0.8951661475243808,1,0.996747
0.921588566139642,1,0.995122
0.9117875032134334,1,0.988506
0.8985774635465936,1,0.999122
0.9029054712209018,1,0.997360
0.9250609613485422,1,0.995146
0.9372611934970684,1,0.991718
0.9191560599838806,0,0.988428
0.9326432375910039,1,0.999256
0.9409281199604863,1,0.997361
0.9319508135549753,1,0.999217
0.9466586834873238,0,0.985687
0.9161583797854612,0,0.966537
0.9228432735899226,1,0.993139
0.9332896303660577,1,0.996028
0.9395064475926299,1,0.996964
0.9505101500653522,1,0.998396
0.9559700888862087,1,0.999045
0.9324278528920751,1,0.997658
0.9246678444961501,0,0.950061
0.9454629232220887,1,0.999328
0.9485805326992675,1,0.999107
0.9378611377876435,0,0.985294
0.9577732780261209,1,0.999230
0.9545679769762355,0,0.989726
0.942737505970253,1,0.998195
0.9357507010150534,1,0.991143
0.9546819026216016,1,0.999141
0.9605755626752316,1,0.999190
0.9662187335741226,1,0.999192
0.948189281202468,0,0.984683
0.9266495799002107,1,0.999227
0.9471878464932133,1,0.999320
0.9523827454678441,0,0.943436
0.9510684807856082,1,0.999216
0.9328612593977956,0,0.989043
0.9468814466114894,1,0.999338
0.9239533453128528,1,0.997277
0.9328931631918936,1,0.991935
0.9341110877546466,1,0.997440
0.9435805424851658,1,0.997789
0.9282701127394616,1,0.998129
0.9256912483391915,1,0.995053
0.939048646213686,1,0.999283
0.942433151512902,0,0.967679
0.9446161734385852,1,0.996088
0.934666420486537,1,0.995977
0.9487845948133306,1,0.997912
0.9452267096688478,1,0.995622
0.9161125561982953,1,0.996805
0.8765348925615384,0,0.976043
0.903873669663257,1,0.998581
0.9130659689550278,1,0.998463
0.9016083755508187,1,0.999167
0.8852271705588247,1,0.994100
0.9154759072022389,1,0.996377
0.9411813138575328,1,0.999239
0.9343223082428128,1,0.992891
0.9198747126556593,0,0.990943
0.9203697393005704,1,0.996771
0.9405298559740441,0,0.985492
0.9343802826058709,1,0.999160
0.9485011580880618,1,0.997368
0.9570500734466513,1,0.996881
0.9458526193068307,1,0.999329
0.9396659315450698,1,0.993985
0.9229865367431609,1,0.999351
0.9511204544318802,1,0.999162
0.9382968640512127,1,0.996075
0.9383371640333809,1,0.999011
0.9143483368467304,1,0.997568
0.9358068664318657,1,0.993025
0.9250923119338477,1,0.994582
0.8957272360897232,0,0.857886
0.9146998426738958,1,0.994570
0.9318710370963169,1,0.997347
0.9404421087772722,1,0.992923
0.936623191743985,1,0.999168
0.9163563856159589,1,0.993675
0.9001788553061775,1,0.997380
0.9378524093546018,0,0.790780
0.9477098975363318,1,0.994814
0.9373074274185659,1,0.998639
0.941738166810997,1,0.997689
0.9588622905297839,1,0.998068
0.9348053466590335,0,0.857436
0.9553036978022553,1,0.999162
0.9446119786568982,0,0.988526
0.9440950533655172,1,0.998564
0.9190988340995364,1,0.999287
0.9322682716533363,1,0.999152
0.9446586162029393,1,0.997305
0.9404662887743004,1,0.998408
0.9208636517653409,0,0.975655
0.9409447154988305,1,0.999081
0.9309045853942692,1,0.994764
0.9339272597495026,0,0.986535
0.9265569438106251,1,0.998639
0.9478363042553426,1,0.997990
0.9414699268665876,1,0.998172
0.8611665344908211,0,0.975724
0.896377880408061,1,0.997543
0.8979626122937465,1,0.994436
0.9260432091272115,1,0.995212
0.918264239297246,1,0.999348
0.9363951849901079,0,0.984051
0.9439197659990917,1,0.999302
0.9311303605884033,1,0.995737
0.9445274187635152,0,0.988171
0.9243105117461985,0,0.989593
0.9281095953316022,1,0.998390
0.9312027031196848,1,0.996581
0.9561789570359147,0,0.991304
0.9289446064323009,0,0.988539
0.9160219588112093,0,0.780694
0.9162924283006091,1,0.993699
0.9406325205759657,1,0.998545
0.9231891617061058,0,0.966863
0.9551674385177216,0,0.808360
0.9520271093350452,1,0.994828
0.9275491978987686,0,0.966438
0.9435834997470408,1,0.994814
0.9460547938409348,1,0.999234
0.9377741021708973,0,0.987752
0.9043777949725391,0,0.986616
0.9339648529919263,1,0.999384
0.9110482548402827,0,0.911269
0.9449312569634293,1,0.992724
0.9300456195605759,1,0.995706
0.9428668821806307,1,0.992070
0.9489167987166394,0,0.938252
0.9414451859044544,1,0.997457
0.9053366816478404,1,0.995334
0.9375234501179783,1,0.998363
0.943761156525255,1,0.995553
0.936852000746687,0,0.740981
0.9429307240228306,1,0.999075
0.9414363306687649,0,0.964661
0.958316569800601,1,0.995868
0.9627074897831899,1,0.997366
0.9516351175285074,1,0.999206
0.941454478832384,1,0.999298
0.9319116896948376,1,0.997275
0.9468787705246035,1,0.995129
0.9430742622464069,1,0.999235
0.9404278024833405,1,0.998084
0.9380116152724192,1,0.997813
0.9275613725146826,1,0.998397
0.9375637913772003,1,0.997829
0.9202731308723896,1,0.999319
0.9238052037407891,0,0.937388
0.9208425933270379,1,0.996715
0.9229984904579966,1,0.995614
0.8917316281782013,1,0.997616
0.919346287336478,1,0.998642
0.9110284523734217,1,0.999102
0.9052009025870327,1,0.998396
0.9303191559836073,1,0.999259
0.9151011199074376,1,0.994828
0.9064963709551602,0,0.981424
0.9174000874301915,1,0.999151
0.9176774150127405,1,0.997884
0.9256970165407842,1,0.997988
0.9189289807155161,1,0.997951
0.9099609626550739,1,0.998625
0.9283294313181254,1,0.992275
0.9365416337610758,1,0.999396
0.9208499330397599,1,0.996803
0.9060185903655257,1,0.998099
0.9112764023899376,1,0.999359
0.9481464325618805,1,0.996425
0.952335467541171,1,0.999389
0.9186617096368401,1,0.995836
0.9069890345068095,1,0.998788
0.855645372156577,0,0.984604
0.873541030266838,0,0.877282
0.8778826030261806,1,0.999301
0.886914539667732,1,0.998126
0.8980155741126448,1,0.999424
0.8845823201914144,1,0.994413
0.8837876112885747,0,0.990028
0.8974932774699738,0,0.992734
0.8436699758227933,1,0.999257
0.9172504281671028,0,0.991551
0.906858120761209,0,0.963947
0.9158502774157958,1,0.994358
0.9004520216997985,1,0.997796
0.9158997040186401,0,0.980575
0.8968653612946679,1,0.991843
0.8939934731409548,1,0.999240
0.9034985557838061,0,0.956420
0.9194149177774024,1,0.999276
0.9257496717027675,1,0.995007
0.9130371373311115,0,0.983539
0.8980386338715323,1,0.997952
0.8963968960117393,0,0.991135
0.8991142027097048,1,0.996988
0.896662870948794,1,0.995364
0.9322791862379879,0,0.969489
0.9394206324701302,1,0.999291
0.9389925903260572,0,0.989752
0.9251357199222282,1,0.997191
0.9287588235382591,1,0.993569
0.918883837783873,0,0.990401
0.9167965239631889,1,0.995726
0.9376282967636594,1,0.996299
0.8733097854810098,1,0.991618
0.9191906000243898,0,0.986903
0.9035544373516045,0,0.927938
0.9177383907291204,0,0.922269
0.9251155539843511,1,0.999349
0.9087994376144366,1,0.999209
0.9107742123388405,0,0.985554
0.9390189642307625,1,0.998119
0.930050317907348,1,0.999272
0.9273912635816779,0,0.943641
0.9408675738890818,1,0.996511
0.9381544783095698,1,0.999285
0.940705020569981,1,0.999105
0.9176847285322219,1,0.998628
0.9385483836593208,1,0.994560
0.9256377678381991,1,0.992488
0.9572509413672845,1,0.998880
0.9117350308511674,0,0.990764
0.9184147806749328,0,0.973626
0.9463685906031283,1,0.999394
0.9361886684920596,1,0.995781
0.9383643613947392,1,0.998810
0.9439065631602881,1,0.998073
0.9314954009001517,1,0.996823
0.8956778250540889,0,0.554502
0.9125519138953767,0,0.975820
0.917805168919462,1,0.996819
0.9319187957894833,1,0.996075
0.9169281176552446,1,0.999239
0.9483781382094391,1,0.996459
0.9370959512224055,0,0.983979
0.915153634210199,0,0.988076
0.9207594691275278,1,0.993228
0.9223124137767624,1,0.997671
0.9358535719742453,0,0.990424
0.922638236202649,1,0.992256
0.9244820430314382,1,0.999290
0.9239118415795315,0,0.986331
0.9397859102238304,1,0.999062
0.9306330722242163,0,0.958567
0.9191134932325722,1,0.998578
0.9368538708463507,1,0.999384
0.9482672124107143,1,0.999336
0.9599696629068823,1,0.999077
0.9511614670477391,1,0.999266
0.8691512710270756,0,0.947326
0.8915022189336085,1,0.997590
0.8786499334350687,1,0.996287
0.9100110787981113,1,0.998678
0.8887227995458231,1,0.993109
0.9032981536616306,1,0.996965
0.9112219125217069,1,0.998821
0.9368531407250221,0,0.991332
0.9019518249424922,1,0.999245
0.9039636186328637,1,0.995772
0.9187810741477596,1,0.994709
0.847611658213289,1,0.999294
0.8734611209580672,0,0.869601
0.8980177468623192,1,0.998000
0.891809303434045,1,0.999309
0.8718332592067198,1,0.998078
0.877064884148738,0,0.987547
0.8734943988594456,1,0.996817
0.8568799790544204,1,0.999296
0.8728072491975649,1,0.993890
0.9236354485520819,1,0.999388
0.9081879892530159,1,0.998890
0.9207947374505776,1,0.998467
0.9196077280344478,1,0.996296
0.8808281001074583,0,0.991158
0.8970072027900876,1,0.996748
0.9202481989046909,1,0.998355
0.9432993221502011,1,0.999170
0.9278312849779774,1,0.999194
0.9399216166120163,0,0.948235
0.933347688023161,1,0.998930
0.9080121563655864,0,0.980333
0.9254434659044415,1,0.999213
0.9247651485704979,1,0.999295
0.9146642166345497,0,0.990099
0.9110565097338021,1,0.999194
0.9131352219732513,1,0.998539
0.9064396255570244,0,0.953846
0.9165233730986748,1,0.998849
0.9510202757740277,1,0.997570
0.9294219385250083,1,0.997057
0.919987784932788,1,0.997072
0.9275409125665728,1,0.998001
0.941529935865958,1,0.994022
0.9283762622152405,1,0.999172
0.9512499168927808,0,0.815047
0.9434686224372142,1,0.998099
0.9459352131285281,1,0.998578
0.9293802336885624,1,0.997248
0.9239601231081743,1,0.998008
0.951032218478052,1,0.998279
0.9336746498005593,1,0.999362
0.9260415515736173,1,0.993952
0.9212205570449571,0,0.895772
0.9247539289351769,1,0.997018
0.9160132925622732,1,0.998650
0.9357522675585415,1,0.998604
0.9404006157128865,1,0.998366
0.9416318693949228,1,0.996525
0.9263753469908345,1,0.994732
0.9439179452721382,1,0.998305
0.9434099765251961,1,0.997630
0.9483296377828696,0,0.973893
0.9454282309010912,1,0.993605
0.9274025024346472,1,0.993397
0.9175008265809145,1,0.996012
0.9171323846247013,1,0.994498
0.9336697006942096,0,0.983962
0.8751265328617026,0,0.827842
0.8913082778622126,1,0.991892
0.8949173579642966,0,0.919858
0.8849603489734228,1,0.999308
0.8981150005305634,1,0.998264
0.9059870650583445,1,0.997596
0.8828099751937073,0,0.990008
0.8977684726187767,1,0.999144
0.9126773651275311,1,0.998187
0.9117242958455937,1,0.998553
0.9170920791986097,1,0.994826
0.9111763296228677,1,0.996997
0.9227883621484578,1,0.996269
0.9094372158747693,0,0.977578
0.927688635351737,1,0.998292
0.9108032449375281,0,0.912429
0.9478349396923028,0,0.975486
0.9151814505342929,1,0.997335
0.9246806711338081,1,0.998501
0.939736669932986,1,0.998915
0.9396285343942956,0,0.985380
0.9376211043964295,0,0.989081
0.9322424797428077,1,0.998600
0.9478015750725396,1,0.996466
0.9388921840261522,1,0.997137
0.9459864245289171,1,0.999254
0.9544948653223736,1,0.995582
0.9292330107353229,1,0.997245
0.9407681700416243,1,0.999321
0.9326877869447446,0,0.981861
0.9483361959927133,1,0.996016
0.9318091838839346,1,0.998668
0.9247249121857491,1,0.997361
0.8627865369294152,0,0.859292
0.9308352429426096,0,0.988543
0.9423891876574507,1,0.999216
0.9118631365091941,1,0.993865
0.9257204848919541,0,0.801879
0.91141989283885,1,0.993939
0.887009918230641,0,0.957215
0.9397162078604901,1,0.999286
0.9377086274961282,1,0.994048
0.9156146277257006,0,0.977199
0.8988442125937914,1,0.991883
0.9055404968731475,1,0.996248
0.9145836825491297,1,0.997773
0.9143107118026096,0,0.842779
0.9414614178188052,1,0.987374
0.935592749595839,1,0.998871
0.9349766604381179,1,0.999252
0.9388359096204222,1,0.999336
0.9350186334621406,1,0.997647
0.9374735438140456,1,0.998663
0.9330431690019229,0,0.990690
0.931385261152017,0,0.981467
0.9379045640020293,1,0.998525
0.9086813246842183,1,0.997303
0.9330662700031431,1,0.998511
0.9343734362768366,1,0.998087
0.9098961616639109,1,0.998650
0.7933612448783355,1,0.996374
0.8931299610146164,0,0.842056
0.8121104963520341,0,0.988364
0.8464587169159743,1,0.999268
0.9177017628226979,0,0.977964
0.9051524849252004,1,0.994964
0.8970173044746707,1,0.997800
0.8897973252605161,1,0.998441
0.9243493556371238,1,0.999334
0.9190349582666326,1,0.997197
0.900009911019632,1,0.997856
0.9081517403616057,0,0.853683
0.9060225747117213,1,0.998465
0.9301265449436741,1,0.999376
0.919794770225598,1,0.997205
0.921730274414184,1,0.998450
0.9442472784547898,1,0.998682
0.9057467765859718,1,0.996288
0.9336751143088944,1,0.993295
0.8872211566489234,1,0.998612
0.9095355708027408,0,0.902242
0.9381233200335085,1,0.999430
0.9149411829553746,1,0.999057
0.9358028234234768,1,0.992494
0.9039193484837049,0,0.975162
0.9325101448872155,0,0.964481
0.9374409896934309,1,0.996146
0.9203197324178114,1,0.998740
0.9474662388783305,0,0.939160
0.9240514907622943,1,0.997232
0.9260277011413194,0,0.972837
0.864488800599366,1,0.996798
0.9358202840147521,1,0.990000
0.9500264823838291,1,0.991095
0.943943799767322,1,0.998717
0.9485509470975054,1,0.996456
0.9135995171118231,1,0.993182
0.9449702563858258,1,0.999167
0.923419601532588,0,0.990818
0.9062575303527143,1,0.999359
0.9299065220270409,0,0.981157
0.9187884092618055,0,0.990928
0.9461045654118081,1,0.997665
0.9362416254647463,0,0.991173
0.9081740073495894,1,0.998516
0.9413158770973964,1,0.999246
0.9258306723737477,0,0.983203
0.929928475262886,0,0.956007
0.9237085632838423,1,0.998955
0.9107981542745353,0,0.985763
0.9482892257526442,1,0.993478
0.9119478996406983,1,0.996715
0.9313249366790636,1,0.993072
0.9333386670090532,1,0.997628
0.9297455939599284,1,0.999387
0.9234474911583435,0,0.930757
0.9468769429843545,0,0.943419
0.9271338432681419,0,0.981793
0.9597946447249943,1,0.999024
0.9368233103611193,0,0.956274
0.9479199810993874,1,0.999235
0.9483859214868747,1,0.998433
0.9231188739203618,0,0.965549
0.871290644070183,1,0.999295
0.8595620372603164,1,0.998492
0.8972125554814931,0,0.975550
0.8606333730359084,1,0.994645
0.8779803034426927,0,0.989740
0.8999910371990537,1,0.999174
0.8982371436683918,1,0.993082
0.9211439510111159,1,0.998134
0.8911589199290679,1,0.994656
0.9311925886271686,1,0.994526
0.9194193238621801,1,0.999409
0.8914442937515611,0,0.978155
0.8973299656900044,1,0.996988
0.9093786155220661,1,0.995964
0.8814440303290927,0,0.946632
0.891094448860699,1,0.992436
0.8758568836423788,0,0.987073
0.908989788924788,0,0.987305
0.9066647489315965,0,0.980769
0.9349720686732046,1,0.999297
0.9493257738223078,1,0.997080
0.9284842270570018,1,0.998390
0.9193755993638947,0,0.972973
0.9245038902350089,1,0.997182
0.906821126348574,0,0.873904
0.9321655337939856,1,0.996867
0.9487050987169492,0,0.987698
0.9561190956878215,1,0.998790
0.930327962228504,1,0.997783
0.927925580866152,1,0.998839
0.938757705215441,1,0.999278
0.9329801404252672,0,0.982383
0.9316763126191756,0,0.982709
0.9510506717494349,1,0.992411
0.9351367622254455,1,0.997199
0.9457737006083079,1,0.998862
0.9179303554058316,1,0.996862
0.9340914610134973,1,0.996644
0.9337979414651774,1,0.992862
0.9615995888823088,1,0.992529
0.9429053412103691,1,0.999390
0.9289256032140413,1,0.995915
0.928654904004535,1,0.997576
0.9382980641976375,1,0.996795
0.9529346375476788,1,0.999117
0.9427997400056733,1,0.997911
0.9368386795634535,1,0.998154
0.9224300445932291,1,0.996603
0.9313126874246703,1,0.999192
0.9406283606087895,1,0.997887
0.946652609201136,1,0.997628
0.9365624552683631,0,0.967851
0.9126008149294669,0,0.912471
0.8951920019243117,0,0.990838
0.9041404123641098,0,0.984203
0.9169896765704442,1,0.997151
0.9279803939985481,1,0.999054
0.9204832064695544,0,0.988683
0.9275084717453569,0,0.978478
0.9279344485296205,1,0.998133
0.9253689823548341,1,0.995465
0.9206247373580756,1,0.998463
0.9479662241286543,1,0.999267
0.8298313659178141,0,0.945978
0.8165418186245322,1,0.996883
0.85229040005015,0,0.990122
0.8369392971348247,0,0.993072
0.8715957974559172,1,0.997528
0.9013155203132409,1,0.995404
0.8691563335491955,0,0.902377
0.8974103624770199,1,0.996848
0.8849008334191104,1,0.997232
0.913603577767627,1,0.996350
0.8954194582969315,1,0.999285
0.8990229000229005,0,0.955348
0.9092603707213832,1,0.994512
0.9344760392648614,1,0.998597
0.8947765485939883,0,0.790194
0.9195537535206985,1,0.991471
0.9241461999439696,1,0.997253
0.9454016899965947,1,0.998545
0.9198561906043959,1,0.998155
0.9452482020805398,1,0.999179
0.9309571181357033,0,0.991558
0.9369577193872974,0,0.988017
0.8906682096618147,1,0.998445
0.9053892779787531,1,0.995763
0.9225316739769986,1,0.998596
0.910721982268184,1,0.998714
0.9149148166341122,1,0.996459
0.9132535790903117,1,0.998259
0.9372574923468692,1,0.998695
0.9065035325790908,1,0.997089
0.8967249385003929,1,0.996190
0.9430614424150218,0,0.969363
0.9122884289636167,0,0.960899
0.9230748013613826,1,0.993207
0.9141133838105733,1,0.998096
0.9128899323833057,1,0.997794
0.906149837375961,1,0.997400
0.9213277961283655,1,0.998015
0.9354592062211421,1,0.996413
0.9228605688779068,1,0.996828
0.9090258573387447,1,0.998541
0.9316433772901741,1,0.999136
0.91155515480391,1,0.998579
0.9198797338743204,1,0.997987
0.9273266728849014,1,0.995630
0.908043302222571,1,0.992462
0.9287835312890461,1,0.996426
0.9203870452505325,1,0.997937
0.9400960458841335,1,0.996682
0.9319072797231659,1,0.998979
0.929844383701275,1,0.998762
0.9356393359642191,1,0.999255
0.9335050745315351,1,0.995940
0.9325062624378665,1,0.998591
0.9228877609809678,1,0.992218
0.9394905127871641,1,0.998613
0.9451170331087394,1,0.999126
0.9369575344663766,1,0.997658
0.9068919436936068,1,0.993309
0.9019550245580509,1,0.996149
0.9220926490001606,1,0.999157
0.8866301042791651,0,0.985417
0.8986900380203936,1,0.998117
0.889939431873299,1,0.998658
0.8964829291716723,1,0.996431
0.8957157263531691,0,0.992317
0.8643735009332462,1,0.995402
0.8419783250382402,1,0.999251
0.8765847459282198,1,0.994876
0.8057544112073203,0,0.975298
0.9006063331005584,1,0.997938
0.8824282038458855,1,0.999137
0.8652959776853474,1,0.997445
0.8710567357866229,0,0.989062
0.9067381984959569,1,0.991718
0.9104294174700369,0,0.980685
0.8565907981525581,0,0.973888
0.907397452547162,1,0.999412
0.8673666137968081,0,0.894359
0.8817070617461819,0,0.992622
0.8905992444983495,1,0.999267
0.8998017361150313,1,0.997126
0.9039331787780843,1,0.989819
0.8840652774580778,0,0.871408
0.9244601279263884,0,0.969101
0.8603224774784376,1,0.995042
0.9149798546169984,1,0.996129
0.9043480130327587,0,0.984783
0.9121807966505252,1,0.998392
0.9175075597515068,1,0.997350
0.9124855622360347,1,0.997146
0.861594553791496,1,0.996760
0.9256299074312004,1,0.998469
0.9028235271371128,0,0.923510
0.9250819688072961,1,0.994371
0.9198763575419449,0,0.990172
0.8797408520634108,1,0.998724
0.8986216025816276,0,0.889406
0.9216661290974286,1,0.996094
0.8874513745420657,1,0.998606
0.9039069407874318,1,0.996877
0.8801777980455396,1,0.994220
0.8698964152356975,1,0.993539
0.8706382043464611,0,0.988527
0.8784770848676001,0,0.977299
0.8674168143584382,0,0.879529
0.9058500359417001,1,0.997326
0.885790074427116,1,0.993421
0.8236451279117942,0,0.987363
0.8810676401136253,0,0.986975
0.8210137871846596,1,0.992933
0.8080259758353859,1,0.993610
0.8850659582285804,1,0.997199
0.8771904565751528,1,0.999249
0.8629887486611466,0,0.989691
0.8840357083297549,1,0.993543
0.8971878993851035,1,0.997761
0.8711274280907568,1,0.995885
0.9075442548921941,1,0.997512
0.8905586937401297,0,0.991627
0.8895255408240678,0,0.992121
0.8769186970246263,1,0.991218
0.9057358051033236,0,0.938005
0.8433824646380953,1,0.999396
0.9129233217878888,0,0.974955
0.8757412750630406,1,0.997571
0.8803788705639389,1,0.995409
0.8558255591145194,1,0.995485
0.8837368693706797,0,0.880153
0.8972338647820841,1,0.993523
0.8699074529833644,1,0.997645
0.8631159250956086,1,0.995997
0.8406178419299638,0,0.983099
0.80010370031539,1,0.996615
0.8483140228253081,0,0.987970
0.8091967200849915,1,0.990060
0.7957960902191116,0,0.980323
0.8214241057162764,1,0.997906
0.8371263393279504,1,0.999266
0.8584386179391312,0,0.986254
0.8593081846020756,1,0.996344
0.8582109965487198,1,0.998167
0.8550225712648846,0,0.968147
0.8559778302524366,1,0.997113
0.8481779702013085,0,0.923922
0.8757009030254338,0,0.831601
0.8939846149764583,1,0.993485
0.8846458133481806,1,0.996183
0.8878363455543014,0,0.987940
0.8583314196868921,1,0.999176
0.8393095457862627,1,0.995416
0.8849271794750605,0,0.991519
0.8636759138139233,1,0.997886
0.9061530423541734,0,0.987872
0.8765473832522799,0,0.979275
0.830214101245045,1,0.998401
0.8866308572449816,1,0.998522
0.9102348567969116,1,0.995595
0.890946142258277,1,0.992446
0.9030741355833423,1,0.996118
0.8594099546564479,1,0.997212
0.8788662174790073,0,0.979689
0.9003978811707158,1,0.995467
0.8990106083005082,0,0.889706
0.8746083211443996,1,0.994479
0.8722032893924724,1,0.996119
0.8864364532308726,1,0.992410
0.852991792978796,1,0.992908
0.8833673361351059,1,0.994043
0.8946897029941367,1,0.996377
0.898206728559072,1,0.994531
0.8952961911493572,0,0.993397
0.8951069847491144,1,0.992783
0.9115968967720386,1,0.995770
0.8787127615436651,1,0.994378
0.8670048768777908,0,0.976962
0.8891474229847084,1,0.999225
0.9090639915510783,1,0.996772
0.9097386613943266,1,0.994989
0.9170432817486487,1,0.994667
0.931978831795477,1,0.992806
0.8896986505046769,0,0.990861
0.8960269733975197,0,0.991551
0.8648111509687677,0,0.928571
0.8639623392118022,1,0.996082
0.8880944612263648,0,0.952038
0.8937160841376164,1,0.997013
0.8920592858301779,1,0.994662
0.8937728808800653,1,0.994965
0.908414518003653,1,0.993991
0.853793122773356,0,0.990424
0.8991703259960309,1,0.995014
0.8980357255895456,1,0.999294
0.8713992430281076,1,0.998054
0.8790019698517775,0,0.934010
0.871917743353957,1,0.998728
0.9104542230472566,1,0.999316
0.9127505059472326,1,0.996398
0.8979325362438141,0,0.989481
0.8737947100851788,0,0.988471
0.8673245609692392,1,0.996791
0.8941813998758232,1,0.997468
0.8630552694652626,0,0.987603
0.8868396356513071,1,0.994375
0.8790861155985236,0,0.989802
0.9059288795447239,1,0.998547
0.8879899295381862,0,0.907628
0.7546868425836233,1,0.997409
0.7923174573085605,1,0.992889
0.8238560694032028,1,0.998105
0.8205745959801626,1,0.999338
0.8169195240813824,1,0.993658
0.8416828613405383,1,0.998639
0.8694970821824276,1,0.999215
0.8800292245229575,0,0.973558
0.8721091415349396,0,0.909866
0.8885240262794316,1,0.993750
0.8827391032229261,1,0.999296
0.8712673140474636,0,0.967742
0.8842884330041796,0,0.982833
0.8847847907242327,1,0.999396
0.8724235148834107,1,0.999359
0.8820298033393172,1,0.990256
0.8435365780006701,1,0.995315
0.8833496322382418,1,0.994501
0.8783066421396367,1,0.996949
0.9076140832496236,1,0.998641
0.8850066915527305,1,0.999250
0.8686816687328651,0,0.980533
0.8802885851592058,1,0.987500
0.8695224857662806,0,0.934551
0.8532564003902452,1,0.993156
0.8889865556138585,1,0.994444
0.8535461127542376,0,0.951644
0.887991471685967,1,0.994741
0.897264030038718,0,0.969803
0.9177541466421838,1,0.997151
0.8970099336828717,1,0.995349
0.8859376809851384,0,0.973165
0.860902704833812,1,0.994935
0.8807487465041367,0,0.943411
0.8771000134636149,1,0.999187
0.8730995170101035,1,0.998355
0.8755401891457183,1,0.996044
0.8906245707224126,0,0.868450
0.8822762315206188,1,0.993819
0.8724398827159583,0,0.850449
0.9207181350052983,1,0.992593
0.8960193943678161,1,0.997692
0.9034371488573646,1,0.989446
0.9257658373243188,1,0.996451
0.8655473777196514,0,0.919901
0.8749008750574088,0,0.831473
0.9019847600509208,0,0.980769
0.8718932645300953,1,0.994162
0.8883998697905825,0,0.990964
0.9078760450133233,1,0.995516
0.8874531905283625,0,0.963847
0.9168093572770568,1,0.999377
0.8971135180436062,0,0.991844
0.9105444376944751,0,0.983789
0.862068696968451,1,0.998691
0.9012990965913615,0,0.920035
0.9058490703514736,1,0.995938
0.8445598424943443,1,0.999086
0.8887227794765619,1,0.998426
0.8910354281860955,0,0.981536
0.8425545221981857,0,0.946414
0.880624301295876,0,0.989761
0.8696382014717182,0,0.989954
0.8838045499236702,0,0.972996
0.9078195414937844,1,0.997178
0.8844462553295435,0,0.985820
0.8617723620575304,1,0.996973
0.8783846408014307,0,0.945355
0.8959070132237145,1,0.995098
0.9044886865905597,1,0.999120
0.9031756021409293,1,0.998724
0.9051462614044573,0,0.990950
0.9168112671679333,0,0.873163
0.8331421373459008,1,0.995890
0.7830039372599555,1,0.995751
0.8030509847498517,0,0.967270
0.850385579936429,1,0.993036
0.8092180813023926,0,0.934669
0.8528666602021171,1,0.998067
0.8414558543262032,1,0.998637
0.8378376550032994,1,0.998627
0.8705410550392662,1,0.992759
0.9035133895681943,1,0.997835
0.8787096779469358,1,0.994636
0.8795541409146826,1,0.997930
0.8983174358988909,1,0.999276
0.8975615099143801,1,0.998054
0.8820794469029353,0,0.762391
0.88392624854324,0,0.985179
0.9028992046104688,0,0.967282
0.8662945382467071,1,0.995608
0.88788911776086,0,0.872041
0.8885510588514571,1,0.996135
0.9078677473374931,1,0.999327
0.8911141952914738,1,0.999354
0.9088835552504464,0,0.970724
0.8779018314325951,1,0.992413
0.9049560762078651,0,0.938976
0.9034228900018214,1,0.998936
0.895002667956675,1,0.998616
0.8970410151444248,0,0.938474
0.9150941968118577,1,0.998534
0.8988589916489166,1,0.995014
0.9206031058440655,1,0.995349
0.9139160121685168,0,0.982301
0.9226095917890414,1,0.998397
0.9031313877647171,1,0.995388
0.8795904215160804,1,0.994995
0.8852206310343177,0,0.978374
0.906697793491573,1,0.994934
0.8998867070696104,0,0.926471
0.8911572479377052,1,0.997840
0.9009134457495811,1,0.996589
0.8833639591711847,1,0.994112
0.9045789379544642,0,0.885358
0.8973170076612594,1,0.997445
0.8829561583187074,1,0.995434
0.9271947167170749,1,0.993939
0.8767372256122891,0,0.933941
0.9008996492975219,0,0.975339
0.899817989225896,1,0.995392
0.900375952491732,0,0.962149
0.9032121903619481,0,0.946850
0.8797024242083199,0,0.852183
0.9033085625357414,1,0.996285
0.9055677346746683,1,0.997514
0.8765909102453953,1,0.997981
0.8958381704267928,1,0.992126
0.8848605141331828,1,0.996951
0.8669302904625205,1,0.997347
0.8857350122684124,1,0.993939
0.9026940235597453,0,0.949420
0.8958410750705508,0,0.991150
0.9047290947594926,1,0.999317
0.8917012061916401,1,0.994294
0.9036581947180055,0,0.929539
0.9069603166306586,1,0.992652
0.9132603997297297,1,0.995367
0.8672475555159131,0,0.990247
0.8665704541642651,0,0.958231
0.8909243010776835,1,0.996647
0.9104041760397643,1,0.993157
0.902937709463743,0,0.965735
0.8675520092519349,0,0.991495
0.8947930821226863,1,0.999225
0.8999888713513763,0,0.975716
0.9023032214697042,0,0.975762
0.889770750247021,1,0.995890
0.7650615987273154,0,0.990264
0.8050173841503712,1,0.997689
0.8180718314261614,1,0.995261
0.854961193207517,1,0.995896
0.8347165909784076,1,0.998273
0.8601774357832487,0,0.807692
0.8409822977716501,0,0.973315
0.8436484060970433,1,0.994620
0.869792362474785,0,0.970706
0.8391222062127857,1,0.994898
0.8385198286944464,1,0.998483
0.8926623825475635,1,0.992464
0.8756306746222192,1,0.999180
0.8754398492139689,1,0.993932
0.8720268045308333,1,0.993874
0.8864383130513684,0,0.963912
0.8745167727847482,0,0.987636
0.9066376981982474,0,0.988439
0.8737859582870184,1,0.999224
0.8804804390629796,1,0.995524
0.868603568359354,1,0.999367
0.9219533075404998,1,0.995657
0.8751203762709543,1,0.991612
0.8728964935635521,1,0.994785
0.8949674482181164,0,0.992953
0.881587027543336,1,0.994811
0.8991706526709755,1,0.997281
0.9005944356489393,1,0.998672
0.9070567433416769,0,0.991078
0.8932814533886274,0,0.991791
0.8815405260323239,0,0.975277
0.9169782505690056,1,0.997333
0.8957066922024379,0,0.991654
0.9166273200479539,1,0.998192
0.9017456706408985,1,0.997732
0.8679035319215544,0,0.992046
0.8730327847155911,0,0.987887
0.9076359039896857,1,0.998087
0.9034500723371862,1,0.995174
0.9116628869363068,0,0.931090
0.9023530093352182,1,0.997470
0.9025470655515986,1,0.993631
0.9106971428624193,1,0.992701
0.9224970027462566,1,0.994093
0.8497489639418634,1,0.997616
0.8938554441046265,0,0.983687
0.8964313140928439,1,0.995585
0.9021103311585507,1,0.990706
0.9102289946590012,0,0.978000
0.9095128170374178,1,0.991111
0.8771897377809342,1,0.999289
0.9097663275885031,1,0.999373
0.916084024063166,1,0.992531
0.9097606053212974,1,0.999162
0.9246960688168181,1,0.999102
0.9163449512125199,0,0.990370
0.9248627944437786,1,0.993228
0.9278254064931902,1,0.998497
0.9178646313646344,1,0.995469
0.9293272511513837,0,0.964021
0.9258168138202342,0,0.914027
0.894103161339492,1,0.999337
0.9244497623700315,1,0.999269
0.9143543141591092,0,0.993239
0.9142870147808457,0,0.989172
0.8821767467566781,0,0.989396
0.8981254212554656,1,0.996085
0.9178039370847584,1,0.997226
0.9268615449082239,1,0.994248
0.9221278792039177,1,0.992958
0.9369510361159201,0,0.964716
0.9338952270372352,1,0.994575
0.9217865700897379,0,0.992522
0.8957883938616065,1,0.995340
0.9019003980334355,1,0.998656
0.9217106556201161,1,0.996613
0.9089407871958954,1,0.997468
0.7727843676448483,0,0.984115
0.8033694288723825,1,0.996795
0.7996950963791678,1,0.997078
0.8523014059722407,0,0.869804
0.8477246938695837,0,0.928922
0.8209739174600089,1,0.995140
0.8271544412606716,1,0.995037
0.832195958064926,1,0.993519
0.8617207598157209,1,0.998589
0.8717717701713626,1,0.994905
0.900627139414149,1,0.995951
0.8714661722532417,0,0.981723
0.8619613632847927,0,0.991730
0.8739224973896114,1,0.999267
0.8555453386800668,0,0.992381
0.8760896672912099,0,0.884670
0.899852858202286,1,0.997309
0.8850130330709332,0,0.981150
0.8606554245135947,1,0.994716
0.8765977344389791,1,0.994975
0.8894718276889372,0,0.953696
0.8842234261413654,1,0.994271
0.8913606834117211,1,0.998636
0.8948614813753917,0,0.988166
0.9237289223498699,1,0.999349
0.9067186128483455,1,0.997792
0.9037141618396421,0,0.862763
0.8939397910848367,0,0.950886
0.8959746796841146,0,0.959747
0.8514743927400886,0,0.963178
0.9265748644728746,1,0.999212
0.9248447228150309,0,0.962357
0.8972926712850298,0,0.975588
0.8868244566173152,1,0.999208
0.9107692399650568,0,0.992193
0.9136853120251385,1,0.989723
0.9270509058091928,1,0.999055
0.9074591889293117,1,0.995031
0.8762687880246335,1,0.995927
0.9012799300147195,0,0.923490
0.902627985270499,1,0.995687
0.8635943309352889,0,0.935294
0.8896437949983541,1,0.999346
0.9058736282711212,1,0.995247
0.9023617001340938,1,0.994939
0.8843530533936567,1,0.997333
0.8993269184026982,0,0.983957
0.9023185939010361,1,0.997429
0.8892896290827679,1,0.999126
0.8871499360353361,1,0.995544
0.888043921298891,1,0.999297
0.8829686628384069,0,0.976892
0.892833097915485,1,0.994179
0.9157349133357006,1,0.999335
0.8040091225633871,0,0.779762
0.863381245506233,0,0.834658
0.8642114787200796,1,0.999303
0.8805410174636209,1,0.992390
0.891676057614507,0,0.990391
0.8910462843731932,1,0.998147
0.9074675015932652,1,0.999211
0.907808956573185,0,0.971397
0.9084741406486592,1,0.994911
0.9109819912516094,0,0.950863
0.8783380709693914,1,0.989889
0.9043342408692038,1,0.998171
0.908447905864076,0,0.991228
0.9154904407291289,1,0.997812
0.8982421620408687,1,0.999236
0.8606940907951359,1,0.999199
0.923374941448916,1,0.995174
0.9334957539211262,1,0.998572
0.8930600939831734,0,0.973868
0.9268371432646448,0,0.991558
0.9218950871323958,1,0.999353
0.9168916748057002,0,0.992445
0.8927263521854178,1,0.997423
0.8707867557416707,0,0.974206
0.8968084037435949,0,0.989973
0.8093224349858219,1,0.997931
0.8077130505207352,0,0.988467
0.8117767720790262,0,0.984419
0.8140277806971499,1,0.995853
0.8325805626162538,0,0.929564
0.8255548493952924,1,0.996929
0.8567105234747754,1,0.992473
0.8600153173103133,0,0.968571
0.8788485865297577,1,0.998673
0.8757291169911317,0,0.985595
0.907283066237804,0,0.942438
0.87079009730311,1,0.998288
0.887329309474676,0,0.986791
0.8936720879732926,1,0.999398
0.9133862195726293,1,0.998704
0.8755960292982834,1,0.993758
0.8962343169475092,0,0.904977
0.8933184198374833,1,0.999189
0.8851320064554941,1,0.994834
0.8752685822988786,1,0.997865
0.8876947923597738,1,0.997459
0.8884148186310415,1,0.996236
0.9230477531663863,0,0.901679
0.9211456526831825,1,0.996624
0.8686508005288985,1,0.993725
0.9253217666354189,1,0.999199
0.9203966519395611,1,0.996299
0.8995834651963993,1,0.996878
0.8651389390715504,0,0.961739
0.8780347611595613,1,0.994396
0.8915247626829413,1,0.998066
0.8630123704733891,0,0.968779
0.8879163953100632,0,0.836436
0.8827346833162913,1,0.996353
0.8205434574507748,1,0.998826
0.8436350939441416,1,0.995219
0.8997712923450365,1,0.997958
0.8963568384713565,1,0.997525
0.8941790137176219,1,0.999103
0.9043160149002043,1,0.993478
0.9063778427116522,1,0.997453
0.8974953152080746,1,0.998299
0.9098391800701903,1,0.998288
0.9129498142899619,1,0.998785
0.8888657665853578,0,0.963606
0.8615825004890997,1,0.996805
0.8764946200994843,0,0.843029
0.8767125037988817,1,0.994068
0.8965183483290755,0,0.964457
0.9101037203904623,1,0.993034
0.9163008819360425,0,0.986345
0.813439788111367,1,0.994607
0.9128693220554664,1,0.998615
0.9068831926541614,0,0.973758
0.9069120774682954,1,0.999356
0.9345331217873418,1,0.997633
0.9116376080642778,0,0.953924
0.9062419176485256,1,0.997525
0.9334756974103714,1,0.997074
0.9283398104539308,1,0.997674
0.9134645984444776,1,0.998561
0.9242701561169876,1,0.994975
0.912997053378428,1,0.998030
0.8973167889349485,0,0.965116
0.8855688477946789,1,0.998190
0.9097508106407632,0,0.992159
0.9192037769705697,1,0.997265
0.9175874672222019,1,0.994152
0.9337486154880934,0,0.929785
0.9385020285432057,1,0.992170
0.9312154195409166,1,0.999364
0.9266546277095727,1,0.999321
0.9277021955811793,1,0.995699
0.9044166869730205,1,0.998106
0.9080737867620123,1,0.999356
0.9123247837489734,1,0.994755
0.9202761912098121,1,0.995512
0.9141465046402981,1,0.998783
0.918790536012936,1,0.999211
0.9160935875165009,1,0.997862
0.9174351803632838,1,0.997835
0.8125463941151259,1,0.995455
0.8408125811135746,1,0.995565
0.8643837673442916,1,0.996189
0.8542090026853946,1,0.997645
0.8418011074858092,1,0.996669
0.8409903400902007,1,0.998343
0.8592326619668421,0,0.989843
0.8618602497017649,1,0.996353
0.8788444449125274,0,0.966135
0.8263192618339272,0,0.912999
0.8823138735081593,1,0.999344
0.8631501874587665,0,0.759322
0.8521200801698717,0,0.947279
0.8513954759048639,1,0.992487
0.8409357473216496,0,0.987065
0.8790189458072927,1,0.996972
0.8806095789371576,1,0.994946
0.8867813839291656,0,0.968267
0.8807145154268331,1,0.992114
0.8996565790270675,1,0.998494
0.877059846300317,1,0.996995
0.8803365203569409,0,0.934498
0.9162022551399572,1,0.998800
0.8968469854199335,1,0.999022
0.8960748191994948,0,0.982938
0.9120555105620364,1,0.999116
0.905358526291002,1,0.996853
0.903510962885806,1,0.993060
0.9106413474273267,1,0.997403
0.9117143992906892,1,0.999282
0.9008168601531664,1,0.990055
0.8992164130570333,0,0.919249
0.876768408144069,1,0.998596
0.9012737163578559,1,0.996815
0.8904878774850573,0,0.991908
0.9208825975978773,1,0.998273
0.9063376686717936,0,0.896092
0.8968470918283117,0,0.987411
0.903499690726567,1,0.996912
0.8503030828155064,0,0.990647
0.8786126860664534,1,0.995204
0.9009677552704028,1,0.996578
0.9235362448721461,1,0.995305
0.9039370556898255,1,0.999225
0.9187798153743336,1,0.995129
0.9141223389526544,1,0.998883
0.8967146822223226,1,0.998357
0.8856584238346213,0,0.992476
0.9134774058966268,1,0.999096
0.9155562189901828,1,0.999260
0.9274702070122361,1,0.994737
0.9125710494755608,1,0.999198
0.8909840706038815,1,0.993329
0.8826391454790613,1,0.993848
0.8887986056438099,0,0.952123
0.9236178359044506,0,0.954545
0.887843812165998,1,0.997181
0.9124281091177432,1,0.998022
0.8716495644546942,0,0.988636
0.8949932032109789,1,0.997784
0.9194571260464444,1,0.997852
0.9167691268404672,0,0.945988
0.8882886933136377,1,0.996999
0.8948569699969717,1,0.997460
0.9018951719516626,1,0.997915
0.907772191080898,1,0.997834
0.9054983824328262,0,0.978391
0.9063362007973579,0,0.982415
0.920498530343949,1,0.998366
0.912511704374221,0,0.869399
0.9319920691355598,1,0.998170
0.8934450165528197,0,0.908266
0.9242411529911696,1,0.994387
0.85562115418034,0,0.961295
0.9054015869013722,1,0.992919
0.9112207972261139,1,0.997227
0.8794269891518551,1,0.995899
0.9155053713212916,1,0.995098
0.9186597538578275,0,0.750312
0.9137529565830307,1,0.993469
0.9010491137819061,0,0.983529
0.8367176915558063,0,0.941541
0.8939344893648349,1,0.998610
0.8940774126020842,1,0.997658
0.7862028804158171,0,0.977134
0.8322832516448255,0,0.990885
0.8138278301725574,1,0.999229
0.845075169934065,0,0.976942
0.8450167133383205,1,0.998408
0.8420687952412392,1,0.996399
0.8615197615000357,1,0.993631
0.8738695802008313,0,0.970460
0.8536038224948894,1,0.997141
0.8490011168623948,1,0.996436
0.8995194978754547,1,0.994643
0.9370748819314568,1,0.996139
0.9007565456808325,1,0.994904
0.9023756343561664,0,0.963021
0.8994739382842146,0,0.970480
0.905381101575424,1,0.997608
0.869467942391583,0,0.959666
0.879365531436869,0,0.853165
0.8875556436167567,0,0.989464
0.8972129660912581,1,0.992474
0.9078101946907775,1,0.999330
0.9175752742011897,1,0.991987
0.9061594655931258,1,0.992767
0.8777797634945085,1,0.996700
0.9012626541264864,1,0.997500
0.9211477248857126,0,0.789168
0.9339852026118317,1,0.993528
0.9303454760597345,1,0.998182
0.923031473999992,1,0.999348
0.9131632874443648,1,0.995719
0.9165931722666619,1,0.995242
0.9027635427026299,1,0.994671
0.9216442033218376,0,0.990552
0.9135548030958817,1,0.999144
0.9178389540581678,1,0.997464
0.9180163435530263,1,0.999199
0.9128554544108394,0,0.944034
0.8865425462966633,1,0.997336
0.9008743924633212,1,0.997155
0.8854947937831567,1,0.996881
0.9186875689702232,1,0.996518
0.9028626875600206,1,0.996525
0.91328035514869,1,0.995994
0.9072595252817935,1,0.998264
0.920809926266146,0,0.992461
0.9224576393686142,1,0.999300
0.8751251320933376,1,0.994512
0.9212508000811986,1,0.999356
0.9038105312410057,1,0.999250
0.8861656054898772,0,0.934000
0.9245869502019868,1,0.996556
0.9298048084402951,1,0.995012
0.9188123595508195,0,0.971464
0.9065696003978648,1,0.999250
0.8664311402159793,1,0.992681
0.8910239026808731,1,0.999221
0.9168356857318721,1,0.995336
0.9323490591253941,1,0.999358
0.9077707178484559,0,0.988968
0.8965764144567127,1,0.999339
0.8877194825479375,0,0.929360
0.9149974478511058,0,0.988201
0.9060241853270216,0,0.973412
0.9091569583229266,1,0.999363
0.900864711532007,1,0.997880
0.9235703836978373,1,0.998491
0.9119710822858274,1,0.996294
0.9122700574412624,1,0.994083
0.9183270833271203,1,0.998125
0.9083906168316288,0,0.972973
0.882512924299634,0,0.988935
0.9085366969287552,1,0.995512
0.9035115169627033,1,0.999327
0.9175350818135838,0,0.946375
0.9101650511214906,0,0.962264
0.8941635771163309,1,0.996918
0.8929843088076108,1,0.999204
0.9022119186844223,0,0.989958
0.9077388264716916,1,0.999129
0.9013831067743874,0,0.846420
0.9075220926079185,1,0.999237
0.8999838710033109,1,0.995680
0.9235661019199015,0,0.909774
0.9053884453690464,1,0.999178
0.9171870453474165,1,0.990436
0.8241155463316937,1,0.997265
0.844308199780175,0,0.981496
0.8376102368508613,1,0.995091
0.8160952256106823,1,0.997295
0.8496236130256113,0,0.975610
0.8588707325290764,0,0.973223
0.8733952851592114,1,0.997587
0.8616291748615117,1,0.997099
0.9045611625852639,0,0.961154
0.868841877593531,1,0.994382
0.892927212824526,1,0.997835
0.9032072056597678,1,0.997993
0.8880918400972304,1,0.999236
0.9333532115100986,1,0.998141
0.9153897571235404,1,0.999117
0.9119867577489533,0,0.964758
0.9107845956865399,0,0.946360
0.8819394563733861,1,0.993519
0.9083787791808747,1,0.994642
0.9151838311982644,1,0.998665
0.8908748381339953,0,0.984079
0.9070657823084324,1,0.997358
0.8812959039803449,1,0.997949
0.9057229713985299,0,0.936642
0.9226965152212562,1,0.997260
0.9390295842492494,1,0.998563
0.9177227759746827,1,0.998650
0.9374433379248858,1,0.996708
0.9358416479534477,0,0.988154
0.8999190822335773,1,0.997171
0.9026330453362803,1,0.997024
0.9292515630963416,0,0.974495
0.8984096030379752,1,0.992844
0.8983560044074831,1,0.995142
0.9021749782861977,1,0.998545
0.9057685767945747,1,0.998206
0.9032930265404623,1,0.999102
0.8987846057952745,1,0.999268
0.9001458620111026,0,0.981157
0.9233121767026589,1,0.995932
0.925220736919133,1,0.999362
0.9210060330110003,0,0.987316
0.9053875910075126,1,0.999328
0.9158724865226829,1,0.994930
0.9038630226287914,1,0.999299
0.9048234598480152,1,0.997826
0.9120202237844188,1,0.998639
0.9256293363328059,1,0.996635
0.901898666168464,1,0.998649
0.8732025957194695,1,0.992401
0.9425650959888999,1,0.993929
0.9105866544438879,1,0.997543
0.9431650763472849,1,0.997421
0.8970190002101904,1,0.994764
0.9091760646065892,0,0.976574
0.9089708858620889,0,0.983595
0.9270416765091583,1,0.997494
0.9090610263125566,0,0.949915
0.927040475845336,1,0.997640
0.9324299270335961,1,0.997955
0.8861788925830778,1,0.997235
0.9394771639206165,1,0.998147
0.923884351593309,1,0.995795
0.9106322555876541,1,0.997862
0.9255033709874366,1,0.997783
0.9325265506087916,0,0.991034
0.9137446717272917,1,0.999248
0.9353391580044308,1,0.995098
0.9350910170052783,1,0.999149
0.9375842566446749,1,0.995972
0.918844655299124,1,0.998878
0.9131629097444386,1,0.996547
0.9334395347754109,0,0.981701
0.8878492607327753,1,0.998404
0.8809262816047869,0,0.989671
0.8886375838131164,0,0.936693
0.8810104705852443,0,0.990681
0.8810231371704417,1,0.999300
0.890257391888254,0,0.950052
0.9018897208978726,0,0.988489
0.8968591798070148,1,0.994141
0.8482419409664257,1,0.992038
0.8656220894664264,1,0.994993
0.8879607895525082,0,0.989913
0.9046818817428072,0,0.925023
0.884928299718851,1,0.996616
0.7543768657947529,0,0.923077
0.8066649226424288,0,0.985028
0.7981323252964572,0,0.990484
0.8522994058339521,1,0.997153
0.8332886617316962,0,0.925200
0.8709005390376222,1,0.996456
0.8536843724264925,1,0.996476
0.8469834405611906,0,0.993086
0.8409974132195095,0,0.942131
0.8337564234256443,1,0.998261
0.8689713888055176,0,0.973398
0.8708295427983113,0,0.934459
0.8997426166590681,0,0.991025
0.8816270991794632,1,0.997226
0.9037846820649276,0,0.916499
0.8560730120569653,1,0.999346
0.8912672364605619,1,0.999179
0.9001138866140136,1,0.997835
0.9050994800483345,1,0.995287
0.8229689048839185,1,0.996716
0.8966805053007864,1,0.998917
0.8823053194353576,0,0.981187
0.8856960357338907,0,0.661224
0.9242273980441242,1,0.998367
0.8728221776608929,0,0.960549
0.928409393310575,1,0.998426
0.9096881302715818,0,0.875123
0.8532407582266943,1,0.998299
0.8723681811969523,0,0.969809
0.8709063138842861,1,0.999183
0.8812639938077602,0,0.919220
0.9099831561205548,0,0.868821
0.8967018092952102,1,0.999218
0.888419574347217,0,0.937143
0.8854219543863565,0,0.920635
0.9059133693192446,1,0.999169
0.9151865345985999,0,0.925612
0.9198264374354955,1,0.998658
0.8972837808073428,0,0.989439
0.91801413916117,1,0.999346
0.90146798456089,0,0.989922
0.9138921246034984,1,0.998239
0.9165155386541592,1,0.998038
0.8877112361449111,0,0.954545
0.9121826760179559,1,0.994286
0.9192855916773756,1,0.995529
0.9174347576628055,1,0.996959
0.9051567786516732,0,0.965862
0.9030180368753353,1,0.997163
0.8877680106973695,0,0.988544
0.8828071659773757,1,0.998648
0.9133837629690468,1,0.995330
0.867890009942127,1,0.994757
0.9237439870392149,0,0.964088
0.9254079257985773,1,0.998077
0.921817765163956,0,0.676204
0.9183679888680762,1,0.998917
0.9049638361210138,1,0.997996
0.8906709156292437,1,0.999280
0.889016746678552,1,0.997258
0.9169001641309888,1,0.996286
0.9267903387002371,1,0.994930
0.9067886461837676,1,0.998700
0.9091227579842567,1,0.998258
0.9068308895524393,1,0.997743
0.8815065768680991,0,0.973436
0.8871897338133995,1,0.999293
0.9306515457385839,1,0.998485
0.9006839317010626,1,0.999259
0.9054839483983481,1,0.998040
0.9170103924510142,0,0.929250
0.9183756436402388,1,0.999283
0.9224984229791203,1,0.995200
0.9195633459599236,1,0.999226
0.9257967039779841,1,0.999263
0.9325303745748329,1,0.999216
0.9113614422396153,1,0.994344
0.9092639403712128,1,0.999143
0.9270417727979023,0,0.933714
0.8772233469172084,0,0.988227
0.9135465080898686,1,0.998543
0.9251309973097885,1,0.997159
0.887660228253204,0,0.951163
0.8813952600144991,1,0.998033
0.8768604406247343,1,0.999207
0.8659001143798336,1,0.992562
0.9122545873508002,1,0.995575
0.8930485818743461,0,0.953439
0.8809089639878249,0,0.990483
0.8641748225293435,1,0.998114
0.7675545420202476,1,0.996633
0.8142224692474102,0,0.943284
0.7693366901553697,0,0.985925
0.8102000712775341,1,0.997741
0.8410844590869836,1,0.999203
0.833453095329009,1,0.994030
0.8688976401639829,1,0.999195
0.8714841417985442,0,0.992377
0.8634768621843325,1,0.998021
0.8587684526788725,0,0.781961
0.848711306588342,1,0.999088
0.8964751976001629,1,0.998763
0.9079908880541766,1,0.996106
0.8924954260214054,1,0.999268
0.8788000681806201,0,0.959821
0.8454831123862351,0,0.991085
0.8967413283314328,1,0.997209
0.9061304431287092,0,0.991373
0.8965430951170726,0,0.863440
0.9102904888879849,1,0.999236
0.8889763949388765,1,0.999296
0.9100455437998047,1,0.997567
0.8916844718294871,1,0.996269
0.9120206250762044,1,0.998566
0.8984018532688317,1,0.996076
0.917678369657554,1,0.997896
0.9144619417519217,1,0.998506
0.8902372567395231,1,0.998610
0.9138868688360012,0,0.961646
0.9317002589713148,1,0.993843
0.9193110732250821,1,0.994861
0.9204352580608014,0,0.961868
0.8921828998878438,0,0.972105
0.9290091169698026,0,0.834623
0.9155379688048876,1,0.998029
0.9291377103856264,1,0.994709
0.9225990943497422,1,0.996875
0.9192335541180809,1,0.995816
0.9043108676576705,0,0.910870
0.907052207388516,0,0.982547
0.9165332463551379,1,0.993565
0.931324339574892,1,0.999075
0.9012110454744784,1,0.997004
0.9097795361950908,1,0.997881
0.9469469096138261,1,0.995126
0.9291366898179415,1,0.996521
0.9309172069845475,0,0.895992
0.9278646849966902,0,0.985658
0.9298870278509621,1,0.996572
0.9169987840410552,1,0.995413
0.9307656778742731,1,0.998883
0.8938794303689549,1,0.995556
0.9493100446801521,1,0.998733
0.9393579799062184,0,0.980912
0.8568125501434074,1,0.999332
0.9293612517106303,0,0.989362
0.9393989863654723,1,0.998711
0.9219114788742511,1,0.999131
0.8964233624539046,1,0.998453
0.9216952826191094,1,0.999150
0.9272686975998802,0,0.837136
0.9105949472581089,1,0.998292
0.915790749870358,1,0.999289
0.9169687365105486,0,0.990025
0.9147301221336542,1,0.999323
0.922480377758245,1,0.999292
0.9130458305486694,1,0.995459
0.8865901301082083,1,0.999328
0.9218971744380268,1,0.999178
0.9209881158618679,0,0.960552
0.9090829406698775,1,0.997149
0.9280515639783633,1,0.996582
0.9036158702920395,0,0.984759
0.9256022221556972,1,0.999186
0.9121901361145146,1,0.999384
0.9179884344313306,1,0.996255
0.8784582348062097,1,0.997399
0.9402533509030908,1,0.993408
0.9142382575254924,1,0.995228
0.9134043732626346,0,0.984032
0.921751823625198,1,0.998492
0.9341541643404694,1,0.998582
0.9400584166612859,1,0.999367
0.9480228053076656,1,0.999256
0.9129297397661597,1,0.999312
0.9430044484432564,1,0.998542
0.9384264560379436,1,0.998476
0.9193712389653043,1,0.996180
0.9099324194797154,1,0.999155
0.938327038715851,1,0.999262
0.8034658453258738,1,0.996738
0.7667213243731188,1,0.996294
0.7485715274352194,0,0.989011
0.7950783534657323,0,0.986577
0.8274547432632946,1,0.990881
0.8375928574123364,1,0.996288
0.7881783051973847,0,0.976326
0.8399818591787401,1,0.999039
0.8587849246731672,0,0.976428
0.8579382039091555,0,0.987758
0.8429910023782995,1,0.991694
0.8830787542933116,1,0.997796
0.8916871096223331,0,0.991317
0.8785116174371709,0,0.989763
0.8944555501162407,0,0.962025
0.8907662761867294,1,0.995046
0.9178421353383944,1,0.999370
0.9130066123136558,1,0.999279
0.9106121500183627,1,0.999251
0.92425315162769,1,0.995279
0.9269640932899051,1,0.998359
0.903855057069843,1,0.995630
0.9268570278020337,0,0.985673
0.9142374416827733,0,0.976504
0.9187348385783757,0,0.986760
0.9055814543612823,0,0.889871
0.8775436384797837,0,0.991846
0.9100117233007966,1,0.998673
0.8828449444895771,1,0.996425
0.8505662430829547,0,0.939488
0.9172658956444305,0,0.990058
0.8636391455514085,1,0.997868
0.9017573327256847,1,0.995687
0.891885046044326,1,0.996628
0.9080081892244554,1,0.996548
0.8999250699567152,1,0.998464
0.8923268771080324,1,0.996094
0.8866413331671645,1,0.993430
0.8650447967977791,1,0.994298
0.8888116736352516,1,0.998457
0.8927643094030027,1,0.999136
0.9019788860044364,0,0.952064
0.8495617276011246,1,0.997557
0.8439321725065745,1,0.999088
0.8808460775222245,1,0.998522
0.9012839625530948,1,0.998822
0.9067619425303136,1,0.999127
0.8944640266022272,0,0.980527
0.8511849101858222,1,0.997230
0.9093406607829102,1,0.997898
0.9157766296668486,1,0.997868
0.8772575077944729,0,0.991895
0.9051898518572785,0,0.951404
0.9028757443194646,1,0.997364
0.8950524901335007,1,0.998768
0.8723434267767849,1,0.998414
0.8933696895921965,1,0.994996
0.9247998458506084,1,0.995997
0.910119788979597,1,0.998124
0.9127322167373615,1,0.999157
0.9263577428476437,1,0.993182
0.9143539597956073,0,0.963111
0.9252682095111429,1,0.999312
0.9158544034320515,1,0.996602
0.9071161140319985,1,0.996764
0.9087578212037737,1,0.999266
0.8537881549679142,0,0.990404
0.8666117077315159,1,0.999277
0.8996420148833533,1,0.999116
0.9146717513710633,1,0.999309
0.9192033504615826,1,0.998416
0.8934302246176403,1,0.996554
0.8823926919180689,0,0.931867
0.8985872189544809,0,0.985630
0.9026217660643809,1,0.996967
0.9219570773381117,1,0.997519
0.8761686417207767,1,0.994118
0.9089018755528636,0,0.963020
0.8931432576062135,1,0.996203
0.8955525570507822,0,0.951374
0.8939265600182402,1,0.998122
0.9085502900670346,1,0.998404
0.9178627357622271,1,0.997317
0.9140660713040322,1,0.997828
0.9047848476328476,1,0.992631
0.9208410773155241,1,0.999323
0.9319725690782731,0,0.613018
0.8994509540160159,0,0.883598
0.9202764199315863,0,0.971715
0.9154461806124238,1,0.999124
0.8972717850501016,0,0.938683
0.9077969384447783,1,0.994264
0.8999946631316514,1,0.999332
0.9177358214260505,0,0.990457
0.7657118695051262,0,0.980597
0.7819880428047367,1,0.999147
0.8490202662690393,0,0.961003
0.7925156925701702,0,0.979111
0.801381221251438,0,0.983806
0.8227594029641824,1,0.996923
0.8448676674668709,0,0.871545
0.8341954147275101,1,0.999287
0.8850653087391808,1,0.999241
0.8797605078812626,1,0.996294
0.8674895829403965,1,0.994945
0.8919224323544032,1,0.998691
0.9010014984003877,1,0.996088
0.9037551752128545,1,0.999265
0.8417064407892688,1,0.999117
0.8974961251878806,0,0.949302
0.8960617055562583,1,0.997970
0.9102974302011454,0,0.972945
0.8999818310818949,1,0.998539
0.8725167431834745,0,0.834869
0.8838381850003894,1,0.996727
0.8651070813691224,1,0.995541
0.9012757970978894,1,0.999226
0.895050737242194,1,0.998358
0.9203176895268043,0,0.963721
0.9207898128290771,0,0.970936
0.909889787525772,1,0.998595
0.9142958319542579,0,0.940981
0.9167761282694658,0,0.977733
0.8935317920660337,1,0.997155
0.9063488604424567,0,0.968921
0.8725444081657414,0,0.967848
0.8938558012848288,1,0.998638
0.911235264790548,1,0.998759
0.891841848161182,1,0.996330
0.8964321971637379,0,0.979695
0.9054014836119914,1,0.994733
0.9043093820995174,1,0.999128
0.9163874931930153,0,0.965248
0.9005317196700501,1,0.999220
0.891406977814768,1,0.998742
0.861860467149767,1,0.996853
0.9033801511397598,1,0.999381
0.8970056321242923,0,0.937089
0.8815794701843683,1,0.998561
0.8789032201034578,1,0.999331
0.9172534880723013,1,0.997749
0.9220575591747043,1,0.998770
0.8865133752926717,1,0.999381
0.8793146915190712,1,0.993397
0.8921406914891558,0,0.972949
0.89958922089024,1,0.999261
0.882939739871149,0,0.989071
0.908285734683906,1,0.999247
0.8717209520924715,1,0.994548
0.8735532710509998,1,0.994628
0.8947290485611098,1,0.999125
0.9332321065199266,0,0.970874
0.9330868656254674,1,0.997892
0.8873762431138426,1,0.992035
0.8755133095988806,1,0.999117
0.9041958698166479,0,0.990726
0.8930431217699303,1,0.996516
0.9092911047213746,0,0.978170
0.9226409025751711,0,0.961240
0.8852907046837767,1,0.996072
0.8873702535241925,0,0.990741
0.8970374242860003,0,0.987866
0.8977801959177777,1,0.993686
0.8731330107832647,1,0.999506
0.8552885812244263,0,0.947977
0.8689051400603922,1,0.992948
0.8676069661496528,1,0.994286
0.8800801794348325,1,0.994978
0.8947356524938894,1,0.998583
0.913546639602385,1,0.998361
0.8616975187248788,1,0.994487
0.8864486313736814,0,0.969277
0.8993538919535597,1,0.994205
0.9057766038449074,0,0.979821
0.8937903745876749,1,0.995540
0.9059837073341531,1,0.996416
0.8275991248699983,0,0.973366
0.8527918468669505,1,0.996008
0.8872858613970447,0,0.972103
0.8932697612999905,1,0.999257
0.9267033316358984,1,0.999150
0.9282273209460378,1,0.998157
0.9091116900762207,1,0.998671
0.8607671586642139,0,0.836914
0.8670911138479304,1,0.999319
0.8736626191335296,1,0.997969
0.8926420268064212,0,0.969979
0.8885608082882127,1,0.992683
0.9056398248763798,1,0.999006
0.7730836268838779,1,0.993039
0.801318053727066,1,0.999116
0.8260571302534828,1,0.997724
0.822894469082789,1,0.998329
0.8233969441226514,0,0.912890
0.8768845510979923,0,0.794416
0.842867597244625,0,0.973550
0.8374505078858113,1,0.998217
0.8663732611941396,1,0.997748
0.8638541425165005,1,0.997266
0.8784688812023272,1,0.997843
0.8850946208901098,0,0.898841
0.8543321888804928,0,0.991118
0.8832757130590709,1,0.997773
0.8688596872283217,1,0.995253
0.8732587573321638,1,0.999127
0.8811638887693987,1,0.997037
0.8790493864523324,1,0.989806
0.9075702645766722,1,0.998930
0.8971694380360138,1,0.998566
0.9101994363511116,1,0.996599
0.918464476763131,1,0.996745
0.912374639033686,1,0.994106
0.8994787699241575,0,0.958426
0.8965094574706229,1,0.996456
0.918481513557143,1,0.998552
0.9035995446382461,1,0.991701
0.9002935281727752,1,0.993703
0.9055047919045406,0,0.985063
0.9216086420870787,1,0.997403
0.92214353179362,1,0.994341
0.9105931760787681,1,0.996727
0.910403246354499,1,0.998567
0.9405967853611228,1,0.999235
0.9136134146199852,0,0.991667
0.911718490897615,0,0.969303
0.9293073105352483,0,0.988012
0.9439341145955521,1,0.999365
0.9269228422427419,1,0.999346
0.9227814175160803,1,0.997345
0.9023782809192666,1,0.999244
0.8702552754021562,0,0.986075
0.9281725375691445,1,0.998720
0.9185090827564154,1,0.997294
0.9061466840144115,0,0.965625
0.9390252306362774,1,0.997650
0.9084345024734982,1,0.998057
0.9311530287018627,1,0.997496
0.9182425341775244,0,0.988289
0.927939090557533,1,0.998999
0.9200352307965998,1,0.998406
0.92427056964632,1,0.993329
0.9380322973424092,1,0.996835
0.928048493815923,0,0.982668
0.9446027347452256,1,0.998762
0.9239904691138245,1,0.997074
0.9464940569414843,1,0.993834
0.9338984067883828,0,0.728411
0.9180009469058359,1,0.993157
0.9204835456600723,1,0.999381
0.9172942490220609,1,0.998470
0.9132319876656855,1,0.996855
0.9449789304109927,1,0.995010
0.928012986433412,0,0.964706
0.9439987681652703,1,0.999367
0.9360693033752856,1,0.996040
0.9475394341598146,1,0.994590
0.9315963463353237,0,0.991263
0.9287444948222504,1,0.997920
0.9359494741652227,1,0.999038
0.9326673738582786,0,0.907579
0.9263398736991852,1,0.994281
0.920187719529282,1,0.998124
0.9342421629635488,0,0.947214
0.9366583849886316,1,0.998696
0.926326808043246,1,0.998592
0.9091702743794121,0,0.988812
0.9282888892916286,1,0.999290
0.9041193469181907,1,0.992275
0.8990425348697623,0,0.972851
0.9170138674172555,0,0.973663
0.9287580892612839,1,0.996983
0.9591161482554414,1,0.998699
0.9378926272439648,0,0.854015
0.9484466371254149,1,0.998211
0.931982029799966,1,0.999182
0.9367484412438566,1,0.996386
0.9128407637925338,1,0.998552
0.9164622258642069,0,0.967431
0.881125605052501,1,0.998253
0.8764467991147034,0,0.854828
0.847999981494763,1,0.999232
0.87179004869243,0,0.958509
0.877446037961792,1,0.997874
0.8928478022797529,1,0.991899
0.8829466096529118,0,0.797852
0.9099845655373474,1,0.999243
0.8962148245296172,0,0.918994
0.8181279501978254,1,0.997709
0.8409399659748084,0,0.942270
0.8361827831692379,0,0.986998
0.8603046848762652,1,0.999362
0.8556336601195689,0,0.988779
0.8463602470035907,1,0.997239
0.846582443331152,0,0.871694
0.8548596575808466,0,0.976354
0.8656830258554119,0,0.905098
0.8794872298755582,1,0.997908
0.8366935048147561,0,0.848620
0.8540257187475652,0,0.992558
0.8624970182627881,1,0.997649
0.8918996733571958,0,0.833814
0.8693136752606616,0,0.910435
0.854933358118685,1,0.995238
0.9030508246341207,0,0.967014
0.8999140664711389,0,0.973958
0.9093870668205498,1,0.998435
0.8863745145738172,1,0.997199
0.9015695285983014,1,0.998794
0.9049131532495768,0,0.961191
0.8707659229470386,1,0.999093
0.9021920666619293,0,0.992347
0.8957011321307276,1,0.993766
0.9156302211214058,1,0.992014
0.8823358402377017,0,0.848390
0.9142411998122248,1,0.998556
0.8722718055720641,0,0.939288
0.9060940432027949,0,0.852025
0.905139906639795,0,0.980983
0.8830000757170975,0,0.851852
0.8595357269638353,1,0.993802
0.8490132042610936,0,0.986622
0.8598428070842884,0,0.987900
0.8784468180130577,1,0.998464
0.8824459317778923,1,0.995954
0.9080431897339433,0,0.913766
0.802801438041271,0,0.918519
0.8482602685336634,0,0.975904
0.870296159744315,1,0.999274
0.8317348020635793,1,0.992418
0.8791383660540607,1,0.997427
0.8858957034263842,0,0.661409
0.8950096037631526,0,0.898961
0.8585731515230333,0,0.835975
0.8881890376537918,1,0.994017
0.8688838829179496,1,0.999101
0.8665605160223663,1,0.993029
0.8988220037918582,1,0.994673
0.8760536824353189,0,0.992361
0.8869426933667998,1,0.998268
0.8532801748410396,1,0.994070
0.822400339024191,1,0.998619
0.836506486973366,1,0.998663
0.8478597199068558,0,0.816310
0.8597094234960065,0,0.972008
0.8162522827237328,1,0.994107
0.8821420963572267,0,0.986854
0.8958374299730816,1,0.995701
0.9070560298757074,0,0.889868
0.8835923128981567,0,0.990802
0.8525102977856097,1,0.999113
0.8750580684322641,1,0.999388
0.8612544317981797,1,0.995101
0.9139101711977221,0,0.986499
0.8857204898848532,0,0.992297
0.9065547280029732,1,0.994448
0.8875947464412084,1,0.998830
0.9137766226904309,0,0.991493
0.875348345717745,0,0.858824
0.8725213641385839,1,0.995569
0.8813237298414095,0,0.991781
0.8990868616961762,1,0.996215
0.871769058731032,1,0.999049
0.9185143750563453,1,0.998187
0.8914090049872168,0,0.913524
0.8960508801318475,1,0.998192
0.8853971093613962,1,0.997912
0.9024557021199971,1,0.998670
0.9067772431817841,1,0.999358
0.9012324186800219,1,0.993395
0.9012773557407874,1,0.991143
0.8958610934472807,1,0.999222
0.9236805884515714,1,0.995614
0.903126315623548,1,0.996967
0.927224806036429,1,0.999201
0.9403995429143422,1,0.997004
0.8580375046561104,1,0.996729
0.8804333382524286,1,0.989282
0.8399802641680497,0,0.851658
0.8855541846384871,1,0.999287
0.8670960870843766,1,0.997555
0.8580332065455574,0,0.988048
0.8843674727254102,1,0.995360
0.8584103323590045,1,0.998051
0.8782791881412191,1,0.997915
0.8630024253584238,1,0.998722
0.9172326809259905,1,0.999071
0.9016201966669823,0,0.947996
0.7688983972235387,1,0.999086
0.7603800012549183,1,0.997616
0.724243663890185,1,0.995296
0.8158621957973411,0,0.952350
0.8189001188072074,0,0.952503
0.841571780518658,1,0.996849
0.8308005999716481,1,0.995305
0.8287122269272431,0,0.954779
0.8756630074286034,1,0.998230
0.8434380494876311,1,0.996241
0.8484274460362634,1,0.999390
0.8730686299437878,1,0.993950
0.8653936129403672,0,0.831793
0.8651650309597609,1,0.997898
0.8868876579763323,0,0.914118
0.8892648470201981,1,0.997258
0.8686029636648546,0,0.927258
0.9099935206099669,1,0.996933
0.8687202043305965,0,0.988898
0.8915818526839089,1,0.999374
0.86257570175801,1,0.994573
0.8884536232899567,0,0.992232
0.8714701743218737,0,0.992612
0.9000926679319611,0,0.972200
0.9040469557139287,0,0.983033
0.876304071964078,1,0.998436
0.8848772780272923,1,0.997611
0.8930028818001204,1,0.998800
0.8928451071459184,0,0.990719
0.8906738851899891,1,0.995255
0.9282208989412839,0,0.880509
0.876991305721197,0,0.986122
0.8781997056878881,1,0.994803
0.9127827574619006,1,0.998623
0.9175908088516569,1,0.997203
0.9198742453262496,1,0.993459
0.9096852214452272,1,0.996653
0.8964002112065295,0,0.945438
0.8440127456595851,1,0.997201
0.8698916018358468,1,0.996348
0.8619555273174397,0,0.893532
0.8772622627660565,0,0.991459
0.8495844895252366,1,0.994879
0.8895905587324865,0,0.990881
0.8819076659906337,1,0.998357
0.849675983463709,1,0.992019
0.8798078202623183,1,0.997773
0.8565667896330423,1,0.994744
0.8191271188987616,1,0.996762
0.8475049452087122,1,0.996206
0.885947208737208,1,0.998284
0.8807489266962812,1,0.995252
0.8975471368375517,0,0.971865
0.8671561032455388,0,0.958474
0.892984103920916,0,0.969669
0.8734816996249681,1,0.992070
0.9152035895397566,0,0.922857
0.9010983853103938,1,0.999163
0.9041567254552189,1,0.994436
0.9237522189310342,1,0.997859
0.8776906558065259,1,0.998738
0.8887769798765015,1,0.997849
0.8938107424934447,0,0.951331
0.9214512335635502,1,0.994253
0.8762753575913209,1,0.996841
0.894518732825543,1,0.993676
0.8823173311270547,1,0.998749
0.8722085347278152,1,0.994775
0.8794139709885747,1,0.996672
0.8803373269976561,1,0.996082
0.8974011456420956,1,0.996112
0.8884767647053727,1,0.998566
0.8675939027699978,1,0.998415
0.8848093682573299,1,0.998814
0.8643064482536899,1,0.999050
0.8775794993863654,1,0.997041
0.8703632062189087,1,0.997090
0.875452393656712,1,0.996212
0.9184238483822739,1,0.996902
0.8857517552376039,0,0.982222
0.8998191293449542,0,0.950306
0.8705436414697113,0,0.786963
0.9088456901353302,1,0.995247
0.897740489826091,1,0.997552
0.899292678487976,1,0.997331
0.8651361394204606,1,0.993132
0.8484537325243797,1,0.995492
0.8808812257363743,1,0.996896
0.8919034243965993,1,0.997183
0.9076437018972598,1,0.994417
0.8878154633436803,0,0.989205
0.8846711003399359,0,0.991447
0.9005231717886197,1,0.997349
0.9178837768492887,0,0.827624
0.857426388144713,1,0.996813
0.9105414563937952,1,0.993646
0.8513613655516034,1,0.999191
0.8692216283722993,0,0.901075
0.8955526304786297,1,0.995183
0.886758444345525,0,0.802559
0.8919425838367723,1,0.999123
0.8540447911923414,0,0.989532
0.7322869171062456,1,0.995360
0.762457680235272,0,0.983607
0.7718102651812243,1,0.995150
0.7630311968999337,1,0.996896
0.8089765501897992,1,0.998110
0.8465505799444055,0,0.974527
0.8305031090471474,0,0.990598
0.8550852870714706,1,0.997314
0.8519056018860562,1,0.996847
0.8953013041748491,1,0.996118
0.8817482394896223,0,0.991762
0.8802745922396513,1,0.999088
0.8765639900476759,0,0.992481
0.8530797287972314,1,0.996012
0.8943929164599838,0,0.965870
0.8666949863649156,1,0.999385
0.8834957737697948,1,0.999294
0.9077455752475513,1,0.994964
0.8952829567953283,1,0.997642
0.8910155327716239,0,0.924662
0.8495079897631438,0,0.985519
0.8798169323214913,1,0.996148
0.9300305768225106,1,0.996011
0.8974356212347724,1,0.999400
0.8853964672381696,0,0.942879
0.9229332925462512,1,0.994224
0.8981513826966447,0,0.850492
