0.9999999999999983,1,0.998956
0.9999999999999989,1,0.999088
1.0,1,0.998946
0.9999999999999989,1,0.999325
0.9999999999999951,1,0.999307
0.9999999999999962,1,0.999145
1.0,1,0.999308
1.0,1,0.999290
1.0,1,0.999181
0.9999999999999977,1,0.999335
1.0,1,0.999307
1.0,1,0.999263
1.0,1,0.999291
0.9999999999999983,1,0.999193
0.9999999999999979,1,0.998641
1.0,1,0.999276
1.0,1,0.999324
1.0,1,0.999230
0.9999999999999992,1,0.999062
1.0,1,0.999276
1.0,1,0.999408
1.0,1,0.999426
1.0,1,0.999427
0.9999999999999999,1,0.999317
1.0,1,0.999221
1.0,1,0.999389
1.0,1,0.999286
1.0,1,0.999273
1.0,1,0.999216
1.0,1,0.999307
1.0,1,0.999291
1.0,1,0.999207
1.0,1,0.999342
1.0,1,0.999325
0.9999999999999992,1,0.999277
1.0,1,0.999321
0.9999999999999988,1,0.999383
0.9999999999999999,1,0.999245
0.9999999999999938,1,0.999328
1.0,1,0.999327
1.0,1,0.999359
0.999999999999994,1,0.999359
0.9999999999999963,1,0.999433
1.0,1,0.999395
1.0,1,0.999342
1.0,1,0.999329
1.0,1,0.999379
0.9999999999999983,1,0.999380
0.9999999999999961,1,0.999452
0.9999999999999998,1,0.999408
1.0,1,0.999122
1.0,1,0.999325
0.9999999999999937,1,0.999287
1.0,1,0.999395
0.9999999999999973,1,0.999407
1.0,1,0.999339
1.0,1,0.999357
0.9999999999999954,1,0.999326
0.9999999999999992,1,0.999373
1.0,1,0.999387
1.0,1,0.999381
0.9999999999999972,1,0.999240
0.9999999999999986,1,0.999268
1.0,1,0.999376
1.0,1,0.999363
0.9999999999999974,1,0.999175
1.0,1,0.999285
1.0,1,0.999304
1.0,1,0.999356
1.0,1,0.999319
0.9999999999999998,1,0.999365
1.0,1,0.999337
1.0,1,0.999394
1.0,1,0.999394
0.9999999999999984,1,0.999358
1.0,1,0.999413
0.9999999999999973,1,0.999407
0.9999999999999988,1,0.999300
1.0,1,0.999268
0.999999999999999,1,0.999348
0.9999999999999979,1,0.999371
1.0,1,0.999369
0.9999999999999996,1,0.999344
1.0,1,0.999204
1.0,1,0.999390
1.0,1,0.999338
1.0,1,0.999364
0.9999999999999991,1,0.999416
0.999999999999995,1,0.999192
1.0,1,0.999403
0.9999999999999993,1,0.999291
0.9999999999999937,1,0.999385
0.9999999999999959,1,0.999355
0.9999999999999988,1,0.999376
1.0,1,0.999361
0.9999999999999971,1,0.999355
1.0,1,0.999430
0.9999999999999997,1,0.999350
1.0,1,0.999265
1.0,1,0.999307
0.9999999999999994,1,0.999241
1.0,1,0.999281
1.0,1,0.999330
1.0,1,0.999365
1.0,1,0.999361
0.9999999999999931,1,0.999007
1.0,1,0.999305
1.0,1,0.999298
1.0,1,0.999335
0.999999999999998,1,0.999399
1.0,1,0.999369
1.0,1,0.999413
0.9999999999999997,1,0.999316
1.0,1,0.999278
1.0,1,0.999293
0.9999999999999987,1,0.999365
0.999999999999998,1,0.999391
1.0,1,0.999403
0.9999999999999994,1,0.999361
1.0,1,0.999239
0.999999999999998,1,0.999243
1.0,1,0.999282
0.9999999999999993,1,0.999413
0.999999999999996,1,0.999344
0.9999999999999998,1,0.999336
0.9999999999999988,1,0.999377
0.9999999999999971,1,0.999325
1.0,1,0.999398
0.999999999999995,1,0.999356
0.9999999999999982,1,0.999289
0.9999999999999964,1,0.999259
0.9999999999999996,1,0.999396
0.9999999999999989,1,0.999363
0.9999999999999978,1,0.999370
1.0,1,0.999337
1.0,1,0.999419
0.9999999999999977,1,0.999286
1.0,1,0.999418
0.9999999999999971,1,0.999302
1.0,1,0.999447
0.9999999999999996,1,0.999423
1.0,1,0.999322
0.9999999999999961,1,0.999294
0.9999999999999969,1,0.999365
0.9999999999999996,1,0.999414
1.0,1,0.999371
1.0,1,0.999309
0.9999999999999956,1,0.999325
1.0,1,0.999346
0.9999999999999947,1,0.999370
1.0,1,0.999330
0.9999999999999999,1,0.999283
0.9999999999999982,1,0.999394
1.0,1,0.999356
0.9999999999999963,1,0.999361
0.9999999999999987,1,0.999346
0.9999999999999997,1,0.999411
0.9999999999999943,1,0.999351
0.9999999999999989,1,0.999385
0.9999999999999984,1,0.999361
1.0,1,0.999367
1.0,1,0.999344
0.9999999999999974,1,0.999391
1.0,1,0.999304
0.9999999999999998,1,0.999262
0.9999999999999978,1,0.999326
1.0,1,0.999464
1.0,1,0.999389
1.0,1,0.999369
0.9999999999999992,1,0.999219
0.9999999999999967,1,0.999428
0.9999999999999966,1,0.999316
0.9999999999999967,1,0.999344
0.9999999999999981,1,0.999339
1.0,1,0.999392
1.0,1,0.999341
1.0,1,0.999332
1.0,1,0.999316
1.0,1,0.999444
1.0,1,0.999182
1.0,1,0.999327
0.9999999999999966,1,0.999141
0.9999999999999999,1,0.999352
1.0,1,0.999394
1.0,1,0.999247
0.9999999999999997,1,0.999444
0.999999999999997,1,0.999243
0.9999999999999953,1,0.999333
1.0,1,0.999372
0.9999999999999953,1,0.999272
0.999999999989195,1,0.999379
1.0,1,0.999236
0.9999999999999981,1,0.999342
1.0,1,0.999360
0.9999999999999988,1,0.999368
1.0,1,0.999360
1.0,1,0.999181
0.9999999999999949,1,0.999401
1.0,1,0.999406
1.0,1,0.999399
0.9999999999999984,1,0.999330
1.0,1,0.998969
1.0,1,0.999397
1.0,1,0.999383
1.0,1,0.999340
0.9999999999999959,1,0.999373
0.9999999999999966,1,0.999303
1.0,1,0.999362
1.0,1,0.999368
0.9999999999999991,1,0.999234
0.9999999999999991,1,0.999372
1.0,1,0.999385
1.0,1,0.999244
1.0,1,0.999459
0.9999999999999986,1,0.999362
1.0,1,0.999348
1.0,1,0.999399
1.0,1,0.999235
0.9999999999999948,1,0.999400
0.9999999999999964,1,0.999412
0.9999999836460663,1,0.999456
1.0,1,0.999359
1.0,1,0.999122
1.0,1,0.999427
0.9999999999999987,1,0.999417
0.9999999999999934,1,0.999312
1.0,1,0.999382
1.0,1,0.999404
1.0,1,0.999376
0.9999999999999996,1,0.999285
0.9999999999999986,1,0.999341
0.9999999999999979,1,0.999140
0.9999999999999997,1,0.999254
1.0,1,0.999315
1.0,1,0.999434
1.0,1,0.999143
1.0,1,0.999381
1.0,1,0.999304
0.9999999999999939,1,0.999367
1.0,1,0.999226
1.0,1,0.999307
0.9999999999999977,1,0.999464
0.999999999999997,1,0.999329
0.9999999999999963,1,0.999381
1.0,1,0.999285
0.9999999999999978,1,0.999326
1.0,1,0.999393
1.0,1,0.999393
0.9999999999999984,1,0.999392
1.0,1,0.999400
1.0,1,0.999157
1.0,1,0.999375
1.0,1,0.999310
0.999999999999995,1,0.999256
1.0,1,0.999238
0.9999999999999959,1,0.999127
0.9999999999999976,1,0.999184
0.9999999999999966,1,0.999250
1.0,1,0.999261
1.0,1,0.999173
1.0,1,0.999327
1.0,1,0.999326
0.9999999999999982,1,0.999336
0.9999999999999973,1,0.999322
0.9999999999999999,1,0.999277
1.0,1,0.999373
0.999999999999998,1,0.999281
0.9999999999999944,1,0.999237
1.0,1,0.999387
1.0,1,0.999219
1.0,1,0.999408
1.0,1,0.999189
1.0,1,0.999462
0.9999999999999956,1,0.999371
1.0,1,0.999353
0.9999999999999972,1,0.999336
1.0,1,0.999437
0.999999999999996,1,0.999351
0.9999999999999993,1,0.999183
0.9999999999999989,1,0.999461
0.9999999999999944,1,0.999272
0.9999999999999986,1,0.999436
1.0,1,0.999300
1.0,1,0.999360
0.9999999999999943,1,0.999333
1.0,1,0.999026
0.9999999999999989,1,0.999413
0.9999999999999999,1,0.999409
0.999999999999998,1,0.999427
1.0,1,0.999333
1.0,1,0.999336
1.0,1,0.999284
1.0,1,0.999463
0.9999999999999951,1,0.999406
1.0,1,0.999351
0.9999999999999978,1,0.999467
1.0,1,0.999290
0.9999999999999951,1,0.999379
0.999999999999999,1,0.998943
1.0,1,0.999298
1.0,1,0.999346
1.0,1,0.999253
0.9999999999999973,1,0.999439
0.999999999999998,1,0.999327
0.9999999999999974,1,0.999355
0.9999999999999989,1,0.999452
0.9999999999999959,1,0.999359
0.9999999999999961,1,0.999186
1.0,1,0.999334
0.999999999999997,1,0.999235
1.0,1,0.999295
1.0,1,0.999345
0.9999999999999956,1,0.999130
1.0,1,0.999447
0.999999999999995,1,0.999318
0.9999999999999944,1,0.999271
0.9999999999999972,1,0.999264
0.9999999999999992,1,0.999317
1.0,1,0.999306
1.0,1,0.999386
1.0,1,0.999232
0.9999999999999994,1,0.999422
1.0,1,0.999389
1.0,1,0.999444
0.9999999999999977,1,0.999343
0.9999999999999933,1,0.999275
0.999999999999998,1,0.999430
0.9999999999999963,1,0.999410
0.999999999999999,1,0.999354
1.0,1,0.999336
0.9999999999999998,1,0.999391
1.0,1,0.999383
0.9999999999999982,1,0.999434
0.9999999999999962,1,0.999419
1.0,1,0.999369
0.9999999999999978,1,0.999210
0.9999999999999999,1,0.999379
1.0,1,0.999438
0.9999999999999967,1,0.999378
0.9999999999999998,1,0.999317
0.9999999999999957,1,0.999233
1.0,1,0.999368
0.99999999999999,1,0.999411
1.0,1,0.999306
1.0,1,0.999285
0.9999999999999988,1,0.999367
1.0,1,0.999315
1.0,1,0.999378
1.0,1,0.999298
1.0,1,0.999345
0.9999978550870988,1,0.999400
1.0,1,0.999089
0.9999999999999993,1,0.999407
0.9999999999999951,1,0.999310
1.0,1,0.999214
0.9999999999999987,1,0.999036
1.0,1,0.999345
1.0,1,0.999393
1.0,1,0.999236
0.9999999999999963,1,0.999351
1.0,1,0.999216
0.9999999999999984,1,0.999108
1.0,1,0.999176
0.9999999999999984,1,0.999213
1.0,1,0.999079
1.0,1,0.999388
0.9999999999999988,1,0.999386
1.0,1,0.999378
1.0,1,0.999410
0.9999999999999992,1,0.999247
0.9999999999999992,1,0.999359
0.9999999999999969,1,0.999276
0.9999999999999992,1,0.999308
1.0,1,0.999381
0.9999999999999964,1,0.999330
1.0,1,0.999380
1.0,1,0.999352
1.0,1,0.999371
1.0,1,0.999226
0.9999999998281638,1,0.999310
1.0,1,0.999218
1.0,1,0.999333
1.0,1,0.999375
0.9999999999999992,1,0.999381
0.9999999999999983,1,0.999405
0.9999999999999996,1,0.999295
1.0,1,0.999306
1.0,1,0.999278
1.0,1,0.999374
0.9999999999999984,1,0.999253
1.0,1,0.999422
0.9999999999999972,1,0.999204
0.9999999999999993,1,0.999234
0.9999999999999989,1,0.999418
1.0,1,0.999369
0.9999999999999986,1,0.999338
0.9999999999999988,1,0.999374
1.0,1,0.999311
1.0,1,0.999272
0.9999999999999998,1,0.999335
0.9999999999999994,1,0.999403
0.9999999999999976,1,0.999190
0.9999999999999983,1,0.999186
0.9999999999999992,1,0.999337
1.0,1,0.999319
0.9999999999999993,1,0.999385
0.9999999999999968,1,0.999366
1.0,1,0.999190
1.0,1,0.999360
0.9999999999999988,1,0.999331
0.9999999999999982,1,0.999280
1.0,1,0.999416
1.0,1,0.999327
1.0,1,0.999378
1.0,1,0.999314
1.0,1,0.999347
1.0,1,0.999278
0.9999999999999938,1,0.999319
0.9999999999999978,1,0.999436
1.0,1,0.999398
0.9999999999999971,1,0.999166
0.9999999999999994,1,0.999348
1.0,1,0.999250
0.9999999999999968,1,0.999297
1.0,1,0.999147
1.0,1,0.999225
1.0,1,0.999265
1.0,1,0.999315
0.9999999999999984,1,0.999311
0.9999999999999971,1,0.999444
1.0,1,0.999216
1.0,1,0.999224
1.0,1,0.999376
0.9999999999999982,1,0.999277
0.9999999999999999,1,0.999406
1.0,1,0.999287
0.999999999999997,1,0.999382
1.0,1,0.999263
0.9999999999999987,1,0.999367
1.0,1,0.999207
0.9999999999999986,1,0.999299
1.0,1,0.999362
0.9999999999999986,1,0.999428
1.0,1,0.999326
0.9999999999999983,1,0.999264
0.9999999999999962,1,0.999257
1.0,1,0.999253
1.0,1,0.999290
1.0,1,0.999213
1.0,1,0.999288
0.9999999999999973,1,0.999332
1.0,1,0.999424
1.0,1,0.999412
0.9999999999999974,1,0.999403
1.0,1,0.999392
0.9999999999999962,1,0.999270
0.9999999999999998,1,0.999270
0.9999999999999941,1,0.999395
1.0,1,0.999282
0.9999999999999957,1,0.999392
0.9999999999999982,1,0.999244
1.0,1,0.999419
1.0,1,0.999399
0.9999999999999948,1,0.999369
0.9999999999999954,1,0.999301
1.0,1,0.999360
1.0,1,0.999419
0.9999999999999996,1,0.999342
0.9999999999999982,1,0.999254
0.9999999999999983,1,0.999213
0.9999999999999993,1,0.999402
1.0,1,0.999395
1.0,1,0.999226
0.9999999999999932,1,0.999249
0.9999999999999982,1,0.999381
0.999999999999999,1,0.999446
0.9999999999999959,1,0.999399
0.9999999999999993,1,0.999407
0.999999999999999,1,0.999342
1.0,1,0.999369
0.9999999999999997,1,0.999342
0.999999999999996,1,0.999429
0.9999999999999978,1,0.999358
0.9999999999999988,1,0.999286
0.9999999999999981,1,0.999267
0.9999999999999987,1,0.999361
0.9999999999999996,1,0.999332
0.9999999999999991,1,0.999431
1.0,1,0.999255
0.9999999999999967,1,0.999380
1.0,1,0.999369
1.0,1,0.999359
0.9999999999999992,1,0.999337
0.9999999999999958,1,0.999386
1.0,1,0.999414
1.0,1,0.999330
1.0,1,0.999250
0.9999999999999947,1,0.999368
1.0,1,0.999415
1.0,1,0.999312
1.0,1,0.999312
1.0,1,0.999328
1.0,1,0.999224
0.9999999999999962,1,0.999286
1.0,1,0.999253
0.9999999999999968,1,0.999230
0.9999999999999972,1,0.999331
1.0,1,0.999288
0.9999999999999977,1,0.999348
1.0,1,0.999387
0.999999999999999,1,0.999293
1.0,1,0.999402
0.9999999999999956,1,0.999239
1.0,1,0.999313
0.9999999999999997,1,0.999245
1.0,1,0.999339
1.0,1,0.999390
0.9999999999999987,1,0.999409
0.9999999999999996,1,0.999268
1.0,1,0.999423
0.999999999999998,1,0.999321
0.9999999999999949,1,0.999380
0.9999999999999976,1,0.999284
0.9999999999999997,1,0.999260
1.0,1,0.999412
0.9999999999999981,1,0.999285
1.0,1,0.999276
0.9999999999999994,1,0.999371
0.9999999999999951,1,0.999312
1.0,1,0.999159
1.0,1,0.999377
0.9999999999999984,1,0.999310
0.9999999999999981,1,0.999328
0.9999999999999991,1,0.999372
0.9999999999999952,1,0.999370
1.0,1,0.999422
1.0,1,0.999328
1.0,1,0.999315
1.0,1,0.999342
0.9999999999999967,1,0.999274
1.0,1,0.999375
1.0,1,0.999329
1.0,1,0.999268
0.9999999999999991,1,0.999396
0.9999999999999973,1,0.999380
1.0,1,0.999277
0.999999999999999,1,0.999250
1.0,1,0.999357
1.0,1,0.999258
1.0,1,0.999145
0.9999999999999982,1,0.999391
0.9999999999999967,1,0.999362
1.0,1,0.999225
0.9999999999999994,1,0.999340
1.0,1,0.999408
0.9999999999999988,1,0.999219
0.9999999999999998,1,0.999388
1.0,1,0.999246
1.0,1,0.999192
1.0,1,0.999240
1.0,1,0.999211
1.0,1,0.999349
1.0,1,0.999390
1.0,1,0.999418
0.9999999999999988,1,0.999347
0.9999999999999962,1,0.999353
1.0,1,0.999369
1.0,1,0.999367
0.999999999999999,1,0.999410
1.0,1,0.999353
0.999999999999999,1,0.999423
0.9999999999999933,1,0.999165
1.0,1,0.999333
1.0,1,0.999399
1.0,1,0.999326
1.0,1,0.999373
0.9999999999999981,1,0.999263
0.9999999999999983,1,0.999426
1.0,1,0.999250
0.999999999999997,1,0.999171
1.0,1,0.999359
0.9999999999999973,1,0.999271
1.0,1,0.999358
0.9999999999999958,1,0.999316
0.9999999999999982,1,0.999339
1.0,1,0.999388
1.0,1,0.999359
1.0,1,0.999332
1.0,1,0.999393
0.9999999999999984,1,0.999299
1.0,1,0.999355
1.0,1,0.999219
1.0,1,0.999409
0.9999999999999997,1,0.999243
1.0,1,0.999396
1.0,1,0.999263
0.9999999999999961,1,0.999312
0.9999999999999998,1,0.999316
1.0,1,0.999267
0.9999999999999993,1,0.999205
0.9999999999999957,1,0.999379
1.0,1,0.999372
1.0,1,0.999360
0.9999999999999987,1,0.999339
1.0,1,0.999255
1.0,1,0.999357
0.9999999999999994,1,0.999302
0.9999999999999992,1,0.999234
0.9999999999999958,1,0.999087
0.9999999999999984,1,0.999295
0.9999999999999996,1,0.999413
1.0,1,0.999127
0.9999999999999983,1,0.999404
0.9999999999999983,1,0.999301
1.0,1,0.999151
1.0,1,0.999133
1.0,1,0.999378
0.9999999999999982,1,0.999368
1.0,1,0.999248
1.0,1,0.999326
1.0,1,0.999304
0.9999999999999984,1,0.999327
0.9999999999999998,1,0.999174
1.0,1,0.999053
0.9999999999999997,1,0.999276
0.9999999999999999,1,0.999127
0.9999999999999986,1,0.999332
1.0,1,0.999075
0.9999999999999976,1,0.999387
1.0,1,0.999431
0.9999999999999981,1,0.999396
1.0,1,0.999257
1.0,1,0.999258
1.0,1,0.999310
1.0,1,0.999349
0.9999999999999988,1,0.999321
1.0,1,0.999346
0.9999999999999991,1,0.999391
0.9999999999999982,1,0.999313
1.0,1,0.999356
0.9999999999999994,1,0.999293
1.0,1,0.999353
0.9999999999999977,1,0.999305
0.9999999999999996,1,0.999377
0.9999999999999988,1,0.999274
1.0,1,0.999319
1.0,1,0.999355
0.9999999999999933,1,0.999258
0.9999999999999976,1,0.999382
1.0,1,0.999295
0.9999999999999991,1,0.999267
0.9999999999999953,1,0.999341
1.0,1,0.999291
1.0,1,0.999316
1.0,1,0.999388
0.9999999999999996,1,0.999367
0.999999999999998,1,0.999292
1.0,1,0.999358
1.0,1,0.999309
1.0,1,0.999382
0.999999999999999,1,0.999333
1.0,1,0.999364
0.9999999999999984,1,0.999358
0.9999999999999996,1,0.999352
1.0,1,0.999361
0.9999999999999991,1,0.999428
1.0,1,0.999338
1.0,1,0.999319
1.0,1,0.999444
1.0,1,0.999307
1.0,1,0.999293
1.0,1,0.999176
0.999999999999998,1,0.999268
1.0,1,0.999419
0.9999999999999957,1,0.999257
0.9999999999999991,1,0.999217
1.0,1,0.999363
1.0,1,0.999203
0.9999999999999967,1,0.999349
1.0,1,0.999343
1.0,1,0.999375
0.9999999999999982,1,0.999276
0.9999999999999998,1,0.999382
1.0,1,0.999198
1.0,1,0.999306
0.9999999999999982,1,0.999403
1.0,1,0.999325
0.9999999999999948,1,0.999311
1.0,1,0.999293
0.9999999999999992,1,0.999261
1.0,1,0.999380
1.0,1,0.999388
0.999999999999999,1,0.999330
1.0,1,0.999319
0.9999999999999988,1,0.999379
0.9999999999999999,1,0.999378
1.0,1,0.999286
1.0,1,0.999243
1.0,1,0.999293
1.0,1,0.999281
0.9999999999999982,1,0.999420
1.0,1,0.999396
1.0,1,0.999313
1.0,1,0.999365
1.0,1,0.999387
0.9999999999999999,1,0.999151
1.0,1,0.999336
1.0,1,0.999361
0.999999999999999,1,0.999382
0.9999999999999987,1,0.999365
1.0,1,0.999120
0.9999999999999981,1,0.999391
0.9999999999999953,1,0.999312
0.9999999999999993,1,0.999421
1.0,1,0.999403
1.0,1,0.999208
1.0,1,0.999316
1.0,1,0.999430
1.0,1,0.999307
1.0,1,0.999405
1.0,1,0.999386
0.9999999999999998,1,0.999394
1.0,1,0.999352
0.9999999999999963,1,0.999318
0.9999999999999989,1,0.999452
0.9999999999999987,1,0.999186
1.0,1,0.999391
0.9999999999999993,1,0.999344
0.9999999999999993,1,0.999358
1.0,1,0.999250
1.0,1,0.999260
1.0,1,0.999391
1.0,1,0.999412
0.9999999999999973,1,0.999321
0.9999999999999982,1,0.999389
1.0,1,0.999282
0.9999999999999991,1,0.999279
1.0,1,0.999174
1.0,1,0.999245
1.0,1,0.999377
0.9999999999999969,1,0.999274
0.9999999999999971,1,0.999431
1.0,1,0.999149
1.0,1,0.999355
0.9999999999999981,1,0.999300
1.0,1,0.999306
0.9999999999999982,1,0.999316
0.999999999999997,1,0.999367
0.999999999999999,1,0.999199
1.0,1,0.999249
0.9999999999999967,1,0.999389
0.9999999999999979,1,0.999155
0.9999999999999986,1,0.999285
0.9999999999999976,1,0.999312
1.0,1,0.999389
1.0,1,0.999288
0.9999999999999984,1,0.999437
0.9999999999999952,1,0.999444
1.0,1,0.999314
1.0,1,0.999316
1.0,1,0.999398
1.0,1,0.999292
1.0,1,0.999368
1.0,1,0.999248
0.9999999999999968,1,0.999399
1.0,1,0.999280
1.0,1,0.999195
1.0,1,0.999258
1.0,1,0.999395
1.0,1,0.999423
1.0,1,0.999283
1.0,1,0.999328
1.0,1,0.999362
0.9999999999999993,1,0.999394
1.0,1,0.999366
0.9999999999999988,1,0.999289
1.0,1,0.999414
1.0,1,0.999344
0.9999999999999969,1,0.999409
0.9999999999999974,1,0.999375
0.9999999999999973,1,0.999399
1.0,1,0.999233
1.0,1,0.999339
1.0,1,0.999416
1.0,1,0.999341
0.9999999999999982,1,0.999300
1.0,1,0.999330
1.0,1,0.999238
0.9999999999999947,1,0.999439
1.0,1,0.999384
1.0,1,0.999432
0.9999999999999988,1,0.999204
1.0,1,0.999421
1.0,1,0.999400
1.0,1,0.999338
0.9999999999999997,1,0.999238
0.9999999999999972,1,0.999374
0.9999999999999967,1,0.999379
0.9999999999999988,1,0.999377
0.9999999999999948,1,0.999418
0.999999999999997,1,0.999348
1.0,1,0.999302
0.9999999999999993,1,0.999436
0.9999999999999953,1,0.999250
1.0,1,0.999388
1.0,1,0.999359
1.0,1,0.999313
0.999999999999997,1,0.999372
0.9999999999999984,1,0.999383
0.9999999999999968,1,0.999345
0.9999999999999989,1,0.999403
0.9999999999999972,1,0.999442
0.9999999999999996,1,0.999242
0.999999999999994,1,0.999216
0.9999999999999996,1,0.999360
0.9999999999999961,1,0.999231
1.0,1,0.999325
0.9999999999999988,1,0.999250
1.0,1,0.999355
1.0,1,0.999360
0.9999999999999992,1,0.999381
0.9999999999999989,1,0.999382
1.0,1,0.999364
0.9999999999999946,1,0.999322
0.9999999999999984,1,0.999389
1.0,1,0.999382
1.0,1,0.999252
1.0,1,0.999437
0.9999999999999981,1,0.999160
1.0,1,0.999342
0.9999999999999993,1,0.999390
0.9999999999999997,1,0.999302
0.9999999999999982,1,0.999143
1.0,1,0.999383
1.0,1,0.999347
0.999999999999998,1,0.999361
0.9999999999999996,1,0.999287
0.9999999999999998,1,0.999405
0.9999999999999989,1,0.999273
0.999999999999999,1,0.999206
0.9999999999999961,1,0.998996
1.0,1,0.999291
1.0,1,0.999330
1.0,1,0.999359
0.9999999999999993,1,0.999351
0.9999999999999996,1,0.999378
1.0,1,0.999250
1.0,1,0.999385
0.9999999999999979,1,0.999369
0.9999999999999988,1,0.999178
1.0,1,0.999418
1.0,1,0.999417
1.0,1,0.999194
1.0,1,0.999293
0.9999999999999988,1,0.999214
0.9999999999999978,1,0.999339
0.999999999999997,1,0.999367
1.0,1,0.999279
1.0,1,0.999263
1.0,1,0.999396
0.9999999999999996,1,0.999367
1.0,1,0.999326
0.9999999999999972,1,0.999413
0.9999999999999968,1,0.999251
1.0,1,0.999299
1.0,1,0.999327
1.0,1,0.999353
0.9999999999999997,1,0.999213
1.0,1,0.999374
0.9999999999999989,1,0.999300
1.0,1,0.999290
1.0,1,0.999298
1.0,1,0.999380
0.9999999999999969,1,0.999350
0.999999999999995,1,0.999331
0.9999999999999988,1,0.999332
0.999999999999999,1,0.999365
1.0,1,0.999385
0.9999999999999974,1,0.999351
1.0,1,0.999367
0.999999999999999,1,0.999457
1.0,1,0.999369
0.9999999999999989,1,0.999351
0.9999999999999962,1,0.999298
1.0,1,0.999291
1.0,1,0.999297
0.9999999999999984,1,0.999379
1.0,1,0.999424
1.0,1,0.999288
0.9999999999999984,1,0.999433
1.0,1,0.999353
1.0,1,0.999326
0.9999999999999992,1,0.999361
0.9999999999999972,1,0.999405
0.9999999999999971,1,0.999280
1.0,1,0.999284
0.9999999999999987,1,0.999271
0.9999999999999987,1,0.999309
0.9999999999999994,1,0.999352
1.0,1,0.999354
1.0,1,0.999365
0.9999999999999991,1,0.999334
1.0,1,0.999457
0.9999999999999959,1,0.999447
0.9999999999999968,1,0.999300
1.0,1,0.999325
0.9999999999999962,1,0.999356
0.9999999999999992,1,0.999456
1.0,1,0.999311
0.9999999999999952,1,0.999345
1.0,1,0.999061
1.0,1,0.999409
1.0,1,0.999415
0.9999999999999968,1,0.999447
1.0,1,0.999394
1.0,1,0.999407
0.9999999999999986,1,0.999416
1.0,1,0.999403
0.999999999999998,1,0.999224
0.9999999999999991,1,0.999378
0.9999999999999988,1,0.999409
0.9999999999999974,1,0.999421
0.9999999999999964,1,0.999370
0.9999999999999916,1,0.999348
0.9999999999999984,1,0.999405
1.0,1,0.999249
1.0,1,0.999257
0.9999999999999989,1,0.999413
0.9999999999999988,1,0.999354
0.999999999999995,1,0.999428
1.0,1,0.999257
0.9999999999999993,1,0.999398
0.9999999999999956,1,0.999369
0.9999999999999963,1,0.999392
1.0,1,0.999415
1.0,1,0.999322
1.0,1,0.999359
1.0,1,0.999357
1.0,1,0.999441
0.9999999999999969,1,0.999374
1.0,1,0.999385
0.9999999999999949,1,0.999352
1.0,1,0.999417
1.0,1,0.999398
1.0,1,0.999360
1.0,1,0.999398
0.9999999999999976,1,0.999331
1.0,1,0.999423
0.9999999999999962,1,0.999359
1.0,1,0.999145
1.0,1,0.999322
1.0,1,0.999353
1.0,1,0.999384
1.0,1,0.999066
0.9999999999999993,1,0.999288
0.9999999999999986,1,0.999329
1.0,1,0.999366
0.9999999999999999,1,0.999437
0.9999999999999991,1,0.999358
1.0,1,0.999318
1.0,1,0.999376
0.999999999999998,1,0.999060
1.0,1,0.999320
0.9999999999999981,1,0.999375
0.9999999999999998,1,0.999225
1.0,1,0.999405
1.0,1,0.999425
0.9999999999999959,1,0.999388
0.9999999999999948,1,0.999294
0.9999999999999949,1,0.999538
1.0,1,0.999347
1.0,1,0.999192
1.0,1,0.999369
1.0,1,0.999105
0.9999999999999967,1,0.999284
1.0,1,0.999411
0.9999999999999987,1,0.999374
1.0,1,0.999357
0.9999999999999986,1,0.999353
0.9999999999999971,1,0.999259
1.0,1,0.999352
1.0,1,0.999305
1.0,1,0.999337
1.0,1,0.999268
0.9999999999999971,1,0.999411
1.0,1,0.999354
1.0,1,0.999285
1.0,1,0.999368
1.0,1,0.999374
0.999999999999999,1,0.999341
0.9999999999999978,1,0.999237
1.0,1,0.999367
0.9999999999999966,1,0.999441
1.0,1,0.999234
1.0,1,0.999404
1.0,1,0.999311
1.0,1,0.999407
0.9999999999999983,1,0.999409
0.9999999999999983,1,0.999427
1.0,1,0.999298
1.0,1,0.999389
0.999999999999999,1,0.999394
0.9999999999999993,1,0.999371
1.0,1,0.999433
0.9999999999999978,1,0.999088
0.9999999999999986,1,0.999302
1.0,1,0.999119
1.0,1,0.999398
1.0,1,0.999228
1.0,1,0.999270
0.9999999999999984,1,0.999356
1.0,1,0.999213
1.0,1,0.999225
0.9999999999999994,1,0.999386
0.9999999999999979,1,0.999362
0.9999999999999994,1,0.999332
1.0,1,0.999236
0.9999999999999981,1,0.999274
1.0,1,0.999420
0.9999999999999999,1,0.999426
0.9999999999999993,1,0.999342
0.9999999999999978,1,0.999356
1.0,1,0.999258
1.0,1,0.999282
0.9999999999999997,1,0.999029
1.0,1,0.999341
0.9999999999999982,1,0.999146
1.0,1,0.999228
1.0,1,0.999302
0.9999999999999987,1,0.999340
1.0,1,0.999394
0.9999999999999974,1,0.999381
0.9999999999999963,1,0.999272
0.9999999999999973,1,0.999273
0.9999999999999982,1,0.999384
0.9999999999999972,1,0.999398
0.9999999999999969,1,0.999173
1.0,1,0.999389
1.0,1,0.999251
0.9999999999999996,1,0.999293
0.9999999999999977,1,0.999374
0.9999999999999988,1,0.999251
1.0,1,0.999313
1.0,1,0.999374
0.9999999999999996,1,0.999422
1.0,1,0.999225
1.0,1,0.999387
0.9999999999999978,1,0.999366
0.9999999999999977,1,0.999329
1.0,1,0.999379
0.9999999999999967,1,0.999317
1.0,1,0.999241
0.9999999999999974,1,0.999210
1.0,1,0.999316
0.9999999999999956,1,0.999305
0.999999999999996,1,0.999112
1.0,1,0.999089
1.0,1,0.999212
1.0,1,0.999326
0.9999999999999993,1,0.999371
1.0,1,0.999387
1.0,1,0.999340
0.9999999999999997,1,0.999141
1.0,1,0.999450
0.9999999999999964,1,0.999405
0.9999999999999993,1,0.999320
0.9999999999999992,1,0.999259
1.0,1,0.999407
1.0,1,0.999466
0.9999999999999969,1,0.999424
1.0,1,0.999224
1.0,1,0.999427
0.9999999999999986,1,0.999350
0.9999999999999984,1,0.999363
0.9999999999999988,1,0.999378
1.0,1,0.999432
1.0,1,0.999347
1.0,1,0.999190
1.0,1,0.999194
0.9999999999999982,1,0.999375
1.0,1,0.999373
0.9999999999999989,1,0.999407
1.0,1,0.999370
1.0,1,0.999227
1.0,1,0.999235
1.0,1,0.999060
1.0,1,0.999263
1.0,1,0.999282
0.999999999999999,1,0.999380
0.9999999999999986,1,0.999312
0.999999999999999,1,0.999315
0.9999999999999981,1,0.999291
0.999999999999996,1,0.999365
0.9999999999999997,1,0.999392
0.999999999999995,1,0.999376
0.9999999999999978,1,0.999282
0.9999999999999979,1,0.999224
0.9999999999999959,1,0.999240
0.9999999999999989,1,0.999212
1.0,1,0.999225
0.9999999999999988,1,0.998901
0.999999999999996,1,0.999329
1.0,1,0.999311
0.9999999999999999,1,0.999326
0.9999999999999951,1,0.999421
0.9999999999999976,1,0.999390
0.9999999999999979,1,0.999370
0.9999999999999986,1,0.999375
1.0,1,0.999427
0.9999999999999998,1,0.999290
1.0,1,0.999260
1.0,1,0.999354
0.9999999999999974,1,0.999378
1.0,1,0.999350
1.0,1,0.999310
0.9999999999999981,1,0.999386
0.9999999999999996,1,0.999290
1.0,1,0.999324
1.0,1,0.999338
0.999999999999995,1,0.999365
0.9999999999999987,1,0.999411
0.9999999999999957,1,0.999356
0.999999999999998,1,0.999418
0.9999999999999968,1,0.999343
0.9999999999999997,1,0.999274
1.0,1,0.999287
1.0,1,0.999271
0.999999999999998,1,0.999346
1.0,1,0.999359
0.9999999999999993,1,0.999283
1.0,1,0.999267
1.0,1,0.999424
0.9999999999999976,1,0.999272
0.9999999999999989,1,0.999358
1.0,1,0.999420
0.9999999999999992,1,0.999344
0.9999999999999978,1,0.999429
0.9999999999999997,1,0.999316
1.0,1,0.999275
1.0,1,0.999380
1.0,1,0.999369
0.9999999999999986,1,0.999345
0.9999999999999993,1,0.999203
0.9999999999999974,1,0.999275
1.0,1,0.999342
0.999999999999999,1,0.999283
0.9999999999999969,1,0.999349
1.0,1,0.999430
1.0,1,0.999227
0.9999999999999942,1,0.999359
0.9999999999999949,1,0.999381
0.9999999999999989,1,0.999280
1.0,1,0.999211
1.0,1,0.999398
1.0,1,0.999362
1.0,1,0.999341
1.0,1,0.999402
0.9999999999999972,1,0.999445
1.0,1,0.999352
1.0,1,0.999332
1.0,1,0.999176
1.0,1,0.999449
1.0,1,0.999381
1.0,1,0.999419
0.9999999999999962,1,0.999343
0.9999999999999997,1,0.999445
0.9999999999999988,1,0.999387
1.0,1,0.999272
0.9999999999999989,1,0.999188
0.9999999999999983,1,0.999406
0.9999999999999966,1,0.999382
1.0,1,0.999254
0.9999999999999988,1,0.999329
1.0,1,0.999296
0.9999999999999989,1,0.999122
0.9999999999999997,1,0.999371
1.0,1,0.999247
1.0,1,0.999336
1.0,1,0.999250
1.0,1,0.999282
0.9999999999999981,1,0.999194
1.0,1,0.999395
1.0,1,0.999374
1.0,1,0.999160
1.0,1,0.999335
0.9999999999999996,1,0.999352
0.9999999999999984,1,0.999368
1.0,1,0.999343
0.9999999999999946,1,0.999227
1.0,1,0.999312
0.9999999999999991,1,0.999323
1.0,1,0.999259
0.9999999999999994,1,0.999446
0.9999999999999999,1,0.999344
0.9999999999999994,1,0.999130
1.0,1,0.999400
0.9999999999999999,1,0.999280
0.9999999999999994,1,0.999252
1.0,1,0.999357
0.999999999999999,1,0.999429
1.0,1,0.999192
1.0,1,0.999387
0.9999999999999996,1,0.999312
1.0,1,0.999262
0.9999999999999999,1,0.999333
0.9999999999999996,1,0.999370
0.9999999999999982,1,0.999344
0.9999999999999977,1,0.999371
1.0,1,0.999038
0.9999999999999984,1,0.999401
0.9999999999999954,1,0.999440
0.999999999999999,1,0.999360
0.9999999999999984,1,0.999438
0.9999999999999984,1,0.999295
0.9999999999999954,1,0.999319
1.0,1,0.999288
1.0,1,0.999444
0.9999999999999973,1,0.999321
1.0,1,0.999160
1.0,1,0.999290
0.9999999999999964,1,0.999305
1.0,1,0.999380
1.0,1,0.999120
0.9999999999999938,1,0.999286
1.0,1,0.999305
1.0,1,0.999268
0.999999999999997,1,0.999265
1.0,1,0.999378
1.0,1,0.999352
0.9999999999999952,1,0.999433
1.0,1,0.999387
0.9999999999999988,1,0.999384
0.9999999999999987,1,0.999088
1.0,1,0.999331
1.0,1,0.999346
0.9999999999999974,1,0.999342
0.9999999999999988,1,0.999330
1.0,1,0.999277
0.9999999999999982,1,0.999300
1.0,1,0.999278
0.9999999999999989,1,0.999332
1.0,1,0.999211
1.0,1,0.999362
1.0,1,0.999409
1.0,1,0.999308
1.0,1,0.999395
0.9999999999999962,1,0.999349
1.0,1,0.999097
1.0,1,0.999377
0.9999999999999964,1,0.999280
0.9999999999999984,1,0.999358
0.9999999999999986,1,0.999292
1.0,1,0.999432
0.9999999999999959,1,0.999420
1.0,1,0.999419
1.0,1,0.999371
1.0,1,0.999213
1.0,1,0.999398
1.0,1,0.999424
1.0,1,0.999367
0.9999999999999971,1,0.999389
1.0,1,0.999231
1.0,1,0.999316
1.0,1,0.999283
0.9999999999999987,1,0.999432
1.0,1,0.999343
1.0,1,0.999245
1.0,1,0.999380
0.9999999999999993,1,0.999314
0.9999999999999997,1,0.999142
0.9999999999999979,1,0.999446
1.0,1,0.999426
0.9999999999999997,1,0.999294
1.0,1,0.999239
0.9999999999999932,1,0.999311
0.9999999999999993,1,0.999354
1.0,1,0.999313
0.9999999999999953,1,0.999133
0.9999999999999973,1,0.999106
0.9999999999999977,1,0.999285
1.0,1,0.999250
0.999999999999996,1,0.999421
1.0,1,0.999404
1.0,1,0.999343
0.9999999999999996,1,0.999227
0.9999999999999968,1,0.999410
0.9999999999999994,1,0.999379
1.0,1,0.999286
1.0,1,0.999241
0.9999999999999973,1,0.999312
0.9999999999999953,1,0.999231
1.0,1,0.999394
1.0,1,0.999262
0.999999999999993,1,0.999375
0.9999999999999974,1,0.999145
0.9999999999999997,1,0.999351
1.0,1,0.999199
0.9999999999999994,1,0.999370
0.9999999999999978,1,0.999165
1.0,1,0.999364
0.9999999999999951,1,0.999359
1.0,1,0.999297
0.9999999999999963,1,0.999311
0.9999999999999981,1,0.999445
1.0,1,0.999233
0.9999999999999999,1,0.999351
1.0,1,0.999354
0.9999999999999986,1,0.999403
1.0,1,0.999382
1.0,1,0.999319
0.9999999999999949,1,0.999188
1.0,1,0.999270
0.9999999999999957,1,0.999253
1.0,1,0.999301
0.9999999999999938,1,0.999331
0.999999999999997,1,0.999397
0.9999999999999963,1,0.999347
0.9999999999999972,1,0.999283
0.9999999999999987,1,0.999311
1.0,1,0.999330
1.0,1,0.999398
0.9999999999999983,1,0.999347
0.9999999999999978,1,0.999235
0.9999999999999992,1,0.999336
1.0,1,0.999324
1.0,1,0.999438
0.9999999999999982,1,0.999350
0.9999999999999981,1,0.999330
1.0,1,0.999173
0.9999999999999998,1,0.999040
0.9999999999999988,1,0.999295
0.999999999999994,1,0.999295
1.0,1,0.999278
0.9999999999999989,1,0.999250
0.9999999999999989,1,0.999254
0.9999999999999992,1,0.999392
1.0,1,0.999317
0.9999999999999967,1,0.999303
0.999999999999998,1,0.999308
0.9999999999999991,1,0.999305
0.9999999999999986,1,0.999320
0.9999999999999971,1,0.999380
0.9999999999999989,1,0.999290
1.0,1,0.999231
0.9999999999999978,1,0.999389
1.0,1,0.999375
0.9999999999999942,1,0.999403
1.0,1,0.999397
1.0,1,0.999348
0.9999999999999962,1,0.999077
0.9999999999999987,1,0.998974
0.9999999999999982,1,0.999099
0.9999999999999992,1,0.999231
1.0,1,0.999273
0.9999999999999953,1,0.999275
0.9999999999999966,1,0.999423
1.0,1,0.999295
0.9999999999999969,1,0.999427
0.9999999999999973,1,0.999395
1.0,1,0.999400
0.9999999999999986,1,0.999370
0.9999999999999991,1,0.999295
0.9999999999999961,1,0.999291
1.0,1,0.999230
0.9999999999999979,1,0.999351
0.9999999999999987,1,0.999262
0.9999999999999992,1,0.999391
1.0,1,0.999394
0.999999999999999,1,0.999292
1.0,1,0.999208
0.9999999999999961,1,0.999313
0.9999999999999993,1,0.999448
0.9999999999999986,1,0.999302
0.9999999999999943,1,0.999373
1.0,1,0.999362
0.9999999999999962,1,0.999402
0.9999999999999983,1,0.999277
0.9999999999999967,1,0.999366
1.0,1,0.999319
0.9999999999999987,1,0.999286
1.0,1,0.999309
0.9999999999999923,1,0.999240
1.0,1,0.999377
0.9999999999999978,1,0.999337
1.0,1,0.999363
0.9999999999999978,1,0.999278
0.9999999999999962,1,0.999377
0.9999999999999991,1,0.999392
0.9999999999999964,1,0.999276
0.9999999999999979,1,0.999281
1.0,1,0.999286
1.0,1,0.999349
1.0,1,0.999365
1.0,1,0.999357
1.0,1,0.999357
0.9999999999999976,1,0.999510
1.0,1,0.999231
1.0,1,0.999228
0.9999999999999987,1,0.999179
1.0,1,0.999354
0.9999999999999998,1,0.999237
1.0,1,0.999360
1.0,1,0.999264
0.9999999999999991,1,0.999426
0.9999999999999984,1,0.999332
0.9999999999999984,1,0.999319
1.0,1,0.999354
1.0,1,0.999415
1.0,1,0.999181
1.0,1,0.999420
0.9999999999999981,1,0.999067
1.0,1,0.999149
1.0,1,0.999340
0.9999999999999967,1,0.999387
0.9999999999999988,1,0.999316
1.0,1,0.999333
1.0,1,0.999356
1.0,1,0.999418
1.0,1,0.999394
0.9999999999999976,1,0.999343
0.999999999999998,1,0.999378
0.9999999999999997,1,0.999296
0.9999999999999962,1,0.999295
1.0,1,0.999284
0.9999999999999989,1,0.999385
1.0,1,0.999383
0.999999999999996,1,0.999450
1.0,1,0.999178
1.0,1,0.999331
1.0,1,0.999102
0.9999999999999987,1,0.999450
1.0,1,0.999249
1.0,1,0.999276
1.0,1,0.999291
0.9999999999999966,1,0.999348
0.9999999999999996,1,0.999403
1.0,1,0.999365
1.0,1,0.999393
1.0,1,0.999353
0.9999999999999992,1,0.999220
1.0,1,0.999155
1.0,1,0.999354
0.9999999999999973,1,0.999360
0.9999999999999971,1,0.999280
0.999999999999999,1,0.999202
1.0,1,0.999304
1.0,1,0.999449
1.0,1,0.999184
1.0,1,0.999359
0.9999999999999986,1,0.999464
1.0,1,0.999354
0.9999999999999994,1,0.999374
1.0,1,0.999137
1.0,1,0.999289
1.0,1,0.999428
0.9999999999999956,1,0.999354
1.0,1,0.999204
1.0,1,0.999219
1.0,1,0.999335
1.0,1,0.999291
1.0,1,0.999410
0.9999999999999959,1,0.999414
1.0,1,0.999313
0.9999999999999976,1,0.999190
1.0,1,0.999332
1.0,1,0.999284
1.0,1,0.999230
0.9999999999999979,1,0.999335
1.0,1,0.999332
0.999999999999999,1,0.999415
0.9999999999999991,1,0.999275
1.0,1,0.999326
1.0,1,0.999259
0.999999999999997,1,0.999192
1.0,1,0.999165
1.0,1,0.999325
0.9999999999999969,1,0.999336
0.9999999999999999,1,0.999423
1.0,1,0.999402
1.0,1,0.999380
1.0,1,0.999392
1.0,1,0.999366
1.0,1,0.999378
1.0,1,0.999110
1.0,1,0.999298
0.9999999999999967,1,0.999311
1.0,1,0.999306
1.0,1,0.999395
1.0,1,0.999349
1.0,1,0.999195
0.9999999999999968,1,0.999402
1.0,1,0.999319
1.0,1,0.999267
0.9999999999999991,1,0.999238
1.0,1,0.999083
1.0,1,0.999147
0.9999999999999993,1,0.999376
1.0,1,0.999358
0.9999999999999991,1,0.999294
1.0,1,0.999303
1.0,1,0.999237
0.9999999999999998,1,0.999381
0.9999999999999933,1,0.999261
1.0,1,0.999320
0.9999999999999997,1,0.999270
1.0,1,0.999357
0.9999999999999989,1,0.999384
1.0,1,0.999298
0.9999999999999988,1,0.999312
0.9999999999999966,1,0.999165
1.0,1,0.999359
1.0,1,0.999130
1.0,1,0.999293
1.0,1,0.999312
0.9999999999999918,1,0.999238
1.0,1,0.999415
1.0,1,0.999297
0.9999999999999999,1,0.999339
1.0,1,0.999078
0.9999999999999991,1,0.999379
1.0,1,0.999321
1.0,1,0.999319
1.0,1,0.999389
0.9999999999999928,1,0.999271
1.0,1,0.999356
1.0,1,0.999370
1.0,1,0.999310
1.0,1,0.999237
1.0,1,0.999203
1.0,1,0.999397
1.0,1,0.999245
0.9999999999999969,1,0.999354
0.9999999999999974,1,0.999199
0.9999999999999991,1,0.999383
1.0,1,0.999312
1.0,1,0.999405
0.9999999999999988,1,0.999428
1.0,1,0.999341
0.999999999999998,1,0.999368
0.9999999999999987,1,0.999430
0.9999999999999978,1,0.999142
1.0,1,0.999368
0.9999999999999993,1,0.999318
1.0,1,0.999352
1.0,1,0.999261
1.0,1,0.999392
1.0,1,0.999371
0.9999999999999983,1,0.999312
1.0,1,0.999405
0.9999999999999992,1,0.999359
0.9999999999999984,1,0.999442
1.0,1,0.999290
1.0,1,0.999250
0.999999999999999,1,0.999324
0.999999999999999,1,0.999321
0.9999999999999992,1,0.999345
1.0,1,0.999317
0.9999999999999981,1,0.999402
1.0,1,0.999268
1.0,1,0.999249
1.0,1,0.999214
0.9999999999999992,1,0.999063
0.9999999999999977,1,0.999274
1.0,1,0.999353
1.0,1,0.999334
1.0,1,0.999285
0.9999999999999984,1,0.999404
1.0,1,0.999284
1.0,1,0.999354
0.9999999999999983,1,0.999248
0.9999999999999972,1,0.999149
0.9999999999999984,1,0.999310
0.9999999999999966,1,0.999304
1.0,1,0.999313
1.0,1,0.999275
1.0,1,0.999363
0.9999999999999986,1,0.999380
0.9999999999999946,1,0.999315
0.9999999999999963,1,0.999247
1.0,1,0.999351
0.9999999999999998,1,0.999160
1.0,1,0.999283
1.0,1,0.999354
0.9999999999999987,1,0.999363
0.999999999999999,1,0.999477
1.0,1,0.999433
1.0,1,0.999312
0.9999999999999981,1,0.999384
0.9999999999999976,1,0.999274
0.9999999999999974,1,0.999248
1.0,1,0.999369
0.9999999999999972,1,0.999146
1.0,1,0.999392
0.9999999999999962,1,0.999349
0.9999999999999969,1,0.999336
1.0,1,0.999264
1.0,1,0.999298
0.9999999999999982,1,0.999368
0.9999999999999986,1,0.999171
0.9999999999999991,1,0.999266
0.9999999999999977,1,0.999315
1.0,1,0.999338
0.9999999999999986,1,0.999326
1.0,1,0.999249
1.0,1,0.999324
0.9999999999999978,1,0.999396
1.0,1,0.999380
1.0,1,0.999388
0.9999999999999949,1,0.999154
1.0,1,0.999280
0.9999999999999978,1,0.999339
1.0,1,0.999310
0.9999999999999939,1,0.999342
1.0,1,0.999398
0.9999999999999999,1,0.999386
0.9999999999999942,1,0.999391
0.9999999999999998,1,0.999233
0.9999999999999978,1,0.999437
1.0,1,0.999370
1.0,1,0.999375
0.9999999999999991,1,0.999358
1.0,1,0.999388
0.9999999999999954,1,0.999344
1.0,1,0.999299
1.0,1,0.999318
0.9999999999999931,1,0.999264
0.999999999999998,1,0.999382
1.0,1,0.999293
1.0,1,0.999339
1.0,1,0.999372
1.0,1,0.999379
1.0,1,0.999167
0.9999999999999957,1,0.999422
0.9999999999999986,1,0.999357
1.0,1,0.999366
0.9999999999999993,1,0.999304
1.0,1,0.999282
1.0,1,0.999210
1.0,1,0.999307
1.0,1,0.999335
1.0,1,0.999334
0.999999999999997,1,0.999307
0.9999999999999992,1,0.999306
1.0,1,0.999393
1.0,1,0.999194
1.0,1,0.999306
1.0,1,0.999399
1.0,1,0.999292
0.999999999999999,1,0.999294
0.9999999999999996,1,0.999228
0.9999999999999999,1,0.999221
0.9999999999999993,1,0.999324
0.9999999999999978,1,0.999358
1.0,1,0.999276
0.9999999999999971,1,0.999289
0.9999999999999989,1,0.999277
0.9999999999999997,1,0.999319
1.0,1,0.999209
0.9999999999999997,1,0.999311
0.9999999999999976,1,0.999160
0.9999999999999993,1,0.999374
1.0,1,0.999322
1.0,1,0.999343
0.999999999999999,1,0.999319
1.0,1,0.999415
1.0,1,0.999211
1.0,1,0.999355
1.0,1,0.999339
0.9999999999999942,1,0.999425
0.9999999999999986,1,0.999365
1.0,1,0.999337
1.0,1,0.999357
1.0,1,0.999174
0.9999999999999994,1,0.999408
1.0,1,0.999221
1.0,1,0.999398
0.9999999999999981,1,0.999416
0.9999999999999994,1,0.999312
1.0,1,0.999253
0.9999999999999968,1,0.999402
1.0,1,0.999340
1.0,1,0.999333
1.0,1,0.999409
0.9999999999999999,1,0.999154
0.9999999999999993,1,0.999406
1.0,1,0.999293
0.9999999999999941,1,0.999419
1.0,1,0.999265
0.9999999999999992,1,0.999170
1.0,1,0.999185
1.0,1,0.999371
0.999999999999997,1,0.999389
1.0,1,0.999254
1.0,1,0.999326
0.9999999999999983,1,0.999261
0.9999999999999973,1,0.999378
0.9999999999999981,1,0.999398
1.0,1,0.999226
0.9999999999999988,1,0.999288
1.0,1,0.999412
0.9999999999999998,1,0.999314
1.0,1,0.999393
0.9999999999999988,1,0.999369
1.0,1,0.999326
1.0,1,0.999416
1.0,1,0.999315
1.0,1,0.999236
1.0,1,0.999400
1.0,1,0.999283
0.9999999999999999,1,0.999349
1.0,1,0.999249
0.9999999999999989,1,0.999253
0.9999999999999991,1,0.999420
0.9999999999999984,1,0.999394
1.0,1,0.999303
1.0,1,0.999356
1.0,1,0.999405
1.0,1,0.999379
0.9999999999999971,1,0.999342
1.0,1,0.999380
1.0,1,0.999317
0.9999999999999981,1,0.999372
1.0,1,0.999359
1.0,1,0.999241
0.9999999999999964,1,0.999262
1.0,1,0.999384
1.0,1,0.999439
1.0,1,0.999281
1.0,1,0.999356
0.9999999999999952,1,0.999392
1.0,1,0.999158
0.9999999999999991,1,0.999359
1.0,1,0.999391
1.0,1,0.999218
1.0,1,0.999448
0.9999999999999977,1,0.999323
1.0,1,0.999408
1.0,1,0.999375
0.999999999999997,1,0.999238
0.9999999999999958,1,0.999385
0.9999999999999951,1,0.999423
0.9999999999999967,1,0.999429
1.0,1,0.999081
1.0,1,0.999294
1.0,1,0.999190
0.9999999999999984,1,0.999385
1.0,1,0.999319
0.999999999999996,1,0.999277
1.0,1,0.999261
0.9999999999999988,1,0.999317
0.999999999999996,1,0.999318
1.0,1,0.999451
1.0,1,0.999405
1.0,1,0.999276
1.0,1,0.999342
1.0,1,0.999275
0.9999999999999947,1,0.999330
1.0,1,0.999438
1.0,1,0.999396
1.0,1,0.999386
0.999999999999999,1,0.999296
0.9999999999999982,1,0.999245
1.0,1,0.999038
1.0,1,0.999389
0.999999999999997,1,0.999469
0.9999999999999958,1,0.999441
0.999999999999999,1,0.999282
1.0,1,0.999392
1.0,1,0.999335
1.0,1,0.999314
0.9999999999999978,1,0.999370
0.9999999999999983,1,0.999353
0.9999999999999983,1,0.999301
1.0,1,0.999345
0.9999999999999997,1,0.999283
0.9999999999999982,1,0.999365
1.0,1,0.999241
0.9999999999999984,1,0.999165
0.9999999999999943,1,0.999389
1.0,1,0.999142
1.0,1,0.999372
1.0,1,0.999459
0.9999999999999983,1,0.999312
0.999999999999999,1,0.999385
0.999999999999999,1,0.999133
0.9999999999999966,1,0.999218
0.9999999999999983,1,0.999388
1.0,1,0.999215
0.9999999999999966,1,0.999382
0.999999999999997,1,0.999130
1.0,1,0.999469
1.0,1,0.999315
0.9999999999999967,1,0.999414
0.9999999999999984,1,0.999300
1.0,1,0.999291
0.9999999999999994,1,0.999419
1.0,1,0.999348
0.9999999999999977,1,0.999351
0.9999999999999983,1,0.999369
1.0,1,0.999318
1.0,1,0.999369
0.9999999999999971,1,0.999359
1.0,1,0.999287
0.9999999999999958,1,0.999395
0.9999999999999969,1,0.999247
0.9999999999999969,1,0.999206
0.999999999999998,1,0.999182
0.9999999999999949,1,0.999288
0.9999999999999989,1,0.999396
1.0,1,0.999398
0.9999999999999968,1,0.999298
1.0,1,0.999328
1.0,1,0.999290
0.9999999999999999,1,0.999379
0.9999999999999986,1,0.999304
1.0,1,0.999352
0.9999999999999991,1,0.999232
0.9999999999999996,1,0.999415
0.9999999999999998,1,0.999317
0.9999999999999983,1,0.999400
0.9999999999999963,1,0.999327
1.0,1,0.999416
0.9999999999999991,1,0.999361
1.0,1,0.999265
1.0,1,0.999394
0.9999999999999991,1,0.999246
0.9999999999999978,1,0.999340
1.0,1,0.999422
1.0,1,0.999505
0.9999999999999976,1,0.999351
1.0,1,0.999264
1.0,1,0.999320
0.999999999999996,1,0.999438
1.0,1,0.999418
1.0,1,0.999393
1.0,1,0.999304
1.0,1,0.999442
1.0,1,0.999315
0.9999999999999981,1,0.999416
1.0,1,0.999392
0.999999999999997,1,0.999352
1.0,1,0.999421
0.9999999999999972,1,0.999459
1.0,1,0.999389
0.9999999999999979,1,0.999428
0.9999999999999998,1,0.999264
1.0,1,0.999188
1.0,1,0.999372
0.999999999999999,1,0.999376
0.9999999999999963,1,0.999304
1.0,1,0.999205
0.9999999999999983,1,0.999226
0.9999999999999984,1,0.999453
1.0,1,0.999391
0.9999999999999977,1,0.999415
0.9999999999999954,1,0.999378
1.0,1,0.999351
0.9999999999999959,1,0.999276
1.0,1,0.999286
0.9999999999999982,1,0.999151
1.0,1,0.999294
1.0,1,0.999294
1.0,1,0.999376
0.9999999999999963,1,0.999182
0.9999999999999991,1,0.999336
1.0,1,0.999237
0.9999999999999977,1,0.999238
0.999999999999999,1,0.999290
1.0,1,0.999314
1.0,1,0.999441
1.0,1,0.999230
0.9999999999999996,1,0.999285
0.9999999999999941,1,0.999372
0.9999999999999986,1,0.999366
0.9999999999999956,1,0.999338
0.999999999999999,1,0.999342
1.0,1,0.999316
1.0,1,0.999342
1.0,1,0.999192
1.0,1,0.999380
1.0,1,0.999351
0.9999999999999976,1,0.999306
0.9999999999999996,1,0.999240
0.999999999999997,1,0.999283
0.9999999999999922,1,0.999334
0.9999999999999998,1,0.999403
1.0,1,0.999290
0.9999999999999989,1,0.999438
0.9999999999999971,1,0.999409
0.9999999999999978,1,0.999331
0.9999999999999913,1,0.999427
0.9999999999999951,1,0.999246
1.0,1,0.999376
1.0,1,0.999206
0.9999999999999987,1,0.999410
1.0,1,0.999344
1.0,1,0.999351
0.9999999999999988,1,0.999309
1.0,1,0.999423
0.999999999999997,1,0.999424
0.9999999999999976,1,0.999365
0.9999999999999991,1,0.999338
0.9999999999999984,1,0.999282
0.9999999999999958,1,0.999325
0.999999999999999,1,0.999261
1.0,1,0.999330
0.9999999999999989,1,0.999340
0.9999999999999979,1,0.999391
1.0,1,0.999342
0.9999999999999992,1,0.999395
0.9999999999999996,1,0.999203
0.9999999999999987,1,0.999405
1.0,1,0.999187
0.9999999999999951,1,0.999064
1.0,1,0.999380
1.0,1,0.999385
1.0,1,0.999313
1.0,1,0.999383
1.0,1,0.999384
0.9999999999999983,1,0.999295
0.9999999999999997,1,0.999330
0.9999999999999982,1,0.999450
1.0,1,0.999379
1.0,1,0.999412
0.9999999999999992,1,0.999277
0.999999999999997,1,0.999284
1.0,1,0.999231
0.9999999999999984,1,0.999170
1.0,1,0.999235
1.0,1,0.999449
1.0,1,0.999425
1.0,1,0.999277
0.9999999999999976,1,0.999394
0.9999999999999998,1,0.999283
1.0,1,0.999346
1.0,1,0.999264
1.0,1,0.999356
1.0,1,0.999316
1.0,1,0.999455
0.9999999999999998,1,0.999097
0.9999999999999979,1,0.999315
1.0,1,0.999292
1.0,1,0.999399
0.9999999999999948,1,0.999446
1.0,1,0.999384
0.9999999999999978,1,0.999417
0.9999999999999977,1,0.999408
1.0,1,0.999339
0.9999999999999932,1,0.999328
1.0,1,0.999343
0.9999999999999983,1,0.999456
0.9999999999999961,1,0.999485
0.999999999999999,1,0.999403
0.9999999999999966,1,0.999436
0.9999999999999987,1,0.999442
0.9999999999999999,1,0.999415
0.9999999999999997,1,0.999435
1.0,1,0.999289
1.0,1,0.999366
0.9999999999999986,1,0.999248
0.999999999999998,1,0.999470
1.0,1,0.999354
1.0,1,0.999353
1.0,1,0.999411
0.9999999999999962,1,0.999210
1.0,1,0.999377
0.999999999999997,1,0.999343
1.0,1,0.999260
0.999999999999998,1,0.999281
0.9999999999999977,1,0.999391
0.999999999999998,1,0.999403
0.9999999999999987,1,0.999430
0.9999999999999994,1,0.999262
1.0,1,0.999280
0.999999999999999,1,0.999311
0.9999999999999969,1,0.999358
1.0,1,0.999272
1.0,1,0.999377
0.9999999999999977,1,0.999230
0.9999999999999997,1,0.999409
1.0,1,0.999350
0.9999999999999981,1,0.999195
0.9999999999999976,1,0.999251
1.0,1,0.999414
0.999999999999997,1,0.999318
1.0,1,0.999418
1.0,1,0.999425
1.0,1,0.999386
1.0,1,0.999350
0.9999999999999971,1,0.999416
1.0,1,0.999349
1.0,1,0.999245
0.9999999999999999,1,0.999301
0.9999999999999987,1,0.999371
1.0,1,0.999294
1.0,1,0.999224
0.9999999999999997,1,0.999366
0.9999999999999993,1,0.999221
1.0,1,0.999218
1.0,1,0.999343
1.0,1,0.999425
0.9999999999999993,1,0.999248
0.9999999999999956,1,0.999323
0.999999999999999,1,0.999354
0.9999999999999986,1,0.999329
1.0,1,0.999008
0.9999999999999957,1,0.999407
1.0,1,0.999402
0.9999999999999994,1,0.999255
1.0,1,0.999384
1.0,1,0.999369
1.0,1,0.999232
1.0,1,0.999386
1.0,1,0.999296
0.9999999999999999,1,0.999250
0.9999999999999977,1,0.999271
0.9999999999999984,1,0.999319
1.0,1,0.999210
1.0,1,0.999342
0.9999999999999989,1,0.999323
1.0,1,0.999416
0.9999999999999991,1,0.999343
0.9999999999999959,1,0.999392
0.9999999999999961,1,0.999069
1.0,1,0.999147
0.9999999999999979,1,0.999361
1.0,1,0.999354
0.9999999999999962,1,0.999423
1.0,1,0.999237
1.0,1,0.999301
1.0,1,0.999295
1.0,1,0.999406
0.9999999999999974,1,0.999206
1.0,1,0.999414
0.9999999999999998,1,0.999315
0.9999999999999953,1,0.999359
0.999999999999998,1,0.999312
0.9999999999999981,1,0.999325
1.0,1,0.999413
0.9999999999999953,1,0.999363
0.9999999999999997,1,0.999386
1.0,1,0.999404
0.9999999999999992,1,0.999402
1.0,1,0.999445
0.9999999999999984,1,0.999416
0.9999999999999958,1,0.999171
0.9999999999999979,1,0.999440
1.0,1,0.999294
0.9999999999999963,1,0.999223
0.9999999999999977,1,0.999385
0.9999999999999997,1,0.999300
0.9999999999999954,1,0.999340
0.9999999999999993,1,0.999380
1.0,1,0.999255
1.0,1,0.999395
1.0,1,0.999259
0.9999999999999954,1,0.999373
1.0,1,0.999354
1.0,1,0.999347
1.0,1,0.999307
0.9999999999999992,1,0.999183
0.9999999999999972,1,0.999282
0.9999999999999977,1,0.999130
1.0,1,0.999385
0.9999999999999978,1,0.999426
1.0,1,0.999216
1.0,1,0.999314
0.999999999999994,1,0.999380
1.0,1,0.999270
0.9999999999999984,1,0.999305
0.9999999999999989,1,0.999362
1.0,1,0.999312
1.0,1,0.999385
0.9999999999999971,1,0.999161
0.9999999999999991,1,0.999325
1.0,1,0.999250
0.9999999999999978,1,0.999425
1.0,1,0.999402
0.9999999999999979,1,0.999216
1.0,1,0.999244
0.9999999999999983,1,0.999268
1.0,1,0.999428
1.0,1,0.999322
0.9999999999999996,1,0.999426
0.9999999999999994,1,0.999423
0.9999999999999961,1,0.999245
1.0,1,0.999365
0.9999999999999989,1,0.999370
1.0,1,0.999362
0.9999999999999941,1,0.999197
0.9999999999999963,1,0.999263
1.0,1,0.999326
1.0,1,0.999293
0.9999999999999973,1,0.999318
0.9999999999999994,1,0.999277
0.9999999999999972,1,0.999330
1.0,1,0.999309
1.0,1,0.999351
1.0,1,0.999277
1.0,1,0.999420
0.9999999999999953,1,0.999429
0.9999999999999999,1,0.999239
0.9999999999999967,1,0.999404
1.0,1,0.999251
1.0,1,0.999394
0.9999999999999993,1,0.999373
0.9999999999999996,1,0.999371
1.0,1,0.999419
1.0,1,0.999329
0.9999999999999982,1,0.999283
0.999999999999998,1,0.999407
1.0,1,0.999404
0.9999999999999987,1,0.999380
0.9999999999999999,1,0.999298
1.0,1,0.999293
1.0,1,0.999317
1.0,1,0.999214
0.9999999999999971,1,0.999396
0.9999999999999996,1,0.999405
1.0,1,0.999273
0.9999999999999996,1,0.999401
1.0,1,0.999295
0.9999999999999969,1,0.999367
0.9999999999999983,1,0.999346
0.999999999999999,1,0.999394
1.0,1,0.999273
0.9999999999999986,1,0.999369
1.0,1,0.999128
1.0,1,0.999461
0.999999999999997,1,0.999440
1.0,1,0.999342
0.9999999999999979,1,0.999261
0.9999999999999982,1,0.999346
1.0,1,0.999324
1.0,1,0.999384
0.9999999999999973,1,0.999019
1.0,1,0.999237
0.9999999999999987,1,0.999245
0.9999999999999986,1,0.999377
0.9999999999999951,1,0.999161
1.0,1,0.999438
1.0,1,0.999326
0.9999999999999968,1,0.999292
1.0,1,0.999334
1.0,1,0.999447
0.9999999999999977,1,0.999439
0.9999999999999982,1,0.999130
1.0,1,0.999305
0.9999999999999961,1,0.999421
1.0,1,0.999176
1.0,1,0.999248
1.0,1,0.999357
0.9999999999999988,1,0.999424
1.0,1,0.999139
0.9999999999999987,1,0.999357
1.0,1,0.999182
0.999999999999995,1,0.999421
1.0,1,0.999308
1.0,1,0.999406
1.0,1,0.999351
1.0,1,0.999434
1.0,1,0.999291
0.9999999999999952,1,0.999218
1.0,1,0.999317
1.0,1,0.999316
1.0,1,0.999385
0.9999999999999993,1,0.999243
1.0,1,0.999240
1.0,1,0.999373
0.999999999999998,1,0.999199
0.9999999999999943,1,0.999375
1.0,1,0.999307
1.0,1,0.999348
1.0,1,0.999224
0.9999999999999973,1,0.999385
1.0,1,0.999321
1.0,1,0.999397
1.0,1,0.999382
1.0,1,0.999363
0.9999999999999928,1,0.999377
0.9999999999999963,1,0.999320
0.9999999999999992,1,0.999340
1.0,1,0.999166
0.9999999999999958,1,0.999312
1.0,1,0.999314
0.9999999999999976,1,0.999214
1.0,1,0.999324
0.9999999999999981,1,0.999429
0.9999999999999994,1,0.999384
1.0,1,0.999445
0.9999999999999972,1,0.999167
1.0,1,0.999335
1.0,1,0.999190
1.0,1,0.998930
0.9999999999999991,1,0.999305
0.9999999999999972,1,0.999343
1.0,1,0.999403
1.0,1,0.999378
1.0,1,0.999391
1.0,1,0.999388
1.0,1,0.999365
1.0,1,0.999422
0.9999999999999989,1,0.999371
0.9999999999999984,1,0.999212
0.9999999999999997,1,0.999107
1.0,1,0.999362
1.0,1,0.999158
1.0,1,0.999376
1.0,1,0.999332
1.0,1,0.999202
0.9999999999999991,1,0.999114
0.9999999999999986,1,0.999359
0.9999999999999963,1,0.999410
0.999999999999999,1,0.999299
1.0,1,0.999362
0.9999999999999999,1,0.999361
1.0,1,0.999321
0.9999999999999977,1,0.999322
0.9999999999999988,1,0.999394
1.0,1,0.999285
0.9999999999999993,1,0.999340
1.0,1,0.999350
1.0,1,0.999423
1.0,1,0.999455
0.9999999999999968,1,0.999257
0.999999999999999,1,0.999369
1.0,1,0.999430
0.9999999999999986,1,0.999263
1.0,1,0.999411
0.999999999999999,1,0.999335
0.9999999999999964,1,0.999375
1.0,1,0.999287
0.9999999999999974,1,0.999345
1.0,1,0.999414
0.9999999999999963,1,0.999373
1.0,1,0.999380
1.0,1,0.999196
1.0,1,0.999255
1.0,1,0.999381
0.9999999999999954,1,0.999298
0.9999999999999977,1,0.999206
0.9999999999999996,1,0.999334
0.999999999999999,1,0.999407
0.9999999999999998,1,0.999346
0.9999999999999959,1,0.999413
0.9999999999999939,1,0.999195
1.0,1,0.999343
1.0,1,0.999345
0.9999999999999996,1,0.999261
0.9999999999999998,1,0.999336
1.0,1,0.999367
1.0,1,0.999401
1.0,1,0.999338
1.0,1,0.999415
1.0,1,0.999431
1.0,1,0.999124
0.9999999999999974,1,0.999188
1.0,1,0.999350
0.9999999999999949,1,0.999239
1.0,1,0.999287
1.0,1,0.999463
1.0,1,0.999426
0.9999999999999988,1,0.999419
1.0,1,0.999016
1.0,1,0.999402
0.9999999999999987,1,0.999375
0.9999999999999989,1,0.999326
1.0,1,0.999130
1.0,1,0.999373
1.0,1,0.999286
1.0,1,0.999274
1.0,1,0.999437
1.0,1,0.999427
0.9999999999999967,1,0.999237
1.0,1,0.999294
1.0,1,0.999405
0.9999999999999971,1,0.999359
1.0,1,0.999099
0.9999999999999998,1,0.999263
0.9999999999999957,1,0.999286
1.0,1,0.999351
0.9999999999999972,1,0.999403
1.0,1,0.999312
1.0,1,0.999264
0.9999999999999993,1,0.999343
1.0,1,0.999378
0.9999999999999983,1,0.999284
1.0,1,0.999332
1.0,1,0.999427
1.0,1,0.999337
0.9999999999999981,1,0.999221
0.9999999999999967,1,0.999312
0.9999999999999987,1,0.999409
1.0,1,0.999308
0.999999999999998,1,0.999242
0.9999999999999986,1,0.999392
1.0,1,0.999317
0.9999999999999983,1,0.999171
1.0,1,0.999332
0.9999999999999989,1,0.999169
0.999999999999998,1,0.999465
1.0,1,0.999262
0.9999999999999991,1,0.999377
0.9999999999999986,1,0.999267
0.9999999999999974,1,0.999391
0.9999999999999993,1,0.999163
0.9999999999999976,1,0.999301
1.0,1,0.999423
0.9999999999999976,1,0.999341
1.0,1,0.999463
0.9999999999999996,1,0.999395
0.9999999999999972,1,0.999388
0.9999999999999998,1,0.999431
0.9999999999999983,1,0.999203
0.9999999999999969,1,0.999376
1.0,1,0.999139
1.0,1,0.999196
1.0,1,0.999351
1.0,1,0.999335
1.0,1,0.999014
0.9999999999999951,1,0.999354
0.9999999999999989,1,0.999425
0.9999999999999989,1,0.999371
0.9999999999999979,1,0.999421
0.9999999999999996,1,0.999337
1.0,1,0.999391
0.9999999999999981,1,0.999376
1.0,1,0.999443
0.999999999999999,1,0.999302
1.0,1,0.999341
0.9999999999999991,1,0.999354
0.9999999999999981,1,0.999151
0.9999999999999994,1,0.999307
1.0,1,0.999116
1.0,1,0.999381
0.9999999999999972,1,0.999457
0.9999999999999948,1,0.999444
0.9999999999999986,1,0.999379
0.9999999999999963,1,0.999304
0.9999999999999969,1,0.999249
0.9999999999999988,1,0.999331
0.9999999999999981,1,0.999267
0.9999999999999988,1,0.999396
1.0,1,0.999320
1.0,1,0.999373
1.0,1,0.999403
1.0,1,0.999369
0.9999999999999992,1,0.999334
0.9999999999999992,1,0.999340
0.9999999999999972,1,0.999339
0.9999999999999974,1,0.999283
1.0,1,0.999321
0.9999999999999999,1,0.999350
0.9999999999999994,1,0.999363
1.0,1,0.999317
1.0,1,0.999214
0.9999999999999988,1,0.999127
1.0,1,0.999376
1.0,1,0.999287
0.9999999999999998,1,0.999440
1.0,1,0.999377
1.0,1,0.999270
0.9999999999999968,1,0.999418
0.9999999999999953,1,0.999343
1.0,1,0.999274
0.9999999999999999,1,0.999368
0.9999999999999978,1,0.999332
1.0,1,0.999421
0.9999999999999973,1,0.999433
1.0,1,0.999239
1.0,1,0.999340
1.0,1,0.999403
0.9999999999999986,1,0.999174
1.0,1,0.999209
1.0,1,0.999396
1.0,1,0.999294
0.9999999999999982,1,0.999270
0.9999999999999992,1,0.999268
1.0,1,0.999390
1.0,1,0.999295
1.0,1,0.999349
1.0,1,0.999406
0.9999999999999977,1,0.999295
0.9999999999999962,1,0.999184
1.0,1,0.999320
0.9999999999999976,1,0.999338
1.0,1,0.999423
1.0,1,0.999315
1.0,1,0.999386
0.9999999999999972,1,0.999325
1.0,1,0.999424
0.9999999999999983,1,0.999403
0.9999999999999973,1,0.999408
0.9999999999999973,1,0.999418
0.9999999999999991,1,0.999420
1.0,1,0.999435
1.0,1,0.999373
0.999999999999999,1,0.999408
1.0,1,0.999380
0.9999999999999951,1,0.999166
0.9999999999999998,1,0.999324
0.999999999999995,1,0.999213
0.999999999999999,1,0.999353
1.0,1,0.999428
1.0,1,0.999336
1.0,1,0.999127
1.0,1,0.999102
1.0,1,0.999370
0.9999999999999996,1,0.999287
0.9999999999999993,1,0.999297
0.9999999999999989,1,0.999343
0.9999999999999962,1,0.999338
1.0,1,0.999368
0.9999999999999987,1,0.999424
1.0,1,0.999279
1.0,1,0.999400
0.9999999999999993,1,0.999377
0.9999999999999953,1,0.999332
0.9999999999999987,1,0.999203
0.9999999999999973,1,0.999221
0.9999999999999984,1,0.999201
0.999999999999998,1,0.999382
0.9999999999999999,1,0.999448
1.0,1,0.999224
0.9999999999999972,1,0.999396
1.0,1,0.999392
1.0,1,0.999423
1.0,1,0.999295
0.9999999999999961,1,0.999019
1.0,1,0.999328
0.9999999999999982,1,0.999401
0.9999999999999994,1,0.999194
1.0,1,0.999358
1.0,1,0.999275
0.9999999999999988,1,0.999310
0.9999999999999988,1,0.999343
1.0,1,0.999341
0.9999999999999988,1,0.999394
1.0,1,0.999387
1.0,1,0.999361
1.0,1,0.999408
1.0,1,0.999240
0.9999999999999979,1,0.999155
1.0,1,0.999195
1.0,1,0.999298
0.9999999999999982,1,0.999251
0.9999999999999988,1,0.999441
0.9999999999999982,1,0.999363
1.0,1,0.999281
0.9999999999999993,1,0.999376
0.9999999999999983,1,0.999244
0.9999999999999978,1,0.999165
1.0,1,0.999382
1.0,1,0.999342
1.0,1,0.999377
0.9999999999999992,1,0.999249
0.9999999999999986,1,0.999360
0.9999999999999964,1,0.999238
0.9999999999999969,1,0.999258
0.9999999999999982,1,0.999370
1.0,1,0.999280
1.0,1,0.999392
