0.9471482753369641,1,0.998792
0.939122771316757,1,0.999000
0.9317507131656867,1,0.998733
0.90982383611101,1,0.996271
0.9297679236623996,1,0.999277
0.9142361005025104,1,0.995667
0.9066594502366976,1,0.998133
0.9267390881464647,1,0.999144
0.902039758978119,1,0.998450
0.8867885933093819,1,0.999365
0.9004945405683682,1,0.998988
0.8939327286643539,1,0.999339
0.8883465949084705,1,0.999234
0.8726221248113634,0,0.979611
0.8926756264468434,1,0.999316
0.9035839019769313,1,0.999297
0.8907758889658933,1,0.999157
0.8681475191065237,1,0.999381
0.890394404303449,1,0.999123
0.9368774119352253,1,0.997914
0.9001508736336347,1,0.995935
0.8772163244963768,1,0.999303
0.8940256501454173,1,0.999310
0.8847491397923867,1,0.998084
0.8349291136656285,1,0.998177
0.8829822107625488,1,0.998472
0.8952767744117198,1,0.999161
0.8818890486810577,1,0.995906
0.8902079755130431,1,0.998262
0.900931892866398,1,0.999330
0.8731010354767726,1,0.995987
0.8885638687536406,1,0.993157
0.8857532609145821,1,0.999301
0.8685745283260762,1,0.998680
0.8664779604376727,1,0.998154
0.8979242374070459,1,0.999125
0.8847272063822007,1,0.998632
0.8921998612962712,1,0.999385
0.8756492469654893,0,0.983380
0.8774334941840907,1,0.996190
0.8892176735406865,1,0.997683
0.8865931509803702,1,0.997766
0.8875107624177514,1,0.991957
0.8932879514672868,1,0.999343
0.9192534426732745,0,0.975892
0.9014833165987566,1,0.994889
0.915809630039604,0,0.980998
0.8782560980345941,1,0.999349
0.8940749795042194,1,0.996024
0.8903999549405746,1,0.998722
0.9082922956553322,1,0.997829
0.8910403956194175,1,0.998039
0.9247778544323614,1,0.999287
0.8793394367310722,1,0.999233
0.9059800139968601,1,0.999357
0.8617366257609724,1,0.999305
0.8997346252033837,1,0.997649
0.8866590085581462,1,0.999258
0.8722154457470467,1,0.999272
0.884451839813692,1,0.998342
0.8927517582809952,1,0.993363
0.8952286880704717,1,0.999090
0.8784695844063279,1,0.999365
0.8603511647327392,1,0.999293
0.8669073841651094,1,0.999393
0.8997335253064053,1,0.999338
0.9000256490905589,1,0.998588
0.9040637028886445,1,0.999283
0.9108454861293361,1,0.999345
0.9020627269982444,1,0.998155
0.8913118163895982,1,0.999302
0.9031234983731193,1,0.996877
0.8815547175419638,1,0.999350
0.8847392570331359,1,0.999406
0.8778493856330906,1,0.999285
0.8822109970176206,0,0.989297
0.9072293360188174,1,0.997360
0.8979434837471092,1,0.999319
0.9216811251638699,1,0.999202
0.8859496751397481,1,0.999290
0.8977293863650343,1,0.997749
0.8887226611234551,1,0.999216
0.9165037422735068,1,0.999357
0.8871994058975912,1,0.999328
0.8985745473353587,1,0.997839
0.8808551689499308,1,0.999080
0.8948027977923328,1,0.999376
0.9045894795802691,1,0.998900
0.8428039399628762,1,0.999182
0.8627282669549804,1,0.994573
0.8547659176508503,1,0.998088
0.8939642027685958,1,0.999301
0.8683184796435152,1,0.999361
0.8636538071018435,0,0.989708
0.8814717874633428,1,0.999392
0.875536735677689,1,0.999313
0.919502389044869,1,0.999226
0.8493894722569447,1,0.998832
0.873141535738991,1,0.999251
0.9091900781749797,1,0.999178
0.9088958460432235,1,0.997945
0.8962232329646357,1,0.999171
0.912497793720902,1,0.999367
0.8989793253814905,1,0.999310
0.9364535233294905,1,0.992985
0.9073730154736263,1,0.999260
0.8772545031693137,0,0.968655
0.9079040083104606,0,0.989843
0.9207931015660612,1,0.999149
0.8697578913945684,1,0.995726
0.8960611382056503,1,0.998669
0.8824087251958469,1,0.999317
0.8590369300644268,1,0.999369
0.8790585759236391,1,0.998375
0.9042074845590328,1,0.999309
0.8933061513490922,1,0.997786
0.8834363889459633,1,0.999400
0.8958194470914704,1,0.996463
0.8744508668674271,1,0.999237
0.8742170980790717,1,0.995861
0.8797123432435797,1,0.999254
0.8630706535306258,1,0.999392
0.8739065917821742,1,0.998540
0.8783379121855169,1,0.998812
0.900270546864298,1,0.999330
0.9094272210139885,1,0.999087
0.9044260101579441,1,0.996596
0.891610637784147,1,0.999316
0.8533605199171845,1,0.999391
0.8881110363747465,1,0.999292
0.9168015165585651,1,0.999249
0.8725455133500829,1,0.999069
0.8942879924356778,1,0.998664
0.8976494932647873,1,0.994480
0.9025847386630561,1,0.998598
0.8757319817200594,1,0.999255
0.9020461815065235,1,0.998829
0.9022192925597718,1,0.999180
0.9061817646684807,1,0.999351
0.8887540764569262,0,0.985449
0.8861219811496299,1,0.992908
0.9085395246152607,1,0.998348
0.876735446174143,1,0.999307
0.8885307368752116,1,0.999349
0.8982042708225729,1,0.994398
0.8714105685314169,1,0.999278
0.88503848036968,1,0.999263
0.8862525412010637,1,0.999320
0.8755760058412924,1,0.999343
0.8882506030663341,1,0.999366
0.9248237354069456,1,0.998227
0.8640682648593856,1,0.998056
0.9028190554358035,1,0.999268
0.880387914528387,1,0.999290
0.8743717315070277,1,0.997257
0.8961899899761382,1,0.999086
0.8931399943231686,1,0.999231
0.8476512141804804,1,0.998860
0.8668554389026716,1,0.999365
0.8810889328178595,1,0.999315
0.8910147684767813,1,0.999149
0.8808562702764984,1,0.999307
0.8412064714438143,1,0.998253
0.8825441609406682,1,0.999232
0.8665516773170996,1,0.999313
0.8653234473013309,1,0.999352
0.8855751938305134,0,0.977686
0.8768050523801856,1,0.997965
0.9029422828465669,1,0.999339
0.880439764073972,1,0.993469
0.8859556127020661,1,0.999265
0.8808908149320299,1,0.997887
0.885065389532685,1,0.998289
0.8933224749441729,1,0.998602
0.8846055665257117,1,0.998578
0.8793128537065364,1,0.999278
0.8901767221241241,1,0.999400
0.8495146516735005,1,0.999368
0.8881431987757323,1,0.998749
0.8930340754618664,1,0.998599
0.9199369136664656,1,0.998481
0.9104430819392466,1,0.999061
0.9071231002235614,1,0.999374
0.876627782722783,1,0.999359
0.9034137018367309,1,0.999093
0.9018467841094794,1,0.998371
0.8944138014229704,1,0.999365
0.917047229850139,1,0.998481
0.8936676537688738,1,0.999373
0.9008155961470197,1,0.999391
0.9007569931335437,1,0.999365
0.8749108917356812,1,0.998205
0.8774634637555263,1,0.999419
0.906572901765091,1,0.994143
0.9028424169722941,1,0.999287
0.8952655913575465,1,0.999385
0.8587797052411519,1,0.999280
0.9001625842908034,1,0.999384
0.8956114861249418,1,0.999320
0.9042192832437589,1,0.999295
0.8807041351872036,1,0.998008
0.8678707484433228,1,0.999394
0.8831259423685206,1,0.999109
0.8760860836316794,1,0.999389
0.8864062512511782,1,0.997765
0.8993353885225003,1,0.999332
0.8666699346300294,1,0.998707
0.9134682739745386,1,0.999242
0.9083271698167337,1,0.997389
0.9030971063588215,1,0.999332
0.8930081189496827,1,0.999331
0.9160532013103124,1,0.999361
0.8661828969922019,1,0.999267
0.895182463628767,1,0.999211
0.8905800410853931,1,0.999301
0.9016402543756044,1,0.999313
0.9032765351927514,1,0.999371
0.8952417180219026,1,0.999377
0.9076384963560502,1,0.999381
0.8920775921982684,1,0.994113
0.87159148903623,1,0.998111
0.8470044723174734,1,0.999436
0.8941157349434788,1,0.999275
0.8692091359202404,1,0.998343
0.8841094455730745,1,0.999332
0.8950549603453307,1,0.997703
0.9125053354258987,1,0.999319
0.8874740377263137,1,0.999259
0.9005920314130751,1,0.999334
0.8868778028022872,1,0.999083
0.8826667955917039,1,0.999188
0.9036799832522345,1,0.999316
0.8978347779400774,1,0.995820
0.8955753974056684,1,0.999377
0.8378717042545608,1,0.999245
0.8545255592794627,1,0.999276
0.9192693161458468,1,0.998807
0.901020083779462,1,0.999136
0.8798901920286921,1,0.999355
0.9007203809005959,1,0.999357
0.9045721001196014,1,0.999302
0.900319137437673,1,0.999313
0.8910465923214208,1,0.999401
0.8892026570950013,1,0.999287
0.895762283853828,1,0.999319
0.8928592056248227,1,0.999328
0.8789948100343087,1,0.999242
0.8901815433323147,1,0.999328
0.872877449686047,1,0.999232
0.9000209932582792,1,0.999387
0.8781136396365663,1,0.999212
0.8616997780464959,1,0.999342
0.887123297695618,1,0.999382
0.894971398074087,1,0.999355
0.8990386485716085,1,0.998852
0.8746359964641495,1,0.999230
0.8874224324648291,1,0.999296
0.8861677125402534,1,0.999382
0.9063831928432922,1,0.999329
0.872872710660918,1,0.999338
0.8603077685023506,1,0.998634
0.8493938423228805,1,0.999197
0.8898169223662489,1,0.999323
0.8860094119461586,1,0.999207
0.8833049706416262,1,0.999361
0.9171190332845699,1,0.999370
0.8835332812037251,1,0.998676
0.8994110061291379,1,0.999371
0.8375502416752334,1,0.999322
0.8869334604461042,1,0.999316
0.8832801677622749,1,0.999361
0.8958934077365318,1,0.999348
0.8522899366721313,1,0.999326
0.9028099031400729,1,0.999347
0.8775328285909632,1,0.998641
0.9064696542359398,1,0.998633
0.8938683828534116,1,0.999169
0.8676506231422959,1,0.999352
0.8987843174671465,1,0.999333
0.9122591831487306,1,0.997326
0.908664695745202,1,0.999242
0.8916029367503328,1,0.999389
0.8996926916502794,1,0.999272
0.8845482722006698,1,0.999271
0.8913714856303943,1,0.999208
0.8686467232010122,1,0.999238
0.8741042282746935,1,0.999408
0.9011252260219716,1,0.998390
0.8880934068498753,1,0.999340
0.8462663559115976,1,0.999359
0.8852443653282237,1,0.999178
0.8924656581247589,1,0.999302
0.9074719189481778,1,0.999232
0.8645642037914723,1,0.998826
0.8757935759937255,1,0.999336
0.9053836473633461,1,0.999006
0.9140888410435922,1,0.999311
0.8924133209869366,1,0.997470
0.8805469993489451,1,0.999312
0.8612412704057244,1,0.999259
0.898745772962655,1,0.999325
0.8363928850434864,1,0.999188
0.8931364459291419,1,0.999324
0.8627004469334107,1,0.999302
0.888616981965984,1,0.998604
0.8816637318500056,0,0.988976
0.8721418374920514,1,0.999354
0.8597166568230532,1,0.999289
0.8842324623467331,1,0.999340
0.8837498542722751,1,0.999283
0.8686983547638802,1,0.999340
0.84270915263426,1,0.999362
0.9039042747090772,1,0.998532
0.9042480606307467,1,0.999312
0.9021276583002408,1,0.999362
0.9050733982060637,1,0.998710
0.9010522075011173,1,0.997815
0.8681953367887967,1,0.999367
0.8855507533625004,1,0.998683
0.8975576842410186,1,0.998157
0.9100666319977894,1,0.999295
0.8720288540282118,1,0.998283
0.8832448978064923,0,0.990517
0.8852765251898491,1,0.999354
0.8926318982702578,1,0.999372
0.8918170243371508,1,0.999163
0.8820775262058029,1,0.999395
0.8987150786004018,1,0.999047
0.9023726903303491,1,0.999385
0.9119381334001636,1,0.998592
0.8948852610716409,1,0.999367
0.9032066650349206,1,0.999310
0.8833772805007882,1,0.998661
0.8739459079867504,1,0.999362
0.8883466752257144,1,0.994113
0.9049300215859838,1,0.999291
0.8867958647097748,1,0.999327
0.8893665271546067,1,0.999211
0.9008579166719572,1,0.999360
0.8894962344166433,1,0.999371
0.8968564744347787,1,0.999317
0.8874678694714508,1,0.999283
0.8694183041196577,1,0.998633
0.8817045704851001,1,0.999155
0.9228204039561964,1,0.999205
0.8817698506475194,1,0.995678
0.9032452217421058,1,0.999327
0.8887050777855579,1,0.999289
0.886610226887888,1,0.999092
0.8960022700408352,1,0.998506
0.8835763256467525,1,0.999307
0.8820072538533521,1,0.999255
0.8771329180746039,0,0.961228
0.9010630588967308,1,0.995690
0.8901675877885461,1,0.999329
0.9173196130467186,1,0.998298
0.9074503018240673,1,0.999339
0.887888463997836,1,0.997297
0.9079575305269252,1,0.995667
0.8904635044425591,1,0.999286
0.8928969622663467,1,0.997159
0.8822576010854131,1,0.999330
0.8996313724891193,1,0.998705
0.8839251342872683,1,0.995528
0.8734299256962729,1,0.999386
0.865811814285324,1,0.999330
0.8822745323943915,1,0.998745
0.9038007132409897,1,0.999184
0.896846999769185,1,0.998500
0.8590464155578121,1,0.999390
0.8969680622539903,1,0.998616
0.8652885721721999,1,0.999145
0.871615928892029,1,0.999306
0.8806309016548389,1,0.998404
0.9022226564668369,1,0.999291
0.9043210812017375,1,0.999284
0.9279756127913961,1,0.999295
0.8995596481138477,1,0.999370
0.8791724883992036,1,0.999270
0.9116624604499678,1,0.999398
0.8968671029904973,1,0.999295
0.8754379810368071,0,0.988889
0.876273392876995,1,0.999320
0.9066538373116759,1,0.996422
0.8971258194992114,1,0.999302
0.8890547735705421,1,0.999305
0.8984061462213923,1,0.999417
0.8934095763136469,1,0.999399
0.8977723482662503,1,0.998669
0.8489667045475905,1,0.999053
0.8829796883302362,1,0.999242
0.8798773046888274,1,0.997394
0.85610634182549,1,0.998773
0.9053309951301558,1,0.999329
0.9059390655913037,1,0.995164
0.9055094573669538,1,0.998827
0.8916486543810889,1,0.999092
0.8982206637457542,1,0.999153
0.8922050288047845,1,0.998745
0.8835303604753326,1,0.996819
0.8860124413585397,1,0.999215
0.9043599230917433,1,0.998731
0.8848995374477574,1,0.999274
0.9295492487793264,1,0.999336
0.917361080674164,1,0.999374
0.9109838040986841,1,0.999355
0.8870191259104231,1,0.998588
0.8796989754573982,1,0.999167
0.9194329651494091,1,0.999355
0.8818134064774719,1,0.999335
0.8912795254118882,1,0.999249
0.876459561729347,1,0.999342
0.910639402809606,1,0.998174
0.9026978400543569,0,0.973498
0.9133444616398109,1,0.991964
0.9088188048616239,1,0.997479
0.9194608735798229,1,0.998800
0.9099057474423256,0,0.971084
0.8866759503058603,1,0.997375
0.9028110154573001,1,0.999333
0.8956957233331166,1,0.999137
0.8837632465187354,1,0.999333
0.9008616770643951,1,0.999322
0.9024593021586561,1,0.998643
0.9047510816236939,1,0.997642
0.9011187691882816,1,0.997889
0.907671309385965,1,0.999311
0.8917540429561753,1,0.999174
0.8931249418345867,1,0.999263
0.9283442515997542,1,0.999159
0.9226135537292183,1,0.999321
0.8896253849753116,1,0.999343
0.9224552908719451,1,0.999300
0.89760762035153,1,0.999260
0.908177997578788,1,0.998667
0.8769424207605562,0,0.982746
0.8679723508353305,1,0.999339
0.9028677808501937,1,0.994580
0.8731112501745569,1,0.997832
0.8834932795642187,1,0.999259
0.9023631695509461,1,0.999296
0.8855439234262756,1,0.999194
0.8837833073672724,1,0.999394
0.9031067301914719,1,0.999395
0.9019486237122025,1,0.999079
0.8896291816902197,1,0.997908
0.8956004575872342,1,0.998729
0.9091019128358309,1,0.999289
0.9237322402164942,1,0.999066
0.8851332037366595,1,0.999306
0.8951711275024746,1,0.998409
0.8888836977943014,1,0.991914
0.8895369102903494,1,0.999353
0.8990433139008696,1,0.998984
0.9273442299594372,1,0.999289
0.9277643504119557,1,0.996369
0.9177212858484671,1,0.999192
0.8944079407582103,1,0.995327
0.9011073129567537,1,0.999246
0.8817944648733846,1,0.999322
0.9245278957132617,1,0.998193
0.9273593300994178,1,0.999178
0.9187234514132651,1,0.999308
0.8967902503425503,1,0.998597
0.9140301192260176,1,0.998585
0.9026755374351875,1,0.999390
0.9079160221177013,1,0.997565
0.9117821528355315,1,0.999263
0.8792755885132361,1,0.998639
0.9037634045323206,1,0.998606
0.9094219102725131,1,0.998566
0.911499062767386,1,0.999211
0.9148986150510324,1,0.999194
0.9076329237877686,1,0.990025
0.908722451771604,1,0.998409
0.898227760440348,1,0.998111
0.9065188843504903,1,0.999277
0.9087460750267617,1,0.999336
0.9033285216977051,1,0.998830
0.8805497185177941,1,0.996260
0.87438811635772,1,0.998697
0.8941127852138018,1,0.999264
0.8939871388801024,1,0.998706
0.9007984663427973,1,0.991718
0.8896986627934254,1,0.999069
0.9205690719616927,1,0.998915
0.8631498068947655,1,0.999280
0.910452074168747,1,0.999314
0.8656220046822914,1,0.999101
0.8737412527148636,1,0.998087
0.8391427130471267,1,0.999329
0.884771265557883,1,0.999360
0.9141399356665367,1,0.999353
0.88357370677453,1,0.998538
0.8893820041442043,1,0.999298
0.9084296402363489,1,0.998675
0.9014900918976373,1,0.999336
0.8895420294782135,1,0.999328
0.9114752779313878,1,0.998527
0.9057376087457412,1,0.999227
0.8910515587941953,1,0.996830
0.9161105265418565,1,0.998571
0.8972612380517658,1,0.999411
0.9153426307792638,0,0.985765
0.9055900973285597,1,0.999359
0.8801201969287685,1,0.999324
0.8987327137100161,1,0.999367
0.8844978606351367,1,0.999184
0.9183255806139595,1,0.994898
0.8977290311319083,1,0.999300
0.8871518093724738,0,0.990800
0.9223299504749192,1,0.999386
0.8869208763406892,1,0.999152
0.9253392429673692,1,0.997974
0.9166928300368519,1,0.996845
0.9027822029487553,1,0.999330
0.9035792234420471,1,0.999344
0.8727176118406232,1,0.999317
0.8922764398424613,1,0.997181
0.8916895498645966,1,0.999190
0.9005554726271131,1,0.994094
0.8641977671646011,1,0.999128
0.8828831167429356,1,0.999240
0.9134914408366462,1,0.999250
0.9095933751852618,1,0.999274
0.8944172303008748,1,0.994302
0.9115098735148406,1,0.998581
0.8908990787250093,1,0.998735
0.8910133859610784,1,0.999240
0.8812544722873729,1,0.999335
0.8819003751451809,1,0.999406
0.9121285544553981,1,0.999234
0.8754353720623425,1,0.998250
0.8996317128397036,1,0.999167
0.8798077898851154,1,0.997821
0.9243958151791869,1,0.999244
0.8757515326779266,1,0.999239
0.8825331417142536,1,0.999342
0.8988145535272435,1,0.999342
0.887892298479374,1,0.997753
0.9168058871220947,1,0.999288
0.8960250144076871,1,0.999341
0.8717520644318928,1,0.998037
0.8886651403687091,1,0.999319
0.8688696636895913,1,0.995778
0.9021510494314924,1,0.999189
0.8978054715018717,1,0.999329
0.8908225509733849,1,0.999365
0.8854153141761877,1,0.999371
0.9063841179757778,1,0.999276
0.8920197741463315,1,0.999264
0.8934454409406501,1,0.999411
0.9094812611065862,1,0.998421
0.836178748588192,1,0.999297
0.8723952143763601,1,0.999110
0.9095856655369,1,0.999174
0.8669049204916153,1,0.998507
0.8720220601987133,1,0.998446
0.8800588252819845,1,0.999255
0.8758108485578696,1,0.999326
0.8867062246859985,1,0.999322
0.8579234784885232,1,0.999387
0.8909648941706633,1,0.999326
0.9155969085828918,1,0.998314
0.9035144581905661,1,0.999314
0.8941217382026553,1,0.999330
0.875953554689588,1,0.999364
0.9168897352495542,1,0.995943
0.9016482515307703,1,0.999279
0.9227625813226105,1,0.999231
0.900908203162485,1,0.999315
0.9287777330677368,1,0.998605
0.8980407971858639,0,0.991717
0.8891623633058104,1,0.999234
0.9110315117520089,1,0.992580
0.9123695298097564,1,0.992806
0.903449296435157,1,0.999267
0.8903316956100475,1,0.999356
0.8920446653803668,1,0.999367
0.9363386926760422,1,0.999072
0.899597004697643,1,0.999316
0.9006886082167661,1,0.999394
0.9115033115331791,1,0.999355
0.9287778888591708,1,0.999183
0.8969709518086768,1,0.997683
0.9073669057130193,1,0.999244
0.9074990342572187,1,0.997771
0.9110956394952636,1,0.998437
0.9027296146833467,1,0.999265
0.9044002914393285,1,0.995122
0.8836317253186484,1,0.999308
0.858945849735997,1,0.999282
0.8898105736775256,1,0.998020
0.8904203883501555,1,0.999298
0.900736951026564,1,0.997135
0.8879074404402186,0,0.986715
0.8995724432007394,1,0.999342
0.9289496180897929,1,0.999390
0.9105152528005235,1,0.998777
0.8908338768816375,1,0.999324
0.9052666692624838,1,0.999271
0.8949388286595913,1,0.996419
0.9213865819928245,1,0.998953
0.9115316004614076,1,0.999347
0.9126186583198309,1,0.998346
0.8801951597031845,1,0.999330
0.8872557717765389,1,0.999360
0.9007412402980254,1,0.999106
0.8870692663996695,1,0.993944
0.9038459822041918,1,0.999309
0.8423290229151685,1,0.998679
0.8929226321296346,1,0.999216
0.8967225916999616,1,0.999353
0.8798083814108614,1,0.999332
0.8786890344069224,1,0.999367
0.9003977925916649,1,0.998472
0.8718952192346122,1,0.999290
0.9091190489647505,1,0.998942
0.8867237071031921,1,0.999266
0.9080274170258023,1,0.999293
0.8921780496690822,1,0.999343
0.8636420736486247,1,0.998497
0.9038696986678314,1,0.999341
0.9221682089539177,1,0.997911
0.8627243034243183,1,0.994387
0.8905704017858213,1,0.999318
0.8767741117976703,1,0.999340
0.8811210559074847,1,0.998648
0.9134682858506307,1,0.999308
0.924770419903142,1,0.999320
0.9165317804169394,1,0.999009
0.9172103664069311,1,0.999306
0.9134047719381123,1,0.999329
0.9111970788297777,1,0.999282
0.8999932483247627,1,0.997794
0.9310313411244214,1,0.999364
0.9066245045725302,1,0.997368
0.9392171046131491,1,0.998626
0.9188969778929025,1,0.990088
0.9080986398090439,1,0.999233
0.916688091592283,1,0.999251
0.9357248839317333,1,0.999239
0.8928527665302339,1,0.998697
0.9200085308505145,1,0.999065
0.9073273765773076,1,0.999291
0.9155748765307319,1,0.998913
0.926739641713577,1,0.999208
0.91125226837384,1,0.998780
0.8958530413733545,1,0.999332
0.9080228262282324,1,0.998757
0.8992059297339735,1,0.999148
0.8784267412059372,1,0.997596
0.8685820171421721,1,0.999087
0.9181457280100704,1,0.999071
0.885283891784416,1,0.997260
0.9177959773398706,1,0.999383
0.8988168302659786,1,0.999267
0.927011677537133,1,0.998879
0.9078932800469394,1,0.997934
0.9232453148280241,1,0.999334
0.9082892622718433,1,0.999339
0.9107933421405924,1,0.999230
0.9079645447737141,1,0.999208
0.9409640180164749,1,0.999335
0.8962519613202864,1,0.999317
0.9104431313575518,1,0.998540
0.9172265256897811,1,0.998145
0.9053472874537641,1,0.998682
0.9117004625591797,1,0.997758
0.9094818536245217,1,0.999226
0.9151499639281798,1,0.999158
0.910317297147288,1,0.999187
0.9099536961286104,1,0.999361
0.9145359798107199,1,0.999396
0.906000594641357,1,0.999271
0.9085595471682655,1,0.997986
0.9103672023546749,0,0.975442
0.8684790203606811,1,0.995471
0.8871834201278174,1,0.999157
0.9147564941832638,1,0.998695
0.9124092153409012,1,0.999379
0.9270454798579462,1,0.999253
0.9010728423185865,1,0.998710
0.8978401078796285,1,0.999282
0.9148631739644701,1,0.998363
0.9235500030033285,1,0.999400
0.8984427026092733,1,0.996880
0.9202035846815748,1,0.992105
0.9043549847856295,1,0.999182
0.918091746822578,1,0.999235
0.8748209946811103,1,0.999244
0.8915024147303109,1,0.998728
0.9209540295055184,1,0.998602
0.9061854712530494,1,0.998843
0.913591906223102,1,0.999319
0.8939539809402158,1,0.990604
0.9225800135476351,1,0.999326
0.8950924843819623,1,0.997766
0.8939879253700752,1,0.993536
0.923356990673703,1,0.999302
0.8960553570301667,1,0.999169
0.9125685543699474,1,0.993654
0.903617502006025,1,0.999322
0.9076762515476773,1,0.999326
0.9196120391524143,1,0.995074
0.9197128932019141,1,0.998062
0.9127013462372576,1,0.999315
0.9087763649834265,1,0.997958
0.9314373897654402,1,0.995680
0.9192687884250456,1,0.998940
0.9168517851519157,1,0.998951
0.9096726030224276,1,0.999271
0.8733080178991034,1,0.999296
0.9341998466702699,1,0.999213
0.9325847580086198,0,0.986961
0.922098621622664,1,0.998769
0.9295155468636221,1,0.999102
0.9092508694255141,1,0.991304
0.9193528349593547,1,0.999186
0.9251833727997588,1,0.998289
0.9295476523842127,1,0.998247
0.901373065403939,0,0.990733
0.920097254564655,1,0.999213
0.9251025854020104,1,0.999309
0.9123185892814476,1,0.998738
0.9220109134090881,1,0.999251
0.9218016734299332,1,0.997366
0.9002757267625007,1,0.997621
0.8977275911303513,1,0.999327
0.8972701574819854,1,0.996596
0.9185032011224705,1,0.998319
0.8988941588452054,1,0.999234
0.8963114830714916,1,0.991928
0.9104085773255781,1,0.999276
0.9072769405066973,1,0.993373
0.9009689094646935,1,0.999293
0.8863331094965669,1,0.998629
0.9152603732250806,1,0.999277
0.8952887789125428,1,0.999265
0.9187574638703273,1,0.999204
0.9057227792308791,1,0.999287
0.8925183001503598,1,0.998726
0.8977372012356318,1,0.998661
0.9295220930886996,1,0.999335
0.9337481559623916,1,0.997126
0.9070638011149407,1,0.999319
0.9034044485398455,1,0.999132
0.9049822180129596,1,0.999085
0.9042261863729665,1,0.999338
0.9044894970863312,1,0.998286
0.9130612102716322,1,0.998570
0.8960609558574938,1,0.998517
0.9187232610359584,1,0.998660
0.9204282309777156,1,0.997664
0.9056434496527414,1,0.999403
0.8948926545672677,1,0.997277
0.8851709473235503,1,0.999339
0.924457015920835,1,0.998594
0.9217641692216574,1,0.993624
0.9065863694858561,1,0.998471
0.9007717155706992,1,0.993967
0.9108273924283404,1,0.998182
0.9018255724921795,1,0.999328
0.9102378602218265,1,0.990385
0.8960366160395916,1,0.999265
0.8863314219949076,1,0.998876
0.896301357177703,1,0.999219
0.8917443379704828,1,0.999287
0.9055391937351623,1,0.999169
0.851077294335852,1,0.999309
0.918701817051426,1,0.998054
0.8998112332254622,1,0.998426
0.8906188266029028,1,0.997862
0.8961925875345634,1,0.999002
0.9105025413997143,1,0.999280
0.9242905029526151,0,0.955257
0.8874986639349284,1,0.998564
0.9047350717185162,1,0.998677
0.8779592158736741,1,0.996898
0.8991543691917614,1,0.999137
0.9184163078519376,1,0.999319
0.9268096955825503,1,0.999246
0.9110967075771982,1,0.999269
0.9190543520336613,1,0.997586
0.9052661481542844,1,0.997674
0.908126602644415,1,0.994960
0.8771910024982745,1,0.999303
0.874239419499191,1,0.999316
0.8719611569204185,1,0.998686
0.9118793579350658,1,0.995292
0.8649742086661144,1,0.999207
0.8807098818834413,1,0.999163
0.8863792153145341,1,0.999228
0.9166728468942905,1,0.998674
0.9214159504697385,1,0.999140
0.9170775738023619,1,0.999219
0.9170135237058937,1,0.999230
0.9224813550630813,1,0.999124
0.9093160331535034,1,0.999323
0.9241525873740595,1,0.996273
0.9219210592031191,1,0.999105
0.9051772232445472,1,0.999421
0.9276141547771553,1,0.999346
0.9161353699219666,1,0.996899
0.904120075992998,1,0.996779
0.9189430791621475,1,0.999367
0.8842665158315439,1,0.998846
0.9102032895452105,0,0.961967
0.9046291487198913,1,0.999136
0.9140560704231129,1,0.999317
0.9200375363990942,1,0.998510
0.8806948702281479,1,0.999346
0.9157175196741807,1,0.999136
0.9289586727417938,1,0.998590
0.9206388099057018,1,0.999090
0.8871825964783959,1,0.998496
0.8777933643418685,1,0.999375
0.9042577621429845,1,0.999339
0.9076340632464389,1,0.999055
0.9228827377584162,1,0.992731
0.8910271380688701,1,0.993031
0.8763195930589927,1,0.999307
0.9003228453617672,1,0.999167
0.8940498018289895,1,0.992891
0.9045276858664543,1,0.999176
0.8863802257987063,1,0.998729
0.9110339458015358,1,0.998672
0.8810361437293016,1,0.999373
0.8872496958307912,1,0.999057
0.9023766264291899,0,0.985496
0.9056188671746043,1,0.999305
0.9242359778903225,1,0.999283
0.9146402159773173,1,0.998160
0.8694080291480776,1,0.995040
0.9082544657248505,1,0.998486
0.8940192205667278,1,0.999167
0.9091126044826283,1,0.999306
0.9267856660453253,1,0.999301
0.9295068499252149,1,0.998565
0.8852706016020545,1,0.999343
0.91892199512979,1,0.999173
0.9064828641558389,1,0.999223
0.8785509165825202,1,0.998236
0.9183462855138325,1,0.998933
0.9119777946166236,1,0.999045
0.9082252407492848,1,0.999038
0.9087278353576514,1,0.997976
0.9144330974054081,1,0.997370
0.8834312397663024,1,0.999263
0.905513048720691,1,0.997587
0.9031954423776671,1,0.998965
0.8918419115321737,1,0.998734
0.9150929805001925,1,0.996255
0.9075382770516457,0,0.979392
0.9203827059181764,1,0.999119
0.9241803280096219,1,0.995994
0.8828657726915699,1,0.999188
0.9180176810045614,1,0.999230
0.9174684493376914,1,0.999281
0.9137733601978717,1,0.998547
0.9131434346975188,1,0.999323
0.9266265508876786,1,0.997217
0.9092528268963289,1,0.999039
0.9328446965924984,1,0.997738
0.8931457688307043,1,0.999284
0.9103111968666028,1,0.999281
0.8595709087359024,1,0.999371
0.8805794425265522,1,0.999372
0.916959617126336,1,0.998866
0.9287037410279062,1,0.998381
0.9033414763564973,1,0.998111
0.8787788302890008,1,0.999287
0.9154776816506184,1,0.999263
0.8849163657245807,1,0.999364
0.9221027298312219,1,0.999311
0.9097495936384138,1,0.999339
0.9189155950783664,1,0.998444
0.8895707889951855,1,0.994068
0.9063444069956772,1,0.999085
0.9164997982577078,1,0.998982
0.9135998321492952,1,0.998705
0.9037210003783167,1,0.987413
0.9221566430930014,1,0.999123
0.9235181354982017,1,0.999273
0.9172740651873759,1,0.999229
0.9067235675566344,1,0.999074
0.9063836357927164,1,0.999083
0.8923948803679401,1,0.998230
0.8738387478790469,1,0.999175
0.8960485715212885,1,0.999334
0.8910299778802254,1,0.999265
0.892403544956991,1,0.999285
0.8743210257389135,1,0.999350
0.8943764574968477,1,0.999189
0.8743858999619344,1,0.997776
0.9293122268851669,1,0.999145
0.9243187022772635,1,0.999225
0.925378126597161,1,0.999171
0.9408549421517445,1,0.999238
0.9030368279987384,1,0.998592
0.8935974369234627,1,0.998649
0.9251229413207332,1,0.999346
0.9244624072989733,1,0.999249
0.9072142625830357,1,0.999169
0.9085586626390552,1,0.998686
0.9071066664707758,1,0.998614
0.911425172577872,1,0.999314
0.9338008528730252,1,0.998550
0.9190872231543313,1,0.997270
0.8859880476347246,1,0.999253
0.9082245985319896,1,0.999149
0.9288883675245695,1,0.998148
0.902629016001998,1,0.999353
0.9179933193075861,1,0.999093
0.9011164029507012,1,0.999201
0.9025928374547398,1,0.998656
0.9160929902912128,1,0.998367
0.8953565156887169,1,0.998484
0.9124912929264628,1,0.999153
0.9088884854630199,1,0.999370
0.9113691995534621,1,0.999263
0.9076848484857015,1,0.999276
0.8931923002715233,1,0.992347
0.9060723264696432,1,0.999117
0.923088913223387,1,0.999206
0.9175462729171161,1,0.999214
0.93750097510928,1,0.998267
0.9193197458832477,1,0.997519
0.9056352965180926,1,0.999271
0.9062809749997938,1,0.998491
0.9145000054270749,1,0.998556
0.9262310906193352,1,0.999049
0.9068289789624159,1,0.999106
0.9064596851306378,1,0.999182
0.8941006757026738,1,0.997654
0.885246176873702,1,0.996075
0.9144130094715169,0,0.979569
0.8927362886071939,1,0.998299
0.8966191338237199,1,0.999045
0.898283454056606,0,0.967890
0.929126727767849,1,0.999224
0.9119282425453575,1,0.998525
0.8919208892253039,1,0.994882
0.8954619564638654,1,0.999160
0.9211120585795143,1,0.999121
0.9040757635570642,1,0.999186
0.9024384062024804,1,0.996885
0.9256802949854693,1,0.994243
0.9261316383922484,1,0.999258
0.9273124570138787,1,0.999298
0.8964302280804191,1,0.999337
0.9090468853200676,1,0.996587
0.9099661235706832,1,0.998097
0.8916253942216336,1,0.998988
0.9188208360350231,1,0.998943
0.8971600602754132,1,0.998353
0.9142708205916205,1,0.998491
0.8997016352244324,1,0.999274
0.9104935794091559,1,0.998387
0.8896899946602944,1,0.998745
0.8871398149640534,1,0.999335
0.9310453278817016,1,0.999223
0.9111514290185203,1,0.999252
0.9035019252689751,1,0.999261
0.8908235775803953,1,0.997630
0.9110083335893632,1,0.997712
0.8953362727752825,1,0.998938
0.8953517267180988,1,0.998559
0.8970464486273997,1,0.999328
0.9083023139762111,1,0.997883
0.9031501426454035,1,0.999106
0.9270960574567171,1,0.998188
0.927312129335242,1,0.999297
0.944640258118908,1,0.999290
0.9326759970720149,1,0.999273
0.9170827536894934,1,0.998456
0.8883126568829965,1,0.998365
0.897527000695821,1,0.999371
0.9275143333873808,1,0.992556
0.9178086201880417,1,0.999246
0.9238216664520567,1,0.996689
0.9300532905374119,1,0.992408
0.8985787152826892,1,0.999308
0.9236541229290167,1,0.999264
0.9014524521982659,1,0.998379
0.8835050957702272,1,0.999406
0.9140464290097942,1,0.999114
0.8922624078497062,1,0.998397
0.9121981686877648,1,0.998175
0.9107456212100238,1,0.997699
0.903882299711822,1,0.999294
0.9152072732186974,1,0.999114
0.8927215740127492,1,0.999312
0.9146929802722858,1,0.999156
0.8968368387989889,1,0.999346
0.8689870911499181,1,0.998369
0.8938563180958957,1,0.999290
0.9131020488664535,1,0.999246
0.877810537171904,1,0.999218
0.9072100859696193,1,0.999103
0.8866864127539409,1,0.999060
0.8982420729049913,1,0.999303
0.9116533613479249,1,0.998537
0.9052189399842593,1,0.999023
0.9065564354356215,1,0.999174
0.929236480538606,1,0.997996
0.8916509829251226,1,0.999140
0.897161442423071,1,0.997962
0.8912479325176103,1,0.999159
0.8758111787616705,1,0.999127
0.8848667316683908,1,0.993646
0.8814538510155783,1,0.999156
0.8841068950918719,1,0.998410
0.8832263131434333,1,0.996823
0.8914994626732571,1,0.998362
0.9060366448511049,1,0.999169
0.9031800789505726,1,0.999233
0.9254582943193966,1,0.997552
0.9116840545948856,1,0.998826
0.8770756695675782,1,0.998474
0.8795500202544182,1,0.998533
0.8957483835497757,1,0.999227
0.9099345003544196,1,0.999329
0.9146101529068676,1,0.999349
0.8958545778234598,1,0.999322
0.8857788491094698,1,0.999206
0.884272521187385,1,0.999335
0.8947831640266595,1,0.987597
0.8931425590579085,1,0.999144
0.9203951306035228,1,0.999258
0.8888925273050241,1,0.999007
0.868216224019454,1,0.999282
0.9106789189130855,1,0.999110
0.9128493915037252,1,0.999017
0.8725593088719026,1,0.999277
0.895349000032959,1,0.998586
0.8643679553939508,1,0.999329
0.871172444872832,1,0.999239
0.9168182714162046,1,0.999267
0.8975420641805102,1,0.999426
0.8525777381464209,1,0.999270
0.9240690726015574,1,0.999286
0.883463389092794,1,0.999082
0.8942682107155976,1,0.996771
0.8865821996970478,1,0.999257
0.9132323520541717,1,0.999337
0.8900780914660986,1,0.997418
0.887849642786696,1,0.997856
0.9159705325711047,1,0.998880
0.9074244167750461,1,0.999307
0.8729315609982446,1,0.997956
0.8744288043599544,1,0.998446
0.8757066106266863,1,0.999319
0.8912050394348557,1,0.999213
0.8289234381974295,1,0.998053
0.8489470814990174,1,0.999278
0.9130699892097202,1,0.999147
0.8950331537770572,1,0.999336
0.8719619141145322,1,0.996112
0.9031326472654087,1,0.998117
0.9269106038156204,1,0.999168
0.8991813183977192,1,0.998604
0.9106255821594461,1,0.995152
0.9187601539507267,1,0.998470
0.8898203073642851,1,0.996207
0.8948434432002182,1,0.999395
0.8822550378796509,1,0.999277
0.8920348856105094,1,0.999254
0.889787229980543,1,0.999133
0.9116559632558077,1,0.998908
0.9121031113250382,1,0.999003
0.9126609993735861,1,0.998948
0.9032250168006914,1,0.999156
0.9153693618315423,1,0.999176
0.9044805431350769,1,0.999300
0.8767950399771763,1,0.999333
0.9054392981140069,1,0.993103
0.8762401313904604,1,0.999389
0.871018595467471,1,0.999330
0.8981481521184022,0,0.986667
0.8922054301391452,1,0.999153
0.8692348971149413,1,0.999097
0.8750767046999406,1,0.997761
0.9266367269260982,1,0.999260
0.9313572761966533,1,0.999231
0.9271030853064384,1,0.999231
0.9334023058288012,1,0.999121
0.911524083823485,0,0.990756
0.9350924272773774,1,0.999237
0.8885127552286342,1,0.999205
0.9136874793826107,1,0.997940
0.9195303692431622,1,0.998267
0.9293777422895356,1,0.995388
0.9138356754776037,1,0.999306
0.9140203047063514,1,0.998459
0.9202252170167274,0,0.972877
0.9024623422815674,1,0.997974
0.8982335008974254,1,0.999307
0.928368711083084,1,0.999203
0.856280976918088,1,0.999266
0.9116770531509698,0,0.989310
0.9091836614324218,1,0.998965
0.8995473829455579,1,0.999285
0.8987063412258736,1,0.999313
0.9000925522813581,1,0.998283
0.8805961690492079,1,0.999170
0.9202001487670551,1,0.997959
0.8697957391308436,1,0.998205
0.8990215768168361,1,0.998408
0.8995062293523207,1,0.999360
0.9183854091095168,1,0.998365
0.8888448102777347,1,0.999095
0.9044028798027672,1,0.999165
0.9142925272591815,1,0.999305
0.9472150200864857,1,0.989233
0.8917947055447681,1,0.998511
0.8830191855598971,1,0.996047
0.8987277996940727,1,0.999316
0.8968416424815657,1,0.997726
0.9159148402782014,1,0.998410
0.9166251971079693,1,0.998459
0.9070279752343782,1,0.999217
0.9192884858412482,1,0.999116
0.9150334837395308,1,0.999290
0.9275050783887219,1,0.999291
0.9001103101271829,1,0.999297
0.894821427601092,1,0.999322
0.9183085623575318,1,0.999339
0.897153594736859,1,0.997067
0.8969321580854267,1,0.999263
0.9174370504719979,1,0.996494
0.9147532590209141,1,0.999193
0.9232327165870049,1,0.993677
0.9095424356790138,1,0.999248
0.9148167523644398,1,0.998549
0.9114668821756668,1,0.999155
0.9004995579776268,1,0.998563
0.889106090828413,1,0.997172
0.8864017575133003,1,0.999150
0.8899736360672504,1,0.999378
0.9100042828491004,1,0.999226
0.9220513674094831,1,0.994128
0.9210649149870246,1,0.999055
0.898869057371856,1,0.999317
0.9283688573089338,1,0.998473
0.9242832524833975,1,0.992565
0.908525354947753,1,0.999180
0.9032892441594342,1,0.998968
0.8865744037478123,1,0.999296
0.9138679518492386,1,0.999356
0.8924778484231327,1,0.998741
0.9097655648633134,0,0.980616
0.9088874721239975,1,0.999118
0.9166967189027123,1,0.997691
0.9217434170236127,1,0.998973
0.8941236510178613,1,0.999083
0.9338790682230674,1,0.997706
0.9094245761995337,1,0.999315
0.8922517780844936,1,0.999350
0.9043527405198684,1,0.999305
0.9050247105192781,1,0.999109
0.8934318809331299,1,0.999395
0.9183989995372993,1,0.999368
0.9197081403195346,1,0.996528
0.9173425994700408,1,0.999241
0.9082846648226486,1,0.998819
0.8994162243158056,1,0.997533
0.9060133618683698,1,0.998463
0.8902240669181353,1,0.998675
0.911868042767652,1,0.999310
0.89091686505408,1,0.999392
0.9005486078574865,1,0.999351
0.9135015085019469,1,0.999212
0.8766190132265965,1,0.994565
0.9014855065781568,1,0.998111
0.8990446014367927,1,0.999308
0.9155720094363918,1,0.998466
0.9164667090853624,1,0.997030
0.9265830656607452,1,0.998157
0.9005579693494318,1,0.994771
0.9236311124329403,1,0.997625
0.926424470795613,1,0.999262
0.9098122483691466,1,0.995792
0.908818634005301,1,0.999295
0.8975395167701339,1,0.997849
0.8993270870880548,1,0.998148
0.8934434838504759,1,0.999160
0.9175037587886534,1,0.999008
0.8977459557726029,1,0.997734
0.91476553860457,1,0.999172
0.9120314064266837,0,0.991304
0.9052548221370091,1,0.999197
0.9082323201818391,1,0.999218
0.9116892396165412,1,0.999320
0.896960100604833,1,0.998217
0.9160267445024134,1,0.999302
0.8717005890708915,1,0.999242
0.9049911779181415,1,0.999266
0.8912028574491454,1,0.998061
0.900754615204511,1,0.999330
0.9153333813619141,0,0.959436
0.9085249107543718,1,0.998713
0.8836843321704568,1,0.999304
0.906407644067187,1,0.998723
0.8753191598533447,1,0.999385
0.8998610722584369,1,0.998108
0.9268020689213289,1,0.997995
0.9108688404755158,1,0.999190
0.9211828936271433,1,0.999360
0.9110788748579852,0,0.990529
0.9155290749092287,1,0.999346
0.8764124396668906,1,0.995767
0.9108034920820477,1,0.997128
0.9184175363419516,1,0.999355
0.9119622760585395,1,0.998495
0.9007148881752769,1,0.998647
0.8915267153357305,1,0.998729
0.8977676143796112,1,0.999337
0.9161463214129342,1,0.998735
0.9162134591307758,1,0.999304
0.9185173707633958,1,0.998428
0.907274998616308,1,0.999153
0.9018345579038937,1,0.998524
0.8866979559863791,1,0.998924
0.9036640837129718,1,0.999255
0.9045547243571722,1,0.996967
0.8788435136173881,1,0.999338
0.8864633455004971,1,0.999387
0.9168799644935666,1,0.999234
0.9223395660093061,0,0.989491
0.9154182875304437,1,0.999147
0.923539223743008,1,0.999280
0.9137367074151687,1,0.999160
0.9136601956543835,1,0.999240
0.8968160766666298,1,0.999302
0.9234549854282671,1,0.999263
0.8988193750654022,1,0.999171
0.910016984672877,1,0.999253
0.9113516807610808,1,0.997980
0.8980210652858044,1,0.995334
0.9105300904077209,1,0.999119
0.8720737276206336,1,0.998813
0.9037358553320082,1,0.996016
0.873502156033535,1,0.999323
0.9112841515218328,1,0.999107
0.8853664112172156,1,0.999345
0.9022058393926309,1,0.999183
0.9108710678739892,1,0.999334
0.9233712611042865,1,0.999192
0.8896254913207661,1,0.997863
0.8958476028941573,1,0.998596
0.869448294487547,1,0.999249
0.9070289947540129,1,0.999315
0.8906630866856192,1,0.999362
0.895960252659106,1,0.999291
0.8849295059512273,1,0.999271
0.896159231388729,1,0.997940
0.8860097736301947,1,0.998396
0.8698561857160201,1,0.999271
0.8916710440770604,1,0.999316
0.9051546074679119,1,0.998664
0.9151750714137346,1,0.997442
0.8787558672144689,1,0.998453
0.8758777063086368,1,0.999335
0.9356286373700512,1,0.999253
0.8982122157322266,1,0.994253
0.9229660153767334,1,0.999177
0.9104220082604121,1,0.998583
0.8904534237086169,0,0.989761
0.9188777673815812,1,0.999024
0.9296730646203786,0,0.984579
0.8910615614728047,1,0.999288
0.8816069533354272,1,0.999369
0.897747941274704,1,0.998810
0.9046317051700185,1,0.999230
0.8969731192989155,1,0.997750
0.8929142837881725,1,0.998629
0.9022288676407276,1,0.994475
0.9082896776156459,1,0.999219
0.9086428817215731,1,0.999304
0.913841445968846,1,0.999323
0.9068754315278671,1,0.999239
0.9086941296359375,1,0.999392
0.9257286645418965,1,0.998190
0.8904337543940101,1,0.999422
0.8994283605532598,1,0.999338
0.9141218601779094,1,0.999222
0.9048754689440509,1,0.999354
0.9061742406114053,1,0.999186
0.9112621241148315,1,0.993841
0.9107843112903449,1,0.999251
0.8730232164606894,1,0.999255
0.8939538339102829,1,0.999271
0.8963038358780312,1,0.999260
0.8747137490065402,1,0.999171
0.8981893200042141,1,0.999176
0.8936552691149112,0,0.982496
0.8963346106088096,1,0.999245
0.8951405064439163,1,0.999137
0.9093131050837076,1,0.998243
0.9067112857439417,1,0.999336
0.9168677431852368,1,0.999107
0.8957039487281624,1,0.992488
0.8829748304475981,1,0.999313
0.8980992485192274,1,0.999249
0.890989401253532,1,0.999269
0.9036827028822095,1,0.998948
0.8974779278959829,1,0.999240
0.8810894316786235,1,0.999195
0.8863588031701799,1,0.995968
0.8952628035767056,1,0.997297
0.900487518483802,1,0.999274
0.8964165989731858,1,0.999165
0.9135209289726918,1,0.999227
0.8763673262184515,1,0.999242
0.9040424905429305,1,0.996647
0.8910123582205562,1,0.998650
0.9029537030315028,1,0.999278
0.8936077251503999,1,0.998377
0.9028356074370958,1,0.997535
0.895130680753725,1,0.998625
0.9120964294846582,1,0.999253
0.8877274503972549,1,0.994934
0.9134698814843798,1,0.998487
0.8912873414701348,1,0.999136
0.8907478772107968,1,0.998440
0.9033552068625716,1,0.999339
0.9024909241597727,1,0.998279
0.8943681987316575,1,0.999169
0.9252034723628955,1,0.999299
0.906256938693005,1,0.999377
0.9108990651586054,1,0.997687
0.9016002638567875,1,0.997569
0.9107096544388467,0,0.978369
0.9011840100311156,1,0.999301
0.8899817467175013,1,0.999164
0.8790152652501355,1,0.998586
0.9227317780738477,1,0.999305
0.9184974846681095,1,0.997300
0.8881743570696208,1,0.999327
0.8749926711555478,1,0.998583
0.9069320013948051,1,0.999303
0.9047122140146224,1,0.998622
0.9116981151855437,1,0.998691
0.9144574966181398,1,0.997137
0.9118494689858887,0,0.982942
0.8925543998194809,1,0.999163
0.8906789895595657,1,0.999257
0.8784109576917623,1,0.997629
0.8819518820844194,1,0.991942
0.8658107318913184,1,0.994026
0.8795131535044475,1,0.999301
0.875876606867873,1,0.994495
0.9008004935493982,1,0.999184
0.8933742112045266,1,0.996664
0.8606002991564601,1,0.999307
0.9237387029153163,1,0.999185
0.9202898789473181,1,0.999118
0.9176708279996845,1,0.998656
0.9090892877288796,1,0.997699
0.9008596857102712,0,0.957202
0.9086522683642219,1,0.998294
0.8994143280689997,1,0.999201
0.9100187816488416,1,0.997351
0.9381242311615793,1,0.999299
0.8895507597778843,1,0.998519
0.9017732676464838,1,0.996891
0.9109335345746515,1,0.996128
0.8874916928498223,1,0.999195
0.902034607725314,1,0.999194
0.9129847684296768,1,0.998912
0.8760006724521272,1,0.999209
0.8886054647815683,1,0.998830
0.9080275708078686,1,0.998783
0.8895396528732428,1,0.999133
0.8889551842237782,1,0.998467
0.8963392193275105,1,0.997925
0.8721308781832795,1,0.998404
0.890961869792952,1,0.999202
0.8661047082806331,1,0.998523
0.8807005656216863,1,0.998256
0.8726348265582212,1,0.997940
0.8827833881559878,1,0.999118
0.9150730776818267,1,0.999188
0.9187456473375163,1,0.998986
0.8872831306102773,1,0.998446
0.9045064213917056,1,0.995708
0.900254141595886,1,0.994911
0.9122839835534683,1,0.999238
0.8962593424722778,1,0.998729
0.8858318266920596,1,0.999253
0.8784675664862709,1,0.999119
0.8707294458811701,1,0.994479
0.8799005073240325,1,0.999259
0.8952595799618676,1,0.999214
0.8752349684451154,1,0.999245
0.9174324072861162,1,0.999290
0.9046522415070866,0,0.974585
0.9030807242216716,1,0.998762
0.8745629148888658,1,0.998672
0.8940227750139469,1,0.999299
0.8849903271616097,1,0.997559
0.8674690968399164,1,0.998941
0.9037872094327334,1,0.999206
0.9012480956183404,1,0.999027
0.889518252170879,1,0.999161
0.9024628324097438,1,0.999188
0.873135934135624,1,0.998902
0.8623496714428447,1,0.999245
0.894270473001198,1,0.999262
0.8976021786272079,1,0.999301
0.9168230046628706,1,0.998569
0.8957363378059643,1,0.999048
0.8833069987177411,1,0.999139
0.9014889295348194,1,0.999038
0.8893770560445114,1,0.998467
0.8749220500800308,1,0.999174
0.8661714755656087,1,0.997553
0.8920835419748054,1,0.995600
0.9002133955557314,1,0.997468
0.8874061607272921,1,0.999365
0.8601363334714035,1,0.998722
0.9067584447475995,1,0.999230
0.893906983550726,1,0.999363
0.8838335614293112,1,0.999272
0.854434681910114,1,0.999295
0.8945687186674259,1,0.994278
0.8553132750065833,1,0.999010
0.8640427294375294,1,0.999162
0.8809420552084206,1,0.999022
0.8865382964820012,1,0.997875
0.8876780529816483,1,0.999167
0.9031997909945136,1,0.999250
0.8410607430294819,1,0.998561
0.9111095183499828,1,0.999326
0.8830973434103105,1,0.998642
0.8955027283326863,1,0.998394
0.9138905712819645,1,0.999109
0.8769210848168835,1,0.999356
0.9121525258207359,1,0.995363
0.9000863479041797,0,0.990596
0.8617413232737364,1,0.999275
0.8873540347730835,1,0.999349
0.8866658424034646,1,0.998954
0.8901052358636635,1,0.995995
0.9118979532579703,1,0.998631
0.9000771973715838,0,0.986185
0.904522215096744,1,0.999129
0.88863016008769,1,0.999106
0.9086721623369713,1,0.997838
0.8936652444589984,1,0.998665
0.9190029535983136,1,0.999242
0.8901221204891603,1,0.999266
0.9186032663084235,0,0.970501
0.902971053283976,1,0.999256
0.8872221277295621,1,0.998637
0.9165424405990255,1,0.998578
0.8972390461532039,1,0.999198
0.8812163133186752,1,0.999279
0.9068816191924213,1,0.999171
0.884356799642793,1,0.999188
0.8808452160510492,1,0.999293
0.8614725375502319,1,0.997840
0.8911477788712399,1,0.997439
0.8947742840376449,1,0.999199
0.8896658136778156,1,0.999242
0.8954367064658056,1,0.998216
0.8813511256051507,1,0.999207
0.8448393098789302,1,0.997374
0.9245668966110218,1,0.995676
0.8767723878242819,1,0.999341
0.9248465534066848,1,0.999343
0.8899109644442259,1,0.995697
0.915958147751728,1,0.997464
0.8518855107712231,1,0.999183
0.8632471534116647,1,0.999287
0.8912562235565843,1,0.999087
0.8867131197581822,1,0.999208
0.8545133451042248,1,0.998174
0.8553566016193207,1,0.999090
0.8725553072521524,0,0.990984
0.8977024780843051,1,0.999244
0.9047062599098031,1,0.999197
0.9110746705665228,1,0.999274
0.9106639672348852,1,0.999226
0.8472461211326843,1,0.999379
0.8913622551748005,1,0.999298
0.8830827591276347,1,0.999332
0.8591793952229972,1,0.999336
0.861519902644818,1,0.999286
0.8733616650870507,1,0.998827
0.9081203855888047,1,0.998814
0.8790141518221802,1,0.999324
0.8802326710063278,1,0.993069
0.8925537879725646,1,0.999380
0.8767696503934382,1,0.999355
0.8987644142506028,1,0.999275
0.8813664662725424,1,0.998780
0.8806445628969234,1,0.998679
0.8897524926837588,1,0.999307
0.9025655800991913,1,0.997703
0.8798137374365282,1,0.997930
0.885873257969198,1,0.999286
0.8267170453848638,1,0.999340
0.8949909199615316,1,0.990836
0.9078788244628848,1,0.999201
0.8752831749466705,1,0.998593
0.8987688818890484,1,0.998529
0.8775094779937254,1,0.999266
0.9011391269661466,1,0.999214
0.8420079409152846,1,0.999250
0.8789103154609019,1,0.998404
0.883583873614618,1,0.999004
0.8895891410221761,1,0.999202
0.883524177498779,1,0.999264
0.8552356734214935,1,0.998111
0.8701951402229592,1,0.999041
0.8601662976397918,1,0.999138
0.8896146186233205,1,0.999246
0.885652085625478,1,0.999262
0.8663091680660197,1,0.999371
0.8658038289948233,1,0.998195
0.9216359633174299,1,0.999259
0.909634532009459,1,0.999231
0.8851796109051033,1,0.999365
0.9062685601262052,1,0.997338
0.8958318370350163,0,0.971705
0.8933828422874155,1,0.999108
0.928777988038801,1,0.999371
0.9296141853031837,1,0.998611
0.9066975302405957,1,0.998626
0.8923879464173018,1,0.999261
0.919952862078087,1,0.999102
0.9064360825969017,0,0.975207
0.9015214148408196,1,0.999289
0.8875449666595862,1,0.999093
0.8543570694402843,1,0.999336
0.9225907579178467,1,0.998405
0.9120684450568121,1,0.999216
0.8998641889847994,1,0.998639
0.8757619171649151,1,0.992586
0.8652709943287978,1,0.999309
0.8943681595249985,1,0.999263
0.8759853473835798,1,0.999099
0.8765940189764742,1,0.999218
0.8926414949913973,1,0.998017
0.8917286938299533,1,0.999188
0.8640832425640269,1,0.996853
0.9029653863824526,1,0.999228
0.8965234164140813,1,0.999339
0.8593555483870666,1,0.999382
0.8968587111344293,1,0.994570
0.9164070248502173,1,0.999000
0.8842383525934762,1,0.999266
0.922575521998814,1,0.999142
0.9113246662214153,0,0.964962
0.9006142353899226,1,0.999222
0.9016257884988712,1,0.999061
0.8984610817359896,1,0.994470
0.9246946797903256,1,0.997592
0.9189343150662825,1,0.997481
0.8838113221732943,1,0.999297
0.8968996615594843,1,0.999088
0.8935024375384856,1,0.998709
0.9053173613116885,1,0.998583
0.9022731926342042,1,0.999234
0.9049648544674526,1,0.999186
0.8772623783929204,1,0.998672
0.8982592130622483,1,0.994867
0.8981384504306918,1,0.999310
0.9187022976163891,1,0.994609
0.8918350337948999,1,0.999170
0.8560044207675268,1,0.999111
0.8786240452210269,1,0.998474
0.8749749866939982,1,0.999110
0.8614839758233905,1,0.999316
0.8864020047833192,1,0.999260
0.890357952247469,1,0.999242
0.9181093391781665,1,0.999167
0.9149973527307067,1,0.994094
0.9141226410077923,1,0.999108
0.8758357032439652,1,0.998679
0.9360251771651037,1,0.999237
0.8898593525636279,1,0.999199
0.8987797293419955,1,0.993811
0.9077387837506753,1,0.999084
0.9319786764347167,1,0.998165
0.8889277551542893,1,0.999125
0.8826428523428173,1,0.992322
0.8885250321307187,1,0.997487
0.9133277829338948,1,0.998160
0.9023258970993543,1,0.998363
0.8779241893163945,1,0.999007
0.9103959159357559,1,0.992315
0.8897092069399175,0,0.989474
0.8922726090085915,1,0.997503
0.8991006849819547,1,0.999084
0.8918592184592938,1,0.997726
0.9034884419348898,1,0.994769
0.8931343227812915,0,0.987903
0.8463599334161178,1,0.999382
0.8969808023651702,1,0.999257
0.8787639256089415,1,0.999269
0.8574882646011048,1,0.997004
0.9103930945915175,1,0.999222
0.8820649032747849,1,0.999128
0.9008124565773714,1,0.999213
0.8401978521618618,1,0.999110
0.8709978115519922,1,0.999247
0.8604632538819064,1,0.999142
0.8930827431650018,1,0.999315
0.9234306152303536,1,0.998195
0.9128891907525362,1,0.998561
0.8987735703752143,1,0.999313
0.8818325819628066,1,0.999333
0.8821941837485167,1,0.998606
0.910997965381107,1,0.999253
0.9264716346701697,1,0.998983
0.8850129712455392,1,0.996374
0.9184840706494503,1,0.999358
0.8768583193277238,1,0.999361
0.9053651232793656,1,0.999302
0.9031897265748382,1,0.999158
0.8804917926737603,1,0.999305
0.8490570959783831,1,0.998506
0.871705403553956,1,0.995025
0.8940881106360641,1,0.999398
0.870088015262948,1,0.999329
0.8740109191516974,1,0.999307
0.9171075442492096,1,0.995723
0.8826580780188669,1,0.999280
0.8977272409839525,1,0.998192
0.9005945810354896,1,0.998301
0.891953777042102,1,0.998550
0.9004962079307985,1,0.999274
0.8739182963392715,1,0.998641
0.9134536360437109,1,0.999192
0.88789098135706,1,0.992417
0.8487581227450092,1,0.999145
0.9023368732103798,1,0.994413
0.8968736046525656,1,0.999324
0.9015929236692064,1,0.997587
0.8992222847970072,1,0.999148
0.9054887063569297,1,0.995580
0.9000485322200082,1,0.999285
0.8877063168828302,1,0.999373
0.895705345013577,1,0.997462
0.8821277020436116,1,0.999342
0.8435918161707984,1,0.996294
0.8840953080890004,1,0.999219
0.8743705600237508,0,0.954545
0.8555185083428514,1,0.998373
0.8806409200574697,0,0.964211
0.8673142141897426,1,0.999265
0.8818406832012508,1,0.999284
0.8790711368609397,1,0.998722
0.8658436998193849,1,0.999334
0.8449669102067177,1,0.999346
0.8907866487924286,1,0.999055
0.9118612041878084,1,0.999277
0.8957718069011089,1,0.999149
0.9116553337816778,1,0.999251
0.9030152942845283,1,0.998566
0.8988450270854165,1,0.998022
0.9050028741756251,1,0.998357
0.9142877714327613,0,0.986990
0.8769556988055511,1,0.999294
0.8990770940062764,1,0.995112
0.9100330436535191,1,0.999136
0.8910915156439924,1,0.997758
0.9004130617362539,1,0.999393
0.9191379879989902,1,0.999208
0.9216596447329048,1,0.999270
0.9021798497336262,1,0.999355
0.8959849399251609,1,0.998534
0.8922592303748431,1,0.999314
0.8838818544002346,1,0.992713
0.9293938028373439,1,0.999237
0.8739608217667998,1,0.998724
0.9149869830349489,1,0.998755
0.9106312692802185,1,0.999109
0.9139506583336399,1,0.999211
0.9092265848444989,1,0.999016
0.8904198574482668,1,0.998662
0.9012338155492506,1,0.999386
0.904106065389386,1,0.996400
0.8848350126928741,1,0.999255
0.8617484331774125,1,0.999399
0.921125685143523,1,0.999112
0.8885239063574716,1,0.999353
0.9004068450221404,1,0.999221
0.9047983134915114,1,0.999313
0.8727047657062642,1,0.999286
0.9123313200606555,1,0.999310
0.897963295119757,1,0.999038
0.9028202398598901,1,0.999211
0.912762451558599,0,0.978514
0.8778984812516022,1,0.998575
0.8843702260426849,1,0.999142
0.9058876961287003,1,0.998924
0.8837219239796503,1,0.999349
0.908273007323923,1,0.996020
0.8911407969129675,1,0.999212
0.8798010786784619,1,0.999264
0.8694750912195353,1,0.999006
0.927399478280064,1,0.999267
0.8944517913692305,1,0.999152
0.9274117123818749,1,0.999203
0.8936787416717186,1,0.997468
0.8950183094013171,1,0.995822
0.9085975848379427,1,0.998711
0.9034747157431693,1,0.998658
0.9058463148965805,1,0.998000
0.8964615911318913,1,0.999342
0.9051709185017132,1,0.998379
0.9102036336167937,1,0.998591
0.9091010355251915,1,0.999106
0.9346779812228094,1,0.997945
0.8988619680786747,1,0.995951
0.8990997188751757,1,0.999163
0.9415035766774408,1,0.999174
0.9027480247371009,1,0.999228
0.908282834167022,1,0.999307
0.9180770599339243,1,0.997642
0.8975795866910213,1,0.999312
0.9013838484812152,1,0.999336
0.8863299353593393,1,0.999394
0.9322860912280786,1,0.997645
0.9081895842179788,1,0.999066
0.8994741972672052,1,0.999291
0.8820719613390132,1,0.998670
0.8993549092768953,1,0.999370
0.8975799255317339,1,0.999268
0.9132874050150426,1,0.999273
0.9231624934927034,1,0.999168
0.9236490929185496,1,0.998603
0.9172180529889336,1,0.999002
0.9270075931772825,1,0.998996
0.8851990890112412,1,0.997924
0.909488004206229,1,0.998286
0.9208034637062043,1,0.995680
0.8831177799777687,1,0.999193
0.9164381845828151,1,0.998913
0.8934215476171319,1,0.999120
0.9111053125706731,1,0.999197
0.8998880221135241,1,0.999367
0.8882285258940121,1,0.999124
0.9027531297683835,1,0.999287
0.9198054638507944,1,0.994751
0.8788837304436113,1,0.999302
0.9108534538201446,1,0.998298
0.9042971236370358,1,0.997359
0.8891156789204808,1,0.998183
0.8724482732614895,1,0.999295
0.9311750683858272,1,0.998828
0.8929439966501629,1,0.999324
0.9078997053479732,1,0.999314
0.9183136939665318,1,0.999275
0.9157313073566715,1,0.999295
0.8943243049649363,1,0.996054
0.8900538463997063,1,0.999379
0.8958996630259114,1,0.999326
0.9103597565269015,1,0.998925
0.9069691841628358,1,0.998787
0.9089299454529653,1,0.999106
0.922309619119444,1,0.998012
0.9251853798213907,1,0.997912
0.9238549256144883,1,0.994088
0.9241494418908565,1,0.999254
0.8842955554280943,1,0.998621
0.9125088109984378,1,0.999036
0.9136848339898932,1,0.999205
0.9328001364303647,1,0.999031
0.9156142146918602,1,0.998492
0.9412682257438912,1,0.999124
0.9286996042070813,1,0.999171
0.9030087549709487,1,0.995427
0.9116100121692225,1,0.996540
0.9443854537022864,0,0.990764
0.9363343124639366,1,0.999147
0.9221467842414707,1,0.996909
0.9168795649547398,0,0.976471
0.922337505465373,0,0.944641
0.9241156663408172,1,0.999134
0.9056624812747797,1,0.999264
0.9341511345404052,1,0.998014
0.9326215585618276,0,0.953028
0.9160107644889796,1,0.999259
0.9433777921354101,1,0.998869
0.9100748765127008,1,0.999323
0.9132444364714389,1,0.999047
0.9215792467052599,1,0.999280
0.9123372773548176,1,0.996431
0.9292554455681826,1,0.998426
0.8933537533817603,1,0.998988
0.8932473518469026,1,0.998721
0.8687339931669074,1,0.994993
0.8978452912448732,1,0.999304
0.9331168671017375,1,0.995219
0.9399537393053097,1,0.999167
0.9033348620105383,1,0.999276
0.9356976633064827,1,0.999350
0.9133982780477845,1,0.999117
0.9145439769163188,1,0.998465
0.9245527470643066,1,0.995763
0.9383473748780405,1,0.998639
0.930041856840907,1,0.998375
0.9027222289491534,1,0.999173
0.9185344444628196,1,0.999214
0.9221801963842899,1,0.998603
0.9100981344224929,1,0.999334
0.868799178250988,1,0.999219
0.9467705754365676,0,0.988095
0.9345401945548361,1,0.998985
0.8978983492510946,1,0.999208
0.9108607518828722,1,0.999225
0.9040730150491672,1,0.998941
0.9086401047269157,1,0.999188
0.9001164000410418,1,0.998480
0.8860749398711208,1,0.999073
0.9293265516682836,1,0.999277
0.9322738585482758,1,0.998560
0.9184985157470072,1,0.999252
0.9254114257347663,1,0.998187
0.9148990033428063,1,0.998487
0.914991607401569,1,0.999296
0.9183846949639641,1,0.996782
0.8978327341847387,1,0.999133
0.9241416091363436,1,0.999278
0.9162539861886275,1,0.998663
0.8871644487312133,1,0.998814
0.891054300201762,1,0.999248
0.9184839410103471,0,0.979518
0.9181143852029477,1,0.998383
0.9193103846695329,1,0.999296
0.91443190989975,1,0.999349
0.9025309633477528,1,0.999186
0.9109132524218381,0,0.986788
0.8865119847151661,1,0.999153
0.8873654204050143,1,0.998750
0.8971682914816803,1,0.998279
0.9148779280408675,1,0.999212
0.904017020158759,1,0.999066
0.9183645638977035,1,0.999180
0.8836267230739449,1,0.994329
0.8873288086333747,1,0.999271
0.906515669176582,1,0.999176
0.9136054326664172,1,0.994413
0.8981004007148063,1,0.999307
0.9213411214946221,1,0.998721
0.8926792298775739,1,0.999371
0.9012961929686546,1,0.999305
0.8965013562478217,1,0.999249
0.9035195808190868,1,0.996285
0.9028287384724059,1,0.997563
0.8972694285610375,1,0.998054
0.8947776641499571,1,0.998640
0.9178807566203507,1,0.997001
0.9102746526729834,1,0.999236
0.9067692780909823,1,0.998613
0.867776575073189,1,0.999398
0.8993448473687149,1,0.998937
0.9240062682061704,1,0.997984
0.8766801099319601,1,0.999343
0.9198744794221464,1,0.999297
0.8959414450295159,1,0.996739
0.9060561571301935,1,0.999358
0.8905238674812779,1,0.999322
0.8749056546778298,1,0.999124
0.9163439030180963,1,0.999265
0.9031224976955974,1,0.999171
0.8933979525633409,1,0.998966
0.8628092767437198,1,0.999068
0.8809501029793035,1,0.999323
0.9040721265561945,0,0.980963
0.8907520381926265,1,0.993365
0.9232243944805798,1,0.999143
0.9278033410778799,1,0.998991
0.9080697470411767,1,0.999336
0.897097923986916,1,0.999293
0.9209364114047082,1,0.999051
0.8995629136810186,1,0.998307
0.9254244154565966,1,0.999284
0.8897107658045934,0,0.985965
0.9201116433749557,1,0.999294
0.8917401054139974,1,0.999205
0.9035088666370139,1,0.999174
0.9199093907957173,1,0.998213
0.9205859402407673,1,0.999220
0.9243895306699154,1,0.999129
0.9143529710552974,1,0.998459
0.9099138875598798,1,0.998999
0.9105058577188812,1,0.999183
0.8943206099135186,1,0.993898
0.8883254882074786,1,0.999093
0.892606733813089,1,0.999175
0.9042011937808349,1,0.999230
0.9090036595796216,1,0.998495
0.9083121314255217,1,0.996506
0.9225046275762049,1,0.999289
0.8902175546311076,1,0.999215
0.9075945466965781,1,0.999166
0.9105353359975009,1,0.999280
0.9179411330993099,1,0.999088
0.8993020499580836,1,0.999225
0.9106963532726746,1,0.999202
0.9190874451870896,1,0.999275
0.8861526141277367,1,0.999273
0.9142918017691372,1,0.997978
0.8921577210529736,1,0.999332
0.9118246152951683,0,0.962287
0.9076955466858776,1,0.998081
0.8936676096528204,0,0.986667
0.9301715364891302,1,0.999152
0.9044341099785494,1,0.999276
0.9021307265805593,1,0.998316
0.8767284406654547,1,0.999017
0.8955418128351464,1,0.995699
0.8898797899754912,1,0.999294
0.9351891413704936,1,0.999237
0.9094833076169622,1,0.999355
0.8767316676457961,1,0.998795
0.9137382760712356,1,0.999302
0.8733238465689155,1,0.999288
0.8850423221408046,1,0.998400
0.8919367974684869,1,0.999417
0.921013485012952,1,0.998858
0.9019458732038762,1,0.999153
0.9379783491597591,1,0.999143
0.9067483310839781,1,0.998466
0.9005710725857331,1,0.999290
0.9146095211292012,1,0.999294
0.9099194943448299,1,0.996241
0.9157466170430857,1,0.999231
0.9008439636294532,1,0.998672
0.8897389933434522,1,0.999351
0.9134131239270744,1,0.999322
0.9064010899517677,1,0.998145
0.8835538355629279,1,0.998153
0.9044250041298054,1,0.998748
0.9018628555793056,1,0.999341
0.9326916940003016,1,0.999165
0.9101037580130977,1,0.997531
0.9109370733011312,1,0.998758
0.9122457057531459,1,0.999085
0.897914300090932,1,0.996124
0.8682925300147933,1,0.999192
0.9103244889488217,1,0.997912
0.8993351693071904,1,0.999300
0.9072161222630839,1,0.999224
0.8828023901749381,1,0.996970
0.8929982470515047,1,0.999194
0.8880513766559561,1,0.998993
0.9079539461310069,1,0.999269
0.926201048653364,1,0.996082
0.9231435707081915,1,0.999331
0.9228443860330362,1,0.999026
0.9333562897369801,1,0.997494
0.9087245264537596,1,0.999399
0.912814014923864,1,0.999108
0.9152090468576979,0,0.991325
0.9221703155624196,1,0.998423
0.8720095459431605,1,0.998457
0.8923942353037944,1,0.999275
0.9076744419109299,1,0.999275
0.8814171850473984,1,0.998571
0.9094088363824601,1,0.999051
0.9293541733770868,1,0.999043
0.9005274441475244,1,0.999254
0.8976061111891042,1,0.997719
0.9113306351206855,0,0.989203
0.9209738638859992,0,0.984688
0.9100361199209114,1,0.999171
0.9230774130384548,1,0.999161
0.9138829622610364,1,0.999297
0.9201773826624211,1,0.999106
0.8984091784437145,1,0.997751
0.8932055022703056,1,0.999371
0.9069169932220996,1,0.998143
0.9256847284287968,1,0.998316
0.9039128540584732,1,0.998295
0.9181862111759211,1,0.999158
0.8680971595785377,1,0.999332
0.8882072491978777,1,0.999231
0.8967961879527759,1,0.998608
0.8839883455418973,1,0.999295
0.9150345586359329,1,0.993145
0.9217627082992836,1,0.999257
0.9183533595955085,1,0.999290
0.9001160087517399,1,0.999339
0.9115001016131766,1,0.998462
0.9331371071884604,1,0.997936
0.9065691222218555,1,0.999350
0.8842395453935997,1,0.999222
0.92882571479458,1,0.999246
0.9153581017316715,1,0.999254
0.9181090907740527,1,0.999006
0.9010007804704263,1,0.999190
0.90448596993761,1,0.999227
0.9067981012925116,1,0.999261
0.9076955453745081,1,0.998789
0.9149528835555817,1,0.998507
0.8994020526194071,1,0.997093
0.9031619555250807,1,0.999325
0.9062755442595849,1,0.999194
0.9081567280672502,1,0.998384
0.9263944737762521,1,0.998104
0.8914048442386309,1,0.997059
0.9018273212090766,1,0.994760
0.9004584090552661,1,0.994451
0.9086123075199628,1,0.997792
0.9029112400816358,1,0.999315
0.9032207501875912,1,0.996865
0.8714362893011484,1,0.998577
0.9443651329657781,1,0.999071
0.9123483737377754,1,0.997347
0.9214315907578505,1,0.998767
0.9069985681624276,1,0.999211
0.9184048654918989,0,0.984496
0.8916674465716186,1,0.999101
0.8975918020898059,1,0.999257
0.905871895823566,1,0.998530
0.9039235475459946,1,0.999254
0.9036190983356918,1,0.999235
0.9095940289095362,1,0.999085
0.8985715021134834,1,0.999107
0.8828726194237501,1,0.999354
0.9198527290823172,1,0.997888
0.9078800260465834,1,0.999004
0.9152245931629245,1,0.998324
0.9235870866518255,1,0.998200
0.9156271880167569,1,0.993997
0.894353362240172,1,0.999273
0.912269190912447,1,0.998246
0.8925638397769547,1,0.998736
0.9096571815796567,1,0.993533
0.8935282920457543,1,0.999281
0.9153870566042867,1,0.995122
0.8842164081383094,1,0.999173
0.856960067954094,1,0.999352
0.9002006640794927,1,0.999363
0.8982263772110473,1,0.999316
0.9216751872525394,1,0.999273
0.907698800509969,1,0.998618
0.8907585374563403,1,0.997989
0.9306011673084952,1,0.999248
0.9062453003157531,1,0.998051
0.9224537937012534,1,0.998926
0.9264537524292191,1,0.999008
0.894513000945453,1,0.998776
0.860029154432892,1,0.994742
0.9036821978977083,1,0.998989
0.911851174827863,1,0.998391
0.8956055241194145,1,0.999288
0.9040355091959649,1,0.999265
0.8890830742229731,1,0.999230
0.8747242470599185,1,0.996368
0.8994834910565526,1,0.999339
0.9258138637339176,1,0.999188
0.8895823756319555,1,0.998255
0.8982905282594025,1,0.999312
0.9025692704551546,1,0.999179
0.9078830818244463,1,0.997972
0.8917871283048906,1,0.999127
0.9225816030307944,1,0.998551
0.901495978616434,1,0.999284
0.9222924050416862,0,0.981873
0.9114280855820576,1,0.998324
0.8839216549605807,0,0.981373
0.9131699319528102,1,0.998765
0.8605029884263982,1,0.999171
0.8988060206871872,1,0.994016
0.8731378304337103,1,0.998347
0.8671828189286698,1,0.999415
0.9123707002619118,1,0.999272
0.9152830134665232,1,0.997881
0.9130107101660634,1,0.998238
0.8836493974253951,1,0.998026
0.9114338919723673,1,0.999145
0.9262954813454665,1,0.998559
0.9114433730328656,1,0.999358
0.9078534229239809,1,0.999247
0.9110592963260098,1,0.999221
0.9121449603677534,0,0.989592
0.9067663668666274,1,0.999201
0.8971353885951009,1,0.998470
0.9246344043432888,1,0.999078
0.9192164540785867,1,0.998792
0.8914355879089723,0,0.975420
0.9030071581441509,1,0.999083
0.9131456538883657,1,0.997773
0.8891415228786493,1,0.999222
0.9238326722865864,1,0.999338
0.8911872724205268,1,0.999277
0.8750385278111887,1,0.999322
0.9060230465887528,1,0.999248
0.8738360590770883,1,0.998556
0.892565153983017,1,0.998597
0.9055792270215975,1,0.999341
0.8907157365664453,1,0.999286
0.9162939167615858,1,0.999112
0.9099176550760387,1,0.998434
0.8824388997690247,1,0.998561
0.8844948586602982,1,0.999340
0.873869765833289,1,0.998020
0.8974535113669492,1,0.999094
0.8569362477312247,1,0.999044
0.9008276278060612,0,0.985731
0.8665416284199673,1,0.999264
0.8748473666944263,1,0.999271
0.862047471318633,1,0.999323
0.9028814795630861,1,0.994652
0.8792987171314638,0,0.979294
0.8808304699636132,1,0.998968
0.8996140671675724,1,0.998008
0.9087352523101584,1,0.998876
0.8883461816083268,1,0.998755
0.9063065045411994,0,0.989474
0.9206146008942604,1,0.999049
0.8927635461097655,1,0.996558
0.8875433660681857,1,0.999139
0.8658664681963423,1,0.996451
0.925386753664703,1,0.997484
0.89056183236597,1,0.999285
0.8770805221896872,1,0.999221
0.8748420213055614,1,0.999313
0.9158225645918316,1,0.992079
0.9064226661501461,1,0.990303
0.8464754715405797,1,0.998660
0.8770633809604456,1,0.999266
0.8940606426669454,1,0.999288
0.871759732807029,1,0.998467
0.868136288404006,1,0.999264
0.8745057672322994,1,0.998639
0.9058078311972876,1,0.996548
0.884717819497499,1,0.998568
0.8726364529259124,1,0.999131
0.9014315551408437,1,0.997545
0.9204807412601147,1,0.997642
0.8796937553698945,1,0.998745
0.8975911300583773,0,0.977395
0.9193488939941938,1,0.999046
0.9083615365319061,0,0.957274
0.9014997356940796,1,0.998193
0.922027393716351,1,0.999177
0.8886385388603216,0,0.972147
0.9221528251620353,1,0.997809
0.9316846579687711,1,0.999242
0.9065391115727345,1,0.998570
0.9262367399052143,0,0.990115
0.9160255814791759,1,0.999281
0.9018055180159111,1,0.999157
0.9015357051841192,1,0.995798
0.9109470053784858,1,0.998913
0.8894961613182204,1,0.999368
0.9274477922789901,1,0.994356
0.9066342785383563,1,0.999351
0.9018788853707028,1,0.999250
0.9423842094551865,1,0.999236
0.9249827754502815,1,0.999117
0.9152681636957464,1,0.999216
0.909108782395021,1,0.999317
0.9018694343254143,1,0.998664
0.906847946035255,1,0.998801
0.9253327089092966,1,0.997585
0.8898202442343001,1,0.998298
0.9140322631474744,1,0.999241
0.886725987654529,1,0.999077
0.9030381422756212,1,0.999326
0.9247953062327233,1,0.999258
0.8968793680939661,1,0.998053
0.9012218437707316,1,0.998371
0.8947761840325239,1,0.999362
0.899621338165154,1,0.998413
0.892801470775751,1,0.996956
0.9200086906659822,1,0.994859
0.9082265825515166,1,0.999368
0.9034679425393911,1,0.999220
0.9062979438525123,1,0.999203
0.9036081016031768,1,0.998703
0.8987559846590303,1,0.999136
0.9032365902095545,0,0.981435
0.8850291698835548,1,0.998596
0.8889409759879003,1,0.999381
0.886381590748913,1,0.999299
0.9090145715604238,1,0.999267
0.90164434074133,1,0.998674
0.8831136485603168,1,0.999345
0.8836149506364726,1,0.998331
0.9033855201324992,1,0.998214
0.8943290731052668,1,0.999314
0.9021302797532104,1,0.999109
0.8844489123440563,1,0.991830
0.9033048198247635,1,0.999349
0.8897794469264706,1,0.999226
0.9174717758547972,1,0.998071
0.9154865545226953,1,0.999278
0.8981159021019359,1,0.998807
0.899460189468696,1,0.999073
0.9274608356655246,1,0.999057
0.9096279185108289,1,0.997810
0.9240964018530643,1,0.999258
0.89692218086283,1,0.999306
0.9331823359652804,1,0.999101
0.9250584870368386,1,0.999068
0.9226047764965222,1,0.999136
0.9212329008690316,1,0.998469
0.9270687341606911,1,0.997919
0.869295322470557,1,0.998952
0.8922249654284619,1,0.997133
0.9169935065232029,0,0.983589
0.8793591328066411,1,0.998668
0.9262659205886971,1,0.999036
0.9132886957029752,1,0.998355
0.9178786840822963,1,0.998711
0.8958270342313569,1,0.999126
0.9259502430777004,1,0.996429
0.8957897295144919,1,0.999191
0.9247175518512842,1,0.999249
0.9565234260318025,1,0.998825
0.8692497860736439,1,0.997978
0.8798548672436414,1,0.998535
0.9241109797623834,1,0.993369
0.8878799185208158,1,0.999225
0.8969091139418123,1,0.999380
0.879511692691196,1,0.999342
0.891753339982723,1,0.998362
0.8857405001378641,1,0.999195
0.9117078686405579,1,0.999064
0.8654644751230456,1,0.999306
0.8927258439608929,1,0.998504
0.8815644408158994,1,0.999287
0.9128910326743593,1,0.996875
0.9191758340165528,0,0.982030
0.9014055197845803,1,0.998722
0.888927981082717,1,0.999066
0.9122324822609119,1,0.999146
0.9162170248481508,1,0.999021
0.9007142930365011,1,0.999216
0.9088038786005261,1,0.998049
0.9112035528450664,1,0.995773
0.8924231550042746,1,0.998258
0.9155260605207524,1,0.999249
0.8800989548126412,1,0.999255
0.8882010813665784,1,0.999295
0.8873517796115641,1,0.999285
0.8887238629552304,1,0.999143
0.9001224873011747,0,0.971619
0.854035733132367,1,0.998620
0.8849499289553883,1,0.998171
0.8844558526581343,1,0.999195
0.899404319100709,1,0.999136
0.9053634206100993,1,0.999083
0.8754822743617505,1,0.999108
0.9288676643232822,1,0.998926
0.9011238778421847,1,0.997706
0.9168642555318817,1,0.997611
0.9287904925666544,1,0.997483
0.9247977057407444,1,0.999068
0.9253223868234424,1,0.999210
0.9056898045734217,1,0.998236
0.9286253423150138,1,0.997680
0.9031472346064968,1,0.998574
0.9142960458940289,1,0.999071
0.9077179719672921,1,0.997962
0.9129961107435931,1,0.999336
0.9349834402827012,1,0.998650
0.9159837774828926,1,0.999178
0.8875160599311043,1,0.999310
0.8725403365018148,1,0.999088
0.9059070846276296,1,0.999309
0.8945710242277096,1,0.996540
0.9167461946156801,1,0.999151
0.904753001576157,1,0.999222
0.9138070121431581,1,0.998947
0.8941401616881944,1,0.999218
0.8601804980480983,1,0.998056
0.9076916811981046,1,0.999237
0.9053434192145322,1,0.999356
0.9052033056189244,1,0.999277
0.92341463029027,1,0.996222
0.8988193944501227,1,0.998685
0.9125046121412587,1,0.998760
