0.03440349672641181,0,0.605804
0.04566358540553234,0,0.606093
0.04566358540553234,0,0.607096
0.04566358540553234,0,0.608275
0.04566358540553234,0,0.609479
0.04566358540553234,0,0.610711
0.04566358540553234,0,0.611970
0.04566358540553234,0,0.613260
0.04566358540553234,0,0.614579
0.04566358540553234,0,0.615929
0.04566358540553234,0,0.617330
0.04566358540553234,0,0.618766
0.04566358540553234,0,0.620237
0.04566358540553234,0,0.621731
0.04566358540553234,0,0.624551
0.040103682694852386,0,0.606741
0.040103682694852386,0,0.607917
0.040103682694852386,0,0.609119
0.040103682694852386,0,0.610348
0.040103682694852386,0,0.611605
0.040103682694852386,0,0.612892
0.040103682694852386,0,0.614209
0.040103682694852386,0,0.615556
0.040103682694852386,0,0.616948
0.040103682694852386,0,0.618382
0.040103682694852386,0,0.619853
0.040103682694852386,0,0.621359
0.03948166838398093,0,0.613636
0.03948166838398093,0,0.614956
0.03948166838398093,0,0.616370
0.03948166838398093,0,0.617819
0.03948166838398093,0,0.619305
0.03948166838398093,0,0.622022
0.043601968870716816,0,0.605195
0.06640835845797555,0,0.569683
0.06640835845797555,0,0.570719
0.06640835845797555,0,0.571829
0.06640835845797555,0,0.572965
0.06640835845797555,0,0.574128
0.06640835845797555,0,0.575320
0.06640835845797555,0,0.576537
0.06644216330302534,0,0.875077
0.06644216330302534,0,0.609779
0.06644216330302534,0,0.611035
0.06644216330302534,0,0.612321
0.06644216330302534,0,0.613637
0.06644216330302534,0,0.614986
0.06644216330302534,0,0.616368
0.06644216330302534,0,0.617743
0.09402901725620696,0,0.604006
0.09402901725620696,0,0.605185
0.09402901725620696,0,0.606442
0.09402901725620696,0,0.607729
0.09402901725620696,0,0.609047
0.09402901725620696,0,0.610398
0.09402901725620696,0,0.611767
0.09511295509358425,0,0.587453
0.09511295509358425,0,0.588474
0.09511295509358425,0,0.589607
0.09511295509358425,0,0.590768
0.09511295509358425,0,0.591956
0.09511295509358425,0,0.593174
0.09511295509358425,0,0.594413
0.11018163752734339,0,0.618866
0.1110453613962458,0,0.610738
0.1110453613962458,0,0.612091
0.1110453613962458,0,0.613478
0.1110453613962458,0,0.614898
0.1110453613962458,0,0.616354
0.1110453613962458,0,0.617839
0.13670669529014348,0,0.998596
0.455304981268701,0,0.612794
0.455304981268701,0,0.614134
0.455304981268701,0,0.615506
0.455304981268701,0,0.616912
0.455304981268701,0,0.618353
0.455304981268701,0,0.619821
0.4302148981128232,0,0.862081
0.4302148981128232,0,0.591960
0.4302148981128232,0,0.593245
0.4302148981128232,0,0.594561
0.4302148981128232,0,0.595911
0.4302148981128232,0,0.597294
0.4302148981128232,0,0.598666
0.46984365023780456,0,0.595423
0.46984365023780456,0,0.596700
0.46984365023780456,0,0.597985
0.46984365023780456,0,0.599301
0.46984365023780456,0,0.600650
0.46984365023780456,0,0.602002
0.4581754496552354,0,0.999977
0.47885953000262893,0,0.999437
0.38827981225181213,0,0.570605
0.38827981225181213,0,0.571838
0.38827981225181213,0,0.573082
0.38827981225181213,0,0.574357
0.38827981225181213,0,0.575626
0.38313331504433906,0,0.494639
0.38313331504433906,0,0.495983
0.38313331504433906,0,0.497327
0.38313331504433906,0,0.498704
0.38313331504433906,0,0.500127
0.37016743123628987,0,0.878482
0.37016743123628987,0,0.611466
0.37016743123628987,0,0.612810
0.37016743123628987,0,0.614187
0.37016743123628987,0,0.615591
0.37016743123628987,0,0.616607
0.3484051911304892,0,0.614112
0.3484051911304892,0,0.615468
0.3484051911304892,0,0.616856
0.3484051911304892,0,0.618276
0.3484051911304892,0,0.619378
0.26728098585487986,0,0.613616
0.26728098585487986,0,0.614979
0.26728098585487986,0,0.616375
0.26728098585487986,0,0.617799
0.21248946588749237,0,0.574116
0.21248946588749237,0,0.575357
0.21248946588749237,0,0.576630
0.20306993256004383,0,0.869430
0.20306993256004383,0,0.606678
0.20306993256004383,0,0.608022
0.1882511129740052,0,0.571082
0.1882511129740052,0,0.572406
0.1882511129740052,0,0.573558
0.18432349438931414,0,0.612407
0.1820875787099389,0,0.589046
0.1865324580048751,0,0.866735
0.15352654860904974,0,0.866255
0.11349931436634458,0,0.614659
0.11349931436634458,0,0.616151
0.11103669365297718,0,0.616470
0.11103669365297718,0,0.617807
0.10741864559241357,0,0.866708
0.10741864559241357,0,0.616485
0.10741864559241357,0,0.617267
0.1003621716842904,0,0.605071
0.1003621716842904,0,0.606108
0.16441435752973357,1,0.999999
0.16357124898374406,0,0.999479
0.16188624661078485,0,0.617283
0.15821782998372877,0,0.614055
0.15821782998372877,0,0.614921
0.1561599009721544,0,0.615317
0.1561599009721544,0,0.615861
0.1438989672710607,0,0.616910
0.1438989672710607,0,0.617527
0.14344081858358973,0,0.614417
0.14344081858358973,0,0.615056
0.14344081858358973,0,0.615440
0.1440188863494136,0,0.995965
0.1440188863494136,0,0.575552
0.1440188863494136,0,0.575787
0.14334197772397075,0,0.879966
0.16728158618876998,1,0.999991
0.1863114027981903,0,0.999946
0.2417543103853097,1,0.999993
0.21387389363368053,0,0.918046
0.21552479696078192,0,0.999908
0.377132655027206,0,0.999001
0.31212945034702116,0,0.999956
0.2866564103633645,0,0.727505
0.27170306560375274,0,0.920475
0.1827413326785296,0,0.942978
0.16148068008330083,0,0.593696
0.15979623981155075,0,0.867176
0.15979623981155075,0,0.620811
0.15834699627430399,0,0.605150
0.15716047458020363,0,0.995685
0.13953213742420936,0,0.994156
0.13299208921409328,0,0.559630
0.13299208921409328,0,0.559515
0.12979145821158367,0,0.998518
0.1288897779886234,0,0.614476
0.1288897779886234,0,0.614700
0.1279835943874932,0,0.620290
0.1279835943874932,0,0.620513
0.1279816214104253,0,0.998661
0.11768019995188399,0,0.586874
0.11768019995188399,0,0.586941
0.11705663652620611,0,0.619571
0.11705663652620611,0,0.619773
0.11705663652620611,0,0.619385
0.11635825987792561,0,0.592751
0.1163549122188321,1,0.999999
0.1163549122188321,0,0.593583
0.1163549122188321,0,0.593457
0.10502595673373118,0,0.998933
0.12108693650199508,0,0.974596
0.12108693650199508,0,0.578253
0.12108361061350184,1,0.999992
0.12108361061350184,0,0.578240
0.12108361061350184,0,0.578065
0.12108361061350184,0,0.577024
0.12108105245762847,0,0.578344
0.12108105245762847,0,0.578227
0.12108105245762847,0,0.576992
0.127285950067428,1,0.999999
0.15513130767731673,0,0.999839
0.17670103573215268,0,0.997379
0.17467324254907768,0,0.943473
0.14897239502229673,0,0.999985
0.1463690686087612,0,0.248416
0.13783122949404342,0,0.736257
0.14400108816107793,0,0.619170
0.14400108816107793,0,0.618890
0.14162069692717943,0,0.613045
0.13792274401182297,0,0.734336
0.13355661971389463,0,0.621441
0.19210185649215109,0,0.943504
0.34936103406090774,0,0.999888
0.3687554947037026,0,0.999189
0.38350673142766195,1,0.999994
0.33574409493376156,0,0.999988
0.3081601291271633,0,0.998364
0.316490205006294,1,0.999999
0.3211287019944208,0,0.992286
0.2520486173787705,0,0.999917
0.250460002136395,0,0.734974
0.23475114575951092,0,0.922519
0.20826331462716727,0,0.882778
0.1859882877034523,0,0.727459
0.17352967883331114,0,0.875667
0.12910654331157875,0,0.883723
0.1169910093212889,1,0.999992
0.10515840823625466,0,0.898578
0.17792009022071453,0,0.999585
0.17323740057883244,0,0.999963
0.2991693673188008,0,0.998798
0.3526451846282066,0,0.997844
0.414112424723423,0,0.999539
0.34898486594807643,0,0.998928
0.2917161671156877,0,0.985995
0.3876142405117177,0,0.999550
0.46852956729490064,0,0.999883
0.4001089498831961,0,0.998975
0.1866274304896558,0,0.999852
0.17972301179287836,0,0.998944
0.10049594945110414,0,0.997359
0.09485933694500318,0,0.998613
0.08167362277006626,0,0.990487
0.07620391855650305,0,0.999884
0.0712414496030438,0,0.999889
0.0681678209639092,0,0.999945
0.0635611726504389,0,0.999798
0.059889729919133064,0,0.999914
0.054957607622094846,0,0.999872
0.0475969946495895,0,0.744856
0.04299772373694177,0,0.999789
0.24244146890470047,1,0.999997
0.16082504203128686,0,0.999572
0.3541916825777269,0,0.998469
0.33445204343982304,0,0.998263
0.2083556118787215,0,0.999890
0.28045494204257754,0,0.999812
0.3835093748536173,0,0.999988
0.29587105825329146,1,0.999996
0.3223393535438221,0,0.999975
0.38721688194686466,0,0.999301
0.42574583818736517,0,0.999630
0.3999800912045353,0,0.999845
0.29311906577279134,0,0.999376
0.34941482600486085,0,0.999221
0.3572673669538465,0,0.999651
0.20121966336061403,0,0.999972
0.3549926302092816,0,0.999874
0.371526199274337,0,0.999722
0.5139234901597471,0,0.999978
0.6220521986635634,0,0.998437
0.5167625117975043,0,0.999985
0.5737436770609619,0,0.999922
0.3543767216955479,1,0.999999
0.5333970519779497,1,0.999991
0.49262619268175933,1,0.999994
0.6144442574039456,1,0.999998
0.6256211055088603,1,0.999997
0.6943217930732869,1,0.999994
0.7098995063655361,0,0.999726
0.5604822946426075,0,0.999876
0.2925896929251964,0,0.999668
0.21475714672329743,0,0.999556
0.26465832682467383,0,0.999366
0.16553224850815512,0,0.999822
0.22774078138822973,0,0.999970
0.17221160606457778,0,0.999965
0.12785851498317022,0,0.999822
0.5713605830875033,0,0.999819
0.6531690270297664,0,0.999850
0.7193176142577442,1,0.999999
0.7101073409310448,0,0.999988
0.7156918208903489,0,0.999441
0.7120332046446143,0,0.999812
0.720753892020473,0,0.999880
0.5025889145050443,0,0.999669
0.621536198698544,0,0.999962
0.588386871313949,0,0.999979
0.6667350940663116,0,0.999073
0.7264002861879975,1,0.999996
0.7263088057526734,0,0.999951
0.6296316863869496,1,0.999998
0.6677504835536623,0,0.999178
0.6511125279354645,1,0.999993
0.6757785284027223,0,0.999979
0.7410970339951992,0,0.999977
0.5625935737999127,0,0.999980
0.725873217470729,1,0.999998
0.6966679234088411,0,0.999688
0.6056563220010036,0,0.999788
0.5706035215075063,1,0.999999
0.5915216041137542,0,0.999887
0.71932468966749,0,0.999974
0.658998121552137,0,0.997899
0.5814539692380836,0,0.999946
0.604764543326169,0,0.997961
0.490021591027941,0,0.999986
0.1585643387116713,0,0.999972
0.1621790558394195,0,0.999891
0.557440201793383,0,0.998100
0.2411522329361792,0,0.998581
0.2094093493467333,0,0.998782
0.19425962848148623,0,0.999943
0.1211881474075227,0,0.999555
0.10132621887106233,0,0.999369
0.10667568114548885,0,0.999637
0.08978721874309567,1,0.999988
0.0435726231431547,1,0.999991
0.04790835665780728,0,0.999641
0.0767004161989121,0,0.999711
0.14122149641387144,0,0.999600
0.10521307286748975,0,0.999005
0.07001921541288929,0,0.999788
0.08558482973299338,0,0.999889
0.060060845614433145,1,0.999998
0.05395995928897265,0,0.999827
0.04831428924278284,0,0.999936
0.05733432075820445,0,0.999970
0.04725346501295895,0,0.999976
0.03742177632170638,0,0.999797
0.02907058221031094,0,0.999947
0.028596780916329393,0,0.999836
0.05417930101742612,0,0.999801
0.010092882565205638,0,0.999944
0.004473489973197401,0,0.999979
0.004307187556657013,1,0.999989
0.1115338816295218,0,0.999346
0.11053443329881325,1,0.999994
0.1067533826438711,1,0.999987
0.104941739716375,0,0.999973
0.10318535038982712,0,0.999971
0.1025322967554209,1,0.999997
0.10088618050333074,1,0.999994
0.0967689550552348,1,0.999998
0.033112824659332143,1,0.999998
0.02028033301735814,1,0.999998
0.013361034712285825,0,0.999391
0.010245248578288258,0,0.999737
0.009879031177683937,0,0.999042
0.015687653179643758,0,0.998731
0.015694152992007358,1,0.999998
0.0133003534387245,0,0.999942
0.007869814241115122,1,0.999998
0.004043614909358376,0,0.999941
0.003567001148609641,1,0.999998
0.002927636298321167,0,0.999741
0.0023440972713097002,1,0.999998
0.0021111695870655424,0,0.999971
0.0021555820872574596,0,0.999951
0.002285678152031202,1,0.999998
0.0022063368784387945,0,0.999940
0.0020344885977560414,1,0.999998
0.0017051703293368833,1,0.999998
0.0015896169853343385,0,0.999970
0.0014283539651137771,0,0.999652
0.0013215344320202966,0,0.999936
0.0013148569924538894,0,0.999897
0.0012808024120033788,1,0.999998
0.0016383559901266326,0,0.999972
0.001674270411640438,0,0.999955
0.0018213285321568144,0,0.999441
0.0022577612099837253,0,0.999569
0.0022541593744509073,0,0.999757
0.002155061986659706,0,0.999816
0.0020053381321673476,0,0.999786
0.0018058771522528063,0,0.999895
0.0017599711193329686,0,0.999806
0.0022520683971908317,0,0.999945
0.002089077024145329,0,0.998629
0.007215762528938299,0,0.999523
0.010921422095168411,0,0.999541
0.013205248140466178,0,0.999960
0.01564914637633168,0,0.997915
0.012315441738859312,0,0.999467
0.01180810903810283,0,0.999123
0.011549468803804735,0,0.999729
0.010035184939208866,0,0.999271
0.008544961412576534,0,0.999513
0.006169923555722923,1,0.999990
0.00619958043537256,0,0.999946
0.004940419018936616,0,0.999978
0.003889781343671542,0,0.999214
0.0034728001217432334,0,0.999262
0.008450961394395053,1,0.999999
0.010147757871403665,0,0.999761
0.008241306308502458,0,0.999463
0.009862599598345569,0,0.999894
0.009217981860528475,0,0.999699
0.009156321121995019,0,0.998610
0.0072195196645298615,0,0.999778
0.006780911686887715,0,0.999984
0.014620028831979404,0,0.998457
0.018179091223324607,1,0.999994
0.01461882452657093,0,0.997590
0.01389372634730406,0,0.999045
0.0112510684028703,0,0.997139
0.013525605007379458,0,0.997467
0.007699422542161272,0,0.997343
0.008120918958101679,0,0.999932
0.024193929734790304,0,0.996810
0.017568900347648485,0,0.999766
0.008513637580726872,0,0.996768
0.011148906341780817,1,0.999997
0.00978165547509175,0,0.999743
0.00919931893214888,0,0.998810
0.005271111065103752,0,0.999967
0.006297074205691359,0,0.999931
0.008237176680980127,0,0.993508
0.02218456280488789,0,0.999907
0.01783820688340239,0,0.997475
0.013688341640477119,0,0.999185
0.009773867826980398,0,0.999266
0.026054045801281633,0,0.999489
0.02652433232007564,0,0.999717
0.02629700793203524,0,0.999792
0.026345866933203264,0,0.998612
0.02570688694073557,0,0.999610
0.025325714208683077,0,0.999469
0.02442158981980934,0,0.999669
0.02307047584786357,0,0.999769
0.022245347844110662,0,0.999404
0.02102915492258417,0,0.999630
0.01961978578172808,0,0.999874
0.01895355127352649,0,0.999727
0.009978328877811339,1,0.999991
0.012159785786305359,0,0.999700
0.01258221874323996,0,0.999920
0.014625050600408732,1,0.999993
0.014609791332776336,0,0.999972
0.014568214913302778,1,0.999998
0.04102217600761795,0,0.999789
0.03411901669038032,0,0.998918
0.02335971958631515,0,0.999981
0.02309142987991856,0,0.999766
0.021734104108121127,0,0.999820
0.021509057282337235,0,0.999881
0.021220965250048837,0,0.999757
0.02108839445622206,1,0.999998
0.019905334945045896,1,0.999998
0.019726384066608097,1,0.999998
0.018423198765582356,1,0.999998
0.00615295679521796,0,0.999587
0.004018326894205088,0,0.999612
0.006075468091380344,0,0.999545
0.008704691158898933,0,0.999364
0.008550633103947918,0,0.999750
0.004845980529163399,0,0.999817
0.012556509192295508,0,0.999911
0.028453538690131668,0,0.999909
0.053055713043861134,0,0.999952
0.04000670107651371,0,0.999972
0.03879193658608717,1,0.999975
0.03709803217197354,1,0.999985
0.03354060850184976,1,0.999997
0.009187862098613676,1,0.999997
0.007289383924509097,1,0.999997
0.003633738094471775,0,0.999971
0.0027986999929650097,0,0.999952
0.0021044696786207302,0,0.996837
0.0021044691100263217,0,0.999291
0.002039902469393139,1,0.999997
0.0017560703469854937,0,0.999866
0.001589350010464182,1,0.999976
0.0015895254766787135,1,0.999992
0.00376258382451825,1,0.999990
0.003558075476789408,0,0.999921
0.0032859655136768156,1,0.999989
0.0028037140351170444,0,0.999294
0.0024734946452766825,0,0.999880
0.0022335735366995273,0,0.999653
0.0021033633718830665,0,0.999708
0.0020426859055237227,1,0.999997
0.0019789053798428997,1,0.999977
0.0018362920246396506,1,0.999997
0.0015190350863959962,0,0.999947
0.0015116104464686889,1,0.999997
0.0014501776685640188,1,0.999997
0.0018433449950904224,0,0.999277
0.0016782965732719621,0,0.999459
0.0015212269046102351,0,0.999161
0.0031839218476373745,0,0.999355
0.003094990501400909,1,0.999997
0.002050350195444225,1,0.999992
0.0019236748432183593,0,0.999943
0.0016907136804307087,0,0.999249
0.001992744738108172,1,0.999997
0.001956634752245745,1,0.999997
0.0019403568958879685,1,0.999997
0.001926340894708672,1,0.999997
0.0019263341192642478,0,0.999215
0.0019112667468473802,1,0.999997
0.0018949301326886604,1,0.999997
0.0017983442990988515,1,0.999996
0.0017411847675335634,1,0.999997
0.0017165965824653218,0,0.999098
0.0016905689364450096,0,0.997075
0.0016905689364450096,1,0.999997
0.0014934022928585827,1,0.999997
0.0014066821236124558,0,0.999103
0.0013775072207553682,0,0.999775
0.0013481884346547457,1,0.999996
0.0013179683360136918,1,0.999996
0.0012676749624707725,1,0.999996
0.0012376102194875049,0,0.998880
0.0012069047987858883,0,0.999635
0.0012069047987858883,1,0.999996
0.0011382769711262683,1,0.999996
0.0011100857669443702,0,0.999523
0.001061767703328148,0,0.999569
0.001061767703328148,1,0.999996
0.001012005885561621,1,0.999996
8.976686343969415E-4,1,0.999996
8.223691294885622E-4,0,0.999631
7.843004801988393E-4,0,0.995475
7.843004801988393E-4,1,0.999997
7.542124248580558E-4,1,0.999997
7.032181032733309E-4,1,0.999996
7.032181032733309E-4,1,0.999996
6.98253675527096E-4,0,0.999268
7.779511056838062E-4,0,0.998799
0.0012924275308316998,0,0.999689
0.0018486618397551985,0,0.999864
0.0018486618397551985,1,0.999996
0.0018486618397551985,1,0.999995
0.5075703691928002,0,0.999561
0.5014340534618533,0,0.999565
0.4993800781529319,0,0.999923
0.4955145024956744,0,0.999711
0.48985196191622127,0,0.999622
0.48399795897032066,1,0.999978
0.4003069100143758,0,0.999898
0.3761485516624459,1,0.999996
0.3466247835670815,0,0.999665
0.189674357221368,0,0.999575
0.10588302207739832,0,0.999888
0.0997677261825738,0,0.999412
0.08021194296686615,1,0.999995
0.05764374982213775,0,0.999399
0.03280942129406656,0,0.999630
0.02455428798343419,0,0.999332
0.009569001529199265,0,0.999650
0.011800175107246203,1,0.999991
0.008511174262252643,0,0.999381
0.012511532481667831,0,0.994891
0.01295463338036168,0,0.997239
0.010162586800922904,0,0.995712
0.010991058008721757,0,0.997280
0.023579108017079697,0,0.997108
0.03831168295932391,0,0.997246
0.04141799810443602,0,0.994313
0.04466775299301383,0,0.994919
0.045849867423301244,0,0.997214
0.04416049494535715,0,0.999911
0.03822934898045885,1,0.999999
0.036137946120874204,0,0.996281
0.0708892095500081,0,0.997648
0.05542676279214125,0,0.999861
0.061282286478608,0,0.997432
0.06501671340709164,0,0.994474
0.06544433397569162,0,0.997471
0.0464652772013387,0,0.995158
0.06663951250620885,0,0.994640
0.05440680114415184,0,0.999637
0.052045110345485195,0,0.999597
0.048959462384238484,0,0.997302
0.05387004364164074,0,0.995014
0.05493357315135379,0,0.999659
0.05080252136249316,0,0.999644
0.034515541253772666,0,0.997508
0.035538117466459865,0,0.997257
0.036420166875759406,0,0.998191
0.031577008357658254,0,0.994975
0.03193329359725637,0,0.993256
0.03282330792786654,0,0.996565
0.030605155880959804,0,0.998140
0.029912974042729017,1,0.999993
0.02991297039435521,0,0.998330
0.026310926330085103,0,0.998220
0.04071662918311011,0,0.995934
0.043058215217350315,0,0.996849
0.04307934530663783,0,0.999529
0.03146812574121859,0,0.998045
0.028621486086257097,0,0.998358
0.02345917704468229,0,0.995985
0.016832816995459944,1,0.999987
0.015927405409277683,0,0.996698
0.013555211966182791,0,0.999737
0.012740589965104887,0,0.997313
0.015954116031934636,0,0.997222
0.015182482635093721,0,0.998772
0.015182480177333618,0,0.999748
0.008282270497704651,0,0.998694
0.008282264494594783,0,0.998695
0.008850372955458895,0,0.997299
0.008850369760128715,0,0.998688
0.008611675470666135,0,0.998863
0.00774623592125469,0,0.998421
0.005068876096894711,0,0.998534
0.005254832847427063,0,0.998754
0.006361206888187458,0,0.998149
0.011571855617520443,0,0.995681
0.012500884017153688,0,0.997412
0.01350667605514373,0,0.995276
0.017764099597865336,0,0.994368
0.02098895563097601,0,0.998188
0.020916719428125875,0,0.997650
0.019723534843931533,0,0.998291
0.014073112203140148,0,0.998985
0.020406245051965834,0,0.993733
0.02051585535587461,0,0.999441
0.01900566365637095,0,0.998855
0.013707014186781876,0,0.998265
0.010385189690529862,0,0.997519
0.016305546166981127,0,0.994877
0.018867229548819132,0,0.999978
0.03060343484562128,0,0.999967
0.03445105401426411,0,0.996402
0.03436383013059664,0,0.994780
0.026502113047076205,0,0.994905
0.0245211702429342,0,0.994624
0.03063726380819366,0,0.999796
0.034723456501444656,0,0.996168
0.03373240519409073,0,0.995055
0.02973998960239964,0,0.999516
0.034809078143365695,0,0.999142
0.04318001803401067,0,0.995140
0.04421254482246787,0,0.994695
0.04150487321842011,0,0.994134
0.03587661890500601,0,0.995832
0.03599742551163053,0,0.999881
0.035997422632982556,0,0.993051
0.03471547836120375,0,0.996094
0.03320492726060442,0,0.997300
0.035494850203667154,0,0.993299
0.040814081776146975,0,0.994116
0.06422919469276922,0,0.998266
0.07593713052522456,0,0.994890
0.07766221667444832,0,0.994607
0.07192052772897829,0,0.994906
0.06569604090712876,0,0.999511
0.05122907609709648,0,0.994608
0.053317350655599775,0,0.996082
0.04333803380751794,0,0.995501
0.04277642274645055,1,0.999990
0.047705108442725824,0,0.998448
0.044106920646480405,0,0.999437
0.04162243670568884,0,0.996054
0.028823578057802474,0,0.999322
0.027422219931481227,0,0.994077
0.027358285173161155,0,0.998749
0.04211971806442623,0,0.995767
0.05440622579454785,0,0.999980
0.05703079146054326,0,0.992378
0.055937384824455705,0,0.996296
0.06888371917324519,0,0.992937
0.08634282179499565,0,0.993431
0.08756680381561448,0,0.997096
0.0852858570764506,0,0.997504
0.13090994307072448,0,0.999677
0.13922105166767723,0,0.999686
0.13600013987525755,0,0.999863
0.07424960801264774,0,0.999914
0.08019199713096613,0,0.993397
0.08719559315301512,0,0.994125
0.09396306306644685,0,0.999044
0.10977963766313137,0,0.995797
0.10133271769433753,0,0.999912
0.092511395605768,0,0.993760
0.09727949103564741,0,0.994244
0.11998360848045635,0,0.993001
0.15350356925579914,1,0.999989
0.15829358550405298,0,0.999439
0.1845279542894045,0,0.992512
0.2038589822341408,0,0.996475
0.139796872089389,0,0.996161
0.15170913331927935,0,0.996915
0.1467220250058838,0,0.992609
0.1936430717767885,0,0.997118
0.19399186664788484,0,0.997526
0.24646329866544747,0,0.997284
0.24909503537556713,0,0.999873
0.24885956231584996,0,0.997884
0.24862068277988453,0,0.997506
0.24238814996961028,0,0.993063
0.23951171717794348,0,0.998098
0.2330845722311305,0,0.997217
0.22527607466289126,0,0.997257
0.17999441681784425,0,0.998747
0.16832347506702255,0,0.998217
0.1605697384657249,0,0.999673
0.11411818206351818,0,0.998217
0.1086090561794848,0,0.999912
0.08989221013136704,0,0.998347
0.06568766986755564,0,0.999506
0.05598472245273384,0,0.998191
0.04538237520394459,1,0.999961
0.03272417151315208,0,0.998321
0.03210431893858987,0,0.997169
0.050638169520622216,0,0.997122
0.05144910395014834,0,0.998971
0.051357151556403385,0,0.998815
0.05131256463860409,0,0.998340
0.04824343497665243,0,0.999247
0.025583804185969124,0,0.999402
0.02323515943089098,0,0.998395
0.01671394918089952,0,0.998380
0.020525780672590165,0,0.996786
0.015496675936970957,0,0.998368
0.012550799517939916,0,0.998390
0.030237241133607377,0,0.997880
0.04245475551097748,0,0.999946
0.053028592322763725,0,0.999675
0.05369642591181717,0,0.997083
0.05395589932129068,0,0.998970
0.0205955815857233,0,0.998159
0.015160755188430287,1,0.999998
0.017526865499031943,0,0.998610
0.023645072711102416,0,0.997707
0.03558314008110451,1,0.999989
0.0365108688063279,0,0.997078
0.034889704667074424,0,0.998507
0.0518539116192899,0,0.997455
0.049197948760499204,0,0.997282
0.048237507156264514,0,0.998454
0.01848433145901555,0,0.998118
0.022985233294982976,0,0.997629
0.020994418547132018,0,0.998627
0.030156831048410916,0,0.997092
0.03950597499119813,0,0.999807
0.05008744745697974,0,0.998278
0.025912923150701435,0,0.998522
0.06137278117162004,0,0.996797
0.0554750767775488,0,0.994518
0.06430392595352906,0,0.996774
0.06767227340529593,0,0.994779
0.09368288113475105,0,0.995978
0.09814342633113424,0,0.999892
0.09100575064824364,0,0.995645
0.10668316715659708,0,0.997560
0.11468799452985676,0,0.994613
0.11225055742466017,0,0.998144
0.11295094186856271,0,0.998442
0.1540594161934421,0,0.996555
0.15595439171973124,0,0.996848
0.18040332149323812,0,0.999967
0.20263244221840537,0,0.997031
0.19948591673192348,0,0.999857
0.19650622137648158,1,0.999979
0.08231967296715247,0,0.998175
0.07653526058629001,0,0.998059
0.06312441738326774,0,0.998934
0.06183378386400949,0,0.998579
0.05340128517507953,0,0.993690
0.04756967272031477,0,0.999036
0.03879915254885665,0,0.999711
0.030213232760501658,0,0.999706
0.02218796481264956,0,0.998157
0.02805600859621981,0,0.996576
0.026265679866161847,0,0.998715
0.020305049767986236,0,0.999512
0.013567882499985928,0,0.998548
0.012322165865185841,0,0.999257
0.013814486197194508,0,0.999754
0.03437696051168929,0,0.998024
0.035677243641584054,0,0.998917
0.05170173757219985,0,0.996706
0.09054563351169782,0,0.996058
0.14003268310625738,0,0.993752
0.21617770697904645,0,0.999881
0.25743604201141024,0,0.994229
0.14772928998814833,0,0.999746
0.2926499997937142,0,0.999896
0.3687376091834783,1,0.999999
0.36141832426537057,0,0.999318
0.42988528395391057,0,0.999790
0.43166809044861815,0,0.999960
0.43344434983633434,0,0.999621
0.43950830574963695,0,0.999943
0.2179474272094715,0,0.999952
0.12293635738865775,0,0.996359
0.12901952226242838,0,0.997921
0.22809049364404388,0,0.999099
0.1903552736862684,0,0.998708
0.2855209283432453,0,0.999822
0.4815044240420332,0,0.995360
0.4796658232834797,0,0.995058
0.49932754948588787,1,0.999998
0.509029902801266,0,0.999810
0.5107831601935072,1,0.999996
0.503283267293763,1,0.999996
0.46384827006474744,0,0.999968
0.5567751344087004,0,0.999986
0.5562889451509843,0,0.998966
0.5458971815303808,0,0.999890
0.36679718256356486,0,0.996455
0.4261691421823521,0,0.999695
0.4381013608496443,0,0.994146
0.4481141380102958,0,0.999062
0.4012951839267345,0,0.999888
0.4560210767637529,0,0.994991
0.2346075313250244,0,0.994844
0.19854801667709715,0,0.999044
0.2165167961648844,0,0.999209
0.2856867172284874,0,0.998438
0.29615113373986923,0,0.994368
0.29666350839041905,0,0.996915
0.33121074100290926,0,0.996301
0.12834691044296165,0,0.996095
0.3172705989795998,0,0.999799
0.3391211362843735,0,0.997699
0.3744481766528732,0,0.997850
0.3726903143249036,0,0.994935
0.40353100404276593,0,0.997612
0.3869752473643466,0,0.998839
0.4049215054928895,0,0.999904
0.39016934188881675,0,0.996564
0.40528316184126006,0,0.999972
0.40672021133900166,0,0.999486
0.39146782873657265,0,0.996067
0.10471760833837948,0,0.996166
0.41548676391501344,0,0.999954
0.40544418185513403,1,0.999993
0.369902130037866,0,0.998166
0.15356916470033033,0,0.997276
0.14823700955246788,0,0.999733
0.10658880571830365,0,0.999717
0.13294479267868256,0,0.996220
0.3634957770653542,0,0.999975
0.41044223186862616,0,0.999920
0.4185552184893285,1,0.999997
0.44082437821169324,0,0.999651
0.41732713281861333,1,0.999991
0.40947972306604347,0,0.999391
0.41520313752575577,0,0.997424
0.42355340194865626,0,0.999970
0.4413200805699273,0,0.998969
0.44952377363691676,0,0.999193
0.44616599482067754,1,0.999999
0.45215894603088586,0,0.999978
0.44302483269449977,0,0.999408
0.44261276494520824,0,0.996312
0.4475791425393643,0,0.999329
0.44285436790507926,0,0.998595
0.44439182811640465,0,0.999291
0.4448932937060127,0,0.998484
0.44612721911873837,0,0.997724
0.4391164635712788,0,0.998524
0.3721611387945435,0,0.994492
0.2800822335512158,0,0.999301
0.36399495236894985,0,0.997074
0.4428527386479865,0,0.999835
0.4399718239040481,0,0.998041
0.4561112216172531,0,0.999527
0.4531102463936975,0,0.999402
0.45323774784699516,0,0.999342
0.45461452628171434,0,0.997965
0.45198059665375395,0,0.999927
0.44320421520479036,0,0.998190
0.4372187587489382,0,0.999475
0.42466265833388905,0,0.999462
0.37216282917236015,0,0.998676
0.1408290268732812,0,0.999811
0.049707011690693484,0,0.997636
0.04402854290395135,0,0.997716
0.4619483209991193,0,0.998805
0.43987131557058473,0,0.998741
0.417715954820079,0,0.998790
0.4517950700408858,0,0.998463
0.4586518085500157,0,0.999803
0.494555129586329,0,0.995845
0.4884901948126794,0,0.995993
0.4704988768358719,0,0.997396
0.4631744180491688,0,0.999984
0.45256239857280256,0,0.999980
0.46004762743961586,0,0.999023
0.46540767954019346,0,0.999885
0.4561763450708584,0,0.998837
0.49023129820493566,0,0.999988
0.4451592904540203,0,0.999988
0.3812703626984497,0,0.997728
0.40826786189550773,0,0.999903
0.4181337588064136,0,0.995635
0.41650938678480826,1,0.999994
0.43209134318100445,0,0.998230
0.40988117964003506,0,0.997601
0.258806557070393,0,0.997859
0.2161558504494615,0,0.999940
0.15771207687018643,0,0.997186
0.06135976730689838,0,0.998011
0.06283079980984455,0,0.999941
0.07755520937283883,0,0.998972
0.07077415031047983,0,0.999875
0.05549467292243575,0,0.999784
0.05223810989347171,0,0.997285
0.06999959175317225,0,0.997180
0.07871701459639037,0,0.999786
0.10665296362870379,0,0.999939
0.10426267298686363,0,0.999871
0.10009113954078801,0,0.997325
0.08804932863349477,0,0.999245
0.08740014743163954,0,0.997801
0.09771018585056745,0,0.997957
0.16332086038296073,0,0.999623
0.16943724479859476,0,0.997363
0.18943438572175517,0,0.997449
0.1748373248368245,0,0.998566
0.18285714540878334,0,0.997056
0.18124008865978886,0,0.999539
0.14405618496476497,1,0.999987
0.18256150510847927,0,0.999448
0.1100697955646651,0,0.998016
0.10967494440410942,0,0.999565
0.08277525385660217,0,0.999530
0.0565909444775065,0,0.999184
0.1832364016347724,0,0.999004
0.19085340887105204,0,0.999771
0.18869535521934394,0,0.999977
0.21048900719380284,1,0.999996
0.2075814202316103,0,0.999067
0.1989381220227536,0,0.999512
0.1511151992257378,0,0.999815
0.14353964110934433,0,0.999768
0.13655003043915737,0,0.999785
0.11570240027927522,0,0.999794
0.08757246795569427,0,0.999769
0.08005386885885284,0,0.999793
0.05544091128287855,0,0.998898
0.04457413713205087,0,0.998892
0.03876743936000197,1,0.999997
0.03398982649019811,0,0.998960
0.026669580413893067,0,0.999886
0.024380962060674558,0,0.999757
0.023059795464197907,0,0.999730
0.023692198951446215,0,0.999792
0.021330986845334084,0,0.999754
0.01588527089906914,0,0.999831
0.3704558780053182,0,0.999388
0.4081313122634866,0,0.999021
0.3539156375980534,0,0.998217
0.34772314567182233,0,0.996070
0.3554242720984784,0,0.999593
0.354954624876236,0,0.999479
0.35316072636740015,0,0.999718
0.34683546728811776,0,0.999839
0.34655840546493094,0,0.999648
0.3428972107893371,0,0.999088
0.45809586762157845,0,0.997173
0.39217830294650596,0,0.998798
0.4597200801578699,0,0.999989
0.4253834396714751,1,0.999998
0.3974547572536961,0,0.999778
0.39244229814725035,0,0.997285
0.42795095912654424,0,0.999887
0.37777257250287183,0,0.999734
0.3605973485315652,0,0.998915
0.3602579443398932,0,0.998608
0.3625835617324241,1,0.999999
0.36412141110582413,0,0.998341
0.3627065887808723,0,0.997653
