-3.453518271536604E-4,0,0.133442
-3.10558293692912E-4,0,0.130272
-3.10558293692912E-4,0,0.128692
-3.10558293692912E-4,0,0.128946
-3.10558293692912E-4,0,0.129206
-3.10558293692912E-4,0,0.129472
-3.10558293692912E-4,0,0.129743
-3.10558293692912E-4,0,0.130021
-3.10558293692912E-4,0,0.130306
-3.10558293692912E-4,0,0.130597
-3.10558293692912E-4,0,0.130909
-3.10558293692912E-4,0,0.131230
-3.10558293692912E-4,0,0.131558
-3.10558293692912E-4,0,0.131866
-3.10558293692912E-4,0,0.129785
-0.0012642400443961998,0,0.123139
-0.0012642400443961998,0,0.123150
-0.0012642400443961998,0,0.123378
-0.0012642400443961998,0,0.123612
-0.0012642400443961998,0,0.123851
-0.0012642400443961998,0,0.124095
-0.0012642400443961998,0,0.124346
-0.0012642400443961998,0,0.124745
-0.0012642400443961998,0,0.124956
-0.0012642400443961998,0,0.125244
-0.0012642400443961998,0,0.125539
-0.0012642400443961998,0,0.125841
-0.0012642400443961998,0,0.127056
-0.0012932499767332782,0,0.124595
0.26765141038833684,0,0.465538
0.26765141038833684,0,0.121833
0.26765141038833684,0,0.122055
0.26765141038833684,0,0.122282
0.26765141038833684,0,0.122515
0.26765141038833684,0,0.122754
0.26765141038833684,0,0.122998
0.26765141038833684,0,0.123249
0.26765141038833684,0,0.123593
0.26765141038833684,0,0.123872
0.26765141038833684,0,0.124162
0.26765141038833684,0,0.124468
0.5340891697773779,0,0.999702
0.15325348786223203,0,0.995671
0.15298163384554522,0,0.083851
0.15298163384554522,0,0.083586
0.15298163384554522,0,0.083579
0.15298163384554522,0,0.083718
0.15298163384554522,0,0.083861
0.15298163384554522,0,0.084007
0.15298163384554522,0,0.084164
0.15298163384554522,0,0.084360
0.014130544543139298,0,0.602322
0.08530395878602151,0,0.628106
0.08530395878602151,0,0.631776
0.08527722405392917,0,0.523013
0.08527722405392917,0,0.526970
0.08527722405392917,0,0.529907
0.08527151792569933,0,0.526818
0.08526321963559644,0,0.442054
0.08525803466727361,0,0.416642
0.08524533392780212,0,0.409493
0.08524533392780212,0,0.406351
0.5247399406740596,0,0.104983
0.5247399406740596,0,0.105414
0.5247399406740596,0,0.105588
0.5281656344406004,1,0.999996
0.5280937722080061,0,0.098959
0.5280937722080061,0,0.099492
0.5280937722080061,0,0.099747
0.5280309449190719,0,0.101036
0.5278532732309851,0,0.970790
0.5271377447989939,0,0.603743
0.5265674620787213,0,0.089239
0.5258572665602005,0,0.090160
0.5251812268846291,0,0.089431
0.32649377088137305,0,0.999958
0.019771464117552876,1,0.999995
0.3315823493265906,0,0.999964
0.17985397328349276,0,0.995382
0.5087208699867098,0,0.999824
0.21834156073684674,0,0.956905
0.0745170400376111,0,0.902240
0.05576134064706869,0,0.888800
0.04284465509024321,1,0.999990
0.15425642713244084,0,0.999976
0.4620032940130066,0,0.986166
0.5436991075290603,0,0.999911
0.11503768656887772,0,0.969902
0.4051598735471076,0,0.999956
0.21937448680766125,0,0.983757
0.2258055269459164,0,0.999829
0.08887802171932171,0,0.999734
0.01491964647574534,0,0.994529
0.02234850472458462,0,0.999699
0.02259794402611574,0,0.999417
0.022596613388717122,0,0.998431
0.0057609068764019515,0,0.992220
0.01788387002652364,0,0.985488
0.017881680908562795,0,0.970513
0.013276412220101128,0,0.925119
0.0037900144342479744,0,0.767683
0.0037898008055066703,0,0.971266
0.004260584634888109,0,0.764084
0.004260584634888109,0,0.762619
0.002685880917026785,0,0.972365
0.002685880917026785,0,0.771793
0.0026858733280241617,0,0.772134
0.0026858657390620992,0,0.772617
0.0026858657390620992,0,0.771798
0.015419102875316785,0,0.943714
0.015419064653731022,0,0.942283
0.015419064653731022,0,0.941833
0.0050431933134690065,0,0.959610
0.005043165893964748,0,0.959960
0.005043165893964748,0,0.959650
0.004231905672988864,0,0.980751
0.004231814571310163,0,0.888965
0.00423180610027572,0,0.935678
0.00423180610027572,0,0.877101
0.004231797855980265,0,0.861407
0.004231797855980265,0,0.865099
0.004231827899558955,0,0.853240
0.004231827899558955,0,0.852044
0.004238250833456428,0,0.839392
0.0037712057905862563,0,0.951948
0.0037712057905862563,0,0.825217
0.0011287839294143265,0,0.973458
0.0011287839294143265,0,0.811071
0.0011039306378882595,0,0.978289
0.0011039306378882595,0,0.796844
0.0011037800902117558,0,0.783992
0.0011037800902117558,0,0.782513
0.0011037759115969602,0,0.769812
0.0011037759115969602,0,0.771185
0.0011037725996039843,0,0.755498
0.0011037692927811941,0,0.990880
0.0011037692927811941,0,0.741214
0.0011037659859484978,0,0.917103
0.0011037659859484978,0,0.726948
0.0011037626791561858,0,0.703267
0.0011037626791561858,0,0.703670
0.00110375937240426,0,0.685170
0.00110375937240426,0,0.683344
0.001103756065592135,0,0.666561
0.0011037527588203964,0,0.799522
0.0011037527588203964,0,0.647983
0.0011037494520890433,0,0.955828
0.0011037494520890433,0,0.629382
0.0011037461453477834,0,0.791906
0.0011037461453477834,0,0.610708
0.0011037428385966168,0,0.594664
0.0011037428385966168,0,0.592038
0.0011037395318858384,0,0.575973
0.0011037395318858384,0,0.574267
0.0011037362251651523,0,0.557314
