-2.754080385379597E-4,0,0.112401
-2.083526387974737E-4,0,0.109922
-2.083526387974737E-4,0,0.108495
-2.083526387974737E-4,0,0.108520
-2.083526387974737E-4,0,0.108544
-2.083526387974737E-4,0,0.108570
-2.083526387974737E-4,0,0.108595
-2.083526387974737E-4,0,0.108621
-2.083526387974737E-4,0,0.108648
-2.083526387974737E-4,0,0.108675
-2.083526387974737E-4,0,0.108703
-2.083526387974737E-4,0,0.108731
-2.083526387974737E-4,0,0.108760
-2.083526387974737E-4,0,0.108795
-2.083526387974737E-4,0,0.108788
-2.083526387974737E-4,0,0.108914
-2.083526387974737E-4,0,0.108744
-2.083526387974737E-4,0,0.107756
0.004851764347943419,0,0.110311
0.004851764347943419,0,0.110186
0.004851764347943419,0,0.110225
0.004851764347943419,0,0.110266
0.004851764347943419,0,0.110307
0.004851764347943419,0,0.110348
0.004851764347943419,0,0.110391
0.004851764347943419,0,0.110434
0.004851764347943419,0,0.110478
0.004851764347943419,0,0.110523
0.004851764347943419,0,0.110569
0.004851764347943419,0,0.110616
0.004851764347943419,0,0.110612
0.004851764347943419,0,0.110678
0.004851764347943419,0,0.116348
0.004851606885115257,0,0.110613
0.004851606885115257,0,0.110473
0.004851606885115257,0,0.110515
0.004851606885115257,0,0.110558
0.004851606885115257,0,0.110602
0.004851606885115257,0,0.110646
0.004851606885115257,0,0.110692
0.004851606885115257,0,0.110738
0.004851606885115257,0,0.110785
0.004851606885115257,0,0.110833
0.004851606885115257,0,0.110882
0.004851606885115257,0,0.110932
0.004851606885115257,0,0.110936
0.004851606885115257,0,0.111005
0.004851606885115257,0,0.116976
0.004847107239506984,0,0.112608
0.004847107239506984,0,0.112440
0.004847107239506984,0,0.112501
0.004847107239506984,0,0.112564
0.004847107239506984,0,0.112628
0.004847107239506984,0,0.112693
0.004847107239506984,0,0.112759
0.004847107239506984,0,0.112827
0.004847107239506984,0,0.112895
0.004847107239506984,0,0.112966
0.004847107239506984,0,0.113037
0.004847107239506984,0,0.113110
0.004847107239506984,0,0.113136
0.004847107239506984,0,0.113462
0.004839505573883254,0,0.112358
0.004839505573883254,0,0.112413
0.004839505573883254,0,0.112475
0.004839505573883254,0,0.112537
0.004839505573883254,0,0.112601
0.004839505573883254,0,0.112666
0.004839505573883254,0,0.112732
0.004839505573883254,0,0.112800
0.004839505573883254,0,0.112869
0.004839505573883254,0,0.112939
0.004839505573883254,0,0.113010
0.004839505573883254,0,0.113085
0.004839505573883254,0,0.113111
0.004839505573883254,0,0.113845
0.00880079656548327,0,0.111180
0.00880079656548327,0,0.111226
0.00880079656548327,0,0.111274
0.00880079656548327,0,0.111323
0.00880079656548327,0,0.111372
0.00880079656548327,0,0.111423
0.00880079656548327,0,0.111474
0.00880079656548327,0,0.111526
0.00880079656548327,0,0.111580
0.00880079656548327,0,0.111634
0.00880079656548327,0,0.111689
0.00880079656548327,0,0.111751
0.00880079656548327,0,0.111778
0.00880079656548327,0,0.114682
0.009399448196266291,0,0.112006
0.009399448196266291,0,0.112060
0.009399448196266291,0,0.112116
0.009399448196266291,0,0.112172
0.009399448196266291,0,0.112230
0.009399448196266291,0,0.112288
0.009399448196266291,0,0.112348
0.009399448196266291,0,0.112409
0.009399448196266291,0,0.112471
0.009399448196266291,0,0.112534
0.009399448196266291,0,0.112598
0.009399448196266291,0,0.112672
0.009399448196266291,0,0.115758
0.00993515496112189,0,0.112580
0.00993515496112189,0,0.112640
0.00993515496112189,0,0.112701
0.00993515496112189,0,0.112763
0.00993515496112189,0,0.112826
0.00993515496112189,0,0.112891
0.00993515496112189,0,0.112957
0.00993515496112189,0,0.113024
0.00993515496112189,0,0.113092
