0.03440198266641018,0,0.605385
0.045662341651873224,0,0.605674
0.045662341651873224,0,0.606681
0.045662341651873224,0,0.607864
0.045662341651873224,0,0.609073
0.045662341651873224,0,0.610310
0.045662341651873224,0,0.611575
0.045662341651873224,0,0.612870
0.045662341651873224,0,0.614194
0.045662341651873224,0,0.615551
0.045662341651873224,0,0.616962
0.045662341651873224,0,0.618409
0.045662341651873224,0,0.619892
0.045662341651873224,0,0.621398
0.045662341651873224,0,0.624200
0.04006464583723346,0,0.606149
0.04006464583723346,0,0.607343
0.04006464583723346,0,0.608562
0.04006464583723346,0,0.609809
0.04006464583723346,0,0.611085
0.04006464583723346,0,0.612391
0.04006464583723346,0,0.613728
0.04006464583723346,0,0.615095
0.04006464583723346,0,0.616510
0.04006464583723346,0,0.617970
0.04006464583723346,0,0.619468
0.04006464583723346,0,0.621002
0.035529771414064236,0,0.615051
0.035529771414064236,0,0.616395
0.035529771414064236,0,0.617837
0.035529771414064236,0,0.619315
0.035529771414064236,0,0.620830
0.035529771414064236,0,0.623591
0.0395509431812754,0,0.623895
0.059406935277405454,0,0.608131
0.059406935277405454,0,0.609335
0.059406935277405454,0,0.610627
0.059406935277405454,0,0.611949
0.059406935277405454,0,0.613304
0.059406935277405454,0,0.614691
0.059406935277405454,0,0.616109
0.0594142180314579,0,0.877035
0.0594142180314579,0,0.608808
0.0594142180314579,0,0.610087
0.0594142180314579,0,0.611398
0.0594142180314579,0,0.612739
0.0594142180314579,0,0.614113
0.0594142180314579,0,0.615521
0.0594142180314579,0,0.616928
0.0713459962014872,0,0.608881
0.0713459962014872,0,0.610104
0.0713459962014872,0,0.611414
0.0713459962014872,0,0.612756
0.0713459962014872,0,0.614130
0.0713459962014872,0,0.615537
0.0713459962014872,0,0.616967
0.07141018674589737,0,0.608703
0.07141018674589737,0,0.609885
0.07141018674589737,0,0.611190
0.07141018674589737,0,0.612527
0.07141018674589737,0,0.613896
0.07141018674589737,0,0.615299
0.07141018674589737,0,0.616727
0.07625872695635356,0,0.618968
0.07639632966923499,0,0.610710
0.07639632966923499,0,0.612048
0.07639632966923499,0,0.613418
0.07639632966923499,0,0.614822
0.07639632966923499,0,0.616261
0.07639632966923499,0,0.617729
0.08122702990227165,0,0.998579
0.09349391067236688,0,0.611439
0.09349391067236688,0,0.612788
0.09349391067236688,0,0.614170
0.09349391067236688,0,0.615586
0.09349391067236688,0,0.617038
0.09349391067236688,0,0.618516
0.09547768866446286,0,0.878497
0.09547768866446286,0,0.612541
0.09547768866446286,0,0.613915
0.09547768866446286,0,0.615322
0.09547768866446286,0,0.616764
0.09547768866446286,0,0.618243
0.09547768866446286,0,0.619711
0.09713899860553235,0,0.612083
0.09713899860553235,0,0.613478
0.09713899860553235,0,0.614873
0.09713899860553235,0,0.616302
0.09713899860553235,0,0.617768
0.09713899860553235,0,0.619235
0.10465039813965672,0,0.999389
0.11568907732266807,0,0.999437
0.11585749149865078,0,0.612162
0.11585749149865078,0,0.613537
0.11585749149865078,0,0.614932
0.11585749149865078,0,0.616362
0.11585749149865078,0,0.617787
0.11585060802303215,0,0.611833
0.11585060802303215,0,0.613222
0.11585060802303215,0,0.614611
0.11585060802303215,0,0.616036
0.11585060802303215,0,0.617488
0.11585616996020554,0,0.878556
0.11585616996020554,0,0.612968
0.11585616996020554,0,0.614351
0.11585616996020554,0,0.615769
0.11585616996020554,0,0.617215
0.11585616996020554,0,0.618278
0.11586949259343296,0,0.612640
0.11586949259343296,0,0.614015
0.11586949259343296,0,0.615423
0.11586949259343296,0,0.616863
0.11586949259343296,0,0.617982
0.11589123446207565,0,0.612849
0.11589123446207565,0,0.614229
0.11589123446207565,0,0.615642
0.11589123446207565,0,0.617084
0.1155783691584144,0,0.612686
0.1155783691584144,0,0.614062
0.1155783691584144,0,0.615471
0.11567207621160853,0,0.878809
0.11567207621160853,0,0.613024
0.11567207621160853,0,0.614409
0.1153764344596871,0,0.612007
0.1153764344596871,0,0.613422
0.1153764344596871,0,0.614720
0.11545113070336681,0,0.613464
0.11517202572471082,0,0.612607
0.11703540554220764,0,0.879261
0.12108099886625869,0,0.879229
0.12202270803661254,0,0.615397
0.12202270803661254,0,0.616922
0.12216575642097068,0,0.615601
0.12216575642097068,0,0.616967
0.12217217633184764,0,0.880404
0.12217217633184764,0,0.616063
0.12217217633184764,0,0.616861
0.1223677119729108,0,0.615830
0.1223677119729108,0,0.616833
0.12416176758374012,0,0.999547
0.12631356063187218,0,0.999479
0.12628736166458424,0,0.616401
0.12628732664240933,0,0.615805
0.12628732664240933,0,0.616662
0.12714016341328402,0,0.615969
0.12714016341328402,0,0.616521
0.12708173121425853,0,0.615876
0.12708173121425853,0,0.616509
0.12722047483983978,0,0.615881
0.12722047483983978,0,0.616516
0.12722047483983978,0,0.616903
0.1274788862188765,0,0.995988
0.1274788862188765,0,0.616246
0.1274788862188765,0,0.616463
0.12779078101481944,0,0.880099
0.13108990153306996,0,0.996822
0.14156867617036445,0,0.996810
0.14890177281466976,0,0.996857
0.14930800168859473,0,0.922296
0.15200971755217224,0,0.775410
0.1558977863457176,0,0.999436
0.1591070189708964,0,0.996866
0.1616519191530666,0,0.732653
0.16179274786998898,0,0.922440
0.1620584060379268,0,0.614452
0.16301161537905745,0,0.619651
0.16300458504053836,0,0.881544
0.16300458504053836,0,0.619672
0.16299825567703377,0,0.619685
0.1630708479372559,0,0.990991
0.1633043578470288,0,0.863843
0.16336939948283577,0,0.619573
0.16336939948283577,0,0.619768
0.16336190544204374,0,0.998657
0.16333974610295401,0,0.619494
0.16333974610295401,0,0.619741
0.16350952731687313,0,0.619523
0.16350952731687313,0,0.619732
0.16354455685565067,0,0.995471
0.1637182883490714,0,0.619481
0.1637182883490714,0,0.619668
0.16375635689699075,0,0.619372
0.16375635689699075,0,0.619589
0.16375635689699075,0,0.619218
0.16375288333911908,0,0.618959
0.1637533741914023,0,0.692206
0.1637533741914023,0,0.619550
0.1637533741914023,0,0.619564
0.16637484176885017,0,0.951762
0.16697351958409012,0,0.975134
0.16697351958409012,0,0.619804
0.16697395625554134,0,0.948161
0.16697395625554134,0,0.619746
0.16697395625554134,0,0.619832
0.16697395625554134,0,0.619135
0.16697645951869175,0,0.619688
0.16697645951869175,0,0.619885
0.16697645951869175,0,0.618970
0.17084448018697648,0,0.693018
0.17193501225028648,0,0.995469
0.1745405571833591,0,0.921018
0.1762013316103073,0,0.616042
0.17769179852762032,0,0.948364
0.17767597544563477,0,0.478880
0.177818328907544,0,0.736729
0.17847876172964364,0,0.620248
0.17847876172964364,0,0.619985
0.1786596074191844,0,0.620095
0.1786310926135823,0,0.734182
0.17861537355279802,0,0.620283
0.17938685540123478,0,0.615851
0.17782575618498792,0,0.999298
0.17467662363988007,0,0.999389
0.17307847171719257,0,0.734624
0.1735753414792974,0,0.948257
0.1736330547334024,0,0.999393
0.17847304358167704,0,0.806486
0.17916788575664172,0,0.987757
0.17929358459327738,0,0.913830
0.17775047350912945,0,0.736588
0.17786617165348867,0,0.923145
0.1779615345595344,0,0.882182
0.17803015935200667,0,0.734171
0.1783611015145598,0,0.882749
0.18094864166829874,0,0.883112
0.18139074874956848,0,0.949313
0.18183256887816876,0,0.896562
0.21122277747992474,0,0.999359
0.21117354268319202,0,0.846203
0.22005247004714143,0,0.999443
0.22272628619846907,0,0.998195
0.2223844863837078,0,0.967127
0.2229876061292635,0,0.999613
0.2250785396099316,0,0.967709
0.2292571250685389,0,0.997097
0.22326966433882345,0,0.697867
0.2237109672332849,0,0.999184
0.2260221035916532,0,0.999817
0.22599982602174434,0,0.999620
0.2266810524010694,0,0.998092
0.22678882995225932,0,0.998768
0.22678994836732522,0,0.990607
0.2267833484791346,0,0.998351
0.22682151413084267,0,0.703254
0.22681509426074836,0,0.999494
0.22680653555168045,0,0.999486
0.2268001173579542,0,0.628274
0.22679156088355845,0,0.982418
0.2275071930433355,0,0.744664
0.22839313744111744,0,0.999490
0.23546036465488776,0,0.999912
0.23772866598436393,0,0.933511
0.2356447856267113,0,0.999457
0.23696749376787515,0,0.972929
0.23979482194633361,0,0.998560
0.24332972511446221,0,0.987741
0.24299845668516112,0,0.993014
0.24267830642523183,0,0.999563
0.24208816561176885,0,0.996962
0.23959636000116247,0,0.999572
0.2251992830526392,0,0.998112
0.22508532385835103,0,0.970400
0.22754470620094036,0,0.847166
0.23034366299126982,0,0.989965
0.23080601021184854,0,0.998186
0.23571110712781465,0,0.992826
0.24355926376805412,0,0.999800
0.24531798257245327,0,0.998618
0.24541564774902586,0,0.998618
0.24887637940975457,0,0.995700
0.2567981129658735,0,0.999576
0.25857526889955007,0,0.998121
0.2619600278619141,0,0.999799
0.26505952805307875,0,0.991943
0.2649607236506806,0,0.975395
0.2661706666139613,0,0.989753
0.26700572091536534,0,0.998164
0.2658889492136068,1,0.999994
0.2658490023517808,0,0.999978
0.2669088635196229,0,0.998138
0.2680437875931523,0,0.961966
0.27150013409645685,0,0.995203
0.27297219535638934,0,0.998658
0.27412285964163585,0,0.994916
0.27501432884484533,1,0.999999
0.2761346625227209,0,0.977699
0.2766283840387446,0,0.964621
0.27899234307298937,0,0.999570
0.2813534717056237,0,0.999455
0.28351309288816007,0,0.999989
0.28716819247751674,0,0.989738
0.2930743033659335,0,0.998212
0.29937193558541947,1,0.999999
0.3054347900703875,0,0.995150
0.30664328611269953,0,0.999419
0.3115823296502418,0,0.993929
0.3155697899877613,0,0.992788
0.3206114114446846,0,0.998324
0.3337096941132428,0,0.999568
0.33915939438432496,0,0.998146
0.3406877895846562,1,0.999997
0.3522333189425375,1,0.999999
0.1691035416421134,0,0.999805
0.1734994574032175,0,0.879162
0.18900216371803705,0,0.996707
0.1947128170622965,0,0.998168
0.21338880731583024,1,0.999999
0.24269530070726567,0,0.999542
0.2573012457309526,1,0.999993
0.26326274580182857,1,0.999999
0.2898549422403771,0,0.999904
0.3024912729676629,0,0.994214
0.31973543663694853,0,0.990960
0.3259099191898968,1,0.999999
0.32926125179586213,0,0.991641
0.32938380546056295,0,0.984688
0.3298246298425314,0,0.998206
0.33000379707285177,0,0.998395
0.33320381528030624,0,0.991651
0.33343584594789233,0,0.735625
0.3340424907099057,0,0.980316
0.3349757381040982,0,0.999897
0.3354301357549658,0,0.999321
0.33618339538008807,0,0.999552
0.33699629754845273,0,0.998581
0.33732741211688155,0,0.998078
0.33742362213869054,0,0.999563
0.3377119321992863,0,0.948038
0.3379512359639662,0,0.999424
0.33856104383663976,0,0.995095
0.33885995941025976,0,0.991642
0.33900794167960313,0,0.996799
0.3393977503115641,0,0.999580
0.3394347093769991,0,0.998641
0.3394510004263235,0,0.997909
0.3394535694650714,0,0.998659
0.3395043948130571,0,0.986014
0.33951630282650436,0,0.999576
0.3395235631797873,0,0.480794
0.3395507592511007,0,0.980414
0.33957658096274346,0,0.999794
0.3399635319582849,0,0.999792
0.3401568951163898,0,0.741541
0.34030397920314,0,0.813769
0.3403596223036903,0,0.625273
0.3407279564931934,0,0.781801
0.34073056355649417,0,0.744777
0.3407320666270131,0,0.981706
0.3407320893472465,0,0.992284
0.34073523739923395,1,0.999999
0.3407352285383414,0,0.949817
0.34073521755053915,0,0.949835
0.3407371198784253,0,0.626828
0.34078228115894227,0,0.629031
0.340793380365968,0,0.885635
0.34080821692142704,0,0.998227
0.34082259867976794,0,0.999295
0.3408661577582568,0,0.481809
0.34092295263267636,0,0.942843
0.34092412803268296,0,0.624744
0.34094131130677996,0,0.999459
0.3410035127353217,0,0.885314
0.3410731176141477,0,0.949941
0.3410898735454607,0,0.885993
0.34110985030750285,0,0.744049
0.3411766870047576,0,0.976441
0.3412938026630291,0,0.747665
0.34134210085436234,0,0.950602
0.3414325878999381,0,0.634655
0.3414349051488961,0,0.951152
0.3414595120087815,0,0.889105
0.34146586424688385,0,0.635534
0.3414663374598833,0,0.999545
0.34146737285988854,0,0.747407
0.3414824523772631,0,0.751405
0.3414826995231367,0,0.999540
0.3415064941193005,0,0.977246
0.34156871926553495,0,0.999587
0.3416101437474468,0,0.999584
0.34175616239431356,0,0.496253
0.34181910021515893,0,0.751673
0.3418418842026468,0,0.638376
0.34184979210178473,0,0.638983
0.3418664537266819,0,0.638987
0.3418922135712607,0,0.952567
0.34190585267597284,0,0.754730
0.3420697268068174,0,0.985788
0.3420912073326902,0,0.998635
0.3422585809386789,0,0.911026
0.34259798706168476,0,0.999898
0.34324687035709617,0,0.954442
0.34351907161225026,0,0.986195
0.3436193019132833,0,0.499894
0.34365436584728054,0,0.749999
0.34366950544952674,0,0.968031
0.34370813827122826,0,0.986972
0.3437177062865676,0,0.992542
0.34386524920432837,0,0.992582
0.3439360618262854,0,0.992533
0.34402161641543205,0,0.945493
0.34405640712993235,0,0.981302
0.3441100820615023,0,0.987121
0.3446042545393734,0,0.998679
0.34481722361240374,0,0.999812
0.34484600050360537,0,0.962922
0.3451145758632091,0,0.997857
0.3451494153223149,0,0.925600
0.345164080634834,0,0.497618
0.34519287884922134,0,0.946363
0.34535976145383934,1,0.999996
0.3459536628086438,0,0.993383
0.3466579077702821,0,0.998170
0.3469137876430348,0,0.489348
0.3469480046339661,0,0.970933
0.34701162787750395,0,0.999435
0.34718723788568434,0,0.999264
0.3475146545695399,0,0.706496
0.3475345090795448,0,0.820834
0.34807192569695683,0,0.695455
0.3481705860355487,0,0.992552
0.3484497549629575,0,0.999769
0.3487087001577141,0,0.998273
0.34872730938068697,0,0.749634
0.3487319185425757,0,0.498129
0.3490287321362843,0,0.706279
0.34915032148722214,0,0.911341
0.34950561581152767,1,0.999996
0.3505526996259003,0,0.999470
0.35077873751069627,0,0.999315
0.3508014033593215,0,0.999608
0.35110900940463224,0,0.994551
0.3518998167444443,0,0.981002
0.35192578108381833,0,0.951256
0.3519280049364111,0,0.852697
0.35193148172799477,0,0.792877
0.3519425480587299,0,0.538208
0.3519429624412968,0,0.507034
0.3519431758614447,0,0.760312
0.3519435750940172,0,0.998710
0.3519436742095351,0,0.797164
0.3519438716381568,0,0.758107
0.3519447079324861,0,0.998244
0.3519455184802811,0,0.642084
0.35195633840857793,0,0.987895
0.3522212216419042,0,0.998714
0.3522380798934796,0,0.642081
0.3523188729656105,0,0.987877
0.3523199461136683,0,0.759036
0.35232158740746805,0,0.992749
0.3548217890393291,0,0.999434
0.3551202407507829,0,0.968377
0.35565963263236566,0,0.980670
0.35572258515634675,0,0.951241
0.35572801695944684,0,0.643043
0.35572883991529614,0,0.999526
0.35572905559708373,0,0.642716
0.3557290430959366,0,0.643525
0.35572982105024975,0,0.762195
0.35572981125119557,0,0.893706
0.35573583583829627,0,0.999511
0.35580509877368577,0,0.801231
0.3560940445675807,0,0.856544
0.35647351046240955,0,0.992958
0.35713227360375877,0,0.766663
0.3574417007109862,0,0.918402
0.3575393252674478,0,0.804466
0.3585181195445273,0,0.999496
0.36080575887927,0,0.988737
0.3655118517331745,0,0.994039
0.3662179121932199,0,0.803564
0.3662206084566205,0,0.803543
0.3662227057987331,0,0.999527
0.36623266843090724,0,0.767076
0.3663125145262161,0,0.895889
0.36632111852654387,0,0.668867
0.3664262717993411,0,0.896553
0.36648838142024154,0,0.897009
0.3665097299880222,0,0.998211
0.36651021714639703,0,0.987634
0.36651056046555697,0,0.523599
0.3665570446269119,0,0.554870
0.3665897931771636,0,0.654055
0.36659440432739465,0,0.966813
0.36669300439204855,0,0.967150
0.36673503331154067,0,0.911686
0.3667377443990468,0,0.989347
0.3667542390038538,0,0.839739
0.3667624483635285,0,0.885974
0.3667650116222548,0,0.659802
0.3667670055202949,0,0.526553
0.3667680493056629,0,0.774688
0.36678112948731506,0,0.999387
0.3667820773499237,0,0.774694
0.3667870669708396,0,0.657088
0.3667873590647147,0,0.774756
0.36679110637620455,0,0.774957
0.3668517408401321,0,0.535304
0.3668621670669526,0,0.785620
0.36687164794991395,0,0.999451
0.36698188539055004,0,0.773335
0.3669867150229867,0,0.998920
0.3670287663540888,0,0.994190
0.36703249027763235,0,0.989823
0.3670414092211396,0,0.921050
0.36705697793940256,0,0.849734
0.3670572842702214,0,0.998953
0.3670578882837396,0,0.785352
0.367061083837119,0,0.665768
0.36706112049788664,0,0.989139
0.3670612624693477,0,0.785311
0.36706124575529975,0,0.891547
0.36706593113249253,0,0.661252
0.3670661458452345,0,0.663817
0.36706629442260086,0,0.992947
0.36706628119275514,0,0.967728
0.36706628119275514,0,0.669733
0.36706713851907924,0,0.787363
0.36706828869732827,0,0.532321
0.36706828546877673,0,0.779753
0.3670682804595796,0,0.658572
0.36706842767317444,0,0.656203
0.36707209840083005,0,0.663085
0.3670720851706504,0,0.658497
0.36707206845616086,0,0.964074
0.36707206845616086,0,0.658606
0.3670721281847255,0,0.656251
0.36707227676097587,0,0.879548
0.36707241444395217,0,0.668236
0.36707241444395217,0,0.659624
0.3670724482535653,0,0.653071
0.3670787733633112,0,0.656433
0.3670791890863116,0,0.669387
0.36707917011702795,0,0.999831
0.36707917011702795,0,0.892209
0.367079154643296,0,0.665746
0.367079156115743,0,0.662357
0.367079156115743,0,0.654564
0.3670821420428274,0,0.731219
0.36709325758381756,0,0.541293
0.3671480802985098,0,0.967748
0.3671955377193803,0,0.685014
0.3671955377193803,0,0.676968
0.3671955377193803,0,0.669589
0.18835556687820848,0,0.560538
0.18836209287538275,0,0.561178
0.18836201779771036,0,0.692431
0.18836191769374547,0,0.563721
0.18836181758928927,0,0.751300
0.18836174251064183,0,0.800979
0.18836671263830856,0,0.689568
0.18838204432903077,0,0.807215
0.18839706378014928,0,0.902353
0.18844864262715136,0,0.990941
0.18859686632899894,0,0.717911
0.18862431694717488,0,0.712208
0.18866664674732905,0,0.830829
0.1887205821927403,0,0.716187
0.18881864853065972,0,0.854257
0.1888707657954364,0,0.803031
0.18897515907610668,0,0.989662
0.18994148321889914,0,0.915330
0.19019205409045914,0,0.999774
0.19063541621436572,0,0.514925
0.19070730384764953,0,0.999036
0.19089185646232892,0,0.652605
0.19101422180822825,0,0.961955
0.19267331939177434,0,0.992833
0.19301332597028226,0,0.999634
0.19342814958232354,0,0.790369
0.19456144719865612,0,0.999460
0.19487236008936243,0,0.887265
0.1953698577131851,0,0.925536
0.1960934608564008,0,0.998673
0.19684386193314488,0,0.994621
0.19835190106188363,0,0.626690
0.1985322122924725,0,0.915212
0.1996971717073208,0,0.999644
0.2001673661981864,0,0.991995
0.20026605492456648,0,0.999645
0.20042326298134835,0,0.999456
0.20109929467790003,0,0.499193
0.2015459768223218,0,0.999975
0.20173838126905647,0,0.988664
0.2018893628575483,0,0.999641
0.2024375303866632,0,0.996785
0.20257597196305485,0,0.989680
0.20263878616259623,0,0.987830
0.20298088300148195,0,0.629546
0.20302053139391316,0,0.999590
0.20306167794993066,0,0.998234
0.20337250135017748,0,0.634312
0.2036951654153492,0,0.995361
0.20371218261304233,0,0.726282
0.2037963996322625,0,0.999824
0.20380538286197586,0,0.999699
0.20380552643926042,0,0.998251
0.20381815514478824,0,0.892187
0.2039823339810047,0,0.994618
0.20410961502098784,0,0.994597
0.20411201611970828,0,0.987718
0.2043259347874699,0,0.994760
0.20449897917468735,0,0.998257
0.2046674718281179,0,0.998733
0.2048091151834363,0,0.995848
0.20486452867527727,0,0.864084
0.2049224071217598,0,0.999866
0.20492445129539574,0,0.672439
0.2049537516226848,0,0.542160
0.20496819949478917,0,0.999430
0.2049682616213138,0,0.995464
0.20509384206932707,0,0.986376
0.20509410175385834,1,0.999991
0.2050968187400058,0,0.999644
0.2050969316908722,0,0.986436
0.20511035548455858,0,0.918209
0.2052099387813944,0,0.986410
0.20539654421275522,0,0.998525
0.2058480528095726,0,0.995188
0.20624686114911872,0,0.778823
0.20690697750150427,0,0.999505
0.20713421518977648,0,0.765538
0.20775888688755456,0,0.999640
0.20816047119660694,0,0.994204
0.20895434793443257,0,0.999603
0.20899647230147406,0,0.973938
0.20907500294961748,0,0.713145
0.2093798666181707,0,0.995997
0.20998603381885345,0,0.998164
0.2100027444070475,0,0.912620
0.21006834678140804,0,0.731894
0.21023914505558167,0,0.722869
0.21031994944456617,0,0.839294
0.21064557120063518,0,0.995166
0.21150518315511196,0,0.999945
0.2130384565133076,0,0.999655
0.21361496168795233,0,0.555920
0.21365814450444917,0,0.541298
0.2138031031159116,0,0.999860
0.21383614791717595,0,0.993147
0.21410602144643887,0,0.977562
0.21429587781029602,0,0.999823
0.21431553275666237,0,0.999534
0.21491729254270955,1,0.999999
0.215592285447608,0,0.999641
0.21617530680791555,0,0.999887
0.21625429243904767,0,0.998669
0.21633736741472823,0,0.991621
0.21656372025756077,0,0.728022
0.21658464339393627,0,0.999930
0.2165847715802812,0,0.933924
0.21658723731271656,0,0.792398
0.21659569511802437,0,0.999623
0.21695741181491165,0,0.999622
0.21774030285399945,0,0.999404
0.22059170798286662,0,0.999659
0.2224039426102035,0,0.999532
0.22280594645007926,0,0.998581
0.22287252677795502,0,0.992605
0.22296305087422544,0,0.990323
0.2234353619600605,0,0.994595
0.22355914920646616,0,0.999847
0.22364107626286636,0,0.993015
0.22373560612413348,0,0.993442
0.22402553929772184,0,0.999729
0.22429523325660713,0,0.979004
0.22433352657744632,0,0.999880
0.22446898709039656,0,0.990031
0.2245898770865902,0,0.999742
0.22539886581198001,0,0.998225
0.22642075415468332,0,0.999650
0.22752301992236948,0,0.995613
0.2287489458671933,0,0.999501
0.22952788376759803,0,0.998205
0.2311407563762255,0,0.999847
0.23352723446028056,0,0.999480
0.23367204931055344,0,0.992915
0.233725502885197,0,0.999914
0.23835481881873577,0,0.998263
0.23872234782218918,0,0.996733
0.242114698324268,0,0.989722
0.24256297464482995,0,0.998722
0.24266401146060723,0,0.784217
0.2437558056155234,0,0.493474
0.24447616930830998,0,0.998459
0.24503249425982454,0,0.995072
0.24557570866713851,0,0.998245
0.24662282829353063,0,0.995188
0.24715082922673035,0,0.999857
0.2485077212845951,0,0.995408
0.25457472698411326,0,0.995625
0.26348538088122253,0,0.999980
0.27171076492787644,0,0.994651
0.27447873340445444,0,0.715396
0.2757996702651919,0,0.999582
0.2781401375108918,0,0.999887
0.27823097829701954,0,0.999488
0.2865004323146398,0,0.993108
0.286526119589921,0,0.561536
0.29648289926133137,0,0.992066
0.2981995662554505,0,0.995901
0.2982053531213522,0,0.999376
0.29821026669770456,0,0.992297
0.2982876110828546,0,0.999533
0.29830496304660553,0,0.999632
0.29832113352181727,0,0.998519
0.2983267706998386,0,0.992789
0.2983671523783984,0,0.899255
0.2983835358509342,0,0.998560
0.29839031480134875,0,0.999152
0.2984251826754628,0,0.698029
0.29842878280730517,0,0.999111
0.29844681562266356,0,0.999897
0.29846912721452146,0,0.953114
0.29847712805414683,0,0.580683
0.2984971994819243,0,0.996390
0.29854546841063345,0,0.987156
0.29883353248325223,0,0.999555
0.2991570436840765,0,0.999981
0.29919199724339196,0,0.976658
0.2991954047814099,0,0.620059
0.29920977828889495,0,0.999895
0.2992418527926877,0,0.980786
0.2993845705954285,0,0.999719
0.2996568750391898,0,0.993624
0.29977261831781127,0,0.993562
0.2998875439832959,0,0.654269
0.29997163500234203,0,0.993904
0.30017475323377946,0,0.595074
0.30048724938129606,0,0.920690
0.3024036718640345,1,0.999995
0.30278234082851796,0,0.999711
0.3031815709528004,0,0.999925
0.30324839800121045,0,0.987235
0.3034696264867037,0,0.999916
0.3036041025123269,0,0.999736
0.30405215105602645,0,0.682657
0.304527050228453,0,0.999918
0.30516265024109257,0,0.988931
0.3055053466797873,0,0.659788
0.30562262649745975,0,0.999640
0.3067192267321869,0,0.993042
0.3068891932747345,0,0.999984
0.30692302381503894,0,0.999959
0.3070454914156894,0,0.998834
0.3074326475179253,0,0.999898
0.30751564747253435,0,0.994407
0.3080991006673161,0,0.671366
0.3087658977338258,0,0.794845
0.30940159903217257,0,0.999944
0.3096301994558314,1,0.999990
0.3108062379691092,0,0.994589
0.3113515467037852,0,0.999619
0.3123612571420151,0,0.991417
0.31330467553250846,0,0.992091
0.3144630694364271,0,0.999986
0.31616495895102237,0,0.993143
0.31648775005915863,0,0.835664
0.3181832238264482,1,0.999984
0.31963884424402783,0,0.896448
0.3214794720265552,0,0.999672
0.321685164455197,0,0.999639
0.327911138733754,0,0.875393
0.3283088665266893,1,0.999989
0.33381847080422367,0,0.998243
0.33876252341640123,0,0.881353
0.3388833825762025,0,0.943405
0.33962699324658024,0,0.995345
0.3397675586999148,1,0.999976
0.3397962088316002,0,0.998070
0.33980315297073005,0,0.999843
0.3398128351098951,0,0.994112
0.33981793217207024,0,0.993654
