0.999999999999985,1,0.999998
1.0,1,0.999999
1.0,1,0.999999
0.9999142668628024,1,0.999999
0.9998910658416239,1,0.999999
0.999894140261516,1,0.999999
0.9999009463236892,1,0.999999
0.9999059938908794,1,0.999996
0.9999091519288029,1,0.999999
0.9999142595041145,1,0.999999
0.9999251997963828,1,0.999999
0.9999344585436609,1,0.999999
0.9999398625294651,1,0.999999
0.9999517064861945,1,0.999999
0.9999975603335141,1,0.999999
0.9999976790485967,1,0.999999
0.9999789601969166,1,0.999999
0.9999513672910155,1,0.999999
0.9999500964026227,1,0.999999
0.9999140097430135,1,0.999999
0.999904175505852,1,0.999999
0.9947172314552241,1,0.999999
0.9998443099123078,1,0.999999
0.9985511882017276,1,0.999999
0.9995280284500422,1,0.999999
0.9996746815396865,1,0.999999
0.9999829642794588,1,0.999999
0.9999999676116793,1,0.999999
0.999797138272285,1,0.999999
0.9997948074122264,1,0.999999
0.9999999667270778,1,0.999999
0.9999999992844782,1,0.999999
0.9999999999547898,1,0.999999
0.9999999999719452,1,0.999999
0.9999999999999034,1,0.999999
0.9998947432067261,1,0.999999
0.9997578074121042,1,0.999998
0.999996483341116,1,0.999999
0.9999977191632694,1,0.999999
0.9999997403712931,1,0.999999
0.9999999475610046,1,0.999999
0.99999999601548,1,0.999999
0.9999999968458444,0,0.999989
0.9999999976058351,1,0.999994
0.999999999870465,1,0.999999
0.9999999999953254,1,0.999999
1.0,1,0.999999
0.9999999999999684,1,0.999999
0.9999999999999656,1,0.999999
0.9989948492375191,1,0.999999
0.9999445438020704,1,0.999999
0.998446523143701,1,0.999998
0.9964421545495376,1,0.999999
0.9975916697968065,1,0.999999
0.9969457306365361,1,0.999996
0.9982022705428895,1,0.999999
0.9986294096650722,1,0.999999
0.9987161251981833,1,0.999999
0.9997843845240264,1,0.999999
0.999999994746534,1,0.999999
0.9999999997007296,1,0.999999
0.9999999999996894,1,0.999999
0.9999999943840724,1,0.999999
1.0,1,0.999999
0.9999794049048263,1,0.999999
0.9997918253811052,1,0.999999
0.9999969388168558,1,0.999999
0.9999999649520426,1,0.999999
0.9999999999947495,1,0.999999
0.9999999999999628,1,0.999999
0.999999999999959,1,0.999999
0.9999999999999659,1,0.999999
0.9999999999999392,1,0.999999
0.9999999999999758,1,0.999999
0.9999999999999892,1,0.999999
0.9999998795736226,1,0.999999
0.9999375117467171,1,0.999999
0.9999788906683634,1,0.999999
0.9999884732926716,1,0.999999
0.9999444240419787,1,0.999999
0.9999286788960435,1,0.999999
0.9999948516134962,1,0.999999
0.9999999888095624,1,0.999999
0.9999979951275337,1,0.999999
0.9997847528079195,1,0.999999
0.9995082256019552,1,0.999999
0.9998831446766029,1,0.999999
0.9997399656752366,1,0.999999
0.9999999351611984,1,0.999999
0.9999999999934662,1,0.999999
1.0,1,0.999999
1.0,1,0.999999
0.9999999916539706,1,0.999999
0.9999999998141853,1,0.999999
0.9999999998432069,1,0.999999
0.9999999998653226,1,0.999999
0.999999999925963,1,0.999999
0.999999999928138,1,0.999999
0.9999999999993806,1,0.999999
0.9999999999995755,1,0.999999
0.9999999999996542,1,0.999999
0.999999999999964,1,0.999999
0.9999706046142571,1,0.999999
0.9999706046142571,1,0.999999
0.9994856470889056,1,0.999999
0.9988989068828638,1,0.999999
0.9999790456172132,1,0.999999
0.9999800050157002,1,0.999999
0.999980083599577,1,0.999999
0.999980083599577,1,0.999999
0.9999879486519972,1,0.999999
0.9999971137455024,1,0.999999
0.9999999990984367,1,0.999999
0.999881473936571,1,0.999999
0.9999651777927038,1,0.999999
0.9999735012020368,1,0.999999
0.9999805397658744,1,0.999999
0.999984396304155,1,0.999999
0.9999863657627261,1,0.999999
0.9999894263381359,1,0.999999
0.9999894263381359,1,0.999999
0.9999907409952071,1,0.999999
0.999994608076814,1,0.999999
0.999997081399981,1,0.999999
0.9999979311336549,1,0.999999
0.9999981707627017,1,0.999999
0.9999998071133364,1,0.999999
0.999999808721646,1,0.999999
0.9999250689950376,1,0.999999
0.9999836370419954,1,0.999999
0.9999999994254448,1,0.999999
0.9999999999715848,1,0.999999
0.9999999999900248,1,0.999999
1.0,1,0.999999
0.9999999999999314,1,0.999999
1.0,1,0.999999
0.999999999999981,1,0.999999
1.0,1,0.999999
0.9999999999999881,1,0.999998
0.9999999999998704,1,0.999999
0.9999999999999049,1,0.999999
1.0,1,0.999999
1.0,1,0.999999
1.0,1,0.999999
1.0,1,0.999999
0.9999999999999056,1,0.999999
0.9999999999999418,1,0.999999
0.9999999999999418,1,0.999999
1.0,1,0.999999
1.0,1,0.999999
1.0,1,0.999999
0.9999999999999206,1,0.999999
0.9999999999999206,1,0.999999
1.0,1,0.999999
1.0,1,0.999999
0.999999999999969,1,0.999999
0.999999999999893,1,0.999999
0.9999999999999923,1,0.999999
1.0,1,0.999999
1.0,1,0.999999
1.0,1,0.999999
1.0,1,0.999999
1.0,1,0.999999
0.9999999999999925,1,0.999999
1.0,1,0.999999
1.0,1,0.999999
0.9999999999999919,1,0.999999
0.9999999999999358,1,0.999999
0.9999999999999512,1,0.999999
0.9999999999999042,1,0.999999
0.9999999999999977,1,0.999999
0.9999999999999526,1,0.999999
1.0,1,0.999999
0.9999999999999589,1,0.999999
1.0,1,0.999999
1.0,1,0.999999
1.0,1,0.999999
1.0,1,0.999999
1.0,1,0.999999
1.0,1,0.999999
0.9999999999999941,1,0.999999
1.0,1,0.999999
1.0,1,0.999999
1.0,1,0.999999
1.0,1,0.999999
0.9999999999999345,1,0.999999
1.0,1,0.999999
0.999999999999973,1,0.999999
0.9999999999999988,1,0.999999
0.9999999999999264,1,0.999999
1.0,1,0.999999
0.9999999999999687,1,0.999999
0.9999999999999402,1,0.999999
0.9996817003480171,1,0.999999
0.9999699484870826,1,0.999999
0.9999707665684343,1,0.999999
0.9999718028273286,1,0.999999
0.9999875350708982,1,0.999999
0.9999997863605645,1,0.999999
0.9997602246227673,1,0.999999
0.9999894618726071,1,0.999999
0.9999999183614628,1,0.999999
0.9999756243141678,1,0.999999
0.999995940918948,1,0.999999
0.9982102280309286,1,0.999999
0.9967210645283314,1,0.999999
0.9990086671294693,1,0.999999
0.9999648317157354,1,0.999999
0.999999326210279,1,0.999999
0.9999999999555862,1,0.999999
0.9999999999995525,1,0.999999
0.9997017013913088,1,0.999999
0.9999999976006768,1,0.999999
0.9999999999875752,1,0.999999
0.9999863555224006,1,0.999999
0.9999943735271557,1,0.999999
0.9999999883402508,1,0.999999
0.9999936518187027,1,0.999999
0.999991249230359,1,0.999999
0.9999997746793359,1,0.999999
0.9999999872214844,1,0.999999
0.9999999958389706,1,0.999999
0.9999999999657165,1,0.999999
0.9999998747019977,1,0.999999
0.9999999986349692,1,0.999999
0.9999999998951673,1,0.999999
0.9999999999929355,1,0.999999
0.9999999999994911,1,0.999999
0.9999999999998603,1,0.999999
0.99999999999991,1,0.999999
0.9999714050197663,1,0.999999
0.9998951820452135,1,0.999999
0.9999959434773833,1,0.999999
0.9985735811423975,1,0.999999
0.9999915285385992,1,0.999999
0.9999963551584413,1,0.999999
0.9998022917093334,1,0.999999
0.9999600980901259,1,0.999999
0.9999819944357826,1,0.999999
0.9999853590147288,1,0.999999
0.9999879249713624,1,0.999999
0.9999891893787155,1,0.999999
0.9999913784987293,1,0.999999
0.9999923502419256,1,0.999999
0.9999981891605341,1,0.999999
0.9999983010167518,1,0.999999
0.9999994049093521,1,0.999999
0.9999994179157718,1,0.999999
0.9999999198431118,1,0.999999
0.9999999999949448,1,0.999999
1.0,1,0.999999
0.9999999999999818,1,0.999999
0.9999999999999822,1,0.999999
0.9999999999999041,1,0.999999
1.0,1,0.999999
0.9999999999998638,1,0.999999
0.9999999999999805,1,0.999999
0.9999309436944172,1,0.999999
0.9999998305402774,1,0.999999
1.0,1,0.999999
1.0,1,0.999999
0.9997110435231691,1,0.999999
0.9996861387863362,1,0.999999
0.9996797181667127,1,0.999999
0.9996819204044183,1,0.999999
0.9996786293763713,1,0.999999
0.9998244466490152,1,0.999999
0.9998610389579684,1,0.999999
0.9999999391721732,1,0.999999
0.9997781930839522,1,0.999999
0.9999743782813614,1,0.999999
0.9999982742191769,1,0.999999
0.9999999864439982,1,0.999999
1.0,1,0.999999
0.9999975109627136,1,0.999999
0.9999999999477459,1,0.999999
0.9999999999976116,1,0.999999
0.9999999999995546,1,0.999999
0.9999999999998879,1,0.999999
0.9996481955058527,1,0.999999
0.9998577180741283,1,0.999999
0.9999997087839992,1,0.999999
0.9999999999941888,1,0.999997
0.9999907830881443,1,0.999999
0.9999999999874769,1,0.999999
0.9997512421740398,1,0.999999
0.9999231338877643,1,0.999999
0.99993190669726,1,0.999999
0.9999974738682152,1,0.999999
0.9999977211155942,1,0.999999
0.9999477031520123,1,0.999999
0.9997154153196813,1,0.999999
0.9999682372267141,1,0.999999
0.9986819970181311,1,0.999999
0.9987110300040382,1,0.999999
0.9988360512366844,1,0.999999
0.9990290765917681,1,0.999999
0.9999990242415648,1,0.999999
0.9999530443674126,1,0.999999
0.998071320843724,1,0.999999
0.9980814407033285,1,0.999999
0.9980921208778772,1,0.999999
0.9999347369377694,1,0.999999
0.9999499472560681,1,0.999999
0.9999999999999766,1,0.999999
0.999330234615752,1,0.999999
0.9999938270105598,1,0.999999
0.9999989553601183,1,0.999999
0.9999993904865389,1,0.999999
0.9999996089021695,1,0.999999
0.9999996978270943,1,0.999999
0.9999997199334383,1,0.999999
0.9999999999886108,1,0.999999
0.9998843106049462,1,0.999999
0.9999970696943121,1,0.999999
0.9999867852273295,1,0.999999
0.9999999674721586,1,0.999999
0.9999998349754399,1,0.999999
0.9999999243729562,1,0.999999
1.0,1,0.999999
0.9999999046966475,1,0.999999
0.9999182167672966,1,0.999999
0.9999997946250121,1,0.999999
0.9999998857771095,1,0.999999
0.99999992015753,1,0.999999
0.9999999517667041,1,0.999999
0.9999999783905485,1,0.999999
0.9999999783905485,1,0.999999
0.9999977658352532,1,0.999999
0.999999657171287,1,0.999999
0.9999998365935783,1,0.999999
0.999999999951091,1,0.999999
0.9999999999999581,1,0.999999
1.0,1,0.999999
0.9998230443288337,1,0.999999
0.9999979631406577,1,0.999999
0.9997357405513562,1,0.999999
0.9998343543174149,1,0.999999
0.9996797756936352,1,0.999999
0.9999992148522128,1,0.999999
0.9996914613050301,1,0.999998
0.9993176344273448,1,0.999999
0.9999239267103791,1,0.999999
0.9999810695995734,1,0.999999
0.9999999755934172,1,0.999999
0.9999999996195474,1,0.999999
0.9999999999986183,1,0.999999
1.0,1,0.999999
0.9999999999999905,1,0.999999
0.9999999999999376,1,0.999999
1.0,1,0.999999
0.999999999999949,1,0.999999
1.0,1,0.999999
1.0,1,0.999999
0.9999999999999232,1,0.999999
0.9999999999999668,1,0.999999
1.0,1,0.999999
0.9999999999999617,1,0.999999
1.0,1,0.999999
1.0,1,0.999999
1.0,1,0.999999
0.9999999999999734,1,0.999999
1.0,1,0.999999
1.0,1,0.999999
0.9999999999999934,1,0.999999
0.9999999999999339,1,0.999999
1.0,1,0.999999
1.0,1,0.999999
0.9999999999999949,1,0.999999
1.0,1,0.999999
1.0,1,0.999999
0.9999999999999674,1,0.999999
1.0,1,0.999999
0.999999999999983,1,0.999999
0.9999999999999473,1,0.999999
1.0,1,0.999999
0.9999999999999934,1,0.999999
1.0,1,0.999999
0.9999999999999992,1,0.999999
1.0,1,0.999999
1.0,1,0.999999
0.9999999999999902,1,0.999999
0.9999999999999752,1,0.999999
0.999999999999982,1,0.999999
0.9999999999999335,1,0.999999
1.0,1,0.999999
0.9999999999999728,1,0.999999
0.9999999999999178,1,0.999999
0.9999999999999681,1,0.999999
1.0,1,0.999999
0.9999999999999918,1,0.999999
1.0,1,0.999999
0.9999999999999903,1,0.999999
0.9999999999999702,1,0.999999
1.0,1,0.999999
1.0,1,0.999999
0.99999885457382,1,0.999999
0.9999999977102467,1,0.999999
0.9999999999990246,1,0.999999
1.0,1,0.999999
0.9999999999999342,1,0.999999
0.9999999999999429,1,0.999999
0.9999999999999728,1,0.999999
0.9999520533211433,1,0.999999
0.9999983168642306,1,0.999999
0.9999983868283062,1,0.999999
0.9999984547690159,1,0.999999
0.999998692214168,1,0.999999
0.9999999070533023,1,0.999999
0.9999999672322983,1,0.999999
0.9999999956429418,1,0.999999
0.9999999967225935,1,0.999999
0.9999999974820517,1,0.999999
0.9999999999445596,1,0.999999
0.9999999999973859,1,0.999999
1.0,1,0.999999
0.9999999999999587,1,0.999999
0.9999999999999789,1,0.999999
0.9999999999999374,1,0.999999
0.9999251588493788,1,0.999999
0.9999999924216013,1,0.999999
0.9999999990688793,1,0.999999
0.9999304826788534,1,0.999999
0.9999658679980312,1,0.999999
0.9999572850097797,1,0.999999
0.9996159056782722,1,0.999997
0.9982108568011968,1,0.999996
0.999789835152864,1,0.999999
0.9999708038312832,1,0.999999
0.9999999762556262,1,0.999999
0.9999999984919902,1,0.999999
0.9999999998559785,1,0.999999
0.9999999999915403,1,0.999999
0.9999999999944548,1,0.999999
0.9999999999980076,1,0.999999
1.0,1,0.999999
1.0,1,0.999999
0.9999999999999826,1,0.999999
0.9998663765457767,1,0.999999
0.9999824445558188,1,0.999999
0.999999999955446,1,0.999999
0.9999999999999353,1,0.999999
0.9999999999999848,1,0.999999
0.9996095888828531,1,0.999999
0.9997781510267154,1,0.999999
0.9999999650090925,1,0.999999
0.9999999998719289,1,0.999999
0.9999999999929796,1,0.999999
0.9999999999969097,1,0.999999
0.9999999999999788,1,0.999999
0.99999999999999,1,0.999999
0.9999999999999967,1,0.999999
1.0,1,0.999999
1.0,1,0.999999
0.9999999999999998,1,0.999999
0.999917679990835,1,0.999999
0.9999928013385899,1,0.999999
0.9999998998264357,1,0.999999
0.9999999996484707,1,0.999999
0.9999999999849125,1,0.999999
0.999999999999765,1,0.999999
0.9999999999998888,1,0.999999
0.9999999999999687,1,0.999999
1.0,1,0.999999
1.0,1,0.999999
1.0,1,0.999999
0.9999999999999933,1,0.999999
0.9999999999999981,1,0.999999
0.9999999999999576,1,0.999999
1.0,1,0.999999
0.9999999999999527,1,0.999999
0.999999999999982,1,0.999999
1.0,1,0.999999
1.0,1,0.999999
1.0,1,0.999999
0.9999999999999564,1,0.999999
1.0,1,0.999999
0.9999999999999934,1,0.999999
0.9998279596361076,1,0.999999
0.999938826023927,1,0.999999
0.9999943410488119,1,0.999999
0.9999960535817214,1,0.999999
0.9999970721949264,1,0.999999
0.9999988456091307,1,0.999999
0.9999999502800444,1,0.999999
0.9999999820245092,1,0.999999
0.99999999929024,1,0.999999
0.9999999999546163,1,0.999999
0.9999999999980886,1,0.999999
0.9999999999997031,1,0.999999
0.9999999999999344,1,0.999999
1.0,1,0.999999
1.0,1,0.999999
1.0,1,0.999999
0.9999999999999846,1,0.999999
1.0,1,0.999999
0.9999999999999846,1,0.999999
0.999999999999982,1,0.999999
0.9999999999999706,1,0.999999
1.0,1,0.999999
0.9999999999999698,1,0.999999
1.0,1,0.999999
0.9999999999999669,1,0.999999
0.9999722646971363,1,0.999999
0.9999997393228521,1,0.999999
0.9999999994488649,1,0.999999
0.999999999999957,1,0.999999
1.0,1,0.999999
0.9999742512235363,1,0.999999
0.9999999999167334,1,0.999999
0.9998192499103425,1,0.999999
0.9999563072113281,1,0.999999
0.9993004138622934,1,0.999999
0.9997643853073491,1,0.999999
0.9999591764559069,1,0.999999
0.9999999985859551,1,0.999999
0.9999999999998782,1,0.999999
1.0,1,0.999999
1.0,1,0.999999
1.0,1,0.999999
0.9999327030959175,1,0.999999
0.999854148359313,1,0.999999
0.9999994974418541,1,0.999999
0.999999982710541,1,0.999999
0.9999999999518144,1,0.999999
0.9992942608386707,1,0.999999
0.998893032729167,1,0.999999
0.9999946051355327,1,0.999999
0.9996776714985263,1,0.999999
0.9999999588399965,1,0.999999
0.9998877653391852,1,0.999999
0.9999999003053102,1,0.999999
0.9999999683784365,1,0.999999
0.9999999997339067,1,0.999999
0.9999999999952471,1,0.999999
0.9999999999994776,1,0.999999
0.9999999999999296,1,0.999999
1.0,1,0.999999
0.9999198544167176,1,0.999999
0.9970861188135098,1,0.999999
0.9999973050057035,1,0.999999
0.9999999968833122,1,0.999999
0.9999999996434888,1,0.999999
0.9999999999990649,1,0.999999
0.9999999999999571,1,0.999999
0.9999999999999769,1,0.999999
1.0,1,0.999999
1.0,1,0.999999
0.9999999999999728,1,0.999999
0.9999999999999979,1,0.999999
1.0,1,0.999999
0.9999999999999752,1,0.999999
1.0,1,0.999999
1.0,1,0.999999
0.9999999999999937,1,0.999999
1.0,1,0.999999
1.0,1,0.999999
1.0,1,0.999999
0.9999999999999744,1,0.999999
0.99999999999996,1,0.999999
0.9999999999999787,1,0.999999
0.9999999999999772,1,0.999999
1.0,1,0.999999
1.0,1,0.999999
0.9999999999999934,1,0.999999
0.9999999999999876,1,0.999999
1.0,1,0.999999
1.0,1,0.999999
0.9999999999999855,1,0.999999
0.9997037054074623,1,0.999999
0.9996183523737615,1,0.999999
0.9993815836826186,1,0.999999
0.999999784058969,1,0.999999
0.9999999968671336,1,0.999999
0.999999999880889,1,0.999999
0.9997193311336456,1,0.999999
0.9998840643951409,1,0.999999
0.9999984252032553,1,0.999997
0.999999991596071,1,0.999999
0.9999999999695726,1,0.999999
0.9999999999999991,1,0.999999
0.9997386666755341,1,0.999999
0.9999997862133189,1,0.999999
0.999999999998651,1,0.999999
0.9999999999999454,1,0.999999
1.0,1,0.999999
0.9999999999999771,1,0.999999
0.9999985148398015,1,0.999999
0.9999999991719329,1,0.999999
0.9999999998695261,1,0.999999
0.9999999999129663,1,0.999999
0.9999999999762852,1,0.999999
0.9999999999999819,1,0.999999
1.0,1,0.999999
0.9999999999999847,1,0.999999
0.999999999999987,1,0.999999
0.9996774871164493,1,0.999999
0.9999997314992501,1,0.999999
0.9999999656394715,1,0.999999
0.9999999999966936,1,0.999999
0.9999999999998874,1,0.999999
0.9999999999998849,1,0.999999
0.9999999999999337,1,0.999999
0.9999999999999618,1,0.999999
0.9999999999999826,1,0.999999
1.0,1,0.999999
0.9999996854527033,1,0.999999
0.9999999996610777,1,0.999999
0.999999999961953,1,0.999999
1.0,1,0.999999
1.0,1,0.999999
0.9834041290485454,1,0.999999
0.9980889589414857,1,0.999999
0.9996734295562394,1,0.999999
0.999999501130255,1,0.999999
0.9999999974805656,1,0.999999
0.9999999999961017,1,0.999999
0.9999999999992618,1,0.999999
0.9999999999999659,1,0.999999
0.9987215968021304,1,0.999999
0.9996190215863566,1,0.999999
0.9999993871135529,1,0.999999
0.9999999998659517,1,0.999999
0.9999997930548978,1,0.999999
0.9999999589380814,1,0.999998
0.9999999791827169,1,0.999999
0.9998412910224834,1,0.999999
0.9998891065379735,1,0.999999
0.9999975319639391,1,0.999999
0.9999999973854611,1,0.999999
0.9999999995424338,1,0.999999
0.9999999999999795,1,0.999999
0.9999999999999926,1,0.999999
0.9999999990969081,1,0.999999
0.9999999999532394,1,0.999999
0.9998144035161387,1,0.999999
0.9999828306493167,1,0.999999
0.9999207258370356,1,0.999999
0.9999999788159984,1,0.999999
0.9999556371588699,1,0.999999
0.999989276007667,1,0.999999
0.9999972597259791,1,0.999999
0.9999999877858609,1,0.999999
0.9999999993041204,1,0.999999
0.999999999999829,1,0.999999
0.9999999999999478,1,0.999999
1.0,1,0.999999
1.0,1,0.999999
1.0,1,0.999999
0.9999999999999677,1,0.999999
0.9999999999999288,1,0.999999
1.0,1,0.999999
0.9999999999998903,1,0.999999
0.9999999999999291,1,0.999999
0.9999999999998934,1,0.999999
0.9999999999999758,1,0.999999
1.0,1,0.999999
0.9999999999999306,1,0.999999
0.9999495630059216,1,0.999999
0.9999999999999829,1,0.999999
0.9997370638778533,1,0.999999
0.9999999861279393,1,0.999999
0.9998443431831595,1,0.999999
0.9999257532376469,1,0.999999
0.9999983092964851,1,0.999999
0.9999999999736464,1,0.999999
1.0,1,0.999999
0.9999999999999722,1,0.999999
0.9997316744944845,1,0.999999
0.9999995301602116,1,0.999999
0.9998908440009623,1,0.999999
0.9999993297609503,1,0.999999
0.999999980007871,1,0.999999
0.9999999999966492,1,0.999999
0.9999999999999947,1,0.999999
0.9998354318792787,1,0.999999
0.99999576043357,1,0.999999
0.9999451951525484,1,0.999999
0.9994241135637215,1,0.999999
0.9999788244097467,1,0.999999
0.9999979322235962,1,0.999999
0.9999998039093005,1,0.999999
0.9996937472255539,1,0.999999
0.9999529379871915,1,0.999999
0.9999138051659137,1,0.999999
0.9999999997013795,1,0.999999
0.9999999999991948,1,0.999999
1.0,1,0.999999
0.999999999999974,1,0.999999
0.9990524964265849,1,0.999999
0.9999714013674891,1,0.999999
0.999992979515283,1,0.999999
0.9999999918453376,1,0.999999
0.9995613796942778,1,0.999999
0.9997749272449472,1,0.999999
0.9999973024315466,1,0.999999
0.999989203992808,1,0.999999
0.999999996210351,1,0.999999
0.9999331704783226,1,0.999999
0.9999999532952192,1,0.999999
0.9999999999995592,1,0.999999
0.9999998514041178,1,0.999999
0.999999983540616,1,0.999999
0.9999999972548367,1,0.999999
0.9997964058048738,1,0.999999
0.9998589713522891,1,0.999999
0.9999999968451583,1,0.999999
0.9999999999999422,1,0.999999
0.9999745985939107,1,0.999999
0.9999328636167605,1,0.999998
0.9998844007910082,1,0.999999
0.999661795864219,1,0.999999
0.9999937187039913,1,0.999999
0.9999999998752256,1,0.999999
0.9988164692109763,1,0.999999
0.9996144785840351,1,0.999999
0.9997733771517789,1,0.999999
0.9999936112181462,1,0.999999
0.9999634659729062,1,0.999999
0.9999830653588145,1,0.999999
0.9991669271555992,1,0.999999
0.9999999916699451,1,0.999999
0.999999999844849,1,0.999999
0.9998656928453568,1,0.999999
0.9999940609098648,1,0.999999
0.9999999859996339,1,0.999999
0.999999999955946,1,0.999999
0.9999999999935972,1,0.999999
0.9999999999998567,1,0.999999
0.9998206489222407,1,0.999999
0.999982485241967,1,0.999999
0.9999999996615216,1,0.999999
0.9999999186249028,1,0.999999
0.9999999970990092,1,0.999999
0.9999999999963456,1,0.999999
0.99999999999669,1,0.999999
0.9997413092708646,1,0.999999
0.9998371770134851,1,0.999999
0.999942947180597,1,0.999999
0.9999966300543265,1,0.999999
0.9999999999989208,1,0.999999
1.0,1,0.999999
0.9999709220140117,1,0.999999
0.9998574865394276,1,0.999999
0.9999990060979157,1,0.999999
0.9999999999702538,1,0.999999
0.9997653769848952,1,0.999999
0.9999962523199071,1,0.999999
0.9999999999979889,1,0.999999
0.999999999999981,1,0.999999
1.0,1,0.999999
0.9999999999999054,1,0.999999
0.9999999999998916,1,0.999999
1.0,1,0.999999
1.0,1,0.999999
0.9999982599736319,1,0.999999
0.9999999913573729,1,0.999999
0.9999999989635925,1,0.999999
0.9999999998885947,1,0.999999
0.9999999999891238,1,0.999999
0.9999999999935245,1,0.999999
0.9990812746755222,1,0.999999
0.9992541674838028,1,0.999999
0.9999809538344873,1,0.999999
0.9999996572806937,1,0.999999
0.9999999781217024,1,0.999999
0.9999999996038104,1,0.999999
0.999999999999885,1,0.999999
1.0,1,0.999999
0.9998534461178042,1,0.999999
0.9999999789287738,1,0.999999
0.9999999820424332,1,0.999999
0.9999999949059966,1,0.999999
0.9999999997534695,1,0.999999
0.999999999996765,1,0.999999
0.9999999999998795,1,0.999999
0.9998594900982062,1,0.999999
0.9999979469783913,1,0.999999
0.9999999990588146,1,0.999999
0.9999999999999928,1,0.999999
0.9999999999999668,1,0.999999
0.9999999999999706,1,0.999999
0.9999999999999903,1,0.999999
1.0,1,0.999999
0.9999481572281856,1,0.999999
0.9999999413725701,1,0.999999
0.9997271631195392,1,0.999999
0.999972040344516,1,0.999999
0.9999999980221793,1,0.999999
0.9999999998628195,1,0.999999
0.9999999999626457,1,0.999999
0.9999999999934736,1,0.999999
0.9999999999991248,1,0.999999
0.9999999999995537,1,0.999999
0.9999999999999505,1,0.999999
0.9998367749402567,1,0.999999
0.9999999747005939,1,0.999999
0.9999999990271063,1,0.999999
0.9999999998869056,1,0.999999
0.9999999999747338,1,0.999999
0.9999999999823784,1,0.999999
0.9999999999996193,1,0.999999
0.9999999999997107,1,0.999999
0.9999999999997842,1,0.999999
0.9996878524789348,1,0.999999
0.9999990885002934,1,0.999999
0.9999991998163456,1,0.999999
0.9999993488094794,1,0.999999
0.9999996498763326,1,0.999999
0.9999998914936291,1,0.999999
0.9999999402681433,1,0.999999
0.9999999999995814,1,0.999999
0.9999999999999366,1,0.999999
0.9999999999999665,1,0.999999
0.9999999999999621,1,0.999999
0.9999999999999997,1,0.999999
0.9999999999999091,1,0.999999
0.9999999999999037,1,0.999999
1.0,1,0.999999
0.9998055691782559,1,0.999999
0.9999999997724146,1,0.999999
1.0,1,0.999999
0.999999999999895,1,0.999999
1.0,1,0.999999
1.0,1,0.999999
0.9999999999999698,1,0.999999
1.0,1,0.999999
0.9999999999999513,1,0.999999
1.0,1,0.999999
0.9999999999999937,1,0.999999
0.9995080483851602,1,0.999999
0.9999999252289483,1,0.999999
0.9999999999780512,1,0.999999
0.9999999999999292,1,0.999999
0.9997296114571357,1,0.999999
0.9999999202880655,1,0.999999
0.9999999839254051,1,0.999999
0.999999999922203,1,0.999999
0.9999999999929873,1,0.999999
0.9999999999991801,1,0.999999
0.9999999999996396,1,0.999999
0.9997031705113986,1,0.999999
0.9998202010048681,1,0.999999
0.9999940926621071,1,0.999999
0.9999999507926869,1,0.999999
0.9999999999845087,1,0.999999
0.9999999999890722,1,0.999999
1.0,1,0.999999
0.99980444991179,1,0.999999
0.9999975006896589,1,0.999999
0.9999999950685542,1,0.999999
0.9999999958980277,1,0.999999
0.9998130355551497,1,0.999999
0.9999937456500516,1,0.999999
0.9989963642628682,1,0.999999
0.9999945483428097,1,0.999999
0.9999999999991368,1,0.999999
1.0,1,0.999999
0.9999999999999583,1,0.999999
0.999999999999963,1,0.999999
0.9999999999999901,1,0.999999
1.0,1,0.999999
1.0,1,0.999997
0.9999999999999865,1,0.999999
0.9999999999999625,1,0.999999
1.0,1,0.999999
0.9999999999999412,1,0.999999
0.9999885312691502,1,0.999999
0.9999999437666246,1,0.999999
0.9999999999337965,1,0.999999
0.9999999999946487,1,0.999999
0.9999999999999364,1,0.999999
0.9999999999999678,1,0.999999
0.9999992638593994,1,0.999999
0.999999920906863,1,0.999999
0.999999999906521,1,0.999999
0.9999999999996514,1,0.999999
0.9991330580555202,1,0.999999
0.9994898779046147,1,0.999999
0.9997977795037996,1,0.999999
0.999102552281642,1,0.999998
0.9991241059051729,1,0.999999
0.9999985279839516,1,0.999999
0.9999999820731839,1,0.999999
0.9999999977287701,1,0.999998
0.9999999999993623,1,0.999999
0.9996702471226333,1,0.999999
0.9999997310142678,1,0.999999
0.9999649786454048,1,0.999999
0.9999999996987298,1,0.999999
0.9999926471114191,1,0.999999
0.999999959688623,1,0.999999
0.9999999999753094,1,0.999999
0.999999999999919,1,0.999999
0.9999999999998986,1,0.999999
0.9999999999999644,1,0.999999
1.0,1,0.999999
0.999995430516682,1,0.999999
0.9999999991051317,1,0.999999
0.999999999994772,1,0.999999
0.999843415436684,1,0.999999
0.9999984777062769,1,0.999999
0.9999999962393639,1,0.999999
0.9996395048931749,1,0.999999
0.999999936439102,1,0.999999
0.9999999999998349,1,0.999999
0.9999999998685968,1,0.999999
0.9999999999989103,1,0.999999
1.0,1,0.999999
0.9999999999998276,1,0.999999
0.999971822923453,1,0.999999
0.9999878441178125,1,0.999999
0.9957075241677843,1,0.999999
0.9972791560908117,1,0.999999
0.9995956627110365,1,0.999999
0.9999293788685105,1,0.999999
0.9999996054397964,1,0.999999
0.9998798273605124,1,0.999999
0.9999999860864665,1,0.999999
0.9999950102222681,1,0.999999
0.9999999947423911,1,0.999999
0.99999999999994,1,0.999999
0.9999999999999313,1,0.999999
1.0,1,0.999999
1.0,1,0.999999
0.9999999999999937,1,0.999999
1.0,1,0.999999
0.9999999999999657,1,0.999999
0.9999979319499354,1,0.999999
0.9999700072433336,1,0.999999
0.9999999998725371,1,0.999999
0.9999999999999516,1,0.999999
0.9994320663296957,1,0.999999
0.9999996628697216,1,0.999999
0.9999408008619968,1,0.999999
0.9996800681385606,1,0.999999
0.9999985793163254,1,0.999999
0.9999996387650425,1,0.999999
0.9999999457169775,1,0.999999
0.999999985727881,1,0.999999
0.9999613712717291,1,0.999999
0.9999636638894884,1,0.999999
0.9999658667956307,1,0.999999
0.9999684810818951,1,0.999999
0.9999988686216107,1,0.999999
0.9982245685157184,1,0.999999
0.9989653192665006,1,0.999999
0.9999416788264472,1,0.999999
0.9999978588742189,1,0.999999
0.9999995233406741,1,0.999999
0.9999999840780132,1,0.999999
0.9999999958292523,1,0.999999
0.9999887714637128,1,0.999999
0.9999981340616803,1,0.999999
0.9999985539466119,1,0.999999
0.9999993456152095,1,0.999999
0.9999999735249416,1,0.999999
0.9999999998058344,1,0.999999
0.9999999998691694,1,0.999999
0.9999999999997594,1,0.999999
0.9999720534107845,1,0.999999
0.9999911462030556,1,0.999999
0.999999275221905,1,0.999999
0.999563033978552,1,0.999999
0.9999870769458138,1,0.999999
0.9999996877793255,1,0.999999
0.9999999999949452,1,0.999999
0.9999999999998843,1,0.999999
0.9998731672650696,1,0.999999
0.9999999213256427,1,0.999999
0.9999987077380843,1,0.999999
0.9999999669713968,1,0.999999
0.9999999999992794,1,0.999999
0.9999999959632015,1,0.999999
0.9999999999990054,1,0.999999
0.9999999999999595,1,0.999999
0.9999999999999912,1,0.999999
0.9999999999999594,1,0.999999
1.0,1,0.999999
0.9995258065074567,1,0.999999
0.9999996129187932,1,0.999999
0.9999999999953487,1,0.999999
0.9997251411546465,1,0.999999
0.9999999999753724,1,0.999999
0.9999999999999923,1,0.999999
0.9999999999999478,1,0.999999
0.9999999999999464,1,0.999999
0.9999631717185814,1,0.999999
0.9999996800338948,1,0.999999
0.9999999480197234,1,0.999999
0.9999999950727086,1,0.999999
0.9999999999993953,1,0.999999
0.99990730374693,1,0.999999
0.9999993298703302,1,0.999999
0.9998447230302846,1,0.999999
0.999867402136397,1,0.999999
0.999999913956966,1,0.999999
0.9999999776777111,1,0.999999
0.9999999853307019,1,0.999999
0.9999999931677049,1,0.999999
0.9999999931677049,1,0.999999
0.9999999931677049,1,0.999999
0.9999999944625428,1,0.999999
0.9999999970903688,1,0.999999
0.9999999971802395,1,0.999999
0.9999999971802395,1,0.999999
0.9999999971802395,1,0.999999
0.9999999974825249,1,0.999999
0.9999999974825249,1,0.999999
0.9999999974825249,1,0.999999
0.9999999974825249,1,0.999999
0.9999999975879257,1,0.999999
0.9999999975879257,1,0.999999
0.9999999977927918,1,0.999999
0.9999999977927918,1,0.999999
0.9999999977927918,1,0.999999
0.9999999988230636,1,0.999999
0.9999999988230636,1,0.999999
0.9999999999818625,1,0.999999
0.9999999999996134,1,0.999999
0.9999999999997127,1,0.999999
0.9999999999997206,1,0.999999
0.9999999999997206,1,0.999999
0.9999999999997734,1,0.999999
0.9999999999997827,1,0.999999
0.9999999999997827,1,0.999999
0.9999999999997827,1,0.999999
0.9999999999998909,1,0.999999
0.9999999999998909,1,0.999999
0.9999999999998909,1,0.999999
0.9999999999997669,1,0.999999
0.9999999999998433,1,0.999999
0.9999999999998433,1,0.999999
0.9999999999998433,1,0.999999
0.9999999999998405,1,0.999999
0.9999999999998405,1,0.999999
0.9999999999998405,1,0.999999
0.9999999999998405,1,0.999999
0.9999999999998851,1,0.999999
0.9999999999998851,1,0.999999
0.9999999999998851,1,0.999999
0.9999999999998851,1,0.999999
0.9999999999998954,1,0.999999
0.9999999999998954,1,0.999999
0.9999999999998954,1,0.999999
0.9999999999998954,1,0.999999
0.9999999999999738,1,0.999999
0.9999999999999738,1,0.999999
0.9999999999999738,1,0.999999
0.9999999999999738,1,0.999999
0.9999999999998294,1,0.999999
0.9999999999998294,1,0.999999
0.9999999999998294,1,0.999999
0.9999999999998294,1,0.999999
0.9999999999998294,1,0.999999
0.9999999999998951,1,0.999999
0.9999999999998501,1,0.999999
0.9999999999998501,1,0.999999
0.9999999999998501,1,0.999999
0.9999999999998501,1,0.999999
0.9999999999998501,1,0.999999
0.9999999999999705,1,0.999999
0.9999999999999705,1,0.999999
0.9999999999999705,1,0.999999
0.9999999999999705,1,0.999999
0.9999999999999705,1,0.999999
0.9999999999999153,1,0.999999
0.9999999999999153,1,0.999999
0.9999999999999153,1,0.999999
0.9999999999999153,1,0.999999
0.9999999999999585,1,0.999999
0.9999999999999585,1,0.999999
0.9999999999999585,1,0.999999
0.9999999999999585,1,0.999999
0.9999999999999585,1,0.999999
0.9999999999999016,1,0.999999
0.9999999999999843,1,0.999999
0.9999999999999843,1,0.999999
0.9999999999999843,1,0.999999
0.9999999999999843,1,0.999999
0.9999999999999843,1,0.999999
0.9999999999999297,1,0.999999
0.9999999999999297,1,0.999999
0.9999999999999297,1,0.999999
0.9999999999999297,1,0.999999
0.9999999999999297,1,0.999999
0.999999999999983,1,0.999999
0.9999999999999823,1,0.999999
0.9999999999999823,1,0.999999
0.9999999999999823,1,0.999999
0.9999999999999823,1,0.999999
0.9999999999999823,1,0.999999
0.999999999999941,1,0.999999
0.999999999999941,1,0.999999
0.999999999999941,1,0.999999
0.999999999999941,1,0.999999
0.999999999999941,1,0.999999
0.999999999999941,1,0.999999
0.999999999999941,1,0.999999
0.9999434073578075,1,0.999999
0.9999434073578075,1,0.999999
0.9999434073578075,1,0.999999
0.9999434073578075,1,0.999999
0.9999434073578075,1,0.999999
0.9999037245255512,1,0.999999
0.9999037245255512,1,0.999999
0.9999037245255512,1,0.999999
0.9999037245255512,1,0.999999
0.9999037245255512,1,0.999999
0.9999037245255512,1,0.999999
0.9999037245255512,1,0.999999
0.9999037245255512,1,0.999999
0.9999037245255512,1,0.999999
0.9999037245255512,1,0.999999
0.9999037245255512,1,0.999999
0.9999037245255512,1,0.999999
0.9999037245255512,1,0.999999
0.9997774990774296,1,0.999999
0.9995433291082403,1,0.999999
0.9995433291082403,1,0.999999
0.9995433291082403,1,0.999999
0.9995433291082403,1,0.999999
0.9995433291082403,1,0.999999
0.9995433291082403,1,0.999999
0.9987394994425649,1,0.999999
0.9987394994425649,1,0.999999
0.9980039993617764,1,0.999999
0.9980039993617764,1,0.999999
0.9980039993617764,1,0.999999
0.9980039993617764,1,0.999999
0.9980039993617764,1,0.999999
0.9980039993617764,1,0.999999
0.9980039993617764,1,0.999999
0.9980039993617764,1,0.999999
0.9980039993617764,1,0.999999
0.9980039993617764,1,0.999999
0.9980039993617764,1,0.999999
0.9980039993617764,1,0.999999
0.9980039993617764,1,0.999999
0.9980039993617764,1,0.999999
0.9980039993617764,1,0.999999
0.9980039993617764,1,0.999999
0.9975543016169098,1,0.999999
0.9975543016169098,1,0.999999
0.9975543016169098,1,0.999999
0.9975543016169098,1,0.999999
0.9975543016169098,1,0.999999
0.9975543016169098,1,0.999999
0.9975543016169098,1,0.999999
0.9968497348659474,1,0.999999
0.9968497348659474,1,0.999999
0.9968497348659474,1,0.999999
0.9968497348659474,1,0.999999
0.9968497348659474,1,0.999999
0.9968497348659474,1,0.999999
0.9968497348659474,1,0.999999
0.9968497348659474,1,0.999999
0.9964978662694927,1,0.999999
0.9964978662694927,1,0.999999
0.9964978662694927,1,0.999999
0.9964978662694927,1,0.999999
0.9964978662694927,1,0.999999
0.9964978662694927,1,0.999999
0.9964978662694927,1,0.999999
0.9961934868391142,1,0.999999
0.9961934868391142,1,0.999999
0.9961934868391142,1,0.999999
0.9961934868391142,1,0.999999
0.9961934868391142,1,0.999999
0.9961934868391142,1,0.999999
0.9961934868391142,1,0.999999
0.9961934868391142,1,0.999999
0.9959383714383001,1,0.999999
0.9959383714383001,1,0.999999
0.9959383714383001,1,0.999999
0.9959383714383001,1,0.999999
0.9959383714383001,1,0.999999
0.9959383714383001,1,0.999999
0.9959383714383001,1,0.999999
0.9959383714383001,1,0.999999
0.9957780458331197,1,0.999999
0.9957780458331197,1,0.999999
0.9957780458331197,1,0.999999
0.9957780458331197,1,0.999999
0.9957780458331197,1,0.999999
0.9957780458331197,1,0.999999
0.9957780458331197,1,0.999999
0.9955609431958767,1,0.999999
0.9955609431958767,1,0.999999
0.9955609431958767,1,0.999999
0.9955609431958767,1,0.999999
0.9955609431958767,1,0.999999
0.9955609431958767,1,0.999999
0.9955609431958767,1,0.999999
0.9955609431958767,1,0.999999
0.9955609431958767,1,0.999999
0.9955609431958767,1,0.999999
0.9955609431958767,1,0.999999
0.9955609431958767,1,0.999999
0.9955609431958767,1,0.999999
0.9955609431958767,1,0.999999
0.9955609431958767,1,0.999999
0.9955609431958767,1,0.999999
0.9955609431958767,1,0.999999
0.9949809075757735,1,0.999999
0.9949809075757735,1,0.999999
0.9949809075757735,1,0.999999
0.9949809075757735,1,0.999999
0.9949809075757735,1,0.999999
0.9949809075757735,1,0.999999
0.9949809075757735,1,0.999999
0.9949809075757735,1,0.999999
0.9949809075757735,1,0.999999
0.9949809075757735,1,0.999999
0.9949809075757735,1,0.999999
0.9949809075757735,1,0.999999
0.9949809075757735,1,0.999999
0.9949809075757735,1,0.999999
0.9949809075757735,1,0.999999
0.9949809075757735,1,0.999999
0.9949809075757735,1,0.999999
0.9949809075757735,1,0.999999
0.9939963643100427,1,0.999999
0.9939963643100427,1,0.999999
0.9939963643100427,1,0.999999
0.9939963643100427,1,0.999999
0.9939963643100427,1,0.999999
0.9939963643100427,1,0.999999
0.9939963643100427,1,0.999999
0.9939963643100427,1,0.999999
0.9936267993024557,1,0.999999
0.9930568755643906,1,0.999999
0.9930568755643906,1,0.999999
0.9930568755643906,1,0.999999
0.9930568755643906,1,0.999999
0.9930568755643906,1,0.999999
0.9930568755643906,1,0.999999
0.9930568755643906,1,0.999999
0.9930568755643906,1,0.999999
0.9927412385360052,1,0.999999
0.9927412385360052,1,0.999999
0.9927412385360052,1,0.999999
0.9927412385360052,1,0.999999
0.9927412385360052,1,0.999999
0.9927412385360052,1,0.999999
0.9927412385360052,1,0.999999
0.9927412385360052,1,0.999999
0.9927412385360052,1,0.999999
0.9925786453003311,1,0.999999
0.9925786453003311,1,0.999999
0.9925786453003311,1,0.999999
0.9925786453003311,1,0.999999
0.9925786453003311,1,0.999999
0.9925786453003311,1,0.999999
0.9925786453003311,1,0.999999
0.9925786453003311,1,0.999999
0.9925786453003311,1,0.999999
0.9928347876705813,1,0.999999
0.9928347876705813,1,0.999999
0.9928347876705813,1,0.999999
0.9928347876705813,1,0.999999
0.9928347876705813,1,0.999999
0.9928347876705813,1,0.999999
0.9928347876705813,1,0.999999
0.9928347876705813,1,0.999999
0.9928347876705813,1,0.999999
0.9996190576579252,1,0.999999
0.9996190576579252,1,0.999999
0.9996190576579252,1,0.999999
0.9996190576579252,1,0.999999
0.9996190576579252,1,0.999999
0.9996190576579252,1,0.999999
0.9996190576579252,1,0.999999
0.9996190576579252,1,0.999999
0.9996234357099278,1,0.999999
0.9996234357099278,1,0.999999
0.9996234357099278,1,0.999999
0.9996234357099278,1,0.999999
0.9996234357099278,1,0.999999
0.9996234357099278,1,0.999999
0.9996234357099278,1,0.999999
0.9996234357099278,1,0.999999
0.9999210480243574,1,0.999999
0.9996574568032071,1,0.999999
0.9999996893329411,1,0.999999
0.9999999767511897,1,0.999999
0.9999999993764634,1,0.999999
0.9999999993883951,1,0.999999
0.9999999994216088,1,0.999999
0.9999999994448181,1,0.999999
0.9999999999465612,1,0.999999
0.9999999999552491,1,0.999999
0.9999999999552491,1,0.999999
0.9999999999552491,1,0.999999
0.9999999999552491,1,0.999999
0.9999999999552491,1,0.999999
0.9999999999552491,1,0.999999
0.9999999999552491,1,0.999999
0.9999999999552491,1,0.999999
0.9999999999552491,1,0.999999
0.9999999999552491,1,0.999999
0.999999999956213,1,0.999999
0.999999999956213,1,0.999999
0.999999999956213,1,0.999999
0.999999999956213,1,0.999999
0.999999999956213,1,0.999999
0.999999999956213,1,0.999999
0.999999999956213,1,0.999999
0.999999999956213,1,0.999999
0.9999999999569804,1,0.999999
0.9999999999569804,1,0.999999
0.9999999999569804,1,0.999999
0.9999999999569804,1,0.999999
0.9999999999569804,1,0.999999
0.9999999999569804,1,0.999999
0.9999999999569804,1,0.999999
0.9999999999569804,1,0.999999
0.9999999999569804,1,0.999999
0.9999999999587036,1,0.999999
0.9999999999587036,1,0.999999
0.9999999999587036,1,0.999999
0.9999999999587036,1,0.999999
0.9999999999587036,1,0.999999
0.9999999999587036,1,0.999999
0.9999999999587036,1,0.999999
0.9999999999587036,1,0.999999
0.9999999999587036,1,0.999999
0.9999999999587036,1,0.999999
0.9999999999593135,1,0.999999
0.9999999999593135,1,0.999999
0.9999999999593135,1,0.999999
0.9999999999593135,1,0.999999
0.9999999999593135,1,0.999999
0.9999999999593135,1,0.999999
0.9999999999593135,1,0.999999
0.9999999999593135,1,0.999999
0.9999999999593135,1,0.999999
0.9999999999593135,1,0.999999
0.9999999999593135,1,0.999999
0.9999999999593135,1,0.999999
0.9999999999593135,1,0.999999
0.9999999999593135,1,0.999999
0.9999367053346233,1,0.999999
0.9999367053346233,1,0.999999
0.9999367053346233,1,0.999999
0.9999367053346233,1,0.999999
0.9999367053346233,1,0.999999
0.9999367053346233,1,0.999999
0.9999367053346233,1,0.999999
0.9999367053346233,1,0.999999
0.9999367053346233,1,0.999999
0.9999140651316105,1,0.999999
0.9999140651316105,1,0.999999
0.9999140651316105,1,0.999999
0.9999140651316105,1,0.999999
0.9999140651316105,1,0.999999
0.9999140651316105,1,0.999999
0.9999140651316105,1,0.999999
0.9999140651316105,1,0.999999
0.9999140651316105,1,0.999999
0.9999140651316105,1,0.999999
0.9996000024948147,1,0.999999
0.9993223556209242,1,0.999999
0.9993223556209242,1,0.999999
0.9993223556209242,1,0.999999
0.9993223556209242,1,0.999999
0.9993223556209242,1,0.999999
0.9993223556209242,1,0.999999
0.9993223556209242,1,0.999999
0.9993223556209242,1,0.999999
0.9993223556209242,1,0.999999
0.9993223556209242,1,0.999999
0.9992648962814206,1,0.999999
0.9987465778043685,1,0.999999
0.9987465778043685,1,0.999999
0.9987465778043685,1,0.999999
0.9987465778043685,1,0.999999
0.9987465778043685,1,0.999999
0.9987465778043685,1,0.999999
0.9987465778043685,1,0.999999
0.9987465778043685,1,0.999999
0.9987465778043685,1,0.999999
0.9987465778043685,1,0.999999
0.9987465778043685,1,0.999999
0.9991657016360201,1,0.999999
0.9991657016360201,1,0.999999
0.9991657016360201,1,0.999999
0.9991657016360201,1,0.999999
0.9991657016360201,1,0.999999
0.9991657016360201,1,0.999999
0.9991657016360201,1,0.999999
0.9991657016360201,1,0.999999
0.9991657016360201,1,0.999999
0.9991657016360201,1,0.999999
0.9991734481198635,1,0.999999
0.9991734481198635,1,0.999999
0.9991734481198635,1,0.999999
0.9991734481198635,1,0.999999
0.9991734481198635,1,0.999999
0.9991734481198635,1,0.999999
0.9991734481198635,1,0.999999
0.9991734481198635,1,0.999999
0.9991734481198635,1,0.999999
0.9991734481198635,1,0.999999
0.9991734481198635,1,0.999999
0.9991860550824512,1,0.999999
0.9991860550824512,1,0.999999
0.9991860550824512,1,0.999999
0.9991860550824512,1,0.999999
0.9991860550824512,1,0.999999
0.9991860550824512,1,0.999999
0.9991860550824512,1,0.999999
0.9991860550824512,1,0.999999
0.9991860550824512,1,0.999999
0.9991860550824512,1,0.999999
0.9991860550824512,1,0.999999
0.9991860550824512,1,0.999999
0.9991860550824512,1,0.999999
0.9991860550824512,1,0.999999
0.9991860550824512,1,0.999999
0.9991860550824512,1,0.999999
0.9991860550824512,1,0.999999
0.9991860550824512,1,0.999999
0.9991860550824512,1,0.999999
0.9991860550824512,1,0.999999
0.9991860550824512,1,0.999999
0.9991318417419102,1,0.999999
0.9990674693002319,1,0.999998
0.9990674693002319,1,0.999999
0.9990674693002319,1,0.999999
0.9990674693002319,1,0.999999
0.9990674693002319,1,0.999999
0.9990674693002319,1,0.999999
0.9990674693002319,1,0.999999
0.9990674693002319,1,0.999999
0.9988840043373689,1,0.999999
0.9988840043373689,1,0.999999
0.9988840043373689,1,0.999999
0.9988840043373689,1,0.999999
0.9988840043373689,1,0.999999
0.9988840043373689,1,0.999999
0.9984982668450666,1,0.999999
0.9983097666715431,1,0.999999
0.9983097666715431,1,0.999999
0.9983097666715431,1,0.999999
0.9983097666715431,1,0.999999
0.9983097666715431,1,0.999999
0.9983097666715431,1,0.999999
0.9983097666715431,1,0.999999
0.9983097666715431,1,0.999999
0.9983097666715431,1,0.999999
0.9983097666715431,1,0.999999
0.9983097666715431,1,0.999999
0.9983097666715431,1,0.999999
0.9978377219942473,1,0.999999
0.9978377219942473,1,0.999999
0.9978377219942473,1,0.999999
0.9978377219942473,1,0.999999
0.9978377219942473,1,0.999999
0.9978377219942473,1,0.999999
0.9978377219942473,1,0.999999
0.9978377219942473,1,0.999999
0.9978377219942473,1,0.999999
0.9978377219942473,1,0.999999
0.9978397215119933,1,0.999999
0.9978397215119933,1,0.999999
0.9978397215119933,1,0.999999
0.9978397215119933,1,0.999999
0.9978397215119933,1,0.999999
0.9978397215119933,1,0.999999
0.9978397215119933,1,0.999999
0.9978783537573095,1,0.999999
0.9978783537573095,1,0.999999
0.9978783537573095,1,0.999999
0.9978783537573095,1,0.999999
0.9978783537573095,1,0.999999
0.9978783537573095,1,0.999999
0.9978783537573095,1,0.999999
0.997896386414911,1,0.999999
0.997896386414911,1,0.999999
0.997896386414911,1,0.999999
0.997896386414911,1,0.999999
0.997896386414911,1,0.999999
0.997896386414911,1,0.999999
0.997896386414911,1,0.999999
0.997896386414911,1,0.999999
