-3.4535182715367897E-4,0,0.133442
-3.105582936929139E-4,0,0.130272
-3.105582936929139E-4,0,0.128692
-3.105582936929139E-4,0,0.128946
-3.105582936929139E-4,0,0.129206
-3.105582936929139E-4,0,0.129472
-3.105582936929139E-4,0,0.129743
-3.105582936929139E-4,0,0.130021
-3.105582936929139E-4,0,0.130306
-3.105582936929139E-4,0,0.130597
-3.105582936929139E-4,0,0.130909
-3.105582936929139E-4,0,0.131230
-3.105582936929139E-4,0,0.131558
-3.105582936929139E-4,0,0.131866
-3.105582936929139E-4,0,0.129785
-0.0012642466400133838,0,0.123140
-0.0012642466400133838,0,0.123151
-0.0012642466400133838,0,0.123379
-0.0012642466400133838,0,0.123613
-0.0012642466400133838,0,0.123852
-0.0012642466400133838,0,0.124096
-0.0012642466400133838,0,0.124347
-0.0012642466400133838,0,0.124746
-0.0012642466400133838,0,0.124957
-0.0012642466400133838,0,0.125245
-0.0012642466400133838,0,0.125540
-0.0012642466400133838,0,0.125842
-0.0012642466400133838,0,0.127058
-0.0012932565094052673,0,0.124597
-0.001903236858153808,0,0.436490
-0.001903236858153808,0,0.124266
-0.001903236858153808,0,0.124516
-0.001903236858153808,0,0.124773
-0.001903236858153808,0,0.125037
-0.001903236858153808,0,0.125307
-0.001903236858153808,0,0.125583
-0.001903236858153808,0,0.125867
-0.001903236858153808,0,0.126248
-0.001903236858153808,0,0.126561
-0.001903236858153808,0,0.126887
-0.001903236858153808,0,0.127231
0.03317675115876252,0,0.712753
0.03284633925229412,0,0.192926
0.03276011233604748,0,0.125509
0.03276011233604748,0,0.125751
0.03276011233604748,0,0.125999
0.03276011233604748,0,0.126254
0.03276011233604748,0,0.126515
0.03276011233604748,0,0.126783
0.03276011233604748,0,0.127068
0.03276011233604748,0,0.127413
0.03304904960426327,0,0.970724
0.03311388977379693,0,0.126117
0.03311388977379693,0,0.126008
0.033448481932736335,0,0.126156
0.033448481932736335,0,0.126067
0.033448481932736335,0,0.126012
0.033443695061139485,0,0.126180
0.03343742539490425,0,0.126226
0.03343325525405177,0,0.126328
0.03342505215838586,0,0.126230
0.03342505215838586,0,0.126270
0.027300891500701165,0,0.126305
0.027300891500701165,0,0.126557
0.027300891500701165,0,0.126496
0.02764736373103887,0,0.958268
0.02764002700752115,0,0.126660
0.02764002700752115,0,0.126890
0.02764002700752115,0,0.127015
0.02781818100168062,0,0.128431
0.027808818751349922,0,0.606247
0.027778240845153252,0,0.134226
0.027753877397857837,0,0.223696
0.027723545905176367,0,0.224534
0.027694014144264104,0,0.225669
0.022111157122000506,0,0.952883
0.021781579252503645,0,0.687217
0.01800486060425951,0,0.685563
0.016593866766401125,0,0.627092
0.020094078539493708,0,0.840889
0.040442114745568004,0,0.956233
0.05176768477285308,0,0.767420
0.05708028710503109,0,0.330270
0.06385558321614986,1,0.999989
0.09335939650348342,0,0.994014
0.15412668669787438,0,0.909808
0.17121613533269975,1,0.999992
0.1498967149760272,0,0.623736
0.12339593820232014,0,0.898111
0.12638489438780498,0,0.906453
0.1648555252655725,0,0.951684
0.1729568792795306,0,0.914907
0.18101734077479403,0,0.772665
0.1814788689520436,0,0.998092
0.18147221391220691,0,0.275746
0.18147072380895074,0,0.873026
0.18147154454241482,0,0.696749
0.18147966630222817,0,0.213787
0.18149111699487494,0,0.495647
0.18150730591399403,0,0.262039
0.18150360858653827,0,0.234533
0.1814963609993995,0,0.496474
0.18149453073569738,0,0.142540
0.18149453073569738,0,0.137205
0.18150237861046944,0,0.183013
0.18150237861046944,0,0.137582
0.18150207341613153,0,0.139897
0.1815017682244948,0,0.142356
0.1815017682244948,0,0.136744
0.18145999027744625,0,0.139530
0.18145972592966703,0,0.141368
0.18145972592966703,0,0.134467
0.1814527581074335,0,0.137306
0.18145214566448917,0,0.138953
0.18145214566448917,0,0.132012
0.18144821051973312,0,0.231980
0.18145610951310062,0,0.138136
0.18145593250462946,0,0.648460
0.18145593250462946,0,0.136599
0.18145575549720683,0,0.140372
0.18145575549720683,0,0.135439
0.1814555784908837,0,0.140315
0.1814555784908837,0,0.133229
0.18145540148565067,0,0.139254
0.18145522448147577,0,0.962170
0.18145522448147577,0,0.137971
0.18145504747839447,0,0.625451
0.18145504747839447,0,0.136949
0.18145487047639736,0,0.962869
0.18145487047639736,0,0.135921
