-1.5550269411837136E-4,0,0.134768
-1.5550264017673466E-4,0,0.134927
-1.5550259498487814E-4,0,0.134607
-1.555025501537368E-4,0,0.134024
-1.5550250969746744E-4,0,0.133923
-1.5550246924119285E-4,0,0.133989
-1.555024604950231E-4,0,0.133749
-1.555024604950231E-4,0,0.129094
-1.555024604950231E-4,0,0.129111
-1.555024604950231E-4,0,0.129368
-1.555024604950231E-4,0,0.129631
-1.555024604950231E-4,0,0.129900
-1.555024604950231E-4,0,0.130175
-1.555024604950231E-4,0,0.130457
-1.555024604950231E-4,0,0.130744
-1.555024604950231E-4,0,0.131040
-1.555024604950231E-4,0,0.131342
-1.555024604950231E-4,0,0.131651
-1.555024604950231E-4,0,0.131968
-1.555024604950231E-4,0,0.130925
-3.3589562369674194E-4,0,0.132011
-3.5890252678645997E-4,0,0.131048
-4.183715141506645E-5,0,0.129847
-4.183715141506645E-5,0,0.129079
-4.183715141506645E-5,0,0.129341
-4.183715141506645E-5,0,0.129608
-4.183715141506645E-5,0,0.129882
-4.183715141506645E-5,0,0.130162
-4.183715141506645E-5,0,0.130449
-4.183715141506645E-5,0,0.130742
-4.183715141506645E-5,0,0.131042
-4.183715141506645E-5,0,0.131349
-4.183715141506645E-5,0,0.131664
-4.183715141506645E-5,0,0.131986
0.0013255864886284863,0,0.133737
0.0013255864886284863,0,0.129157
0.0013255864886284863,0,0.129202
0.0013255864886284863,0,0.129466
0.0013255864886284863,0,0.129736
0.0013255864886284863,0,0.130012
0.0013255864886284863,0,0.130294
0.0013255864886284863,0,0.130583
0.0013255864886284863,0,0.130880
0.0013255864886284863,0,0.131182
0.0013255864886284863,0,0.131492
0.0013255864886284863,0,0.131810
0.002679652820366809,0,0.133890
0.002679652820366809,0,0.129285
0.002679652820366809,0,0.129331
0.002679652820366809,0,0.129596
0.002679652820366809,0,0.129868
0.002679652820366809,0,0.130146
0.002679652820366809,0,0.130430
0.002679652820366809,0,0.130721
0.002679652820366809,0,0.131019
0.002679652820366809,0,0.131323
0.002679652820366809,0,0.131635
