0.7761774695273537,1,0.970968
0.9317201555162987,0,0.949153
0.9467767124428711,1,0.992537
0.9398479280846638,0,0.948980
0.9238989962971593,1,0.991379
0.9199401011064284,1,0.971698
0.9135470298022922,1,0.959016
0.9156499290575012,1,0.938931
0.9195833146494174,0,0.887006
0.9193700967333539,1,0.963855
0.9188302987086654,1,0.978571
0.9210016765165892,1,0.995816
0.9195899864705961,0,0.753425
0.91655969926057,0,0.933775
0.415028474598491,1,0.980392
0.505892088804586,0,0.547872
0.6190641403546188,1,0.990654
0.8527220565104606,1,0.994764
0.9402899151430896,1,0.980337
0.9570265425232061,1,0.985401
0.9627864027090826,1,0.988024
0.9535551463152991,1,0.987069
0.9454435081012472,1,0.971989
0.9407454454313243,1,0.984772
0.9399712658209425,1,0.993671
0.9372761513405231,0,0.955801
0.9367516747578205,1,0.994872
0.9372731558348674,1,0.994709
0.30675798492897993,1,0.987212
0.3125965347108142,1,0.982456
0.32266522511232676,1,0.995283
0.35388623248401063,1,0.997312
0.475937862803569,0,0.941919
0.9607066449799734,1,0.997442
0.9685195777405685,1,0.988636
0.9625201013746739,1,0.995305
0.9615158055905915,1,0.977839
0.9615615264216764,1,0.975410
0.9605767852856552,1,0.994924
0.9602647981881709,1,0.994898
0.9605393834707108,1,0.989744
0.9614691894227708,1,0.975610
0.962250552769264,1,0.994652
0.9626154103005062,1,0.997191
0.21053559050077575,1,0.997268
0.2173039046703458,1,0.994350
0.2271688743660646,1,0.997283
0.24553201509261552,1,0.996894
0.29405980063196263,0,0.895939
0.49095319483906297,1,0.997268
0.9734220342381692,0,0.949198
0.9716511647416162,1,0.983936
0.9735900814524286,1,0.994475
0.9745945522863377,1,0.992424
0.973956342129187,1,0.992424
0.9737414416807908,1,0.997423
0.9722570020022886,1,0.997449
0.9730718755956836,1,0.995192
0.9747131970410335,0,0.953560
0.9751455087376635,1,0.988024
0.9754756959446615,0,0.930921
0.16189511008246604,0,0.955172
0.18277657476956619,1,0.993311
0.19166264682309228,1,0.996923
0.2033459133759269,0,0.805128
0.22688452036128948,0,0.867580
0.2760951914205819,1,0.976331
0.3599198056840438,0,0.944724
0.48143007863072,1,0.997283
0.7195764457813897,1,0.996875
0.8325756656382036,0,0.938272
0.931105538443801,1,0.996875
0.9634950245384879,0,0.872727
0.975390467240931,1,0.997449
0.9792274950748485,1,0.997183
0.9809673952151095,1,0.991404
0.9819383329584316,1,0.990385
0.9826849082351675,1,0.984894
0.9829431245210195,1,0.997347
0.9830569480753142,0,0.646341
0.9833336937689773,0,0.898734
0.1463374177046875,0,0.901235
0.1551205049659099,1,0.993631
0.16730814571418978,0,0.823834
0.18962077971329006,1,0.996815
0.22641723247844467,1,0.992228
0.31456275356447794,1,0.973294
0.5558006368581743,1,0.993921
0.8877073427768247,1,0.987245
0.9636297620327423,1,0.997409
0.9776585365576943,1,0.997409
0.9817506859735896,1,0.997191
0.9829123719266054,1,0.997409
0.9839464768344295,1,0.997423
0.9850056950078696,1,0.984802
0.9857509264835546,0,0.726562
0.9861634557041528,1,0.983051
0.9863863172175539,1,0.997230
0.9863408251837938,1,0.992443
0.9859456434056647,1,0.997191
0.9853109992087213,1,0.979042
0.9847464239065284,1,0.994652
0.1301141567368323,1,0.997101
0.14253634064672965,0,0.909320
0.16138237951196407,0,0.913706
0.17984111732986907,0,0.866864
0.2032858240192393,1,0.991329
0.26053975233001414,0,0.895000
0.41665354551346684,0,0.920000
0.8191740870895394,1,0.981818
0.9621523404843207,1,0.994565
0.9865220087166572,1,0.995000
0.9901558055726936,1,0.993939
0.9894034683775605,1,0.997436
0.9879445359874907,1,0.997006
0.9868108706880314,1,0.997354
0.9858770443729274,1,0.997423
0.9848950828477805,1,0.997340
0.9838480299873935,1,0.997347
0.9828502896969368,1,0.997449
0.9820597353183725,1,0.997305
0.9819433119522973,1,0.997462
0.9816128606114145,1,0.997494
0.9813829088086264,1,0.997475
0.9810543424728475,1,0.997449
0.10694922278894434,0,0.906566
0.11728423823860885,0,0.910000
0.1357476105809375,1,0.994550
0.1638340215689026,0,0.917500
0.21299091920995863,1,0.997093
0.34629831179896237,0,0.938776
0.7348049352951899,1,0.996875
0.953067802049022,1,0.997093
0.970198598553255,1,0.996988
0.9773143048717944,1,0.997449
0.9806026380893953,1,0.997006
0.9825500957531904,1,0.996933
0.9839384118495705,1,0.997175
0.9849839837674681,1,0.997436
0.9854488658478148,1,0.996933
0.9856395624550283,1,0.997436
0.9855861334535561,1,0.996700
0.9853753725436101,1,0.997436
0.9850921567042726,1,0.997436
0.9847279316417085,1,0.996845
0.984354812708701,1,0.997245
0.9839860429877193,1,0.994203
0.9835601382690784,1,0.997506
0.9834747796915082,1,0.995000
0.10341099744404866,1,0.973154
0.1139043453412824,0,0.833803
0.13206969910845834,0,0.882500
0.15912324071733847,1,0.996795
0.20444579777136457,0,0.914601
0.30252190400482193,1,0.996933
0.5510369236255876,0,0.942356
0.8393675945900565,1,0.996885
0.942295555110823,1,0.996845
0.9648915108846533,1,0.977337
0.9719958996408528,1,0.996904
0.9746905142839276,1,0.996183
0.975442586849432,1,0.997487
0.9755040493926392,1,0.997151
0.9792825482626812,1,0.997050
0.9821461398229904,1,0.997059
0.9845038440807653,1,0.997354
0.9866410338717106,1,0.994521
0.9882003460760259,1,0.997118
0.9895043172440521,1,0.997268
0.9902487161896928,1,0.996979
0.9908457678283854,1,0.994318
0.9913413156425653,1,0.997396
0.9917300268635172,1,0.994652
0.9919159083990722,1,0.997041
0.9922360674008571,1,0.997436
0.1018249221260071,1,0.991643
0.11422557149975582,0,0.865337
0.13222680209018683,0,0.877805
0.16029773050352994,0,0.920635
0.20925359153968853,0,0.861582
0.29503057470218824,0,0.933155
0.46335270264579337,0,0.947368
0.7547635435210399,0,0.946176
0.9168749614807663,1,0.987437
0.9580277687579531,1,0.997006
0.9686762622569083,1,0.997494
0.9719072481610291,1,0.981250
0.9728635851572018,1,0.995146
0.9734715895800027,1,0.997297
0.973885858599931,1,0.997409
0.9733965144172054,1,0.997494
0.9730881460457232,1,0.996951
0.9728354697531324,1,0.997487
0.9741084955076125,1,0.997260
0.975014030086459,1,0.997093
0.9755450272801214,1,0.997409
0.9759103689908033,1,0.997382
0.9761646280805448,1,0.997423
0.9766011804604665,1,0.997487
0.9768297779086976,1,0.997101
0.9767958551006801,1,0.984520
0.9768852698230902,1,0.997487
0.976690393185626,1,0.997290
0.9771178174157398,1,0.997118
0.11821298743144688,0,0.842818
0.1446613707949755,1,0.997067
0.18036355277211497,1,0.994135
0.23841151186275364,0,0.858407
0.34795555902392566,0,0.898592
0.554731358001932,1,0.997326
0.7993487622609773,1,0.994118
0.913625058322022,0,0.947514
0.9491828816390379,1,0.997475
0.9613230537011286,1,0.987805
0.9666820942827807,1,0.996942
0.9692480668439889,1,0.997361
0.970488015062525,1,0.984985
0.9710240157548976,1,0.996951
0.9717076706918922,1,0.995050
0.9748512925002982,1,0.997475
0.9775728816552679,1,0.997494
0.9798710593670559,1,0.966387
0.9814980035570593,1,0.994100
0.9827183034999429,0,0.836207
0.983744419491139,1,0.997354
0.9845621318012098,1,0.997319
0.9850480186825882,1,0.994460
0.9853584342099823,1,0.997354
0.9858009227942525,1,0.996951
0.9862310540914314,1,0.997167
0.9865395035123811,1,0.996815
0.9866177205739698,1,0.996988
0.9867045824509743,1,0.994624
0.9866245225312706,1,0.996622
0.13303527072352986,1,0.996933
0.16234492857653493,0,0.851240
0.20296484773427764,0,0.887006
0.26901990922323604,0,0.903134
0.37748947871914496,0,0.939153
0.5596961212109348,0,0.944444
0.7711326834563826,0,0.957071
0.8927001062595,1,0.974093
0.9390278532914835,0,0.938776
0.9605415435723834,1,0.992063
0.969013909391011,1,0.979769
0.972830277181948,1,0.992537
0.9745277634097276,1,0.997260
0.9753435837444808,1,0.995012
0.975539219072555,1,0.982993
0.9754088607726815,1,0.997409
0.9750365735255536,1,0.997191
0.97444246685538,1,0.988920
0.9738145043534288,1,0.992481
0.9743797603554892,1,0.997312
0.9755471005221908,1,0.996429
0.9763240353576395,1,0.996933
0.9769688684940885,1,0.997260
0.9773489569832897,1,0.997033
0.9776217932823704,1,0.997354
0.9777367167489658,1,0.996198
0.977815145644968,1,0.997076
0.9780921028822842,1,0.996988
0.9781901944996033,1,0.976378
0.9781558140594838,1,0.996923
0.9780729680298792,1,0.993769
0.9777961056305283,1,0.997475
0.1812380628811903,0,0.904040
0.21698561840928177,0,0.804954
0.2665769810363439,0,0.936508
0.3431801557628991,0,0.927318
0.4441214776310921,0,0.952261
0.5842820085154508,0,0.924870
0.7303094790104085,0,0.949405
0.8368293413562754,0,0.965174
0.8953152311519931,0,0.947802
0.9285532387794394,1,0.979275
0.9444407413340054,1,0.989744
0.9529131701819175,1,0.995025
0.9584078654084061,1,0.996933
0.9620000705034644,1,0.997475
0.9638869815901722,1,0.994872
0.9654417020850178,1,0.997093
0.9662435174078292,1,0.992366
0.96656216800574,1,0.997409
0.9666647108523369,1,0.996154
0.9668732725245194,1,0.991826
0.9692739438691773,1,0.997354
0.9728113688528633,1,0.997382
0.9754610990421455,1,0.997354
0.9782320676367051,1,0.997354
0.9803830721068032,1,0.986301
0.9816112759659765,1,0.997238
0.9833204498618908,1,0.997354
0.9844408542647268,1,0.997409
0.9860333684509472,1,0.997382
0.9868976514309775,1,0.997354
0.9877945251668538,1,0.997326
0.9883938747837439,1,0.997409
0.9889791594025299,0,0.778761
0.9894130541587064,1,0.997409
0.9897002876280241,1,0.996599
0.2192366951588478,1,0.997059
0.2610119847567123,0,0.937838
0.3195556550643869,1,0.997050
0.40117807367902075,1,0.996845
0.5259048592958208,1,0.996933
0.6706297807535514,1,0.994135
0.796683613488624,0,0.969697
0.8737984927607095,0,0.968912
0.9143880245856622,0,0.930091
0.9369057910347606,1,0.997512
0.9491318199803492,1,0.994236
0.9561081995162234,1,0.995086
0.9613252405823464,0,0.965944
0.9641140409094707,1,0.997354
0.9660475218108581,1,0.997319
0.9671026953186039,1,0.996078
0.9672992436361165,1,0.994609
0.9674275026979666,1,0.995012
0.9671827037280079,1,0.996390
0.9682229110685966,1,0.997449
0.9694155253161222,1,0.997506
0.9703960767167394,1,0.997319
0.971133280351349,1,0.997093
0.9716298381904949,1,0.997268
0.9719249807512046,1,0.997475
0.9723707009804176,1,0.997110
0.972644769913763,1,0.997214
0.972716036643698,1,0.997230
0.9727200983221647,1,0.997183
0.9727133613921763,1,0.996226
0.972643381250777,1,0.997409
0.9726240445727311,1,0.996894
0.972556826173608,1,0.997475
0.972403835588297,1,0.997475
0.9722103974917606,1,0.997118
0.9719156039288505,1,0.997475
0.2661708689140479,0,0.797927
0.3165844003550972,1,0.997230
0.3834447215834387,1,0.985714
0.4722153955531698,1,0.996503
0.5842516339556822,0,0.900249
0.6890665453493955,0,0.952381
0.7829648708076169,0,0.935065
0.8582459634517812,0,0.953488
0.907019422762328,0,0.970075
0.9361711305350232,1,0.980609
0.9475760911298927,0,0.952381
0.9581408546997531,1,0.988406
0.9652065435992023,1,0.994709
0.9706425538828702,1,0.997159
0.9738019871321035,1,0.997354
0.975564892189251,1,0.997033
0.9769820457419118,1,0.997409
0.9779318767382492,1,0.997475
0.9784703093802634,1,0.997475
0.978824333032558,1,0.997354
0.9788942748582896,1,0.997409
0.9790441163105703,1,0.992519
0.9791078307346364,1,0.997475
0.978850232760161,1,0.997275
0.9784799266317298,1,0.997494
0.9781411042055215,1,0.997297
0.977790115124281,1,0.997245
0.9777313987433853,1,0.996845
0.9775380192696724,1,0.997403
0.9772130191808744,1,0.997409
0.9768765529812791,1,0.991228
0.9764937198529117,1,0.997475
0.9765792873454865,1,0.997354
0.9767749185646181,1,0.997475
0.9770581889067115,1,0.990798
0.9771313467191838,1,0.997475
0.9771597005441737,1,0.996951
0.9771210071237185,1,0.997006
0.30065407101217345,0,0.815789
0.35352998835109406,0,0.826425
0.4185512685569433,1,0.994135
0.5006714585400587,0,0.867532
0.5967261674014224,0,0.952381
0.6972245676238141,0,0.860681
0.7832250676733921,1,0.991597
0.8491325763458898,1,0.978836
0.8941520534281514,0,0.952055
0.9209274955403058,1,0.976440
0.9382595041326145,1,0.986150
0.9489441057111376,1,0.997449
0.9565315311691349,1,0.989011
0.9610653023624336,1,0.996894
0.9644573739125611,1,0.978193
0.9669086051567245,1,0.997409
0.9683341563432298,1,0.997354
0.9690063441398717,1,0.997245
0.9695027008753396,1,0.997093
0.9696123491207858,1,0.997326
0.970086416704906,1,0.994030
0.9704531650649952,1,0.996997
0.9705104058613252,1,0.996904
0.9703608071434352,1,0.997475
0.9702851332823185,1,0.994012
0.9702998588611516,1,0.991150
0.9702102591426338,1,0.997207
0.9699090210270821,1,0.997506
0.9707086417441745,1,0.996599
0.9728200311165869,1,0.996894
0.9746330107250064,1,0.997409
0.9762215591936785,1,0.996855
0.9777045227119568,1,0.997268
0.9790110710608891,1,0.996795
0.9801310589442513,1,0.997409
0.9810350574433833,1,0.994898
0.9818360995435943,1,0.991597
0.982688816244838,1,0.997347
0.9834243972847608,1,0.994949
0.9840200403484765,1,0.994949
0.3563493447155336,0,0.949735
0.4129206359184962,1,0.994118
0.48522645367512524,0,0.945245
0.5671747290800929,1,0.993007
0.6526201653525817,0,0.972222
0.7353035497071436,0,0.945392
0.8054142243360681,1,0.997290
0.8583939258870033,1,0.982323
0.895612888373085,1,0.988462
0.92197480880105,1,0.992347
0.9394423335409035,1,0.992453
0.9505216231336366,1,0.991018
0.9578744089758218,1,0.987013
0.9635384148463105,1,0.997475
0.9670069519983594,1,0.996390
0.9695909680896608,1,0.997475
0.9712796648458023,1,0.997326
0.9724307716450921,1,0.997118
0.9728711450419497,1,0.978328
0.9732848601166711,1,0.986559
0.9740826018192092,1,0.997475
0.9750349249842375,1,0.995012
0.9758037754251673,1,0.989041
0.9763359479295097,1,0.991549
0.9766632595217898,1,0.997494
0.9768985607924401,1,0.997409
0.9770431023999313,1,0.997512
0.9771620181136701,1,0.996988
0.9771519425368378,1,0.997253
0.9770103069074363,1,0.997305
0.9768445624087533,1,0.997085
0.9767566123648602,1,0.991379
0.9767185452609252,1,0.995012
0.9766382771444623,1,0.997409
0.9764466677157377,1,0.995012
0.9762349858465594,1,0.990354
0.9760356136566322,1,0.997354
0.9758188667380554,1,0.996575
0.9756722395153923,1,0.997494
0.9754331511124615,1,0.997494
0.9751115974863507,1,0.997382
0.9747928088694255,1,0.997354
0.4175043634144616,1,0.997093
0.4750768567056025,1,0.994638
0.5479452215868049,0,0.860158
0.6247028815076014,0,0.873057
0.702040059789727,1,0.973545
0.7753241122199327,1,0.980100
0.8301727129037668,0,0.935162
0.8724514860563463,1,0.978610
0.9036837302962292,1,0.997494
0.9253950923893415,1,0.975779
0.9412217756711994,1,0.976684
0.9514158544953699,1,0.997475
0.9578628747308873,1,0.997475
0.9627129027509166,1,0.997494
0.9665253348990196,1,0.994460
0.969177125862517,1,0.997409
0.9710201100715471,1,0.997475
0.9725762929270522,1,0.997183
0.9733721612903559,1,0.997409
0.9738922158762728,1,0.980282
0.9743253126657961,1,0.997409
0.9744631424068435,1,0.997409
0.9744526651848514,1,0.997494
0.9743461333585076,1,0.997275
0.9745812739844852,1,0.997297
0.9748569760880009,1,0.997494
0.9751343018289192,1,0.996960
0.9751860414535655,1,0.997354
0.9752713911123956,1,0.997118
0.9753392260690881,1,0.997494
0.9753621063835162,1,0.997382
0.9752013764730475,1,0.997067
0.9751657485272134,1,0.997268
0.9751895066908836,1,0.997475
0.9751155974474341,1,0.997059
0.9749384151987821,1,0.997468
0.974763124530049,1,0.997361
0.9746563621676366,1,0.996997
0.9744970174330696,1,0.996960
0.9744788043401463,1,0.993865
0.9745983443643592,1,0.996764
0.974653099100277,1,0.997382
0.9745953595564704,1,0.997468
0.974543249895406,1,0.997549
0.9744759949990007,1,0.997312
0.5153353278613306,1,0.973262
0.5634255090497161,1,0.973545
0.6183166322743258,0,0.833333
0.6739730286830137,1,0.976945
0.727721723837061,1,0.997041
0.7796327416600225,1,0.997059
0.8202840771073414,1,0.981481
0.8590992285295312,1,0.982143
0.8887648614753921,0,0.970899
0.9107807241127434,1,0.973054
0.9258989206128231,1,0.997093
0.9340836269054004,1,0.980556
0.9433169397022808,1,0.980263
0.9475510608964002,1,0.987915
0.9534313914437667,1,0.997475
0.9591102889106056,1,0.997093
0.9638189242117033,1,0.992228
0.9680609371104427,1,0.997297
0.9716390286444496,1,0.997199
0.9736914854726552,1,0.997253
0.9758246357431635,1,0.997475
0.9773703573297351,1,0.997475
0.9789579521411467,1,0.997312
0.9799105308061172,1,0.993884
0.9805931314539058,1,0.997297
0.9815234506744911,1,0.997093
0.9822289728940456,1,0.997245
0.9825247214978411,1,0.997396
0.9828311084511102,1,0.994975
0.9831870470033495,1,0.994580
0.9835348473997575,1,0.997409
0.9838221462157561,1,0.996466
0.9836582015129843,1,0.997354
0.9837259748362673,1,0.997118
0.9836405257634099,1,0.997326
0.9834794838911401,1,0.997475
0.983362853898459,1,0.997183
0.9833480667637077,1,0.997409
0.9832684450011008,1,0.997494
0.9830036950774625,1,0.984802
0.9828472054543576,1,0.997409
0.9827092826212241,1,0.989796
0.9824731421824746,1,0.996960
0.9822473942941509,1,0.997354
0.9820035619555774,1,0.997275
0.9818277551767646,1,0.997275
0.5035323985848386,0,0.943709
0.5506261443076049,1,0.977273
0.6002848332793149,1,0.997290
0.6541337239070445,1,0.978378
0.7040731656865985,1,0.996528
0.7544603021430984,1,0.982323
0.794395996421575,1,0.984848
0.8270214177296903,1,0.997326
0.8547339472595694,0,0.966146
0.8758796803523092,1,0.979167
0.8904861809364868,1,0.997253
0.9050596614359955,1,0.993072
0.9153695480198795,1,0.983099
0.9236642320672489,1,0.997475
0.9295076781541245,1,0.997494
0.9348918707052062,1,0.994366
0.9392572391059275,1,0.987531
0.9419313705192895,1,0.997549
0.9450873143475617,1,0.975610
0.947169684435588,1,0.997118
0.9493831873616693,1,0.985612
0.9509985372490991,1,0.997238
0.9524635462637719,1,0.997475
0.9536193113992565,1,0.992462
0.9546513660021961,1,0.997118
0.9556585733981214,1,0.997093
0.9565136098264423,1,0.996516
0.9570484621464934,1,0.997118
0.9575792507156172,1,0.997475
0.9580883484615461,1,0.992519
0.9585970013985854,1,0.997183
0.9589500736187474,1,0.997475
0.9591005116660751,1,0.997354
0.9598102190514222,1,0.997297
0.9605249026143194,1,0.997409
0.9612526793800487,1,0.994135
0.9621334087101225,1,0.996599
0.9627353703513913,1,0.989583
0.9633030302717739,1,0.997354
0.9639938020797583,1,0.997312
0.964390619101561,1,0.996997
0.9647666437846373,1,0.995012
0.9652139847525283,1,0.997354
0.9654918705834724,1,0.997283
0.965888456034008,1,0.996700
0.9660760884825795,1,0.997326
0.9663199049097182,1,0.997494
0.9665907498626303,1,0.997275
0.9668250829021092,1,0.997268
0.5755141027734173,0,0.920139
0.6287701927518637,1,0.974937
0.6779811002431185,1,0.977901
0.7244300244511931,1,0.997297
0.7622464331185294,1,0.981481
0.7939998151640684,0,0.967066
0.8218030657944906,1,0.997475
0.8450490370073299,1,0.997326
0.8643405797596014,0,0.956640
0.8813697219710047,1,0.997475
0.8944949136432558,0,0.968116
0.9051734905184539,1,0.997275
0.9143834132717004,1,0.985207
0.9219926022246367,1,0.996154
0.9279325143451335,1,0.984127
0.9327028162401585,1,0.997312
0.9365247444838299,1,0.997354
0.939563848112939,1,0.997475
0.942510377036431,1,0.997494
0.9450220881144887,1,0.997354
0.94712155294717,1,0.992519
0.9490738570532755,1,0.991525
0.9508492763266647,1,0.993056
0.9522205613710226,1,0.994203
0.9534199965440591,1,0.997297
0.954580215679074,1,0.997512
0.95573977089067,1,0.997494
0.9563660303404687,1,0.996979
0.9578685288148394,1,0.993610
0.9590476593258124,1,0.994792
0.9602331171468453,1,0.996875
0.9616489339537811,1,0.997475
0.962515954502562,1,0.997297
0.9635884059762637,1,0.997494
0.9646624368300412,1,0.997015
0.9654942824394139,1,0.997340
0.9663572466600326,1,0.997183
0.9671914681809421,1,0.996633
0.9679711881087697,1,0.997207
0.9685886681184265,1,0.997475
0.9690822756583956,1,0.987952
0.9696552756642197,1,0.997494
0.9702779936530934,1,0.997409
0.9708047079917012,1,0.997494
0.9712637995583867,1,0.994186
0.9715232892345702,1,0.997041
0.9719714541924921,1,0.996815
0.9723142931574372,1,0.997283
0.9726224239178299,1,0.997475
0.9728626809969243,1,0.997512
0.616992592854568,1,0.977444
0.6600382869270628,1,0.989899
0.7041015819716278,1,0.989975
0.743080169305259,1,0.978462
0.7788708578553153,1,0.996845
0.8117469613731233,1,0.997093
0.8403128410655807,1,0.987952
0.864339925675265,0,0.955959
0.8831351074933872,1,0.987421
0.8985459245581501,0,0.963542
0.9110290112698787,1,0.996960
0.920782286493986,1,0.997093
0.9293298071527841,1,0.997494
0.9367000687133112,1,0.976684
0.9422356553508272,1,0.982639
0.9477683408111944,1,0.985876
0.9517038480806229,1,0.997085
0.9551097787089583,1,0.991736
0.9584602485666949,1,0.987952
0.9607664608591497,1,0.994366
0.9626652149186764,1,0.997354
0.9643415366114412,1,0.997475
0.9656714404898435,1,0.989474
0.9671164149712326,1,0.984802
0.9681878412554844,1,0.997494
0.9693173390578432,1,0.997006
0.9699599763878766,1,0.997093
0.9705479451221397,1,0.997475
0.9712247122765134,1,0.985337
0.9716373844247694,1,0.997475
0.9721019626980731,1,0.996951
0.9724163921121292,1,0.997494
0.9727201189803248,1,0.997409
0.9728247167031748,1,0.997297
0.9730198543601262,1,0.997268
0.9732162251323666,1,0.997494
0.9734009393174153,1,0.997340
0.9735294076205857,1,0.997475
0.9737152441029645,1,0.993590
0.9737693755621555,1,0.997409
0.9737531255518092,1,0.997093
0.9737673810418344,1,0.997475
0.9737579788024951,1,0.996491
0.9737603788327682,1,0.994100
0.9737329282063872,1,0.996865
0.9737593651259178,1,0.997067
0.9737016974462659,1,0.997268
0.9735713089716911,1,0.997475
0.9734982327424873,1,0.997059
0.9734046943410787,1,0.997326
0.9732976296485829,1,0.997409
0.9732452678924203,1,0.996933
0.630737015790649,1,0.975490
0.6708616246184155,1,0.982323
0.7059949108502094,1,0.975477
0.7395420032374428,1,0.989975
0.7729308798610839,1,0.997475
0.8024205902301477,1,0.981308
0.8265623510190447,1,0.997093
0.8472493678348646,1,0.994550
0.8674417168674078,1,0.972136
0.8819512872795238,0,0.958549
0.896454931311901,1,0.997093
0.9077610437241962,0,0.963731
0.9167202362648021,1,0.986413
0.9260727704036374,1,0.994709
0.9323989484109566,1,0.993590
0.9382738305362062,1,0.981865
0.9426636485007939,1,0.997118
0.9466404868019341,1,0.997033
0.9500022902488079,1,0.993902
0.9528342148345587,1,0.994186
0.95544979588148,1,0.992147
0.9588188216426894,1,0.997268
0.9617377619690288,1,0.993865
0.9647878922260422,1,0.997475
0.9669224891330623,1,0.997475
0.9690854643744541,1,0.990291
0.9712073237840542,1,0.997475
0.9730152793879282,1,0.989583
0.9745361120859393,1,0.997222
0.9756847433620611,1,0.994819
0.9769614329319904,1,0.997494
0.9780200860063857,1,0.997041
0.9789506766068679,1,0.996689
0.9797885338250908,1,0.997512
0.9802945845368426,1,0.994792
0.9807692962421968,1,0.994819
0.9814150006486024,1,0.997475
0.9818504546732741,1,0.997475
0.9822483153952217,1,0.997475
0.9826286327075683,1,0.997199
0.9830641075360038,1,0.997135
0.9832690495259846,1,0.997093
0.9833687393179286,1,0.997354
0.9835649939173986,1,0.997260
0.9836339780238365,1,0.997475
0.9837107436595574,1,0.997475
0.9838017841059101,1,0.997326
0.9838517649823018,1,0.997275
0.9838155731822056,1,0.996815
0.9838106740809012,1,0.992683
0.983753767464363,1,0.997354
0.9836914657351679,1,0.997396
0.9836395400676806,1,0.997475
0.9835095712884884,1,0.997382
0.6557751505822633,1,0.972826
0.6925022002311292,1,0.981383
0.727084060387342,1,0.981383
0.7581648610406295,1,0.989975
0.7873445841330527,1,0.997475
0.8125609143924897,1,0.981081
0.8352341080613761,1,0.993865
0.8562620664763273,1,0.978320
0.8726090817075014,0,0.942708
0.8862238584547605,1,0.992647
0.897819474627448,0,0.831858
0.9077350801476531,1,0.990683
0.9173445485267288,1,0.994709
0.925329618407619,0,0.966321
0.9322269448808199,1,0.981308
0.937714801943188,1,0.997340
0.9424381109472609,1,0.996503
0.9468758171790902,1,0.997067
0.950645724205493,1,0.997118
0.9538452093483237,1,0.997475
0.9563261680507091,1,0.990025
0.9588442647188226,1,0.997494
0.9607196786677187,1,0.997494
0.9622200395817337,1,0.991453
0.9634771981641026,1,0.992519
0.9647050444661824,1,0.997275
0.9660459398834192,1,0.985030
0.9668296744854655,1,0.997354
0.9675239867344698,1,0.996979
0.9680730340867967,1,0.997494
0.9685980644683643,1,0.997475
0.9692003832122842,1,0.981707
0.9695568912040818,1,0.981707
0.9698149688091009,1,0.981763
0.9701058774804302,1,0.997283
0.9703237103996311,1,0.994819
0.9704996694362169,1,0.997326
0.9707430945606291,1,0.996855
0.970900938079387,1,0.997085
0.9709430119572584,1,0.997475
0.9709549887820356,1,0.997326
0.971033418347556,1,0.997093
0.9710748638369765,1,0.997033
0.9710513962992011,1,0.992519
0.9711064779383393,1,0.996528
0.9710313910168308,1,0.997475
0.9709495753272798,1,0.997494
0.9708895668380833,1,0.994652
0.9708606610285574,1,0.997347
0.970794070536373,1,0.997475
0.9707751997124653,1,0.997093
0.9707305734356197,1,0.996491
0.9706139245395845,1,0.997475
0.9704915298539692,1,0.997543
0.9704014420524127,1,0.994065
0.9702991992536548,1,0.996835
0.6800809672680577,1,0.978155
0.712244357456871,0,0.882812
0.7435486591888816,1,0.996933
0.7750749159892363,1,0.997312
0.8020915067577028,1,0.989975
0.8271967260872906,1,0.981481
0.8464584681577185,1,0.997268
0.8665914533629514,1,0.997319
0.8822567699573207,1,0.983380
0.8954617588460186,0,0.958549
0.9089465927414196,1,0.994580
0.9187824718998572,1,0.994236
0.9284817919332677,0,0.964865
0.9352598051041434,1,0.997312
0.9409713674105851,1,0.991892
0.9457470027444057,1,0.997475
0.9505524661505244,1,0.997475
0.9538440467768997,1,0.984127
0.9565040049710715,1,0.985380
0.9589642344526711,1,0.989655
0.961198705327869,1,0.997519
0.963032471024651,1,0.997319
0.9645614474292088,1,0.991549
0.9657174539935117,1,0.997275
0.9667363929365613,1,0.996914
0.9676031991461431,1,0.992228
0.9684167007549334,1,0.997475
0.9691266496850182,1,0.996855
0.9699877142006288,1,0.997326
0.970713111725388,1,0.994709
0.9712778007306565,1,0.994792
0.971813347039537,1,0.994792
0.9723040478389491,1,0.994203
0.9726836069453072,1,0.992933
0.9730846510311502,1,0.993443
0.9732899628932874,1,0.997312
0.973495110741418,1,0.997494
0.9737168877383919,1,0.996933
0.9738130338999138,1,0.997475
0.9738689280968076,1,0.997191
0.9739488541079236,1,0.996855
0.9739673864762598,1,0.997041
0.9739735934901977,1,0.997475
0.9739857121710697,1,0.997354
0.9740219301533877,1,0.915888
0.9739913838470785,1,0.977987
0.9739343992278652,1,0.997312
0.973877196631417,1,0.997354
0.9738221968759856,1,0.993902
0.9737288078620375,1,0.997312
0.9736686467638858,1,0.997475
0.9736096840919701,1,0.997354
0.9737703997521135,1,0.997093
0.9739680877268887,1,0.997409
0.97417013988121,1,0.997214
0.9743431206192931,1,0.997207
0.9744843512641878,1,0.997050
0.9746345145160067,1,0.997409
0.6998919742745529,0,0.847880
0.7332131818839946,1,0.975477
0.7638339886899481,1,0.983444
0.7895958022415144,1,0.982578
0.8128157371062239,1,0.987374
0.8356711291560771,1,0.981432
0.8583671891442414,1,0.997283
0.8759775446888041,0,0.937656
0.8918157699484609,0,0.945137
0.9063591564916594,0,0.948187
0.9189235379629558,1,0.997573
0.9280724373661854,1,0.997191
0.935834054888053,0,0.965087
0.9423084367913379,0,0.966321
0.9473383184079255,0,0.968912
0.9513512110384167,0,0.953988
0.9544000858876192,1,0.993377
0.9578605517093661,1,0.997268
0.9604387417813133,1,0.997475
0.9631910689505678,1,0.997093
0.9652738091164612,1,0.997354
0.9672850758967927,1,0.997297
0.9689404359554374,1,0.997354
0.9704003200386974,1,0.996914
0.9716896345053546,1,0.991549
0.9729307931389326,1,0.997475
0.9734689406172986,1,0.997494
0.9739626621842159,1,0.997354
0.9743670329182689,1,0.997475
0.9745831018306631,1,0.997354
0.9749410644718703,1,0.997118
0.9752347010607645,1,0.997326
0.9754441525300235,1,0.993103
0.9757212365798655,1,0.997475
0.9758815517746317,1,0.994595
0.9760913658808458,1,0.997093
0.9760674043126341,1,0.994652
0.9758497172851712,1,0.992519
0.9757532154783594,1,0.997093
0.9756202580145102,1,0.981763
0.9754533610645428,1,0.997494
0.9753661074531924,1,0.994135
0.9752430881991984,1,0.978774
0.9759272605514827,1,0.973214
0.9769714414984736,1,0.997326
0.9778480249503421,1,0.996528
0.9786557329442228,1,0.995012
0.979743123289554,1,0.997093
0.9807738180147464,1,0.994505
0.9816736485040771,1,0.997050
0.9824872981590652,1,0.997050
0.9833228126630263,1,0.996865
0.9841516960556902,1,0.975232
0.9849867131266618,1,0.997326
0.9855846841889255,1,0.997409
0.9862823965637768,1,0.997297
0.9869648147461698,1,0.997118
0.9875406466152061,1,0.997118
0.9880879026913737,1,0.996960
0.9886347621457993,1,0.975831
0.6378484614018797,0,0.943765
0.6664722483946269,1,0.977273
0.6945085828104791,0,0.882038
0.7227686389924359,1,0.970060
0.7482714514320343,1,0.981432
0.7716745760746878,1,0.982323
0.792916455301826,0,0.907731
0.8118020506729201,0,0.916230
0.8288894526094328,1,0.985591
0.8442974086050956,0,0.970223
0.8578213549877387,1,0.977564
0.870279965471519,1,0.993243
0.8813357698319805,0,0.947631
0.8906780948971086,1,0.997475
0.8993087930052847,1,0.997475
0.9068775793493514,1,0.997475
0.9132173351539145,1,0.997475
0.9190599214838903,1,0.997475
0.9242023475571587,1,0.997494
0.9289530333750226,1,0.997368
0.9324427769400472,1,0.991979
0.9353803118394488,0,0.963636
0.9380149836874655,1,0.997093
0.9401677100805034,1,0.973822
0.9421230703490026,1,0.997118
0.9437775759584396,1,0.997519
0.9451585860330995,1,0.997333
0.9461575874683542,1,0.975610
0.9471838763308048,1,0.997449
0.9482903088543692,1,0.997475
0.9490988852202727,1,0.997494
0.9499100957817508,1,0.997475
0.9511175637181939,1,0.997475
0.9523213775205922,1,0.997475
0.9532973628005224,1,0.994819
0.9543237074251076,1,0.994624
0.9551496874872447,1,0.994366
0.9559303706287638,1,0.996835
0.9566571699996477,1,0.994609
0.9572530037110415,1,0.994819
0.9578934558081077,1,0.991150
0.9585126628102592,1,0.997268
0.9590548471988072,1,0.996350
0.9593646642281158,1,0.997475
0.9595058920426099,1,0.997354
0.959642119355928,1,0.996656
0.9597153661414954,1,0.996764
0.9598041339058156,1,0.996610
0.9598274611597546,1,0.997382
0.9598423317433893,1,0.997214
0.9598642867876178,1,0.996815
0.9599509735884418,1,0.994778
0.9601337592050293,1,0.997230
0.9602673450549009,1,0.994334
0.9604049347459199,1,0.992754
0.9604794046090473,1,0.997354
0.9605954752569711,1,0.994778
0.9606718358929519,1,0.997475
0.9607691277040002,1,0.997475
0.9607927362922795,1,0.997382
0.9607857676403457,1,0.984802
0.9607207636526364,1,0.997494
0.6539666428945344,1,0.979827
0.6802507019594076,1,0.981333
0.7060977701064389,0,0.881720
0.7293563404345268,1,0.982323
0.7532066337836225,0,0.963325
0.7748066821079194,1,0.979950
0.7944108926789796,1,0.981763
0.8135749154430175,1,0.985591
0.830752068604232,1,0.997290
0.8458782527029316,1,0.974763
0.8610508192624394,0,0.941176
0.8742216521984957,1,0.997085
0.8860146282671214,1,0.994898
0.895551861524146,1,0.981233
0.9045050563670038,0,0.948187
0.9123310449343641,1,0.996721
0.9190301669095257,1,0.997118
0.9249879827958106,0,0.970370
0.9304875173993347,1,0.997494
0.9354851415215742,1,0.978261
0.9395711572528767,1,0.996622
0.9425555036044228,1,0.997475
0.9452387586858353,1,0.987654
0.947540053271398,1,0.997543
0.949576159100007,1,0.994652
0.951179020942638,1,0.997543
0.9525638772225614,1,0.980282
0.9538341014618879,1,0.997207
0.9550193836624751,1,0.997543
0.9563602502041301,1,0.997207
0.9576607353187511,1,0.997494
0.9588696125263492,1,0.985673
0.959863553427179,1,0.992593
0.9607860665300154,1,0.997354
0.9614770636477369,1,0.992593
0.9621114764363992,1,0.982517
0.962731817610647,1,0.992593
0.9632330163839449,1,0.983389
0.963453996877849,1,0.997543
0.9636230235210551,1,0.997238
0.9637486527633141,1,0.997238
0.963825730180255,1,0.992593
0.9638812590445265,1,0.996795
0.9638993445063062,1,0.996364
0.963835635517669,1,0.992883
0.9637429267891253,1,0.992593
0.963696355289997,1,0.997245
0.9635754109309006,1,0.997333
0.9635446350549531,1,0.991150
0.9638219639408859,1,0.997475
0.9640469866994928,1,0.997494
0.9642570331617136,1,0.994490
0.9644488284120935,1,0.990712
0.9646039945147404,1,0.996979
0.9646674332191089,1,0.997333
0.9646288881777517,1,0.997024
0.96458837098465,1,0.997222
0.9644806833257917,1,0.996785
0.9644450235535605,1,0.997543
0.9644861700113927,1,0.997319
0.9644956115123121,1,0.997475
0.9645008551693888,1,0.997305
0.9644633900528571,1,0.997347
0.964349833274248,1,0.997475
0.669832003166711,1,0.996855
0.6946490744772464,0,0.884507
0.7182663478399578,1,0.982885
0.7411128091467629,0,0.967552
0.764041471263697,1,0.979747
0.7859412473356038,1,0.979827
0.8066853201893925,1,0.997041
0.8249919701045466,0,0.930108
0.8420326813171237,1,0.997475
0.8569280563415214,0,0.930052
0.8704527396559572,1,0.987952
0.8814447852098549,0,0.937824
0.8921072621275146,0,0.949735
0.9013910557560919,0,0.953368
0.9104483413238073,1,0.997555
0.9182164038229531,0,0.962963
0.9247437377013961,1,0.990323
0.9305656225433747,1,0.994302
0.9348151195497321,1,0.996894
0.9382269191874072,1,0.981618
0.9413412685064771,0,0.968912
0.9442184908507304,1,0.996622
0.9467295841644439,1,0.984894
0.9488908485442876,1,0.997543
0.950987582614239,1,0.997494
0.953272461339437,1,0.994429
0.9554218599628469,1,0.994638
0.9569574182081625,1,0.993789
0.958529062578198,1,0.997475
0.960196659169107,1,0.997326
0.9613320141642432,1,0.997475
0.9623274766326241,1,0.992593
0.963338890935314,1,0.997475
0.9643189391623491,1,0.992228
0.9652329318164291,1,0.997347
0.9660465505125387,1,0.997475
0.9668835965961433,1,0.994778
0.967593704081143,1,0.997319
0.9682667277226443,1,0.988095
0.9687100479832453,1,0.997494
0.9690291590467469,1,0.997297
0.9693403172112192,1,0.997475
0.9697387648717397,1,0.989324
0.9700591455271875,1,0.997305
0.9703256055025343,1,0.997475
0.9705823772633547,1,0.997347
0.9708568214879185,1,0.997326
0.9711703463106652,1,0.996933
0.9713591935341914,1,0.994819
0.9715626986311235,1,0.992593
0.9717910997221393,1,0.991018
0.9718399485489845,1,0.994580
0.9718099670237391,1,0.994819
0.9718509583628688,1,0.997475
0.9718578335422285,1,0.997555
0.9718873262784186,1,0.997494
0.9719551802724482,1,0.997230
0.9720277573303371,1,0.994203
0.9721115181504448,1,0.984436
0.9721472816199206,1,0.984190
0.9721521085922946,1,0.997297
0.9720900368426101,1,0.996516
0.9720126389328803,1,0.992593
0.9720047927853742,1,0.997230
0.971946199250724,1,0.996894
0.9718707999329839,1,0.997555
0.9720155061384753,1,0.997312
0.6992974836298499,0,0.882353
0.7241273452552646,0,0.958231
0.7473261506202825,1,0.975524
0.7693784748593498,1,0.997475
0.7898390098208268,1,0.997475
0.8086967656459662,0,0.922865
0.8254310759030719,1,0.986772
0.8405945148993198,1,0.986772
0.8548147073732585,0,0.924870
0.8684241073497532,1,0.991098
0.8801939832008865,0,0.932642
0.8906568594218662,1,0.997475
0.8998465847019178,1,0.997475
0.9076000856456731,0,0.960494
0.9137089961756074,1,0.996764
0.9190245928313798,1,0.987578
0.9243065321701355,0,0.953560
0.9290673346880121,1,0.997333
0.9329902121419615,1,0.990826
0.9369057425012258,1,0.986014
0.9404212198079893,1,0.993691
0.9435285870719803,1,0.973822
0.9463370759654455,1,0.973475
0.9488237487276419,1,0.990798
0.9507546970683156,1,0.988971
0.9521600086504859,1,0.980978
0.9536367917493477,1,0.997475
0.9548987297421296,1,0.983099
0.9560919331731915,1,0.997354
0.9573707599062732,1,0.997354
0.9585011257246339,1,0.994444
0.9596052345718387,1,0.992167
0.9604917018795498,1,0.993691
0.9610279156000301,1,0.994819
0.9614532321815613,1,0.994366
0.961865105192269,1,0.994460
0.9624140611274599,1,0.997207
0.9627920397775357,1,0.997475
0.9634104726108099,1,0.994366
0.9644172528177423,1,0.997253
0.9653113924810407,1,0.994764
0.9662337008413785,1,0.994366
0.9669906015395442,1,0.992593
0.9677363128733962,1,0.997449
0.9682713418219305,1,0.997118
0.9687052339807867,1,0.997283
0.9691645465899822,1,0.994624
0.9695985408371113,1,0.994819
0.970071938968898,1,0.992593
0.9705057153508382,1,0.997333
0.9709828677531275,1,0.996815
0.971352426380495,1,0.997475
0.9716924259188879,1,0.997312
0.9719213751347855,1,0.997333
0.9721107999734716,1,0.997253
0.9723666248274014,1,0.997050
0.97258664001401,1,0.996845
0.9727720802813808,1,0.997041
0.972895144426733,1,0.997222
0.9729264560374392,1,0.994366
0.9729382180555216,1,0.997126
0.9730053137393077,1,0.992593
0.9729896138277543,1,0.997409
0.9729667518082287,1,0.997382
0.972827909551095,1,0.992593
0.9726816506720221,1,0.997326
0.9725724822595077,1,0.996951
0.9724379378233635,1,0.992593
0.7149167970268651,1,0.997475
0.7383706389607577,1,0.981132
0.759714777702676,1,0.978378
0.7800830626721782,0,0.908602
0.798516569128303,1,0.997475
0.8156368097799691,0,0.911917
0.8309006610994703,1,0.988971
0.8453220280949082,1,0.978610
0.8590711092509863,1,0.997290
0.8708773491839742,1,0.990172
0.8827120584164523,1,0.997093
0.8928396560221227,0,0.955556
0.9019626395828494,0,0.950464
0.9102422813859604,1,0.997151
0.9172306716483312,1,0.997101
0.9231543565740895,1,0.987578
0.9283472651250868,1,0.992629
0.9331770656243031,0,0.960317
0.9372487968163851,1,0.997475
0.9411676587249034,1,0.997449
0.9450177535168578,1,0.994490
0.9483291545791807,0,0.968912
0.9513638303291281,0,0.968912
0.9539378993629191,1,0.997126
0.9555113301902165,1,0.979472
0.9570185684759999,1,0.993769
0.9584200404147243,1,0.989324
0.9598929907210971,1,0.997326
0.9611722612327096,1,0.995086
0.9624014810135759,1,0.996914
0.9635684226976958,1,0.996610
0.9645777294280988,1,0.997475
0.9654371898815347,1,0.992593
0.9662427147153875,1,0.992042
0.9667656303906752,1,0.997183
0.9670509269629834,1,0.988506
0.9673569798869353,1,0.997475
0.9676728760492896,1,0.994819
0.9679912314387072,1,0.997475
0.9683001619261744,1,0.997468
0.9685432559328275,1,0.997101
0.9688077534652532,1,0.994624
0.9689925709422846,1,0.996094
0.9689715024907739,1,0.997093
0.9689135881410718,1,0.997245
0.9688778001855405,1,0.990881
0.9688476574902374,1,0.994764
0.9687755666352355,1,0.995238
0.9697102200882453,1,0.997093
0.9706134608941585,1,0.996914
0.9714437207944712,1,0.997333
0.9722510899929117,1,0.997326
0.9730090647726435,1,0.992593
0.9736597299025376,1,0.997475
0.9741830159434697,1,0.997333
0.9746835424121493,1,0.997222
0.9751857839880199,1,0.997475
0.9756553099940888,1,0.997347
0.9760623863651123,1,0.997475
0.9764610149813285,1,0.997475
0.976860940564031,1,0.990385
0.9771790906999399,1,0.997354
0.9774246697865833,1,0.997067
0.9776339360170516,1,0.987842
0.9778787599047125,1,0.996610
0.9780984840329888,1,0.996894
0.9783205657017329,1,0.997041
0.9786054191093922,0,0.800000
0.9788590815341147,1,0.997245
0.9791187229992756,1,0.996785
0.7318776149120954,1,0.992481
0.7527519441039593,0,0.960688
0.7726702707312952,1,0.980716
0.7915515708062859,1,0.997475
0.8092331144975291,1,0.986667
0.8259348178495282,1,0.997475
0.8419227717058758,1,0.975741
0.8565770077350534,0,0.930864
0.8691079054508654,1,0.997494
0.8806357813392397,1,0.991620
0.8906462922129538,0,0.935233
0.8985439706219192,0,0.940415
0.9053933874802769,1,0.996047
0.9119904362068929,1,0.997118
0.918241528414062,1,0.997475
0.9237737362878502,1,0.992665
0.9288847014831304,0,0.963731
0.933418334573549,1,0.997475
0.9373542510123377,1,0.997118
0.9410249043005263,1,0.995110
0.9445087065409397,1,0.981651
0.947175678425122,1,0.995110
0.9491179376090009,1,0.992629
0.9509964932067064,1,0.997290
0.9527832107580563,1,0.997312
0.9544293902063061,1,0.997475
0.9559613164395244,1,0.997143
0.9573481009956453,1,0.997159
0.9586246350955047,1,0.996296
0.9596849818026245,1,0.977961
0.9602877321533804,1,0.984802
0.9608163968446827,1,0.997494
0.9614726431796895,1,0.992593
0.9620402689353814,1,0.994366
0.9624694540387501,1,0.997630
0.9630504900912099,1,0.996865
0.9635691553440581,1,0.997245
0.9639926596092764,1,0.996914
0.9645528992514605,1,0.985337
0.9649406733222956,1,0.992647
0.9650952303751097,1,0.997555
0.9650478174211085,1,0.997238
0.9650426367169312,1,0.997382
0.9650461028769484,1,0.997475
0.965033963561908,1,0.994580
0.9650529957767328,1,0.984227
0.9650399089020869,1,0.997409
0.9651036354360947,1,0.997260
0.9650794202829137,1,0.997494
0.9649424605563384,1,0.997543
0.9647445671626528,1,0.991098
0.9646421095966254,1,0.997475
0.9645500861093144,1,0.988270
0.9643679173989013,1,0.992754
0.9650123277473055,1,0.997183
0.965606865915708,1,0.997475
0.9661482169606759,1,0.997354
0.966705479603339,1,0.997326
0.9671973898081606,1,0.996904
0.9675854426359756,1,0.997475
0.9678668827608226,1,0.997475
0.9681411685794366,1,0.996885
0.9684253019666419,1,0.997475
0.9686773402651633,1,0.997118
0.9689367948713561,1,0.997494
0.9691752069224863,1,0.992593
0.9694157721787907,1,0.997449
0.9696383109161012,1,0.997183
0.9697951050213214,1,0.997050
0.9699125010092544,1,0.997543
0.9700534360682771,1,0.997494
0.9701948043733819,1,0.997475
0.7442898241442255,1,0.996933
0.7651570733443118,0,0.905914
0.7851040337382393,0,0.896296
0.8029560953652506,1,0.996894
0.8199332873835493,0,0.914508
0.8350916231891078,0,0.924084
0.849495165841724,1,0.991736
0.8619382798563255,0,0.936232
0.8734414065668918,0,0.935802
0.88413055283169,1,0.994413
0.8938265647714476,1,0.994709
0.9030397416684549,0,0.946237
0.9114340011332599,1,0.997475
0.9183738425730632,1,0.997475
0.9251604453981653,1,0.986595
0.930171190961734,0,0.962963
0.9344543329095745,1,0.997283
0.9384075618476371,0,0.955479
0.9421485255950117,1,0.997475
0.9452780449495711,1,0.996933
0.9483339988215369,1,0.994030
0.951164019946935,1,0.997354
0.9538030004031477,1,0.997468
0.9561290537198591,1,0.988971
0.9582382244733301,1,0.997093
0.9601716773807406,1,0.993789
0.9614202246926936,1,0.997354
0.9625256934945068,1,0.984456
0.9636453571811372,1,0.997475
0.9646690523686845,1,0.997183
0.9656954786568321,1,0.997319
0.9666867125695071,1,0.997354
0.9675447359190694,1,0.997475
0.9683220705358491,1,0.997290
0.9688975192461233,1,0.992593
0.9691688601353268,1,0.997312
0.9693982712265112,1,0.997333
0.9696774479254903,1,0.997475
0.9699726278858996,1,0.997468
0.970230733947986,1,0.997118
0.9704814680021786,1,0.997093
0.9707200881020047,1,0.997494
0.9708962397591223,1,0.992593
0.9710786519345781,1,0.997368
0.9712089303830298,1,0.980392
0.9712138876878055,1,0.997494
0.9710795795602881,1,0.997475
0.970962964446852,1,0.997118
0.9708772501955713,1,0.997333
0.9707894168522356,1,0.997475
0.9707351806654599,1,0.984375
0.9706764475390969,1,0.994764
0.9706368225111939,1,0.992593
0.9705570493835659,1,0.997033
0.9703709193711373,1,0.997093
0.9701821312676484,1,0.997167
0.9699977266424379,1,0.994366
0.9698271844437474,1,0.997494
0.9696381108346984,1,0.994565
0.97017234635102,1,0.996845
0.9708287465192084,1,0.997494
0.9714314482371911,1,0.994819
0.9720194623266533,1,0.997475
0.9725743912856794,1,0.996894
0.9730428521485317,1,0.997475
0.9734174226588219,1,0.996516
0.9737877229120516,1,0.997494
0.974154140409801,1,0.997118
0.9745137420747704,1,0.997449
0.9748494399925045,1,0.997475
0.9751711414353508,1,0.997305
0.975484309713147,1,0.996933
0.9757798320663461,1,0.997494
0.9760072004011223,1,0.996835
0.7448875404312414,1,0.988095
0.7628342443420406,0,0.896373
0.7796739333078118,1,0.994987
0.7956675322875826,1,0.970501
0.8116753759768391,1,0.997475
0.8269357003536112,0,0.929577
0.8412618445334775,1,0.997283
0.8539177955492657,1,0.992063
0.8656194822115315,1,0.994987
0.8759986181713931,1,0.994987
0.8864233029072133,1,0.997494
0.894907549031848,1,0.997268
0.9024841286727504,1,0.986631
0.9093630542155245,0,0.958025
0.9159331681879462,1,0.978462
0.9217624246112246,0,0.952113
0.9269276798346201,0,0.955497
0.9309920354949583,1,0.997494
0.9346678577581687,1,0.994012
0.9389723313424333,1,0.997475
0.9426612297850304,1,0.997347
0.9456622766293858,1,0.993884
0.9481322767360804,1,0.997494
0.9505914570588634,1,0.997494
0.952852830690623,1,0.997319
0.9548802870180257,1,0.977208
0.9564299791636094,1,0.997230
0.9576958727399232,1,0.977465
0.9590580113432671,1,0.980716
0.9604137676734444,1,0.994490
0.9614913592327825,1,0.997494
0.9623525094823296,1,0.997333
0.9630525103691527,1,0.972136
0.9638106561423392,1,0.985915
0.9644605817114177,1,0.996845
0.9648715414433223,1,0.996139
0.9651020904667579,1,0.997475
0.9655253638465322,1,0.989761
0.9660676905460768,1,0.991870
0.9664300625614591,1,0.997297
0.9666569522893945,1,0.990826
0.9667815657641645,1,0.997494
0.9669830855308655,1,0.993080
0.9671567417184823,1,0.994764
0.9671988554511293,1,0.997354
0.9670674045300408,1,0.994819
0.9669487076990664,1,0.997230
0.9670125094259534,1,0.993994
0.9670020167076079,1,0.982759
0.9669005256190053,1,0.984756
0.9667800671783878,1,0.997475
0.9666835214941839,1,0.997585
0.9665952021898152,1,0.997214
0.966458101702981,1,0.994366
0.9661452316135439,1,0.997319
0.965788640374732,1,0.992593
0.9656749699844053,1,0.997475
0.9655017322970162,1,0.992593
0.9653125691047377,1,0.997015
0.9650792901680115,1,0.992593
0.9650805557503819,1,0.994366
0.9654327946796135,1,0.997354
0.9657525549336421,1,0.996914
0.965988717445665,1,0.997543
0.9661281159608593,1,0.996885
0.9662949502465885,1,0.997260
0.9665437458656774,1,0.997230
0.9667696331263133,1,0.996933
0.9669504758876029,1,0.997543
0.9671051647844179,1,0.997126
0.967269399713187,1,0.996904
0.9674324529304308,1,0.997033
0.9675474736960102,1,0.997354
0.9675829201502019,1,0.997319
0.9675993069858156,1,0.997494
0.9676890509645188,1,0.997354
0.746073138701845,0,0.909859
0.7614179437743865,1,0.996825
0.7771262551184124,1,0.994987
0.7921188879430842,1,0.997475
0.8080568500969454,1,0.986772
0.8235798625606757,1,0.986264
0.8376010506880146,1,0.985163
0.8507766867697492,1,0.994987
0.8628842055478724,1,0.984227
0.8745993390665359,1,0.978328
0.8850003630875307,1,0.994667
0.8938423429145183,1,0.997494
0.9021454196722483,0,0.951613
0.9097118105347441,1,0.997475
0.9168243192632376,1,0.997283
0.9231906688207502,0,0.955959
0.9288256706266655,1,0.992629
0.9334852544226844,1,0.997275
0.9381814204142125,1,0.989041
0.9427539268134856,1,0.984127
0.9466072134640903,1,0.997449
0.9495812438787378,1,0.997494
0.952214887270399,1,0.991914
0.9546632415408971,1,0.997326
0.9570490413292381,1,0.994652
0.9591480769312504,1,0.983696
0.9609837161585271,1,0.994460
0.9626824772759269,1,0.997475
0.9641160899361896,1,0.986945
0.9650155433484768,1,0.994638
0.9658918803544044,1,0.997354
0.9667193842219401,1,0.992208
0.9674803277796842,1,0.997305
0.9682573229753938,1,0.997613
0.9688747751055026,1,0.997326
0.9694185770728975,1,0.994819
0.9699899541815946,1,0.997326
0.970178864792453,1,0.994778
0.9703138023494632,1,0.997175
0.9704220454585359,1,0.997175
0.9705580123411464,1,0.994565
0.9706546461979313,1,0.997326
0.9707240794746961,1,0.997494
0.9707692338534417,1,0.997245
0.9707630387110401,1,0.992593
0.9705433711845328,1,0.984227
0.9703247431568405,1,0.997354
0.9702702180981012,1,0.997319
0.9701818471180881,1,0.997543
0.9700025759638127,1,0.997354
0.9698181583299041,1,0.996894
0.9696668220974173,1,0.997543
0.9695289135975377,1,0.996970
0.9693662797550878,1,0.997085
0.9691243051646855,1,0.997275
0.9687971926173131,1,0.997475
0.9685222862159873,1,0.997382
0.9682646358606504,1,0.997333
0.9680018714650221,1,0.996774
0.9677056921058436,1,0.997475
0.9673921836810927,1,0.997283
0.9682514546184157,1,0.997245
0.9695280605260607,1,0.996997
0.970823561489702,1,0.983193
0.9720992944582731,1,0.997475
0.9733735500146898,1,0.997494
0.9743045841803376,1,0.997297
0.9753147324283984,1,0.997368
0.9763506471474211,1,0.997347
0.9773247768463229,1,0.997475
0.9783087373028879,1,0.997409
0.9790350346287655,1,0.997093
0.979601807304057,1,0.997354
0.9801665841949552,1,0.997067
0.980691152473483,1,0.997475
0.9812141867892759,1,0.996933
0.9816951533573712,1,0.997024
0.9821161243420383,1,0.997494
0.7603926942107238,1,0.972393
0.7765093109326149,1,0.996933
0.7917486864419188,1,0.986737
0.8059944352313422,0,0.922280
0.8190030893147745,1,0.986486
0.8310897887065757,1,0.976048
0.8437080330247019,0,0.939791
0.8547589171713291,1,0.997475
0.8650761823557656,1,0.994987
0.8742103566653956,1,0.982036
0.8829722310974034,1,0.994709
0.8901595475506289,1,0.997024
0.8960516783364666,1,0.997354
0.9012097122395164,1,0.997290
0.9062381857715451,1,0.997093
0.9109597971973671,0,0.965432
0.9155491915855953,1,0.996933
0.9194281609968036,1,0.990683
0.9228790727881457,1,0.997475
0.925871622106785,1,0.992629
0.928618913436024,1,0.997475
0.9310497609869299,1,0.996960
0.9328702737183945,1,0.997494
0.9343068109250823,1,0.997368
0.9358076907439304,1,0.993789
0.9372052737510979,1,0.983099
0.9388628888097975,1,0.984334
0.9407369060016825,1,0.997382
0.9424630983779492,1,0.997468
0.9439833147819714,1,0.988060
0.9454565707182311,1,0.997041
0.946501700982643,1,0.997354
0.9473354825896118,1,0.997494
0.9482458786005648,1,0.997006
0.9490959766151048,1,0.996310
0.9498417745744391,1,0.997475
0.950529121350281,1,0.997093
0.9510559593143187,1,0.997494
0.9517518476090969,1,0.997494
0.9523537539177602,1,0.997354
0.9527304326023441,1,0.997475
0.9529886388884942,1,0.996825
0.9531177135482825,1,0.990881
0.953319491860985,1,0.997494
0.9534709982070793,1,0.990881
0.9536003929156975,1,0.997403
0.9538896240023166,1,0.997326
0.95421808875666,1,0.997312
0.9544613986845071,1,0.992593
0.9548467466861789,1,0.977987
0.9551006848456105,1,0.997475
0.9552411228817191,1,0.997268
0.9552560960494375,1,0.997333
0.9552909351007273,1,0.997475
0.9553375286916361,1,0.997319
0.9552908047067176,1,0.997475
0.9552580732850734,1,0.997347
0.9551766956187574,1,0.996894
0.9552222048788693,1,0.990741
0.9551498224086669,1,0.997494
0.9550246185550991,1,0.997347
0.9548221912880918,1,0.997326
0.9546654016859587,1,0.997354
0.9544994031726858,1,0.997494
0.9542725541598087,1,0.993056
0.954579005538823,1,0.997409
0.954920718421892,1,0.996528
0.9552101629056202,1,0.997326
0.9554379127261697,1,0.997041
0.9555999622305761,1,0.997475
0.9558689673681134,1,0.997326
0.9561299469798472,1,0.997389
0.9563385541638347,1,0.997475
0.9565187616091807,1,0.995110
0.9566361150047831,1,0.997312
0.9568021556082347,1,0.996933
0.9569222091652931,1,0.997354
0.9569833018553332,1,0.990196
0.9569884940072771,1,0.997494
0.9570320901743419,1,0.997368
0.7744337952523187,1,0.983516
0.7903622601971197,1,0.977049
0.8046678300462855,0,0.922280
0.8180448541817265,0,0.924870
0.8310445696287596,1,0.997475
0.8437484331348404,1,0.997475
0.8548333051195555,1,0.997475
0.8644834631448599,0,0.945596
0.8736721303495242,0,0.953623
0.8824883591937397,1,0.991354
0.8900743402675323,1,0.983957
0.896459854241243,1,0.990172
0.902336297129063,1,0.997494
0.9077306828623004,1,0.991892
0.9121755505945861,1,0.997475
0.9159971012143124,1,0.991736
0.9193471035240991,1,0.997494
0.9221703986643854,1,0.997382
0.92497903518084,0,0.967655
0.9278962579558467,1,0.997468
0.9301647413867511,1,0.997475
0.9322878003316426,1,0.997475
0.9340700347030937,1,0.997275
0.9359058661761765,1,0.978836
0.9382687176937468,1,0.983099
0.9402895773845242,1,0.997475
0.9420865865216187,1,0.989556
0.9435094418632799,1,0.997275
0.9449756476169764,1,0.997222
0.9464224382693107,1,0.997475
0.94774019873564,1,0.997494
0.9487788911251829,1,0.991826
0.9498028779610379,1,0.997494
0.9505695718985918,1,0.997006
0.9511549589182328,1,0.994819
0.9516734161113913,1,0.994819
0.9520377272458765,1,0.997475
0.95227711866384,1,0.997354
0.9527712413379432,1,0.997260
0.9531873949633871,1,0.997475
0.9535694245681509,1,0.997409
0.9538025555278149,1,0.997475
0.9539872251949292,1,0.997354
0.9543865974739001,1,0.997245
0.9546612525504392,1,0.972393
0.9547950729655242,1,0.996894
0.9548046989210603,1,0.997475
0.9549445633805709,1,0.997333
0.955161133271766,1,0.996241
0.9553053492617264,1,0.997305
0.9553724177066844,1,0.997354
0.9553671944718357,1,0.995169
0.9553649400146743,1,0.996942
0.9552945531020599,1,0.997494
0.955167993956131,1,0.997475
0.9549956553725154,1,0.997283
0.9548676215777553,1,0.997333
0.9548204986114885,1,0.997312
0.9546968485718329,1,0.997006
0.9545323924123758,1,0.997183
0.9543162589275334,1,0.997475
0.9547548802894198,1,0.979167
0.9554510038773087,1,0.997475
0.9561110529188193,1,0.997118
0.9566881059180179,1,0.997449
0.9572254165905313,1,0.988889
0.9577655131824655,1,0.997494
0.9582929847549463,1,0.997041
0.9587871603314104,1,0.992593
0.9592183154040852,1,0.997354
0.9596239436055596,1,0.996933
0.9600133674690249,1,0.997475
0.9603668919392773,1,0.997297
0.9606752145833131,1,0.997475
0.9609318030128465,1,0.997290
0.9611429919771696,1,0.988180
0.9614474014598231,1,0.996885
0.9617132896129742,1,0.997449
0.9619721780784424,1,0.997494
0.9621989882686499,1,0.997305
0.962397328776707,1,0.996528
0.962676438656629,1,0.997290
0.7800056672904334,1,0.980132
0.7961866044584766,1,0.981595
0.8106065141384737,0,0.938830
0.8239357206810659,0,0.935657
0.8365686042257686,0,0.932642
0.8480870083914378,1,0.985965
0.8588091129821592,0,0.933862
0.8678274811243126,1,0.994550
0.8765344998107977,0,0.945596
0.8844579127818671,1,0.996933
0.8911745693931153,1,0.997475
0.8971573634880973,1,0.975309
0.9022724778046937,1,0.997475
0.9074475401571341,0,0.960733
0.9126941091055988,1,0.997033
0.9171488650334716,1,0.995868
0.9207773234484882,0,0.963380
0.9241561189346876,0,0.966321
0.9280136765429883,0,0.966197
0.9314210935229845,1,0.997319
0.9347095874543676,1,0.997253
0.937590026554274,0,0.971503
0.94005397146275,1,0.992629
0.9425392302367972,1,0.976623
0.9444960713829256,1,0.996923
0.9464120067428302,1,0.976540
0.9479005699824761,1,0.980769
0.9493892859367984,1,0.996599
0.9503788884016962,1,0.979472
0.9514731882381475,1,0.997214
0.9522967085521379,1,0.985163
0.9530882736036503,1,0.997191
0.9538908885096142,1,0.993651
0.9548644052671452,1,0.997006
0.9556204724542628,1,0.992228
0.9561757845266856,1,0.992647
0.956724518277887,1,0.997297
0.9573771223238364,1,0.987730
0.9579128043207156,1,0.997326
0.9583780865571981,1,0.996951
0.9587361969496498,1,0.982405
0.9590471261342151,1,0.993789
0.9594207973807661,1,0.996979
0.9597158138216934,1,0.997245
0.959904077498484,1,0.994366
0.9600461650109219,1,0.995110
0.9600741707671692,1,0.997494
0.9601251246709179,1,0.997183
0.9600326965067811,1,0.997041
0.9599094576696302,1,0.997222
0.9598388902750197,1,0.997475
0.9598875283598778,1,0.997475
0.9598593513802881,1,0.997475
0.9597924634234329,1,0.991045
0.9596638146389944,1,0.994819
0.9600286492047527,1,0.997475
0.9604330779406797,1,0.997326
0.9607639578413357,1,0.997347
0.9610219448713222,1,0.994764
0.9613216983293553,1,0.997067
0.9616420116813946,1,0.997015
0.9619053537404183,1,0.996933
0.9621166207909131,1,0.997494
0.9622949257161317,1,0.997041
0.9624064334754625,1,0.994681
0.9625264835070445,1,0.980545
0.9625704010548113,1,0.993103
0.9625813384488106,1,0.997245
0.9626081789677372,1,0.997312
0.9627236911603311,1,0.997290
0.9627937881002405,1,0.997333
0.9628337434627094,1,0.997475
0.9628486530191165,1,0.996933
0.9628742618573739,1,0.997494
0.9629537601518375,1,0.997494
0.9629823304441778,1,0.997468
0.9629701694273045,1,0.996933
0.9629600459525893,1,0.997333
0.9629930154376614,1,0.992593
0.9629883596251864,1,0.997475
0.9629596645266979,1,0.997354
0.9628980537093359,1,0.992593
0.962875845891966,1,0.997326
0.9628210399575997,1,0.997305
0.7857650249629446,1,0.997041
0.7983900326811767,1,0.997475
0.811272873872582,0,0.968059
0.8235566022211027,1,0.988024
0.8348978193961969,1,0.994937
0.845323803894686,0,0.934896
0.8551986244304521,0,0.925926
0.8651300912646358,1,0.991979
0.8747260140203327,1,0.997290
0.8832374564808652,1,0.976190
0.8905974903313478,0,0.948148
0.89761309729691,1,0.976190
0.9040919578627556,0,0.959677
0.9100502694156103,0,0.960733
0.915118606544644,1,0.997475
0.9201307622824205,1,0.997159
0.9240755107327322,1,0.997033
0.9275856666342458,1,0.997475
0.9310224103669921,1,0.997230
0.9336862432115919,1,0.971831
0.9359548959944144,1,0.997468
0.9385879863323026,1,0.992665
0.9410245661458457,1,0.971831
0.9430723989636434,1,0.997326
0.9446856568422007,1,0.997305
0.9462813023241665,1,0.993197
0.948082303743368,1,0.983099
0.9496575324065226,1,0.987013
0.9510906762899172,1,0.976898
0.9523750143849091,1,0.994203
0.9534714851418312,1,0.997326
0.9546394904875393,1,0.997354
0.9557099854988977,1,0.992188
0.9565853877408722,1,0.996644
0.957257465495762,1,0.992084
0.9578082324826391,1,0.997268
0.9580822086184443,1,0.991914
0.9583339671605212,1,0.996951
0.958467694677719,1,0.997475
0.9585409044189848,1,0.997290
0.9588490741657166,1,0.992665
0.9591197620565266,1,0.997475
0.9592467980506588,1,0.994366
0.9593041240635047,1,0.994792
0.9597433706258616,1,0.992593
0.9608586203691546,1,0.997312
0.9619449801933614,1,0.997475
0.962946401665751,1,0.992593
0.9638395900105022,1,0.995169
0.9646050217528344,1,0.997319
0.96531087566484,1,0.997494
0.9659455618763841,1,0.997340
0.9665178282171099,1,0.992593
0.9670489825113354,1,0.992593
0.9677567805380063,1,0.996721
0.9683939702295293,1,0.997312
0.96899730561662,1,0.997475
0.9695433966383382,1,0.990712
0.9700260631540433,1,0.997494
0.9704430583152008,1,0.996894
0.9708020937235261,1,0.992593
0.9711282652565697,1,0.997409
0.9714236360339535,1,0.997199
0.9718098420496482,1,0.997494
0.9721559327109002,1,0.997396
0.9724610662900234,1,0.997475
0.9727088811875654,1,0.996960
0.9729071296546702,1,0.978125
0.9730815090382609,1,0.980132
0.9731994339608666,1,0.997297
0.9732964608074309,1,0.996904
0.9733926110225137,1,0.997326
0.9736720949576086,1,0.997403
0.973908673024927,1,0.997475
0.9740967997107097,1,0.997093
0.9742664108275277,1,0.997475
0.9743884901480335,1,0.997409
0.9744763990987871,1,0.997340
0.9745308759462461,1,0.997214
0.974560841370372,1,0.996923
0.9745708874391352,1,0.992593
0.974649445344625,1,0.997347
0.9747037818194938,1,0.997475
0.9747314558448187,1,0.997041
0.9747341802829786,1,0.997409
0.9747751120837062,1,0.992593
0.8038866628828163,1,0.985591
0.8170494361803565,1,0.997475
0.8291100245431191,1,0.973451
0.8403130985284367,0,0.932468
0.8503674141021129,0,0.968599
0.85965292805564,1,0.997260
0.8677518741973638,0,0.946479
0.8755269528189044,1,0.994709
0.883075730323213,0,0.947781
0.8904544205883995,1,0.997494
0.8968788961841966,1,0.997059
0.9021332210263231,1,0.997475
0.9073908522769791,1,0.979351
0.9127948904282224,1,0.997347
0.9174335085069384,0,0.965432
0.9216360556848622,0,0.967213
0.9253730897313083,1,0.997305
0.9286372554130438,1,0.997354
0.932157250978595,1,0.973545
0.9349954141118635,1,0.997494
0.9374194106000027,1,0.996933
0.9396396197960667,1,0.997033
0.9413228176133221,1,0.981424
0.9427326647917093,1,0.997475
0.9438973966885835,1,0.997449
0.9448197294770331,1,0.989510
0.9460526114268503,1,0.996575
0.9473014186759937,1,0.990123
0.9482986855620278,1,0.987923
0.9490188557516076,1,0.997275
0.9499980892889849,1,0.992629
0.9512623694658946,1,0.988201
0.9524594686926632,1,0.997297
0.9534648443699731,1,0.997449
0.9543551844720118,1,0.997118
0.9550306277522942,1,0.997222
0.9556453655609243,1,0.996988
0.9561727929490901,1,0.990123
0.9565884877778646,1,0.990123
0.9572376951160576,1,0.991150
0.9579076002146115,1,0.990654
0.9585716118534716,1,0.997494
0.9590932582392343,1,0.994580
0.9595050873649896,1,0.994709
0.9598809857048233,1,0.997354
0.9601804748591619,1,0.997475
0.9603804512156071,1,0.997475
0.9604974441580222,1,0.994792
0.9607098907253202,1,0.997297
0.9609768576178048,1,0.992593
0.9611765318103082,1,0.997222
0.9613254114469911,1,0.994805
0.9614476088661026,1,0.997494
0.9617540291511424,1,0.997403
0.9619854951209357,1,0.997268
0.9621666552314753,1,0.997475
0.9622841228453067,1,0.997494
0.9623265935974507,1,0.996656
0.9622912191689412,1,0.997354
0.9622155490155164,1,0.997475
0.9620842072528529,1,0.997475
0.9619588009126373,1,0.997494
0.9619701575732517,1,0.997475
0.961904249389792,1,0.981595
0.9618114711299854,1,0.996988
0.9616689904422374,1,0.996552
0.9617701673227073,1,0.997268
0.9617923743353038,1,0.997326
0.9617903822731041,1,0.997475
0.9617521304420715,1,0.997494
0.9616822889780495,1,0.997347
0.9617250047260111,1,0.996894
0.9617219333958069,1,0.997354
0.96172116248098,1,0.997245
0.9616835837859034,1,0.997290
0.9616348661559321,1,0.996540
0.9615432849227684,1,0.992593
0.9614184597850122,1,0.997494
0.961248610796398,1,0.997041
0.9610478312277422,1,0.996845
0.9609096937246514,1,0.997354
0.9607996478749032,1,0.997543
0.9606610254862251,1,0.997409
0.9605256538479441,1,0.992593
0.9603280538547112,1,0.992593
0.960279032168851,1,0.997183
0.9602031320018721,1,0.997468
0.9600796091223717,1,0.997494
0.8085291443582391,0,0.921671
0.8210014513541406,1,0.997475
0.8336342892296607,1,0.997475
0.844866881963153,1,0.997222
0.854796872743065,0,0.923457
0.8644321982863677,1,0.992021
0.8732078590235124,1,0.983914
0.8811086794133727,1,0.985866
0.8881861325336218,0,0.956989
0.8944917845466221,1,0.997305
0.9001002857188392,1,0.997260
0.9056405839440539,1,0.997312
0.91074462596115,0,0.958025
0.915136844530865,1,0.997475
0.9188520129296491,1,0.986111
0.9224259755067573,1,0.983173
0.9268294281194097,1,0.996764
0.9307011773594208,1,0.972973
0.9344329029033585,1,0.980247
0.9375973679005822,1,0.996835
0.940442529851654,1,0.996835
0.9429757659554143,1,0.976501
0.9451717490855448,1,0.997275
0.9471081653467046,1,0.990431
0.9489548826261217,1,0.985119
0.9512874360297298,1,0.990123
0.953421900689983,1,0.984663
0.9554314348640399,1,0.989418
0.9571344876388423,1,0.992228
0.9586786667057067,1,0.987923
0.9598600885844205,1,0.992126
0.9610205796453574,1,0.997354
0.962029819670224,1,0.997354
0.962841333917106,1,0.997297
0.9636252957232596,1,0.997059
0.9645544841775332,1,0.997354
0.9652712983292921,1,0.994805
0.9658672307140047,1,0.996855
0.966367256286431,1,0.997475
0.966808128853402,1,0.996000
0.9673757119621043,1,0.997354
0.9678142928239876,1,0.996732
0.9681222207673755,1,0.997290
0.9684248581925085,1,0.980663
0.9685539556152278,1,0.997409
0.9685880038737237,1,0.997475
0.9686064537820585,1,0.997449
0.9685641689945175,1,0.992754
0.9685523006520284,1,0.997326
0.9686026016883285,1,0.991150
0.9685893021926616,1,0.997475
0.9685223175281689,1,0.997253
0.9684632530951969,1,0.997475
0.9685865798605727,1,0.997494
0.9687667186328526,1,0.997475
0.9689078676105259,1,0.997093
0.9689851175035838,1,0.996951
0.9690623869390773,1,0.997041
0.9691983196279745,1,0.997199
0.9693148854821131,1,0.997006
0.9693897710022021,1,0.997409
0.9694180564227768,1,0.997494
0.9694119212377027,1,0.997354
0.9693723747014404,1,0.977778
0.9692868560764621,1,0.996988
0.9691800848812364,1,0.997312
0.9690366454101002,1,0.997409
0.9689418691693737,1,0.981250
0.9688406235770918,1,0.996416
0.9687265081645037,1,0.997494
0.9685620898885808,1,0.997494
0.9684140142215295,1,0.997475
0.9683116682669795,1,0.997354
0.9682055796186879,1,0.997494
0.9680802390257995,1,0.997449
0.9679166222519219,1,0.997033
0.967763798484256,1,0.997382
0.9676699330757706,1,0.997354
0.967568368643369,1,0.990446
0.9674327332772761,1,0.997468
0.9672824223327753,1,0.990937
0.9671284998547681,1,0.997475
0.9669447608036881,1,0.997396
0.9667246660124387,1,0.995169
0.9665031865326168,1,0.997475
0.9663071610256687,1,0.997354
0.966124897509239,1,0.996933
0.9659374924168675,1,0.997354
0.9657353884158285,1,0.997347
0.965492598776229,1,0.997468
0.9654823763700621,1,0.996528
0.8490960081303172,0,0.940260
0.8597846431345926,1,0.982036
0.8692195782825557,1,0.994987
0.8780815866606999,1,0.986264
0.8864914164210691,1,0.980769
0.8942034529970267,1,0.996241
0.9009273449546299,1,0.979167
0.9075315696560202,1,0.997275
0.9127432098142031,1,0.997475
0.9176118264417644,1,0.997059
0.9218328818884894,1,0.997475
0.9254769048889042,1,0.997475
0.9286050806632691,1,0.967532
0.9322952171053024,0,0.972840
0.9353673858696827,1,0.981675
0.9381876145162391,1,0.996429
0.9405412208400276,1,0.997033
0.9424735802874616,1,0.978836
0.944598058977531,1,0.987835
0.9466726863946775,1,0.997354
0.9485331508749844,1,0.994580
0.9499724952373405,1,0.997118
0.9513615750992125,1,0.997326
0.952877306639821,1,0.997006
0.9542035425892385,1,0.992167
0.9553868492400585,1,0.997475
0.9563228419726646,1,0.997494
0.9570317103427226,1,0.997275
0.957488424203653,1,0.997347
0.9579199698118859,1,0.997475
0.9582458556118564,1,0.997183
0.958452731716566,1,0.997326
0.9588554005324141,1,0.982405
0.9592293837372955,1,0.997268
0.9595135428283506,1,0.997475
0.9596539257698332,1,0.997494
0.9598066055266464,1,0.997290
0.9603192329742036,1,0.997475
0.9607660301032348,1,0.997354
0.961102966568518,1,0.997389
0.9613675471072272,1,0.997312
0.9616742980974069,1,0.997347
0.9620253934151775,1,0.997409
0.9623402725507444,1,0.997183
0.9625804043806272,1,0.996894
0.9627231508016831,1,0.997126
0.9627584690037881,1,0.997297
0.9627808984256133,1,0.976190
0.9627167951986092,1,0.980198
0.9626313591108816,1,0.997268
0.9625440711255231,1,0.997214
0.9625769987961235,1,0.997006
0.9625287716624243,1,0.997494
0.9624906829438921,1,0.996774
0.9623884852047828,1,0.997354
0.9623137036755998,1,0.997494
0.9623310488150624,1,0.997297
0.9623143445207512,1,0.997543
0.9622228739868902,1,0.997494
0.9621158522108672,1,0.997409
0.9620364639026477,1,0.996124
0.9620359772485264,1,0.984375
0.9620000817250245,1,0.996855
0.9619286648370635,1,0.992593
0.9618304473462921,1,0.997543
0.9616683857945907,1,0.997475
0.9615423143294912,1,0.997093
0.9613852827598176,1,0.994135
0.9611958089872161,1,0.997475
0.9610379235827933,1,0.981884
0.9609198736114939,1,0.997494
0.9607820253859326,1,0.997403
0.9606155679091696,1,0.997409
0.9603937442002949,1,0.997494
0.9611781333372568,1,0.997041
0.9620755555125049,1,0.997347
0.9629409942612122,1,0.997475
0.9637852267542139,1,0.997475
0.9645785443792289,1,0.996774
0.965403331768822,1,0.997222
0.9661531633636141,1,0.992593
0.9669127599777653,1,0.997275
0.9676041511844548,1,0.996979
0.968266983924562,1,0.997475
0.9688632341579134,1,0.997475
0.9694725456971488,1,0.992593
0.9699959030311581,1,0.997475
0.970542123338262,1,0.997475
0.9710846082965258,1,0.997333
0.9716039813451688,1,0.997382
0.9721081238225473,1,0.997118
0.9726025230151378,1,0.997409
0.9035237373834245,1,0.981081
0.9107038357072542,1,0.997475
0.9169409835405777,1,0.997494
0.9226817776528475,1,0.994609
0.927688376140413,1,0.978836
0.931842272513515,1,0.983380
0.9358308718539843,1,0.981865
0.9398996204380043,1,0.997260
0.9435549283531852,1,0.985185
0.9467675318520609,1,0.992063
0.9496128838200895,1,0.989418
0.9519174781681068,1,0.989637
0.9536802741533337,1,0.994638
0.9551181500959278,1,0.979228
0.956330679069508,1,0.997382
0.9573722090465422,1,0.994624
0.9587778322466944,1,0.992042
0.9599782465487321,1,0.994624
0.9609526299206804,1,0.989583
0.9617543976082639,1,0.997475
0.9626473823431809,1,0.997041
0.9637214354274408,1,0.994681
0.9646652117198692,1,0.997183
0.9654070464725628,1,0.997375
0.9659107558568796,1,0.997494
0.9665412176501502,1,0.997475
0.9672979679689644,1,0.990123
0.967871792359922,1,0.997494
0.9683608931290705,1,0.996599
0.9687087534990638,1,0.997006
0.9689651649046481,1,0.997006
0.969111662178427,1,0.997354
0.9691630084648383,1,0.996997
0.9690444467854351,1,0.997475
0.969087912133807,1,0.996960
0.969207509071769,1,0.995086
0.969230823437744,1,0.996933
0.9691937040356938,1,0.997354
0.9690763436947676,1,0.992593
0.9691331642180021,1,0.991018
0.9690847808037644,1,0.997347
0.9689270280276354,1,0.997475
0.9687149672506318,1,0.997230
0.9683892860592028,1,0.997033
0.9682542845684297,1,0.997389
0.9681592979488194,1,0.997494
0.9679615348261383,1,0.997475
0.9677688392949029,1,0.988235
0.9675115834484201,1,0.997475
0.9672397453583813,1,0.997543
0.9669704680182677,1,0.992593
0.9666337629375307,1,0.997333
0.9662457525524091,1,0.997543
0.9659357635546223,1,0.996894
0.9656545549937512,1,0.997409
0.9653432440598984,1,0.997494
0.9649839212558494,1,0.996032
0.9646171482791047,1,0.994012
0.9648121565391797,1,0.997475
0.9649410589665907,1,0.992593
0.9650509886088668,1,0.997326
0.9651013206638898,1,0.997041
0.9651037576963348,1,0.997494
0.9652387885725107,1,0.994580
0.9653407351608193,1,0.996933
0.9654039352101045,1,0.997475
0.9654335546553411,1,0.997396
0.965478986525437,1,0.992806
0.9654990188927038,1,0.997354
0.9654788373489099,1,0.997475
0.9654228828769803,1,0.997326
0.9653332147169306,1,0.987981
0.9652731635342328,1,0.994186
0.965222987596248,1,0.997312
0.9651336164439013,1,0.997268
0.9650378854132821,1,0.997305
0.9649260307826799,1,0.992593
0.964859405908193,1,0.997101
0.9647721476232493,1,0.993056
0.9646451457374159,1,0.997389
0.9644672060806999,1,0.997475
0.9643626159005383,1,0.997382
0.9642797179772009,1,0.997283
0.9641780859756762,1,0.996960
0.9640658211242875,1,0.992593
0.963915628475754,1,0.997245
0.9637773013619805,1,0.997354
0.963638603904005,1,0.996528
0.9634841515455547,1,0.997319
0.9633030727798665,1,0.997340
0.9631464066059091,1,0.995062
0.9630005154306805,1,0.997389
0.9628459380170337,1,0.987981
0.962651094167306,1,0.995062
0.9015814302631885,0,0.963731
0.9087358208347048,1,0.996914
0.9147590208533198,1,0.986737
0.9200662088733482,1,0.984894
0.9251506016778293,1,0.990172
0.9289551299950541,1,0.997006
0.9333741452883919,1,0.986772
0.9374424562747815,1,0.991979
0.9407775970461428,1,0.992063
0.9440088049159392,1,0.985185
0.9466778650581263,0,0.963687
0.9487004303773375,1,0.987730
0.9504682779214918,1,0.996951
0.9520419457940031,1,0.992042
0.9531234170609012,1,0.990683
0.9544449409908539,1,0.994318
0.955926279816738,1,0.997368
0.9570548307664607,1,0.992228
0.9579990441544214,1,0.996599
0.9588645868475272,1,0.994819
0.9599282978474682,1,0.997475
0.9606836758078254,1,0.997403
0.9613585203979131,1,0.996997
0.9617834366651082,1,0.997207
0.9623543063242646,1,0.996933
0.9630636766238972,1,0.997375
0.9636253747408132,1,0.994118
0.9640768368358882,1,0.997475
0.9644010701641156,1,0.990123
0.9645342228950035,1,0.994652
0.964523651221555,1,0.995086
0.9644245846036881,1,0.997375
0.9642464483964501,1,0.996610
0.9642117643669198,1,0.996933
0.9642179124902086,1,0.997326
0.9641653676074673,1,0.997347
0.9640969668353393,1,0.993056
0.9639042676122096,1,0.997354
0.9645265799357984,1,0.997494
0.965287323459016,1,0.997305
0.9659721432285012,1,0.997494
0.9665774753214825,1,0.996885
0.9670971365491886,1,0.997340
0.9677682190126214,1,0.997326
0.9683786022458669,1,0.997275
0.9689165289087472,1,0.994460
0.9694214171546333,1,0.997041
0.9697990412652984,1,0.997403
0.970104539542525,1,0.997475
0.9703739624658858,1,0.997475
0.9705808682052831,1,0.997375
0.9707574163128132,1,0.993711
0.9710410776744564,1,0.994580
0.971222931537154,1,0.992593
0.9713845240870079,1,0.997494
0.9714815699182647,1,0.991045
0.9714713043934661,1,0.987981
0.9714173742803761,1,0.997347
0.9713183262121081,1,0.994065
0.9711724214440773,1,0.997475
0.9710434078632902,1,0.997494
0.9710168728070359,1,0.997449
0.9709855571706988,1,0.994135
0.9709184515784075,1,0.997354
0.9708325913656376,1,0.994030
0.9706800964878254,1,0.992665
0.9705294091837359,1,0.992593
0.9703650979498737,1,0.997326
0.9701671325634191,1,0.997494
0.9700097153559146,1,0.997347
0.9698652414766172,1,0.997382
0.9696977155273251,1,0.994536
0.9695080081432388,1,0.996212
0.9692885237714552,1,0.994624
0.9693487778040459,1,0.997494
0.9694293429841736,1,0.995134
0.9694573925416803,1,0.993220
0.9694632996340284,1,0.997543
0.969479089149129,1,0.997494
0.9695640570042728,1,0.992593
0.9696348137149191,1,0.997494
0.9696570675318494,1,0.997475
0.9696392058858868,1,0.997475
0.9696536383106439,1,0.997409
0.9695995050263635,1,0.997409
0.9695491854213771,1,0.997354
0.9694670326599721,1,0.997494
0.9693576717179414,1,0.992665
0.9692874657230803,1,0.986014
0.9691773369119753,1,0.997297
0.9690890021655499,1,0.997494
0.9690003852223277,1,0.996198
0.968850783992348,1,0.996078
0.9687278139152578,1,0.997475
0.9685407964358287,1,0.997024
0.9683301462749109,1,0.997475
0.9109947982995273,1,0.966887
0.917453091021221,1,0.988166
0.9235120928430656,1,0.986772
0.9289316406456556,1,0.997494
0.9334771848874894,1,0.997475
0.9376641409290075,0,0.963380
0.9410027846524922,1,0.997006
0.9436206992017426,1,0.997093
0.9460878499005523,1,0.997494
0.948008028723015,1,0.997475
0.9502923588444607,1,0.997312
0.9525019784432722,1,0.989610
0.9543697885554946,1,0.997494
0.9559626672313369,1,0.996063
0.9571549847464201,1,0.992063
0.9589742316112143,1,0.996933
0.9605836869196398,1,0.997475
0.9618205364456335,1,0.997475
0.962884377571607,1,0.997475
0.9639726870287239,1,0.997468
0.9651959649778733,1,0.982405
0.9662329810903414,1,0.997143
0.9671383325930348,1,0.997409
0.9679175366608966,1,0.994609
0.9684481118862728,1,0.989583
0.9688059198791394,1,0.997475
0.9690372931602077,1,0.995086
0.9692325032069796,1,0.994236
0.9692604592596737,1,0.997183
0.9695579571231784,1,0.997475
0.9697219275988733,1,0.992063
0.9698325626289246,1,0.997475
0.9699261189610392,1,0.997354
0.9698807253567935,1,0.992021
0.9699788707729894,1,0.989583
0.9699966931626389,1,0.997475
0.9698792989540382,1,0.997312
0.969719378788146,1,0.983051
0.9696624449238407,1,0.997475
0.9696696132437743,1,0.997024
0.9696504404695927,1,0.994521
0.9696015413857402,1,0.997449
0.9694460603972461,1,0.994580
0.9692661670376975,1,0.997409
0.9690530436284182,1,0.988270
0.9687348209845864,1,0.992593
0.968410307720134,1,0.997475
0.9680580072796193,1,0.997475
0.967818398660271,1,0.997475
0.967488828963603,1,0.997403
0.9672210785839531,1,0.997403
0.9668276825912908,1,0.992665
0.966682315167308,1,0.997475
0.9665928567606793,1,0.997305
0.9664148496787571,1,0.997449
0.9662604903639025,1,0.997222
0.9660419848651823,1,0.996364
0.9660005053744855,1,0.997475
0.9659022388984737,1,0.997403
0.9658296284627553,1,0.997118
0.965685265885094,1,0.983516
0.9654464014896915,1,0.997409
0.9652719664803608,1,0.994580
0.9649866538839653,1,0.997475
0.964713309912752,1,0.990291
0.9644085999848284,1,0.997475
0.964203552078068,1,0.992593
0.9639310151594683,1,0.997543
0.963699682058832,1,0.997101
0.9634567738377166,1,0.997494
0.9632083695046713,1,0.996933
0.9630427595116627,1,0.997475
0.9628018091160737,1,0.996933
0.9625219038482038,1,0.997222
0.9622778714484226,1,0.994624
0.9619579561110048,1,0.997222
0.9617107967380393,1,0.997449
0.9614766854788005,1,0.997305
0.9612197201088784,1,0.992982
0.9609701362694799,1,0.997347
0.9607470882219153,1,0.997354
0.9604925308815698,1,0.997354
0.9602507253758418,1,0.997449
0.9599405762334899,1,0.995062
0.9596543479750469,1,0.997183
0.9593599045149503,1,0.997354
0.95909207225419,1,0.997118
0.9588110750350894,1,0.997409
0.9586688891926025,1,0.995062
0.9593015376290269,1,0.996689
0.9599076224808497,1,0.997326
0.9604964071069212,1,0.997382
0.9610792930824592,1,0.997475
0.9616290362811895,1,0.997041
0.96218301904841,1,0.997475
0.9627072132405196,1,0.997409
0.9632168405259338,1,0.997475
0.9636906158924742,1,0.997494
0.9380699539915497,1,0.991304
