0.058750411312058125,0,0.974841
0.5355673048168457,0,0.891784
0.9999164486275669,1,0.999911
0.9998944127137558,1,0.999910
0.9999999881491487,1,0.999912
0.9999999999999964,1,0.999922
1.0,1,0.999928
0.9999999999999966,1,0.999904
0.9999999999999989,1,0.999909
1.0,1,0.999906
0.999999999999999,1,0.999916
1.0,1,0.999903
1.0,1,0.999927
1.0,1,0.999890
1.0,1,0.999903
1.0,1,0.999897
0.9999999999999952,1,0.999928
1.0,1,0.999923
1.0,1,0.999918
0.9999999999999969,1,0.999893
0.9999999999999947,1,0.999922
1.0,1,0.999919
1.0,1,0.999922
0.9999999999999988,1,0.999914
1.0,1,0.999922
0.9999999999999974,1,0.999918
0.999999999999998,1,0.999919
0.9999999999999978,1,0.999927
0.9999999999999938,1,0.999923
0.9999999999999931,1,0.999919
1.0,1,0.999909
1.0,1,0.999909
0.999999999999997,1,0.999917
1.0,1,0.999908
0.9999999999999962,1,0.999909
0.9999999999999922,1,0.999901
1.0,1,0.999920
0.9999999999999937,1,0.999895
1.0,1,0.999876
1.0,1,0.999925
0.9999999999999996,1,0.999926
0.9999999999999969,1,0.999919
1.0,1,0.999924
0.9999999999999934,1,0.999925
0.999999999999999,1,0.999907
1.0,1,0.999898
1.0,1,0.999927
0.9999999999999984,1,0.999890
1.0,1,0.999899
1.0,1,0.999891
1.0,1,0.999907
1.0,1,0.999925
0.9999999999999937,1,0.999910
0.9999999999999972,1,0.999903
0.9999999999999983,1,0.999920
0.999999999999996,1,0.999917
1.0,1,0.999916
0.9999999999999925,1,0.999912
1.0,1,0.999923
1.0,1,0.999905
0.9999999999999896,1,0.999908
1.0,1,0.999913
1.0,1,0.999917
0.9999999999999971,1,0.999906
1.0,1,0.999918
0.999988483310117,1,0.999928
0.9999999999990101,1,0.999918
1.0,1,0.999910
0.9999999999999949,1,0.999927
1.0,1,0.999927
0.9999999999999946,1,0.999920
1.0,1,0.999910
0.9999999999999974,1,0.999920
1.0,1,0.999916
0.999999999999995,1,0.999913
0.9999999999999993,1,0.999920
1.0,1,0.999914
0.9999999999999963,1,0.999911
0.9999999999999974,1,0.999505
0.999999999999997,1,0.999896
1.0,1,0.999888
1.0,1,0.999902
0.9999999999999978,1,0.999910
1.0,1,0.999927
0.9999999999999992,1,0.999888
0.9999999999999999,1,0.999917
1.0,1,0.999871
1.0,1,0.999913
0.9999999999999949,1,0.999893
1.0,1,0.999894
1.0,1,0.999849
0.9999999999999972,1,0.999885
1.0,1,0.999912
0.9999999999999979,1,0.999895
1.0,1,0.999913
1.0,1,0.999886
0.9999999999999987,1,0.999906
0.9999999999999992,1,0.999906
0.9999999999999969,1,0.999878
1.0,1,0.999892
0.9999999999999998,1,0.999903
1.0,1,0.999889
0.9999999999999982,1,0.999893
1.0,1,0.999883
0.999999999999997,1,0.999918
0.999999999999991,1,0.999923
0.9999999999999936,1,0.999891
1.0,1,0.999917
1.0,1,0.999929
1.0,1,0.999927
0.9999999999999991,1,0.999915
1.0,1,0.999877
1.0,1,0.999923
1.0,1,0.999902
0.999999999999999,1,0.999873
0.9999999999999944,1,0.999913
1.0,1,0.999900
1.0,1,0.999890
1.0,1,0.999898
0.9999999999999989,1,0.999907
1.0,1,0.999906
0.9999999999999997,1,0.999903
1.0,1,0.999904
1.0,1,0.999907
0.999999999999998,1,0.999920
0.9999999999999972,1,0.999922
0.9999999999999941,1,0.999924
1.0,1,0.999930
1.0,1,0.999926
1.0,1,0.999925
0.9999999999999971,1,0.999928
1.0,1,0.999920
1.0,1,0.999925
0.9999999999999966,1,0.999921
1.0,1,0.999921
1.0,1,0.999870
1.0,1,0.999891
0.9999999999999981,1,0.999888
1.0,1,0.999887
0.9999999999999927,1,0.999892
1.0,1,0.999876
1.0,1,0.999898
0.9999999127398496,1,0.999925
0.9999999999999958,1,0.999928
1.0,1,0.999923
1.0,1,0.999926
1.0,1,0.999928
0.9999999999999996,1,0.999911
1.0,1,0.999885
0.9999999999999996,1,0.999892
1.0,1,0.999896
1.0,1,0.999880
1.0,1,0.999886
0.9999999999999962,1,0.999919
1.0,1,0.999915
0.9999999999999947,1,0.999903
1.0,1,0.999909
1.0,1,0.999901
0.9999999999999964,1,0.999901
1.0,1,0.999893
1.0,1,0.999928
0.9999999999999966,1,0.999906
0.9999999999999981,1,0.999904
0.9999999999999939,1,0.999899
1.0,1,0.999895
0.9999999999999992,1,0.999906
0.9999999999999991,1,0.999910
1.0,1,0.999912
0.9999999999999978,1,0.999923
0.9999999999999992,1,0.999925
1.0,1,0.999911
0.9999999999999984,1,0.999919
1.0,1,0.999928
0.9999999999999971,1,0.999893
1.0,1,0.999910
1.0,1,0.999915
1.0,1,0.999913
0.9999999999999976,1,0.999927
1.0,1,0.999901
1.0,1,0.999892
0.9999999999999982,1,0.999922
0.9999999999999961,1,0.999920
1.0,1,0.999897
1.0,1,0.999899
1.0,1,0.999898
1.0,1,0.999886
0.9999999999999979,1,0.999868
1.0,1,0.999883
1.0,1,0.999880
0.9999999999999973,1,0.999886
1.0,1,0.999866
1.0,1,0.999921
1.0,1,0.999908
0.9999999999999998,1,0.999918
1.0,1,0.999890
1.0,1,0.999911
0.9999999999999974,1,0.999930
1.0,1,0.999918
0.9999999999999998,1,0.999899
0.9999999999999981,1,0.999908
1.0,1,0.999929
0.9999999771520364,1,0.999902
0.9999999999995747,1,0.999890
0.9999999999998184,1,0.999907
0.9999999999998672,1,0.999916
0.9999999999999478,1,0.999912
1.0,1,0.999906
1.0,1,0.999930
1.0,1,0.999898
0.9999999999999964,1,0.999913
0.9999999999999982,1,0.999902
0.999999999999993,1,0.999917
1.0,1,0.999896
1.0,1,0.999914
1.0,1,0.999899
1.0,1,0.999878
0.9999999999999973,1,0.999901
0.9999999999999938,1,0.999911
1.0,1,0.999884
1.0,1,0.999906
1.0,1,0.999922
1.0,1,0.999917
0.9999999999999932,1,0.999920
1.0,1,0.999919
0.9999999999999977,1,0.999915
1.0,1,0.999923
1.0,1,0.999919
0.9999999999999925,1,0.999924
1.0,1,0.999900
1.0,1,0.999886
1.0,1,0.999902
1.0,1,0.999880
0.9999999999999928,1,0.999905
1.0,1,0.999871
1.0,1,0.999853
0.9999999999999972,1,0.999884
0.9999999999999983,1,0.999930
0.9999999999999989,1,0.999881
1.0,1,0.999908
1.0,1,0.999915
1.0,1,0.999926
1.0,1,0.999917
0.9999999999999966,1,0.999916
0.9999999999999996,1,0.999921
1.0,1,0.999916
0.9999999999999982,1,0.999917
1.0,1,0.999911
1.0,1,0.999895
1.0,1,0.999892
1.0,1,0.999907
1.0,1,0.999917
0.999999999999993,1,0.999916
0.9999999999999971,1,0.999927
0.9999999999999927,1,0.999907
1.0,1,0.999914
1.0,1,0.999876
1.0,1,0.999882
1.0,1,0.999876
0.9999999999999981,1,0.999916
1.0,1,0.999902
0.9999999999999963,1,0.999898
1.0,1,0.999924
0.9999999999999993,1,0.999894
0.999999999999999,1,0.999892
0.9999999999999964,1,0.999908
0.9999999999999959,1,0.999905
0.9999999999999971,1,0.999910
0.9999999999999961,1,0.999916
0.9999999999999956,1,0.999923
0.9999999999999969,1,0.999918
1.0,1,0.999917
1.0,1,0.999879
0.9999999999999976,1,0.999898
1.0,1,0.999915
0.9999999999999922,1,0.999895
1.0,1,0.999880
0.9999999999999988,1,0.999881
0.9999999999999996,1,0.999883
1.0,1,0.999886
1.0,1,0.999886
1.0,1,0.999915
0.9999999999999959,1,0.999894
0.9999999999999988,1,0.999916
1.0,1,0.999920
1.0,1,0.999880
0.9999999999999982,1,0.999919
0.9999999999999958,1,0.999920
1.0,1,0.999900
0.9999999999999979,1,0.999887
0.999999999999999,1,0.999930
1.0,1,0.999871
1.0,1,0.999848
0.9999999999999913,1,0.999891
0.9999999999999951,1,0.999894
1.0,1,0.999922
1.0,1,0.999925
1.0,1,0.999881
1.0,1,0.999908
0.9999999999999994,1,0.999894
0.9999999999999969,1,0.999907
1.0,1,0.999924
1.0,1,0.999927
1.0,1,0.999928
0.9999999999999886,1,0.999878
1.0,1,0.999922
1.0,1,0.999910
1.0,1,0.999911
0.9999999999999923,1,0.999921
1.0,1,0.999918
1.0,1,0.999914
1.0,1,0.999914
1.0,1,0.999930
0.9999999999999988,1,0.999876
0.9999999999999991,1,0.999892
1.0,1,0.999879
0.9999999999999909,1,0.999871
1.0,1,0.999883
1.0,1,0.999886
0.9999999999999987,1,0.999890
1.0,1,0.999918
1.0,1,0.999904
0.999999999999993,1,0.999907
1.0,1,0.999866
1.0,1,0.999885
1.0,1,0.999902
0.9999999999999993,1,0.999908
0.9999999999999951,1,0.999893
1.0,1,0.999881
1.0,1,0.999891
1.0,1,0.999907
0.999999999999999,1,0.999919
0.9999999999999937,1,0.999913
0.9999999999999956,1,0.999887
0.9999999999999962,1,0.999892
1.0,1,0.999886
0.9999999999999996,1,0.999906
1.0,1,0.999906
1.0,1,0.999929
1.0,1,0.999881
0.9999999999999973,1,0.999905
1.0,1,0.999917
1.0,1,0.999928
1.0,1,0.999930
1.0,1,0.999903
0.9999999999999942,1,0.999906
1.0,1,0.999874
1.0,1,0.999921
0.9999999999999982,1,0.999922
0.9999999999787292,1,0.999917
1.0,1,0.999927
1.0,1,0.999929
1.0,1,0.999920
0.9999999999999949,1,0.999902
1.0,1,0.999884
1.0,1,0.999865
0.9999999999999982,1,0.999874
0.9999999999999916,1,0.999878
0.999999999999999,1,0.999879
1.0,1,0.999864
1.0,1,0.999864
0.9999999999999998,1,0.999898
0.9999999999999999,1,0.999880
1.0,1,0.999890
0.9999999999999987,1,0.999921
1.0,1,0.999920
0.9999999999999956,1,0.999921
0.9999999999999876,1,0.999894
1.0,1,0.999904
0.9999999999999987,1,0.999912
1.0,1,0.999871
1.0,1,0.999899
1.0,1,0.999880
1.0,1,0.999901
0.9999999999999937,1,0.999911
0.999999999999996,1,0.999900
1.0,1,0.999885
0.9999999999999984,1,0.999908
0.9999999999999906,1,0.999915
1.0,1,0.999891
0.9999999999999999,1,0.999887
0.9999999999999957,1,0.999898
1.0,1,0.999887
0.9999999999999984,1,0.999894
0.9999999999999938,1,0.999925
1.0,1,0.999913
1.0,1,0.999915
1.0,1,0.999896
0.9999999999999918,1,0.999930
0.9999999999999976,1,0.999875
0.9999999999999932,1,0.999899
0.9999999999999989,1,0.999929
0.9999999999999996,1,0.999916
0.9999999999999956,1,0.999927
1.0,1,0.999917
1.0,1,0.999908
1.0,1,0.999922
1.0,1,0.999910
1.0,1,0.999907
0.9999999999999988,1,0.999913
0.9999999999999956,1,0.999908
1.0,1,0.999905
0.9999999999999925,1,0.999927
0.9999999999999928,1,0.999910
0.9999999999999998,1,0.999926
0.9999999999999925,1,0.999924
0.999999999999996,1,0.999890
1.0,1,0.999895
1.0,1,0.999914
0.9999999999999969,1,0.999906
0.9999999999999938,1,0.999912
1.0,1,0.999906
1.0,1,0.999903
0.999999999999998,1,0.999885
0.9999999999999922,1,0.999908
1.0,1,0.999901
0.9999999999999825,1,0.999915
1.0,1,0.999909
0.9999999999999987,1,0.999908
1.0,1,0.999917
0.9999999999999989,1,0.999919
0.9999999999999962,1,0.999921
1.0,1,0.999889
1.0,1,0.999890
1.0,1,0.999899
0.9999999999999998,1,0.999902
0.999999999999991,1,0.999421
1.0,1,0.999914
0.9999999999999959,1,0.999912
0.9999999999999971,1,0.999906
0.9999999999999978,1,0.999902
0.9999999999999989,1,0.999901
1.0,1,0.999914
0.9999999999999966,1,0.999914
1.0,1,0.999900
0.9999999999999989,1,0.999922
1.0,1,0.999922
1.0,1,0.999903
0.9999999999999962,1,0.999912
0.9999999999999996,1,0.999918
1.0,1,0.999900
1.0,1,0.999926
1.0,1,0.999914
0.999999999999997,1,0.999931
0.9999999999999953,1,0.999927
1.0,1,0.999911
1.0,1,0.999909
1.0,1,0.999901
1.0,1,0.999911
0.9999999999999971,1,0.999930
1.0,1,0.999896
0.9999999999999909,1,0.999889
1.0,1,0.999881
0.999999999999996,1,0.999882
1.0,1,0.999861
0.9999999999999941,1,0.999892
0.9999999999999961,1,0.999875
1.0,1,0.999875
1.0,1,0.999871
1.0,1,0.999874
0.9999999999999959,1,0.999892
0.9999999999999984,1,0.999878
1.0,1,0.999876
0.9999999999999984,1,0.999868
0.9999999999999939,1,0.999883
0.9999999999999978,1,0.999885
1.0,1,0.999920
1.0,1,0.999919
1.0,1,0.999912
1.0,1,0.999912
0.999999999999998,1,0.999908
0.9999999999999939,1,0.999915
0.9999999999999934,1,0.999899
1.0,1,0.999916
0.9999999999999875,1,0.999889
1.0,1,0.999844
0.9999999999999951,1,0.999873
0.9999999999999937,1,0.999908
0.9999999999999993,1,0.999899
0.9999999999999984,1,0.999894
1.0,1,0.999903
1.0,1,0.999892
0.9999999999999988,1,0.999910
0.9999999999999928,1,0.999918
1.0,1,0.999909
0.9999999999999999,1,0.999859
1.0,1,0.999889
0.9999999999999994,1,0.999909
0.999999999999999,1,0.999906
1.0,1,0.999912
1.0,1,0.999916
1.0,1,0.999909
0.9999999999999982,1,0.999901
0.999999999999998,1,0.999885
0.9999999999999997,1,0.999896
1.0,1,0.999922
1.0,1,0.999916
0.9999999999999954,1,0.999890
0.9999999999999993,1,0.999899
1.0,1,0.999902
1.0,1,0.999911
0.9999999999999974,1,0.999907
0.9999999999999931,1,0.999920
1.0,1,0.999885
0.9999999999999989,1,0.999900
1.0,1,0.999862
0.9999999999999933,1,0.999902
1.0,1,0.999877
1.0,1,0.999901
0.9999999999999989,1,0.999895
1.0,1,0.999905
0.9999999999999947,1,0.999887
1.0,1,0.999904
1.0,1,0.999882
1.0,1,0.999900
1.0,1,0.999886
0.9999999999999974,1,0.999913
0.9999999999999978,1,0.999903
1.0,1,0.999878
0.9999999999999953,1,0.999923
0.9999999999999937,1,0.999909
0.9999999999999989,1,0.999903
0.9999999999999942,1,0.999897
1.0,1,0.999905
1.0,1,0.999924
0.9999999999999942,1,0.999916
0.9999999999999991,1,0.999901
1.0,1,0.999911
1.0,1,0.999917
0.9999999999999974,1,0.999878
1.0,1,0.999886
1.0,1,0.999906
0.9999999999999964,1,0.999911
0.9999999999345469,1,0.999915
0.9999999999999952,1,0.999911
0.9999999999999996,1,0.999923
1.0,1,0.999919
0.9999999999999989,1,0.999913
0.9999999999999948,1,0.999897
0.9999999999999939,1,0.999909
0.9999999999999961,1,0.999904
1.0,1,0.999894
0.999999999999996,1,0.999910
1.0,1,0.999922
0.9999999999999949,1,0.999927
1.0,1,0.999904
0.9999999999999983,1,0.999923
1.0,1,0.999922
0.999999999999995,1,0.999891
1.0,1,0.999919
1.0,1,0.999901
0.9999999999999967,1,0.999890
0.9999999999999979,1,0.999899
0.9999999999999983,1,0.999903
1.0,1,0.999920
0.9999074534985681,1,0.999911
0.9999999999999899,1,0.999882
0.9999999999999992,1,0.999895
0.9999999999999979,1,0.999898
0.9999999999999931,1,0.999894
1.0,1,0.999861
1.0,1,0.999901
0.999999999999995,1,0.999898
1.0,1,0.999914
1.0,1,0.999912
1.0,1,0.999914
1.0,1,0.999896
0.9999999999999993,1,0.999916
1.0,1,0.999907
1.0,1,0.999899
1.0,1,0.999908
0.999999999999996,1,0.999909
1.0,1,0.999903
0.9999999999999999,1,0.999923
1.0,1,0.999911
0.9999999999999946,1,0.999912
1.0,1,0.999916
0.9999999999999959,1,0.999921
1.0,1,0.999925
0.9999999999999976,1,0.999920
0.9999999999999972,1,0.999920
1.0,1,0.999922
1.0,1,0.999918
0.9999999999999915,1,0.999928
1.0,1,0.999911
1.0,1,0.999909
1.0,1,0.999874
0.9999999999999944,1,0.999892
1.0,1,0.999904
1.0,1,0.999902
0.9999999999999923,1,0.999904
0.9999999999999974,1,0.999909
1.0,1,0.999899
0.9999999999999898,1,0.999926
0.9999999999999974,1,0.999896
1.0,1,0.999912
0.9999999999999957,1,0.999892
1.0,1,0.999901
1.0,1,0.999883
1.0,1,0.999881
0.9999999999999988,1,0.999897
1.0,1,0.999917
1.0,1,0.999895
0.9999999999999931,1,0.999900
0.999999999999998,1,0.999911
1.0,1,0.999922
1.0,1,0.999922
0.9999999999999987,1,0.999909
1.0,1,0.999908
1.0,1,0.999908
1.0,1,0.999917
0.9999999999999992,1,0.999903
1.0,1,0.999916
0.9999999999999918,1,0.999912
1.0,1,0.999876
1.0,1,0.999891
1.0,1,0.999890
0.9999999999999944,1,0.999925
1.0,1,0.999896
1.0,1,0.999915
1.0,1,0.999906
0.9999999999999911,1,0.999868
1.0,1,0.999918
0.9999999999999934,1,0.999929
0.9999999999999918,1,0.999878
0.9999999999999978,1,0.999907
1.0,1,0.999892
0.9999999999999974,1,0.999918
0.9999999999999969,1,0.999925
0.9999999999999993,1,0.999928
0.9999999999999966,1,0.999918
0.9999999999999936,1,0.999909
1.0,1,0.999895
1.0,1,0.999909
1.0,1,0.999913
1.0,1,0.999900
0.9999999999999952,1,0.999901
0.9999999999999968,1,0.999912
0.9999999999999966,1,0.999909
0.9999999999999992,1,0.999906
1.0,1,0.999916
0.9999999999999968,1,0.999922
1.0,1,0.999922
0.9999999999999977,1,0.999925
1.0,1,0.999923
0.9999999999999957,1,0.999903
0.9999999999999923,1,0.999919
0.9999999999999954,1,0.999909
1.0,1,0.999878
0.9999999999999956,1,0.999902
1.0,1,0.999889
1.0,1,0.999881
0.9999999999999976,1,0.999882
1.0,1,0.999895
1.0,1,0.999882
1.0,1,0.999921
