0.4103170258105245,1,0.999892
0.9499721248403205,0,0.997886
0.9681147541573193,1,0.999508
0.9724726624465222,1,0.999931
0.9521370108946643,1,0.999930
0.9714909482493025,1,0.999905
0.9707778702967803,1,0.999933
0.9077423977470067,0,0.995952
0.9817386929328122,0,0.999100
0.9601051202612719,1,0.999924
0.9391719548278419,1,0.999917
0.9796082102672022,1,0.999774
0.9538209881664284,0,0.988414
0.9654487202329433,1,0.999912
0.9799930490682289,1,0.999439
0.9660257003477772,1,0.999922
0.9837750973843888,1,0.999910
0.9450460014244744,1,0.999927
0.9727447312967938,1,0.999694
0.9839504266534017,1,0.999922
0.9849853370319719,1,0.999863
0.965467231792653,1,0.999919
0.9624320295351854,1,0.999822
0.9812526186883593,1,0.999901
0.9652892024645781,1,0.999827
0.981576787307758,1,0.999874
0.9775200762144869,0,0.996536
0.9536280414663056,0,0.993688
0.9604367363639744,1,0.999922
0.9923595304319498,1,0.999807
0.9879405704407815,0,0.998035
0.9779326450064414,0,0.872624
0.9835539630049809,1,0.999886
0.9756512701834806,1,0.999901
0.9756039439979153,1,0.999852
0.9803391758525013,1,0.999903
0.9326328461683012,1,0.999920
0.9705996366728746,1,0.999681
0.946365688965618,0,0.996268
0.9611262824680807,1,0.999923
0.9821776994395837,1,0.999910
0.9641190949071997,1,0.999837
0.9732012013554217,1,0.999922
0.9372935815627184,0,0.993440
0.98926268845182,1,0.999932
0.9844147618212503,1,0.999927
0.9655950749909488,1,0.999912
0.9837632956045161,1,0.999919
0.9766837752909263,1,0.999876
0.9150362469363524,1,0.999844
0.9631712520204001,1,0.999690
0.9598454607232105,1,0.999925
0.9844050166681576,1,0.999920
0.963781912879432,1,0.999812
0.9810383267688827,1,0.999875
0.9927135264869364,1,0.999911
0.9807130707840648,1,0.999917
0.9829530580208725,1,0.999925
0.9877506955398019,1,0.999632
0.9681994275837562,1,0.999919
0.9884533953230529,1,0.999924
0.9747729794901886,1,0.999899
0.9823769134160589,1,0.999716
0.9734178414137584,1,0.999890
0.9794247713557097,0,0.997151
0.9767126268186683,1,0.999925
0.9734888774863673,1,0.999340
0.9918931720223577,1,0.999895
0.9908827523627112,0,0.859884
0.9866262392470453,1,0.999668
0.9760653516909813,1,0.999897
0.9842611892081908,1,0.999926
0.9792298644231622,1,0.999900
0.9849452626067506,1,0.999926
0.9695432838893966,1,0.999928
0.9498585689056425,1,0.999633
0.9756063714993685,1,0.999920
0.9660476579498384,0,0.997924
0.9617058281933039,1,0.999915
0.9614014683040226,1,0.999921
0.9816744721848997,1,0.999899
0.9896644246078089,1,0.999878
0.9898788965577694,1,0.999879
0.9906391904041981,1,0.999863
0.9812423612065496,0,0.998160
0.9935681824648672,1,0.999891
0.9838610848965809,1,0.999905
0.9668011742905703,1,0.999542
0.9795273258794838,1,0.999410
0.9638157674845079,1,0.999922
0.9681675569156724,1,0.999916
0.9778813542907844,1,0.999930
0.9547261879981942,1,0.999925
0.9752498907528738,1,0.999903
0.9741922301203086,1,0.999916
0.9774211174228106,1,0.999927
0.9778076931613998,1,0.999930
0.9630627866199497,1,0.999932
0.9584692116527955,1,0.999929
0.9836746693027413,1,0.999885
0.976691322633481,0,0.998585
0.9867891490871021,1,0.999894
0.9690891476102889,1,0.999909
0.9780886007651721,1,0.999931
0.9806398725412269,1,0.999926
0.9709112450579791,1,0.999688
0.8565996844831212,1,0.999324
0.9623067705654561,1,0.999916
0.98243915799302,0,0.949870
0.983347817647829,1,0.999888
0.9776200273778096,1,0.998954
0.9747746692047409,1,0.999896
0.9947752906692726,1,0.999129
0.9497402099037271,0,0.995898
0.9905458228594255,1,0.999920
0.9764369739035877,1,0.999928
0.9688975070904497,1,0.999931
0.9085968088105261,0,0.998835
0.9736672520748952,1,0.999920
0.9288455563966068,1,0.999851
0.9689268893533188,1,0.999832
0.9407813116453674,1,0.999854
0.9537517371174575,1,0.999926
0.9617576874494884,0,0.998604
0.9121944910832773,1,0.999927
0.9632265932672401,1,0.999922
0.94445462965105,1,0.999926
0.9289040835414895,1,0.999768
0.9670098324852111,1,0.999928
0.9387075840263606,0,0.999126
0.9507976585077932,1,0.999927
0.9652705091705355,1,0.999927
0.9800501670773398,1,0.999929
0.8845648933908056,1,0.999928
0.9341279169953796,1,0.999919
0.9715348660733636,1,0.999629
0.9827859751331085,1,0.999924
0.9720276033606653,1,0.999926
0.9425785366250888,1,0.999919
0.9889829832127189,1,0.999909
0.969300052857311,1,0.999497
0.9806990713204017,1,0.999899
0.9784499323512702,1,0.999902
0.9851440170407517,1,0.999646
0.9763380680364159,1,0.999472
0.9781187294998999,1,0.999759
0.9796239965841734,1,0.999904
0.9628259179431667,1,0.999814
0.9609658788418008,1,0.999710
0.887399492034292,1,0.999892
0.982300971904937,1,0.999866
0.966596641872586,1,0.999777
0.9755478372814417,0,0.994419
0.9841978571382191,1,0.999866
0.9858052096732658,0,0.998807
0.9860166678040513,1,0.999794
0.9808759264554072,1,0.999933
0.9829183488355364,1,0.999099
0.9640842291646028,1,0.999923
0.962395222709646,0,0.994756
0.9674380936602042,1,0.999921
0.9778900558333046,1,0.999904
0.9899075175378426,1,0.999916
0.986762558599911,1,0.999774
0.9703770092436994,0,0.996409
0.9294784120440271,0,0.999139
0.9667430199306637,1,0.999929
0.969994878514136,1,0.999918
0.9707198599917873,1,0.999833
0.9750609413382398,1,0.999911
0.9675620984919334,1,0.999890
0.9822710208941919,1,0.999925
0.9635325000869952,1,0.999927
0.968722930467919,0,0.975356
0.9694724806785369,1,0.999774
0.975925389601453,1,0.999839
0.9858850321679917,1,0.999891
0.9814546835611235,1,0.999856
0.9899504438927613,1,0.999593
0.9829241765101933,1,0.999917
0.9815462840263405,1,0.999923
0.9746091218054233,1,0.999851
0.977186860109343,1,0.999901
0.9614124588184999,1,0.999714
0.9808184149870194,0,0.998689
0.9795120728554985,1,0.999894
0.9758181548453636,1,0.999932
0.9658294796219413,1,0.999778
0.9884546267469841,1,0.999894
0.9882747006522914,1,0.999919
0.9576991520648755,0,0.878633
0.9692593121475395,1,0.999550
0.9821547913465851,1,0.999931
0.9557910421189068,1,0.999879
0.9848216604676516,1,0.999647
0.9753227618020339,1,0.999928
0.9785199067126588,1,0.999931
0.9820470054535774,1,0.999924
0.9849396283020486,1,0.999910
0.961497440163008,1,0.999889
0.946050583518295,1,0.999642
0.9750313609743434,0,0.971466
0.9869543269583263,1,0.999900
0.9847545210817406,0,0.998947
0.9817721780943522,1,0.999921
0.9879003812303273,1,0.999873
0.9804369696297475,1,0.999755
0.9849563429531898,0,0.998912
0.9876470890187219,1,0.999926
0.9165869479255672,1,0.999697
0.967666332033013,1,0.999560
0.9703920013021415,1,0.999824
0.9724784268169716,1,0.999908
0.9517717535717751,1,0.999858
0.9722743591088244,1,0.999932
0.9785783170903506,1,0.999931
0.9371804664178691,1,0.999809
0.976044402270309,1,0.999661
0.9806385348768002,1,0.999895
0.9889807661800534,1,0.999895
0.9871479748216871,1,0.999927
0.9657505567961144,1,0.999736
0.95995866466804,1,0.999914
0.9696049339411102,1,0.999178
0.989480807091489,1,0.999907
0.9803113105491537,1,0.999915
0.9637806014167056,0,0.995906
0.9840420568888227,1,0.999818
0.9723135300497995,1,0.999891
0.9700495993117227,1,0.999893
0.987210186222187,1,0.999885
0.9584807177028418,1,0.999880
0.9825654932548982,0,0.998836
0.9827631847345654,1,0.999870
0.9852448606105964,1,0.999872
0.9806364763971066,1,0.999869
0.9527431459098338,1,0.999907
0.9587803954025379,1,0.999569
0.9821708973235277,1,0.999919
0.9586081063240219,1,0.999914
0.9568213014215896,0,0.999038
0.9773393562617989,1,0.999932
0.963722496918328,1,0.999911
0.9748228489151726,1,0.999576
0.9777450155859866,1,0.999909
0.9844984260677241,1,0.999889
0.9603139731653163,1,0.999915
0.9828579775863844,1,0.999674
0.9788670872388164,1,0.999900
0.9539408031580942,0,0.998032
0.9797561080854388,1,0.999921
0.9576126471800416,1,0.999755
0.9827390674385169,1,0.999858
0.9636060553274848,1,0.999899
0.9713122124240393,1,0.999725
0.9876299011199591,1,0.999926
0.9697942109317355,0,0.998855
0.9660901797741412,1,0.999844
0.92768598022291,1,0.999921
0.9691483178454485,1,0.999845
0.9506087929649409,1,0.999341
0.9300654050664856,1,0.999594
0.8630865172769637,1,0.999923
0.9582043377603418,1,0.999176
0.9349746009530272,1,0.999676
0.9768065313782248,1,0.999885
0.9861466014020521,1,0.999702
0.9723490732657759,1,0.999894
0.9799125857897621,1,0.999784
0.9767710920325546,1,0.999895
0.9843807693914075,1,0.999879
0.985702827143087,1,0.999875
0.9872717046718668,1,0.999877
0.981464352046233,1,0.999683
0.9863943389352997,1,0.999565
0.9820375469509537,1,0.999864
0.9671840994755836,0,0.998073
0.9679857927779915,1,0.999890
0.9825059777821917,1,0.999874
0.9782846826791212,1,0.999920
0.9810680300579828,1,0.999918
0.9726473420406746,1,0.999916
0.9821685439840147,1,0.999833
0.9898401111757295,1,0.999875
0.9920622550818411,1,0.999901
0.9734001089585947,1,0.999917
0.9873368990424018,1,0.999916
0.9784485768403636,0,0.982291
0.9675031292138575,0,0.975118
0.9939398658555282,1,0.999799
0.9835952011898847,1,0.999921
0.9730546266783887,1,0.999890
0.9836789477696377,0,0.994809
0.9759423558870612,1,0.999907
0.9701398505767268,1,0.999914
0.9838625892274052,1,0.999925
0.9848224270562324,1,0.999891
0.9904289992057831,1,0.999875
0.9837205848914478,1,0.999080
0.9888571531935998,1,0.999880
0.9914411437985606,1,0.999929
0.9810607435954087,1,0.999932
0.9719123457815065,1,0.999892
0.9434650386529592,1,0.999912
0.9854505949958453,0,0.994067
0.9828024641472375,1,0.999861
0.9890065354140167,1,0.999577
0.987191804610931,1,0.999869
0.978768032072008,1,0.999731
0.9780907755771345,1,0.999869
0.9645551154332545,1,0.999454
0.9562416680789603,1,0.999927
0.9549314850208926,1,0.999926
0.9681957826930279,1,0.999901
0.9844341175373587,1,0.999804
0.9815163169450422,1,0.999305
0.9776743115806916,0,0.924229
0.9926329064392121,1,0.999874
0.9857650457419549,0,0.991512
0.9728792404624403,1,0.999708
0.9836873874061894,0,0.998634
0.9806442130496855,1,0.999713
0.9530905262678515,1,0.999821
0.9674579632646355,1,0.999811
0.9851799750316698,1,0.999904
0.9699384897786533,1,0.999932
0.9539323673257663,1,0.999923
0.9510571707347109,1,0.999914
0.9757208395336175,1,0.999885
0.9822121237941497,1,0.999662
0.9734902453957855,1,0.999907
0.979885437074021,1,0.999881
0.9901241532984604,1,0.999862
0.984172819668889,1,0.999594
0.9774065099809751,1,0.999925
0.9804763411700559,1,0.999892
0.9889894351063964,1,0.999889
0.9647299945112802,1,0.999909
0.9750461074209796,1,0.999809
0.970067372112328,1,0.999916
0.9685720778960327,1,0.999840
0.9902290898686396,1,0.999919
0.9589219306734218,1,0.999923
0.9701896735122739,1,0.999915
0.9726373365923576,1,0.999900
0.9602310159917868,1,0.999849
0.9876811890672752,1,0.999783
0.971688489122608,1,0.999891
0.9508278727133156,1,0.999925
0.9869320463419966,0,0.998455
0.9661047798542918,1,0.999926
0.9823321960693822,1,0.999916
0.9474080727477241,1,0.999842
0.9913899766013728,1,0.999923
0.9753952517196476,1,0.999905
0.9556196912786291,1,0.999912
0.9709408383251527,0,0.998659
0.9624736700675072,1,0.999906
0.9710979076190096,1,0.999919
0.9596862184726911,1,0.999912
0.9712100223194157,1,0.999904
0.977360769561288,1,0.999820
0.9750184271151281,1,0.999903
0.991317804775027,1,0.999910
0.9463432183402183,0,0.998952
0.9798888232526111,1,0.999899
0.9817474462038418,1,0.999898
0.9812763754534038,1,0.999647
0.9782668310934356,1,0.999899
0.9687431983107906,1,0.999917
0.9732118515445378,1,0.999900
0.9715282365973679,0,0.998419
0.97834322976939,1,0.999895
0.9766228482192225,1,0.999885
0.9695381956026431,1,0.999668
0.9822969248192487,1,0.998733
0.9855308135009617,1,0.999895
0.9869596916743238,1,0.999916
0.9608043582079934,1,0.999482
0.9772374769011176,1,0.999815
0.9876754833982169,1,0.999889
0.986683587638642,1,0.999914
0.979257429715443,1,0.999919
0.9778538043203402,1,0.999270
0.9901751582903201,0,0.998862
0.9645543370810017,0,0.998672
0.9626801723754969,1,0.999641
0.9394049975072853,1,0.999915
0.9298405858676448,1,0.999506
0.9613794168553835,1,0.999670
0.9738670096873385,0,0.997388
0.9833388345260322,1,0.999898
0.9351116210605375,1,0.999924
0.9721807306917603,1,0.999888
0.9861535628675846,1,0.999170
0.9782630266928467,0,0.987090
0.9871886142350521,1,0.999557
0.9927533514705108,0,0.997683
0.9773900477243824,0,0.998412
0.9758362503698239,1,0.999879
0.9527905128325331,1,0.999915
0.9675049734319299,1,0.999907
0.9680522680109812,1,0.999910
0.9763271458829318,1,0.999898
0.9761399559983057,1,0.999930
0.9815049555781591,1,0.999912
0.9736698828670937,1,0.999868
0.9787549075467465,1,0.999925
0.9900359163216319,1,0.999932
0.9902063302562039,1,0.999878
0.9638594905706426,0,0.841647
0.9696526235632997,1,0.999808
0.9813895067445207,1,0.999925
0.9914470317635942,1,0.999911
0.9738335514709572,0,0.995672
0.95924139470086,1,0.999428
0.9677814029722962,1,0.999899
0.9741117104586096,1,0.999891
0.9752761898015521,1,0.999906
0.9502050821750603,1,0.999731
0.9780210384835674,1,0.999801
0.9607229418153472,0,0.998209
0.9761430771803818,1,0.999901
0.9607423789678152,0,0.992952
0.9630130912566646,0,0.980869
0.9616582515105739,1,0.999927
0.9830308497180154,1,0.999909
0.9588404424094112,1,0.999919
0.9492453016276158,1,0.999917
0.9674277812040397,1,0.999591
0.9769996784972387,1,0.999840
0.9731984891756349,1,0.999905
0.9918522717479786,1,0.999898
0.9793567985243069,1,0.999911
0.9854822114293739,1,0.999021
0.9862150818205606,0,0.998574
0.9869858349761892,1,0.999878
0.9730151272879762,1,0.999863
0.9739661967740155,1,0.999745
0.982923357661168,1,0.999917
0.969409550028471,1,0.999919
0.982218407629577,1,0.999043
0.9776222183849077,1,0.999788
0.9900626444089604,1,0.999883
0.9551449888254602,1,0.999922
0.975092236644267,1,0.999888
0.9807997581001837,1,0.999871
0.9880298770013096,1,0.999894
0.979597625687036,1,0.999859
0.9759321271906459,1,0.999914
0.980420625820035,1,0.999916
0.9603661467487469,0,0.999030
0.968323230277527,1,0.999931
0.9801228329665842,1,0.999800
0.9837820495675891,1,0.999726
0.9920377159873165,1,0.999870
0.9786809056357441,1,0.999853
0.9668435994306758,1,0.999425
0.9873720717569006,1,0.999903
0.9653153936027034,1,0.999786
0.9946376208551674,1,0.999867
0.9634464978822292,0,0.997035
0.9735324961271361,1,0.999803
0.967311129891962,0,0.996094
0.9746029047827395,1,0.999905
0.9737025873355596,1,0.999816
0.9826994057353592,1,0.999702
0.9708094313127666,1,0.999906
0.9534815144584013,1,0.999912
0.961336204039365,1,0.999919
0.9841335197004135,1,0.999903
0.983263443486818,1,0.999919
0.9760222978436727,0,0.998687
0.9857473210059657,1,0.999887
0.9904286197457614,1,0.998887
0.9758464446356108,0,0.815951
0.9682033776990705,1,0.999899
0.9851810631774075,1,0.999926
0.9844946634830977,1,0.999904
0.9538050632175926,1,0.999910
0.9801567819492438,1,0.999893
0.9837777518237802,1,0.999904
0.9628880763285989,1,0.999913
0.9152184887965107,0,0.998518
0.9843661709331379,1,0.999902
0.994319546514197,1,0.999898
0.990881358980144,1,0.999908
0.9666124276793154,1,0.999925
0.976731880215799,0,0.998617
0.9806247095813724,1,0.999897
0.9740709195089675,0,0.997537
0.9868033496624268,1,0.999899
0.9657207097593244,1,0.999922
0.9746505828356784,1,0.999228
0.9534152232040572,1,0.999930
0.9912351961827025,1,0.999300
0.9886503059663196,1,0.999871
0.968744941397301,0,0.998013
0.9478047141623542,1,0.999919
0.9710410245814487,1,0.999921
0.9561823928280989,1,0.999708
0.9618484768358792,1,0.999884
0.9566591929347275,1,0.999911
0.8796618433406204,0,0.996611
0.9835970487513958,1,0.999065
0.932673232025214,1,0.999367
0.9562815746172635,1,0.999894
0.8786702007008853,1,0.999920
0.971489517925945,1,0.999761
0.9856152789590786,1,0.999925
0.9642326882377686,1,0.999930
0.9713225711344964,1,0.999904
0.9189495887778242,1,0.999923
0.9827221719510184,1,0.999886
0.9907855780554982,1,0.999896
0.9700252766901181,1,0.999911
0.9379495585684358,0,0.997676
0.9837627392826949,1,0.999902
0.9829055223913391,1,0.999903
0.9562984196585965,0,0.998935
0.869058556723429,1,0.999928
0.9422504680933383,1,0.999676
0.9561163458094085,0,0.998015
0.970848083993351,1,0.999879
0.9750219620262325,0,0.995324
0.9838566120996964,1,0.999898
0.9882579987507015,1,0.999874
0.9928720209536307,1,0.999361
0.9887333200499449,1,0.999867
0.9878655657307266,1,0.999495
0.986405024622171,1,0.999882
0.9521452487214156,1,0.999851
0.9736888120013081,1,0.999922
0.9835749793991593,1,0.999385
0.9781452284860269,1,0.999884
0.9666125301735308,1,0.999904
0.963090995975281,1,0.999901
0.9902373992444037,1,0.999881
0.9710713731437649,1,0.999730
0.9915333875721343,1,0.999890
0.9854681527570485,1,0.999817
0.9447466979067473,0,0.958758
0.9815818420420295,1,0.999902
0.9675467901126205,1,0.999853
0.9271810584338508,0,0.996247
0.9741512748104487,1,0.999852
0.9872665488012962,1,0.999889
0.9800670158811148,1,0.999705
0.9277628833049476,1,0.999894
0.9626624167310877,1,0.999914
0.9748451563334796,1,0.999316
0.9859219595101788,1,0.999917
0.9719179946446446,1,0.999630
0.983762239593864,1,0.999446
0.9888573048662517,1,0.999787
0.9774978863073917,0,0.995112
0.9809898836540991,1,0.999885
0.9731925675012156,1,0.999905
0.9839855716705048,1,0.999921
0.9689155889940193,1,0.999902
0.966799177106937,1,0.999787
0.9740293285906036,1,0.999920
0.9908915310588395,1,0.999906
0.98191105169284,1,0.999915
0.9820552147300696,0,0.791841
0.9832042013934593,1,0.999866
0.9805558192979733,1,0.999912
0.9872064572602512,1,0.999886
0.9826721635249304,1,0.999924
0.9693782587233142,1,0.999897
0.977264200488965,1,0.999774
0.9682064042551436,1,0.999878
0.9807897992098351,1,0.999912
0.9790880730560028,1,0.999775
0.9737997293688748,0,0.905333
0.9823117157583703,1,0.999769
0.990406143430712,1,0.999924
0.9799633858517731,1,0.999926
0.975100224078283,1,0.999714
0.9831143976004767,1,0.999898
0.984567520360919,1,0.999919
0.9806013837642156,1,0.999700
0.9789336123769796,1,0.999861
0.9367799699766868,1,0.999824
0.9607652111889337,1,0.999917
0.9850524522344575,1,0.999926
0.951957883358094,1,0.999764
0.956069150594847,0,0.998409
0.9689001481328162,1,0.998985
0.9580657170730066,1,0.999903
0.9899448809290287,1,0.999764
0.9793977651240661,1,0.999928
0.9586200906251104,1,0.999635
0.9857105136467825,1,0.999872
0.9665484834737791,1,0.999902
0.9739579114611586,1,0.999327
0.9627823604678487,0,0.874989
0.9780053562427093,1,0.999923
0.9723506832344799,1,0.999891
0.9879189215490854,1,0.999883
0.9782434657563834,1,0.999899
0.9734562996121336,1,0.999889
0.9727912382600188,1,0.999894
0.9716329831049478,1,0.999899
0.9699478023617665,1,0.999926
0.980217532792992,1,0.999892
0.9772366934785601,1,0.999734
0.9758604544944738,1,0.999201
0.9183367188524504,1,0.999906
0.9662394012827547,0,0.995881
0.9476470668030437,1,0.999930
0.9461696668532186,1,0.999915
0.9868607111615564,1,0.999886
0.9828373172587903,1,0.999911
0.9759576672324591,1,0.999910
0.9710270820836013,0,0.997665
0.9454025030281391,1,0.999840
0.9550159025110865,1,0.999924
0.966461754818073,1,0.999719
0.9758776835880829,1,0.999888
0.9731150789564893,1,0.999769
0.9600060825532961,1,0.999907
0.9641105492766296,1,0.999902
0.9663946946990423,1,0.999905
0.9163295983981575,0,0.985110
0.9769686941964415,1,0.999731
0.966385454710762,1,0.999810
0.9039958163196028,1,0.999929
0.9788215423823405,0,0.999021
0.9862244222934445,1,0.999890
0.9765342966999185,1,0.999920
0.9726233138372348,1,0.999132
0.9362751033240316,0,0.958970
0.9842413811898523,1,0.999877
0.9622033905648186,1,0.999632
0.9858237924336016,1,0.999925
0.9798919769301503,1,0.999913
0.9743756554456214,1,0.999221
0.9699318745847542,1,0.999880
0.9782873252155876,1,0.999916
0.9776042964644375,1,0.999280
0.9624319660455276,1,0.999920
0.950043721439488,1,0.999887
0.9795237703623901,1,0.999836
0.9134300121937602,1,0.999918
0.9591028646475142,1,0.999019
0.9801045360168975,1,0.999923
0.980040139799383,1,0.999387
0.9870039378493508,1,0.999904
0.9770093724198513,1,0.999911
0.9678089452756052,0,0.992410
0.9632466841251349,1,0.999929
0.9501885550954248,1,0.999514
0.9826085615804303,1,0.999867
0.9724381050945439,1,0.999917
0.9468791563215055,1,0.999901
0.9896373070584789,1,0.999858
0.9855026208254937,1,0.999613
0.9709982172324598,1,0.999926
0.9635467358143789,1,0.999897
0.9574183768357529,1,0.999890
0.9739236113284143,1,0.999917
0.9917826307158835,1,0.999880
0.9916698984933381,1,0.999871
0.9865509248663745,0,0.998063
0.9542994968869803,1,0.999896
0.9803799753762246,1,0.999893
0.9411595490972018,1,0.999904
0.9883863302687405,1,0.999894
0.9789057526837779,0,0.998538
0.983518626803778,1,0.999814
0.9863510605823044,1,0.999877
0.9891424465679659,1,0.999899
0.9735026052200944,1,0.999659
0.9889112825973083,1,0.999875
0.9826143646921564,1,0.999883
0.9765072226120629,1,0.999904
0.9887667837010515,1,0.999925
0.9677293126163762,1,0.999782
0.9807880954393763,1,0.999920
0.9825539854386848,1,0.999666
0.9900992203069628,1,0.999730
0.9723980444301339,1,0.999489
0.9752395349287397,1,0.999820
0.9762219614411851,1,0.999911
0.9760954843059306,0,0.999129
0.9764187669649487,1,0.999899
0.9713588164730508,0,0.997690
0.980600709682538,1,0.999893
0.9801063530655324,1,0.999925
0.9727959628765352,1,0.999927
0.9893657875936128,1,0.999894
0.9756317616232869,1,0.999907
0.9767083294181953,0,0.997779
0.9773284425751628,1,0.999898
0.9690732623327669,1,0.999932
0.9672024022762722,1,0.999927
0.9626989246664196,1,0.999921
0.9524250401869414,1,0.998981
0.9828469206601811,1,0.999786
0.9840187027269356,1,0.999813
0.9519380976546168,0,0.998523
0.9633212735320126,1,0.999877
0.9238402758162847,1,0.999911
0.9847943824500927,1,0.999919
0.9788168250728352,1,0.999902
0.978003621069804,1,0.999855
0.9622999363037166,1,0.999410
0.9682075267530126,1,0.999920
0.9688025617055727,1,0.999621
0.9857019469083966,1,0.999896
0.9804549072970264,1,0.999915
0.976155560296665,1,0.999872
0.9851682940979095,1,0.999878
0.9874399251400303,1,0.999009
0.974623050813928,1,0.999918
0.9794553459172695,1,0.999874
0.9769716854527222,1,0.999911
0.98486898925948,1,0.999929
0.9793646366192615,1,0.999739
0.9711822098965783,1,0.999685
0.9858757458000953,1,0.999917
0.9770537084016009,0,0.998982
0.9677620022030348,0,0.999008
0.960770696440046,1,0.999895
0.985113519344154,1,0.999688
0.971737819384162,0,0.998975
0.9700907145924801,1,0.999711
0.9884627026193471,1,0.999884
0.9762742264194619,1,0.999832
0.9796506034811078,1,0.999896
0.9854106141836056,0,0.995135
0.9772185117888754,1,0.999918
0.9786354494967666,1,0.999883
0.9693911714780714,1,0.999723
0.9797169465901657,0,0.875981
0.9747481697154582,0,0.891938
0.9913834882397917,1,0.999848
0.9587996686548906,0,0.992549
0.981993463159197,1,0.999677
0.9784260047727313,1,0.999932
0.9604361431691485,1,0.999849
0.9859617550060062,1,0.999898
0.9881548545105884,1,0.999903
0.9515730734159372,1,0.999920
0.9282696115954663,1,0.999915
0.9649329350259749,1,0.999931
0.9634821505537985,1,0.999838
0.950609689173168,1,0.999927
0.9800963763282393,1,0.999910
0.9773571037226083,1,0.999888
0.9899204985557727,1,0.999900
0.9860355916013017,1,0.999918
0.9870318980287118,1,0.999904
0.9695554206163771,0,0.887890
0.9631387472859326,1,0.999926
0.977835359697651,0,0.993405
0.9644774514513973,1,0.999803
0.9768018422200637,1,0.999813
0.9734010960225223,1,0.999904
0.9736793616314415,0,0.998317
0.9635746280059599,1,0.999931
0.9746589981744149,0,0.998839
0.984249434555178,1,0.999930
0.9312383529259329,0,0.990980
0.9869260320982189,1,0.999877
0.9173733693194374,0,0.989993
0.9855643268582475,1,0.999909
0.9718985769348641,0,0.981829
0.9796002929627723,1,0.999705
0.9782372850977458,1,0.999873
0.9811951654994894,1,0.999910
0.9596929846426041,0,0.968001
0.9949395797984534,1,0.999699
0.9708456575769113,1,0.999883
0.9822594026725412,0,0.991757
0.9802502525704454,1,0.999869
0.9757712378087309,1,0.999909
0.9799683862593925,0,0.995974
0.9743783813291291,1,0.999846
0.8327921663693133,1,0.999925
0.9624482534312466,1,0.999897
0.8624976819660775,0,0.978502
0.9753549481676939,1,0.999890
0.9667094008387016,1,0.999845
0.9823345752680449,1,0.999889
0.9601823443019892,1,0.999908
0.9516417381967067,0,0.998814
0.9942164723930239,1,0.999757
0.9579164156025199,1,0.999763
0.9714355677745574,1,0.999823
0.9577934197344286,1,0.999926
0.964245280589045,1,0.999926
0.9779382052056896,0,0.980645
0.9768039988345968,1,0.999868
0.9775002812986753,1,0.999579
0.9436196567481394,0,0.997670
0.9802454113186195,1,0.999906
0.9808833422573576,1,0.999921
0.924624297717104,1,0.999920
0.9562646011261772,1,0.999382
0.973329069339935,1,0.999887
0.9488891554656762,1,0.999805
0.9674486332928781,1,0.999543
0.9613430563114327,0,0.998882
0.9708045345617354,1,0.999901
0.9802956002917474,1,0.999868
0.9830219650032512,1,0.999623
0.9611726160513244,1,0.999398
0.98847880636367,1,0.999903
0.9784793357135821,1,0.999796
0.9666628306464203,1,0.999818
0.9515230612989525,1,0.999563
0.9695877917320923,1,0.999876
0.9749143655334015,1,0.999930
0.9820961813868613,1,0.999902
0.9802432888404499,1,0.999882
0.9564549432274194,1,0.999910
0.9777781017293495,1,0.999886
0.9571486810870117,1,0.999919
0.9797209230926548,1,0.999858
0.9842573834237002,1,0.999909
0.987828957693809,1,0.999909
0.9817367781701999,1,0.999899
0.9847308860931593,1,0.999788
0.9776781515266931,1,0.999924
0.9757701072920962,0,0.998541
0.965411748769734,1,0.999913
0.941139828751839,1,0.999926
0.9679633836072163,1,0.999892
0.9318634179909494,1,0.999908
0.9752950764481091,0,0.990771
0.941356010942602,1,0.999815
0.9778898118765678,1,0.999915
0.9520054134215659,1,0.999915
0.9784390370326883,1,0.999429
0.9759442407518942,1,0.999925
0.9706928995292258,1,0.999919
0.9689995174307814,1,0.999751
0.982156334891341,1,0.999885
0.9731016573457406,1,0.999925
0.978037379788938,1,0.999637
0.9605740116130306,1,0.999931
0.9638629200933851,1,0.999921
0.9789789176934328,1,0.999890
0.9743087474402493,0,0.982664
0.9759243937891641,1,0.999885
0.9815586740757529,1,0.999827
0.9761863906767635,1,0.999715
0.9540406252642653,0,0.998161
0.9464664011865608,1,0.999921
0.9585933447214465,1,0.999916
0.9780985995087759,1,0.999897
0.9812601617850722,1,0.999802
0.9504414899930159,1,0.999314
0.9686037829029294,1,0.999905
0.9347463538851175,1,0.999848
0.9659524343430548,1,0.999502
0.9393229848447348,1,0.999776
0.9521106772306587,1,0.999650
0.8995008543657207,1,0.999754
0.9320981878178947,0,0.994601
0.9839130085153541,0,0.993777
0.9743272651104745,1,0.999887
0.9897483659769015,0,0.997621
0.9721711911688435,1,0.999186
0.975054273705959,0,0.998907
0.9763283144989301,0,0.998488
0.9873705742841107,1,0.999894
0.9781615959114132,1,0.999900
0.9760271402735342,1,0.999884
0.9871262025020308,1,0.999894
0.9862451362791823,0,0.996124
0.9629785106792729,0,0.998559
0.9739711418225534,0,0.998115
0.9662167218074167,0,0.998349
0.9890603385703345,1,0.999541
0.9664016740084144,0,0.998699
0.984519207449914,1,0.999879
0.9875468469481407,1,0.999895
0.9727801327255032,1,0.999773
0.9870535543334338,1,0.999886
0.9883447966583092,1,0.999926
0.9760292509995373,1,0.999670
0.9713404425469397,1,0.999630
0.9757913096020245,1,0.999893
0.9511102867680775,1,0.999928
0.9796031475841851,1,0.999572
0.9607848387401071,1,0.999819
0.978759900031985,1,0.999894
0.9808021882294055,0,0.998499
0.9775234664840098,1,0.999897
0.9802242310812113,1,0.999922
0.9714085095844219,0,0.996240
0.9809648787550648,1,0.999621
0.9777247551123417,1,0.999897
0.961255449714738,1,0.999930
0.9679942180680857,1,0.999880
0.9851159791926138,1,0.999895
0.9632566822782944,1,0.999919
0.9800805287518399,1,0.999191
0.9725223518055347,1,0.999615
0.9875596485454337,1,0.999880
0.9704461008486893,1,0.999912
0.9672523319092976,1,0.999916
0.9881927283513108,1,0.999509
0.9913045456307402,1,0.999881
0.9821801682638504,1,0.999875
0.9898286237585872,1,0.999879
0.9895757689711572,1,0.999758
0.9910950457225037,1,0.999925
0.9853161409182046,1,0.999925
0.9564556387604826,1,0.999715
0.9476579423102495,1,0.999929
0.979789570726158,1,0.999916
0.9607736405784606,1,0.999340
0.9541235468992106,1,0.999917
0.959749371973587,1,0.999932
0.960554517933115,1,0.999861
0.9733992183517008,1,0.999931
0.9662339050099386,0,0.998588
0.9861760710015868,1,0.999910
0.9805977923571377,1,0.999896
0.9798301302624116,1,0.999547
0.9705881969007497,1,0.999906
0.9757118674482748,1,0.999806
0.9523380258056128,1,0.999833
0.9659365912682458,1,0.999892
0.9763477243573448,1,0.999749
0.9550157838490522,1,0.999473
0.9744666455046038,1,0.999516
0.9485314724861165,1,0.999354
0.9801658500559998,1,0.999891
0.9811100512433432,1,0.999586
0.9711641401606933,1,0.999885
0.9780958545218639,1,0.999795
0.9620734251942931,1,0.999923
0.9842923933375234,1,0.999900
0.9911819742767572,1,0.999883
0.9728703154233967,1,0.999926
0.9636621613680157,1,0.999613
0.9720529968902518,1,0.999737
0.9776198354280935,1,0.999882
0.9593408360061686,0,0.997314
0.9719783432607294,1,0.999901
0.9384764748061208,1,0.999749
0.9423414312063478,1,0.999922
0.9576557653577625,0,0.997485
0.9522634283359062,1,0.999915
0.9773589974897275,0,0.997320
0.985173486671556,0,0.998644
0.9521043352424752,1,0.999915
0.9764895578244843,1,0.999869
0.9840103494426006,1,0.999889
0.9840192958514,1,0.999894
0.9697356894703467,0,0.998603
0.9816484324856464,1,0.999825
0.9683923124123228,1,0.999896
0.9686821075312319,1,0.999928
0.9599646878614769,1,0.999911
0.9523572136482348,1,0.999553
0.989609948676662,1,0.999885
0.9803063182477899,1,0.999753
0.9857171286021029,1,0.999780
0.9780389137714101,1,0.999099
0.9729341655801594,0,0.998209
0.9827750329197089,0,0.997153
0.9678151662598856,1,0.999895
0.9661529428803511,1,0.999096
0.9682427757281435,0,0.998590
0.9876947769044085,1,0.999420
0.9644939580641507,1,0.999926
0.9677278945192797,0,0.992507
0.9681424263157641,0,0.984218
0.9376950758494308,0,0.998250
0.9766913827521334,1,0.999742
0.9890372169974566,1,0.999868
0.9706842751373989,1,0.999914
0.9812653704828063,1,0.999900
0.959284914084822,1,0.999924
0.982764949785105,1,0.999773
0.9874038266500258,1,0.999920
0.9823272596357058,0,0.998695
0.9200216034655544,0,0.998903
0.9706144912436078,1,0.999722
0.9796784045278776,1,0.999904
0.9702101145001437,1,0.999918
0.9700723216511487,1,0.999916
0.9900925827024588,1,0.999751
0.9704174381799945,1,0.999897
0.974260547724188,1,0.999901
0.9782459852318889,1,0.999876
0.983023345436061,0,0.998427
0.964265835531852,1,0.999905
0.9754523735913766,1,0.999890
0.9831116717758992,1,0.999929
0.9418890160780979,1,0.999923
0.9833368918396703,1,0.999881
0.9610189965725474,1,0.999895
0.9758445227270449,1,0.999222
0.97141575453265,1,0.999774
0.9827038705014902,1,0.999827
0.9847813025909284,1,0.999905
0.9733330231302914,1,0.999884
0.9634675674581813,1,0.999921
0.9651454045577168,1,0.999920
0.9671631698808879,1,0.999908
0.948135714079528,1,0.999918
0.9617904888001889,0,0.998075
0.9866078580426377,1,0.999931
0.9770648165327858,0,0.993647
0.9837163058364533,1,0.999875
0.9783003018003872,1,0.999579
0.9799187388855414,1,0.999891
0.9657088667461352,1,0.999331
0.952937720689833,1,0.999853
0.9595796511804754,1,0.999930
0.9683022112055151,0,0.998340
0.9532706229899496,1,0.999718
0.9161424044645521,1,0.999925
0.9697740300208967,1,0.999860
0.9670055964764274,1,0.998944
0.9864586129728737,1,0.999866
0.9869116176246662,1,0.999745
0.9743999376935117,1,0.999864
0.9693599668881923,1,0.999754
0.9671034280005656,1,0.999910
0.9791368090832671,1,0.999902
0.9637773379518529,1,0.999918
0.9577055578702555,1,0.999912
0.9383696477710292,1,0.999913
0.968589429068281,1,0.999473
0.9760929108940414,0,0.708588
0.9702762395476965,1,0.999897
0.9574860784508299,0,0.999103
0.9852868342444779,1,0.999785
0.9873037177711659,1,0.999912
0.9846424729146198,1,0.999921
0.9842923857889486,1,0.999890
0.9827965687343836,1,0.999879
0.9838975785780847,0,0.966812
0.9700977239170567,1,0.999009
0.9774052254602943,1,0.999887
0.9831354777830191,1,0.999882
0.982440765804708,1,0.999891
0.9686514434082142,1,0.999217
0.977309826273717,1,0.999878
0.9799775731602072,1,0.999158
0.9850278062420013,1,0.999175
0.9866021177609018,1,0.999307
0.9752454251455291,1,0.999776
0.9831682362026509,1,0.999910
0.9625232205622544,1,0.999894
0.9784222073415251,1,0.999907
0.9801218708119785,1,0.999908
0.9817145685293611,1,0.999902
0.9544729140833623,1,0.999897
0.9695706194804918,1,0.999807
0.9768669964413963,1,0.999657
0.976825192430409,1,0.999439
0.967548082858517,1,0.999911
0.9863045245607296,0,0.998774
0.9581905435764264,0,0.998498
0.9819371691774252,1,0.999892
0.9727409462977215,1,0.999913
0.9762171349620311,1,0.999843
0.9647138819208048,1,0.999821
0.9709789647505781,1,0.999807
0.9712177415552622,1,0.999631
0.9818027048653455,1,0.999896
0.9635169270024326,0,0.995448
0.9713306419988457,1,0.999921
0.952472403505876,0,0.981961
0.9624507962068621,1,0.999873
0.9909659586214126,1,0.999894
0.9444115673146141,0,0.997684
0.973176536440225,1,0.999908
0.9706603988290528,1,0.999807
0.9815812647989619,1,0.999903
0.9828170478519502,1,0.999823
0.9445259077815281,0,0.909633
0.9861802139990006,1,0.999191
0.9864939750711735,1,0.999889
0.9585405064629356,1,0.999913
0.9588501727897262,1,0.999904
0.9924095106110102,1,0.999864
0.9921804178450218,1,0.999887
0.9606841380234357,1,0.999897
0.975542708201148,1,0.999905
0.9602994687847773,1,0.999905
0.9804962964071199,1,0.999895
0.9762102955476808,1,0.999908
0.9482668703311671,0,0.959767
0.9505626667492525,0,0.997378
0.9798836235290258,1,0.999922
0.9651376383872071,0,0.997442
0.9686406191781277,1,0.999831
0.9708909378150516,0,0.951381
0.979472403556537,1,0.999895
0.9830952664074756,1,0.999908
0.9828020314788236,1,0.999912
0.9707614709959025,0,0.998020
0.9402538914201815,1,0.999929
0.9566494296773682,0,0.997381
0.9772988882596177,1,0.999884
0.9887331395711587,1,0.999874
0.9904074736281429,1,0.999931
0.9653674274985267,0,0.999121
0.9875514507277955,1,0.999739
0.9881517535296971,1,0.999734
0.982701368993289,1,0.999643
0.9816474445546091,1,0.999884
0.9870398324515643,1,0.999881
0.9801138824376145,1,0.999931
0.9590303882275478,1,0.999930
0.9763913738970511,0,0.994557
0.9773218414389374,1,0.999932
0.9656968142760521,0,0.948422
0.9804633034545442,1,0.999900
0.9842829989012256,1,0.999890
0.9741587825771556,0,0.994513
0.9713654513779549,0,0.986037
0.9817841774089088,0,0.928726
0.9579100486562763,1,0.999331
0.9704830283527575,1,0.999903
0.9807542149762453,1,0.999930
0.9579782502139136,0,0.996800
0.9730703105470067,1,0.999907
0.9550833194246582,0,0.993483
0.9829111277106575,1,0.998907
0.9642225754084004,1,0.999909
0.9781543771847138,0,0.989051
0.9757315959165322,1,0.999927
0.9747732400132516,1,0.999780
0.9854060847443464,1,0.999904
0.9886451935925892,1,0.999641
0.9173355208910311,1,0.999897
0.9893671622377626,1,0.999385
0.9869403550861,1,0.999055
0.9591439633509591,1,0.999886
0.9637126019050859,1,0.999866
0.9718833415349144,1,0.999886
0.9836839660361921,1,0.999891
0.9815142942824348,1,0.999498
0.9694308350367632,1,0.999926
0.9727955910417403,1,0.999880
0.9602833528532108,1,0.999928
