0.11694534144284562,0,0.710739
0.06593140742625818,0,0.431147
0.03008926933783408,0,0.532592
0.015699795079643603,0,0.957290
-0.0031096642328216927,0,0.961199
0.004559001465112312,0,0.962253
-0.011577787318152746,0,0.486201
-0.015931888372485336,0,0.381928
-0.017509932552212566,0,0.969480
-0.02013500500246191,0,0.465653
-0.022560946122598853,0,0.269124
-0.026255698030680258,0,0.932410
-0.028707227675192116,0,0.322090
-0.030691653253992486,0,0.414341
-0.03174234233487629,0,0.376121
-0.031984466320484024,0,0.364503
-0.03234656109117434,0,0.297804
-0.03598551439590764,0,0.284727
-0.043894921994843066,0,0.324993
-0.04750211240821536,0,0.335759
-0.04943913994302961,0,0.209663
-0.05161725281039665,0,0.126973
-0.05426784467610111,0,0.348049
-0.05732034300016782,0,0.171835
-0.05794950985104695,0,0.323764
-0.05865590126630374,0,0.246934
-0.058812107713112315,0,0.394179
-0.05883625726348278,0,0.317877
-0.05865845989411625,0,0.398933
-0.058332057539947364,0,0.291637
-0.05788996468418699,0,0.226422
-0.05715102122085595,0,0.231144
-0.05673547068862052,0,0.500484
-0.056630441769462136,0,0.459133
-0.056999576255647035,0,0.247039
-0.05706204885702637,0,0.252096
-0.05658148130066691,0,0.328962
-0.05614387142966242,0,0.409261
-0.05581881739823371,0,0.462321
-0.055551393295875884,0,0.242903
-0.05539942694965257,0,0.301822
-0.05525854271876392,0,0.183421
-0.055127342156609485,0,0.260122
-0.05485611326441867,0,0.186641
-0.05444586108974367,0,0.235560
-0.054197849079489255,0,0.255088
-0.054145175918490246,0,0.345782
-0.05396980377766268,0,0.260220
-0.053689247492283765,0,0.408503
-0.05351235871662604,0,0.366323
-0.05334038570832801,0,0.319338
-0.05314469339443291,0,0.255735
-0.05321592722181378,0,0.267040
-0.053239827165159785,0,0.243495
-0.05324173158843475,0,0.309271
-0.05325976118315803,0,0.273646
-0.05309200843518385,0,0.395394
-0.0530248576591185,0,0.306505
-0.05308328785409627,0,0.297158
-0.05298451490697013,0,0.386502
-0.05279178731420113,0,0.254975
-0.052625972892162455,0,0.374706
-0.052448335835124496,0,0.230325
-0.05229321407320299,0,0.256516
-0.052179032910726356,0,0.200623
-0.05206386708623339,0,0.294293
-0.05202759508293267,0,0.218904
-0.0518714124331107,0,0.287123
-0.051708438399179955,0,0.475112
-0.051647985581207416,0,0.299879
-0.05161107724844939,0,0.346052
-0.051585052008703426,0,0.310574
-0.05157429504126464,0,0.219782
-0.05148998888571775,0,0.450418
-0.0514103996115438,0,0.450418
-0.05132603297915216,0,0.281909
-0.05121773905073845,0,0.364510
-0.05111036912002513,0,0.315222
-0.051061879944613225,0,0.391134
-0.0510262274126942,0,0.345474
-0.050980936675274646,0,0.336512
-0.050899286164109665,0,0.266597
-0.0508173934452292,0,0.470512
-0.050677818303650146,0,0.378452
-0.05059142297256005,0,0.246909
-0.05050335349352689,0,0.270783
-0.050432191708773964,0,0.296229
-0.05035784475322235,0,0.300000
-0.05027007243361789,0,0.322161
-0.05018574627961413,0,0.398466
-0.05011089940270422,0,0.403079
-0.050096074689601595,0,0.392381
-0.050040195855107675,0,0.284658
-0.04997713291784157,0,0.330194
-0.04990766143587492,0,0.333576
-0.049855826419393554,0,0.331065
-0.04977524179436696,0,0.280737
-0.04967110258291146,0,0.330081
-0.049588221687934766,0,0.360041
-0.04952154663229392,0,0.317052
-0.049464619470177995,0,0.223186
-0.04940646286325338,0,0.250151
-0.049338459968459036,0,0.338813
-0.049250598228890226,0,0.296538
-0.04917820893351045,0,0.256080
-0.04912877605046624,0,0.250938
-0.049087184961855004,0,0.268573
-0.04904895753635161,0,0.347749
-0.04898104643036681,0,0.403134
-0.048992726976416996,0,0.326552
-0.049013685480113374,0,0.372366
-0.04902001372650724,0,0.409079
-0.049022495922728136,0,0.412935
-0.049037035656548836,0,0.337345
-0.04904804862271112,0,0.267672
-0.04906098852530929,0,0.280962
-0.049082547936656354,0,0.123906
-0.04914539982807093,0,0.277031
-0.049180100116652185,0,0.132219
-0.049254295477613265,0,0.213913
-0.049327007011359024,0,0.366033
-0.049404517116042115,0,0.192017
-0.049456441593309725,0,0.302908
-0.04948647775939144,0,0.294761
-0.04954149362971363,0,0.441191
-0.04958393804405627,0,0.376899
-0.049637106827612534,0,0.447886
-0.04964688924777973,0,0.444713
-0.04965175280538355,0,0.336672
-0.049689519725582144,0,0.307373
-0.04970379987389835,0,0.318679
-0.04974307769013387,0,0.320645
-0.04976705770331016,0,0.299231
-0.0497792676263039,0,0.349584
-0.049798484681352305,0,0.350154
-0.04981307312126699,0,0.219679
-0.04983872350745477,0,0.199368
-0.049890775578537716,0,0.264706
-0.04994170317718746,0,0.343515
-0.05000442597020138,0,0.240118
-0.05004134263526893,0,0.279670
-0.05009077743338536,0,0.207864
-0.050177419995944904,0,0.227295
-0.05026727921564721,0,0.223285
-0.05035683967621729,0,0.274227
-0.05041937986518337,0,0.204979
-0.050502265327609014,0,0.265364
-0.050563812714562256,0,0.435787
-0.05055646386565627,0,0.424589
-0.05053641459200244,0,0.277810
-0.050533628589414174,0,0.360119
-0.05048577367420424,0,0.416920
-0.05047838412479919,0,0.399290
-0.050443777726162,0,0.296296
-0.05045860215083215,0,0.246891
-0.050481984275602645,0,0.376825
-0.050484954777904975,0,0.435512
-0.05039292833284501,0,0.494776
-0.05036637770412138,0,0.404328
-0.05032885621169705,0,0.418969
-0.05029753240598097,0,0.388416
-0.0502630954910227,0,0.433255
-0.050180463555385274,0,0.418613
-0.05012585283211371,0,0.416759
-0.050070485473293014,0,0.482919
-0.049989816408901266,0,0.414860
-0.04999223515602021,0,0.376331
-0.05002270994409392,0,0.344073
-0.05004061704927502,0,0.372800
-0.05006782416883502,0,0.394979
-0.05013117618558437,0,0.263441
-0.05022400430424883,0,0.343566
-0.050291787032155116,0,0.289255
-0.0503440399144616,0,0.285305
-0.050402352353910246,0,0.343900
-0.05046686670746647,0,0.362448
-0.05045226902365122,0,0.342506
-0.050446592536271706,0,0.340404
-0.05038646019019042,0,0.397974
-0.05033386587505424,0,0.306543
-0.050331005815307944,0,0.287329
-0.050359168343620184,0,0.364273
-0.050382040869131686,0,0.314994
-0.0504294893034937,0,0.235860
-0.05044368224302853,0,0.423945
-0.05047475882455331,0,0.214716
-0.050464550625046255,0,0.396581
-0.050452926489754184,0,0.374357
-0.0504487279358028,0,0.399465
-0.05046927096414714,0,0.307724
-0.05050657101733212,0,0.392290
-0.05049114859061685,0,0.381171
-0.05050275864664022,0,0.419901
-0.050527934957934235,0,0.358639
-0.05056848236107693,0,0.352953
-0.050616599830072315,0,0.226229
-0.05062157659440606,0,0.394155
-0.0506461855708694,0,0.213104
-0.050663664069408074,0,0.277142
-0.05066698863019403,0,0.409686
-0.05067065995159398,0,0.276980
-0.05067453767884317,0,0.414455
-0.050670953477993184,0,0.333464
-0.050673429030944836,0,0.220309
-0.050687965742237995,0,0.389635
-0.05069818320620812,0,0.357101
-0.05069880056408529,0,0.342314
-0.05069493065597666,0,0.393810
-0.0506841686167892,0,0.346520
-0.05070559919642169,0,0.382488
-0.050712622988703535,0,0.363355
-0.05071732308270242,0,0.427862
-0.05070452318975873,0,0.431869
-0.05068334649170542,0,0.424641
-0.050649316390321816,0,0.413113
-0.05062685789382654,0,0.424699
-0.05060960503124851,0,0.292176
-0.050619660409619294,0,0.370025
-0.0506183255454938,0,0.411587
-0.05064437395248779,0,0.413811
-0.05063335669570398,0,0.426239
-0.05062724435593548,0,0.426150
-0.05059631723517087,0,0.405458
-0.05056660115418923,0,0.403493
-0.05052892086598741,0,0.404068
-0.05049381591101001,0,0.427917
-0.05044415152307064,0,0.434180
-0.05040265928782171,0,0.428381
-0.05034092891450698,0,0.441314
-0.05028361959485913,0,0.435313
-0.0502502007438085,0,0.413781
-0.05021703097294853,0,0.390637
-0.050223577491252655,0,0.398211
-0.050213518452189486,0,0.379284
-0.05022647221957874,0,0.359881
-0.050244955262921644,0,0.316492
-0.0502593480102106,0,0.273655
-0.05026656759783121,0,0.445390
-0.050265625118848814,0,0.372046
-0.050266074250239996,0,0.373701
-0.05024874894243218,0,0.282864
-0.050237951555011866,0,0.366867
-0.050218534956061454,0,0.421281
-0.05021090403775108,0,0.280993
-0.05020875440489655,0,0.381405
-0.05020498186110254,0,0.345010
-0.05020923197057326,0,0.319088
-0.0502097898190044,0,0.434149
-0.050215073078754544,0,0.388694
-0.05021925585949521,0,0.442900
-0.050222688674507694,0,0.390217
-0.05023391273461682,0,0.378584
-0.050243086626781494,0,0.365897
-0.05025107933372094,0,0.298886
-0.050252733328074325,0,0.322605
-0.050255064445412896,0,0.260286
-0.05025941698716834,0,0.316541
-0.05026310304845844,0,0.314690
-0.050268921939179395,0,0.312455
-0.05027220283987518,0,0.429824
-0.050273065748811706,0,0.281557
-0.05027568068694348,0,0.268320
-0.05028020014232135,0,0.233914
-0.050284645949444984,0,0.280824
