NaN,0,0.953174
NaN,0,0.951903
NaN,0,0.950836
NaN,0,0.950003
NaN,0,0.949450
NaN,0,0.948984
NaN,0,0.948800
NaN,0,0.947819
NaN,0,0.937694
NaN,0,0.950210
0.0034573117991010794,0,0.979274
0.9447878596705845,0,0.978246
0.7643339675449097,0,0.950993
0.7643339675449097,0,0.942491
0.7643339675449097,0,0.931823
0.8194584553562457,0,0.944440
0.8194584553562457,0,0.933832
0.8194584553562457,0,0.920243
0.969651821792091,1,0.999717
0.91290233841629,1,0.999147
0.9843237557874053,0,0.993911
0.9694416114132131,0,0.914078
0.9974342977777195,0,0.999443
0.9933538416388208,0,0.988936
0.9983446871104178,1,0.999935
0.9932821980416462,0,0.985725
0.9968830546113059,1,0.999670
0.9971667100475691,0,0.988530
0.9828552381891575,0,0.999584
0.9600853601880462,1,0.999514
0.9482470621881769,0,0.748461
0.9476657459154507,0,0.997122
0.941668449349209,0,0.988910
0.8868167797817974,0,0.932811
0.7328825589254053,1,0.998880
0.9022571923986851,0,0.927281
0.8226437886033187,1,0.998826
0.9956199069788126,1,0.999801
0.977227122112113,0,0.997038
0.9876061989023086,0,0.959557
0.928033740092609,0,0.925699
0.9854498900745855,0,0.999161
0.9972915067310624,0,0.962909
0.9670943085433085,1,0.999940
0.9822454527055523,1,0.999970
0.981494989264996,0,0.999095
0.9994725568808213,1,0.999884
0.9965632947383107,1,0.999971
0.925884272350181,1,0.999970
0.9922369404479778,1,0.999970
0.9287204978629873,0,0.998862
0.9045509202724917,1,0.999972
0.8597629722072192,1,0.999971
0.9905626352779142,1,0.999972
0.9504840636833751,1,0.999942
0.9961504214104108,1,0.999942
0.898876384199644,1,0.999971
0.9277690285639476,0,0.999381
0.7103969604190062,1,0.999972
0.987986913152108,1,0.999747
0.9752818402968627,1,0.999971
0.8715270168073989,0,0.999168
0.9878817001204293,0,0.999459
0.9979930705377192,1,0.999972
0.9938042062167095,1,0.999966
0.9990152541138664,1,0.999903
0.9903933568386267,1,0.999970
0.9904316934304747,0,0.999104
0.9035908400115238,1,0.999953
0.9846531208566383,1,0.999676
0.9846793156922229,1,0.999809
0.9930662468941353,1,0.999965
0.8711667311686011,1,0.999962
0.5431494237708241,1,0.999818
0.9982482570244318,1,0.999952
0.9982482570244318,1,0.997191
0.9950756974162301,1,0.999954
0.9737323493457846,1,0.999959
0.9552542906130999,1,0.999943
0.9738164410139163,1,0.999955
0.9974873379843523,0,0.999244
0.9992401951872534,1,0.999969
0.9967194614713081,1,0.999902
0.9951825251160913,1,0.999968
0.9820530847434146,1,0.999970
0.9203522197971172,0,0.999483
0.9865231203575765,0,0.999143
0.9856462533283881,1,0.999938
0.9844566112398336,1,0.999550
0.9656325309039663,1,0.999522
0.9886022312337068,1,0.999637
0.9873098457910687,1,0.999726
0.9920544756857448,1,0.999940
0.9810188874011329,1,0.999948
0.9917111861400352,0,0.971792
0.9992148390419505,1,0.999974
0.9984549816400509,1,0.999495
0.7296582190428589,0,0.999330
0.9831966697737404,1,0.999836
0.9950217622179537,1,0.999954
0.9949878764581913,1,0.999974
0.9965507590837732,0,0.998688
0.9450493101420612,0,0.999135
0.835344340926786,1,0.999651
0.7938764421122316,1,0.999643
0.9394361754025088,0,0.996157
0.8067503217439375,1,0.999872
0.899167888126858,1,0.999963
0.8828904563897227,0,0.999226
0.9976044429317981,0,0.999354
0.9291596793723307,1,0.999908
0.9815563836731356,1,0.999798
0.9935726402505661,1,0.999779
0.7241135221385477,0,0.996274
0.9856190289371238,0,0.991397
0.9855027579337003,0,0.993131
0.9715647053010131,1,0.999954
0.9773677237053927,1,0.999882
0.6919056086677757,0,0.999163
0.982439372878552,1,0.999722
0.9977305718054786,1,0.999937
0.9722432351402902,1,0.999910
0.9648500547474994,1,0.999970
0.9953542981661293,1,0.999919
0.5907432876088579,0,0.982840
0.9716996451093224,1,0.999946
0.9847006407327565,1,0.999959
0.9756964738459954,0,0.996428
0.9935446627065466,1,0.999921
0.9867905179823576,0,0.987892
0.9957577815717288,0,0.993349
0.9400399790939821,1,0.999968
0.9944787551836284,1,0.999969
0.9874975926189183,1,0.999954
0.9745453566372152,1,0.999951
0.9994648383710567,1,0.999942
0.974116854679067,1,0.999960
0.9929140514269429,1,0.999798
0.9768897144541063,1,0.999969
0.9703923092243497,0,0.996922
0.9872255438307388,1,0.999668
0.9978863637997782,1,0.999967
0.9893809896359325,0,0.998764
0.97622737386261,1,0.999931
0.9967943097946041,1,0.999936
0.9929314851352482,1,0.999933
0.9818759401445373,1,0.999838
0.9774559728672206,1,0.999877
0.9998266486332809,1,0.999944
0.9972312552049668,1,0.999796
0.9962688817300337,1,0.999968
0.986139193926963,1,0.999964
0.9980909158359378,1,0.999971
0.9998509517751112,1,0.999974
0.9550806422043959,1,0.999952
0.9955025026516874,1,0.999967
0.9846692630144157,1,0.999917
0.9757288027658155,1,0.999970
0.9985500215030442,1,0.999973
0.9901820705503723,1,0.999802
0.9848045792454696,1,0.999962
0.9562428326215199,1,0.999918
0.9599011812061031,1,0.999967
0.9981635556462567,1,0.999966
0.9682193149989504,0,0.999691
0.9473884939591691,0,0.999260
0.9956971351214973,1,0.999962
0.991909249522267,1,0.999956
0.9961361306984566,1,0.999957
0.9832705681868938,0,0.999648
0.9923411493510377,1,0.999922
0.9965559846495984,1,0.999968
0.9993235356155229,1,0.999973
0.9936930993422136,1,0.999958
0.9985542248839792,1,0.999966
0.9899809471964575,1,0.999906
0.9479020727195249,0,0.997998
0.961066347287544,1,0.999945
0.9974761242432022,1,0.999946
0.9986064836143516,1,0.999962
0.991695221422848,1,0.999428
0.9937784183949343,1,0.999947
0.9957323377898764,1,0.999896
0.9902103882930935,0,0.995959
0.9751198108522801,1,0.999891
0.9900839066683966,1,0.999953
0.956896508315884,0,0.999188
0.9772610384982292,1,0.999817
0.9990808446850026,1,0.999968
0.981215035203722,1,0.999966
0.4157268781538286,1,0.999955
0.9906806159238579,1,0.999951
0.9932614663268479,1,0.999623
0.9429123718639946,1,0.999955
0.9924943993216615,1,0.999961
0.9903228184334768,1,0.999730
0.4148454351666726,1,0.999969
0.997562433500498,1,0.999973
0.992100008239361,1,0.999744
0.9959232663233276,1,0.999965
0.9884979619789014,1,0.999942
0.9862345367501234,1,0.999938
0.9436019154798373,1,0.999899
0.9957059312614662,1,0.999953
0.9777740568482152,1,0.999962
0.9947152328815435,1,0.999863
0.9947690004749187,1,0.999934
0.9728431638672757,0,0.999088
0.9963758740207168,1,0.999923
0.9971945222179802,1,0.999925
0.9947215512748359,1,0.999964
0.9787280744942478,1,0.999957
0.9986275263362102,1,0.999968
0.9991046804664511,1,0.999926
0.9968188263826971,1,0.999851
0.9975370188693092,0,0.999182
0.9914718359316738,1,0.999836
0.9957766766881783,1,0.999806
0.9937454708291243,1,0.999942
0.9948067430844766,1,0.999834
0.9917493885971832,1,0.999890
0.7527997303778712,1,0.999963
0.9986031709417108,0,0.998685
0.9992731679677255,1,0.999964
0.9980020583565762,1,0.999882
0.9997276444419676,1,0.999965
0.9907323934421137,1,0.999823
0.9991796542361201,1,0.999963
0.999582107999314,1,0.999858
0.999451769757328,1,0.999972
0.9993697642947774,1,0.999956
0.9999794027322332,1,0.999963
0.9998765518900935,1,0.999929
0.9980953009997152,1,0.999964
0.9971373001141469,0,0.999422
0.8689222874355802,0,0.918464
0.9704857367691656,0,0.999392
0.8404082563108548,1,0.999957
0.9845957880149845,1,0.999962
0.9796969602488197,1,0.999774
0.9739214658170194,1,0.999959
0.9895240548109673,0,0.999311
0.9682533215246792,0,0.998167
0.9975631358433183,0,0.999137
0.9931154493376894,1,0.999952
0.9833481173938446,0,0.999169
0.9890997187367668,1,0.999958
0.9747908044605721,1,0.999918
0.9956728135549224,1,0.999965
0.9995272589915923,1,0.999964
0.9943833240904646,1,0.999958
0.9976345789385636,1,0.999964
0.9993509057602064,1,0.999972
0.9854642965071307,1,0.999955
0.9934297755559308,1,0.999801
0.9993656124684791,1,0.999946
0.9852029071322823,1,0.999965
0.989677555623511,1,0.999964
0.9999721165420913,1,0.999926
0.9977874510125511,1,0.999889
0.9999097340491649,1,0.999964
0.9992345660172179,1,0.999972
0.9999899040095076,1,0.999961
0.99982904684547,1,0.999886
0.9994820715085984,1,0.999964
0.9980141936594518,1,0.999957
0.9994750049915253,1,0.999967
0.9919351714707633,1,0.999961
0.9884548539385873,1,0.999919
0.9839198889590103,0,0.999174
0.9884256277473699,0,0.999276
0.9984816533890254,1,0.999952
0.9989534841075453,1,0.999961
0.9753096041989966,1,0.999796
0.9965451693188457,1,0.999965
0.9991017469832885,1,0.999973
0.9989675502041487,1,0.999967
0.9988428032151109,1,0.999961
0.9996633969315429,1,0.999963
0.999385667802468,1,0.999961
0.9999245603146127,1,0.999964
0.9998806127956333,1,0.999924
0.9804611755257657,0,0.999416
0.9837713612455131,0,0.998233
0.9975207361094731,1,0.999857
0.9884336915760291,1,0.999839
0.9967505682948286,1,0.999597
0.9985085794602055,1,0.999960
0.9974285034584836,1,0.999888
0.98065349071518,0,0.998533
0.9612019776160394,0,0.997390
0.9869213574524236,1,0.999954
0.996502022471046,1,0.999912
0.9937729540209452,0,0.998917
0.9489655274444477,1,0.999965
0.9950741548332133,1,0.999964
0.9997841938403048,0,0.998072
0.9988891923881591,1,0.999838
0.9994274798497668,1,0.999845
0.997694052772711,1,0.999895
0.9993783170032158,1,0.999963
0.9996458905694041,1,0.999961
0.9672090771515044,0,0.982539
0.9918500440852478,0,0.997373
0.960827758206003,1,0.999961
0.9774668775696875,0,0.999399
0.9995966082243761,0,0.998604
0.9995157180506722,1,0.999769
0.9777429838327568,0,0.999323
0.998837882676511,1,0.999636
0.9980857644870953,1,0.999928
0.9963305754227072,1,0.999631
0.9966570584686186,1,0.999844
0.9689211608984625,1,0.999948
0.9982919887437947,1,0.999961
0.9980576975610801,1,0.999962
0.9995123972660441,1,0.999871
0.999736710881669,1,0.999959
0.9999364316477914,1,0.999963
0.9998977073115025,1,0.999963
0.9989334184377812,1,0.999925
0.9993504625251544,1,0.999966
0.9994776228947692,1,0.999926
0.9999821480945694,1,0.999966
0.9997205765559789,1,0.999925
0.9993929433541394,1,0.999957
0.9956026981575931,0,0.999010
0.9995403298816299,1,0.999958
0.9992795386479456,1,0.999956
0.9856862823244792,1,0.999895
0.9774344331517463,0,0.997163
0.993484109582011,1,0.999958
0.9994285884158615,1,0.999925
0.9985027549155254,1,0.999958
0.9947986415094026,0,0.999517
0.9786885972223586,1,0.999955
0.9979489000139851,1,0.999965
0.9977258454991121,0,0.998763
0.9938225485058719,1,0.999964
0.9981378989549216,1,0.999962
0.9997560629495184,1,0.999966
0.9999621438069153,1,0.999927
0.9995934328334902,1,0.999931
0.9990333019957093,1,0.999965
0.9940948474514849,1,0.999964
0.999764067697475,1,0.999957
0.9999515312841235,1,0.999961
0.9992599225720922,1,0.999963
0.9996311235750144,1,0.999964
0.9993793465727506,1,0.999964
0.9994337614260554,1,0.999959
0.9866368569326582,1,0.999926
0.9973013463010356,0,0.999304
0.9987355205877402,1,0.999913
0.9997220237978977,1,0.999967
0.9995610625673201,1,0.999820
0.9994564079560625,1,0.999930
0.9989268193664078,1,0.999963
0.9998640192714123,1,0.999960
0.976987744126531,0,0.986320
0.992718021954169,1,0.999846
0.9998793916655547,1,0.999963
0.9799646852066749,1,0.999960
0.9994909226808781,1,0.999963
0.9998467816534429,1,0.999848
0.9999787870036816,1,0.999962
0.9999634964415565,1,0.999967
0.993994694262254,1,0.999910
0.994787163508391,0,0.999077
0.9931056271881564,1,0.999779
0.9962620131547026,1,0.999961
0.9977363625047517,0,0.999422
0.9839042445254884,1,0.999835
0.9897627969831083,1,0.999954
0.9992005067794937,1,0.999964
0.9999537099764126,1,0.999959
0.9993796248644311,1,0.999962
0.999387936110507,1,0.999966
0.9794625874948352,1,0.999942
0.9998427957514592,1,0.999963
0.9981766125296978,1,0.999963
0.9996501387756016,1,0.999964
0.9995669996897424,1,0.999963
0.997324366250716,1,0.999963
0.9999055150146404,1,0.999965
0.999970458564291,1,0.999957
0.995879837107978,1,0.999779
0.9972529697070619,1,0.999960
0.9777286779035524,1,0.999920
0.9961687347105144,0,0.998647
0.9982615164451778,1,0.999959
0.9992064957248665,1,0.999972
0.9999715348291881,1,0.999961
0.998829098704162,0,0.999309
0.9992342152180289,1,0.999931
0.9972518134281367,1,0.999925
0.9991358370860491,1,0.999965
0.9977765025028315,1,0.999962
0.9997201072503016,1,0.999932
0.9918533909995189,1,0.999797
0.9901799164549817,0,0.998869
0.9867824419246781,1,0.999866
0.998878756443578,1,0.999866
0.9949351976647561,1,0.999958
0.996157570688453,1,0.999956
0.991902882626165,1,0.999954
0.99893996447694,1,0.999920
0.9993838134931082,1,0.999951
0.9954975453506971,1,0.999944
0.9992973772032965,1,0.999959
0.9960586415101316,1,0.999959
0.9954503875883398,1,0.999962
0.9878119617736172,1,0.999804
0.991084728275153,1,0.999940
0.9998182772182685,1,0.999961
0.9996947806817352,1,0.999964
0.999956967476211,1,0.999965
0.9994348382364642,1,0.999871
0.9997314077871321,1,0.999964
0.9835377298678594,1,0.999865
0.9999827019530342,1,0.999966
0.9996865856442816,1,0.999966
0.9873560540520461,1,0.999955
0.9827005810077568,1,0.999951
0.9962709957639869,1,0.999956
0.9997520959036412,1,0.999958
0.9975011263126521,1,0.999960
0.9998741594716998,1,0.999960
0.9990221156124329,1,0.999966
0.9997761969250955,1,0.999974
0.9990572638139124,1,0.999962
0.9999830076852066,1,0.999964
0.9999379853328131,1,0.999963
0.9997857194072126,1,0.999964
0.9996904758906241,1,0.999961
0.9997966551703679,1,0.999963
0.999809447622447,1,0.999961
0.9999595887098215,1,0.999966
0.9999431004550462,1,0.999965
0.9869855189490567,1,0.999955
0.8523863647025259,1,0.999920
0.9409794499888302,1,0.999809
0.999768633298541,1,0.999971
0.9611076686232317,1,0.999951
0.9713144508714351,1,0.999934
0.9713144508714351,1,0.999479
0.9925707434751804,1,0.999954
0.9922162720206881,1,0.999920
0.9814782182354477,1,0.999858
0.989882065741781,1,0.999961
0.9894728050174186,0,0.999440
0.99485263834572,1,0.999698
0.9966563278686302,1,0.999917
0.9967610599268037,1,0.999963
0.9960604557637801,1,0.999838
0.9909810149282954,1,0.999964
0.9957457347808564,1,0.999965
0.9993042632038802,1,0.999962
0.9877887553786706,0,0.998849
0.9701094166985427,1,0.999849
0.9563698251796454,1,0.999242
0.9611691344457789,1,0.999932
0.9611691344457789,1,0.999433
0.9885036477168148,1,0.999940
0.9920665895579859,0,0.999193
0.9954171986546668,1,0.999965
0.999407121485634,1,0.999959
0.9994044336865093,1,0.999974
0.9898635933777922,0,0.999456
0.994613470109875,0,0.998083
0.9904820670356244,1,0.999940
0.9971025459596142,1,0.999964
0.9983005437494346,1,0.999963
0.4544047942400436,1,0.999872
0.9941080583527625,1,0.999923
0.9921187223893435,1,0.999962
0.9936036247879371,0,0.999431
0.9882481089870305,1,0.999846
0.9872251457378084,1,0.999933
0.9937115804816042,1,0.999883
0.9854265142396819,1,0.999967
0.9818497106483922,0,0.997132
0.9912908875934474,1,0.999919
0.8905953418280154,1,0.999969
0.9909905245721641,1,0.999875
0.998637583930688,1,0.999876
0.9947498532208039,1,0.999958
0.9851647591785223,1,0.999971
0.3646648584767223,1,0.999751
0.9969844904966292,1,0.999965
0.9880753843140407,1,0.999913
0.9900955528273325,1,0.999944
0.9961002413781406,1,0.999937
0.9990461974750766,1,0.999945
0.9960902303123439,1,0.999927
0.9967606387962833,1,0.999948
0.9954764691763288,1,0.999974
0.993012614745663,1,0.999966
0.9973314007909622,1,0.999932
0.9865629613705039,1,0.999966
0.9939899745248455,0,0.999479
0.9991142143362078,1,0.999961
0.9990191437137084,1,0.999890
0.9965703378510348,1,0.999957
0.999191433212314,1,0.999963
0.9963036470409082,1,0.999965
0.9995798928991739,1,0.999963
0.991730536402391,1,0.999962
0.9927341767546225,1,0.999956
0.9833249340361496,1,0.999914
0.985911653585968,1,0.999852
0.9945432649919171,1,0.999957
0.8625525373050212,1,0.999969
0.997339249167003,1,0.999958
0.9996710114251688,1,0.999830
0.9994028073165057,1,0.999961
0.9986700349908979,1,0.999958
0.9993617697033577,1,0.999914
0.9984503605599635,1,0.999960
0.9993660434518267,1,0.999950
0.9905456933958728,1,0.999963
0.9999455307624178,1,0.999965
0.9895111965772218,1,0.999906
0.9978122486799524,1,0.999964
0.9892459161436888,1,0.999963
0.9977432824819767,1,0.999917
0.9893403796815629,1,0.999954
0.32480366992140675,1,0.999959
0.9663780106930492,0,0.996094
0.9952774146025698,1,0.999900
0.9963740809937003,1,0.999962
0.999757588582894,1,0.999965
0.9963883657804283,1,0.999920
0.9982000004152969,1,0.999964
0.9996866175775121,1,0.999961
0.9967487509816536,1,0.999965
0.9971881481484998,1,0.999963
0.9976128463772131,1,0.999962
0.9974516448089265,1,0.999957
0.9992548311242895,1,0.999959
0.9998714472996286,1,0.999928
0.9960636399828576,1,0.999810
0.9999334548163674,1,0.999964
0.9998886610914383,1,0.999965
0.9787764251617326,0,0.993704
0.9970005614115381,1,0.999967
0.987608794309431,1,0.999960
0.9969521730465951,1,0.999955
0.9977026752431832,0,0.996861
0.9968018070562115,0,0.998912
0.9998167845759619,1,0.999964
0.9891795085896602,1,0.999967
0.9979710334982016,1,0.999607
0.9999561240009041,1,0.999926
0.9992406700624682,0,0.998847
0.9994070298903959,1,0.999765
0.9984219556152163,1,0.999963
0.9903835822347976,1,0.999953
0.9991510505266734,1,0.999962
0.999234271050207,1,0.999841
0.9926163346724498,1,0.999947
0.9996244746336213,1,0.999963
0.9756327961255545,1,0.999808
0.9980840977685416,1,0.999966
0.9947392278080931,1,0.999904
0.9999530085200625,1,0.999963
0.9997568830073872,1,0.999959
0.9982304093377011,1,0.999883
0.9998689952369055,1,0.999966
0.9994164433843725,1,0.999962
0.9999898508157206,1,0.999962
0.9878187866456946,1,0.999839
0.9915657399449764,1,0.999638
0.99847908970214,1,0.999854
0.9999484151052609,1,0.999967
0.9999900580204624,1,0.999964
0.9982853070431974,1,0.999963
0.9970789228229623,0,0.998539
0.9913403066503336,1,0.999905
0.9995497649905253,1,0.999925
0.9951629809925142,1,0.999961
0.9937049902724351,0,0.997474
0.9986759961439459,1,0.999962
0.998917549291583,0,0.993652
0.9999834610288654,1,0.999967
0.9794895891047952,1,0.999945
0.9768150757786626,1,0.999962
0.9811406420223087,1,0.999960
0.9958729043967789,0,0.998784
0.9944750283046306,1,0.999951
0.9965821289818535,1,0.999793
0.9661893120399209,1,0.999963
0.9960118670187729,1,0.999961
0.99948087726202,1,0.999966
0.9999069823657979,1,0.999965
0.9949000125930471,1,0.999964
0.9999290851740684,1,0.999964
0.9996696042843497,1,0.999974
0.9824972643461917,1,0.999957
0.998253981824133,1,0.999961
0.9998077000746607,1,0.999953
0.999886306287081,1,0.999964
0.9998847308818298,1,0.999775
0.9981593328248407,1,0.999943
0.9897856636268054,1,0.999955
0.9928058829578034,0,0.998695
0.998882239766177,1,0.999963
0.9987480850052922,1,0.999965
0.9991817752775723,1,0.999772
0.9849331183727212,1,0.999899
0.9704522437973074,1,0.999943
0.9438200238078479,0,0.996993
0.9920194430017266,1,0.999926
0.9913770261080482,1,0.999913
0.9838830671385034,1,0.999781
0.99810319951908,1,0.999954
0.998910946969921,1,0.999956
0.999784780827892,1,0.999963
0.9988024642248606,1,0.999959
0.9902454412736458,1,0.999960
0.9988691006199417,1,0.999960
0.9995857928951839,1,0.999966
0.9984041907302452,1,0.999966
0.998669006946016,1,0.999960
0.9991428019689464,1,0.999923
0.9999792283360017,1,0.999967
0.9991174032385529,1,0.999966
0.9992398831604724,1,0.999895
0.9888117892297135,1,0.999948
0.9960790254053231,1,0.999791
0.9993034160984823,1,0.999957
0.9981958651155037,1,0.999965
0.9974129639951341,1,0.999964
0.9903763919984734,1,0.999809
0.9998511006410492,1,0.999963
0.9999870179981344,1,0.999963
0.9999906610499602,1,0.999963
0.998493674684035,1,0.999963
0.999550101836161,1,0.999963
0.9971443094897303,1,0.999962
0.9971266338024324,1,0.999961
0.9927399613261834,1,0.999962
0.9998845578729073,1,0.999964
0.999941257704848,1,0.999966
0.9998318656492269,1,0.999959
0.9791280992652557,1,0.999955
0.9857601871906717,1,0.999957
0.9996799283937569,1,0.999961
0.9876787894246916,1,0.999963
0.9987260044922667,1,0.999960
0.9965295346896702,1,0.999964
0.7354013386208834,1,0.999936
0.9940874452742336,1,0.999967
0.996331841547307,1,0.999941
0.9957962974320185,1,0.999878
0.9985879313271392,0,0.999181
0.9911677786068567,1,0.999857
0.9981945492264102,1,0.999727
0.8866956600102791,1,0.999689
0.9974708475097747,1,0.999570
0.9975530759111486,1,0.999968
0.9857900528188668,1,0.999869
0.9899479344241539,1,0.999760
0.9894253529226975,1,0.999859
0.9895419212040565,1,0.999903
0.3735751090974004,1,0.999964
0.9905881848566466,1,0.999969
0.9874846410287021,1,0.999941
0.9990729901613409,1,0.999962
0.9996420666283055,1,0.999768
0.9967205103890444,1,0.999966
0.9917016743986945,1,0.999967
0.9857405116740883,1,0.999897
0.9988540175836553,1,0.999967
0.9961503114027687,1,0.999864
0.9945393893110345,1,0.999928
0.9932577173929376,1,0.999971
0.9986449204862397,1,0.999897
0.9946714287115925,1,0.999968
0.9788493260984021,1,0.999969
0.9734441249942386,1,0.999967
0.42545623307541264,0,0.999543
0.9923184329645605,1,0.999958
0.9863388605550727,0,0.998704
0.9968876348385584,1,0.999951
0.9942338119729046,1,0.999705
0.999476459582504,1,0.999968
0.9941656919524404,1,0.999968
0.9931253616603692,1,0.999969
0.9982686162127203,1,0.999967
0.9917578474517117,1,0.999920
0.9873806744817358,1,0.999909
0.9990003390855087,1,0.999968
0.9955440732771585,1,0.999964
0.9963471330424171,1,0.999968
0.9994660444836942,1,0.999840
0.9962932397702747,0,0.999455
0.9972674778335849,1,0.999972
0.9197042728361953,1,0.999945
0.9939529588454675,1,0.999972
0.9841503109070877,1,0.999890
0.989376871458336,1,0.999972
0.9820328167696366,1,0.999972
0.9990239902044432,1,0.999968
0.8945096671305215,1,0.999951
0.9943740118375733,1,0.999942
0.9991966512880767,1,0.999959
0.9994371933052166,1,0.999666
0.9966703973487386,1,0.999961
0.9997740642880224,1,0.999961
0.9994295887796606,1,0.999960
0.9978354694521447,1,0.999960
0.9982779694709114,1,0.999960
0.9998023031594707,1,0.999962
0.999525738944457,1,0.999962
0.9924081197243249,1,0.999960
0.9982115206067339,1,0.999960
0.9980042695089333,1,0.999962
0.999772615914046,1,0.999958
0.9990811498202995,1,0.999960
0.9995428710359502,1,0.999960
0.9995127898850249,1,0.999962
0.9993034027346672,1,0.999963
0.9990096155997427,1,0.999961
0.999829118303282,1,0.999961
0.9996693341150309,1,0.999963
0.9986637034097663,1,0.999961
0.9998278199652229,1,0.999961
0.9997324088127412,1,0.999961
0.9985171868626531,1,0.999961
0.9991870295323744,1,0.999958
0.9972074988911531,1,0.999808
0.9996345670196861,1,0.999960
0.9992929643536079,1,0.999961
0.9965652048135342,1,0.999850
0.9953077508369835,1,0.999842
0.995933083803219,1,0.999928
0.9996649205425729,1,0.999962
0.9255108249004634,1,0.999960
0.9966540590828691,1,0.999879
0.9986048164494751,1,0.999962
0.9959986515770861,1,0.999961
0.9969078346633045,0,0.999420
0.9948827681057761,1,0.999959
0.9764193464504947,0,0.994045
0.9991426737702833,1,0.999943
0.9922317144319327,1,0.999850
0.9781839133884965,0,0.997691
0.9982777368825771,1,0.999943
0.9956049272307835,1,0.999628
0.9887229630346014,1,0.999946
0.9924102202432996,1,0.999963
0.9984917621786298,1,0.999965
0.998130722363492,1,0.999875
0.995174201028422,1,0.999955
0.9967309166010956,1,0.999954
0.9941372845770697,1,0.999951
0.9968320965455023,1,0.999969
0.9891395570070908,1,0.999922
0.9878965204934509,1,0.999525
0.9926431146315419,1,0.999937
0.9918977260981399,1,0.999915
0.9992199310841592,1,0.999965
0.9917582209841315,1,0.999954
0.999587459443356,1,0.999960
0.9997187660182135,1,0.999962
0.9998485189872316,1,0.999960
0.9994662196914443,1,0.999928
0.9992303330364626,1,0.999963
0.9990617551016798,1,0.999963
0.9990678507155377,1,0.999962
0.9998315391729504,1,0.999965
0.994811915836073,1,0.999966
0.9990402634980775,1,0.999928
0.9816186740182398,1,0.999817
0.9789701052105225,1,0.999951
0.9702938098779357,0,0.995600
0.9982220450163585,1,0.999959
0.9951474965659954,1,0.999964
0.9998231712926405,1,0.999963
0.9999818337368522,1,0.999965
0.9996692982845737,1,0.999965
0.9903715994969619,1,0.999717
0.9995663878636604,1,0.999928
0.99968715647034,1,0.999959
0.9971122603905017,1,0.999964
0.9935819583281893,1,0.999958
0.998311385291675,1,0.999923
0.9995650586721512,1,0.999965
0.9995842002397912,1,0.999962
0.9991816570354475,1,0.999958
0.9891657263782089,1,0.999950
0.9722551249844684,1,0.999691
0.9940972805395146,1,0.999963
0.9870340116688916,1,0.999925
0.9992977534042788,1,0.999962
0.9998303111303803,1,0.999965
0.9996668555439661,1,0.999961
0.9995890147140434,1,0.999884
0.9992312443602736,1,0.999964
0.9998365768985552,1,0.999966
0.9703935564599421,1,0.999967
0.9960146972344519,1,0.999963
0.9845892929590491,1,0.999961
0.9772060454075058,1,0.999776
0.9992730840337354,1,0.999963
0.9868682371783353,1,0.999926
0.9962442914316554,1,0.999966
0.9930859573378724,1,0.999943
0.9889639672705953,1,0.999894
0.9999629604631817,1,0.999930
0.999674209721037,1,0.999929
0.9987162573919087,1,0.999893
0.989143348619661,1,0.999701
0.9981855418641089,1,0.999957
0.998558330669868,1,0.999963
0.997993871801026,1,0.999900
0.9975981411256641,1,0.999967
0.998613795787497,1,0.999965
0.9946273506567593,1,0.999965
0.9984374040825634,1,0.999967
0.999680969691474,1,0.999967
0.9937380925636322,0,0.999550
0.9997382678749871,1,0.999968
0.9998457971284229,1,0.999965
0.9997087418934815,1,0.999967
0.9998949853290161,1,0.999963
0.9967124126076131,1,0.999964
0.9995677160705231,1,0.999965
0.9987372793933229,1,0.999841
0.9997278174739079,1,0.999962
0.9933329282063112,1,0.999885
0.9862670525919591,1,0.999963
0.9987680273621301,1,0.999887
0.998822632094291,1,0.999964
0.9996439719873271,0,0.976274
0.9926038998116351,1,0.999962
0.9987896489230748,1,0.999962
0.9974547941266452,1,0.999965
0.9971853271195132,1,0.999961
0.9999156765192896,1,0.999964
0.9993709990399977,1,0.999959
0.9861345099735045,1,0.999949
0.97397491603015,1,0.999853
0.9989086882203418,1,0.999791
0.9980196046573393,1,0.999962
0.9985471502300408,1,0.999963
0.9990022183332848,1,0.999962
0.9975375646085703,1,0.999963
0.9987132189057757,1,0.999959
0.9975390094567005,0,0.998359
0.9999486470256039,1,0.999965
0.9981431201282662,1,0.999968
0.9977872255556915,1,0.999962
0.9973617548835516,1,0.999964
0.9942437274653338,1,0.999776
0.9993485988485519,1,0.999887
0.9994419458779145,1,0.999965
0.9990140795709822,1,0.999967
0.9990904966926417,1,0.999967
0.9997688033065094,1,0.999959
0.9994293954694105,1,0.999924
0.9922276364575429,0,0.999508
0.9992804041222119,1,0.999967
0.9685774665958724,1,0.999951
0.9986808998991932,1,0.999963
0.9937325582891073,1,0.999960
0.9984796139365151,1,0.999959
0.9965169424936928,1,0.999959
0.9979855788059792,1,0.999849
0.9987854216287758,1,0.999962
0.9990980998333298,1,0.999965
0.9996530880051948,1,0.999962
0.9993433681667999,1,0.999967
0.9993415240610961,1,0.999964
0.9996530696663322,1,0.999963
0.9995364846499645,1,0.999962
0.999851231875391,1,0.999964
0.9998514167740569,1,0.999882
0.9999125557728649,1,0.999968
0.9977099707525067,1,0.999936
0.9997056711165845,1,0.999962
0.9964064931263319,1,0.999887
0.9962390909602077,1,0.999959
0.9977041818255213,1,0.999667
0.9997357828214308,1,0.999960
0.9997912707197604,1,0.999963
0.9996336114431221,1,0.999963
0.9986935407267552,1,0.999878
0.9984828924715209,1,0.999831
0.9991330095078281,1,0.999963
0.9992553814186248,1,0.999962
0.9943570922387053,1,0.999963
0.9709149783717441,0,0.998576
0.4820716035054163,1,0.999854
0.49978908919608156,1,0.999960
0.584246682774154,0,0.999417
0.4533579282509432,1,0.999959
0.9998542161129222,1,0.999969
0.9954740480719149,0,0.998992
0.8964329385991755,1,0.999958
0.9899881193503809,1,0.999904
0.9998512797163145,1,0.999965
0.9951975572208014,1,0.999959
0.7763050925072202,0,0.996463
0.9832732304018528,1,0.999952
0.7527042951214041,1,0.999959
0.9939345770023273,1,0.999885
0.9988594482117326,1,0.999955
0.999730993104257,1,0.999954
0.998233179964238,1,0.999912
0.9995661357066655,1,0.999956
0.9983125516358085,1,0.999958
0.9993309524330313,1,0.999960
0.9999431984276662,1,0.999963
0.9996659433894768,1,0.999963
0.9996785626794974,1,0.999962
0.9999492248850902,1,0.999964
0.9997678943887455,1,0.999965
0.9992099805754385,1,0.999965
0.98809257842429,0,0.998624
0.9993167018458992,1,0.999968
0.9976741957930528,1,0.999898
0.9961275605260765,1,0.999963
0.9837962878620563,0,0.993046
0.9896192208368139,1,0.999958
0.9972595998347051,1,0.999889
0.9976211254590247,1,0.999965
0.9934233245036511,1,0.999963
0.9937056465986293,1,0.999959
0.9994294367830043,1,0.999967
0.9970832830697604,1,0.999962
0.9964954456402918,1,0.999884
0.9997344835539993,1,0.999965
0.9996892910591614,1,0.999965
0.9946495222460746,1,0.999966
0.9997892782688593,1,0.999964
0.9993257302056977,1,0.999963
0.9977336452907584,1,0.999962
0.9998435780556196,1,0.999962
0.9999036444627659,1,0.999892
0.9997063100530545,1,0.999965
0.9945993939043478,1,0.999960
0.9725274381035913,1,0.999932
0.9991230285858642,1,0.999931
0.9995779251991285,1,0.999963
0.9994232339951795,1,0.999929
0.9999074915497888,1,0.999964
0.9997457922285576,1,0.999964
0.9992411705328046,1,0.999964
0.9993488108284858,1,0.999890
0.9997061770623865,1,0.999961
0.9925115656527839,1,0.999906
0.9666860765099551,1,0.999906
0.9945800677518993,1,0.999961
0.9998939899567474,1,0.999959
0.9976120271945281,1,0.999959
0.9980626574709983,1,0.999963
0.9980188190983806,1,0.999957
0.999877503422857,1,0.999964
0.997929643059588,1,0.999959
0.9999876063235676,1,0.999964
0.9994376177714956,1,0.999953
0.9962239488491708,1,0.999965
0.9994034204332454,1,0.999965
0.9996252655042142,1,0.999963
0.9992478960602298,1,0.999929
0.9993835036255945,1,0.999965
0.999563772915852,1,0.999963
0.9996925492063556,1,0.999961
0.9996967358171375,1,0.999930
0.9999612402695837,1,0.999964
0.9999686464470648,1,0.999962
0.9999809273377345,1,0.999964
0.9999238857848899,1,0.999967
0.9980775176327292,1,0.999924
0.9977617204921482,1,0.999931
0.9974545325145767,1,0.999959
0.9998325552766473,1,0.999954
0.9990281151949899,1,0.999889
0.9994548571157097,1,0.999926
0.9269639308717467,1,0.999949
0.9975436643686171,1,0.999689
0.9979498087036942,1,0.999963
0.9989454364874951,1,0.999780
0.9999133184744745,1,0.999965
0.9947954215972108,1,0.999839
0.9997234017212422,1,0.999884
0.9944451721882991,1,0.999926
0.9990680717574082,1,0.999964
0.999780589028493,1,0.999966
0.9999045267590068,1,0.999956
0.9998617908386077,1,0.999966
0.9997231429803174,1,0.999963
0.9998930101639063,1,0.999964
0.9999594276455728,1,0.999965
0.998376597927344,0,0.999472
0.9999515284081488,1,0.999963
0.9994443865606292,1,0.999965
0.9994536912369042,1,0.999891
0.9841271775606458,1,0.999962
0.9905182399112838,1,0.999851
0.9993402824295098,1,0.999963
0.9998746117389,1,0.999963
0.9996834853166086,1,0.999957
0.9998305797422551,1,0.999962
0.9995536236279635,1,0.999895
0.9997334979134765,1,0.999963
0.9996279497440861,1,0.999929
0.9997493477939767,1,0.999965
0.9986267705699227,1,0.999963
0.9992186611653803,1,0.999963
0.9999275003816528,1,0.999963
0.9999593222985935,1,0.999964
0.999200965990767,1,0.999964
0.9880669987265581,1,0.999959
0.9921200518211676,1,0.999945
0.9905858833000417,1,0.999966
0.9989858706869024,1,0.999962
0.9992308396449044,1,0.999888
0.9998848909416023,1,0.999963
0.9990534010926726,1,0.999958
0.9822889354290946,0,0.999515
0.9941029067520651,1,0.999925
0.999858205976509,1,0.999962
0.9995960430428953,1,0.999895
0.999370211910169,1,0.999964
0.9964480001911649,1,0.999893
0.9987129694392292,1,0.999963
0.9997735850985906,0,0.999544
0.9994644970309989,1,0.999931
0.9995083705311039,1,0.999963
0.9983802440089911,1,0.999956
0.9999452891931528,1,0.999924
0.9930093557563717,1,0.999874
0.9985245463306908,1,0.999907
0.9997936641479458,1,0.999758
0.9978686522789226,1,0.999962
0.9983687811682037,1,0.999966
0.9994810093595127,1,0.999961
0.9999866229502454,1,0.999965
0.9997330691595645,1,0.999965
0.9996760998878812,1,0.999962
0.9983358756745527,1,0.999965
0.9998128240675805,1,0.999964
0.9999521267207184,1,0.999961
0.9998019327567869,1,0.999964
0.9986560604409619,1,0.999964
0.9999340445248875,1,0.999964
0.9998261947756047,1,0.999960
0.9996202194996996,1,0.999876
0.9983821115561178,1,0.999963
0.9999146264527713,1,0.999964
0.99986324237442,1,0.999964
0.999958602650752,1,0.999966
0.999917334671925,1,0.999965
0.9999024862463883,1,0.999923
0.9984528175181864,1,0.999926
0.9989393652454497,1,0.999841
0.9998111973199225,1,0.999960
0.9998154659346107,1,0.999963
0.9997968007640635,1,0.999965
0.9994709363462306,1,0.999964
0.9986324879672311,1,0.999965
0.999024872526022,1,0.999963
0.9995594475407704,1,0.999964
0.9999178053037693,1,0.999963
0.999978414451266,1,0.999966
0.9998802781157057,1,0.999967
0.9997401917516452,1,0.999926
0.9995762932800241,1,0.999927
0.9987457710989026,1,0.999964
0.9993093992857465,1,0.999962
0.9998782976785378,1,0.999963
0.9997057792127825,1,0.999964
0.9999904621886517,1,0.999965
0.9939464907337968,1,0.999929
0.9999303436198173,1,0.999964
0.9996716506089824,1,0.999963
0.9999366514779845,1,0.999888
0.9999369246429757,1,0.999965
0.9999507120002542,1,0.999964
0.9999306532153279,1,0.999961
0.9997679694636015,1,0.999963
0.9985890593622998,1,0.999961
0.9998298403509298,1,0.999959
0.9997961670186004,1,0.999963
0.9999271848234144,1,0.999963
0.9997643087139267,1,0.999963
0.9998414380744888,1,0.999965
0.9999332513472278,1,0.999965
0.9995613411279037,1,0.999966
0.9999762268754652,1,0.999964
0.9999623511426825,1,0.999964
0.999922656533298,1,0.999933
0.9978474372738293,1,0.999965
0.9871330675196976,0,0.997519
0.9918401975839143,1,0.999943
0.9977694034248388,1,0.999965
0.9997816807614444,1,0.999927
0.9965508797389094,1,0.999963
0.999536133903193,1,0.999961
0.9999204169542455,1,0.999964
0.9987476666583329,1,0.999954
0.9999423666128178,1,0.999965
0.9998526187342938,1,0.999962
0.9995413988506533,1,0.999963
0.9990690060806798,1,0.999962
0.9992281072653669,1,0.999962
0.9998507619881796,1,0.999963
0.9995036315937117,1,0.999965
0.9998680680277507,1,0.999964
0.9995461800645866,1,0.999962
0.9993228784789643,1,0.999922
0.9989095591696344,1,0.999895
0.9952149908904745,1,0.999962
0.9993674742975514,1,0.999967
0.9989140024670294,1,0.999964
0.9988581819845029,1,0.999963
0.9945025552607293,1,0.999916
0.9991590154385208,1,0.999965
0.9990380910408136,1,0.999964
0.9900229908056867,0,0.999496
0.9753982815511852,1,0.999965
0.9275407571016235,1,0.999775
0.3306073607084982,1,0.999761
0.45252813453789004,1,0.999927
0.9996384675995355,1,0.999959
0.9944812687145801,1,0.999965
0.4215978318196564,1,0.999971
0.9920378433156299,1,0.999969
0.9888438226917534,1,0.999969
0.9873601498351506,1,0.999969
0.9872468756097836,1,0.999932
0.99819328938646,1,0.999960
0.9998224201882315,1,0.999964
0.999060515633789,1,0.999962
0.999774507101052,1,0.999956
0.9979883525207847,1,0.999964
0.999613816419958,1,0.999966
0.9997987365131442,1,0.999965
0.9998494263281372,1,0.999963
0.9998634633548499,1,0.999927
0.9992535859910403,1,0.999965
0.9999791015565863,1,0.999967
0.995786502780074,0,0.998817
0.9994811127168814,1,0.999963
0.9989753679532971,1,0.999963
0.9984559722933987,1,0.999960
0.9998130691489933,1,0.999965
0.999101937875008,1,0.999965
0.997358777374599,0,0.978662
0.9994982230860932,1,0.999961
0.9994395059166478,1,0.999965
0.999219259529907,1,0.999965
0.9995412108635887,1,0.999964
0.9986313712206154,1,0.999964
0.9957406550441152,1,0.999966
0.9991683793121601,1,0.999816
0.9976630401730536,1,0.999963
0.9996241081034164,1,0.999965
0.9997251916848713,1,0.999966
0.9985932379454523,1,0.999965
0.9984197549309356,1,0.999925
0.9950801913243899,1,0.999951
0.9968021763490938,1,0.999969
0.9978776645185268,1,0.999968
0.9930980894766293,1,0.999957
0.9998411243399663,1,0.999956
0.9981498996981613,1,0.999890
0.999466550587532,1,0.999929
0.9962592313170248,1,0.999902
0.9999512270373783,1,0.999968
0.9984855633833257,1,0.999966
0.9997781268405355,1,0.999965
0.9997882912628566,1,0.999962
0.9998203629171744,1,0.999967
0.999914423694186,1,0.999966
0.9998629868387667,1,0.999967
0.9994966005607631,1,0.999963
0.9999669602068451,1,0.999964
0.9964911929426309,1,0.999949
0.9994459784368726,1,0.999964
0.9997396725844752,1,0.999962
0.9995226622674103,1,0.999963
0.999903281612921,1,0.999963
0.9999490875062371,1,0.999964
0.9997181755376765,1,0.999964
0.9999828827467567,1,0.999963
0.9994973970407229,1,0.999963
0.9961621947856101,1,0.999925
0.9986745963056287,1,0.999962
0.9995499138863182,1,0.999962
0.9998766944464104,1,0.999964
0.9998646170548908,1,0.999967
0.9999133409537658,1,0.999965
0.9993483867381728,1,0.999962
0.9992175964335204,1,0.999966
0.9991737028807652,1,0.999967
0.999357285555027,1,0.999966
0.9997297710313703,1,0.999964
0.9962680582465274,1,0.999962
0.9994453207944498,1,0.999962
0.9997666404239942,1,0.999965
0.9910473054800673,1,0.999840
0.9981487125974841,0,0.998569
0.9995320233630391,1,0.999959
0.9996596159855822,1,0.999966
0.9998745309909993,1,0.999966
0.999555691020235,1,0.999967
0.9978281371555336,1,0.999967
0.99988743208354,1,0.999927
0.9998525845291034,1,0.999965
0.9997859470372706,1,0.999964
0.999279306705685,1,0.999850
0.9990939995411763,1,0.999965
0.9994736713892314,1,0.999961
0.9999394277246054,1,0.999964
0.9993929383345186,0,0.995307
0.9995511389225908,1,0.999964
0.9999253564585235,1,0.999967
0.9985404495639597,1,0.999934
0.9999282953687552,1,0.999964
0.9999477192698392,1,0.999931
0.9997921696467665,1,0.999926
0.9998542040943771,1,0.999964
0.9998463263987735,1,0.999962
0.9997234336987241,1,0.999966
0.9999468076120701,1,0.999962
0.9998967171065911,1,0.999963
0.9983808110383335,1,0.999963
0.9991516750169093,1,0.999928
0.998308536605672,1,0.999903
0.9961603700381865,1,0.999961
0.9956533450928169,1,0.999962
0.9991505684862366,1,0.999961
0.9968523696176195,1,0.999963
0.9923428520018651,1,0.999949
0.9987534173233918,0,0.999357
0.9995735704947745,1,0.999963
0.9987135835401664,1,0.999965
0.9986458702856139,1,0.999946
0.999958553170539,1,0.999966
0.9999307077708691,1,0.999924
0.9998965331661801,1,0.999967
0.9999321145992366,1,0.999842
0.9990553954894512,1,0.999967
0.9998725579269232,1,0.999968
0.999462239152576,1,0.999963
0.9987213650184285,1,0.999967
0.9977605429150886,1,0.999962
0.999744208160677,1,0.999966
0.9993581531195693,1,0.999967
0.9991342447194025,1,0.999967
0.9975130925938608,1,0.999871
0.9956799906724019,1,0.999968
0.9812833364549163,1,0.999844
0.9998421685978566,1,0.999964
0.9982049818197035,1,0.999968
0.9998536947890794,1,0.999962
0.9984442452214793,1,0.999922
0.9988965314981295,0,0.999483
0.9998915854245308,1,0.999967
0.9999203824765787,1,0.999965
0.9998849882859114,1,0.999964
0.9996859931195207,1,0.999963
0.9998489466956358,1,0.999964
0.9999371378203787,1,0.999967
0.9991436145830215,1,0.999967
0.9985631876762762,1,0.999965
0.9999097164269324,1,0.999966
0.9997353409061422,1,0.999968
0.9998497515469492,1,0.999964
0.9999084963107819,1,0.999967
0.9999801826639364,1,0.999967
0.9999665173873978,1,0.999967
0.999955031587889,1,0.999968
0.9999933599877412,1,0.999964
0.9980704472503908,1,0.999927
0.999671208265489,1,0.999968
0.9998259365589,1,0.999965
0.9992153920544241,1,0.999963
0.997646349398003,1,0.999965
0.9999646109037451,1,0.999967
0.9999656082582574,1,0.999935
0.9998262479997909,1,0.999961
0.9998585406744174,1,0.999967
0.9995462022522071,1,0.999967
0.9990597644822968,1,0.999932
0.9999035793188582,1,0.999955
0.9999247809520341,1,0.999967
0.9998371102248969,1,0.999885
0.9999506560634115,1,0.999966
0.9999890338831718,1,0.999964
0.9997765912191791,1,0.999968
0.9999806054516412,1,0.999966
0.9999634627091107,1,0.999968
0.9997957470289144,1,0.999962
0.9999795142974282,1,0.999966
0.9999895834695031,1,0.999966
0.9998353919260491,1,0.999969
0.9997799319422367,1,0.999968
0.9999822752972486,1,0.999969
0.9998502953582945,1,0.999963
0.9996168589245135,1,0.999967
0.9995067825636575,1,0.999968
0.9991057611781549,0,0.999567
0.9995455633072926,1,0.999921
0.9998845498577669,1,0.999967
0.9999747203013092,1,0.999969
0.9973046498537365,1,0.999965
0.9991059848165186,1,0.999963
0.9999014312215401,1,0.999968
0.9999691494119752,1,0.999967
0.9999197428670858,1,0.999968
0.9999122674747789,1,0.999962
0.9998229967737655,1,0.999967
0.9996530982445824,1,0.999924
0.9997440332503642,1,0.999933
0.9999887918611642,1,0.999961
0.9999600987335794,1,0.999967
0.998607009335839,1,0.999964
0.9997574105885225,1,0.999965
0.9998828459278486,1,0.999967
0.9984145059783481,1,0.999924
0.9970197373616676,1,0.999895
0.9981593115538819,1,0.999882
0.9964434760854602,1,0.999910
0.9997642361610288,1,0.999962
0.999816391403951,1,0.999962
0.9997939985294888,1,0.999960
0.9993034791402368,1,0.999714
0.9992782791140413,1,0.999966
0.9997808297582511,1,0.999966
0.9999238702673856,1,0.999966
0.9998535614095717,1,0.999965
0.9999006630806985,1,0.999965
0.9999438014464915,1,0.999966
0.9935813959249576,1,0.999962
0.9994409417214638,1,0.999962
0.9992169673755594,1,0.999965
0.9998381033643683,1,0.999965
0.9990173673375498,1,0.999964
0.9999924255333319,1,0.999967
0.9998405024338541,1,0.999966
0.99926813551262,1,0.999964
0.9977113743873145,1,0.999935
0.9991028250228055,1,0.999966
0.9999245769709242,1,0.999965
0.9998923057912572,1,0.999931
0.9939898528386438,1,0.999948
0.9984341256300022,1,0.999895
0.9998307049230127,1,0.999966
0.9995855261703607,1,0.999967
0.9999820780891657,1,0.999967
0.9986621477482377,1,0.999902
0.9990094945768373,1,0.999964
0.9971150598847466,1,0.999965
0.9999618998186894,1,0.999964
0.9999481725951679,1,0.999962
0.9992303105543798,1,0.999967
0.9999715343166619,1,0.999966
0.999800881978654,1,0.999966
0.9997173919355014,1,0.999967
0.9985908513311562,1,0.999967
0.9998514291422423,1,0.999966
0.9998413567886143,1,0.999932
0.9996775918477695,1,0.999966
0.9998685677905458,1,0.999966
0.9995192996366454,1,0.999934
0.9996829714387444,1,0.999968
0.9997605717768021,1,0.999926
0.9999765763132218,1,0.999967
0.9974957164578964,1,0.999962
0.9999788114203232,1,0.999967
0.9998548828278335,1,0.999966
0.9969612567913516,1,0.999965
0.9998831071313521,1,0.999966
0.9998720458623908,1,0.999965
0.9998391530436912,1,0.999966
0.9949969445298633,1,0.999965
0.999838148740751,1,0.999963
0.99908538902726,1,0.999927
0.9997613286092862,1,0.999966
0.9996814425672701,1,0.999932
0.9999709858081179,1,0.999967
0.9983764230758962,1,0.999957
0.999839652052414,1,0.999962
0.9997967131954574,1,0.999962
0.9998676718705559,1,0.999961
0.9998784281728404,1,0.999966
0.9994874109816945,1,0.999963
0.9978913465067325,1,0.999964
0.997305832649984,1,0.999966
0.9999526528707132,1,0.999968
0.9997290868585552,1,0.999963
0.9979799970639647,1,0.999966
0.9999037644502796,1,0.999966
0.9997192948077092,1,0.999962
0.9999873693209093,1,0.999966
0.9994285887608911,1,0.999926
0.9989479638075563,1,0.999965
0.9999902062635856,0,0.999128
0.9999777082368989,1,0.999968
0.9998437545446915,1,0.999968
0.997815594024125,1,0.999967
0.9998633663993028,1,0.999967
0.996614880287366,0,0.999583
0.9993841556393463,1,0.999965
0.9999579419518683,1,0.999965
0.9984776734882227,1,0.999960
0.9988384122047991,1,0.999962
0.9999621152200598,1,0.999962
0.9996735375238892,1,0.999927
0.9996409235879528,1,0.999963
0.9998087384619148,1,0.999966
0.9997931245116527,1,0.999965
0.9999409273934041,1,0.999966
0.9998309548657646,1,0.999964
0.9992776690303805,1,0.999932
0.9992552924523712,1,0.999965
0.9947833401657316,1,0.999967
0.9998513857299217,1,0.999967
0.9989241617924257,1,0.999965
0.9995641221658899,1,0.999935
0.9995264398000608,1,0.999967
0.9994918801661786,1,0.999929
0.9998832316966834,1,0.999967
0.9796511465598169,1,0.999958
0.9988492368929788,1,0.999927
0.9991242450909575,1,0.999961
0.9998068936642711,1,0.999964
0.9992348198754502,1,0.999965
0.9972953837867219,1,0.999966
0.999784831706299,1,0.999967
0.9998581367817985,1,0.999965
0.9991918943950318,1,0.999897
0.9995490933661368,1,0.999964
0.9994170601579567,1,0.999967
0.9980167517613351,1,0.999967
0.9998167658468358,1,0.999968
0.9999366435212143,1,0.999962
0.9996015486538603,1,0.999968
0.9996902193714653,1,0.999968
0.99927507523988,1,0.999967
0.9999810862615978,1,0.999968
0.9995206409961094,1,0.999960
0.9997095115852361,1,0.999967
0.9997011326315348,1,0.999964
0.9999433892524452,1,0.999967
0.9994700692449765,0,0.995372
0.9999400091937365,1,0.999967
0.9995940754715134,1,0.999935
0.999759733347567,1,0.999963
0.9997901793811663,1,0.999962
0.9999430978600387,1,0.999929
0.9998983373786003,1,0.999967
0.9999548551603258,1,0.999967
0.9998634730242831,1,0.999966
0.996088231701563,0,0.999530
0.995433923965341,1,0.999957
0.9754100843083571,1,0.999958
0.9988138746170675,1,0.999959
0.9985592200399855,1,0.999961
0.9988457702782814,1,0.999966
0.9997092444391211,1,0.999963
0.999780524909965,1,0.999961
0.9996866986259104,1,0.999927
0.9971410647474448,1,0.999963
0.9985447191412277,0,0.999279
0.9995518685191722,1,0.999968
0.999655259886124,1,0.999921
0.9999672335612709,1,0.999964
0.9930331543803518,1,0.999960
0.999761336452207,1,0.999958
0.9998853205967413,1,0.999893
0.9988309690271965,1,0.999962
0.9997219599455437,1,0.999964
0.9995741574863823,1,0.999965
0.9837020565397963,1,0.999956
0.9967076356487163,1,0.999967
0.9975033483281938,0,0.999047
0.9994396176483907,1,0.999968
0.9995429926896979,1,0.999930
0.9997542344795987,1,0.999966
0.9933508642359832,1,0.999959
0.9992997076855767,1,0.999968
0.9994380298035216,1,0.999745
0.9998815869189632,1,0.999966
0.9994275691809232,1,0.999966
0.9998738304306587,1,0.999968
0.9991011901295953,1,0.999681
0.9987696090318184,1,0.999794
0.9993919676726097,1,0.999967
0.9991119805281019,1,0.999960
0.9988601132967223,1,0.999966
0.999580088255953,1,0.999734
0.999948268641258,1,0.999764
0.9998304536185212,1,0.999965
0.9985965780615521,1,0.999967
0.9990267518617209,1,0.999966
0.9997445031796901,1,0.999967
0.9974272209936114,1,0.999966
0.9993110698962892,1,0.999966
0.9996057168613992,1,0.999967
0.9996169935043209,1,0.999921
0.9988178638274468,1,0.999968
0.9994918341462377,1,0.999967
0.9999311128010727,1,0.999966
0.9998958573254643,1,0.999965
0.9969683675855172,1,0.999962
0.9998734914880364,1,0.999968
0.9993835144051825,1,0.999966
0.9993633731232511,1,0.999966
0.9999886207041375,1,0.999966
0.9992256998361909,1,0.999931
0.9784340069452855,1,0.999962
0.9965031274648758,1,0.999965
0.996962515784277,1,0.999848
0.999648694428419,1,0.999966
0.9978884384915059,1,0.999962
0.9994472485646206,1,0.999964
0.9997354834709529,1,0.999966
0.9998798968027751,1,0.999966
0.9970653774211712,1,0.999878
0.9998716147171702,1,0.999964
0.9995562118486973,1,0.999962
0.9993921894338343,1,0.999965
0.9998039679318688,1,0.999965
0.9997334634415507,1,0.999967
0.9990352390052971,1,0.999936
0.9993274930732189,1,0.999967
0.9992185211180165,1,0.999895
0.9999119796045335,1,0.999967
0.9997526487093815,1,0.999966
0.9999019859427456,1,0.999968
0.9981252169764695,1,0.999765
0.9992175046347834,1,0.999883
0.9990235159803785,1,0.999966
0.9996784540632021,1,0.999901
0.9997978594701052,1,0.999964
0.9999235109370387,1,0.999966
0.9996031322978747,1,0.999967
0.9997087322938388,1,0.999967
0.9997555981736965,1,0.999928
0.9982219493886934,1,0.999962
0.9407748714354496,0,0.980112
0.997610424912499,1,0.999930
0.9996650254792346,1,0.999964
0.9998720785276396,1,0.999966
0.9998860805987996,1,0.999933
0.9999254483703232,1,0.999965
0.9998278293318641,1,0.999967
0.9999465719153622,1,0.999962
0.9996498358313274,1,0.999965
0.9958894892007033,1,0.999967
0.9966611889947583,1,0.999962
0.9996677593758261,1,0.999968
0.9997998516195368,1,0.999964
0.9999800823722812,1,0.999967
0.9999234438884997,1,0.999935
0.9989572164567749,1,0.999960
0.9978020569190114,0,0.999253
0.9998406464761984,1,0.999968
0.9997969501958928,1,0.999967
0.9999061091156081,1,0.999933
0.9998071790972907,1,0.999966
0.9992938022052171,1,0.999967
0.9994584337977724,1,0.999968
0.9999414455223431,1,0.999966
0.9999876842298747,1,0.999968
0.9854982137523016,1,0.999968
0.999315209094379,1,0.999968
0.9999106234177758,1,0.999968
0.9996718017026642,1,0.999944
0.9993893231685917,1,0.999960
0.9999580170469954,1,0.999965
0.9989117029168952,1,0.999966
0.9999235871069362,1,0.999964
0.9992562748061101,1,0.999875
0.9990696090725693,1,0.999967
0.994244251167023,0,0.999186
0.9992221289707873,1,0.999953
0.999306137384562,1,0.999931
0.9985674324962709,1,0.999967
0.9981716040701825,1,0.999968
0.9983923695160135,1,0.999966
0.9987960570564074,1,0.999965
0.9993447608954203,1,0.999966
0.9997404029247912,1,0.999902
0.9999510282484956,1,0.999794
0.9992070671948691,1,0.999936
0.9999415559343998,1,0.999966
0.9996829576443501,1,0.999933
0.9997905762832949,1,0.999967
0.9999784371979112,1,0.999967
0.999948800687696,1,0.999966
0.9992376663800648,1,0.999931
0.9998938107010968,1,0.999966
0.9998070334963113,1,0.999966
0.9994138487978916,1,0.999934
0.9999680358115555,1,0.999968
0.9999501256855954,1,0.999966
0.999941800573285,1,0.999968
0.9999761894072781,1,0.999966
0.99874124424255,1,0.999857
0.9998947851100733,1,0.999896
0.9999547068482567,1,0.999967
0.9994519972124362,1,0.999936
0.9998932598849345,1,0.999967
0.9987548936473273,1,0.999951
0.9999884602678102,1,0.999968
0.9999916944651552,1,0.999965
0.9998050471567366,1,0.999967
0.9995479677544701,1,0.999967
0.9997960241528768,1,0.999965
0.9993686152129384,1,0.999967
0.9951786851221045,1,0.999957
0.9997425480887996,1,0.999962
0.9994874317223891,1,0.999966
0.999870396668535,1,0.999866
0.9999738071083019,1,0.999967
0.9998327560971144,1,0.999966
0.9998256219352589,1,0.999967
0.9999706268587739,1,0.999967
0.9999929447300365,1,0.999967
0.9997477654364484,1,0.999967
0.9999084588789837,1,0.999967
0.9998226160565487,1,0.999967
0.9992003171679004,1,0.999962
0.9999420149753943,1,0.999966
0.9995966742597409,1,0.999965
0.9999810488300521,1,0.999967
0.9992400396910747,1,0.999967
0.9988850065188493,1,0.999898
0.9997891205072823,1,0.999966
0.9995337269298702,1,0.999968
0.999010185604681,1,0.999959
0.999925948831413,1,0.999968
0.9999636124653586,1,0.999931
0.9985261790838265,1,0.999967
0.9992837240348517,1,0.999967
0.9999768868515659,1,0.999967
0.9999219222292818,1,0.999795
0.9913059656166384,1,0.999958
0.9956647281388331,1,0.999815
0.9996538866085426,1,0.999957
0.9973905202984995,0,0.999411
0.9999842419011792,1,0.999964
0.9874524018698891,1,0.999956
0.3245734834820292,1,0.999913
0.9883362690587987,1,0.999894
0.9989615696407583,0,0.999219
0.9998179611601204,1,0.999960
0.9990377535657439,1,0.999967
0.9944132670121819,1,0.999965
0.9987881624222279,1,0.999783
0.9998334246422331,1,0.999872
0.9999239641995852,1,0.999928
0.9994585471349358,1,0.999967
0.9998226270348864,1,0.999932
0.9999839193179934,1,0.999968
0.9932404991809367,1,0.999959
0.9998092991621591,1,0.999901
0.9999033372157432,1,0.999968
0.9998626438847213,1,0.999967
0.9998729457490949,1,0.999959
0.999941952398539,1,0.999964
0.998420058570088,1,0.999930
0.995207740447488,1,0.999968
0.9991646573895427,1,0.999967
0.9997242243198697,1,0.999966
0.9999058981379247,1,0.999967
0.9997164630918219,1,0.999967
0.9991390298190014,1,0.999882
0.9997175414344125,1,0.999966
0.9991845667640015,1,0.999960
0.9999778821212179,1,0.999966
0.9971876818186413,1,0.999940
0.999548375559895,1,0.999959
0.9999027814785675,1,0.999965
0.9998833349135368,1,0.999966
0.9975050173483918,1,0.999967
0.9995517614221145,1,0.999966
0.9993528493566893,1,0.999958
0.9998869925420687,1,0.999967
0.999995445613307,1,0.999967
0.9998999068378688,1,0.999969
0.9999300918901787,1,0.999967
0.999990994369004,1,0.999968
0.9999908699922759,1,0.999965
0.9998770911968579,1,0.999966
0.9999121842054807,1,0.999967
0.9999801009027938,1,0.999934
0.9996154794117846,1,0.999897
0.9999718633947321,1,0.999967
0.999314182546329,1,0.999922
0.9996099760830792,1,0.999967
0.9999591389632454,1,0.999966
0.9990097178195528,1,0.999971
0.9970809942597928,1,0.999969
0.9999779755934161,1,0.999968
0.9998581551254816,1,0.999968
0.9994851562875424,1,0.999958
0.9999309563497464,1,0.999966
0.9990855703735749,1,0.999932
0.9999461495530269,1,0.999967
0.9998256519083542,1,0.999967
0.9999802948001962,1,0.999967
0.9995505790319018,1,0.999903
0.9998505046147305,1,0.999968
0.999512889791376,1,0.999963
0.9996804356542177,1,0.999932
0.9999006037085026,1,0.999801
0.9995065473354523,1,0.999967
0.9999596108589188,1,0.999966
0.9993639332130944,1,0.999966
0.9996964401488159,1,0.999968
0.9994295517795756,1,0.999965
0.9985441973700777,1,0.999958
0.9999323645016973,1,0.999893
0.9992469392015628,1,0.999959
0.9998624750433524,1,0.999966
0.9994284656001563,1,0.999963
0.999957800590933,1,0.999967
0.9998656436329877,1,0.999964
0.9999535812166755,1,0.999969
0.9996343971400845,1,0.999967
0.9994765498625613,1,0.999929
0.9899867534335537,1,0.999966
0.9997925171819027,1,0.999967
0.9999742809864939,1,0.999937
0.9994364022028427,1,0.999967
0.9999673359036454,1,0.999968
0.999926790950333,1,0.999967
0.9995537992796787,1,0.999901
0.9999851679441857,1,0.999965
0.9997562115505669,1,0.999894
0.9997908542808085,1,0.999967
0.999748341663518,1,0.999968
0.9995106139776352,1,0.999934
0.9998054019317479,1,0.999961
0.9997947663268685,1,0.999968
0.9998945158937437,1,0.999966
0.9994586780905323,1,0.999834
0.9999053734879455,1,0.999964
0.999975547683935,1,0.999967
0.9999916049421469,1,0.999966
0.9999511635373859,1,0.999969
0.9998982415316977,1,0.999934
0.9998601987151454,1,0.999966
0.999983814264779,1,0.999932
0.999990659161625,1,0.999967
0.9999379538919512,1,0.999969
0.9999232104007411,1,0.999967
0.999976474335306,1,0.999966
0.9999673658115018,1,0.999966
0.9998216393327471,1,0.999967
0.9992106513515194,1,0.999933
0.9963297266642019,1,0.999963
0.998810983504159,1,0.999680
0.9923506644966659,0,0.999568
0.9950544285438354,1,0.999928
0.996762438642229,1,0.999964
0.9996793373145224,1,0.999966
0.9989283157430963,1,0.999927
0.9886645926105747,1,0.999565
0.9998480654988914,1,0.999966
0.9992477557258074,1,0.999963
0.9996380646512527,1,0.999966
0.9997604821402084,1,0.999929
0.9973137647214189,1,0.999944
0.9996837994732023,0,0.999561
0.9991397406578943,1,0.999967
0.9999263873667312,1,0.999967
0.9990691476819311,1,0.999967
0.9991491302001698,1,0.999903
0.9925244782023953,1,0.999966
0.997614215491039,1,0.999967
0.9999101059495561,1,0.999968
0.99868628774037,1,0.999863
0.9998936414137507,1,0.999968
0.9999852802413796,1,0.999967
0.9998459340817103,1,0.999742
0.999591469412542,1,0.999968
0.9983012002134753,1,0.999968
0.9998347114836561,1,0.999963
0.9991662107466232,1,0.999968
0.9927211163659244,1,0.999962
0.9942790259674783,0,0.999379
0.9998678060682472,1,0.999966
0.9998989162923728,1,0.999967
0.9991370923137404,1,0.999967
0.9989712840510127,1,0.999931
0.9999697135499396,1,0.999967
0.9998998729563897,1,0.999967
0.9998331246127282,1,0.999966
0.9995465030644592,1,0.999965
0.9998120190874873,1,0.999966
0.9997000531306637,1,0.999967
0.9998046460600849,1,0.999966
0.9982030341752076,1,0.999966
0.9993401883972451,1,0.999966
0.9997555091215382,1,0.999965
0.9995581931865648,1,0.999966
0.999837526418245,1,0.999967
0.9947590011308631,1,0.999965
0.997967850574633,1,0.999967
0.9994520865711103,1,0.999964
0.9992465698934172,1,0.999966
0.999486399461553,1,0.999968
0.9997508910045061,1,0.999934
0.9999496104201809,1,0.999967
0.9999794640612064,1,0.999966
0.9985276327613549,1,0.999935
0.9931660491865595,1,0.999781
0.9993148930610647,1,0.999956
0.9994415476625965,1,0.999965
0.9999522723404661,1,0.999966
0.9997506568412455,1,0.999967
0.9998473222399354,1,0.999967
0.9998157777631796,1,0.999967
0.9945236406405861,1,0.999925
0.9956791983934419,0,0.997727
0.9998385412110611,1,0.999936
0.998911677776234,1,0.999966
0.9998580760227603,1,0.999967
0.9998527215153892,1,0.999961
0.9998463238155226,1,0.999964
0.9998613142440119,1,0.999966
0.999944470547277,1,0.999969
0.9989281199273646,1,0.999967
0.999852699485173,1,0.999964
0.9995641710333729,1,0.999967
0.9990756167103081,1,0.999966
0.9998640157168914,1,0.999966
0.9998871287595926,1,0.999966
0.9998045794457341,1,0.999966
0.9999190950445295,1,0.999965
0.9999746821146782,1,0.999966
0.9997609553436977,1,0.999966
0.9998094172133122,1,0.999966
0.9998954157477558,1,0.999965
0.9999414424738249,1,0.999967
0.9996343766976383,1,0.999967
0.9992425710915027,1,0.999897
0.9997811225811548,1,0.999966
0.9999393879787088,1,0.999968
0.9999425343281342,1,0.999967
0.9986846876883789,0,0.999295
0.9997647836032743,1,0.999931
0.9997742870095975,1,0.999965
0.9989492218355542,1,0.999965
0.999713819286997,1,0.999967
0.9998892287451724,1,0.999935
0.9989719389544554,1,0.999967
0.9996161663090452,1,0.999958
0.9998219058413136,1,0.999967
0.9999125041402146,1,0.999967
0.9998014316842638,1,0.999967
0.9986088779037099,1,0.999966
0.9998189074555431,1,0.999967
0.999745553072788,1,0.999934
0.9997361739547121,1,0.999966
0.9998226862500442,1,0.999965
0.9994919957319076,1,0.999962
0.9999216055357302,1,0.999967
0.9999630228705605,1,0.999968
0.9998709668270492,1,0.999966
0.9997689769887761,1,0.999967
0.9996090418278154,1,0.999966
0.9995059008923162,1,0.999966
0.9999789978026022,1,0.999967
0.9999175188002386,1,0.999967
0.9997215899249193,1,0.999967
0.9999680651371015,1,0.999967
0.9997454306242832,1,0.999967
0.9999723720308539,1,0.999968
0.999878044327351,1,0.999965
0.998563669383486,0,0.998552
0.9990651848891464,1,0.999922
0.999885662524914,1,0.999965
0.9999100710221452,1,0.999965
0.9998151113991237,1,0.999966
0.9995558167205792,1,0.999966
0.9999038949569269,1,0.999967
0.9997932018362343,1,0.999966
0.9994393380338962,1,0.999965
0.9995908044792423,1,0.999967
0.9998638087357753,1,0.999966
0.9998305955980102,1,0.999967
0.9999347702138012,1,0.999967
0.9998639957828498,1,0.999967
0.9991963985498248,1,0.999966
0.9997283917346281,1,0.999966
0.9998212644984674,1,0.999937
0.999856662842989,1,0.999965
0.9996286127191301,1,0.999966
0.9998745969556249,1,0.999966
0.9997145349342137,1,0.999965
0.9995341314673741,1,0.999968
0.9986465948145911,1,0.999967
0.9994411539011981,1,0.999961
0.9988597100239451,1,0.999968
0.9999054465096213,1,0.999968
0.9999925322313394,1,0.999968
0.9992147402860231,1,0.999966
0.9996537751995727,1,0.999964
0.999606707323135,1,0.999967
0.999564340311956,1,0.999968
0.9999394359862802,1,0.999968
0.9999929194373299,1,0.999968
0.9989630574592133,1,0.999964
0.9994751643137294,1,0.999967
0.9982629572720464,1,0.999966
0.9996292786074927,1,0.999966
0.9994469429341708,1,0.999968
0.9816901702401535,1,0.999962
0.998960182808275,1,0.999965
0.9966239682028473,1,0.999968
0.9971989951508158,1,0.999966
0.9998142671908323,1,0.999961
0.9996694790333108,1,0.999965
0.9998722211150279,1,0.999968
0.9992353887787908,1,0.999965
0.9984018135103923,1,0.999963
0.9998694681955493,1,0.999968
0.9995490406002319,1,0.999966
0.999230442659339,1,0.999967
0.9992480778131257,1,0.999967
0.9994731792588806,1,0.999966
0.9898039984126543,1,0.999635
0.9999097118672174,1,0.999963
0.9998817871452632,1,0.999892
0.9998582100732806,1,0.999967
0.9997634083198582,1,0.999967
0.9993788882497723,1,0.999967
0.999571612504739,1,0.999962
0.9997287413608951,1,0.999964
0.9993483542491137,1,0.999959
0.9952717736501617,1,0.999962
0.9999170131460805,1,0.999962
0.9998382305310268,1,0.999960
0.9995537229015843,1,0.999966
0.9984638549548825,1,0.999957
0.9997849472321807,1,0.999966
0.9995665945968245,1,0.999770
0.9984879733684239,1,0.999961
0.9991276455392125,1,0.999967
0.9995842484335011,1,0.999965
0.9997421402353127,1,0.999967
0.9993790864953778,1,0.999968
0.9987502464653544,1,0.999965
0.9992348226363978,1,0.999967
0.9998942920778783,1,0.999968
0.9999074208773954,1,0.999967
0.999918672521015,1,0.999967
0.9999260293852212,1,0.999968
0.9999256381853349,1,0.999966
0.9996904161152668,1,0.999966
0.9999585718406304,1,0.999967
0.9997912060513686,1,0.999966
0.9998572498564903,1,0.999967
0.9999195760059664,1,0.999966
0.9990567019636772,1,0.999932
0.9998121084336921,1,0.999969
0.9990367454868682,1,0.999922
0.9997964347458668,1,0.999968
0.9992406242804265,1,0.999963
0.9983099586502429,1,0.999965
0.9974597288828668,1,0.999965
0.9988806914235498,1,0.999969
0.9996828261704502,1,0.999954
0.9996818349361378,1,0.999963
0.999664388336671,1,0.999927
0.9996679449722001,1,0.999961
0.9999213019382995,1,0.999960
0.9997573869832007,1,0.999965
0.9998198653839618,1,0.999963
0.9991851403059173,1,0.999958
0.9997170360798352,1,0.999964
0.9995591689957195,1,0.999966
0.9993987298136213,1,0.999919
0.99958997945501,1,0.999966
0.9990775838497407,1,0.999961
0.9997329419772516,1,0.999965
0.998882853638632,1,0.999968
0.9999239015363177,1,0.999967
0.9998315459490748,1,0.999936
0.9999238544765301,1,0.999967
0.9997633723801124,1,0.999966
0.9995871138935445,1,0.999966
0.9989844112782797,1,0.999936
0.9997983101015003,0,0.999536
0.9996536106698907,1,0.999901
0.9999255732851263,1,0.999967
0.9998823968060208,1,0.999967
0.9998258689303784,1,0.999964
0.9995235819275673,1,0.999897
0.9999516615259029,1,0.999967
0.9999593728898732,1,0.999967
0.9995832514970773,1,0.999967
0.9995552990426413,1,0.999903
0.9998772202047174,1,0.999960
0.9999115911397981,1,0.999967
0.999693220933924,1,0.999967
0.9992994065100755,1,0.999965
0.9995177937804223,1,0.999962
0.999754668056598,1,0.999967
0.9994653263103063,1,0.999962
0.9998501402930057,1,0.999967
0.9994970932886172,1,0.999965
0.999452808226722,1,0.999967
0.9999183113177773,1,0.999968
0.9996744962185865,1,0.999967
0.9987818164611925,1,0.999963
0.9999776803434001,1,0.999966
0.9999270770882008,1,0.999966
0.999860671646405,1,0.999967
0.998004617285203,1,0.999713
0.9995496533388917,1,0.999964
0.9977757183461055,1,0.999970
0.4478995157037866,0,0.999450
0.9944924353566714,1,0.999919
0.46513019782898835,1,0.999970
0.9950701572389464,1,0.999935
0.9997969693754993,1,0.999886
0.9983022824914936,1,0.999897
0.9987247848418399,1,0.999965
0.996411368436743,1,0.999940
0.9987591537084088,1,0.999965
0.9983088107374427,1,0.999946
0.9989958679901082,1,0.999964
0.9990883806711457,1,0.999961
0.9990862178586571,1,0.999935
0.9995193919777463,1,0.999967
0.9950182479016267,1,0.999965
0.9986786503138944,1,0.999926
0.999288347541208,1,0.999967
0.9999288241001251,1,0.999960
0.9997272792888406,1,0.999966
0.997560091586173,1,0.999609
0.9988433379700883,1,0.999908
0.9996944939239444,1,0.999965
0.9997988877786634,1,0.999967
0.9916794094457239,1,0.999973
0.9985469064277454,1,0.999897
0.9956730486940337,1,0.999968
0.9979981058158552,1,0.999962
0.9988003596172196,1,0.999968
0.9981695669308167,1,0.999967
0.9681094147774228,1,0.999948
0.996036359812746,1,0.999945
0.998932563278938,1,0.999961
0.9987083126414702,1,0.999962
0.9997958232481114,1,0.999962
0.9998481682459461,1,0.999965
0.999833279193103,1,0.999967
0.9959583486279798,1,0.999934
0.9986816519198056,1,0.999962
0.9993932473854158,1,0.999932
0.9997617756992296,0,0.999456
0.9998391136568873,1,0.999967
0.9996952626763069,1,0.999968
0.9997388561694006,1,0.999965
0.9969705400574828,1,0.999901
0.9996416662583973,1,0.999967
0.9994784444907948,1,0.999967
0.9998264068943473,1,0.999931
0.9991789968637743,0,0.999572
0.9979367187896518,1,0.999895
0.9986896043122098,1,0.999966
0.9998220096691584,1,0.999967
0.9999681354140965,1,0.999967
0.9996771384958155,1,0.999965
0.9971737140227249,1,0.999967
0.9997384472118588,1,0.999961
0.999821814026697,1,0.999964
0.9994811302038438,1,0.999963
0.9990896051077179,1,0.999962
0.9997035793680145,1,0.999967
0.9992668505769675,1,0.999965
0.9998194856018334,1,0.999967
0.997294289233787,1,0.999969
0.9997944159448686,1,0.999969
0.9995970350491977,1,0.999827
0.9999507729588956,1,0.999928
0.9999534986466566,1,0.999965
0.9995150502780342,1,0.999968
0.9997911117031176,1,0.999966
0.9998670708253672,1,0.999968
0.9999547983748109,1,0.999969
0.9998917646023537,1,0.999968
0.9999285511286512,1,0.999934
0.9997112365758957,1,0.999967
0.9999546739631623,1,0.999967
0.9999531244375226,1,0.999967
0.9999393077669644,1,0.999967
0.9998147027663833,1,0.999965
0.9999421078253349,1,0.999968
0.9999555696033733,1,0.999929
0.999919868882681,1,0.999967
0.9999520446024333,1,0.999968
0.9993291047571092,1,0.999966
0.9995996960038956,1,0.999967
0.9994649529893544,1,0.999968
0.9947242475942439,1,0.999962
0.9994869612117308,1,0.999967
0.9942605584657246,1,0.999893
0.9966416219409269,1,0.999968
0.9998629597545996,1,0.999965
0.9997939167535576,1,0.999963
0.9980574359707766,1,0.999952
0.9999668104025671,1,0.999966
0.9999355462743306,1,0.999803
0.9997652490525218,1,0.999967
0.9997259996041142,1,0.999966
0.9999149012962857,1,0.999965
0.9998549170618217,1,0.999963
0.9994871789740771,1,0.999962
0.9998695233852741,1,0.999920
0.999791670648229,1,0.999967
0.9997036087029705,1,0.999969
0.9988711127798373,1,0.999964
0.9980378493744902,1,0.999967
0.9995351827325247,1,0.999968
0.9995862043695335,1,0.999967
0.999707465770475,1,0.999967
0.9994263275609362,1,0.999899
0.9998335842557239,1,0.999963
0.9998795724270223,1,0.999966
0.9996026272426455,1,0.999967
0.9999745103733328,1,0.999968
0.9999923459408947,1,0.999967
0.998856450878619,1,0.999926
0.9999530017645767,1,0.999969
0.9994655230532205,1,0.999859
0.9999524104992796,1,0.999966
0.9863517605983244,1,0.999963
0.9956223326350635,1,0.999860
0.9906198690123175,1,0.999890
0.9992486162256197,1,0.999809
0.9976644894843775,1,0.999950
0.9989623396492205,1,0.999966
0.9974726587720836,1,0.999967
0.9998341662451206,1,0.999969
0.9995111854023059,1,0.999967
0.9998055261127019,0,0.998733
0.9969085573854867,1,0.999930
0.9999177348414079,1,0.999968
0.9998849542584787,1,0.999968
0.9993635813029097,1,0.999965
0.9989989333288609,1,0.999932
0.9990384710879763,1,0.999968
0.9999284560014171,1,0.999968
0.9995472510176978,1,0.999964
0.999954166856585,1,0.999960
0.996698717495793,0,0.993700
0.9993083027808666,1,0.999967
0.9963186030044706,1,0.999934
0.9952056930324856,1,0.999967
0.994867284838813,1,0.999966
0.9996539878085903,1,0.999932
0.9997076943666582,1,0.999966
0.9975528298464257,1,0.999802
0.9989518220928563,1,0.999933
0.9995261141003977,1,0.999966
0.99918338850573,1,0.999957
0.9999145527653986,1,0.999966
0.9998296941564252,1,0.999964
0.9999743845216774,1,0.999965
0.9999812707953682,1,0.999967
0.9999606355306717,1,0.999967
0.9994532370157801,1,0.999967
0.9999281223668566,1,0.999967
0.9997950775229371,1,0.999967
0.9996786523276011,1,0.999969
0.9986640907788457,1,0.999968
0.999916780428137,1,0.999969
0.9999268844454939,1,0.999968
0.9999485228233198,1,0.999969
0.9977140230518586,1,0.999964
0.9988456304415578,1,0.999935
0.999949381472795,1,0.999967
0.9998362826784376,1,0.999967
0.9991578590827772,1,0.999964
0.9996893474412462,1,0.999967
0.9996788238855008,1,0.999966
0.9999279524458099,1,0.999966
0.9999235583935621,1,0.999967
0.9999691810356632,1,0.999868
0.9999707432369077,1,0.999967
0.9998480708614226,1,0.999932
0.9986505448755888,1,0.999968
0.9998250896822818,1,0.999935
0.9998592382141723,1,0.999968
0.9997294413327169,1,0.999928
0.9999705821484196,1,0.999969
0.9996811290220942,1,0.999969
0.9992257400044586,1,0.999938
0.9946626732980839,1,0.999921
0.9937196916218515,1,0.999961
0.9991323040480966,1,0.999968
0.9994615087492673,1,0.999957
0.998293513510984,1,0.999968
0.998002768360949,1,0.999967
0.9995374647302343,1,0.999968
0.9995500724650173,1,0.999967
0.9971736708901704,1,0.999966
0.9976969197646502,1,0.999967
0.99988637328531,1,0.999967
0.999972435427099,1,0.999967
0.9997116389071038,1,0.999870
0.9999218652695008,1,0.999966
0.9999633354269647,1,0.999968
0.998870265872745,1,0.999968
0.9993592578084003,1,0.999967
0.9999222883797457,1,0.999967
0.9999822530189807,1,0.999967
0.9999330478305775,1,0.999967
0.9990284221825599,1,0.999967
0.9986259146514779,1,0.999902
0.9999868216794563,1,0.999968
0.9980736181047684,0,0.999513
0.9999434393133607,1,0.999967
0.9999403033490897,1,0.999968
0.9998971783603644,1,0.999968
0.9999421203575818,1,0.999968
0.9997035186584264,1,0.999964
0.9997141549335492,1,0.999967
0.9999131483091385,1,0.999966
0.9999628809766256,1,0.999966
0.9994205358063746,1,0.999935
0.9981113386026668,1,0.999967
0.9996030617947841,1,0.999968
0.9998978716094458,1,0.999967
0.9990517729814867,1,0.999967
0.9998684172977497,1,0.999968
0.9999853055249548,1,0.999967
0.998414447226372,1,0.999965
0.9946612315171296,1,0.999967
0.9990033271192001,1,0.999966
0.9998587414902546,1,0.999969
0.9999227442938259,1,0.999967
0.9944348624000025,1,0.999965
0.998676422028832,1,0.999945
0.99990108612719,1,0.999967
0.9998511993204633,1,0.999968
0.99992929088583,1,0.999967
0.9989394267203796,1,0.999952
0.999763527872683,1,0.999969
0.9998621910323626,1,0.999969
0.9997453525234526,1,0.999902
0.9952308169172893,1,0.999903
0.9998142750154277,1,0.999968
0.9998460648783716,1,0.999967
0.998528518727263,1,0.999957
0.9998213215645618,1,0.999962
0.9990237873176535,1,0.999966
0.9998977332857278,1,0.999964
0.9997801766295891,1,0.999967
0.9999751505458345,1,0.999968
0.9488828387584962,0,0.992658
0.9998222556897861,1,0.999968
0.9996204048972165,1,0.999934
0.9997593446764953,1,0.999967
0.9980428675989415,1,0.999967
0.9999646672020512,1,0.999968
0.9998459014537565,1,0.999967
0.9998058998959943,1,0.999930
0.9984937507901821,1,0.999963
0.998654778733322,1,0.999881
0.9993130176124705,1,0.999968
0.9999729291951214,1,0.999966
0.9987687680243582,0,0.999635
0.9998757892673499,1,0.999969
0.9998698693904099,1,0.999968
0.9985948633042925,1,0.999968
0.9998984473055211,1,0.999967
0.999894656012915,1,0.999968
0.9996019840105669,1,0.999968
0.9999910608355419,1,0.999967
0.9995656848522956,1,0.999968
0.9979580650019733,1,0.999966
0.9999861889118415,1,0.999967
0.9990996855972093,1,0.999967
0.9997045156151596,1,0.999966
0.999558349416869,1,0.999965
0.9992723986724221,1,0.999968
0.9998595009207876,1,0.999967
0.9998072395519473,1,0.999902
0.9999753568106915,1,0.999969
0.9992770432502648,1,0.999969
0.9998501259072747,1,0.999966
0.9997004004192176,1,0.999967
0.9999623374202122,1,0.999967
0.9999132774353326,1,0.999968
0.9999314499697236,1,0.999966
0.9998160231646,1,0.999967
0.9998344930672384,1,0.999967
0.9999616655732252,1,0.999967
0.9999902010418817,1,0.999967
0.9980303268165172,1,0.999923
0.9998977971333411,1,0.999966
0.9999307918119993,1,0.999966
0.9999157880527615,1,0.999902
0.9907640492458752,1,0.999739
0.9994639244350751,1,0.999964
0.9917144661263703,1,0.999961
0.9992847792923193,1,0.999968
0.999215315344683,1,0.999903
0.999688411330502,1,0.999968
0.9998993635009751,1,0.999966
0.9984303818394072,1,0.999961
0.9996684106451924,1,0.999967
0.9999195456040179,1,0.999637
0.9991956520066789,1,0.999937
0.9987830933488063,1,0.999968
0.9991679376374772,1,0.999968
0.9996923624641032,1,0.999968
0.9998164253128157,1,0.999969
0.9998761733301604,1,0.999968
0.9958243515610151,1,0.999958
0.9998885833906522,0,0.999458
0.9991704081789465,1,0.999967
0.9998485291802355,1,0.999968
0.9999743608435674,1,0.999968
0.9998822739494277,1,0.999968
0.999988646867783,1,0.999967
0.9999446522658333,1,0.999969
0.9999350727105236,1,0.999968
0.9999002336490751,1,0.999968
0.9985217648116987,1,0.999967
0.9995739850392087,1,0.999967
0.9991703123414912,1,0.999968
0.999492594818076,1,0.999967
0.9997545246371207,1,0.999966
0.9995090868265044,1,0.999968
0.9998587328814847,1,0.999831
0.9995608447658174,1,0.999904
0.9998974548008603,1,0.999968
0.9999916169604529,1,0.999967
0.9999822729305218,1,0.999969
0.9999303216765721,1,0.999967
0.9997484709329456,1,0.999967
0.9992242568625574,1,0.999967
0.9983958381219578,1,0.999967
0.9963531553066388,1,0.999967
0.9999187833058527,1,0.999906
0.9997319656569795,1,0.999967
0.9998508034033621,1,0.999967
0.9999158089732789,1,0.999967
0.9999070459865727,1,0.999966
0.9996974104805239,1,0.999966
0.9998596459395008,1,0.999968
0.9987624340872949,1,0.999889
0.9999765716677715,1,0.999929
0.999980042095598,1,0.999968
0.9998044897798327,1,0.999967
0.9996812488326108,1,0.999967
0.9999285596449626,1,0.999966
0.9998378328585789,1,0.999966
0.9991699980197872,1,0.999963
0.9999556725174679,1,0.999968
0.9998844022521256,1,0.999968
0.9995470402188236,1,0.999933
0.9999570801576676,1,0.999969
0.9996345765467483,1,0.999966
0.9999376568548839,1,0.999968
0.9999639544279127,1,0.999967
0.999960216466958,1,0.999963
0.9999194240343926,1,0.999966
0.9997866894039625,1,0.999969
0.9998509581232209,1,0.999967
0.9996907763812959,1,0.999965
0.9999912936162236,1,0.999969
0.9998399248050706,1,0.999969
0.999923103623529,1,0.999966
0.9987540590245655,1,0.999968
0.9999376860923546,1,0.999968
0.9999213636652127,1,0.999961
0.9998807054677672,1,0.999862
0.9998058019300071,1,0.999968
0.9999595731587171,1,0.999967
0.9996661457987929,1,0.999968
0.9990534706716443,1,0.999873
0.999312007494104,1,0.999932
0.999920445372342,1,0.999935
0.9999598028260216,1,0.999968
0.999259483451771,1,0.999961
0.9997931859972871,1,0.999968
0.9999761367711631,1,0.999968
0.9983263861029292,1,0.999807
0.9992958396951189,1,0.999967
0.9985340809106716,1,0.999968
0.9979867698539248,1,0.999965
0.9999458395748047,1,0.999968
0.9998521522789688,1,0.999969
0.9999317015382764,1,0.999967
0.999827967287476,1,0.999969
0.9990539913262793,1,0.999969
0.9998869106272285,1,0.999970
0.9999730286473388,1,0.999963
0.9999775510274381,1,0.999926
0.9966759106925456,1,0.999968
0.9999850584428598,1,0.999967
0.9996740037055083,1,0.999968
0.999965660966066,1,0.999967
0.9988281501504617,1,0.999967
0.9999448933652018,1,0.999903
0.9997862560064901,1,0.999967
0.9995234042308268,1,0.999967
0.9980415180277088,1,0.999934
0.999834456555305,1,0.999967
0.9999917882717224,1,0.999965
0.9989280447897074,1,0.999968
0.9997966604498438,1,0.999967
0.9997975560042262,1,0.999873
0.999333306901915,1,0.999932
0.9999162546774719,1,0.999968
0.99987533421603,1,0.999968
0.9995688603715961,1,0.999967
0.9982157204349634,1,0.999969
0.9997400103411587,1,0.999966
0.99968467552225,1,0.999966
0.9993160884437247,1,0.999968
0.9995177163589124,1,0.999967
0.9999127441196899,1,0.999966
0.999905986459774,1,0.999968
0.9999263956783604,1,0.999967
0.9998428510060291,1,0.999966
0.9997724789670269,1,0.999967
0.9999460704621658,1,0.999968
0.9996413799120655,1,0.999968
0.9984568853912549,1,0.999969
0.9982668789562527,1,0.999969
0.9958012782581054,1,0.999968
0.9985952451419344,1,0.999965
0.9985268409491471,1,0.999899
0.9998142487399809,1,0.999967
0.9999620077817728,1,0.999969
0.9999863390979978,1,0.999968
0.9999648381593258,1,0.999968
0.9998497190989514,1,0.999967
0.9999238390404551,1,0.999967
0.9998307149755474,1,0.999967
0.9999671409626466,1,0.999968
0.9998547836699281,1,0.999969
0.9986863249906542,1,0.999968
0.9996634134941774,1,0.999968
0.9999905512835635,1,0.999968
0.9999621032594441,1,0.999969
0.9998865907139143,1,0.999967
0.9951824241851656,1,0.999968
0.9998708811418172,1,0.999968
0.99992901876655,1,0.999969
0.9998157453634297,1,0.999968
0.999843271795919,1,0.999966
0.9997662245334012,1,0.999967
0.9999187853501084,1,0.999936
0.9999792568238316,1,0.999968
0.999888407186232,1,0.999967
0.9998513317713117,1,0.999968
0.9997777572155124,1,0.999962
0.9999824364404114,1,0.999968
0.9999180184563564,1,0.999969
0.9998525810845108,1,0.999968
0.9999792262379484,1,0.999969
0.9999609604507677,1,0.999968
0.9997723569194735,1,0.999969
0.9995046272643993,1,0.999969
0.9990136753811171,1,0.999967
0.9998932857099213,1,0.999968
0.9991417622209963,1,0.999967
