0.04603522016896958,0,0.995868
0.0583805555713353,0,0.995323
0.06446223583759732,0,0.991475
0.14125479496514443,0,0.996628
0.25988090555200083,0,0.996338
0.45098358549406137,0,0.973217
0.5477349914544168,0,0.967206
0.6225382261895452,0,0.928987
0.640639045466055,0,0.964384
0.6396180603696597,0,0.913050
0.6388966533251147,0,0.962828
0.6743109191780884,0,0.963615
0.6564631187363533,0,0.961073
0.69610296074861,0,0.964006
0.7169238653124678,0,0.963391
0.729972143324624,0,0.833008
0.7321606652837135,0,0.979207
0.7347040953495934,0,0.979398
0.7377402308869615,0,0.989322
0.7513913958157304,0,0.867989
0.7538177189359172,0,0.865716
0.7662087285826662,0,0.987018
0.768558556686101,0,0.985955
0.7709311574408144,1,0.999996
0.7459341067405388,0,0.820957
0.6765961116833373,0,0.948619
0.5653261341889042,0,0.918794
0.5895684242835616,0,0.965409
0.5886020484168688,0,0.931156
0.6021459178025312,0,0.965353
0.6130708348347387,0,0.699389
0.6296726563602708,0,0.986662
0.6328824841470797,0,0.975490
0.6326386771120734,0,0.975726
0.6323945768610008,0,0.975795
0.6321510692074906,0,0.975930
0.6319079674508062,0,0.975461
0.6316651205180571,0,0.970381
0.6314222848772116,0,0.976081
0.6311862622406705,0,0.968485
0.6254975767903421,0,0.968678
0.6250104477837256,0,0.990061
0.638672167623047,1,0.999995
0.6078574268915359,0,0.973382
0.604343979747489,0,0.964525
0.7971662108395098,0,0.911002
0.8387325131378273,0,0.991882
0.8578687324844734,0,0.817813
0.8611333256995097,0,0.914680
0.861115293799919,0,0.952345
0.8592931280441306,0,0.939968
0.8592620542888926,0,0.939096
0.8592301162662748,0,0.940870
0.8591775362725175,0,0.941981
0.8574918258484209,0,0.999833
0.8566699896825896,0,0.942242
0.8563902099127121,0,0.990236
0.8549543223111272,0,0.982170
0.8548342652877801,0,0.986411
0.8509300384993798,0,0.992034
0.8613974973780608,0,0.997354
0.8537286113985035,0,0.938398
0.8640899984114141,0,0.999799
0.8637900264389526,0,0.923049
0.8636863123505331,0,0.969847
0.8639924607718765,1,0.999963
0.8619177019893244,0,0.946985
0.8535292351917204,0,0.969186
0.8435443296844556,0,0.928701
0.8359430342816218,0,0.994155
0.8571068625855143,0,0.976774
0.8761367157612788,0,0.914421
0.9215417596682323,0,0.977335
0.924539145713734,0,0.944108
0.9213517492554761,0,0.767109
0.9210327140023642,0,0.974655
0.9203299605718753,0,0.970212
0.9193320029564856,0,0.966627
0.913634229085132,0,0.944154
0.9112135605992682,0,0.930837
0.9054142604176851,0,0.182775
0.8986563451103426,0,0.925406
0.8849138342493779,0,0.941209
0.8766761353973473,0,0.634940
0.8642792533194944,0,0.873411
0.8489680371304205,0,0.928796
0.8417898521453787,1,0.999994
0.8465855350583383,0,0.931871
0.8334703887045566,0,0.962307
0.8140497567338679,0,0.895187
0.7804326001334821,0,0.995221
0.852116822843493,0,0.985739
0.8525476519330683,0,0.971930
0.852213112406876,0,0.946411
0.8533702466611078,0,0.999817
0.8731772929874374,1,0.999989
0.9084228450307728,0,0.999925
0.9198594514063033,1,0.999942
0.919751904414648,1,0.999961
0.8994976080747524,1,0.999939
0.9075565856873591,1,0.999993
0.9255272179309105,1,0.999966
0.942991881868252,1,0.999989
0.9433926215707883,0,0.928488
0.9421210976309714,0,0.910153
0.9307309816588504,0,0.784408
0.9240502154350232,0,0.948943
0.9228643334788011,0,0.980118
0.9228025975197914,1,0.999976
0.922725650473712,0,0.999930
0.9224771904030733,0,0.579190
0.9218588924790003,0,0.980276
0.9218528409263689,1,0.999988
0.9195238163701035,0,0.975690
0.9166945937095871,0,0.978932
0.9119455644976622,0,0.999530
0.9038081959006613,0,0.990125
0.9248104204782767,0,0.956583
0.891622140626728,1,0.999995
0.876431698213171,0,0.973702
0.8765880291566209,0,0.972100
0.8765674295793572,0,0.973849
0.8741994009494527,1,0.999970
0.874265463214373,0,0.999919
0.8664656288582411,1,0.999983
0.8630760086452716,1,0.999994
0.8653474751320261,0,0.999922
0.8653402742518136,0,0.952343
0.8644412654660444,1,0.999994
0.8740824549463283,0,0.999893
0.8842849434297997,0,0.999918
0.8799313364124727,1,0.999995
0.8784516851713976,1,0.999983
0.8859335677836108,1,0.999984
0.8860827790220378,0,0.854169
0.887622211326612,0,0.999620
0.8886397252974481,1,0.999994
0.8961882987762647,0,0.982452
0.8961837337978603,1,0.999971
0.8976385302137728,1,0.999966
0.9025820606138468,0,0.978664
0.9025719612924314,1,0.999982
0.9048139255087778,0,0.999871
0.914863839707028,1,0.999957
0.9148597515106606,1,0.999970
0.9157940393436249,1,0.999983
0.9230678243143825,1,0.999994
0.9259339712615812,0,0.972468
0.9263538523118406,0,0.993170
0.926588975577984,1,0.999983
0.9271179663188405,1,0.999988
0.9289136982833213,1,0.999989
0.929840559953276,1,0.999959
0.9315191544304388,0,0.999851
0.9332001148824703,1,0.999982
0.9348826154534267,1,0.999987
0.9368114999570746,0,0.987246
0.9375432585924182,1,0.999977
0.9378789824369523,0,0.948785
0.9378771770948882,0,0.999925
0.9391138775298846,0,0.998265
0.9390719747543017,0,0.998654
0.9390733820407721,0,0.921138
0.9389967693320356,1,0.999978
0.9391399818935672,0,0.997762
0.9406115856364283,0,0.987473
0.9405116022747128,0,0.999803
0.9403003240240151,0,0.987795
0.9399517357884529,0,0.999832
0.9396065385607449,0,0.999622
0.9392544097710783,0,0.999785
0.9387411972605911,0,0.999601
0.938600239968916,0,0.999584
0.938499876993716,1,0.999972
0.9390337859301429,1,0.999960
0.9352019451275722,1,0.999972
0.9320938615846551,0,0.999889
0.9320522015110596,1,0.999978
0.9322199888867742,1,0.999996
0.9327501720905386,1,0.999975
0.9327268739237408,0,0.999873
0.9323881308287298,1,0.999993
0.9322762635750383,0,0.999741
0.9322671383509363,0,0.999930
0.9322611108097802,1,0.999955
0.9322671259173174,1,0.999993
0.9322517819175934,0,0.999904
0.9321561515033148,1,0.999986
0.9318411242420879,0,0.929784
