0.9999898838457871,1,0.999998
0.9999961957979148,0,0.999661
0.9999969618557102,1,0.999997
0.9999974660873139,1,0.999997
0.9999976288512185,1,0.999998
0.9999977143123594,1,0.999997
0.9999980465661249,1,0.999997
0.9999983422838147,1,0.999997
0.9999987672094294,0,0.999836
0.9999995050803475,1,0.999997
0.9999996471816358,1,0.999997
0.9999997463548665,1,0.999971
0.9999997591237817,1,0.999993
0.9999999010644212,1,0.999996
0.9999999337837359,1,0.999997
0.9999999718278731,1,0.999997
0.9999999724903803,0,0.999960
0.9999999852537597,1,0.999997
0.9999999999881876,1,0.999989
0.9999999999881876,1,0.999996
0.9999999999953176,1,0.999996
0.9999999999983444,1,0.999996
0.9999999999994625,1,0.999997
0.9999999999995335,1,0.999997
0.999999999999935,1,0.999997
0.999999999999935,1,0.999996
1.0,1,0.999996
1.0,1,0.999973
1.0,1,0.999996
0.9999999999999738,0,0.999833
0.9999999999999738,0,0.999390
0.9999999999999706,1,0.999996
0.9999999999999706,1,0.999996
0.9999999999999706,1,0.999996
1.0,1,0.999996
1.0,1,0.999996
1.0,1,0.999996
1.0,1,0.999992
1.0,0,0.999746
0.9999999999999799,1,0.999997
0.9999999999999799,1,0.999992
0.9999999999999799,0,0.999782
1.0,1,0.999996
1.0,1,0.999996
1.0,1,0.999996
1.0,1,0.999995
0.999999999999994,1,0.999997
0.999999999999994,1,0.999989
0.999999999999994,0,0.999652
0.999999999999994,0,0.999856
0.9999999999999581,1,0.999998
0.9999999999999581,0,0.999696
0.9999999999999581,0,0.999805
0.9999999999999581,1,0.999996
0.9999999999999581,0,0.999528
1.0,1,0.999996
1.0,1,0.999996
1.0,1,0.999987
1.0,0,0.996722
1.0,1,0.999995
0.9999999999999754,1,0.999996
0.9999999999999754,1,0.999984
0.9999999999999754,1,0.999991
0.9999999999999754,0,0.999622
0.9999999999999754,1,0.999984
0.9999999999999523,1,0.999996
0.9999999999999523,1,0.999996
0.9999999999999523,0,0.999922
0.9999999999999523,0,0.997809
0.9999999999999523,1,0.999995
1.0,1,0.999996
1.0,1,0.999996
1.0,0,0.999675
1.0,1,0.999995
1.0,1,0.999995
1.0,1,0.999995
0.9999999999999158,0,0.999947
0.9999999999999158,1,0.999996
0.9999999999999158,0,0.999263
0.9999999999999158,1,0.999995
0.9999999999999158,1,0.999990
0.9999999999999634,1,0.999997
0.9999999999999634,1,0.999996
0.9999999999999634,1,0.999996
0.9999999999999634,1,0.999996
0.9999999999999634,1,0.999995
0.9999999999999634,1,0.999995
0.9999999999999925,1,0.999996
1.0,1,0.999998
0.9999999999999872,1,0.999997
0.9999999999999872,1,0.999996
0.9999999999999872,1,0.999996
1.0,1,0.999999
1.0,1,0.999993
0.9999999999999831,1,0.999998
0.9999999999999831,1,0.999993
1.0,1,0.999998
1.0,1,0.999997
0.9999999999999893,1,0.999997
1.0,1,0.999998
1.0,1,0.999996
0.9999999999999736,1,0.999998
0.9999999999999736,1,0.999996
1.0,1,0.999996
1.0,1,0.999996
0.9999999999999473,1,0.999997
0.9999999999999473,1,0.999993
0.9999999999999473,1,0.999996
0.9999999999999473,1,0.999974
0.9999999999999473,0,0.997734
0.9999999999999473,0,0.999672
0.9999999999999684,1,0.999998
1.0,1,0.999968
1.0,1,0.999984
1.0,0,0.999667
1.0,1,0.999995
1.0,1,0.999980
1.0,1,0.999997
1.0,1,0.999996
1.0,1,0.999992
1.0,1,0.999996
1.0,1,0.999995
1.0,1,0.999995
1.0,1,0.999996
1.0,0,0.999903
1.0,1,0.999983
1.0,0,0.999757
1.0,0,0.999043
1.0,1,0.999959
0.9999999999999786,0,0.999920
0.9999999999999786,1,0.999996
0.9999999999999786,0,0.999798
0.9999999999999786,1,0.999980
0.9999999999999786,1,0.999995
1.0,1,0.999996
1.0,1,0.999996
1.0,0,0.999896
1.0,1,0.999961
1.0,1,0.999995
1.0,1,0.999994
1.0,1,0.999995
1.0,1,0.999994
0.9999999999999595,1,0.999995
0.9999999999999595,1,0.999994
0.9999999999999906,1,0.999997
0.9999999999999906,1,0.999985
0.9999999999999906,0,0.999680
0.9999999999999906,1,0.999995
0.9999999999999906,0,0.999935
0.9999999999999906,1,0.999994
0.9999999999999906,1,0.999961
1.0,0,0.999843
0.999999999999942,0,0.999600
0.999999999999936,1,0.999996
0.999999999999936,1,0.999996
0.999999999999936,1,0.999962
0.999999999999936,1,0.999995
1.0,1,0.999996
1.0,1,0.999992
1.0,0,0.999784
1.0,0,0.999811
0.9999999999999175,1,0.999996
0.9999999999999175,0,0.999891
0.9999999999999175,1,0.999996
0.9999999999999175,1,0.999995
0.9999999999999619,1,0.999996
0.9999999999999619,1,0.999996
0.9999999999999619,1,0.999996
0.9999999999999619,1,0.999995
1.0,1,0.999987
1.0,0,0.999667
1.0,0,0.998524
1.0,1,0.999953
0.9999999999999792,1,0.999997
0.9999999999999792,1,0.999996
0.9999999999999792,0,0.999904
0.9999999999999792,1,0.999995
0.9999999999999792,1,0.999990
0.9999999999999792,0,0.998422
0.9999999999999722,1,0.999996
0.9999999999999722,1,0.999996
0.9999999999999722,1,0.999983
0.9999999999999722,1,0.999995
0.9999999999999722,1,0.999995
0.9999999999999722,0,0.997693
1.0,1,0.999997
1.0,0,0.999866
1.0,1,0.999987
1.0,1,0.999953
1.0,0,0.999517
1.0,0,0.995639
1.0,1,0.999997
1.0,1,0.999996
1.0,1,0.999996
1.0,1,0.999995
1.0,1,0.999995
1.0,1,0.999995
1.0,1,0.999994
1.0,1,0.999996
1.0,1,0.999996
1.0,1,0.999996
1.0,0,0.999264
1.0,1,0.999995
1.0,0,0.999880
1.0,1,0.999996
1.0,1,0.999996
1.0,1,0.999996
1.0,1,0.999995
1.0,1,0.999997
1.0,1,0.999996
1.0,0,0.999919
1.0,0,0.998570
1.0,1,0.999998
1.0,1,0.999996
1.0,0,0.997414
1.0,1,0.999978
1.0,1,0.999998
1.0,1,0.999996
1.0,1,0.999996
1.0,1,0.999987
1.0,1,0.999997
1.0,1,0.999996
1.0,0,0.999858
1.0,1,0.999995
1.0,1,0.999997
1.0,1,0.999996
1.0,1,0.999992
1.0,1,0.999995
0.9999999999999358,1,0.999997
0.9999999999999358,1,0.999996
0.9999999999999358,1,0.999996
0.9999999999999358,1,0.999995
0.9999999999999358,1,0.999995
0.9999999999999358,1,0.999994
1.0,1,0.999997
1.0,1,0.999996
1.0,1,0.999996
1.0,1,0.999995
1.0,1,0.999995
0.9999999999999781,1,0.999996
0.9999999999999781,1,0.999996
0.9999999999999781,1,0.999996
0.9999999999999696,1,0.999998
0.9999999999999696,1,0.999989
0.9999999999999696,1,0.999996
0.9999999999999696,1,0.999987
0.9999999999999696,0,0.998902
0.9999999999999625,1,0.999996
0.9999999999999625,1,0.999996
0.9999999999999625,1,0.999991
0.9999999999999625,1,0.999962
1.0,1,0.999997
1.0,1,0.999996
1.0,0,0.999904
1.0,1,0.999995
1.0,1,0.999995
0.9999999999999245,1,0.999996
0.9999999999999245,0,0.999789
0.9999999999999245,1,0.999987
0.9999999999999245,1,0.999966
1.0,1,0.999997
1.0,1,0.999996
1.0,1,0.999996
1.0,1,0.999977
1.0,0,0.999899
0.9999999999999578,1,0.999996
0.9999999999999578,1,0.999996
0.9999999999999578,1,0.999996
0.9999999999999578,1,0.999995
0.9999999999999578,1,0.999995
0.9999999999999578,1,0.999994
0.9999999999999578,1,0.999993
1.0,1,0.999995
1.0,1,0.999994
0.9999999999999934,1,0.999996
0.9999999999999934,0,0.999855
0.9999999999999934,1,0.999987
0.9999999999999934,1,0.999951
0.9999999999999934,1,0.999995
0.9999999999999934,1,0.999994
0.9999999999999136,1,0.999997
0.9999999999999136,0,0.999632
0.9999999999999136,1,0.999996
0.9999999999999136,1,0.999995
0.9999999999999136,0,0.999652
0.9999999999999136,1,0.999994
0.9999999999999136,1,0.999994
1.0,1,0.999982
1.0,1,0.999996
1.0,1,0.999956
1.0,1,0.999955
1.0,1,0.999996
1.0,1,0.999996
1.0,1,0.999987
1.0,1,0.999995
1.0,1,0.999996
1.0,1,0.999996
1.0,1,0.999996
1.0,1,0.999995
1.0,1,0.999996
1.0,0,0.999945
1.0,1,0.999979
1.0,1,0.999995
0.9999999999999507,0,0.999691
0.9999999999999507,1,0.999989
0.9999999999999507,0,0.998599
0.9999999999999507,0,0.999743
0.9999999999999507,0,0.999131
0.9999999999999507,0,0.995256
0.9999999999999507,0,0.997689
0.9999999999999293,1,0.999992
1.0,1,0.999994
0.9999999999999992,1,0.999996
0.9999999999999992,1,0.999996
0.9999999999999992,1,0.999987
0.9999999999999992,1,0.999995
0.9999999999999992,1,0.999995
1.0,1,0.999995
1.0,0,0.997109
0.9999999999999476,1,0.999994
1.0,1,0.999995
0.9999999999999896,1,0.999995
0.9999999999999896,1,0.999995
1.0,1,0.999995
1.0,1,0.999994
1.0,1,0.999995
1.0,1,0.999994
1.0,1,0.999993
1.0,1,0.999992
1.0,1,0.999995
0.9999999999999272,0,0.999563
0.9999999999999272,1,0.999994
1.0,1,0.999995
1.0,1,0.999994
1.0,1,0.999993
0.9999999999999696,1,0.999995
1.0,1,0.999994
1.0,1,0.999997
1.0,1,0.999996
1.0,0,0.999448
1.0,0,0.999613
1.0,0,0.999434
1.0,0,0.999608
0.9999999999999617,1,0.999996
0.9999999999999617,0,0.999764
0.9999999999999617,1,0.999978
0.9999999999999617,1,0.999995
0.9999999999999617,1,0.999995
0.9999999999999617,0,0.999519
0.9999999999999617,0,0.999353
0.9999999999999316,1,0.999995
0.9999999999999316,1,0.999996
0.9999999999999316,1,0.999996
0.9999999999999316,1,0.999995
0.9999999999999316,1,0.999995
0.9999999999999316,1,0.999995
0.9999999999999316,1,0.999994
0.9999999999999316,1,0.999993
1.0,1,0.999990
1.0,1,0.999996
1.0,0,0.999521
1.0,1,0.999995
1.0,1,0.999995
1.0,1,0.999994
1.0,0,0.999949
1.0,0,0.999953
1.0,0,0.999701
1.0,1,0.999995
1.0,1,0.999995
1.0,0,0.999124
0.9999999999999951,1,0.999996
0.9999999999999951,1,0.999992
0.9999999999999951,1,0.999974
0.9999999999999951,0,0.998588
0.9999999999999796,1,0.999997
0.9999999999999796,1,0.999992
0.9999999999999796,1,0.999958
0.9999999999999796,0,0.999674
0.9999999999999796,1,0.999990
1.0,1,0.999996
1.0,0,0.999950
1.0,1,0.999996
1.0,1,0.999995
1.0,1,0.999996
1.0,1,0.999996
1.0,1,0.999996
1.0,1,0.999995
0.999999999999936,0,0.999396
0.999999999999936,1,0.999996
0.999999999999936,1,0.999961
0.999999999999936,1,0.999995
1.0,1,0.999993
1.0,1,0.999984
1.0,0,0.999865
1.0,1,0.999995
1.0,0,0.999640
1.0,1,0.999996
1.0,0,0.999712
1.0,0,0.999584
1.0,0,0.999916
1.0,0,0.999078
1.0,1,0.999996
1.0,1,0.999996
1.0,1,0.999996
1.0,1,0.999995
1.0,1,0.999995
0.9999999999999725,1,0.999996
0.9999999999999725,1,0.999996
0.9999999999999725,1,0.999961
0.9999999999999725,0,0.999244
0.9999999999998667,1,0.999997
0.9999999999998667,0,0.999897
0.9999999999998667,0,0.999629
0.9999999999998667,1,0.999995
0.999999999999981,1,0.999997
0.999999999999981,0,0.999674
0.999999999999981,0,0.999805
0.999999999999981,1,0.999995
0.999999999999981,1,0.999995
0.999999999999981,1,0.999994
1.0,0,0.999769
1.0,1,0.999996
1.0,1,0.999996
1.0,1,0.999965
1.0,1,0.999984
1.0,0,0.999849
1.0,1,0.999979
1.0,1,0.999986
0.9999999999999789,1,0.999990
0.9999999999999789,1,0.999996
0.9999999999999789,1,0.999974
0.9999999999999789,1,0.999995
1.0,1,0.999998
0.9999999999999172,1,0.999978
0.9999999999999172,0,0.999942
0.9999999999999172,1,0.999996
0.9999999999999172,0,0.998371
0.9999999999999172,0,0.999759
0.9999999999999172,0,0.999896
0.9999999999999172,1,0.999972
0.999999999999949,1,0.999998
0.999999999999949,0,0.999958
0.999999999999949,1,0.999976
0.999999999999949,0,0.999734
0.999999999999949,1,0.999986
0.999999999999949,0,0.999866
0.999999999999949,0,0.999816
0.999999999999949,0,0.999433
0.999999999999949,0,0.999465
0.9999999999999971,1,0.999997
0.9999999999999971,1,0.999996
0.9999999999999971,0,0.999592
0.9999999999999971,1,0.999995
0.9999999999999971,1,0.999990
0.9999999999999971,0,0.999763
0.9999999999999971,1,0.999993
0.9999999999999971,1,0.999992
0.9999999999999912,1,0.999995
0.9999999999999912,1,0.999994
0.9999999999999912,1,0.999993
0.9999999999999912,1,0.999992
0.9999999999999213,1,0.999994
1.0,1,0.999992
1.0,0,0.999903
1.0,0,0.999524
1.0,0,0.999772
1.0,0,0.995444
0.9999999999999422,0,0.998745
0.9999999999999422,0,0.999758
0.9999999999999657,0,0.999386
0.9999999999999657,0,0.998955
0.9999999999999278,1,0.999986
0.9999999999999278,1,0.999992
1.0,1,0.999997
1.0,1,0.999996
1.0,1,0.999996
1.0,1,0.999995
1.0,1,0.999995
1.0,1,0.999994
1.0,1,0.999993
1.0,1,0.999992
0.9999999999999833,1,0.999994
0.9999999999999833,1,0.999993
1.0,1,0.999994
1.0,1,0.999993
1.0,1,0.999998
1.0,1,0.999996
1.0,1,0.999996
1.0,0,0.999855
1.0,1,0.999995
1.0,1,0.999995
1.0,1,0.999994
0.9999999999999795,1,0.999996
0.9999999999999795,1,0.999996
0.9999999999999795,1,0.999996
0.9999999999999795,1,0.999995
0.9999999999999465,1,0.999993
0.9999999999999465,1,0.999996
0.9999999999999465,1,0.999991
0.9999999999999465,0,0.999708
1.0,1,0.999996
1.0,1,0.999996
1.0,1,0.999995
1.0,1,0.999996
1.0,0,0.999663
1.0,1,0.999996
1.0,0,0.999586
1.0,1,0.999965
1.0,1,0.999996
1.0,0,0.999663
1.0,1,0.999995
1.0,1,0.999996
1.0,0,0.999627
1.0,1,0.999986
0.9999999999999797,1,0.999997
0.9999999999999797,0,0.999957
0.9999999999999797,0,0.999553
0.9999999999999797,1,0.999995
0.9999999999999938,1,0.999996
0.9999999999999938,1,0.999996
0.9999999999999938,1,0.999996
0.9999999999999938,1,0.999995
0.9999999999999598,1,0.999996
0.9999999999999598,1,0.999996
0.9999999999999598,1,0.999991
0.9999999999999598,1,0.999995
0.9999999999999916,1,0.999996
0.9999999999999916,1,0.999996
0.9999999999999916,1,0.999996
0.9999999999999916,1,0.999995
0.9999999999999425,0,0.999829
0.9999999999999425,1,0.999996
0.9999999999999425,1,0.999996
0.9999999999999425,0,0.999810
0.9999999999999425,0,0.999491
0.9999999999999689,0,0.999900
0.9999999999999689,1,0.999996
0.9999999999999689,1,0.999991
0.9999999999999689,0,0.999841
1.0,0,0.999829
1.0,1,0.999983
1.0,1,0.999981
1.0,1,0.999990
0.9999999999999624,1,0.999996
0.9999999999999624,1,0.999996
0.9999999999999624,0,0.999339
0.9999999999999624,0,0.999937
0.9999999999999624,1,0.999947
0.9999999999999624,0,0.999858
0.9999999999999624,0,0.999855
0.9999999999999624,0,0.999875
1.0,1,0.999989
1.0,1,0.999996
1.0,1,0.999983
1.0,0,0.999697
1.0,1,0.999990
1.0,0,0.995618
1.0,0,0.995047
1.0,0,0.996458
1.0,0,0.998103
1.0,1,0.999974
1.0,0,0.998940
0.9999999999999764,1,0.999988
0.9999999999999919,1,0.999992
0.9999999999999919,1,0.999989
0.9999999999999838,1,0.999986
0.9999999999999838,1,0.999982
0.9999999999999829,1,0.999997
0.9999999999999829,0,0.999926
0.9999999999999829,1,0.999996
0.9999999999999829,1,0.999995
0.999999999999951,0,0.999925
0.999999999999951,0,0.999949
0.999999999999951,0,0.999909
0.999999999999951,0,0.999654
0.999999999999951,0,0.996083
0.999999999999951,1,0.999994
0.999999999999951,1,0.999993
0.999999999999951,1,0.999991
0.999999999999951,1,0.999987
0.999999999999951,1,0.999983
0.999999999999951,1,0.999977
1.0,1,0.999999
1.0,1,0.999998
1.0,1,0.999996
1.0,1,0.999996
1.0,1,0.999996
1.0,0,0.999945
1.0,1,0.999962
1.0,1,0.999981
1.0,1,0.999999
1.0,1,0.999983
1.0,0,0.999945
1.0,1,0.999996
1.0,1,0.999990
1.0,0,0.997850
1.0,1,0.999988
1.0,1,0.999993
1.0,1,0.999992
1.0,1,0.999989
1.0,1,0.999993
1.0,1,0.999996
1.0,1,0.999996
1.0,1,0.999995
1.0,1,0.999995
1.0,0,0.999157
1.0,1,0.999993
1.0,1,0.999992
1.0,1,0.999990
1.0,1,0.999985
1.0,1,0.999981
1.0,1,0.999975
1.0,1,0.999972
1.0,1,0.999962
1.0,1,0.999937
1.0,1,0.999996
1.0,1,0.999996
1.0,0,0.999939
1.0,0,0.999675
1.0,0,0.999063
1.0,0,0.999329
1.0,0,0.995906
1.0,0,0.997051
1.0,1,0.999989
1.0,1,0.999895
1.0,1,0.999806
1.0,0,0.981527
1.0,0,0.988505
1.0,0,0.996662
1.0,0,0.999356
1.0,1,0.999997
1.0,1,0.999996
1.0,1,0.999996
1.0,1,0.999995
1.0,1,0.999995
1.0,1,0.999994
1.0,1,0.999993
1.0,1,0.999992
1.0,1,0.999991
1.0,1,0.999945
1.0,1,0.999982
1.0,1,0.999976
1.0,1,0.999972
1.0,1,0.999964
1.0,1,0.999942
0.9999999999999639,1,0.999998
0.9999999999999639,1,0.999996
0.9999999999999639,1,0.999996
0.9999999999999639,1,0.999995
0.9999999999999639,1,0.999995
0.9999999999999639,1,0.999994
0.9999999999999639,1,0.999993
0.9999999999999639,1,0.999992
0.9999999999999639,1,0.999990
0.9999999999999639,1,0.999986
0.9999999999999639,1,0.999982
0.9999999999999639,1,0.999976
0.9999999999999639,1,0.999970
0.9999999999999639,1,0.999959
0.9999999999999639,1,0.999948
0.9999999999999816,1,0.999998
0.9999999999999816,1,0.999992
0.9999999999999816,1,0.999996
0.9999999999999816,1,0.999995
0.9999999999999816,0,0.999831
0.9999999999999816,0,0.996493
0.9999999999999816,1,0.999993
0.9999999999999816,1,0.999992
0.9999999999999816,1,0.999991
0.9999999999999816,0,0.998670
0.9999999999999816,1,0.999983
0.9999999999999816,1,0.999977
0.9999999999999816,1,0.999973
0.9999999999999816,1,0.999965
0.9999999999999816,1,0.999944
1.0,1,0.999989
1.0,1,0.999996
1.0,0,0.997234
1.0,1,0.999995
1.0,0,0.998893
1.0,0,0.995452
1.0,1,0.999994
1.0,1,0.999993
1.0,1,0.999991
1.0,1,0.999986
1.0,1,0.999983
1.0,1,0.999907
1.0,1,0.999916
1.0,1,0.999886
1.0,1,0.999949
0.9999999999999531,1,0.999983
0.9999999999999531,1,0.999996
0.9999999999999531,1,0.999996
0.9999999999999531,1,0.999995
0.9999999999999531,1,0.999995
0.9999999999999531,0,0.998447
0.9999999999999531,0,0.999556
0.9999999999999531,0,0.999647
0.9999999999999531,0,0.999855
0.9999999999999531,0,0.999111
0.9999999999999531,1,0.999966
0.9999999999999531,1,0.999977
0.9999999999999531,1,0.999973
0.9999999999999531,0,0.942571
0.9999999999999531,1,0.999946
1.0,1,0.999998
1.0,1,0.999989
1.0,0,0.999937
1.0,1,0.999995
1.0,1,0.999995
1.0,1,0.999994
1.0,0,0.999087
1.0,0,0.999373
1.0,0,0.999594
1.0,1,0.999987
1.0,1,0.999983
1.0,1,0.999977
1.0,1,0.999973
1.0,1,0.999963
1.0,1,0.999950
0.9999999999999446,1,0.999998
0.9999999999999446,1,0.999989
0.9999999999999446,0,0.999878
0.9999999999999446,1,0.999986
0.9999999999999446,0,0.999939
0.9999999999999446,1,0.999994
0.9999999999999446,0,0.999070
0.9999999999999446,0,0.999310
0.9999999999999446,0,0.999554
0.9999999999999446,1,0.999987
0.9999999999999446,1,0.999983
0.9999999999999446,1,0.999978
0.9999999999999446,1,0.999973
0.9999999999999446,0,0.955876
0.9999999999999446,1,0.999948
0.9999999999999646,1,0.999998
0.9999999999999646,1,0.999996
0.9999999999999646,1,0.999983
0.9999999999999646,0,0.999942
0.9999999999999646,0,0.999818
0.9999999999999646,0,0.999929
0.9999999999999646,1,0.999962
0.9999999999999646,1,0.999964
0.9999999999999646,1,0.999964
0.9999999999999646,1,0.999936
0.9999999999999646,0,0.999515
0.9999999999999646,0,0.997401
0.9999999999999646,0,0.997629
0.9999999999999646,0,0.997900
0.9999999999999646,0,0.999166
0.9999999999999776,0,0.999943
0.9999999999999776,1,0.999985
0.9999999999999776,1,0.999983
0.9999999999999776,1,0.999982
0.9999999999999776,1,0.999995
0.9999999999999776,0,0.994427
0.9999999999999776,1,0.999994
0.9999999999999776,1,0.999993
0.9999999999999776,1,0.999991
0.9999999999999776,0,0.998677
0.9999999999999776,1,0.999983
0.9999999999999776,1,0.999978
0.9999999999999776,1,0.999973
0.9999999999999776,1,0.999966
0.9999999999999776,1,0.999949
0.9999999999999739,1,0.999998
0.9999999999999739,1,0.999996
0.9999999999999739,1,0.999992
0.9999999999999739,1,0.999991
0.9999999999999739,0,0.999319
0.9999999999999739,0,0.999708
0.9999999999999739,0,0.997971
0.9999999999999739,0,0.998433
0.9999999999999739,0,0.998974
0.9999999999999739,0,0.997899
0.9999999999999739,1,0.999984
0.9999999999999739,1,0.999978
0.9999999999999739,0,0.997611
0.9999999999999739,0,0.997883
0.9999999999999739,0,0.999034
1.0,0,0.999962
1.0,1,0.999996
1.0,1,0.999996
1.0,1,0.999996
1.0,1,0.999995
1.0,1,0.999995
1.0,1,0.999994
1.0,1,0.999993
1.0,1,0.999991
1.0,1,0.999988
1.0,1,0.999984
1.0,1,0.999978
1.0,1,0.999974
1.0,1,0.999966
1.0,1,0.999950
0.9999999999999958,1,0.999998
0.9999999999999958,1,0.999996
0.9999999999999958,1,0.999996
0.9999999999999958,1,0.999996
0.9999999999999958,1,0.999965
0.9999999999999958,0,0.999866
0.9999999999999958,0,0.999809
0.9999999999999958,0,0.999552
0.9999999999999958,0,0.999724
0.9999999999999958,1,0.999988
0.9999999999999958,1,0.999936
0.9999999999999958,0,0.998313
0.9999999999999958,1,0.999974
0.9999999999999958,1,0.999966
0.9999999999999958,1,0.999953
1.0,1,0.999998
1.0,1,0.999996
1.0,0,0.999730
1.0,1,0.999973
1.0,0,0.999553
1.0,0,0.999239
1.0,1,0.999994
1.0,1,0.999993
1.0,1,0.999992
1.0,1,0.999989
1.0,1,0.999968
1.0,1,0.999979
1.0,1,0.999974
1.0,1,0.999967
1.0,1,0.999954
0.999999999999969,1,0.999998
0.999999999999969,1,0.999996
0.999999999999969,1,0.999996
0.999999999999969,1,0.999996
0.999999999999969,1,0.999995
0.999999999999969,1,0.999995
0.999999999999969,0,0.999801
0.999999999999969,0,0.999734
0.999999999999969,0,0.999841
0.999999999999969,1,0.999989
0.999999999999969,1,0.999938
0.999999999999969,0,0.997253
0.999999999999969,1,0.999974
0.999999999999969,1,0.999968
0.999999999999969,1,0.999955
0.9999999999999448,1,0.999998
0.9999999999999448,1,0.999996
0.9999999999999448,0,0.999955
0.9999999999999448,0,0.999754
0.9999999999999448,1,0.999995
0.9999999999999448,1,0.999995
0.9999999999999448,0,0.999561
0.9999999999999448,0,0.998960
0.9999999999999448,0,0.999334
0.9999999999999448,1,0.999901
0.9999999999999448,1,0.999985
0.9999999999999448,0,0.996773
0.9999999999999448,1,0.999974
0.9999999999999448,0,0.934459
0.9999999999999448,1,0.999955
0.9999999999999448,1,0.999930
1.0,0,0.999765
1.0,0,0.999200
1.0,0,0.998824
1.0,0,0.998939
1.0,0,0.998591
1.0,0,0.999695
1.0,0,0.999820
1.0,0,0.999860
1.0,1,0.999956
1.0,0,0.999112
1.0,1,0.999980
1.0,0,0.998377
1.0,1,0.999969
1.0,1,0.999956
1.0,1,0.999933
0.9999999999999736,0,0.999707
0.9999999999999736,1,0.999996
0.9999999999999736,1,0.999996
0.9999999999999736,1,0.999995
0.9999999999999736,1,0.999995
0.9999999999999736,1,0.999994
0.9999999999999736,1,0.999993
0.9999999999999736,1,0.999992
0.9999999999999736,1,0.999989
0.9999999999999736,1,0.999985
0.9999999999999736,1,0.999980
0.9999999999999736,1,0.999975
0.9999999999999736,1,0.999969
0.9999999999999736,1,0.999956
0.9999999999999736,1,0.999932
1.0,0,0.999951
1.0,0,0.999913
1.0,0,0.999439
1.0,0,0.999894
1.0,0,0.999932
1.0,0,0.998362
1.0,0,0.999371
1.0,0,0.999582
1.0,0,0.999829
1.0,1,0.999985
1.0,1,0.999981
1.0,1,0.999975
1.0,1,0.999969
1.0,1,0.999957
1.0,1,0.999940
1.0,1,0.999996
1.0,1,0.999992
1.0,0,0.999475
1.0,1,0.999995
1.0,1,0.999995
1.0,0,0.999455
1.0,1,0.999973
1.0,1,0.999984
1.0,1,0.999990
1.0,0,0.999704
1.0,1,0.999981
1.0,1,0.999975
1.0,1,0.999969
1.0,1,0.999957
1.0,1,0.999935
1.0,1,0.999997
1.0,0,0.999788
1.0,0,0.999706
1.0,1,0.999995
1.0,1,0.999984
1.0,1,0.999994
1.0,1,0.999960
1.0,1,0.999968
1.0,1,0.999979
1.0,0,0.999808
1.0,1,0.999905
1.0,1,0.999975
1.0,1,0.999970
1.0,1,0.999959
1.0,1,0.999942
1.0,1,0.999997
1.0,1,0.999996
1.0,1,0.999996
1.0,1,0.999995
1.0,1,0.999995
1.0,0,0.997039
1.0,1,0.999993
1.0,1,0.999992
1.0,1,0.999990
1.0,1,0.999971
1.0,1,0.999963
1.0,0,0.997230
1.0,0,0.998212
1.0,0,0.998581
1.0,1,0.999809
0.9999999999999701,1,0.999997
0.9999999999999701,1,0.999996
0.9999999999999701,1,0.999996
0.9999999999999701,1,0.999995
0.9999999999999701,1,0.999995
0.9999999999999701,1,0.999994
0.9999999999999701,1,0.999993
0.9999999999999701,1,0.999992
0.9999999999999701,1,0.999990
0.9999999999999701,1,0.999985
0.9999999999999701,1,0.999981
0.9999999999999701,1,0.999976
0.9999999999999701,1,0.999970
0.9999999999999701,1,0.999959
0.9999999999999701,1,0.999938
1.0,1,0.999991
1.0,1,0.999996
1.0,1,0.999996
1.0,1,0.999995
1.0,1,0.999995
1.0,1,0.999994
1.0,1,0.999993
1.0,1,0.999992
1.0,1,0.999990
1.0,1,0.999986
1.0,1,0.999982
1.0,1,0.999976
1.0,1,0.999970
1.0,1,0.999960
1.0,1,0.999939
1.0,1,0.999997
1.0,1,0.999996
1.0,1,0.999996
1.0,0,0.999611
1.0,0,0.999820
1.0,0,0.997513
1.0,1,0.999993
1.0,1,0.999992
1.0,1,0.999990
1.0,0,0.999789
1.0,1,0.999982
1.0,1,0.999976
1.0,1,0.999971
1.0,1,0.999961
1.0,1,0.999945
1.0,1,0.999997
1.0,1,0.999996
1.0,1,0.999996
1.0,1,0.999995
1.0,1,0.999995
1.0,1,0.999994
1.0,1,0.999993
1.0,1,0.999992
1.0,1,0.999990
1.0,1,0.999986
1.0,1,0.999982
1.0,1,0.999976
1.0,1,0.999971
1.0,1,0.999960
1.0,1,0.999942
1.0,1,0.999992
1.0,0,0.999868
1.0,0,0.999267
1.0,0,0.999625
1.0,0,0.999815
1.0,0,0.997737
1.0,0,0.999625
1.0,0,0.999808
1.0,1,0.999950
1.0,1,0.999986
1.0,1,0.999982
1.0,1,0.999976
1.0,1,0.999971
1.0,1,0.999960
1.0,1,0.999940
0.9999999999999649,1,0.999997
0.9999999999999649,0,0.999938
0.9999999999999649,1,0.999996
0.9999999999999649,1,0.999953
0.9999999999999649,0,0.999917
0.9999999999999649,1,0.999994
0.9999999999999649,0,0.999190
0.9999999999999649,0,0.999356
0.9999999999999649,0,0.999656
0.9999999999999649,1,0.999986
0.9999999999999649,0,0.999015
0.9999999999999649,1,0.999976
0.9999999999999649,1,0.999971
0.9999999999999649,1,0.999960
0.9999999999999649,1,0.999941
1.0,1,0.999997
1.0,1,0.999996
1.0,1,0.999996
1.0,1,0.999995
1.0,1,0.999995
1.0,1,0.999994
1.0,1,0.999993
1.0,1,0.999992
1.0,1,0.999990
1.0,1,0.999986
1.0,1,0.999982
1.0,1,0.999976
1.0,1,0.999971
1.0,1,0.999961
1.0,1,0.999945
1.0,1,0.999993
1.0,1,0.999965
1.0,1,0.999996
1.0,1,0.999995
1.0,0,0.999892
1.0,1,0.999994
1.0,0,0.999842
1.0,0,0.999900
1.0,1,0.999944
1.0,1,0.999986
1.0,1,0.999982
1.0,1,0.999976
1.0,1,0.999972
1.0,1,0.999962
1.0,1,0.999943
1.0,1,0.999998
1.0,0,0.999947
1.0,1,0.999957
1.0,1,0.999963
1.0,1,0.999995
1.0,1,0.999994
1.0,0,0.999336
1.0,0,0.999516
1.0,0,0.999700
1.0,0,0.999395
1.0,1,0.999982
1.0,1,0.999976
1.0,1,0.999972
1.0,1,0.999962
1.0,1,0.999946
1.0,1,0.999998
1.0,1,0.999973
1.0,0,0.999347
1.0,1,0.999986
1.0,1,0.999985
1.0,1,0.999994
1.0,1,0.999993
1.0,1,0.999992
1.0,1,0.999991
1.0,1,0.999986
1.0,1,0.999983
1.0,1,0.999976
1.0,1,0.999972
1.0,1,0.999963
1.0,1,0.999944
1.0,1,0.999998
1.0,1,0.999996
1.0,0,0.999423
1.0,1,0.999995
1.0,1,0.999995
1.0,1,0.999994
1.0,0,0.999273
1.0,0,0.999480
1.0,0,0.999680
1.0,0,0.999257
1.0,1,0.999931
1.0,1,0.999977
1.0,1,0.999972
1.0,1,0.999963
1.0,1,0.999948
1.0,1,0.999998
1.0,1,0.999981
1.0,0,0.997470
1.0,0,0.999922
1.0,0,0.999934
1.0,0,0.995106
1.0,1,0.999994
1.0,1,0.999992
1.0,1,0.999991
1.0,0,0.999641
1.0,1,0.999932
1.0,0,0.997338
1.0,0,0.997847
1.0,0,0.998365
1.0,0,0.999135
0.9999999999999992,1,0.999998
0.9999999999999992,1,0.999996
0.9999999999999992,0,0.999882
0.9999999999999992,1,0.999987
0.9999999999999992,1,0.999980
0.9999999999999992,0,0.999351
0.9999999999999992,1,0.999994
0.9999999999999992,1,0.999993
0.9999999999999992,1,0.999991
0.9999999999999992,1,0.999987
0.9999999999999992,1,0.999983
0.9999999999999992,1,0.999977
0.9999999999999992,1,0.999973
0.9999999999999992,1,0.999964
0.9999999999999992,1,0.999950
0.9999999999999204,1,0.999998
0.9999999999999204,1,0.999996
0.9999999999999204,1,0.999996
0.9999999999999204,0,0.999847
0.9999999999999204,1,0.999995
0.9999999999999204,0,0.995950
0.9999999999999204,1,0.999975
0.9999999999999204,1,0.999978
0.9999999999999204,1,0.999982
0.9999999999999204,1,0.999962
0.9999999999999204,1,0.999833
0.9999999999999204,1,0.999977
0.9999999999999204,0,0.997725
0.9999999999999204,0,0.998246
0.9999999999999204,0,0.998897
0.9999999999999976,1,0.999998
0.9999999999999976,1,0.999996
0.9999999999999976,0,0.999938
0.9999999999999976,1,0.999991
0.9999999999999976,1,0.999995
0.9999999999999976,0,0.999681
0.9999999999999976,1,0.999994
0.9999999999999976,1,0.999993
0.9999999999999976,1,0.999991
0.9999999999999976,0,0.997932
0.9999999999999976,1,0.999984
0.9999999999999976,1,0.999978
0.9999999999999976,0,0.981523
0.9999999999999976,0,0.987096
0.9999999999999976,0,0.996286
1.0,1,0.999998
1.0,1,0.999996
1.0,1,0.999996
1.0,1,0.999996
1.0,1,0.999995
1.0,1,0.999995
1.0,1,0.999938
1.0,1,0.999993
1.0,1,0.999991
1.0,1,0.999964
1.0,1,0.999984
1.0,1,0.999978
1.0,1,0.999973
1.0,1,0.999966
1.0,1,0.999952
0.9999999999999822,1,0.999998
0.9999999999999822,1,0.999996
0.9999999999999822,1,0.999996
0.9999999999999822,1,0.999996
0.9999999999999822,1,0.999995
0.9999999999999822,1,0.999995
0.9999999999999822,1,0.999944
0.9999999999999822,1,0.999993
0.9999999999999822,1,0.999991
0.9999999999999822,1,0.999976
0.9999999999999822,1,0.999984
0.9999999999999822,1,0.999978
0.9999999999999822,1,0.999974
0.9999999999999822,1,0.999966
0.9999999999999822,1,0.999952
1.0,1,0.999998
1.0,1,0.999996
1.0,1,0.999983
1.0,0,0.999910
1.0,0,0.999711
1.0,1,0.999995
1.0,1,0.999994
1.0,1,0.999993
1.0,1,0.999991
1.0,1,0.999988
1.0,1,0.999983
1.0,1,0.999978
1.0,0,0.925822
1.0,0,0.939564
1.0,1,0.999950
0.9999999999999936,1,0.999998
0.9999999999999936,0,0.999901
0.9999999999999936,1,0.999996
0.9999999999999936,0,0.999462
0.9999999999999936,1,0.999995
0.9999999999999936,1,0.999995
0.9999999999999936,1,0.999994
0.9999999999999936,1,0.999993
0.9999999999999936,1,0.999991
0.9999999999999936,1,0.999988
0.9999999999999936,1,0.999984
0.9999999999999936,1,0.999978
0.9999999999999936,1,0.999973
0.9999999999999936,1,0.999965
0.9999999999999936,1,0.999952
0.9999999999999544,1,0.999998
0.9999999999999544,1,0.999996
0.9999999999999544,1,0.999996
0.9999999999999544,1,0.999996
0.9999999999999544,1,0.999995
0.9999999999999544,1,0.999995
0.9999999999999544,1,0.999994
0.9999999999999544,1,0.999993
0.9999999999999544,1,0.999991
0.9999999999999544,1,0.999988
0.9999999999999544,1,0.999984
0.9999999999999544,1,0.999978
0.9999999999999544,1,0.999974
0.9999999999999544,1,0.999966
0.9999999999999544,1,0.999952
1.0,1,0.999998
1.0,1,0.999996
1.0,1,0.999996
1.0,1,0.999987
1.0,0,0.999532
1.0,1,0.999995
1.0,1,0.999994
1.0,1,0.999993
1.0,1,0.999991
1.0,1,0.999988
1.0,1,0.999984
1.0,1,0.999979
1.0,1,0.999974
1.0,1,0.999966
1.0,1,0.999953
0.9999999999999523,1,0.999998
0.9999999999999523,0,0.999474
0.9999999999999523,0,0.999702
0.9999999999999523,0,0.999757
0.9999999999999523,0,0.999613
0.9999999999999523,0,0.999287
0.9999999999999523,0,0.999920
0.9999999999999523,0,0.999808
0.9999999999999523,0,0.999814
0.9999999999999523,1,0.999977
0.9999999999999523,0,0.999510
0.9999999999999523,1,0.999979
0.9999999999999523,0,0.998536
0.9999999999999523,1,0.999967
0.9999999999999523,0,0.999207
1.0,1,0.999998
1.0,1,0.999996
1.0,1,0.999996
1.0,1,0.999996
1.0,1,0.999995
1.0,1,0.999995
1.0,1,0.999994
1.0,1,0.999993
1.0,1,0.999992
1.0,1,0.999989
1.0,1,0.999984
1.0,1,0.999980
1.0,1,0.999974
1.0,1,0.999967
1.0,1,0.999954
0.9999999999999336,1,0.999998
0.9999999999999336,1,0.999996
0.9999999999999336,1,0.999996
0.9999999999999336,0,0.999842
0.9999999999999336,1,0.999995
0.9999999999999336,1,0.999995
0.9999999999999336,0,0.999856
0.9999999999999336,1,0.999993
0.9999999999999336,1,0.999992
0.9999999999999336,1,0.999989
0.9999999999999336,1,0.999923
0.9999999999999336,0,0.998271
0.9999999999999336,1,0.999974
0.9999999999999336,0,0.935745
0.9999999999999336,1,0.999956
0.9999999999999336,1,0.999925
0.9999999999999403,0,0.999707
0.9999999999999403,1,0.999996
0.9999999999999403,1,0.999996
0.9999999999999403,0,0.998832
0.9999999999999403,0,0.998453
0.9999999999999403,1,0.999994
0.9999999999999403,1,0.999993
0.9999999999999403,1,0.999992
0.9999999999999403,1,0.999989
0.9999999999999403,1,0.999985
0.9999999999999403,1,0.999980
0.9999999999999403,1,0.999974
0.9999999999999403,1,0.999968
0.9999999999999403,1,0.999955
0.9999999999999403,1,0.999660
0.9999999999999853,1,0.999996
0.9999999999999853,1,0.999996
0.9999999999999853,1,0.999996
0.9999999999999853,1,0.999995
0.9999999999999853,1,0.999995
0.9999999999999853,1,0.999994
0.9999999999999853,1,0.999993
0.9999999999999853,1,0.999992
0.9999999999999853,1,0.999989
0.9999999999999853,1,0.999985
0.9999999999999853,1,0.999980
0.9999999999999853,1,0.999974
0.9999999999999853,1,0.999968
0.9999999999999853,1,0.999955
0.9999999999999853,1,0.999929
1.0,1,0.999996
1.0,0,0.998986
1.0,0,0.999681
1.0,0,0.999805
1.0,1,0.999979
1.0,0,0.999691
1.0,0,0.997278
1.0,0,0.998031
1.0,0,0.999359
1.0,0,0.999817
1.0,1,0.999980
1.0,1,0.999975
1.0,1,0.999968
1.0,1,0.999956
1.0,1,0.999921
0.999999999999972,1,0.999989
0.999999999999972,1,0.999992
0.999999999999972,1,0.999974
0.999999999999972,1,0.999995
0.999999999999972,1,0.999995
0.999999999999972,0,0.999300
0.999999999999972,0,0.999882
0.999999999999972,0,0.999902
0.999999999999972,1,0.999968
0.999999999999972,1,0.999985
0.999999999999972,1,0.999980
0.999999999999972,1,0.999975
0.999999999999972,1,0.999968
0.999999999999972,1,0.999956
0.999999999999972,1,0.999931
1.0,1,0.999979
1.0,1,0.999996
1.0,1,0.999978
1.0,1,0.999995
1.0,1,0.999995
1.0,0,0.998578
1.0,0,0.998520
1.0,0,0.999022
1.0,0,0.999667
1.0,1,0.999985
1.0,1,0.999980
1.0,1,0.999975
1.0,1,0.999969
1.0,1,0.999957
1.0,1,0.999937
1.0,1,0.999996
1.0,1,0.999992
1.0,1,0.999996
1.0,1,0.999995
1.0,1,0.999995
1.0,0,0.998175
1.0,0,0.998737
1.0,0,0.999085
1.0,0,0.999796
1.0,1,0.999985
1.0,1,0.999980
1.0,1,0.999974
1.0,1,0.999968
1.0,1,0.999956
1.0,1,0.999930
0.9999999999999917,1,0.999996
0.9999999999999917,1,0.999996
0.9999999999999917,1,0.999996
0.9999999999999917,1,0.999995
0.9999999999999917,1,0.999995
0.9999999999999917,1,0.999994
0.9999999999999917,1,0.999993
0.9999999999999917,1,0.999992
0.9999999999999917,1,0.999989
0.9999999999999917,1,0.999985
0.9999999999999917,1,0.999980
0.9999999999999917,1,0.999975
0.9999999999999917,1,0.999968
0.9999999999999917,1,0.999956
0.9999999999999917,1,0.999926
0.9999999999999636,1,0.999996
0.9999999999999636,1,0.999988
0.9999999999999636,1,0.999996
0.9999999999999636,1,0.999995
0.9999999999999636,1,0.999995
0.9999999999999636,1,0.999994
0.9999999999999636,0,0.999773
0.9999999999999636,0,0.999805
0.9999999999999636,1,0.999896
0.9999999999999636,0,0.998682
0.9999999999999636,1,0.999981
0.9999999999999636,1,0.999975
0.9999999999999636,1,0.999969
0.9999999999999636,1,0.999957
0.9999999999999636,1,0.999933
1.0,0,0.999951
1.0,1,0.999996
1.0,1,0.999961
1.0,1,0.999995
1.0,1,0.999984
1.0,1,0.999994
1.0,1,0.999993
1.0,1,0.999992
1.0,1,0.999989
1.0,1,0.999985
1.0,1,0.999981
1.0,1,0.999975
1.0,1,0.999969
1.0,1,0.999957
1.0,1,0.999938
0.9999999999999579,1,0.999997
0.9999999999999579,1,0.999976
0.9999999999999579,1,0.999996
0.9999999999999579,1,0.999995
0.9999999999999579,1,0.999995
0.9999999999999579,1,0.999994
0.9999999999999579,0,0.999419
0.9999999999999579,0,0.999565
0.9999999999999579,0,0.999816
0.9999999999999579,0,0.999155
0.9999999999999579,1,0.999981
0.9999999999999579,1,0.999975
0.9999999999999579,0,0.932707
0.9999999999999579,1,0.999958
0.9999999999999579,1,0.999934
0.9999999999999976,1,0.999977
0.9999999999999976,0,0.999776
0.9999999999999976,1,0.999983
0.9999999999999976,0,0.999947
0.9999999999999976,1,0.999995
0.9999999999999976,1,0.999994
0.9999999999999976,0,0.999013
0.9999999999999976,0,0.999306
0.9999999999999976,0,0.999690
0.9999999999999976,1,0.999985
0.9999999999999976,1,0.999981
0.9999999999999976,1,0.999975
0.9999999999999976,1,0.999970
0.9999999999999976,1,0.999958
0.9999999999999976,1,0.999941
1.0,1,0.999997
1.0,0,0.999835
1.0,1,0.999996
1.0,1,0.999966
1.0,0,0.997669
1.0,0,0.996955
1.0,1,0.999993
1.0,1,0.999992
1.0,1,0.999990
1.0,1,0.999985
1.0,1,0.999981
1.0,1,0.999975
1.0,1,0.999969
1.0,1,0.999957
1.0,1,0.999936
0.9999999999999827,1,0.999997
0.9999999999999827,0,0.999879
0.9999999999999827,0,0.999746
0.9999999999999827,0,0.999929
0.9999999999999827,1,0.999984
0.9999999999999827,0,0.997817
0.9999999999999827,1,0.999987
0.9999999999999827,1,0.999992
0.9999999999999827,1,0.999990
0.9999999999999827,1,0.999985
0.9999999999999827,0,0.999626
0.9999999999999827,1,0.999976
0.9999999999999827,1,0.999970
0.9999999999999827,1,0.999959
0.9999999999999827,1,0.999942
1.0,1,0.999997
1.0,1,0.999996
1.0,1,0.999996
1.0,1,0.999995
1.0,1,0.999995
1.0,1,0.999994
1.0,1,0.999993
1.0,1,0.999992
1.0,1,0.999990
1.0,1,0.999986
1.0,1,0.999982
1.0,1,0.999976
1.0,1,0.999970
1.0,1,0.999958
1.0,1,0.999938
1.0,1,0.999997
1.0,1,0.999996
1.0,0,0.997829
1.0,0,0.999901
1.0,1,0.999995
1.0,0,0.997082
1.0,1,0.999987
1.0,1,0.999992
1.0,1,0.999990
1.0,1,0.999986
1.0,0,0.999318
1.0,0,0.997423
1.0,0,0.997685
1.0,0,0.998103
1.0,1,0.999554
0.9999999999999295,1,0.999997
0.9999999999999295,0,0.999899
0.9999999999999295,0,0.999944
0.9999999999999295,1,0.999995
0.9999999999999295,1,0.999995
0.9999999999999295,1,0.999994
0.9999999999999295,0,0.999675
0.9999999999999295,0,0.999821
0.9999999999999295,1,0.999943
0.9999999999999295,1,0.999986
0.9999999999999295,1,0.999982
0.9999999999999295,1,0.999976
0.9999999999999295,1,0.999971
0.9999999999999295,1,0.999959
0.9999999999999295,1,0.999939
1.0,1,0.999998
1.0,1,0.999992
1.0,0,0.999752
1.0,1,0.999995
1.0,1,0.999995
1.0,1,0.999994
1.0,0,0.999081
1.0,0,0.999368
1.0,0,0.999658
1.0,0,0.999542
1.0,0,0.998700
1.0,1,0.999976
1.0,1,0.999971
1.0,1,0.999961
1.0,1,0.999946
0.9999999999999921,1,0.999998
0.9999999999999921,0,0.999954
0.9999999999999921,0,0.999487
0.9999999999999921,1,0.999986
0.9999999999999921,1,0.999995
0.9999999999999921,1,0.999994
0.9999999999999921,0,0.999750
0.9999999999999921,0,0.999809
0.9999999999999921,1,0.999925
0.9999999999999921,1,0.999986
0.9999999999999921,0,0.999541
0.9999999999999921,1,0.999976
0.9999999999999921,1,0.999971
0.9999999999999921,1,0.999961
0.9999999999999921,1,0.999941
0.9999999999999816,1,0.999998
0.9999999999999816,0,0.999951
0.9999999999999816,1,0.999987
0.9999999999999816,1,0.999995
0.9999999999999816,0,0.999688
0.9999999999999816,0,0.998998
0.9999999999999816,0,0.999526
0.9999999999999816,0,0.999700
0.9999999999999816,0,0.999799
0.9999999999999816,0,0.999644
0.9999999999999816,1,0.999982
0.9999999999999816,0,0.998447
0.9999999999999816,0,0.998474
0.9999999999999816,0,0.998719
0.9999999999999816,1,0.999525
1.0,1,0.999996
1.0,1,0.999977
1.0,1,0.999996
1.0,1,0.999982
1.0,0,0.999667
1.0,0,0.996246
1.0,1,0.999993
1.0,1,0.999992
1.0,1,0.999991
1.0,0,0.997915
1.0,1,0.999983
1.0,1,0.999976
1.0,1,0.999971
1.0,1,0.999961
1.0,1,0.999943
0.9999999999999306,1,0.999998
0.9999999999999306,1,0.999996
0.9999999999999306,0,0.999745
0.9999999999999306,0,0.999908
0.9999999999999306,0,0.999647
0.9999999999999306,1,0.999994
0.9999999999999306,0,0.998738
0.9999999999999306,0,0.999133
0.9999999999999306,0,0.999489
0.9999999999999306,0,0.998352
0.9999999999999306,1,0.999860
0.9999999999999306,1,0.999977
0.9999999999999306,1,0.999972
0.9999999999999306,1,0.999963
0.9999999999999306,1,0.999948
1.0,1,0.999998
1.0,1,0.999996
1.0,1,0.999996
1.0,0,0.999912
1.0,1,0.999995
1.0,1,0.999994
1.0,0,0.999635
1.0,0,0.999652
1.0,0,0.999862
1.0,1,0.999986
1.0,1,0.999983
1.0,1,0.999976
1.0,1,0.999972
1.0,1,0.999961
1.0,1,0.999943
0.9999999999999902,1,0.999998
0.9999999999999902,1,0.999996
0.9999999999999902,1,0.999996
0.9999999999999902,1,0.999991
0.9999999999999902,1,0.999995
0.9999999999999902,0,0.999113
0.9999999999999902,0,0.999690
0.9999999999999902,0,0.999783
0.9999999999999902,0,0.999896
0.9999999999999902,1,0.999986
0.9999999999999902,1,0.999983
0.9999999999999902,1,0.999977
0.9999999999999902,1,0.999972
0.9999999999999902,1,0.999963
0.9999999999999902,1,0.999948
1.0,1,0.999998
1.0,1,0.999992
1.0,0,0.999953
1.0,1,0.999977
1.0,0,0.999749
1.0,0,0.995169
1.0,0,0.997711
1.0,0,0.998404
1.0,0,0.999223
1.0,0,0.997392
1.0,1,0.999983
1.0,0,0.997234
1.0,0,0.997661
1.0,1,0.999962
1.0,1,0.999945
0.9999999999999963,1,0.999998
0.9999999999999963,1,0.999996
0.9999999999999963,1,0.999991
0.9999999999999963,1,0.999995
0.9999999999999963,1,0.999995
0.9999999999999963,1,0.999994
0.9999999999999963,1,0.999994
0.9999999999999963,1,0.999993
0.9999999999999963,1,0.999990
0.9999999999999963,1,0.999986
0.9999999999999963,1,0.999982
0.9999999999999963,1,0.999976
0.9999999999999963,1,0.999972
0.9999999999999963,1,0.999962
0.9999999999999963,1,0.999947
1.0,1,0.999998
1.0,1,0.999996
1.0,0,0.999834
1.0,0,0.999628
1.0,0,0.999703
1.0,0,0.996208
1.0,0,0.984863
1.0,0,0.988647
1.0,0,0.994693
1.0,0,0.997694
1.0,1,0.999983
1.0,1,0.999976
1.0,1,0.999972
1.0,1,0.999962
1.0,1,0.999943
0.9999999999999767,1,0.999998
0.9999999999999767,1,0.999970
0.9999999999999767,1,0.999996
0.9999999999999767,1,0.999995
0.9999999999999767,0,0.999551
0.9999999999999767,0,0.999684
0.9999999999999767,0,0.999627
0.9999999999999767,0,0.999718
0.9999999999999767,0,0.999833
0.9999999999999767,1,0.999906
0.9999999999999767,1,0.999983
0.9999999999999767,0,0.997347
0.9999999999999767,1,0.999972
0.9999999999999767,1,0.999963
0.9999999999999767,0,0.999328
0.9999999999999265,1,0.999998
0.9999999999999265,0,0.999924
0.9999999999999265,0,0.999560
0.9999999999999265,1,0.999977
0.9999999999999265,1,0.999995
0.9999999999999265,1,0.999994
0.9999999999999265,1,0.999993
0.9999999999999265,1,0.999992
0.9999999999999265,1,0.999991
0.9999999999999265,1,0.999986
0.9999999999999265,1,0.999982
0.9999999999999265,1,0.999976
0.9999999999999265,1,0.999971
0.9999999999999265,1,0.999961
0.9999999999999265,1,0.999942
1.0,1,0.999998
1.0,1,0.999970
1.0,1,0.999996
1.0,0,0.999817
1.0,0,0.999657
1.0,1,0.999994
1.0,0,0.999147
1.0,0,0.999447
1.0,0,0.999641
1.0,0,0.998856
1.0,1,0.999843
1.0,1,0.999977
1.0,1,0.999972
1.0,1,0.999962
1.0,1,0.999947
0.9999999999999668,1,0.999987
0.9999999999999668,1,0.999996
0.9999999999999668,1,0.999996
0.9999999999999668,0,0.999922
0.9999999999999668,0,0.999642
0.9999999999999668,0,0.995241
0.9999999999999668,1,0.999993
0.9999999999999668,1,0.999992
0.9999999999999668,1,0.999991
0.9999999999999668,0,0.997547
0.9999999999999668,1,0.999983
0.9999999999999668,0,0.997338
0.9999999999999668,0,0.997700
0.9999999999999668,0,0.998035
0.9999999999999668,0,0.999102
0.9999999999999795,0,0.999954
0.9999999999999795,1,0.999977
0.9999999999999795,0,0.999953
0.9999999999999795,1,0.999995
