-0.0033233673874090487,0,0.903731
0.10775625254677286,0,0.736844
0.9184838310723871,0,0.763672
0.8362858334658726,0,0.965695
0.8199604001297306,0,0.774243
0.7610766900143318,0,0.774167
0.9779467965371597,0,0.699762
0.749042217413187,0,0.666356
0.9789347649537532,0,0.719991
0.9373731718608408,0,0.736463
0.8408529870866456,0,0.935070
0.8408529870866456,0,0.931234
0.8095804429578896,0,0.998640
0.8662331979246264,0,0.967583
0.8233463338577705,0,0.929110
0.8142562406803886,0,0.923849
0.9862909524445,0,0.553836
0.8747980858210878,0,0.506155
0.8631364560858391,0,0.508016
0.8494365917517763,0,0.333385
0.8245836980259668,0,0.332447
0.81505573962395,0,0.523709
0.7940259711015226,0,0.511429
0.7825027698242278,0,0.568546
0.7574266538585317,0,0.487663
0.7438870154211995,0,0.551515
0.7192481741940348,0,0.485455
0.6873341188193207,0,0.495006
0.6248415474039549,0,0.540336
0.58545633174828,0,0.506411
0.5540434700234065,0,0.524320
0.4005902849608983,0,0.746599
0.5243828719087812,0,0.646667
0.6340729633217222,0,0.574042
0.5478241493198684,0,0.834593
0.506038528106015,0,0.664741
0.473754012929524,0,0.550369
0.46073583091373577,0,0.832058
0.43194229577571264,0,0.544216
0.41624381215399786,0,0.544413
0.38741474144539495,0,0.502644
0.3743559547785809,0,0.528592
0.34730129394829445,0,0.981037
0.469393641076002,0,0.581815
0.6614926382670141,0,0.555467
0.7998171878276215,0,0.521725
0.8139352946694854,0,0.979763
0.7453705760202151,0,0.530530
0.7962990481158446,0,0.716087
0.927712793090547,0,0.511215
0.9954301278028374,1,0.999978
0.9970042065148857,1,0.999978
0.8006333839633537,1,0.999920
0.31892617914164617,0,0.902818
0.4510257921127852,0,0.997722
0.9731414964140978,0,0.941924
0.8349051140066691,0,0.513281
0.8342316938625699,0,0.519976
0.8268008021043477,0,0.511216
0.7887529016184398,0,0.900525
0.7887529016184398,0,0.882307
0.7847069743020866,0,0.168439
0.7316087336784662,0,0.513330
0.7386415196293948,0,0.999672
0.7386415196293948,0,0.061896
0.7386415196293948,0,0.518106
0.7386415196293948,0,0.974792
0.6965486153742872,0,0.117359
0.49632227841559556,0,0.491467
0.8168858100108793,0,0.882881
0.7634333255509873,0,0.613923
0.6891710174825111,0,0.999521
0.6849008238016502,0,0.894958
0.680260264255428,0,0.515601
0.6752263707916797,0,0.841412
0.6613946710148998,0,0.385929
0.6538642641105438,0,0.040503
0.6458124346088692,0,0.042136
0.32899071057593154,0,0.477806
0.3241430576754434,0,0.879784
0.41101416496888754,0,0.999500
0.3912577959947138,0,0.367178
0.4115328758889199,0,0.471355
0.6257634998945663,0,0.598471
0.6250069960021364,1,0.999974
0.6250069960021364,0,0.098143
0.5860939454759432,0,0.860378
0.5556694008661253,0,0.402012
0.7935951098286663,0,0.928189
0.7935951098286663,0,0.134618
0.6944411181102815,0,0.735663
0.7096438713742022,0,0.037360
0.6009513511615054,0,0.125719
0.7391104362635814,0,0.470363
0.2547370074348347,0,0.488696
0.32499057375434576,0,0.595367
0.3670570468687061,0,0.468611
0.34480246695392,0,0.449070
0.40601909813720954,0,0.421182
0.5175358490289945,0,0.855463
0.4545054980557761,0,0.962464
0.4545054980557761,0,0.130546
0.4937010358128992,0,0.418660
0.8449506003285874,0,0.907740
0.5338633286609961,0,0.777079
0.6417972476571927,0,0.455951
0.48415953864397593,0,0.902768
0.73861384888865,0,0.476361
0.7064452658801522,0,0.492136
0.6713624625801168,0,0.513576
0.4658069625869729,0,0.950425
0.5054503042104328,0,0.481972
0.640615121304804,0,0.469922
0.7562197214096629,0,0.608841
0.7268515672780631,0,0.473913
0.8048071676024869,0,0.475851
0.749156642775176,0,0.472839
0.8183941037713162,0,0.457623
0.7495599622881566,0,0.846363
0.719287029357315,0,0.711099
0.6410648579398701,0,0.287273
0.5635685824663172,0,0.975107
0.5635685824663172,0,0.839427
0.7750345680826635,0,0.447148
0.8034498369394707,1,0.999976
0.8272009605490581,0,0.997480
0.8272009605490581,0,0.126480
0.8583069166154642,0,0.464140
0.8803849602584265,0,0.519446
0.8905730524620679,1,0.999806
0.8898218020494949,0,0.881374
0.8889280007846435,0,0.447236
0.8930689951717803,0,0.582963
0.8937618317460825,0,0.653465
0.8924242693664654,1,0.999947
0.8894699691598791,0,0.994126
0.8957831380386272,0,0.996023
0.8957831380386272,0,0.102584
0.9037106068644403,0,0.488667
0.9110362971813788,0,0.498375
0.9105035407546689,0,0.886707
0.9111826294330142,0,0.999203
0.9069913338250101,1,0.999899
0.9069913338250101,0,0.838880
0.905613683101377,0,0.496115
0.9016246368904502,0,0.615234
0.9053583861155076,0,0.926204
0.9012919837590456,0,0.995230
0.8975390524689262,1,0.999829
0.8962151113668827,1,0.999918
0.898883294094262,0,0.903674
0.895341785485618,0,0.889855
0.8920521025918045,0,0.880680
0.8924666152497788,0,0.297358
0.8949559477206191,0,0.521530
0.8916371583021502,0,0.310316
0.8878337585935525,1,0.999900
0.8875848690690781,0,0.274555
0.890827047999621,0,0.502838
0.8949460667434667,0,0.499961
0.8932702485610953,0,0.501848
0.8911599989124752,0,0.500825
0.8880714170190317,0,0.488625
0.8922798426119147,0,0.507217
0.8975846034202494,0,0.474955
0.8955733028755185,1,0.999950
0.8973370956608833,0,0.790955
0.8988891087946297,0,0.513318
0.8943851477440535,1,0.999977
0.8899212648486279,1,0.999976
0.8911510814022187,0,0.911671
0.8911510814022187,0,0.417200
0.8930836903190544,1,0.999977
0.8930836903190544,0,0.464466
0.8928349597541176,0,0.800609
0.8941855288665295,0,0.997465
0.8908996508149605,0,0.997443
0.8916046691128491,0,0.329954
0.8885330254321817,1,0.999889
0.8899903524205731,0,0.979399
0.8869585486299744,0,0.999672
0.8870461090220535,1,0.999601
0.8851676086038447,0,0.996140
0.8825551497758263,0,0.667501
0.8595669532005004,0,0.999181
0.8378314422479428,1,0.999946
0.8318367986584148,0,0.947576
0.830904172584079,1,0.999972
0.8649337249947939,0,0.862708
0.8424283314823592,1,0.999945
0.8686421882237138,0,0.999582
0.8818257159978902,0,0.320101
0.8675026953357452,0,0.877164
0.8445596605126424,0,0.515903
0.8187319794382338,0,0.408696
0.8217434928251774,1,0.999956
0.8316608597737986,0,0.489244
0.2950446284886635,0,0.491935
0.8096113372696405,0,0.154609
0.8579801254801639,0,0.440658
0.8504743666189317,0,0.124628
0.8423834515053803,0,0.921225
0.8507022863538489,0,0.279564
0.8568709679067265,0,0.909245
0.8328551461706648,1,0.999961
0.8201788309227426,0,0.999049
0.8069872751996755,0,0.997039
0.790745214984978,1,0.999972
0.8432422724534306,0,0.999454
0.8003021621484231,0,0.999454
0.8003021621484231,0,0.042790
0.7606185989768267,0,0.033640
0.4362111675439292,0,0.468907
0.47777555200326544,0,0.927769
0.4680653663063305,0,0.416014
0.43624355867916786,0,0.475238
0.7104217256621675,0,0.482792
0.6941927213722603,0,0.262018
0.7242628679146141,0,0.953733
0.7077940926577824,0,0.999405
0.738400837907378,0,0.893410
0.7070445443325133,0,0.997096
0.6594163889298686,0,0.657746
0.6594163889298686,0,0.074339
0.4715518965477866,0,0.398039
0.719255485377447,0,0.421539
0.6699706219380586,0,0.472495
0.707835111822284,0,0.472255
0.7577293634685348,0,0.471390
0.7918261489664913,0,0.471102
0.8169498446852617,0,0.473264
0.7730195616876888,0,0.751088
0.7523354714888232,0,0.921373
0.7346595252782991,0,0.755376
0.7187374542898726,0,0.426197
0.7003525810447138,0,0.591637
0.6686209101202826,0,0.999158
0.6598774093876816,0,0.999696
0.8139473213052885,1,0.999973
0.747891223024438,0,0.991995
0.7306435538588776,0,0.086271
0.7113877779633846,0,0.992583
0.5121361576441025,1,0.999970
0.7989500633371526,1,0.999975
0.7989500633371526,0,0.376862
0.7816985475624715,0,0.472711
0.7630710865182068,0,0.649506
0.7518153028039816,0,0.478250
0.7399131479254579,0,0.868809
0.6816518641039478,0,0.999140
0.636575058495533,0,0.890262
0.7474234760128706,0,0.996468
0.7474234760128706,0,0.728814
0.845382518147299,0,0.458633
0.7927369709505784,0,0.260837
0.7383010479054207,0,0.432806
0.6858972149160811,1,0.999842
0.6858972149160811,0,0.402017
0.6513693514094135,0,0.838441
0.6380008524468179,0,0.991783
0.6239523234261057,0,0.370886
0.5995519195815837,0,0.471439
0.5539053218902326,0,0.465467
0.6414459189321977,0,0.462451
0.4432810321543498,0,0.542501
0.4334988462101578,0,0.460607
0.6900636306432294,0,0.849458
0.7211949412946111,0,0.445788
0.8186106462940669,0,0.891031
0.8603891311887313,0,0.132833
0.8842000620165559,0,0.448228
0.8834094383194595,0,0.438081
0.8954049056530118,0,0.082821
0.9033427905483826,0,0.449475
0.9065645119522876,0,0.441573
0.9166799597140889,0,0.949832
0.9045158193610388,0,0.878905
0.91822496039854,0,0.083978
0.9165666754648534,0,0.430366
0.9151220758454076,1,0.999880
0.909302523756454,0,0.102312
0.906890200491591,0,0.396344
0.9060027961737459,0,0.886067
0.8985166529805925,0,0.388212
0.8758391218788163,0,0.839619
0.8661185908953041,0,0.415804
0.8821317713003062,0,0.415367
0.8864156231258619,0,0.414066
0.8950123640998968,0,0.412082
0.9003000756070346,0,0.423461
0.9085201512908189,0,0.422431
0.7491930847608169,0,0.516723
0.7735021975177113,0,0.329097
0.8109935090551202,0,0.419079
0.8317275703224355,0,0.709544
0.8384280693313845,0,0.999429
0.8432276416224493,0,0.849244
0.8481943686683707,0,0.835470
0.8504089519247653,0,0.810416
0.8600772149197254,1,0.999923
0.8680895495761242,0,0.152235
0.5764961516856842,0,0.903670
0.9870216430298556,1,0.999863
0.8498090860553766,0,0.886022
0.8466564310672475,1,0.999951
0.7696896297460852,0,0.997265
0.8975445904396553,0,0.473654
0.8163138903445317,0,0.785708
0.9908529837243296,1,0.999954
0.9815853993891115,1,0.999755
0.9943490603338401,1,0.999975
0.970912314962736,0,0.345719
0.8682617094862676,0,0.978650
0.7774476398952255,0,0.978988
0.7168675997882751,0,0.999199
0.9483824504591494,1,0.999970
0.9880735497245784,1,0.999971
0.4916197317117242,0,0.999250
0.9556566184969277,0,0.999358
0.926827357604082,0,0.999372
0.9895231975856247,0,0.999624
0.4695941971801229,1,0.999933
0.9302119735274147,0,0.974988
0.7568588746899519,0,0.987860
0.7529875961187915,1,0.999701
0.9648058787751719,1,0.999939
0.7864431118178296,1,0.999904
0.7572911030082417,1,0.999899
0.7518332865252417,1,0.999882
0.602642736216967,1,0.999793
0.695164630316818,1,0.999915
0.7132394206148013,1,0.999708
0.6689309099571796,0,0.993069
0.6627245422349443,0,0.994540
0.6560445063551597,1,0.999791
0.6809679793236996,1,0.999815
0.6648628705348805,1,0.999909
0.9906421084340341,1,0.999842
0.9906421084340341,1,0.999773
0.9875902474264069,0,0.980517
0.9864492127018966,0,0.925423
0.9798846114258133,0,0.998433
0.9166942215338644,0,0.997680
0.9298804297285117,1,0.999924
0.9087921957075011,0,0.981692
0.8569290878689348,0,0.993908
0.9618953632049059,0,0.997408
0.8062482679723212,1,0.999615
0.8257534598253355,1,0.999957
0.9833392921237534,0,0.971954
0.9977307183144941,0,0.995489
0.956502800022498,0,0.963960
0.8905041797860835,0,0.916958
0.9249965972787016,1,0.999952
0.9644308853925871,1,0.999977
0.9886498477268447,1,0.999976
0.9679865380940955,1,0.999972
0.9629493819253064,1,0.999924
0.9559191242743116,1,0.999894
0.9014744532148754,1,0.999943
0.9145661697377522,1,0.999947
0.7453079019957641,1,0.999716
0.7717359665042077,1,0.999912
0.8702343494795024,1,0.999938
0.9217689916028904,1,0.999919
0.9681148555878291,1,0.999891
0.9780186176736116,1,0.999957
0.9954606253095521,1,0.999968
0.9940983894059211,1,0.999913
0.9978304575618883,0,0.973533
0.9966425744323695,1,0.999936
0.9945697023121529,1,0.999877
0.9975693406036943,0,0.999222
0.9971199606071501,1,0.999903
0.9953438610265982,1,0.999885
0.9932454876749597,0,0.999623
0.9932159111070846,1,0.999976
0.999598396705311,1,0.999953
0.996559343266874,0,0.960558
0.985940242582029,1,0.999938
0.9848436355149409,1,0.999834
0.9501722941319267,1,0.999974
0.901645279233244,1,0.999904
0.9248722746461885,1,0.999949
0.9660437714034414,1,0.999976
0.662397454059644,1,0.999975
0.9150339552021621,1,0.999938
0.917226856393726,1,0.999770
0.9941922920936482,1,0.999976
0.9919617430661868,1,0.999977
0.9932542208409325,1,0.999954
0.9910204567270334,0,0.995151
0.9658436016324623,1,0.999964
0.941750650000183,1,0.999964
0.6971895694646071,1,0.999948
0.6683529994110549,0,0.974532
0.7043512673199221,1,0.999907
0.4609657113907357,1,0.999949
0.556809143084492,1,0.999828
0.8433933054705538,1,0.999960
0.980861246566447,0,0.990646
0.85646194701719,1,0.999961
0.9826972953956604,1,0.999930
0.9928243526441882,1,0.999977
0.9880722452690424,1,0.999953
0.9962741939047363,1,0.999977
0.9924749268987891,1,0.999930
0.9273399676671213,1,0.999961
0.9529444649441678,0,0.997583
0.9918619341325612,1,0.999973
0.9826306176763936,1,0.999950
0.9482584548253502,1,0.999955
0.8853130760544418,1,0.999955
0.8853130760544418,1,0.996885
0.8641416117179944,1,0.999935
0.8396682994133234,1,0.999873
0.4280171853819678,1,0.999957
0.5967697025332908,0,0.999250
0.9413862208172267,0,0.999063
0.9528029080099605,1,0.999971
0.9941944942058869,0,0.998217
0.9289140013720594,0,0.992826
0.9497898531623534,1,0.999834
0.9482059201325654,1,0.999944
0.8537167095708323,1,0.999954
0.9633514535483472,1,0.999926
0.9778342091011458,0,0.995161
0.9824900567709023,0,0.999487
0.6477409553315331,1,0.999947
0.9759443990558274,0,0.995927
0.9708075429920523,0,0.999024
0.7206860077624767,1,0.999935
0.9676254820797813,0,0.988449
0.6143456561247523,0,0.996533
0.7025419393294972,1,0.999907
0.9364198441152036,1,0.999955
0.9832163573705127,1,0.999953
0.40611335784569846,1,0.999951
0.7633911241352558,0,0.998958
0.7530407054627984,1,0.999729
0.7354627566592962,0,0.993277
0.7332142914920416,0,0.992695
0.7238367866134735,1,0.999925
0.7147815123290133,1,0.999943
0.6982684068681286,1,0.999818
0.6753162840612357,1,0.999817
0.6538188519393477,1,0.999576
0.3132422320422374,0,0.999323
0.41788917225759314,0,0.989918
0.4138769959219792,1,0.999815
0.46907443597194565,1,0.999867
0.46358724826712977,0,0.996498
0.46900067799397943,1,0.999781
0.586449170772914,0,0.982576
0.5725172051751432,1,0.999272
0.5517127160118845,0,0.962174
0.6638070259232015,0,0.999133
0.6319310204578965,0,0.979112
0.762320900475399,1,0.999932
0.7281222437831341,1,0.999938
0.6605632269217858,1,0.999965
0.6421837679946807,0,0.996435
0.666699921072814,1,0.999968
0.47764317472608275,0,0.911953
0.9954218477221566,0,0.998153
0.7601073150594113,1,0.999972
0.7203103245624264,0,0.936227
0.7039420631283259,0,0.979836
0.9365431774939494,1,0.999766
0.971368673000188,1,0.999757
0.9411679070490188,0,0.999480
0.8916469814611159,0,0.989304
0.9976151053794156,1,0.999882
0.9967227619819179,1,0.999945
0.8299647336626497,1,0.999894
0.686171373355581,0,0.975365
0.9755127504830197,1,0.999969
0.9910091261698489,0,0.997632
0.9796638616947733,0,0.996094
0.9797943960716284,0,0.998304
0.9978622711857489,1,0.999803
0.9882692807887594,0,0.994787
0.9935361293781492,1,0.999954
0.9100184810599009,1,0.999956
0.9505116208379887,1,0.999938
0.8530776456681474,0,0.997496
0.9877693592233413,1,0.999954
0.8505047802570712,0,0.989371
0.9961747841478499,1,0.999959
0.9926233399293338,1,0.999775
0.9977152355270471,1,0.999959
0.9071999560353755,1,0.999802
0.8747352656353318,1,0.999969
0.9834110318520919,1,0.999976
0.9817963306220724,1,0.999937
0.9951462289532338,1,0.999977
0.9857194228661038,1,0.999667
0.9453164339898317,1,0.999961
0.9837829395129953,1,0.999975
0.9864531876853099,1,0.999843
0.9975046044518393,1,0.999972
0.989466114321226,1,0.999972
0.9817851870092292,1,0.999970
0.8591205769667019,1,0.999676
0.8476703099313379,1,0.999969
0.8162400437949465,1,0.999971
0.7585572699390472,1,0.999792
0.7240554425302923,1,0.999941
0.7022855375316307,0,0.987793
0.523907208988191,0,0.998782
0.6365546224217676,1,0.999954
0.7327420837196734,1,0.999967
0.8055893696213294,1,0.999925
0.8512008266020452,1,0.999953
0.8601596547243064,0,0.993629
0.8432074656759972,1,0.999878
0.863736688645817,1,0.999941
0.877715948135628,1,0.999782
0.8954624914559212,1,0.999882
0.8988519059665614,1,0.999966
0.8977046288745956,1,0.999933
0.8959301295374397,1,0.999869
0.8962139253062426,0,0.947433
0.9066597916748328,0,0.965301
0.8752333891678317,0,0.999146
0.8813200021715772,1,0.999970
0.8884875921909536,0,0.987270
0.8935294654090963,0,0.999424
0.8890461366729423,1,0.999927
0.8722190587136402,1,0.999873
0.8392387930470923,1,0.999907
0.4639189590773249,1,0.999924
0.45022309394236004,1,0.999901
0.4460995696996922,1,0.999856
0.4340914654887678,1,0.999778
0.48620523325419107,1,0.999602
0.5758232471135803,1,0.999933
0.6157122158793943,1,0.999726
0.6517891255315579,1,0.999910
0.5192375802050159,1,0.999857
0.5128885346278997,1,0.999859
0.6551513512336522,1,0.999857
0.5833749244171286,1,0.999857
0.5620503365621188,1,0.999645
0.4784970704757494,1,0.999924
0.736811843127288,1,0.999948
0.8325372123778138,0,0.999175
0.8625796867267506,1,0.999974
0.822912463289406,1,0.999958
0.5537137233766439,0,0.999088
0.847262917619188,1,0.999858
0.2878974091484708,1,0.999954
0.9014925990832183,0,0.931083
0.9918090687364951,0,0.999282
0.9476234189733679,0,0.998542
0.9449599715084238,0,0.999679
0.9489486293527611,0,0.998714
0.9428403868196343,1,0.999888
0.9244942481371025,0,0.910666
0.9071995849677208,0,0.987755
0.8767687091621801,0,0.989268
0.8645660253421085,1,0.999779
0.8454997983683414,1,0.999950
0.8219570379278872,1,0.999946
0.8279450564227626,1,0.999965
0.8198648998625043,1,0.999927
0.8268234825833071,0,0.997580
0.8056550919191151,0,0.999121
0.7965325833278118,0,0.922236
0.7420787761673084,0,0.993485
0.6085671737097559,1,0.999902
0.7631320692239314,1,0.999972
0.9505133086897771,1,0.999938
0.9458494599835318,1,0.999812
0.9130082873088057,1,0.999864
0.8454081371016603,1,0.999942
0.7748102540043429,0,0.998900
0.35242243841401727,0,0.999704
0.9913815556741429,1,0.999937
0.9833595858137443,1,0.999978
0.8427146394027829,0,0.975768
0.9875922236431975,1,0.999977
0.9408233130637025,1,0.999950
0.8630758745040494,1,0.999710
0.9764590006022326,1,0.999879
0.9699200670843116,0,0.993752
0.7703302730139643,0,0.994483
0.7167166365158495,0,0.996143
0.6179247564672087,1,0.999876
0.8191340447764289,1,0.999964
0.8598621888038271,1,0.999970
0.8855656474048937,1,0.999909
0.7931335448375924,0,0.999307
0.8305376951532868,1,0.999943
0.933756751751388,1,0.999920
0.9298615190115692,1,0.999924
0.9212469530365632,1,0.999968
0.5422960284257752,1,0.999950
0.6892144836234119,1,0.999974
0.7659625550412601,1,0.999962
0.8005348190029175,1,0.999927
0.7742496628664172,1,0.999865
0.5157379342247823,1,0.999907
0.4879327394088097,1,0.999943
0.47801953363277994,1,0.999850
0.4635870259593855,1,0.999876
0.7157519659709246,1,0.999922
0.7136413955319643,1,0.999928
0.7061784408951796,1,0.999933
0.7696184352027104,1,0.999948
0.7474413783965798,1,0.999974
0.7474413783965798,1,0.999855
0.7313707113701093,1,0.999733
0.9809846018107886,1,0.999893
0.9780240701861199,0,0.999369
0.8197208730939679,0,0.984778
0.811096070037131,0,0.993205
0.9656416092282877,0,0.987241
0.8901015957044233,1,0.999950
0.8910395750715236,1,0.999847
0.9603519156821297,1,0.999741
0.8645778156009798,1,0.999960
0.7983686680367664,1,0.999948
0.8177703031963803,1,0.999972
0.8615248330905084,1,0.999951
0.8443466553787032,0,0.985912
0.8830209834549732,1,0.999949
0.8460042102168684,1,0.999852
0.8428555997945746,0,0.985833
0.7117403727260473,0,0.957335
0.9047021680342843,0,0.989151
0.34690395933740725,1,0.999825
0.9931703166766567,0,0.993360
0.9863198443371636,0,0.983431
0.9735190889927046,1,0.999969
0.7343278814978224,0,0.998017
0.9925434501711136,1,0.999930
0.9767325653413613,1,0.999916
0.9805850089849817,0,0.982911
0.9391569905041692,0,0.999469
0.9717221813025712,0,0.973089
0.9932528115330391,1,0.999978
0.9841125846322109,1,0.999956
0.9947474915011221,1,0.999978
0.9715497911153629,1,0.999975
0.9543110184463786,0,0.999605
0.8590399474122467,1,0.999966
0.8314233462930417,1,0.999966
0.9789086511612433,1,0.999970
0.9950134668545956,1,0.999765
0.9781607279216753,0,0.997556
0.5472916453454916,1,0.999936
0.9932208304540407,1,0.999947
0.9378745193604349,1,0.999950
0.9929590571564278,1,0.999932
0.5828827659462367,0,0.999182
0.6226364926995549,1,0.999957
0.6915394489719284,1,0.999891
0.6638476684892963,1,0.997886
0.7324295032308654,1,0.999734
0.7836270682645852,1,0.999913
0.9655367394456764,1,0.999930
0.9580735891595381,1,0.999922
0.9485827481881698,1,0.999934
0.9485706984828268,1,0.999926
0.9495370606163243,1,0.999905
0.9286104059914181,1,0.999929
0.927349341143638,1,0.999922
0.8195160071301735,1,0.999905
0.8494291130892124,0,0.990975
0.8191057665520733,1,0.999950
0.8201005133821654,1,0.999946
0.8306347348955899,1,0.999940
0.8522235842342716,0,0.965159
0.8522235842342716,1,0.999225
0.8623002974437413,1,0.999791
0.8384533776279945,1,0.999875
0.8522424585182001,1,0.999928
0.8690425123798492,1,0.999916
0.8789498615684432,1,0.999936
0.8865737377591416,1,0.999950
0.8855527656471661,0,0.991080
0.8527069055160961,0,0.980518
0.8718191869538128,1,0.999835
0.8816680876816906,0,0.965050
0.8816680876816906,1,0.999022
0.8937740618997407,1,0.999871
0.8591403479713934,0,0.998050
0.8768530316474004,1,0.999783
0.8807372752350919,0,0.964528
0.8908945800034594,0,0.920491
0.8887869869252101,1,0.999783
0.8549029732365618,0,0.924838
0.8771869977649065,1,0.999973
0.8935117486609844,0,0.994601
0.8935117486609844,1,0.999588
0.987162610143211,1,0.999948
0.9866634139283907,1,0.999942
0.9852548273681363,1,0.999940
0.9824398558100617,1,0.999938
0.977858007805618,1,0.999937
0.9683680673871978,1,0.999926
0.9641659367310405,1,0.999906
0.8451626835708481,1,0.999909
0.8480670045015972,1,0.999890
0.8505410637547378,1,0.999879
0.8543354648108292,0,0.989049
0.8636713002319967,1,0.999888
0.8910517648547804,1,0.999932
0.9389269222615461,1,0.999824
0.7370644517986418,1,0.999903
0.7497571727049102,1,0.999947
0.7950810074536115,0,0.999510
0.8126436702721269,1,0.999836
0.8305923678287596,1,0.999854
0.9087940050801626,1,0.999843
0.8588069624957456,1,0.999851
0.9974634096941581,1,0.999905
0.9995274658195366,1,0.999954
0.9992550344170972,1,0.999955
0.9891653893265084,1,0.999957
0.9902312812828419,1,0.999915
0.9990153143510314,1,0.999958
0.9917328312788558,1,0.999964
0.9855177843147079,1,0.999969
0.9137649433831689,1,0.999947
0.9949984713893573,1,0.999976
0.9868869734634763,1,0.999976
0.9690780083957236,0,0.999640
0.9925165247345129,1,0.999977
0.9835017096767205,1,0.999960
0.9623498922588534,1,0.999933
0.9886157391374102,1,0.999965
0.9804198910480728,1,0.999967
0.9388258559244865,1,0.999956
0.9678660608862948,1,0.999965
0.9553180110218655,1,0.999924
0.9385579424978393,1,0.999946
0.9331996746549792,1,0.999976
0.9216243724661237,1,0.999962
0.8361459168798857,1,0.999938
0.9909042229747319,1,0.999959
0.9461883565851223,1,0.999971
0.9767813483360883,0,0.974892
0.9601312650908747,0,0.974893
0.646068833169219,1,0.999970
0.8300148561896236,1,0.999959
0.803204649454511,1,0.999945
0.702085608037301,0,0.969325
0.732082452146361,1,0.999950
0.6527167038869797,1,0.999907
0.3733899098515542,1,0.999908
0.6082481992665637,1,0.999908
0.8513716019996864,0,0.957898
0.8385537760142612,0,0.991188
0.8847770430272595,1,0.999920
0.9821263771819347,1,0.999973
0.9779259811145463,1,0.999951
0.9682772484563428,1,0.999935
0.9429152829267696,0,0.985947
0.9583257551023173,1,0.999939
0.891768811457927,1,0.999924
0.9175792656301468,1,0.999962
0.8558645695603658,0,0.986951
0.8455747954408207,1,0.999924
0.9387563059088709,1,0.999937
0.756678404450902,1,0.999942
0.9750797053474759,1,0.999951
0.9966246650485426,1,0.999959
0.9957351354769813,1,0.999978
0.9882749489602136,0,0.977942
0.9835891095273298,1,0.999946
0.962520794218735,0,0.975534
0.9979324882008465,1,0.999958
0.9915993743305954,1,0.999958
0.9806465979505974,1,0.999915
0.9931250211922545,1,0.999958
0.954667910797307,1,0.999972
0.9808056343765409,1,0.999908
0.9712215561172987,1,0.999949
0.99374504204646,1,0.999977
0.9176275521770618,1,0.999966
0.9057924243178354,1,0.999928
0.9556472195652518,1,0.999959
0.997871835975927,1,0.999768
0.9966323365474373,1,0.999784
0.9536347243408093,1,0.999976
0.9707417459113445,1,0.999976
0.9932570000901184,1,0.999977
0.9916493024024489,1,0.999977
0.9749413270946601,1,0.999975
0.9963618268929327,1,0.999929
0.9808465674800801,1,0.999952
0.9930952519958839,1,0.999977
0.8720062081452773,1,0.999971
0.8405255326784908,1,0.999890
0.7496936126817523,1,0.999944
0.9831648596920308,1,0.999950
0.9756999220913734,1,0.999956
0.9965007753041265,1,0.999947
0.9985335296689615,1,0.999932
0.9862106639356045,1,0.999954
0.9594043813848091,0,0.969855
0.9296524866097068,1,0.999909
0.9816551227567826,1,0.999919
0.969081513501135,1,0.999952
0.9724973425898527,1,0.999925
0.9448781247741548,0,0.999220
0.9435431155745297,1,0.999923
0.7453918652975974,1,0.999926
0.9892773449479088,1,0.999054
0.9884266672078188,1,0.999787
0.9877844924179173,1,0.999827
0.9842034128667491,1,0.999865
0.9691751345909265,1,0.999842
0.994000309867112,1,0.999853
0.8643611419559541,1,0.999882
0.8678818471212445,1,0.999793
0.8761409516871995,1,0.999947
0.8761409516871995,1,0.999677
0.8734875045102642,1,0.999840
0.902940823284514,1,0.999785
0.8200527707106136,0,0.988575
0.9980714745731631,0,0.959067
0.9966847937413474,1,0.999904
0.9361034704653278,1,0.999925
0.9323013106801674,1,0.999910
0.9993645880727561,1,0.999855
0.9894610015061915,1,0.999800
0.9990093046852367,0,0.987747
0.9849277522936309,1,0.999892
0.9965656739316083,1,0.999952
0.9623278993524849,0,0.994130
0.9843845739038499,1,0.999969
0.9886220093133885,1,0.999968
0.9970790241084401,1,0.999969
0.9927250012717999,1,0.999968
0.9948749142603038,1,0.999969
0.9957778334320923,1,0.999968
0.9931375860718975,1,0.999955
0.9731996218425357,1,0.999957
0.8565820582169629,1,0.999961
0.982473141157264,1,0.999860
0.9603211801751855,1,0.999876
0.9986348888998368,1,0.999859
0.9987471630309598,1,0.999927
0.7091306450745141,1,0.999976
0.9961755937904221,1,0.999973
0.9978579023678752,1,0.999977
0.9939201556785031,1,0.999933
0.9552941921477776,1,0.999962
0.986544604205566,1,0.999976
0.9620448381216201,1,0.999907
0.9937898209560255,1,0.999952
0.9513824164577646,1,0.999961
0.9821100046441352,1,0.999963
0.9888693565112571,1,0.999956
0.9804348049865869,1,0.999949
0.9056494498888793,1,0.999889
0.9608543315748681,1,0.999963
0.9340654252768394,0,0.999481
0.9909802552238177,1,0.999977
0.9792818019938316,1,0.999970
0.9207953181630041,1,0.999923
0.9890844026727125,1,0.999965
0.874463073908683,0,0.999505
0.9915588193278047,1,0.999975
0.78636690770086,1,0.999962
0.9534442952774409,1,0.999808
0.8951877128324315,1,0.999934
0.9935413990071342,1,0.999969
0.9957179479239692,1,0.999970
0.9908959497906066,1,0.999795
0.9718596300834231,1,0.999970
0.9909250917502841,1,0.999926
0.9942150559112244,1,0.999977
0.941207155039329,0,0.999388
0.792060472543892,1,0.999959
0.902275209652893,1,0.999926
0.95722181319249,1,0.999965
0.955043663754592,1,0.999950
0.9392348350307643,1,0.999946
0.5092106734648186,1,0.999947
0.3575529367999275,0,0.999635
0.6935922591239537,1,0.999961
0.8448217092366579,1,0.999931
0.7822104919252394,1,0.999866
0.9800961996832879,0,0.992928
0.9936480960274314,1,0.999908
0.9481925282912385,1,0.999934
0.9943152313239763,1,0.999968
0.9847753689519151,1,0.999966
0.9824349771357139,1,0.999970
0.9072330184727109,1,0.999925
0.9812963074553694,1,0.999948
0.978111334358578,0,0.998977
0.9855206582972009,1,0.999926
0.9863375799006237,0,0.999291
0.886493382524967,0,0.997810
0.9956561102334359,1,0.999935
0.9402992323348492,1,0.999962
0.9369454904037685,1,0.999965
0.8981025004728347,0,0.998499
0.9938787191654223,1,0.999941
0.9792598627325207,1,0.999971
0.900470572249424,1,0.999778
0.8504487926036228,1,0.999958
0.9874495387241444,1,0.999963
0.7299972851642743,1,0.999961
0.9907283447021119,1,0.999930
0.9905582159367542,1,0.999929
0.9964069059041185,1,0.999931
0.9921421178127253,1,0.999859
0.935716105964897,1,0.999765
0.9361476935391699,1,0.999944
0.9801659500837615,1,0.999925
0.9922387561952267,1,0.999975
0.9593388864522269,0,0.976113
0.94604749882086,1,0.999936
0.9224212848944802,1,0.999953
0.5908961354014381,1,0.999939
0.7113579879103813,0,0.987655
0.6683651544495581,1,0.999657
0.581145277786299,1,0.999976
0.9959872515642778,1,0.999970
0.9906853167085802,1,0.999927
0.9909414450273654,1,0.999919
0.9930586834000017,1,0.999971
0.7912045673824897,1,0.999967
0.9573885388417117,1,0.999973
0.9341583747889313,1,0.999971
0.9907442696768423,0,0.999458
0.8647078649126435,1,0.999934
0.9937013049410214,1,0.999955
0.9909106272734848,1,0.999954
0.9797062998002057,1,0.999908
0.9967987742482888,1,0.999975
0.9938826410129366,1,0.999975
0.9985215538833372,1,0.999978
0.9980695100195441,1,0.999975
0.9986580986130964,1,0.999898
0.8343810463156704,1,0.999957
0.891867198640718,1,0.999962
0.8691799537205318,1,0.999939
0.810876680002477,0,0.999305
0.9823450644966493,1,0.999929
0.934942526191018,1,0.999940
0.8678188250515669,1,0.999936
0.40579213350403054,1,0.999903
0.9977185889507598,1,0.999934
0.9612545209472865,1,0.999927
0.8034334817085506,1,0.999951
0.888013766221347,1,0.999826
0.8274805409348215,1,0.999787
0.7191247977874763,1,0.999854
0.676048897938406,1,0.999925
0.6143080912009216,0,0.998660
0.9667538286038668,1,0.999897
0.5668363770077105,0,0.994183
0.9300831042065869,1,0.999966
0.9881232963403875,1,0.999973
0.896154958397783,0,0.998007
0.9843833475604984,0,0.999623
0.7720914793862579,1,0.999916
0.7449758780895894,1,0.999861
0.4281996851732251,0,0.988828
0.5401709420554421,0,0.989957
0.6027728812193127,1,0.999819
0.7356389205605514,1,0.999858
0.7615576164797149,1,0.999889
0.9767394581691978,1,0.999604
0.5487986326824243,0,0.999069
0.999292461184267,1,0.999965
0.9242440787018312,0,0.998297
0.6397289517622856,0,0.972757
0.9648037789077932,1,0.999937
0.832593372833348,0,0.999005
0.5487677016403556,1,0.999735
0.6485469564187223,1,0.999883
0.55525245522758,0,0.959041
0.376525954340896,0,0.989226
0.4343261648384525,1,0.999781
0.8592296407532583,0,0.991106
0.5847417730333184,1,0.999690
0.9689229904120076,1,0.999964
0.42395241808785494,0,0.963544
0.8612842808880683,1,0.999821
0.8584432666339464,0,0.953354
0.9584736441488296,1,0.999960
0.9828416543623891,0,0.968956
0.5282300080663942,1,0.999784
0.9981442936689803,1,0.999964
0.98813791935465,1,0.999929
0.9965803753155843,1,0.999964
0.995926062652443,1,0.999930
0.9688352176442768,0,0.999615
0.9785087795447215,0,0.995451
0.8258004478080759,0,0.985753
0.9955445920706506,1,0.999946
0.9961206639288006,1,0.999977
0.994426813898314,1,0.999943
0.9979926116479676,1,0.999977
0.9960753436210081,1,0.999826
0.9415471742954189,1,0.999937
0.9714190277523431,1,0.999954
0.9475084561295907,1,0.999961
0.9378653237539386,1,0.999957
0.9679412215882316,1,0.999910
0.9346477779861525,1,0.999897
0.9061812004605796,1,0.999944
0.9923854001887392,1,0.999934
0.9909013095345072,1,0.999766
0.9958408721472809,1,0.999953
0.9986276151383393,1,0.999952
0.9959420496578161,1,0.999952
0.9941418785712044,1,0.999907
0.9963875818474937,1,0.999953
0.9682543860046093,1,0.999974
0.9937001350600477,1,0.999976
0.9927568664653648,1,0.999977
0.9739418114648822,1,0.999955
0.937618880123035,1,0.999962
0.9281867739775415,1,0.999726
0.8469928377992357,1,0.999939
0.9933481346224231,1,0.999879
0.9800088589640429,1,0.999901
0.9834970423920311,1,0.999966
0.9694183093836172,1,0.999950
0.9262377089008832,1,0.999947
0.8773481738037119,1,0.999973
0.8926383035187494,1,0.999891
0.9980976888388835,1,0.999973
0.9940338283632134,1,0.999976
0.9967151924611497,1,0.999881
0.9986373921278272,0,0.994601
0.9649748950227302,1,0.999965
0.806025672826177,1,0.999937
0.9796257369125815,1,0.999914
0.8343261913894124,1,0.999946
0.9162636744094664,0,0.999142
0.3629598466261195,1,0.999942
0.6037101245117287,1,0.999664
0.9870430923000522,1,0.999926
0.9378325311771912,1,0.999751
0.8890713227834276,1,0.999852
0.8756842484084174,1,0.999869
0.9384393800919343,1,0.999865
0.9929971893364185,1,0.999691
0.9967154095574183,1,0.999937
0.9948642733129889,1,0.999804
0.996838100953078,1,0.999937
0.9982756124614734,1,0.999937
0.997730113339204,1,0.999747
0.991893363944637,1,0.999915
0.9921689887439125,1,0.999733
0.9802989912017118,1,0.999873
0.9982517087878608,1,0.999873
0.9962173872762068,1,0.999935
0.9898365312374506,0,0.998676
0.9945286844403897,1,0.999936
0.9943482443097442,1,0.999875
0.9924989574766548,1,0.999907
0.964876293997925,1,0.999883
0.9945770871975512,0,0.999461
0.9952471836722844,1,0.999976
0.9993433902754346,1,0.999977
0.9989312071240374,1,0.999951
0.9972084784877397,1,0.999976
0.9946718191008693,1,0.999952
0.9920554240987514,1,0.999976
0.9923975185311881,1,0.999976
0.9936211159354694,1,0.999976
0.9977419100753192,1,0.999952
0.9966738922142293,1,0.999953
0.9941799228151567,1,0.999976
0.9074660394533837,1,0.999957
0.9625627878886074,1,0.999937
0.9093674163510068,1,0.999913
0.974568758799631,1,0.999948
0.821478820442057,1,0.999682
0.5181177347783044,1,0.999749
0.7435328862433375,1,0.999821
0.9916269934565006,1,0.999690
0.949960692559078,1,0.999659
0.9971114157611476,1,0.999695
0.9955431674056312,1,0.999701
0.9733387092029022,1,0.999746
0.9070354454611343,1,0.999854
0.9621876317986783,1,0.999871
0.9899200078016961,1,0.999867
0.973186822055565,1,0.999861
0.9892281124906421,1,0.999969
0.9785861365272288,1,0.999954
0.9963771317619522,0,0.966841
0.9407785489686028,1,0.999606
0.7718651522721508,1,0.999944
0.7711723286956051,1,0.999967
0.9964857697100691,1,0.999954
0.9855069861882806,0,0.999459
0.9767648162303597,1,0.999951
0.9738958450948544,1,0.999829
0.811304844505725,1,0.999946
0.7988514531514487,1,0.999959
0.9194104421488791,1,0.999760
0.9295337294870897,1,0.999945
0.8695800288893724,1,0.999974
0.9775851283771854,1,0.999928
0.7032718788442118,1,0.999963
0.6977413781172586,1,0.999892
0.693123946615804,1,0.998195
0.6801278592415153,1,0.999728
0.6576276411707126,1,0.999821
0.9748979334462077,1,0.999944
0.7877394661490429,1,0.999955
0.9977761678764315,1,0.999973
0.9872170844308216,1,0.999974
0.993814225054244,0,0.999062
0.9656878348425946,1,0.999944
0.9880814796353584,1,0.999944
0.9702687174851314,1,0.999975
0.9891086698234733,1,0.999691
0.9876268228626693,1,0.999957
0.9983127354040396,1,0.999946
0.9974658189487492,1,0.999956
0.9980829653803389,1,0.999939
0.9946527255663141,1,0.999939
0.7564013428504125,1,0.999790
0.7327100613258221,1,0.999805
0.9743520318367368,1,0.999974
0.8928862894832323,1,0.999928
0.9936859934640364,1,0.999917
0.9956425714214583,1,0.999976
0.9385692996659082,1,0.999967
0.9789216441476432,1,0.999881
0.8824093389433919,1,0.999850
0.996286360273347,1,0.999977
0.9835404476659569,1,0.999877
0.9673027287662516,1,0.999975
0.8236994441352543,1,0.999971
0.9869797504774892,1,0.999930
0.9135687147680546,1,0.999950
0.9248580791847312,1,0.999965
0.9497415518867064,1,0.999930
0.9946014492674634,1,0.999919
0.9846988908509324,0,0.999227
0.9980437168264145,1,0.999945
0.9978093096858961,1,0.999919
0.9990200158884242,1,0.999842
0.9983340365568754,1,0.999946
0.9970658740563779,1,0.999945
0.9981160471595399,1,0.999945
0.9983245391919529,1,0.999843
0.9991232726464186,0,0.998868
0.9991872041651432,1,0.999871
0.9963901985448329,1,0.999974
0.9990897145631665,1,0.999919
0.9991137001313045,1,0.999974
0.9977111402396442,1,0.999922
0.9983001841737745,1,0.999974
0.9985626060238809,0,0.999635
0.9997138329673998,1,0.999974
0.9461762420174856,1,0.999973
0.9730283838753201,1,0.999873
0.9948399901990931,1,0.999969
0.8855593713906617,1,0.999962
0.9942984104956097,1,0.999886
0.9924644349180479,1,0.999972
0.9106719099001781,1,0.999962
0.8795735218273967,1,0.999927
0.934857316938321,1,0.999944
0.772875901203535,1,0.999932
0.9233700434834589,1,0.999964
0.8953183715080174,1,0.999902
0.7384122823915591,1,0.999930
0.81896420794019,1,0.999936
0.9561241926334388,1,0.999923
0.95196810708075,1,0.999935
0.8604991309898207,1,0.999925
0.5446667010125495,1,0.999935
0.6294667191289994,1,0.999932
0.9369237853469994,1,0.999931
0.9606922383276862,1,0.999930
0.8897040989982817,0,0.998955
0.894127537335662,0,0.998953
0.6426858519477497,1,0.999923
0.9946262176386396,1,0.999933
0.9634566290091472,1,0.999828
0.9923336229099411,1,0.999943
0.9294226975719688,1,0.999976
0.9166203628269541,0,0.999560
0.9870633838227403,0,0.998593
0.985256672467167,1,0.999966
0.8625439752377289,0,0.998922
0.6763080981118849,0,0.999550
0.9708493723662234,1,0.999928
0.9597815789785822,1,0.999621
0.998224861250753,1,0.999969
0.9859963604165076,1,0.999684
0.9882986293701771,1,0.999931
0.9609269676997664,1,0.999963
0.9744783591098966,1,0.999968
0.9923523616800333,1,0.999745
0.990393375415153,1,0.999975
0.9904359329250979,1,0.999956
0.9966233424763903,1,0.999955
0.9963189367345934,1,0.999977
0.9874189574307488,1,0.999945
0.9479550461800309,0,0.999118
0.9125158494942616,1,0.999894
0.9983406654394736,1,0.999949
0.9783300267701883,0,0.999729
0.972608046817586,1,0.999939
0.9968213285521832,1,0.999966
0.9955452339658395,1,0.999932
0.9783259950280571,0,0.998735
0.9952281518687978,1,0.999903
0.9971306211596115,1,0.999976
0.9979546309877136,1,0.999930
0.9986182379178339,1,0.999906
0.9629769372474173,1,0.999938
0.9668431128267285,1,0.999652
0.741078384020958,1,0.999946
0.7566049486894566,1,0.999941
0.9315076831690957,1,0.999947
0.9702400621438874,1,0.999527
0.9587914157761892,1,0.999954
0.9338140206967093,0,0.986346
0.3410979806167073,1,0.999803
0.967021683864242,1,0.999969
0.791402438839752,0,0.998476
0.9972910399671406,1,0.999970
0.7612141636559125,1,0.999829
0.9973706444919569,1,0.999970
0.9964818846969502,1,0.999950
0.9715544785249399,0,0.959312
0.9818578855330816,1,0.999210
0.9728847223050343,1,0.999808
0.7793577899356933,0,0.993014
0.9956804791519002,1,0.999803
0.9554005611714894,1,0.999974
0.9961654827797366,1,0.999974
0.8044826684351833,0,0.982229
0.8116336260766513,1,0.999896
0.8809766002773802,1,0.999925
0.9959006979691775,1,0.999953
0.7045530937709124,0,0.997229
0.6534926052941329,1,0.999975
0.9986995943394147,0,0.998162
0.9810501498793001,1,0.999964
0.9892524336815369,0,0.987657
0.896417076912539,1,0.999945
0.9991470759842328,1,0.999956
0.9949595783422521,1,0.999875
0.9991035718779879,1,0.999955
0.9937011773610052,1,0.999976
0.8913763231571615,0,0.989400
0.9572366989847217,1,0.999930
0.9980439459127581,1,0.999960
0.9994541047579185,1,0.999960
0.9973786689523151,1,0.999951
0.9313191852467197,1,0.999962
0.936902467001077,0,0.999440
0.9692683621205422,1,0.999788
0.9448822768724876,1,0.999926
0.99699805045952,1,0.999974
0.9954383562089071,1,0.999954
0.9892283380955722,1,0.999945
0.9361019440893309,1,0.999974
0.9145652104132019,1,0.999872
0.9318842863841236,1,0.999871
0.9949472720098926,1,0.999890
0.989667619869609,1,0.999909
0.9984272920055404,1,0.999806
0.9989439437045156,1,0.999912
0.9939929389876806,0,0.962844
0.9007314019638818,1,0.999952
0.644071618507163,1,0.999962
0.9326176295857029,1,0.999959
0.9644644111316723,0,0.972032
0.7887831627766917,0,0.999666
0.7722212523416954,1,0.999925
0.7493917215839928,1,0.999864
0.9746254498845855,1,0.999977
0.9963164006939949,1,0.999977
0.943243785706284,1,0.999977
0.9845900099438557,1,0.999978
0.9963469936799055,1,0.999965
0.9871204529054571,1,0.999855
0.9760448870153584,1,0.999942
0.8409378201106887,1,0.999943
0.9818335304767165,1,0.999915
0.9790009712982173,1,0.999867
0.9842522296212465,1,0.999944
0.9860747217466624,1,0.999856
0.9895611177822176,1,0.999948
0.8565369362952082,1,0.999943
0.9062727549986553,1,0.999934
0.9978590379515068,0,0.999537
0.9955310815717425,1,0.999976
0.9971045217140077,1,0.999954
0.9811865061676099,1,0.999883
0.995406544361836,1,0.999977
0.9555817921401387,1,0.999977
0.9956163717088965,1,0.999977
0.9890510989877329,1,0.999977
0.9871528689425894,1,0.999977
0.9992740104199296,1,0.999977
0.9955923748152375,1,0.999954
0.9912285383784154,1,0.999977
0.9818573366449251,1,0.999974
0.995674672558424,1,0.999969
0.9989243540979503,1,0.999941
0.9850777982785858,1,0.999971
0.9986511363792977,1,0.999972
0.9968941119982856,1,0.999969
0.9968675944265212,1,0.999969
0.9960929897420537,1,0.999969
0.9994429243730373,1,0.999938
0.9982797543938612,1,0.999969
0.9926607507641337,1,0.999939
0.992714411446497,1,0.999976
0.9933605276575301,1,0.999976
0.9958720577202664,1,0.999952
0.991768028916391,1,0.999976
0.9965250411723091,1,0.999928
0.945435122207243,1,0.999963
0.906500067609277,1,0.999953
0.9760480219593012,1,0.999970
0.9835036305760545,1,0.999960
0.9971566325953061,1,0.999947
0.9943522492548845,1,0.999961
0.9359377695295279,1,0.999969
0.9949241493766703,1,0.999977
0.9928078476685291,1,0.999930
0.9282795416505052,1,0.999938
0.7549034395425818,1,0.999872
0.7608446554873886,1,0.999909
0.9500897535862509,1,0.999916
0.9317324167670753,1,0.999941
0.9665168633533939,1,0.999867
0.9972133347486065,1,0.999969
0.9973067739132851,1,0.999900
0.9952985813074126,1,0.999967
0.9943452287547151,1,0.999760
0.9928552673701496,1,0.999951
0.9962266534052967,1,0.999976
0.9984163004914861,1,0.999974
0.9938785926388065,1,0.999977
0.9689960165308761,1,0.999952
0.9065459389065839,1,0.999974
0.9688757176591235,1,0.999950
0.9312317455097218,1,0.999972
0.9743747489728216,0,0.999391
0.9980118892890508,1,0.999975
0.992261392947766,1,0.999974
0.9947806502540929,0,0.999677
0.993748143809236,0,0.990717
0.9946798103685136,1,0.999977
0.9789420126568915,1,0.999931
0.9534418720222301,1,0.999970
0.6943391877197626,1,0.999924
0.9934703291221854,1,0.999968
0.981013875233262,1,0.999968
0.9788264361753358,0,0.996729
0.9947729394294356,1,0.999977
0.9952482216954559,1,0.999977
0.9757669706895412,1,0.999930
0.9975208529897166,1,0.999977
0.9676735774809834,1,0.999965
0.9958984819863996,1,0.999913
0.9975979244823878,1,0.999971
0.9927452115186509,1,0.999798
0.997679520160679,0,0.999566
0.997262143960135,1,0.999800
0.9689143472353984,1,0.999968
0.831332183871688,1,0.999969
0.989754448666726,1,0.999975
0.9878622591595674,1,0.999975
0.8361786855798595,1,0.999820
0.9937381672364782,1,0.999964
0.9543773982952898,1,0.999760
0.9380921518344221,1,0.999964
0.8333810024799756,1,0.999964
0.9579180327348057,0,0.999582
0.9903931964330543,1,0.999902
0.9582747593999117,1,0.999930
0.993236392109206,1,0.999973
0.9979845022377651,1,0.999968
0.9615535486240425,1,0.999612
0.9978442628266314,1,0.999968
0.9917563529957151,1,0.999955
0.9886800065030921,1,0.999931
0.9883545466695459,1,0.999954
0.9749082128447838,1,0.999977
0.8809708088320688,1,0.999960
0.9714006040538979,0,0.999442
0.9227102377846961,1,0.999952
0.9835998354213908,1,0.999969
0.9744159377998793,0,0.997937
0.9610995681230392,1,0.999793
0.9855367196977053,1,0.999974
0.9521900628297763,1,0.999968
0.9640136081324027,1,0.999958
0.9921568414630342,0,0.999509
0.9442274877603278,0,0.998910
0.9933856327626784,1,0.999969
0.9647300764261938,1,0.999957
0.9200080200581162,1,0.999944
0.9985217423859453,1,0.999939
0.9965523291181105,1,0.999910
0.9869026498317581,1,0.999964
0.9776933514290838,1,0.999829
0.8500269666943995,1,0.999933
0.9860623702020189,1,0.999815
0.9906532734756017,1,0.999937
0.861997032451159,0,0.998757
0.9911221514446318,1,0.999875
0.9942960019390443,1,0.999938
0.9864346233388895,1,0.999938
0.9844169974160946,1,0.999938
0.8260316861730699,1,0.999819
0.9978211508079953,1,0.999939
0.9727033877398875,1,0.999937
0.9841669990466182,1,0.999930
0.9958993228926702,1,0.999977
0.9647259529923228,1,0.999953
0.9963019703399089,1,0.999969
0.7478839869922158,1,0.999703
0.9809099214699665,1,0.999881
0.9959262358102061,1,0.999954
0.9983146276139,1,0.999977
0.979609804475946,1,0.999975
0.989845551807003,1,0.999977
0.9959098618515441,1,0.999973
0.9623301727249418,1,0.999958
0.9984948894606133,1,0.999977
0.9975796429751369,1,0.999977
0.9973576478938307,1,0.999886
0.9903508085960424,1,0.999951
0.9718781635637636,1,0.999947
0.8108898002208019,1,0.999960
0.8128418176945732,1,0.999809
0.9984492984834276,1,0.999951
0.993974445202481,1,0.999959
0.9934227110811139,1,0.999938
0.984772729610632,1,0.999940
0.854976726627195,1,0.999961
0.9986305805199511,0,0.993430
0.9916299430906989,1,0.999931
0.9810757642425424,1,0.999954
0.9941222536723684,1,0.999976
0.9872477070902218,1,0.999973
0.7504480130547411,1,0.999949
0.9914957219565437,1,0.999894
0.9790851499897937,1,0.999957
0.9662171488579133,1,0.999943
0.9257858846598758,1,0.999934
0.44171505841399566,1,0.999469
0.9981859006519742,1,0.999948
0.9967582548164337,1,0.999738
0.9986239877289902,1,0.999948
0.983543517825252,1,0.999948
0.9927655538024871,1,0.999897
0.9984989917399975,1,0.999949
0.9934463467940203,1,0.999949
0.9948321586887527,1,0.999949
0.9909626832576234,0,0.999620
0.995860130192657,1,0.999843
0.9903905715507283,1,0.999810
0.9666821915798102,1,0.999942
0.9375175400993977,1,0.999864
0.9566661357833268,1,0.999958
0.8251350946423546,1,0.999889
0.8488922764646274,1,0.999964
0.9081136635100219,1,0.999959
0.8147366346884614,0,0.999570
0.8747621182331213,0,0.999547
0.8545639318685084,1,0.999940
0.9296814477199483,1,0.999911
0.997503941721134,1,0.999970
0.9810437306600261,1,0.999872
0.9898616250228794,1,0.999935
0.9448962919976867,1,0.999942
0.8246884512197004,1,0.999667
0.9956043357971579,1,0.999976
0.9602148205798903,0,0.999102
0.9463180439240553,1,0.999690
0.9939313916241674,1,0.999976
0.8481361264673009,0,0.982319
0.9974924370984771,1,0.999926
0.9982405350717414,1,0.999927
0.9921261373337222,1,0.999902
0.9957740536059747,1,0.999954
0.8529869739664809,0,0.998992
0.711586474341318,0,0.998745
0.690537428683015,1,0.999869
0.8644895177394664,1,0.999941
0.9026056185240519,1,0.999941
0.9743572649318077,1,0.999864
0.9951185614328949,1,0.999963
0.9930356083030418,1,0.999960
0.8138306073151906,1,0.999971
0.824174623566963,1,0.999971
0.9843035786427146,1,0.999967
0.6968186292326292,1,0.999746
0.99741106078423,1,0.999968
0.527215504409022,1,0.999931
0.9642243122738412,1,0.999847
0.8936685429069552,1,0.999790
0.976625274208307,0,0.999692
0.9900226859737974,1,0.999976
0.9595814625192945,1,0.999761
0.994631816179194,1,0.999973
0.9992576114787807,1,0.999973
0.9853627851324949,1,0.999971
0.9929137497133916,1,0.999914
0.9997497165568322,1,0.999971
0.9979838251737482,1,0.999973
0.9419883128344633,1,0.999963
0.9891107100649794,1,0.999976
0.7543755983195604,1,0.999792
0.9438452195918031,1,0.999776
0.9535629827658995,1,0.999671
0.9545454394555988,1,0.999920
0.9602520716919003,1,0.999751
0.9849652040462832,1,0.999742
0.9719949461400496,1,0.999266
0.5085115978716548,1,0.999781
0.9920887842207488,1,0.999973
0.9681227594087183,0,0.998859
0.9949480656902265,1,0.999898
0.9971000966015731,1,0.999977
0.9936129357387163,1,0.999952
0.9930914615295622,1,0.999929
0.9563200075234534,1,0.999869
0.7332049104980366,1,0.999703
0.964493324049725,1,0.999893
0.9289296923118613,1,0.999946
0.783510744978669,1,0.999914
0.9575772966177671,1,0.999958
0.9620770830057773,1,0.999766
0.9906151133247483,1,0.999973
0.9895644070048192,1,0.999835
0.8675759578511416,1,0.999893
0.994545226323622,1,0.999874
0.9948546297309699,0,0.999650
0.9810294960209877,1,0.999941
0.986440455913782,1,0.999974
0.9913040145309536,1,0.999974
0.9966487783225353,1,0.999972
0.9455950997264506,1,0.999812
0.9637290351488084,1,0.999977
0.9619757220980665,1,0.999883
0.9528389268737012,1,0.999973
0.9459702663143946,1,0.999970
0.8984136474640856,1,0.999900
0.9034062208538436,1,0.999917
0.9148575646579571,1,0.999914
0.9214044806356468,0,0.998697
0.9049606867863903,1,0.999787
0.9987438349179858,1,0.999966
0.844282380711508,1,0.999916
0.9944529708838026,1,0.999935
0.9669871701437911,1,0.999905
0.9826737325387512,1,0.999971
0.977531486912558,1,0.999912
0.9983404263501728,1,0.999923
0.9956393263523308,1,0.999909
0.9953826198039989,1,0.999970
0.9966293469852013,1,0.999977
0.9905148527061982,1,0.999977
0.9911884660230449,1,0.999935
0.8767383646123962,1,0.999854
0.9834855847819384,1,0.999866
0.9946959344972429,1,0.999716
0.9966266214346178,1,0.999926
0.930225111216242,0,0.991054
0.9902213881983386,1,0.999833
0.9749438723491677,1,0.999904
0.8872007867774707,1,0.999848
0.8703328568981986,1,0.999953
0.9944943294688754,1,0.999977
0.890023506977335,1,0.999862
0.9267475452098672,1,0.999848
0.9606521902549434,1,0.999972
0.9841540478403261,1,0.999883
0.9985904763011625,1,0.999946
0.9940092344776029,1,0.999974
0.9183330930623922,1,0.999944
0.8702738804229687,1,0.999775
0.8098716022508828,1,0.999851
0.983995417504888,1,0.999942
0.9464472249998307,1,0.999818
0.9405385047115514,1,0.999409
0.8545152013511786,1,0.999866
0.9356848273972365,0,0.998848
0.9822879026073882,1,0.999976
0.9969317927374786,1,0.999952
0.9930790870729312,1,0.999952
0.9935173817569146,1,0.999976
0.9974451388305011,1,0.999976
0.9957421111084857,1,0.999976
0.9934458212091055,1,0.999976
0.984140146812102,1,0.999976
0.9928829761748466,1,0.999930
0.9856502157125064,1,0.999977
0.9931689984536997,1,0.999977
0.9972138014394681,1,0.999976
0.9968560752405917,1,0.999976
0.9943176033671083,1,0.999977
0.9932452959926482,1,0.999976
0.9988840132957936,1,0.999976
0.9944620129424441,1,0.999977
0.9989218426786161,1,0.999971
0.9988577454599085,1,0.999973
0.9976190183945325,1,0.999972
0.9893176210973046,1,0.999917
0.9943190444061639,1,0.999973
0.9982608006255154,1,0.999972
0.9969273636855778,1,0.999973
0.9973593828044596,1,0.999973
0.909744106550356,1,0.999970
0.9557507297934665,1,0.999966
0.9807716480421235,1,0.999932
0.9958793979673054,1,0.999902
0.6712140947464107,1,0.999786
0.7833058299528258,1,0.999924
0.9321505022234842,1,0.999914
0.9699929087125025,1,0.999543
0.9328978130853538,0,0.998377
0.9955588072500723,1,0.999976
0.9627387265868311,1,0.999867
0.972054759787281,1,0.999951
0.9647570861898719,1,0.999667
0.9818571476446605,1,0.999897
0.9943800915401324,1,0.999939
0.9969246287820059,1,0.999942
0.9829061537369373,1,0.999956
0.9876712162009829,1,0.999913
0.9963740742589832,1,0.999977
0.9958065514765717,1,0.999923
0.9500912410684871,0,0.999467
0.7625738313550365,1,0.999945
0.9715930317296925,0,0.999444
0.9905495168104677,1,0.999960
0.9653040358535359,1,0.999977
0.9412141059962664,1,0.999942
0.9348196043009134,1,0.999903
0.9989886510288786,1,0.999976
0.9913793396600432,1,0.999977
0.9977492391659769,1,0.999977
0.9975873495293559,1,0.999977
0.9829627480053906,1,0.999837
0.7319095159617415,1,0.999950
0.7463949350843668,1,0.999957
0.7956367223189557,1,0.999958
0.8236711870559459,1,0.999951
0.537270672260723,1,0.999883
0.9990731564618311,1,0.999916
0.9938148879303101,1,0.999959
0.9979745791048539,1,0.999958
0.9979066374270202,1,0.999959
0.9935241534354,1,0.999958
0.9952825180557642,1,0.999956
0.9947176121538874,1,0.999956
0.9985155884498281,1,0.999955
0.9885230517882253,1,0.999978
0.7389117452895397,1,0.999969
0.9921669570857129,1,0.999943
0.9963979619807518,1,0.999977
0.9968209148641755,1,0.999977
0.9957970866234152,1,0.999977
0.9911734933041316,1,0.999977
0.9976445475626812,1,0.999977
0.9951007193323751,1,0.999976
0.9875647751057219,1,0.999977
0.9952616990635956,1,0.999977
0.9865210270355264,1,0.999952
0.998749768202406,1,0.999953
0.9923509928843486,1,0.999977
0.9299860812819376,1,0.999973
0.9768776609061344,1,0.999965
0.9939059274700606,1,0.999912
0.8573018021672805,1,0.999958
0.9916990358478922,1,0.999958
0.971677129958895,1,0.999957
0.9991446042032458,1,0.999962
0.9932764794224113,1,0.999959
0.9983065182220422,1,0.999925
0.9949797494740131,1,0.999926
0.9934324354832761,1,0.999967
0.9848247839579524,1,0.999976
0.9817646071454631,1,0.999975
0.9831824213507194,1,0.999973
0.9732172438302226,0,0.999500
0.9976708719797093,1,0.999973
0.9985737564980774,1,0.999973
0.9665384271721443,1,0.999971
0.9306138265774484,1,0.999935
0.9970551669656706,1,0.999905
0.9841713580988829,1,0.999962
0.9707659383363911,1,0.999762
0.893581009021424,1,0.999895
0.9972288680373177,1,0.999920
0.9981107127998697,1,0.999899
0.6481529252840523,1,0.999822
0.9933936266223209,1,0.999961
0.9933610362849702,1,0.999977
0.988999405041888,1,0.999977
0.9786657746270857,0,0.999690
0.9845300956774216,1,0.999908
0.9983178957700328,1,0.999948
0.9992958794718853,1,0.999976
0.9927818025575131,1,0.999923
0.9894475605376948,1,0.999924
0.9947163752262113,1,0.999916
0.9986546227540329,1,0.999958
0.9982410106147236,1,0.999913
0.9959528504736503,1,0.999952
0.9938265982286388,1,0.999973
0.9936843491086618,1,0.999854
0.9763924636686239,1,0.999679
0.9836378102122719,1,0.999963
0.9959695405756134,1,0.999974
0.9691849827932072,1,0.999949
0.9869718171329432,1,0.999951
0.8921032964792863,1,0.999855
0.9898349569246216,1,0.999959
0.9683517788172842,1,0.999864
0.9991040222881398,1,0.999977
0.9608904621914919,1,0.999949
0.9956668196270447,1,0.999966
0.9719745758048906,1,0.999906
0.9708376131553507,1,0.999959
0.9321391699016128,1,0.999959
0.994144016433439,0,0.993016
0.9274846747385632,1,0.999974
0.9407094881450294,1,0.999971
0.8529443314784029,1,0.999974
0.9878869952342305,1,0.999953
0.883326014101188,0,0.998418
0.9746080668482269,1,0.999886
0.9494133802765002,1,0.999849
0.9809648956228217,1,0.999961
0.9929984666013737,1,0.999971
0.9951912318271103,1,0.999740
0.9982552906073083,1,0.999888
0.9956366449093241,0,0.999583
0.997362472197661,1,0.999949
0.9985737949720641,1,0.999974
0.9993119164778782,1,0.999737
0.9964530448706852,1,0.999974
0.9984809726548943,1,0.999975
0.9982035150095102,1,0.999924
0.9974902606152043,1,0.999974
0.9985558965533982,1,0.999975
0.9993049842872623,1,0.999974
0.998357466088556,1,0.999975
0.9985574082554576,1,0.999924
0.9979521264150232,1,0.999922
0.9969835868292136,1,0.999975
0.9958802247203826,0,0.999674
0.9977598075231605,1,0.999973
0.9995278639527899,1,0.999975
0.9983308861275103,1,0.999974
0.9992289130035875,1,0.999975
0.9981651485724028,1,0.999922
0.9976653645708037,1,0.999974
0.9976585305025447,1,0.999760
0.9980866136912685,1,0.999918
0.9992010638397874,0,0.999281
0.9991261745783793,1,0.999846
0.9989139630637978,1,0.999974
0.9983355502601559,1,0.999923
0.9992069129653123,1,0.999820
0.9991466227108011,0,0.999576
0.880675015854721,1,0.999927
0.9885107101366506,1,0.999975
0.9882788670546526,1,0.999975
0.8854796410237126,1,0.999975
0.9810304511266339,1,0.999975
0.9908928935011043,1,0.999976
0.9984637842070698,1,0.999977
0.9631442979201286,1,0.999939
0.7625924635872592,1,0.999953
0.9895712418557941,1,0.999937
0.9911934842470785,1,0.999957
0.7804521324712214,1,0.999712
0.9889101127233091,1,0.999976
0.9957286107618807,1,0.999976
0.8255471723585882,1,0.999670
0.7017066499010323,1,0.999966
0.9837931427376214,1,0.999599
0.9711814017234209,1,0.999873
0.9993112019484687,1,0.999972
0.7923417117369556,1,0.999858
0.9858295963272161,1,0.999755
0.9977167459514589,1,0.999977
0.9007180555074903,1,0.999907
0.9943855662004428,1,0.999930
0.9818112313599793,1,0.999802
0.9945409134454024,1,0.999966
0.9465791643440239,0,0.999491
0.9968422666668422,1,0.999561
0.996728263057808,1,0.999935
0.6127286072904732,1,0.999963
0.9983340403550901,1,0.999959
0.9986667704763514,1,0.999957
0.9962136428626523,1,0.999958
0.9941175623616182,0,0.999144
0.9933141956957355,1,0.999969
0.9683840785095486,1,0.999969
0.9967205480522637,1,0.999936
0.9979981199553841,1,0.999970
0.9892173113417722,1,0.999972
0.7188426926026703,1,0.999962
0.9922120583837049,1,0.999968
0.9989320877610723,1,0.999970
0.9931920376517873,1,0.999971
0.9973047665002376,1,0.999971
0.9986392788850885,1,0.999971
0.9981535887581464,1,0.999971
0.9960922245361521,1,0.999942
0.9973890105015246,1,0.999971
0.9979919474061029,1,0.999971
0.9983146675519959,1,0.999972
0.9980993776398166,1,0.999972
0.995958198015129,1,0.999971
0.98841307167226,1,0.999973
0.9988397265508601,1,0.999946
0.9987289573870647,1,0.999971
0.9987237118044302,1,0.999972
0.9919730346446584,1,0.999971
0.9775522412114556,1,0.999966
0.7866458878225896,1,0.999952
0.9228490702115191,1,0.999907
0.8540131232301647,1,0.999957
0.9985718612082217,1,0.999961
0.8138596221594864,1,0.999967
0.9794923931345948,1,0.999850
0.8618851380767295,1,0.999898
0.9163320865313763,1,0.999940
0.9480323174881348,1,0.999912
0.9635856301237886,1,0.999941
0.8907967675536002,1,0.999939
0.8812289124987818,1,0.999946
0.9351627614097218,1,0.999934
0.9505783532660278,0,0.998084
0.940602789462652,0,0.999508
0.9208884128730803,1,0.999923
0.9712065216383391,1,0.999934
0.9401519434475005,1,0.999936
0.9708089651704981,1,0.999959
0.7653585425773103,1,0.999972
0.6578676476657651,1,0.999914
0.9930086153758618,1,0.999973
0.9853340388049426,1,0.999930
0.7994408214338781,0,0.998612
0.7986835521842697,0,0.999490
0.972446148563562,0,0.999573
0.9851540735825626,1,0.999880
0.8633022356667874,1,0.999842
0.7790646545528587,0,0.999420
0.9312779956520743,1,0.999958
0.9965966283416287,1,0.999956
0.9254453243550431,1,0.999957
0.9951025914236983,1,0.999959
0.9921293539983965,1,0.999961
0.98230336727351,1,0.999975
0.9825264187540854,1,0.999901
0.9952320243858223,1,0.999973
0.8501120375163275,1,0.999905
0.9944203218043852,1,0.999977
0.9928731751383805,1,0.999898
0.9991261744761848,1,0.999971
0.9934067884484606,1,0.999977
0.7681607680218266,1,0.999819
0.8741113279465862,1,0.999971
0.9673418099331061,1,0.999972
0.8880622446366496,1,0.999972
0.8602916403846762,0,0.999451
0.9269641282547623,1,0.999940
0.9202027958349924,1,0.999956
0.9939784107304169,1,0.999977
0.8847370458572896,1,0.999923
0.8741773854011009,1,0.999969
0.5573948202136619,1,0.999942
0.9898588790818916,1,0.999943
0.9891659591379915,1,0.999828
0.9988687135418198,1,0.999952
0.997556198181586,1,0.999951
0.9898121494454611,1,0.999943
0.9934546793331888,1,0.999975
0.9711651805635869,1,0.999965
0.8263904318279082,0,0.998493
0.9967727600895716,1,0.999975
0.950945799472395,1,0.999976
0.9674772560915541,1,0.999948
0.7701214862745149,1,0.999960
0.7201323843706792,1,0.999946
0.8547685224855218,1,0.999940
0.9469578866482359,1,0.999967
0.8455413167192652,1,0.999650
0.910880415220342,0,0.998434
0.8981544879826681,1,0.999947
0.9836694076784283,1,0.999969
0.9875781714149661,1,0.999957
0.9542327426272281,1,0.999967
0.9912045233781536,1,0.999975
0.9964643829019842,1,0.999976
0.9987360958160981,1,0.999976
0.9975471207121338,1,0.999952
0.9774096952965269,1,0.999973
0.967191044313021,1,0.999938
0.9950266607702078,1,0.999950
0.8178353063954305,0,0.999400
0.8426149534713043,1,0.999948
0.8891056470022631,1,0.999932
0.8115219317511044,1,0.999944
0.9975145252898036,0,0.995320
0.9623286175997404,1,0.999954
0.9783183823893802,1,0.999976
0.9938996954131013,1,0.999831
0.9966332159059927,1,0.999976
0.9941264610364908,1,0.999976
0.9947942352615236,1,0.999826
0.9775156469275851,0,0.997755
0.9963281715016404,1,0.999977
0.9937207413775005,1,0.999929
0.9971540051667023,1,0.999926
0.9136118824098151,1,0.999975
0.9412558500696353,0,0.997199
0.9671725297016524,1,0.999916
0.9884782780079694,0,0.996247
0.9921486419973742,1,0.999948
0.9968053862384428,1,0.999944
0.8213584381369015,1,0.999948
0.7839359383433038,0,0.998828
0.8307212872254717,0,0.998891
0.965886693077824,0,0.999294
0.9070858566442731,0,0.980340
0.9830944799378286,1,0.999965
0.9660455240004413,1,0.999848
0.991563132174523,0,0.992114
0.9387842351999264,0,0.950082
0.9221787412658791,1,0.999913
0.9896220425109085,1,0.999975
0.9677764268408692,1,0.999933
0.6688004038867428,1,0.999787
0.9792750859963075,1,0.999909
0.9752872666386264,1,0.999785
0.9929988281606137,1,0.999895
0.9953989625583399,1,0.999888
0.9980652614708174,1,0.999943
0.9972868002500633,1,0.999943
0.9988418738241074,1,0.999945
0.9910402408645659,1,0.999895
0.79827745021809,1,0.999968
0.9962294360099869,1,0.999968
0.9996694217842094,1,0.999970
0.9941162627884633,1,0.999904
0.9944049030337262,1,0.999972
0.9566118262592557,1,0.999969
0.9991716546590813,1,0.999967
0.9985444896980927,1,0.999966
0.9944350752090176,1,0.999886
0.9158355998350989,1,0.999973
