0.5570120927809176,0,0.936399
0.6992791202600543,1,0.999427
0.788481203158856,0,0.920391
0.7666305175733895,0,0.980368
0.5024222466728661,0,0.961516
0.8789089733721347,0,0.636364
0.3641515152523711,1,0.988024
0.49778088610888593,0,0.958644
0.3760628925576792,0,0.989235
0.7903155810201796,0,0.934330
0.7334110945093104,0,0.690217
0.7721596766810913,1,0.981132
0.5783699670548733,1,0.998808
0.7249332565395578,1,0.994444
0.8539010055295245,1,0.999660
0.7653705240785074,1,0.999233
0.83881393946937,1,0.996330
0.9462637785002749,1,0.998976
0.798499594499859,0,0.996026
0.9073169749020433,1,0.997856
0.8984056347753889,1,0.999708
0.889616023329099,1,0.999637
0.844452906326518,1,0.999680
0.9079361712243329,1,0.998758
0.8963588235009454,1,0.999394
0.8281732805286628,0,0.956643
0.8809938578258175,0,0.995863
0.8489452340899155,1,0.999258
0.7891918042513653,0,0.982668
0.8762097773610313,0,0.988957
0.9216648626671436,1,0.999742
0.7335914298020644,0,0.887740
0.8195409309913181,0,0.984357
0.8790638417782586,1,0.996269
0.8603694604133544,1,0.997735
0.6931481512919748,0,0.995246
0.7872469733326184,1,0.999575
0.8530731766615055,1,0.999659
0.8597918072871679,1,0.999406
0.8051384339303381,1,0.996897
0.8221187720904349,1,0.999091
0.8614954299749874,1,0.999366
0.8334024559151677,0,0.996095
0.8582096993607098,1,0.999568
0.8198632727577101,1,0.999561
0.8244922880293964,1,0.996821
0.820604568797126,1,0.999308
0.8460132250269059,0,0.978986
0.8369523338033305,1,0.996550
0.8708363819728058,1,0.998020
0.8207910654378393,0,0.950313
0.7929583720102653,1,0.999698
0.7964553057401191,0,0.993135
0.8072481715359437,0,0.978634
0.7935755701167707,1,0.999729
0.7940937390409036,1,0.998591
0.7919836660679159,1,0.999574
0.8327452653365233,1,0.999597
0.8216125705964262,1,0.999656
0.8494044959589628,1,0.997488
0.8183075473470031,1,0.998393
0.838510570665841,1,0.999679
0.7996005154799851,0,0.993695
0.8347859320438011,0,0.995834
0.8634777132378321,1,0.999576
0.7825881846336171,1,0.999697
0.8326444333759246,1,0.999641
0.8120079317872417,0,0.976345
0.7944467698295384,1,0.998887
0.8933930205455471,0,0.993148
0.8453546987332644,1,0.999637
0.8904331878977413,1,0.998268
0.8937682945385297,1,0.999542
0.8659835498233296,1,0.999616
0.8805071720054737,1,0.998956
0.8806131253404956,1,0.999669
0.8778682800157852,1,0.999114
0.8970579798551146,1,0.999682
0.9295209775273854,1,0.999669
0.8824219855966648,1,0.999573
0.9135623922520574,1,0.999274
0.9248545358373881,1,0.998850
0.9049677067121626,1,0.999700
0.8979259285964506,0,0.993587
0.8573193653883195,1,0.997468
0.8427768250666814,1,0.999728
0.8199969172438817,1,0.999683
0.8571312441830314,1,0.999688
0.8755403830762662,1,0.999653
0.8482897313250161,1,0.999430
0.874641188949259,0,0.995456
0.8224399612675958,1,0.999653
0.8801617888113856,1,0.999614
0.8569519106238956,1,0.999641
0.8683690498763593,1,0.999544
0.8895646538341908,1,0.999705
0.8615872338692664,1,0.998702
0.8819581489597476,1,0.999616
0.854926690647987,1,0.998370
0.8075840050985059,1,0.999672
0.8329922264656038,1,0.999660
0.8662538626949385,1,0.998294
0.8418603677086878,1,0.999270
0.8954727600186492,1,0.998225
0.8846021666688809,1,0.998640
0.9110116848501898,1,0.999668
0.9075779277039974,1,0.999689
0.9050227787208811,1,0.999631
0.8923235099095964,1,0.998744
0.9097626593060206,1,0.999635
0.9314909308685818,1,0.999658
0.9556347108224553,1,0.999604
0.908443016236416,1,0.999678
0.9146575939690527,1,0.997972
0.9499553784578654,1,0.999645
0.9382074651365626,1,0.998426
0.9242106344160732,0,0.995393
0.9070354765673327,1,0.996413
0.9126915581623125,1,0.999674
0.8659431668526857,1,0.999588
0.9172857526308117,1,0.998994
0.8866455001131487,1,0.999636
0.929811816735974,1,0.999627
0.9311848186277816,1,0.999667
0.9376516198521746,1,0.996341
0.9341149244239986,1,0.999598
0.9177092539013686,0,0.989627
0.9130533946159134,1,0.996574
0.9520411557303008,1,0.999294
0.9346013400929373,1,0.999560
0.9470112483248994,1,0.999629
0.9315585676355028,1,0.997606
0.8991303783184631,1,0.998731
0.9048953859749426,1,0.999681
0.9368532507126222,1,0.999676
0.9502559986010118,1,0.999205
0.8999710984635747,1,0.997890
0.8806753716376464,1,0.997000
0.9017740994212471,0,0.990350
0.8792899539226987,1,0.999807
0.8719661742463499,1,0.998185
0.8750380703912034,1,0.999644
0.8738464929459282,1,0.983838
0.7916766259803485,0,0.983359
0.9111130695248292,1,0.998505
0.8805882559020343,0,0.992214
0.8394450601474978,0,0.994199
0.8751364397627084,1,0.999716
0.8996575680853585,1,0.999715
0.8818198939308683,1,0.999422
0.8482831552887357,1,0.998896
0.7933683031550204,1,0.999363
0.8059446242956576,1,0.999343
0.8622948882800104,1,0.999705
0.825597983238391,0,0.987395
0.8129780617888601,1,0.998596
0.8331538407331053,1,0.999097
0.7285512465124294,1,0.999234
0.7857136409531406,1,0.999548
0.6675780348769184,1,0.986726
0.8284279847047267,1,0.998885
0.8126280500550936,0,0.995976
0.7651359280933521,0,0.996085
0.8273050095243212,0,0.978921
0.7613243094048552,1,0.999714
0.8038013045715997,0,0.950066
0.7306865406902229,0,0.965187
0.8433925540768367,1,0.998908
0.8102695782980679,1,0.999638
0.8437205260465263,1,0.999496
0.8796812119480245,1,0.999688
0.8419980834389871,0,0.989800
0.8568074154181844,1,0.997587
0.8411370932457225,1,0.999661
0.8217155467247548,1,0.999481
0.8410062585914628,0,0.994874
0.876411914255451,1,0.998726
0.8831138439471914,1,0.999570
0.8824543825538572,1,0.998984
0.8345018092290736,1,0.998922
0.879133772040568,1,0.999637
0.8685638316832951,1,0.998778
0.857061951215584,1,0.999690
0.8316458945603988,0,0.991736
0.8204991664285247,1,0.997741
0.8125406481354093,1,0.999014
0.8725360516251367,1,0.999135
0.8408543912519331,0,0.991467
0.8473941973749911,0,0.992198
0.8562874134911947,1,0.999599
0.7648908188943178,1,0.999590
0.8871824651677155,0,0.980592
0.8465085721955461,0,0.987458
0.8830854858506202,1,0.999230
0.8849990628995864,1,0.988562
0.8740867990333218,1,0.998728
0.9068820535137443,1,0.998626
0.7969748744974308,1,0.999232
0.8832261256761204,1,0.999435
0.8742425242971836,1,0.998854
0.8554827142778669,1,0.998084
0.8837119504805011,0,0.739181
0.7836924344820201,1,0.999735
0.8376592085939777,0,0.965352
0.8622806375047064,1,0.998849
0.8254387317648585,1,0.998861
0.7598781833153793,1,0.999706
0.7536104345618754,1,0.999693
0.8480490396132494,1,0.995106
0.752927325027931,1,0.999463
0.803793648212129,1,0.999445
0.8709612540306804,1,0.997506
0.8616266089956941,1,0.999103
0.9253351166380255,1,0.998532
0.8960050666964928,0,0.994120
0.8643866706653566,0,0.996830
0.8500847874411634,1,0.999765
0.8426016452429089,1,0.996814
0.9500522856980668,1,0.995880
0.9409248552300604,1,0.998926
0.9254391262203362,1,0.999271
0.8921364602951781,1,0.999688
0.8388724201932067,0,0.994790
0.8749805330453626,1,0.998124
0.8602136526278994,1,0.998918
0.860291937577194,1,0.996723
0.8732418807347968,1,0.994907
0.8772844310426804,1,0.997187
0.7054691117129902,0,0.981419
0.8578540011100959,1,0.999738
0.7986937587688788,1,0.998656
0.8350800460718432,0,0.979614
0.8471186772068344,0,0.983357
0.8127151761140681,1,0.999596
0.8387708335380074,0,0.719482
0.8668846237559157,0,0.979442
0.7634788828754991,1,0.999524
0.8373496294301775,0,0.976566
0.8115233683481065,0,0.992812
0.8005252133883078,1,0.999181
0.8763011123000753,0,0.977568
0.8073419910297711,1,0.987360
0.8542944482049143,0,0.977482
0.889526208962456,0,0.970422
0.870295926850635,1,0.999512
0.8518960498018491,1,0.998239
0.8749043906097433,1,0.998580
0.8674450544666046,0,0.965909
0.8608848324275297,1,0.999615
0.8439889021103578,1,0.990196
0.8249023010780014,0,0.992102
0.823382352480243,1,0.998442
0.8894058624278487,1,0.999747
0.8555955596276719,0,0.904851
0.7424739111258705,0,0.981193
0.7714068420592493,1,0.997985
0.7338761012169004,1,0.999063
0.8973112269453409,1,0.998425
0.7417158675383095,0,0.994155
0.8534402182602073,1,0.998369
0.8430740708049309,0,0.994500
0.853313921197439,1,0.998375
0.787841272746194,1,0.999307
0.8310776877723165,1,0.998482
0.8614422466640067,0,0.993426
0.8462242240612,0,0.993119
0.8891721446076555,0,0.994867
0.8365085993647505,1,0.999810
0.8496670133534293,1,0.997984
0.8182759826758724,1,0.999606
0.7728259788986462,0,0.986969
0.8041871627434933,1,0.997104
0.7900277160595696,1,0.998031
0.8862274032779033,1,0.999686
0.8496653609796913,0,0.983307
0.8498761479194569,1,0.998230
0.8409577938913352,1,0.998328
0.7975381246204155,1,0.999074
0.7682714335758062,1,0.996958
0.916602453688436,1,0.998369
0.8654463538066375,1,0.998039
0.8219015375170593,0,0.996601
0.8410016654374267,0,0.982055
0.8911561891961355,1,0.999031
0.8354012402458627,1,0.999570
0.8016287220629177,1,0.999313
0.8522134148446486,1,0.998849
0.8491469700142845,1,0.997202
0.8470531743820148,1,0.999681
0.8736128335421589,1,0.998819
0.8315767112769658,1,0.998853
0.8698781348556216,1,0.999219
0.7421815962717762,0,0.990856
0.8739137315072523,0,0.991988
0.8229429649396606,0,0.944500
0.9118699014596392,1,0.995179
0.9183731814888699,1,0.999121
0.827710164558057,1,0.999693
0.7900589571687091,1,0.999021
0.8621090728966911,0,0.994619
0.8594746191759463,0,0.992596
0.9157946056318862,1,0.999330
0.9086781281029409,1,0.999513
0.8723355170680795,1,0.999174
0.8336170769839628,1,0.998366
0.857733062620095,1,0.998205
0.875098125415026,1,0.995129
0.8068063399610078,1,0.999029
0.7247185307085919,1,0.999385
0.8123392905164779,0,0.991189
0.8017434343064045,1,0.999625
0.6918840889291175,0,0.984938
0.7626264824700432,1,0.999772
0.7762514247680977,1,0.999140
0.8092289079485085,1,0.999084
0.8386461021436531,1,0.998946
0.7728341483473589,1,0.997100
0.8816908647365802,1,0.998954
0.8693198812122188,1,0.999385
0.864650437508217,1,0.996883
0.8620341743677585,0,0.988958
0.790403507400042,1,0.999538
0.8761387729946563,1,0.999452
0.7775364546974798,1,0.999799
0.8579945801071452,1,0.999342
0.7935096967473014,1,0.999336
0.8562758539410833,1,0.998567
0.8877691386982478,1,0.999398
0.9115707128622901,1,0.999617
0.875065206452309,0,0.992378
0.8751592977422794,0,0.990728
0.881728199867278,1,0.998803
0.8915333615748878,1,0.999604
0.886951385824555,1,0.999578
0.8882850980596239,1,0.999581
0.9015377550743822,1,0.999600
0.8188593576391248,1,0.998337
0.8875081543506008,1,0.998072
0.8348262197257381,1,0.999216
0.8751627376362539,1,0.998871
0.8181770207067546,1,0.996954
0.8717296640513027,0,0.960699
0.7997771040957085,1,0.995125
0.857899618389827,1,0.998138
0.8795544894090945,1,0.999197
0.826127394037589,1,0.995951
0.7846218381497131,0,0.981073
0.8926016804069098,0,0.951171
0.8114806512986878,1,0.999066
0.834020751820432,0,0.978649
0.8557698906653498,1,0.999665
0.8392322883369765,1,0.999239
0.7537735329900497,1,0.997032
0.8869047450105265,1,0.998914
0.8688626457946217,0,0.973274
0.881054991801207,0,0.991228
0.8093609656522842,1,0.998811
0.8422141838064353,1,0.999499
0.8513891961424428,1,0.999313
0.8906721728619604,1,0.998386
0.8016574867790552,1,0.999768
0.9087241113480858,1,0.999679
0.8881217921767607,1,0.999681
0.8906795222307659,1,0.999373
0.8506634059991419,1,0.999398
0.8683390904839688,1,0.998367
0.8938166891549079,0,0.995181
0.9059208395370218,1,0.999405
0.9225814544095462,1,0.999660
0.9073571432316674,1,0.999648
0.8800776502006297,0,0.979160
0.8349066350312195,0,0.974667
0.9095372237636475,1,0.999701
0.851114949048957,1,0.999703
0.874065720781948,1,0.998777
0.8642736648912153,1,0.999709
0.8880459550922438,0,0.971634
0.9201661833856959,1,0.998830
0.8625757722337932,0,0.995981
0.8704103281712708,1,0.997511
0.8743861576834303,0,0.986938
0.9056609490827127,1,0.999688
0.8727931082862286,1,0.999354
0.9132353000744082,1,0.998046
0.8916763460487016,1,0.998383
0.9026265746284533,1,0.999354
0.848749675630778,0,0.979831
0.9037840056769102,1,0.999710
0.8776681466562829,1,0.999694
0.9073421422065251,1,0.999697
0.9163785724825707,1,0.999638
0.9083508737425287,1,0.999696
0.8951313012438763,1,0.999702
0.8915849116080992,1,0.998300
0.8851143027966424,1,0.999705
0.918858734146314,1,0.999721
0.8872697623966191,0,0.991938
0.9215801480960396,1,0.998424
0.904901451836556,1,0.999394
0.9066813980155447,1,0.999648
0.8722954717448451,1,0.999732
0.8632562021278877,0,0.996243
0.8676890646033928,0,0.996216
0.8571014654565021,1,0.999738
0.8549977706680205,0,0.961079
0.8796560623235117,1,0.999701
0.872002388720077,0,0.973934
0.8470627397961646,1,0.999724
0.8776380814785235,0,0.974795
0.8574849061490092,1,0.999735
0.862379392536547,1,0.999732
0.8671393532476006,0,0.995949
0.8471812205908814,1,0.999703
0.8841894194896844,1,0.999482
0.861965239723707,0,0.986140
0.8699431114280484,1,0.999741
0.8801938021838235,0,0.994020
0.8680317493499202,1,0.999705
0.8780202664620945,1,0.999705
0.9167300256122083,1,0.998290
0.8649705563100404,1,0.999665
0.8546202926964592,1,0.999458
0.8740822718125376,0,0.962629
0.8713215059309812,0,0.976123
0.8561058950536845,0,0.988886
0.8761170051659244,1,0.999692
0.8508879317125383,1,0.999694
0.8735285933700461,1,0.999687
0.8562808493841885,1,0.999669
0.8544121732678582,0,0.957918
0.8751277055726678,1,0.998408
0.8368402730894121,0,0.975799
0.9086378586073827,0,0.996426
0.838081186204128,1,0.999748
0.8164764683487854,0,0.941293
0.8798142315148649,1,0.998138
0.8385004774321658,0,0.973929
0.8635714769885416,1,0.996769
0.8511878083232649,1,0.998527
0.8593713890542203,1,0.994176
0.8920263562618937,1,0.999575
0.8949383682970791,1,0.994908
0.8954325205577632,1,0.998288
0.8921494584395391,1,0.997451
0.8688798033062417,1,0.998571
0.8988463183695997,1,0.997986
0.7128952656269059,1,0.995971
0.798902974502316,1,0.998907
0.8003400944883987,1,0.999373
0.8705225527454659,0,0.981132
0.8086897176468657,0,0.769328
0.8532813328056807,1,0.983666
0.8368809801292583,0,0.975323
0.900391902895596,1,0.998592
0.8830844961454473,1,0.998271
0.895568916584265,0,0.981833
0.9145725707680549,1,0.999808
0.8108260348914835,1,0.999614
0.8563174478203777,0,0.969072
0.8841780628963526,1,0.999340
0.8842234482971283,1,0.999658
0.8619377479159559,1,0.999036
0.9153429187770755,1,0.998451
0.9006879203964672,1,0.999545
0.86362701489353,1,0.993857
0.8616801669607107,1,0.998522
0.8677594006525003,0,0.966489
0.8960822798531074,1,0.998342
0.7896733849894458,1,0.999697
0.885618967208082,1,0.998622
0.8597728731228156,0,0.988338
0.8330202797486567,1,0.998108
0.8430318049333535,1,0.999055
0.8850106668572597,1,0.992930
0.8498597076324743,1,0.994514
0.8673532610769573,1,0.995995
0.8712726404833833,1,0.997664
0.8288353383317963,1,0.999065
0.8093437055492495,0,0.995045
0.8837620901701096,1,0.999636
0.8796704789520606,1,0.999582
0.875536358325095,1,0.999332
0.8741942003773473,1,0.999247
0.7952123670045118,1,0.999650
0.8658601908826112,0,0.996546
0.8782057603235867,1,0.995677
0.8749539235529314,1,0.999214
0.8510843710294148,1,0.999320
0.8841412956871746,1,0.996396
0.8153351594467562,1,0.999505
0.8881907495807162,0,0.990998
0.7603420715630793,1,0.999585
0.8491751203178683,1,0.998478
0.8752165245782784,0,0.997843
0.8357360360864979,1,0.998852
0.8003975668944899,1,0.999346
0.8794318926769724,1,0.999523
0.8363971530584816,1,0.997651
0.8841429746094144,1,0.996485
0.8639547568229259,1,0.998366
0.9051619351521294,1,0.996917
0.8144258383921221,1,0.999808
0.8354323817785951,1,0.999308
0.866745639241037,1,0.987296
0.8967197760709941,1,0.998509
0.8427765044187612,1,0.997581
0.8706823030087286,1,0.999486
0.7920133033045649,1,0.994526
0.8896746231552305,1,0.999121
0.8638645718452308,1,0.999798
0.9009915006746226,1,0.998459
0.8782951571191183,1,0.998963
0.8938026129409923,1,0.999749
0.8286410879621167,1,0.990926
0.896177053869918,0,0.948293
0.8511465148143725,0,0.996340
0.8710603368253768,0,0.992609
0.8914082365256313,1,0.995887
0.7566409598641548,1,0.999570
0.8747459662500806,1,0.997026
0.873673483652083,0,0.994374
0.8873932767067647,1,0.999061
0.911712062286688,1,0.998772
0.9177350847064918,1,0.999337
0.8594827816707247,1,0.999810
0.8416106216164188,1,0.999601
0.8777584956317467,1,0.999444
0.8532992743063672,1,0.999237
0.8399501380251927,1,0.998311
0.8749290418960163,1,0.995644
0.8623064053921307,1,0.994831
0.8158600695229472,0,0.916829
0.8886763208854666,1,0.998891
0.9150241360124576,1,0.999630
0.8584603594633722,1,0.999664
0.9214109461787596,0,0.992541
0.886492781870275,1,0.999209
0.9290675007663527,0,0.949968
0.8918158000392195,1,0.999043
0.8308320562895697,1,0.998803
0.7767749437956399,0,0.901961
0.801892884784037,1,0.999354
0.8998458391411641,1,0.996965
0.905149837420255,1,0.999739
0.8852026070916261,1,0.999505
0.8552475707561614,1,0.997859
0.7951736781127432,1,0.999598
0.8176787852347901,1,0.997596
0.8120354754979991,1,0.999753
0.8632691064633031,1,0.999550
0.8822528508132713,1,0.998841
0.885892410180494,1,0.999781
0.7934629125420519,0,0.996476
0.6964977349812885,1,0.999681
0.824064251567558,1,0.999274
0.8618374891165128,1,0.998507
0.827290800907009,0,0.995382
0.7757568494212227,1,0.999136
0.9052677161280704,1,0.999097
0.8072459910019028,1,0.999596
0.9105672531697,1,0.998434
0.8947893045852836,1,0.999329
0.8174346636212492,1,0.998291
0.8224972121447347,1,0.995098
0.7597684071583328,0,0.986568
0.7974026248933643,1,0.999296
0.8546934704877663,0,0.995664
0.7803185217381803,0,0.988971
0.8497356090037023,1,0.999437
0.8864825879847261,1,0.998849
0.8181947320320686,0,0.984534
0.8754637790272081,1,0.999608
0.8778459234185217,1,0.998858
0.8088390330659252,1,0.999493
0.8887296989220358,0,0.988764
0.8057986873961306,1,0.998502
0.8973343269930057,0,0.975000
0.8695982301429334,0,0.991123
0.7580002758199264,0,0.996399
0.9177316363253957,1,0.992300
0.8691506672323003,1,0.999807
0.8778681830894833,1,0.998986
0.9200949923922032,1,0.999030
0.8592973561950678,1,0.999516
0.8448761402494158,1,0.999006
0.8733301570878941,1,0.995547
0.8833950632619252,1,0.999631
0.8692950164887544,1,0.997340
0.9261645992293842,1,0.997883
0.8743163873872907,1,0.993776
0.8690081560570145,1,0.999247
0.7987129533132721,1,0.995885
0.8257651393103391,1,0.999482
0.9063877497005678,0,0.990108
0.898293976597219,1,0.999041
0.8124291600295038,1,0.999253
0.8389170731624229,1,0.999063
0.7795402580101879,1,0.999592
0.8330315243667749,1,0.999516
0.8615019105284972,1,0.999528
0.8176091736099339,1,0.999420
0.8367187992683008,1,0.999719
0.7956996924977837,0,0.983910
0.8163323952826387,1,0.998153
0.8886282788859274,0,0.994126
0.8326687405913259,1,0.998493
0.823672475076015,1,0.999534
0.8681697669032469,1,0.994083
0.8359187152775595,1,0.999588
0.900238048873933,1,0.998959
0.8749207645609499,1,0.999172
0.8542440616234748,1,0.996782
0.8253165778396765,0,0.920286
0.8121414480171867,1,0.999266
0.8274708764614345,1,0.996493
0.8122321066763065,1,0.999646
0.7528211893983322,1,0.999492
0.7418403394504732,1,0.998762
0.8357461036222649,1,0.998889
0.7964392060582615,1,0.995595
0.7847574393603612,0,0.886758
0.7955229782839491,1,0.999383
0.8323273365189279,1,0.998898
0.775484275131411,1,0.998890
0.8658660679374924,1,0.999515
0.8818243048834706,1,0.990033
0.8722915440899102,1,0.998875
0.9041628412913131,1,0.999526
0.9009884039309805,1,0.999257
0.891959975022551,1,0.999544
0.9001805152774616,1,0.999492
0.8675092546182096,1,0.999159
0.9335497871613928,1,0.999042
0.8667531736985405,1,0.998888
0.8979809382663937,1,0.999222
0.9116367809486094,1,0.999238
0.7664850057146003,1,0.999088
0.7894007601393069,1,0.997525
0.7694213640689385,0,0.944633
0.8267688792415536,1,0.996466
0.8454130051638392,0,0.903454
0.8266754011051068,1,0.998298
0.8844066029907299,1,0.997309
0.822336481144047,1,0.998900
0.8407354168875267,1,0.999731
0.9291915347197744,1,0.999218
0.8566697290209613,1,0.998320
0.9030689449631446,1,0.999342
0.8975864790982685,1,0.998512
0.913676637845374,1,0.998316
0.9365475154307429,0,0.987472
0.8980736098233342,1,0.996833
0.8972142380557202,1,0.998032
0.916908491138509,1,0.998517
0.8429973751498387,0,0.994068
0.9069613297511719,1,0.999617
0.8930543740796856,1,0.999439
0.8872001468832914,0,0.952813
0.8912537059840917,1,0.996925
0.8836482017637061,1,0.998198
0.841938991175353,0,0.997714
0.9125319518714212,1,0.999228
0.9293412393241921,1,0.999253
0.819879407691959,1,0.996904
0.8690681301547768,1,0.999736
0.8365948052801205,1,0.999578
0.9045896395035197,1,0.999451
0.9249238651058536,0,0.962607
0.9030859921452199,1,0.999313
0.8138076191331686,1,0.999575
0.8883231556270872,1,0.998824
0.8981525521426762,1,0.989111
0.890686840028301,1,0.998818
0.8625530347418258,1,0.999589
0.852287804293227,1,0.999576
0.9213591328725415,1,0.999580
0.8590353306637448,1,0.999576
0.8700756639681996,1,0.998462
0.9066834722085481,1,0.997073
0.8939826050289306,1,0.998919
0.8423232929588619,1,0.999146
0.7824882110304358,1,0.998885
0.8809523695834864,1,0.998700
0.8825085234077094,1,0.998740
0.9213268283303352,0,0.989163
0.8669862949192354,1,0.998918
0.8336356751212234,1,0.995376
0.8959083027294152,1,0.995927
0.8555296164727288,1,0.999471
0.8754081292474013,1,0.999464
0.9165556246543806,0,0.982688
0.915148139163269,0,0.988482
0.8988283233107237,0,0.991085
0.8702302614301232,1,0.998902
0.8906434465358644,1,0.999206
0.8769393522483285,1,0.999611
0.8867001387395909,1,0.999579
0.8929108680535456,1,0.998693
0.8993948327252822,1,0.997363
0.9092565722376169,0,0.976534
0.9042799900605624,1,0.999115
0.8970842489989692,1,0.999220
0.9145810110271686,1,0.999208
0.9172934722959031,1,0.991354
0.8714625735154804,1,0.999270
0.8212365563587491,1,0.999677
0.9027248727493867,0,0.960289
0.9284483929244365,1,0.999096
0.9152041841774309,1,0.994531
0.904242883525613,1,0.999359
0.9121501097239374,1,0.999136
0.8648160094789473,1,0.999012
0.9041117681300945,1,0.998888
0.9159474332961149,1,0.999279
0.9250692236631496,1,0.999424
0.9283546436140971,1,0.999536
0.9035673526199849,1,0.998136
0.8558875227438794,1,0.999100
0.8874095274821707,1,0.999224
0.8951034479593507,1,0.996117
0.9115749543679933,1,0.999671
0.929707343483369,1,0.999298
0.9053922291850203,1,0.998724
0.8098484736741065,1,0.999150
0.8662966920858666,1,0.997666
0.8934657463418575,1,0.999053
0.9385075020992775,1,0.998160
0.9272982992544526,1,0.997143
0.8427322911710475,1,0.995264
0.8358645140479776,1,0.996721
0.900691360225616,1,0.999389
0.8944819414239088,1,0.998571
0.898113802003835,1,0.998129
0.8308430057809131,0,0.995448
0.9149882571197385,1,0.998805
0.9256263502130847,1,0.998934
0.8940951577182449,1,0.999290
0.9057775310600222,1,0.999139
