0.4059493292480288,1,0.989583
0.5440486161850676,0,0.982533
0.1506146937088767,1,0.998488
0.3858093781752826,0,0.577411
0.8508655326352746,0,0.938967
0.4564287090137462,0,0.979782
0.3851541911613289,1,0.999250
0.6220411396496028,0,0.961223
0.6354562346620415,1,0.997942
0.7435905312957893,0,0.980485
0.5947708784210101,1,0.998437
0.4422897100520543,1,0.997647
0.5875586427598827,1,0.999315
0.7170047968944253,1,0.998756
0.6964647822178159,0,0.926926
0.7033143962112259,1,0.995233
0.6517817748168816,0,0.986111
0.6598597693991628,0,0.931944
0.6722265473147816,0,0.848555
0.7078859099123882,0,0.943750
0.6673072791122266,0,0.948010
0.7202037060989608,1,0.997265
0.6773504620838308,0,0.838013
0.5946980390842567,1,0.998626
0.6642050872052876,1,0.997017
0.6249796525650311,0,0.915712
0.6488404697610124,1,0.999513
0.6438621949314352,1,0.997128
0.6270618969681109,0,0.840659
0.6949497625950734,0,0.966618
0.7096769048336141,1,0.997800
0.6864109677040537,1,0.995379
0.711613635045289,1,0.997900
0.723260675568954,1,0.999418
0.7465064412973346,1,0.995620
0.6995830537506557,0,0.975655
0.7446686430541487,0,0.844271
0.651732908404677,0,0.959839
0.6698065672667499,1,0.996925
0.6589237614373847,1,0.994359
0.708706680493449,0,0.911350
0.7242954805935153,0,0.925470
0.7242527434624829,1,0.998365
0.6899758828819694,0,0.972208
0.6706809618068027,0,0.983449
0.7475472654329655,1,0.996930
0.6908196043027582,0,0.958360
0.6871260416367887,1,0.999296
0.7293317661957123,1,0.999168
0.6204027147902572,1,0.997425
0.6394537672726422,0,0.988960
0.6780426608105765,0,0.981132
0.5889102200739652,1,0.999464
0.6379065564494791,1,0.998950
0.6362170351227531,1,0.997719
0.5783971429367576,0,0.977378
0.6388454962978811,1,0.998845
0.6177302683616231,1,0.997590
0.6541658545120471,0,0.956323
0.72143433975734,1,0.999525
0.6490851470672926,0,0.990836
0.7153040904508566,0,0.985163
0.702779801834746,0,0.991746
0.7231026287111492,1,0.998068
0.7235195356629458,1,0.999459
0.689324495662585,1,0.999247
0.6965647258170674,0,0.988636
0.6818775708050406,0,0.913706
0.6840276810869171,1,0.999344
0.6928521825044252,1,0.998875
0.7358854254276559,0,0.984823
0.7236256271185937,0,0.987062
0.6728689350921764,0,0.993514
0.7218010526716817,0,0.927802
0.7354795697943337,0,0.987500
0.7291570437215894,1,0.999083
0.6769859112931024,1,0.999317
0.7372931488786227,0,0.984793
0.6498215540169776,0,0.993345
0.616201971682367,0,0.918170
0.6595159381228851,1,0.997605
0.6686665298447337,1,0.999398
0.7430183468232868,1,0.998326
0.7109420740699777,0,0.986034
0.7439808851469923,0,0.984395
0.7496036604918607,1,0.997396
0.6987875169621831,0,0.983021
0.7203390229803928,0,0.966579
0.7321057066241665,1,0.997455
0.6958779350667189,0,0.982143
0.7147535733245762,0,0.975773
0.7197805801414264,1,0.999124
0.7140140708690289,1,0.999045
0.7055310897303342,0,0.951902
0.7400159991793649,1,0.997249
0.6538080451682194,1,0.999263
0.7470979490438464,1,0.999439
0.7182471026714008,1,0.992373
0.6927720980101304,0,0.992017
0.7267037949844274,1,0.997973
0.7393473968614404,0,0.909766
0.5627914323873724,0,0.993155
0.6200672505077662,0,0.981144
0.6058625602559125,0,0.875813
0.6361469319606755,1,0.994994
0.6322328641918432,0,0.971114
0.637414083770152,0,0.935756
0.6232721751036574,0,0.987080
0.6110407356926406,1,0.998952
0.6797792892787178,1,0.998784
0.7011461918184245,0,0.859887
0.7524968588022043,1,0.999057
0.7119893371803039,1,0.999368
0.7454475072730293,0,0.986715
0.7289259693131984,1,0.999249
0.7461217997977331,0,0.897906
0.6817775039945145,0,0.985267
0.736534442167772,0,0.953903
0.6939323119413524,0,0.953618
0.6783542540579788,1,0.999400
0.7426234480233947,0,0.826183
0.7101319526415084,1,0.997260
0.6958379288109258,0,0.891862
0.7346924155693577,0,0.989927
0.7007863753072197,1,0.998141
0.7055605181797715,1,0.994211
0.6297979306306563,0,0.922134
0.6947243619916023,0,0.987918
0.7156004200353506,1,0.997436
0.6418969930190477,1,0.999431
0.6849457571820659,1,0.999499
0.6571559017198356,0,0.985492
0.6959615181683264,0,0.972297
0.6149666680572414,1,0.997615
0.5921437555490822,1,0.997540
0.6124058944264773,1,0.998219
0.6392132124023048,0,0.986250
0.6824279986721538,1,0.999283
0.670520716580153,1,0.995666
0.6896607510459202,0,0.979064
0.69141257574949,0,0.883978
0.670034540985582,0,0.906336
0.67222404200299,0,0.965972
0.6935387407718773,0,0.959335
0.6347787364718545,0,0.993435
0.6810205634319867,0,0.885556
0.6988001506352574,0,0.933481
0.6935797650775624,1,0.999341
0.6859046412297727,0,0.946035
0.6482972751100625,0,0.892731
0.6026286651652711,1,0.999423
0.590016530058954,0,0.945480
0.6685435277309836,1,0.988751
0.6260620843482303,0,0.905007
0.7281175568425922,0,0.886454
0.7249250023168576,0,0.988154
0.647255680287031,0,0.949571
0.64986025377006,0,0.991208
0.6963485468207902,1,0.999077
0.6787640910408556,1,0.999127
0.7046928969600841,0,0.979710
0.6743417253092261,0,0.889610
0.6941268714078915,0,0.940968
0.7134328959480202,0,0.992606
0.73038370550535,0,0.924439
0.6312148528733931,1,0.999434
0.6357726626396568,0,0.903906
0.6677631879214079,0,0.908203
0.7034608106354774,1,0.999373
0.6712158648337072,1,0.999095
0.7206747337978966,0,0.867125
0.6959675300957322,0,0.994450
0.6399794851605847,0,0.951447
0.6625018855975026,0,0.930960
0.7228916475903427,0,0.990786
0.7083477177391656,1,0.993711
0.7192001795061299,0,0.944262
0.6813491916590328,1,0.998071
0.6987685712454847,0,0.936866
0.7103488889419428,1,0.997101
0.7437491964175786,1,0.997273
0.69121489433877,1,0.999281
0.7124478268229815,0,0.987027
0.6761288119820905,0,0.961628
0.6792127143098464,1,0.995325
0.6704591899075979,1,0.999037
0.7018190876041811,1,0.999250
0.6852299965721693,0,0.960711
0.6193763123964375,0,0.934585
0.7188294366142874,0,0.918527
0.6902902055756158,0,0.959710
0.6562531104858951,0,0.954858
0.646743476408345,0,0.858161
0.6505763034791635,0,0.945946
0.7569540177634628,0,0.993769
0.7379651718522451,0,0.944944
0.6235524756526567,0,0.991100
0.6495350114253847,0,0.962406
0.6336094796471338,0,0.955008
0.6434526144557358,0,0.991008
0.7076687480981203,1,0.996686
0.6944502466169482,0,0.888599
0.7147773339989223,1,0.996672
0.6562950356792786,0,0.986937
0.6425523650858429,1,0.993631
0.6911185226595826,1,0.999184
0.6852315382771496,1,0.996740
0.699961137413174,1,0.997549
0.638157139037577,0,0.815876
0.696793151036501,1,0.998370
0.6761367849890537,1,0.998206
0.6686187477846002,0,0.983617
0.6074831628461738,0,0.958393
0.692435011733539,1,0.999219
0.6922803252344985,0,0.992537
0.6761171022986733,0,0.984318
0.7054804085758868,0,0.989380
0.6544292950836123,1,0.999375
0.6877166765155815,0,0.980559
0.6424611705593298,1,0.998285
0.6464210280745444,1,0.999412
0.6906439919399392,1,0.995196
0.687718317735701,0,0.965661
0.6846522329844742,0,0.959117
0.7122669213329698,0,0.932556
0.6676525648444276,0,0.916532
0.6898247879783412,0,0.961149
0.6827260657008908,1,0.999400
0.6811777371413629,0,0.861174
0.7235154169413663,0,0.987027
0.7028587720212637,1,0.991091
0.703995184083957,0,0.977860
0.7180559747516915,0,0.968872
0.7104822317562022,0,0.945381
0.7240520689860748,0,0.873904
0.7367280118511508,0,0.970421
0.7441125213577898,0,0.981393
0.7429458788124551,1,0.997876
0.6535817946686882,0,0.979592
0.6760085099705333,0,0.973027
0.7128474525222169,1,0.999153
0.7450865674133609,0,0.989768
0.7310802057535394,1,0.999065
0.7228935783667906,1,0.997512
0.7522431796053121,0,0.990931
0.7286424576013475,0,0.875421
0.6824204473482353,0,0.974555
0.7224491956532217,0,0.980222
0.6517134372718909,0,0.814425
0.7121226295173309,1,0.992913
0.7333872385098641,0,0.980882
0.6777808863032493,1,0.998843
0.7130880954053956,1,0.999385
0.7228245888557917,0,0.918089
0.6911293009627,0,0.975189
0.7005412635982758,0,0.935018
0.72923482208512,0,0.889509
0.7196742962002979,0,0.883978
0.7150937730038894,1,0.997929
0.5369556766830444,0,0.989814
0.4870769735599536,0,0.882316
0.5079553533448093,0,0.851504
0.5494951965691345,0,0.854922
0.5175105470721401,1,0.998826
0.41412128741710785,1,0.998755
0.47386114759160797,1,0.999366
0.4910397946875627,0,0.889837
0.49606845379180253,1,0.996673
0.5430796547331621,0,0.957202
0.535265399473536,1,0.996672
0.5357913761131013,0,0.990591
0.5913367754643035,0,0.992618
0.5289601541805442,1,0.993506
0.5322719303027194,1,0.999378
0.5399591197774585,1,0.995498
0.4938979802869353,1,0.999370
0.5439802762198203,1,0.998862
0.5186222898730467,0,0.974954
0.45192638721778156,0,0.991736
0.4088541800572531,0,0.922370
0.5575499968093452,1,0.998230
0.5855657767073815,0,0.971819
0.6042094247863239,1,0.998277
0.4952238374012329,1,0.997212
0.5127760441759827,1,0.993908
0.5802535639178587,1,0.998783
0.5658276873339956,1,0.999352
0.4549497057796672,0,0.974925
0.557342296399643,1,0.990893
0.5574190516991726,1,0.998292
0.6203809628467565,0,0.910873
0.5631238494593668,0,0.987654
0.5967347914105385,0,0.979391
0.5259501711390262,0,0.980299
0.5869306196832026,1,0.996552
0.5857106910510461,0,0.947301
0.6614008142833997,0,0.935219
0.5607801732678056,1,0.996494
0.5614466989287215,1,0.998261
0.5261011807761297,1,0.996564
0.6297898318315683,0,0.991756
0.5618011541469681,0,0.959614
0.5412618170582859,0,0.874506
0.46474504587867804,1,0.998155
0.560543300152206,0,0.982285
0.7053718785372848,1,0.998927
0.5544879156369421,1,0.999080
0.5012800884903285,0,0.930435
0.5168107307331322,1,0.996797
0.560376144830943,0,0.941753
0.6421060873194057,0,0.971614
0.7267414602559779,1,0.999140
0.6586727753426245,1,0.994984
0.6640097740098505,0,0.939104
0.6099191437420872,0,0.992806
0.6817606306875312,1,0.998772
0.6404563928192888,0,0.965447
0.6637896232913837,1,0.998131
0.7322774869269556,1,0.998536
0.6277838935513375,0,0.985942
0.6804736653471727,1,0.996525
0.7324896489263305,0,0.946309
0.6521386524878121,0,0.973588
0.6834258233896902,1,0.997590
0.6667672045167364,1,0.996413
0.6020355258423649,1,0.998316
0.741435818905373,1,0.998551
0.7228817980667048,0,0.953281
0.6672760086742825,0,0.981567
0.654189544032822,1,0.995004
0.7089124830174912,0,0.986928
0.7208867078428597,1,0.996310
0.6690064137734262,1,0.995017
0.6739571809435306,0,0.992949
0.6979522910971987,0,0.987920
0.6971760448642157,0,0.987864
0.7409074602009715,0,0.935094
0.7358932992756226,1,0.998806
0.6794413932279871,1,0.996135
0.6513411825132421,1,0.999178
0.7070014395314528,0,0.968581
0.6573632422685358,1,0.995490
0.6663429856409879,1,0.999057
0.6312816724487477,0,0.984190
0.6870864727249446,0,0.984891
0.7017445094329287,0,0.931258
0.6868994990172401,1,0.999067
0.6569653729360816,0,0.987366
0.6918583367609314,1,0.998084
0.6880891475258589,0,0.987300
0.7080501052829619,0,0.988272
0.7211529455592872,0,0.867677
0.7528855131002997,0,0.980833
0.6543754867767082,1,0.993997
0.6580155814386842,1,0.996942
0.7245508074484422,1,0.997429
0.7110050228009194,0,0.990937
0.7194004895684126,0,0.963252
0.6571960528752013,1,0.995833
0.7194761303854759,0,0.978559
0.7025557746318367,0,0.989843
0.6135606323390367,0,0.849861
0.6353971404114256,0,0.950459
0.6886085774967727,1,0.999313
0.6113465219774912,1,0.996960
0.599469130488626,1,0.997909
0.6111808851698666,1,0.997942
0.6654228970029608,0,0.911605
0.6420160643486384,0,0.977528
0.6515546074961237,0,0.990021
0.6447421241148223,1,0.996667
0.5749378405699876,0,0.979936
0.6264503060353485,0,0.975297
0.6321217296446445,0,0.795495
0.652087011660346,0,0.982000
0.6860389591014665,0,0.974804
0.6172645153487293,1,0.994370
0.6465733371802552,0,0.823864
0.6738201405887679,0,0.968600
0.5988394566492666,1,0.995162
0.6360576113724712,0,0.816590
0.677658132037012,1,0.998172
0.6578783258961091,1,0.998418
0.6506761821505338,0,0.951429
0.6793677140690092,1,0.997250
0.6531739644788419,1,0.991968
0.6501676578248757,1,0.997232
0.6742854931185406,1,0.996838
0.6699935733547165,0,0.964253
0.6730228931925143,1,0.999316
0.6718531420980958,0,0.894737
0.654128246969793,0,0.886517
0.7000556931660585,0,0.972038
0.685951862190539,0,0.939516
0.7165243130537168,1,0.999417
0.6885835731490905,0,0.932605
0.6969715032141008,1,0.993873
0.6840521455196734,1,0.997129
0.6881475461262818,0,0.985849
0.719625125187168,1,0.996904
0.718292341687465,0,0.959473
0.7235447753613122,1,0.992958
0.6905084536750984,0,0.852230
0.7349633026215793,1,0.993921
0.7398161916137044,0,0.988360
0.7254954348768462,0,0.983463
0.6876234812855068,1,0.996372
0.6860631510928376,1,0.997671
0.6849829420270569,0,0.976710
0.7217906248588349,1,0.998440
0.6911029926618553,1,0.992586
0.7101753045651629,0,0.984700
0.7272393388020512,1,0.998219
0.7133090176259873,0,0.981406
0.7322598508667046,0,0.902622
0.7155099259714192,1,0.996873
0.7219801770441612,1,0.996785
0.6347250780246998,1,0.999346
0.7371300193057942,0,0.966762
0.6861056696782989,0,0.977049
0.6934696082181692,1,0.998017
0.6311019931203816,1,0.999333
0.679014424267053,1,0.994056
0.6425408000597478,0,0.952880
0.6968491935410611,0,0.960133
0.687515696595464,0,0.989899
0.7088925180675432,0,0.866355
0.7224132941923027,1,0.998668
0.6663458768665633,1,0.999366
0.692419096378389,1,0.997207
0.7083709910507751,1,0.998328
0.719349363248597,1,0.992337
0.6890768170348543,0,0.908972
0.7087858478944741,1,0.999399
0.6927956238120406,1,0.996113
0.7270611577301184,1,0.999109
0.7298874718149635,1,0.996696
0.7551659230962943,0,0.973059
0.7099589425906238,1,0.998636
0.7418848621168562,0,0.927489
0.7405098630403113,1,0.990119
0.7537717814635024,0,0.965938
0.7284590687254887,1,0.997781
0.6953886719254502,0,0.938394
0.7140656789282962,1,0.995257
0.7488780852537197,0,0.979631
0.7603851245761009,0,0.966970
0.7262760127195643,0,0.982890
0.7197107700431428,0,0.911063
0.7406418658234464,0,0.988186
0.6951560027880921,0,0.907764
0.7545371968869241,0,0.985549
0.7395865525654823,1,0.999088
0.6359220312147004,1,0.998405
0.7372429497748083,1,0.996886
0.761322566297501,0,0.919675
0.7463044458916603,1,0.995592
0.7506144003220134,1,0.999055
0.6770021390652219,0,0.966049
0.7336954623586563,1,0.999316
0.7468290960796633,1,0.999083
0.6726446183612619,0,0.987045
0.6612469092266762,0,0.850044
0.7307541415357249,1,0.999464
0.7204945832440925,0,0.846154
0.6841066937017779,0,0.906461
0.7239494892795447,1,0.998715
0.6778734496137528,0,0.977605
0.6813829329262734,1,0.992919
0.7396006082381534,1,0.998603
0.7547464051611753,0,0.911012
0.7667196231701415,0,0.971995
0.680479112217325,1,0.999493
0.6677931912240366,1,0.998451
0.7557247245904773,0,0.931538
0.6971073456991849,1,0.996869
0.7201534231786175,0,0.969650
0.7732084950182764,0,0.977860
0.7704210651071973,0,0.970432
0.6627858779920711,0,0.987288
0.7067085782599882,0,0.977163
0.7299392264934529,0,0.977974
0.681214775173507,1,0.999334
0.7680384373053211,0,0.960396
0.7638522349670389,0,0.963974
0.7435820137448893,0,0.912076
0.6523015674034347,0,0.973985
0.7056161656240127,0,0.984401
0.7344056247912014,0,0.982992
0.7478678912013474,1,0.994300
0.7215010987108278,1,0.995378
0.6591559786252598,0,0.946786
0.6492920182882108,1,0.995022
0.7158033790802464,0,0.910339
0.7580291766699642,0,0.940057
0.7128886904173884,0,0.959607
0.7335304770401438,1,0.999112
0.7574247900468186,0,0.975836
0.7174918716324958,1,0.996896
0.6759185698561261,0,0.990274
0.7495592163582161,0,0.982614
0.7482475211663738,0,0.985882
0.7543703657590789,0,0.985507
0.7491266533651082,0,0.969329
0.6524842839905594,0,0.991858
0.7477817162131861,0,0.984326
0.7570742666917268,1,0.998830
0.6985804224365219,0,0.949724
0.7633626157853957,0,0.829880
0.6695598809841375,1,0.993774
0.7348886354808831,0,0.958221
0.7050460956080338,0,0.976228
0.6866907256821171,0,0.993047
0.7066752696331758,1,0.997004
0.6912950742958777,0,0.918893
0.7620263260646866,0,0.992248
0.7589284841941849,0,0.884411
0.7428764688499003,1,0.998179
0.7247653380483818,0,0.799513
0.6876772920297147,1,0.998504
0.6713510476960264,1,0.999391
0.6877259481226454,0,0.971063
0.7679144354852591,1,0.999102
0.7454560962013617,1,0.995286
0.7046477108782818,0,0.982478
0.7691514623313477,1,0.999203
0.6244507044640879,1,0.993671
0.7019403665714269,1,0.995656
0.7203927031170314,0,0.971171
0.7178436363174538,0,0.989309
0.7281754970196279,1,0.998789
0.7355716016952423,1,0.996909
0.6879851949001617,0,0.963636
0.7277621106922976,1,0.996291
0.7545009610582574,0,0.965286
0.6487326595391512,1,0.999492
0.7341144197248299,1,0.996765
0.7471419113742125,0,0.876503
0.7087148051975488,0,0.938318
0.7395242757571069,0,0.845739
0.680764421360855,0,0.992007
0.7509489234160607,0,0.896332
0.7736621535114621,0,0.860000
0.6908652483100757,0,0.861702
0.7539234217317006,1,0.992028
0.7624364528336364,1,0.996835
0.6546341040843942,1,0.998329
0.6899277518051327,0,0.835478
0.7188527409131104,0,0.990155
0.702360474461531,1,0.997895
0.6804043636004953,0,0.992643
0.7513364533134019,0,0.924887
0.7816281318677617,0,0.947427
0.7426183492011719,1,0.993391
0.747536433661585,0,0.985703
0.7132464002978951,0,0.899219
0.7367137679667141,1,0.999339
0.6973313964965998,0,0.984015
0.7570384203747771,0,0.862955
0.6608838485909698,0,0.991492
0.6109903680696496,0,0.985675
0.7706090306472333,1,0.998140
0.7604606056507721,0,0.991577
0.7468281183592029,0,0.983548
0.7100300699418237,1,0.997389
0.7585506256408077,1,0.998034
0.7008797785701761,1,0.999300
0.7258989068364272,0,0.940891
0.7531891930300074,1,0.996506
0.7579747962258694,0,0.982050
0.7607332196397414,1,0.998529
0.6862386325845691,0,0.972923
0.7480515466543818,1,0.997500
0.6693476515891822,1,0.999549
0.7524121005738293,0,0.989796
0.7524581807455117,1,0.997238
0.7690982217548022,0,0.937916
0.7667014784544388,0,0.972624
0.7436042906911469,1,0.999251
0.7740741881611899,0,0.968173
0.7651500751161529,0,0.991289
0.7417649066086269,1,0.998465
0.7251359743344439,1,0.999378
0.6920046887557462,0,0.911978
0.7505534556619283,1,0.996833
0.7644760450159631,1,0.998403
0.7729425426981128,1,0.999087
0.7348727204285751,1,0.998853
0.7080744366345849,0,0.909774
0.7397075922498847,1,0.991811
0.7769069109747707,1,0.999450
0.6227144046936381,0,0.969265
0.7052373798997141,1,0.999081
0.7021353937238816,1,0.998486
0.729588783752673,0,0.894737
0.7324620065080751,0,0.973413
0.7646472350603347,0,0.982961
0.7446185026789625,0,0.985992
0.7624977021657057,1,0.999253
0.6937999850258731,0,0.980034
0.6497746989099046,1,0.999432
0.7463868406645136,1,0.996667
0.670477491995032,1,0.999113
0.6570215005594768,0,0.981863
0.7331558873854868,1,0.997204
0.7331703579293396,1,0.999227
0.7586197339133778,0,0.976092
0.7354676825057205,0,0.969081
0.7699657813844931,1,0.997345
0.7627057633674948,0,0.874449
0.6644151160177411,1,0.999482
0.6761204828837731,1,0.999418
0.6816389363385471,0,0.986514
0.7401572781713126,1,0.992586
0.7244061775378742,1,0.998192
0.7298009916828345,1,0.991446
0.7460350675573498,1,0.998453
0.7513218189400184,0,0.936795
0.7568706501907136,1,0.999140
0.7720510233382779,0,0.976296
0.6895426065845021,0,0.949533
0.715309161276017,1,0.999049
0.7310188024857843,0,0.987037
0.7561194828154796,1,0.999095
0.7277341237593498,0,0.902547
0.7121251905344381,0,0.989261
0.7080079951543972,1,0.994455
0.7158466004744874,1,0.999398
0.6840174775029613,0,0.961159
0.7396588951420385,1,0.997608
0.6650999715837096,1,0.998772
0.6523071664896485,0,0.902167
0.5775049592234051,1,0.999392
0.7832874194603957,0,0.989047
0.6695336872743709,1,0.995491
0.7823102926521335,0,0.981467
0.7619137036375603,0,0.985034
0.730581761918186,1,0.999052
0.773621572221669,0,0.932314
0.7556832314397495,1,0.994341
0.707606433786842,1,0.999385
0.7694412981279102,0,0.901099
0.6633455277868339,1,0.999468
0.7706984501638663,0,0.987075
0.7281150806351553,1,0.999263
0.70329069708804,1,0.997710
0.7463861102421016,1,0.993602
0.6339585884185756,1,0.993145
0.6543771805108625,1,0.999436
0.7573099813614057,1,0.999190
0.6463657123394482,0,0.947966
0.6303726744643585,0,0.974867
0.6888402866572462,0,0.948568
0.7191089727030107,1,0.994822
0.6349894018131796,0,0.984287
0.7274709379398896,0,0.863341
0.6406998041805466,0,0.850746
0.7331888594875156,0,0.982818
0.7027580144703,0,0.858233
0.7159557133978202,1,0.995739
0.7101970538666211,0,0.989550
0.7293545257295966,0,0.832787
0.6500333305677034,1,0.997339
0.7515661374783487,0,0.851562
0.7395553946471235,0,0.845212
0.7285934509380693,1,0.998383
0.7077353839913998,1,0.998557
0.7216572838408296,0,0.988701
0.7064489552208472,0,0.985024
0.7006313836490538,0,0.843348
0.6738765493141173,0,0.951691
0.7291997149327216,1,0.999047
0.7032722145872577,1,0.993728
0.6698009917851357,0,0.976206
0.6555387132134979,1,0.999502
0.667445129155741,0,0.966273
0.7118581663472509,0,0.879859
0.7251565162889284,0,0.975181
0.7351631128844393,1,0.997940
0.7436410070999262,0,0.866957
0.6908674836205301,0,0.887892
0.6785856739090846,1,0.995146
0.7419060794611597,0,0.984959
0.6866892552019367,1,0.998411
0.6980835258286645,1,0.998426
0.6512223095680161,1,0.998069
0.7385761399366453,0,0.971463
0.685163103238452,1,0.992544
0.6713759326010704,1,0.999092
0.702590250479418,0,0.969091
0.6448336814477854,1,0.998533
0.6704033501839368,1,0.998129
0.7263234071863454,0,0.983607
0.6968026209882209,1,0.999162
0.713058660698478,1,0.997172
0.6675043325334443,0,0.959363
0.6679880209863068,1,0.999038
0.725647585072542,1,0.999045
0.7327760535624483,0,0.860593
0.6920289100052792,1,0.995019
0.6953384152651746,1,0.999329
0.7266842934814164,1,0.999145
0.7065438266066189,0,0.957803
0.7617529224834001,1,0.998458
0.6802208418468314,1,0.999259
0.6872969873125305,0,0.981043
0.7440213970245908,1,0.997396
0.6259215041463237,1,0.999390
0.6308485800424628,1,0.999479
0.677322556203554,1,0.999255
0.6797783846227126,1,0.999400
0.7366437151595132,0,0.975527
0.716119241786603,0,0.960902
0.5997647406803363,0,0.883447
0.6981745292870826,0,0.959218
0.731380421975588,0,0.983513
0.7205445981601912,0,0.855748
0.686867868816627,1,0.999427
0.7273134626987977,1,0.999374
0.7181094495745455,1,0.999563
0.7107282595163223,1,0.995425
0.6474500101837948,1,0.999071
0.7217164847904142,0,0.967406
0.723168726720491,1,0.996717
0.7525446032393605,1,0.998486
0.677798208403761,0,0.835430
0.7478917491112789,1,0.996406
0.7123481569116554,0,0.909091
0.7305909715395476,0,0.837752
0.6672323278694683,1,0.999204
0.6443206803630658,0,0.925391
0.6683670038018759,0,0.990852
0.6565038689110896,0,0.938628
0.6774132111285628,0,0.974719
0.6626515687177265,0,0.965585
0.6395232929457668,1,0.993844
0.6912022666092029,0,0.989302
0.68281973328483,0,0.969394
0.6849408497353364,1,0.998340
0.671044597816865,0,0.983374
0.6305840958290073,0,0.993718
0.7080279941476582,1,0.997565
0.6885754192130116,1,0.997278
0.6983281576346635,0,0.955939
0.6969397159222593,1,0.998066
0.7003689564762551,0,0.994067
0.6583121542187925,1,0.999295
0.6875937834268626,1,0.998960
0.6778824254796513,1,0.998491
0.718113198585981,1,0.999235
0.6769009894836444,1,0.997753
0.6722191822538994,0,0.863111
0.6911519786895085,1,0.999222
0.6690372838235689,1,0.999213
0.7613565386177521,0,0.917083
0.7324469338961587,0,0.742820
0.741303883632638,1,0.998541
0.7399267800740319,0,0.907839
0.7053807485605945,0,0.992567
0.7632060874888379,0,0.910733
0.718816839908839,0,0.975490
0.713482540179071,0,0.984489
0.648637738722502,1,0.999508
0.6914306590149609,0,0.873494
0.6941197433405085,1,0.997526
0.7073871880651396,1,0.999167
0.7027942042279515,0,0.802721
0.6599597620543292,1,0.999511
0.7241963632323946,1,0.996716
0.7321668223429799,0,0.991912
0.7054095821333224,0,0.952334
0.7130677875221764,0,0.974406
0.7281358478181365,1,0.997338
0.6706823555844789,1,0.999483
0.7418692186282919,0,0.978953
0.7380049471948934,0,0.723024
0.742779087667094,0,0.988688
0.7512295036002743,0,0.898669
0.6502947842258049,1,0.999557
0.6492228045506783,0,0.985449
0.6566113913043253,0,0.964806
0.6094027017703902,1,0.999540
0.6436997487634291,1,0.998971
0.7304974371057413,1,0.999351
0.6857784796278956,0,0.909968
0.7098394380451305,0,0.953488
0.7462492803249802,1,0.998965
0.7489876672582,0,0.944162
0.6538801219364127,0,0.946381
0.6493452711976216,1,0.999114
0.6471581777664293,0,0.913580
0.7394030096265687,0,0.944444
0.7253516378470001,1,0.999138
0.6911763768669056,1,0.999136
0.708227818073291,1,0.999119
0.7063633450388983,0,0.930233
0.7139060802235709,0,0.953577
0.7008191448381836,0,0.964048
0.6968715460515005,0,0.942740
0.7089180248027871,1,0.997314
0.7391789536651733,0,0.979178
0.732878199519633,0,0.845735
0.7350395309682665,1,0.997133
0.7374357732128005,0,0.967644
0.7363652002481261,0,0.858144
0.6869154049023679,1,0.994795
0.7052458217525036,1,0.999426
0.7339488118372868,1,0.996926
0.7427374995950373,0,0.889442
0.7218990260499164,0,0.946323
0.6487219725216727,0,0.959225
0.6453422764476164,1,0.996965
0.6640173608149464,0,0.875442
0.6560126675896204,0,0.838384
0.6481491384950715,0,0.990924
0.6710824226307367,0,0.912653
0.6402902386036198,1,0.998474
0.668832540552384,0,0.927753
0.6552812659328101,1,0.995992
0.6321589440435309,1,0.999244
0.7224550254603991,0,0.989781
0.719748764234601,0,0.973021
0.6919056011709659,0,0.991798
0.6977211964840135,0,0.981195
0.6869631227229136,1,0.999209
0.7121356651257124,1,0.995638
0.7074417281610181,0,0.897868
0.7143482556867013,1,0.995687
0.674767347491366,0,0.936286
0.6346033685012636,0,0.893897
0.7157277452770991,0,0.954111
0.744421276456014,0,0.935027
0.738559093882837,0,0.983078
0.6819294630841005,0,0.989326
0.6792946261053935,1,0.993041
0.690202851299386,1,0.996995
0.7302401609559683,0,0.858889
0.7493027766800575,1,0.997751
0.7469084487639979,0,0.912599
0.6754748485844212,1,0.999356
0.6916752702210676,0,0.993605
0.778632646044985,0,0.989140
0.7051572786926981,1,0.996850
0.6792561975707626,0,0.881759
0.7091557131695094,0,0.919847
0.7719106783237799,0,0.862983
0.6737164287504611,1,0.998171
0.7022933073523915,0,0.968566
0.7450350771844733,0,0.989209
0.6311729892393044,1,0.999067
0.7259772199204795,0,0.866600
0.7065404645630753,1,0.993680
0.7083834197346786,0,0.985891
0.7342330391788388,1,0.998526
0.6414343453395795,0,0.978955
0.6958317763602907,0,0.986028
0.7279934176476003,0,0.976538
0.7101032063792438,0,0.987666
0.7394493498737695,1,0.999214
0.7301112960382722,0,0.977928
0.7334366112259472,0,0.950839
0.7198462207021886,0,0.948625
0.6652630311032462,0,0.914001
0.6974931373568936,1,0.999325
0.714799353701054,0,0.987100
0.7063894877571704,0,0.960517
0.7345508003329679,1,0.999259
0.7504958433135146,0,0.987084
0.7234258749805893,0,0.986547
0.7347643413594118,0,0.857369
0.7261450661865388,0,0.983087
0.6097876393607284,1,0.998210
0.6964157951791069,1,0.999365
0.6830161168675023,1,0.995104
0.703811017797364,1,0.994524
0.7022690019725992,1,0.998093
0.677462118289074,0,0.916764
0.6815476234601043,1,0.989955
0.7294753512483618,0,0.925819
0.728691696369723,1,0.997343
0.7070936338190171,1,0.999117
0.7058173783070326,1,0.998486
0.7372898604887818,1,0.991061
0.6854594687183608,1,0.999382
0.741076039261861,0,0.990719
0.72281096577997,1,0.999140
0.7572215242547892,0,0.977448
0.7286576057685374,1,0.999433
0.7294757778811765,1,0.995846
0.7225915622827899,0,0.994826
0.7474600556839182,0,0.992762
0.7388147091229371,1,0.998082
0.6730853805593756,1,0.999506
0.7464504854780767,0,0.957143
0.729947433279202,1,0.998012
0.6523590307808966,1,0.999488
0.7099870806179261,1,0.992375
0.6717148318382677,1,0.995275
0.751990137620362,0,0.988515
0.7482889848110873,0,0.947817
0.6682665755644462,1,0.999388
0.7144124341396894,0,0.959860
0.744410793361504,1,0.999517
0.7425726944765174,0,0.966698
0.7432713584244194,0,0.990017
0.6456761322007695,1,0.995370
0.7030094948381969,0,0.985792
0.7394009878948364,1,0.995556
0.7419085007541294,1,0.999124
0.7114701392207851,0,0.958801
0.6750988695263028,1,0.999377
0.7118073699499614,1,0.999302
0.6708620658523781,1,0.999447
0.7008104435228171,0,0.950802
0.6903464632220767,0,0.937884
0.742565228902068,0,0.990130
0.6859170142598651,0,0.767018
0.7562983418094905,0,0.982670
0.7470471742302331,0,0.893069
0.7110551998828267,1,0.999349
0.560044891538338,0,0.693864
0.7557493355411317,0,0.887500
0.7151269103274144,1,0.999022
0.6710108729658787,1,0.997625
0.6791798688940563,1,0.999211
0.690604887478466,1,0.999188
0.6679941213953344,1,0.999229
0.681197868749745,1,0.996921
0.7343761293131713,1,0.997610
0.6794687795224073,0,0.948482
0.6876482091994086,1,0.993681
0.6970066373625333,1,0.999211
0.7345877798749758,0,0.942831
0.7326039185834555,1,0.999216
0.7312702627761593,1,0.996951
0.7125214451684255,0,0.918173
0.7283595006517025,1,0.997645
0.7358573873498699,1,0.997563
0.7071077889105821,0,0.969263
0.715057207177577,1,0.999208
0.7060539141042667,1,0.999166
0.7201403050676832,0,0.932172
0.6967107938703441,1,0.999208
0.7296086647105807,1,0.997535
0.7063446124577966,0,0.909519
0.7094001065390284,1,0.997557
0.714076467169429,0,0.922446
0.7414666311388697,0,0.901304
0.6918212546120799,1,0.999222
0.6916468928761365,0,0.986631
0.7209856241557132,0,0.953685
0.6872608505695386,0,0.893597
0.6886932237714611,1,0.996890
0.7007115114824365,0,0.984785
0.686189241962402,1,0.995784
0.7424088943536836,0,0.982373
0.7159584844003785,0,0.970343
0.7107637185973998,0,0.949959
0.7365175816640087,1,0.997297
0.7036537501386546,1,0.994113
0.7325047078804379,1,0.998841
0.7489221228715943,1,0.995807
0.7498610065262743,1,0.997840
0.7417329109755518,1,0.999130
0.7795929944188311,0,0.980110
0.7396677441354866,1,0.998908
0.7191163342193464,0,0.980707
0.7454183797052798,0,0.956376
0.755064318224678,0,0.974461
0.6755899350803979,1,0.999360
0.734244356408034,0,0.976448
0.7085474677599207,0,0.989840
0.7693854708662341,0,0.981132
0.715572076450935,1,0.999466
0.724967983293999,1,0.991349
0.7427375110374044,0,0.974922
0.7364512775197924,0,0.950404
0.7067101744693896,0,0.973060
0.7780394040803524,1,0.996381
0.7664371939375354,0,0.881222
0.7818410377775254,0,0.937701
0.7346466348777676,0,0.955142
0.7350186006696983,1,0.999171
0.728514041622731,1,0.991589
0.7619155393191099,1,0.999078
0.7713673818064474,1,0.999071
0.69048482564179,0,0.953731
0.7494104977366721,1,0.995713
0.6619188622882712,1,0.999427
0.7157743751613416,0,0.970852
0.6279274371389532,1,0.999422
0.6320798663838086,0,0.880824
0.7081057062735627,0,0.951040
0.6783768736073703,1,0.998949
0.6722494604368376,0,0.973861
0.7226621349860912,0,0.891011
0.6873845962290482,0,0.978435
0.6665269344975071,0,0.959427
0.6961907060122153,1,0.996848
0.7100828577095019,0,0.980754
0.6030939372782278,1,0.997353
0.6477413584026958,1,0.995752
0.7734947232397126,1,0.999284
0.6872044479257741,1,0.999209
0.7476665884265776,1,0.999362
0.7496223257741256,1,0.991435
0.7765382648168679,1,0.998472
0.7303577480691307,1,0.998127
0.7616346828630197,1,0.998955
0.746640444747011,0,0.972166
0.7617616606579964,0,0.866579
0.7409009263410941,0,0.960472
0.6866920221784568,1,0.999046
0.7090950686621378,1,0.998765
0.6564994425797211,1,0.999367
0.7061069757070111,1,0.999605
0.7308012497474697,1,0.995329
0.6930708970719529,1,0.995595
0.737009372564624,0,0.990166
0.6538369695210848,1,0.999395
0.740758420354078,1,0.999341
0.7115407432529414,1,0.997986
0.702616472156084,1,0.998847
0.731670662736316,1,0.998880
0.6424996110273741,1,0.998666
0.7333819608881339,0,0.965224
0.7357657969151196,1,0.999019
0.662861700853405,1,0.998106
0.6366076463006138,1,0.999368
0.73563640234837,0,0.976791
0.7372666191614634,0,0.984766
0.6853851608274945,1,0.993243
0.6891225666182549,0,0.910458
0.6407062464827533,1,0.998016
0.7264136890923036,0,0.941368
0.734429641879615,0,0.984898
0.7271000919132873,0,0.936989
0.7012545603811587,1,0.999199
0.6251605145247475,0,0.935238
0.6736230980897919,1,0.999542
0.7066420389187897,1,0.991438
0.696902213665324,1,0.997046
0.706617657798349,1,0.996865
0.6952958127326946,0,0.663467
0.6873165414140139,0,0.929094
0.7253953371898012,1,0.995772
0.6873178026712811,1,0.999460
0.6613143752210546,0,0.959085
0.6802505264264863,1,0.999309
0.6312279724187405,0,0.966731
0.7168606778364482,1,0.999416
0.6971584970190626,0,0.972618
0.7094289965947614,1,0.998371
0.6819574842759817,0,0.953345
0.7117820219135587,1,0.993989
0.6455487520311137,1,0.999305
0.7034264056715398,0,0.859184
0.628693590510825,1,0.997096
0.6078763993211933,1,0.998282
0.6384643532274372,1,0.998442
0.7137449074851855,1,0.999524
0.7100599230788939,1,0.998814
0.7221250169729184,1,0.998967
0.7069811191451754,1,0.995704
0.671966981254909,0,0.962986
0.7113568041396076,0,0.984248
0.725071785804149,0,0.979086
0.701404461515493,0,0.991597
0.6641758414266622,1,0.997565
0.7168868774550109,1,0.998889
0.7150490489673478,0,0.990178
0.6477140975570223,0,0.977127
0.6961045827639173,1,0.994934
0.7052510547425419,0,0.985746
0.6850753071078421,1,0.997253
0.7539780762663475,0,0.985084
0.6985311957024515,1,0.992706
0.7225435388270913,1,0.996725
0.7183113224094987,1,0.998726
0.6555384006464323,0,0.965739
0.6861279924804219,1,0.996599
0.6681521839769211,0,0.927586
0.7313078098431729,1,0.994969
0.6986675581713843,1,0.995318
0.7351377898581217,1,0.994302
0.6846188708291371,1,0.994949
0.6469724715331021,0,0.971791
0.6547236055009872,0,0.991180
0.6889677699608624,0,0.977090
0.7287196596185131,0,0.984855
0.7124019573722823,1,0.999295
0.6883983433268924,1,0.999073
0.6616617510983638,1,0.997587
0.6883824458766845,1,0.997245
0.6840783209102994,1,0.997621
0.719603615628845,0,0.963087
0.7014447514548784,1,0.998351
0.692205475144587,1,0.999113
0.7443565619587483,1,0.999339
0.7325929780826321,0,0.970498
0.6859954510731062,1,0.999374
0.7202413320540519,0,0.909901
0.720235637889709,1,0.998767
0.6345713646296253,1,0.999063
0.7086009470652245,1,0.997945
0.7258348675567109,1,0.995842
0.5055290736662424,0,0.899549
0.7105893613822625,1,0.995025
0.6835173870801464,1,0.995525
0.725920525151702,1,0.999362
0.655128059207954,1,0.998574
0.706986161463179,1,0.993133
0.6812254366252279,1,0.998307
0.6826404025671405,1,0.998588
0.7308513783677556,0,0.976615
0.7309039795196047,1,0.998912
0.7423641806931158,1,0.998030
0.7055676402354222,0,0.968139
0.736495171242544,0,0.976009
0.7138370694530014,1,0.997992
0.7058935167205392,1,0.997869
0.7457257853051282,0,0.984000
0.6796794554073798,1,0.997319
0.7351542911119303,1,0.994863
0.6248832962026999,1,0.999437
0.6712782058422841,0,0.961941
0.7302429056848594,1,0.999356
0.6799888726710174,0,0.988203
0.705298410589307,0,0.912069
0.6600100949462397,1,0.999297
0.6924747529403199,1,0.996790
0.6878940187227635,0,0.809524
0.7267351302320934,1,0.998228
0.655178557017103,0,0.890909
0.6971367350416844,1,0.994409
0.7090877993872976,1,0.995948
0.6441555094953055,1,0.999181
0.6788815187325411,1,0.992941
0.6944399354284754,1,0.994885
0.7077918158769341,0,0.955896
0.6882286318014699,1,0.998614
0.6997333896792096,0,0.968836
0.6752565737197082,1,0.996136
0.7112510565840091,1,0.999189
0.7064402989868306,0,0.886625
0.6888516945117485,0,0.916988
0.7048460477306794,1,0.996830
0.7356652545195277,1,0.995618
0.7176771248318278,0,0.956443
0.6505520305729003,1,0.995729
0.6858404290396144,1,0.999184
0.724933232036054,0,0.980533
0.7468857964213781,0,0.976998
0.7285802211922416,1,0.999188
0.7291907884908855,1,0.995152
0.7410648475537126,0,0.917448
0.6974188855043902,0,0.969721
0.7305574480140385,1,0.998340
0.714800219000656,1,0.991903
0.7263964518421874,1,0.996887
0.7263867135883296,0,0.993217
0.7207500682793105,0,0.962739
0.7339073377464769,1,0.999206
0.6976147464619428,0,0.970588
0.7264405569720348,0,0.952113
0.721173962233156,0,0.906741
0.7556695232968137,0,0.940312
0.7477624069108373,0,0.893694
0.6842068384525893,1,0.999183
0.7320769701804833,0,0.946757
0.7204212102372425,1,0.995556
0.7238346834816364,0,0.993601
0.6680401497280934,1,0.996180
0.6978410113616965,1,0.997155
0.7326899224172719,1,0.997480
0.7293726588935172,1,0.995951
0.7304278319840847,1,0.999169
0.7312489662990128,1,0.999202
0.7209902985675988,1,0.999209
0.7215639529669632,1,0.997825
0.688835917657234,0,0.861940
0.6532721427245418,0,0.991975
0.711300311060676,1,0.998374
0.7218473864379112,0,0.919220
0.7025356054549888,0,0.987167
0.7075064011167,0,0.912835
0.7037598988086697,1,0.998391
0.6970775645352342,1,0.997701
0.6627936160502403,0,0.898592
0.7273415524403938,0,0.872913
0.7271310996878236,0,0.978792
0.7036147007074367,0,0.857014
0.6661768102359596,0,0.983759
0.6955165203752565,1,0.999195
0.7084949388699072,1,0.996813
0.773386436096147,1,0.997649
0.7499683027028031,0,0.980850
0.6903340227358885,1,0.997270
0.6486320427489237,0,0.992370
0.7608233254192625,0,0.993147
0.7189034273823868,0,0.933573
0.7160814837663809,0,0.945415
0.7602145912605076,1,0.998622
0.6898384553132124,1,0.999397
0.7471383110927785,0,0.992263
0.7264960116407364,1,0.996825
0.6710472825953792,1,0.999392
0.7302094513215842,0,0.970000
0.7755161826558896,0,0.962223
0.7661445579468605,0,0.961538
0.7687971072446235,1,0.997204
0.7433001726047594,1,0.993624
0.6781826374567704,1,0.998999
0.749957656258753,1,0.998222
0.7169244802759808,1,0.995479
0.7824555353538246,0,0.975771
0.7545217869303174,0,0.980456
0.6995478274691583,1,0.999457
0.7204362177065764,1,0.993659
0.7607272943160511,0,0.931614
0.7275122868676916,0,0.954911
0.7235944752907238,0,0.860504
0.6917026378315345,0,0.949521
0.739226030908952,1,0.995294
0.6908987191477479,1,0.997577
0.7538029091512769,1,0.997577
0.7412086635536053,1,0.998106
0.7410712529524457,1,0.999280
0.6713047627571018,1,0.995617
0.7196150904595383,1,0.998533
0.6627425678510043,1,0.995116
0.7684423851237749,0,0.924225
0.7327791913402303,0,0.992248
0.7244446223087508,0,0.977738
0.6900171375414639,1,0.995560
0.7560116097517848,1,0.997714
0.7012121503875784,1,0.999414
0.7336694863494951,1,0.998660
0.7687117218780859,1,0.995723
0.712226769541568,0,0.987585
0.7674534560097603,1,0.995188
0.7088179435544004,1,0.994302
0.7484180475972502,0,0.967820
0.7483478554430841,0,0.985860
0.7476046054983809,0,0.991345
0.6524258974999984,1,0.999391
0.7065334776002913,1,0.998650
0.6792650247061743,1,0.999248
0.7012105308920724,0,0.984720
0.7384246826711491,0,0.985816
0.670685033374987,1,0.999288
0.6828557034820827,1,0.998618
0.7474138953614091,0,0.946772
0.6831884096571679,0,0.939259
0.752174961769752,0,0.975798
0.6641248470267497,1,0.997804
0.7741864220080321,1,0.999286
0.6851672247533919,1,0.999367
0.736525681654977,0,0.924293
0.7648136146174813,0,0.983705
0.6650515184179373,0,0.865223
0.7433336433503921,1,0.999356
0.7271211247009448,1,0.995460
0.7373455012231084,0,0.985808
0.7083787816729584,0,0.951896
0.7388101768533626,1,0.998414
0.7377944152454645,1,0.996610
0.7347145261647408,0,0.985222
0.6929053851776759,0,0.966587
0.747026717308979,0,0.991779
0.7730916934280163,1,0.999104
0.7699492196092617,1,0.996096
0.715622761566065,1,0.998740
0.7270623786079684,0,0.992584
0.7868346674092779,1,0.999472
0.76373630978599,0,0.975761
0.6214293189636918,1,0.999387
0.6664298125976252,1,0.996421
0.645586633959462,0,0.984917
0.7068930937859489,1,0.998648
0.7345686487648687,0,0.985612
0.6614481440923498,0,0.940587
0.7060921326801289,0,0.985236
0.7223871471238686,1,0.997085
0.7260211206303061,1,0.998441
0.7453844231179512,0,0.986377
0.6866173393437256,0,0.983456
0.7191698580805395,0,0.981265
0.7313169545166562,1,0.996198
0.7411175037960519,1,0.999174
0.7358996207078011,0,0.877023
0.7005995706772202,0,0.965069
0.7065870593571048,1,0.999107
0.7247706835041663,0,0.979241
0.7453122856639348,1,0.999066
0.7570751044247491,0,0.992178
0.6754171022887293,0,0.936764
0.7424930644754736,1,0.991489
0.7575343480805963,0,0.989500
0.7349237071416689,0,0.986395
0.7545150387103728,0,0.987271
0.7181023195408935,1,0.997118
0.778465907727382,1,0.992296
0.7203860014865938,0,0.983607
0.6988186572245828,0,0.920513
0.7522613132050016,0,0.905405
0.7416493890693797,0,0.984772
0.7653763442680946,1,0.998912
0.7394134641752832,1,0.996051
0.6893719741143052,1,0.997643
0.7416270866553463,0,0.986006
0.6931567072184024,0,0.961506
0.7270381385948534,1,0.999470
0.7040177473016489,1,0.999443
0.7635507745841383,1,0.999501
0.7538681601990657,0,0.882675
0.7395243812197749,1,0.996983
0.7358964227629629,0,0.983727
0.7173489003386476,1,0.998909
0.6776076318462055,1,0.993939
0.6576863894357847,1,0.995285
0.709853078805411,1,0.994558
0.6385282989999905,1,0.999350
0.6793618896192944,0,0.993522
0.7520516949155182,1,0.998084
0.6651361859027757,1,0.999347
0.7054626881391404,0,0.983236
0.6904196047477146,1,0.999214
0.7230694275756494,1,0.999093
0.7013675441309415,0,0.977082
0.7006100435066608,1,0.993506
0.7302406891963525,0,0.959770
0.7170512103888942,0,0.881612
0.719558991519527,0,0.907082
0.7426595452187182,1,0.995932
0.6536072149754149,1,0.998439
0.768004186485604,1,0.992969
0.7603254700858386,0,0.991918
0.7079612920003203,1,0.999392
0.6608808202147727,0,0.968473
0.7054546835705301,1,0.993559
0.6898164425917976,0,0.951641
0.7837219514281203,1,0.997225
0.7856290034575737,0,0.945599
0.6470508545102402,0,0.990981
0.6651273151127902,1,0.995362
0.744608235312605,0,0.994253
0.6944020913061872,1,0.999059
0.7069262575309548,1,0.998706
0.7273127556553087,1,0.998867
0.7059720110895881,0,0.988372
0.7688935347243935,1,0.994426
0.7446265718539143,1,0.996805
0.723015648912699,0,0.984171
0.7515663647914044,1,0.999019
0.7114610654418414,0,0.894915
0.6325487922371875,1,0.999574
0.7018408470607842,1,0.994845
0.7104114802975179,0,0.958135
0.7161846979892716,1,0.998020
0.7174977387985674,1,0.999348
0.7128372624705152,1,0.999150
0.7198735867885586,0,0.931985
0.6892187497909849,0,0.980596
0.7225977845074654,0,0.952425
0.7077848492188784,0,0.970525
0.7456007457803735,0,0.968813
0.7586855147305516,0,0.953281
0.685709234611341,0,0.971947
0.7020034157394143,1,0.996767
0.7450868090121392,0,0.975087
0.6417302985481523,0,0.957541
0.6958526593620653,1,0.994259
0.7212481089676221,0,0.986711
0.7476082997509493,0,0.974066
0.7516272963877901,0,0.992165
0.7299810040796687,0,0.986991
0.7573140995485768,1,0.999162
0.7233097207922506,1,0.999363
0.7189489157143029,0,0.986928
0.719450777615473,0,0.887025
0.7064730033631822,1,0.999394
0.7081670819288048,1,0.999422
0.707575190497097,1,0.997545
0.7183326562864439,0,0.974532
0.7696874785066111,1,0.999137
0.7023836877209313,1,0.993220
0.7467911937301674,0,0.986989
0.7113746515621628,1,0.996121
0.7674404181552673,0,0.987277
0.635225349969138,0,0.986801
0.7520143210067185,0,0.989665
0.7663255713221837,1,0.997326
