0.2747495529335189,1,0.999574
0.5356223343366929,0,0.744395
0.6963315852666124,0,0.965894
0.37582305765067464,0,0.420951
0.6949198759619446,1,0.999280
0.7722520510575819,1,0.999599
0.4654353186965751,1,0.999612
0.7733309999411986,0,0.870370
0.7304465115499315,1,0.994475
0.7731602853100906,1,0.999368
0.8528903585536375,1,0.998314
0.8465888866485483,0,0.983482
0.8371184500905285,1,0.999319
0.6913999652696027,1,0.999389
0.8238872781058922,1,0.999587
0.7954893197671907,1,0.996670
0.8831054404245194,0,0.777413
0.8345773705880577,1,0.999667
0.7857583594170582,1,0.999477
0.7433131530324949,0,0.975570
0.8640211932236894,1,0.996791
0.7551343496628589,0,0.970857
0.8655934193913348,1,0.998016
0.7794169278630055,1,0.983452
0.8323484545732078,1,0.996449
0.8460353049733054,1,0.999427
0.8652069016941538,1,0.998755
0.7634971311374257,0,0.986890
0.7851979698897544,1,0.996296
0.79544246964986,1,0.999661
0.8783203355094623,1,0.999268
0.841151808950292,1,0.998829
0.8471285072580518,1,0.996622
0.7751097765919258,1,0.999065
0.8591479397897707,1,0.998020
0.8690448456223145,1,0.997481
0.7177606295891737,1,0.998570
0.9046471693898489,0,0.986186
0.8721286334306692,1,0.998721
0.9087790774676903,1,0.999060
0.8854543286360219,0,0.987154
0.9015537926611265,1,0.998830
0.8583088819852716,0,0.982109
0.9001764843094201,1,0.998476
0.8484701495079694,1,0.999305
0.8807382119641676,1,0.995392
0.8576659761913042,1,0.998577
0.778921352289415,0,0.991988
0.8191453573048593,1,0.998497
0.7448766139466797,1,0.994839
0.7553982309004402,1,0.998634
0.7985969478989308,1,0.998928
0.7779963765038241,1,0.999389
0.7583365860429675,0,0.924370
0.8179698189965354,1,0.999387
0.7981305926981328,1,0.995937
0.768758439887563,1,0.999492
0.7567874277250778,1,0.999491
0.8040223091399611,1,0.999301
0.7527848473256288,0,0.977346
0.7451897411827795,1,0.999423
0.8349527595120954,1,0.994931
0.8400629343185793,1,0.997942
0.8248635435147521,1,0.999383
0.9147157499457558,1,0.996448
0.8524368841430814,1,0.999405
0.8197781247483177,1,0.998225
0.8963726502964324,1,0.998911
0.8765471567620111,0,0.924618
0.8913049816994393,1,0.998976
0.9129475374658143,1,0.999290
0.8910069171150908,0,0.949521
0.8949061471749289,1,0.997889
0.8621536084341893,1,0.992293
0.8626165543084774,1,0.997859
0.8379231831733178,0,0.993247
0.8661888531348648,1,0.997010
0.8797410628633405,1,0.995516
0.8971318941704893,1,0.999288
0.8790959799606228,1,0.999279
0.8837944743827717,0,0.987885
0.8861988189083893,1,0.998526
0.8919475062898112,1,0.998574
0.8843949575356648,0,0.980861
0.8819840946231363,1,0.995928
0.9182815026057366,1,0.999229
0.8914324095643366,1,0.999045
0.9023308449268638,1,0.998477
0.9031493924394804,1,0.999110
0.8751873613643775,1,0.999388
0.8237525046708128,1,0.999455
0.9166390059949401,1,0.998195
0.8176653659199502,1,0.998668
0.852743870562415,1,0.999266
0.9220955593140272,0,0.971281
0.9195702453215827,1,0.998818
0.8461751298991582,1,0.999005
0.8791032627687858,1,0.998967
0.9002391334874262,1,0.997942
0.8664171891485772,1,0.998764
0.8574584480208277,1,0.997358
0.9133287032832271,1,0.999350
0.9271852549723107,0,0.980355
0.9312137568890431,1,0.998286
0.8059374101095537,1,0.999031
0.8345120205914971,1,0.998660
0.9120754264316513,1,0.999287
0.8396502218889361,1,0.999373
0.8568509509667009,1,0.999248
0.8600796250540134,1,0.999480
0.8083236268967199,1,0.999387
0.9014458823069156,1,0.998963
0.892127067234841,1,0.999354
0.784969541625305,1,0.992895
0.8620846146362159,1,0.999056
0.9146326645112816,1,0.998554
0.89542295569613,1,0.998980
0.9203590461737206,1,0.996933
0.8766504314675603,1,0.999288
0.894040468658753,1,0.985417
0.8603636686938618,1,0.999284
0.8743340605477208,1,0.999208
0.9055731622695227,1,0.999175
0.9252503377942831,1,0.999173
0.8969810704692267,1,0.993915
0.8818913540337513,1,0.992952
0.8966166053036595,1,0.999114
0.9050265305995293,1,0.994248
0.8948388406222236,1,0.998970
0.8965390387453185,1,0.998150
0.9024535752345002,1,0.998896
0.8898176132555106,0,0.919911
0.8762936977084472,1,0.991903
0.916376835926919,1,0.986532
0.8930765967822224,1,0.998311
0.8789174551234894,1,0.997107
0.8909367043385034,1,0.999287
0.8909374407448882,1,0.999117
0.880780561418067,0,0.990884
0.9140337951895829,1,0.999549
0.9142878920845311,1,0.999009
0.8455865276679716,1,0.997003
0.8957529761497419,1,0.998605
0.8772121025942313,1,0.995826
0.8533191833631328,1,0.999300
0.919837725785752,1,0.998355
0.8960966207352383,1,0.998131
0.8896115039187346,1,0.999435
0.917542149948503,1,0.997258
0.8445475656727635,1,0.998040
0.8534714206336553,1,0.999367
0.87515125578809,1,0.998730
0.8671756712920863,1,0.999275
0.8960651459376932,0,0.983389
0.8947169686095837,0,0.975884
0.8992583388228831,1,0.999349
0.8968748738133355,1,0.998978
0.8791283650241097,1,0.999373
0.8806496186127236,1,0.999581
0.8650453926976882,0,0.993539
0.896493319198254,1,0.999126
0.8881213121884864,1,0.994969
0.8862972515814662,1,0.998000
0.9204174102923187,1,0.992608
0.9063640083610799,1,0.999025
0.9279884265022619,1,0.998925
0.9088071217167184,1,0.994131
0.9112061364294144,1,0.999310
0.889485799622457,1,0.998878
0.8813984600189225,1,0.999022
0.8321266344486643,1,0.999395
0.8177078226535422,1,0.998911
0.855153694736027,1,0.999169
0.8368225342083697,1,0.994956
0.8478671419119378,1,0.998129
0.8192975657465909,1,0.998748
0.8576977190494275,1,0.989912
0.8595883229266283,1,0.994495
0.8547645427789472,1,0.994709
0.8607549986474482,1,0.999087
0.8838049531464285,1,0.997999
0.8765910597201788,1,0.998891
0.8467717034884312,0,0.935407
0.9270601678253613,0,0.931694
0.9278597965228329,1,0.997308
0.8866498137350485,1,0.998092
0.9076341036349503,1,0.999211
0.909814261927214,1,0.999321
0.8302279728210543,1,0.992285
0.9185102206205643,1,0.998945
0.9096488914534296,1,0.998319
0.9217479062149879,1,0.998789
0.9268868503724075,1,0.998623
0.9192577709508694,1,0.998952
0.9119562983441898,1,0.997799
0.9264001463785464,1,0.997740
0.9002997120930443,1,0.999176
0.9319861676135485,0,0.977233
0.8887014589303347,1,0.992416
0.9142706440215,1,0.996616
0.8782817784144966,1,0.998934
0.9103200169933344,0,0.979218
0.9074680859074138,1,0.998968
0.8489113991417274,1,0.996904
0.9242319722551486,1,0.997998
0.9008824420817365,1,0.992922
0.856455477757543,1,0.993399
0.9045022853484093,1,0.996119
0.9065890046249331,1,0.999124
0.8916722695366501,1,0.995889
0.9054665795270955,1,0.998908
0.9016678655471031,1,0.996629
0.8648852114333537,1,0.999133
0.8678377980427722,1,0.986742
0.864809238324382,1,0.998696
0.837847357407184,1,0.997615
0.9362250636617363,1,0.994600
0.898579806135377,1,0.994671
0.8716817348826771,1,0.999088
0.8906944080097045,1,0.994760
0.8349516130866527,1,0.999403
0.8534493081998131,1,0.998174
0.8540724046686529,1,0.999344
0.9011195870425902,1,0.999253
0.9163969364768947,1,0.998917
0.8848336806417791,1,0.999286
0.8699828840770966,1,0.999335
0.9027850930338528,0,0.970443
0.9136047516306897,1,0.998870
0.8946569082930289,0,0.970764
0.8818336639508194,1,0.997778
0.8940480109663077,1,0.998387
0.9157479463391581,1,0.999194
0.8521068820611475,1,0.998955
0.8638906078832396,1,0.994565
0.9053372354575911,1,0.996130
0.8576523939703893,0,0.976744
0.8807512478594451,1,0.999171
0.884401117649961,1,0.999344
0.8945819697714744,1,0.998874
0.9042360738090437,1,0.995122
0.8329324927401108,1,0.994465
0.8427749378396062,1,0.985197
0.8921104968480478,1,0.999061
0.8355427864673298,1,0.999532
0.8567500231886532,1,0.999341
0.8576482148995128,1,0.998425
0.8914270980009832,1,0.999248
0.8276665181273142,1,0.998861
0.8745794200476066,0,0.982746
0.8506834320642243,0,0.977685
0.8572436691770622,1,0.998258
0.9071499984109536,1,0.998873
0.8980303047437876,1,0.996690
0.8494738897167426,0,0.974129
0.871336013791362,1,0.998965
0.8881161855425169,0,0.967159
0.8826112304534303,1,0.998501
0.8796000480251694,1,0.998878
0.9088725912892104,1,0.999355
0.9045859116664351,1,0.999005
0.8905327469263634,1,0.998906
0.9004250596948562,1,0.997525
0.8535860210170286,0,0.989088
0.8865545287172236,1,0.994498
0.8863050490467232,1,0.998446
0.893356496189549,1,0.996305
0.8681991278476624,1,0.998893
0.8735737726410018,0,0.987893
0.8486925527957604,1,0.999378
0.9172128782145502,1,0.998822
0.8612640733100051,1,0.998895
0.8467049280921906,1,0.999309
0.8256295697333829,1,0.998847
0.8353599550357218,1,0.996652
0.8711388586143559,1,0.998249
0.8844167176415818,0,0.947307
0.8597183227853387,1,0.993846
0.8462428707283913,0,0.973770
0.8028902726089455,1,0.999419
0.8904450409105923,1,0.992874
0.8815679542056697,1,0.998106
0.8553344219148438,1,0.995513
0.9140978002309575,0,0.973554
0.8345373361385154,0,0.987583
0.9093178402271888,1,0.999240
0.872238432742105,1,0.999234
0.8530680497817505,1,0.993421
0.8605301039477729,1,0.990270
0.8581966244904514,0,0.944325
0.859861541016578,0,0.983040
0.8728492458320773,1,0.999099
0.8243818454871927,1,0.999264
0.9038586738225018,1,0.998915
0.8577931895385557,0,0.965079
0.8825309276394874,1,0.996681
0.8526227751784832,1,0.999460
0.8536515986038965,1,0.998000
0.8586445900778724,1,0.998954
0.9013875897065363,1,0.999272
0.8530090754665756,1,0.999412
0.8712014623291026,1,0.998997
0.8661697739195984,1,0.997414
0.8759404309698261,1,0.995722
0.8590136683332326,1,0.997476
0.8882590333273234,1,0.998871
0.8510378623663383,1,0.997963
0.8408509983231195,0,0.982030
0.8458913138352687,1,0.999464
0.8306890353447649,1,0.998927
0.8788106839781399,0,0.930571
0.8585795492427677,1,0.999524
0.8586886204079968,1,0.999491
0.8607862966479908,1,0.994436
0.8582939657762425,1,0.997866
0.8460981426666352,1,0.994648
0.8769993499460328,1,0.997790
0.8603923990978597,1,0.999255
0.8822539554121589,1,0.999357
0.849512955071243,1,0.999288
0.8363836033582072,1,0.998224
0.8699196325283783,1,0.998941
0.8462828351457212,1,0.996692
0.8534055486351749,1,0.999298
0.8137822641191569,1,0.996360
0.9057424390844976,1,0.994975
0.8965406698221663,1,0.996008
0.8488105190225145,1,0.998158
0.8810265164137708,1,0.996292
0.8473282704014437,1,0.997972
0.8373123862639319,1,0.999302
0.8829704472988305,1,0.996637
0.8587726932663972,0,0.987020
0.8289099277871893,1,0.997984
0.8442547666194711,1,0.999066
0.8737843031551004,1,0.998985
0.9034562312173415,1,0.998935
0.9029097833982254,1,0.991667
0.8749932292161106,1,0.999104
0.8720163043645461,0,0.978094
0.9106869390888429,1,0.998918
0.8779116537658334,1,0.995595
0.8677532049053468,0,0.989491
0.870900411398679,0,0.993003
0.8993363890017186,1,0.997765
0.860153588197131,1,0.995451
0.7936379026188803,1,0.999343
0.8321427741059579,1,0.997220
0.9010571457338173,1,0.998917
0.8515162216522787,1,0.998058
0.8799282854978412,1,0.999232
0.9017748558740577,1,0.997897
0.8716889608993662,0,0.985279
0.8796028422029969,1,0.997886
0.8721241683741243,1,0.997030
0.8630672518323929,0,0.966128
0.8315240297380276,1,0.999397
0.8491776314237044,1,0.998866
0.8696495625746069,1,0.997735
0.8310410000546951,1,0.994751
0.8314619007617297,1,0.999231
0.8772471050336929,1,0.996757
0.8351155332642147,1,0.999128
0.8580352591966522,1,0.994305
0.8339568821765311,1,0.999043
0.8557669547341425,1,0.999012
0.8397930967984254,1,0.998947
0.8598639323046695,1,0.998889
0.8803057635240789,1,0.999314
0.9037151672529057,1,0.999484
0.9179815456028935,1,0.999204
0.9316102611174482,0,0.935764
0.9077895012264459,1,0.998675
0.9137702142846194,1,0.998891
0.9216443255409484,1,0.998896
0.9339929221777222,1,0.998925
0.9029294542268875,1,0.999222
0.907872005041239,1,0.998922
0.925957840540516,1,0.996633
0.9149921732562537,1,0.995575
0.9179403721530235,1,0.997807
0.9164027248913238,1,0.998700
0.9415615563995051,1,0.999190
0.9241438213946785,1,0.998693
0.9178517056153651,1,0.998311
0.9205949881555547,1,0.992876
0.8863459990174261,1,0.997337
0.8579101128658785,1,0.998480
0.8306945901342315,1,0.998439
0.9053627005734614,1,0.999352
0.8911188243045447,1,0.997868
0.8900533906259183,1,0.999249
0.8845339991822389,1,0.995516
0.9177395861503694,0,0.984942
0.8508057330867564,1,0.999446
0.8858336919029123,1,0.999160
0.8829495638174027,1,0.999110
0.8391887637578136,1,0.999493
0.8958219411472697,0,0.986385
0.8921871674202261,0,0.942377
0.9058367614852314,1,0.992341
0.8896065463054602,1,0.990177
0.8289919873126079,1,0.999264
0.8279102285623049,1,0.999437
0.9061332844886999,1,0.992341
0.8578382901668494,0,0.977673
0.9169501122559561,1,0.998189
0.8531644062932077,1,0.998899
0.8768713031957722,1,0.999419
0.8706105492659364,1,0.999109
0.847178294867602,0,0.981848
0.9180065470528483,1,0.994286
0.9435766901530953,1,0.998814
0.9071156127738423,1,0.997755
0.8985941059584416,1,0.998817
0.9400263782558413,1,0.994907
0.9319143051508613,0,0.968575
0.9286435643849091,0,0.986233
0.8969462752923644,1,0.994018
0.9169192676993281,1,0.998970
0.8997237421993233,1,0.998908
0.8850201375855087,1,0.999453
0.8781181366419035,1,0.995439
0.9119654633141259,1,0.998933
0.9128061637520734,1,0.990521
0.9232756016540851,1,0.995485
0.8871703132831802,1,0.999345
0.9008981572336137,1,0.999020
0.9138537647708718,1,0.997953
0.8775320299178209,1,0.996685
0.8811802479260148,0,0.986254
0.8685682934485299,1,0.999440
0.9089579881125688,0,0.985884
0.874556268969753,1,0.998691
0.9221282047754592,1,0.999100
0.8973733716054041,1,0.999216
0.9143838486232645,1,0.998895
0.9014582145530573,1,0.998907
0.8969830774778426,1,0.998811
0.8831778113916794,1,0.998851
0.879454573828206,1,0.991266
0.8809954107210369,1,0.999384
0.8988911591210812,1,0.997932
0.9211487323296017,1,0.998422
0.9075888273073173,1,0.999304
0.8978026918891909,1,0.996964
0.9280131537481388,1,0.998224
0.937158172010401,1,0.998839
0.9065512910614536,1,0.998730
0.886196849956396,1,0.994894
0.8942813256630862,1,0.998534
0.889367782432014,0,0.975862
0.8707084485260648,1,0.999219
0.9139350452963927,1,0.998901
0.9238742803033418,1,0.996798
0.905335588174939,1,0.996674
0.9082674514247475,1,0.997828
0.9178271995867705,1,0.996692
0.8920293895824531,1,0.997429
0.8901528055927022,1,0.990323
0.9301064210788883,1,0.996648
0.8674518149022185,0,0.984215
0.8388104068157951,1,0.999294
0.9233720894883094,1,0.990919
0.9107659842700082,1,0.997299
0.8983424115401298,0,0.983516
0.9119735377912889,1,0.998821
0.882269690387251,1,0.997802
0.9125095404262927,0,0.930233
0.8893123051435329,1,0.999270
0.8602563343392715,1,0.999182
0.9226460995900121,1,0.988789
0.8569724719923374,1,0.996652
0.8744837421852694,1,0.998975
0.8814478102511593,1,0.999074
0.8940722338888782,1,0.999330
0.8426380635489114,1,0.997696
0.8550545149010365,1,0.999379
0.8505570111809727,0,0.991785
0.8889643030190673,1,0.991515
0.8951035607069021,1,0.991647
0.8977268546685143,1,0.998976
0.8631985633521947,1,0.999061
0.8968807287122622,1,0.998895
0.856498438462881,1,0.998922
0.8938341071346987,1,0.999336
0.8575763164128712,1,0.999381
0.8929884475219604,1,0.998761
0.9153694708066444,1,0.998936
0.8450269066991665,1,0.997959
0.88911225523026,1,0.997904
0.9077195058277527,1,0.995511
0.8359710705938915,1,0.998925
0.8612624317256552,1,0.996641
0.8554699329703258,0,0.985240
0.8915546717098243,1,0.997835
0.8763828906372144,1,0.999102
0.8765800160181246,0,0.954976
0.8812648274044974,1,0.998437
0.9293822280319634,1,0.997028
0.9044095708624614,1,0.999351
0.8594906306941569,1,0.999281
0.8327437934262717,1,0.999419
0.8458803278530447,1,0.998629
0.8862615058080031,1,0.999067
0.9014333010355157,1,0.985366
0.9076455025792247,1,0.999190
0.8672726959078786,0,0.987069
0.8841187580390981,1,0.999320
0.9021900869452084,1,0.998908
0.8895081253443821,1,0.996026
0.8923605514204389,1,0.998907
0.8766187809769719,1,0.993808
0.9225542495637375,1,0.996241
0.8700197488874646,1,0.999164
0.8592351883090237,1,0.991333
0.8604287822301764,1,0.998812
0.8764645894010534,0,0.983269
0.8563265220242227,1,0.999304
0.8724689494229264,1,0.998936
0.8964199730482693,1,0.998928
0.8844174191713793,1,0.998778
0.855933451253951,1,0.999415
0.8413916275687066,1,0.999108
0.8569097348244453,1,0.996918
0.869903367554421,1,0.998763
0.8924784204243431,1,0.996421
0.8957201330920646,1,0.998866
0.8704791945896677,1,0.998881
0.8425768217951884,1,0.998459
0.9172983616859613,0,0.989313
0.8297522230068473,1,0.998624
0.8680723059722878,1,0.998610
0.8822716187049615,0,0.973684
0.895645583228951,1,0.998888
0.9116710062052163,0,0.992739
0.8702142792655273,1,0.987821
0.887264810410999,1,0.996367
0.8636181948238681,1,0.996183
0.8637712738019914,0,0.979911
0.878715646838839,1,0.993096
0.9321069899088122,1,0.998909
0.8759094759069855,1,0.999402
0.9306698440821686,1,0.999517
0.873374245565861,1,0.998706
0.859576047415141,1,0.998937
0.9005576496374392,1,0.999040
0.8762428830147162,1,0.999004
0.9011705871660001,1,0.995947
0.8627577193222005,1,0.998710
0.8876840740865848,0,0.983731
0.8627594195948567,1,0.998090
0.8377246841125616,0,0.979548
0.8955565419185444,1,0.999336
0.884202895264568,1,0.998893
0.8930264704461344,1,0.999341
0.8844257667764579,1,0.997655
0.8680144738961061,1,0.993671
0.8874842163806952,1,0.998873
0.891246510742426,0,0.947867
0.8783420524733596,1,0.996995
0.8399137982606327,1,0.999400
0.9003390129200493,1,0.999120
0.9163153042301598,1,0.998886
0.8450348693603537,1,0.999139
0.84863197064351,1,0.999240
0.900177981953148,0,0.979090
0.8797212720556544,1,0.999373
0.8936960016030605,1,0.998630
0.9282307744241634,0,0.986301
0.9040163432102487,1,0.999007
0.8853166933685153,1,0.998761
0.9187473576372553,1,0.998925
0.8598790134501695,1,0.999222
0.9258773042575524,1,0.996251
0.9183746565245204,1,0.993174
0.9211642341485499,1,0.995501
0.9233620946856335,1,0.991394
0.9248711114879766,1,0.986486
0.9354863476876216,1,0.998245
0.9213137216318197,0,0.984106
0.8949974850500175,1,0.998966
0.8843172687672907,1,0.996073
0.874991930101697,1,0.993821
0.9372563601913831,1,0.996829
0.9396584804583121,1,0.997279
0.9071944737256159,1,0.998851
0.9094168558306097,1,0.990836
0.9069225829179386,1,0.999223
0.9309271618988266,1,0.998874
0.9252808728930294,1,0.998844
0.9147418027385429,1,0.997763
0.9426533544568816,1,0.998876
0.9189324596592646,1,0.998889
0.9287925296170907,1,0.998917
0.9327367991835055,1,0.999154
0.9162133657144161,1,0.997650
0.9411401134517872,0,0.982713
0.9434467791945864,1,0.998677
0.899573894687631,1,0.997693
0.930377472912632,1,0.998967
0.9096706665258426,1,0.998661
0.9350174668949469,1,0.997436
0.9466959387347487,1,0.995272
0.9009024665048574,1,0.999351
0.9203493529291839,1,0.998756
0.8917673603499561,1,0.995921
0.9219293900738765,1,0.995708
0.8871670459723956,1,0.998828
0.9133141347377915,1,0.998668
0.8855927167691897,1,0.999388
0.853332875185292,1,0.997642
0.9196207357025858,1,0.998881
0.888297582011261,1,0.990577
0.8950785943969097,1,0.998969
0.9283680096480021,1,0.999184
0.8956317986561821,1,0.998862
0.9001893991219179,1,0.998858
0.8955628794484752,0,0.952593
0.9245004974056334,1,0.998744
0.9102781646034459,1,0.996372
0.9382984967471012,1,0.997618
0.9075583769197043,1,0.998889
0.9111963808615052,1,0.998022
0.8769017620077063,0,0.890933
0.8974366755495975,1,0.997812
0.9300562101567663,0,0.922356
0.9101785260020029,1,0.998487
0.9083973160951292,1,0.998928
0.9245868722606523,1,0.998817
0.9460867410202929,1,0.999253
0.9240790340601481,1,0.997780
0.8845067627497325,1,0.997735
0.9312843855647,1,0.998896
0.9304553399468202,1,0.998446
0.8897966770152252,1,0.997872
0.9346402655806947,1,0.998361
0.9138776631527912,0,0.898833
0.9104487831924664,1,0.998279
0.9052912141890701,1,0.991898
0.938308212585808,1,0.992872
0.9143714331933773,1,0.990918
0.8801374582513778,1,0.999123
0.9488048534398311,1,0.996714
0.8789218781521114,1,0.995508
0.9296115711906636,1,0.988610
0.9321157182942448,1,0.998885
0.9254394857138748,1,0.998548
0.9293036805228159,1,0.999247
0.9333643054102985,1,0.995266
0.8981606208594409,0,0.963347
0.9159096544030354,1,0.997750
0.9314235433449205,1,0.992147
0.9239701316298928,1,0.998915
0.9350659998248356,1,0.990642
0.9400380857516297,1,0.995579
0.930244786403102,1,0.998891
0.9054577144884014,1,0.998905
0.9153295951439784,1,0.996516
0.9285118808616926,1,0.998650
0.9347945164567796,1,0.998638
0.8938487838998631,1,0.992537
0.901858039247835,1,0.998876
0.9300192609406867,1,0.998611
0.9054288438590365,1,0.990541
0.9002916868685572,1,0.998946
0.9287641945402222,1,0.998736
0.9302588889955667,1,0.996997
0.9240213015794255,0,0.923823
0.9077279288901237,1,0.995640
0.90234244575521,1,0.997337
0.8849553839716358,1,0.998865
0.8909037134235901,0,0.947674
0.9212364785747028,1,0.992036
0.9358984174288574,1,0.999375
0.8581859257987218,1,0.995798
0.9097744313798958,1,0.999064
0.9001765529331052,1,0.998688
0.9289521734887884,1,0.990528
0.915145808741029,1,0.998884
0.8697008766446097,1,0.999132
0.9191965737915456,1,0.997561
0.9041091797262899,1,0.995305
0.8980311430955414,1,0.999169
0.9179043298709755,1,0.997592
0.9256645260883604,1,0.998624
0.9144965210771335,1,0.998929
0.9244173329493481,0,0.979784
0.8859994382169436,1,0.998951
0.8864672009462238,1,0.997732
0.8660798164770227,1,0.999115
0.8761522359877556,1,0.999001
0.9489908783806048,1,0.993367
0.9126123153716151,1,0.997763
0.8969134219393308,1,0.997833
0.9224914746591594,1,0.998836
0.9353734741750073,0,0.976996
0.9386751703918755,1,0.996798
0.9212867715939174,1,0.999233
0.9049313694886987,1,0.997888
0.9254477211849405,1,0.999311
0.9087145217722252,1,0.998391
0.9093522111353716,1,0.996798
0.9290709080994216,1,0.995896
0.900400664064834,1,0.998880
0.9192358972207852,1,0.997382
0.9080866760363344,1,0.998867
0.9219317190222924,1,0.992797
0.9070335054069287,1,0.998805
0.9252760500830739,0,0.991242
0.9393339539336163,1,0.998848
0.9446348509438505,1,0.998782
0.9391339561865402,1,0.996319
0.9029471339139267,1,0.998844
0.9423693958704543,1,0.993490
0.8847246637478021,1,0.998794
0.9377877968464925,0,0.948557
0.9176990693501607,1,0.997453
0.8852660967187589,1,0.997633
0.8832469306795583,1,0.999198
0.9205819394158055,1,0.998902
0.9476997656397367,1,0.997357
0.9374775908205016,1,0.999078
0.9525650577786544,1,0.998847
0.9498060122391679,1,0.998824
0.9608801182760892,1,0.998675
0.9383773600834409,1,0.998919
0.9422135468829146,1,0.998753
0.89657316363146,0,0.964497
0.9427156974757749,1,0.996658
0.9412983608775323,1,0.998741
0.890056491860063,1,0.997212
0.9605443712734033,1,0.999044
0.9416467634414236,1,0.998998
0.9167849201512877,1,0.998681
0.9414374679133007,1,0.997249
0.8622647526749325,1,0.995475
0.899941260067552,1,0.997478
0.9492227938162329,1,0.998899
0.9331200323184915,1,0.998902
0.9566423590159546,1,0.999178
0.9240199529289697,1,0.991701
0.9277956849451099,1,0.998948
0.9102484865862239,1,0.993225
0.9060633305699949,1,0.996753
0.9205095203629063,1,0.991972
0.9529481691439139,1,0.998851
0.8794260757142546,1,0.997797
0.904784743605676,1,0.991071
0.8295397379894139,1,0.999460
0.9010629890447407,1,0.998514
0.925953362025086,1,0.994547
0.9206758126638818,1,0.998526
0.9319764985014672,1,0.997802
0.9553221861714319,1,0.999361
0.8830151559518482,1,0.999091
0.9163034634574221,1,0.998871
0.9299432264822878,0,0.983089
0.8881567972907891,1,0.996743
0.9219999168841764,1,0.994470
0.9159323508567508,0,0.980245
0.8910152652985956,1,0.999298
0.9203249532671541,1,0.998884
0.9423348633035719,1,0.996346
0.9203298689633417,1,0.998812
0.8738747001010516,1,0.994681
0.9218685264955724,1,0.997770
0.9430383539950198,1,0.998832
0.8957540397824133,1,0.995968
0.9246779529150876,1,0.998930
0.936929349479732,1,0.999150
0.9556042921111307,1,0.997234
0.8864734130162579,1,0.991031
0.9431446546655073,1,0.998693
0.8826000405725699,1,0.995560
0.9227266379272806,1,0.998804
0.9319025061729485,1,0.992337
0.8908393576116054,1,0.993220
0.9051851685422188,1,0.998906
0.8994358736835443,1,0.998689
0.847665084358879,0,0.905521
0.8982741879684967,1,0.998921
0.8831609905265918,1,0.999214
0.8771337417824154,1,0.998744
0.8736374670617728,1,0.998913
0.8417944258644385,0,0.961458
0.9007386669774872,1,0.994828
0.8982900646678862,1,0.998908
0.9158373460865747,1,0.998981
0.9005323332035005,1,0.999411
0.9033347735332409,1,0.999046
0.8948234927881465,1,0.999290
0.8728966391552179,1,0.999224
0.8534423041782314,1,0.999017
0.8577223480406303,1,0.999408
0.898680817986602,0,0.986735
0.8898630014617123,0,0.980630
0.9047583949991478,1,0.993118
0.8810315947804374,1,0.996075
0.8826573681821999,1,0.994012
0.9067010806820619,1,0.998076
0.9009386289965761,1,0.997680
0.9123806083541004,1,0.995791
0.8802671557902739,1,0.999257
0.9103191968339691,1,0.999180
0.8986740674391572,0,0.943568
0.897326029774189,1,0.999330
0.9045054175949387,1,0.999194
0.9063047875998687,1,0.998057
0.9012261827170036,1,0.992016
0.9301109517860036,1,0.999285
0.9228087792450209,1,0.998736
0.9201959561804579,1,0.999221
0.9104339714335536,1,0.994240
0.9090018694241937,1,0.997425
0.9291954711997306,1,0.998448
0.902047717529595,0,0.985549
0.9229269824654387,1,0.999337
0.8995106195524887,1,0.998688
0.8858424379320919,1,0.999091
0.8610044664888852,1,0.993464
0.8785450858054971,0,0.834110
0.8731323360031517,0,0.978804
0.8863047981196083,0,0.987013
0.8403944412386702,1,0.998909
0.8945678269328375,1,0.999570
0.8755613122912574,1,0.999097
0.8987394824666024,1,0.999364
0.8639615770216326,0,0.968167
0.9130755860137186,1,0.994181
0.8923469658099237,0,0.986770
0.8631401478550534,1,0.999130
0.8984139771516902,1,0.998706
0.9070776069091742,0,0.970438
0.9118466599957912,1,0.999386
0.901096024839511,0,0.991453
0.9186057172377503,1,0.998489
0.9346751759210312,1,0.999133
0.92965358107917,1,0.999122
0.9131185942571198,1,0.990030
0.9098705779897276,1,0.999212
0.9169564602497314,1,0.999108
0.9155852864478483,1,0.989540
0.9333877137856706,1,0.999151
0.9176710817057894,0,0.983673
0.8953520897296052,1,0.998316
0.8685254287796049,1,0.988314
0.8912891800858417,1,0.998920
0.8945750352009536,0,0.995560
0.8084935958275403,1,0.998904
0.8700150302127357,1,0.998791
0.9064791664016018,1,0.997442
0.8296743799063768,1,0.997171
0.8679549107333503,1,0.999355
0.8993956028548097,1,0.998978
0.8638530730147423,1,0.999255
0.9121051624023855,1,0.996341
0.902567183174365,1,0.998985
0.889083520864858,1,0.993385
0.876111804113208,1,0.995914
0.8663419692198088,1,0.995283
0.9083541673683801,1,0.999038
0.9137407399610461,1,0.999224
0.9039825325478139,1,0.999383
0.8911626228588564,1,0.999368
0.8984825677743602,1,0.990798
0.8657102477317853,0,0.863962
0.8543011922435811,1,0.999303
0.9037179462471437,1,0.999308
0.8755524897235877,1,0.993399
0.9029789517668143,1,0.999219
0.9001840816764854,0,0.884416
0.8631458373393843,0,0.969947
0.8733782925108166,1,0.994266
0.8725122281106571,1,0.998993
0.8440190103072135,1,0.998885
0.8943773323046749,1,0.995575
0.8956554540185634,1,0.993318
0.9033148796446092,1,0.999273
0.8845923411457312,0,0.982684
0.8263441746180068,0,0.984410
0.89155749970591,0,0.986030
0.8944088797892459,1,0.990940
0.8464365222582994,0,0.979491
0.8728093713806615,1,0.999175
0.8953175574606699,1,0.998901
0.844260621793364,1,0.999668
0.8889645762883622,1,0.997881
0.9145909018539665,1,0.999384
0.8996522375699537,1,0.998970
0.8709397008333677,1,0.999291
0.8630556730767532,1,0.997572
0.9187414945829532,1,0.999471
0.8875159033558436,1,0.999025
0.886985276997441,0,0.989331
0.9020009472191097,1,0.995110
0.9009021525029697,1,0.999375
0.8778991165139266,1,0.998420
0.9154445968583667,1,0.991611
0.9254271265349665,1,0.999365
0.8745983712170364,1,0.999428
0.8544862805974862,1,0.999396
0.8674210324497853,1,0.996711
0.8462522364221032,1,0.999267
0.8504126047525123,1,0.996510
0.8615715800719238,1,0.991783
0.8578472276687046,1,0.999071
0.8558548964945915,1,0.999315
0.9086934161100637,1,0.998930
0.8622562207917607,1,0.998232
0.8777846338622651,1,0.994304
0.8647518287428309,1,0.999361
0.8756947695208872,1,0.998636
0.8689791044726957,1,0.998905
0.8611785714254361,1,0.999190
0.8713027077354657,1,0.998950
0.8728563175943533,1,0.998046
0.8259353231832032,1,0.999170
0.8647048561608836,1,0.998858
0.8899734675604172,1,0.995861
0.8750146974634186,1,0.999306
0.9026834000173235,1,0.997800
0.880525797074633,1,0.998486
0.8869257149436591,0,0.963046
0.8646275497773832,1,0.999439
0.8210607707995353,0,0.979182
0.8846826784160614,1,0.996873
0.8749613383702632,1,0.991015
0.8720004641225988,1,0.999126
0.8653805971862301,1,0.999170
0.8612635547378407,1,0.995451
0.8816358576034247,0,0.983156
0.8734707999056984,1,0.999220
0.8760545838591884,1,0.998693
0.880013718883893,0,0.989612
0.8971398446841378,1,0.997439
0.8941009577277065,1,0.998902
0.9057177426348195,1,0.999279
0.8808149514826237,1,0.999247
0.8248133432655098,1,0.999414
0.8801133674677034,1,0.999387
0.8755485349936472,1,0.999452
0.8820920645556869,1,0.998841
0.8646998290425036,1,0.999003
0.8624671539789862,1,0.998884
0.8825293768197334,1,0.999337
0.8785150247042417,1,0.997807
0.8512602299281838,0,0.991597
0.8967827725113945,1,0.999348
0.8809267654242868,1,0.998700
0.8804946573423857,1,0.998745
0.899689329388013,1,0.998401
0.8779371291608667,1,0.999367
0.8728030156602141,1,0.999342
0.9210736222774131,1,0.997921
0.8481262743744719,1,0.998883
0.9026203894921538,1,0.998278
0.8739928226524698,1,0.992167
0.8644555724185482,1,0.998866
0.8870469551801918,0,0.992611
0.8817879195012276,1,0.999209
0.8906584974576387,1,0.996667
0.8755719932481698,1,0.997688
0.8645322765284194,1,0.998915
0.8877548791476213,1,0.997050
0.8549894875681789,1,0.998190
0.883092381834446,1,0.997319
0.9120984429104996,1,0.997797
0.8261543513219068,1,0.999470
0.8600204618966771,1,0.997921
0.8501130600584302,0,0.973517
0.9018328554442914,1,0.997616
0.8854994814893808,1,0.999283
0.8402631897240576,1,0.996948
0.9018115858839583,1,0.998430
0.8657115504746252,1,0.998759
0.8872096063068207,0,0.986885
0.8734126636740775,1,0.999328
0.8895009007285721,1,0.997953
0.8587410119232329,1,0.998926
0.8564031136792499,1,0.998912
0.8528357897049187,1,0.999324
0.8982676644088846,1,0.999301
0.8581502342147832,1,0.998270
0.8397479213735545,1,0.999280
0.8733016434287811,1,0.988296
0.8748680136663799,1,0.997807
0.8469774642949334,1,0.999370
0.8738069539852261,1,0.999111
0.8948325265618956,1,0.997716
0.8830804343594039,1,0.998713
0.890405809132846,1,0.998723
0.8773259712338817,0,0.984145
0.897638156581136,0,0.980833
0.8534593576918167,1,0.999183
0.8926065066918364,1,0.992042
0.8768641289547313,1,0.999353
0.8569325949397134,0,0.978481
0.8733859325188441,1,0.998907
0.8971651955304194,1,0.995316
0.8817799736895794,1,0.998944
0.9061651237633023,1,0.999396
0.8503856019370357,1,0.999236
0.9114851538564464,1,0.999099
0.8802797593061773,1,0.999142
0.8917000030582232,1,0.998856
0.863133111152579,1,0.999311
0.8830708496709024,1,0.999209
0.8656429437593964,1,0.998885
0.8809695654024606,1,0.999449
0.8826869331431432,1,0.997673
0.9194988163654387,1,0.999331
0.8776377482207426,1,0.999136
0.8993515321901477,1,0.997419
0.8272794843990768,1,0.995657
0.8437378452918384,1,0.996678
0.8980146729235552,1,0.997849
0.891663874416187,1,0.997974
0.8973792317970242,0,0.991580
0.8797356089210235,1,0.997340
0.8744984511995473,1,0.999224
0.8507027986862117,1,0.997330
0.8931013784649793,1,0.999201
0.884262991206007,1,0.999292
0.8782765335018694,1,0.997435
0.9008012077231847,1,0.999364
0.8395678475523789,1,0.999004
0.9159700181875129,1,0.999157
0.8805542683457697,1,0.997696
0.8827539273104065,1,0.999352
0.9340812911200647,1,0.999406
0.9070084515234873,1,0.997297
0.8898367220654831,0,0.982895
0.9045113793861745,0,0.899151
0.8876140559956659,0,0.961942
0.8790203938378959,0,0.988459
0.8855832701217212,1,0.991674
0.8853433679208564,1,0.994819
0.8790646750437618,1,0.998511
0.8857853311664107,1,0.999334
0.8410590164557766,1,0.999407
0.9168862403639352,0,0.989971
0.9120557836942751,1,0.998844
0.8832482808795523,1,0.995609
0.89070064528252,1,0.999164
0.9173070443072044,1,0.997738
0.8976497896495126,1,0.998936
0.9036552725644575,1,0.994016
0.8923116559213942,1,0.993103
0.8955516652068387,1,0.997853
0.8672109594091156,1,0.989362
0.893525773606248,1,0.993944
0.8740004415201945,1,0.996696
0.8828430713704414,1,0.998727
0.8863027359371043,1,0.998227
0.8945914061258282,1,0.999328
0.8889861896206382,1,0.999106
0.8662041806426671,1,0.997784
0.8791813226196404,1,0.998834
0.9109036342137612,0,0.984436
0.916884693247992,1,0.999182
0.8749501027697505,1,0.998917
0.8936145394202262,1,0.999403
0.9029420996440134,1,0.998972
0.8784946096981192,1,0.997730
0.8796313313152021,1,0.998952
0.8844015913301266,1,0.999352
0.8663254213954877,1,0.997792
0.8923283452490124,1,0.996129
0.911252327093367,1,0.999459
0.8952668646455253,1,0.998114
0.9019041104954459,1,0.998908
0.901879768465132,1,0.999265
0.9013919564291866,1,0.999390
0.868493866796831,0,0.959294
0.8854801039427849,1,0.998264
0.879524870244377,1,0.993562
0.8819736720090603,1,0.999139
0.889354963927034,1,0.996681
0.8859571871225708,1,0.994346
0.8941789256168369,0,0.967490
0.8801470394036093,1,0.999081
0.8738296350322805,1,0.999005
0.8972271463566163,1,0.999062
0.8968916680727773,1,0.999440
0.9158240387515032,1,0.998879
0.9136768979087637,1,0.998917
0.8579087763625645,1,0.994606
0.8392484838487831,1,0.999254
0.8886700607967793,1,0.996587
0.8889961721956887,1,0.995444
0.8968616616770926,1,0.998737
0.8706290193699381,0,0.985612
0.90923835292776,1,0.999069
0.869642815699963,1,0.994438
0.860329415610118,1,0.999141
0.8897870138206098,1,0.995731
0.8791930014041436,1,0.991727
0.8947923758620564,1,0.999412
0.86787699716504,1,0.994407
0.898553007782762,1,0.993932
0.8981574053952304,1,0.998259
0.8600847242842057,1,0.998994
0.8457529375478814,1,0.995773
0.8867267999555933,1,0.998988
0.8674485865127121,1,0.999347
0.8935802942378571,1,0.999109
0.8929157055788219,1,0.998381
0.9204013940793238,1,0.995012
0.9037948193750911,1,0.998741
0.8453575691206207,1,0.999349
0.8772651171623389,1,0.998225
0.8916001757563717,1,0.995837
0.9051569828754624,1,0.999381
0.8828675544366463,1,0.999194
0.8881266274233476,1,0.999396
0.8684134822147689,1,0.992257
0.9076049897609384,1,0.994819
0.892560595371537,1,0.994012
0.921156633213093,1,0.998822
0.8899706840801375,1,0.993080
0.9027265264161226,1,0.996809
0.877376008558057,1,0.999087
0.8725382329018132,1,0.999027
0.8916778812706738,1,0.996703
0.8754564026522601,0,0.984496
0.9122331271512234,1,0.998137
0.8888222565517474,1,0.999107
0.9119948159025297,1,0.991659
0.8541667849009329,1,0.997001
0.8575811894533175,1,0.998137
0.8759905770273174,0,0.983779
0.8610731401300743,1,0.999378
0.843166971528124,1,0.998990
0.8878272184265747,1,0.997678
0.9091571779979446,1,0.999334
0.8651030955290796,1,0.990343
0.8861264888035588,1,0.996650
0.9113981697816634,1,0.999246
0.9051497178388668,1,0.998936
0.8822179986486808,1,0.999393
0.8516617474856406,1,0.995851
0.8882574098628929,1,0.999121
0.8544391239514101,1,0.998753
0.8742823743592488,1,0.999186
0.8803611550617801,1,0.994629
0.875104492660186,1,0.999110
0.8897100993995848,1,0.999193
0.8600200049855006,1,0.999467
0.8636532598294001,0,0.981900
0.9097775191579949,1,0.999126
0.8972209168991447,1,0.999283
0.855893662102531,1,0.999355
0.8940828611601354,1,0.993428
0.8672474003531552,1,0.999154
0.9374767961943732,1,0.998853
0.9142699284992033,1,0.998485
0.8846127126104518,1,0.998404
0.872585635207489,1,0.999666
0.8881193061250406,1,0.998847
0.8694603353202468,1,0.997899
0.8635119926346292,1,0.993743
0.8639482209492575,1,0.999388
0.890643274032839,1,0.999263
0.8799195371652613,1,0.999317
0.9052455956766273,0,0.984920
0.8590503575723641,1,0.998883
0.8703400070512105,1,0.993960
0.8810812613029301,1,0.999259
0.8920119230519608,0,0.986528
0.8316021314776354,0,0.976231
0.8579296563049815,1,0.998597
0.869641870467387,0,0.987026
0.8929993535433842,1,0.991828
0.8753876171751652,1,0.994312
0.833808005025743,1,0.998742
0.815058911093059,1,0.999310
0.8360960183699039,1,0.999345
0.8691078437111277,1,0.991312
0.8082100198937655,1,0.999370
0.8683789404284329,1,0.997819
0.870602389008897,1,0.999422
0.8601819589890524,1,0.995712
0.8599859562673806,1,0.999112
0.8545648192873556,0,0.972663
0.882547069313972,1,0.996016
0.8671628261112255,1,0.992791
0.864556765738401,1,0.991971
0.8834228108498412,1,0.999252
0.8623361587403631,1,0.996957
0.869945114163103,1,0.997938
0.8623992580550182,1,0.997790
0.8541367928863545,1,0.999278
0.8485418558468211,1,0.998141
0.8790377735882381,1,0.999282
0.8741375183517366,1,0.997366
0.9267942103520931,0,0.989938
0.8523188837581707,1,0.998693
0.8935594345333405,1,0.998744
0.8658021609471828,1,0.999231
0.9016521316797479,1,0.997722
0.8648976462356416,1,0.999212
0.9267936571936624,1,0.993499
0.8931401913844373,1,0.997947
0.9087925502077938,1,0.996583
0.8620089782029233,1,0.992718
0.8957815312251576,0,0.880202
0.9132804070641176,1,0.999483
0.8724367027741327,1,0.998926
0.8526021157583776,1,0.998972
0.8496998994602758,1,0.999146
0.8556725246444409,1,0.999162
0.8866151508024107,1,0.999214
0.8655570152233497,1,0.997590
0.8587137999704473,1,0.999048
0.9052272154551423,1,0.996337
0.8925554689429744,1,0.997534
0.8883745724641383,1,0.998896
0.8670552065859296,1,0.998902
0.8490758425541299,1,0.998302
0.9086276234682145,1,0.998821
0.882995015774979,1,0.997596
0.839919680775031,1,0.999414
0.87475170496829,1,0.997065
0.8775030605252452,1,0.998721
0.8945097806946286,1,0.999221
0.8898052800195384,0,0.991311
0.911419098074655,1,0.996659
0.9047030249792436,0,0.928302
0.8685922804010271,1,0.999429
0.8748665943280836,1,0.999537
0.8821455363996148,1,0.991543
0.8213543565188379,1,0.999344
0.8650928390867981,1,0.998879
0.8651390185188521,1,0.997693
0.834774668813306,1,0.990991
0.8687807305714642,1,0.999183
0.8573279996635688,1,0.994919
0.8214265560771756,1,0.999418
0.9166119102650003,1,0.998331
0.8928761124337667,0,0.977147
0.8925432239879054,1,0.998974
0.8611319190979345,1,0.995163
0.9113167800747256,1,0.999034
0.8921068388639369,1,0.999009
0.8617324372779451,1,0.996705
0.9062676881606607,1,0.999027
0.8864873722746041,0,0.977481
0.9025876261824741,1,0.998681
0.8979279210057601,1,0.997959
0.8746101726209722,1,0.999182
0.8831785688901646,1,0.999207
0.8947962662846664,1,0.998962
0.9074214308014356,1,0.998896
0.9134654535365633,1,0.998874
0.8966536894243039,0,0.979953
0.8755039517005364,1,0.993092
0.8862640179711655,1,0.998937
0.9031932667431353,1,0.996540
0.9122572524484757,1,0.997854
0.8983114466108478,1,0.999277
0.8889501300851189,1,0.998484
0.8735673549524753,1,0.999248
0.9404155426613507,1,0.997986
0.9233907064976304,1,0.999031
0.9000239558420814,0,0.982311
0.8514404630235143,1,0.993342
0.914674584918037,0,0.969697
0.9174427583082395,1,0.998689
0.8727769925549529,1,0.999354
0.8620616088270265,1,0.999081
0.8707691606770486,0,0.991945
0.8958345836275541,1,0.995526
0.9041013983977633,0,0.988146
0.9035349254968588,1,0.998932
0.8779491152712862,1,0.993455
0.8849700680204081,1,0.996753
0.8703841506646226,1,0.998639
0.861745659409702,1,0.998913
0.871791524099707,1,0.994304
0.9000653766208649,0,0.980035
0.8943648592907817,1,0.996696
0.8612770529522027,1,0.996703
0.8874027647375683,1,0.998018
0.9233416787489404,1,0.999172
0.8587224303056674,1,0.999212
0.874097914034289,1,0.997909
0.9085586463925008,0,0.990291
0.8935088226269855,1,0.998014
0.910280068081809,1,0.991795
0.9064743522032063,1,0.998695
0.8347442881648224,1,0.999130
0.9063837602090326,1,0.998878
0.9043651179709775,0,0.980233
0.8927221258162744,0,0.979610
0.8886136682644485,1,0.998927
0.892241662063948,0,0.989856
0.9019544611187067,1,0.996038
0.8923172714059288,1,0.999187
0.8883257711460917,1,0.998840
0.9401556979893078,1,0.999171
0.8921132774710775,1,0.994413
0.885913692451555,1,0.999403
0.8680759597217271,1,0.994197
0.9064758084502037,1,0.999209
0.8708986038238595,1,0.998554
0.8842461686319293,1,0.998897
0.8972513867072762,1,0.998807
0.9106345479598692,1,0.999154
0.9175742026859385,1,0.987212
0.8447976666075959,1,0.997938
0.890457191940342,1,0.999206
0.9023300743556982,1,0.997735
0.86722999717809,1,0.990933
0.8290730096597266,0,0.980833
0.8640877435954013,1,0.999171
0.8506243701745384,1,0.999307
0.8680330418629382,1,0.998829
0.8933792070868811,1,0.993205
0.8820558793727671,0,0.989028
0.870254059541927,1,0.999293
0.9048268927218001,0,0.964479
0.8661134816754974,0,0.987212
0.9083945988249548,0,0.896473
0.9118332022008133,1,0.998989
0.8937584103581967,0,0.904211
0.9068504649287623,1,0.997446
0.9330965484444335,1,0.998920
0.8623296222922617,1,0.999470
0.8832076015927582,1,0.998900
0.8717865886555101,1,0.999265
0.8802488907177479,0,0.951865
0.8671555803447445,1,0.998037
0.8300477966088288,1,0.996124
0.8579009351331095,1,0.998905
0.8807829367067189,1,0.996416
0.9079215696786064,1,0.999225
0.8941027420841611,1,0.998280
0.9207955444372201,0,0.948335
0.896643623706771,1,0.999215
0.8920621136795495,1,0.999161
0.8875681676848497,1,0.998998
0.9002561549830985,1,0.997821
0.8902004266332845,0,0.962660
0.9025372318114572,0,0.987104
0.9278947097344893,1,0.999354
0.9151147486684236,1,0.999242
0.8978103558146725,0,0.969374
0.8390527138944156,0,0.924406
0.8874382031101938,1,0.999249
0.8908150086900718,1,0.998983
0.883379864285718,1,0.999210
0.8729431264807164,1,0.997558
0.8740935453928979,1,0.999165
0.8802902377126796,0,0.985714
0.8928331083139268,1,0.998294
0.8977368370337219,1,0.996674
0.8631588398460398,1,0.997870
0.8690316959702875,1,0.998879
0.8816671821405175,1,0.998967
0.9174534849582215,1,0.992674
0.857462574503262,1,0.999340
0.8420198385672002,1,0.999250
0.8945429554059876,1,0.998906
0.8960975190794215,1,0.999120
0.90560112627184,1,0.998984
0.899913630909264,0,0.947631
0.9039216665623699,1,0.997265
0.8931881069142473,0,0.990240
0.9053993251325122,0,0.868721
0.9355051935546048,0,0.987043
0.8717564993531298,1,0.998870
0.9048910134035792,1,0.998578
0.8864004905032663,1,0.999359
0.9217381595815115,1,0.996711
0.8774790245142964,1,0.999124
0.9133377089570311,1,0.998804
0.9133442851748468,1,0.997974
0.9024886289017632,1,0.998677
0.8884461386289597,1,0.995450
0.9049086243860943,1,0.999381
0.8822130075380373,1,0.999216
0.8911973284463184,1,0.998905
0.8956553728073685,1,0.998918
0.8950752324784463,1,0.997953
0.8828873911758245,1,0.994000
0.8875728703407575,1,0.997722
0.8932683399224731,1,0.998942
0.8530501839810676,1,0.999304
0.9192802062376891,1,0.997473
0.8917034926583126,0,0.982801
0.884894480783577,1,0.998922
0.8893564017755611,1,0.999125
0.9146926661826827,0,0.989080
0.9186604657958539,1,0.997835
0.8795084741976317,1,0.997342
0.912348571376401,1,0.998901
0.8994500235572871,0,0.971668
0.8709573952619152,1,0.999256
0.8573850527412535,1,0.998876
0.8974636372848466,1,0.997967
0.8816659051635849,1,0.998834
0.9271007014776917,1,0.997763
0.8596673446545304,1,0.998913
0.9098234020773361,1,0.995037
0.8696289486794342,1,0.999000
0.927529114144093,1,0.994815
0.885199508610728,1,0.999266
0.8946632166696813,1,0.994924
0.8717224792461629,1,0.998593
0.859480254408371,0,0.982431
0.8722190155159447,1,0.998930
0.8857033498572777,1,0.998965
0.8924107349880324,1,0.996728
0.8627561637218237,1,0.999315
0.8780741723103216,1,0.999375
0.8796705608053695,1,0.999444
0.8387228269475075,1,0.998944
0.896996935578644,1,0.998020
0.8655199621780352,1,0.999329
0.8489810034286175,1,0.999351
0.855025868989829,1,0.998921
0.8897573874783065,1,0.997664
0.8521508881136084,1,0.999015
0.8716988822630912,1,0.999458
0.9050770032347999,1,0.998523
0.9056158452469626,1,0.994753
0.8736447398987625,1,0.994796
0.8935142713643766,1,0.996222
0.8835547334509869,1,0.999335
0.8953284435880321,1,0.998124
0.8917576018889034,1,0.999384
0.8924690233201851,1,0.989717
0.9097763929968574,1,0.997930
0.9255185523336128,1,0.998907
0.8607466293711776,1,0.998672
0.8424172275021002,1,0.997312
0.8781463336046322,1,0.998724
0.8922474200845871,1,0.999306
0.8852980258259842,0,0.974144
0.8450052462299197,1,0.999338
0.8545108860229683,0,0.982743
0.8859415777710384,1,0.997748
0.852068295096113,1,0.999334
0.8736907579445176,1,0.998865
0.8661445535636769,1,0.992964
0.8511469918090987,1,0.998527
0.8730637126518703,1,0.998441
0.8738554621236727,1,0.993562
0.8834114892115363,1,0.997835
0.8893255483372762,1,0.998805
0.8351427600722767,1,0.999228
0.8735163506226594,1,0.995955
0.8677836180936775,1,0.999237
0.872084539623048,1,0.995705
0.8825366280189458,1,0.999273
0.8777715163055725,1,0.998982
0.9072306034991778,0,0.911181
0.90740888935545,1,0.993525
0.8864355359600485,1,0.998847
0.9198168696052241,1,0.999291
0.9127437348211669,1,0.996970
0.8543933998425148,0,0.946524
0.8741642001534639,0,0.985704
0.9028439608003964,1,0.999209
0.8838489765594802,1,0.999365
0.9200849367210163,1,0.998913
0.8524619611554083,1,0.999033
0.8940663996047853,1,0.999367
0.9104756246549921,1,0.999453
0.8963586530975779,1,0.995532
0.8985084969092586,1,0.999391
0.8787692193436092,1,0.999275
0.9048789152053452,1,0.991351
0.8995228084143849,1,0.999043
0.8844517273979147,1,0.994499
0.9104240069027268,1,0.994786
0.9269221475291135,1,0.996721
0.9237947602437884,1,0.988623
0.8491909434895202,1,0.998975
0.8900227824717813,1,0.997745
0.8652134490869492,1,0.999384
0.8951829931607883,1,0.998805
0.9055285823533086,1,0.996633
0.9168370431911261,1,0.997800
0.856737607802353,0,0.974042
0.833818621697521,1,0.999345
0.8489738315128049,0,0.980088
0.8981387291734244,1,0.997759
0.9092775228864208,1,0.997654
0.8552700788368953,0,0.979121
0.8883518136592956,1,0.998864
0.8839377301013527,1,0.998909
0.8533300307472936,1,0.998915
0.8924884577457781,1,0.998700
0.8953966580873555,1,0.997778
0.9042061443189784,1,0.998924
0.893243054268127,1,0.999225
0.9007739948689962,0,0.984921
0.8862180499411656,1,0.999398
0.8679033938284606,0,0.990418
0.8623834390075975,1,0.998509
0.8663644448486202,1,0.998550
0.9036919055659816,1,0.995546
0.8463872367227547,1,0.998786
0.8354227651379189,0,0.946389
0.8667311975400634,1,0.998886
0.8586641462653073,1,0.987968
0.9131732723202186,0,0.980094
0.9228522662570579,1,0.998959
0.8972831005285726,1,0.989551
0.8854335120369099,0,0.985697
0.8801278826521168,0,0.978371
0.8750003598038839,1,0.999151
0.8570841094317169,1,0.999234
0.8933958114456152,1,0.994731
0.9187677287344359,0,0.975936
0.9047139535253806,1,0.998893
0.8928125434680979,1,0.998932
0.9133634080070694,1,0.998874
0.8510924531016973,1,0.999165
0.8722441687214878,1,0.998336
0.8553364207458789,0,0.900000
0.9257095472694639,1,0.998305
0.9269267344462397,1,0.998894
0.864346489988273,1,0.990602
0.8876996226711563,1,0.998637
0.8675830413086267,1,0.997453
0.8917675530211647,1,0.999300
0.8915430261319858,1,0.999264
0.8650992413239028,1,0.999214
0.8898514270500731,1,0.993171
0.8983394171514227,1,0.999473
0.8430527360908909,1,0.998927
