0.016397299730184806,0,0.495432
0.050259664214405766,0,0.444917
0.055037988911744704,0,0.444811
0.04142084684969895,0,0.442415
0.031085170162954843,0,0.442506
0.02438686991765034,0,0.494969
0.014431438362934776,0,0.443155
0.01152711847065692,0,0.442100
0.0070742952617026235,0,0.557093
0.07794258654292459,0,0.442083
0.06083078597562137,0,0.442193
0.05617142008978375,0,0.536378
0.9133460613878621,0,0.988972
0.9175147910491839,0,0.997598
0.9089966969920936,0,0.752050
0.9126064469577257,0,0.988352
0.9116147694066342,0,0.997517
0.8889194802395163,0,0.792787
0.9140656677434817,0,0.997574
0.9170652213609763,0,0.794652
0.9348563048359436,0,0.997972
0.9405122270772803,0,0.988049
0.9043537065370753,0,0.997645
0.9196233962918463,0,0.988478
0.934063644945371,0,0.846347
0.9172709832582874,0,0.843114
0.9065313364798689,0,0.997574
0.9094631794422694,0,0.845672
0.9146076496178824,0,0.998014
0.8637902705670325,0,0.845414
0.8726226401372714,0,0.845779
0.8509128255827378,0,0.847363
0.8590785115971128,0,0.847408
0.8788301544085072,0,0.848004
0.8946578773486925,0,0.848147
0.9066163402393229,0,0.985297
0.9068147625661178,0,0.982937
0.8715408928546927,0,0.983206
0.8796486070439008,1,0.999998
0.8844474358390803,0,0.847376
0.8962240974777155,0,0.940724
0.8915624554128596,0,0.997901
0.8994890357260854,0,0.847175
0.8906506672090555,0,0.998153
0.875874617673844,0,0.848562
0.8539095970098779,0,0.998178
0.8674669804042686,0,0.849723
0.8850051098501165,0,0.905714
0.8682507883395113,0,0.849399
0.8439460979092878,0,0.998172
0.8583472904880265,0,0.848348
0.86878409739281,0,0.908349
0.8751200260503368,0,0.850098
0.8815536081283744,0,0.940952
0.8856597588724189,0,0.353260
0.8920491254403483,0,0.807740
0.8688674968430137,0,0.997346
0.882766696494713,0,0.941038
0.907731446014135,0,0.997174
0.9182933175791551,0,0.940059
0.9275669239084271,0,0.809421
0.9426708720920925,0,0.993762
0.9124486686279047,0,0.941294
0.9322530096492285,0,0.997805
0.9400334933465905,0,0.906904
0.9466870866162161,0,0.808144
0.957290163766365,0,0.997425
0.9615121814531459,0,0.941354
0.9651598688583185,0,0.809748
0.9363590719684779,0,0.940409
0.9292864460910368,0,0.762535
0.926266953738644,0,0.810297
0.9229820885013227,0,0.809757
0.9245350612760391,0,0.808202
0.8989298739798962,0,0.374850
0.9057781478608962,0,0.810048
0.9196019540196377,0,0.942220
0.9061825287158307,0,0.997448
0.9145664862641502,0,0.941969
0.870692467021887,0,0.810433
0.8950874370411087,0,0.808708
0.8845735097902578,0,0.810744
0.8942090364883044,0,0.809118
0.8935281116431169,0,0.941924
0.8151297965078458,0,0.910347
0.8000564569095702,0,0.810112
0.827771051943629,0,0.941289
0.8545656130087895,0,0.940802
0.8424227514132094,0,0.940804
0.8557992488383187,0,0.851852
0.8484017140518514,0,0.907436
0.8626972144198569,0,0.941578
0.8654680985179006,0,0.849545
0.8683404563612889,0,0.851894
0.8532722413631443,0,0.997901
0.855196272525506,0,0.906648
0.8583241174122436,0,0.942018
0.8636272711012773,0,0.849842
0.8562850549465943,0,0.852083
0.8737475770666414,0,0.998080
0.8834302563976673,0,0.907084
0.8929159566520108,0,0.942295
0.9018820861095445,0,0.943249
0.9142881192115105,0,0.851814
0.920825357098432,0,0.998394
0.9265956352667621,0,0.998110
0.9319041065748659,0,0.906979
0.9141853374994598,0,0.998065
0.9214784360397726,0,0.907894
0.9279998373744657,0,0.942645
0.9338077723642167,0,0.943329
0.9271827585295075,0,0.943685
0.9248953901117145,0,0.852147
0.9252284542361507,0,0.852711
0.9226321906333429,0,0.998126
0.9178628578267348,0,0.994844
0.9185219501588406,0,0.990249
0.920171446799324,0,0.991160
0.9218592709934204,0,0.990634
0.9236590578690708,0,0.990666
0.9175063362198904,0,0.990801
0.9131667410055583,0,0.990871
0.910856206804115,0,0.850273
0.9107829523006818,0,0.850816
0.8761272145049879,0,0.850809
0.8816692342864506,0,0.852085
0.8881315477392264,0,0.852460
0.8948028838163834,0,0.852626
0.8609208368574555,0,0.853436
0.8466164238112681,0,0.853431
0.8493535828630072,0,0.853224
0.8480337600842962,0,0.998354
0.8534872048987929,0,0.366963
0.8586671512246745,0,0.998125
0.8220421427226472,0,0.998085
0.7809396289739812,0,0.997898
0.7728796460033549,0,0.998536
0.784670810431615,0,0.998644
0.7979480275704018,0,0.998340
0.8104438344387075,0,0.998084
0.3539075695776335,0,0.785026
0.3539075695776335,0,0.644451
0.34270732083448435,0,0.644110
0.7550535823665931,0,0.851431
0.7699758804796902,0,0.847643
0.3781415460176301,0,0.881116
0.3589116862052028,0,0.945558
0.6770228224290323,0,0.945050
0.7923910329198423,0,0.946145
