0.0873131199266853,0,0.010200
0.08606359423488771,0,0.007035
0.14293839915598916,0,0.012337
0.7167851743041485,1,0.999316
0.7096775513900112,1,0.999936
0.6342419621556408,0,0.022578
0.5617120179294147,0,0.014985
0.4760066890441877,0,0.015126
0.32090542574781683,1,0.999923
0.17129031082498206,1,0.999860
0.1555617404195253,0,0.994530
0.29919485351707853,0,0.071272
0.2895921799977789,0,0.993812
0.19789165006559387,0,0.103682
0.1315124274078179,0,0.112407
0.08450938232732602,0,0.996075
0.06272982937760559,0,0.079929
0.04964752268442082,0,0.120125
0.04150238815790956,0,0.050611
0.0366444333604943,0,0.725012
0.033785872938532635,0,0.962303
0.03252970429229855,0,0.076780
0.031821515552767854,0,0.090504
0.03168307057389161,0,0.971730
0.03184426347252693,1,0.998838
0.032346791015081894,0,0.983238
0.03305824805534045,0,0.987574
0.0339390010790873,1,0.999896
0.03472648639392613,0,0.110320
0.03585717437561953,0,0.044860
0.03728804252734952,0,0.057964
0.03850255293534771,0,0.046894
0.039415736861576775,0,0.028868
0.038688134145923724,1,0.999870
0.033492811078860554,0,0.982628
0.03475879200876454,0,0.986707
0.03203208062703327,0,0.977010
0.029416667112548235,0,0.035370
0.026255943091946184,0,0.080000
0.026545525998401764,0,0.092398
0.03307008545983821,0,0.073707
0.02989217862428459,0,0.072078
0.0335317586432496,0,0.062115
0.030769197869606833,0,0.061714
0.03187819771225614,0,0.067616
0.030219884195210173,0,0.992650
0.03510540308017003,1,0.999470
0.03649415764646914,1,0.997855
0.03488756547403785,1,0.997837
0.0336896247609445,1,0.998349
0.03298468644159756,1,0.997133
0.032728918746961204,0,0.070676
0.0327127856261839,0,0.064347
0.03302855403231568,0,0.056762
0.035725776158694905,0,0.059729
0.03848433912278684,0,0.043704
0.03840268171734061,0,0.029940
0.04075789890392281,0,0.977106
0.04299308322827176,0,0.985932
0.04286930353010772,0,0.975136
0.04309909115898944,0,0.976427
0.04360172547519596,0,0.990209
0.044315892255538565,1,0.998188
0.04713656573293459,0,0.073121
0.049728070460282,0,0.061194
0.04998395575821765,0,0.065672
0.05290412163472201,0,0.056063
0.05804615258763042,0,0.151631
0.08349199049554404,1,0.999696
0.23896979075340888,0,0.980634
0.22450906579350555,1,0.991597
0.29678529712703283,0,0.984981
0.35838511175679344,0,0.944408
0.4386652220495477,0,0.986997
0.33491493679712736,0,0.986741
0.388883525651737,0,0.709343
0.42461096756022787,0,0.782261
0.48654573258426587,0,0.994776
0.4454147685526423,1,0.999656
0.5320679314714483,0,0.990569
0.5154902703820596,0,0.981613
0.5174730223491626,0,0.991905
0.5281074592987264,0,0.993119
0.5096856705628457,0,0.988361
0.39326602767229824,0,0.991277
0.5935370111091878,0,0.992641
0.5510457797450791,0,0.998811
0.6035532113187246,0,0.988901
0.5597391649412214,0,0.990645
0.5288382528868903,1,0.999044
0.6410995498361175,0,0.988818
0.5750204154378081,0,0.996024
0.6232771133114199,0,0.988228
0.2958005062647641,0,0.702816
0.35543995655418587,0,0.991093
0.3986603507329268,0,0.997679
0.5860700694829111,1,0.999603
0.6056989489703023,0,0.999123
0.649091056973648,0,0.990453
0.6345502933410266,1,0.999727
0.689556351800275,0,0.998032
0.6980363234022998,0,0.992824
0.6732426274322926,1,0.999727
0.6324508056277599,1,0.999932
0.6732010396721129,1,0.999795
0.6575206967567582,0,0.985915
0.6177019730058457,0,0.992910
0.5563345601959683,0,0.963020
0.43157410750949055,0,0.990159
0.36908872061258347,0,0.967301
0.2820342346776834,0,0.980982
0.1544669896631206,0,0.957549
0.03843235929821076,0,0.983594
0.06847772718623012,1,0.999901
0.08916376847454681,0,0.990662
0.05568132788823403,0,0.965218
0.02613905877919732,0,0.967789
0.09877051322257432,0,0.968862
0.09967647849807573,1,0.999839
0.10383120910845284,0,0.992709
0.13545280981608143,0,0.998373
0.20476845730824272,0,0.997623
0.27509544159517496,1,0.999857
0.3191293052318388,0,0.958390
0.3428411832238193,0,0.933234
0.4087759340015378,0,0.975923
0.2176459363275349,0,0.984325
0.14270407763512322,0,0.931034
0.19399607809286257,0,0.833123
0.2449107793196557,0,0.992273
0.2994781513439161,0,0.994577
0.34497535348771213,0,0.990277
0.3881702755736547,1,0.999776
0.44654181923722996,0,0.994469
0.501680477462007,0,0.997950
0.5662361305507281,0,0.857318
0.5761370484383085,1,0.999772
0.5713592528971064,1,0.999612
0.6123205623817819,0,0.998560
0.6367502512415077,0,0.998132
0.6303822446369476,1,0.999930
0.642434998951522,1,0.999932
0.6462079864563443,0,0.996147
0.6515678858437864,0,0.958333
0.6711436954017898,0,0.988049
0.664178616964726,0,0.997723
0.6559433657590169,0,0.996964
0.6324842862051382,0,0.996592
0.6321322205173053,0,0.999259
0.6153658919063466,1,0.999733
0.5093585774495645,0,0.997191
0.6282151635191399,0,0.993048
0.6493796594337227,0,0.998928
0.6192934717907433,1,0.998783
0.6416622581575201,0,0.998361
0.45855182397857636,0,0.914829
0.6491208681834837,0,0.992059
0.4208915586811635,0,0.992253
0.6398355020335917,1,0.999876
0.6436434224623337,0,0.996338
0.6536264636298295,0,0.997491
0.5677161399447396,1,0.999115
0.5424015430442748,1,0.999384
0.6278214549190094,1,0.999266
0.6523857355258119,0,0.997460
0.6476089509053157,0,0.996378
0.6427413524855328,1,0.998446
0.6486060500163711,0,0.992406
0.632795652213635,0,0.977885
0.6471333209858997,0,0.998240
0.6212482619702048,1,0.999509
0.6116753140275017,0,0.997101
0.624620042658857,0,0.990271
0.6026486020153273,0,0.984718
0.6393677525959756,1,0.999762
0.6396778442786141,0,0.996824
0.6284201576820885,0,0.990659
0.6530792298389816,0,0.997994
0.6373266507414886,1,0.999313
0.6377059294578326,1,0.999887
0.6470008836224355,1,0.999311
0.6517750469760795,0,0.994994
0.6523126777022172,0,0.998898
0.6590700951425207,0,0.980429
0.6672383652409206,0,0.978131
0.6553478535773043,0,0.990554
0.6466169677532929,0,0.993481
0.6362465350319212,0,0.997956
0.6598132156712793,1,0.999014
0.6506462978439559,0,0.997419
0.6645284008374921,0,0.984659
0.6411120507934722,0,0.978956
0.649853076894311,0,0.997767
0.6414131926733796,1,0.999870
0.6402464223759924,0,0.997221
0.616769313158972,0,0.997542
0.6320566064114767,0,0.997405
0.6404509927487604,1,0.999061
0.655923186893215,0,0.951272
0.6483273392841883,0,0.976608
0.5180561571358726,1,0.999888
0.6662592486644606,0,0.976477
0.6675133538981007,0,0.996221
0.6648563382912743,1,0.999461
0.6648817965552858,0,0.998374
0.6632700620653104,1,0.999842
0.6381634828180991,0,0.993563
0.6348957409395386,0,0.995072
0.6465710705311501,0,0.994471
0.6173167122215384,1,0.999577
0.6536843819736946,0,0.988439
0.5910484413963728,0,0.998288
0.6394693428355014,0,0.997882
0.6088663353129145,1,0.999065
0.64334420880126,0,0.994131
0.6713381261835706,0,0.993168
0.6588462675532458,0,0.995033
0.6634383497492347,1,0.999933
0.6682557627023454,0,0.979755
0.6761116590098984,1,0.999127
0.6752140284589763,0,0.994866
0.6765605322753411,0,0.994461
0.6613903221551723,0,0.991066
0.6791310344672504,1,0.999592
0.6749957385459673,0,0.997891
0.6733397759129104,1,0.999225
0.6686803643241811,1,0.999778
0.6605608043397968,1,0.999538
0.6230402413770887,0,0.998625
0.6498843822122111,1,0.998775
0.6518591582289278,1,0.999644
0.6555273692313748,0,0.985283
0.6778831901773396,1,0.999927
0.6466967259772756,0,0.996622
0.6456242950399022,0,0.994389
0.6755691069148619,0,0.998228
0.6556890284689243,1,0.999753
0.6647027629098703,0,0.996534
0.6668186491283137,0,0.998926
0.6659705984967704,0,0.991444
0.6809460753537013,0,0.995440
0.6705966928550608,1,0.999735
0.6787285672820829,0,0.995007
0.6746609017007935,1,0.999763
0.6805920963156687,0,0.963756
0.6524618159074719,0,0.998110
0.6601538463823069,1,0.999574
0.6618397194674257,0,0.997027
0.6739986429809847,0,0.993749
0.6662665593665994,0,0.996359
0.6602820219238543,0,0.994284
0.667714187849716,1,0.999649
0.6646298717632805,0,0.952462
0.6402821687852748,1,0.999724
0.680461175959343,0,0.997178
0.641226705993724,0,0.996279
0.6338934114933584,1,0.999470
0.6290240677809651,0,0.998277
0.6611582566459162,1,0.999627
0.637398930492876,1,0.999480
0.6370210978078977,0,0.987224
0.6606584565868578,1,0.999660
0.6669429853755421,0,0.997658
0.6232740573745073,0,0.993485
0.6503075198321133,1,0.999206
0.6069309087113707,0,0.998445
0.6516143827866484,0,0.994843
0.6557027150842488,0,0.987934
0.657190167203701,0,0.996840
0.673636507602247,0,0.997130
0.6513605966001212,1,0.999391
0.649977681344196,0,0.978019
0.654622343943142,0,0.997782
0.6468701505188438,0,0.995575
0.6736516992876392,0,0.999111
0.6681844180787264,0,0.997038
0.6677218585420912,1,0.999146
0.663073219168046,1,0.999641
0.6629902153004512,0,0.996239
0.6672313557919513,0,0.998463
0.6780007818170171,0,0.996733
0.6617446263032781,0,0.998445
0.6541726298694678,0,0.999079
0.6738468780554001,0,0.998639
0.6581112779373394,1,0.999641
0.6682195350624441,0,0.995204
0.6678604280905339,1,0.998980
0.65715271188997,0,0.998736
0.6353929517657751,0,0.993888
0.666906547216122,0,0.996005
0.6748796413956736,0,0.994664
0.6635000206369136,0,0.997610
0.6640115878572997,1,0.999080
0.659159422381461,0,0.987767
0.6717614741425467,0,0.998140
0.6590758546915947,0,0.994262
0.6507877976535249,0,0.998594
0.6514589631600108,0,0.997544
0.6686321661534127,0,0.998447
0.6654162182167707,0,0.988823
0.6649464195739734,1,0.999098
0.6648503293781848,1,0.999419
0.6590416092661979,0,0.995283
0.6637231150548457,0,0.998066
0.643225225092266,0,0.998690
0.6840668806664424,0,0.998664
0.6761443031276227,0,0.998285
0.6890458389858365,1,0.999662
0.6703278832401387,1,0.999054
0.6314078973440264,0,0.999116
0.6601559340806921,1,0.999335
0.6769591733665754,0,0.997991
0.6514704676133205,1,0.998988
0.6555166529284732,0,0.979966
0.6653365950450667,0,0.994498
0.6707873650500511,1,0.999517
0.6887219261135376,0,0.999253
0.6642277587013096,0,0.983257
0.6833875167437811,1,0.998854
0.658858765392659,1,0.999547
0.647520453483755,0,0.996637
0.6417310240484414,0,0.995696
0.6555004630117852,0,0.998411
0.6401219696159713,1,0.999962
0.6434379136466861,1,0.999761
0.6511871389135887,1,0.999651
0.655087768594661,0,0.968571
0.6549586216060381,0,0.967865
0.638655200520489,0,0.986591
0.6501275230358965,0,0.997197
0.6579954405814306,1,0.999589
0.6634461268262201,1,0.999934
0.6539471233190824,1,0.999768
0.6536934630747573,1,0.999884
0.6502383184461146,1,0.999768
0.6613675705894932,0,0.988850
0.6562513011767404,0,0.985816
0.6439773999626052,0,0.998952
0.658177125553693,1,0.999863
0.6523914687458638,1,0.999894
0.6494083926207994,0,0.993946
0.652071130451626,0,0.999141
0.6562211615496807,1,0.999880
0.65162884234272,1,0.999884
0.6567111380070961,1,0.999651
0.6547351011099435,0,0.990321
0.6489507593516137,1,0.999755
0.6582069897939119,0,0.997844
0.6609629394796729,0,0.998965
0.6546926162171948,0,0.992890
0.6604230664150021,1,0.999934
0.6464736649132846,1,0.999405
0.654559216085028,1,0.999535
0.6489046198023207,0,0.971975
0.6593437110105206,1,0.999750
0.6527939922939124,0,0.998888
0.6628637045975134,0,0.998713
0.6560844569320329,1,0.999535
0.6507217301887401,0,0.967080
0.6492227831158436,1,0.999804
0.6721521902904153,1,0.999602
0.6439359220214418,1,0.999892
0.6659555306985866,0,0.990143
0.6655091462827917,1,0.999539
0.664839590485846,0,0.993787
0.6782904254774688,0,0.995696
0.6494093744301425,1,0.999678
0.6466073354065143,1,0.999165
0.6669784405302799,1,0.999468
0.6650930518050366,0,0.998058
0.6638102376263507,0,0.990529
0.6580028873654773,0,0.998996
0.6345763149668576,0,0.996350
0.6354387232784461,0,0.992359
0.65851614929567,1,0.999790
0.6647382162958722,1,0.999035
0.6668250348358347,1,0.999269
0.6536855282504377,0,0.999031
0.651922398777327,1,0.999932
0.6550806208838418,1,0.999894
0.6542403135723407,0,0.998407
0.6522444254386968,1,0.999394
0.665208510239538,0,0.996823
0.655845154506002,1,0.999755
0.645677057078225,1,0.999683
0.6408846585453164,0,0.987817
0.6491729555152629,0,0.975639
0.6551155428887532,1,0.999894
0.6598270569541592,1,0.999894
0.6521661637453701,0,0.980910
0.6580545158128781,0,0.997438
0.6617001826235273,0,0.980158
0.6519423307055084,0,0.998745
0.6643092036737,1,0.999070
0.6349277495615786,1,0.998926
0.6560325995001693,1,0.999734
0.6498915565119996,1,0.999690
0.668331791002341,0,0.998281
0.6527550353702045,1,0.999781
0.6551590513793181,0,0.998975
0.6565514549468955,1,0.998926
0.6658939354316773,1,0.999664
0.6510907929489337,0,0.997572
0.6418974308295751,1,0.999894
0.6488049307743025,1,0.999775
0.6642862217217131,1,0.999894
0.6623218386437704,1,0.999601
0.6520658256766434,0,0.977586
0.6699093170097278,0,0.971094
0.6710363894993903,1,0.999557
0.6531337285664588,1,0.999722
0.6812165146940017,1,0.999041
0.6780013445791332,1,0.999558
0.6595194823685385,0,0.997992
0.6684873302651824,0,0.998581
0.6510584838009916,1,0.999731
0.6488833814900938,0,0.998292
0.6634859944166963,1,0.999667
0.666615452813413,1,0.999670
0.6655804906756962,1,0.999735
0.6687636325465841,1,0.999661
0.6692294414831199,0,0.998460
0.6611972066460776,0,0.992754
0.6756330742103569,1,0.999884
0.6647474930154467,0,0.999182
0.6685601953922873,1,0.999891
0.6689452296049754,1,0.999883
0.6648058056273101,0,0.998498
0.6582365165732178,1,0.999883
0.6567519158225864,1,0.999744
0.6635864966755881,1,0.999786
0.6467977596048834,0,0.997961
0.6595096596082964,0,0.997157
0.6736296661308777,1,0.999670
0.655348822564268,0,0.997615
0.6585473776117478,1,0.999540
0.6543731388902836,1,0.999391
0.6592960348936152,0,0.990794
0.664097029079701,0,0.995644
0.6532649715827581,0,0.996206
0.6621647617158406,0,0.991037
0.6684261812556298,0,0.983133
0.6710124471440698,0,0.985498
0.6624513581996265,0,0.994131
0.671753616269115,0,0.985934
0.6700228848825139,0,0.972143
0.6540124929189587,0,0.971106
0.6369242403639911,0,0.991914
0.6521200803144912,1,0.999895
0.6500234807879242,0,0.996725
0.6455653658117172,1,0.999883
0.6539868585855233,1,0.999792
0.652488881267839,1,0.999558
0.6532682649100287,1,0.999270
0.6554790788497202,1,0.999239
0.6474946878557604,1,0.999526
0.64759847696078,0,0.997102
0.6558116601410865,0,0.996945
0.6524785132808862,1,0.999860
0.6504181894053683,1,0.999871
0.6403590339164381,0,0.992032
0.6478172521397416,1,0.999510
0.654701014536024,0,0.983213
0.6460340391666598,1,0.998944
0.6406313942268033,1,0.999892
0.6542859126526124,0,0.974749
0.6696437413639426,0,0.987089
0.6537815151052506,1,0.999740
0.6559728969003538,0,0.989499
0.6240469024570047,1,0.999901
0.6142718435309508,0,0.998033
0.6549626958363085,0,0.987868
0.6612250794210341,0,0.989015
0.6599385474078812,1,0.999683
0.6600964527159802,1,0.999742
0.6701084458282769,1,0.999387
0.6487506059951871,1,0.999784
0.6570107779691912,0,0.984977
0.6554707722798537,1,0.999486
0.6657120882644083,0,0.989341
0.6489927900749269,1,0.999661
0.6631311667295029,0,0.984891
0.6517534888781216,1,0.999681
0.6266932405753391,1,0.999903
0.635865247680503,1,0.999886
0.6582223866984533,1,0.999881
0.6346916997129903,1,0.999897
0.6209185868028004,1,0.999802
0.6565614204657633,0,0.970508
0.6248887380148483,0,0.996358
0.6543671607018668,1,0.999883
0.6590105355265775,1,0.999884
0.6626895436895952,0,0.975538
0.6621877186693694,0,0.971432
0.6566337678994015,1,0.999660
0.6426304182910998,1,0.999588
0.6756943118136425,1,0.999771
0.6590040452472343,0,0.990994
0.6662898069597526,0,0.975910
0.6554938778465098,1,0.999893
0.653380734908755,1,0.999782
0.6576439677087718,1,0.999539
0.6538557423727916,0,0.982031
0.6766190253278734,1,0.999660
0.6614067962277951,1,0.999707
0.6632324063047738,1,0.999870
0.6541432312292063,1,0.999734
0.6362011500148496,0,0.997159
0.6522681533107554,0,0.966401
0.6510591003067661,0,0.985968
0.652174376179956,0,0.989511
0.6320193298778788,1,0.999793
0.6463040024653014,0,0.964703
0.6518601888691916,0,0.966477
0.6482567599192628,0,0.971177
0.6656283879048395,1,0.999747
0.6228083521494561,0,0.971489
0.6368320684963447,1,0.999408
0.6307643074973113,0,0.996706
0.641737553599076,0,0.977989
0.6239939497512131,0,0.994368
0.632964344814408,1,0.999677
0.6281664855790176,1,0.999901
0.4744278496196708,0,0.994833
0.5308882719172784,0,0.959814
0.5315812072720824,0,0.992718
0.471350797929566,0,0.994259
0.5320685707906824,1,0.999777
0.547056653656696,0,0.996904
0.5488944459798015,0,0.975188
0.5267800474950766,0,0.998208
0.5345722272680277,1,0.999504
0.5669561718199982,1,0.999896
0.5561762617050976,1,0.999272
0.5764447138069955,0,0.998431
0.5765755665777341,1,0.998882
0.5478040753925864,0,0.997235
0.5734629563895199,0,0.975145
0.533878372172961,1,0.999889
0.5321556903978376,1,0.999329
0.45017006911839513,0,0.997242
0.4454418518713093,0,0.993750
0.5400627281687803,0,0.998546
0.5464501576095961,0,0.998527
0.5564262217161825,0,0.997499
0.5650802754154703,1,0.999581
0.57304219106721,0,0.996507
0.5614369233076654,0,0.998650
0.5764484867676332,0,0.998679
0.5739816784395342,1,0.999774
0.5546064308398835,1,0.999777
0.5161680466309782,0,0.998426
0.556937539880635,1,0.999319
0.5636070779144843,0,0.994006
0.5202812100451119,1,0.999214
0.5434728298265381,0,0.998757
0.5869380696811001,0,0.989522
0.6010466551043423,0,0.997934
0.5636568345943692,1,0.999230
0.5820092524433174,1,0.999137
0.5875159119808313,0,0.977206
0.5874652066561508,0,0.995726
0.5992172966210757,0,0.998412
0.5988539215125764,1,0.999752
0.5763562780788126,0,0.997451
0.6028767913375969,1,0.999562
0.6136346309412412,1,0.999216
0.6019873173941968,0,0.997046
0.6090204998394272,1,0.999065
0.5938513221910857,0,0.993651
0.6081838206450013,0,0.997519
0.6133334079667586,0,0.992476
0.5809279959794337,1,0.999081
0.6172255835146547,0,0.994578
0.6072558420791894,1,0.998950
0.6057797704710535,1,0.999892
0.6001012953647353,0,0.997811
0.596503847577167,0,0.992620
0.6159095776976868,0,0.994317
0.6033287157073468,0,0.997330
0.5937554607813619,1,0.999795
0.6125433655618602,1,0.999024
0.6094377857528518,0,0.978490
0.6002729293666784,1,0.999874
0.6037126283555249,0,0.996370
0.6256569243139791,1,0.999541
0.6118395927706489,0,0.997750
0.626122655677841,0,0.979775
0.632123727821144,1,0.999299
0.607401217265409,0,0.998026
0.5922079000319002,0,0.998063
0.5980257392992625,0,0.997564
0.6185889712413986,1,0.999803
0.6064727961681281,0,0.997052
0.6168493661097167,1,0.999891
0.626919489207033,1,0.999314
0.638804024724073,0,0.997215
0.6299422613443896,0,0.981859
0.6408114102337296,1,0.999898
0.6267240356759269,1,0.999890
0.6114820472379107,1,0.999883
0.6366978411356516,0,0.981553
0.6344472879334832,0,0.997109
0.6373174170488918,1,0.999296
0.6509097906984003,0,0.997387
0.6525238304626735,1,0.999892
0.6488903222831425,0,0.993530
0.6474493527659128,1,0.999572
0.6319090396092243,1,0.999564
0.6500393964216958,1,0.999115
0.6377678709180604,0,0.997414
0.6412962508718331,0,0.996142
0.6454971163223775,0,0.993797
0.6464902051307196,0,0.979929
0.6469648892265404,1,0.999756
0.6255935376835878,1,0.999760
0.6403159876341509,1,0.999780
0.6359174680811247,0,0.997670
0.644597985082557,0,0.989664
0.6320654139928598,0,0.995131
0.6387364684872171,1,0.999611
0.6150622939818707,0,0.997424
0.6280281445076051,0,0.993791
0.6403956406935398,1,0.998916
0.6341843031640216,0,0.998682
0.6341868943526516,1,0.998964
0.63839630559618,0,0.979234
0.6328620504100986,0,0.994981
0.6357266596679103,1,0.999855
0.6222083505787182,0,0.981720
0.6487338189879865,0,0.983093
0.6482070951576051,1,0.999759
0.6486275076453485,0,0.996070
0.6663881174316442,1,0.999774
0.6510730410109895,1,0.999489
0.6409309515373682,1,0.999885
0.6311046236802078,0,0.978347
0.6539816961804488,1,0.999538
0.6590762298827708,0,0.997720
0.6739458688193758,1,0.999240
0.6405021664661713,0,0.998603
0.6728420803346484,1,0.999880
0.6570407173965931,1,0.999803
0.6661040916917077,1,0.998608
0.6626465170384668,1,0.998771
0.6708267672658749,1,0.999886
0.6736511265031933,0,0.996907
0.6661055685495141,0,0.976653
0.6755675403419809,1,0.999892
0.6819711943511281,1,0.999567
0.6816379768876091,0,0.998392
0.6622947837644976,0,0.997378
0.6526989991881242,0,0.997471
0.6673147238267388,1,0.999892
0.6676262946034602,1,0.999538
0.6684190971255081,0,0.982278
0.6767682856230993,0,0.982742
0.6670646275374412,0,0.998300
0.6887706372702498,0,0.993205
0.6799229476012824,1,0.999610
0.672388737468318,1,0.999892
0.678240352047033,0,0.998692
0.6940855745971067,1,0.999781
0.689525364356605,1,0.999759
0.672636493362045,0,0.993546
0.6651402881045838,0,0.993656
0.6572494762897109,1,0.999870
0.6685315856559036,1,0.999504
0.6667687757225201,0,0.997277
0.6631648149919812,0,0.995342
0.6870355895038686,0,0.990755
0.6743335087642809,1,0.999875
0.6587625581383794,1,0.999742
0.6687924728522703,1,0.998708
0.6863160661187804,0,0.997011
0.6938352704195739,0,0.989653
0.6771585383427509,0,0.991011
0.6662494260557497,0,0.989492
0.6506718524480412,1,0.998841
0.6765372060285525,1,0.999778
0.6438321726607522,1,0.999613
0.6401491973741825,1,0.999741
0.6617913274812706,0,0.990428
0.675696558077656,0,0.994408
0.6970129632665744,0,0.996123
0.702934363043152,0,0.988497
0.6745754045825622,0,0.990428
0.6928332636637726,1,0.999557
0.6909800691958449,0,0.988640
0.6971661824836463,0,0.991899
0.6909421181844563,1,0.999484
0.6935942109379106,0,0.995494
0.7098844444256954,0,0.996513
0.7011532721462974,1,0.999897
0.6947283723374664,1,0.999897
0.6881892399702726,1,0.999901
0.7080893200446884,1,0.999794
0.7044565662862611,1,0.999740
0.6858607111642246,1,0.999871
0.7030954982107186,1,0.999741
0.7103203075244925,1,0.999682
0.7168313778653893,1,0.999871
0.7123338543882032,1,0.999600
0.7100851215257352,1,0.999539
0.7203758683389531,0,0.989139
0.7247104462403016,1,0.999870
0.7244932150952801,1,0.999613
0.7245881771455207,1,0.999871
0.6986288579374628,0,0.978449
0.715635482564752,0,0.992176
0.7164517383994249,0,0.987847
0.7240044171066702,0,0.983400
0.7210713642115418,1,0.999870
0.71693948471602,0,0.997935
0.7096970965330421,0,0.980756
0.7137893887580818,0,0.994995
0.7201896130439942,0,0.997215
0.7186730015065286,1,0.999257
0.7182001800797292,0,0.998214
0.7057353172766505,0,0.992770
0.7160691122440187,0,0.998544
0.7051024431565103,1,0.999868
0.6959987033694907,0,0.995916
0.7015179415744519,1,0.999885
0.6992251192027816,0,0.991033
0.7127781386845806,0,0.993681
0.7101543255572299,1,0.999902
0.7045648271746795,0,0.996562
0.7060202942365846,1,0.999792
0.713325051942492,1,0.999090
0.6920532507444711,1,0.999791
0.7146151179762131,0,0.992431
0.7152120996008323,1,0.999873
0.7274638788757606,0,0.993383
0.730944551466972,1,0.999768
0.7376556688530272,0,0.995461
0.7154964410645277,1,0.999884
0.7242428886638279,1,0.999902
0.7074856519832166,0,0.994992
0.7094539361300062,0,0.991189
0.7053736998637704,0,0.993646
0.7226963997285231,1,0.999583
0.735587388596701,1,0.999545
0.7007592689282182,0,0.995934
0.7244868410119226,0,0.995977
0.7104622295171922,0,0.998247
0.704890665105781,1,0.999884
0.7116217631265264,1,0.998891
0.7229006466351577,1,0.999094
0.729596521037176,1,0.999796
0.7261481107485311,1,0.999875
0.727584813661603,1,0.999626
0.7272291458540954,1,0.999625
0.7250026664243935,1,0.999884
0.7333277352714769,0,0.989865
0.7317819551152475,0,0.989467
0.7252112760036699,1,0.999872
0.7367253757904533,1,0.999318
0.7242979887321567,1,0.999266
0.728746548421683,0,0.997402
0.7479918589315009,1,0.999870
0.7498801961496357,0,0.998456
0.7364343022484613,0,0.990537
0.7185943449303847,1,0.999872
0.7373170625953536,1,0.999390
0.7283052202691257,0,0.991755
0.7350351651389149,0,0.993254
0.7322275174895518,0,0.998521
0.7400917353095224,1,0.999884
0.7247526467435079,1,0.999873
0.7354349582988932,1,0.999756
0.7344719418702078,0,0.989952
0.7394835711350783,1,0.999875
0.7256110377121378,0,0.994502
0.7399168876254364,0,0.989719
0.7435950187806326,0,0.989182
0.7394829173979677,0,0.989188
0.7401885919883208,0,0.989773
0.7182964166465721,0,0.993791
0.7359846501760787,1,0.998871
0.7418356487941616,1,0.999897
0.7346014167479629,0,0.988652
0.746412884972648,0,0.990669
0.7439524366065562,1,0.999865
0.7409146505592108,0,0.987660
0.75636612537291,1,0.999576
0.7424989390241317,1,0.999882
0.7334718312926322,0,0.994334
0.74568282292588,1,0.999870
0.7431509309622533,1,0.999859
0.727221728854041,1,0.999872
0.7358163996643261,0,0.992963
0.7444285940862987,1,0.999879
0.730908926521369,0,0.979289
0.7391344965779456,1,0.999904
0.7499423822737523,1,0.999760
0.7396240548055341,1,0.999885
0.7433200528716651,1,0.999588
0.7474874023132171,1,0.999145
0.7381856784734148,1,0.999891
0.6734009934375662,0,0.995222
0.6942098130026845,1,0.999746
