-0.05513629048189231,0,0.244677
0.018709653809605088,0,0.108543
0.14402977924105975,0,0.423844
0.2095297813383683,0,0.560594
0.21761665288907003,1,0.999669
0.2398789231569201,0,0.074024
0.27915581508555576,0,0.585366
0.2974888112511642,0,0.572212
0.3070100320073101,0,0.585708
0.32300498496337343,0,0.595698
0.3256928855356114,0,0.580874
0.329384694373928,0,0.581190
0.35230005589897107,0,0.743882
0.34883234789627093,0,0.601652
0.35575615769368296,0,0.993472
0.3654291491688833,0,0.333735
0.3730556903594435,0,0.080180
0.3812546744892221,0,0.609899
0.3888543004580016,0,0.928032
0.39120373460554037,0,0.351781
0.3917405412489091,0,0.608747
0.4025105276109698,0,0.584890
0.4026669213612581,0,0.738547
0.4052690196597099,0,0.468354
0.41699807179716813,0,0.606317
0.43133129686850874,0,0.398432
0.44305800181899674,0,0.640340
0.45230873020312723,0,0.473214
0.45635831795878734,1,0.999596
0.4582925053477971,0,0.154242
0.44966934760235483,0,0.476866
0.45064084621438816,0,0.479167
0.4549783330484193,0,0.487603
0.45283245238204617,0,0.977352
0.45713829846192827,1,0.999403
0.45691257876426444,0,0.976331
0.45625115263583893,0,0.593076
0.4672415653877867,0,0.867751
0.4746088014844463,0,0.879250
0.47929785423966015,0,0.983309
0.48129420578981963,0,0.171343
0.4838835288681227,0,0.755373
0.48928993826353184,0,0.753704
0.48405370793970864,0,0.922144
0.4851029815935149,0,0.296619
0.48645537278668954,0,0.897555
0.48737303738492516,0,0.401088
0.4886171539865486,0,0.829268
0.4948579735449153,0,0.752304
0.49808524689018835,0,0.978555
0.5001046594945397,0,0.113667
0.5023540140259188,0,0.749681
0.5068437751052172,0,0.598975
0.5133458529357535,0,0.186679
0.5126641550488652,0,0.404965
0.5159753862053477,0,0.981435
0.5202725476323784,0,0.341051
0.520928433445904,0,0.958602
0.5220070922908341,0,0.951220
0.5280118419930061,0,0.975000
0.5282923159012926,0,0.992506
0.526811534715501,0,0.952499
0.5276653348572583,0,0.759405
0.525871904348266,0,0.885772
0.5378456692947184,1,0.995368
0.5376291614927626,0,0.186819
0.5369749158943561,0,0.613879
0.5396179788126656,0,0.676160
0.5452724820662124,0,0.896237
0.5447626984031406,0,0.761312
0.5450565642130345,0,0.937808
0.5526620988128526,0,0.621235
0.5478208569148129,0,0.994636
0.5448243548961017,0,0.585786
0.5455961990272815,0,0.751658
0.5485057955088435,0,0.914138
0.5496948574474003,0,0.926980
0.5531479596991492,0,0.918818
0.5552476524450589,0,0.692199
0.558093977229731,0,0.584834
0.5579204924167442,1,0.999527
0.5611723043835439,1,0.999067
0.5647013726069916,0,0.207044
0.5666017088423848,0,0.977273
0.567565660901113,0,0.885410
0.5679181193415265,0,0.742464
0.5663083030922578,1,0.995599
0.5627704468520871,1,0.999528
0.5700378994224268,0,0.994376
0.5736694670352355,0,0.545018
0.5756526330440201,0,0.884373
0.5750704455250891,1,0.998990
0.5762472714273893,0,0.936448
0.5770090714108852,0,0.926503
0.5798464095704075,0,0.897257
0.5824026009420697,0,0.730588
0.5846891628912411,0,0.598510
0.5877357918054653,0,0.917904
0.590838497851988,1,0.995394
0.594804341049726,0,0.759095
0.5970306526947813,0,0.760218
0.6002440458023512,0,0.935735
0.6059231178957684,0,0.768320
0.6100985865452065,0,0.899395
0.6129997182801568,0,0.739562
0.6156572418414809,1,0.997471
0.6162323983058646,0,0.903623
0.6165055726630623,0,0.721045
0.617499088130637,0,0.935844
0.6176382985962292,0,0.908609
0.6191969048546359,0,0.734269
0.622316560221432,0,0.933715
0.6213659777956875,0,0.647059
0.6232233154790124,0,0.924258
0.6271897917197463,0,0.636150
0.6277338951869945,1,0.999416
0.6322980140546806,1,0.999383
0.6334957836697882,0,0.323226
0.6351284020996828,0,0.894710
0.6362575038792214,1,0.999325
0.6388022269094158,0,0.899229
0.6390167960758879,0,0.648415
0.641847702177852,0,0.962448
0.643341052741131,1,0.998168
0.6457303989114631,0,0.762791
0.6487603601620359,0,0.308176
0.6564025171017962,1,0.999260
0.6579605248298175,0,0.622125
0.6613426657972664,0,0.361025
0.6640650196384241,0,0.943917
0.6674428875286167,0,0.580014
0.6704768139488896,0,0.634812
0.6779355863500456,0,0.774118
0.6834541251042134,1,0.999275
0.6878978967199584,0,0.905570
0.6921836782324507,0,0.671921
0.7001537543836804,0,0.523901
0.7056192018001222,0,0.947000
0.7082304586044149,0,0.947310
0.710478455366415,0,0.758865
0.7138854973908171,0,0.871233
0.7139792244954023,0,0.902652
0.7167024181210302,0,0.961386
0.7174131510155409,0,0.958839
0.7189424623965907,1,0.999705
0.7222309974551772,0,0.831325
0.7237088868934707,0,0.917000
0.7249230441232275,0,0.914813
0.727076196276875,0,0.931525
0.7288431090550562,0,0.916174
0.7294771313535007,0,0.892131
0.7301354207312313,0,0.935106
0.7318453291798543,0,0.893347
0.7340728812795516,0,0.790113
0.7372713194037656,1,0.999402
0.739859162868014,0,0.985159
0.741117416411024,1,0.998108
0.748740377713915,0,0.964022
0.7542797352126845,1,0.998936
0.7566448800871544,0,0.900796
0.7573452409307351,0,0.584693
0.7587848657814387,0,0.941754
0.7606031805772384,0,0.941899
0.7631797039023661,0,0.859274
0.7663625430766726,0,0.973065
0.7671631247201699,1,0.998936
0.7674976402881818,0,0.723323
0.7693586183108343,0,0.745480
0.5570866267479859,0,0.891403
0.5601587548499781,0,0.953468
0.5629513858336817,0,0.982387
0.5646042152206032,0,0.922424
0.5672047035651772,0,0.797655
0.5692817531661759,0,0.933894
0.5706904617057567,0,0.938538
0.5716831524144275,0,0.984398
0.5727574008479455,0,0.984055
0.5736921076040298,0,0.897831
0.5754464451485733,0,0.591494
0.5768191626504648,1,0.998691
0.5792512885523942,0,0.940208
0.582756360209137,0,0.400000
0.5868334862709232,0,0.961145
0.5887985090639084,1,0.990491
0.5928032492431282,0,0.854701
0.5948006192463894,0,0.961670
0.59680376807354,0,0.622552
0.6004224295154971,0,0.758218
0.6076766864889943,0,0.207122
0.6097094292063702,0,0.929444
0.61341876367683,0,0.287621
0.618954298238513,0,0.301930
0.6212215330810479,0,0.957565
0.6229671228129423,0,0.209070
0.6263590245688004,0,0.948379
0.6274082110502128,0,0.209738
0.6302076303442065,0,0.935211
0.6322958150923025,0,0.643365
0.6329084390305111,0,0.481149
0.6369351821477408,1,0.999173
0.6425407962730952,0,0.960501
0.648463257156869,0,0.947703
0.6523913964478939,0,0.698885
0.6583305346041214,0,0.730895
0.6653479550901679,0,0.982833
0.6737816731316931,0,0.982047
0.7006218198675014,0,0.734413
0.7241830548086567,0,0.980392
0.7397155204645252,0,0.971429
0.744600860237949,0,0.988400
0.7546259801067714,0,0.992893
0.758655134167192,0,0.899652
0.7591264033322112,0,0.889623
0.7624351239648405,0,0.646302
0.7679684805375443,0,0.908311
0.7729862951111873,0,0.964746
0.7787979031548341,0,0.991039
0.7863745179190119,1,0.996812
0.8039133943548162,0,0.905301
0.8084446649998371,0,0.319974
0.8120187726588256,0,0.324100
0.8321666297664084,0,0.738155
0.8385739538444259,0,0.931198
0.8499146508944033,0,0.825610
0.8575013186282352,0,0.650747
0.8709939874120477,0,0.824951
0.8778244310440239,1,0.995283
0.8843216621915815,0,0.563986
0.8848200582315411,1,0.997368
0.8862985706124559,0,0.939152
0.8871086981089402,0,0.957124
0.8881229486139515,0,0.929000
0.8895204216666505,0,0.919291
0.894328791418169,0,0.966019
0.8986564435790884,0,0.937784
0.901710735205475,0,0.906578
0.9035636679403459,1,0.999410
0.9059118629206434,0,0.881197
0.907229731368427,0,0.941980
0.9107343626605312,0,0.987195
0.913183053988901,0,0.964535
0.9141185864126297,0,0.953636
0.914569289290074,0,0.948333
0.9149650743486962,1,0.996980
0.9155069592411631,0,0.965272
0.9160221513048865,0,0.995310
0.9162813882209899,0,0.984043
0.9166610866192604,1,0.999285
0.9169426763457648,0,0.914168
0.9176665729873503,1,0.998778
0.9184030303606037,0,0.986257
0.9195249998165124,0,0.994230
0.9206682001257246,1,0.999320
0.9209769464178724,1,0.998438
0.9217395079915621,0,0.992059
0.9223652422887506,1,0.996894
0.9228278833111918,0,0.925278
0.9237780361885297,1,0.999704
0.9243402535146721,1,0.999393
0.9248680295468185,0,0.962208
0.9262941599583856,0,0.904232
0.9277239321954781,0,0.976664
0.9288088950619849,0,0.986017
0.9302982907856516,0,0.994452
0.9306127090869188,1,0.996495
0.9312663103607557,0,0.973093
0.9319877085296444,0,0.989271
0.932996366681491,0,0.966862
0.9336884369586751,0,0.991458
0.9345443462208795,0,0.992359
0.9350312738341001,0,0.970798
0.9356645423266189,0,0.984972
0.9367175604172444,0,0.995973
0.9370166769694609,1,0.999353
0.9375578293841238,0,0.944676
0.9379464795656213,0,0.963764
0.9390697049979886,0,0.993370
0.9392974395644699,0,0.978224
0.9398732400891797,0,0.967096
0.9402574200936807,1,0.999014
0.9407197017081202,1,0.997188
0.9408942581971519,0,0.966254
0.9410659044864509,0,0.969171
0.9418841300054974,1,0.996981
0.9428853380179952,0,0.989841
0.9435443413249144,0,0.981944
0.9443718203313116,0,0.976562
0.9448228577956752,0,0.988537
0.9449474218099371,0,0.993939
0.9452803269663929,1,0.999558
0.9465646253088167,0,0.933595
0.9467715720700985,0,0.904789
0.9470949707528608,0,0.994050
0.9482002627689933,0,0.992947
0.9484076624216066,0,0.981687
0.9485811685278771,0,0.979288
0.9486944892436636,0,0.996708
0.9488979414928664,0,0.987799
0.9497769074847466,1,0.999506
0.950171467266937,0,0.967796
0.9510769060774575,1,0.997860
0.9513304721756847,0,0.995345
0.9516854780570135,0,0.989819
0.9518748075356935,0,0.988122
0.9520394248134312,0,0.952327
0.9523170772573994,0,0.992684
0.9523567373449149,0,0.994286
0.9524072461377374,1,0.995014
0.9525350432114714,0,0.979479
0.9528052652494389,1,0.999443
0.9529323152679796,1,0.994935
0.9531575453863419,0,0.993285
0.953287824548637,1,0.996463
0.9534155267702891,0,0.969160
0.6609466398443263,0,0.968069
0.6614617646950355,0,0.749064
0.665826598499263,0,0.983120
0.6718609565950241,0,0.993344
0.6811666480433171,0,0.765051
0.6876969446830878,0,0.953399
0.6941695677688461,0,0.186145
0.6979672823052516,0,0.916195
0.7048889016026557,1,0.999317
0.7116005640701729,0,0.756885
0.7164725620431156,0,0.965636
0.7219301843814444,1,0.996286
0.727414287296252,0,0.943911
0.7335376208469393,0,0.931131
0.7396339113193987,0,0.927035
0.7565938879909175,1,0.996717
0.773091901903033,0,0.963519
0.7839636384785311,0,0.922222
0.7988452135022389,0,0.884705
0.8039182236481501,0,0.371310
0.8059705858635354,0,0.960613
0.8071198068087015,0,0.718455
0.8141633149440793,0,0.655678
0.8166878833162035,1,0.999408
0.8197014043620856,0,0.953193
0.8244279369171933,0,0.963950
0.8335304104231418,0,0.895787
0.835591753546024,0,0.980827
0.8404424343188598,0,0.953390
0.8406007750131417,0,0.974884
0.8412673395863752,0,0.871520
0.8415133298888821,0,0.923442
0.8421926537431592,0,0.905874
0.8428475724439202,0,0.949465
0.8437806973831085,0,0.748227
0.8440633887488834,0,0.620448
0.8444838683160218,0,0.418097
0.8461502355693604,0,0.961443
0.8478306579708448,0,0.786325
0.8495939084541576,0,0.960352
0.850322561948852,0,0.989991
0.8510158104670777,0,0.955148
0.851624587604109,0,0.971998
0.8545239576662509,1,0.998811
0.8564137972249775,0,0.972921
0.8631939372169977,0,0.951773
0.8682597556535167,0,0.991571
0.8694841730221999,0,0.800448
0.8743828055794209,0,0.967890
0.8929839830421036,0,0.972973
0.8951649174114935,0,0.961515
0.89760764776857,0,0.916638
0.9019704994783487,0,0.985898
0.9035340458232024,0,0.976484
0.9051691859081943,1,0.997963
0.9067968187140489,0,0.982094
0.9093039632655312,0,0.951568
0.9109687290138488,0,0.994996
0.9124193744355111,0,0.933251
0.9135355042780373,0,0.986501
0.9150694912210482,0,0.982821
0.9173130437120929,0,0.994369
0.918965531954727,1,0.999318
0.9216411379081834,0,0.914661
0.9225565236851571,1,0.993250
0.9254128082215797,1,0.996378
0.9296218538156436,0,0.982893
0.9313605734472512,0,0.994771
0.9342071844603427,1,0.998967
0.9355177655254368,0,0.904305
0.937938426916933,0,0.988331
0.9397486590131195,1,0.994732
0.9413891292419811,0,0.991223
0.9422189232733087,1,0.999695
0.9431388423684476,0,0.994895
0.9437843317235967,1,0.999635
0.9449865551297729,0,0.867855
0.9460603579867565,1,0.998029
0.9484610365064615,1,0.997523
0.9499785448099803,0,0.992711
0.9508677408578989,0,0.981900
0.951627705858831,1,0.997588
0.9523435334410931,0,0.969399
0.9529026406005431,0,0.989505
0.9531280759787888,1,0.998685
0.9535714171075749,0,0.972824
0.9545188786771882,0,0.993600
0.9556093195192451,1,0.996109
0.9569830194301528,1,0.995187
0.9579310517852428,1,0.996029
0.9585174493839591,0,0.991688
0.9590507884916388,0,0.945009
0.9598432306790442,0,0.992655
0.9604362007959755,0,0.969271
0.961986539064712,0,0.994271
0.9630672788352864,0,0.990033
0.9636735488960486,1,0.998487
0.9645554480301841,1,0.997374
0.9652460433361861,0,0.966384
0.9660246401435431,0,0.958302
0.9667043861180834,0,0.949323
0.9669836887357834,1,0.998486
0.9678261107028514,0,0.939078
0.9683618136600217,1,0.999094
0.9688041037231812,0,0.986993
0.9693390161858978,0,0.962588
0.9696403205258418,1,0.999429
0.9698091153421925,0,0.993017
0.9700255859576146,0,0.985803
0.6868709962153523,0,0.960214
0.6918682089425922,0,0.270144
0.6989037701248916,0,0.955441
0.7124321307410826,0,0.982535
0.723357935206436,0,0.131835
0.7311633193062775,0,0.933333
0.7407982351871698,0,0.887066
0.7529407209367122,0,0.282173
0.7553356355827481,1,0.998403
0.7595248525274196,0,0.383117
0.7635362970665794,0,0.966503
0.7737777550638907,0,0.973575
0.7791055569188646,0,0.966010
0.7877669935378707,0,0.948176
0.7950227530640017,0,0.893892
0.7966407410821187,0,0.440854
0.7975876909746507,0,0.772254
0.8039018557383388,0,0.107637
0.8081500816757471,0,0.962854
0.8098524971811214,0,0.940469
0.821799485297626,0,0.968203
0.8237355423111548,0,0.885918
0.8273485621734346,0,0.971883
0.8288228092023359,0,0.959588
0.8304172545320928,0,0.930848
0.8320267143179038,0,0.451829
0.8367093805041348,0,0.991430
0.8415372647351081,0,0.937970
0.8469777275782545,0,0.723602
0.8506250814134798,0,0.996162
0.8515209359694161,0,0.982662
0.8526625872855187,1,0.999392
0.8519034603673462,1,0.998785
0.849054375946076,0,0.916123
0.8470578076054571,1,0.998638
0.8461854896732246,0,0.914266
0.8447788945052332,0,0.960387
0.8446937815319857,0,0.863672
0.8445343611077718,0,0.980226
0.8446710009047184,1,0.996820
0.8441713502816506,0,0.972408
0.845104681566479,0,0.962460
0.8447818984700524,1,0.996078
0.8449833742511086,0,0.925446
0.8466055522036614,0,0.981185
0.849951411316976,0,0.985921
0.8507454883862593,1,0.998412
0.852577946179956,1,0.999040
0.8549200178740441,0,0.779026
0.8557099438483372,0,0.991933
0.8579214449842085,1,0.994737
0.85938387119166,0,0.941676
0.8639223327566037,0,0.993080
0.86745789319938,1,0.991197
0.8693196617500243,0,0.993895
0.8722099451103847,0,0.965728
0.8739369610189123,0,0.885816
0.8755885683759966,0,0.849372
0.8770784861378442,1,0.995708
0.8788265935568604,0,0.853899
0.8822062842163694,0,0.914922
0.883803756305707,0,0.863609
0.8848135184882897,1,0.997823
0.8891434473025408,0,0.949696
0.8907613052354684,1,0.998792
0.8922161242951772,0,0.990623
0.8953317816292102,0,0.898754
0.8968599892989477,0,0.957041
0.898223194215535,0,0.802041
0.9013019611324442,0,0.954424
0.9032306217118126,0,0.878168
0.9042251327433425,0,0.859120
0.9074200019348467,1,0.997010
0.9085822979043977,0,0.834455
0.9097060318898984,0,0.950436
0.9112132332974963,0,0.961447
0.9134763490836497,0,0.896477
0.9147510425902797,0,0.989772
0.916182352194819,1,0.997330
0.9183139921663142,0,0.990546
0.9200138044968704,1,0.997695
0.9217665555156288,0,0.933676
0.9240230510237638,0,0.984767
0.9254228903315821,0,0.896197
0.9262324067605227,0,0.990976
0.9283774389054233,1,0.998230
0.9316593558972304,0,0.996280
0.9327611666822891,0,0.991667
0.9332260667511538,0,0.989583
0.9341198625598195,0,0.985185
0.9350529392469816,0,0.984797
0.9364396032886442,0,0.963444
0.9372993182269902,0,0.990541
0.9384333229303874,0,0.919865
0.9390251823839846,0,0.992520
0.9409955203846642,0,0.960849
0.9416791895672165,0,0.993129
0.9423098896691321,1,0.998535
0.9433904998091814,0,0.962768
0.9442253002393699,0,0.981587
0.9450218121585315,0,0.849098
0.9468477482039007,0,0.972903
0.9471495235365115,0,0.992834
0.9483646323522097,1,0.999492
0.9489316194319593,0,0.846770
0.9495014772498748,1,0.997454
0.9499671226252934,1,0.995702
0.9510615657177035,1,0.999665
0.9515140092217368,1,0.997934
0.9519337056257088,0,0.975533
0.9527802259614782,0,0.978635
0.9531899934357981,0,0.986800
0.9533739489845814,0,0.979519
0.9539683112975413,1,0.998307
0.9544510314684356,0,0.987110
0.9550615167486826,0,0.976378
0.9553860220860099,1,0.996206
0.955908769427331,1,0.999283
0.9564876611487562,0,0.986692
0.9568984155430328,0,0.987273
0.9573851570209786,1,0.997849
0.9578237291307338,1,0.997496
0.9582085027075222,0,0.982439
0.7368501139222386,0,0.554868
0.7540611233945717,0,0.936946
0.7742836113435441,0,0.983310
0.7864606366460576,0,0.942844
0.7908133803672588,0,0.323417
0.8021353792658834,0,0.682935
0.8179834506992386,0,0.726722
0.8307822720215621,1,0.999388
0.8397102382929105,0,0.966065
0.8444768069151788,0,0.960514
0.8513571610187473,1,0.997294
0.8577869887086882,0,0.941446
0.8609370810764093,0,0.942470
0.865356111121281,0,0.842436
0.871121646757054,0,0.983150
0.8758797740189731,0,0.929352
0.8792940359611815,0,0.968957
0.8821749998745853,0,0.993559
0.8874613375656483,0,0.971738
0.8882730855392166,0,0.991795
0.8897151615904598,0,0.979985
0.8921901556590475,0,0.941118
0.8936632050619417,0,0.743056
0.8947607627094049,0,0.301612
0.9001290005844128,0,0.883680
0.9025440518545084,0,0.989339
0.9049136296747197,0,0.992754
0.9070882683909474,0,0.953381
0.9075170065938484,0,0.983723
0.9070402296341854,0,0.993296
0.9064561592004604,0,0.962507
0.9066759792584123,0,0.879978
0.9067931451879142,0,0.926563
0.906993022369358,0,0.879690
0.9071751969935931,0,0.893041
0.9074004176060685,0,0.984593
0.9077265360535876,0,0.990775
0.9081968024963746,0,0.652658
0.9089304606978872,0,0.670507
0.9096895965483504,0,0.909145
0.9099214229241168,0,0.987719
0.9094252300428273,0,0.949418
0.9101046814713292,0,0.968827
0.9094167616389464,0,0.983811
0.9104700459563034,0,0.976636
0.9106078040634059,0,0.258032
0.910698143250644,0,0.984705
0.9109004609399934,0,0.979242
0.9139727631807474,1,0.980880
0.9165902544045267,0,0.994657
0.9168522236807177,0,0.990620
0.9172614792459219,1,0.995561
0.9190619006315924,0,0.992417
0.9191534691233743,1,0.998237
0.9192916683795017,0,0.983295
0.9193341581391566,0,0.606785
0.9193643693968079,0,0.961762
0.9196816070746958,0,0.953251
0.9196626137171308,0,0.987753
0.9197164438189678,1,0.997318
0.9201764382801361,0,0.993438
0.9202795326851633,0,0.992437
0.9204994877840944,1,0.994424
0.9207329937412436,1,0.995342
0.9211186709280456,0,0.628066
0.9304570488953213,0,0.973333
0.9380847829751929,1,0.997877
0.9462810875085145,1,0.994907
0.9476130165768362,0,0.973062
0.9496995796928985,0,0.995734
0.951408254961509,0,0.963995
0.9536855104555594,1,0.998804
0.9546035450345207,0,0.980347
0.9561767056249868,1,0.987635
0.9568455503269547,1,0.999445
0.957886601138045,1,0.998613
0.958549440086281,0,0.974252
0.958783251569874,1,0.999703
0.9588092457549915,0,0.939252
0.9588592757411977,0,0.993759
0.9591891406856987,0,0.989542
0.9593512079486746,0,0.989088
0.9593165736450366,1,0.999098
0.9592660326316104,0,0.968306
0.958808206738413,0,0.982485
0.9586664022602475,1,0.995970
0.9585229360649219,1,0.997295
0.9582330113403504,0,0.988190
0.957829694883006,0,0.994016
0.9575394057736907,0,0.948319
0.9571759687559356,0,0.985659
0.9566934383584875,0,0.958320
0.9562346833350674,1,0.999702
0.9560268961693614,1,0.994036
0.9557455422909137,0,0.970526
0.9553372131204659,0,0.996626
0.9550021883305136,1,0.998869
0.95471849263594,0,0.991797
0.954366202219241,0,0.993125
0.9542741728619087,0,0.979356
0.9542668114243941,0,0.996000
0.9543781034611734,1,0.997662
0.9544762134091038,0,0.995797
0.9543290247907428,1,0.998667
0.9541181630685882,0,0.992416
0.9535655891861291,0,0.982759
0.9531341828091422,1,0.999703
0.9531190925183779,0,0.989330
0.9538217587074741,0,0.979073
0.955007847591928,0,0.968197
0.9562395869632407,1,0.994612
0.9566549315602253,0,0.994794
0.9572547378667798,0,0.985933
0.957500257938191,0,0.970117
0.9579590781671148,0,0.989147
0.9584843304363473,0,0.894870
0.9589230855182591,0,0.965104
0.9593372184574224,0,0.996057
0.9591670907764559,1,0.998698
0.7683976415362026,0,0.991884
0.7955427153141623,0,0.923196
0.8156155357420541,1,0.997688
0.8228619503262758,0,0.963865
0.8340127017550351,0,0.975131
0.8426794790417939,0,0.989866
0.8493001896287843,0,0.939567
0.8563528874672254,0,0.981338
0.8633853116069886,1,0.998899
0.8646888638735302,0,0.803320
0.8648192225322354,0,0.994558
0.8661934860052853,1,0.997232
0.8666888554839564,0,0.810423
0.8642080717722362,0,0.912371
0.8670407208450054,1,0.999541
0.8761301856305782,1,0.998246
0.8857775431487576,0,0.866633
0.892505614354231,0,0.410112
0.8999131342385328,0,0.942096
0.9041517923909592,0,0.987730
0.9084033658249621,0,0.975049
0.9132888100451999,0,0.994485
0.9172646868118636,0,0.987647
0.9178125159011186,1,0.997815
0.9195568681366528,0,0.972465
0.9225670121111867,1,0.999355
0.9260423191711926,0,0.983486
0.9294944364619411,0,0.983966
0.9317122091501681,0,0.991312
0.933187616457017,0,0.976708
0.9351331483570319,0,0.994087
0.9363504740318283,1,0.996893
0.9384503370253536,0,0.975826
0.9402411038908929,0,0.936854
0.9413335817206643,0,0.969231
0.9422429569557174,0,0.986077
0.9425325264804206,0,0.979957
0.9428479945431648,0,0.981812
0.9428776390176493,0,0.973290
0.9428323891971814,0,0.987879
0.9425703037456898,0,0.989098
0.9428410490306498,0,0.820827
0.9445843849403128,0,0.528342
0.9458599078371581,0,0.962906
0.9458590921218156,0,0.982348
0.9458577078994848,0,0.970120
0.9458072225452279,0,0.990260
0.9456588544073853,0,0.978623
0.9456337920353366,0,0.992806
0.9459085265073494,0,0.976629
0.9452272601226027,0,0.994419
0.9447214546253818,0,0.976938
0.9438909578331486,0,0.955926
0.9435045109927779,0,0.968900
0.9432886013500298,1,0.998170
0.9425126760561606,0,0.975785
0.9422209471314857,0,0.947646
0.9422813001532352,0,0.961680
0.9422759344474306,1,0.995240
0.9415602297366448,1,0.997121
0.9408512707069462,0,0.979984
0.9399188679097565,1,0.999535
0.9395064135150103,1,0.998111
0.9395786334969483,0,0.992721
0.9385984450330833,0,0.994313
0.9381501253442824,0,0.992139
0.9378610507246267,0,0.991597
0.9370168416713521,0,0.949315
0.9359326188241368,0,0.948319
0.9352933434411237,0,0.980594
0.9343350337794499,0,0.984711
0.9333206181471401,0,0.994303
0.9328571008955181,0,0.945902
0.9326363658985697,0,0.985874
0.9321567198735338,0,0.975122
0.931946856029844,1,0.992157
0.9318867988243269,0,0.970416
0.9314110258828993,0,0.988710
0.9312339501765381,1,0.998384
0.9310685681460724,0,0.933407
0.9307488320639569,0,0.971924
0.9311578719506947,0,0.890598
0.9313152754209015,1,0.995185
0.9313238570492308,1,0.997342
0.9312915172870415,0,0.981240
0.9312540734061275,1,0.996091
0.9309845349530963,0,0.992550
0.9305054146524584,0,0.916269
0.9298154059205028,0,0.956995
0.9296033287955419,0,0.982667
0.9297230005327528,0,0.979356
0.9307881384395601,0,0.901554
0.9309610466348653,0,0.982106
0.9317018870362496,1,0.999450
0.9316179889325197,1,0.998994
0.9315384575989378,0,0.979747
0.9316910986011391,0,0.947917
0.93166105069677,0,0.988506
0.9319076341837721,1,0.998053
0.9331677128942786,0,0.980000
0.9334791045365228,1,0.997113
0.9376470291082416,1,0.992523
0.9393230447420127,0,0.982681
0.9418665862488483,0,0.960875
0.9430938102818059,0,0.995237
0.9438978329693973,0,0.986049
0.9445469741171326,0,0.984828
0.9453673178988018,0,0.996235
0.9456885529219436,0,0.993917
0.9460572601609989,1,0.998967
0.9467610096751132,1,0.998111
0.9473932844035478,0,0.993181
0.9477124287449846,0,0.984188
0.9478007390485236,0,0.963382
0.9478376203131404,0,0.989011
0.9479294954270475,1,0.998892
0.9480933828983293,0,0.993433
0.9480418026974486,0,0.975854
0.9480668747993075,0,0.961695
0.9484146324823772,0,0.940803
0.9484078896618015,0,0.989322
0.9483977355763149,0,0.987413
0.9484085916488001,0,0.992550
0.9482646265834322,0,0.978299
0.9482895815926206,0,0.973865
0.9482379718557408,1,0.997661
0.9481607580382367,0,0.996527
0.9480755647868491,0,0.974399
0.947948253172149,0,0.978972
0.9479738793257257,0,0.916667
0.7573405954188803,0,0.691900
0.774145360126529,0,0.639666
0.7885527109937123,0,0.981009
0.7969300594244105,0,0.934524
0.8088896432629022,0,0.962963
0.8221732308977049,0,0.961393
0.8372446227725239,0,0.989560
0.8528832402049414,0,0.966867
0.8575776129884605,0,0.875958
0.8681717395611371,0,0.749554
0.8716816956200366,0,0.963837
0.8766183704100682,0,0.957288
0.8809351097942039,0,0.580610
0.8817755580233534,0,0.944681
0.8843432113232407,1,0.997370
0.8874787967687191,0,0.954128
0.8890986157041294,0,0.903737
0.8925244060712438,0,0.964176
0.8948966245102262,1,0.998717
0.8967285593267289,0,0.944970
0.8995944299302466,0,0.738789
0.902136632667823,0,0.994486
0.9031994814522137,0,0.942810
0.9018717421603307,1,0.999330
0.9021925639702683,0,0.920344
0.9043106401607214,0,0.982164
0.9044869883020353,0,0.972279
0.9056627167233431,1,0.998867
0.9157698446425824,0,0.951557
0.927842179975571,0,0.993245
0.9310541785670694,1,0.998700
0.9351233124499432,0,0.979196
0.9362989800082554,1,0.994744
0.9367996134237007,0,0.993399
0.9368411442077614,0,0.940171
0.9342434056097997,1,0.996860
0.9322990783319869,0,0.971880
0.9288890340689757,0,0.986254
0.9268246924196739,0,0.986061
0.9271557772537848,0,0.980378
0.927945451803674,0,0.910143
0.9256994653350142,0,0.964429
0.9225049826051064,1,0.997628
0.920517678243481,0,0.979167
0.9173779082168967,0,0.986797
0.9137640536787897,0,0.979668
0.9137177908328606,0,0.970781
