-0.06148968228040617,0,0.028729
-0.14044741797557606,0,0.011476
-0.14087806202995656,0,0.807556
-0.10118928700435757,0,0.007225
-0.02658579984380448,0,0.367562
8.696574274076318E-4,0,0.003236
0.07274488633880198,0,0.568081
0.08214781041643102,0,0.002216
0.09744770647650161,0,0.001732
0.13901104687902474,0,0.001922
0.11768801895075347,0,0.674476
0.14268383975136797,0,0.536607
0.1925675375978014,0,0.416450
0.21994099957104968,0,0.320818
0.22390487450374497,0,0.934520
0.2152152178845683,0,0.993546
0.2179180043805881,0,0.556511
0.22568041573507291,0,0.418726
0.24963144845488372,0,0.856043
0.27082945081873694,0,0.001986
0.2857828764031648,0,0.511091
0.29360602862421825,0,0.002165
0.32544574178009644,1,0.998967
0.3453097672076466,0,0.811634
0.3692058775405048,0,0.002469
0.3818422133891523,0,0.422204
0.38564522832957554,0,0.661668
0.3909067570374741,0,0.845570
0.3885343901795112,0,0.969495
0.3651457565342057,0,0.942768
0.37849944174228684,0,0.427748
0.3908571521465422,0,0.941970
0.3970731224018843,0,0.947848
0.39920536084523406,0,0.651137
0.41170167618100795,0,0.002990
0.4271490315678631,0,0.003044
0.4290638759048104,0,0.990955
0.43003459243822284,0,0.421844
0.4317158106720352,0,0.497198
0.4392720365586931,0,0.041585
0.43653815539533775,0,0.448746
0.45155852035214133,0,0.813696
0.4535419384324927,0,0.038569
0.46224862957614726,0,0.361178
0.46210495415781855,0,0.147259
0.4617272537626934,0,0.639539
0.46667231346197696,0,0.349633
0.4658521588356594,0,0.931487
0.4723391435005852,0,0.785406
0.4774866765365174,0,0.331876
0.48450804167919226,0,0.347780
0.4925664913529529,0,0.950226
0.48918507968425556,0,0.802906
0.4801440565087906,0,0.404075
0.4897150843876628,0,0.106208
0.4895498957383379,0,0.812987
0.5029607955696443,0,0.732907
0.5194734337188648,0,0.688649
0.5191638667119925,1,0.998667
0.5183356753344449,0,0.490522
0.5322007999363929,0,0.942308
0.5299049290354951,0,0.217518
0.5402387627848667,0,0.923732
0.5488439220972207,0,0.897445
0.556368432080402,0,0.291706
0.561663331814757,0,0.293617
0.5629916736525413,0,0.705734
0.5691464151438523,1,0.996977
0.5711832937016931,0,0.553047
0.5745691685101164,0,0.915581
0.5751533981787488,0,0.921053
0.5703409446562782,0,0.916959
0.5699473463410597,0,0.415698
0.5711419730772394,0,0.726129
0.5719787156348781,0,0.803294
0.57226789684809,0,0.959285
0.5833321231970603,0,0.991531
0.6083870443506231,0,0.922543
0.6051902058887454,0,0.910660
0.6146083882281956,0,0.514715
0.6277979838417967,0,0.918634
0.6277753868519851,0,0.239963
0.6293049509605528,0,0.988802
0.6313829798250762,0,0.779406
0.6338578859611018,0,0.943484
0.636293338999383,0,0.971615
0.6374296270458116,0,0.705953
0.6403310908070192,0,0.982948
0.6416539742827377,0,0.992857
0.6438079888147074,0,0.857361
0.6457857057624194,0,0.517070
0.6555739882479419,0,0.943920
0.6568602530018093,0,0.962935
0.6598583548684993,0,0.400183
0.6639200193829997,0,0.924873
0.6623917870195223,0,0.531411
0.6634455117725732,0,0.920290
0.6638362715527623,0,0.838184
0.6641787534228901,0,0.971649
0.6668571927830915,0,0.731861
0.6695303033754508,0,0.870072
0.6723357583060731,0,0.958683
0.6724864818826873,0,0.422857
0.673136535182125,0,0.811359
0.6721320560541983,0,0.411765
0.6702582655660871,0,0.931908
0.668682273947352,0,0.850769
0.6727795829108515,0,0.058954
0.6736637153727157,0,0.774771
0.6744612322977163,0,0.265998
0.6766923594618253,0,0.545596
0.6755931976908178,0,0.882922
0.6759539838048079,0,0.753761
0.6780296815084715,1,0.998821
0.6794334419665912,0,0.438202
0.6793425498022616,0,0.301026
0.68067074225692,1,0.997196
0.6931613867835106,0,0.609135
0.6955110963126274,0,0.793069
0.7021810126339801,0,0.250644
0.705431508400633,0,0.348560
0.7103394180506526,0,0.987746
0.7090573379656672,0,0.431785
0.7127912821993332,0,0.514264
0.7151903952192519,0,0.922283
0.7273328623203059,0,0.451893
0.727730823419349,0,0.887465
0.7297411712754832,0,0.875325
0.7318432840721405,0,0.633829
0.7401702259825182,0,0.963452
0.7406866101209928,0,0.613514
0.7407425810282183,0,0.930994
0.7511097592321637,0,0.629350
0.7531534770383135,0,0.942149
0.7534494409068697,0,0.793411
0.7605227749768562,0,0.959297
0.7709129596081331,0,0.549215
0.7703579783222299,0,0.482252
0.7810579206794094,0,0.878960
0.7805998549107536,0,0.752125
0.7808191101374895,0,0.276000
0.7792896096658138,0,0.980185
0.7798649455334697,0,0.935777
0.7801847042021103,0,0.867305
0.7859545455242906,0,0.907955
0.7860605746199198,0,0.341688
0.7828660727790142,0,0.855342
0.7847433373995155,0,0.867654
0.7861321967309174,0,0.319357
0.7963669346669264,0,0.648281
0.8067051536092326,0,0.884069
0.8111642375758816,0,0.963951
0.8140038205467393,0,0.958705
0.8138711542010605,0,0.354909
0.8137578476260553,0,0.763060
0.8135560830398297,0,0.804481
0.8123803474998367,0,0.920103
0.8106042672548421,0,0.817468
0.8110427233291617,0,0.904814
0.8108376014057941,0,0.949521
0.8180428886804643,0,0.892750
0.8244791862361113,0,0.877739
0.8249159294017915,0,0.821029
0.8252118838727722,0,0.677482
0.8280653623714714,0,0.915021
0.8379048646499931,0,0.991014
0.84046330759739,0,0.890424
0.8434165815183265,0,0.902315
0.8441739507872797,0,0.956180
0.8445959811655384,0,0.410443
0.84559243242578,0,0.539459
0.8466490807991955,0,0.931532
0.8478312664222787,0,0.982769
0.8482952798803787,0,0.753069
0.8492894787360402,0,0.762894
0.8490694309873649,0,0.832293
0.8490827920261138,0,0.979462
0.8486899135355588,0,0.900299
0.8482976988457661,0,0.976804
0.8478492294107045,0,0.971185
0.8455211486969753,0,0.973593
0.8411507214142266,0,0.212308
0.8360491996664823,1,0.997131
0.842544854254042,0,0.602000
0.8576178056662784,1,0.998703
0.862745170747874,0,0.994959
0.8653064389041834,0,0.684570
0.8657520958285354,0,0.981723
0.5802249638559706,0,0.515365
0.604425892392786,0,0.577029
0.6104201327437913,0,0.642254
0.6148628733022445,0,0.873844
0.6316314475029459,0,0.995256
0.636392042118953,0,0.558171
0.6406519739657194,0,0.727733
0.6479535893997892,0,0.619837
0.6562129976819886,0,0.321545
0.6607950373313946,0,0.745299
0.6741696970547929,0,0.955458
0.6759151172241125,0,0.255943
0.6795761285134949,0,0.327784
0.6814330790351979,0,0.789660
0.6855576575739827,0,0.261257
0.6880695083164046,0,0.720257
0.6919250114176323,0,0.322764
0.6952861517278535,0,0.935588
0.7016938505395229,0,0.989251
0.702524593724867,0,0.614570
0.7071695593812374,0,0.325843
0.7076614865441262,0,0.419635
0.7078668216013345,0,0.785243
0.70445000156837,0,0.955891
0.7015377533935782,0,0.976217
0.6929956888910433,0,0.681994
0.6896469130283538,0,0.526204
0.6850380255064712,0,0.333634
0.6847726703837387,0,0.964202
0.6847809857151159,0,0.882424
0.6782598755326041,0,0.640163
0.6764765349132308,0,0.821378
0.6775379411604937,0,0.934719
0.6765904817995985,0,0.877537
0.6783037648243031,0,0.728250
0.680127998520453,0,0.846640
0.6832495621186285,0,0.991188
0.6833307737212877,0,0.656590
0.6836995409748851,0,0.791477
0.6839462093573199,0,0.774543
0.6863142147541571,0,0.500257
0.6865951142887157,0,0.243932
0.6866910310483741,0,0.677955
0.6888376044046811,0,0.640758
0.6921647497157027,1,0.999610
0.691506098706949,0,0.552303
0.6904028874756003,0,0.903893
0.6903221299002156,0,0.187541
0.69134465853146,0,0.384320
0.6910157646603636,0,0.791988
0.6920445244266518,0,0.807143
0.6915462598751514,0,0.895904
0.6945698631757513,0,0.897981
0.6994446071921515,0,0.975640
0.6996017097045716,0,0.991071
0.7026204777922544,0,0.704152
0.7042515905145003,0,0.976160
0.7049473251549118,0,0.619102
0.7069140022003311,0,0.862553
0.7104607746562439,0,0.767770
0.7154644269933275,0,0.680524
0.7407207894275092,0,0.966859
0.7529533212293684,0,0.820257
0.7528136038666372,0,0.943571
0.7611327241896417,0,0.644782
0.7883948812689692,0,0.988301
0.8081505263035045,0,0.671736
0.8201374310919967,0,0.684957
0.8208632962407556,0,0.854657
0.8210260687154363,0,0.512101
0.8247637856143234,0,0.480398
0.8449768427216501,0,0.847816
0.8587522978660014,0,0.807442
0.8731655855390605,0,0.185208
0.8748582716930688,0,0.980647
0.8798344748899171,0,0.747655
0.8855578090577106,1,0.999363
0.885480484550905,0,0.640598
0.8853535953422125,0,0.921085
0.8858150055814865,1,0.996310
0.8858575610968911,0,0.739625
0.8888498651796591,0,0.925290
0.8950786718172558,0,0.604356
0.8960193100536529,0,0.779037
0.9033292184258076,0,0.892781
0.9073147979364184,0,0.966524
0.9135646339177808,0,0.909728
0.917204023740898,0,0.978838
0.9212742114814728,0,0.956824
0.927623022829725,0,0.987274
0.9292051025560328,0,0.901441
0.9297924159379113,0,0.949871
0.931890392113799,0,0.908377
0.936704096568238,0,0.535294
0.9404610253631769,0,0.976455
0.9423503548182579,0,0.968303
0.9429483899617972,0,0.963771
0.9472906481618806,0,0.925330
0.9472719870563294,0,0.919901
0.9471788838663779,0,0.726833
0.9477268573058585,0,0.967618
0.9479319308285605,0,0.194373
0.9479580548849353,0,0.604278
0.9480087575442402,0,0.607629
0.9480120490364166,0,0.778681
0.9480499932325034,0,0.965460
0.9481502084944472,0,0.855253
0.9482496390482813,0,0.896644
0.9482926845970402,0,0.578790
0.9483833212461211,0,0.746295
0.9485025004115247,0,0.837694
0.9488414648916245,0,0.932052
0.9492450468767302,0,0.955139
0.9493802117397523,0,0.956013
0.9495387729042747,0,0.969588
0.949551156848338,0,0.487383
0.9495138027401892,0,0.897033
0.94974128162541,0,0.988437
0.9503636599028096,1,0.999406
0.9516945238760793,0,0.985620
0.9524955660493165,0,0.985774
0.9530824058105358,1,0.996122
0.9535660069055115,1,0.997687
0.955475347709974,0,0.747817
0.9556470522678677,0,0.744867
0.9556178319170282,1,0.998514
0.9556832882718931,0,0.925429
0.9558445708741142,0,0.607186
0.9559516303412455,0,0.983325
0.9560888721553235,1,0.996825
0.9565217568807373,0,0.954663
0.9569125129738375,0,0.989928
0.9589564821451508,1,0.999490
0.9605157282230848,0,0.992693
0.9605500391083011,0,0.991123
0.9610396152519027,0,0.968983
0.9614091901625872,0,0.891208
0.961473722861206,0,0.859574
0.9614218819069237,0,0.787624
0.9612167343674928,0,0.464440
0.9621680595677341,0,0.978142
0.9621787646953344,0,0.983753
0.9627038757549189,0,0.986005
0.9646329386649816,0,0.984752
0.9650115132981858,0,0.965900
0.9650077570861523,0,0.974063
0.9661593561218993,0,0.601312
0.9661870558685989,0,0.965841
0.9662292150435082,0,0.946321
0.9668562717764645,0,0.985204
0.9674384700914215,0,0.990973
0.9675388893809211,0,0.982079
0.9675210100533933,0,0.582130
0.9674965275985101,0,0.960443
0.9676065504006213,0,0.345805
0.9675647998843533,0,0.977657
0.9674666017921423,0,0.991856
0.967269515894279,0,0.977327
0.9670711129835946,0,0.659875
0.9666345636356213,0,0.660544
0.9665841327280158,0,0.956567
0.9656553908660431,0,0.911846
0.9651755158442094,0,0.971326
0.964406113903053,0,0.785263
0.9617163831135629,0,0.748217
0.9614959379526784,1,0.997035
0.9627854387341594,0,0.986005
0.9637085184398216,0,0.994486
0.9643988906902119,1,0.996106
0.9656811522004584,0,0.982174
0.9658836177910928,1,0.999685
0.9659148191166939,0,0.975278
0.9659576389233573,0,0.883562
0.9663075921550452,1,0.999662
0.9687879662700095,0,0.991067
0.9689191202278792,0,0.981789
0.9694847876213295,0,0.722081
0.9703615995830999,0,0.932782
0.970470828160034,0,0.904553
0.970534106841817,0,0.978654
0.9705762910749614,0,0.944808
0.9705173001160309,0,0.905101
0.5773242125766962,0,0.356044
0.5702539252572852,0,0.834683
0.5684278783544622,0,0.563507
0.5549736154232824,0,0.816626
0.47701513398983103,0,0.970046
0.4487991668958212,0,0.414634
0.4255914481637671,0,0.825778
0.4355099640550828,0,0.460055
0.4470489184927994,0,0.979136
0.492229425173665,0,0.392401
0.5031321481966495,0,0.916250
0.5202011711905122,0,0.973478
0.54883615001576,1,0.999213
0.5598802389481087,0,0.681688
0.5721963621213824,0,0.963504
0.5794507516347843,0,0.711966
0.5944035230543037,0,0.984997
0.6022439761456024,1,0.995522
0.605284926993034,0,0.990769
0.6200304942966884,0,0.830115
0.6259797061021141,0,0.992424
0.6414232494338384,0,0.938440
0.6441267273044697,0,0.948640
0.650296301453647,1,0.977064
0.6578743129726685,0,0.835045
0.6639264209177633,1,0.995349
0.6678619222966095,0,0.253138
0.6752674672455845,0,0.871810
0.6775183341763055,0,0.438245
0.6965169903352784,0,0.973369
0.7081996394001445,0,0.435329
0.7150210339513368,0,0.968453
0.7238167777775095,0,0.986146
0.7282930617219279,0,0.836180
0.7313806794638293,0,0.606542
0.7355249345292695,0,0.973352
0.7392012894664851,0,0.837361
0.7401315451566007,1,0.998943
0.7451240598762711,1,0.999266
0.7500580561854697,1,0.998713
0.7584883736498825,0,0.979303
0.7587713537145648,0,0.989390
0.7601300137256892,1,0.990576
0.7689001463843654,1,0.998124
0.7782324170354056,0,0.951482
0.7864017382346176,1,0.999670
0.7934994376064999,0,0.980952
0.7998759770789176,0,0.994188
0.8031499686528142,1,0.999001
0.8144205625668001,1,0.998682
0.8161321787540593,1,0.999225
0.8172034204462888,1,0.995120
0.8170538223959493,1,0.999523
0.8168085633727223,0,0.911357
0.8169543756291454,0,0.951374
0.8170290977863284,1,0.998025
0.8191918404151307,1,0.996285
0.8206097546657848,0,0.993491
0.8207121815583918,1,0.994321
0.8230041622427943,0,0.928121
0.8270541836307556,1,0.995285
0.8298354485549511,1,0.994786
0.8323976201621677,0,0.967102
0.8336481532229237,0,0.790342
0.8355409973543454,1,0.997344
0.841025390312873,1,0.992147
0.8447042812643762,0,0.934008
0.8472478371591124,0,0.965619
0.8499626385134458,0,0.768859
0.8482951095156702,0,0.929464
0.8469702540009969,0,0.981944
0.846755077262742,0,0.986620
0.8470036849153609,1,0.995825
0.8473522167422023,0,0.983897
0.8524534488360218,0,0.981996
0.8563299878907062,0,0.853565
0.8614346279549082,0,0.991640
0.8640930645926397,0,0.850594
0.8655387526569556,0,0.976942
0.866344741519084,0,0.786239
0.8661823983023923,1,0.997831
0.8674142552132871,0,0.782507
0.8693239344481655,1,0.998647
0.8709986502013031,0,0.935890
0.8729582568482449,0,0.962918
0.8741405238992591,0,0.830526
0.8778284861280847,0,0.983753
0.8787250233468724,0,0.982286
0.8846152338706242,1,0.992188
0.8888871415429905,0,0.982150
0.8948233681105265,0,0.954966
0.896223606024946,1,0.999332
0.8980084241634352,0,0.941214
0.9005943085804415,0,0.880066
0.9025631900009757,0,0.955307
0.556682849935607,0,0.347849
0.5687225458873284,0,0.977645
0.5790596314900827,0,0.859141
0.5926667284192353,0,0.990991
0.5993893416559735,0,0.700935
0.629699894834798,0,0.482068
0.6853504557758051,0,0.993351
0.6875334550804648,0,0.865306
0.6955566335311848,0,0.768600
0.6930655096902651,0,0.795086
0.6879161238071375,0,0.963407
0.686692239167806,0,0.987281
0.6887306079368981,0,0.352941
0.6889692919826325,0,0.832933
0.6918963481919373,0,0.674448
0.6991542377830609,0,0.681364
0.7016144705915649,0,0.831894
0.708923289935582,0,0.513441
0.7173058625165005,0,0.911681
0.7216765543240231,0,0.937626
0.7231937738058619,0,0.609847
0.7320619615559231,0,0.898226
0.7359255112326377,0,0.921526
0.7393693723861757,0,0.919670
0.7440272824131037,0,0.707022
0.7465388353025616,0,0.564382
0.7529681053160134,0,0.995100
0.7548138176942211,0,0.784756
0.7572428289427918,0,0.555813
0.7612473900664374,0,0.653397
0.766977153891256,0,0.646444
0.7697270888105611,0,0.950099
0.7734475183024053,0,0.781329
0.778020651685896,0,0.533078
0.7827764909512854,0,0.992740
0.785427841652673,0,0.557627
0.7864333407289804,0,0.847244
0.7872405352901582,0,0.709006
0.7886306111055565,0,0.972746
0.7897330253851172,0,0.905439
0.7910810853154497,0,0.552279
0.7935571648169101,0,0.629208
0.7963054077072719,0,0.520966
0.7996774807205439,0,0.873892
0.8023183008633893,0,0.469539
0.8063885701313234,0,0.651818
0.8097921901692698,1,0.998092
0.8126825424635391,0,0.793718
0.8147078685951532,0,0.995109
0.8176713875457889,0,0.979294
0.8208022041458728,0,0.991970
0.8230137257629379,0,0.785714
0.8255297863697831,0,0.804063
0.8279579229248859,0,0.601422
0.8305096812433601,0,0.549819
0.8325038746687682,0,0.411356
0.8338204333169721,0,0.661834
0.8352210391887843,0,0.786223
0.8364501756356046,0,0.995540
0.8374990957215996,0,0.791135
0.8394230371849293,0,0.963614
0.8419484772895676,0,0.750383
0.8436637444987798,0,0.596906
0.844463061414334,0,0.656960
0.8454973516246251,0,0.423302
0.846944224322219,0,0.973049
0.8498780803813517,0,0.836215
0.8519380576617802,0,0.893147
0.8539848792876942,0,0.914894
0.8569277929851132,0,0.965671
0.8597588250368539,0,0.907832
0.8603135710870972,0,0.996216
0.8625786502822026,0,0.842663
0.8646762854138691,1,0.996874
0.8658565788358766,1,0.999451
0.8663461449786035,0,0.983465
0.8678999976287812,0,0.817621
0.8679186212541264,0,0.965662
0.8680156451090423,0,0.950845
0.8688148859725346,0,0.757888
0.869788978867934,0,0.641536
0.8710538580396187,0,0.618581
0.8728426812546395,0,0.494544
0.8736269037080713,0,0.776539
0.8742556023266395,1,0.999607
0.8758402891446425,0,0.958308
0.8773463120972533,0,0.975630
0.8775511355253873,0,0.828558
0.8784232936850304,0,0.731577
0.88020118987012,0,0.924895
0.8813185871114464,1,0.999166
0.8824994359928634,0,0.988068
0.8840467279470429,0,0.924475
0.8853552930226201,1,0.999064
0.8873000893071125,0,0.841512
0.8882051123268829,0,0.987075
0.8882558107735667,0,0.760616
0.8883933218215643,0,0.984522
0.8885988217511711,0,0.502297
0.8887613857964672,0,0.951057
0.8891428135624788,0,0.830374
0.8895660239769243,0,0.565010
0.8899293213527882,0,0.699084
0.8902429404933488,0,0.681329
0.8908777768334588,0,0.975988
0.891032068244179,0,0.611588
0.8913441609066952,0,0.529318
0.8914730514068554,0,0.503840
0.8916966211613852,0,0.793384
0.8920407583803228,0,0.602402
0.8925200611798513,0,0.591520
0.8928441863617174,0,0.697917
0.8932328161644024,0,0.467532
0.893733541619787,0,0.803820
0.8947218103525033,0,0.970355
0.895071589073111,0,0.894355
0.8957940598192096,0,0.994034
0.8960534378059988,1,0.995556
0.8963957723007975,0,0.876041
0.8966747320622279,0,0.881236
0.8969251800856762,0,0.584906
0.8972643061154695,0,0.692702
0.8975472450455906,0,0.446957
0.8977088100662094,0,0.815121
0.8983482151857974,0,0.984243
0.8983483061063836,0,0.525203
0.8985290107876188,0,0.758219
0.8985810574627469,0,0.777553
0.8985889197332287,0,0.636449
0.8986054096525883,0,0.758699
0.8987763088528856,0,0.516456
0.8992784113070524,0,0.983753
0.8993883444671188,0,0.705121
0.8995658438334179,0,0.930041
0.8997074434421444,0,0.643917
0.899951988278568,0,0.895833
0.9001147525493643,0,0.865706
0.9001359146408994,0,0.833333
0.900182538761793,0,0.675332
0.9003482292488533,0,0.925926
0.900416831462294,0,0.986199
0.9005446707883694,0,0.734694
0.9006197812801896,0,0.758683
0.9016118037252924,0,0.510984
0.9029618174942248,0,0.963741
0.9047801226611346,0,0.974326
0.9050264187476887,0,0.738070
0.9053336301186432,0,0.952333
0.9056538363171373,0,0.878086
0.9063519631191957,0,0.551133
0.9065514260487767,0,0.788820
0.906570246311372,0,0.859024
0.9066885686045826,0,0.675676
0.906744540468925,0,0.697080
0.9068862061246639,0,0.517399
0.9068770848038349,0,0.624452
0.9071378289640367,0,0.937834
0.9071702423376949,0,0.551487
0.9067173821675113,0,0.785088
0.9058974564879129,0,0.850975
0.9048836007028939,0,0.692000
0.904069772620707,0,0.981944
0.9037735925688436,0,0.843871
0.9022662308121201,0,0.803689
0.900576687662106,0,0.672594
0.5918616482726075,0,0.354186
0.4238721488829097,0,0.966917
0.47923640486145463,0,0.935108
0.5145140034231078,0,0.963400
0.5517199276771189,0,0.850180
0.539655437647822,0,0.963939
0.5133315940352808,0,0.869871
0.4764261329979581,0,0.414663
0.457679087336139,0,0.910448
0.4561286649771302,0,0.435570
0.45686044473969145,0,0.579855
0.46338834857297717,0,0.979403
0.48372331722792017,0,0.847463
0.49979396256202097,1,0.996575
0.5130998181330149,0,0.933727
0.5359825444214289,0,0.852587
0.538871980540503,0,0.924067
0.5437308986108924,0,0.918601
0.543609309872388,0,0.980968
0.5463295343292253,0,0.531551
0.5488512809340733,0,0.948350
0.554481283631322,0,0.966748
0.5562210823441514,0,0.942041
0.5562168292454555,0,0.928010
0.554285717372111,0,0.905936
0.558075292826398,0,0.913897
0.5604863211051436,0,0.982360
0.5642332768478832,0,0.760157
0.5716517193359059,0,0.984781
0.5752087570757988,0,0.915946
0.5826961165895104,0,0.881295
0.5876065309394164,0,0.773481
0.5958642980406287,0,0.623544
0.5994948234496718,0,0.951160
0.6171318158814608,0,0.932243
0.6262087419443731,0,0.973626
0.627239659982967,0,0.984686
0.6372548503498511,0,0.970027
0.642949619732541,0,0.958027
0.6541127463962841,0,0.980006
0.6592116386197223,0,0.989985
0.6671456775450231,0,0.601204
0.6725215315707452,0,0.989358
0.6843500737600786,0,0.956238
0.6938607048802541,0,0.971070
0.6985025960259573,0,0.446515
0.7056930927425034,0,0.886043
0.7128484674716256,0,0.953943
0.7162035264819926,0,0.980769
0.7238259479624453,1,0.996350
0.7328850985147047,1,0.991031
0.737040896685427,1,0.996587
0.7459372028381034,1,0.990937
0.7478047928996797,1,0.999422
0.7484853902773616,1,0.986755
0.7489810676344543,0,0.542547
0.7484804303448476,0,0.979943
0.7518075102373297,0,0.984439
0.7517728702915752,0,0.626063
0.750316919148336,1,0.987552
0.7525656906154607,0,0.996261
0.75398358628334,0,0.959762
0.7537827426366972,0,0.970835
0.7541725004909176,0,0.958487
0.761254973494273,0,0.989515
0.7627204559966745,0,0.982381
0.7689126581032607,0,0.911488
0.7716239543791206,0,0.989420
0.7724579989336152,0,0.971108
0.7740415917708202,0,0.947161
0.7755820420378359,0,0.995977
0.7751769654296797,0,0.975145
0.7756515732945335,0,0.962071
0.7779079301949215,1,0.997234
0.7770526139129077,0,0.765663
0.77856788491385,0,0.908810
0.7810036529732104,1,0.996691
0.786889059912436,0,0.987314
0.7862238586175345,0,0.980847
0.7877987598698643,0,0.947153
0.7901277356767121,0,0.948571
0.7898488687413326,0,0.986122
0.792720231220887,0,0.786839
0.7934938953015409,0,0.969331
0.7960851759326225,1,0.999463
0.7962052921175509,0,0.962293
0.7969737870215853,0,0.948106
0.7974193402459776,0,0.930393
0.7976167463471538,0,0.814683
0.8008051749537922,0,0.886647
0.8064062229015521,0,0.985869
0.8078220139794818,0,0.984180
0.8105633516841546,0,0.946331
0.8096785868923153,1,0.996906
0.8082267825853473,0,0.980178
0.8087696316045548,0,0.936118
0.8083371310733902,0,0.987303
0.8131215510365156,0,0.968111
0.8140316464769473,0,0.975420
0.6040301685795598,0,0.415401
0.6394694893291732,0,0.777289
0.6718699064362837,0,0.625978
0.6247530242175803,0,0.810512
0.5976651223240759,0,0.415948
0.5998143249791362,0,0.954949
0.6200745542471541,1,0.997477
0.6311251503601324,0,0.162577
0.677291924673196,1,0.999567
0.6519468776780724,0,0.988904
0.6470881995755219,0,0.719728
0.6526069808930003,0,0.989608
0.6837106620497314,0,0.869142
0.6735247870927764,1,0.998834
0.7055015401711381,0,0.940334
0.7501580583815031,1,0.997361
0.7701054227852392,0,0.817594
0.7710252686456598,0,0.962085
0.7658898880302121,0,0.936991
0.7678245665257675,0,0.734247
0.7239093248811811,1,0.997024
0.7049722231283958,0,0.912402
0.7056620150393146,0,0.959887
0.7162419883373625,0,0.780994
0.7237840268829372,0,0.915674
0.7302263949115945,0,0.978667
0.738712467560678,1,0.999407
0.7470986893102388,0,0.909273
0.7635055034593872,0,0.956616
0.7124604975311704,1,0.993976
0.7058949047691889,1,0.984848
0.6873521949763036,1,0.998649
0.7081707651974631,0,0.979008
0.7198310442705507,0,0.943342
0.7209978029006641,0,0.952607
0.7260377782299623,0,0.978589
0.7320281489602486,0,0.757881
0.7379500467613426,0,0.533676
0.7423862697218397,0,0.979010
0.747634060913875,0,0.972737
0.7524343428656298,1,0.998804
0.7571952220215044,0,0.809718
0.7630483759806234,0,0.768994
