-0.10932134875480587,0,0.014112
0.137631120012194,0,0.057492
0.20773895909500636,1,0.999229
0.13317474018583728,0,0.968222
0.08346538784459985,0,0.977327
0.22483200716303894,0,0.962207
0.1296482696778776,1,0.998652
0.08058700887082194,1,0.999411
0.07824482726471892,0,0.839606
0.1756886371692956,0,0.824726
0.14183021702919202,0,0.989591
0.11659204276235524,0,0.979179
0.12207822444092165,0,0.956867
0.15338131464463164,0,0.414332
0.09116853578672453,0,0.989293
0.15239143041864064,0,0.802366
0.13027607590473864,0,0.933804
0.18841417823096365,0,0.978541
0.1873764348529854,0,0.917813
0.10965732319297546,0,0.914389
0.1496733072588792,0,0.949791
0.208812810296859,0,0.294911
0.17549224394177831,0,0.275735
0.09815738851643112,0,0.984445
0.24994175961339793,0,0.974435
0.22751505287795143,0,0.885014
0.26390153900600133,0,0.497175
0.1869975354530231,0,0.994420
0.09903386572383133,0,0.903496
0.2092225256737184,0,0.990103
0.1472232743028196,0,0.980883
0.07010649145088473,0,0.976177
0.07074654762873146,0,0.975434
0.09521630607825923,0,0.985269
0.09202660459880689,0,0.949388
0.08180725429227442,0,0.366918
0.10222103203241954,0,0.347805
0.06338624931350513,0,0.975000
0.12416987021754504,0,0.965626
0.10379177500523941,0,0.919933
0.2640858345943628,0,0.976008
0.08521989573436906,0,0.881184
0.07554931390449654,0,0.986924
0.05707285114988615,0,0.962702
0.2205154333072437,0,0.740955
0.1823460175393299,0,0.817766
0.10436590422712971,0,0.961286
0.44745865570083593,0,0.979335
0.5099718982628588,0,0.988081
0.06964380925990624,1,0.999383
0.07847240264298824,0,0.961818
0.5281005482284222,0,0.892857
0.5497394976059077,0,0.993435
0.33189390652127576,0,0.913069
0.08528770969231213,0,0.948457
0.10822695538867297,0,0.967409
0.3499118794077823,0,0.978050
0.05264503713685131,0,0.765122
0.2672166696322723,0,0.696681
0.5273616139112307,0,0.992643
0.16045704408594427,0,0.980411
0.08502943502055368,0,0.981940
0.09821576170455885,0,0.381127
0.048374826602648954,0,0.950050
0.11761094577239839,0,0.995552
0.5429379235419209,1,0.997543
0.10556619130789986,0,0.963918
0.2371589249847214,0,0.986340
0.4063084119542289,0,0.915749
0.18766301083623815,0,0.907354
0.12507119427146185,0,0.872462
0.016198490469221002,0,0.982898
0.019079304100139242,1,0.997805
0.06041386597285435,0,0.819331
0.04369555492175429,0,0.938483
0.041559293874443806,0,0.907285
-0.015672292703567507,0,0.659295
-0.009584088080149022,1,0.981900
0.08611386776061308,0,0.891045
0.33385417450145016,0,0.559278
0.2674601543101117,0,0.885667
0.2596833597431993,1,0.994432
0.3094787395997079,0,0.941148
0.43845736906909016,0,0.932034
0.3316149002480314,0,0.914193
0.2860696604625336,0,0.853292
0.3084252706565948,0,0.859767
0.28391308240117347,0,0.967111
0.1946533342077064,0,0.971429
0.5582937626001999,0,0.990695
0.5524969780712453,0,0.937598
0.235621708440194,0,0.893272
0.3937059162703509,0,0.875505
0.015814543792816,0,0.919653
0.06409492741244437,0,0.825220
0.08955097903220735,0,0.649744
0.32833907548872737,0,0.641394
0.6780020308784698,1,0.999401
0.4381903734844945,0,0.945491
0.505003827761032,0,0.962625
0.5556468655675402,0,0.649477
0.6652032812668145,0,0.876543
0.6381777804582717,0,0.960110
0.7082202854488221,0,0.951282
0.4717187894874422,0,0.981160
0.7400349267790003,0,0.965785
0.40815458331437704,0,0.964336
0.09332434358745798,0,0.849383
0.11832364899887837,0,0.682547
0.27995619924010656,0,0.894306
0.23198292480172156,0,0.869592
0.34285600603916305,0,0.836538
0.03979401352006382,1,0.991228
0.09274659893807671,0,0.991340
0.05171252157889573,0,0.968852
0.1673027055213578,0,0.893020
0.24902388916082593,0,0.476676
0.536753502596025,0,0.436037
0.7726808891542029,1,0.995929
0.8364222225589633,0,0.961452
0.5564339188015088,0,0.881054
0.8643043282675394,0,0.934385
0.5929041711289963,0,0.970279
0.7117648853658657,0,0.883431
0.523499855892477,0,0.950579
0.6598567844029509,0,0.835142
0.6056020215928345,0,0.980187
0.6659267257820704,0,0.873812
0.8039670223053446,0,0.866037
0.7877974259018283,0,0.781411
0.66539419455114,0,0.920753
0.7111051761262266,0,0.979522
0.604558234452942,0,0.981472
0.5384461697955437,0,0.934744
0.6698912904570633,0,0.914671
0.6352978964666206,0,0.967648
0.2793388282690272,0,0.947472
0.31655923046655127,0,0.937440
0.35051111454241185,0,0.930718
0.23874909165260988,0,0.802584
0.6124521697450213,0,0.959905
0.6493806576053663,0,0.818817
0.6494703032894446,0,0.991088
0.5628418449628355,0,0.821751
0.5042281248478089,0,0.940151
0.5917994281904498,0,0.978035
0.33285769573717905,0,0.813147
0.49911501843643746,0,0.920445
0.4289191393518684,0,0.873255
0.4704742465069701,0,0.813932
0.6526094139403714,0,0.959197
0.26179535232937784,0,0.949374
0.4625940508713545,1,0.998021
0.45922761588956884,0,0.853968
0.526656452489208,0,0.884725
0.19020658388188313,0,0.973179
0.11002626087924607,0,0.969884
0.4543322306102057,0,0.881409
0.5122169773771955,0,0.904569
0.4974930186723377,0,0.981963
0.5259380832628942,0,0.985032
0.20089080954830715,0,0.768514
0.5277416490820518,0,0.893805
0.49828562846848584,0,0.815848
0.33993253534545886,0,0.484051
0.4866000594561649,0,0.968392
0.315449398606143,0,0.434033
0.3182018219024756,0,0.890794
0.056406943127008634,0,0.979339
0.06904139567033914,0,0.819038
0.1784910653962793,0,0.453125
0.23205460750408752,0,0.887733
0.25889324331136204,1,0.999519
0.32894210702597776,0,0.772075
0.6588589817783429,0,0.978646
0.698466163737381,0,0.926848
0.29181688417446777,0,0.987184
0.3896876725645321,0,0.761925
0.6303650466976046,0,0.542941
0.6621881030998545,1,0.997871
0.3762298804929231,0,0.941995
0.5021258433742289,0,0.691358
0.49592949621130844,0,0.416714
0.0966055974458401,0,0.951427
7.344022914417895E-4,0,0.867837
0.16748034461664144,0,0.961559
0.20200558643282215,1,0.994498
0.6497358493409697,0,0.866845
0.4587214025752226,0,0.903750
0.19210569495356616,0,0.984108
0.4088511168092303,0,0.835966
0.0947805849903784,0,0.597430
0.22439673299174764,0,0.780847
0.10873435612997893,0,0.766423
0.11390612563691069,0,0.971917
0.2923510117070345,0,0.919512
0.350773229672753,1,0.997213
0.0691509914161506,0,0.935705
0.1190646034959079,0,0.803005
0.18833358014685148,0,0.783288
0.17315073476869655,0,0.872645
0.18738181281480554,0,0.502634
0.3299761602587417,0,0.983673
0.2570146282683132,0,0.975552
0.25876845492489314,1,0.988270
0.36487427559008995,0,0.307446
0.3569785863838102,0,0.795491
0.5684152609878939,1,0.998972
0.5367556019713429,1,0.992551
0.2037563932055501,0,0.780363
0.21700665670173486,0,0.939620
0.32024107768700083,0,0.958781
0.48337245006189217,0,0.894374
0.3153082492868381,0,0.849720
0.3304590296124393,0,0.984018
0.2461706995116456,0,0.898962
0.2634779794391164,0,0.789474
0.32624264959842203,0,0.904832
0.41648430303164263,0,0.925996
0.4801318576520429,0,0.852334
0.3156053475535038,0,0.695069
0.45341518972533706,0,0.883822
0.585575935351362,0,0.970772
0.5025645182006611,0,0.815974
0.42966067721338275,0,0.965278
0.8123095136332033,0,0.947273
0.43249519393141383,0,0.380804
0.8526946015633194,0,0.941234
0.3804845968755738,0,0.858125
0.5000182163986964,0,0.736809
0.4099702650323461,0,0.754568
0.42388009404431687,0,0.802875
0.38702791316625496,0,0.994655
0.5160870175684509,0,0.949784
0.23609757260575517,0,0.876735
0.5028856064862257,1,0.999449
0.47603774761788425,0,0.822840
0.3724622866007548,0,0.814961
0.6072464404029356,0,0.983434
0.3199424475897747,0,0.950168
0.3801385343069926,0,0.790850
0.3379414706779633,0,0.970799
0.37142789717917696,0,0.988565
0.48809622868149266,0,0.763274
0.5929073334636518,0,0.989035
0.4758624591445342,0,0.955644
0.6582304143430153,0,0.976244
0.6296595777737731,0,0.708810
0.6702196080007675,1,0.995833
0.6336754386619338,0,0.688048
0.6766481484728425,0,0.732801
0.6412670609205837,0,0.982642
0.6050587783717788,0,0.676896
0.6390135824694083,0,0.959008
0.6058944256392266,1,0.996405
0.35344473080089855,0,0.720413
0.5347831162111271,0,0.879291
0.4441564017496112,0,0.985123
0.23962276084766898,0,0.893325
0.46018282931619553,0,0.903242
0.5018332209386311,0,0.709126
0.6099114061080388,1,0.995652
0.63557713819685,0,0.722303
0.4294373057752375,0,0.673586
0.6057350207485918,1,0.997311
0.6842096856029836,0,0.995981
0.6874162659569761,0,0.927454
0.3773762464215151,0,0.983468
0.6140247131155454,0,0.923549
0.6447705736783137,1,0.997983
0.7011481070301058,0,0.936383
0.6412966532058391,0,0.728918
0.4238535185028852,0,0.816885
0.6517352156970491,1,0.994860
0.7073877449326758,0,0.582306
0.5560082646255903,0,0.936920
0.5173226577146983,0,0.608408
0.5650423368531161,0,0.985911
0.5234969505035099,0,0.881288
0.5440136287571584,0,0.894140
0.578033412626061,0,0.972049
0.6022294643145465,0,0.862730
0.5442047118935617,0,0.978543
0.5550249983384551,0,0.976437
0.39903834235683666,0,0.983246
0.4166370923181597,0,0.837517
0.45185663419739813,0,0.810360
0.45686444383786223,0,0.988780
0.5240500613799258,0,0.767920
0.3990985794457441,0,0.565856
0.5333572481238962,0,0.768535
0.5717721410735082,0,0.936551
0.48741056550386436,0,0.859413
0.40394744404896665,0,0.849010
0.31130047495131113,0,0.901660
0.31637023916193074,0,0.305541
0.3384801165679086,0,0.899593
0.33933052838439975,0,0.947282
0.4248242834010071,0,0.905831
0.38716315622445246,0,0.776690
0.1085725060828318,0,0.916833
0.10715420339090921,0,0.596349
0.17030924499298478,0,0.930601
0.06102625246422666,0,0.519417
0.17458792242468707,0,0.724638
0.20926178115093408,0,0.694096
0.5166545838517975,0,0.952642
0.19396722992216273,0,0.588716
0.4319636521732268,0,0.962612
0.26875360475531396,0,0.875474
0.1731655939120608,0,0.808337
0.1899736478635255,0,0.948573
0.28436846758582474,0,0.947847
0.2748839016177645,0,0.987304
0.14313266596939794,1,0.997317
0.3846696388356853,0,0.850677
0.39155642051685935,0,0.506724
0.41175087010161415,0,0.908745
0.4256377407976225,0,0.745841
0.26665802426156326,0,0.973572
0.21903848790353408,0,0.887245
0.2295592979124336,0,0.918999
0.18369837940538972,0,0.914966
0.042172876950009874,0,0.919273
0.22713385481742962,0,0.804778
0.44768654203634434,0,0.894173
0.18393027750351845,0,0.975674
0.2559155061495083,0,0.945333
0.38328388173894695,0,0.961983
0.3509578027386115,1,0.991837
0.25208071844044794,0,0.954244
0.19993773496087272,0,0.783620
0.3189632838851728,1,0.983696
0.5845975084943353,1,0.996945
0.3647920952095929,0,0.886863
0.3001942573688635,1,0.996945
0.34397860176268474,0,0.885863
0.36853756280278005,0,0.990871
0.6154551565638708,0,0.971225
0.6163828603604193,0,0.914599
0.6827241529609812,0,0.984340
0.7617383259197414,0,0.944993
0.2826369128744609,0,0.919319
0.6695343961550574,0,0.989278
0.4963320948943026,0,0.763875
0.6221800916778337,0,0.948072
0.45061913545022864,0,0.687973
0.6105087487279179,0,0.982346
0.6635348329490692,0,0.686489
0.2974821188414905,0,0.914397
0.7027766136798127,0,0.825722
0.6670298340604949,0,0.930136
0.5165944827156341,0,0.957550
0.5870435061704278,0,0.978029
0.6658220346793914,0,0.981645
0.8279320431734181,1,0.999512
0.7418802049029841,0,0.596723
0.637457474374746,0,0.642021
0.7980367256718031,0,0.978174
0.8510385330045666,0,0.993806
0.6993433333879837,0,0.753582
0.5546762789557977,0,0.971450
0.29065725728152403,1,0.990142
0.5204647878216402,0,0.891473
0.49551376193218083,0,0.916056
0.4738131016977683,0,0.890824
0.37070161545274793,0,0.864897
0.5211514866704858,1,0.997604
0.3527560640907428,0,0.820748
0.4913724055950673,0,0.786528
0.4413676854637485,0,0.804644
0.5837299025006829,0,0.988002
0.6319254050567057,1,0.998973
0.6549571334934239,0,0.952060
0.8086739303068791,1,0.997002
0.5967679390832388,0,0.986369
0.8203496910605736,0,0.955615
0.48677320698810406,0,0.981906
0.31536024554727976,1,0.991463
0.4699872996542725,0,0.890169
0.505415955003602,0,0.833108
0.26914561655145036,0,0.972112
0.6155356649832093,0,0.970663
0.28560846460381933,0,0.887263
0.5305103642550932,0,0.946686
0.30266246929747775,0,0.965289
0.2811345867702028,0,0.808437
0.3567677664621581,0,0.728451
0.3393687412689482,0,0.702331
0.6378607281784056,0,0.789660
0.5648390727864525,0,0.965006
0.7738763260871061,0,0.647258
0.7984442338543929,1,0.999110
0.6132479339776981,1,0.998931
0.49111150522801356,0,0.761154
0.3433178958830105,0,0.933654
0.3889443908462396,0,0.456832
0.44121093792184557,0,0.937975
0.4188750483538973,0,0.986290
0.5115812844535808,0,0.915560
0.361937182620135,0,0.936147
0.5534965162608138,0,0.974868
0.3678799003369034,0,0.918253
0.33597325691190116,0,0.730277
0.4988389023538403,0,0.971122
0.4467230318419295,0,0.990731
0.6277599676720876,1,0.999056
0.4151383349342433,0,0.987055
0.27481892355493615,0,0.905983
0.7223272356849786,0,0.815135
0.5453149265269647,0,0.779437
0.5281373263153567,0,0.964838
0.6409782276341478,0,0.955592
0.5993476630646115,0,0.961453
0.7104165883173665,0,0.880705
0.7225052771485526,0,0.991809
0.521648922722077,0,0.918480
0.4878856202186496,0,0.669448
0.4261927524850104,0,0.873701
0.6683276151299984,0,0.883548
0.8473059990944379,1,0.997330
0.849687735910627,1,0.999007
0.7637602046089892,1,0.998607
0.6585897209631512,0,0.991821
0.48289049300395276,0,0.837297
0.37868210861101,0,0.880573
0.5373100030292735,1,0.996755
0.5795343773406754,0,0.984353
0.5012722240726133,0,0.963805
0.7034977843862651,0,0.942875
0.7209327478023664,0,0.917949
0.5898010247583172,0,0.948048
0.6587555053219133,0,0.990370
0.2617339894833653,0,0.709891
0.6604804440500571,0,0.965655
0.6209008639446926,0,0.988760
0.6477018920272498,0,0.919783
0.580494196177495,0,0.656408
0.35413631284395314,0,0.989850
0.5129998050602791,0,0.933705
0.7184066543556289,0,0.948498
0.6298965910066864,1,0.999540
0.6409717052380037,0,0.903760
0.47163983321467784,0,0.935913
0.4122043233669086,0,0.874499
0.44881678489118465,0,0.657419
0.4149063622838311,0,0.966225
0.4827393000381987,0,0.973127
0.3325779046680061,0,0.942469
0.42960928768746626,0,0.977551
0.6321393455299287,1,0.998381
0.4212930305372615,0,0.983529
0.36412782032436186,0,0.897137
0.43134768860034756,1,0.998852
0.3973889292571586,0,0.931792
0.3090660423203363,0,0.927497
0.4417780038159041,0,0.970899
0.4378457656123968,1,0.998882
0.39705029166901296,0,0.745833
0.41456517393308406,0,0.799940
0.5549034149453056,1,0.999037
0.5129797601002585,0,0.572332
0.43688620206224577,0,0.542165
0.5830907884111771,0,0.996060
0.5942389000514576,0,0.885015
0.49541759075602526,0,0.811283
0.4958133142439665,0,0.564083
0.6187472377220395,0,0.957177
0.5733078187141476,0,0.794913
0.6194433270240159,0,0.540073
0.5588497612393466,0,0.865350
0.6567945651695298,0,0.967626
0.6298745797413926,0,0.830566
0.6582221295541338,0,0.803284
0.7807157325329037,0,0.970949
0.3145786251077165,0,0.947401
0.6780261584158666,0,0.935594
0.6229433185390248,0,0.913804
0.8152952443796986,0,0.911969
0.3521336836200695,0,0.954952
0.38458424710576106,0,0.779097
0.40902971776587915,0,0.943020
0.5749051132436032,0,0.740300
0.29761982833411454,0,0.940166
0.5740085159161146,0,0.932414
0.6272960590442943,0,0.916281
0.38596953654834054,0,0.925046
0.42372485731801873,0,0.768524
0.5376116480198389,0,0.944293
0.5823739769281633,0,0.755637
0.46043831762407633,0,0.508824
0.3666859478661142,0,0.806496
0.4690608271440314,0,0.561677
0.3090060300420174,0,0.885079
0.5373419901624387,0,0.906962
0.4239390366315741,0,0.921844
0.33787736919547595,0,0.931294
0.4628333871713636,0,0.633235
0.4840369508574299,0,0.873802
0.3999022925310373,0,0.585098
0.4553413552018412,1,0.998179
0.42092555286871175,0,0.986255
0.5182603312780452,0,0.960581
0.5143517694188305,0,0.800725
0.6775362440378218,0,0.990814
0.7119557859664803,0,0.807143
0.4335260845524208,0,0.832700
0.6024282508751678,0,0.983205
0.5226674492745106,0,0.581628
0.6054679567945083,0,0.849642
0.46798961908665687,0,0.951763
0.508476976862436,0,0.927377
0.5578355234293657,1,0.998294
0.4466294572153453,0,0.984297
0.5496761138038783,0,0.995175
0.6888623997689771,0,0.793986
0.6459382009758982,0,0.847634
0.615119994814283,0,0.845210
0.6581480875244489,0,0.626246
0.6876146780883629,0,0.976190
0.6694571853922306,0,0.761006
0.7062353507479765,0,0.984509
0.6448797451052066,0,0.792138
0.6544391241850265,0,0.717213
0.4886337264152203,0,0.973708
0.6681718557454659,0,0.986788
0.43657080128049774,0,0.876379
0.6485258650830762,1,0.998477
0.7011296411506295,0,0.833333
0.759831853628097,0,0.993646
0.7055657685185003,0,0.970828
0.4460312640081025,1,0.990022
0.7065994240381592,0,0.839100
0.7257161059764697,0,0.982164
0.7161348262002378,0,0.986088
0.6798225755377223,0,0.929548
0.3791765775064354,0,0.829329
0.6315951806942294,0,0.806057
0.32545066790962146,1,0.996143
0.139577327843136,0,0.943992
0.4125282836353774,0,0.734838
0.4907528584128894,0,0.977491
0.5522284333882223,0,0.881088
0.5598043740870644,0,0.990084
0.438715215174906,0,0.972458
0.5392021996226835,0,0.931388
0.5651443310370625,0,0.910299
0.5795484607763821,0,0.939726
0.5921244363805497,0,0.980269
0.5838635716202003,0,0.887281
0.5194721146133918,1,0.998983
0.5842426305557626,0,0.499525
0.7036909462234006,0,0.731025
0.5347759485166466,0,0.884776
0.5409591156242147,0,0.976450
0.6591188892707027,0,0.921384
0.4178276217032635,0,0.968059
0.4390682852295982,0,0.719420
0.41118296153248535,1,0.996163
0.5226124001131723,0,0.960841
0.5827302818553944,0,0.633991
0.5701508806827016,1,0.993498
0.5616210593985317,0,0.569450
0.5691913087794889,0,0.582055
0.27464638933017055,0,0.927384
0.544678374972828,0,0.940731
0.554704558094295,0,0.684116
0.5784637725255655,0,0.972158
0.5835074285978284,0,0.935085
0.5023214666436441,0,0.884128
0.420245694779289,0,0.944719
0.4865190312961901,0,0.864266
0.5836424577742167,0,0.754286
0.6182948965823065,0,0.979354
0.6543863906839458,0,0.867139
0.7499938499318963,0,0.960577
0.4550402093876002,0,0.829056
0.5933507116988627,0,0.832356
0.5654732473109485,0,0.900860
0.5726356028401707,0,0.885916
0.5635144428090992,0,0.849448
0.38358826170316207,0,0.889914
0.7406292044583463,0,0.863764
0.468834807413058,0,0.949959
0.3980111672811208,1,0.999225
0.43844619293882403,0,0.784091
0.5940026807656245,0,0.589286
0.596981159639496,0,0.938590
0.6003672833906385,0,0.968834
0.5280959114770364,1,0.999013
0.6194999839245363,0,0.712350
0.5837015188174843,0,0.971316
0.7123624109995255,0,0.945707
0.6956912139363706,0,0.907628
0.4282993855499323,0,0.972644
0.4102711000302642,0,0.843505
0.6927458042438833,0,0.943590
0.4586934683281477,0,0.957022
0.505887814179808,0,0.854167
0.7531088438363533,0,0.898396
0.4335304954301786,0,0.964286
0.5554727687417761,0,0.886695
0.4239629304950499,0,0.908757
0.3984030001847787,0,0.781169
0.5429213959823457,0,0.928521
0.544113616094347,0,0.990043
0.6094974602108852,0,0.620387
0.6701410402679512,0,0.926058
0.6156891455884281,0,0.438108
0.5899830465485988,0,0.992647
0.5526621096084265,0,0.842491
0.580894770910641,0,0.892521
0.5904454089703253,0,0.607483
0.6399056254174929,0,0.646229
0.5439960238835982,0,0.985344
0.5518443737396519,0,0.949972
0.7152509853499767,1,0.997984
0.6670577373932964,0,0.973552
0.6129874152137407,1,0.999511
0.6896445901881841,0,0.944196
0.3631991090866615,0,0.875625
0.5382441788763965,0,0.907066
0.6150541971112377,0,0.746436
0.6437822225129562,0,0.919576
0.6801988549562802,0,0.983081
0.6240355904241396,0,0.917753
0.5640111784548686,0,0.893449
0.707952173616943,0,0.970334
0.7314597403713724,0,0.930305
0.7411290348763765,0,0.831692
0.7228804171412964,0,0.951761
0.6691135493425581,0,0.963200
0.7101229124980332,0,0.894227
0.711739909708085,0,0.922686
0.6657277272576941,0,0.932658
0.7460508420117559,0,0.676981
0.6963544794504085,0,0.991460
0.5871544808866924,0,0.897132
0.5161645555329393,0,0.798446
0.7095113191389261,0,0.981935
0.7093894756728252,0,0.984518
0.731088035283275,0,0.985811
0.7013357217477021,0,0.995453
0.6771886273510966,0,0.933448
0.6493477111992176,0,0.922863
0.655451413209099,0,0.928841
0.6602484316175763,0,0.883989
0.5928800009629656,0,0.897422
0.2991401627913555,0,0.943182
0.4434007455466786,0,0.944606
0.5645470912179954,0,0.597222
0.6798947804359311,1,0.997217
0.3479370942617375,0,0.981976
0.4366561399420132,0,0.950108
0.356481587485318,0,0.889811
0.4012715208987671,0,0.761232
0.620372708697127,0,0.988175
0.5490176803372443,0,0.729511
0.5076374196887494,0,0.972807
0.6457200227998524,0,0.812042
0.6883863337131654,0,0.820410
0.6406113860029833,0,0.823392
0.6221816306595576,0,0.979315
0.6688024251909481,0,0.832627
0.5545383102005271,0,0.910463
0.6352176376773948,0,0.851077
0.4063426878499167,0,0.890184
0.6539559839523513,0,0.776156
0.385709745122914,0,0.932653
0.4131702301413297,0,0.978375
0.4100090823836395,0,0.969042
0.34939079625739783,0,0.952044
0.6861678811329132,1,0.999540
0.6526891382143769,0,0.981795
0.6715810210764388,0,0.939689
0.42816598023815733,0,0.915864
0.4184751469997718,0,0.884444
0.7554773892030775,0,0.811759
0.2636623655861479,0,0.949967
0.6608688129686258,0,0.818718
0.6906180487828536,0,0.778135
0.43050839879932923,0,0.914087
0.4484031138627439,0,0.844313
0.6435134176015628,0,0.975632
0.7076171358504552,0,0.935685
0.6626449651027073,0,0.903385
0.672005058004305,0,0.877093
0.6900754201423884,0,0.984600
0.7200649919648601,1,0.999361
0.5511385675764126,0,0.968915
0.3110317869299271,0,0.754386
0.5123371100137807,0,0.831741
0.3860771726515722,1,0.998721
0.44143313093134195,0,0.845935
0.4419946499594915,1,0.998534
0.7018483726306645,0,0.951356
0.7318977870286972,1,0.999554
0.776088430080994,1,0.997165
0.7774253167914297,0,0.993187
0.7554320816066801,0,0.993717
0.7446328935655981,0,0.990901
0.5574229534869813,0,0.924395
0.391176800156188,0,0.849110
0.45260044370915814,1,0.995816
0.43076282227263946,0,0.955370
0.47470537277548397,0,0.739432
0.5061492116978713,0,0.842231
0.4791730732838089,0,0.971514
0.5169126672706524,1,0.995953
0.5317185355603407,0,0.685816
0.5092783261720814,0,0.939060
0.37924173042172443,0,0.951270
0.5300350551150617,0,0.775197
0.5554055741614583,0,0.702810
0.5595098829860976,0,0.995782
0.3238314236263329,0,0.905085
0.5834711806725681,0,0.968525
0.5792221915976136,0,0.995980
0.510846021053313,0,0.970522
0.48804685891360333,0,0.952443
0.5728118900555773,0,0.915729
0.5090735356442814,0,0.540705
0.5442237638076128,1,0.996000
0.5829576485465481,0,0.551853
0.44542053325864933,1,0.990272
0.571827249530323,0,0.534332
0.30282818844725823,0,0.985714
0.4726902385435616,0,0.910755
0.41975185280443533,0,0.889091
0.5507212374826915,0,0.850610
0.4924205491757596,0,0.892119
0.402991890339743,0,0.896636
0.6109983026484215,0,0.902744
0.5346666538810162,0,0.821088
0.6087814341720997,0,0.865495
0.4785241558835282,1,0.998428
0.651980265481819,1,0.994784
0.6852144819065605,1,0.999492
0.21982276686188676,0,0.905467
0.5934544567683672,0,0.938508
0.24137639354820237,0,0.907927
0.7053597437489433,0,0.942976
0.5896689919872077,0,0.955031
0.6286036071242479,1,0.999516
0.646447969320244,0,0.985567
0.5928711198146545,0,0.969161
0.6625111710110574,0,0.893156
0.6297970593647113,0,0.890821
0.5432860543453598,0,0.872068
0.6860769827022598,0,0.568819
0.549059784387694,0,0.817450
0.6512456811298687,0,0.905827
0.17613813320825542,0,0.974066
0.676988869652616,1,0.999423
0.7410848932421391,1,0.997008
0.7400076109006086,0,0.697924
0.6989808151419273,1,0.997139
0.6333192831392905,0,0.945493
0.6444424602142537,0,0.921434
0.5948586351133454,0,0.940136
0.7023570973233918,0,0.986477
0.5288848049684479,0,0.852830
0.38489003330011756,0,0.750818
0.4868521437016647,1,0.998158
0.7118219976836765,0,0.957187
0.3051096634158725,1,0.998195
0.7057361206779413,0,0.768765
0.3190133152929459,1,0.990937
0.6700504075507787,0,0.952395
0.6507678218018695,0,0.791200
0.3604264401690926,1,0.994212
0.7529439426960746,0,0.644271
0.6808727142407199,0,0.967307
0.6617928133798,0,0.894436
0.7057391122450393,0,0.991189
0.40196520775140854,0,0.841282
0.4267218870478171,0,0.879687
0.466601474171191,0,0.813731
0.7297973295611457,1,0.999386
0.677646410755308,0,0.958971
0.7322629647986897,0,0.981481
0.6702037468931604,0,0.828612
0.560547236427185,0,0.957904
0.4915292464782162,0,0.959227
0.4876812601485828,0,0.989297
0.45659830074887775,0,0.932176
0.7414825403874153,0,0.970370
0.6261253689505641,0,0.919506
0.6688707632483722,1,0.997571
0.4916885722326628,1,0.996926
0.4086333663736068,0,0.798238
0.4525775574424828,0,0.984187
0.5293653151076091,0,0.964059
0.518633331830252,0,0.979495
0.4868807866339035,0,0.961387
0.7975448056862134,0,0.878958
0.21317743777439113,0,0.923853
0.5343228776702115,0,0.894015
0.5430295212380175,0,0.989950
0.5609290257165419,0,0.716405
0.5384012153666067,0,0.971496
0.4805413459262595,0,0.943759
0.5430920876447273,1,0.997468
0.5770599395427305,0,0.968316
0.5745649411793501,1,0.998937
0.5605473970533585,0,0.859413
0.4105591166157128,0,0.944503
0.593321710025296,0,0.981902
0.565686878657711,0,0.942457
0.7251214265401407,0,0.871008
0.56693752602911,0,0.975683
0.5873328390041774,0,0.686893
0.5736255264072398,0,0.655642
0.5734095366602919,0,0.843887
0.6865847657742917,1,0.994429
0.44500050077699144,1,0.991462
0.5402758037623363,0,0.905947
0.5095107358030001,0,0.916770
0.302534106887158,0,0.920225
