0.47035594495662303,0,0.971786
0.7075574904276323,0,0.859615
0.7028092366591372,0,0.412133
0.6246070572002237,0,0.181442
0.5627683108905344,0,0.703297
0.7168244931154094,0,0.964856
0.5781735485040368,0,0.356614
0.6608008266598449,0,0.188256
0.8478649265014606,0,0.963741
0.717489854008142,0,0.520921
0.5899957689091283,0,0.951884
0.7373661319356166,0,0.062996
0.7479275295024846,1,0.998701
0.928966641386085,0,0.341124
0.7840003715929048,0,0.877457
0.6546313138198221,0,0.203822
0.8382768930452376,1,0.999707
0.8104703875300072,0,0.602989
0.3394605264397556,0,0.984807
0.8980057414603999,0,0.907827
0.5951852347047871,0,0.949802
0.8758621307539008,0,0.987906
0.7617814032558898,0,0.927037
0.6452033400867483,0,0.413699
0.8518850084044676,0,0.921569
0.7175270810583392,0,0.820794
0.5676097312855438,0,0.981388
0.5539783926748045,0,0.946647
0.4881615229079412,0,0.796011
0.8506270373660533,0,0.867852
0.7023435580464273,0,0.658198
0.5891682213006574,0,0.962963
0.813916809442551,0,0.820475
0.7140999044913237,1,0.999665
0.6814539595474267,0,0.989328
0.8837086741067786,0,0.889106
0.5839157203581027,0,0.978383
0.603748757450445,0,0.480583
0.6005032890399894,1,0.997755
0.48946331156105527,0,0.975035
0.49368095614528756,0,0.984134
0.40807399352254003,1,0.997418
0.4195790986026222,1,0.996298
0.9217755765197243,1,0.999625
0.5556995631876698,0,0.587145
0.6342356841718457,0,0.876454
0.9576752357880078,0,0.941946
0.5510862936482375,0,0.992710
0.7554348383657064,0,0.993642
0.7839972128907046,0,0.920583
0.5900238129893474,0,0.961034
0.6974925991641981,0,0.930432
0.7099521912811922,0,0.948571
0.7031898014505414,0,0.807937
0.7473675253116643,0,0.898994
0.5167455451335169,0,0.962077
0.5274890110486151,0,0.956594
0.6199412437353506,0,0.945239
0.7288871533775194,1,0.998331
0.7902663533070589,0,0.608696
0.7824017243288265,0,0.929088
0.6087391183821126,1,0.997838
0.6642888077533246,0,0.884376
0.7869836098256824,1,0.997519
0.5888262145794821,0,0.941200
0.9022198759050681,0,0.941132
0.6778292638525899,0,0.959216
0.6891016646115358,1,0.999623
0.43956409626318727,1,0.999552
0.5329332659002491,0,0.916337
0.40664149856337234,1,0.998851
0.774281398409168,1,0.998851
0.7563337057552441,0,0.712289
0.7029087917717701,0,0.608952
0.8062834854820219,0,0.983770
0.7010760335814014,1,0.999212
0.5549291594536101,0,0.928643
0.9150309896716124,1,0.999402
0.5872827793059129,0,0.825656
0.579672790171105,0,0.795034
0.7197879219932951,0,0.971963
0.7577686746336261,0,0.979378
0.29059390665810914,0,0.685101
0.3323522085726884,1,0.999686
0.5087563543946968,0,0.972295
0.7102052368557246,0,0.984726
0.41085147655620596,0,0.993426
0.4606896516274897,0,0.752305
0.4443981807428919,1,0.999642
0.9107427904153568,0,0.975148
0.6343814604489539,0,0.982949
0.34754022521691363,0,0.963785
0.606026532312599,0,0.981637
0.6315381051749989,1,0.996726
0.6379417067361515,0,0.950942
0.5023776256847118,0,0.991449
0.5041359018832384,1,0.999633
0.5132477774260903,0,0.848837
0.5926692548105283,1,0.996124
0.39678982298313026,0,0.951772
0.8172167502046295,0,0.766929
0.7981717097847483,0,0.869779
0.5117939089824248,0,0.746400
0.6141749639231893,0,0.962948
0.6136708503497406,0,0.619292
0.6065079323655705,1,0.999667
0.698439766804328,1,0.997129
0.6417820725805539,1,0.999604
0.32532965408040593,0,0.960549
0.5896732206161784,0,0.936322
0.9112609316218636,1,0.999701
0.3654272795959349,1,0.998753
0.7836272257919619,0,0.972232
0.7948137484532741,0,0.968616
0.7586395099431973,0,0.951508
0.6781676830734058,0,0.926686
0.783813538779588,0,0.775665
0.8926128032442571,0,0.820816
0.5975122616033066,0,0.951722
0.8661160497568742,1,0.999691
0.7889097041767351,0,0.940900
0.7090968745185217,0,0.967780
0.6428256929386463,0,0.846754
0.809543006744085,1,0.999669
0.6772834005886516,0,0.995499
0.5388644185436215,0,0.993857
0.4138719367425358,0,0.578431
0.7478882129247636,0,0.949082
0.5300205729040186,0,0.940598
0.4843994692020036,0,0.978486
0.42085085531444516,0,0.788462
0.5474976069534708,0,0.803613
0.5417041175838417,0,0.993981
0.8841751012959695,0,0.987682
0.7493903801745204,0,0.996088
0.39820383629860784,0,0.969832
0.4300406558773144,0,0.662137
0.7098746986495572,0,0.820608
0.702419911836915,0,0.876226
0.6629286095779987,0,0.860297
0.6666370506104694,0,0.992492
0.6030966549974556,0,0.986795
0.42145370131099996,1,0.998295
0.6410064752330372,0,0.979285
0.7828155914336317,1,0.999673
0.4568645917745963,0,0.831382
0.5345721406437035,0,0.961538
0.6326789037431851,0,0.901745
0.7846092260147729,1,0.997854
0.5829155232778676,0,0.976394
0.5957380205951663,0,0.965070
0.44150380416486845,1,0.998822
0.9116290391166559,1,0.999692
0.3275344402771208,1,0.998241
0.5107544783420928,0,0.992271
0.7326826788915112,0,0.937084
0.7121498953739679,1,0.998650
0.3427736955035313,0,0.894800
0.6663003063690985,0,0.985281
0.45142623616886657,1,0.999641
0.5260446472256722,0,0.970933
0.8576871975218326,0,0.897436
0.6455140354261224,0,0.986906
0.4934731376257373,0,0.990320
0.4447641235388121,1,0.999262
0.324760356715431,0,0.964312
0.5581816275170776,0,0.966449
0.6782175402270487,1,0.996925
0.7326674828749389,0,0.801154
0.8961010527611099,0,0.697130
0.7659672547375656,0,0.956539
0.40860598293219985,0,0.990225
0.8986995809226483,1,0.999139
0.36065435065134116,0,0.788861
0.7821801402295818,1,0.997815
0.5048315466440019,0,0.914445
0.4534680162732447,0,0.990566
0.33469140773558437,1,0.999396
0.41440226520525597,0,0.992441
0.7565037353226415,1,0.998079
0.6686109567940339,1,0.998559
0.9155864430481426,1,0.997307
0.4356976062472158,1,0.998800
0.7144146827145981,0,0.980156
0.5782306771607497,0,0.747392
0.5542041054591457,0,0.994614
0.37924481409999516,1,0.999682
0.8030270044046807,0,0.987528
0.5331863548720435,1,0.998051
0.84950031374448,0,0.976892
0.6782190492154965,0,0.987639
0.5247466760825095,1,0.998705
0.5285512301235687,0,0.975810
0.6870045059835668,0,0.970693
0.6596910413941418,0,0.921885
0.40975269438745743,1,0.999478
0.31407441645272094,0,0.906480
0.4780530825193434,1,0.997797
0.41013749875185207,1,0.998313
0.44942106871254217,0,0.984456
0.6350524817986898,0,0.932046
0.939326351393483,0,0.814467
0.536464969258803,0,0.965042
0.5300784812095586,0,0.941774
0.5546875796779869,1,0.996522
0.49796779628501825,0,0.957674
0.7608332729120046,1,0.999466
0.5165773679256155,0,0.326203
0.34148842048654,0,0.909644
0.41416319101447385,0,0.950963
0.8335972335932548,0,0.295175
0.6618315402704107,0,0.959176
0.5688017869938816,1,0.998285
0.9216953959515161,0,0.934655
0.47935483299720927,1,0.996660
0.6004736621377266,0,0.901609
0.6723999582267656,0,0.987615
0.9273896758388251,1,0.995826
0.690052339649955,0,0.969291
0.7140058986809567,0,0.983214
0.9034724764491229,0,0.975253
0.5209460353260958,1,0.998021
0.8874654704849431,0,0.932584
0.49150774498091093,0,0.848868
0.8299911140386987,0,0.942760
0.9217895260844129,1,0.999617
0.5770281940392333,1,0.999277
0.527923796521886,0,0.875358
0.860917271334919,0,0.335004
0.6302791277921862,1,0.996243
0.4151997059327899,0,0.979452
0.6827526926982799,0,0.989760
0.7721722603823852,0,0.967797
0.8402490446631182,0,0.974856
0.45106405166520136,0,0.973520
0.8147930881706776,1,0.998815
0.5858594269963342,1,0.997393
0.6135580224932797,0,0.962532
0.6672157087571605,0,0.513702
0.5219737825516187,1,0.999575
0.7736240191606344,0,0.952297
0.7995082219798353,1,0.999696
0.1511035626008474,0,0.950806
0.5630175828437822,0,0.279393
0.728628154872839,1,0.999652
0.6294244524739162,1,0.999643
0.7675033754518128,1,0.998514
0.8703082083600118,1,0.999695
0.6615609685737159,0,0.593403
0.6694230244127558,0,0.973179
0.5268762141631583,1,0.998682
0.7830966933512614,0,0.994619
0.32433792467611205,0,0.973504
0.8886547657887057,0,0.958243
0.5393011568883795,0,0.963474
0.6479765667810673,0,0.947103
0.6344848170883522,0,0.298462
0.6697645048243275,1,0.998905
0.5424494798816417,0,0.974614
0.7501746523158872,0,0.991003
0.7695351359521856,0,0.992729
0.938006710118395,0,0.913255
0.3162494344372895,1,0.999676
0.49476980521985414,0,0.968156
0.5014935285504534,0,0.995936
0.5783901326711408,1,0.999609
0.6110538101099755,0,0.987996
0.6444281029560797,0,0.967951
0.2945037114768029,0,0.992979
0.7823609580635502,0,0.400633
0.4949491878363301,0,0.288026
0.5856914478696849,0,0.990135
0.6670115001474991,0,0.990885
0.5854318849472628,0,0.828131
0.5929374790908768,0,0.943997
0.6526908522509107,0,0.988857
0.8838173098847523,1,0.997391
0.47055654586891205,0,0.860713
0.8210518384596698,0,0.994612
0.6593064876399083,0,0.984159
0.7124370356550557,0,0.937086
0.74422325597543,1,0.996590
0.7121895857297166,1,0.996482
0.6706018086834163,0,0.955863
0.457453054047644,1,0.996115
0.5051254479777697,0,0.995336
0.7547593588247202,1,0.995959
0.9778485186626097,0,0.993246
0.5703517377432511,0,0.610092
0.7479881865606719,0,0.988274
0.8433088101258648,0,0.979909
0.9198254885634238,1,0.999704
0.6481112754090875,0,0.963952
0.6516897079483895,0,0.902345
0.52056677068168,1,0.999597
0.541692767770559,0,0.970618
0.7744119800394227,0,0.964698
0.7041360759902389,0,0.969098
0.6867188132564255,0,0.946572
0.8220611189161101,0,0.992786
0.36842654761780114,1,0.999446
0.9562188341853461,1,0.999389
0.8055142951455572,0,0.797140
0.5247135031001005,1,0.995825
0.6284208434979794,0,0.951269
0.7108882824162843,0,0.991585
0.877189829266017,1,0.996815
0.748635916692574,0,0.974032
0.734788756548728,0,0.958521
0.6143527314644185,0,0.980492
0.736971413213391,1,0.997636
0.36600649720625567,0,0.957874
0.6798130204047271,0,0.936695
0.6617877936300233,0,0.911995
0.609996458843933,0,0.937778
0.711317091505824,0,0.983193
0.910883725943139,0,0.815043
0.8785711288402798,0,0.994803
0.8967892544092309,0,0.988442
0.4702153593996233,0,0.988125
0.4837041903633697,1,0.998054
0.3933779511304272,0,0.990879
0.7709515732707654,0,0.978378
0.36996991998231227,1,0.998093
0.34407336514190656,0,0.991415
0.8981280592725348,0,0.983719
0.933759978081406,1,0.999206
0.5669043815420001,0,0.895223
0.6887422393220485,0,0.993909
0.4959139462041364,0,0.953488
0.42440208607919094,0,0.607172
0.8773841040020206,1,0.999632
0.8644003048773303,1,0.999536
0.8562586880642682,1,0.999109
0.7794203096400736,0,0.994541
0.8634245669419902,0,0.869891
0.34030705870140776,0,0.976063
0.5350922071780033,0,0.957759
0.45780540723055146,1,0.999469
0.4281629506543859,0,0.951821
0.5406918612347978,1,0.999642
0.623622277540497,0,0.995299
0.7377183707957548,0,0.837561
0.9172209530702046,1,0.998666
0.9276775167707605,1,0.999705
0.3872843828396603,1,0.996727
0.9072878628528008,1,0.999208
0.5489400797548982,1,0.999618
0.6918170357825113,0,0.868027
0.7000867530493662,0,0.968124
0.8140221556884163,1,0.996009
0.37818791097813004,1,0.996958
0.8491367928904425,0,0.853317
0.6607337428860682,1,0.999142
0.3864942027114232,0,0.989745
0.641336653595578,1,0.999531
0.7802347440874291,0,0.956485
0.43158692975292395,1,0.999518
0.746929579104762,0,0.781250
0.5670969920126033,0,0.890439
0.7596696717571813,0,0.961700
0.404138065322313,0,0.952015
0.6919807035610958,1,0.998750
0.525735156810311,0,0.982699
0.5991681550081156,0,0.994371
0.8989763545940391,1,0.999161
0.5776787758221857,0,0.979038
0.7274272877658271,1,0.997168
0.5713964773687149,0,0.650124
0.44374231946207776,0,0.956343
0.3764394537947842,1,0.995729
0.7817563471398532,0,0.843941
0.47315249167937606,0,0.995236
0.8218761312269063,0,0.937578
0.37228735529056267,1,0.995215
0.9536958887717603,0,0.972250
0.5048948067824587,0,0.983667
0.64801042996677,0,0.976048
0.4508118186316801,0,0.985085
0.41531221608747404,0,0.980375
0.7521969299630389,1,0.986517
0.682218299770394,1,0.995870
0.3159821614818719,0,0.455409
0.4441561390757381,0,0.328424
0.5195765180276277,0,0.624561
0.49095483270730544,0,0.468992
0.4071951980493573,0,0.315866
0.5560935873350303,0,0.988009
0.8527291160437603,0,0.993696
0.677398277247213,0,0.985857
0.6338597570082368,0,0.323618
0.8180010136304369,0,0.365819
0.5400697921640456,0,0.990984
0.574713485308502,0,0.543467
0.9038719096196102,1,0.999367
0.856391987464323,0,0.995877
0.40925786787077406,0,0.852660
0.6947865203848576,0,0.866788
0.3787925472068726,0,0.964862
0.8145505901690926,0,0.963394
0.4815533512491302,0,0.840016
0.45734323675461164,1,0.998684
0.8741584027026083,1,0.999544
0.902773555941711,0,0.985889
0.4265607871747438,0,0.951504
0.6811007269192525,1,0.999133
0.7140935677116389,0,0.985922
0.770116368120587,0,0.978901
0.643473533556443,1,0.999617
0.6774095619447532,1,0.999391
0.7919749437730467,0,0.978183
0.5333203777209474,0,0.994169
0.7234725852466273,1,0.997841
0.8877088745746967,0,0.992018
0.6582351586840508,0,0.980671
0.45757273336255927,0,0.975229
0.7943806193316512,1,0.996980
0.5357946361418828,1,0.996712
0.5112710292575702,0,0.928468
0.8717353894031128,0,0.477525
0.7706824302776232,0,0.951788
0.3540106289282002,0,0.926328
0.7199705460615405,0,0.974098
0.5643480749465538,0,0.994960
0.8885436592489637,0,0.897148
0.9341955986733863,0,0.747350
0.8500381884728487,0,0.969745
0.782471888085821,0,0.846715
0.6910069360747513,0,0.507463
0.5454699809512189,0,0.977737
0.4504952229095919,0,0.984945
0.7316526201649383,0,0.948061
0.9121375568933018,0,0.805128
0.9252918054440273,0,0.923893
0.48887827829390346,1,0.999536
0.8880968489412105,1,0.999389
0.7723722484777069,0,0.989733
0.7795781089317957,0,0.952711
0.6004426247725073,1,0.998532
0.5897983266468035,0,0.983758
0.8873795070659757,0,0.797846
0.5784974602790035,1,0.999204
0.6168125714290826,0,0.870185
0.5187093385036229,0,0.953405
0.640148616789907,0,0.910966
0.8596869262844864,0,0.443272
0.4985216770930228,0,0.925466
0.4438996727199552,0,0.964406
0.644145386317211,0,0.955392
0.6261951571600094,0,0.939136
0.5311301670697445,0,0.594439
0.8595401609610751,0,0.991325
0.5600529666599948,0,0.982511
0.7426538819050573,0,0.995399
0.8067938252077117,1,0.996993
0.42670814832099024,1,0.999550
0.7210159323084306,0,0.639393
0.5347612308257509,0,0.961670
0.7427301637173611,0,0.898202
0.39893446665752463,1,0.999632
0.3844518651326782,0,0.972247
0.702984421432922,1,0.999046
0.204022643193226,1,0.998974
0.9655971412253422,1,0.994958
0.9638971775333843,1,0.998020
0.42544372370863576,0,0.971351
0.9540907443360369,0,0.966741
0.9734657888619503,1,0.995565
0.9748658821045171,1,0.997305
0.9499088634143007,1,0.999563
0.5923892661687203,1,0.997236
0.9271556471698232,0,0.985035
0.4605081529951182,0,0.982143
0.8360512156996884,0,0.902238
0.8326707263610296,1,0.999675
0.883289445000189,1,0.999597
0.47033819240473285,0,0.989857
0.7145427975992462,1,0.999532
0.7849619092828132,0,0.962628
0.4976547016148297,0,0.815331
0.710977252006656,0,0.994877
0.46558724003190355,0,0.993067
0.9664762950204955,1,0.999689
0.38206432249444083,0,0.975163
0.6922859699913239,0,0.991234
0.9158155416961614,1,0.999189
0.8489519201082726,0,0.989071
0.6035056913622385,0,0.861985
0.7986192753166726,0,0.950748
0.5752949939785881,0,0.986679
0.6690842727061331,0,0.976396
0.593841037300382,0,0.979347
0.7490070552285873,0,0.946820
0.6989004566072764,0,0.964660
0.7170583197230394,0,0.873369
0.6720151983652194,0,0.945716
0.5319668409894266,0,0.898148
0.5190325880669862,0,0.994518
0.834053312943721,1,0.999504
0.7141073397951947,0,0.975096
0.6031537641170652,1,0.998721
0.35546351729887,0,0.898047
0.4571476850517221,0,0.977113
0.852161992078811,1,0.999524
0.6313483079143535,0,0.949621
0.43984118579307047,0,0.992075
0.4309736228469074,0,0.985660
0.5857947989909726,1,0.999209
0.5989222095345494,0,0.696682
0.7433346522154466,0,0.994203
0.5547356643262584,1,0.998272
0.5161943859137978,0,0.984464
0.7290157555625592,0,0.378897
0.525757158507552,0,0.349519
0.4707441614523991,0,0.975380
0.8255447734838313,1,0.999585
0.8919008876746883,1,0.996658
0.5452168524460221,1,0.999612
0.8140742379933497,0,0.994502
0.8554398975791963,0,0.959677
0.49979639334166803,0,0.992843
0.7616846374763596,0,0.938688
0.3213953797134361,0,0.994516
0.8483187959163123,0,0.922849
0.7814835926991898,0,0.979269
0.9065463877437694,1,0.999566
0.4433727863463838,1,0.995389
0.48905153444897503,1,0.998994
0.6715414188936855,0,0.921836
0.5105314823309531,1,0.999544
0.6908632524213271,0,0.824150
0.7701081173696257,0,0.983313
0.726689810065469,0,0.984622
0.38977337389215505,0,0.937924
0.3753892261739765,1,0.999541
0.7670270144525554,0,0.963466
0.7398587693312305,0,0.812470
0.4760096714685054,0,0.976401
0.8070686623745965,0,0.939580
0.876461265677269,1,0.996787
0.7810278091690083,1,0.999292
0.6701408435963265,0,0.934583
0.6288500688792118,0,0.976715
0.804266894983181,0,0.935908
0.7742436401155631,1,0.999128
0.6847803139336024,0,0.884798
0.49087048611044287,0,0.943277
0.569986814318969,0,0.964669
0.7315318701205815,1,0.999581
0.5151919655196063,0,0.966027
0.42841234270300177,1,0.998038
0.7420482165536408,1,0.996508
0.6922535485983813,1,0.999554
0.6844885709134313,1,0.998105
0.6115474231646557,0,0.987376
0.6656718752380637,0,0.951803
0.416666736731927,0,0.629579
0.40156090677191647,0,0.980698
0.6153585803368273,0,0.876010
0.4865327777746859,0,0.983468
0.8253382586536733,1,0.999610
0.6081152688599791,1,0.998236
0.4444805598773756,0,0.479255
0.7838026648899366,1,0.999588
0.8017623570211512,1,0.999557
0.4121758103953765,1,0.999479
0.7450379771232734,0,0.958966
0.8804767552977728,1,0.999672
0.7752988880765106,1,0.999593
0.5992091132463684,0,0.994399
0.5976873254237911,1,0.996865
0.40377423653511274,0,0.942899
0.6198639807819244,0,0.836920
0.5927890825076609,1,0.997462
0.6104245978659651,0,0.916975
0.6853893734910247,0,0.943676
0.7725748420955546,1,0.999313
0.4269671337695331,1,0.996491
0.6730468401298888,0,0.919971
0.3538667029286172,0,0.696542
0.3390120887753129,0,0.692346
0.4459167508770151,0,0.976898
0.9107509980945523,1,0.998802
0.6522342758161366,0,0.547962
0.8312388114769502,0,0.850239
0.7041911175412342,0,0.970765
0.46211998620508815,0,0.769278
0.7577269268187738,1,0.996348
0.8644654049892863,1,0.999557
0.8189716973949921,0,0.985934
0.8124635991038578,0,0.965038
0.6828841716898022,1,0.997655
0.7152703795416459,0,0.902935
0.6840860447347966,0,0.861496
0.6381831956496118,1,0.999316
0.7045491503794233,0,0.986173
0.7444299077994687,0,0.685736
0.6647137758210552,0,0.898853
0.3427593328199987,0,0.992243
0.738172088440901,0,0.980214
0.6486954730202481,1,0.997116
0.44012775353759964,0,0.748344
0.3868807784544687,0,0.924920
0.6783537680914774,0,0.975011
0.8681933558654957,0,0.970130
0.6437699196583422,1,0.999557
0.9752775201736095,1,0.999386
0.6521646366856271,0,0.990942
0.6267757045405781,0,0.991785
0.8183274350918296,1,0.995125
0.9342216815796873,1,0.998968
0.868579080024604,1,0.998645
0.9591497600468346,1,0.989189
0.965133226756485,1,0.997253
0.975608960318934,1,0.997340
0.5742150188161163,1,0.999567
0.36759214926330813,1,0.995434
0.874899343937416,0,0.987796
0.7367221304025954,0,0.992899
0.5992043480155157,0,0.984281
0.592410792475349,0,0.979065
0.4852206475379501,1,0.999174
0.36200251893536384,0,0.754349
0.4362250033243458,1,0.998929
0.36362262486308516,1,0.999577
0.8731007330644884,0,0.846422
0.6877949245644893,1,0.998062
0.4909273647934347,0,0.989546
0.7716383839261227,1,0.995220
0.7488069674235152,0,0.922787
0.6836554440842114,0,0.953766
0.9302376441363154,1,0.998802
0.5888871387666933,1,0.999586
0.8336548519650638,1,0.997644
0.35131069708099333,0,0.982705
0.4372326752577397,0,0.983908
0.6371109032776019,0,0.974439
0.490223790491621,1,0.997004
0.4889222576204476,0,0.707589
0.5399701546618612,0,0.928196
0.6968589480819201,0,0.979359
0.5935946900837968,0,0.979759
0.5778664229163825,0,0.985986
0.3802647404827518,0,0.995761
0.9393867895823045,0,0.635359
0.7279177936662774,0,0.696020
0.6120668835862955,0,0.992259
0.7796124487972549,1,0.999536
0.6983437866821206,1,0.999580
0.858322975500562,1,0.999618
0.583206831124279,0,0.995566
0.9180064376509608,0,0.956595
0.6031093360912274,1,0.998209
0.5117101749619745,0,0.794624
0.7471227201805715,0,0.971591
0.961695246659199,1,0.997333
0.9878236954532548,1,0.997845
0.5527292468081945,1,0.999629
0.47674299751662946,1,0.999485
0.7136055045538824,1,0.998899
0.6888989125234359,0,0.479177
0.9408860673508741,0,0.337464
0.5772010251485397,1,0.995816
0.5921928930625493,0,0.955631
0.5200093842821819,0,0.988437
0.603117416271675,0,0.940014
0.7617930775846158,0,0.987542
0.8645509598251262,1,0.999518
0.6773542906637763,1,0.999636
0.7249465377791866,0,0.992070
0.5847567437286464,0,0.387255
0.5171227662369364,0,0.990789
0.7625250336680964,0,0.881073
0.9011950378366836,1,0.999510
0.5412046058052384,0,0.901973
0.38590370322488254,0,0.973204
0.9476908924433601,1,0.999550
0.5945173269507786,0,0.991174
0.6961886769258252,0,0.970754
0.7593069780024762,1,0.999335
0.7095738116958159,1,0.999481
0.6404799024633109,0,0.992359
0.6138617765334565,1,0.991651
0.7306629906771531,1,0.998373
0.3457549093449669,0,0.979363
0.8037767347687556,0,0.888989
0.5251100241331936,0,0.839825
0.9139660995548654,0,0.941176
0.48303313312516516,0,0.813970
0.9364724840165377,0,0.794840
0.8073753558375274,1,0.995961
0.7835720805831417,1,0.999592
0.6167868085603437,0,0.991920
0.5069129149722089,0,0.977960
0.7088243180630192,1,0.996907
0.5009179816535727,1,0.995327
0.8841703058457544,0,0.960379
0.6319115664632535,0,0.944285
0.3638889154333871,1,0.999477
0.5542684073639985,0,0.974941
0.4631986155435261,0,0.942119
0.6874424833129137,1,0.999572
0.7265296498932663,1,0.998009
0.4452702139277915,0,0.957119
0.5657570633103328,0,0.825900
0.706384124142464,0,0.986167
0.35808495122416956,0,0.986123
0.887291951567473,1,0.998472
0.30785343620341943,0,0.989596
0.7256580134631053,0,0.986152
0.876016956044489,0,0.973317
0.837160529691758,1,0.999156
0.5834389310374412,0,0.922561
0.9180568978464551,1,0.998267
0.8872962645323114,0,0.943463
0.5971573619835107,0,0.794373
0.437070595390963,0,0.984950
0.7514835707308996,1,0.999570
0.4856932223979165,0,0.970862
0.6595790555482465,1,0.998544
0.7082565164991885,0,0.993821
0.5808977242799087,0,0.951311
0.5572889086797675,0,0.674928
0.6096823874675402,1,0.999532
0.7210642875831192,1,0.998069
0.8628074452353851,0,0.992495
0.5311182207969132,1,0.997653
0.7866346137400169,0,0.696099
0.8418349111683988,0,0.962963
0.3831222772219362,1,0.995457
0.49194393335162634,0,0.990000
0.5137269202408907,0,0.983210
0.9336948775616268,1,0.999660
0.6475077402511302,0,0.524761
0.7168708989612705,0,0.970546
0.7992658110282596,1,0.998807
0.5484271693311796,1,0.999527
0.8482286854158667,1,0.999285
0.9304116641577215,1,0.996261
0.6803637611439538,0,0.993524
0.8741577913857719,1,0.995303
0.6886686311497119,0,0.896066
0.8687624858586064,0,0.955004
0.8103125802094575,0,0.994238
0.552365922707717,0,0.993491
0.8052397740757976,1,0.999622
0.8084782704794008,0,0.608269
0.8279155915736076,1,0.999495
0.43650737316712424,0,0.988523
0.41200798061128807,1,0.999522
0.526764706855429,0,0.990737
0.8615650986693162,0,0.965250
0.5983175646349346,0,0.983393
0.47641564850270635,1,0.999041
0.7110063778866735,0,0.918837
0.5098621542861658,1,0.998087
0.44874750276451275,0,0.982713
0.757101642978836,0,0.942944
0.41786925193681634,0,0.989078
0.7549845105695746,0,0.629778
0.4863818403554221,0,0.961022
0.8096715297102457,0,0.581676
0.8473304784106487,1,0.997917
0.5325766393535571,1,0.991501
0.966569332030062,1,0.985981
0.9721407495632646,1,0.998172
0.38809681234631815,0,0.882353
0.8770937063631287,0,0.878021
0.612963490985648,0,0.937607
0.7904455385756283,0,0.975299
0.7657126471268844,0,0.937419
0.9397712590426073,1,0.997155
0.8313440462074498,1,0.999294
0.5615395400951388,0,0.994573
0.3066548201477447,0,0.710866
0.9656622412119015,0,0.955479
0.6556531493652215,1,0.997542
0.48816855507412177,0,0.194343
0.9008418508630782,1,0.997141
0.7113234145511284,0,0.951468
0.48671094807248866,0,0.993564
0.8950469131028095,1,0.999653
0.8556442555118593,1,0.999195
0.8033357905134926,0,0.984648
0.7080141213362143,1,0.996648
0.48148462954418686,0,0.989575
0.7190823159358828,0,0.928183
0.6831166297910124,0,0.985197
0.685154463311169,0,0.955758
0.3871896497109485,0,0.851709
0.7271247643721667,1,0.997227
0.8536398956365752,0,0.927891
0.6895839667881164,0,0.981973
0.9019743314108006,0,0.943268
0.6603568241756638,1,0.999589
0.8741189153893907,1,0.996273
0.8150002496848533,0,0.926756
0.793000240468535,1,0.998782
0.8640012409739922,1,0.997949
0.505842835015039,0,0.985051
0.3321680447824849,0,0.970343
0.6276554641681138,0,0.970242
0.3864946004727637,0,0.956934
0.34449808021700706,0,0.965532
0.7454333312481279,0,0.993625
0.3676637863064905,0,0.429034
0.8447963092907579,1,0.998199
0.9690686199819419,1,0.995441
0.9337248072554152,1,0.999555
0.901406273993528,1,0.998218
0.36690122867933395,0,0.670436
0.5606128682889865,0,0.796028
0.9389200619858862,0,0.833110
0.8074621307847144,0,0.990066
0.520895949237857,0,0.963015
0.7631693138589427,0,0.977778
0.4466176431860816,0,0.994821
0.36700596292630944,1,0.996533
0.7165277646223391,0,0.960199
0.36958766103474894,0,0.985927
0.7401811520965572,0,0.545828
0.7391158309101711,1,0.998332
0.47546036303837813,0,0.965705
0.5090018770980234,0,0.891566
0.48081701397344256,0,0.984571
0.8089212356985688,0,0.609263
0.731835117422074,0,0.829268
0.5533682805911334,1,0.999518
0.7987749979751826,1,0.997750
0.4159989195952997,1,0.999436
0.7302600894855757,1,0.999523
0.8272674788019658,0,0.986450
0.35050501905116527,1,0.998144
0.43069545600228637,1,0.998836
0.7375195005612425,0,0.987587
0.751095563276292,0,0.872377
0.5303224743438386,0,0.443213
0.3961005109471856,1,0.999302
0.8390071778669318,0,0.987270
0.979728893202183,1,0.999378
0.8743321788592936,0,0.993862
0.3646413695651285,0,0.985040
0.7965030673897123,1,0.999162
0.6423377685705871,0,0.993814
0.7472471154819516,0,0.991434
0.959615705273631,1,0.999289
0.5784560600532356,0,0.989257
0.4875706973174031,0,0.893223
0.8945129766674511,0,0.993085
0.9437503657253266,0,0.992638
0.9166489739206337,0,0.958632
0.8418700041621063,1,0.999260
0.5017438188786264,0,0.994558
0.8423198189718216,0,0.988667
0.6585817061303144,0,0.962054
0.3002883134175101,1,0.995176
0.9510762726638088,1,0.996599
0.9786676294569399,1,0.995516
0.9117268272096334,0,0.985806
0.3669810440884142,0,0.947316
0.9402160545363236,1,0.996531
0.4777754011817805,1,0.998333
0.5385762095279938,1,0.999533
0.5789393209458675,0,0.941335
0.7944094429042104,0,0.989701
0.559944213985895,1,0.998692
0.7451704890422621,1,0.994243
0.6258920258452088,0,0.939466
0.5343225343183604,0,0.990173
0.8520928098790818,0,0.995426
0.9353993111962541,1,0.999299
0.7805558320210861,1,0.998763
0.700547367087959,0,0.981399
0.5818139499346574,0,0.915127
0.4871633991674685,0,0.980617
0.778248650946287,1,0.999553
0.4388311170911815,0,0.971680
0.7492311823596115,1,0.998579
0.7316636612920757,1,0.999200
0.5311968166773011,1,0.999533
0.7770212391515223,1,0.999534
0.41190054776090457,1,0.999574
0.5898032128233484,0,0.469034
0.9198389205099543,1,0.999151
0.4217622521990391,1,0.997038
0.9000778751499781,0,0.911685
0.5809091149481469,0,0.984594
0.6613565910642202,1,0.999622
0.5345106658905446,1,0.999620
0.5302476427794902,1,0.999690
0.9338048436127654,0,0.977885
0.8719235335410255,0,0.995599
0.6018167583935871,1,0.999573
0.840761239013612,1,0.999431
0.8798662120906302,0,0.925926
0.6741643166445709,1,0.995618
0.8038753471405059,0,0.965096
0.5437771196551876,1,0.999181
0.6436219466413219,0,0.968378
0.3457104276833648,0,0.743172
0.9221847306958944,1,0.999018
0.5521235039475701,1,0.999045
0.27794403389289934,0,0.841890
0.7050452848426862,0,0.983208
0.8325489470634855,0,0.949281
0.5925553313686929,1,0.999632
0.6052054090163612,0,0.658025
0.7897881288030173,0,0.898383
0.8236487217028852,0,0.976270
0.7581611796378319,1,0.999316
0.6851999022282392,0,0.995648
0.9455632549718289,1,0.999580
0.7042865634508361,0,0.989529
0.9213448346211122,1,0.999407
0.7638801189795471,1,0.995865
0.3033835492827342,0,0.845679
0.5958217467163404,0,0.913833
0.8385607864780914,0,0.495622
0.4336264081142544,0,0.987307
0.35572612694444156,0,0.963382
0.5108598733680015,1,0.997899
0.7573204205701524,0,0.890173
0.6699835310281491,0,0.645825
0.8217787493033016,0,0.620778
0.5221894016255598,0,0.907272
0.7400206164077903,0,0.972518
0.806052113944403,1,0.994892
0.8255957274219234,1,0.999384
0.6623627289144118,1,0.999138
0.8498322336697463,0,0.980142
0.5005227804366756,1,0.999703
0.708078427436884,0,0.984995
0.697250454811517,0,0.983813
0.8098191126262277,0,0.659562
0.9089913261379348,1,0.999301
0.4312976048719906,0,0.608736
0.482497797580575,0,0.700264
0.5868345956921306,1,0.999603
0.40973521544102354,0,0.969955
0.4288269683610256,1,0.999564
0.8570597668902926,0,0.539906
0.46851802940764653,0,0.993553
0.7177591521267523,1,0.999571
0.6554402853098172,0,0.990078
0.5598067750689432,0,0.992727
0.8120287967570473,0,0.976240
0.8562600280714479,1,0.999565
0.8227279461187464,0,0.989673
0.47857080397698476,0,0.980315
0.3612033639147571,1,0.996388
0.7594172331965482,0,0.935940
0.40315754442929697,0,0.989781
0.9490644447874339,0,0.990719
0.6250623179634094,0,0.974639
0.7455148927260865,1,0.996744
0.5669532540263973,1,0.998201
0.4795225622399582,0,0.977694
0.7868761913255086,1,0.999585
0.9056526469386045,0,0.795000
0.9360784424559015,0,0.987500
0.5420138194784476,1,0.998691
0.7295068625548606,0,0.904866
0.6932783008271687,1,0.998524
0.7920262506086376,1,0.999545
0.9261654794262116,0,0.977519
0.6122842726852252,1,0.992491
0.7987806305868099,0,0.992248
0.9502252879671073,1,0.998217
0.7554604256195725,1,0.996549
0.5172356486106825,0,0.960118
0.5395989973509141,0,0.350124
0.9504426237335255,0,0.676182
0.47285017848214606,0,0.498153
0.9247131128581499,0,0.469424
0.684172541393372,1,0.999301
0.6810251432119695,0,0.975463
0.39623652745122634,0,0.940697
0.5482660263615586,0,0.829108
0.5749773534821987,0,0.937747
0.2657549139512958,1,0.999478
0.8810389335004424,0,0.988964
0.5638531266390083,0,0.966823
0.6069274797171985,0,0.891353
0.8892705264306235,0,0.977242
0.40677330939406686,0,0.921311
0.8136549970232566,0,0.951563
0.401147101947657,0,0.975772
0.8014365974073592,0,0.748003
0.7721875724061962,0,0.990418
0.5812396462982117,0,0.884013
0.6410189664024765,0,0.963118
0.5261092261408531,0,0.985266
0.8162208037898657,0,0.985248
0.5590031189725574,1,0.997902
0.4701977023144056,1,0.998210
0.8688516836297606,0,0.791932
0.4147083733450612,0,0.984270
0.9586299428360369,1,0.999546
0.30604268396724754,0,0.923747
0.766909101158554,0,0.979247
0.4112420196723238,1,0.999162
0.5779771811446988,0,0.912983
0.7241265202983153,0,0.858464
0.9041799261196352,0,0.929063
0.6360337510979037,0,0.988902
0.6880546452709564,0,0.779702
0.9056996218940716,0,0.907480
0.3740234572530552,1,0.999537
0.6269077554126061,1,0.997379
0.42384235875182613,1,0.997290
0.7103180150525565,0,0.984471
0.7867224054982396,0,0.841438
0.9425889915435036,0,0.969764
0.5320424927323125,0,0.907081
0.6399826876212837,1,0.999650
0.6022246658573288,0,0.585415
0.7492922802435171,0,0.797637
0.7962212633994926,0,0.362087
0.8123258474076418,0,0.991514
0.5466743895916313,0,0.609446
0.5439120436884566,1,0.995719
0.7398921542609922,0,0.972876
0.5087546419312232,0,0.914902
0.7377987497849788,0,0.564295
0.7169381426508085,1,0.997858
0.4784899479127689,1,0.999533
0.682925304524507,0,0.939086
0.8247415585117076,0,0.979412
0.5774379367927248,0,0.850587
0.5000053278281265,0,0.947123
0.30591033259127914,1,0.996361
0.3527173351869247,1,0.996450
0.6131620549016641,1,0.997811
0.8141457874368385,0,0.994565
0.9570380113239124,0,0.994251
0.3398243319912986,1,0.994490
0.9127795844389611,0,0.856667
0.9253692983847362,1,0.996364
0.9538687354396717,1,0.998551
0.9745318346644339,1,0.994382
0.7632804731176296,1,0.998053
0.40720858552571215,1,0.998190
0.7806965864884418,1,0.998463
0.7519650356807563,0,0.838603
0.6287757055657638,0,0.937960
0.5414027548397118,0,0.965856
0.8407068408081092,1,0.999650
0.5105976555128168,0,0.936596
0.5178919977512962,1,0.998912
0.5286962376041435,0,0.991917
0.46900819538093447,0,0.965751
0.7712046082338662,0,0.989557
0.6220969012320251,1,0.999550
0.9183062578280943,0,0.923825
0.9141629782395039,1,0.999683
0.607505722098373,0,0.984201
0.60008019533689,1,0.999556
0.9137335116789753,0,0.274758
0.6449971124210941,0,0.590270
0.7942756934934387,0,0.885990
0.6267136285319959,0,0.907921
0.8594417611274904,1,0.998998
0.6420203739437423,1,0.997488
0.5679871499503988,0,0.793120
0.6844340626678053,1,0.996593
0.7092783618659201,0,0.976034
0.5190479763603024,0,0.910774
0.8548313073452033,1,0.997926
0.3208438644754654,0,0.990076
0.7793359515329972,1,0.999655
0.6162430335481293,0,0.884916
0.6296229306564693,1,0.999028
0.795164069014782,1,0.998902
0.7076893518808259,0,0.928601
0.6923696112612844,0,0.595733
0.5033915267432547,1,0.999110
0.8942285254798517,0,0.993689
0.8650610610300009,1,0.999542
0.7915773153150026,0,0.978410
0.6509127563291425,1,0.996022
0.4944287463292976,1,0.998507
0.7289957628742602,0,0.914720
0.5219929139011944,0,0.901104
0.6748358888151095,1,0.999479
0.41785026762439087,0,0.978507
0.8157800787864437,0,0.907858
0.6955151926466114,1,0.999063
0.5060219973283241,1,0.998987
0.9093083530085753,0,0.945578
0.6913004343225787,1,0.998100
0.5881040413162815,0,0.986441
0.4233293342403788,0,0.983498
0.6689576304969042,0,0.946346
0.7834248932123438,0,0.888975
0.9509163117518533,0,0.990169
0.4557286120476025,1,0.996744
0.7208484243695534,1,0.993485
0.9339926664451496,0,0.895337
0.8385401495447405,1,0.999624
0.9215320352598914,1,0.999607
0.49598879125967726,1,0.999562
0.8482911988822909,0,0.991269
0.8244704797104313,1,0.999659
0.9359265305215013,0,0.989913
0.41602822252598864,0,0.961648
0.6173817695563756,0,0.920347
0.5628167841551344,0,0.994269
0.4792181515897158,0,0.980114
0.5263468640565133,0,0.488310
0.41340058837015287,0,0.977392
0.7569364981361104,1,0.999556
0.8870519464897164,1,0.998060
0.21436016369984265,0,0.989382
0.629385466518807,1,0.996494
0.5864759108601362,1,0.996812
0.842966254015967,1,0.998953
0.7540722354572231,1,0.997403
0.8139780291461338,1,0.998207
0.9395007832961709,1,0.998875
0.9612030472136474,1,0.997890
0.9792773276496658,1,0.996000
0.9639278230344707,1,0.986130
0.9627617136305904,1,0.998428
0.9592020042144858,1,0.998333
0.9786807789565305,1,0.998110
0.960676035250354,1,0.998189
0.4600776572159103,0,0.847210
0.5011037888871376,0,0.946683
0.9019392031283319,1,0.999552
0.4769425331328904,0,0.972222
0.5130175897644089,0,0.977592
0.9395452799872153,0,0.656096
0.8990755155622062,1,0.999236
0.8085467012343241,1,0.999599
0.41963008127622115,1,0.997638
0.5687436761491554,0,0.984987
8.817126184733408E-4,0,0.933022
0.5770197599382482,0,0.981804
0.7842211275457598,0,0.994411
0.7216032421794495,0,0.977667
0.4996995437866758,1,0.998951
0.9265606009624822,1,0.999543
0.746095338210478,1,0.998102
0.9051332416418428,1,0.999553
0.7900369408130923,1,0.995546
0.4575232690059737,0,0.952696
0.9405178579568368,1,0.998681
0.7783288991357086,0,0.705252
0.7176031036729348,1,0.997464
0.4913920881533455,1,0.996127
0.5664152568092966,0,0.792043
0.3450141065571332,0,0.972246
0.5718708632826249,0,0.974448
0.8232802533309117,0,0.993433
0.8963356312549988,0,0.994382
0.6565614214154192,0,0.812298
0.4200881718378114,0,0.977898
0.6347240392749546,1,0.999205
0.2892344794821506,1,0.999572
0.7071989198501528,0,0.957284
0.5736712660495471,1,0.999216
0.9281036609809507,1,0.999562
0.5848175775095694,0,0.957206
0.3622303261694548,0,0.969507
0.6731042323831724,1,0.998436
0.30383052426478663,1,0.998402
0.9259111117432468,1,0.999343
0.9227432795335966,1,0.998752
0.5348256351429027,1,0.999652
0.6033582615608416,0,0.436093
0.5855569994860655,0,0.978411
0.5127689977043826,0,0.686587
0.7602179692006122,0,0.906250
0.6455528155249189,0,0.986260
0.4787518545362364,0,0.978652
0.7250465238591369,0,0.954545
0.519716113091662,0,0.991846
0.8335862614770154,1,0.999218
0.7079402260332651,0,0.993015
0.7884696119484684,1,0.995745
0.8667525810908482,0,0.991705
0.42374079852399466,1,0.995624
0.8128805292469609,1,0.999308
0.5058046583386254,0,0.988445
0.6098575614342623,0,0.749700
0.8522825880232311,1,0.993394
0.8375138536539775,0,0.986191
0.5201376742830423,0,0.759697
0.38008673332087844,1,0.997372
0.6983654755383599,1,0.995425
0.6627837295059417,1,0.999433
0.5437843444258319,0,0.845450
0.7343360945636895,0,0.959602
0.6887769136640728,0,0.907157
0.8398036557934099,0,0.933229
0.49359267856518363,0,0.989805
0.6852588057594883,1,0.998638
0.5258050040716212,0,0.905343
0.8024097110514176,1,0.999044
0.7395232553089932,1,0.999658
0.3497187513119142,0,0.844265
0.7201042927176532,0,0.978097
0.9391336739215853,0,0.970279
0.599949853668117,1,0.999425
0.3205511850814693,0,0.989503
0.8980434864168223,1,0.996498
0.9390813149556124,1,0.998761
0.6161341194819829,0,0.461502
0.6451254203288497,1,0.998431
0.9167037044654098,0,0.981775
0.7698806424156142,0,0.956663
0.6002039684159135,0,0.825132
0.7675068356312953,0,0.464598
0.5218275994386864,0,0.980674
0.8512129585733285,0,0.940348
0.42148483634838746,0,0.993841
0.8586161037860773,1,0.999383
0.981114342413776,1,0.996262
0.905005905873637,1,0.997972
0.8884743890995194,1,0.993031
0.9573193928306221,1,0.998818
0.9599327290443674,1,0.997475
0.9784002019001151,1,0.996997
0.9522894153377497,1,0.998043
0.8112986645436618,1,0.999514
0.8504448516773944,1,0.999651
0.8384368973535187,1,0.999540
0.4915567293584591,0,0.989588
0.7138255014165708,0,0.959851
0.45249027481934817,1,0.996550
0.6175098905707641,0,0.981863
0.9184334964464679,0,0.947709
0.7538675158327129,0,0.921886
0.5851401781793221,0,0.915261
0.33015791771892417,1,0.996919
0.47266609268237997,1,0.995754
0.6659441330529114,1,0.999490
0.7527447536217691,1,0.999530
0.281615847143811,1,0.997759
0.5561633822188787,0,0.990143
0.37348515679708694,1,0.999506
0.5996623610577179,0,0.965167
0.5887675026419072,0,0.964951
0.45661293579797335,0,0.912955
0.8424568958831401,0,0.753941
0.28008217716872386,1,0.996772
0.41750202461240177,0,0.975435
0.5243372988252739,1,0.998131
0.8344060944553533,0,0.994888
0.2848438012253602,1,0.998654
0.8578320808280906,1,0.999574
0.8222100445926012,0,0.770667
0.3600495440941133,0,0.974609
0.516776384294458,1,0.996748
0.4862381328756169,0,0.981839
0.8878515922711371,0,0.878928
0.7774207954807678,0,0.800651
0.8145601722999541,0,0.933985
0.7770526184290486,0,0.862250
0.9379968938558908,1,0.999685
0.7552381247764526,0,0.308604
0.8151182882131702,1,0.999430
0.6710930677643255,1,0.999440
0.9687651516079827,1,0.999670
0.42408886475113117,0,0.928984
0.5330230711893226,1,0.999137
0.7889560196150636,1,0.998007
0.6383466662798758,1,0.997135
0.6718779369233848,0,0.899533
0.7294926163906961,0,0.991992
0.8063315353259473,1,0.998353
0.8515586667987721,0,0.976346
0.8417006535295144,1,0.998421
0.7651230788250881,1,0.999343
0.9615724547627676,0,0.925972
0.8063481227477761,1,0.998108
0.5630507173169151,0,0.858035
0.8510149381751482,1,0.998718
0.6131456782393863,0,0.983840
0.6223199274290829,0,0.918770
0.9373167671186257,1,0.998628
0.45804056366185064,0,0.977849
0.6827517048541425,0,0.976674
0.9297975478537986,1,0.995287
0.7728318964371531,1,0.999552
0.7152037439442406,1,0.999361
0.7251360684199375,0,0.931301
0.8876928610997928,1,0.998162
0.9164781365027879,0,0.991398
0.841630182962723,0,0.574832
0.9699239973986611,0,0.940771
0.5883010434426567,1,0.997582
0.7619052901190555,1,0.999563
0.6060023442165663,0,0.707260
0.8011570041233614,0,0.863835
0.6107292219652258,0,0.851852
0.5711741184553558,1,0.999524
0.6883407045645833,1,0.999593
0.8556856956609535,0,0.337995
0.42552269925394515,1,0.997135
0.772445736169063,0,0.982079
0.7964215652375907,0,0.975357
0.763949003356102,0,0.706433
0.8202091926424011,0,0.798182
0.37197283210504833,1,0.999098
0.8059178593722786,0,0.939024
0.8870466198631467,1,0.999559
0.41206179023021916,1,0.999218
0.8929914009187303,0,0.562821
0.42630907323005257,0,0.933563
0.8006901651005186,1,0.995766
0.9076174501758401,1,0.998598
0.8337364487311688,1,0.999624
0.7451357808504604,0,0.976227
0.7011269063968232,0,0.964816
0.6666712211001635,0,0.975598
0.8287735371480709,0,0.813136
0.6121248152194061,0,0.954593
0.7971791168449915,0,0.991235
0.3821309123366126,0,0.993763
0.4831000816983286,1,0.999547
0.36417510794568964,0,0.322536
0.8928910082495267,1,0.999189
0.7460430070623548,1,0.997821
0.8862529813725101,0,0.649250
0.3648908569544452,0,0.687644
0.9150886718407371,0,0.987959
0.96362418074753,1,0.998357
0.9555436224778218,1,0.998843
0.9595722388875733,1,0.996011
0.9599301656557612,1,0.998988
0.9158908048644591,1,0.999059
0.8962890498407837,0,0.986415
0.7467206524877352,0,0.669675
0.5498715941347994,0,0.981017
0.8087306145407892,0,0.988873
0.541121294174559,0,0.986676
0.8669242443774982,0,0.990395
0.5034818386760727,1,0.998845
0.8931034091696759,1,0.999174
0.5031250226522245,0,0.893584
0.9696920267882939,0,0.992573
0.7111189257162306,1,0.996905
0.8697693852652384,0,0.404629
0.6298213443815454,1,0.997561
0.6266809583579976,0,0.983116
0.5778277869342515,0,0.856430
0.3555803079406223,0,0.624519
0.8919810918253284,0,0.492348
0.8565866295571939,1,0.998156
0.6676392823342945,1,0.997929
0.805779045980911,1,0.999502
0.5962516073821037,1,0.999421
0.49240934256448327,0,0.933934
0.3465541045321862,0,0.987765
0.5191713557847318,0,0.838796
0.3340186477988341,0,0.977236
0.4927207564638147,0,0.970392
0.42620337928995033,0,0.987138
0.8100586547012222,0,0.571930
0.331865973899364,0,0.914656
0.8494752521217642,1,0.997143
0.9421253171342732,1,0.999482
0.7016298444488299,0,0.916633
0.6724700384922588,1,0.998602
0.7959057347301912,0,0.970000
0.6674065606916468,0,0.935823
0.7607052789483922,1,0.998837
0.7211359921789019,0,0.814262
0.7112523232884097,0,0.984569
0.49871626050162343,1,0.999351
0.5803371180615133,1,0.992874
0.5502838765227093,1,0.990088
0.7419704977999773,0,0.943216
0.5560824839513077,0,0.938808
0.510258544438731,0,0.991426
0.9130046115550546,1,0.999556
0.3734770872579884,1,0.999518
0.6708520569488109,0,0.603413
0.9118450748720314,0,0.985542
0.49355108675935083,0,0.815056
0.8493735642355827,1,0.999686
0.44371204773117023,1,0.996671
0.8279620401777026,0,0.888046
0.6695291527590441,0,0.877380
0.5029255174441831,0,0.160780
0.7986975795030122,0,0.972472
0.8410582516253654,1,0.999461
0.6646953912186736,1,0.996597
0.9195368405557082,1,0.998711
0.6703791826041404,0,0.981592
0.8366254862383236,0,0.523397
0.821921530174873,0,0.977963
0.6247065395801599,0,0.897948
0.8770435508777438,1,0.998942
0.836619243066423,0,0.985619
0.8366731616668746,1,0.995383
0.861114647548266,1,0.995879
0.9341882456542635,1,0.999310
0.9715466863873363,0,0.915584
0.7276815704945853,1,0.999508
0.7415823738271384,1,0.996694
0.7529703359080737,0,0.989005
0.8310018356225901,0,0.980617
0.760553382422708,1,0.998249
0.8082356905216328,0,0.386887
0.6683929819093392,1,0.999149
0.8969088324141143,0,0.635945
0.7934683163319826,1,0.999223
0.7024130181019821,0,0.966994
0.37520637638714,0,0.935413
0.8734658219917814,0,0.991264
0.5706270199241023,0,0.984266
0.5374549715065557,0,0.994293
0.706043125177839,1,0.999669
0.6586292446124586,1,0.999558
0.735564225669085,1,0.999578
0.8826963102934595,0,0.996256
0.5195039540677868,0,0.984369
0.803855735308322,1,0.999585
0.5292991936827295,1,0.999535
0.4394280356742775,0,0.950255
0.9371625722387626,1,0.999587
0.6664448201761839,0,0.986915
0.8173122712293378,1,0.995198
0.9449546947801911,0,0.956499
0.4089459822073281,0,0.417071
0.9844066864263946,1,0.999316
0.9522663334908602,1,0.993695
0.6685831570484194,0,0.988214
0.714506667285028,1,0.999038
0.9398721214761594,0,0.949591
0.9772199160056465,1,0.996599
0.9549472265915719,1,0.993216
0.964380271835828,1,0.998675
0.9726626225320595,1,0.999610
0.638623620564925,1,0.999450
0.3784848944308667,0,0.970803
0.5696482909881777,0,0.801155
0.9511754631852861,1,0.999364
0.6509047585962492,0,0.834568
0.970491069164672,1,0.999458
0.8236379661774125,1,0.999299
0.7071680409474511,0,0.968992
0.9112707914840932,0,0.991055
0.77044895324567,1,0.999648
0.8614592479658447,0,0.962329
0.6412856562527753,0,0.989303
0.7993032863900764,0,0.944472
0.8996857561087614,1,0.999050
0.4745457505864336,0,0.986095
0.8466887530036393,0,0.977566
0.48977508574453593,0,0.788054
0.4062286893502093,1,0.998162
0.40123914957492296,0,0.992781
0.5718589269664709,1,0.999096
0.5376016436404676,0,0.827985
0.5089272662939444,1,0.999615
0.9691470747438299,1,0.999548
0.5601707991124893,0,0.971009
0.8367684043713767,0,0.818709
0.7058164706580626,0,0.726754
0.31446471663012926,0,0.980848
0.6842039600229581,1,0.999526
0.8324559533722725,1,0.996917
0.46123342258003275,0,0.722283
0.9016477525866035,1,0.998665
0.5991232860356754,1,0.998993
0.5567858210928137,1,0.990476
0.708830329468146,1,0.999028
0.5919771492569587,0,0.622161
0.9185222585725222,0,0.977241
0.4883778504594733,0,0.895522
0.35429916335452427,1,0.999540
0.5540147575277377,0,0.477765
0.5441811444453286,0,0.951662
0.602338735875579,0,0.414862
0.5595751222580392,0,0.894580
0.7139863648707993,1,0.996916
0.9595751048306208,0,0.982561
0.700403856333428,0,0.968164
0.8754967237821543,1,0.999081
0.9472884470657157,0,0.721424
0.7302033670653975,0,0.932432
0.8034852409739849,1,0.999557
0.5136192914279796,1,0.996392
0.8702167324328812,0,0.989495
0.6706192901975064,0,0.991223
0.6112817122030684,0,0.969416
0.7679493205699958,0,0.978272
0.9638871538736006,0,0.840514
0.7422992013049879,0,0.912047
0.7063035057768633,1,0.996286
0.9544767492173556,0,0.952353
0.9252742242349041,0,0.875000
0.9515612221951487,0,0.960784
0.9822727946264803,1,0.991701
0.9658980361820072,1,0.993435
0.9797372161310764,1,0.997500
0.9838676252203385,1,0.997680
0.9622131919234322,0,0.991852
0.9002472146028884,0,0.958073
0.765129709465007,0,0.984988
0.49261492175874155,0,0.994704
0.4059605285638095,0,0.956918
0.648773786266879,1,0.999616
0.49483567428403813,1,0.999546
0.9396846446795665,1,0.996720
0.38919131743501456,0,0.985010
0.48659990025788535,0,0.985729
0.47012626736333235,0,0.971467
0.9268810953877011,1,0.997849
0.7172220649845349,0,0.984206
0.8005104109723257,1,0.999051
0.8666239760927859,0,0.619514
0.3691861647144359,0,0.956058
0.6883196676191399,0,0.990493
0.31499705743571565,0,0.958071
0.6888984288024301,0,0.943097
0.8603848990834597,0,0.880684
0.9537136797317683,1,0.999002
0.8529445643348638,0,0.898494
0.6151200707473132,0,0.898771
0.9361313548601831,1,0.996645
0.9043418726764463,0,0.975694
0.5169869980640257,1,0.996812
0.6719122709014036,0,0.977295
0.7574048338448466,0,0.977196
0.5168544040912247,0,0.954545
0.481343034468785,0,0.932669
0.5572476337004727,0,0.989647
0.7188641231158824,0,0.931328
0.7980456664092282,1,0.999518
0.8886847154010443,0,0.659781
0.6547262849461272,0,0.584755
0.2784755011439716,0,0.974176
0.5900766106580522,1,0.997932
0.8324157747842551,0,0.910090
0.6302480895385156,0,0.986442
0.8300145108788826,0,0.963254
0.5075735547625079,0,0.964357
0.5281775520692855,0,0.852273
0.7345280956568929,0,0.426780
0.7553615589778179,1,0.999325
0.5536869170994778,0,0.904419
0.6430127330484096,1,0.994935
0.7098036457480017,1,0.999305
0.685294715782236,0,0.296126
0.6195032849914852,0,0.985413
0.5455913904272011,0,0.563448
0.4384633875839347,1,0.995816
0.6303353116549563,0,0.923462
0.5526759049510976,0,0.761745
0.9134680351672524,1,0.999318
0.8644216659678812,0,0.942958
0.7421254714669111,1,0.999555
0.8977074720583603,1,0.999607
0.9522814779637636,1,0.999568
0.9228737851543362,0,0.797807
0.7075673668787938,1,0.999512
0.9224069298466242,0,0.983931
0.4526885671950113,0,0.979724
0.5556736628200077,0,0.986752
0.5681811041137763,0,0.592121
0.6423141485578321,0,0.991472
0.7500081108454226,0,0.968956
0.3815949767065824,0,0.744837
0.7334407230573642,0,0.945111
0.7487481600072786,0,0.991076
0.7874328566985109,0,0.847969
0.562925553874626,0,0.989016
0.49380874924489876,0,0.949879
0.8950731052828258,0,0.991399
0.9398829091798323,1,0.997640
0.6714925136828322,0,0.994475
0.7515289890275161,1,0.996384
0.5687067966139646,0,0.958624
0.8649644137742266,1,0.998129
0.7024512360811636,0,0.990514
0.4866676145374076,0,0.990906
0.4450364187520945,1,0.999664
0.9759026953944704,1,0.999003
0.6868983669708544,0,0.993327
0.8110236785309809,1,0.999587
0.5797392966367589,1,0.997633
0.7251153320363645,1,0.995870
0.9371516087178361,0,0.930222
0.8200357601281136,1,0.999555
0.7751756985153258,1,0.999426
0.9206264457723945,0,0.959366
0.49832464376314684,0,0.992784
0.3939454248934791,0,0.984867
0.7593372362871902,0,0.974318
0.7648062412986194,0,0.546318
0.8956749742946706,1,0.998532
0.48259358465963464,0,0.992812
0.5989655644787572,1,0.999222
0.6424219344583075,1,0.999431
0.9213294471930257,1,0.997578
0.6004484226851403,1,0.998239
0.6543155702826438,1,0.998969
0.3132924530811924,0,0.891817
0.8749327633483565,0,0.711684
0.5221282619260418,0,0.921150
0.5853190198667554,1,0.996975
0.8613951661197777,1,0.999617
0.3416882236659284,0,0.973532
0.8841380457656375,1,0.997798
0.7029262432283747,0,0.990499
0.7454074341198295,0,0.992216
0.8923279857060841,1,0.999617
0.702080242231696,1,0.996678
0.5908127429649824,1,0.998864
0.8480456423456191,1,0.994487
0.8326586186842019,1,0.998476
0.7104613157781915,0,0.890786
0.3790364581554188,1,0.998683
0.3366204729642095,0,0.928943
0.543323993465495,1,0.996974
0.38976106348415623,0,0.746089
0.5383976495387949,0,0.888161
0.6720718721896599,0,0.918755
0.9611763037316148,0,0.606532
0.8126453382867279,0,0.850829
0.9524094911323994,0,0.963461
0.7479546164869126,0,0.969142
0.857092078119954,0,0.940686
0.30429804756930195,1,0.993433
0.6585848130822614,0,0.986264
0.7338446671250234,0,0.953226
0.37083754497893495,1,0.995702
0.948712361079551,0,0.980263
0.7989475572234415,1,0.994314
0.9030335192263858,1,0.996785
0.9125892492724912,1,0.993031
0.7877978587405432,0,0.979052
0.6952871166152677,0,0.381579
0.8926991069336196,1,0.999610
0.6663736205426429,0,0.328512
0.6959009487505781,0,0.990754
0.5849843901644828,0,0.991479
0.9369182865898931,1,0.995231
0.7914115000612015,0,0.973410
0.9655420409705432,1,0.998588
0.9681195764194319,1,0.998246
0.9640541335928533,1,0.999358
0.4460661789382926,1,0.997382
0.287684787196689,0,0.971326
0.9273745054524335,0,0.979351
0.9583180523810588,0,0.992059
0.5494679559264313,0,0.865429
0.9109489047630721,1,0.999556
0.45370097471507337,0,0.977057
0.6714729932824212,0,0.970290
0.5622546333373125,1,0.999551
0.7718985536773565,1,0.999663
0.9021539843387739,0,0.994930
0.7821233572326196,0,0.973617
0.8225919095121503,1,0.998346
0.39344847275269346,0,0.988225
0.3937544182440628,0,0.935005
0.944282439146947,0,0.990682
0.5295971325389018,0,0.973256
0.8898013526769102,1,0.999521
0.44453688579554546,0,0.988016
0.8486129973392483,1,0.999645
0.8781560706235269,1,0.998028
0.3919847868409828,0,0.973788
0.7433637706535566,0,0.975304
0.5810661607225194,0,0.994075
0.3471147609710694,0,0.983712
0.8174335235768585,0,0.957746
0.6865327542684865,0,0.707151
0.4452462172122502,0,0.975620
0.9745017868668499,1,0.998194
0.9124675859466683,0,0.989073
0.5454024110792765,0,0.935010
0.7050611994360924,1,0.996555
0.8402657304557363,0,0.983770
0.6127662768762538,1,0.998820
0.7328421459179206,1,0.997393
0.8810240394623503,0,0.963324
0.9208561484202235,1,0.996627
0.8429170212259472,1,0.999604
0.4313091364325107,0,0.933128
0.5565880798170814,0,0.930055
0.7684216443991448,0,0.919944
0.8822023218836529,0,0.955216
0.37627991122559756,0,0.893386
0.9768733718209573,0,0.889302
0.36248484148626897,1,0.997141
0.5320410413981442,1,0.997997
0.7426961523529576,0,0.975574
0.7885144029053475,0,0.925406
0.9571201808451515,1,0.999678
0.7032589127700378,0,0.918592
0.4732808588305805,0,0.824808
0.8065407729906888,0,0.995584
0.9431494815757979,1,0.999487
0.8416992502362673,0,0.995084
0.5993925900239531,1,0.999593
0.3548583578337399,0,0.977941
0.9517243765161523,1,0.999545
0.8922802460592363,0,0.989719
0.9259240980983172,1,0.999607
0.8659308255052393,1,0.996977
0.7293828712600339,0,0.962271
0.6758163773271365,0,0.416593
0.6134376202440632,1,0.999588
0.6381982220949722,0,0.529961
0.4262356639909976,1,0.998825
0.49966547220213725,1,0.996438
0.6435869281947094,1,0.997047
0.8701750964911055,0,0.965854
0.9524916472722035,1,0.999115
0.8559531247685537,1,0.999637
0.6974482904350519,0,0.672449
0.4104331354967637,0,0.915267
0.7544915338435484,0,0.988005
0.5083281930682271,0,0.946732
0.7917048622883949,0,0.993033
0.8254078384948319,0,0.907657
0.5330584804454332,0,0.623003
0.6672799237080352,1,0.999512
0.8952779686027111,0,0.503359
0.7730326922893398,1,0.999387
0.8045967872806264,0,0.968037
0.6610194814148362,0,0.977821
0.6293536176160842,1,0.999576
0.8853904305062908,0,0.873469
0.40679323285621394,0,0.966053
0.7560440314020834,1,0.999185
0.7364503831969655,1,0.998475
0.863688860941912,0,0.981847
0.6129388223448639,0,0.990753
0.6835589639878097,1,0.999270
0.967288406855936,1,0.995943
0.9453499760877351,1,0.998409
0.8969729182484313,1,0.999432
0.9585708365168973,1,0.994845
0.4462353415536918,0,0.900872
0.46128087198038403,1,0.998563
0.9833984778024873,1,0.999113
0.9481503995012895,1,0.999587
0.8231057120910668,0,0.984286
0.8560593237469715,0,0.966622
0.560357898453206,0,0.989369
0.7391930750484378,0,0.925908
0.3622100070919071,0,0.960034
0.3897846892084141,0,0.989161
0.9675448217347508,0,0.981597
0.7258951919197664,1,0.997289
0.8252701148287775,1,0.999586
0.8180665645004234,0,0.978892
0.9303896418358557,1,0.999462
0.3835099813977537,0,0.306576
0.8544746362482375,0,0.934752
0.4866751407294758,1,0.998723
0.8012530476363843,0,0.891166
0.9635828640716851,1,0.996248
0.9237769586178044,0,0.928249
0.8597064643636428,1,0.999553
0.26077809234369015,1,0.996808
0.4807187739097689,0,0.933539
0.5114859274424768,1,0.998867
0.7571086660463342,1,0.998110
0.6258902498346235,0,0.969171
0.5272704520660417,1,0.999274
0.7571330746980074,1,0.998541
0.5000225498399549,1,0.998896
0.7776083633602154,0,0.981111
0.6487498449834073,1,0.997288
0.6835952253281348,0,0.955869
0.7009123184533498,1,0.998616
0.845558843423085,1,0.994125
0.8263918906782529,0,0.992704
0.771493725540922,1,0.999509
0.3994780273371456,0,0.989634
0.9460049978364631,1,0.998513
0.7522785834230921,1,0.999522
0.4870972500764206,1,0.995195
0.8368398664018053,0,0.949254
0.975704506884575,1,0.995255
0.2885642702536919,1,0.999447
0.5917139642073445,0,0.976866
0.5972915319129961,1,0.993909
0.42961213205548826,1,0.998320
0.5659017817389351,0,0.974384
0.5797497650851523,0,0.668990
0.9350768028295098,0,0.840860
0.7413898123368226,1,0.999012
0.6742232736048083,0,0.938639
0.6370857353258791,0,0.908139
0.8099135040094813,0,0.897043
0.6955325506811811,1,0.999054
0.6641504692608069,0,0.985393
0.910625380442331,1,0.999579
0.6087004470752212,0,0.609183
0.7043567982672364,0,0.955483
0.6115981337665303,1,0.999636
0.6171450750605169,0,0.977157
0.4656234338065541,0,0.985019
0.7771059040201177,1,0.994469
0.7857054464552367,0,0.925380
0.7766978084656021,0,0.977246
0.6300658307202244,0,0.990670
0.5063701315798356,1,0.999533
0.4535937416091242,0,0.977570
0.8314141667777956,0,0.988230
0.7805862218765046,0,0.952545
0.5869997805383583,0,0.995081
0.4340171235946683,0,0.996570
0.32529756403136617,0,0.990317
0.8311147639094937,1,0.999620
0.38189006468471764,0,0.971781
0.8212721300301371,0,0.978261
0.8129470493171339,1,0.998639
0.8170109074611746,1,0.994580
0.6503632205078272,0,0.958887
0.806525826124537,1,0.998298
0.795354875722615,1,0.999363
0.9633901114641156,1,0.999678
0.23880542395053964,0,0.962843
0.7709723921512656,0,0.904762
0.6906023961162128,1,0.999197
0.9212623168728815,0,0.978278
0.6565214210242788,0,0.972161
0.6958666199803394,0,0.964730
0.9740667021550447,1,0.999295
0.9713031237816241,1,0.999694
0.5309686372800569,0,0.964624
0.6538747887871426,0,0.985351
0.6349231287168688,0,0.514574
0.7729041423043306,1,0.999640
0.7199907089806872,1,0.999480
0.31309764056412864,0,0.979616
0.5297400701133029,1,0.999592
0.9248352129379334,1,0.999555
0.7823433100083261,0,0.532590
0.45917388236566625,0,0.863035
0.6904405267739266,1,0.998192
0.4778356549487779,1,0.995946
0.5705482467682493,0,0.975254
0.8854050568633297,1,0.999524
0.4174798800950456,1,0.997794
0.2937835626501561,1,0.999521
0.6808638761693926,1,0.998757
0.7252143190366426,0,0.924939
0.8628092869385992,1,0.999370
0.5308426477723592,0,0.896251
0.7227661323837902,0,0.868102
0.5354333644424757,1,0.998489
0.9402116549325578,0,0.970116
0.9058152142719497,0,0.992366
0.9562690912425833,1,0.999616
0.8980572478079707,0,0.990941
0.6354374418605718,0,0.976051
0.8129258869007062,0,0.994836
0.8060547516656681,0,0.954228
0.6470385064920531,0,0.981233
0.8769026192666994,0,0.990895
0.8064816352964227,0,0.417540
0.7704468552078835,0,0.944776
0.875389525449232,0,0.991086
0.37767081295577765,1,0.999225
0.9293000571911036,0,0.964286
0.709247158479773,1,0.998996
0.8186138175832115,1,0.999653
0.585411398022721,0,0.935058
0.6540820659569826,0,0.945321
0.7545979688197659,0,0.979834
0.4709148541873458,1,0.995833
0.5439134971609494,1,0.995229
0.8507072708301215,1,0.999225
0.9203465954903146,0,0.651416
0.9623445820587603,0,0.838150
0.9541739080435775,1,0.998480
0.5379532374392945,0,0.972421
0.8273452036850474,1,0.996157
0.9686586007578011,0,0.796405
0.9509026313318792,0,0.411481
0.535732901520538,1,0.999162
0.6243708683302857,0,0.610609
0.7090890596683226,0,0.937472
0.5023964290086951,0,0.993625
0.6221616755369379,1,0.999653
0.5083609060858727,1,0.999523
0.42652074142995616,0,0.985782
0.6946405537764254,1,0.998888
0.7802043925972157,1,0.998621
0.6032029036883054,0,0.777222
0.5380405751187579,0,0.971983
0.8131919820543837,1,0.998916
0.8252119106659551,0,0.947509
0.8164113811187211,0,0.995310
0.745915358262272,0,0.994111
0.8303309234992612,1,0.999165
0.8309321636600676,1,0.996517
0.3336883057741558,0,0.685841
0.8067454495305529,0,0.986524
0.944092673324235,1,0.998782
0.31609164124686145,0,0.282307
0.829568854102821,0,0.927063
0.8179640046912074,0,0.933636
0.8216546727709313,0,0.935424
0.8843585941615264,0,0.992169
0.6398391880620954,1,0.998486
0.21260105219134512,1,0.994595
0.8323928006111567,0,0.981585
0.7489326190324207,0,0.966691
0.783154723036639,1,0.999387
0.6318861048384868,0,0.989924
0.6904187823632402,0,0.960279
0.5937107475830025,0,0.789809
0.6603461603853399,0,0.993068
0.7531569815449125,0,0.952582
0.3868559245484361,0,0.991808
0.8741705494403694,0,0.931865
0.7839846821128533,1,0.999283
0.8772900588473497,0,0.948008
0.91971264051846,1,0.999348
0.8055183018094451,1,0.997234
0.8986545718581352,1,0.998953
0.8403354511511101,0,0.949275
0.7798908954100001,0,0.988770
0.5341594467483933,0,0.962891
0.48873885634592995,0,0.970860
0.7145196649166783,1,0.994751
0.7377295600418323,0,0.986391
0.9016020874520219,0,0.988640
0.5817174742625866,0,0.702606
0.7691176007455139,1,0.998810
0.6639741302843106,0,0.979136
0.9345026561730155,1,0.999703
0.5536150973084246,0,0.946474
0.4137157244713997,0,0.947892
0.6043524407542255,0,0.950172
0.464581715407665,1,0.999093
0.6868547353623964,0,0.878424
0.6711743929193084,0,0.960871
0.3938889561068468,0,0.982249
0.44002350305562515,0,0.948914
0.866465676073213,0,0.974227
0.5056574853188471,0,0.947368
0.5555467638134758,1,0.999118
0.7598976689122341,0,0.968615
0.41083990730815106,0,0.810894
0.9500598725688646,0,0.843608
0.6200767229580332,1,0.995468
0.9302424768323052,1,0.998236
0.842064380594254,1,0.999510
0.787571952099766,0,0.184211
0.7353605425330925,0,0.992342
0.782869712156638,0,0.277454
0.9145445210290237,0,0.993724
0.7797315481462617,1,0.999512
0.9393926727883789,0,0.931645
0.7484185196851028,0,0.994648
0.27054847799260967,0,0.957433
0.9561939504174115,0,0.888362
0.9318006478098424,1,0.997707
0.5190044626229677,0,0.317944
0.6027446523594668,1,0.997128
0.6313541056802191,0,0.851145
0.8671709792294097,0,0.914493
0.8603271625350566,0,0.975664
0.6974133067127072,0,0.832517
0.9333108016533455,1,0.997952
0.5662728611882962,0,0.992000
0.6060013123064977,0,0.988184
0.7544399100441443,0,0.979823
0.8595546477682798,0,0.918949
0.8599746852084896,1,0.997993
0.8040118794604759,1,0.998858
0.3644548541545566,0,0.944651
0.6720545180838758,0,0.958848
0.6410918743221062,0,0.989520
0.8838031981273278,1,0.997576
0.519684311819389,0,0.979647
0.8788369876509143,1,0.992263
0.9504526154440447,1,0.997085
0.9663325924777837,1,0.998684
0.9557700055039539,1,0.993072
0.9495133745988097,0,0.970984
0.6712932560468622,0,0.982500
0.4249524577051566,0,0.802347
0.7644693683624076,0,0.994128
0.5387028332303042,0,0.701013
0.541299577996078,0,0.975775
0.16728230331732516,0,0.905085
0.8349771309057415,1,0.999366
0.9166560795884139,1,0.998697
0.7849678047191877,0,0.640100
0.8715484489558591,1,0.998694
0.7502815720745736,0,0.996379
0.8084227045575737,1,0.998975
0.9311569529310764,1,0.995809
0.732045114488011,0,0.837104
0.758631554812112,0,0.656250
0.4611361144764602,0,0.979120
0.7534450122031293,0,0.992583
0.9645452107174907,1,0.999044
0.7499686446722021,0,0.994238
0.6624344056643489,0,0.994703
0.8068675939813608,1,0.999252
0.7635816649307703,1,0.999521
0.6978391763084132,1,0.998615
0.960346329583183,1,0.998073
0.7638939062087169,1,0.999237
0.5706207455040548,0,0.856383
0.32917195291467805,1,0.995552
0.7210351654755435,0,0.994931
0.709988896943522,0,0.937203
0.764369588483459,0,0.866667
0.44149576274687075,0,0.986515
0.33727424273941947,0,0.990623
0.3768265395663323,0,0.992194
0.4157737452030572,1,0.999614
0.8682352684961575,1,0.998934
0.3532747922357074,1,0.997191
0.7725590529159315,1,0.999135
0.9191966545791689,1,0.999557
0.4360754534126987,1,0.999609
0.6835789843020837,0,0.981443
0.36037717088477844,1,0.998483
0.6631611429443197,1,0.997867
0.5297647227567558,0,0.956295
0.6306466421665999,0,0.967480
0.5547549675784286,1,0.999524
0.8664850661608593,0,0.934998
0.6201027550149125,0,0.983044
0.7624500293347758,1,0.999391
0.9356288772401106,1,0.998279
0.7862473995286547,0,0.343924
0.42504661819532635,0,0.914134
0.7307186250926038,1,0.998847
0.9724258411650666,1,0.998991
0.34103473206167995,1,0.998766
0.76997553508484,1,0.999558
0.7003241402416575,0,0.265924
0.9641094465658552,1,0.998363
0.9699065966989434,1,0.997199
0.5579649276795804,0,0.876295
0.48717615025515,1,0.999614
0.8639879532419577,1,0.999594
0.7755737626084057,1,0.995987
0.6933029916121857,1,0.996574
0.944148547575758,1,0.999139
0.9658181514149532,1,0.999689
0.8475836917548605,0,0.970797
0.2727049186297294,0,0.985933
0.864080333232583,1,0.999572
0.9368780835774493,0,0.969457
0.5321851535877455,1,0.998811
0.8905318303803584,1,0.994729
0.32629727491213895,1,0.998583
0.7171965169558153,1,0.995660
0.9345203292630042,0,0.992915
0.29948050339461996,0,0.991394
0.7237037337035146,1,0.998945
0.624352533477634,0,0.983840
0.7083271972561014,0,0.942190
0.9436710340347548,0,0.704978
0.3134907440478605,0,0.925479
0.3098933629679142,0,0.923363
0.36658213332490086,0,0.961364
0.5517365354779227,0,0.926322
0.8327111334020528,0,0.916875
0.7900421743558047,1,0.999442
0.6011402160052984,0,0.990429
0.9721979051417627,1,0.999695
0.8188596266645063,0,0.970125
0.9493694532191445,1,0.997203
0.6126350066535103,1,0.999612
0.8932591503329786,1,0.998373
