-0.06772045457017146,0,0.011385
0.041065779865689725,0,0.047854
0.8247318518146651,0,0.059888
0.4751723912902175,0,0.938467
0.46629939888854466,0,0.984645
0.7712482780934228,0,0.977637
0.5723130255784602,0,0.517051
0.5215451651621157,0,0.704354
0.8103314205834868,0,0.857651
0.8039322309196306,0,0.994737
0.8315024669048916,0,0.453608
0.6109763662798194,0,0.210031
0.7211181475872623,0,0.888445
0.7232039226322201,0,0.800917
0.5835687253362332,0,0.877757
0.5957173746998836,0,0.853904
0.6215475645562654,0,0.918094
0.6768926697080855,0,0.813630
0.5058486336775868,0,0.966751
0.4583795440746736,0,0.119644
0.5690665100586171,0,0.155212
0.750903443296618,0,0.779821
0.5201292787106888,0,0.297924
0.5997907302305889,0,0.979024
0.4169310493396233,0,0.171932
0.7773596892196792,0,0.940462
0.5269936675451777,0,0.013250
0.689515983273363,0,0.549208
0.4514692618111448,0,0.983435
0.5007118453730999,1,0.995987
0.4148722553378531,1,0.996430
0.5948835458435331,0,0.872377
0.5418952816532587,0,0.953228
0.749170373103833,0,0.850022
0.7973281411499549,0,0.937671
0.5981021464458466,0,0.968511
0.5110670391166828,0,0.717511
0.4556589993545836,0,0.546110
0.5628098156378695,0,0.983577
0.5194672849245016,0,0.986679
0.7304758030982184,0,0.936412
0.7857263682825877,0,0.719392
0.7241399027995523,0,0.961105
0.660173790837951,0,0.912185
0.6049453622854307,0,0.970192
0.9214166378813721,0,0.840229
0.9082713699884352,0,0.550948
0.6976112168464044,1,0.999592
0.5062688996523177,1,0.997909
0.5249236210242101,0,0.973941
0.44143995515803397,1,0.999691
0.47675390204117774,0,0.946260
0.7655937586522509,0,0.994200
0.8398204188556707,0,0.891479
0.44652837222924524,1,0.999491
0.5792742783101098,1,0.997514
0.7724628090052538,1,0.999303
0.8266621671784932,0,0.993504
0.7553381068444308,1,0.996679
0.49484772701771984,0,0.915410
0.5196775672103929,1,0.997440
0.8381953988322103,0,0.987170
0.577257191888793,1,0.999616
0.6740812710844183,0,0.910816
0.6482467440654317,0,0.993952
0.7321480763850501,1,0.998559
0.510219323663898,0,0.936381
0.724909536165722,0,0.653365
0.6769376006025993,0,0.473482
0.7633610149750594,0,0.978374
0.535439189898079,1,0.995461
0.797956013191392,0,0.942805
0.48704901996485095,1,0.999642
0.6555807632838452,0,0.924905
0.937738014706893,0,0.923711
0.8093915491411385,0,0.948201
0.5329700147421677,0,0.988084
0.890437607641666,0,0.929983
0.914221619295917,0,0.950272
0.8728147159692352,0,0.968446
0.9443803574075921,0,0.903372
0.8195754871940725,0,0.994703
0.8165493304415984,0,0.920949
0.5333111757403017,0,0.994001
0.44564712068516543,0,0.973225
0.5869508881436867,0,0.968033
0.6235188453770194,0,0.980593
0.5967118840561036,0,0.975143
0.8525993024017464,0,0.827153
0.6861077431777197,0,0.984275
0.7691302303056553,0,0.974622
0.7361965694594212,1,0.999035
0.5699074426896731,0,0.966555
0.6904062453436488,0,0.942452
0.531267061382714,0,0.965604
0.6178751911388269,1,0.999642
0.5942386149022533,0,0.901653
0.5750615090118869,1,0.996198
0.5555270206261661,0,0.258840
0.5718036611036669,1,0.998821
0.3998079818122254,0,0.892415
0.664700284569926,0,0.990722
0.6848118545651646,0,0.992537
0.6813242402155361,0,0.985240
0.8120701210971616,1,0.997093
0.4308083239378863,0,0.252747
0.9463494774199894,0,0.984636
0.9038064527437998,0,0.993580
0.8969862395923509,0,0.973754
0.9696422714204375,0,0.969171
0.7416974448074175,0,0.935500
0.6545173237613346,0,0.994283
0.742150099048902,0,0.891269
0.47688642354382077,0,0.954751
0.3716390006377405,0,0.875479
0.6356315813495832,1,0.995081
0.427621019015901,1,0.999616
0.4359284391603054,0,0.903359
0.9159441316605531,1,0.999250
0.4533536874563847,0,0.987976
0.4488503158674449,0,0.960396
0.885246451941321,1,0.998383
0.44751995307024456,0,0.872418
0.5548141449543397,0,0.966736
0.4600357759475489,0,0.932241
0.480724831733928,0,0.947333
0.716906695329041,0,0.903685
0.4786307232139061,0,0.924293
0.4325170770334675,0,0.870098
0.3848709951018842,0,0.832026
0.5786510569212469,0,0.969123
0.5966839345763923,1,0.999644
0.6065744996461233,0,0.991108
0.672566171532975,0,0.955193
0.4988769661086793,1,0.999614
0.4499775985315251,0,0.989983
0.39287552106334167,0,0.976712
0.6315808141287648,0,0.959459
0.45270936535853096,1,0.996410
0.6719033340185309,1,0.996968
0.3504428840571845,1,0.996912
0.7516557251061398,1,0.995883
0.3214419573942986,0,0.956707
0.5387881216171322,0,0.939059
0.6094332681662001,0,0.958318
0.4330398064434522,0,0.952010
0.6310005035677215,0,0.990994
0.8431928494098317,0,0.880565
0.8013362713884078,0,0.977106
0.7389344384764699,0,0.992973
0.51241461946297,0,0.990284
0.24105963138164146,1,0.999566
0.2996330813406484,0,0.979759
0.532559911423783,0,0.928209
0.7685155786702104,0,0.993151
0.6687979972290181,0,0.994826
0.5112308986418117,0,0.981408
0.9429476279632804,1,0.999407
0.84480510354874,0,0.981198
0.377767365384605,1,0.998486
0.8067971637673902,1,0.999652
0.9845770771367305,1,0.997753
0.8495525053068262,0,0.987988
0.34309791005589235,0,0.992120
0.5255202122005173,0,0.933107
0.622984798914544,0,0.984223
0.6582532457363409,0,0.869358
0.4780986632801733,0,0.965840
0.7069771670201188,1,0.997198
0.5379583553552777,0,0.917038
0.7035392178925005,0,0.972594
0.9009770505901358,0,0.948052
0.7448846223381705,0,0.990056
0.8283821540985078,1,0.996801
0.5649432485458574,0,0.965046
0.7428957912997508,0,0.993497
0.5163868287580623,1,0.999563
0.7909926249225949,1,0.998247
0.4278899456762007,0,0.979676
0.260846971923478,0,0.991223
0.36686391745634706,0,0.977366
0.5708986612147945,0,0.989037
0.545776613754566,1,0.996697
0.6540062445313161,0,0.992318
0.6991479217241015,0,0.771065
0.5887717401495611,0,0.983801
0.8300103110257608,0,0.987358
0.4700790689157868,1,0.999204
0.6978517372631317,0,0.991414
0.7814201493765879,0,0.950137
0.4844336272650641,0,0.995096
0.6464251798472462,0,0.973436
0.939444553172335,0,0.976045
0.8197041566840697,1,0.996008
0.40733658639694476,0,0.871835
0.5494021530190288,0,0.963951
0.7669872732705846,0,0.990562
0.9369962330253887,0,0.968073
0.8453071002222401,0,0.960283
0.6000531268575165,0,0.987810
0.4741800741431038,0,0.874749
0.8067882543041137,1,0.999664
0.47091278267979025,0,0.981852
0.823187246361489,0,0.988218
0.8862212055501152,1,0.996449
0.5346039032486039,1,0.999213
0.5843584423269622,0,0.991992
0.43519566819440947,0,0.972091
0.6046614101367221,0,0.969022
0.6897982495751322,0,0.974696
0.8621015713859597,0,0.993680
0.37710344435556004,1,0.998210
0.5739005915057463,0,0.990690
0.43498635354718124,0,0.895007
0.6078812277606332,0,0.958806
0.7241248651544514,0,0.965307
0.7659591588913077,0,0.885290
0.6724512227994189,1,0.999572
0.7282079023862678,0,0.808487
0.9218937018933934,1,0.997618
0.7921342243760968,0,0.785058
0.8805671311030341,0,0.983865
0.6220886535766005,0,0.989277
0.5486116285939339,0,0.989761
0.7485632193498553,0,0.989853
0.4163742933592253,0,0.977959
0.8341893916582304,0,0.922009
0.5850946619162029,0,0.990846
0.9018437165665215,1,0.999573
0.36558051052544727,1,0.998059
0.9330602951531624,1,0.999666
0.6237371741951667,0,0.957729
0.54836580929246,0,0.958545
0.725407446571662,0,0.957936
0.4941096102994393,0,0.979539
0.6258242576709542,0,0.959013
0.5293084262640032,1,0.999464
0.6453521688432509,0,0.984552
0.3714927916813334,0,0.853293
0.4469981702485178,0,0.827586
0.5339141390744795,0,0.993567
0.4242073392299716,0,0.889369
0.49570651318359976,0,0.992692
0.5356894984047716,0,0.992030
0.9489871035407128,0,0.964084
0.524067965301613,0,0.995431
0.6102753754253759,0,0.974334
0.5408286189250491,1,0.996084
0.63690746247825,0,0.941176
0.4141065571637263,0,0.977346
0.692519621940299,0,0.945525
0.8773802180453568,0,0.976664
0.4009636795209474,0,0.993127
0.6414684716551515,0,0.990909
0.46589504312096625,0,0.965943
0.7437825164729457,1,0.999484
0.7627571847919378,0,0.930249
0.6515719230746496,0,0.987900
0.6303662149768114,1,0.998884
0.9216773371148117,0,0.980930
0.6752703815982134,0,0.991751
0.4795012185746778,0,0.990242
0.8837222293830972,0,0.982222
0.8338387268875257,1,0.999655
0.5975827430814664,0,0.993310
0.5301882196791291,0,0.985185
0.5548885177648167,0,0.929030
0.44915386842909,0,0.982784
0.596600347889824,0,0.961967
0.8930510661866002,0,0.982385
0.8717778741911152,0,0.979827
0.8312447591050245,0,0.923996
0.8003604126222743,0,0.935728
0.8922928525898592,0,0.930759
0.707348939374547,0,0.975226
0.8499353655458375,1,0.999563
0.9606181400033629,0,0.994646
0.6821117272335574,1,0.999242
0.8437065848593717,0,0.984973
0.5387506788251859,0,0.954266
0.9462765997860031,0,0.936917
0.8792370364684119,0,0.987185
0.608673704743784,0,0.910211
0.4621279431919261,0,0.967096
0.8689907670448093,0,0.972418
0.5434055962147999,0,0.981557
0.4485475304924362,1,0.995410
0.8040126611162057,0,0.951650
0.5200228109530377,0,0.880703
0.7249352049375157,0,0.981395
0.43198473134917686,1,0.998944
0.6132084702526553,0,0.980984
0.5400275748136678,0,0.970297
0.644144125843677,0,0.993510
0.7303722953239205,0,0.980233
0.5924592694316653,1,0.999569
0.8397709795184878,0,0.963138
0.6857288166177559,0,0.891663
0.43387078375385907,0,0.962409
0.6533386420002815,1,0.999516
0.7195580108744624,1,0.998923
0.7592736045168919,0,0.992981
0.6129821091640211,0,0.990422
0.955694775540055,0,0.977793
0.5905821108067427,0,0.986052
0.8261179268766281,1,0.999639
0.7345220220122664,0,0.995894
0.8721934127250122,0,0.960188
0.522115145017928,0,0.960856
0.5169999302757936,1,0.996955
0.5563362228580209,0,0.974490
0.6733426134573436,0,0.986342
0.6305090465631012,0,0.994932
0.9170042808158168,0,0.990603
0.8262258380256101,0,0.983730
0.5176515692724704,1,0.995829
0.7024368247615232,0,0.957925
0.6362026809121955,0,0.965894
0.5331093511438199,1,0.998950
0.3556608258774005,0,0.992115
0.4882000869150924,0,0.981154
0.5163054461511963,0,0.982202
0.32538779563177256,0,0.958795
0.4145543594423154,0,0.974855
0.8205258816441215,0,0.850559
0.6083536490225908,0,0.961660
0.7652224776846537,0,0.952678
0.8531319589315852,0,0.993682
0.7440609838876883,1,0.998866
0.5920981884395554,0,0.987479
0.4389949965659416,0,0.985538
0.6952303023347183,0,0.987133
0.6908277146433743,0,0.933311
0.5633904951798637,1,0.999045
0.421099680247937,0,0.990272
0.8045623229912069,0,0.969983
0.9169688425724971,1,0.999412
0.8978458116637338,1,0.999691
0.8316007198580956,0,0.953975
0.7481464082876519,0,0.981643
0.5646453200844933,0,0.993374
0.6367631372355264,0,0.954923
0.2945076309129923,0,0.994249
0.8801888900346557,0,0.911409
0.6419717318237967,0,0.943523
0.5715152273982711,0,0.987370
0.5150458097830797,0,0.982053
0.3923432871927592,1,0.998826
0.5154504094488916,1,0.999224
0.3287280902277881,0,0.991812
0.41156507741902404,1,0.999598
0.6881410560174015,0,0.992497
0.6425843755836058,0,0.964138
0.5511132622592065,1,0.999163
0.6229537663462525,0,0.994960
0.631186360764294,1,0.999705
0.5740799730421423,0,0.986347
0.4418139231711298,0,0.957389
0.7327753771583339,1,0.997374
0.4713423418923527,0,0.991728
0.7823563473387579,0,0.978806
0.8613476874781593,0,0.959913
0.667093792870504,0,0.941234
0.3934549494997101,0,0.988818
0.6971094208215103,0,0.953692
0.9806961280703631,1,0.999706
0.6165314527928094,1,0.999543
0.8202113261295019,1,0.999681
0.6330220518251439,0,0.946020
0.6371800041786138,0,0.963223
0.9747685431062629,0,0.991614
0.8184460875060711,0,0.981125
0.703141417762357,0,0.948503
0.9248663780158805,1,0.999584
0.6927562853952656,0,0.991645
0.6396238426593923,0,0.994610
0.6241957153611836,1,0.999551
0.8485243309070958,0,0.852972
0.6560835555650122,0,0.988657
0.724804253526299,0,0.945926
0.7660958089200685,0,0.957045
0.5967593839827507,0,0.965867
0.7585981296432596,1,0.999563
0.6182680366976581,1,0.999211
0.6296997616604432,1,0.999233
0.4587387657271089,0,0.919960
0.4895331485098535,0,0.994163
0.4458059555627251,0,0.974292
0.7260926313439513,0,0.981010
0.888076983072099,0,0.925826
0.4000133631725025,0,0.970454
0.845260567628926,0,0.934342
0.43745687884165,0,0.987866
0.43068799704317484,0,0.992421
0.6010394848379559,0,0.794944
0.7801438047906112,0,0.982271
0.4184042446255262,1,0.997290
0.41869446060264853,0,0.977633
0.5963265348838841,0,0.974359
0.8698499700713248,1,0.999611
0.7106853229701667,0,0.992954
0.43645336696368514,0,0.985208
0.722321361143532,1,0.996488
0.6044430429642813,1,0.999574
0.8500786423481707,0,0.924639
0.9501308608876644,1,0.997333
0.3934157920307701,0,0.978579
0.7490930669851951,0,0.976269
0.8691278683508314,1,0.999634
0.6517756291325776,1,0.999543
0.5419533894456009,0,0.972631
0.43538221143166944,0,0.932933
0.9049697408352747,0,0.971773
0.6341864034556612,0,0.695060
0.9425275289229813,0,0.989859
0.6609135408197623,0,0.993072
0.5435411354080176,0,0.990692
0.38494395438343354,0,0.993638
0.8988005999904528,1,0.996745
0.8282098568984902,0,0.986158
0.9525915910210556,0,0.979151
0.8311694546737135,0,0.990204
0.6193854579252847,0,0.955951
0.890833363946563,0,0.995051
0.5580607089055443,1,0.998497
0.5331124602396523,0,0.986526
0.4550374892057255,0,0.981353
0.6642337218314445,1,0.998849
0.7392076109844772,0,0.955402
0.4575308039340552,0,0.982590
0.970901270215682,1,0.999644
0.7052252636573492,1,0.997469
0.853326494840467,0,0.985591
0.7865597958930715,1,0.997344
0.948975553913944,1,0.998228
0.4439978493614772,0,0.992587
0.5308548026426665,0,0.969437
0.5168318622811283,0,0.985075
0.8238905940031412,0,0.989202
0.890832711669878,1,0.999643
0.5937966916022362,0,0.967296
0.8413682411723605,1,0.999240
0.43328396110876305,0,0.987024
0.575567867401492,1,0.999475
0.6508250980191365,0,0.939565
0.9472825565093037,0,0.963310
0.8833250225654309,1,0.999678
0.8913330833238563,0,0.988390
0.6347329688308728,0,0.991771
0.3952803160652085,0,0.933378
0.5335237454845712,0,0.980853
0.5604974346139279,0,0.946056
0.9747081791196565,1,0.998558
0.849160365181198,0,0.957265
0.8380127396223078,1,0.999673
0.6387161803931742,0,0.924488
0.3786136117510867,0,0.951812
0.8079027790172858,1,0.998387
0.9477562705499722,1,0.999342
0.5621067773968388,0,0.965887
0.9392152231030451,1,0.996908
0.8074247416884021,0,0.975875
0.7404724651275684,0,0.981595
0.6413203680117973,0,0.994833
0.6718155995861866,0,0.987762
0.7361623206242581,1,0.997544
0.5607404659797752,1,0.999568
0.730045551186031,0,0.977810
0.7511792665384137,0,0.981268
0.5964926656058309,1,0.996959
0.6192580185176209,1,0.996253
0.6866688229998832,0,0.991881
0.7237188530710588,1,0.999561
0.40087791554784413,1,0.999469
0.7965977453746218,0,0.971277
0.8272349619913947,1,0.999615
0.8670748329575477,0,0.994987
0.5233700248655354,0,0.981467
0.526363780813411,1,0.997610
0.9368185184619229,1,0.999174
0.41570156761915794,1,0.999611
0.7023785733601186,0,0.980132
0.7279398408368011,1,0.998824
0.5572530559527243,1,0.998321
0.29913876778547555,0,0.969179
0.7424707484721139,1,0.999689
0.6000261221108679,0,0.990366
0.9672566961738227,1,0.999090
0.9377693195721478,0,0.994032
0.6933071633810828,0,0.960465
0.6843258310587466,1,0.999657
0.6399154410842232,1,0.997015
0.6165966558718162,0,0.926508
0.6624526693962202,0,0.990604
0.9536277784185658,0,0.746914
0.40103056077063476,0,0.914685
0.7481620061572718,0,0.969935
0.4154358250805571,1,0.998663
0.9490221715834304,1,0.997921
0.6740755062871688,0,0.910361
0.7313317989295378,1,0.999592
0.48756490303772637,0,0.994340
0.4323231813176005,1,0.999284
0.761915887660786,0,0.897993
0.46311047632628327,0,0.971173
0.9068469801304864,0,0.963470
0.4610312413092189,0,0.981353
0.7244289394976098,0,0.952133
0.6595802767119132,0,0.983877
0.7881402052952483,0,0.936066
0.5701494959745322,0,0.990042
0.8865006884156361,1,0.999536
0.574096302075737,0,0.832303
0.5153127694880323,0,0.984296
0.8546799197830625,1,0.999618
0.4966101115385649,0,0.941693
0.8922359498366746,0,0.989971
0.3744838279153182,0,0.994758
0.5997065768084409,1,0.997141
0.41840108944964566,0,0.989540
0.6237676839859663,0,0.977716
0.6718227454837381,0,0.948312
0.6011869681900418,0,0.993766
0.49512326324075484,1,0.996252
0.8630862330044915,0,0.973407
0.8027672375048485,0,0.885602
0.5574172431250289,1,0.998205
0.6887710582767723,1,0.999627
0.6663398568503006,1,0.997803
0.3575343013637805,1,0.997454
0.6087334708583122,1,0.999553
0.8681503766005846,0,0.992453
0.7150566876432398,1,0.997359
0.7734425648863548,1,0.999308
0.8380047857886443,0,0.792967
0.3899707877311738,1,0.999208
0.3794991018725341,1,0.999264
0.8653611415661856,1,0.996016
0.4952282086772763,0,0.937627
0.7625789397627138,0,0.968489
0.414575086282482,0,0.916996
0.5923395130544393,0,0.857209
0.5230526066339487,0,0.957190
0.9793039453072109,1,0.998691
0.38637638723251266,1,0.999616
0.5521060791116267,0,0.946476
0.677972311024533,1,0.996706
0.5232933295844688,0,0.986755
0.8283047807237862,1,0.998192
0.9788040735390672,0,0.985115
0.5980194826994109,0,0.931363
0.5611279889485078,0,0.981641
0.48124929084826445,0,0.964316
0.3825312833687127,0,0.987938
0.9352189174422506,1,0.999643
0.9308611358240128,0,0.995715
0.607819938475787,1,0.999651
0.739160371955065,0,0.988315
0.8803989181898925,1,0.999636
0.7510320896290854,0,0.664901
0.9569238345383714,1,0.995743
0.7436288122463509,0,0.992518
0.7836952339743065,0,0.938617
0.9139657063780046,0,0.699054
0.8992159757265625,1,0.999560
0.859226337648486,0,0.969202
0.5440217888946676,1,0.994253
0.7565692116582423,1,0.998533
0.6683280710471592,0,0.988528
0.4037531284172292,1,0.995826
0.6771475011614841,0,0.879195
0.65702059801335,0,0.989228
0.7373024447189025,1,0.999541
0.8838178769107083,0,0.636986
0.4531785047060752,0,0.905704
0.3322662225092019,0,0.956861
0.8344043251986145,0,0.989161
0.8463208406613192,0,0.969084
0.4497198254602184,0,0.924568
0.5807091682417576,0,0.823529
0.5305793061880755,0,0.929386
0.6569110190127389,0,0.896010
0.5514837194410193,0,0.761795
0.8051428277080329,0,0.990650
0.38025488401441615,0,0.656747
0.569505157412578,0,0.675748
0.3290960067417722,0,0.637811
0.4609208625423138,1,0.998844
0.7738146373889517,0,0.825223
0.5356019772732132,1,0.998751
0.7741675398689601,0,0.918437
0.4912849355425422,0,0.989301
0.5218550287331607,0,0.992582
0.7031790634241402,0,0.993107
0.8763086800586855,0,0.986271
0.7127517327722808,0,0.969161
0.8375536287851603,1,0.994186
0.6262794410097039,0,0.992275
0.9776138413005024,0,0.993028
0.48316949201433046,0,0.996016
0.43508407974484953,0,0.771365
0.41933265835820605,0,0.876370
0.49617771582393405,0,0.968989
0.5888304960270268,1,0.998569
0.609108008243453,0,0.983627
0.6448225318329721,0,0.831081
0.46781027160252403,0,0.995501
0.40600197989946757,0,0.988958
0.8969035603015425,1,0.999404
0.6968348736097638,0,0.915224
0.8134835804675334,0,0.970082
0.8029044154821723,1,0.998977
0.9486743438104186,0,0.907642
0.5524198805890946,0,0.963546
0.9504987706097121,0,0.984127
0.4808012220728675,0,0.954198
0.847968665835168,0,0.971740
0.7280236328081172,1,0.999648
0.6643565992613673,0,0.993662
0.5579534885001477,0,0.962464
0.8197874326978153,0,0.985733
0.7068646571192465,1,0.998704
0.9034121365410714,0,0.984270
0.8656696060674551,1,0.997003
0.6042430093957739,0,0.976023
0.707016584865122,0,0.916825
0.5247117549890826,0,0.976599
0.3964161563963219,0,0.965644
0.8553149892077441,0,0.900812
0.8973541880004938,0,0.762672
0.6035564157316456,1,0.999612
0.5379607676707988,0,0.974878
0.9618243358445553,1,0.996936
0.8291969004310199,0,0.983231
0.36215569599106906,0,0.994237
0.3128846419303237,0,0.984156
0.7475360849095388,1,0.998314
0.8216059382111652,0,0.983226
0.932033022020768,0,0.952069
0.7394485424239775,1,0.999572
0.6348287717332352,1,0.999336
0.7302369174354418,1,0.999153
0.6881827340186512,1,0.998763
0.9084343954173821,0,0.974375
0.5210576069514533,0,0.958852
0.4246743915983107,0,0.993562
0.35491100074947923,0,0.980424
0.4542545027949543,0,0.945190
0.6728653136140293,0,0.993126
0.539098616945235,1,0.999291
0.687877574653229,1,0.997258
0.8976822296323547,0,0.976073
0.960340837182437,0,0.826489
0.6485645303324165,0,0.995082
0.7354888437248239,1,0.999624
0.815369700488204,0,0.995797
0.4376385724217789,0,0.973149
0.7393403166033587,0,0.981247
0.9267552602211998,1,0.997616
0.8935870318842686,0,0.960000
0.7223743388738895,1,0.999216
0.7072143386869426,0,0.768248
0.8496457242015698,0,0.978358
0.5218200020486715,1,0.999280
0.6967589960647296,0,0.935189
0.5345567122957855,0,0.991730
0.8631704296517352,1,0.998175
0.8145505975051529,0,0.992156
0.8361125502459884,1,0.997496
0.7820235201207628,0,0.978714
0.7840545190861766,0,0.989821
0.7904205891906009,0,0.961567
0.9394258198259386,1,0.999214
0.9401827478961253,1,0.998474
0.7577630355658983,0,0.918653
0.6579111826332832,0,0.979818
0.40360781137264085,0,0.971572
0.7693750976442066,0,0.990801
0.9195106052750657,0,0.983983
0.6173864162535105,0,0.988194
0.5996061092989974,0,0.941433
0.7679009843048027,1,0.997905
0.7906438067530472,0,0.860129
0.9110404576030171,0,0.929931
0.9842010793371246,1,0.999375
0.9178260124906201,0,0.975470
0.4394278459834123,1,0.999082
0.4511463646032762,0,0.985137
0.5654713634597421,0,0.990665
0.8458315724830072,0,0.984362
0.8024737456832186,0,0.965646
0.49406157073072415,1,0.998678
0.9374841117198618,0,0.989842
0.6940241357099579,1,0.999417
0.5267154661595168,0,0.988953
0.5635219701458384,0,0.985106
0.40831740313301695,0,0.981183
0.7607481458171307,1,0.999600
0.65685417438073,1,0.996749
0.5018897339529319,1,0.999645
0.968164629874322,1,0.999620
0.9506897785835495,1,0.999701
0.636087301452941,0,0.955525
0.5044685608061119,1,0.998943
0.692768724788271,0,0.973149
0.913875869580885,1,0.997454
0.38937484516198606,1,0.998228
0.7463978755584666,1,0.999645
0.8076890561971327,1,0.997594
0.772172079637944,0,0.959441
0.9089492379723147,0,0.955713
0.760496771127588,1,0.998067
0.5857334589357712,1,0.999623
0.5643226949364276,0,0.976961
0.8702054630116928,0,0.989869
0.7023768541729736,0,0.993579
0.836350442659978,0,0.988104
0.41575460175872475,0,0.986903
0.7551227453910224,0,0.980945
0.7924143392966652,1,0.999486
0.8625514165924829,0,0.994872
0.8315885879926648,1,0.999061
0.9305274415814655,1,0.998415
0.7557103761625671,1,0.997247
0.8618129930600303,1,0.997049
0.38572626710684343,0,0.981629
0.5688983219952023,0,0.989271
0.6699631870842041,1,0.999527
0.3989772721890212,1,0.997817
0.7345521081871562,1,0.999597
0.7452360794273472,0,0.977377
0.7038112415137412,0,0.986145
0.4405565271636545,0,0.949954
0.5692269634626492,1,0.999703
0.4501637111696226,1,0.998261
0.5752217321798776,1,0.998425
0.8227001958768233,1,0.996378
0.9835846795672971,1,0.998706
0.6662785155959748,0,0.927599
0.42726531768399,1,0.998944
0.3870507947935202,1,0.998894
0.4005478059712528,1,0.997965
0.5994587508819138,0,0.773102
0.9492749013598331,1,0.994555
0.9159896709645602,0,0.991653
0.7221873528469733,1,0.999576
0.7635990532726414,0,0.981027
0.665648116238437,1,0.999336
0.9653171662819249,0,0.992292
0.7920367073452729,1,0.997246
0.6698251866004994,0,0.897766
0.5864662824202787,0,0.940299
0.8180367600822027,0,0.921491
0.36950308236251933,1,0.999614
0.8791509045325165,1,0.998611
0.45249867886684864,0,0.968705
0.6255265908699775,1,0.999631
0.6718874908199846,0,0.987238
0.7282452021828467,1,0.997294
0.9426017345241797,0,0.924431
0.3482731817250477,0,0.942589
0.7781473969150281,0,0.962313
0.494881964431649,0,0.991319
0.7604951092495816,1,0.998785
0.7348985861948375,0,0.994129
0.4045675417768714,0,0.800000
0.3489226257944844,0,0.950752
0.6550244511671466,0,0.985808
0.8282486637955431,0,0.706496
0.8986853423728842,0,0.990053
0.9061147719985727,0,0.988199
0.7594966759166785,0,0.985256
0.7769822198449503,0,0.784147
0.7119191326964064,1,0.999535
0.866998276365857,0,0.987895
0.4972872184146787,0,0.935138
0.6879041638428645,0,0.957021
0.6346289571778715,0,0.982631
0.5411675953735473,0,0.975783
0.5912790648906282,0,0.952583
0.6447418507409715,0,0.955184
0.7176864489415627,0,0.979009
0.5327392932189452,0,0.970806
0.4661855677753085,0,0.979742
0.5277200908834182,0,0.916247
0.6822514653138676,0,0.892777
0.9590139044247424,0,0.984874
0.7888579731751768,0,0.896284
0.9296324143211411,1,0.998758
0.5306388398155432,1,0.995930
0.488835849325352,1,0.999538
0.7397610081979956,0,0.992239
0.39875409221038605,1,0.999360
0.6652352223231036,0,0.980777
0.9286102346806901,1,0.999617
0.780410025612171,1,0.999590
0.781567051356903,1,0.998861
0.6697958173825445,1,0.998631
0.9708563815866053,0,0.981287
0.4528620265790378,1,0.999540
0.5108450040521474,0,0.991560
0.5806939488000875,0,0.915650
0.6381638683607028,0,0.985856
0.58543438268149,0,0.987442
0.5839913401845154,0,0.995851
0.8950213554109674,1,0.999629
0.7568753782562597,1,0.997352
0.7271803454487044,0,0.965830
0.60394125346977,0,0.897944
0.8547771617835609,1,0.996631
0.6435575490240761,0,0.837366
0.7859103779214915,0,0.957907
0.7029534852981734,0,0.965085
0.7423164208096656,0,0.965885
0.9354598717752893,1,0.999706
0.751580838553369,0,0.994061
0.8173244667945364,0,0.968313
0.7105270509212961,0,0.992911
0.44638663894680924,1,0.998450
0.6592970070088797,0,0.915605
0.8094146889791123,1,0.999536
0.6408778022335011,0,0.975239
0.3742046796060015,1,0.996375
0.9686526600898594,0,0.965000
0.6949809504298955,0,0.970976
0.9585169272061022,0,0.963415
0.43915819219682684,0,0.988395
0.6874252963578887,0,0.947213
0.9768117616385963,1,0.996862
0.3936991588379082,0,0.966667
0.6178710514923532,0,0.976291
0.9617174837329394,1,0.999668
0.940369032665787,0,0.934812
0.8403379928677558,0,0.989081
0.4394433590543462,0,0.716997
0.840305420890919,0,0.996747
0.6629662677651814,0,0.994604
0.5133580501559408,0,0.960685
0.8317750305963862,1,0.999484
0.4050106974930101,0,0.944935
0.729464908406408,1,0.999620
0.3625921468847304,1,0.995802
0.48447222131268897,1,0.999581
0.6706542958015204,1,0.998064
0.49027245578309886,0,0.979401
0.6866988378387464,0,0.979778
0.6026359811876364,1,0.999542
0.791090002013557,0,0.974951
0.8761767871061056,1,0.999421
0.8316716789469561,0,0.901048
0.5238562057547821,0,0.987455
0.905758189911678,0,0.984268
0.5517594757356613,1,0.992474
0.9786044492348857,1,0.997880
0.3752501740002144,0,0.974232
0.9091803081198865,1,0.998950
0.62298893830833,0,0.851365
0.7414386879697517,0,0.880819
0.6749201183266502,0,0.974817
0.5658147779748602,0,0.941646
0.7944621823735594,0,0.970971
0.7972949193162578,0,0.895039
0.8567878733892244,0,0.963097
0.5640433150473207,0,0.971670
0.8248603906084905,1,0.999385
0.5252485328061915,0,0.871297
0.47738870186047744,0,0.852397
0.7899082480793248,0,0.994024
0.8496159770255621,1,0.999685
0.6131308297603759,0,0.991337
0.4199219974880592,0,0.955317
0.8063841421733325,0,0.967066
0.9593620186601044,0,0.992336
0.4024954298074481,0,0.993243
0.6708137893801214,0,0.990950
0.544037018191642,0,0.974959
0.7043769661401618,0,0.934001
0.8606002337579332,0,0.987759
0.6410800903647224,0,0.953111
0.9416831454472835,1,0.998781
0.8782535657250805,1,0.999579
0.7610333960295754,0,0.992498
0.8059245282328504,0,0.966194
0.7322001130901966,0,0.979786
0.40236600071985723,0,0.986870
0.9264623469390414,0,0.949936
0.3555786760270394,0,0.969104
0.96370312408682,1,0.999578
0.8389254621160236,0,0.994318
0.8272455066337714,1,0.999634
0.7927250917548962,1,0.998398
0.625287622434755,1,0.997613
0.7434241332743253,0,0.991561
0.5078467870633318,1,0.997621
0.6826380942600961,1,0.997962
0.637294698368676,0,0.993818
0.5256237150582703,0,0.960695
0.799853456270477,0,0.921827
0.8362589885217513,0,0.987427
0.7497596196403514,0,0.987238
0.26373840187015773,0,0.883853
0.4857610138651509,0,0.978682
0.4589980282636397,1,0.996236
0.3563257352112249,0,0.968990
0.3994298343508218,1,0.999534
0.6240831363847187,0,0.960526
0.5912685468657389,0,0.832277
0.5153707592058612,0,0.942412
0.9793809287944956,1,0.997312
0.8985718388708107,1,0.999464
0.7957968748734309,0,0.927410
0.7315119056602819,1,0.995195
0.9694033078761086,1,0.999527
0.5052798539678446,0,0.906700
0.8391422577372025,0,0.946981
0.3963666560556136,0,0.949813
0.5869375956616614,1,0.999661
0.5921379391536181,0,0.859524
0.7172746554886127,1,0.998973
0.801985033976976,1,0.998614
0.6209142882063439,0,0.967873
0.6908841659204246,1,0.996359
0.46144811699357113,0,0.954607
0.6174589502834671,0,0.947903
0.649979628270379,1,0.998547
0.9374687963327665,1,0.999211
0.6521650222957537,1,0.999599
0.42108452617998837,0,0.989142
0.7232016711996357,0,0.813656
0.9199252434601216,1,0.997358
0.39401906155695327,1,0.998661
0.5339152035651994,0,0.983397
0.5985305778464733,0,0.903135
0.8558623588729684,0,0.990900
0.9380103301169713,1,0.999117
0.7060175071243409,1,0.994845
0.5336603610591384,0,0.961048
0.9418751079678788,0,0.994494
0.5470603809520254,0,0.972386
0.9075733404122039,0,0.983180
0.7647350935439371,0,0.993064
0.6961999073463475,1,0.999586
0.9123606875879939,0,0.986019
0.778021879442805,1,0.999128
0.597840862835854,0,0.995586
0.5276915561367941,1,0.999194
0.6832340807345624,0,0.975866
0.9188943028634348,0,0.994838
0.8754944682158127,1,0.999540
0.6992538631694298,1,0.997789
0.5165050775245361,0,0.974041
0.8806624556207427,0,0.881540
0.7654998368554685,1,0.997891
0.9513182043097397,1,0.999608
0.7312514807410443,1,0.995716
0.46023590621933813,1,0.997807
0.8169880128285041,0,0.992945
0.5583051812836514,0,0.977794
0.5366969588949843,0,0.989765
0.9611251462245818,1,0.996756
0.9907191420336617,0,0.824875
0.6441968821182219,0,0.964842
0.7314589891949821,0,0.949183
0.5024988767133247,1,0.999569
0.7801274617095555,0,0.942958
0.6376211130923903,0,0.991266
0.5876997998265516,0,0.974392
0.6215116850560733,1,0.996273
0.9362776591473674,1,0.999593
0.542444704401051,0,0.990788
0.9314859779795993,0,0.976497
0.5221421665673041,0,0.762033
0.7096245086124185,0,0.914882
0.4135202637919924,1,0.999119
0.5192739238811092,0,0.969916
0.7550503937775295,1,0.998780
0.7076411078928537,0,0.774228
0.7009591649292122,0,0.988436
0.6081507704908631,0,0.986946
0.4678993786255515,0,0.890523
0.6944840552113585,1,0.999604
0.7696933410644352,0,0.883472
0.7734035520937741,0,0.943126
0.5319598533102831,0,0.941481
0.4152554259665915,1,0.999464
0.3204099179838096,0,0.993862
0.8486367092130698,1,0.996311
0.7241693157375987,0,0.994071
0.9226283484814906,0,0.977160
0.8271324153576586,0,0.992485
0.5624091792104503,0,0.718835
0.47947814374387826,0,0.985646
0.48413082343471653,1,0.999665
0.6048826464707574,1,0.999166
0.5988527100469857,0,0.968126
0.9128913323307383,1,0.999626
0.5496831629351973,0,0.955911
0.5545289348722311,1,0.996141
0.82313678650219,1,0.998262
0.9273688299834935,1,0.998668
0.9309193580733577,1,0.998754
0.49844372482977856,1,0.999443
0.76678046366342,0,0.818841
0.7146640609530894,1,0.999428
0.5577298587299964,0,0.873002
0.8258943920476335,0,0.957447
0.81374243785952,0,0.994079
0.416443863805629,1,0.997336
0.5379116066224848,0,0.950192
0.4767581409061049,1,0.999590
0.3329548247391912,0,0.902527
0.8410481348817271,0,0.949418
0.823751917417829,1,0.998568
0.7228783072528202,0,0.992740
0.9427542519552513,1,0.997931
0.7471488956983262,1,0.999532
0.9187648710773448,0,0.948749
0.7500294615774086,0,0.986386
0.7202578261062219,0,0.985708
0.7958346580822188,0,0.920130
0.7347991337651704,1,0.999662
0.5902974377877572,1,0.999597
0.7309555825117567,0,0.996726
0.6235571441348157,1,0.999683
0.3514672414053646,0,0.927152
0.8631743706937536,0,0.990616
0.5898550462734647,1,0.998731
0.7686406615358767,1,0.996210
0.35930880466902904,0,0.888629
0.48021686727436325,0,0.973082
0.9310650602203954,0,0.941779
0.9385338694683801,1,0.999471
0.9601139671901029,0,0.782072
0.9519908299601462,1,0.999672
0.9665208522005871,0,0.796029
0.6724033170313278,0,0.975933
0.5007098032468588,0,0.630261
0.6605929037783428,0,0.974441
0.9327423138976568,1,0.998324
0.9918961355391893,1,0.998821
0.936207850755565,1,0.996210
0.5083474413304545,0,0.948287
0.6564497272892934,0,0.994356
0.7715351437236476,0,0.975024
0.7857290503246088,0,0.947394
0.8592395368945495,1,0.999556
0.8193230814824941,1,0.997540
0.4911452569267559,0,0.983347
0.8381674049626239,0,0.818724
0.6805874271033717,1,0.998273
0.9536945196276777,0,0.972566
0.6737584526262899,0,0.989823
0.722031710822495,0,0.987467
0.5501261112520334,0,0.984060
0.4045286314893015,1,0.996540
0.8093088225127834,0,0.988376
0.4180965836309091,0,0.934136
0.7511253621293195,1,0.998345
0.7840020592007874,1,0.999580
0.35785989320687017,1,0.999540
0.6412050127283283,0,0.988462
0.523145221840382,1,0.998252
0.8177518013032493,1,0.999047
0.7397549872487474,0,0.977957
0.45430516371714347,1,0.998333
0.8504718289855071,0,0.987900
0.5313363790587563,1,0.998035
0.5258485899423708,0,0.736974
0.34963377978598237,1,0.999123
0.9226910069335079,1,0.999451
0.4669964625297149,0,0.911556
0.5152606229993518,0,0.912648
0.9811977494460402,1,0.999484
0.62428253661671,0,0.981505
0.7404366946743092,0,0.988946
0.8808775442263046,0,0.992630
0.85813602480731,1,0.999537
0.679588402614536,0,0.982923
0.3553065710550991,1,0.995520
0.8570993798836226,0,0.917691
0.8135472360921877,0,0.977470
0.6493751462434459,0,0.985369
0.7838065641559661,0,0.981382
0.7029283006546109,1,0.998077
0.76471257575899,1,0.999633
0.8910465135556227,0,0.937298
0.4867134885529989,0,0.994691
0.6635249719422202,0,0.969917
0.3717954188993607,0,0.995516
0.7046948109674736,0,0.992973
0.4831092781066592,0,0.987086
0.86214337596297,0,0.993815
0.6376165047802211,1,0.998860
0.6695717186472518,1,0.999672
0.7362219125183069,1,0.999621
0.5793057680335865,1,0.998022
0.32028305052924405,1,0.998926
0.877961381221274,1,0.998965
0.6880773180986687,0,0.967662
0.6010179589304538,1,0.998819
0.49178594117080204,0,0.963850
0.259193721952649,0,0.963801
0.9769903699402396,1,0.993188
0.5635508786929142,1,0.999506
0.9656331182437143,0,0.931387
0.9556208830579016,0,0.985144
0.9361867193141884,1,0.999703
0.7695917358422462,0,0.867720
0.5938367992076797,0,0.957464
0.949070584774868,1,0.998738
0.8374182404878661,0,0.948467
0.651998577534087,0,0.954288
0.4832573243616751,1,0.999541
0.9419201889614803,1,0.999609
0.5648043945728957,1,0.998760
0.8589498467643372,0,0.993025
0.48062100847096956,1,0.996627
0.46656752814122504,0,0.984449
0.6246383416206291,1,0.999596
0.9286442057528467,0,0.994863
0.6299618119019547,1,0.998514
0.6523547842025024,0,0.988056
0.8530339782571418,1,0.999685
0.685102222926345,0,0.983051
0.8080785072903077,0,0.951163
0.4346331750983261,0,0.980713
0.6468542003130239,1,0.998939
0.5504580241177511,0,0.988676
0.5149733862944195,0,0.973956
0.7801612090209591,0,0.986014
0.7046895250331021,0,0.961583
0.9292163131316539,1,0.998195
0.6119615650001421,0,0.991634
0.8437334192816925,0,0.965288
0.6415115500639785,0,0.958524
0.813393222116934,0,0.980484
0.7429420838265252,1,0.999243
0.9953791298426657,1,0.999549
0.8366784463531268,1,0.999643
0.6548120618948241,1,0.998736
0.657191375239723,0,0.990164
0.8175115433669856,0,0.886567
0.6164360083246698,0,0.982456
0.7164476305477188,0,0.992969
0.9246291347791918,0,0.994624
0.3958155991355612,0,0.973262
0.9684583129774769,0,0.958955
0.9560072012700747,0,0.980194
0.5802735185021971,0,0.989790
0.9455369477303366,0,0.984630
0.6606090394865556,1,0.997951
0.903089142033395,1,0.999550
0.5136296969208578,0,0.991864
0.9453609654718691,1,0.999080
0.3496312876009246,0,0.983327
0.7373411071003033,1,0.999617
0.878499722052663,1,0.999671
0.7766727451664609,0,0.967702
0.925583787264285,0,0.927441
0.6437879533101063,1,0.996715
0.9452107219407357,1,0.998877
0.5019559755133742,1,0.996192
0.8372009498126229,0,0.972284
0.8895539531972395,0,0.988285
0.41916865749338383,0,0.985915
0.7743222392192599,0,0.991456
0.8864780128078882,0,0.975192
0.6760960802571793,1,0.998411
0.6759446414046719,0,0.984436
0.9340165699785846,0,0.974099
0.8246071388708057,1,0.999620
0.5290985943717189,0,0.987630
0.3401644429652397,1,0.995560
0.939795386526517,1,0.999616
0.8447536156905487,1,0.999336
0.8799820875120848,1,0.999671
0.47473822041321484,1,0.999572
0.621243152375576,0,0.991618
0.4802715322056271,0,0.986248
0.7853058786623837,0,0.991068
0.6494242884662778,1,0.996992
0.6688525610146275,0,0.993776
0.9148439229705594,0,0.996497
0.3711158026826556,1,0.996412
0.662450449852806,0,0.992386
0.6283486556074019,1,0.999595
0.6998958040165505,0,0.984009
0.8482584279477479,1,0.999405
0.3510888751514949,1,0.999322
0.6372737463360445,0,0.900737
0.7765990750994254,1,0.999483
0.6947681980855365,0,0.976825
0.8930918169171764,1,0.999705
0.4518990799542947,0,0.959354
0.9326271742181879,1,0.999473
0.9998959051117323,1,0.999680
0.9376070966754575,1,0.999582
0.900674561843937,0,0.977273
0.6078737066579087,0,0.983107
0.5376319372206324,0,0.976106
0.8385332886636757,1,0.999608
0.7783873868229425,1,0.999434
0.7172427317109514,1,0.995415
0.7498850454407185,0,0.976744
0.6975037108054819,0,0.939418
0.6768520281326879,0,0.988135
0.49625041834145256,1,0.998372
0.619030787788808,0,0.980366
0.7058731314943844,1,0.999645
0.51877405115765,0,0.988618
0.9710482193314305,0,0.983313
0.4764826129688524,1,0.999557
0.7609175739338712,0,0.911777
0.5018938085557129,1,0.999590
0.525412873208749,1,0.999539
0.8746266441304341,0,0.984848
0.8489707139346454,1,0.997135
0.5875208872341489,0,0.957600
0.658987137399225,0,0.986627
0.4358188710263371,1,0.998621
0.831162310078931,1,0.998586
0.33552849362395887,0,0.979684
0.9604692119383412,1,0.999321
0.4527451179468297,0,0.692015
0.4588673733480916,0,0.580196
0.7174396858452189,0,0.994786
0.5761210245717797,0,0.607033
0.6919613550571041,0,0.768945
0.9908952206226914,1,0.999517
0.5917050392719121,0,0.959354
0.5033424290255597,0,0.991028
0.8113431656799133,1,0.995819
0.8410619052581412,1,0.997194
0.6116026260486876,0,0.977134
0.4575100574034403,0,0.908672
0.5827441519664905,1,0.995847
0.6148447939775431,0,0.970518
0.4757944967458954,0,0.916427
0.7923204644067603,0,0.963223
0.48122924179946425,0,0.993704
0.39702378897905555,0,0.989616
0.9782963143611958,0,0.867880
0.6985275460325898,0,0.990702
0.30020485154997184,0,0.991233
0.5377233655709076,0,0.978455
0.8988319115244318,1,0.999521
0.4468897496122513,1,0.999251
0.9212788986922057,1,0.999481
0.9568458748764146,0,0.995693
0.49245513968200977,0,0.923739
0.819070197411656,0,0.987749
0.8333783561855062,0,0.986213
0.6178854368055688,0,0.964213
0.8308268581559839,0,0.953520
0.6609437704363289,0,0.976962
0.47356248508036747,0,0.960676
0.8303302006913366,0,0.979645
0.8948670825362167,0,0.989362
0.6614594883718966,0,0.970004
0.8042010485945963,0,0.983879
0.8379089708978908,0,0.984772
0.7059809553088203,0,0.972002
0.5394790623149666,0,0.990418
0.5405422679978075,1,0.997540
0.719157640857804,1,0.999583
0.8914840351896085,0,0.994688
0.42378481216438435,1,0.997653
0.5122861148966744,0,0.991855
0.5790566298552594,0,0.972307
0.9181472329553801,1,0.998874
0.5504345566868571,1,0.995261
0.8085541490440472,1,0.999579
0.3333038568455359,1,0.999609
0.9721148245089093,1,0.999583
0.8830452502710829,0,0.912962
0.7188525247187433,1,0.998173
0.9231251977270207,0,0.990152
0.709308893295815,1,0.999386
0.9159785387903303,1,0.999475
0.9774914463777699,0,0.991487
0.6801954593240962,0,0.971922
0.4449793738163532,1,0.997804
0.6309565005787403,1,0.999480
0.3920550277913026,0,0.948703
0.9473974559949295,1,0.996180
0.6810900624686396,0,0.852832
0.7107553557545713,1,0.996613
0.42826689852229916,1,0.999499
0.785425650687201,0,0.953788
0.649367007612547,1,0.999564
0.5392640180054145,1,0.999593
0.4369988115880739,1,0.999624
0.7085430501917458,0,0.921516
0.5843393328996975,1,0.999466
0.6109304453561246,1,0.999690
0.47983247972961496,1,0.997529
0.8469639483071955,1,0.998623
0.2817697055395873,1,0.997238
0.3948984777072368,0,0.975934
0.7606586681226502,0,0.989765
0.9746344982325249,0,0.972680
0.7605048008700043,0,0.989164
0.9720358717626487,1,0.999696
0.9176024389293606,0,0.994243
0.4455859053487205,0,0.992161
0.4999157802372339,0,0.926193
0.41287513251120495,1,0.999614
0.6190324024428411,0,0.942831
0.6665808834108032,0,0.966790
0.960205091983431,0,0.992388
0.7053022351954549,0,0.989890
0.5699044497946469,0,0.979062
0.6078105792987984,1,0.998279
0.9851053393438955,0,0.914248
0.6470626088110444,0,0.883734
0.985217658868732,1,0.999648
0.5968065543149708,1,0.999614
0.4474753805061403,0,0.967060
0.37349104741422606,0,0.987985
0.26563217036587994,0,0.991349
0.7579900673127881,1,0.998383
0.9259180315013851,1,0.996558
0.9152525120890643,1,0.999666
0.43478928398215466,1,0.999150
0.5396517225862438,0,0.943575
0.42740063909705917,1,0.999476
0.48920084255308904,0,0.982662
0.7963334584348916,0,0.958163
0.832857641213321,0,0.994251
0.5960912751160967,0,0.973558
0.9473780082513881,0,0.987030
0.5347885056140252,0,0.985490
0.49306769040757437,0,0.980934
0.4827015866678846,0,0.961555
0.40196510605321445,0,0.994890
0.9330690971415949,0,0.995209
0.5067630417722592,1,0.999649
0.7713857436908644,0,0.993010
0.46905903023392087,0,0.949420
0.7193550088201811,0,0.964890
0.4728244671900568,0,0.976901
0.3631090632927588,1,0.997340
0.8748872112188422,0,0.980182
0.45539283324621305,0,0.993017
0.640475369673246,1,0.996148
0.5746290795243185,1,0.999479
0.34741894967085396,1,0.999280
0.8058234245702409,0,0.994581
0.7102888821573776,0,0.954628
0.7728740320323058,1,0.999568
0.6518897950576121,0,0.902460
0.8220859600293646,0,0.987524
0.5449071472989414,0,0.965950
0.40287812108756443,0,0.969127
0.5270518963908126,1,0.998235
0.84093900908159,1,0.996702
0.5627093490649882,1,0.999525
0.8588680250881672,0,0.944203
0.6564982834660402,1,0.999011
0.8409367292564971,1,0.999079
0.25212912800411513,0,0.988622
0.5057220302787864,1,0.999546
0.4985282882576804,0,0.942406
0.98172653552639,1,0.999682
0.5831464079128112,0,0.960219
0.9216312561240187,0,0.922078
0.7724271115547637,0,0.973971
0.5496889860695601,0,0.987002
0.8302252688871495,0,0.987094
0.798622722192434,0,0.993145
0.8785673504290021,1,0.999633
0.5026112886824491,0,0.989607
0.7054106589161852,0,0.951045
0.5259201152746779,0,0.961222
0.7378731389132597,1,0.999502
0.6034575974318732,1,0.999486
0.8908137005975593,0,0.983957
0.6438760727531382,0,0.984190
0.4619218137935449,1,0.996417
0.4456739470138349,0,0.939313
0.8797242639756684,1,0.999605
0.4702136955023027,0,0.975364
0.7301693533461482,0,0.984213
0.7178890183774169,0,0.768698
0.9130441222243949,1,0.998098
0.46344632520431867,1,0.997693
0.9492489362859209,1,0.999582
0.5512509307421658,0,0.938525
0.45808255035926365,0,0.991897
0.43569208309656304,0,0.979749
0.4257047936759188,0,0.992114
0.9432756963413674,1,0.999479
0.8837929928254338,0,0.851485
0.48607378065590306,0,0.903051
0.40275625602874715,0,0.640459
0.8174159710229054,0,0.942117
0.5173366000709918,1,0.998671
0.5173372535225792,0,0.977113
0.44592944186447103,0,0.988245
0.4544927375028819,0,0.959285
0.9386747472604313,1,0.998975
0.7193927938223336,0,0.921908
0.4102203007552685,1,0.999438
0.5396998430074919,0,0.987443
0.8696948252695599,0,0.976912
0.616184410902639,1,0.999514
0.5944874275632004,0,0.994486
0.6238904818577725,0,0.977179
0.4945937567985432,0,0.992514
0.6392189589495657,1,0.999653
0.7907002197089757,0,0.981569
0.8651420794194385,1,0.999425
0.6413225446509213,0,0.995938
0.8268245866916117,0,0.919654
0.5676468955326813,1,0.995692
0.7031744972921894,0,0.984016
0.7728867037463542,1,0.997452
0.9845713248540964,1,0.995076
0.5915288460410029,0,0.991437
0.7635953275531719,0,0.940276
0.5383862374687772,1,0.991133
0.8069535458772986,1,0.998667
0.6258422209389419,0,0.946710
0.9514840198735998,0,0.896360
0.6941321754053257,0,0.880879
0.8349590033007992,0,0.995557
0.3594366209519366,1,0.995616
0.5669801201100316,0,0.957552
0.731228706467738,0,0.883387
0.3856106612267579,0,0.957096
0.4034820985917814,0,0.982025
0.46984339153127014,0,0.980591
0.4955336135319024,1,0.999446
0.3625246646301307,0,0.939844
0.938632731902103,1,0.998733
0.5480839699970931,0,0.989782
0.48684037277874476,1,0.999347
0.5563507044608105,0,0.990546
0.4997787391096105,0,0.983159
0.4077630990009888,0,0.898747
0.913946581642501,0,0.972103
0.8370567292564552,0,0.853659
0.6201588577114616,0,0.987774
0.7256549464645323,0,0.944947
0.555587825014591,1,0.999635
0.596597791315794,1,0.999497
0.8256049864205012,0,0.981452
0.6930399813314292,0,0.984949
0.5815714081650527,0,0.993830
0.7827306358173467,1,0.999562
0.545174411152978,0,0.996299
0.7546214955558376,1,0.996960
0.479572498072937,1,0.998805
0.8026808394097273,0,0.978278
0.7460118493116152,0,0.985806
0.777529617217685,1,0.999371
0.7325105782919185,0,0.974170
0.5504453652362473,0,0.865510
0.49202332062674914,1,0.998898
0.9447691739775309,1,0.999449
0.6377350653689992,1,0.999563
0.8843891699943289,1,0.999628
0.8552782612562296,0,0.941208
0.5609906289515006,0,0.995531
0.691920084442094,0,0.994656
0.5178936994727332,1,0.999129
0.2817325144643317,0,0.971859
0.5898396113835144,1,0.997676
0.5159369683948825,1,0.996356
0.6150051173795797,1,0.999699
0.8944085106326745,1,0.999144
0.7749032780687061,0,0.981166
0.5938840736612778,0,0.973623
0.8301218569338699,1,0.995018
0.8211816223038925,0,0.947106
0.5660917100809177,0,0.950096
0.959557140233051,1,0.999668
0.47872087990158924,0,0.853838
0.9446995115001486,0,0.864324
0.9420219867932164,1,0.999686
0.7324213464493707,0,0.962009
0.4620203394018314,0,0.955936
0.5873989536226473,0,0.951549
0.5199585091780837,1,0.996694
0.37163896047880995,1,0.998545
0.5088124060420219,0,0.962994
0.34928144277704815,0,0.987158
0.8199580974417162,1,0.998078
0.5745744419652914,1,0.998815
0.9785245033680638,1,0.998462
0.7633591046664696,1,0.998011
0.6073094708250547,1,0.999322
0.5979808082081506,1,0.993976
0.42300922522925605,1,0.998596
0.541081012808785,0,0.872052
0.701715429051488,0,0.991649
0.2544380865412602,0,0.974977
0.8137721989694776,0,0.769297
0.5769608992292323,0,0.954691
0.7652154560982903,1,0.998713
0.9255396723529032,1,0.996542
0.6601059862134633,0,0.989136
0.9037275502162655,0,0.981044
0.3939283776052652,1,0.999646
0.6285502931814061,0,0.917317
0.7498741885641967,0,0.995784
0.6584028063547519,0,0.879495
0.6532754841239389,0,0.887709
0.5629668668847767,1,0.997230
0.35533749855993196,0,0.917154
0.9385679368891384,1,0.999270
0.586748310941097,1,0.997587
0.6420496410788952,1,0.993769
0.46123971574730865,1,0.997613
0.965755927948519,1,0.998754
0.8299679138684406,1,0.998627
0.4919328452754778,0,0.990909
0.7512889490778624,1,0.998759
0.4553420869422822,0,0.988385
0.3947553817739413,0,0.990505
0.6708011828686652,0,0.969639
0.8190128562361834,0,0.992021
0.7832158769102155,1,0.999564
0.9664132013257191,1,0.998775
0.9598970272994408,0,0.993588
0.4891261245506876,0,0.994120
0.6403354886918333,1,0.999648
0.663140191403146,0,0.953683
0.48810559462394454,1,0.995057
0.8948605058415593,0,0.971144
0.8397313161667472,0,0.882837
0.6780020372344534,0,0.801348
0.6677709966847964,0,0.989370
0.6853686051836533,0,0.984933
0.4017816574369644,1,0.997636
0.6752019682489017,1,0.999606
0.5101569873115245,1,0.996640
0.8577085850088835,0,0.990182
0.8624149428906398,0,0.978753
0.777260323815616,0,0.712602
0.7104658654280279,0,0.767703
0.6145643745091632,0,0.878675
0.6511759314918512,1,0.999037
0.7675713592902459,0,0.938829
0.9118322649687706,1,0.997502
0.7066698745978901,0,0.989326
0.6745137384079198,0,0.816315
0.9927449452682202,1,0.997770
0.7197952981963126,1,0.999705
0.5434611009248257,0,0.970930
0.6660687465391383,0,0.986001
0.578559966967137,1,0.999491
0.5466830498591124,0,0.986254
0.5163927168067474,0,0.987507
0.6379394148980753,0,0.991893
0.8240596574905303,1,0.998900
0.7242003139871562,0,0.945257
0.9033344108911081,0,0.950627
0.705623854645963,0,0.872311
0.6820313365570579,0,0.995002
0.5247605298808531,0,0.991593
0.859146343505299,0,0.979547
0.6020657995686278,1,0.998475
0.7704167858404863,1,0.999339
0.6080679657681043,0,0.963710
0.7232907449234625,0,0.977374
0.9599918713130788,0,0.820171
0.5946428818872058,1,0.999635
0.741480432232378,0,0.992681
0.8246056302840219,0,0.886273
0.5825774750304956,1,0.997242
0.7913802383028545,1,0.999566
0.7858630609641151,0,0.967305
0.648391080787691,0,0.995507
0.6094680034653004,0,0.973565
0.7059278727894556,1,0.996954
0.5295619829856415,1,0.999197
0.49380944310711744,1,0.994681
0.36386050354878197,0,0.982278
0.9161075117733233,0,0.960054
0.66047215229648,1,0.996516
0.7323640962290501,1,0.999525
0.5329246435898194,0,0.991696
0.4648159724962599,0,0.990521
0.6011390202662675,0,0.926103
0.487482932889657,1,0.997954
0.7441212306342557,0,0.988543
0.8596428030302757,0,0.922141
0.9353602094634004,0,0.954183
0.38804181353440603,0,0.821797
0.7035411178947301,0,0.730005
0.9314224338858825,0,0.729666
0.39087795635322764,0,0.977677
0.6081467197993142,1,0.999270
0.6451781720933367,0,0.991582
0.8288477693413787,0,0.982095
0.7811605268355074,0,0.992060
0.9413822110940048,1,0.996450
0.2445484681083199,0,0.975383
0.7603957577672926,0,0.982622
0.43946999577139134,0,0.973949
0.8872219169739077,0,0.961818
0.7714485913754894,0,0.952397
0.4756818723775782,0,0.991771
0.8881803313164526,1,0.996204
0.6966211652668044,0,0.994645
0.7273976768047747,0,0.982759
0.4251823149207505,0,0.979776
0.7543756314081949,1,0.995674
0.757449864157296,1,0.993774
0.46856285704703415,1,0.998350
0.568241800380799,0,0.990549
0.34874773110723606,1,0.997463
0.7714321131826428,1,0.999529
0.8246641641677528,0,0.927508
0.9896713504374371,0,0.971767
0.9472888813465856,0,0.995577
0.6030356571370851,0,0.987893
0.830831256038962,1,0.999464
0.5577605642835037,0,0.735099
0.9656649596533422,1,0.995879
0.9737960185331562,1,0.992160
0.8665468994726173,1,0.997997
0.9859334000018748,1,0.996940
0.9522101839617568,0,0.984000
0.8906275656752092,1,0.996724
0.7438698597266014,0,0.993192
0.7679240259858198,0,0.813533
0.9561997475252157,1,0.999197
0.7244088017240781,0,0.994785
0.6879903080510547,1,0.998245
0.8635305790119892,0,0.990570
0.9619099338593408,0,0.994006
0.9131545844086649,0,0.965436
0.9258616980407766,1,0.997960
0.5198487030126587,0,0.993694
0.38136704866658583,0,0.992013
0.4604693785251632,0,0.992222
0.9733965257737006,1,0.999698
0.6636060202066595,0,0.917815
0.8167046889582845,0,0.957311
0.9898821280046749,1,0.998709
0.5723497027414057,1,0.999529
0.975060859325992,0,0.988973
0.7805134359041129,0,0.994746
0.9190221014578955,0,0.995769
0.5414409044323024,0,0.993461
0.8490145417139836,1,0.997566
0.4272307952166007,0,0.983879
0.7236789930110943,0,0.987514
0.8311429416985245,0,0.941212
0.944363817710071,1,0.999177
0.6050683810058575,1,0.999688
0.7943586487470805,0,0.983133
0.8680253456758981,0,0.899353
0.8127965796622981,1,0.996848
0.8942743113434845,1,0.998164
0.7898593920979461,1,0.995831
0.6814788186881003,0,0.945224
0.7836978486770307,1,0.996340
0.7283781067580298,0,0.971429
0.829834773762087,1,0.995197
0.9256986529377197,0,0.977282
0.9780227272853051,0,0.937416
0.9109233496139534,0,0.958398
0.40178170172425925,1,0.999223
0.9855649052684672,1,0.997886
0.8076624268286489,1,0.999619
0.6737754280988927,1,0.999646
0.8820493099282781,1,0.996709
0.5962555402611281,0,0.984547
0.673868455202831,0,0.995031
0.5985209340123732,1,0.999647
0.7623700891831341,0,0.944077
0.49084931174764684,0,0.993289
0.7892347580183373,1,0.996881
0.6872090102534693,1,0.998141
0.6074895853544966,1,0.996378
0.8207005945773972,0,0.973978
0.5477004637926294,0,0.991456
0.398674541697828,0,0.992036
0.5879853293431129,0,0.990119
0.9693866193472662,0,0.977421
0.9068504627012673,1,0.996796
0.7463704856459523,1,0.999609
0.3825234766785956,0,0.881640
0.9368104560031713,1,0.997354
0.5193473524522803,0,0.689876
0.8150236447258397,1,0.997371
0.48682586338064154,0,0.800758
0.945469072258901,1,0.999673
0.7721333171721296,0,0.958617
0.6251657717289976,0,0.935468
0.5956207798224604,0,0.981316
0.43336210273423426,0,0.986913
0.365798086231861,0,0.906686
0.44026142156531833,0,0.930233
0.8191918823868228,0,0.976092
0.5183838514048972,0,0.848872
0.9757404820695157,1,0.999690
0.6459047238791578,1,0.995050
0.5875672733445386,0,0.783680
0.7205647373370232,1,0.999500
0.7120906749691213,0,0.989336
0.8461238562782746,1,0.998033
0.6016944197461356,0,0.991723
0.6405254971506869,1,0.999405
0.6681573114639137,0,0.968894
0.8207785544027035,0,0.985976
0.8763565829755532,1,0.999066
0.618649324210625,0,0.992316
0.734790905391745,1,0.999643
0.6059036273121586,0,0.971469
0.5116110381694283,1,0.999447
0.8477022160949585,0,0.907148
0.6956014313751412,0,0.902595
0.9038976138124846,1,0.999572
0.6183604335396985,0,0.982615
0.6858119250057942,0,0.860298
0.7714562496974589,1,0.999611
0.9144609938712174,1,0.996028
0.6543923688620841,1,0.999615
0.5759753264460936,0,0.985471
0.567288094730559,0,0.962248
0.8564221958105445,0,0.958519
0.4001545185093569,0,0.946544
0.992068810880152,1,0.999028
0.6005984757782725,0,0.989405
0.7048801482550106,0,0.751152
0.5026340666058383,1,0.986631
0.8624196291690517,1,0.998704
0.6112287613429188,1,0.996689
0.6989544725606087,1,0.997904
0.45243763899787093,0,0.988415
0.425241538813835,0,0.925262
0.7910604424537293,0,0.965083
0.46573331448140226,0,0.955224
0.9158448004357255,1,0.997611
0.48626424239735655,0,0.993696
0.44412005208562655,0,0.975559
0.47948027610913896,0,0.945348
0.5940382993224171,0,0.978664
0.8272848458072878,0,0.986810
0.9485578339768613,1,0.999694
0.44990974306464737,0,0.933057
0.790091091068025,0,0.969889
0.9382130420222567,1,0.999551
0.6303900497034318,0,0.992067
0.5368968199661563,0,0.993913
0.7695410224080603,0,0.973276
0.7996244658305611,0,0.990233
0.6580423715259909,0,0.959108
0.9669078098961779,0,0.995287
0.708624899554951,0,0.994050
0.6183471422314311,0,0.995769
0.7839490521464128,0,0.993889
0.7296943149901134,0,0.957042
0.6281038890450816,0,0.972236
0.7429705593095691,0,0.993025
0.64125936673397,1,0.997922
0.5274160661171979,0,0.973643
0.8657038520499182,1,0.999306
0.906903716869311,1,0.999523
0.7156766127183928,0,0.905000
0.7385727870961218,1,0.999693
0.679221771863525,0,0.917082
0.7379145639519755,0,0.983554
0.591201000616029,1,0.999407
0.8623212613854697,0,0.994668
0.2687859664027967,0,0.979754
0.7805105487001296,1,0.999466
0.5583060695424752,1,0.999338
0.4150824450211379,0,0.971498
0.3741296827214745,1,0.999625
0.5825191352364051,0,0.954559
0.40383255418973946,0,0.981538
0.43391670076148947,0,0.988256
0.5070116415571481,0,0.990654
0.618413393645808,0,0.934149
0.9696583348082132,0,0.994293
0.7679742859548327,0,0.981524
0.803799227028738,0,0.857360
0.7723820128051051,0,0.841088
0.6144826138248093,0,0.823760
0.678321923400524,0,0.949924
0.7464983289331841,0,0.981793
0.7824755509444374,0,0.801302
0.7374930838595402,1,0.999614
0.7074980289420186,0,0.952381
0.5439800891307272,0,0.985390
0.7807133178541747,1,0.999016
0.7706339265170744,0,0.948248
0.9469184922994138,0,0.904743
0.6771492070532065,0,0.988958
0.73413690367162,0,0.990854
0.8691736624590005,0,0.978163
0.9121420618654359,0,0.994898
0.7817657871451597,1,0.994524
0.5641542179424629,0,0.934953
0.7751382690728446,0,0.992395
0.5970676890738396,0,0.990594
0.6153586483279264,0,0.939891
0.7912167443853304,0,0.965517
0.8993445074771192,0,0.951313
0.3524334180185863,1,0.996797
0.975742798418138,0,0.930326
0.8143502371840005,0,0.835974
0.5121885547710959,1,0.999456
0.4107717539436842,0,0.989220
0.6218129999114315,0,0.981109
0.8104375361681823,0,0.877637
0.36395996256466756,1,0.999638
0.9570165132518726,0,0.927054
0.4085635562388673,0,0.951149
0.5935502747065552,0,0.981490
0.9554931208363984,0,0.922156
0.43812069573432144,1,0.996234
0.42073680280451803,0,0.990363
0.4835540081565985,0,0.962424
0.6018414614418097,0,0.992973
0.5354282469224455,1,0.999556
0.29844591286938843,1,0.999305
0.8676349218541933,0,0.973934
0.9574419446391793,1,0.999058
0.6872114109418173,1,0.997141
0.5327362240396023,1,0.998369
0.5450186070597519,0,0.981895
0.791402322684201,1,0.998641
0.8686002678196874,0,0.986788
0.4094483528360467,0,0.985325
0.8167807837604595,0,0.925176
0.8607619391517412,0,0.988387
0.6416228375351772,0,0.944946
0.6846993867793845,1,0.999626
0.9331083099412798,0,0.967173
0.6412183592147825,1,0.999425
0.5766739622922492,0,0.855513
0.8382488335319533,0,0.946539
0.7307316499207782,0,0.990502
0.5714418962487788,1,0.998442
0.46332067714396014,0,0.983673
0.9276164098097764,1,0.995822
0.9636697759165112,1,0.999015
0.6376312789813063,0,0.967786
0.6491794252842498,0,0.872753
0.5532003006136089,0,0.905117
0.5923138797747602,0,0.970149
0.5417924955547118,0,0.948517
0.3522699233142257,1,0.998363
0.758417580897316,0,0.990449
0.8082845912973775,1,0.999680
0.5803832154880542,0,0.963335
0.5349397262593913,0,0.965109
0.566339434261243,0,0.942601
0.7082475970309995,1,0.996782
0.5851843762744054,1,0.995210
0.7894966635203516,0,0.983837
0.9445512143388418,0,0.788945
0.7267190997500941,0,0.964360
0.9051966848493649,0,0.816525
0.7668343041777612,0,0.980674
0.41481779889963794,0,0.964199
0.6028939615016988,0,0.925735
0.9852253118573142,0,0.984299
0.9503331319353359,0,0.932722
0.6992726575827755,0,0.987755
0.5967281446295939,0,0.991332
0.5968530907990033,0,0.994464
0.38430753516604005,0,0.986092
0.6513974785813639,1,0.999049
0.3885120451746713,1,0.995663
0.9379834483225394,0,0.990524
0.8430082536879628,1,0.997183
0.6139222680106933,0,0.994973
0.5085844772295459,0,0.992849
0.4416943345745279,1,0.993314
0.8620496623776888,1,0.998081
0.7289275569913022,0,0.994191
0.9387390199605821,0,0.917219
0.6931734220058755,1,0.999606
0.6689287894262773,0,0.974615
0.6092683722586842,0,0.972899
0.6726232770984923,0,0.993434
0.7315553910273149,0,0.989353
0.9808101207222105,0,0.940468
0.9578897935463088,0,0.989828
0.8940366624433563,0,0.991537
0.9119649537695184,1,0.998837
0.5398504173182493,0,0.994473
0.6007548511890037,1,0.999097
0.4978302720627376,1,0.997051
0.5205027241590587,0,0.984387
0.32035266342410873,0,0.992747
0.3741026023186461,0,0.920559
0.8975670973758723,0,0.984361
0.7476006097789376,1,0.998793
0.690531532965776,1,0.999247
0.8116673791637107,0,0.994382
0.880483932499496,0,0.952212
0.6756113099371502,0,0.986777
0.5059844628818275,0,0.969981
0.561954239095834,0,0.935877
0.4191529495409365,1,0.995187
0.7854545508318308,1,0.999593
0.8522834453540276,1,0.999609
0.7242443842545118,1,0.999544
0.6241531982203499,0,0.976433
0.7001295394153385,1,0.993430
0.8519045877712063,1,0.998562
0.598365491826288,0,0.819644
0.7981839674857284,0,0.979388
0.6415783225655992,0,0.980182
0.7008982879640507,0,0.964321
0.802650786391117,0,0.977967
0.6859483244249424,0,0.992920
0.4695404979395357,0,0.988414
0.45498253909011244,0,0.957567
0.6723011023363885,0,0.976496
0.4062415463163684,1,0.993506
0.874157968299519,0,0.980461
0.7409471890436317,0,0.955449
0.6994841412457813,0,0.991091
0.8549774156658002,0,0.891970
0.6538585914576436,0,0.984473
0.5905535226523203,0,0.955019
0.7089507051405565,1,0.999505
0.6425368712102024,0,0.972934
0.580919520010224,0,0.965275
0.8461573573794453,0,0.947686
0.9254087859333756,0,0.992323
0.8709257608471673,1,0.999584
0.49065301169961656,0,0.989258
0.32972984136471617,0,0.993747
0.7932878812248112,0,0.975896
0.7531367419234589,0,0.992321
0.9691789989062274,1,0.998809
0.9532815778609903,0,0.991245
0.45719225728087964,0,0.961741
0.6332121244409522,0,0.968697
0.666933376280794,1,0.998679
0.52754049149767,0,0.957634
0.635101133290534,0,0.914348
0.6351103546302441,1,0.997809
0.8417115963830267,0,0.984784
0.3430916055308953,0,0.711365
0.714836710002697,0,0.992429
0.963196188445416,0,0.993542
0.7867524645556191,1,0.999604
0.35971798561977103,0,0.986278
0.5743700218002677,0,0.962154
0.42098891707736646,0,0.964225
0.8126057149962178,0,0.918588
0.6346720705131901,0,0.950475
0.9417995288879367,0,0.969357
0.7102286909884196,1,0.998482
0.7887153808920656,0,0.981276
0.6100686390886396,0,0.995545
0.4513462176905554,1,0.996696
0.8468824850654596,1,0.997498
0.24668141600015356,0,0.966053
0.758600921734008,0,0.994715
0.7236642759991824,0,0.975290
0.6858248812468024,1,0.999452
0.7250782927211034,0,0.970083
0.5278119424035942,0,0.985751
0.9116500339892704,1,0.997937
0.9821598360917971,0,0.983718
0.8670081857842118,0,0.938213
0.7723911767364156,1,0.995726
0.4287058913523678,1,0.999659
0.48629922950408866,0,0.972298
0.5458611781109117,0,0.993967
0.4364497972480625,1,0.999278
0.5451876503324596,1,0.996585
0.34571435009397744,0,0.978831
0.659947596293004,0,0.990997
0.5911565109151637,1,0.997312
0.9176511063464639,0,0.968477
0.5086991818965211,0,0.958694
0.7819338045681027,0,0.987630
0.9202738023807967,1,0.997963
0.5524302215240483,1,0.996651
0.8770109046665735,1,0.999704
0.720358624518053,0,0.994533
0.9643219343626328,0,0.990632
0.7617350141915685,1,0.999654
0.5488395353223432,1,0.997407
0.9662901920133669,0,0.988937
0.7580876286762464,0,0.979835
0.29299936977287505,1,0.997621
0.7036359477502401,0,0.996163
0.7548056027715231,0,0.994595
0.4818443115622109,0,0.992720
0.5355064707750575,0,0.991612
0.6324006489579691,0,0.867943
0.4257838941346258,0,0.910550
0.6090418721576828,0,0.950524
0.6608541408362605,0,0.948485
0.8139649680013311,0,0.996228
0.8200896291267705,1,0.996490
0.5885533591367619,1,0.999080
0.745327025829469,1,0.997846
0.6281587446841721,0,0.895504
0.6098170663254356,0,0.963287
0.9661592120564536,0,0.985016
0.8587709528395123,1,0.999647
0.7392481631343096,0,0.943787
0.9136184406847989,1,0.996378
0.9809844405908893,0,0.901791
0.5800893761225625,0,0.935917
0.7016134348476613,0,0.984622
0.35759734893707884,0,0.984026
0.7745534623354382,1,0.999483
0.7660623537121177,1,0.995305
0.9188622283638996,1,0.999705
0.9487756761497316,0,0.942003
0.9145227594522579,0,0.971605
0.6267662752348809,1,0.996167
0.5352789549889333,1,0.999326
0.5444440576048324,1,0.998390
0.35499380341023445,0,0.943902
0.253312395259068,1,0.999579
0.5482159621571053,0,0.924107
0.742339185865834,0,0.877999
0.7261214348192829,1,0.991857
0.6680352391882204,1,0.999198
0.8824747998616583,0,0.829594
0.9292983889344092,0,0.815640
0.4238467073690325,0,0.903125
0.46703436886756566,1,0.997780
0.5679804516445293,0,0.907700
0.774226010238364,0,0.875116
0.5543495397608554,1,0.999667
0.5858284259930487,0,0.830808
0.9456789078678215,1,0.999571
0.9326580049048884,1,0.998765
0.8827400505703666,1,0.999564
0.7517187880069108,0,0.959605
0.3649197996355979,0,0.992751
0.6533294038376594,1,0.999545
0.9113798491665183,0,0.983549
0.7222665077120574,0,0.970062
0.7780465257542032,1,0.998827
0.36162950346162176,0,0.976521
0.6448113153131001,0,0.969001
0.5313979212575138,0,0.777876
0.7075172581108249,1,0.999108
0.8906617508878479,0,0.982209
0.8820879042301836,0,0.970352
0.7384563049252564,0,0.993256
0.8740110175381599,0,0.901216
0.8773183102249643,0,0.983884
0.6557974129368936,1,0.997501
0.9372113152978963,1,0.999066
0.6649169700721939,0,0.978566
0.5032122485139174,0,0.929333
0.3211137480640288,1,0.997954
0.6881558931460344,1,0.999505
0.9158141698033722,1,0.998166
0.9135457484814818,0,0.983615
0.4395359149587866,0,0.980534
0.3532179678438907,1,0.996188
0.7294168762178767,1,0.999210
0.6357367430693024,0,0.994039
0.6151681972489844,0,0.904192
0.5484040787658729,0,0.967153
0.33050312123515124,0,0.797667
0.6985866734800064,1,0.999137
0.46437933147395144,0,0.991005
0.8523853260575885,0,0.971903
0.7190128935467128,0,0.930960
0.4541079709939911,0,0.993022
0.33587669663568764,0,0.939169
0.7857066928304451,0,0.930556
0.7183774146981127,0,0.987725
0.716412727135426,1,0.997779
0.5977629328712266,0,0.951560
0.8393644042199446,1,0.999115
0.8072647325763253,1,0.999384
0.8219936625164657,0,0.977019
0.5863253011222154,1,0.999684
0.6234113056015862,0,0.854545
0.3023274627352258,0,0.655887
0.8307938710952159,1,0.998999
0.44084185147623056,0,0.967156
0.6619420556813421,1,0.998558
0.7217992216865345,0,0.776398
0.4539829210430803,0,0.987775
0.5376884726262583,0,0.979677
0.8447541292521126,0,0.954641
0.33818634426408894,0,0.886102
0.6183967773204887,0,0.993333
0.7431936726872449,1,0.999613
0.8195703426064096,1,0.996319
0.3553751564972924,0,0.912676
0.8823314363300182,0,0.941249
0.5457420281270536,0,0.900885
0.947927782894023,0,0.826350
0.7721763659582304,0,0.987388
0.4335209471257514,0,0.995872
0.9647037922058265,0,0.993014
0.8614005425463508,0,0.976857
0.8353191209390902,0,0.918294
0.8969306298779142,0,0.992670
0.8232091538818351,0,0.979528
0.44765920519564484,0,0.929876
0.9511992352743348,0,0.845607
0.4346315452207661,1,0.998279
0.9521802376104314,0,0.995148
0.702213873494726,0,0.989313
0.9669422037893177,0,0.904337
0.9047160705916919,0,0.888416
0.5616655280345013,0,0.994823
0.7764745197738199,0,0.975620
0.6050309808597563,0,0.954491
0.7163955256613959,0,0.965977
0.6117341258923401,0,0.982088
0.5884276415892774,0,0.944661
0.3685125515650193,1,0.996676
0.5753523714108588,1,0.999532
0.40612692725927624,1,0.998922
0.2634768116109868,1,0.984563
0.8304815863233397,1,0.999478
0.907130465809237,1,0.997483
0.5625642195012642,0,0.976684
0.4649639328571263,0,0.992105
0.7050174706563517,1,0.999070
0.9030354352482458,1,0.995324
0.8976469123236565,0,0.992278
0.5202284982847557,1,0.999392
0.984946569635551,1,0.999381
0.28741786394199886,0,0.975801
0.23172663801356225,1,0.997031
0.7553419069904875,0,0.993421
0.33782546318929857,0,0.985207
0.6808107681398519,0,0.959097
0.7336594622872006,1,0.995857
0.9127701380789222,0,0.834206
0.6333420336795016,1,0.994329
0.9555940594741307,1,0.999137
0.9484877212647127,1,0.997093
0.6723005755861414,1,0.999544
0.7734288549848025,0,0.981769
0.6595319203076123,1,0.999550
0.8752041041438513,1,0.999614
0.7111919300658565,0,0.979251
0.7661119646279357,0,0.989770
0.8088602034775085,1,0.998819
0.7151092223631277,1,0.999443
0.6192471484936901,0,0.973716
0.8619170702295845,0,0.968198
0.8656831566924563,0,0.841043
0.5127747162870356,0,0.971212
0.4749160440069339,0,0.990075
0.7289080399838609,0,0.985197
0.6569276087105654,0,0.916720
0.8041103659252224,0,0.988273
0.3452614206942115,0,0.960828
0.800856188632739,0,0.937500
0.6974930028282089,0,0.982722
0.28496013279512933,0,0.954644
0.12260726522968861,0,0.353535
0.8817183616397221,0,0.979620
0.44792102662984273,0,0.992695
0.45029836359790887,0,0.990210
0.6317754100055666,0,0.948187
0.6234253660121354,0,0.882735
0.881328078545649,1,0.999657
0.742934549424504,1,0.997345
0.6178946717166587,1,0.997895
0.7158011273999237,0,0.891583
0.7785466756421661,0,0.992261
0.681010250037814,0,0.985791
0.35699958719047464,0,0.987526
0.973959204860078,0,0.954140
0.5906423107339425,0,0.989796
0.8528980849661014,0,0.903589
0.5834292070142577,0,0.988024
0.6700691187706374,0,0.968586
0.6357753875321559,0,0.831438
0.41304109902473035,0,0.981187
0.6469866774813477,1,0.999486
0.5039325602064539,0,0.902876
0.6121591286315754,0,0.978408
0.7200863180690956,1,0.996416
0.4546221270656502,0,0.944444
0.7828259375114942,1,0.999507
0.8225560496813096,0,0.994980
0.5908368049968078,0,0.981753
0.5119787152362635,0,0.975294
0.832802731786198,0,0.930936
0.8757281437013733,0,0.905759
0.8327870460204161,0,0.900376
0.5529163884167855,1,0.998369
0.58478278813074,1,0.999446
0.7726800743621334,0,0.973706
0.7187021016244586,0,0.988588
0.8065244869196178,0,0.979046
0.6893880561065061,0,0.990606
0.2911098733966673,0,0.964882
0.7203006747253229,1,0.999637
0.8099150304984509,0,0.924342
0.6301932830641631,0,0.982676
0.9625378719756975,0,0.965076
0.9857390798557154,0,0.860182
0.8474829334840296,0,0.952647
0.576160087518736,0,0.990600
0.42963422063357887,0,0.980800
0.4759804439503239,1,0.999520
0.6740459560516788,1,0.994731
0.8147001601557164,0,0.984556
0.9191308138864972,1,0.999572
0.8909857646403598,0,0.993545
0.9072838302251063,1,0.999037
0.7466057652204291,0,0.990846
0.4822177750166886,0,0.875740
0.6029617443810635,1,0.999301
0.8159948994869223,1,0.999572
0.5565429838757217,0,0.948691
0.6321790249534546,0,0.836151
0.6828360700042946,1,0.999449
0.9031999197723103,1,0.999383
0.6127208032641889,1,0.999594
0.38741844971126965,1,0.999040
0.780104819281165,0,0.940985
0.616869330175202,0,0.949737
0.8141945557059166,0,0.877275
0.8122358831736597,1,0.994911
0.7732000534665961,0,0.938503
0.6697628215650847,1,0.998885
0.8645596179937848,1,0.996834
0.9486778935522997,0,0.957341
0.8404770858878751,0,0.992011
0.9559600054145359,0,0.899871
0.8407161233038398,0,0.981689
0.39189926146960746,1,0.997787
0.5671881338411975,0,0.970467
0.8444463228563139,1,0.999616
0.5628165007026412,0,0.906372
0.8779457021668883,1,0.999258
0.8433388996083745,0,0.586029
0.9837495207992492,1,0.999702
0.29020370378116656,0,0.946736
0.6086320833828307,0,0.817014
0.42539336745643125,0,0.941853
0.7250423661014223,0,0.956724
0.6784952281895708,0,0.769694
0.6853330577019432,0,0.947621
0.30372623459786174,0,0.948159
0.38550063900545667,0,0.985840
0.397186143869405,0,0.937649
0.4602016046921001,1,0.998530
0.9382454651390925,1,0.998449
0.7787456259853475,1,0.999571
0.5208489635578398,0,0.910363
0.23833959469392665,0,0.991539
0.8430345290485419,1,0.995389
0.8210051233214911,1,0.999149
0.8979840221784627,1,0.999626
0.9861926703745854,1,0.999643
0.7699605708276772,0,0.973675
0.710266569275198,0,0.991571
0.7412024253709644,0,0.963855
0.5478816273320883,0,0.974835
0.5147785889304711,1,0.994802
0.9771857999215947,0,0.985228
0.41609801724462897,0,0.968951
0.6672328096566466,0,0.993987
0.7835830078544359,0,0.993336
0.8120287234615032,1,0.996192
0.8560559174652598,0,0.946086
0.6422030340094421,0,0.929325
0.646887582356838,1,0.994717
0.5991522911939956,0,0.969463
0.9148081163576586,1,0.999597
0.37307481531638,1,0.999606
0.9216108602855853,1,0.999556
0.909584812304143,1,0.999696
0.8659747420937126,1,0.995743
0.6939607582217674,0,0.988591
0.5009611266619467,0,0.919025
0.5143909282928683,1,0.998451
0.662054158978476,0,0.951537
0.6452188707418964,1,0.999483
0.9740698379355883,1,0.999653
0.9016389958316354,1,0.998872
0.598712228458066,1,0.998234
0.7822836802142676,0,0.792548
0.3123302234340899,0,0.938259
0.5582761614417276,1,0.998297
0.8543460680701314,0,0.996132
0.71822682857295,0,0.964728
0.5303365591997407,0,0.893527
0.7296318067102647,0,0.982305
0.39351674193334474,0,0.936685
0.8401123930169455,1,0.997944
0.37009864383187685,1,0.996859
0.6764439363522516,1,0.998905
0.8234000760878843,0,0.970048
0.6105529758297645,0,0.985468
0.3669740342402886,0,0.945390
0.4694357097172585,1,0.999509
0.756937398098946,0,0.982071
0.6871416119262046,0,0.996306
0.972080497837716,1,0.999404
0.7153013157864805,0,0.964145
0.524046699747174,0,0.986594
0.6359640263855121,0,0.976295
0.8906403501558566,0,0.995520
0.6935669891368155,0,0.773284
0.8030289592159238,0,0.927346
0.6654215041738505,0,0.912872
0.5611557304722964,0,0.989914
0.6173161446261622,0,0.969561
0.5518153617398149,1,0.999435
0.9409831733907393,0,0.931617
0.48572527134200494,0,0.913043
0.7373687826558057,0,0.950121
0.5578564513552122,0,0.990486
0.8653277207918304,1,0.999227
0.37123836385485875,0,0.982049
0.5490027479960118,0,0.990332
0.757354195433405,0,0.908579
0.6254266435454031,0,0.979938
0.7744562539362897,0,0.989672
0.9054839174992488,0,0.955979
0.5524543520068372,0,0.984276
0.5252112923281614,0,0.984231
0.5434401840411398,1,0.999558
0.708961537789223,1,0.999575
0.3548425370915862,0,0.989319
0.3737479664765833,1,0.999195
0.40940096445477464,0,0.975919
0.8491783329192719,1,0.999662
0.6692577481242992,1,0.999154
0.754498460642678,0,0.994590
0.7038086585153689,0,0.987927
0.7656688618360815,0,0.979787
0.4588091499503091,1,0.999583
0.8559322340117455,0,0.985491
0.6546265499825059,0,0.976953
0.8748287698072169,0,0.969590
0.5784615775490117,0,0.991113
0.8089532640436307,0,0.893032
0.4728950536088538,1,0.996716
0.96616353955734,1,0.999115
0.8712558645315303,0,0.958347
0.5356682540875893,1,0.999684
0.5065284366090101,1,0.999233
0.3957940841422581,1,0.996834
0.4946404983386912,0,0.988338
0.6701818068654255,1,0.997367
0.42247381648119137,0,0.990975
0.7517488032095596,0,0.974349
0.6171445255564226,1,0.999321
0.6857420951019727,1,0.998509
0.6163811371113506,0,0.979582
0.8505871675609318,0,0.960693
0.8154737203057684,0,0.966979
0.7339175483203417,0,0.990810
0.5028126995037592,0,0.992651
0.8640387184938617,1,0.999550
0.9692146725096052,0,0.985762
0.708536645749158,0,0.939189
0.7805137559209715,0,0.966603
0.5549271795173687,1,0.998086
0.7235813312187437,0,0.959581
0.5834495937162928,1,0.999530
0.38433392492089385,0,0.971748
0.8788778289198398,0,0.801683
0.9973064334853018,1,0.998251
0.8985141516105764,1,0.999604
0.7416263576838371,0,0.984816
0.8543633683785001,1,0.999558
0.9847156735706634,1,0.998708
0.6010177677730577,0,0.980723
0.5462295342840103,0,0.995215
0.8985117263460817,1,0.999621
0.7479964803977517,0,0.938278
0.5072463332434041,0,0.992972
0.4317016370037448,1,0.995943
0.8937840902878952,0,0.996015
0.9853617980509279,1,0.995866
0.2565542360761037,0,0.993028
0.7600741789175395,0,0.991283
0.9109646564926811,1,0.996236
0.6137491885834511,0,0.968242
0.5444332078816224,0,0.995131
0.8447702411629311,0,0.989252
0.33628086280509734,1,0.999441
0.6147492372412666,0,0.989312
0.847316343958483,0,0.984692
0.798889156086931,0,0.985652
0.8263306410106179,1,0.999306
0.6721692446745795,1,0.999534
0.6517752492720682,0,0.971260
0.9456263210114756,1,0.999506
0.5627400122439303,0,0.941007
0.6171052772172125,0,0.981148
0.8558054839839743,1,0.999067
0.8350838294816894,0,0.993581
0.5129294363748087,1,0.999531
0.38484727670703783,0,0.961504
0.8817045260895743,1,0.999573
0.5119111262320605,0,0.995068
0.4779709294922083,0,0.986164
0.7400788788814961,1,0.999031
0.3338023131654368,1,0.999356
0.662321069145646,0,0.942501
0.6830843508204422,1,0.998333
0.5182743914051574,0,0.863636
0.9826536833098533,0,0.992011
0.7344965157246796,0,0.988823
0.971001293758271,0,0.993411
0.38606939831462583,0,0.990324
0.4632373733474335,1,0.999430
0.49076712316336724,1,0.996672
0.8334989735637097,0,0.888460
0.6818293788394917,0,0.995503
0.7569870480096926,0,0.891276
0.8811791996426117,0,0.993300
0.39258718428589284,1,0.996073
0.9772054234717883,0,0.989566
0.4446717479115465,0,0.899524
0.28080389668015854,1,0.999378
0.6855302497289839,0,0.985927
0.5793642614326041,0,0.992478
0.28337134896035887,0,0.986691
0.8403683428499895,1,0.995057
0.858577780218054,0,0.955080
0.7674129148107175,1,0.999415
0.9778494264455302,0,0.988756
0.532139093033567,0,0.994723
0.5059081582191266,0,0.891610
0.68024207184346,1,0.999681
0.46715778831708266,1,0.995906
0.5879895994678397,1,0.999560
0.46110183190822934,0,0.987745
0.2835397427854393,0,0.991200
0.644300471646384,1,0.999561
0.8238614286895442,1,0.999498
0.8137118334516205,0,0.994853
0.7938945420553625,0,0.996348
0.8005937132365851,0,0.797963
0.944690806773326,0,0.949721
0.7719695733838136,0,0.977476
0.6270087929768776,1,0.999663
0.6431262744792365,0,0.991741
0.92715544557298,1,0.998464
0.9319426100416915,0,0.991670
0.7745193278815882,0,0.993692
0.8631992802379784,0,0.984577
0.7955604800784173,0,0.988495
0.6590189987912837,1,0.999445
0.7269101699694297,0,0.974288
0.3525431636418568,1,0.999652
0.9887068193340407,1,0.996908
0.9808679284443964,0,0.978747
0.9184274241518401,0,0.977320
0.9098435334186056,1,0.998925
0.6668757201672281,1,0.997322
0.38326219375490483,0,0.776596
0.6695445035853532,0,0.942091
0.869527128235013,0,0.878205
0.7559535684736839,0,0.995793
0.41090177435516206,0,0.978898
0.7690281040452615,1,0.999368
0.7497028430915476,1,0.993898
0.9757488162521046,1,0.999286
0.3395211106258601,0,0.771863
0.9549901142327845,1,0.999551
0.5068722384031084,1,0.991312
0.9955392870470412,1,0.999614
0.9450115154504013,1,0.999379
0.5246363891393713,0,0.726408
0.921163039565425,0,0.979897
0.9965684817971066,0,0.966548
0.782420332843431,0,0.624019
0.7669569623772782,1,0.999386
0.8374979027424393,0,0.989069
0.49200691123028506,1,0.997459
0.5582810298549621,0,0.984352
0.6837139921140517,0,0.980849
0.5067282304130747,0,0.930422
0.8499206980921331,0,0.994183
0.8712099343957103,0,0.935137
0.38671155553627246,1,0.999593
0.867822523970981,1,0.999572
0.8238674798270188,0,0.986555
0.5028324787569098,0,0.977540
0.7711352003151949,0,0.961516
0.6942138029619739,0,0.970352
0.44317727882811225,0,0.837566
0.7611860871463261,0,0.883401
0.5163405250679817,1,0.999555
0.24673344074546305,1,0.997357
0.5010056220562836,0,0.980763
0.7098998099200261,0,0.941176
0.5514780419318169,0,0.979624
0.5402455688983738,0,0.697104
0.5298079403638292,0,0.586583
0.6093840772344242,0,0.936200
0.7922125057846194,0,0.989691
0.8096679215979572,0,0.831869
0.8830005052895546,0,0.994321
0.5177600692206805,0,0.976726
0.6602100835085302,0,0.963039
0.49930328647358846,0,0.981270
0.7669200550532401,0,0.947582
0.8933773406000443,0,0.980659
0.5387315181711989,0,0.881398
0.9436670689643292,1,0.998999
0.29103627806991267,1,0.996662
0.7722605968938906,1,0.999627
0.480261104911687,0,0.964677
0.6413542636586662,0,0.989554
0.43100019316151683,1,0.997044
0.6999197907367108,0,0.956485
0.6802159144600557,1,0.997731
0.7813756073905981,1,0.999504
0.6068690530569542,0,0.986780
0.3750367959583959,1,0.993834
0.6671611681247717,0,0.853060
0.8827973352629668,0,0.971939
0.3485538267285172,0,0.866667
0.8448476023065785,0,0.868637
0.920930545679601,0,0.962677
0.5033353476848137,0,0.889294
0.7461239268664719,0,0.960219
0.5692848998605462,1,0.999649
0.8975624964627272,0,0.979009
0.5803974769524526,1,0.999597
0.5901700715674534,0,0.986025
0.7783406407936079,0,0.976326
0.6166575808436318,0,0.903175
0.4911091232987935,1,0.995294
0.5225435284956219,0,0.945842
0.745020128594181,0,0.888031
0.4558649673175653,1,0.999620
0.7248997776456254,1,0.999578
0.4520750197709303,0,0.953271
0.8733865390252628,0,0.850969
0.6899334799917742,0,0.939033
0.7864578033649167,0,0.913485
0.7582465403576313,0,0.941739
0.7740150689261482,0,0.970858
0.7415698131616283,1,0.999618
0.6156306321863706,1,0.997668
0.6716195216023996,0,0.955483
0.8375504890523825,1,0.998403
0.5910474567903423,0,0.968165
0.8712847994291033,0,0.989007
0.6690555041206802,1,0.999619
0.679730112083481,1,0.999480
0.5828023588209799,0,0.872156
0.4286203245467747,0,0.788345
0.8558299365232295,0,0.963812
0.5985310674549414,0,0.936983
0.7332757830451601,0,0.951705
0.29959141821232144,0,0.958935
0.3636415759819259,0,0.967459
0.7487417868246349,0,0.953585
0.7503507427012409,1,0.997502
0.6720370026218381,0,0.992546
0.5067242831272931,1,0.998843
0.5754527865509875,0,0.960000
0.8664006982125119,0,0.837614
0.7376696577527126,1,0.997608
0.48027289084271924,0,0.980147
0.77671044262368,0,0.988309
0.6798495221274375,1,0.995017
0.9997986174837946,1,0.999700
0.9421163846029524,0,0.891131
0.5553125445581336,1,0.999491
0.5813786102128087,1,0.999289
0.590285082191733,1,0.998011
0.435523201242027,1,0.996066
0.9234412351457018,1,0.993976
0.9894632755944586,0,0.984012
0.6960249291691019,1,0.998736
0.6207269786804314,1,0.996285
0.47729042007496325,0,0.958211
0.6716778705762164,1,0.999392
0.47432334577044455,0,0.941036
0.6207623086616608,0,0.983484
0.5953871350412753,0,0.964324
0.8304894379656651,0,0.895479
0.8078630539855672,0,0.980012
0.7859861954805668,0,0.973329
0.7010185099637655,0,0.970195
0.9453156783408615,0,0.928542
0.28481202442363324,1,0.999617
0.5678178146810581,1,0.999057
0.844028916382393,0,0.516330
0.6384664091891896,0,0.993254
0.5117584169736171,0,0.916853
0.7330145230384048,0,0.973470
0.7911924326673616,0,0.982244
0.6691590244123993,0,0.994200
0.6270498748365584,0,0.969049
0.46934740287665316,0,0.991850
0.3573011481181498,0,0.961315
0.8063690797237366,1,0.998994
0.5756823945743089,0,0.977139
0.9590940583800807,0,0.865613
0.6725615737606921,1,0.997705
0.3031913860112099,0,0.969921
0.6075124598948515,0,0.916951
0.8554932978986105,0,0.980035
0.36876963411721686,1,0.992908
0.6694506310211661,1,0.999344
0.7783893388707926,1,0.999041
0.8372974238149316,0,0.989320
0.7242500471121754,0,0.992265
0.3700681426840232,0,0.962521
0.9009112678949487,0,0.902136
0.6713877216652164,1,0.997455
0.826634488566254,0,0.986528
0.7428483235474626,1,0.999361
0.932542333334388,0,0.989164
0.740015423882182,1,0.997859
0.9454220861893587,0,0.995633
0.8274908544792885,0,0.993402
0.5755731547112786,1,0.997286
0.6167774577059741,0,0.992284
0.5792095691812587,0,0.957158
0.6289943700793579,1,0.995182
0.6880056451468847,0,0.785287
0.5882963076422204,0,0.985455
0.9327697438856977,0,0.985910
0.5652053044755085,0,0.967710
0.2783767339659842,1,0.997432
0.6017856887955332,0,0.993677
0.762726443631808,0,0.962275
0.6259695884808776,0,0.915452
0.9273390768354066,0,0.969560
0.9507457616492907,1,0.998521
0.5505265978566594,0,0.874911
0.4768795017602745,0,0.977612
0.9104886109863747,0,0.992751
0.7501465553655307,0,0.966245
0.6930795211613464,0,0.739217
0.4805757263491034,0,0.929443
0.7143441647452398,0,0.793911
0.9581423759448464,1,0.991018
0.8947381229691227,0,0.988754
0.8299818271445856,1,0.997097
0.4107095933245393,0,0.979280
0.42820022220896814,0,0.927555
0.5834406686110927,0,0.992477
0.96587834870773,0,0.970128
0.6650981643752711,0,0.840121
0.5383206595985077,0,0.990881
0.8905219579626747,1,0.999571
0.9013513655423768,0,0.993283
0.6793522172285322,0,0.994779
0.5341517124656309,1,0.997557
0.9636141690897231,0,0.996392
0.6606903849050126,0,0.905383
0.8424224145934751,1,0.996126
0.39719721514371975,1,0.999057
0.4356052226568412,0,0.964447
0.7543825747519349,1,0.999636
0.8717761451836966,0,0.957558
0.6985268333568746,0,0.983485
0.6226346430942414,0,0.936694
0.8678870954464994,0,0.952693
0.9561899423747838,0,0.861277
0.5896547520388464,1,0.996154
0.8090638538349241,1,0.999614
0.5373240528895808,0,0.912538
0.8654747645526579,1,0.995265
0.495253391025778,1,0.999506
0.5655431028333603,0,0.994639
0.9328286603210295,0,0.914929
0.9335940582454133,0,0.964800
0.5992601820246998,1,0.999564
0.6668171687073045,1,0.996890
0.412678023511299,1,0.998487
0.6299424991072277,0,0.928361
0.537214496574368,0,0.983967
0.8426098060021001,1,0.998138
0.8257693726584154,1,0.999310
0.9529831890400339,0,0.913858
0.9641293262298074,0,0.993773
0.9548693669670077,1,0.996853
0.4090911198787702,1,0.998492
0.7828781504862553,0,0.979776
0.723688291911459,0,0.904007
0.8219181664707721,0,0.984134
0.5580869769833662,1,0.996828
0.44420535490268326,0,0.975279
0.8480404715620046,0,0.971585
0.9862046827765014,1,0.998881
0.7797113316941456,0,0.981291
0.49567769705418857,1,0.994753
0.7444955292091696,0,0.995188
0.46044797511212304,1,0.994965
0.7784232702497051,1,0.999481
0.6418126157461824,0,0.988950
0.6081111784573752,1,0.997108
0.6886627457212209,0,0.886969
0.6729431164879106,0,0.968102
0.531054327510544,0,0.979055
0.7066934815621757,1,0.998453
0.855810666090309,0,0.989210
0.39149696068560935,1,0.998428
0.3933098445181635,0,0.963710
0.8299685834992813,0,0.987337
0.43333315394967253,1,0.999646
0.6970808849692962,1,0.997012
0.5486984939304391,0,0.977599
0.8852642130612798,0,0.693676
0.6978125846111242,0,0.963430
0.47686917746580937,0,0.833087
0.9106294128488669,0,0.970893
0.5756373399614172,0,0.775113
0.39224965292574454,0,0.977622
0.7800957881369105,1,0.999629
0.7957241755668304,0,0.995366
0.7840891086026633,0,0.756878
0.8445967775865423,1,0.994562
0.8325059551916121,1,0.998075
0.8451601750589034,0,0.960426
0.6827903729933155,0,0.912656
0.7666443116882931,0,0.928619
0.6432352225660273,1,0.991407
0.9732648030172648,1,0.999503
0.8596296432668399,0,0.989819
0.633121694195755,0,0.920814
0.952690037036429,1,0.996716
0.8196266359100115,0,0.989618
0.6330972647332438,1,0.999277
0.4824524437268128,0,0.992794
0.6060320009452153,1,0.996253
0.4190879379847896,1,0.999565
0.789558021550359,0,0.963630
0.5432825574166958,0,0.994217
0.5597672773150218,0,0.983301
0.3381856359863526,1,0.997359
0.5798361270186363,0,0.809731
0.6533307264965569,0,0.993817
0.3817923372166115,0,0.982192
0.9699090652559985,1,0.996537
0.9226160155608341,0,0.992089
0.5777767174323716,1,0.999649
0.8146328255372806,1,0.999648
0.9669047637546875,0,0.967363
0.26963146664050885,0,0.987007
0.8384506340315045,0,0.987952
0.960934234126347,0,0.993633
0.8527276080718711,0,0.992245
0.675375659714379,0,0.991232
0.6075746718817383,0,0.988329
0.8739242231283474,1,0.996318
0.8267394285480981,0,0.915155
0.9603706477089743,1,0.999696
0.5458971802283326,0,0.992630
0.6641048500518543,1,0.998619
0.9280300397887749,1,0.999578
0.5397383596817971,0,0.992526
0.5681650278568907,1,0.998029
0.48774418340923875,0,0.992618
0.5802870259250471,0,0.987984
0.7474299447376485,0,0.956291
0.4685170077469374,1,0.996167
0.49974697607576346,0,0.984948
0.7272495248901826,0,0.980549
0.7729884123338558,1,0.998523
0.8970847089342588,1,0.999456
0.34394189136563974,0,0.974194
0.8345971339970777,1,0.997610
0.5565384249303938,0,0.959520
0.9832439148500344,1,0.999343
0.41264033971856634,0,0.971200
0.5895633001858264,0,0.968523
0.4896448875969797,1,0.997636
0.8814702199982829,0,0.829027
0.46595041300919066,0,0.835155
0.9036949187850389,0,0.983629
0.7095678200009709,1,0.999142
0.9500552938714046,1,0.991480
0.681210754936874,1,0.999260
0.9052470416236507,0,0.992505
0.5666406543717198,0,0.985307
0.7046220207062244,1,0.997590
0.5107334949712498,1,0.996979
0.3548778256641052,0,0.969349
0.7557672909991988,0,0.981139
0.847378976566992,0,0.972133
0.6170581143380213,0,0.986395
0.6825060624237428,0,0.850229
0.610635095292836,1,0.999545
0.5449927377173497,0,0.889788
0.7283106328420518,1,0.999624
0.7168306280401817,0,0.962854
0.6913762887252092,1,0.999077
0.6641965825806517,0,0.966330
0.36713103819109116,0,0.974210
0.5220183569058797,0,0.994017
0.577699938813248,1,0.994706
0.9135096669583622,0,0.929293
0.6638031445627744,0,0.979617
0.5075827466126692,0,0.841283
0.6798740880091891,0,0.991035
0.5395398478125544,0,0.948293
0.4645816376595259,0,0.983732
0.5786247883791091,0,0.978659
0.6481971522545408,1,0.999522
0.7018963704237349,0,0.923598
0.5956049788225148,0,0.929833
0.9587362630229168,0,0.996751
0.3178389397164068,0,0.994031
0.9856879639810776,1,0.999705
0.9206901041820268,0,0.885688
0.8987709078087178,0,0.894538
0.7411968836735502,0,0.980316
0.5086693660271313,0,0.992355
0.37031344319954,1,0.999517
0.7372444909938091,0,0.948812
0.6682877540222152,0,0.983927
0.4120889745715448,0,0.972112
0.8316796606804862,0,0.992497
0.8983807233023907,1,0.995455
0.5632708392610812,0,0.904003
0.8699549494422604,0,0.970241
0.9389494533794911,0,0.942589
0.786732063765791,0,0.955676
0.3236361574527251,1,0.997856
0.9127240586442715,1,0.997773
0.5496017273676098,0,0.893452
0.6839229483136399,1,0.996575
0.7817106941282508,1,0.999616
0.5455027084277166,0,0.885976
0.7379447311856651,1,0.999434
0.43389474864279143,0,0.945135
0.6278173511720925,0,0.993900
0.7565960362979616,1,0.997324
0.7459216909328746,0,0.925059
0.6787478277853627,0,0.984770
0.6761566030251837,0,0.671976
0.7037463578251871,0,0.965845
0.9721386266218218,1,0.998341
0.8770337548570746,1,0.999511
0.4550271224487509,0,0.961412
0.7216330544237445,1,0.997798
0.7889986294365621,1,0.997730
0.49768452779722655,0,0.966846
0.7729765388719485,1,0.999603
0.5413073620906587,0,0.994061
0.7955510316414233,1,0.996201
0.8491501101087857,0,0.948375
0.9001775495120267,1,0.999431
0.3682065077389593,1,0.992285
0.8421513868095524,0,0.988421
0.543305496274631,0,0.944444
0.8111972460360544,0,0.954225
0.8947744304169226,0,0.960835
0.650785427903978,0,0.988212
0.5151457878127333,0,0.990489
0.513306497550637,0,0.900000
0.45656007998799825,0,0.934334
0.9427328462491692,1,0.999570
0.8176127428429137,1,0.999567
0.45549622554334424,0,0.991281
0.8315298290051426,1,0.999078
0.5682567139161397,1,0.990040
0.9349055924231792,1,0.993084
0.5139787049674841,0,0.894135
0.6579932652027306,0,0.352225
0.8205151939462425,0,0.983209
0.8902203761041076,0,0.993747
0.7448524431374609,0,0.980451
0.5412284138861424,1,0.999175
0.9753733019979917,1,0.999113
0.6486208067905538,1,0.998687
0.854026468389779,1,0.999700
0.6741870331292719,0,0.981077
0.7664392279677059,0,0.985155
0.7788206142432691,1,0.999689
0.5803139952245213,0,0.993897
0.9252897399573047,0,0.990632
0.9821301156857599,1,0.997494
0.4332945787532591,0,0.990956
0.7306178322311676,0,0.994488
0.8357328831351779,0,0.985934
0.6333033701428413,1,0.997297
0.8627413814114749,0,0.973868
0.982921017486752,0,0.988243
0.9193794523635653,0,0.911121
0.6764107808527824,0,0.980121
0.5878892259973789,0,0.955045
0.653034439812575,0,0.903375
0.9056330276642971,0,0.948361
0.9679052336667274,1,0.999702
0.8160231557513279,0,0.993971
0.7027418668221482,0,0.960307
0.9596051228787554,0,0.970896
0.7955726150039413,1,0.995743
0.6139511377630201,0,0.937103
0.45105756290005056,0,0.952821
0.5948876754003158,0,0.913026
0.6357793749462461,0,0.810474
0.4673623091208626,1,0.999418
0.740359317266863,0,0.980064
0.9404980540341688,1,0.998350
0.5761975678272843,0,0.976536
0.5508644885517316,1,0.997074
0.8190676538727438,0,0.775820
0.6918751545674813,0,0.966406
0.4970330034186135,0,0.987334
0.8754953827597348,0,0.978598
0.46842770075722484,0,0.948798
0.8840991074026098,0,0.980017
0.7383673257773571,0,0.944946
0.6337654747905646,1,0.996311
0.4215492962840788,0,0.992401
0.7496536228745432,0,0.963299
0.5287098249265193,0,0.969519
0.5330066688466799,0,0.985284
0.4774179123647643,1,0.992733
0.9534660400174194,1,0.998694
0.9579807592853306,1,0.999311
0.4339948174386846,1,0.998192
0.5351001771997217,1,0.999381
0.6826380376178175,0,0.950302
0.9217224018271465,0,0.839773
0.8330585155562523,0,0.875885
0.5116885197010074,1,0.995143
0.4857380571748024,0,0.933289
0.7353091639053712,0,0.833333
0.5968817579480934,0,0.896580
0.7662211848972234,0,0.964761
0.9957842890357433,1,0.999527
0.9468758560576512,0,0.844511
0.856368190953767,0,0.975787
0.9889860776283833,1,0.999078
0.5449321337893899,1,0.999393
0.7430229348727727,0,0.888709
0.608782471591946,0,0.884427
0.8565641211547836,0,0.977301
0.9424531425955033,1,0.998366
0.9748514356784419,1,0.996848
0.9154898518592255,0,0.982806
0.7014837068180385,0,0.885579
0.5745655395602042,0,0.985657
0.43172087369961987,0,0.958678
0.9472761191154051,1,0.999330
0.6002224719401341,1,0.998990
0.4298743274410242,0,0.942976
0.5767832796087021,0,0.918748
0.25438945213309394,1,0.997314
0.9054724663798974,1,0.997895
0.9620791534237959,1,0.998822
0.5814566307814428,0,0.950805
0.8916417188966248,1,0.999675
0.7807728159881354,0,0.975000
0.3108277626069579,0,0.990549
0.7804629675694624,1,0.999562
0.6651031118786647,0,0.986025
0.5613168116471874,0,0.766949
0.5077478544147946,1,0.999061
0.756618396114975,0,0.984794
0.5376793783715534,0,0.964896
0.4453721816042364,0,0.982040
0.5993104015352955,0,0.986402
0.8926224106988241,0,0.977682
0.9177609778542616,1,0.999142
0.6078726513370186,0,0.988702
0.6959452225242206,0,0.949468
0.49515730123228857,1,0.998062
0.9868589804883455,0,0.919291
0.6413963914730201,1,0.997485
0.6206800351443595,0,0.920314
0.8199805037582589,1,0.999649
0.8182055887631786,0,0.989143
0.6725349454222412,1,0.999571
0.9463679070922101,1,0.999701
0.5617584538342488,1,0.998560
0.7876159435300084,1,0.999069
0.6805026723771458,1,0.996398
0.7061747972613244,0,0.834025
0.5648858843896516,0,0.983508
0.5863293176282055,0,0.936120
0.7878399341165534,0,0.991544
0.5469794312453788,0,0.990455
0.9115320031329349,1,0.996937
0.9301871612402909,1,0.999273
0.6737764080888374,0,0.933111
0.6265032931726952,1,0.999150
0.49303183645479065,1,0.997565
0.4635826487554022,1,0.998192
0.6841141823010651,0,0.990734
0.8361290766595755,1,0.999001
0.8700988583914857,0,0.725504
0.5441477130935146,1,0.998824
0.293019001563075,1,0.987360
0.8123427033983494,0,0.978805
0.45176170724625514,1,0.998979
0.6756098173447876,0,0.943216
0.794617089848852,1,0.999541
0.6905386961677025,1,0.999674
0.7190239341672594,0,0.932404
0.5579319483023751,0,0.985872
0.7895632153524892,0,0.968344
0.5058470629622502,0,0.911321
0.8867978479795119,1,0.998643
0.5193318319516935,1,0.999615
0.4032743030895845,1,0.997811
0.8171386778147615,1,0.999375
0.683474362309448,0,0.973605
0.9448195008732657,1,0.999596
0.730457136394976,0,0.984841
0.9812177549601118,1,0.998192
0.6728081110452984,0,0.974071
0.8955557045525402,1,0.995974
0.5221290379417971,0,0.989572
0.5520136423569458,1,0.994357
0.9896868077908768,1,0.997094
0.783100837105065,0,0.965437
0.5684661225661187,0,0.990271
0.6682849914991275,1,0.998414
0.8342787229668384,0,0.977477
0.7145729625637898,0,0.978765
0.6784390278060531,1,0.999601
0.4786055325631706,0,0.950000
0.9046074097406183,0,0.968734
0.44384505572797794,1,0.998814
0.8381363557633335,1,0.996914
0.766203302481132,1,0.997436
0.49678304680143837,0,0.987736
0.5844804355503497,0,0.835589
0.9060191077634282,0,0.966543
0.710787694360697,1,0.996495
0.8053035008344838,1,0.996845
0.6140715214825814,1,0.999586
0.7105219627637082,0,0.991446
0.5755516648934649,0,0.898318
0.6605393168294672,0,0.981148
0.8430676771217397,1,0.999230
0.555082706707674,0,0.913497
0.9365191597775161,1,0.999370
0.9113519495017499,1,0.999602
0.8672187786032095,0,0.982682
0.6454646475898069,0,0.896402
0.6106636252714168,0,0.861354
0.3922874515814421,0,0.964972
0.4379333966507312,1,0.999490
0.5719323563767447,0,0.791775
0.5246719626288017,1,0.999601
0.6431157988741437,0,0.980212
0.7611207369907769,1,0.999530
0.8731339051761932,0,0.993946
0.7637157070433747,1,0.998906
0.21752029643085383,0,0.993260
0.6896053542784637,0,0.993622
0.27007898091391874,1,0.999317
0.9625170251804043,1,0.999695
0.36010938487382294,0,0.847391
0.6078657246090352,1,0.999214
0.8616739325116732,1,0.998102
0.7836834256756757,1,0.999440
0.9360249196594816,1,0.999702
0.9698036512749063,1,0.999667
0.8595977981547336,1,0.998956
0.396845787868332,1,0.997915
0.5731764988369421,0,0.943506
0.3865047976044212,0,0.986735
0.700493599016513,1,0.999363
0.6126065357918794,1,0.997050
0.9575089790533438,0,0.961279
0.3769761144717091,1,0.996605
0.5125012316053722,0,0.984051
0.6173557149866812,1,0.999336
0.9385673543319174,0,0.984315
0.815825503165079,1,0.999555
0.9319917316245538,0,0.925172
0.48201475107387576,1,0.999575
0.789143576124408,1,0.998934
0.6984985568670933,0,0.970262
0.7035128555075283,1,0.994655
0.5899143666580561,0,0.858247
0.8110353833532089,1,0.998544
0.2921828383767358,0,0.980159
0.3581402737770731,1,0.991045
0.9272761641768391,1,0.997278
0.7306314825114398,0,0.968401
0.9454204055792587,1,0.997993
0.7243330795380148,0,0.982644
0.9494753306823707,0,0.987124
0.3532082506433311,1,0.999515
0.5015688215025736,1,0.998446
0.7095595905334685,0,0.826558
0.7203348772345173,0,0.947251
0.847162685483336,1,0.998955
0.8388425949292245,0,0.970695
0.9460452038528736,0,0.988115
0.7093021633258967,0,0.930514
0.5930393316737481,0,0.988033
0.4195526547703006,0,0.804858
0.5214105508264124,0,0.995596
0.7888739137474559,0,0.826949
0.6556772370539914,0,0.871782
0.45990225451959177,0,0.987143
0.7525626124819109,1,0.997647
0.7047571986588196,0,0.984713
0.4142038179422839,0,0.930143
0.5974802977980164,0,0.988361
0.6693116551052681,0,0.930776
0.9341562301935292,0,0.981165
0.6098354651500567,1,0.998532
0.9749618440737795,1,0.997955
0.9085641480132769,0,0.974941
0.8477340116796473,1,0.999629
0.6346578956114028,0,0.973733
0.4378977761629488,0,0.774457
0.8930426347097014,0,0.979086
0.6628271774239622,0,0.923208
0.7741549176430454,1,0.999638
0.7249758149518165,0,0.855779
0.5231931122541967,0,0.886463
0.7579283242911035,0,0.973913
0.24802067823329513,1,0.991424
0.6038860718575548,1,0.985043
0.9964483513242517,1,0.998095
0.9974564603422912,1,0.998258
0.48322911751397,0,0.995068
0.9900775844224964,1,0.999577
0.33891819845594623,0,0.981502
0.5701050912994782,1,0.999661
0.9018355032115669,1,0.999564
0.9071981206056443,1,0.994434
0.2904075193394306,0,0.949624
0.43781460510529824,0,0.984144
0.7105762021727745,0,0.994436
0.821085058114473,0,0.993500
0.9151736087257221,1,0.999483
0.7607066507151945,0,0.995830
0.8881613489540611,1,0.997366
0.8975158275766989,0,0.987271
0.604433909939213,0,0.995007
0.5592794973990897,0,0.991882
0.7880098209471222,0,0.941642
0.6836364579718961,1,0.999214
0.490745783907944,1,0.996333
0.4542552195105729,1,0.998536
0.7320166356229387,0,0.975216
0.8665357774372762,1,0.999620
0.9205674950934052,1,0.999603
0.34464253194404165,1,0.999662
0.8551478454525829,0,0.959146
0.881516655844384,0,0.995334
0.5693645143221788,0,0.981952
0.9853664633092936,0,0.995035
0.35679039646799,1,0.998667
0.4533502726635126,1,0.998507
0.8615551267567026,0,0.921622
0.6029061181871388,0,0.966383
0.9701318076751188,1,0.999695
0.5583302395173717,0,0.993474
0.5595179214362851,1,0.999549
0.8497206004967103,1,0.998918
0.5504975662753666,1,0.997201
0.5027716103501761,0,0.983947
0.9660635277633572,0,0.960563
0.5366680871070968,1,0.999535
0.34212186538189826,0,0.962519
0.7716299073428682,0,0.991184
0.7225207320845666,0,0.953767
0.7231735524676524,1,0.999647
0.6398278771446758,0,0.974213
0.7835151568652414,0,0.987189
0.4332733187790652,1,0.999020
0.891948376529601,0,0.963333
0.7680595499207052,0,0.949853
0.4959676377255662,1,0.994587
0.9579755415668533,0,0.756933
0.6679618225733951,0,0.879106
0.8130807254366971,0,0.990462
0.375570962151282,1,0.999646
0.6342183188848605,1,0.998411
0.6289532441442417,0,0.967095
0.5672079526772515,0,0.946729
0.4197155923628881,1,0.999477
0.8928784035157141,1,0.999566
0.5592485593547845,1,0.996741
0.9670148783028014,0,0.982167
0.621512913064592,0,0.994051
0.4871466279188595,0,0.980105
0.5836292096161543,0,0.948754
0.6797627054113512,1,0.999100
0.5687615272647687,1,0.996484
0.5838756756200034,0,0.838660
0.6139100189858419,1,0.998426
0.790537279392597,1,0.997863
0.4858840073960758,1,0.999221
0.46763289529115915,0,0.988628
0.7505472817394322,1,0.999594
0.5355125901632556,1,0.998775
0.7641348784180051,1,0.999579
0.44819455932350705,1,0.999592
0.7715298863366047,1,0.999646
0.93279116045367,0,0.930254
0.7070436255119805,0,0.919283
0.9679697013139446,0,0.974009
0.37184620945142954,0,0.977642
0.5289517987688093,1,0.999616
0.9031614592558661,1,0.997349
0.5255068208638732,1,0.998723
0.45981391301411423,1,0.998012
0.8796723565443423,0,0.959974
0.611791237466189,0,0.994987
0.8791422474024453,0,0.994567
0.8062962831501097,1,0.997728
0.7166054823167413,1,0.998682
0.6113327569425399,1,0.999296
0.9642475600313283,0,0.986020
0.9932602924086008,1,0.998415
