-0.07480662178714949,0,0.018052
0.13466301411352433,0,0.469157
0.27647275313929986,0,0.871170
0.328843856383009,0,0.062887
0.3814130452484701,0,0.926138
0.19915897748680206,0,0.855369
0.12977267566265296,0,0.710584
0.12881553476706145,0,0.019734
0.11606079816253012,1,0.998264
0.10116981376015782,0,0.352914
0.2298980721677156,0,0.995365
0.10742027774307118,0,0.262821
0.08549674288530514,0,0.753962
0.11405112821627483,0,0.643465
0.20029695403419842,0,0.929636
0.22091852617451657,1,0.996398
0.10745886600255632,0,0.854580
0.1866094203159405,0,0.942097
0.09006438282105382,0,0.934877
0.10636994738250867,0,0.050511
0.10522594774809368,0,0.503733
0.15606870732089112,0,0.833905
0.15489648739301085,0,0.260309
0.0727682846408351,1,0.997534
0.10464772001219645,1,0.995238
0.11799582670991307,0,0.663275
0.2921668083075704,0,0.777357
0.08554751427825334,0,0.730754
0.11634305151824495,0,0.839009
0.11705746374133794,0,0.026296
0.16745298084603624,1,0.998812
0.021379440584604562,0,0.945890
0.08293880888925899,1,0.999607
0.09076495195689929,0,0.979107
0.09791586139046277,0,0.893493
0.18074866643274434,0,0.986806
0.07635963271280836,0,0.970926
0.2225000050782384,0,0.983776
0.04013173971197866,0,0.757435
0.26505792410362106,0,0.702210
0.28387885317900335,0,0.768212
0.11343029032059633,0,0.947406
0.24058750567444523,0,0.960776
0.2621908174862818,0,0.520334
0.11198112662644072,0,0.978276
0.049114283801904454,0,0.980724
0.10943810981988573,0,0.965535
0.3155592352568184,0,0.960632
0.18892194038846835,0,0.982309
0.1547530504227126,0,0.963974
0.20994875966475424,0,0.896442
0.38876620516969784,0,0.989247
0.21173030163048848,0,0.937917
0.2102356677023775,0,0.966841
0.3771810454314663,0,0.934835
0.1880586273228221,0,0.972907
0.2188072156950061,0,0.944842
0.04475862430909592,0,0.970670
0.1785322076401904,0,0.978198
0.07662344605427936,0,0.974513
0.10752798931621704,0,0.967846
0.16648507342727428,0,0.814995
0.2212435850524038,0,0.965632
0.22799677938979593,0,0.968438
0.09455102764318522,0,0.987952
0.17755743138041605,0,0.929694
0.045172232816035864,0,0.985792
0.0886364218630518,0,0.956543
0.10683498761604739,0,0.677826
0.07986220189227815,0,0.970760
0.17649980346198843,0,0.917970
0.1158735745865444,0,0.877836
0.20293241643777796,0,0.924978
0.10819743739880704,0,0.924452
0.11762721928559008,0,0.978684
0.12084195916475965,0,0.987116
0.285055083262759,0,0.974427
0.22880120712294796,0,0.971244
0.17536154248776914,0,0.991572
0.19724115657392355,0,0.874868
0.07437851576074261,0,0.885849
0.22535291144464809,0,0.987273
0.06444100982115637,0,0.991935
0.07638634667127459,0,0.909714
0.03850000601546664,0,0.992617
0.022574879264357056,0,0.905476
0.08021608578975019,0,0.837398
0.03343328441574668,0,0.909639
0.049741566984845526,0,0.931937
0.041057068877123626,0,0.980583
0.08756050930695149,0,0.879409
0.01394406831955186,0,0.870449
0.045215554772930634,0,0.062417
0.12522049015107586,0,0.960000
0.16756660402571924,0,0.809711
0.11614539124285328,0,0.846792
0.229816142000324,1,0.997883
0.21963689520991975,0,0.940025
0.40357875538069343,0,0.758706
0.09636333220434712,0,0.771126
0.16484107348584098,0,0.980812
0.13769787342932785,0,0.909905
0.1804504404258092,0,0.984638
0.31012222991733107,0,0.982481
0.05688143622356459,1,0.996005
0.0448110533380175,0,0.957005
0.039603166103358386,0,0.992293
0.09917068353182776,0,0.853195
0.10787890845386333,0,0.923100
0.3711144262245908,0,0.868352
0.4940390539201742,0,0.879077
0.0899244085655851,0,0.916133
0.3387750046441383,0,0.989835
0.15238646118728294,1,0.996385
0.4805502428098777,0,0.899447
0.10765699033106609,0,0.984546
0.39611391475793417,0,0.959955
0.3805746773499332,0,0.958015
0.1978761850692158,0,0.942857
0.22390344871668955,0,0.978691
0.35593200156826904,0,0.995630
0.31841628144067075,0,0.974984
0.24908555660331114,0,0.908407
0.07012930159443438,0,0.934824
0.07293249135016479,0,0.939130
0.11201748131331374,0,0.929995
0.1363637357192987,0,0.980712
-0.0017546582040953117,0,0.949507
0.14092426787860549,0,0.850631
0.14552584727403076,0,0.929715
0.00811460983859048,0,0.903318
0.07187912633987587,0,0.907211
0.03150288654820903,0,0.923138
0.2066157905009896,0,0.900193
0.0972129462652037,0,0.991940
0.061897470395913055,0,0.890830
0.32182367621144436,0,0.754248
0.10395293760718656,0,0.870130
0.05893407872630181,0,0.897475
-0.004544815096868821,0,0.894647
0.01484219810290142,0,0.902183
0.1832906781362827,1,0.998194
0.1689109653857589,0,0.950617
0.11642583246312342,0,0.960243
0.06925704230401951,0,0.967033
0.1899886437414656,0,0.847734
0.4948556419523722,0,0.783784
0.048019765945037186,0,0.626915
0.01691392559150816,0,0.712958
0.1938736294985525,0,0.786942
0.03556159865331492,0,0.950066
0.1601315607287658,0,0.812245
0.33077737895112114,0,0.637600
0.4891246260456609,0,0.827586
0.17009918082861716,0,0.669962
0.022283245813648205,0,0.963023
0.013494585380064301,0,0.831647
0.3311090495967675,0,0.975631
0.32474937305328294,0,0.964241
0.24862841137143862,0,0.876132
0.6489073677519138,0,0.961415
0.33764143247226835,0,0.987913
0.2695512500080136,0,0.986235
0.22076277704754105,0,0.889398
0.009838646385527993,0,0.957983
-0.006219324130910529,0,0.961933
0.05561078539392469,0,0.801997
-0.003651757349033666,0,0.943101
0.047052809494609035,0,0.814885
0.30250808378060395,1,0.999545
0.06926067838896477,0,0.935459
0.6637815758962681,0,0.927875
0.1473990051147651,0,0.945032
-0.0039500477308697405,0,0.801784
0.21246041271206606,0,0.955657
-0.008812711295154744,1,0.979210
0.11012777351644237,0,0.924235
0.05545648018011488,0,0.797178
0.00985671900730107,0,0.956169
0.24488520761666258,0,0.601774
0.11676095379237755,1,0.997170
0.11417409926943936,0,0.923794
0.11697894180750658,0,0.906047
0.054784019359145314,0,0.799561
0.06885202685563414,0,0.969084
0.12083548096905089,1,0.995846
0.1074982365418745,0,0.892725
0.2913710006390043,0,0.899727
0.17916772338318757,0,0.787157
-0.008400442625042264,0,0.916988
0.03980030173028398,0,0.944818
0.08570447986785572,0,0.911076
0.2810021105433739,0,0.624039
0.5760378250111818,0,0.932467
0.4790001950297365,0,0.978036
0.3076785409025661,0,0.969276
0.009583794564117627,0,0.962195
0.36591909454407906,0,0.823763
0.3681054833839637,0,0.851550
0.2657397762689813,0,0.989356
0.37845889270609445,0,0.868070
0.5465098950944155,0,0.988769
0.1741542869019591,0,0.726964
0.17463032233517573,0,0.897106
0.08079779201978772,0,0.842198
0.5717520534833505,0,0.775502
0.6536404200703474,0,0.959386
0.5945326225710919,0,0.808957
0.22574939645972622,0,0.573055
0.287792402385133,0,0.966505
0.23185082657324965,0,0.973747
0.23331063512627326,0,0.940858
0.12035352278916245,0,0.881965
0.2089770101261538,0,0.896278
0.15035506153779124,0,0.837972
-0.0021024599478743997,0,0.980443
0.2602921898240852,0,0.821992
0.8037658416483008,0,0.893491
0.5203336864539718,0,0.789849
0.30393297838343686,0,0.883582
0.21629120182839615,0,0.957258
0.6454876131437844,0,0.977430
0.7497996011076882,0,0.992091
0.26513395892692165,0,0.939165
0.129485779063189,0,0.980183
0.19594426172879342,0,0.976286
0.26703488705074424,0,0.939597
0.29073591544565625,0,0.962288
0.10511855363234288,0,0.976589
0.3277556517230134,0,0.889856
0.46013445586261664,0,0.992650
0.40930671015977954,1,0.998861
0.18316985138807845,0,0.767363
0.12921630774304768,0,0.946371
0.05571541333895603,0,0.841351
0.04645282799930158,1,0.998726
0.38987929636476654,0,0.935529
0.17379554481376377,0,0.849166
0.2298026170109802,0,0.980406
0.07926278810096934,1,0.999446
0.3414137285999395,0,0.994425
0.3216695769391274,0,0.928874
0.23075832370620628,0,0.987092
0.2863560825340378,0,0.994872
0.3989460691750327,0,0.991374
0.5353628055817532,0,0.668324
0.36318742835246604,0,0.746784
0.2525020091137711,0,0.943375
0.45306685356183446,0,0.943879
0.6196847383625983,0,0.879381
0.4108221222132243,0,0.882752
0.27262910603316165,0,0.768247
0.3347958913381572,0,0.917798
0.5531782345029383,0,0.978826
0.37183279565855415,0,0.938174
0.4834861126250728,0,0.965278
0.6461781498109928,0,0.983952
0.45314303064299044,0,0.992332
0.3391743813210982,0,0.961375
0.46773752293016374,1,0.999645
0.6124179825488554,0,0.969072
0.3330941137108212,1,0.998779
0.3932643043163731,1,0.998439
0.17027412746688542,1,0.995616
0.034451344322465265,1,0.994350
0.003284535374229178,0,0.949136
-0.012819514673547226,0,0.971332
0.00680532982679273,0,0.743724
0.048121227639059176,0,0.701789
0.004352984934376171,0,0.955095
0.02574387176696282,0,0.777778
-0.013664647486949953,0,0.720073
0.027769267416538068,0,0.572632
0.10618182105071272,0,0.675598
0.10983949772531904,1,0.993754
0.19791715084406353,0,0.976953
0.23468498905226812,0,0.882149
0.3549370738182858,0,0.397914
0.3891063826909549,0,0.407039
0.49890675648132443,0,0.866734
0.35924374587375474,1,0.998641
0.45049856712399944,0,0.855346
0.3932710434587635,0,0.991924
0.4985983094946591,0,0.715276
0.5196612509055164,0,0.957935
0.6544640675872089,0,0.899083
0.36302977827846106,0,0.992583
0.36869092363495054,0,0.938106
0.2233202445455959,0,0.972853
0.45228559828852083,0,0.964992
0.48676604134254653,0,0.792740
0.5073456744988374,0,0.942379
0.6718864666923489,0,0.927463
0.5186496844395537,0,0.975239
0.3868380653359816,0,0.905103
0.5270732345338837,0,0.961028
0.45212388548742033,1,0.998203
0.5186633677863455,0,0.990804
0.5655969956434377,0,0.934267
0.6108228613105238,0,0.902650
0.4434507328008348,0,0.978157
0.4751617559273785,0,0.807752
0.6301982121780175,0,0.821556
0.6389384621562401,0,0.792723
0.6236490199523137,0,0.789049
0.33440494805367493,0,0.773608
0.5878558687836258,0,0.993148
0.6470165205982129,0,0.881081
0.45309698462636844,0,0.882730
0.4776965399105473,0,0.987358
0.19979175772136085,0,0.946204
0.5222071561888155,0,0.776901
0.5559334519972982,0,0.940483
0.4656293958314034,0,0.751280
0.49183325664688726,0,0.894207
0.6734132897887727,0,0.738798
0.6788745038968522,0,0.621223
0.6600022290465827,0,0.860098
0.7398299451215843,0,0.696260
0.6540152536183697,0,0.988705
0.7584338569140002,0,0.896758
0.7664197262882263,0,0.874115
0.7407989702672099,0,0.719732
0.7421497103038535,0,0.981101
0.40176114449048006,0,0.939766
0.4972592034221852,0,0.721092
0.143920317192087,0,0.913346
0.40942664786724414,0,0.972640
0.2425969487553231,0,0.894971
0.21336783178218877,0,0.864583
0.23265178205399606,0,0.966565
0.20993109336280336,0,0.897959
0.07216323221975823,0,0.913309
0.2863186206404269,0,0.940359
0.1449555228855112,0,0.992572
0.0656919751087812,0,0.927442
0.31427899522791086,0,0.926707
0.32030344548416156,0,0.804476
0.11740672089974231,0,0.864762
0.100561868504789,0,0.807382
0.07092068045533308,0,0.640187
0.23705668403883273,0,0.733496
0.2557586878051755,0,0.779376
0.3596909278315627,0,0.555891
0.3586644931936643,0,0.545619
0.40079524167087827,0,0.964066
0.2513606728858284,0,0.861938
0.258837782924155,0,0.873188
0.3813063647577494,0,0.881110
0.42350913669521784,1,0.998435
0.3707570343462166,0,0.865441
0.73617771691374,0,0.915678
0.46425612863240834,0,0.994794
0.6919215673283867,0,0.930314
0.6722970987807493,0,0.987122
0.5854834420321927,0,0.942509
0.5015616234139955,0,0.825336
0.3851514363410194,0,0.826810
0.4675114586623765,0,0.822187
0.5821974128430113,0,0.930265
0.6037923582767122,0,0.916120
0.6137509580100035,0,0.865371
0.6469356747444228,0,0.966015
0.5251647533844036,0,0.944142
0.4934503336584091,0,0.759314
0.5730559640807187,0,0.698132
0.6021768856824967,0,0.761698
0.6403846461585401,0,0.855225
0.6689435439233242,1,0.999041
0.672413349215935,1,0.998342
0.4832012950034641,0,0.983189
0.4321200529090319,0,0.933875
0.4697494311848766,0,0.738698
0.4353141553111294,0,0.951478
0.6284238352628316,0,0.744644
0.6570045582919736,0,0.915209
0.5528541317258701,0,0.922211
0.22807513880235553,0,0.978673
0.40880997169545685,0,0.960568
0.4441020379508773,0,0.851112
0.4717739241660688,0,0.730248
0.5030210561960988,0,0.976309
0.24701056158322185,0,0.969846
0.2874275183202664,0,0.932799
0.260715590652098,0,0.949165
0.2672901944557579,0,0.894879
0.28037553911679536,0,0.785469
0.43919660537571004,0,0.771828
0.3605775222233156,0,0.684185
0.24577239903801612,0,0.926078
0.34738611191010094,0,0.886654
0.4518368092282868,0,0.984615
0.5495752239230699,0,0.871984
0.6304881465543036,0,0.680070
0.5235048744531502,0,0.909656
0.44018266046895926,0,0.995654
0.5365987138048453,0,0.919598
0.5900455771010366,0,0.557417
0.5351735895831973,0,0.775199
0.48356196563715137,0,0.838929
0.577501128379616,0,0.581722
0.6753703310742278,1,0.999701
0.6866641724220959,0,0.888820
0.6263088597138525,0,0.669713
0.673770102267296,0,0.884384
0.3303365173830617,0,0.839054
0.4030821739323057,0,0.678232
0.60129364515952,0,0.629203
0.4179431200748813,0,0.818866
0.442590521252875,0,0.841961
0.4221367449337272,0,0.962388
0.5230634135810444,0,0.982107
0.5544032022679823,0,0.844927
0.6263557466327548,0,0.918631
0.6262153923644512,0,0.870440
0.5661658457504073,0,0.913414
0.560463761960564,0,0.737752
0.5919247204710998,0,0.782627
0.6136721007376638,0,0.912807
0.6054512438303515,0,0.823779
0.30544175320793565,0,0.834221
0.22750177864379356,0,0.872852
0.06402618304703524,0,0.864122
0.7213191460852506,1,0.993878
0.26409804376922674,0,0.967156
0.3483422292258125,0,0.618851
0.7664119049948145,0,0.832740
0.751681015548431,0,0.840028
0.7188887766486259,0,0.965316
0.6941115786875823,0,0.980861
0.7283238082007109,0,0.957970
0.7243245325717433,0,0.908560
0.6957084989537788,0,0.948923
0.7442382332717971,1,0.998764
0.733661712350829,0,0.977432
0.682811043805888,0,0.798165
0.7362371544475972,0,0.659666
0.7186105210102467,0,0.860989
0.7204533312722056,0,0.907541
0.548697517173174,0,0.800836
0.2706643942490958,0,0.730389
0.7734164270013543,0,0.939560
0.7313060117901846,0,0.948558
0.7141229041964501,0,0.968737
0.6498857927205847,0,0.896124
0.4103796073408058,0,0.870851
0.2197992995264118,0,0.939049
0.1956541217510792,0,0.891032
0.02621232343263494,1,0.992797
0.6835289430453727,0,0.770903
0.5515292918483208,0,0.986979
0.40422426385598015,0,0.721986
0.21039302098831125,0,0.840989
0.21757055530786845,0,0.738784
0.46616112949141847,0,0.872326
0.09002040301935542,0,0.952215
0.7390056993124807,0,0.943306
0.7796425823893514,0,0.960172
0.6689684028145346,0,0.979604
0.5356063961205818,0,0.929832
0.7472559423899753,0,0.861448
0.32176967881457724,0,0.993017
0.74646626885761,0,0.740010
0.4498881127540244,0,0.926351
0.1801685256306796,0,0.931379
0.7449553925390997,0,0.719595
0.7633793869112626,0,0.818813
0.13507966404477612,0,0.770386
0.31786176973370367,0,0.960596
0.3203145094786769,0,0.978490
0.35036467282222783,0,0.927261
0.3692947983652739,0,0.763871
0.27408333511653865,0,0.928345
0.32965992272324507,0,0.823385
0.06707260123374796,1,0.994917
0.06805065346827018,0,0.899248
0.11077609701559488,0,0.885572
0.1906380973005822,0,0.938827
0.7382583898995623,1,0.998671
0.45628487188557154,0,0.935966
0.6917960754419052,0,0.935673
0.7931892991057564,0,0.966258
0.8192990942312424,1,0.999202
0.8329394626184684,0,0.939353
0.7767678879375878,0,0.948794
0.7320334255582399,0,0.995500
0.7557588505490763,0,0.971513
0.6745461817129149,0,0.902142
0.8281416235062583,0,0.988861
0.3108371837693888,0,0.972174
0.09574984059687157,0,0.962044
0.4600573017753171,0,0.952801
0.019951492543559064,0,0.883858
0.02853986869777255,0,0.855603
0.08121054023652008,0,0.982673
0.029621291227230208,0,0.982456
0.03480861091612584,0,0.734682
0.13929349645347333,0,0.827170
0.20607201214482138,0,0.718412
0.12323679928173173,1,0.986706
0.17343869247997848,1,0.996101
0.1466239015195543,0,0.662021
0.14731370818722367,0,0.959052
0.2479598637742384,0,0.972931
0.26437118304259866,0,0.632266
0.09363150563802373,0,0.928074
0.24523267624235084,0,0.613271
0.2820015309003007,0,0.978897
0.2985631993155295,0,0.990788
0.22394665157638477,0,0.862703
0.3496118371886952,0,0.673095
0.4389204271494238,0,0.651154
0.31644621270129286,0,0.938519
0.19685644650926581,0,0.917657
0.300900790978787,0,0.620958
0.16155051228033684,0,0.884834
0.25294763614843374,0,0.919332
0.28985542590973945,0,0.549252
0.25265996409642044,0,0.712703
0.23162129608247276,0,0.917018
0.6301084168847637,1,0.993653
0.3078071778935965,0,0.982362
0.6191208245659358,0,0.986898
0.6567876207441455,0,0.798542
0.6746563340433405,0,0.905156
0.6886478786608716,0,0.975243
0.6999048693443513,0,0.992548
0.5295559345674492,0,0.928673
0.7085463547363126,0,0.971486
0.6864869742373371,0,0.853417
0.7134635833961221,0,0.918526
0.6426273867110431,0,0.920160
0.6944981411999861,0,0.868068
0.7253490369560216,0,0.994004
0.7340784793252276,0,0.642314
0.45152174093011227,0,0.892465
0.34725386811551695,0,0.985866
0.5135434164810604,0,0.650592
0.6102240794115098,0,0.741497
0.10121114549425714,0,0.946154
0.08221534187578615,0,0.724224
0.23746617477997814,0,0.657738
0.269061348338772,0,0.921747
0.2840905368263396,0,0.777053
0.2724593661979755,0,0.803073
0.30969675103757527,0,0.625243
0.305990286775739,1,0.996466
0.33694700221796053,0,0.490036
0.42292894202956866,0,0.981050
0.36706128367431434,0,0.473643
0.37415043082090343,0,0.987314
0.39888519148027346,1,0.990136
0.4279352105240703,1,0.998965
0.44929645102295923,0,0.962914
0.8043219945847048,0,0.969022
0.8052605319233627,0,0.949753
0.37651424080526513,0,0.932348
0.48072814004148356,0,0.975420
0.47570752819406475,0,0.968807
0.7359261046001025,0,0.866250
0.544711037298403,0,0.859174
0.5219391366001387,0,0.768281
0.47814907925928973,0,0.798722
0.5221910542662412,0,0.992672
0.5569579162921882,1,0.988916
0.6377878470986462,0,0.897111
0.551544410229196,0,0.983328
0.7651840654653744,0,0.985534
0.6021315317128151,0,0.878713
0.63596309748003,0,0.975588
0.807477091885472,0,0.970387
0.8652030853496906,0,0.890636
0.8987679471287804,1,0.997807
0.7170797690273696,0,0.826087
0.5176360250455961,0,0.841024
0.5500878424130116,0,0.919978
0.413200579152967,1,0.993289
0.4146291266821964,0,0.725958
0.38746017891301565,0,0.866991
0.3575641416805865,0,0.875279
0.4361974612129369,0,0.954676
0.36958604914536264,0,0.793301
0.6820286820410608,0,0.842512
0.788842552402301,0,0.993415
0.4078020081301161,0,0.806667
0.6381520492807947,0,0.732655
0.6462584607564882,1,0.999634
0.7601032770458144,0,0.906210
0.7914866028624102,0,0.847870
0.6741531575652583,0,0.917195
0.6214386659647728,0,0.953902
0.6709478967276793,0,0.733537
0.7362983231299224,0,0.860801
0.6886612625460343,0,0.991892
0.7183470987121529,0,0.692641
0.7920074975985041,0,0.982734
0.7588896323335362,0,0.988651
0.789005735541276,1,0.999471
0.7808381306931133,0,0.930533
0.7782354054655941,0,0.814141
0.7375449653418332,0,0.916667
0.7599927261559973,0,0.789032
0.7826787238713769,0,0.987024
0.8039249327174355,0,0.968225
0.8122573690883136,0,0.979944
0.8189349097670191,0,0.953179
0.8318381204309905,0,0.979220
0.8437188310244866,0,0.989230
0.8123693742554394,0,0.992688
0.7976843423376487,0,0.715638
0.8104484539569936,0,0.790084
0.6267064890352864,0,0.387417
0.4115193698318242,0,0.310157
0.3514529976137941,0,0.944676
0.41327349059020513,0,0.761552
0.4272900613911857,0,0.768314
0.42112166418061153,0,0.879923
0.4207902773103569,0,0.785542
0.43577073922198245,1,0.999286
0.4459003655167246,0,0.741089
0.47397131480644383,0,0.950969
0.3053630188840883,0,0.920266
0.36480720154933366,0,0.979489
0.40038370957299463,0,0.821372
0.3887883967917581,0,0.943885
0.4139315646137802,0,0.910941
0.44095229905302813,0,0.732323
0.5178687084149065,0,0.896654
0.5755179987420572,0,0.364198
0.7174133293642894,0,0.830131
0.7043758145084031,0,0.890625
0.6818356963156621,0,0.764184
0.5780222240182178,0,0.388350
0.5708171843086286,0,0.777558
0.29402315731295997,0,0.812336
0.3183758289767244,0,0.884973
0.44503820688756757,1,0.997354
0.4198466446634908,0,0.880998
0.6857549677506397,0,0.709025
0.6607292915804962,0,0.924426
0.3614232172022048,0,0.647743
0.3648753327849284,0,0.621978
0.56399879100597,0,0.962600
0.6155829628233327,1,0.998122
0.3681587118354759,0,0.731618
0.4542991674259696,0,0.619080
0.6237807091802379,0,0.928516
0.6365766282794099,0,0.916110
0.6721101285502905,0,0.989474
0.7686462002023575,0,0.765175
0.740354053705278,0,0.992822
0.8252698522846883,0,0.990700
0.5898138510476956,0,0.784828
0.7772160234936297,0,0.981623
0.8290904229978192,0,0.991077
0.3885799880663109,0,0.980939
0.8488189434864981,0,0.994158
0.8667527594382878,0,0.711081
0.8656380791000264,0,0.736377
0.5642447680478718,0,0.974191
0.5683453451517781,0,0.865734
0.5436530769297314,0,0.840195
0.6483127621741696,0,0.840359
0.5537699621397515,0,0.761344
0.7068282394923195,1,0.994282
0.6602666345035673,1,0.998597
0.6642608600804903,0,0.757900
0.6034960935258925,0,0.906436
0.46597320121955405,0,0.798587
0.6800603537893608,0,0.837082
0.7822833168981271,1,0.995014
0.649588395417653,0,0.825720
0.62985886394113,0,0.739316
0.7852468916555366,0,0.528752
0.8070675619507082,0,0.805238
0.8260638078114166,0,0.695194
0.7495395130246416,0,0.728047
0.7078729539735334,0,0.946012
0.8280435283102977,0,0.745002
0.7869766670538303,0,0.982493
