0.9999999998678089,1,0.999992
0.9999999905063367,1,0.999991
0.9999999416599314,1,0.999994
0.9998258273159334,1,0.999993
0.9999999999996598,1,0.999994
0.9996110760882886,1,0.999993
1.0,1,0.999994
0.9999999999999976,1,0.999994
0.9999999999999941,1,0.999993
1.0,1,0.999993
0.999999999999995,1,0.999993
1.0,0,0.999757
0.9999999999999655,1,0.999994
1.0,1,0.999993
1.0,1,0.999993
1.0,1,0.999993
0.9999999999999943,1,0.999993
0.9999999999999936,1,0.999992
1.0,1,0.999993
1.0,1,0.999992
1.0,1,0.999993
0.9999999999999807,1,0.999992
1.0,1,0.999994
0.9999999999999648,1,0.999992
1.0,1,0.999994
1.0,1,0.999993
1.0,1,0.999993
1.0,1,0.999994
0.9999999999999954,1,0.999994
0.9999999999999956,1,0.999993
0.9999999999999897,1,0.999993
0.9999999999999877,1,0.999993
1.0,1,0.999993
0.9999999999999989,1,0.999994
0.999999998973973,1,0.999993
1.0,1,0.999994
0.999999999999974,1,0.999993
1.0,1,0.999994
0.9999999999999483,1,0.999993
1.0,1,0.999994
0.9999999999999689,1,0.999993
0.999999999999978,1,0.999992
0.9999999999999979,1,0.999993
0.9999999999999897,1,0.999993
0.9999999999999947,1,0.999994
0.9999999999999987,1,0.999993
0.9999999999999842,1,0.999993
1.0,1,0.999994
1.0,1,0.999993
1.0,1,0.999993
1.0,1,0.999994
0.9999999999999677,1,0.999992
0.9999999999999921,1,0.999993
0.9999999999999761,1,0.999993
1.0,1,0.999993
0.9999999999999741,1,0.999991
0.9999999999999747,1,0.999992
1.0,1,0.999990
0.9999611450965965,1,0.999994
0.9999999999998839,1,0.999993
1.0,1,0.999993
0.9999999999999933,1,0.999993
1.0,1,0.999993
0.9999999999999771,1,0.999993
0.9999999999807093,1,0.999993
0.9999999999999966,1,0.999994
1.0,1,0.999992
1.0,1,0.999991
0.9999999999999791,1,0.999993
1.0,1,0.999993
0.9999999999999694,1,0.999993
0.9999999999999895,1,0.999993
1.0,1,0.999992
1.0,1,0.999992
0.9999999999999827,1,0.999992
1.0,1,0.999992
0.9999999999999953,1,0.999993
0.9999999999999835,1,0.999991
0.9999999999999891,1,0.999993
1.0,1,0.999993
0.9999999999999962,1,0.999993
0.9999999999999999,1,0.999993
0.999947691792619,1,0.999994
0.999999999998612,1,0.999993
0.9999999999999283,1,0.999992
0.9999999999999786,1,0.999993
0.9999999999999744,1,0.999993
1.0,1,0.999993
0.9999999999999852,1,0.999993
1.0,1,0.999993
0.9999999999999849,1,0.999994
1.0,1,0.999993
1.0,1,0.999993
0.9999999999999881,1,0.999994
0.999999999999971,1,0.999994
0.9999999999999918,1,0.999993
0.9999999999999857,1,0.999993
0.9999999999999933,1,0.999994
0.9999999999999765,1,0.999994
1.0,1,0.999994
0.9999999999999624,1,0.999993
0.9999999999999998,1,0.999993
1.0,1,0.999993
1.0,1,0.999993
0.9999999999999776,1,0.999993
0.9999999999999679,1,0.999993
1.0,1,0.999993
0.999999999999995,1,0.999992
1.0,1,0.999993
0.9999999999999559,1,0.999993
1.0,1,0.999994
1.0,1,0.999993
1.0,1,0.999993
0.9999999999999848,1,0.999993
1.0,1,0.999993
1.0,1,0.999993
1.0,1,0.999993
0.9999999999999892,1,0.999993
1.0,1,0.999994
1.0,1,0.999993
1.0,1,0.999994
0.999999999999954,1,0.999992
1.0,1,0.999994
0.9999999999999974,1,0.999992
0.9999999999999907,1,0.999993
0.9999999999999968,1,0.999992
1.0,1,0.999994
1.0,1,0.999994
1.0,1,0.999994
0.9999999999999839,1,0.999993
1.0,1,0.999993
1.0,1,0.999993
0.9999999999999456,1,0.999994
1.0,1,0.999993
1.0,1,0.999993
1.0,1,0.999994
1.0,1,0.999993
1.0,1,0.999992
0.9999999999999623,1,0.999994
1.0,1,0.999993
0.9999999999999847,1,0.999993
1.0,1,0.999993
0.9999999999999591,1,0.999994
1.0,1,0.999993
1.0,1,0.999994
0.9999999999999974,1,0.999992
1.0,1,0.999992
0.9999999999999973,1,0.999992
0.9999999999999832,1,0.999992
0.999999999999988,1,0.999993
1.0,1,0.999993
1.0,1,0.999993
0.9999999999999524,1,0.999993
1.0,1,0.999992
1.0,1,0.999993
0.9999999999999978,1,0.999993
0.9999999999999637,1,0.999993
1.0,1,0.999994
1.0,1,0.999993
0.9999999999999585,1,0.999993
1.0,1,0.999994
1.0,1,0.999994
1.0,1,0.999993
0.9999999999999972,1,0.999992
1.0,1,0.999993
0.9999999999999939,1,0.999993
1.0,1,0.999993
0.9999999999999939,1,0.999994
1.0,1,0.999993
0.9999999999999852,1,0.999994
0.9999999999999383,1,0.999994
1.0,1,0.999993
1.0,1,0.999993
1.0,1,0.999993
1.0,1,0.999992
0.9999999999999881,1,0.999992
0.9999999999999614,1,0.999992
1.0,1,0.999991
1.0,1,0.999989
0.9999999999999757,1,0.999990
1.0,1,0.999992
0.9999999999999916,1,0.999992
0.9999999999999909,1,0.999991
0.9999999999999943,1,0.999990
0.9999999999999966,1,0.999992
0.9999999999999868,1,0.999992
0.9999999999999902,1,0.999994
1.0,1,0.999992
1.0,1,0.999992
1.0,1,0.999993
1.0,1,0.999993
0.9999999999999843,1,0.999993
1.0,1,0.999993
1.0,1,0.999992
1.0,1,0.999992
0.9999999999999473,1,0.999991
0.9999999999999976,1,0.999992
1.0,1,0.999994
1.0,1,0.999993
1.0,1,0.999993
0.9999999999999931,1,0.999993
0.9999999999999881,1,0.999994
1.0,1,0.999993
0.999999999999946,1,0.999992
0.9999999999999583,1,0.999994
0.9999999999683403,1,0.999993
1.0,1,0.999993
0.9999999999999887,1,0.999994
0.9999999999999913,1,0.999993
1.0,1,0.999994
1.0,1,0.999993
1.0,1,0.999993
1.0,1,0.999993
1.0,1,0.999993
0.9999999999999848,1,0.999993
0.9999999999999806,1,0.999993
1.0,1,0.999994
0.9999999999999855,1,0.999992
1.0,1,0.999993
1.0,1,0.999993
0.9999999999999526,1,0.999992
1.0,1,0.999993
0.9999999999999728,1,0.999993
0.9999999999999892,1,0.999994
0.9999999999999839,1,0.999993
0.9999999999999838,1,0.999993
1.0,1,0.999992
1.0,1,0.999993
1.0,1,0.999993
1.0,1,0.999993
0.9999999999999734,1,0.999993
1.0,1,0.999992
0.999999999999995,1,0.999994
1.0,1,0.999993
1.0,1,0.999993
0.9999999999999999,1,0.999993
0.9999999999999756,1,0.999993
0.9999999999999626,1,0.999993
0.9999999999999545,1,0.999994
1.0,1,0.999992
1.0,1,0.999994
1.0,1,0.999993
1.0,1,0.999992
1.0,1,0.999993
0.9999999999999819,1,0.999994
1.0,1,0.999993
1.0,1,0.999993
1.0,1,0.999993
0.9999999999999771,1,0.999993
0.999999999999996,1,0.999993
0.9999999999999616,1,0.999993
0.999999999999976,1,0.999993
0.9999999999999876,1,0.999993
0.999999999999978,1,0.999993
1.0,1,0.999993
1.0,1,0.999992
1.0,1,0.999992
1.0,1,0.999993
0.9999999999999807,1,0.999993
1.0,1,0.999993
0.9999999999999745,1,0.999992
0.9999999999999793,1,0.999994
0.9999999999999506,1,0.999993
0.9999999999999879,1,0.999993
0.9999999999999593,1,0.999993
0.9999999999999449,1,0.999991
1.0,1,0.999992
1.0,1,0.999993
0.9999999999999668,1,0.999993
0.9999999999999791,1,0.999993
0.9999999999999853,1,0.999994
1.0,1,0.999993
0.9999999999999903,1,0.999993
1.0,1,0.999993
0.9999999999999538,1,0.999993
0.9999999999999921,1,0.999993
1.0,1,0.999993
0.9999999999999668,1,0.999993
0.9999999999999969,1,0.999993
0.9999999999999625,1,0.999994
0.9999999999999892,1,0.999992
1.0,1,0.999994
0.999999999999938,1,0.999992
1.0,1,0.999992
0.9999999999999775,1,0.999993
0.9999999999999863,1,0.999992
1.0,1,0.999993
1.0,1,0.999993
0.9999999999999846,1,0.999993
0.9999999999999801,1,0.999992
1.0,1,0.999992
0.9999999999999968,1,0.999993
0.9999999999999964,1,0.999993
0.9999999999999757,1,0.999992
1.0,1,0.999993
1.0,1,0.999993
0.9999999999999857,1,0.999994
1.0,1,0.999994
0.9999999999999905,1,0.999993
0.9999999999999902,1,0.999993
1.0,1,0.999993
0.9999999999999876,1,0.999993
1.0,1,0.999994
1.0,1,0.999993
1.0,1,0.999993
1.0,1,0.999993
0.9999999999999922,1,0.999993
0.9999999999999376,1,0.999993
1.0,1,0.999993
1.0,1,0.999993
1.0,1,0.999993
0.999999999999969,1,0.999993
0.9999999999999961,1,0.999994
0.9999999999999516,1,0.999994
0.9999999999999944,1,0.999993
0.9999999999999994,1,0.999993
0.9999999999999825,1,0.999994
1.0,1,0.999993
1.0,1,0.999993
1.0,1,0.999994
0.9999999999999922,1,0.999993
1.0,1,0.999993
0.9999999999999916,1,0.999994
1.0,1,0.999993
1.0,1,0.999992
1.0,1,0.999994
1.0,1,0.999994
0.9999999999999986,1,0.999993
0.9999999999999954,1,0.999993
1.0,1,0.999992
1.0,1,0.999993
1.0,1,0.999993
0.9999999999999691,1,0.999994
0.9999999999999644,1,0.999994
0.9999999999999601,1,0.999993
1.0,1,0.999994
1.0,1,0.999993
1.0,1,0.999993
0.9999999999999655,1,0.999994
0.999999999999972,1,0.999993
0.9999999999999484,1,0.999992
0.9999999999999594,1,0.999994
0.9999999999999966,1,0.999994
1.0,1,0.999992
1.0,1,0.999992
0.999999999999961,1,0.999993
1.0,1,0.999993
0.9999999999999519,1,0.999994
0.9999999999999858,1,0.999994
0.9999999999999831,1,0.999993
0.9999999999999958,1,0.999993
0.999999999999974,1,0.999994
0.9999999999999658,1,0.999993
0.9999999999999891,1,0.999993
0.9999999999999708,1,0.999993
1.0,1,0.999993
0.9999999999999899,1,0.999993
0.9999999999999821,1,0.999993
0.9999999999999886,1,0.999993
0.9999999999999805,1,0.999993
1.0,1,0.999993
0.9999999999999816,1,0.999993
0.9999999999999911,1,0.999993
1.0,1,0.999993
0.9999999999999905,1,0.999994
1.0,1,0.999994
1.0,1,0.999992
0.9999999999999968,1,0.999993
1.0,1,0.999989
0.9999999999998895,1,0.999993
0.9999999999999899,1,0.999994
0.9999999999999951,1,0.999994
0.9999999999999695,1,0.999994
1.0,1,0.999993
1.0,1,0.999993
1.0,1,0.999994
1.0,1,0.999994
0.9999999999999865,1,0.999994
0.999999999999986,1,0.999994
1.0,1,0.999993
1.0,1,0.999993
1.0,1,0.999994
1.0,1,0.999993
1.0,1,0.999993
0.9999999999999822,1,0.999993
0.9999999999999967,1,0.999994
0.9999999999999722,1,0.999993
1.0,1,0.999993
0.9999999999999609,1,0.999993
0.999999999999982,1,0.999993
1.0,1,0.999993
1.0,1,0.999994
1.0,1,0.999994
0.9999999999999978,1,0.999993
1.0,1,0.999993
1.0,1,0.999993
0.9999999999999993,1,0.999993
0.9999999999999802,1,0.999993
1.0,1,0.999994
1.0,1,0.999993
1.0,1,0.999993
1.0,1,0.999994
0.9999999999999901,1,0.999993
0.9999999999999741,1,0.999994
0.9999999999999883,1,0.999993
1.0,1,0.999993
0.9999999999999675,1,0.999993
1.0,1,0.999993
1.0,1,0.999994
1.0,1,0.999993
0.9999999999999929,1,0.999993
0.9999999999999603,1,0.999993
1.0,1,0.999993
0.9999999999999948,1,0.999993
0.9999999999999915,1,0.999993
1.0,1,0.999994
0.9999999999999751,1,0.999993
1.0,1,0.999993
0.999999999999973,1,0.999993
1.0,1,0.999993
0.9999999999999797,1,0.999993
1.0,1,0.999993
1.0,1,0.999994
0.9999999999999589,1,0.999993
1.0,1,0.999992
0.999999999999967,1,0.999994
1.0,1,0.999993
1.0,1,0.999993
0.9999999999999865,1,0.999994
0.9999999999999772,1,0.999994
0.9999999999999741,1,0.999993
1.0,1,0.999993
0.9999999999999966,1,0.999993
0.999999999999989,1,0.999994
0.9999999999999486,1,0.999993
0.9999999999999504,1,0.999992
1.0,1,0.999992
0.9999999999999379,1,0.999992
1.0,1,0.999994
0.9999999999999791,1,0.999993
1.0,1,0.999993
0.9999999999999899,1,0.999992
0.9999999999999978,1,0.999993
1.0,1,0.999992
1.0,1,0.999993
0.9999999999999524,1,0.999993
0.9999999999999999,1,0.999993
1.0,1,0.999994
1.0,1,0.999993
0.9999999999999891,1,0.999993
1.0,1,0.999993
0.9999999999999909,1,0.999993
1.0,1,0.999994
0.9999999999999536,1,0.999993
1.0,1,0.999992
0.999999999999988,1,0.999993
1.0,1,0.999993
0.9999999999999878,1,0.999993
0.9999999999999574,1,0.999993
1.0,1,0.999993
0.9999999999999704,1,0.999993
1.0,1,0.999994
0.999999999999998,1,0.999993
0.9999999999999896,1,0.999994
1.0,1,0.999994
0.9999999999999593,1,0.999993
0.9999999999999764,1,0.999993
0.999999999999996,1,0.999993
0.9999999999999866,1,0.999994
0.999999999999994,1,0.999994
1.0,1,0.999994
0.9999999999999737,1,0.999994
1.0,1,0.999993
0.999999999999969,1,0.999993
0.9999818015460507,1,0.999993
0.9999999999999915,1,0.999992
0.9999999999999997,1,0.999993
1.0,1,0.999994
0.9999999999999741,1,0.999994
1.0,1,0.999994
0.9999999999999601,1,0.999993
0.9999999999999786,1,0.999993
1.0,1,0.999994
1.0,1,0.999994
1.0,1,0.999994
0.999999999999968,1,0.999993
0.9999999999999886,1,0.999993
1.0,1,0.999993
0.9999999999999905,1,0.999993
1.0,1,0.999994
0.9999999999999756,1,0.999993
1.0,1,0.999993
0.9999999999999748,1,0.999993
1.0,1,0.999993
0.9999999999999992,1,0.999993
1.0,1,0.999993
0.9999999999999853,1,0.999993
1.0,1,0.999993
1.0,1,0.999993
0.9999999999999921,1,0.999993
0.9999999999999833,1,0.999993
0.9999999999999716,1,0.999993
1.0,1,0.999994
0.9999999999999994,1,0.999993
0.9999999999999775,1,0.999994
0.9999999999999998,1,0.999994
0.9999999999999967,1,0.999993
1.0,1,0.999993
1.0,1,0.999993
1.0,1,0.999993
0.9999999999999747,1,0.999993
0.9999999999999619,1,0.999993
0.9999999999999876,1,0.999993
1.0,1,0.999992
1.0,1,0.999993
1.0,1,0.999993
0.9999999999999799,1,0.999994
1.0,1,0.999994
1.0,1,0.999993
1.0,1,0.999993
1.0,1,0.999994
0.9999999999999676,1,0.999994
0.9999999999999727,1,0.999993
0.9999999999999961,1,0.999994
0.9999999999999658,1,0.999994
1.0,1,0.999994
1.0,1,0.999993
1.0,1,0.999993
1.0,1,0.999993
1.0,1,0.999994
1.0,1,0.999994
0.9999999999999432,1,0.999993
0.9999999999999872,1,0.999993
0.9999999999999817,1,0.999994
1.0,1,0.999993
1.0,1,0.999994
1.0,1,0.999993
1.0,1,0.999993
1.0,1,0.999993
1.0,1,0.999994
0.9999999999999957,1,0.999993
0.9999999999999846,1,0.999993
1.0,1,0.999993
0.999999999999995,1,0.999992
0.999999999999995,1,0.999993
1.0,1,0.999993
0.9999999999999822,1,0.999994
0.9999999999999916,1,0.999994
0.9999999999999908,1,0.999994
0.9999999999999933,1,0.999993
1.0,1,0.999993
0.9999999999999982,1,0.999993
1.0,1,0.999994
0.9999999999999665,1,0.999993
0.9999999999999861,1,0.999994
1.0,1,0.999994
0.9999999999999685,1,0.999994
0.9999999999999767,1,0.999993
0.9999999999999748,1,0.999993
0.9999999999999819,1,0.999993
1.0,1,0.999994
0.9999999999999818,1,0.999994
1.0,1,0.999993
1.0,1,0.999993
1.0,1,0.999993
0.9999999999999758,1,0.999993
0.9999999999999862,1,0.999993
1.0,1,0.999993
1.0,1,0.999994
0.9999999999999569,1,0.999994
0.9999999999999958,1,0.999994
0.9999999999999735,1,0.999994
1.0,1,0.999993
0.999999999999988,1,0.999993
0.9999999999999737,1,0.999993
1.0,1,0.999993
0.9999999999999807,1,0.999994
1.0,1,0.999993
1.0,1,0.999993
0.9999999999999836,1,0.999992
0.999999999999967,1,0.999993
1.0,1,0.999994
1.0,1,0.999994
0.9999999999999556,1,0.999993
0.9999999999999949,1,0.999994
1.0,1,0.999994
0.999999999999989,1,0.999994
1.0,1,0.999993
0.9999999999999841,1,0.999994
0.9999999999999867,1,0.999994
0.9999999999999953,1,0.999994
1.0,1,0.999993
1.0,1,0.999993
0.9999999999999808,1,0.999993
1.0,1,0.999993
1.0,1,0.999993
0.9999999999999953,1,0.999993
1.0,1,0.999994
1.0,1,0.999994
1.0,1,0.999994
1.0,1,0.999993
1.0,1,0.999994
1.0,1,0.999993
1.0,1,0.999994
0.9999999999999999,1,0.999993
0.9999999999999829,1,0.999994
1.0,1,0.999992
0.999999999999977,1,0.999993
0.9999999999999938,1,0.999994
1.0,1,0.999994
0.9999999999999601,1,0.999993
1.0,1,0.999993
1.0,1,0.999993
1.0,1,0.999992
1.0,1,0.999994
1.0,1,0.999994
0.9999999999999856,1,0.999993
1.0,1,0.999993
1.0,1,0.999994
0.9999999999999908,1,0.999994
0.9999999999999865,1,0.999994
0.9999999999999964,1,0.999993
1.0,1,0.999993
0.9999999999999895,1,0.999993
1.0,1,0.999993
0.9999999999999911,1,0.999993
1.0,1,0.999994
1.0,1,0.999993
1.0,1,0.999993
0.9999999999999927,1,0.999993
0.9999999999999937,1,0.999993
1.0,1,0.999993
1.0,1,0.999993
1.0,1,0.999993
1.0,1,0.999994
1.0,1,0.999994
0.9999999999999277,1,0.999993
0.999999999999995,1,0.999993
0.9999999999999917,1,0.999994
0.9999999999999722,1,0.999993
0.9999999999999722,1,0.999993
1.0,1,0.999994
0.999999999999979,1,0.999994
1.0,1,0.999994
0.9999999999999568,1,0.999993
1.0,1,0.999993
0.9999999999999925,1,0.999993
1.0,1,0.999994
0.9999999999999872,1,0.999993
0.9999999999999751,1,0.999993
0.9999999999999958,1,0.999993
0.9999999999999655,1,0.999994
1.0,1,0.999993
0.9999999999999534,1,0.999994
1.0,1,0.999993
1.0,1,0.999994
1.0,1,0.999993
0.9999999999999953,1,0.999993
0.9999999999999852,1,0.999993
0.9999999999999853,1,0.999993
0.999999999999998,1,0.999993
1.0,1,0.999994
0.9999999999999564,1,0.999994
0.9999999999999729,1,0.999994
1.0,1,0.999993
1.0,1,0.999994
1.0,1,0.999993
0.9999999999999986,1,0.999993
1.0,1,0.999993
1.0,1,0.999994
1.0,1,0.999993
1.0,1,0.999993
1.0,1,0.999993
0.9999999999999849,1,0.999993
0.9999999999999983,1,0.999993
1.0,1,0.999994
0.9999999999999878,1,0.999993
0.9999999999999788,1,0.999993
0.999999999999961,1,0.999993
0.9999999999999784,1,0.999993
1.0,1,0.999993
1.0,1,0.999993
0.9999999999999812,1,0.999993
0.9999999999999865,1,0.999993
1.0,1,0.999993
0.9999999999999951,1,0.999993
0.9999999999999982,1,0.999993
1.0,1,0.999993
0.9999999999999861,1,0.999993
1.0,1,0.999993
1.0,1,0.999994
1.0,1,0.999994
1.0,1,0.999993
0.9999999999999719,1,0.999993
0.9999999999999968,1,0.999994
0.9999999999999948,1,0.999994
0.9999999999999691,1,0.999994
0.9999999999999872,1,0.999993
1.0,1,0.999994
0.9999999999999762,1,0.999993
0.9999999999999879,1,0.999993
1.0,1,0.999994
0.9999999999999928,1,0.999994
1.0,1,0.999994
1.0,1,0.999994
0.999999999999986,1,0.999993
0.9999999999999741,1,0.999993
1.0,1,0.999993
1.0,1,0.999994
1.0,1,0.999994
0.9999999999999897,1,0.999994
1.0,1,0.999993
1.0,1,0.999993
0.9999999999999731,1,0.999994
1.0,1,0.999994
0.9999999999999932,1,0.999993
0.9999999999999685,1,0.999994
1.0,1,0.999993
0.9999999999999967,1,0.999993
0.9999999999999828,1,0.999993
1.0,1,0.999994
0.9999999999999805,1,0.999993
0.999999999999966,1,0.999994
0.9999999999999931,1,0.999993
1.0,1,0.999992
1.0,1,0.999993
1.0,1,0.999993
0.9999999999999731,1,0.999993
1.0,1,0.999993
0.9999999999999941,1,0.999993
0.9999999999999988,1,0.999994
1.0,1,0.999994
1.0,1,0.999993
0.9999999999999964,1,0.999994
1.0,1,0.999994
0.9999999999999906,1,0.999993
1.0,1,0.999993
0.9999999999999918,1,0.999993
0.9999999999999983,1,0.999993
1.0,1,0.999993
1.0,1,0.999993
0.9999999999999724,1,0.999994
1.0,1,0.999993
0.9999999999999728,1,0.999993
0.9999999999999982,1,0.999994
0.9999999999999953,1,0.999993
0.9999999999999586,1,0.999993
0.9999999999999902,1,0.999994
0.9999999999998965,1,0.999991
0.9999999999999633,1,0.999992
0.9999999999999905,1,0.999992
0.999999999999993,1,0.999994
1.0,1,0.999993
0.9999999999999443,1,0.999993
1.0,1,0.999994
0.9999999999999889,1,0.999993
0.9999999999999702,1,0.999993
1.0,1,0.999993
1.0,1,0.999993
1.0,1,0.999993
1.0,1,0.999994
0.9999999999999893,1,0.999993
0.9999999999999802,1,0.999993
1.0,1,0.999992
1.0,1,0.999992
1.0,1,0.999992
0.9999999999999987,1,0.999993
1.0,1,0.999993
1.0,1,0.999992
1.0,1,0.999994
1.0,1,0.999993
1.0,1,0.999994
1.0,1,0.999992
0.9999999999999388,1,0.999993
1.0,1,0.999992
0.9999999999999799,1,0.999992
1.0,1,0.999992
0.9999999999999746,1,0.999991
0.999999999999994,1,0.999992
1.0,1,0.999993
1.0,1,0.999993
0.9999999999999961,1,0.999993
1.0,1,0.999992
1.0,1,0.999992
0.9999999999999994,1,0.999992
1.0,1,0.999993
0.9999999999999908,1,0.999993
1.0,1,0.999993
0.9999999999999745,1,0.999993
1.0,1,0.999992
0.9999999999999946,1,0.999994
1.0,1,0.999994
1.0,1,0.999994
1.0,1,0.999993
0.9999999999999238,1,0.999994
0.9999999999999744,1,0.999993
0.9999999999999613,1,0.999994
0.9999999999999992,1,0.999994
1.0,1,0.999993
1.0,1,0.999994
1.0,1,0.999993
1.0,1,0.999993
0.9999999999999889,1,0.999994
0.999999999999974,1,0.999994
0.9999999999999698,1,0.999994
1.0,1,0.999993
1.0,1,0.999989
0.9999999999999698,1,0.999989
1.0,1,0.999989
1.0,1,0.999988
1.0,1,0.999993
1.0,1,0.999992
0.9999999999999936,1,0.999993
1.0,1,0.999993
0.9999999999999866,1,0.999992
0.9999999999999912,1,0.999993
1.0,1,0.999994
1.0,1,0.999994
0.9999999999999697,1,0.999994
1.0,1,0.999993
0.9999999999999764,1,0.999993
0.9999999999999634,1,0.999993
0.9999999999999881,1,0.999993
1.0,1,0.999993
1.0,1,0.999993
1.0,1,0.999994
0.9999999999999881,1,0.999993
0.9999999999999845,1,0.999993
1.0,1,0.999994
0.9999634840261316,1,0.999994
1.0,1,0.999994
1.0,1,0.999993
0.9999999999999991,1,0.999994
1.0,1,0.999994
1.0,1,0.999993
0.9999996654011817,1,0.999994
1.0,1,0.999993
0.9999999999999812,1,0.999994
1.0,1,0.999993
1.0,1,0.999993
1.0,1,0.999994
1.0,1,0.999994
0.9999999999999937,1,0.999993
0.9999999999999912,1,0.999993
1.0,1,0.999993
0.9999999999999797,1,0.999994
0.9999999999999896,1,0.999993
0.9999999999999798,1,0.999993
1.0,1,0.999993
1.0,1,0.999994
1.0,1,0.999993
0.9999999999999731,1,0.999993
0.9999999999999921,1,0.999993
0.9999999999999943,1,0.999993
0.9999999999999877,1,0.999993
1.0,1,0.999993
0.999999999999958,1,0.999993
0.9999999999999722,1,0.999993
1.0,1,0.999993
1.0,1,0.999993
1.0,1,0.999994
0.9999999999999983,1,0.999993
1.0,1,0.999993
0.9999999999999865,1,0.999993
0.9999999999999929,1,0.999993
1.0,1,0.999993
1.0,1,0.999993
1.0,1,0.999994
0.9999999999999568,1,0.999994
0.999999999999981,1,0.999993
1.0,1,0.999993
1.0,1,0.999993
1.0,1,0.999993
0.999999999999997,1,0.999993
0.9999999999999669,1,0.999994
1.0,1,0.999993
0.9999999999999791,1,0.999993
0.9999999999999886,1,0.999993
0.9999999999999503,1,0.999994
0.999999999999999,1,0.999994
0.9999999999999828,1,0.999994
0.9999999999999999,1,0.999994
0.9999999999999947,1,0.999993
0.9999999999999815,1,0.999994
1.0,1,0.999994
0.9999999999999979,1,0.999993
1.0,1,0.999994
1.0,1,0.999993
0.9999999999999998,1,0.999993
1.0,1,0.999994
0.9999999999999978,1,0.999993
1.0,1,0.999994
1.0,1,0.999993
0.9999999999999842,1,0.999993
0.9999999999999525,1,0.999994
0.9999999999999812,1,0.999993
1.0,1,0.999993
0.9999999999999742,1,0.999993
0.999999999999992,1,0.999993
0.9999999999999818,1,0.999993
1.0,1,0.999993
1.0,1,0.999993
0.9999999999999881,1,0.999993
0.9999999999999667,1,0.999993
0.999999999999965,1,0.999993
1.0,1,0.999993
1.0,1,0.999994
1.0,1,0.999994
1.0,1,0.999994
0.9999999999999873,1,0.999994
1.0,1,0.999994
1.0,1,0.999993
1.0,1,0.999993
1.0,1,0.999993
0.9999999999999517,1,0.999994
1.0,1,0.999993
1.0,1,0.999994
0.9999999999999295,1,0.999993
1.0,1,0.999993
0.9999999999999761,1,0.999993
1.0,1,0.999993
0.9999999999999957,1,0.999993
1.0,1,0.999993
0.9999999999999998,1,0.999993
0.9999999999999523,1,0.999993
0.9999999999999889,1,0.999993
1.0,1,0.999993
1.0,1,0.999992
1.0,1,0.999992
0.9999999999999953,1,0.999992
0.9999999999999999,1,0.999990
1.0,1,0.999992
1.0,1,0.999993
0.9999999999999847,1,0.999992
1.0,1,0.999994
0.9999999999999974,1,0.999992
1.0,1,0.999993
0.9999999999999968,1,0.999992
1.0,1,0.999992
0.9999999999999996,1,0.999992
1.0,1,0.999993
1.0,1,0.999993
0.9999999999999855,1,0.999993
0.9999999999999811,1,0.999992
0.999999999999973,1,0.999993
1.0,1,0.999993
1.0,1,0.999993
0.9999999999999926,1,0.999992
0.9999999999999806,1,0.999992
1.0,1,0.999993
1.0,1,0.999993
1.0,1,0.999993
0.9999999999999764,1,0.999993
0.9999999999999813,1,0.999992
0.9999999999999972,1,0.999993
0.9999999999999928,1,0.999992
1.0,1,0.999992
1.0,1,0.999992
0.9999999999999732,1,0.999993
1.0,1,0.999991
1.0,1,0.999993
0.9999999999999866,1,0.999994
1.0,1,0.999994
1.0,1,0.999993
1.0,1,0.999993
0.9999999999999715,1,0.999993
0.9999999999999506,1,0.999993
1.0,1,0.999993
0.9999999999999414,1,0.999993
1.0,1,0.999994
1.0,1,0.999994
0.9999999999999775,1,0.999993
0.9999999999999661,1,0.999993
1.0,1,0.999993
0.9999999999999968,1,0.999993
0.9999999999999898,1,0.999993
0.9999999999999793,1,0.999993
0.999999999999984,1,0.999993
0.9999999999999775,1,0.999993
0.9999999999999737,1,0.999993
0.9999999999999728,1,0.999993
1.0,1,0.999993
1.0,1,0.999993
0.9999999999999547,1,0.999993
1.0,1,0.999993
0.9999999999999996,1,0.999994
1.0,1,0.999993
0.999999999999971,1,0.999994
1.0,1,0.999993
1.0,1,0.999993
1.0,1,0.999994
0.9999999999999877,1,0.999994
1.0,1,0.999994
1.0,1,0.999993
1.0,1,0.999994
1.0,1,0.999994
1.0,1,0.999993
0.9999999999999936,1,0.999994
0.9999999999999744,1,0.999994
0.999999999999984,1,0.999993
1.0,1,0.999993
0.9999999999999774,1,0.999993
0.9999999999999948,1,0.999993
1.0,1,0.999994
0.9999999999999487,1,0.999994
0.9999999999999895,1,0.999993
0.9999999999999897,1,0.999994
0.999999999999975,1,0.999994
0.9999999999999921,1,0.999994
1.0,1,0.999993
1.0,1,0.999993
1.0,1,0.999993
0.9999999999999835,1,0.999993
1.0,1,0.999994
1.0,1,0.999993
0.999999999999975,1,0.999993
0.999999999999972,1,0.999993
1.0,1,0.999993
0.9999999999999803,1,0.999993
1.0,1,0.999993
1.0,1,0.999994
0.9999999999999922,1,0.999993
1.0,1,0.999993
1.0,1,0.999993
1.0,1,0.999993
0.9999999999999808,1,0.999993
0.9999999999999764,1,0.999994
0.9999999999999917,1,0.999993
0.9999999999999356,1,0.999994
1.0,1,0.999993
0.999999999999966,1,0.999993
0.9999999999999769,1,0.999993
1.0,1,0.999993
1.0,1,0.999993
0.9999999999999861,1,0.999992
0.9999999999999719,1,0.999992
0.9999999999999934,1,0.999993
0.9999999999999943,1,0.999993
0.9999999999999878,1,0.999993
1.0,1,0.999993
0.9999999999999889,1,0.999994
1.0,1,0.999994
0.9999999999999665,1,0.999993
1.0,1,0.999993
1.0,1,0.999992
1.0,1,0.999992
0.9999999999999823,1,0.999993
0.999999999999961,1,0.999993
0.9999999999999899,1,0.999993
1.0,1,0.999993
1.0,1,0.999993
1.0,1,0.999993
0.9999999999999786,1,0.999992
1.0,1,0.999993
0.9999999999999774,1,0.999992
1.0,1,0.999992
0.9999999999999701,1,0.999992
0.9999999999999842,1,0.999992
1.0,1,0.999992
1.0,1,0.999993
0.9999999999999912,1,0.999993
0.9999999999999685,1,0.999992
1.0,1,0.999994
0.9999999999999819,1,0.999993
0.9999999999999815,1,0.999993
1.0,1,0.999994
1.0,1,0.999993
0.9999999999999718,1,0.999993
1.0,1,0.999993
1.0,1,0.999994
1.0,1,0.999994
1.0,1,0.999994
0.9999999999999739,1,0.999993
0.9999999999999851,1,0.999993
0.9999999999999876,1,0.999993
1.0,1,0.999993
1.0,1,0.999994
0.9999999999999942,1,0.999994
0.9999999999999932,1,0.999993
0.9999999999999932,1,0.999993
1.0,1,0.999994
0.9999999999999961,1,0.999993
0.9999999999999823,1,0.999994
1.0,1,0.999993
0.999999999999987,1,0.999994
1.0,1,0.999994
1.0,1,0.999994
1.0,1,0.999993
0.9999999999999821,1,0.999993
1.0,1,0.999993
0.9999999999999888,1,0.999994
0.999999999999963,1,0.999993
1.0,1,0.999994
1.0,1,0.999994
1.0,1,0.999993
1.0,1,0.999993
0.9999999999999859,1,0.999993
0.9999999999999878,1,0.999993
0.9999999999999523,1,0.999993
1.0,1,0.999993
1.0,1,0.999994
1.0,1,0.999993
0.9999999999999936,1,0.999993
0.999999999999975,1,0.999993
0.9999999999999586,1,0.999993
1.0,1,0.999993
1.0,1,0.999994
1.0,1,0.999993
0.9999999999999954,1,0.999993
1.0,1,0.999992
0.9999999999999837,1,0.999994
0.9999999999999919,1,0.999992
0.9999999999999996,1,0.999993
0.9999999999999827,1,0.999992
0.9999999999999897,1,0.999992
0.9999999999999929,1,0.999993
1.0,1,0.999993
0.9999999999999598,1,0.999993
1.0,1,0.999993
1.0,1,0.999993
1.0,1,0.999993
0.9999999999999791,1,0.999993
1.0,1,0.999994
0.9999999999999821,1,0.999993
0.9999999999999906,1,0.999994
1.0,1,0.999994
1.0,1,0.999993
1.0,1,0.999993
1.0,1,0.999994
0.9999999999999717,1,0.999994
1.0,1,0.999994
1.0,1,0.999993
1.0,1,0.999993
1.0,1,0.999993
0.9999999999999909,1,0.999993
0.9999999999999931,1,0.999993
0.999999999999997,1,0.999993
0.9999999999999899,1,0.999994
0.99999999999998,1,0.999993
0.999999999999937,1,0.999993
0.99999999999997,1,0.999993
1.0,1,0.999993
0.9999999999999879,1,0.999994
1.0,1,0.999994
1.0,1,0.999993
1.0,1,0.999993
0.9999999999999473,1,0.999992
0.9999999999999847,1,0.999992
1.0,1,0.999992
0.9999999999999848,1,0.999993
0.999999999999974,1,0.999993
0.9999999999999971,1,0.999993
1.0,1,0.999992
1.0,1,0.999993
1.0,1,0.999993
0.9999999999999976,1,0.999993
0.9999999999999627,1,0.999993
1.0,1,0.999993
1.0,1,0.999992
1.0,1,0.999993
1.0,1,0.999993
1.0,1,0.999993
1.0,1,0.999992
1.0,1,0.999993
1.0,1,0.999992
1.0,1,0.999992
0.9999999999999847,1,0.999994
0.9999999999999515,1,0.999993
1.0,1,0.999994
1.0,1,0.999993
1.0,1,0.999993
0.9999999999999936,1,0.999994
1.0,1,0.999994
0.9999999999999868,1,0.999993
0.9999999999999856,1,0.999993
1.0,1,0.999994
0.9999999999999696,1,0.999994
1.0,1,0.999994
0.9999999999999813,1,0.999994
0.9999999999999626,1,0.999994
0.9999999999999727,1,0.999993
1.0,1,0.999993
1.0,1,0.999993
0.9999999999999744,1,0.999994
0.9999999999999942,1,0.999994
1.0,1,0.999993
0.9999999999999828,1,0.999993
0.9999999999999986,1,0.999993
1.0,1,0.999993
1.0,1,0.999993
1.0,1,0.999993
0.9999999999999684,1,0.999994
1.0,1,0.999994
0.9999999999999725,1,0.999994
1.0,1,0.999993
0.999999999999972,1,0.999993
1.0,1,0.999993
1.0,1,0.999992
0.9999999999999922,1,0.999992
1.0,1,0.999993
1.0,1,0.999993
1.0,1,0.999993
0.9999999999999631,1,0.999992
1.0,1,0.999992
1.0,1,0.999992
0.9999999999999887,1,0.999992
1.0,1,0.999994
0.9999999999999837,1,0.999992
0.9999999999999942,1,0.999993
1.0,1,0.999993
1.0,1,0.999993
0.9999999999999837,1,0.999993
0.9999999999999941,1,0.999993
0.9999999999999869,1,0.999993
0.9999999999999947,1,0.999993
1.0,1,0.999993
1.0,1,0.999993
1.0,1,0.999993
1.0,1,0.999992
0.9999999999999905,1,0.999993
1.0,1,0.999990
0.9999999999999795,1,0.999992
1.0,1,0.999993
0.9999999999999938,1,0.999992
0.9999999999999872,1,0.999992
1.0,1,0.999993
0.9999999999999946,1,0.999993
1.0,1,0.999993
0.9999999999999615,1,0.999993
1.0,1,0.999993
1.0,1,0.999992
0.9999999999999867,1,0.999993
0.9999999999999968,1,0.999992
0.9999999999999915,1,0.999991
0.9999999999999821,1,0.999993
1.0,1,0.999993
1.0,1,0.999992
1.0,1,0.999993
1.0,1,0.999993
1.0,1,0.999992
1.0,1,0.999993
0.999999999999998,1,0.999994
0.9999999999999302,1,0.999993
0.9999999999999765,1,0.999993
1.0,1,0.999992
0.9999999999999636,1,0.999992
0.9999999999999992,1,0.999993
0.9999999999999887,1,0.999993
1.0,1,0.999993
1.0,1,0.999993
1.0,1,0.999992
0.9999999999999812,1,0.999993
0.9999999999999836,1,0.999993
0.9999999999999865,1,0.999992
0.9999999999999557,1,0.999992
0.9999999999999861,1,0.999991
1.0,1,0.999992
0.9999999999999705,1,0.999992
1.0,1,0.999992
1.0,1,0.999993
1.0,1,0.999993
0.9999999999999926,1,0.999993
0.9999999999999676,1,0.999993
1.0,1,0.999993
1.0,1,0.999993
0.9999999999999304,1,0.999993
0.9999999999999988,1,0.999993
1.0,1,0.999993
0.9999999999999937,1,0.999994
0.9999999999999774,1,0.999993
0.9999999999999996,1,0.999993
0.9999999999999792,1,0.999993
1.0,1,0.999993
0.9999999999999698,1,0.999993
1.0,1,0.999993
1.0,1,0.999993
0.9999999999999847,1,0.999993
1.0,1,0.999993
1.0,1,0.999993
0.9999999999999816,1,0.999993
1.0,1,0.999993
0.9999999999999517,1,0.999994
1.0,1,0.999993
1.0,1,0.999993
0.9999999999999972,1,0.999993
1.0,1,0.999994
0.9999999999999827,1,0.999993
0.9999999999999989,1,0.999992
1.0,1,0.999992
1.0,1,0.999993
1.0,1,0.999993
1.0,1,0.999992
1.0,1,0.999991
1.0,1,0.999992
0.9999999999999953,1,0.999993
1.0,1,0.999993
1.0,1,0.999993
1.0,1,0.999993
0.9999999999999748,1,0.999992
0.9999999999999998,1,0.999994
0.9999999999999759,1,0.999993
0.9999999999999613,1,0.999991
0.9999999999999898,1,0.999993
0.9999999998099525,1,0.999992
0.9999999999999928,1,0.999993
1.0,1,0.999993
1.0,1,0.999993
0.9999999999999976,1,0.999993
0.9999999999999741,1,0.999993
1.0,1,0.999994
0.9999999999999961,1,0.999994
1.0,1,0.999993
1.0,1,0.999993
1.0,1,0.999993
0.9999999999999645,1,0.999993
0.9999999999999846,1,0.999993
1.0,1,0.999993
1.0,1,0.999993
0.9999999999999969,1,0.999993
1.0,1,0.999994
1.0,1,0.999994
0.9999999999999795,1,0.999993
1.0,1,0.999993
0.9999999999999523,1,0.999994
0.9999999999999915,1,0.999993
1.0,1,0.999993
1.0,1,0.999994
0.9999999999999977,1,0.999993
1.0,1,0.999994
1.0,1,0.999993
1.0,1,0.999993
0.9999999999999922,1,0.999993
1.0,1,0.999994
1.0,1,0.999993
1.0,1,0.999993
0.999999999999951,1,0.999994
0.9999999999999588,1,0.999992
0.9999999999999938,1,0.999993
0.9999999999999968,1,0.999993
0.9999999999999909,1,0.999993
1.0,1,0.999993
1.0,1,0.999993
0.9999999999999667,1,0.999993
0.9999999999999968,1,0.999993
1.0,1,0.999994
0.9999999999999682,1,0.999994
1.0,1,0.999994
0.9999999999999825,1,0.999994
1.0,1,0.999993
0.9999999999999984,1,0.999994
0.999999999999988,1,0.999992
1.0,1,0.999993
1.0,1,0.999993
0.9999999999999745,1,0.999993
1.0,1,0.999993
0.9999999999999806,1,0.999992
1.0,1,0.999993
1.0,1,0.999993
0.9999999999999846,1,0.999993
1.0,1,0.999992
0.9999999999999817,1,0.999993
0.9999999999999941,1,0.999993
0.9999999999999484,1,0.999992
0.9999999999999716,1,0.999992
1.0,1,0.999993
1.0,1,0.999991
0.999999999999994,1,0.999993
1.0,1,0.999992
0.9999999999999682,1,0.999989
0.9999999999999809,1,0.999988
1.0,1,0.999987
0.9999999999999791,1,0.999989
1.0,1,0.999985
1.0,1,0.999993
1.0,1,0.999987
0.9999999999999867,1,0.999987
0.9999999999999944,1,0.999992
0.999999999999975,1,0.999990
1.0,1,0.999990
0.9999999999999994,1,0.999990
1.0,1,0.999993
0.9999999999999915,1,0.999987
1.0,1,0.999993
0.9931135183798898,1,0.999959
0.9999948134074436,1,0.999993
1.0,1,0.999994
1.0,1,0.999994
1.0,1,0.999994
0.9999999999100891,1,0.999993
0.999960087371847,1,0.999993
0.9999999999994963,1,0.999993
0.9999999999999807,1,0.999993
0.9999999999999942,1,0.999982
0.9999999999999521,1,0.999993
0.9999999999999959,1,0.999993
1.0,1,0.999992
1.0,1,0.999992
1.0,1,0.999992
0.9999999999999842,1,0.999991
1.0,1,0.999992
1.0,1,0.999992
1.0,1,0.999993
0.9999999999999919,1,0.999993
0.9999999999999823,1,0.999993
0.9999999999999954,1,0.999994
0.9999999999999943,1,0.999993
0.9999999999882971,1,0.999994
0.999999999999997,1,0.999993
0.9999999999999816,1,0.999992
1.0,1,0.999992
1.0,1,0.999993
1.0,1,0.999993
0.9999999999999939,1,0.999993
0.9999999999999565,1,0.999991
0.9999998408403521,1,0.999983
0.9999999999974098,1,0.999993
0.9999999631432908,1,0.999993
1.0,1,0.999993
0.9999999999999498,1,0.999993
0.9999775332354913,1,0.999994
0.9999632484826014,1,0.999993
0.999999999999995,1,0.999975
1.0,1,0.999983
1.0,1,0.999975
0.9999999999999926,1,0.999977
0.9999999999999586,1,0.999991
0.9999999999999996,1,0.999993
1.0,1,0.999993
1.0,1,0.999993
1.0,1,0.999994
1.0,1,0.999993
0.9999999999999531,1,0.999993
0.9999999999999833,1,0.999993
0.9999999999999961,1,0.999993
1.0,1,0.999993
0.999999999999987,1,0.999993
1.0,1,0.999993
1.0,1,0.999993
1.0,1,0.999993
1.0,1,0.999993
1.0,1,0.999993
1.0,1,0.999993
1.0,1,0.999993
1.0,1,0.999993
0.9999999999999806,1,0.999993
1.0,1,0.999993
0.9999999999999898,1,0.999993
0.999999999999993,1,0.999993
0.9999999999999739,1,0.999993
1.0,1,0.999993
0.9999999999999754,1,0.999993
1.0,1,0.999993
0.9999999999999795,1,0.999993
1.0,1,0.999993
1.0,1,0.999993
0.999999999999944,1,0.999993
1.0,1,0.999993
0.9999999999999898,1,0.999993
0.9999999999999837,1,0.999993
0.999999999999976,1,0.999993
0.9999999999999781,1,0.999993
0.9999999999999558,1,0.999993
0.9999999999999826,1,0.999993
0.9999999999999691,1,0.999993
0.9999999999999934,1,0.999993
0.9999999999999536,1,0.999993
0.9999999999999994,1,0.999993
1.0,1,0.999993
0.9999999999999784,1,0.999993
0.9999999999999942,1,0.999993
1.0,1,0.999993
0.9999999999999952,1,0.999993
1.0,1,0.999993
0.9999999999999617,1,0.999993
0.9999999999999971,1,0.999993
0.9999999999999374,1,0.999993
1.0,1,0.999990
0.9999999999999902,1,0.999990
0.9999861448071503,1,0.999988
0.9999986137722567,1,0.999973
0.9999996398793362,1,0.999954
1.0,1,0.999973
1.0,1,0.999920
1.0,1,0.999905
0.999968147728632,1,0.999992
0.9999999999999878,1,0.999991
0.9999999999999741,1,0.999993
1.0,1,0.999993
0.9999999999999748,1,0.999993
0.9999999999999946,1,0.999993
0.9999999999999831,1,0.999993
0.9999999999999918,1,0.999992
0.9999999999999902,1,0.999993
1.0,1,0.999993
1.0,1,0.999993
1.0,1,0.999993
1.0,1,0.999993
1.0,1,0.999993
0.999999999999996,1,0.999993
0.9999999999999948,1,0.999993
1.0,1,0.999993
0.999999999999986,1,0.999993
1.0,1,0.999993
0.9999999999999784,1,0.999993
0.9999999999999886,1,0.999993
0.9999999999999888,1,0.999993
1.0,1,0.999993
0.9999999999999974,1,0.999993
1.0,1,0.999993
1.0,1,0.999993
1.0,1,0.999993
0.9999999999999978,1,0.999993
1.0,1,0.999993
0.999999999999972,1,0.999992
0.9999999999999872,1,0.999993
0.9999999999999843,1,0.999992
0.9999999999999362,1,0.999993
0.9999999999999858,1,0.999993
0.9999999999999961,1,0.999993
1.0,1,0.999993
1.0,1,0.999993
0.9999999999999611,1,0.999993
0.9999999999999706,1,0.999993
1.0,1,0.999993
1.0,1,0.999993
1.0,1,0.999993
1.0,1,0.999993
0.9999999999999993,1,0.999993
1.0,1,0.999993
0.9999999999999799,1,0.999993
1.0,1,0.999993
0.9999999999999816,1,0.999993
0.9999999999999653,1,0.999993
0.9999999999999467,1,0.999993
0.9999999999999928,1,0.999993
0.9999999999999586,1,0.999993
0.9999999999999868,1,0.999993
0.9999999999999897,1,0.999993
0.9999999995823684,1,0.999993
1.0,1,0.999993
0.9999999999999923,1,0.999992
0.999999999999993,1,0.999993
0.9999999999999819,1,0.999993
1.0,1,0.999993
1.0,1,0.999993
0.9999999999999757,1,0.999993
0.9999999999999952,1,0.999993
1.0,1,0.999993
0.9999999999999761,1,0.999993
0.9999999999999614,1,0.999993
1.0,1,0.999993
1.0,1,0.999993
0.9999999999999669,1,0.999993
0.9999999999999987,1,0.999993
1.0,1,0.999993
1.0,1,0.999993
1.0,1,0.999992
1.0,1,0.999993
0.9999999999999917,1,0.999993
0.9999999999999611,1,0.999993
0.9999999999999699,1,0.999993
0.9999999999999778,1,0.999993
0.9999999999999782,1,0.999993
1.0,1,0.999993
0.9999999999999942,1,0.999993
0.9999999999999961,1,0.999993
1.0,1,0.999993
1.0,1,0.999993
1.0,1,0.999993
0.9999999999999979,1,0.999993
0.9999999999999806,1,0.999993
1.0,1,0.999993
0.999999999999966,1,0.999993
0.9999999999999618,1,0.999993
0.9999999999999599,1,0.999993
0.9999999999999915,1,0.999993
0.9999999999999953,1,0.999993
0.9999999999999878,1,0.999993
0.9999999999999115,1,0.999992
0.999999999999966,1,0.999993
0.9999999999999785,1,0.999992
1.0,1,0.999992
1.0,1,0.999992
0.9999999999999752,1,0.999993
1.0,1,0.999991
1.0,1,0.999992
1.0,1,0.999991
0.9999999999999863,1,0.999993
0.9999999999999941,1,0.999992
1.0,1,0.999992
1.0,1,0.999992
1.0,1,0.999993
1.0,1,0.999993
1.0,1,0.999992
1.0,1,0.999992
1.0,1,0.999993
1.0,1,0.999992
1.0,1,0.999993
1.0,1,0.999992
1.0,1,0.999992
0.9999999999999988,1,0.999992
0.9999999999999755,1,0.999992
0.9999999999999917,1,0.999969
0.9999999999999977,1,0.999855
0.999999999999986,1,0.999992
0.9999999999999801,1,0.999992
1.0,1,0.999991
1.0,1,0.999992
1.0,1,0.999992
1.0,1,0.999991
1.0,1,0.999991
1.0,1,0.999991
1.0,1,0.999992
0.9999999999999895,1,0.999993
1.0,1,0.999992
0.9999999999999251,1,0.999992
1.0,1,0.999991
0.9999999999999599,1,0.999992
1.0,1,0.999991
1.0,1,0.999993
1.0,1,0.999991
0.999999999999984,1,0.999992
0.9999999999999611,1,0.999992
1.0,1,0.999992
0.9999999999999951,1,0.999992
0.9999999999999877,1,0.999993
1.0,1,0.999993
0.9999999999999394,1,0.999993
1.0,1,0.999991
1.0,1,0.999991
0.9999999999999982,1,0.999991
0.9999999999999971,1,0.999991
1.0,1,0.999992
1.0,1,0.999992
0.9999999999999888,1,0.999991
0.9999999999999684,1,0.999992
1.0,1,0.999991
1.0,1,0.999991
1.0,1,0.999992
0.9999999999999767,1,0.999991
0.9999999999999957,1,0.999992
1.0,1,0.999992
0.9999999999999843,1,0.999991
1.0,1,0.999991
1.0,1,0.999993
1.0,1,0.999991
0.999999999999936,1,0.999992
1.0,1,0.999992
0.9999999999999867,1,0.999992
0.9999999999999767,1,0.999992
0.9999999999999978,1,0.999991
1.0,1,0.999993
1.0,1,0.999991
1.0,1,0.999991
0.999999999999985,1,0.999992
0.9999999999999962,1,0.999992
0.9999999999999769,1,0.999992
1.0,1,0.999993
1.0,1,0.999992
0.9999999999999594,1,0.999992
1.0,1,0.999993
1.0,1,0.999993
1.0,1,0.999992
1.0,1,0.999992
1.0,1,0.999990
1.0,1,0.999992
0.9999999999999581,1,0.999991
0.9999999999999946,1,0.999992
0.9999999999999875,1,0.999992
0.9999999999999653,1,0.999993
1.0,1,0.999993
0.9999999999999755,1,0.999993
1.0,1,0.999992
0.9999999999999823,1,0.999992
0.9999999999999838,1,0.999993
1.0,1,0.999993
0.9999999999999958,1,0.999991
0.9999999999999833,1,0.999966
1.0,1,0.999985
1.0,1,0.999993
1.0,1,0.999987
1.0,1,0.999987
1.0,1,0.999986
1.0,1,0.999989
1.0,1,0.999991
1.0,1,0.999991
0.9999999999999934,1,0.999992
1.0,1,0.999993
0.9999999999999974,1,0.999991
0.9999999999999915,1,0.999991
0.9999999999999903,1,0.999992
0.9999999999999776,1,0.999993
1.0,1,0.999993
0.9999999999999833,1,0.999991
1.0,1,0.999991
0.999999999999988,1,0.999991
0.9999999999999921,1,0.999991
0.999999999999978,1,0.999992
1.0,1,0.999992
1.0,1,0.999992
0.9999999999999896,1,0.999993
1.0,1,0.999993
1.0,1,0.999991
1.0,1,0.999992
1.0,1,0.999992
1.0,1,0.999992
1.0,1,0.999992
1.0,1,0.999992
0.9999999999999907,1,0.999992
1.0,1,0.999992
1.0,1,0.999992
1.0,1,0.999992
0.9999999999999638,1,0.999991
0.9999999999999649,1,0.999991
0.999999999999978,1,0.999991
1.0,1,0.999992
0.9999999999999997,1,0.999991
0.9999999999999922,1,0.999993
0.9999999999999575,1,0.999993
1.0,1,0.999992
1.0,1,0.999990
0.9999999999999788,1,0.999991
0.9999999999999797,1,0.999993
0.9999999999999933,1,0.999991
0.9999999999999852,1,0.999991
0.9999999999999865,1,0.999993
1.0,1,0.999993
0.9999999999999963,1,0.999992
1.0,1,0.999992
0.9999999999999923,1,0.999991
0.9999999999999962,1,0.999991
1.0,1,0.999992
0.9999999999999625,1,0.999992
0.9999999999999614,1,0.999991
0.9999999999999761,1,0.999993
1.0,1,0.999992
0.99999999999996,1,0.999992
1.0,1,0.999992
1.0,1,0.999992
1.0,1,0.999991
1.0,1,0.999992
1.0,1,0.999991
1.0,1,0.999992
1.0,1,0.999992
0.999999999999961,1,0.999992
1.0,1,0.999992
0.9999999999999712,1,0.999992
0.9999999999999553,1,0.999992
1.0,1,0.999993
0.9999999999999806,1,0.999991
0.9999999999999865,1,0.999993
0.9999999999999883,1,0.999992
0.9999999999999799,1,0.999992
0.9999999999999445,1,0.999992
1.0,1,0.999991
1.0,1,0.999993
0.9999999999999919,1,0.999990
0.9999999999999966,1,0.999991
1.0,1,0.999991
1.0,1,0.999991
1.0,1,0.999990
0.9999999999999967,1,0.999991
1.0,1,0.999992
1.0,1,0.999991
1.0,1,0.999992
1.0,1,0.999992
0.9999999999999988,1,0.999991
1.0,1,0.999992
0.9999999999999972,1,0.999993
1.0,1,0.999991
1.0,1,0.999993
0.9999999999999891,1,0.999993
0.9999999999999931,1,0.999993
1.0,1,0.999993
1.0,1,0.999992
0.9999999999999868,1,0.999991
0.999999999999991,1,0.999992
1.0,1,0.999991
0.9999999999999727,1,0.999992
0.9999999999999902,1,0.999992
0.999999999999996,1,0.999992
0.9999999999999825,1,0.999992
0.9999999999999899,1,0.999991
0.9999999999999805,1,0.999993
1.0,1,0.999991
1.0,1,0.999993
1.0,1,0.999992
1.0,1,0.999991
0.9999999999999718,1,0.999992
1.0,1,0.999992
1.0,1,0.999992
0.9999999999999736,1,0.999992
1.0,1,0.999991
1.0,1,0.999993
0.9999999999999785,1,0.999991
0.9999999999999892,1,0.999992
1.0,1,0.999993
0.9999999999999538,1,0.999993
0.9999999999999947,1,0.999993
0.9999999999999425,1,0.999991
0.9999986727221561,1,0.999992
1.0,1,0.999993
1.0,1,0.999992
0.9999999999999954,1,0.999992
0.999999999999999,1,0.999992
1.0,1,0.999992
1.0,1,0.999992
1.0,1,0.999993
0.9999999999999972,1,0.999992
0.9999999999999585,1,0.999990
0.9999999999999534,1,0.999991
1.0,1,0.999990
1.0,1,0.999992
0.9999999999999878,1,0.999993
0.9999999999999639,1,0.999993
1.0,1,0.999992
1.0,1,0.999992
0.9999999999999896,1,0.999990
1.0,1,0.999992
1.0,1,0.999992
0.9999999999999744,1,0.999990
0.9999999999999486,1,0.999991
0.999999999999984,1,0.999991
1.0,1,0.999991
0.9999999999999795,1,0.999993
1.0,1,0.999991
1.0,1,0.999993
0.9999999999999942,1,0.999993
1.0,1,0.999991
0.9999999999999826,1,0.999992
1.0,1,0.999991
0.9999999999999626,1,0.999993
0.9999999999999769,1,0.999992
0.9999999999999958,1,0.999991
0.9999999999999547,1,0.999993
1.0,1,0.999992
1.0,1,0.999992
0.9999999999999887,1,0.999992
0.9999999999999791,1,0.999993
1.0,1,0.999992
0.9999999999999545,1,0.999991
0.9999999999999546,1,0.999992
1.0,1,0.999992
0.9999999999999687,1,0.999993
1.0,1,0.999991
1.0,1,0.999991
0.9999999999999583,1,0.999992
1.0,1,0.999993
0.9999999999999833,1,0.999992
0.9999999999999554,1,0.999991
0.9999999999999857,1,0.999992
0.9999999999999853,1,0.999993
0.9999999999999881,1,0.999992
0.9999999999999987,1,0.999992
0.9999999999999821,1,0.999992
0.9999999999999762,1,0.999993
1.0,1,0.999992
1.0,1,0.999992
0.999999999999955,1,0.999992
0.9999999999999192,1,0.999992
1.0,1,0.999993
1.0,1,0.999990
1.0,1,0.999992
1.0,1,0.999993
1.0,1,0.999992
0.9999999999999962,1,0.999993
0.9999999999999939,1,0.999991
0.9999999999999675,1,0.999991
1.0,1,0.999992
0.9999999999999833,1,0.999993
0.9999999999999868,1,0.999993
1.0,1,0.999992
1.0,1,0.999992
1.0,1,0.999991
0.9999999999999831,1,0.999992
0.9999999999999791,1,0.999992
1.0,1,0.999992
1.0,1,0.999992
1.0,1,0.999992
0.9999999999999937,1,0.999992
0.9999999999999547,1,0.999993
0.9999999999999668,1,0.999992
1.0,1,0.999992
0.9999999999999751,1,0.999992
1.0,1,0.999991
1.0,1,0.999992
1.0,1,0.999993
0.9999999999999452,1,0.999992
1.0,1,0.999992
1.0,1,0.999991
0.9999999999999967,1,0.999992
0.9999999999999627,1,0.999993
0.9999999999999877,1,0.999991
0.9999999999999891,1,0.999992
1.0,1,0.999991
1.0,1,0.999991
0.9999999999999942,1,0.999992
1.0,1,0.999992
0.9999999999999903,1,0.999993
0.9999999999999953,1,0.999991
0.9999999999999711,1,0.999993
0.9999999999999449,1,0.999992
1.0,1,0.999992
0.9999999999999892,1,0.999993
1.0,1,0.999992
0.9999999999999895,1,0.999993
0.9999999999999961,1,0.999990
1.0,1,0.999992
0.9999999999999805,1,0.999993
0.9999999999999738,1,0.999992
0.9999999999999585,1,0.999992
0.999999999999982,1,0.999992
1.0,1,0.999993
1.0,1,0.999993
1.0,1,0.999992
0.9999999999999717,1,0.999992
0.9999999999999941,1,0.999993
0.9999999999999996,1,0.999991
0.9999999999999662,1,0.999991
0.9999999999999725,1,0.999992
1.0,1,0.999993
0.9999999999999943,1,0.999991
1.0,1,0.999992
0.9999999999999775,1,0.999992
1.0,1,0.999993
1.0,1,0.999993
0.9999999999999731,1,0.999991
0.9999999999999727,1,0.999991
0.9999999999999777,1,0.999992
1.0,1,0.999992
0.9999999999999832,1,0.999992
1.0,1,0.999991
0.9999999999999861,1,0.999992
1.0,1,0.999991
1.0,1,0.999993
1.0,1,0.999993
0.9999999999999862,1,0.999992
0.9999999999999788,1,0.999993
0.9999999999999801,1,0.999993
1.0,1,0.999992
1.0,1,0.999991
0.9999999999999782,1,0.999992
0.9999999999999755,1,0.999993
0.9999999999999899,1,0.999991
0.9999999999999942,1,0.999993
1.0,1,0.999992
0.9999999999999872,1,0.999992
1.0,1,0.999992
1.0,1,0.999993
0.9999999999999949,1,0.999992
1.0,1,0.999992
1.0,1,0.999992
1.0,1,0.999992
1.0,1,0.999992
0.9999999999999867,1,0.999991
0.9999999999999849,1,0.999993
1.0,1,0.999991
0.9999999999999463,1,0.999992
1.0,1,0.999991
0.9999999999999865,1,0.999992
0.9999999999999581,1,0.999993
1.0,1,0.999993
1.0,1,0.999993
1.0,1,0.999992
0.9999999999999775,1,0.999993
0.9999999999999901,1,0.999993
0.9999999999999809,1,0.999993
0.9999999999999618,1,0.999992
0.999999999999987,1,0.999993
1.0,1,0.999991
1.0,1,0.999991
0.9999999999999972,1,0.999991
1.0,1,0.999993
0.9999999999999842,1,0.999991
0.9999999999999941,1,0.999993
1.0,1,0.999993
1.0,1,0.999992
0.9999999999999918,1,0.999991
1.0,1,0.999992
1.0,1,0.999992
0.9999999999999648,1,0.999992
1.0,1,0.999991
0.9999999999999755,1,0.999992
0.9999999999999701,1,0.999993
0.9999999999999427,1,0.999992
1.0,1,0.999992
0.9999999999999921,1,0.999992
0.9999999999999796,1,0.999992
0.9999999999999986,1,0.999992
1.0,1,0.999992
1.0,1,0.999992
1.0,1,0.999991
0.9999999999999585,1,0.999992
1.0,1,0.999992
0.999999999999969,1,0.999992
0.9999999999999575,1,0.999993
0.9999999999999898,1,0.999992
0.9999999999999578,1,0.999992
0.9999999999999948,1,0.999992
0.9999999999999885,1,0.999991
