0.23589974046749818,0,0.999026
0.23536988651883325,0,0.865803
0.20584361749331312,0,0.999892
0.29503308118308463,0,0.994551
0.3166126895931939,0,0.999641
0.05769096521633916,0,0.995925
0.07307582741344233,0,0.995887
0.16765038448623784,0,0.999849
0.32649871834393007,1,0.999993
0.26070021137171545,0,0.989628
0.3011563025407283,0,0.999475
0.37988173961334293,0,0.999812
0.41115010143983904,0,0.999059
0.0731700187284021,0,0.998857
0.19318361948067264,0,0.990267
0.22056512146445512,0,0.998642
0.41353622142873664,0,0.996676
0.4288570784397016,0,0.998795
0.1904785616571432,1,0.999993
0.384520918481622,0,0.997603
0.39773165835144525,0,0.995475
0.41507356686938324,0,0.999632
0.47858024399114985,0,0.999822
0.40800698700887494,0,0.997219
0.3536539663146273,0,0.999005
0.6490680717203762,0,0.999589
0.40737072190478235,0,0.999468
0.2937336920237869,0,0.999126
0.6740016589720335,0,0.999522
0.7051408511207923,0,0.999929
0.6936924639740331,0,0.999783
0.711618070023777,1,0.999945
0.49273589975644405,0,0.999850
0.7557804630075099,0,0.996389
0.6021610197784069,0,0.999579
0.5342518614880435,1,0.999994
0.6210669929239688,1,0.999994
0.606033244988443,1,0.999986
0.6428096622208409,0,0.999833
0.723422290476204,0,0.998811
0.7679426238627105,1,0.999993
0.7762817231181677,1,0.999963
0.7800590685245277,1,0.999935
0.7142880375730837,0,0.999827
0.25007948357180715,0,0.999806
0.29923627750816545,0,0.999855
0.43490485353453817,0,0.998777
0.38894818892506755,0,0.999881
0.4923343788570033,1,0.999993
0.5239610015870811,1,0.999972
0.4836062117414045,0,0.998416
0.6579800097008481,1,0.999993
0.5512900595245976,0,0.999570
0.6481779625799188,0,0.996354
0.7281153908661941,1,0.999954
0.7232975584007323,1,0.999976
0.6730916836377369,1,0.999988
0.7709187129305047,0,0.999769
0.6052331968360583,0,0.999733
0.8061260841922614,0,0.999172
0.7354165227873077,1,0.999969
0.7560455809685154,0,0.998792
0.7937934866251919,1,0.999973
0.7901567481213495,0,0.999824
0.6742727867280709,1,0.999993
0.8014020276055474,1,0.999976
0.7838704696854482,0,0.999750
0.7874915642516598,1,0.999993
0.7021159795412252,0,0.999244
0.6986796266183989,1,0.999981
0.7700236673722595,1,0.999988
0.6788957474371125,0,0.999280
0.6867488307926712,0,0.999662
0.7347563684873225,0,0.999591
0.576668554239678,0,0.998863
0.3810307022273138,0,0.997846
0.5954640422970046,0,0.999893
0.5821120702118447,0,0.999708
0.6760231789250621,0,0.997559
0.30513961629921477,0,0.999160
0.6435933327272368,0,0.999853
0.6275434073365594,1,0.999993
0.6986857503332028,0,0.998198
0.3629980737035721,1,0.999966
0.621074755059727,0,0.999831
0.7646285441753587,1,0.999967
0.8089696609228114,1,0.999994
0.79615669442065,1,0.999930
0.6691542748299442,0,0.999770
0.8048888782446727,0,0.997216
0.6267815482070943,0,0.999718
0.6325454444518454,0,0.997372
0.42797765790123676,0,0.999606
0.8151148771527567,0,0.997597
0.7259218563170592,1,0.999979
0.708345041697252,0,0.997044
0.7725443202847184,0,0.999307
0.6001517119440344,0,0.999108
0.7330830351263384,0,0.998010
0.7752978463493002,0,0.999795
0.7875123282349116,0,0.997120
0.5839483819622125,0,0.999060
0.7613027290599473,1,0.999993
0.7411707423261708,0,0.999684
0.7714953983196485,1,0.999994
0.6999490166893121,0,0.999877
0.6843556802064498,0,0.999162
0.7825094495121692,1,0.999974
0.8152039006110017,0,0.999870
0.7360312629690963,0,0.999602
0.8314271135417988,1,0.999952
0.7646346473357094,0,0.999556
0.7856831454116266,1,0.999946
0.7451512030435274,1,0.999993
0.8107420188168863,1,0.999994
0.82765501489812,1,0.999993
0.8317616175596563,1,0.999960
0.7391850792974192,0,0.998526
0.8092197681387235,1,0.999960
0.7389893943909817,1,0.999981
0.6027340723083988,0,0.998687
0.5155393085083134,0,0.999473
0.8119013500975026,1,0.999981
0.6074802677932977,1,0.999941
0.8198985794673365,0,0.998622
0.7557925855392352,0,0.997827
0.8076956530756839,0,0.998710
0.8060659274221812,0,0.997759
0.5164046744741823,0,0.996975
0.747543385911309,0,0.998857
0.841759626742163,0,0.999901
0.7592905656433626,1,0.999993
0.7665928975639419,0,0.999603
0.6297603275729198,0,0.999673
0.7271398659990257,1,0.999981
0.7645110763957456,1,0.999993
0.4416527310082911,1,0.999972
0.8064908414505789,0,0.999829
0.7929254857693306,0,0.999558
0.7510824431277439,1,0.999993
0.7663449325769418,0,0.999856
0.7305734759233996,1,0.999988
0.8265213811451179,1,0.999994
0.8308513543183523,0,0.999257
0.8130335043479286,0,0.999580
0.772248395181743,0,0.999126
0.69214793229728,0,0.999652
0.5278904575389318,1,0.999993
0.5425129623443127,0,0.998598
0.628813022553017,0,0.999855
0.40924380172361785,1,0.999966
0.7225917020709204,0,0.999880
0.7123636504253082,0,0.999638
0.7905053627797439,1,0.999994
0.856236688809579,0,0.999453
0.44204107527304665,0,0.999232
0.7776377880005524,0,0.997048
0.7746303901971223,1,0.999943
0.6840917305343471,1,0.999993
0.7629680551591895,0,0.999827
0.794093482022505,1,0.999994
0.5923268271051132,0,0.999566
0.8007711598223491,1,0.999950
0.795744123387475,1,0.999981
0.7468856714835529,0,0.999813
0.7727518220883288,0,0.999897
0.718927293595503,0,0.999193
0.5930738855893477,0,0.998325
0.6421232111061808,0,0.999469
0.8143990710776192,0,0.999284
0.6742819435755611,0,0.999605
0.66675660871687,0,0.998204
0.806319783750512,0,0.999684
0.8532950809347546,1,0.999986
0.6980676557379604,0,0.997412
0.4421208155123776,0,0.997492
0.6064041059015866,1,0.999937
0.7240940896331338,0,0.998407
0.5922974402971405,0,0.997672
0.7939826938318498,0,0.997826
0.7568408155675754,0,0.999325
0.4797075486334793,1,0.999994
0.7940196162233047,0,0.994927
0.7282468492338022,0,0.998990
0.7439965007719684,1,0.999979
0.5447066360855293,0,0.998141
0.6117350341794707,0,0.997454
0.5437682756098156,0,0.999436
0.6803163649107217,1,0.999986
0.7955121981082431,0,0.999253
0.7915607332136059,1,0.999953
0.5859928482961247,1,0.999957
0.752244350096109,1,0.999993
0.550044062990192,0,0.993788
0.7877154866038878,1,0.999949
0.7896006066499751,0,0.997737
0.8412240207855493,0,0.994617
0.8337890311338599,1,0.999974
0.6657559078230703,0,0.999571
0.7299394428356488,1,0.999993
0.47206742677259594,0,0.999617
0.7626743090118225,1,0.999994
0.8535721357562507,0,0.998823
0.6351197409313891,1,0.999978
0.7739964845802592,0,0.999865
0.7212249492405395,1,0.999949
0.7674809421331468,0,0.997704
0.7436199975156997,1,0.999993
0.8131231236213524,1,0.999987
0.8177956084071281,0,0.998760
0.7967035798740949,0,0.995044
0.8207133340665596,1,0.999980
0.7657808433314331,0,0.999729
0.817022138425548,0,0.999591
0.811172455045812,1,0.999994
0.8434856630760628,0,0.999671
0.722444370624374,1,0.999971
0.7584465657826367,0,0.998171
0.7671639157382395,0,0.998468
0.6962623471475127,0,0.999101
0.8271589647604435,1,0.999993
0.17448311949962447,1,0.999992
0.08313239698223752,0,0.998424
0.27276803847546005,0,0.999721
0.5638598299326647,0,0.998386
0.7482497928072545,0,0.996594
0.6095742105665567,1,0.999936
0.5040661980575842,1,0.999986
0.5378320142131752,0,0.999758
0.36655364131407453,0,0.998676
0.3120066454560066,1,0.999986
0.16340479256843168,0,0.999178
0.2639445421501604,1,0.999985
0.2320040338676569,0,0.999636
0.26974500011330454,0,0.999233
0.2682317062073716,1,0.999969
0.26145586007073035,0,0.995003
0.3521870505139632,0,0.996866
0.333679791324151,0,0.993622
0.42694710255387813,0,0.999372
0.42640545249165834,0,0.999405
0.48902283740353264,1,0.999976
0.4614287747656442,1,0.999969
0.4332290068260862,1,0.999977
0.4374907727390564,1,0.999971
0.5136842954773793,0,0.999759
0.5258443186660694,0,0.998976
0.47544444907557587,0,0.999112
0.5455018479860793,0,0.994314
0.6023831759782158,1,0.999993
0.3437618382514438,0,0.999571
0.6868659571577355,1,0.999945
0.5032539858709295,0,0.999915
0.7233639786436526,1,0.999993
0.7159411098867056,0,0.999565
0.66694199385558,1,0.999967
0.6004504153430906,0,0.999794
0.6138529053601828,0,0.998679
0.6451416214378173,0,0.999890
0.6368861296391167,0,0.999872
0.6158447648721074,0,0.999832
0.6847616481653257,1,0.999987
0.5766886242166227,1,0.999993
0.49665384629149056,1,0.999977
0.6464496111837527,1,0.999993
0.59800537667716,0,0.998595
0.5205552567936433,1,0.999986
0.6966714589495505,1,0.999972
0.6819229237299255,0,0.996807
0.6432813582398065,0,0.998553
0.5323331271632965,0,0.999594
0.3566657865724286,0,0.999865
0.435860085532796,0,0.998663
0.4900022487303941,0,0.998379
0.39247593169004463,0,0.998917
0.4938149194059358,0,0.999366
0.4495833084529023,0,0.996952
0.30093919669041574,0,0.999740
0.5406085199011624,0,0.998510
0.4062186066143148,1,0.999992
0.45404626310063995,0,0.999580
0.7060445195824658,1,0.999993
0.440374436336428,1,0.999936
0.6515640294297063,0,0.999478
0.5524319429385655,0,0.999159
0.4885889136627324,0,0.999185
0.4647988778075224,0,0.999411
0.4850115793103657,0,0.999576
0.5530929181931561,0,0.999215
0.5501940952423011,0,0.999023
0.3652514272275487,1,0.999992
0.4292327278091821,1,0.999914
0.7190384182828188,1,0.999993
0.7633530302868946,0,0.999746
0.6431283413333565,0,0.997346
0.7429013050026408,1,0.999993
0.783665430186014,1,0.999993
0.7871189737340525,0,0.999387
0.752168319558501,0,0.999855
0.7212761181387992,0,0.999895
0.6675251628015652,1,0.999931
0.7182234172512556,0,0.999846
0.7764292896990651,1,0.999952
0.7388168173876086,1,0.999993
0.5125567920383101,1,0.999979
0.6320913962156557,0,0.999165
0.797622478436758,0,0.999857
0.7832586713036228,0,0.999693
0.7567815357591565,0,0.999280
0.702504544958777,1,0.999993
0.8071420157974479,1,0.999972
0.7639492447365521,1,0.999986
0.5033977459372297,1,0.999961
0.273437405262503,0,0.998113
0.4709576883857958,1,0.999936
0.23524062122979517,1,0.999922
0.36805693909093296,1,0.999976
0.41331225395056287,0,0.999862
0.40910659246428427,1,0.999937
0.39057738085613597,1,0.999992
0.39691930797094993,0,0.999877
0.3265263378805067,0,0.999563
0.4880665190204619,1,0.999985
0.4653340133588912,0,0.999505
0.5995157657265238,0,0.999902
0.3732710342114984,0,0.998952
0.3757978544032023,0,0.997788
0.40931486144409535,0,0.998582
0.38603206236358834,0,0.998591
0.3779716837008958,1,0.999992
0.4824928131267323,0,0.999895
0.4540694469644349,1,0.999985
0.4768013022254353,1,0.999992
0.3917377216802189,0,0.999593
0.3807532464147503,0,0.999872
0.42471181669018687,1,0.999992
0.5330384894341725,0,0.999757
0.3912569863821214,0,0.999751
0.39178540719011645,1,0.999992
0.30382681907059905,0,0.999439
0.3363407105268589,0,0.999170
0.4041406964856121,0,0.999904
0.5346019666309411,0,0.999006
0.46335478476469466,0,0.995482
0.4111998240448621,0,0.999551
0.4164113813808216,1,0.999975
0.31697638019843805,0,0.998643
0.280927372119892,0,0.999858
0.3514715005791994,1,0.999983
0.38294548296608627,0,0.999767
0.32899889289655526,0,0.997377
0.465422103831998,0,0.995330
0.5146692772665815,0,0.999824
0.3178825317922688,1,0.999991
0.46174309281576703,1,0.999991
0.4017280086948469,0,0.997112
0.7845166480026053,0,0.996100
0.7020015793899048,0,0.995035
0.4590374333114755,0,0.999806
0.6381119727204161,0,0.998309
0.3308824622627528,0,0.997367
0.39518006557893576,0,0.997641
0.4538518393888091,0,0.996269
0.5085582525497174,0,0.999859
0.5576198751394196,1,0.999993
0.6445495698174366,0,0.997691
0.6103086285348643,0,0.995433
0.6840987411184047,1,0.999993
0.6206590457401842,0,0.999536
0.6659019050202857,1,0.999979
0.6626062225136677,0,0.999734
0.4444497334105878,0,0.999897
0.7387553461452545,0,0.995605
0.7835834842504772,1,0.999993
0.7778937790123217,1,0.999993
0.7696157988038302,1,0.999980
0.756320012813843,1,0.999993
0.6899109058534808,0,0.999828
0.7596104171382977,1,0.999993
0.4972447552359357,0,0.999530
0.4572067910883252,0,0.999190
0.625944161612879,0,0.998793
0.5867385072437757,0,0.999239
0.5827758585654181,0,0.999442
0.5158017093608007,1,0.999972
0.4787232049326233,0,0.999705
0.5381543463426862,0,0.997327
0.49235349919319493,1,0.999940
0.6239991530340447,1,0.999984
0.6107650261408109,0,0.999864
0.15240603539744646,0,0.994016
0.5799997454226098,0,0.999337
0.5435552660874798,0,0.994433
0.41908954681223354,1,0.999966
0.5698645163200278,1,0.999992
0.5332739490047531,0,0.999727
0.6197860289249707,1,0.999975
0.6370856378200572,0,0.997583
0.41153045448667275,1,0.999991
0.11826845694297207,1,0.999989
0.053411898754641654,0,0.999449
0.3554594321226502,1,0.999982
0.3824815038188759,1,0.999966
0.4330295039767813,1,0.999949
0.4319748464806615,1,0.999966
0.400439728876065,1,0.999983
0.4248463841933986,0,0.999797
0.3780756124356029,1,0.999966
0.4538715766066463,1,0.999931
0.40414330933905007,1,0.999982
0.4466640086578803,0,0.999629
0.36274169853827753,0,0.998134
0.4269232380995163,0,0.997594
0.3771110636124277,1,0.999991
0.362830510983562,0,0.994331
0.3724682713531532,0,0.998817
0.2503811042995507,0,0.997126
0.37423368372447907,1,0.999956
0.3247414131945494,0,0.993999
0.44507880669816896,0,0.995565
0.30827552381548645,0,0.995715
0.3743110648281104,0,0.994928
0.4969263935065161,1,0.999919
0.3532093715942019,1,0.999991
0.31517943335413173,0,0.996333
0.40838703850532626,0,0.997829
0.46186853605571565,1,0.999992
0.39469949656276554,1,0.999947
0.4325145829694804,0,0.998362
0.4536058696550664,1,0.999957
0.44089605522627723,0,0.996311
0.45255268779289776,1,0.999965
0.3697437091747541,0,0.996243
0.42271957828690615,0,0.994510
0.3551089057407502,0,0.993560
0.29472297964955885,0,0.999712
0.46599523202962817,1,0.999991
0.44868299574829795,1,0.999935
0.4318702002729601,1,0.999991
0.4539099230262931,0,0.996343
0.5182064768978868,0,0.994337
0.3744938018038384,0,0.995027
0.5161043754332275,1,0.999984
0.5302660104902662,0,0.999852
0.4534380721994098,0,0.997630
0.5200834935992202,0,0.997840
0.4527629050215243,0,0.999607
0.30508859157001217,0,0.996323
0.5198717419207344,0,0.999815
0.34791742919623136,1,0.999980
0.33831381552301226,0,0.999487
0.3853680747964455,1,0.999873
0.18503468432901288,1,0.999978
0.40241443644687663,1,0.999989
0.3941218567257386,0,0.999890
0.3958854854026385,0,0.993949
0.37588927342051676,0,0.999776
0.39297760262260795,0,0.994924
0.34206653128569836,0,0.992578
0.14697267062563923,0,0.998781
0.3566608239701202,0,0.999253
0.39338606419044575,1,0.999990
0.37006271173351146,1,0.999902
0.42122832457723264,0,0.992569
0.431041726918506,0,0.999467
0.43460303514443976,0,0.992909
0.41396884903123454,0,0.993842
0.3655937096901345,0,0.994914
0.3829215386649795,1,0.999991
0.41374180628855317,1,0.999982
0.471276285211459,0,0.999839
0.38142184934360557,0,0.997175
0.4040976618434706,1,0.999967
0.43377194106953865,0,0.993627
0.4446928176304285,0,0.994367
0.42771356466020105,0,0.993990
0.42803395653437387,0,0.992296
0.37257316794667766,0,0.995806
0.39665522652585694,0,0.997070
0.32414317689690236,0,0.998988
0.44278020317528605,0,0.999889
0.4397880750043917,0,0.991912
0.49653824701829824,0,0.998886
0.42824226547632865,0,0.995507
0.5037262101018399,0,0.992430
0.40063711970843535,0,0.996872
0.496546775830565,0,0.995095
0.40130017095919224,0,0.994282
0.4495089309494248,0,0.999890
0.3662626945408083,0,0.999878
0.46303773841145746,0,0.994858
0.38096707658947626,0,0.997412
0.45102868240953536,0,0.998335
0.4794948311377919,0,0.991478
0.40005577487313315,0,0.996636
0.42853670152316353,0,0.996967
0.39708315120876775,0,0.991936
0.4721612379535605,0,0.991798
0.4096373280927322,0,0.997804
0.4275715222115673,0,0.993878
0.36267669045112716,0,0.993199
0.42621086257589114,1,0.999975
0.4230692709704013,0,0.994933
0.45074804161962506,0,0.994207
0.4173965476990782,0,0.995635
0.47974901541718035,0,0.994199
0.4847137531334094,1,0.999992
0.4819669590984368,0,0.998086
0.47995512753853875,0,0.992662
0.4603718008634749,0,0.992841
0.47113742573866135,0,0.999536
0.5467029409223856,0,0.998413
0.4295976192620652,0,0.998180
0.45932418572800915,0,0.992710
0.42542638196727095,0,0.996706
0.4275408189786232,0,0.997814
0.4692940601350788,0,0.995580
0.5092216471710554,0,0.992002
0.4910836675007039,0,0.994235
0.5269559526276343,0,0.995533
0.5199882654609354,0,0.999797
0.5138454249120065,1,0.999976
0.4742618112100187,0,0.999618
0.4819481271875286,0,0.996773
0.41269265295204716,1,0.999965
0.49508983792534067,0,0.997190
0.5187612609053779,0,0.998464
0.5060688256311677,1,0.999992
0.44643733069265307,0,0.998182
0.5002929280945432,1,0.999982
0.5195720702977583,0,0.994941
0.4011862328432541,0,0.997879
0.5196430440307558,0,0.999629
0.5278227201291983,1,0.999915
0.48912663863325323,0,0.994839
0.5135266498461616,1,0.999983
0.5737137209048571,0,0.995743
0.5385831737697195,0,0.999425
0.45982384621214867,1,0.999991
0.4942532046235574,0,0.999533
0.552708881806119,1,0.999982
0.5453880832225061,0,0.991382
0.535687842697452,1,0.999926
0.5481928336808101,1,0.999962
0.5396335920840999,0,0.999517
0.44367213694213603,0,0.999736
0.559475731951565,1,0.999991
0.47719391542387707,0,0.998905
0.5493406951956794,0,0.999564
0.5478358868356804,1,0.999994
0.4986085063782159,0,0.998576
0.5575912603960365,1,0.999977
0.5718685230201177,0,0.996371
0.40938939853873124,0,0.998926
0.5093455151538014,0,0.998085
0.5617235393406462,0,0.993320
0.4817108471308374,0,0.998040
0.5108299653327564,0,0.994164
0.453633007596862,0,0.999184
0.5753713659339429,1,0.999983
0.5734927451225539,0,0.997504
0.4991544027485083,1,0.999983
0.5514854339939799,1,0.999991
0.5177757646994484,1,0.999992
0.5380693798380364,1,0.999985
0.5139337043751858,1,0.999991
0.570924988452067,0,0.993379
0.5546409724738887,1,0.999977
0.5369974113169413,0,0.993602
0.5433116894306749,0,0.999409
0.5442547913323412,0,0.999379
0.6021039847705952,1,0.999966
0.56959682112108,0,0.994006
0.6067961594750799,0,0.994499
0.5066263556902996,1,0.999966
0.5848290892358948,0,0.995631
0.45635400159830036,0,0.999804
0.5790065971093038,0,0.990524
0.5062486492690791,0,0.999227
0.5575794693809791,0,0.997599
0.5648716485943964,0,0.992522
0.4983936206627046,0,0.995124
0.496779208742212,0,0.991017
0.6184218683743168,0,0.999016
0.5824298936913278,0,0.999760
0.6386973260834121,0,0.995086
0.48299653311460217,0,0.993095
0.5105013651598032,0,0.994110
0.5717701499823118,1,0.999991
0.5370957331766607,1,0.999980
0.6410606361132021,0,0.999627
0.6120065392723547,1,0.999953
0.6462187454190429,0,0.998314
0.5952077019333577,0,0.997849
0.6330632319990869,0,0.999841
0.5912919115887837,0,0.998836
0.6126495965694513,1,0.999992
0.6554716614415896,0,0.995163
0.5393927173767165,0,0.995974
0.5091206870846063,0,0.998259
0.5992925225519196,0,0.999883
0.5966312034455392,0,0.997607
0.5770837233101954,1,0.999990
0.6288586073526068,0,0.999656
0.6461347514268633,1,0.999992
0.547274237034081,0,0.995929
0.5825277053695515,0,0.999661
0.48042805977176284,0,0.996444
0.47747788193902146,0,0.997843
0.6189052429064317,0,0.999761
0.648729610407585,0,0.995847
0.5472956887482489,1,0.999960
0.5164159491619403,1,0.999974
0.541493617903408,1,0.999984
0.527772737496807,1,0.999930
0.5738977452421298,0,0.999704
0.4874444998490495,0,0.997525
0.5046305355792908,0,0.998529
0.649964499185175,0,0.999880
0.5309320980555889,0,0.996260
0.5384909235133833,0,0.995147
0.5476740926869281,1,0.999991
0.5191151985523141,0,0.997829
0.5640828644574233,0,0.996737
0.48400035940032615,0,0.999073
0.5463577187205446,1,0.999991
0.5997756537495756,0,0.997672
0.6052344294719487,0,0.994962
0.5536158033323971,0,0.998389
0.614243694309564,1,0.999991
0.6142800364561483,1,0.999992
0.6310783653565745,1,0.999992
0.5341954849528148,0,0.999636
0.5857124909515167,1,0.999992
0.6792144446456196,0,0.998626
0.6063895264150447,0,0.999148
0.6498032698365956,0,0.995881
0.5224628709310946,0,0.995700
0.6225378359305417,0,0.994579
0.6447796155921921,0,0.994468
0.600168213017947,0,0.998598
0.6171500852880266,1,0.999939
0.6348506843618239,1,0.999993
0.6492361328567837,0,0.999152
0.6222042980316754,0,0.992723
0.6303713941528842,1,0.999962
0.6111360704758966,1,0.999943
0.6287029162510988,0,0.999749
0.6392225539779585,0,0.999854
0.6392678206255206,0,0.999576
0.6721714076017873,1,0.999943
0.6625129619266769,0,0.997408
0.6576420789333977,1,0.999963
0.659704073206729,0,0.997767
0.6588818068434242,0,0.997549
0.6535326021696676,1,0.999993
0.6324987924311655,1,0.999990
0.40736709086366246,0,0.994430
0.4909183280984618,0,0.999859
0.6394966997217391,0,0.992322
0.6344359750764373,0,0.995664
0.6408387698193468,0,0.997886
0.452704986813591,0,0.999710
0.42860917312560226,0,0.991097
0.6548924931148117,0,0.996343
0.6960237638529494,1,0.999971
0.4105261513073119,0,0.990423
0.6010258978627145,0,0.998767
0.6433465991506238,1,0.999991
0.6458175112933389,1,0.999981
0.6208113820567837,0,0.999218
0.6728491775005309,0,0.996840
0.5614989695391958,0,0.993811
0.6913621649409946,0,0.997168
0.6879931489227329,0,0.999245
0.6678122013781156,1,0.999991
0.630603357094633,1,0.999991
0.6652276071948199,0,0.993256
0.5720583958489729,0,0.998375
0.475907348436521,0,0.997690
0.6688207985775626,0,0.999517
0.6430256041961426,0,0.996664
0.558599137033398,0,0.997306
0.5412970173690572,0,0.996234
0.5456265673561878,0,0.995910
0.5899061329073532,0,0.996613
0.5703903305756004,0,0.998569
0.4607797484684577,1,0.999990
0.5791740901430164,0,0.994186
0.6572570134074851,0,0.999718
0.5020506102906184,0,0.998205
0.6735695217461046,0,0.996823
0.687787008687025,0,0.997421
0.38355366797385587,0,0.994825
0.39135617321249416,0,0.996221
0.5839866206426865,0,0.999866
0.6193830009695346,0,0.998811
0.6942358934265944,0,0.997402
0.6617387630378744,0,0.999597
0.6067170519635745,0,0.999679
0.4845472323366088,1,0.999905
0.6438555907359188,1,0.999991
0.6480608038274963,0,0.998221
0.5222454648378337,1,0.999980
0.6544013195419348,1,0.999990
0.6577734406782727,0,0.999123
0.6732653213902215,1,0.999963
0.6600309016202275,1,0.999991
0.6683119098148415,0,0.997378
0.6459381450760728,0,0.995405
0.5864256613699835,0,0.998657
0.6356788052576999,0,0.998717
0.6883749719600376,0,0.994559
0.6644290642728237,1,0.999993
0.5874270921277598,0,0.996095
0.6310830244028822,0,0.993897
0.6150284105718353,0,0.999203
0.6390688317660332,0,0.993895
0.587392399708537,0,0.996542
0.6598825329802352,0,0.996674
0.6491920944768814,1,0.999977
0.64235553602667,0,0.994904
0.70575344301966,0,0.999821
0.6377015994188575,0,0.997458
0.568815154382011,0,0.999893
0.6009904582476822,0,0.998543
0.673655414512029,1,0.999951
0.710089084554453,0,0.998019
0.49915220685833706,0,0.998242
0.7092445538047973,0,0.999838
0.6761388806430122,0,0.999875
0.5508685507864833,0,0.997361
0.6143380805315556,0,0.997918
0.6229216840612742,1,0.999992
0.6153937345482674,1,0.999992
0.6331410796809556,0,0.997293
0.658575246353881,0,0.995977
0.6465140546766417,0,0.997015
0.5985485430448741,0,0.996521
0.6335859827767794,0,0.998391
0.6707177005448867,0,0.994148
0.674142562456642,0,0.999560
0.5947221377273036,0,0.996593
0.6020311547022615,1,0.999992
0.6705501063424444,1,0.999978
0.6781096497481184,0,0.999152
0.7289794682477995,0,0.998334
0.6321744643889071,1,0.999976
0.6618762155672494,0,0.996674
0.6681347906427694,0,0.999796
0.6079045315101353,1,0.999992
0.6223981370282045,0,0.999294
0.7523683875694493,1,0.999958
0.6586027612440395,0,0.999406
0.6331342780858044,0,0.996615
0.7052842377198095,0,0.999300
0.6836640802729854,0,0.995922
0.6461937024482094,0,0.998823
0.6898452337834243,0,0.995910
0.6017068920886787,0,0.996398
0.6299185006479112,1,0.999976
0.7116914489596191,0,0.994617
0.7119664985661438,1,0.999986
0.6584087611339609,0,0.996788
0.6585863974739928,0,0.996761
0.6715648285997325,1,0.999982
0.6998356033718559,1,0.999979
0.6629889586245533,0,0.993450
0.47344250068132565,0,0.992760
0.6681696609402448,0,0.990808
0.6922782532007905,0,0.992734
0.7100101839154815,1,0.999992
0.7335366818563245,0,0.993405
0.6843075980649389,0,0.991464
0.6840264703794808,0,0.993905
0.732115421385754,0,0.990979
0.49177666198722986,0,0.999572
0.6932118008497017,0,0.993816
0.6475068911057379,0,0.990068
0.6143641313891467,0,0.993715
0.6466714511370321,0,0.996805
0.5976546751614595,0,0.997630
0.674977822419023,0,0.993723
0.723731489100436,1,0.999992
0.7187886920367138,0,0.998588
0.6001906169397057,0,0.996052
0.63455734364023,0,0.995883
0.6362536219759455,1,0.999940
0.6109985273149896,1,0.999941
0.6182402815760877,0,0.999890
0.6099972705723318,0,0.997074
0.6194127848572573,0,0.996064
0.7469753943203427,0,0.996763
0.6435841398203141,0,0.996228
0.5904278511652982,0,0.996368
0.6066089032800354,0,0.996430
0.5956548558369724,0,0.997227
0.6211943340408852,0,0.998357
0.4289766352549077,0,0.997146
0.5073878801395741,0,0.999918
0.4775204790056842,0,0.995967
0.4763624649214036,0,0.996836
0.4449554476575191,0,0.999546
0.4712267487287257,0,0.997532
0.680171036756407,0,0.997288
0.5348008954255591,0,0.994860
0.6421894174622212,1,0.999985
0.6824533041074835,0,0.994994
0.6545451408560845,1,0.999943
0.6200382236312372,0,0.995739
0.693833422993062,0,0.993651
0.6117580643016308,0,0.995481
0.6128073488895217,0,0.994833
0.6046886361574276,0,0.995895
0.6759491557148503,0,0.993742
0.7222602327443598,1,0.999950
0.726863944828064,1,0.999986
0.7296965682567239,0,0.995397
0.7417792744530919,0,0.996383
0.651754545125677,1,0.999992
0.6549584676854161,0,0.997186
0.720237994251571,0,0.997120
0.722038680170977,1,0.999986
0.6935493966701246,0,0.996581
0.7076729249218683,1,0.999993
0.7150114455802191,1,0.999986
0.6867643018318886,0,0.996743
0.6622975382733081,1,0.999958
0.7218397117621517,1,0.999965
0.7244078173957927,0,0.998356
0.6846134236220324,0,0.999123
0.7804405787215424,0,0.998890
0.6874570457534362,0,0.999602
0.6847776427944526,0,0.997454
0.707629386584042,0,0.999746
0.6723443637670925,0,0.995328
0.7874142810435605,1,0.999930
0.6606463625164453,1,0.999993
0.6599717283681278,0,0.995938
0.6294150045966611,0,0.996809
0.6856285922917943,0,0.998880
0.7513618910424357,0,0.997331
0.6390768120608926,0,0.997361
0.713615986289412,0,0.995837
0.7299398015620304,0,0.999899
0.6822312959042797,0,0.995979
0.6192227105369081,0,0.997685
0.7016094507880911,0,0.997588
0.784876969275424,0,0.998507
0.6670790372222603,0,0.999245
0.7293415289970455,0,0.995574
0.7645131220651434,1,0.999978
0.6891652577200781,0,0.999267
0.7382232379928299,0,0.995827
0.7548321431750986,1,0.999986
0.7270451910856663,0,0.996165
0.7322364352249254,0,0.998780
0.7351247018068677,0,0.997614
0.7081032404181044,1,0.999993
0.744373344192681,0,0.996351
0.1425960374371446,1,0.999909
0.37080803955657715,0,0.995461
0.3597908924517129,0,0.995772
0.6685690019637351,0,0.999635
0.42116308745791514,0,0.993684
0.3327097963720383,0,0.999564
0.40764828395133784,0,0.998813
0.32205426801194403,0,0.995758
0.37820764339967655,1,0.999960
0.42757168376179083,0,0.994571
0.5121924826081564,0,0.999036
0.41868335651366995,0,0.995512
0.3049323980168344,0,0.997149
0.6230175103449904,0,0.993483
0.34340397603811434,0,0.999201
0.6914008005838127,0,0.999907
0.3629663936061813,0,0.991396
0.6023806985562481,1,0.999985
0.5260323140759082,0,0.989103
0.6016018441570073,1,0.999952
0.6298791463307294,0,0.992135
0.6401621144826607,0,0.991863
0.5498297172958821,0,0.995050
0.627853496717031,0,0.991580
0.6498886551102233,0,0.993828
0.6742973584023113,0,0.993333
0.6997759668287419,0,0.995164
0.6564277539549208,0,0.992554
0.6881343349744272,0,0.999124
0.6986819165669621,0,0.994248
0.3378151279453856,0,0.999298
0.395589475103252,0,0.999616
0.5865767646646287,0,0.994471
0.592290039214142,0,0.997957
0.5621945055610846,0,0.997074
0.5941495126877753,0,0.991087
0.47482015870679395,0,0.999401
0.6180747071683206,0,0.998054
0.7097209311327208,0,0.996765
0.5610110144512495,0,0.988143
0.48879893715671857,0,0.990247
0.6621903369857575,0,0.990880
0.6465219411540004,1,0.999968
0.7102682146685038,0,0.991057
0.6450881477015964,0,0.994065
0.698274567164592,0,0.996555
0.6189812238459015,0,0.992195
0.4486541771221073,0,0.996043
0.5969240594558218,0,0.997602
0.5852561854260907,0,0.997562
0.6744926604261653,0,0.993266
0.6525001416748778,0,0.995581
0.6487102083404684,1,0.999993
0.4971905748373077,0,0.994363
0.72159667868753,0,0.999691
0.41931020348257375,0,0.996947
0.6428296845260582,0,0.997036
0.5863118989628037,0,0.996289
0.6743858890448087,0,0.995116
0.6401236201989334,0,0.995809
0.669123349662611,0,0.992653
0.6898528316423844,1,0.999993
0.3974763762768851,1,0.999992
0.6456276677003145,0,0.994957
0.6476315918866887,0,0.992889
0.6095311198100261,0,0.995086
0.7041251809549725,0,0.996738
0.7427888656141806,1,0.999968
0.6903518256561961,0,0.996434
0.6594655797311074,0,0.996109
0.6852696448138642,1,0.999950
0.3765219818852193,1,0.999982
0.672263052166476,0,0.995705
0.6905633711118946,1,0.999929
0.672215605323209,0,0.994980
0.6619361095726201,0,0.997292
0.6776460660263497,0,0.997921
0.5969902674539891,1,0.999978
0.668753683144384,1,0.999992
0.6895510469994774,1,0.999976
0.6510923587640128,0,0.996548
0.7350207559386366,0,0.998996
0.7938642170960906,0,0.997145
0.6709317520551276,0,0.995258
0.6374613635331362,0,0.998338
0.7079252408985244,0,0.998120
0.5605889028205515,0,0.997934
0.7523416111501073,1,0.999984
0.7245405718781074,0,0.994821
0.5947565501712129,0,0.998088
0.7194961538892168,0,0.999686
0.7330927264591247,0,0.994944
0.6634058211311084,0,0.996165
0.6268745743013406,0,0.996865
0.7430270183707202,0,0.997367
0.7354089096704232,1,0.999978
0.6460883529648505,0,0.995215
0.5787997707886923,0,0.995673
0.7259400273999691,0,0.999873
0.6983275732791373,0,0.998124
0.757473941839074,0,0.999699
0.7043124990085811,0,0.999827
0.6766193393169883,0,0.994295
0.6452562708387046,0,0.995414
0.7036098766532402,0,0.994853
0.7146986720492071,1,0.999993
0.37361402796319515,0,0.999596
0.4689385669015158,0,0.999802
0.7004504965722572,0,0.994832
0.6951497871375215,1,0.999957
0.5957483514340727,0,0.997295
0.7475786883186001,0,0.996244
0.7062669422711926,0,0.995223
0.5927316506313254,0,0.999749
0.7291231582826867,0,0.994595
0.6729105711575413,0,0.998597
0.6783531436831002,0,0.999920
0.7390983826451872,1,0.999978
0.742320702257069,0,0.999887
0.755069816626329,1,0.999937
0.696410679717039,0,0.997879
0.6308435603246348,0,0.996151
0.5292693844285131,0,0.998773
0.6514199460098921,0,0.995955
0.6719857990200673,0,0.997720
0.6098274056568834,1,0.999986
0.7587093811471926,0,0.999871
0.6778240816982802,1,0.999991
0.6348831596820323,0,0.998751
0.5386482243339897,1,0.999928
0.6656709754971756,0,0.998785
0.7259614883482569,0,0.998826
0.6814531346074367,0,0.996515
0.5551670895213823,0,0.999456
0.42675363225098806,0,0.999754
0.4970149414708183,0,0.995302
0.7751932854128156,0,0.997516
0.6523537925434587,0,0.995080
0.4413608916797395,0,0.998379
0.6670429006895682,1,0.999992
0.6690471833235921,1,0.999993
0.6683750599989217,1,0.999986
0.7020890240618013,0,0.998858
0.7169083231336997,0,0.998632
0.6918950698784974,0,0.996861
0.7447224826180261,0,0.995058
0.3962849142124705,1,0.999993
0.6931569693302565,0,0.996610
0.46867980920341246,0,0.997188
0.5809138926919715,0,0.998936
0.4830489632447412,0,0.999498
0.5151898234912419,0,0.995207
0.7245391244950729,0,0.999501
0.5407499908728196,0,0.996859
0.6856114960985608,0,0.998636
0.4355988410393388,0,0.995585
0.6267096903501137,0,0.993737
0.6064938979184578,0,0.999047
0.6907737740859444,0,0.998015
0.7160191568128828,0,0.999682
0.38468812832760335,0,0.998047
0.6465653677858104,0,0.999896
0.42921398791798193,0,0.995208
0.6755625481845856,0,0.999785
0.6370706112260823,0,0.999180
0.6846948033519636,0,0.996682
0.7465987442543398,0,0.997820
0.6466357228972557,0,0.997927
0.7399582020160985,0,0.996247
0.6976930462024457,0,0.999764
0.720100589753437,0,0.998787
0.7539871186322533,1,0.999944
0.6261588624710595,0,0.999272
0.5407250341651725,1,0.999992
0.6932397122748439,0,0.998302
0.6967458989924316,0,0.998611
0.6769547687583622,0,0.999570
0.6464305865314909,0,0.998409
0.7453431428040781,0,0.998783
0.6974031478331861,0,0.998871
0.7454921022420141,0,0.999159
0.6311575845844564,0,0.999478
0.7609795543191324,0,0.995614
0.7162042616666878,0,0.991243
0.6579863250740465,1,0.999950
0.6666793664399611,0,0.997834
0.5452647459570279,0,0.995149
0.089420593165473,0,0.996165
0.09078812176461527,0,0.995681
0.4805078420804049,0,0.989206
0.4996270832581578,0,0.998064
0.5069720322134625,0,0.999771
0.6329171908741851,0,0.994100
0.515366572558937,0,0.998947
0.5569313531232072,0,0.999683
0.642267936467742,0,0.992749
0.7407552978494306,0,0.999697
0.5410009629875926,0,0.997749
0.576754764723315,0,0.997279
0.5926934877215168,1,0.999980
0.552718258195459,0,0.999707
0.5879179525610261,1,0.999968
0.5703582280441871,1,0.999991
0.6454049077470038,1,0.999958
0.6598782501892342,0,0.999289
0.6234567108469256,0,0.999560
0.6256585398390504,1,0.999989
0.5370579657534961,1,0.999980
0.6247280955108012,0,0.999825
0.6349819140773639,0,0.999881
0.6145140816540484,1,0.999990
0.5360102822954984,1,0.999990
0.6723199268890686,1,0.999990
0.6438960687865305,1,0.999991
0.6842570785522197,0,0.999452
0.6776277515278881,1,0.999905
0.6483550488116538,0,0.998257
0.6653221187082917,0,0.997133
0.6826541369726439,1,0.999906
0.6129348814819314,0,0.998920
0.624959438170297,0,0.998971
0.7180403451764633,1,0.999980
0.5840032954023731,0,0.999590
0.6319398106858191,0,0.998598
0.6228388259646381,1,0.999934
0.6606288291533944,0,0.997520
0.7397765652319779,0,0.996849
0.6893517434431247,0,0.994998
0.7100796632340727,0,0.997909
0.6981981121888176,0,0.991527
0.6766262464744653,0,0.992399
0.6645458350456975,0,0.994686
0.7217482383969215,0,0.995467
0.6259473082373858,0,0.994512
0.6783948623747242,0,0.999108
0.6612369494234777,0,0.999787
0.7548120722379097,0,0.995685
0.5986413692188406,0,0.998430
0.5965221532081719,0,0.998532
0.6068774495543325,0,0.994281
0.5727496430059819,1,0.999934
0.36739330880995524,0,0.997808
0.642208468350869,0,0.999898
0.6534999552283537,0,0.999137
0.6835911494454878,0,0.996387
0.6686945814501912,0,0.997030
0.41058604079740424,0,0.999099
0.6739912752845018,0,0.994196
0.7387928901916936,0,0.999857
0.678595084979455,0,0.995023
0.6144606756572784,0,0.992791
0.611738812864887,0,0.998263
0.6086606368582441,0,0.998586
0.624662507778764,0,0.999850
0.6074217156604819,0,0.993342
0.6093909901850849,0,0.995406
0.5702101991737778,0,0.993067
0.6353718363936922,0,0.995611
0.5828923068527169,0,0.999175
0.5002629516971945,0,0.999888
0.7132443219374534,0,0.999782
0.4617408931271451,0,0.994023
0.5644635338810553,0,0.999864
0.7445516546073772,1,0.999950
0.6931154517279483,0,0.995180
0.694296059373883,0,0.998391
0.5032963228024524,1,0.999992
0.6290161476526077,1,0.999910
0.6088272674260266,0,0.998043
0.598277156089819,0,0.995358
0.6752096731052285,0,0.995059
0.6800721452982049,0,0.999120
0.6226238473999378,0,0.997496
0.4792589089694207,0,0.999066
0.43598173238344234,0,0.998938
0.6472384910236996,1,0.999930
0.47373408060761957,0,0.999721
0.5831603588573959,1,0.999922
0.6900390404165383,1,0.999942
0.5091196562529492,0,0.994764
0.6436075514097227,1,0.999986
0.4865363430033329,0,0.999005
0.6399216028006361,0,0.995026
0.4106890184069162,0,0.996074
0.624605167416337,1,0.999993
0.6913308118280432,0,0.999912
0.49394737025477314,0,0.991638
0.3941307281703872,0,0.997931
0.5922078074251584,0,0.994166
0.4489378325742048,0,0.996804
0.678951098473951,0,0.995283
0.7259159585606196,0,0.996500
0.6481230045512708,1,0.999983
0.7198166075573588,1,0.999993
0.6247060742860238,1,0.999986
0.6810504908167169,0,0.999200
0.677042193530173,0,0.999345
0.6328153817226466,0,0.997573
0.6573065081399551,1,0.999937
0.7009413438818866,0,0.997679
0.6751332762760001,0,0.993221
0.6550073311756374,0,0.992565
0.5582916227208894,0,0.995639
0.6780912889319847,0,0.994083
0.5427651312822787,0,0.996458
0.6078442497761757,0,0.994809
0.5644051785140007,0,0.995137
0.5366123942336933,0,0.997176
0.5838117375148058,0,0.994501
0.49202358103895816,1,0.999969
0.37505583917352725,0,0.998230
0.17950226693454713,0,0.996423
0.4944836843154987,0,0.996549
0.32632207073081076,0,0.999664
0.5275320293230266,0,0.994710
0.478196838072212,0,0.998005
0.29776864862183106,0,0.998123
0.5377475794338084,0,0.999581
0.5201945795934263,0,0.987077
0.37650763928235337,0,0.996813
0.47052328729424786,0,0.987866
0.3657383105898308,0,0.995728
0.40286245375246804,0,0.999427
0.5445968512015369,0,0.996529
0.5670947254899252,0,0.992318
0.5943545523407785,1,0.999991
0.4355651843438757,0,0.997851
0.4467855812020823,1,0.999980
0.4874867703460317,0,0.999872
0.5522364248956901,0,0.990597
0.4522322875216056,0,0.992117
0.5939304100875148,0,0.988282
0.5365268406765968,1,0.999949
0.49729495780515764,0,0.990669
0.5901324849897247,0,0.992269
0.5511247177646449,0,0.993126
0.5182310384000032,0,0.992091
0.5572909607278321,0,0.992441
0.5915417648275874,1,0.999972
0.6121574749545916,0,0.998448
0.6591364559461285,0,0.991939
0.6872235107267376,0,0.991195
0.6203310561840855,1,0.999985
0.6570652016835437,0,0.992389
0.666068037013545,0,0.998744
0.6404817539891806,0,0.991448
0.6782252887156207,0,0.999655
0.7258599731976906,0,0.999774
0.547052826911071,0,0.998959
0.5569774273692544,0,0.998991
0.4581876552940583,0,0.996491
0.5272356115046716,0,0.996138
0.6470337376291522,0,0.999902
0.5376323029764952,0,0.998857
0.6402072344032992,1,0.999977
0.440409984063898,0,0.996856
0.4312408522999547,0,0.997820
0.6321914259047918,0,0.990619
0.5740264683758267,1,0.999992
0.5633308987050569,0,0.999163
0.4108660467706455,0,0.999888
0.46800081429961654,0,0.999486
0.3994567764049388,0,0.999702
0.3873144722167222,0,0.993332
0.500755342347695,1,0.999983
0.4329005570819872,0,0.994007
0.506563288231782,0,0.994442
0.611529984515357,0,0.986367
0.5672934459138587,0,0.999596
0.5794925044081461,0,0.987917
0.5039616911776607,0,0.994084
0.4969432947511603,0,0.994114
0.46262852840537383,1,0.999970
0.49663547395794216,0,0.998901
0.5952057193044359,0,0.990425
0.5648943533257292,1,0.999955
0.6106022209490097,0,0.991660
0.4738746481037149,0,0.998547
0.5856891588963596,0,0.991291
0.5884387649866236,0,0.988595
0.6742372018675182,0,0.987030
0.5467621579474348,0,0.990565
0.5806511176183264,0,0.990566
0.5958291303460393,0,0.999499
0.6118644386283811,1,0.999992
0.6040333023756145,0,0.999519
0.6183738329091677,0,0.998766
0.6350996906158313,0,0.998344
0.5163446173419337,0,0.997683
0.6218450467908181,0,0.997821
0.45510683927906714,0,0.997091
0.5944241181364041,0,0.999572
0.6205987916600617,0,0.995856
0.6335780752537612,0,0.995256
0.5508653728138496,0,0.997062
0.5229123813381171,0,0.999762
0.5677885799091054,0,0.993896
0.666713831460605,0,0.997458
0.6310887435904925,0,0.989839
0.6381005208430995,0,0.992238
0.5882671089864543,0,0.993804
0.5469911977061004,0,0.995332
0.5760332407974502,0,0.999837
0.6309298599382066,0,0.998599
0.5861697912257335,0,0.992481
0.5904462975202316,0,0.995250
0.6219425062055622,0,0.996192
0.6325766409437379,1,0.999993
0.5793969615316278,0,0.994622
0.5951679516771645,0,0.995695
0.6207073196737141,1,0.999970
0.5158747041859538,0,0.992020
0.6757646810974026,0,0.992099
0.747092866638486,0,0.996286
0.5414365824549674,0,0.998926
0.48813625630706253,0,0.997910
0.5981937294195017,0,0.997883
0.5754036276441696,0,0.997482
0.4834876827114149,0,0.996673
0.48400664838520585,0,0.996246
0.6515213448392063,0,0.999860
0.5711581240423688,0,0.999456
0.6727556705197768,0,0.999766
0.6455464424393714,0,0.995935
0.6083185803264146,0,0.993649
0.6187167663781827,1,0.999992
0.5696051386618863,0,0.994250
0.6510850620047076,0,0.999880
0.5866757646929908,0,0.994005
0.5961562932459777,0,0.993556
0.479760489477992,0,0.994582
0.6621034073875293,1,0.999986
0.6445213041509908,0,0.999819
0.5784373191996701,0,0.995255
0.5325296664344967,0,0.997057
0.45562627479280937,0,0.998836
0.6325064895986418,1,0.999972
0.4666425478293368,0,0.999616
0.6238737753040814,1,0.999990
0.5537286412935649,0,0.998786
0.6905663536094132,1,0.999954
0.6822411064964354,0,0.996999
0.6014852472252825,0,0.996934
0.6086585869682055,0,0.985572
0.648183650597109,0,0.989090
0.6640866367511307,0,0.990604
0.6201848774336659,1,0.999993
0.4757257440125564,0,0.993725
0.6654195016324337,0,0.985303
0.6560217471492522,0,0.996892
0.5960338867194689,0,0.990915
0.6305338044976357,0,0.989057
0.6571796489834378,0,0.992750
0.5936605680111315,0,0.990748
0.580219118101616,0,0.989003
0.7218044376125804,0,0.992380
0.6328837129651751,0,0.993839
0.6666927230573351,0,0.999239
0.6576207512083165,0,0.993591
0.5096324318329954,0,0.998728
0.6181914641996736,0,0.999325
0.3721959649038651,0,0.999514
0.4241628778142416,0,0.996568
0.49090568635992893,0,0.999595
0.617808156281028,0,0.998844
0.5944787676519094,0,0.999793
0.5724259459845148,0,0.994055
0.5481466727038921,0,0.993192
0.48195205847637834,0,0.993151
0.554640701338775,1,0.999993
0.6116308430910474,0,0.999853
0.5697181427973368,0,0.994405
0.5726452796589906,1,0.999993
0.4834377417931652,0,0.999788
0.48489112307604215,0,0.998203
0.6813181531261205,0,0.994301
0.6577809763075825,0,0.994898
0.6306657264807282,0,0.993598
0.6117970283625855,0,0.997868
0.532900981471038,0,0.999387
0.590253747083485,0,0.999474
0.6535394074395892,0,0.999816
0.6545838895766986,0,0.992592
0.5868358881017101,0,0.995190
0.5852568295503298,0,0.995400
0.5643458734018046,0,0.999697
0.6399016153449374,1,0.999993
0.6077523865964557,0,0.998842
0.6129327998678035,0,0.996502
0.6959464263741872,0,0.997582
0.6379292691969953,0,0.998394
0.6485620952188925,1,0.999993
0.6370622441739571,0,0.999910
0.5742569071524882,0,0.997239
0.5997719782112663,0,0.997074
0.5104911561503058,0,0.998770
0.5985568526453513,0,0.998539
0.516779036039713,0,0.995440
0.48965050962506595,0,0.998087
0.588664078112286,0,0.995298
0.5563719313749068,0,0.998411
0.6578096046137557,0,0.996446
0.4824930394026585,0,0.999037
0.6426389855365623,0,0.996970
0.6019280896723309,0,0.996788
0.7436953511025453,0,0.998326
0.6321155773638544,0,0.995616
0.5230614958035127,0,0.999826
0.6165425016193977,0,0.994621
0.6845688707291427,0,0.999913
0.5931647965533546,0,0.992444
0.6071366287337109,0,0.995205
0.6920308938240995,0,0.992038
0.5848906920622287,0,0.994636
0.6492432586869471,1,0.999971
0.6458786540973781,0,0.998872
0.6525529051504582,1,0.999986
0.5966677955942026,0,0.994335
0.5134637927640823,0,0.995062
0.6781176164253196,1,0.999986
0.7624226042672734,1,0.999979
0.6878580284690298,0,0.999645
0.70206563094851,0,0.999726
0.5738297504058111,0,0.995188
0.6986934970953222,0,0.995673
0.7037595515049431,0,0.999244
0.6562112059172631,0,0.994326
0.6090520783837686,0,0.999010
0.6100364616552397,1,0.999986
0.6567844353658641,0,0.994334
0.6469437733493122,1,0.999938
0.5530727583253521,0,0.999356
0.6637774996158889,1,0.999986
0.5211836206245334,0,0.998401
0.6568974329866271,0,0.995174
0.6711368469899368,1,0.999993
0.5766332199932523,0,0.998251
0.6005720445813051,0,0.999072
0.6202137312260969,0,0.995372
0.6617618032725673,0,0.998066
0.5450229362500172,0,0.998411
0.4076864454806171,0,0.997155
0.6544002603460333,0,0.998461
0.6455780945914448,0,0.999233
0.42376068646096415,0,0.998807
0.6852443313199936,0,0.995932
0.7065972926378717,0,0.995966
0.672144181552952,0,0.997004
0.4986598656789117,1,0.999925
0.525986636025489,1,0.999948
0.5743520151751161,0,0.998710
0.41022530466231005,0,0.999525
0.20117097685383253,0,0.999887
0.5914979046380778,0,0.999662
0.6316537348546735,0,0.995644
0.6779970302092212,0,0.999661
0.557511455892625,0,0.997992
0.5001694551279606,0,0.995646
0.7070101456519599,0,0.988202
0.4148100321376747,0,0.992275
0.5457307029509295,0,0.999646
0.6523341003471377,0,0.993483
0.4746974529406464,0,0.998411
0.5812801658391374,0,0.999862
0.6717838494816909,0,0.998285
0.621073238107616,1,0.999972
0.6682544489503172,0,0.998154
0.657009535343723,0,0.998279
0.6714141629763357,0,0.998453
0.6574074275624132,1,0.999993
0.6692644826661109,0,0.997689
0.6878990475299774,1,0.999986
0.7214139895703626,1,0.999923
0.6085662410143574,0,0.996360
0.6807248539543183,0,0.999124
0.569380982024832,0,0.998309
0.5846058266736063,0,0.995272
0.5397758928315272,0,0.998474
0.5312395111542098,0,0.999795
0.6142915727790094,0,0.997758
0.6677805189848856,1,0.999975
0.6542343859645968,0,0.995415
0.5559108834938047,0,0.993760
0.6915923862959504,0,0.995952
0.680178731017892,0,0.999280
0.5815783075668397,0,0.999851
0.6478187618849777,0,0.996620
0.6743520164613384,0,0.998977
0.7116027772973778,0,0.999166
0.5637069549297216,0,0.999551
0.49816192275457677,0,0.998894
0.5950780462910541,0,0.999688
0.6172922904004883,0,0.996293
0.6892340033658688,0,0.999132
0.4587701444176622,0,0.998307
0.5665421810036954,0,0.998596
0.6106272858529782,0,0.998907
0.5910933154138033,0,0.998834
0.5588425979663619,0,0.998630
0.497136187758209,0,0.992072
0.5200449198658974,0,0.997070
0.610817763669626,0,0.995315
0.5966185557055418,0,0.998494
0.5585722160470312,1,0.999993
0.5953362552122241,1,0.999991
0.5300901741323136,0,0.999852
0.44084430888175674,0,0.996500
0.5179798111210893,0,0.999135
0.5320906050954783,0,0.987887
0.5915444416978628,0,0.990423
0.5450977688034566,0,0.999519
0.5540282808849416,0,0.998924
0.4493056868583579,0,0.997818
0.6147847558727562,0,0.999906
0.49484679078481214,0,0.992378
0.5727424080619189,0,0.994320
0.537801081820251,0,0.998344
0.4967628420490804,0,0.990386
0.5572346039088424,0,0.992423
0.5501605910918336,0,0.997868
0.5228680095416732,0,0.993540
0.528301601905082,0,0.998557
0.5106939845111256,0,0.999436
0.48143778444784896,1,0.999968
0.46042714499065046,0,0.989032
0.43029222436361325,0,0.993424
0.3979875157760488,0,0.994376
0.6719339956203825,1,0.999990
0.6194322178105276,1,0.999991
0.671060087889606,1,0.999991
0.6495471704614291,0,0.999791
0.5423562158943173,1,0.999982
0.5410850371959064,0,0.999490
0.651770548293655,0,0.998226
0.6353127113409621,0,0.996457
0.6191933410084451,0,0.998446
0.5869272103959965,0,0.999701
0.5522434480691563,0,0.998791
0.6634669273954851,0,0.999754
0.44787789622721635,0,0.997171
0.4751890338580887,0,0.998249
0.614360747874904,0,0.999766
0.6122175051862919,0,0.995971
0.6363537158862148,0,0.994781
0.6261880915870816,1,0.999991
0.5902070582246984,1,0.999968
0.6849283317856114,1,0.999991
0.6544119953535307,0,0.999761
0.5879378761338415,0,0.988266
0.5638229678576548,1,0.999910
0.6823002384717033,0,0.999552
0.6270924718736464,0,0.998117
0.472340031514061,0,0.997242
0.6492945434981142,0,0.999786
0.6472755556323324,0,0.999615
0.603647942112168,0,0.999236
0.7213503351178111,0,0.996867
0.6678891374159561,0,0.999600
0.644977149540058,0,0.999161
0.621143220680974,1,0.999982
0.6362322459808116,0,0.999477
0.5528249746874784,0,0.996379
0.6629842117230003,0,0.995031
0.531197020428156,0,0.997539
0.602524578794867,0,0.996937
0.647377927248141,0,0.995938
0.570190436517566,0,0.997113
0.6043483167884326,0,0.995782
0.6256174602373591,1,0.999991
0.44841012336108405,0,0.995216
0.46077403642171677,0,0.994600
0.4924541887208556,0,0.999774
0.6636141602876435,0,0.996378
0.6148518679246546,0,0.997913
0.6661881725771562,0,0.997202
0.6808664603476376,0,0.999789
0.6546671761716737,0,0.997036
0.5198555616298827,1,0.999990
0.5804431875644668,0,0.996687
0.6358118597662784,0,0.999454
0.6138442315639064,0,0.995403
0.6517343604199856,0,0.996005
0.6579178969966702,0,0.998489
0.6708600976622465,0,0.994557
0.6320084378542801,0,0.999783
0.5813289682805891,0,0.999427
0.6399102885377826,1,0.999971
0.6672509016967493,0,0.999879
0.6489309342551897,0,0.999894
0.6434834958471054,0,0.998038
0.6196160632404266,0,0.999542
0.5115320539309473,0,0.999834
0.7276435501012627,0,0.999665
0.5128312582053717,0,0.998479
0.6326040507937273,0,0.999721
0.506589068986575,0,0.998994
0.5319308220522729,0,0.996481
0.5099546503212572,0,0.999784
0.6176655504913179,0,0.995483
0.5803882548698256,0,0.999731
0.6318454515733036,0,0.998965
0.6624812085400474,0,0.994773
0.6716010798598168,0,0.994640
0.6721564232610086,0,0.999235
0.695157872218273,1,0.999993
0.6682632789529981,1,0.999972
0.4546543357035787,0,0.996623
0.5870876257889162,0,0.997697
0.6381568500174344,0,0.997414
0.4252842271575983,0,0.997248
0.6431650342200083,0,0.995541
0.6439939928774562,1,0.999986
0.44971448251486384,0,0.996858
0.636306677944152,0,0.999134
0.7549911162803329,0,0.997124
0.5049191929612481,0,0.997546
0.568501590501984,0,0.998894
0.592264210481006,0,0.999412
0.5049432317683992,0,0.997639
0.520254485226133,0,0.994209
0.4820761821882854,0,0.996533
0.678976801809564,1,0.999965
0.4941747939379504,0,0.997036
0.5359186368947991,0,0.995597
0.5573871934257006,0,0.994191
0.5463000818846082,0,0.998358
0.5798347428567914,0,0.999812
0.4227784214054969,1,0.999981
0.4981645472752138,0,0.993510
0.6644046429220034,0,0.999564
0.5811229424255754,0,0.999902
0.6345633091621685,0,0.999851
0.5199591271117132,0,0.992045
0.4783412867169762,0,0.994936
0.5835750635417476,0,0.998052
0.48067931766962807,0,0.997980
0.5073282271296071,0,0.997873
0.5341770218704611,0,0.993443
0.6225204555423196,0,0.999596
0.599707407441173,0,0.993859
0.6000994235065941,0,0.998372
0.5389225563986828,0,0.994664
0.6443018320657271,0,0.998321
0.40222790377476025,0,0.999840
0.6104429239992235,0,0.997516
0.5908894407769381,0,0.994944
0.6488418426023128,0,0.995324
0.5516650954148156,1,0.999979
0.5657799926168159,0,0.999790
0.5602063971685027,0,0.994395
0.5678876180929141,0,0.995960
0.6167328685032187,0,0.999339
0.5007890719986735,0,0.999570
0.5915376907373078,0,0.995626
0.5813141416830079,1,0.999972
0.5761798082370222,0,0.997694
0.6400389784613236,0,0.997905
0.665988793244115,0,0.999710
0.601753760944832,0,0.991836
0.5843736412568868,0,0.999447
0.6147978994313118,0,0.999890
0.4861440459100334,0,0.993553
0.600924822945252,1,0.999993
0.509289475897142,1,0.999992
0.6032712592778682,0,0.994345
0.6095610283847396,1,0.999958
0.4626130248902067,0,0.996244
0.6122415003039693,0,0.995228
0.6164563864638832,0,0.993852
0.6294432652773371,0,0.996575
0.5651390247321588,0,0.999692
0.5453092784204349,0,0.996412
0.5457145707620141,0,0.996744
0.6507206766858145,0,0.998418
0.44174012230843973,0,0.999694
0.6431478114919853,1,0.999979
0.561709983101904,0,0.997867
0.6498740227643816,1,0.999979
0.6529172903225741,0,0.998368
0.6235576012886932,0,0.999662
0.6502171246229261,0,0.999406
0.6479811345769743,0,0.996750
0.6954434526426495,1,0.999979
0.6291074498798968,0,0.997306
0.7420368871108612,1,0.999930
0.54668835179701,0,0.998919
0.7181841446193208,0,0.998950
0.6681716122744401,0,0.997367
0.6626166111976165,1,0.999937
0.6834908559133636,1,0.999972
0.7039771092112551,1,0.999986
0.6300872627466448,1,0.999986
0.4467302229237299,0,0.998026
0.6919837169046198,0,0.997610
0.407120252651091,0,0.998999
0.5137301242601854,0,0.997280
0.5114348075173554,0,0.998318
0.7105744984555793,1,0.999964
0.45693837004312826,0,0.997552
0.26680004278328817,0,0.998714
0.6291926139466216,0,0.997020
0.5401767269167375,0,0.999240
0.5757198349082511,0,0.996815
0.6149985305076896,1,0.999950
0.6305397323576467,0,0.994691
0.5279342461212717,0,0.999189
0.6480813641472778,0,0.995389
0.7105466322103535,0,0.998954
0.6985009528520802,1,0.999972
0.7040456880140223,1,0.999993
0.672701529349829,0,0.993051
0.5625858709720902,0,0.998320
0.698526193269439,1,0.999984
0.4887699119626744,0,0.999724
0.5200183797140556,0,0.999812
0.4880411848527943,0,0.997027
0.31470711426304465,0,0.999337
0.374325448263599,0,0.998262
0.49161691517614003,0,0.999724
0.39861185157281387,0,0.999710
0.43545601378065185,0,0.999888
0.4425064704765657,1,0.999983
0.4862501571028625,0,0.999630
0.44736318147112664,1,0.999992
0.48258140519120823,0,0.998881
0.32350940379697807,0,0.997873
0.3748915370936815,0,0.999106
0.4732653236347437,0,0.995692
0.4845194699103321,1,0.999961
0.4230113196754846,1,0.999984
0.49952913045264363,0,0.997542
0.3256764499752905,0,0.997453
0.4282535945014016,0,0.996030
0.30735556904923333,0,0.997456
0.4376869081402839,1,0.999972
0.581404687552772,0,0.999127
0.4940941477569718,0,0.999926
0.5875579398754138,1,0.999987
0.48563147868309375,0,0.988344
0.4608978114919019,0,0.994620
0.5394843682254452,0,0.997771
0.5313992130764159,0,0.996708
0.31977023159054796,0,0.996573
0.3066782214555071,0,0.999324
0.2913742484995857,0,0.998163
0.3206101097483425,0,0.995793
0.30545056540557153,0,0.999361
0.33984169392948593,0,0.994386
0.3341215985400975,0,0.991186
0.322384268278213,0,0.997436
0.3187199903455467,0,0.998424
0.3269152355666355,0,0.995827
0.44188458173000783,0,0.999780
0.34488592780250477,0,0.995850
0.3729719981471151,0,0.995723
0.32709780743846734,0,0.997611
0.42162364442859246,0,0.997404
0.4639234639550805,0,0.998453
0.26612614846106064,0,0.999820
0.3838105068954451,0,0.998674
0.4178493646574267,0,0.996251
0.426959065458102,0,0.997526
0.40140384319870875,0,0.988831
0.5394127770720153,0,0.999442
0.4983356997604543,0,0.998677
0.4668863700201463,0,0.991407
0.43199267127257285,0,0.997555
0.48740680749857873,0,0.998222
0.3436929258672888,0,0.996643
0.438414527991818,0,0.992622
0.48284415538865666,0,0.998289
0.48614670565881096,0,0.996533
0.4652156366622923,0,0.996194
0.4616054642007565,0,0.998746
0.5184912063267605,0,0.994988
0.44249583947436744,0,0.997067
0.48535057064204745,0,0.999830
0.3150013081747507,1,0.999983
0.31005514405480467,0,0.989865
0.30636161406487433,0,0.998986
0.4219501219591021,1,0.999984
0.23023313334972434,0,0.999259
0.3341403638954069,0,0.998962
0.35774954939148285,0,0.988972
0.5142689975817567,0,0.989675
0.5088889403336208,0,0.997760
0.42171839541200146,0,0.992522
0.4989645383997355,0,0.999555
0.3637829694334835,0,0.998358
0.26669498733182156,1,0.999993
0.43643026203329877,1,0.999978
0.4780080833584659,0,0.997337
0.4151393147111728,1,0.999947
0.46992741400193866,0,0.988360
0.5108311920163043,1,0.999957
0.5380460221025108,0,0.995468
0.45006387098794653,0,0.999731
0.33803053402287975,0,0.999496
0.4737690899750561,0,0.998981
0.3408812882339392,0,0.998684
0.44361564481467725,0,0.998162
0.537144161835682,1,0.999964
0.5407204885961485,1,0.999984
0.4598055611749005,0,0.997343
0.47678323270508827,0,0.999282
0.4031818423546787,0,0.999834
0.5120351523785952,0,0.999851
0.5295779426844139,1,0.999959
0.4866578532972404,0,0.999123
0.5569329138454134,0,0.999089
0.4888955326640362,0,0.992482
0.46444945063679544,0,0.998153
0.41837822678943,0,0.998783
0.5262931415131428,0,0.992761
0.46583477182338995,0,0.999232
0.07002824159349375,1,0.999987
0.5934351468858696,1,0.999992
0.4473253822614306,0,0.999748
0.3275947246953664,0,0.999722
0.3454601760937913,0,0.999506
0.4032434029870588,0,0.993532
0.528543209141119,1,0.999924
0.398526857490776,0,0.999000
0.4055935871058942,0,0.998620
0.34224015370513305,0,0.998815
0.4729560691677532,0,0.992899
0.421046144803272,1,0.999988
0.5348987043640288,0,0.990552
0.4695326692158159,0,0.995462
0.4551090182782882,1,0.999993
0.5724114842651388,0,0.996209
0.48631609070266935,0,0.989503
0.4448517434576844,0,0.991995
0.5311061131879729,0,0.999578
0.5013119918495462,0,0.998603
0.5508597341282326,0,0.999251
0.5593939416276777,1,0.999993
0.4827872402464139,0,0.999868
0.3461245075335952,0,0.999822
0.4283906470944575,0,0.994738
0.48658600108610534,0,0.990907
0.5455243026913964,0,0.999722
0.42761183437905276,0,0.994002
0.45502426670287294,0,0.996469
0.4083392646939991,0,0.990848
0.5427598896764287,0,0.999140
0.5261804084727433,0,0.998644
0.5655682757906634,1,0.999993
0.5526264159385039,0,0.999222
0.5952555687248783,0,0.999923
0.6365322736522888,1,0.999985
0.4470676729596299,0,0.999809
0.5549665590681429,1,0.999936
0.43373003012899103,0,0.999583
0.5634057480099586,0,0.999819
0.4976505446884389,0,0.999719
0.5472601457862653,0,0.986813
0.5754555995811377,0,0.988702
0.5501262187398055,0,0.999892
0.509385327547237,0,0.992257
0.5709885441521121,0,0.996565
0.4857242370873575,0,0.995055
0.5457480465059432,1,0.999972
0.6124913890174725,0,0.998796
0.5182548806603345,0,0.998261
0.5908946397477812,0,0.997708
0.6047697956160142,0,0.995337
0.6197549880592066,1,0.999992
0.5933388583269178,1,0.999993
0.5481800016288275,0,0.996767
0.5997986815698987,0,0.992836
0.5680941975681579,0,0.996254
0.5944793616122245,0,0.998844
0.5708252310632282,1,0.999959
0.6242385750496174,0,0.998585
0.5947533936815224,0,0.998691
0.4796717851331029,0,0.999417
0.6228570533788914,0,0.999596
0.4962427686898641,0,0.998048
0.6479314669211953,0,0.997983
0.5784745539381763,1,0.999991
0.5843642779129752,0,0.995713
0.5004397130595923,0,0.996307
0.3360713371059217,1,0.999962
0.49939857441781554,0,0.997414
0.46613969665385907,0,0.998947
0.554203643771428,0,0.999715
0.6034964471222406,0,0.998718
0.606354315652627,1,0.999913
0.5526204993055497,0,0.998890
0.42302233808062845,0,0.998325
0.5882089687274691,1,0.999991
0.5887818652551541,0,0.995022
0.5524575273557683,1,0.999972
0.45485431240365154,0,0.998400
0.5832577795908932,0,0.999790
0.5739677925801207,0,0.998346
0.5685414584517086,0,0.995148
0.5596432479865017,0,0.994669
0.591357020897913,0,0.997595
0.5820356598344776,0,0.996387
0.5791285216844876,0,0.994067
0.6046929684704311,0,0.998355
0.5051310702088417,0,0.996979
0.6002288578098115,0,0.999212
0.4528551863207737,0,0.997957
0.5924681089021776,0,0.999403
0.6182834239238838,0,0.997918
0.5948782603291742,0,0.999259
0.6094804217966318,0,0.997601
0.5902414120412139,0,0.999416
0.4584286662516437,0,0.998125
0.5718069815796096,1,0.999991
0.5039545003149754,1,0.999964
0.5065130871099096,0,0.998546
0.5264449084078445,0,0.997566
0.6182420298666651,1,0.999955
0.6151878037136759,1,0.999990
0.5870425602785231,0,0.994215
0.6149929176591683,0,0.998884
0.6019644416653487,1,0.999991
0.6092629186913846,0,0.997805
0.4904766064338309,1,0.999920
0.5665024284784923,1,0.999982
0.6031496170762458,0,0.990758
0.5762806306433689,1,0.999989
0.5970153623593203,1,0.999911
0.6068846852682085,0,0.996818
0.596407556349076,0,0.998642
0.5878783806271969,0,0.998221
0.6215651778850806,0,0.999304
0.6109907287227906,1,0.999973
0.5961124001017086,1,0.999910
0.6375747465430267,0,0.999540
0.5908238040674632,0,0.998088
0.6029501537738651,0,0.999885
0.6044259024910175,0,0.999730
0.6222428031870741,0,0.998392
0.6166761158527971,0,0.998849
0.5563232636889438,0,0.997281
0.501018593829029,0,0.998659
0.5679146967590178,0,0.997988
0.49904818174723964,0,0.996825
0.44760873375120197,0,0.998069
0.5690274937457755,0,0.998240
0.565180150493351,0,0.999574
0.5952264707448119,1,0.999978
0.5636638877031956,0,0.998589
0.5579260717779476,0,0.996027
0.5975758702722688,0,0.999075
0.44376385318825085,0,0.998643
0.5705147888720563,0,0.999509
0.5487902735655242,1,0.999963
0.5790029503928016,0,0.997705
0.5103746394445918,0,0.998716
0.5050666754947416,1,0.999978
0.5171848953226927,0,0.998268
0.5030481119488719,0,0.996740
0.46404391170254883,0,0.998926
0.5039111668922951,0,0.999048
0.4082514605952906,0,0.998532
0.5689210269788971,0,0.997846
0.45692404300865913,1,0.999971
0.46185026766791226,1,0.999991
0.6069855407849736,0,0.999787
0.48831404979551524,0,0.998655
0.47555820441651525,1,0.999942
0.5449351990894241,0,0.998836
0.5631454768622342,1,0.999964
0.503886942144173,1,0.999934
0.5391436588497353,0,0.999833
0.5707499963351116,1,0.999991
0.5959142585119609,1,0.999983
0.5120018780009805,1,0.999973
0.4806024478567656,0,0.998351
0.5026651755323934,0,0.998353
0.5296857067036886,0,0.998711
0.539146531930641,0,0.997014
0.47458541820900824,1,0.999990
0.49866897610583416,0,0.999724
0.5231207813542723,0,0.990584
0.5365218023427458,0,0.992978
0.4873930807221736,0,0.999842
0.4180903307500626,0,0.995177
0.4265962812209078,1,0.999951
0.4713436771549992,0,0.992569
0.4567301821380153,0,0.993039
0.4678778667074121,0,0.998482
0.6101667940590084,0,0.992199
0.596516484340906,0,0.991470
0.5909558302009493,0,0.990443
0.4701045860408312,0,0.999247
0.5188774085802029,0,0.999262
0.5372046874740685,0,0.999700
0.5542904035848542,0,0.998999
0.5233376203150943,0,0.993777
0.5858125155060594,0,0.996543
0.41708322132583053,0,0.997770
0.6150571843398391,0,0.999254
0.5157682870349598,0,0.995333
0.549205626227975,0,0.992396
0.6507382480691455,1,0.999979
0.5956555936713107,1,0.999993
0.4843013546066637,0,0.993214
0.5773830377442505,0,0.993813
0.6317496400253001,0,0.999877
0.6029487632617289,0,0.995878
0.5800905143339472,0,0.995000
0.6069996695059766,0,0.995823
0.5107957642759188,1,0.999958
0.6175884820945431,0,0.994724
0.4750617070581993,0,0.999899
0.4596543287533192,0,0.999747
0.5963423725853212,1,0.999993
0.6172982680471105,0,0.991947
0.6018676994459469,0,0.994751
0.6210066247806451,0,0.997577
0.5576196426106775,0,0.996560
0.5863200942263711,1,0.999957
0.5008519344870499,0,0.993495
0.5042448843859912,0,0.996848
0.5768031094376238,0,0.995065
0.4938170507205497,0,0.997082
0.536048202667345,0,0.996576
0.6076907400622031,0,0.993145
0.5975355601574037,0,0.996609
0.5401181930863442,0,0.997171
0.43869540167105,0,0.994345
0.562859207707221,0,0.999493
0.5430272098514634,0,0.992920
0.5194249159293127,1,0.999944
0.5671521780692808,0,0.997355
0.5973286357353079,0,0.999838
0.5834364931144493,1,0.999986
0.5835150130428195,0,0.993421
0.6239237576442994,0,0.995354
0.5307305695088983,0,0.999281
0.6448642129541379,0,0.995471
0.49176833377109086,0,0.995560
0.6393022068132439,0,0.999065
0.6188551894938813,0,0.995830
0.575703230052632,0,0.998041
0.4947839554119868,1,0.999946
0.603348884686602,0,0.998526
0.5801903571389139,0,0.996459
0.5473555542322125,0,0.999053
0.5847571641415586,0,0.998394
0.6204168520512302,0,0.996821
0.6089964522718865,0,0.999897
0.6123356701167395,0,0.997939
0.6005185555129009,0,0.998063
0.6091732696706882,0,0.997627
0.6008189480478726,0,0.992706
0.5848163945474647,0,0.999890
0.5631524860079354,0,0.999768
0.6092494563957891,0,0.998480
0.6081990610740106,0,0.998049
0.6524005303090351,0,0.999886
0.6348304308000536,0,0.997821
0.6599992904676123,0,0.998045
0.5040447422692232,1,0.999993
0.601324385313658,0,0.999428
0.6720260784772542,0,0.997681
0.6325112105525204,0,0.997134
0.6291476658409046,1,0.999993
0.609339426069861,0,0.999565
0.6373545057158078,0,0.999544
0.6485911926759312,0,0.997390
0.6279278205808867,0,0.998114
0.6323327609687673,0,0.999375
0.6243230692605878,0,0.998426
0.6342932136463719,0,0.998641
0.5713310324218395,0,0.996405
0.6303730970037456,0,0.997673
0.6197574886619671,0,0.998116
0.4488903723819916,0,0.998662
0.5196203000176729,1,0.999993
0.5156631023537404,0,0.999513
0.5159176406196748,0,0.997689
0.4958793627221711,1,0.999936
0.5449911658912474,0,0.999212
0.6043304694808032,0,0.998641
0.6304955643449742,0,0.994800
0.515865758680037,0,0.995212
0.4922711463404489,0,0.996743
0.5771979948452625,0,0.998984
0.5642069403462608,0,0.996188
0.5723384421401106,1,0.999956
0.5406280807069468,0,0.999861
0.5722110209758942,0,0.996504
0.5704682539366498,0,0.995899
0.5756958679150513,1,0.999986
0.520760636802844,1,0.999986
0.6069453992790241,1,0.999949
0.5366909405562554,0,0.999743
0.5756101449688629,0,0.997064
0.533323555351349,1,0.999971
0.5884101291481972,1,0.999951
0.5875260718809993,0,0.995496
0.6046088647438005,0,0.996195
0.5861348254501789,1,0.999993
0.5523316941763197,0,0.996395
0.5606303496127826,0,0.996528
0.5830341740556876,0,0.998386
0.5828261755931663,0,0.996654
0.5847336589534089,0,0.996426
0.530088346529685,0,0.996702
0.5908907988175556,0,0.999850
0.6259070662881924,1,0.999929
0.545100951785294,0,0.997150
0.6137612574387801,0,0.996558
0.5768059384931911,1,0.999958
0.6089167521131869,0,0.999763
0.5670067633764037,0,0.997317
0.6266909956786638,0,0.997696
0.5811229655408151,0,0.997521
0.5646198058545623,0,0.998250
0.6332758588705802,0,0.994719
0.6006465731697285,1,0.999993
0.5645956525741743,0,0.989909
0.5298969363076018,0,0.993879
0.457975041969619,0,0.996375
0.600524152090094,0,0.984725
0.5467625927873625,0,0.995709
0.534405052559515,0,0.996958
0.5471875357379756,1,0.999993
0.5927372278350874,0,0.999045
0.6357158737038229,0,0.999802
0.5616838582827393,0,0.995989
0.5787962221975226,1,0.999993
0.5024477177590446,0,0.995147
0.5591123969349332,1,0.999978
0.5555438312046358,0,0.996581
0.6192714072926627,0,0.998603
0.5729593794421906,0,0.998474
0.5376522427181204,0,0.998226
0.5061229805617109,0,0.998703
0.6149573366032772,1,0.999986
0.591839465112002,0,0.998296
0.5384075798421697,0,0.999901
0.5794197323457873,0,0.999162
0.6020131534037475,0,0.998814
0.5412964932617794,0,0.999883
0.5912382881168172,0,0.997456
0.47108522321945157,0,0.998252
0.560656771558058,0,0.999600
0.6061606978689645,0,0.998700
0.5907151378281343,1,0.999993
0.554560466931243,1,0.999964
0.5670074965872596,0,0.999313
0.583183965023842,1,0.999993
0.571012027877872,0,0.996594
0.5856099725421702,1,0.999993
0.5638867600504285,1,0.999956
0.5675780282626108,0,0.998003
0.5926703753803767,1,0.999986
0.5532219126677973,1,0.999979
0.5533238243234927,0,0.996014
0.5540897279589231,0,0.996823
0.5138314309559711,0,0.997607
0.5654109387770434,0,0.999921
0.5572299750811809,0,0.997676
0.5528337355169073,0,0.996143
0.5511932935149391,0,0.997812
0.5471099820733458,1,0.999993
0.5443381657459379,0,0.996696
0.589421083420163,0,0.997753
0.5960778937387567,0,0.997206
0.5354519932273694,0,0.999838
0.5622239876084648,1,0.999934
0.5395567065382821,0,0.999137
0.4613008131721806,0,0.999544
0.6413315727989964,0,0.998240
0.5383916201442067,0,0.999912
0.5145134383122016,0,0.999004
0.5805472270338321,0,0.999027
0.5841149308074417,0,0.999601
0.6575361716871778,0,0.999038
0.647155972096043,0,0.997215
0.657608074522489,1,0.999957
0.4765630321699322,0,0.998449
0.6374364106205748,0,0.999834
0.47173806694294296,0,0.997735
0.6395082918606223,0,0.996108
0.49390687064003314,0,0.996910
0.4751076949066794,0,0.998263
0.48800836921856616,0,0.996348
0.49502403610236106,0,0.996656
0.5288615543075397,0,0.998001
0.5107767056248257,0,0.998024
0.5068322902014955,0,0.997565
0.6817181065430019,0,0.996847
0.47895550370267265,1,0.999938
0.48067336111656944,1,0.999992
0.4988982240973571,0,0.999411
0.4990308185850969,1,0.999962
0.5244129549583569,0,0.999058
0.4624254504467067,0,0.999791
0.4140542716674593,0,0.992890
0.4710306078046147,0,0.999098
0.5235925968840539,0,0.999384
0.47925604454265514,0,0.990986
0.4490448350605095,0,0.995544
0.44996174352679574,0,0.998064
0.4994313476400518,0,0.999870
0.3994530932418074,0,0.999347
0.4185733721133349,0,0.986664
0.48277908776143624,1,0.999923
0.5039026056195837,0,0.999795
0.40107223895539257,1,0.999991
0.5026586161687963,0,0.998129
0.4078195620479107,0,0.998347
0.41218097319323455,1,0.999921
0.44149354021325266,1,0.999989
0.391079912975006,1,0.999989
0.4770227123530781,0,0.990106
0.4645570157230892,0,0.987432
0.4879731801110309,0,0.999387
0.4927700051315932,1,0.999984
0.5086588573352839,0,0.992675
0.45957959001546467,1,0.999991
0.4881477164249372,0,0.999663
0.5197536263499316,0,0.999866
0.5206634676786956,0,0.999881
0.5080717686818266,0,0.999549
0.49082119176467864,0,0.998994
0.49908929156330156,0,0.999232
0.4858834062094566,0,0.998228
0.4665426358218093,1,0.999992
0.5123675042830133,1,0.999923
0.49380227616385947,0,0.989215
0.6324042941586255,0,0.998251
0.6867202917346886,0,0.999851
0.5765830022754546,0,0.999490
0.4905662219634885,0,0.998382
0.6209646408515075,0,0.999915
0.5943822835534702,0,0.998500
0.6357190842250899,0,0.999671
0.7047336984996119,0,0.999585
0.5929695086629779,0,0.999186
0.6573716118135727,1,0.999979
0.6129784753679545,0,0.998244
0.567025935053076,0,0.998437
0.5734800221731847,0,0.998319
0.6220371486025983,1,0.999993
0.673491968389681,1,0.999952
0.6365014326881695,0,0.998501
0.6086761258846554,1,0.999965
0.5822247734696763,0,0.998350
0.4943518728651602,1,0.999969
0.6437693000426311,1,0.999992
0.5195078372990307,1,0.999985
0.6585614854842485,0,0.999682
0.5301175746114846,0,0.998167
0.5239045359012519,0,0.999781
0.5482824457909532,0,0.997576
0.581947998688156,0,0.990193
0.6049127442253341,1,0.999993
0.528990178514627,0,0.992139
0.46684649526967725,0,0.999820
0.565247424179748,1,0.999993
0.56011721159685,0,0.998270
0.5570389748106551,0,0.999341
0.6233359466981094,0,0.989286
0.5934463905330611,0,0.996276
0.5781607150124294,0,0.988266
0.5761936579944433,0,0.995833
0.5874592339082777,0,0.995680
0.6198240492957019,0,0.996697
0.4844001728002753,0,0.997575
0.5239574753021338,0,0.999261
0.604933678501166,0,0.995503
0.6300300780551564,1,0.999975
0.5568920685847822,1,0.999935
0.5582525625772702,0,0.998999
0.41579185957852194,0,0.999695
0.4637188211418785,0,0.999075
0.6202369252017912,0,0.999910
0.6138099092325556,0,0.999813
0.4641313976145171,0,0.997242
0.6133957163427401,0,0.997471
0.587438768279245,1,0.999970
0.5029693618798085,0,0.998569
0.5355456472586416,0,0.992980
0.496548200347602,1,0.999985
0.6250408997468618,0,0.996842
0.41128790383121294,0,0.995733
0.5574176265975899,0,0.999921
0.40854934215672084,0,0.990879
0.61856359963944,0,0.992449
0.5845547618958946,0,0.999814
0.5423366580165258,0,0.997926
0.5434307614737155,0,0.998056
0.48959735489770567,0,0.998753
0.49631929087854154,0,0.998137
0.5118987355059943,0,0.995956
0.5353457770060289,0,0.992749
0.4397537085176863,0,0.994999
0.459226624317692,0,0.998221
0.4710609782883271,0,0.999474
0.4420204964212098,0,0.995681
0.2833846566535777,0,0.995676
0.43251478128362547,0,0.995773
0.39457620187690967,0,0.999129
0.33964316907008796,0,0.999141
0.35972854915608027,1,0.999961
0.4367329777435205,0,0.994882
0.4194773625994313,1,0.999989
0.3813407774678723,0,0.995065
0.3453124976992081,0,0.992232
0.42439402847964813,0,0.999614
0.40918789975898784,0,0.999880
0.377886674151305,1,0.999990
0.30931128123680324,0,0.993994
0.31625161989811823,1,0.999989
0.30246681553026766,1,0.999989
0.4582796711508041,0,0.991928
0.5187330223024271,0,0.993247
0.5354290639203257,0,0.989362
0.37543974861233903,0,0.996144
0.3819638628265021,0,0.987339
0.3462965217219996,0,0.988019
0.43980244043361993,0,0.987753
0.36860437330183216,0,0.987694
0.492201580817554,0,0.990888
0.466518638847906,0,0.993545
0.40267463899985356,0,0.987497
0.37924230263358466,0,0.989044
0.44482674264486377,0,0.998852
0.3757337943672746,0,0.986736
0.265589744997034,0,0.993299
0.2807448979794878,0,0.996455
0.2970270750352115,1,0.999899
0.3323643233386221,0,0.997779
0.2916169138142356,0,0.999697
0.25762801795118384,0,0.993378
0.2569867091788858,0,0.993816
0.3572675232938911,0,0.999741
0.24329596223630176,0,0.996150
0.2605212531759448,0,0.993564
0.4070150813389371,0,0.992753
0.3741761399372617,0,0.990479
0.3410683912722317,0,0.994174
0.4590668555095433,0,0.993572
0.2493148391658256,0,0.991660
0.24702688894743796,0,0.990540
0.2867804973708638,0,0.999765
0.345525715072701,0,0.991973
