0.5590066435461174,0,0.998530
0.7200196258910326,0,0.996788
0.7631329059825344,0,0.998581
0.7958993008498522,1,0.999193
0.7820709753654791,1,0.999772
0.7510813973486177,0,0.997652
0.17345367099728082,0,0.997262
0.40779451034970793,1,0.999877
0.4426811453184505,1,0.998779
0.5621266429313526,0,0.997338
0.5466421022285741,1,0.999921
0.6892459265549241,1,0.999492
0.2836521392770862,0,0.986821
0.41480363606866383,0,0.975646
0.39248191467905164,1,0.999531
0.4536987392101624,1,0.999704
0.5383306976722491,0,0.998298
0.5579945988480136,1,0.999794
0.6579268413031516,0,0.938648
0.6578624195671983,1,0.999944
0.1477427373746437,0,0.978441
0.35086890871040605,1,0.999553
0.41093448273100636,1,0.999885
0.3872910067712035,1,0.999806
0.24139235755398386,1,0.999486
0.355144642741513,0,0.997593
0.3532872696278933,0,0.970156
0.3835629806260632,0,0.999244
0.444286506140545,0,0.974030
0.42170348811343583,1,0.999036
0.4838341874685932,0,0.997601
0.5118445271228413,0,0.983034
0.4981202207967347,0,0.983861
0.43855211599703364,1,0.999551
0.44304326449994946,0,0.955732
0.4406411965267585,1,0.999512
0.4210063723443697,1,0.999912
0.4490149509095002,0,0.920548
0.408604762991572,0,0.996271
0.4461621434309239,0,0.979672
0.4716303971968701,0,0.994246
0.4552655158466391,0,0.999010
0.41429465240290203,0,0.998814
0.4633398292955342,0,0.994637
0.35083618504918196,1,0.999883
0.4060515913771373,0,0.994135
0.45860931504340885,0,0.997117
0.46726685133270585,0,0.986223
0.43216299894627674,1,0.999887
0.44953677184844376,0,0.997708
0.4044767674853414,0,0.999134
0.43642511573072884,1,0.999938
0.45440985324210575,1,0.999748
0.437934090314258,1,0.999863
0.4159710541152282,0,0.987800
0.42595473925201177,0,0.982106
0.40459394091306283,0,0.965281
0.4213247766425325,0,0.987577
0.43254965585604843,1,0.999729
0.39820167126629874,1,0.999904
0.40285394824188486,1,0.999780
0.42288370982795354,0,0.996039
0.291248345022121,0,0.957261
0.26935302226688307,0,0.982755
0.3337304870165418,1,0.999360
0.3788439515104882,0,0.980213
0.3701150632041449,0,0.949675
0.38673107923155464,0,0.927906
0.3074296998238556,1,0.999917
0.37852226264659294,1,0.999656
0.4478412073434354,1,0.999906
0.40293091349545546,0,0.997322
0.44495703807410253,1,0.999910
0.44434949089582854,0,0.998473
0.4514858326390772,0,0.955187
0.4029387359438886,0,0.995068
0.45465878047314034,1,0.999881
0.44846636431245085,0,0.996417
0.4677368661273176,0,0.977778
0.4166496285888723,1,0.999795
0.41271419972638723,1,0.999799
0.36120928756155735,0,0.988471
0.4499735534206714,1,0.999263
0.4244421992103036,1,0.999452
0.4286243300667896,1,0.999816
0.4544594773409692,0,0.998853
0.4318149841166685,0,0.956738
0.4213477854876524,1,0.999894
0.42751145646053823,0,0.993407
0.4328583789240223,1,0.999884
0.42262021603359134,1,0.999924
0.4245115580072284,0,0.923220
0.44538882451286826,0,0.984522
0.4318105505259833,1,0.999792
0.43681272902313195,0,0.956850
0.45833406376968056,1,0.999833
0.4237308687399786,1,0.999466
0.4313588699697671,1,0.999927
0.4223881424595401,1,0.999909
0.43020638038715653,0,0.996779
0.4242291354207222,0,0.987776
0.45897750663199766,0,0.937538
0.4139789848192881,1,0.999910
0.42158477687144974,1,0.999896
0.3973107236903545,0,0.997765
0.40502214766716627,0,0.999069
0.4127100964658767,1,0.999717
0.4048915097477401,1,0.999907
0.42423230457876987,1,0.999341
0.4435118087234768,1,0.999905
0.29509898742009877,0,0.998420
0.41438893518687514,0,0.985696
0.42761731511997864,0,0.989898
0.4184859024594615,1,0.999803
0.41559789702345684,1,0.999860
0.4112060809109887,1,0.999894
0.402806348920181,0,0.997466
0.40821214530184147,1,0.999944
0.41589605195136314,1,0.999923
0.4313190447282094,1,0.999706
0.4398011639567472,1,0.999903
0.42576713047357606,0,0.932392
0.43502379872251845,1,0.999930
0.4168715813707973,0,0.919603
0.41699488482084207,1,0.999800
0.4176026211235317,0,0.998676
0.41991839401847,1,0.999796
0.42051781111122327,1,0.999924
0.4042698782059908,0,0.998981
0.4148289701536817,1,0.999896
0.42735912897280093,1,0.999791
0.41721587900282964,0,0.983909
0.41593094158026384,1,0.999904
0.4191412622286307,0,0.896852
0.3969581100972616,0,0.994992
0.41200705221400635,1,0.999898
0.41761258387489714,0,0.997483
0.3863492137524652,0,0.859076
0.39665617050283863,1,0.999567
0.4011123176967245,0,0.964145
0.3948690971925973,1,0.999556
0.39115788157380055,0,0.986431
0.37804160820152066,1,0.999652
0.39132297924023673,1,0.999141
0.4058214821715397,0,0.974502
0.3946469601217444,1,0.999396
0.4077713750127945,0,0.995494
0.3886137588985179,1,0.999775
0.39746958479990285,0,0.994867
0.38722276065574013,1,0.999809
0.3894973655720248,1,0.999924
0.41034485116835695,1,0.999503
0.4041056622503083,1,0.999796
0.3747221361530999,0,0.977674
0.3874976597228546,1,0.999901
0.4060732060683332,1,0.999395
0.4046153890140658,0,0.978109
0.4103357547284165,0,0.997085
0.2634915783613504,1,0.999493
0.24241398751069584,0,0.994937
0.23694105929013093,0,0.989461
0.3843340197251196,1,0.999901
0.3915341602282092,0,0.987906
0.3730540289908337,1,0.999481
0.3923252516794468,0,0.995558
0.38998761987842007,0,0.983431
0.3843112730841352,0,0.997808
0.39431766739954993,0,0.997400
0.38099085327207116,1,0.999902
0.3738344103798878,1,0.999892
0.36946651945087045,0,0.995441
0.36119963514464615,0,0.972404
0.379409693965535,1,0.999889
0.35839890469339575,0,0.990955
0.3477568023052433,1,0.998911
0.3441702558125363,1,0.999002
0.35862979027991665,1,0.999900
0.35326704715801127,0,0.996495
0.3560990181546404,1,0.999045
0.3400480813103753,0,0.991302
0.3631729776483938,0,0.985380
0.36718741552479633,0,0.997013
0.338542195599552,1,0.999237
0.3499794583070113,1,0.999896
0.3593565752046865,0,0.938856
0.3656577574238048,0,0.947671
0.3531319291947269,1,0.999788
0.3447645382906956,0,0.987215
0.37281403418693065,0,0.963867
0.340592785921655,1,0.999794
0.36248852624010675,1,0.999804
0.36602850864350117,1,0.999902
0.3517948642906,0,0.997812
0.3391276790456411,1,0.999900
0.3541274756507881,0,0.976199
0.328054511571121,0,0.988002
0.3367784082463657,1,0.999271
0.3394423023208034,0,0.989676
0.35186151104393026,1,0.999897
0.35207734394437623,1,0.999901
0.3505917440396518,1,0.999891
0.3327030132611579,1,0.999905
0.3388347415651789,1,0.999606
0.3531305005343148,1,0.999692
0.3487037608744667,0,0.998387
0.32835999884721845,1,0.999897
0.33915254212729434,0,0.979413
0.3295388079061813,1,0.999699
0.3341082638354592,0,0.993008
0.33452915709236103,1,0.999278
0.351945435095715,1,0.999895
0.35578924963699887,0,0.996714
0.34409401453539673,0,0.997865
0.34796031811171474,0,0.996038
0.33231121878263553,1,0.999893
0.3279702467530931,1,0.999898
0.35668272680713575,0,0.995357
0.36197883992508817,0,0.995821
0.3577266523990982,0,0.998506
0.3369492021139993,0,0.998477
0.3496392150411735,0,0.993057
0.31889929995721605,1,0.999895
0.32879219203064636,0,0.998988
0.30277483799819294,1,0.998912
0.3354987334320705,0,0.991134
0.3393223759894467,0,0.995473
0.32066070531289737,1,0.999887
0.33181526999394567,0,0.965465
0.3139477291391388,0,0.995003
0.31374308757972075,1,0.999388
0.33213017211839824,0,0.997048
0.3368299783626792,1,0.999795
0.30535078085739026,0,0.996377
0.3320709741460742,0,0.995089
0.3137383695359125,1,0.999894
0.3150308179853263,0,0.993921
0.33765032228260033,0,0.980987
0.3228382155796219,0,0.998427
0.3395889306392638,0,0.986796
0.32237465284701705,1,0.999434
0.3457109440956228,0,0.995754
0.37100555526677576,1,0.999664
0.32489458042283337,1,0.999819
0.3049114449020938,1,0.999898
0.2803382486852126,1,0.999880
0.3311538779410459,1,0.999897
0.339180913078573,1,0.999899
0.3259142773934273,0,0.989534
0.35708870599784404,0,0.994795
0.30092761635388043,0,0.987200
0.3207599683140035,0,0.962450
0.2688733333997598,0,0.984109
0.33908224433918094,0,0.972679
0.32975681949960095,0,0.994472
0.3330764476647098,0,0.993390
0.3616093163535961,0,0.998042
0.2831585111220548,0,0.965208
0.36210939632473294,1,0.999709
0.3541878188145582,0,0.995036
0.35725513083617394,1,0.999682
0.36043902016261015,0,0.998726
0.3604934594575857,0,0.996930
0.3653023247628956,1,0.999785
0.3586003411750838,0,0.998376
0.35111316706231893,0,0.998543
0.23588422821746288,1,0.999901
0.34902646871943643,0,0.986454
0.35301498876581866,0,0.986329
0.3622971850569562,1,0.999900
0.3560038453894171,0,0.988131
0.3647540013666682,0,0.961378
0.36513901338115373,0,0.979767
0.35900802213120586,1,0.999891
0.3818654886397091,0,0.994115
0.3779905312583276,0,0.994475
0.3742323295120854,1,0.999893
0.11721855300250208,0,0.984185
0.13763453098277234,0,0.964924
0.3536059136920213,1,0.999907
0.33199961077360224,1,0.999881
0.3354637975025149,1,0.999899
0.32077928364613145,0,0.980183
0.3252644531969829,0,0.964311
0.32130229821651857,0,0.894472
0.3433343749406462,0,0.997168
0.3330288392312483,1,0.999902
0.3366161407255398,1,0.999898
0.33037997309639594,0,0.995970
0.3285321010658893,0,0.985207
0.33692311271120895,1,0.999290
0.3412735264567611,0,0.998360
0.33797381571301605,0,0.974839
0.3304836351772652,1,0.999899
0.3286802959413435,1,0.999902
0.3278294648613766,0,0.985371
0.33014316975226654,0,0.988132
0.3431605593160901,1,0.999818
0.3329227708193184,0,0.984010
0.3475915474465704,1,0.999901
0.34876674034916,0,0.988564
0.3604638114650079,1,0.999881
0.35934182918660945,0,0.995910
0.3497620167349205,1,0.999687
0.3419854120719211,1,0.999900
0.3620076652230772,0,0.995978
0.3422288511958365,1,0.999736
0.34534558552319217,1,0.999897
0.3488309796600366,1,0.999904
0.36195452665054206,1,0.999878
0.35595129430172384,1,0.999893
0.34591183340662635,0,0.995421
0.3409409977641494,1,0.999373
0.34729760431499146,1,0.999901
0.34331001583581205,1,0.999907
0.34796485940326266,0,0.986726
0.35285046558071453,1,0.999898
0.3571869757789271,1,0.999899
0.3684456971584128,1,0.999687
0.3463526766494633,1,0.999895
0.360187868473005,0,0.997950
0.3428607551061094,0,0.994257
0.36666327192181464,0,0.960225
0.35454752081745566,0,0.997970
0.3626356488406092,0,0.995771
0.3534103403726214,0,0.992517
0.3480658108265735,1,0.999909
0.3708814782909902,1,0.999587
0.3492675597004547,1,0.999575
0.3597479807476361,1,0.999897
0.34339541497469955,0,0.993686
0.3523962907821418,0,0.986955
0.35798868881747553,1,0.999902
0.34491295183165627,0,0.998448
0.3464843771747177,0,0.968774
0.330792809085442,1,0.999805
0.3469981731925507,1,0.999819
0.35132718947459257,1,0.998927
0.3385428393859283,1,0.999589
0.3538561024232192,0,0.997112
0.3498083490211747,1,0.999897
0.3431055916083759,0,0.988678
0.35148383510888165,0,0.989416
0.379761694609765,0,0.998692
0.3756873371029404,0,0.995830
0.3639423059604714,1,0.999799
0.37649485739629046,1,0.999629
0.3739199908232713,1,0.999327
0.34559281764570965,1,0.999902
0.358306680889046,1,0.999896
0.3700442632503111,0,0.995039
0.3749411284927342,0,0.951128
0.3855011273511256,0,0.996807
0.34503057795461134,0,0.998864
0.3462075070433631,1,0.999900
0.36207850143682413,0,0.989476
0.3579230067796013,1,0.999791
0.37232019171592945,0,0.997242
0.3645829623185776,1,0.999896
0.3824410710774417,1,0.999896
0.3399688362400196,1,0.999892
0.33788965333291604,1,0.999901
0.345327030975708,0,0.998430
0.3564762577700713,0,0.982289
0.35656590473572924,0,0.979615
0.35464119186246923,1,0.999897
0.361035397036741,1,0.999140
0.3707964327372243,1,0.999895
0.3395396299987196,0,0.963008
0.36370035982964705,1,0.999586
0.36796261412401043,0,0.986224
0.3742033871231178,1,0.999642
0.35890755085368525,0,0.996517
0.34621842696410315,1,0.999784
0.3505961635572237,0,0.997354
0.34647231609107515,1,0.999902
0.3389514889318654,0,0.992477
0.37555914064095336,0,0.998759
0.3650931722303717,1,0.999725
0.34909854494428516,0,0.992159
0.3578916912454202,0,0.964020
0.344299073756676,1,0.999807
0.35141672729901097,1,0.999576
0.35378843543839095,1,0.999442
0.358240579485376,0,0.993740
0.35842719417566854,0,0.997271
0.3573910480679224,1,0.999796
0.3540965874275849,0,0.991230
0.32992661407024165,0,0.974049
0.33827098472505424,1,0.999807
0.3517208975791648,1,0.999570
0.34663475935937155,0,0.998885
0.3333310953172609,1,0.999904
0.3363754849345564,0,0.993156
0.3355458362466782,1,0.999907
0.33210796410722976,1,0.999588
0.3432182839807098,1,0.999902
0.3308133668117087,1,0.999892
0.3322366582361618,0,0.998433
0.34441862236861465,1,0.999904
0.34765985648329184,1,0.999670
0.34437000623775704,0,0.977911
0.35169515919050315,1,0.999281
0.3271419368209673,1,0.999904
0.3363235935063822,0,0.991567
0.3306360447481818,1,0.999898
0.3327651420337522,1,0.999904
0.3433311184405089,1,0.999899
0.34967550714017737,1,0.999900
0.3555954788120807,0,0.996501
0.3201374868746887,1,0.999369
0.3535735483519913,0,0.984840
0.362906079695656,0,0.985650
0.37179334254838364,0,0.995485
0.31009682399515337,1,0.999110
0.361043684424927,1,0.999109
0.35240676488245454,0,0.971371
0.35523346850095744,1,0.999642
0.35419234976818303,0,0.912970
0.34296713139886653,0,0.994626
0.3486595120188992,0,0.974372
0.3426210179188562,1,0.999904
0.3188729282908612,0,0.998495
0.3345967897973556,1,0.999896
0.3579674366677352,1,0.999720
0.34634949890310457,1,0.999901
0.34921871725890063,0,0.998401
0.3555466066440872,1,0.999203
0.34475341307622054,0,0.998298
0.3330127035590586,1,0.999255
0.3046714571634814,1,0.999899
0.3432148996265428,1,0.999208
0.32091771092752697,0,0.997044
0.3331243883434584,1,0.999901
0.3391630154448332,0,0.988574
0.37744041808413153,0,0.995130
0.36543494859603143,0,0.991030
0.32610279060577135,1,0.999901
0.3390800268886167,1,0.999893
0.3441826674746822,1,0.999234
0.3621251105197862,0,0.979067
0.36028390700361446,0,0.994221
0.3310401162093795,1,0.999902
0.3560714496838172,0,0.997833
0.34746158593434767,0,0.998316
0.3316822928068815,0,0.986997
0.3299575150737026,1,0.999902
0.3415046848814627,0,0.998712
0.3362790125796947,0,0.976662
0.3450587295174252,0,0.988712
0.35676074990627715,0,0.996655
0.3545003515758227,1,0.999784
0.3389028366994033,1,0.999905
0.3572402585338395,0,0.979474
0.3353369289257555,0,0.998425
0.3538539715014362,1,0.999546
0.3430683930856753,1,0.999197
0.17885537444384464,0,0.985602
0.34366872776196944,0,0.998716
0.3136253544696482,1,0.999474
0.3181296515299581,1,0.999905
0.3479661712288823,0,0.947750
0.3404662918838838,1,0.999901
0.34189325133126747,0,0.990377
0.3333600573927633,0,0.978647
0.32805748151798636,0,0.993450
0.34937340220470586,0,0.997569
0.34996854608933636,0,0.995453
0.3296095953438649,1,0.999136
0.32937769658591837,0,0.998930
0.32801665708751937,0,0.994063
0.33328938064704833,0,0.994912
0.32987771691442896,1,0.999900
0.31808624680677394,1,0.999632
0.3378946956554938,1,0.999897
0.33078113142538373,0,0.996389
0.3305193846013581,0,0.972190
0.3514024145356517,1,0.999897
0.33188135420110754,0,0.995812
0.3249514036634441,0,0.997971
0.3261288626351844,1,0.999905
0.3387702946789365,0,0.984315
0.34258897272826533,1,0.999783
0.3556889145515166,0,0.991582
0.3200288298682561,1,0.999900
0.33470415526531466,0,0.996340
0.3358932822467414,1,0.999891
0.3412326108157789,0,0.996163
0.34938986587754656,0,0.997162
0.3423533251901943,1,0.999019
0.3370062693048706,1,0.999646
0.31571969846025244,1,0.999907
0.34645571474713555,0,0.958290
0.33002656545477344,1,0.999681
0.34066560496513204,0,0.975347
0.34488246829009916,1,0.999905
0.32519662986927267,1,0.999798
0.33047025731299995,1,0.999896
0.34495537000068616,0,0.996727
0.338685168493542,1,0.999911
0.3316067844043435,1,0.999899
0.3367002161442605,1,0.999779
0.32090216215146383,1,0.999892
0.30298611518034085,1,0.999906
0.3324110250316548,0,0.995678
0.3548756961737338,0,0.956798
0.3091877467576546,0,0.998998
0.31034489631707335,1,0.999796
0.3200142365956619,0,0.998978
0.32865349327904536,1,0.999899
0.30932820534725414,1,0.999906
0.31104906331291515,1,0.999906
0.32677676262560945,1,0.999892
0.3055190632577464,1,0.999794
0.314643787621575,0,0.994475
0.32230559940372994,1,0.999890
0.31818970000978897,0,0.997168
0.3242339963375763,0,0.994657
0.3069699335935289,0,0.983040
0.3217154869335538,0,0.994229
0.3362650738024744,1,0.999468
0.3422764634450824,1,0.998997
0.3408165416939523,1,0.999892
0.3287181542553205,1,0.999898
0.32100325305154914,1,0.999033
0.3276379306181993,1,0.999724
0.3365377018454757,1,0.999239
0.31104672359893193,0,0.988016
0.32409169394967763,0,0.998977
0.3240332983174738,0,0.995815
0.31764235700723176,1,0.999791
0.31815843789004583,1,0.999725
0.3220248583211294,1,0.999720
0.339397122230484,1,0.999888
0.32138957273879615,1,0.999684
0.31886633368674994,1,0.999895
0.3269573573974866,1,0.999900
0.13795169674739907,1,0.999918
0.13768231420413932,0,0.998100
0.3552377058140794,1,0.998952
0.35335205404982645,0,0.998637
0.3323016071950181,1,0.999891
0.3306242051932899,0,0.993946
0.34200336998632985,0,0.987887
0.32605422371116205,0,0.988384
0.3182993011734455,1,0.999633
0.32806923443395564,0,0.998639
0.339182831278795,1,0.999529
0.3219774960476417,1,0.999695
0.3212667534208657,0,0.998621
0.3323060680317361,1,0.999790
0.348645103689792,1,0.999905
0.3401417282561714,1,0.999893
0.3544023048159172,1,0.999904
0.3467029139251514,0,0.997905
0.33879911637765364,0,0.993296
0.32426150202857146,1,0.999807
0.35814061523821933,1,0.999715
0.3408878191622494,0,0.995854
0.3320006516128982,1,0.999722
0.3345506502773755,0,0.975060
0.32037514311996923,1,0.999715
0.3254665462927379,0,0.995869
0.31242143829404007,1,0.999900
0.3188345012575529,1,0.999908
0.3204535690071629,0,0.993458
0.3226603788331502,0,0.985020
0.3393863662480967,1,0.999891
0.33726110036665413,1,0.999790
0.35455218250995596,1,0.999529
0.3367443709538682,1,0.999789
0.335715321937138,1,0.999897
0.34752164412482195,1,0.999572
0.34444043382499306,0,0.992043
0.32434397454866615,0,0.996362
0.32310440289215764,1,0.999898
0.33818792832056704,1,0.999382
0.3386203868736763,0,0.997253
0.3360241438025197,1,0.999879
0.3210278795839629,0,0.984275
0.32664739135921894,1,0.999904
0.32084284308737726,0,0.989026
0.3230148188178295,0,0.976442
0.3155342487308856,0,0.998785
0.32406620480619125,1,0.999903
0.3250951899245628,0,0.969938
0.32511937411595615,1,0.999809
0.3162625803086118,1,0.999903
0.3153531363323281,0,0.989520
0.3207184248607831,0,0.998035
0.35113708772298075,0,0.937650
0.339039858564675,0,0.983851
0.34222375580483505,1,0.999890
0.3276953611873198,0,0.997957
0.34208858432566314,0,0.995105
0.3253369010045105,1,0.999901
0.3461242131499271,1,0.999888
0.32526568705464104,0,0.998834
0.320670847807001,1,0.999907
0.32955391873384315,1,0.999894
0.3205246556884657,0,0.998175
0.3230174041014373,1,0.999595
0.308083086424622,1,0.998844
0.3213660355225608,1,0.999727
0.31527712618803627,0,0.872803
0.3498571589329009,0,0.993666
0.3176392355198048,0,0.998152
0.28432517417716086,0,0.982373
0.3358791921696755,1,0.999186
0.3235343351471747,1,0.999904
0.31934945467910003,1,0.999889
0.33042596714364275,1,0.999485
0.3016677062062262,0,0.961240
0.31322446847463525,1,0.999722
0.2982152659631659,1,0.999901
0.3223431028236271,1,0.999901
0.30868894034572036,0,0.996827
0.32585723642026815,0,0.994677
0.2888836662690281,0,0.975097
0.3253801989795231,0,0.998452
0.3398957665994863,1,0.999892
0.2931710673621554,1,0.999898
0.3450556054796878,0,0.998531
0.2961901148883035,0,0.959727
0.330373449405065,0,0.990201
0.2940381641199743,1,0.999795
0.3434377678991617,1,0.999894
0.3225565312965219,0,0.898505
0.3578961590150533,0,0.995175
0.3401687276885387,0,0.971103
0.31103651139300387,1,0.999903
0.33296733690086283,1,0.999824
0.3243089476512508,0,0.986205
0.32017639459843267,0,0.990769
0.3224302029991952,1,0.999558
0.3098026663285712,0,0.965468
0.28607845207946114,0,0.988914
0.3204629822917437,0,0.995788
0.32510283005861335,0,0.994525
0.34199519472799433,1,0.999800
0.3415524762855336,0,0.988807
0.3273006220374958,0,0.996070
0.3358147409751292,1,0.999459
0.33092816790603297,0,0.998569
0.3183834851941495,1,0.999812
0.32572132865388564,0,0.997020
0.3221766454388674,1,0.999797
0.31106779010569746,1,0.999585
0.3374627233862596,0,0.982097
