NaN,0,0.980682
NaN,0,0.975921
NaN,0,0.961419
0.047987096745254226,0,0.942330
0.061259201744624826,0,0.905797
0.28816804241402283,0,0.205225
0.32983483935123226,0,0.979678
0.32983483935123226,0,0.966978
0.3299035252852672,0,0.978759
0.3299035252852672,0,0.962497
0.3299389655613744,0,0.997263
0.3299389655613744,0,0.973858
0.3300049063558967,0,0.981396
0.3300049063558967,0,0.968398
0.33006816852837334,0,0.979637
0.33006816852837334,0,0.960737
0.33012877955555686,0,0.977981
0.3317464769741911,0,0.974351
0.3384758689347043,0,0.974544
0.33850868815697677,0,0.960740
0.3401032456563481,0,0.979893
0.34009743526824976,0,0.998156
0.34008434957455663,0,0.981240
0.3401196111309283,0,0.975803
0.3416592825398332,0,0.965241
0.34322135082138067,0,0.985126
0.3463139490268701,0,0.983175
0.3478344820621075,0,0.986241
0.34931920567989566,0,0.978485
0.34935403727415143,0,0.987662
0.3581618471623283,0,0.970906
0.358148932314569,0,0.981456
0.35813932721440894,1,0.999816
0.3595347093790689,0,0.988731
0.3609645951346028,0,0.957635
0.3623907234228364,0,0.967575
0.36237612290520466,0,0.982424
0.3623680139501157,0,0.445056
0.3650734877676693,0,0.949068
0.36908877254055,0,0.943807
0.37222019341366225,0,0.984489
0.3872232712489903,0,0.797862
0.39121087612968997,0,0.984602
0.39299745980878303,0,0.982382
0.3932568115049056,0,0.403925
0.3940369767607624,0,0.964047
0.39398228281807274,0,0.982067
0.39392803146472855,0,0.976951
0.4014096251781476,0,0.366219
0.40140881803382,0,0.848202
0.40145466719029876,0,0.978096
0.4033896288864963,0,0.965262
0.4041153770913703,0,0.973591
0.40447914438911214,0,0.988352
0.41212581521795577,0,0.955697
0.41204970687620945,0,0.364065
0.4117547226512556,0,0.990077
0.4132521756761044,0,0.982712
0.4251231344204126,0,0.892495
0.44367950695495423,0,0.976472
0.44922324305186234,0,0.989361
0.44920115754802775,0,0.976028
0.4491567566071335,0,0.885207
0.44912898955428976,0,0.984582
0.44911089425526135,0,0.985668
0.44909288150770477,0,0.984081
0.4490571036259767,1,0.999945
0.4490571036259767,0,0.986653
0.44901696314806766,0,0.994250
0.44899705759931424,0,0.981722
0.4587208709557772,0,0.563377
0.45872304967596217,0,0.596620
0.4611030202413086,0,0.985743
0.4816793154254925,0,0.987390
0.5103714710447573,0,0.517390
0.5340436744114734,0,0.969955
0.5459827652496867,0,0.983918
0.5467299782645955,0,0.998010
0.5507879043672698,0,0.754780
0.5573753573986098,0,0.975836
0.5367078569562703,0,0.963198
0.5061863822517332,1,0.999874
0.4880383603542223,0,0.950268
0.49039789467848127,0,0.952856
0.4936007592203578,0,0.953285
0.5017998736310751,1,0.999703
0.5110632196557272,0,0.992644
0.5138397343101652,0,0.988331
0.5184528970445804,0,0.578114
0.5100720683433261,0,0.946271
0.5032305334907929,0,0.989371
0.4978071189655168,0,0.994447
0.4947087635528164,0,0.988397
0.4795622564811723,0,0.996997
0.47817530148403725,0,0.631185
0.4550503127610573,0,0.966490
0.42396346981446675,0,0.953686
0.4265190355515556,0,0.964992
0.4273880705838865,0,0.964112
0.42877327024635414,0,0.955597
0.43038851276409434,0,0.978918
0.43227938383188325,0,0.967152
0.4347998190940339,0,0.989459
0.4303591300039424,0,0.997521
0.4365126682917086,0,0.991911
0.4376929990522712,0,0.934044
0.440757641279531,0,0.992713
0.44317371017886853,0,0.972051
0.44494566525085205,0,0.989826
0.4433792097946236,0,0.969977
0.45002807959456737,0,0.954341
0.45267118947583207,0,0.955710
0.4578580813235118,0,0.957780
0.4644860808032815,0,0.996989
0.47134269077765417,0,0.975656
0.47775416001222437,0,0.981451
0.4838631519865461,0,0.992412
0.4894102343105914,0,0.996814
0.49498218185408555,0,0.970401
0.5019092231810739,0,0.970729
0.5058377953388324,0,0.965622
0.5111722697285769,0,0.966640
0.51902908175556,0,0.990969
0.5262510146015895,0,0.964806
0.5334852764654969,0,0.986161
0.5415570262832098,0,0.968426
0.3934605729270812,0,0.980784
0.4033336837291725,0,0.926621
0.4139478663033682,0,0.964571
0.4232700724535707,0,0.998535
0.43354195269580603,0,0.996689
0.4402311076106097,0,0.986293
0.45233043084820984,0,0.961240
0.4626275053412744,0,0.997003
0.4720270018935425,0,0.996943
0.4793659729896565,0,0.970968
0.4872123654180865,0,0.986793
0.4902522287813912,0,0.987785
0.49686806048101667,0,0.984291
0.5051318828232969,0,0.988314
0.5093415063128729,0,0.973905
0.5179575930549167,0,0.978556
0.5261284336919142,0,0.974698
0.5312303573990971,0,0.994356
0.5359353542627895,0,0.989409
0.5410066626082283,0,0.977021
0.549961223496773,0,0.977543
0.5591406376936672,0,0.996090
0.5656623285973104,0,0.978006
0.5722369877537234,0,0.995375
0.5819658080683783,0,0.996685
0.5877412490262729,0,0.996572
0.5972935718262591,0,0.983423
0.603233976300208,0,0.996465
0.6090994770773694,0,0.997504
0.6139465828944448,0,0.975637
0.6206075918155084,0,0.985803
0.6282586707380207,0,0.980952
0.6374339794053618,0,0.990928
0.642966014855241,0,0.996210
0.6490543729881967,0,0.997019
0.6551976399342839,0,0.997508
0.661340622170584,0,0.996205
0.6674292536617574,0,0.996627
0.45020203132917846,0,0.985635
0.46158626008676795,0,0.991394
0.4736937503719946,0,0.979521
0.48556616071111147,0,0.986360
0.4944539048138973,0,0.972689
0.503338863127287,0,0.987472
0.5127117803710856,0,0.988768
0.5210939239257505,0,0.990020
0.5279016752275808,0,0.985886
0.5357400347554359,0,0.989312
0.5427423527140742,0,0.989057
0.5498329588760473,0,0.973581
0.5547379799944747,0,0.987793
0.5640801865617806,0,0.996563
0.5725420840446278,0,0.990449
0.5769236980876156,0,0.989251
0.5832385286738349,0,0.992463
0.5896622274959796,0,0.993012
0.595569477100327,0,0.996457
0.6004899158576031,0,0.997500
0.6055449884920003,0,0.993643
0.6135143848124094,0,0.996449
0.6204321807616753,0,0.983588
0.6229725560733467,0,0.993522
0.6272546825881582,0,0.995660
0.6334747209020428,0,0.994414
0.6384877925209387,0,0.997682
0.6453752620365067,0,0.996396
0.6496747508148414,0,0.983546
0.6608421960561214,0,0.991449
0.6708795082463966,0,0.995701
0.675069021249326,0,0.992829
0.6792702553418938,0,0.996257
0.6850170128234955,0,0.997620
0.6908794656418151,0,0.997695
0.6984714668135732,0,0.995724
0.7031281079626137,0,0.995802
0.7111847624383069,0,0.993715
0.7173937886522083,0,0.996491
0.5081276168011825,0,0.986024
0.5150934278500169,0,0.984791
0.5206675823758355,0,0.984516
0.533372104938195,0,0.978143
0.5380770092543784,0,0.987003
0.5482438339452205,0,0.981830
0.5578376299775577,0,0.988479
0.5678457471810512,0,0.987617
0.5765336960245641,0,0.985084
0.5866777991901144,0,0.987816
0.5967057317627789,0,0.989923
0.6061658225582167,0,0.990510
0.6134274855472435,0,0.985183
0.6191920210450754,0,0.997122
0.6247185223728331,0,0.997291
0.6316010159421418,0,0.988097
0.6400631431271001,0,0.992856
0.6471980132342574,0,0.993174
0.6545136485155628,0,0.997439
0.6616180975909364,0,0.995613
0.6678424877988424,0,0.993815
0.6755373736009708,0,0.994863
0.6813626270983947,0,0.996095
0.6883208512092719,0,0.995007
0.6922709152297075,0,0.995102
0.697350613140214,0,0.991709
0.7015065488959924,0,0.991655
0.7063859800694801,0,0.991739
0.7092927225309856,0,0.985419
0.7139715876005778,0,0.996392
0.7207690878980916,0,0.995419
0.7245581000258413,0,0.996168
0.7312827514167847,0,0.994943
0.7377844707961543,0,0.998153
0.7415000749058115,0,0.994412
0.7451185328884385,0,0.995058
0.7513861426529326,0,0.990287
0.7546689210004948,0,0.996069
0.7595411503930987,0,0.997528
0.7623382811017837,0,0.998235
0.765339074263732,0,0.995864
0.7676436528923649,0,0.996078
0.5467007859404736,0,0.981740
0.5629407315085971,0,0.991104
0.5671879876319653,0,0.992711
0.5771801231641984,0,0.982989
0.5861340651554754,0,0.991265
0.5942407811396438,0,0.991279
0.5997109852979893,0,0.992854
0.6054045986097596,0,0.992766
0.6154787499205181,0,0.995833
0.6277695546440811,0,0.996404
0.6352941920115863,0,0.996736
0.6396254001661994,0,0.994821
0.6449482234346745,0,0.995133
0.6511511974080446,0,0.994878
0.6598824459980079,0,0.994974
0.6660659359873172,0,0.997617
0.6745632002446958,0,0.996724
0.6832188581644103,0,0.995672
0.6908725648671721,0,0.991439
0.6957003404168923,0,0.995401
0.7016798225787123,0,0.997372
0.7065173147255557,0,0.995484
0.7134213503792751,0,0.996911
0.7173838056816798,0,0.989875
0.7242172781566901,0,0.996211
0.72921863469079,0,0.996812
0.7349288767634925,0,0.997491
0.7399347355685338,0,0.996255
0.7432139088133674,0,0.997410
0.750910982745223,0,0.997431
0.7562757347386271,0,0.997049
0.7620083584122639,0,0.995646
0.7668289063060896,0,0.997054
0.772387376648947,0,0.996652
0.7777993415968341,0,0.995220
0.7820109751387152,0,0.995107
0.7862716268870312,0,0.995256
0.7917995720933731,0,0.995084
0.7953477332301813,0,0.996225
0.5806345980193294,0,0.992665
0.5943250158939011,0,0.991169
0.6031789807642444,0,0.997769
0.6117893598434463,0,0.987554
0.6200053930462514,0,0.990969
0.628506557633403,0,0.989272
0.6387698311154091,0,0.996809
0.6454351755831664,0,0.997459
0.6515767280816225,0,0.997663
0.6611675454738294,0,0.991968
0.6702883048111193,0,0.986795
0.6776337701032864,1,0.999949
0.6828813500993729,0,0.997462
0.6911669812583497,1,0.999958
0.6986678926970749,0,0.994051
0.7056557131817532,0,0.994564
0.7103677513835084,0,0.997648
0.7177383449995492,0,0.997544
0.7237393661954449,0,0.996513
0.7303013694376882,0,0.995407
0.7364057083502515,0,0.997499
0.7419753553297915,0,0.994718
0.7474164896106144,0,0.997524
0.7536840830896244,0,0.996358
0.7591816930756657,0,0.993733
0.7643064279200091,0,0.996226
0.7711405857965157,0,0.988526
0.7760572577505512,0,0.995333
0.7799740828822653,0,0.997740
0.783098305086047,0,0.993432
0.7869360942642566,0,0.997590
0.7910319510357751,0,0.996510
0.794965584758554,0,0.996331
0.8015381197443927,0,0.996684
0.8047695919327834,0,0.996661
0.8093793230014876,0,0.996430
0.8137810380913311,0,0.997249
0.818152260859077,0,0.997299
0.8203290137356987,0,0.997963
0.8253354824900722,0,0.997254
0.6114807737025104,0,0.987234
0.6193744336567177,0,0.987270
0.6283016317546024,0,0.995507
0.6348203040236634,0,0.987762
0.6407644925921491,0,0.988162
0.6471698724210769,0,0.997613
0.6546784666197988,0,0.997448
0.6616190375287428,0,0.982474
0.6689213191542196,0,0.988521
0.6764503494676828,0,0.987261
0.6836759814495564,0,0.991693
0.6914857643148357,0,0.995550
0.6988343608354124,0,0.997553
0.7050020108914543,0,0.996804
0.7132854972369905,0,0.989657
0.7241569961833281,0,0.997530
0.7344031327689219,0,0.995529
0.743484304906207,0,0.996543
0.7483392415309698,0,0.998084
0.7527307425927554,0,0.994925
0.7602969498031101,0,0.994704
0.7658700066928801,0,0.996971
0.7696587500890372,0,0.996073
0.773591262702161,0,0.996409
0.7770224876694017,0,0.996135
0.7824930139771845,0,0.994829
0.7876982562750131,0,0.995048
0.791294902584881,0,0.995350
0.7947608221227112,0,0.996269
0.7980578085929371,0,0.995820
0.8015338800313999,0,0.986912
0.8049110754201011,0,0.997457
0.8079884350677536,0,0.997460
0.812605751334257,0,0.997575
0.8152360988282706,0,0.996580
0.8184603123603368,0,0.995563
0.8230460819418614,0,0.998153
0.8266273060097556,0,0.994438
0.8308742047101269,0,0.998574
0.8336126888073621,0,0.994058
0.8367949392560905,0,0.998643
0.8400305817694087,0,0.998916
0.8443719089574293,0,0.997272
0.6263621203036198,0,0.997389
0.6357564348881186,0,0.985514
0.6449099208738887,0,0.984976
0.6503317672888502,0,0.985167
0.6611072865715251,0,0.995511
0.6707631155988966,0,0.992600
0.673940144797864,0,0.984617
0.6780681071642354,0,0.997753
0.6821672163828149,0,0.993927
0.687913324790782,0,0.991748
0.6943658563545034,0,0.994542
0.699449386578211,0,0.994303
0.7072551420756416,0,0.993335
0.7090897629139998,0,0.994845
0.7122244230735764,0,0.994335
0.7161252844232161,0,0.983452
0.7205046366393483,0,0.990256
0.7234259876673196,0,0.995480
0.7277941039297571,0,0.995961
0.7322219182625028,0,0.994167
0.7351640155199031,0,0.995809
0.7382711078812618,0,0.996391
0.741142587719582,0,0.997594
0.7468693411478844,0,0.995279
0.7508730039754716,0,0.994705
0.756826746436954,0,0.996583
0.7642139178870823,0,0.995296
0.7696165120054776,0,0.995919
0.7747713000139013,0,0.995181
0.7800725257273662,0,0.997221
0.7846465535259994,0,0.990409
0.7898657107320016,0,0.997398
0.7966552320767966,0,0.997485
0.8030836501686068,0,0.997420
0.8081682400898992,0,0.997465
0.8130948152182003,0,0.997233
0.8161117351657753,0,0.998121
0.8171132829336581,0,0.997166
0.8183653361790164,0,0.997498
0.8198183253479031,0,0.996441
0.824642001187575,0,0.996088
0.8273075367589017,0,0.991300
0.8295225364517023,0,0.995753
0.8305624638353676,0,0.996338
0.8318000367982861,0,0.996478
0.8338449316838962,0,0.995983
0.8363487219379044,0,0.996249
0.8403041851404415,0,0.997522
0.8437432607046494,0,0.996482
0.8468976375419073,0,0.998042
0.8497834154860593,0,0.998426
0.8534079943467878,0,0.996664
0.8564588127037531,0,0.997302
0.8601559896211296,0,0.998021
0.6596133118899078,0,0.997628
0.6700677971377884,0,0.996577
0.6815822362683014,0,0.994939
0.6915242679522277,0,0.994774
0.6995155338627103,0,0.997647
0.7062393575555774,0,0.996381
0.7114997296575005,0,0.993169
0.7171014247338205,0,0.994421
0.7235703479175934,0,0.995766
0.7285826536872293,0,0.996485
0.7317284095900136,0,0.997567
0.7347239113744505,0,0.996611
0.7385080398914978,0,0.991466
0.7427116693870941,0,0.995309
0.7474393629681805,0,0.996527
0.751393777059213,0,0.997459
0.7597376960314581,0,0.996445
0.7660498402101559,0,0.996961
0.771354447936932,0,0.997257
0.7743072041330687,0,0.996167
0.7791648968805873,0,0.997966
0.7835695648631785,0,0.996144
0.7882211364835081,0,0.997288
0.7922941886041568,0,0.997473
0.7963749764860485,0,0.997479
0.8001043998026441,0,0.997512
0.8041242356324336,0,0.998149
0.807705872423909,0,0.995824
0.8111402683673014,0,0.996066
0.8131018776129928,0,0.945772
0.8135797625172199,0,0.487552
0.8142487288752122,0,0.986948
0.8153445694189341,0,0.962392
0.8161125565609176,0,0.954716
0.8180654361597519,0,0.986664
0.8192258591071157,0,0.935033
0.8202969043178264,0,0.949375
0.8212294142328553,0,0.991589
0.8218425424841411,0,0.948709
0.8223839087026016,0,0.913719
0.8229256217580713,0,0.993796
0.8233134980141553,0,0.995850
0.8236603529665188,0,0.981025
0.8239382754555937,0,0.995670
0.8239541520194179,0,0.996229
0.8240533268228618,0,0.966201
0.8239270636656832,0,0.996784
0.8237795222283177,0,0.994593
0.8236006700791436,1,0.998460
0.8236844381784514,0,0.996150
0.8233732907485265,0,0.986605
0.823127726782162,0,0.996292
0.66059952687748,0,0.970628
0.6660702621779382,0,0.978853
0.6718635481829646,0,0.987482
0.6775149780772061,0,0.979078
