NaN,0,0.983606
NaN,0,0.981540
NaN,0,0.975874
NaN,0,0.967690
0.022996092810264872,0,0.955882
0.04233001359192479,0,0.945090
0.06470323064196339,0,0.983245
0.1623269218699147,1,0.999968
0.18783815491125258,0,0.962188
0.2530955940619887,0,0.974313
0.2534043890394677,1,0.999826
0.2534043890394677,0,0.971379
0.2534043890394677,0,0.949619
0.2534043890394677,0,0.914378
0.26898338028785757,0,0.971467
0.26898338028785757,0,0.951322
0.26898338028785757,0,0.933305
0.28456668741530416,0,0.970422
0.28456668741530416,0,0.945093
0.28456668741530416,0,0.929929
0.3561258644516289,0,0.976202
0.3561258644516289,0,0.969373
0.3561258644516289,0,0.937105
0.36777052555993844,0,0.935711
0.43670040448352976,0,0.939667
0.5552586784944823,1,0.999750
0.5552586784944823,0,0.967674
0.5646324716714577,0,0.943516
0.5728552212509445,0,0.294916
0.5728552212509445,0,0.297542
0.5728556320887106,0,0.298407
0.5728556320887106,0,0.313256
0.5728001361053111,0,0.347463
0.5800200476981794,0,0.936228
0.5800200476981794,0,0.363818
0.584946437767054,0,0.350969
0.5993293006901061,0,0.361741
0.6569014643165906,0,0.979316
0.6595828943997736,0,0.235115
0.6686487699389663,0,0.998242
0.6686487699389663,0,0.973528
0.6730934019823077,0,0.962527
0.6773475476689488,0,0.979208
0.6855761629340237,1,0.999761
0.7043087303441745,0,0.951909
0.7203633654730338,0,0.967728
0.7639154284172455,0,0.999263
0.7639154284172455,0,0.971924
0.7940096375260618,0,0.999189
0.7960579069579301,0,0.939708
0.8093041602413018,0,0.927840
0.8127897863894076,0,0.973230
0.8129499267164836,0,0.968678
0.8233743172689861,0,0.980971
0.8246435246931904,0,0.968025
0.8243920184308177,0,0.972673
0.8229335210388574,0,0.987578
0.8227531919334073,0,0.998513
0.8217519278904939,0,0.987014
0.8229008417505743,0,0.588524
0.8226685425367959,0,0.928404
0.822480988212744,1,0.998690
0.8188172331190078,0,0.958803
0.8186214474454875,0,0.925482
0.8101568807795131,0,0.987070
0.8099503800241901,0,0.989718
0.8078925481665556,0,0.986432
0.806801554840599,0,0.911819
0.8060527524906117,0,0.954532
0.7961022076327795,0,0.955567
0.7692310697230644,0,0.993099
0.7650190816665835,0,0.966327
0.7648522246480712,0,0.975704
0.7647228204183653,0,0.600965
0.7632702240323561,0,0.947038
0.763046371144015,0,0.980767
0.7628206132744763,0,0.947398
0.7465112094398139,0,0.970355
0.7333406710841984,0,0.985550
0.7332268131021166,0,0.609415
0.7330870887583969,0,0.978715
0.731522920434252,1,0.999710
0.7313918404742167,0,0.936232
0.689297024712239,0,0.965099
0.6888718309014383,0,0.712635
0.6880456711770956,0,0.942491
0.6870045698541766,0,0.592009
0.6804998110371686,0,0.964569
0.6845746736062072,0,0.913528
0.6962549973385684,0,0.547747
0.7195375795737761,0,0.971615
0.7246616265340102,0,0.957825
0.728106842634861,0,0.955128
0.7381441607773311,0,0.673477
0.7409489316330305,0,0.989345
0.755022058674803,0,0.995231
0.7639344961190858,0,0.564172
0.769790850304633,1,0.999971
0.7734306825699268,0,0.946096
0.7762589000701174,0,0.944095
0.7775935453093458,0,0.944978
0.7809068036515429,0,0.973054
0.7842390869948166,0,0.559215
0.7913012055437167,0,0.928636
0.7928983657505574,0,0.976333
0.8001101703644916,0,0.966504
0.8011939655646336,0,0.947098
0.8041244340681958,0,0.632282
0.8062357454130322,0,0.446833
0.8113374060653306,0,0.989885
0.8146507098549083,0,0.962542
0.816139881082423,0,0.594004
0.8185522433759713,0,0.963466
0.8197671156728655,0,0.970457
0.8201378283851416,0,0.953098
0.8206673824031713,0,0.983861
0.8215041123951365,0,0.956076
0.8218257217430175,0,0.448062
0.8262935105885284,0,0.962640
0.8267333563522953,0,0.707461
0.8300101041432815,0,0.522945
0.8316143213140291,0,0.895529
0.8327759683212844,0,0.648951
0.833994102757582,0,0.500000
0.8356725312001887,0,0.987430
0.8367445233377364,0,0.992088
0.8380720972808208,0,0.957374
0.8389938389467884,0,0.609589
0.8399846250136526,0,0.981438
0.8401483247683281,0,0.981812
0.8403142453442338,0,0.991571
0.8377924408596051,0,0.983425
0.8376717572824002,0,0.977997
0.8341485961872431,0,0.961516
0.8317644281928094,0,0.972451
0.8306286318985628,0,0.980876
0.8297369639816099,1,0.999971
0.8246028248883756,1,0.999875
0.8188416015483672,0,0.997509
0.8172299966304349,1,0.999804
0.8145583914844811,0,0.972026
0.8124158214026027,0,0.983835
0.8109466387205805,0,0.987487
0.8133642076757474,0,0.985548
0.810477329881476,0,0.996264
0.8080401440877453,0,0.980598
0.8072454731531149,0,0.998404
0.805337899911294,0,0.916331
0.8069896116356566,0,0.980944
0.8064465486479195,0,0.971781
0.8057706543047342,0,0.998049
0.805128486743759,0,0.974779
0.8052136369069972,0,0.998713
0.805287552047373,1,0.999970
0.805555809743413,0,0.997175
0.8066564081753731,0,0.997681
0.8074872134261687,0,0.994772
0.8095372443171408,0,0.980855
0.8105046345090053,0,0.940081
0.8107783899664112,0,0.950782
0.8122970052243808,0,0.949165
0.7266386901979385,1,0.999761
0.7299857136595823,0,0.913452
0.732771358177699,1,0.999971
0.7333002131112186,0,0.699729
0.7341260293855122,0,0.436105
0.7373027400020422,0,0.982303
0.7383636127991613,0,0.988832
0.7403406728219629,0,0.996649
0.7405303315016605,0,0.974817
0.740814738773698,0,0.969826
0.7429982863958189,1,0.999198
0.7447202728279467,0,0.985040
0.7471668495587895,0,0.989014
0.7498462133703088,0,0.920215
0.7505848770918532,0,0.709948
0.7509745985072551,0,0.977144
0.7536976708195442,0,0.981712
0.7568878764599348,0,0.923465
0.7582604989381184,0,0.870479
0.7598226601117484,0,0.926610
0.761630866693366,0,0.988225
0.7636533857037324,0,0.919864
0.7651518855035624,0,0.929415
0.7662624367801786,1,0.999970
0.7674144089878491,0,0.923565
0.7686744864838043,0,0.980296
0.7720833760728467,0,0.931790
0.7781925971778287,0,0.952041
0.7789785507902862,0,0.931484
0.7820520273797998,0,0.997523
0.7867016952440054,0,0.970787
0.7899607448793529,0,0.993740
0.7905740989616563,0,0.567332
0.7938865727155694,0,0.803853
0.7962229327234305,1,0.998489
0.7977197594143197,1,0.999394
0.7986327935498325,0,0.996086
0.8007303722847998,0,0.985136
0.8061123151836148,0,0.997910
0.8080617200580356,1,0.998935
0.8120847595440753,0,0.902984
0.8156113500943096,0,0.964767
0.8177340514418069,0,0.983957
0.817963163261508,0,0.953104
0.8209909119318685,0,0.912162
0.8265575536832294,0,0.961393
0.8325989901817572,0,0.983676
0.8394653393783182,0,0.961004
0.8467725057556997,1,0.999409
0.8490576317116434,1,0.999409
0.8562043144761036,1,0.999409
0.7654124758945308,0,0.908298
0.7782724051914632,0,0.920839
0.7880596044475245,0,0.994745
0.788131855165371,1,0.997832
0.7883010913583419,0,0.946218
0.78888234427016,0,0.997661
0.7918439713389067,0,0.932889
0.8032905654027669,1,0.999433
0.8139339255580346,0,0.979100
0.8239017923203842,1,0.999409
0.8332284063942831,1,0.999409
0.8418873809065509,0,0.969557
0.8500837134490534,0,0.973399
0.8577006018244636,0,0.976879
0.8648382117200798,0,0.979132
0.8692840492170595,1,0.997574
0.8692846377655419,0,0.992388
0.8693950852810871,0,0.997191
0.8695521506490452,0,0.973807
0.8712256962367969,0,0.925245
0.8742391020213977,0,0.981487
0.8803419972088835,0,0.984618
0.7697337597594399,0,0.956586
0.7832957038527378,1,0.999327
0.7919164065758907,0,0.980918
0.7950641498794316,0,0.953808
0.7986222924809422,0,0.962365
0.8101836903901101,1,0.999409
0.8208670656145236,1,0.999412
0.8306891702703413,1,0.999413
0.8398339901983264,1,0.999320
0.8483163681109882,1,0.999510
0.8561905971716179,1,0.999508
0.8635713818624075,0,0.985320
0.8704335254675577,1,0.999414
0.8768462618305959,1,0.999508
0.8828802509873899,1,0.999325
0.8884813869481147,1,0.999904
0.8937168171496788,1,0.999425
0.8963925869088457,0,0.965102
0.8986538005323319,1,0.999413
0.7860469500911654,0,0.974472
0.7972623226883592,0,0.972731
0.8077828572560014,1,0.999213
0.8175542839221493,1,0.999115
0.8266788449760324,0,0.973425
0.835213067103781,1,0.999410
0.8431253954264866,0,0.984141
0.8505711039438231,1,0.999413
0.8575468933524825,0,0.983263
0.8640611902150103,0,0.985025
0.8702811913460785,0,0.992266
0.8760645510467955,1,0.999418
0.8815365886988668,1,0.999418
