0.9219234503552532,1,0.999933
0.9278573316829045,1,0.999810
0.958800623168454,0,0.963253
0.9507193349354799,1,0.998648
0.9338360654520916,1,0.999917
0.6327028704663775,1,0.999664
0.78251866172617,1,0.999850
0.9567972973190605,1,0.999498
0.6641305431775386,1,0.999704
0.9709547818287398,1,0.999850
0.9271223640461916,1,0.999409
0.872800396935904,1,0.998906
0.8387017246378181,1,0.999703
0.9097217103080788,1,0.998866
0.9054507634412483,1,0.999159
0.8808829024801537,1,0.999647
0.900639430171966,1,0.999901
0.7733491948546852,0,0.897304
0.7549130561438873,1,0.998639
0.8492722116858044,0,0.977409
0.8422167356938113,0,0.987893
0.8934226234332161,0,0.998535
0.9216595988325602,1,0.999495
0.9251320374464599,0,0.773463
0.9322463930549784,1,0.996927
0.864693822730947,1,0.997188
0.8718686233774722,1,0.998746
0.8839570443530758,0,0.796673
0.8791747519900067,0,0.995466
0.8062567860771702,0,0.998938
0.8580643126774167,1,0.999642
0.8593171488461366,1,0.999956
0.8506563102831068,1,0.998961
0.8734714896717775,0,0.967736
0.8598415114680417,1,0.999307
0.8165223788530668,1,0.999722
0.782059649922091,0,0.982513
0.827800475286933,1,0.999761
0.8612501161179404,0,0.965704
0.849283080479907,1,0.999249
0.859769839377832,0,0.983508
0.8680524312821495,1,0.999950
0.8751414538575255,0,0.956572
0.8918705423332547,1,0.999506
0.8913207626598241,1,0.999948
0.8967903836710738,0,0.999171
0.8893193426734367,1,0.999901
0.8652353089252516,1,0.999864
0.895858418495719,0,0.999025
0.9050018468000904,0,0.998294
0.8334378850829314,1,0.999644
0.8377415790965448,0,0.357116
0.7535686511886959,1,0.999909
0.7548627285503403,0,0.787520
0.7696294055358709,0,0.427441
0.7227651803190973,0,0.990448
0.7427203327606071,0,0.776192
0.7497778332520479,0,0.761463
0.7727199933487062,1,0.999697
0.7953376066194847,1,0.999790
0.7546625165510318,1,0.999858
0.6546022710413362,0,0.998025
0.6807640127317447,1,0.999847
0.5827204095575026,0,0.783830
0.6837841546050571,0,0.735961
0.6458646431663615,0,0.990744
0.6798537605910422,0,0.997064
0.634304322540649,0,0.821042
0.6517381070086689,1,0.997352
0.6792888364071694,0,0.944484
0.6310569010768312,0,0.818942
0.634523088312273,0,0.987510
0.6197782133718621,0,0.816883
0.6553624649749464,0,0.998044
0.6223013385428325,0,0.816896
0.6495194117892283,0,0.939159
0.6992991233990842,0,0.998005
0.6665370226743972,1,0.998585
0.8053331354251441,0,0.813027
0.8052687481614923,1,0.999947
0.813399945825101,0,0.940126
0.7730999087958025,1,0.997053
0.8623901970734535,0,0.955083
0.8782471025139845,0,0.916489
0.9187350079316146,1,0.999615
0.983722327099511,1,0.999958
0.9806619618286433,1,0.998860
0.8364848136763124,1,0.999778
0.7348008987123343,1,0.999852
0.7514961564750721,0,0.848023
0.7569607786154441,1,0.999875
0.7966994792501783,1,0.999419
0.7452646978344145,1,0.999771
0.6380133943486396,1,0.998502
0.6379927937131464,0,0.994544
0.6379624710225221,1,0.999958
0.6379448936004101,0,0.993707
0.6421303822768714,1,0.998943
0.7814967594007363,0,0.857946
0.7862380708707566,1,0.999971
0.92258566369856,0,0.998660
0.8879239536381638,0,0.845620
0.8711773639005801,0,0.996357
0.7751520723395801,0,0.996291
0.7465101021115375,0,0.998259
0.6430562730386944,0,0.992143
0.7500268925993929,0,0.991262
0.7460649844767057,0,0.997252
0.8058184488247593,0,0.841541
0.9820539505542176,1,0.999948
0.8496159350112461,1,0.999878
0.7578274029369172,1,0.999559
0.8513563492924038,1,0.998905
0.9127534452123521,0,0.867079
0.9125692427537898,0,0.996011
0.8302641015142522,1,0.999809
0.8926074644329257,0,0.990888
0.8582589462756087,0,0.998378
0.8135332312703232,1,0.999352
0.7660971790984308,1,0.999278
0.8177483922210751,1,0.999618
0.80846517447751,1,0.999239
0.7604824744568718,1,0.999428
0.7604370561585193,1,0.999358
0.762210581193776,1,0.999546
0.7454118220788455,0,0.998652
0.689423536812131,1,0.999470
0.6820932068248051,0,0.997241
0.9579005734847313,0,0.981147
0.7247454863011136,1,0.999922
0.4299097279636584,1,0.999918
0.691371733410761,0,0.967389
0.7246138150374252,0,0.930243
0.7991456366298464,0,0.993740
0.8172101907987634,1,0.999211
0.761246253520797,0,0.814026
0.679068903171638,0,0.995804
0.7827819627456301,1,0.999880
0.8400603254835917,1,0.999848
0.7849233975812425,1,0.999651
0.8006328822243084,1,0.999745
0.770018219084925,0,0.998860
0.9667717038454529,1,0.999953
0.8785286991960227,0,0.927568
0.9250217803028427,1,0.999953
0.7537838856117379,0,0.997444
0.9696967783877131,1,0.999625
0.41408809961014825,0,0.895441
0.855257620000833,1,0.999781
0.8393729875698405,0,0.974723
0.7921138546710437,0,0.992698
0.9228432661290836,1,0.999019
0.8516615889898064,0,0.999022
0.8560619158542163,0,0.997007
0.810584458774317,0,0.997606
0.794453343555893,1,0.998513
0.7857919121645947,0,0.997336
0.8092863278482164,0,0.996455
0.8207069642452839,0,0.989518
0.8747915644254955,0,0.936360
0.8148174951849094,0,0.993243
0.7951508786989548,0,0.906134
0.8521346016763836,0,0.997543
0.8489490562425236,1,0.999830
0.7925944896317344,1,0.999906
0.7548495557741491,1,0.999718
0.9171423092309956,0,0.999214
0.932889413323122,0,0.999224
0.931791791518479,0,0.988688
0.9423801293822738,1,0.999933
0.9463158986073573,0,0.996609
0.8977083569801353,1,0.999864
0.9025264030646436,1,0.999792
0.8705040898716916,0,0.996856
0.8136330858329384,0,0.988111
0.8373521153925964,0,0.858621
0.745814017962248,0,0.971686
0.719989051918738,1,0.998882
0.7999181269163501,1,0.999959
0.8708102875973885,0,0.846861
0.7434670811768449,0,0.998456
0.9085226745461037,0,0.995501
0.9100792163413103,0,0.997723
0.7682083613692334,0,0.948242
0.7176423652107673,0,0.997139
0.7355215380916722,0,0.990619
0.7823769037823659,0,0.989010
0.9519622785577162,1,0.999948
0.939349462040778,0,0.997120
0.9403651522001873,1,0.997835
0.80419114265288,1,0.999632
0.7554392245007641,0,0.997086
0.793027522166924,0,0.997979
0.8460568957078585,0,0.997933
0.7720651288977146,0,0.999079
0.9246995615097734,1,0.999777
0.7395186356511826,0,0.985439
0.8337779791193917,1,0.999480
0.8019896151972479,0,0.990103
0.7587795079969736,0,0.990532
0.9032487552975271,0,0.977838
0.9188125134372959,1,0.999935
0.9125991667645406,1,0.999845
0.8751272596062172,1,0.999804
0.7632368829135239,0,0.953245
0.9687159472916638,0,0.996671
0.9578526006308329,1,0.999946
0.9528525454055191,1,0.999773
0.9563304929940722,1,0.999902
0.9740563544647424,0,0.999167
0.8240112561412362,0,0.932727
0.9534841594814026,1,0.999940
0.9786651926870148,0,0.986997
0.9168167129648074,0,0.984384
0.7840176075287276,1,0.999327
0.8764934435559094,0,0.921554
0.8088399410236157,0,0.982187
0.796274890002855,1,0.999663
0.8108778529135291,1,0.998152
0.7144299412323724,0,0.993571
0.7297002389240393,1,0.999100
0.7898209475943818,1,0.999741
0.8714379334157374,1,0.999653
0.8587307226491379,0,0.994324
0.8380708318441173,0,0.973871
0.8780499595635773,0,0.998222
0.8281214892563272,1,0.999574
0.792729338316876,0,0.998691
0.9014111007343975,1,0.999899
0.9576856967503682,1,0.999951
0.9352851162901298,1,0.999896
0.8491843375030406,1,0.999867
0.8598527359419492,0,0.998257
0.9243693620303768,0,0.980947
0.8462613472912688,0,0.999445
0.9047891093680968,0,0.999398
0.9047274015725292,0,0.999003
0.9354304800028478,0,0.998225
0.8814869034613696,0,0.998055
0.9349791847235102,0,0.996462
0.9434432635563047,1,0.999940
0.7979288910834194,0,0.989020
0.7875742613264396,0,0.997398
0.809910347768193,1,0.999560
0.8195316492176304,0,0.998719
0.8483558103440021,0,0.999216
0.8390990597841718,1,0.999292
0.8532176881807065,0,0.997811
0.9162160420412525,1,0.999545
0.9537359655406438,1,0.999945
0.9152980098044522,1,0.999540
0.9172410821101344,0,0.998939
0.9323544236774804,0,0.995026
0.9536431883096975,1,0.999851
0.9357362665579013,1,0.999695
0.9486503420095499,1,0.999504
0.9395459050539559,0,0.991540
0.8989203253002075,0,0.998707
0.9608933638754149,0,0.995777
0.9520415968751992,1,0.999712
0.9120254816892975,1,0.999423
0.9294026525888603,0,0.978740
0.9472747277042094,0,0.987958
0.938651885731221,0,0.987114
0.9526290815130071,1,0.999742
0.9658240166878844,1,0.999595
0.9311010183971634,0,0.939352
0.8985885742312162,0,0.995253
0.4375593874118201,0,0.994884
0.4365200340281618,0,0.994864
0.18511805204314988,0,0.997108
0.8124274516112177,1,0.999711
0.8939177789509373,0,0.969623
0.7658016865703312,1,0.999607
0.9765076722953812,1,0.999956
0.6338631559104424,1,0.999582
0.7352516968360536,1,0.999784
0.8552304260447876,1,0.999082
0.8671888897547884,0,0.999136
0.7101876225824014,0,0.909510
0.9645512310857981,1,0.999926
0.9642961673798212,0,0.999371
0.961503913040548,1,0.998895
0.8264896255093943,1,0.998374
0.8843751236299211,0,0.998501
0.8753367740185284,1,0.999729
0.8773186379933411,0,0.914436
0.7556110973031149,1,0.999399
0.8486213216798039,1,0.999944
0.8481476740822145,1,0.999692
0.9199302524636193,0,0.970313
0.9152993272625549,1,0.999603
0.8982792541083249,1,0.997992
0.8083006822168026,0,0.997214
0.80812453331277,1,0.999841
0.8079580455157286,0,0.998636
0.8519821830884481,1,0.999206
0.8748598713795853,1,0.997856
0.8691346012495595,1,0.999537
0.8648692910631869,0,0.998140
0.9119736772420269,1,0.999565
0.914655299736041,0,0.999186
0.8800519612405193,1,0.998144
0.9165817811945395,1,0.999933
0.916162803326689,1,0.998710
0.9094629400287018,1,0.999643
0.7962699642690259,1,0.999084
0.8000315461598474,0,0.994281
0.800422555190532,1,0.999879
0.8293512612167355,1,0.999429
0.8289753687593475,0,0.999225
0.8085977099776243,1,0.999708
0.7969208171039017,1,0.999785
0.8603184881545217,1,0.999752
0.9212523742695357,1,0.999858
0.8665750661873102,1,0.999744
0.8715132402273749,0,0.965287
0.970486097008251,1,0.999853
0.7932734804162154,1,0.999844
0.794425301341621,1,0.999960
0.803147507477713,1,0.999914
0.8100640373844226,1,0.999838
0.8140327158996573,1,0.999467
0.6044899388286131,0,0.996219
0.7336225261090019,0,0.984682
0.8226544964241378,1,0.999880
0.6296151165108634,1,0.999538
0.7302436671799379,1,0.999158
0.8136715060573713,0,0.989841
0.8335429910168131,0,0.996546
0.8539273513558266,0,0.998762
0.8585113003655378,0,0.998177
0.8898058266710804,1,0.999939
0.8894675650003201,0,0.973681
0.9103107558821187,1,0.998543
0.8448787744345587,1,0.999921
0.8006138720749191,1,0.999844
0.7443360724565934,1,0.999855
0.7608685486360821,1,0.999835
0.765491920043653,1,0.999393
0.7728022222769058,0,0.996047
0.7884173654042289,1,0.999563
0.7883728945398502,1,0.999320
0.8568062366351206,1,0.999506
0.7431380807334056,1,0.999871
0.7942946863409418,0,0.996364
0.7868815642418187,1,0.999908
0.7988738652860519,1,0.999834
0.8416506660686178,0,0.993522
0.7853021756523793,1,0.999531
0.9298454795703202,1,0.999780
0.8445768889091664,0,0.990103
0.726025195838677,0,0.997346
0.79175659295783,1,0.999850
0.8179571597522658,0,0.881372
0.8342455135291845,0,0.941869
0.8327989983167129,0,0.894724
0.8624207232794797,1,0.999530
0.9442663407749041,0,0.989196
0.8050389808755812,1,0.999450
0.7347143753879017,0,0.926055
0.7404902846988889,0,0.997268
0.7931019816643651,0,0.929577
0.8739797096038913,1,0.999911
0.8865261009455745,0,0.996210
0.8529942195219146,0,0.997999
0.9060842632389668,1,0.999947
0.9577865890825615,0,0.940745
0.8655894671083458,0,0.964384
0.8227559357431238,0,0.959083
0.7535903315973225,1,0.999812
0.7836730418924842,0,0.742248
0.8106517613022376,1,0.999335
0.8910646283472805,1,0.999796
0.8533304405557628,0,0.773605
0.9297741765629192,0,0.997856
0.9105080387517969,1,0.999887
0.8704164864673817,1,0.998466
0.9432876092025855,1,0.999699
0.9623113958690819,1,0.999802
0.8093696599021654,1,0.998894
0.80107958170764,0,0.998346
0.9219131465204427,1,0.999954
0.7841063584382924,1,0.998866
0.9237935226827101,0,0.800430
0.6497740665212252,1,0.999900
0.9210358464528828,1,0.999734
0.925712661044312,1,0.999893
0.8352112308895416,0,0.993141
0.7823547369450972,0,0.958375
0.730766991983677,0,0.996792
0.9091743842361952,1,0.999499
0.9161823921795136,1,0.999873
0.8777249601263933,0,0.999323
0.9172075009588243,0,0.999235
0.9312809278925328,0,0.999171
0.9362217720696683,1,0.999882
0.9616147269209527,0,0.997323
0.9505239488859304,1,0.999092
0.9265641586743638,1,0.999951
0.8760150364720963,1,0.999661
0.9403106033722423,1,0.999504
0.7676529429509076,0,0.992536
0.8017800641515094,0,0.997178
0.9421972344908864,1,0.999952
0.9000129329694636,1,0.999942
0.9231827551462937,1,0.999621
0.9217378362300767,1,0.999798
0.816089802727059,0,0.996571
0.8865470073703771,1,0.999949
0.9444389513646293,0,0.997442
0.875394465258243,0,0.998353
0.8663106453824451,1,0.999675
0.8111694279686419,1,0.999102
0.901174402861965,1,0.999422
0.9364298958314513,0,0.891580
0.8796190264633086,1,0.999925
0.9028635248012519,1,0.999939
0.9156862063580141,0,0.999426
0.9651269539973963,1,0.999819
0.9606061870626871,1,0.999955
0.9425166212545625,0,0.976993
0.926366454317265,1,0.999931
0.9237820812853813,1,0.999271
0.9581250015768791,0,0.996926
0.9576631324180314,0,0.996748
0.8836249789019196,0,0.996382
0.9234562808465681,1,0.999848
0.9296703363465364,1,0.999842
0.9188943452349737,0,0.999198
0.9237934823089428,1,0.999913
0.9068462690557585,0,0.995777
0.9776215141949308,0,0.999182
0.9405751340851527,1,0.999944
0.9151362538905988,0,0.998996
0.8578865487496729,0,0.887236
0.7778487240861215,1,0.999941
0.7950019084130678,1,0.999741
0.939943407001639,0,0.894819
0.9127197025092888,1,0.998265
0.9670094950543816,1,0.998440
0.8902798189414936,1,0.996027
0.8230376682525462,0,0.872286
0.7055079193555818,0,0.991332
0.6717201766341434,1,0.998950
0.9290760013297895,1,0.999457
0.9460624648722672,0,0.878583
0.8854975050100198,1,0.999410
0.8997243401069969,0,0.994921
0.9468134642367422,1,0.999845
0.4347582940885217,1,0.999956
0.9566524303585345,1,0.999821
0.9546591753273153,0,0.929818
0.9557028889228719,1,0.999935
0.9241544526795791,1,0.999933
0.8994938142770023,1,0.999843
0.9043860206643919,0,0.996172
0.950306542746581,1,0.999927
0.9700929372434424,1,0.999933
0.9560313820259644,1,0.999688
0.9481982397565775,1,0.999766
0.9473748749770917,1,0.999763
0.9463942331111165,0,0.994669
0.9321719978381048,1,0.999913
0.9067190528552135,1,0.999236
0.8991522579549777,0,0.997680
0.960324092335682,1,0.999859
0.8974646526944532,1,0.999890
0.9304412592276796,1,0.999524
0.9062433828417455,0,0.998307
0.952768957079046,0,0.919921
0.8820626260531722,1,0.998414
0.9591927359906578,1,0.999701
0.9642480525871439,0,0.998804
0.9502533961459011,1,0.999827
0.9460618698391788,0,0.965857
0.9050544119636812,1,0.999869
0.9454932135494415,0,0.998703
0.9442408593782577,1,0.999934
0.8782656037904637,0,0.998479
0.9682979145194662,1,0.999954
0.9739523172835847,1,0.999949
0.8525703844130125,1,0.999708
0.9347530104706485,1,0.999520
0.970447309081385,1,0.999943
0.9490809977137045,1,0.999933
0.9574642425821052,1,0.999943
0.9505407946615971,1,0.999886
0.820973970928729,0,0.999075
0.8731544443266603,0,0.999309
0.980720150641455,1,0.999950
0.932196514461616,1,0.999937
0.9046898818472998,1,0.999943
0.9769869534090484,1,0.999960
0.9477156725527587,1,0.999918
0.9801422580848614,1,0.999798
0.9460269982327324,1,0.999950
0.9564644432665761,0,0.998780
0.9676558999178465,0,0.999331
0.9674215211463892,1,0.999857
0.6903863273089077,0,0.998163
0.9181530444607682,1,0.999846
0.9097606204582406,1,0.999655
0.8930137690611608,0,0.994643
0.9732034853780435,1,0.999832
0.9720387338663197,1,0.999705
0.9074081084477497,1,0.999650
0.9335836830085293,1,0.999851
0.952481099325373,1,0.999709
0.9728238262017156,1,0.999956
0.9571248924417577,0,0.999213
0.956643946709762,1,0.999729
0.9299280483063929,1,0.999910
0.9370948815026517,0,0.997677
0.8875128360885312,1,0.999375
0.9017197131771915,0,0.997150
0.8606908775594567,1,0.999850
0.9527337298534382,0,0.996329
0.9645327330637263,0,0.997805
0.9579490359470694,0,0.999043
0.9339855713456712,1,0.999799
0.9322592526272291,0,0.998820
0.9293064673793663,0,0.951900
0.9450700513645313,1,0.999792
0.9207753380920877,1,0.999174
0.9428796149242409,0,0.993912
0.9442530709183528,1,0.999131
0.9315318604688027,1,0.999958
0.9688466811155747,1,0.999933
0.9404660663693857,1,0.999912
0.9478563164894028,1,0.999913
0.90442374210369,1,0.999752
0.9754290052389256,1,0.999839
0.9237121457004327,1,0.999394
0.9150006914384627,0,0.969584
0.8631940622332858,1,0.999949
0.9677687546735539,0,0.831809
0.8637603722564742,1,0.999885
0.7467091633393182,1,0.999539
0.9290403443085645,1,0.999720
0.927620600361801,1,0.999941
0.9306251061584836,1,0.999910
0.9010548814607169,1,0.999911
0.8759114989763755,1,0.999595
0.9581915654803344,1,0.999955
0.9331860814732161,1,0.999844
0.8833168647872409,0,0.999277
0.9304133531002085,1,0.999654
0.9740100711222367,1,0.999895
0.8711321726953842,0,0.985284
0.9428681138842772,1,0.999320
0.9256876165320029,1,0.999885
0.9486431363494449,1,0.999830
0.9272625595255376,0,0.959432
0.9208638819780355,0,0.983679
0.9461956824602117,0,0.998090
0.9454882464659582,0,0.901420
0.9493611288353752,1,0.999825
0.8927488580812417,0,0.934559
0.9702206473223632,1,0.999716
0.9120726688523216,1,0.999922
0.952957258060833,1,0.999957
0.908971307964376,1,0.999887
0.9125956390090069,0,0.970791
0.9319802087698145,1,0.999704
0.9418759155662749,1,0.999659
0.9522431190055386,1,0.999725
0.9571811554947657,1,0.999610
0.9191419351073763,0,0.973627
0.9683440071208753,1,0.999364
0.925438464179644,1,0.999771
0.8883317562988529,0,0.997492
0.8801996383225593,1,0.999935
0.8978341947612705,1,0.999958
0.9310941890796989,0,0.990536
0.9314483434593162,1,0.999470
0.9497059841807892,1,0.999927
0.9385923784167813,0,0.896446
0.9634417600355649,1,0.999587
0.9743855983348884,1,0.999841
0.9200756208428569,1,0.999947
0.9627431882161545,1,0.999069
0.9559268730712766,0,0.999053
0.9706706494383717,0,0.976302
0.9483956105362059,1,0.999907
0.9210907946658036,1,0.999881
0.9368066659014868,0,0.998819
0.9210938233739542,0,0.986791
0.9406721008666392,1,0.999874
0.9496714173906513,1,0.999948
0.9575344288712205,1,0.999948
0.8279017011815908,0,0.998349
0.9242226385180167,0,0.956609
0.9352743147647821,0,0.992634
0.9527003560925774,0,0.856804
0.9487349111531002,1,0.999747
0.9369654474557231,0,0.995917
0.9111543431416635,1,0.999750
0.9252356308774234,1,0.999784
0.8423029824349157,0,0.988909
0.8914467440935142,1,0.999879
0.9286032093640514,0,0.997767
0.9399404037988087,1,0.999860
0.9239656515670701,1,0.999892
0.9236803477243473,1,0.999783
0.7476585318112696,0,0.995596
0.9074506749981303,1,0.999782
0.9086972921562306,1,0.999768
0.9656274256764253,1,0.999847
0.8993786028536361,1,0.999733
0.959114613141375,0,0.997599
0.9330293469767711,0,0.995840
0.9036433119651679,1,0.999759
0.9549919877670564,0,0.986642
0.8531741408656361,1,0.998306
0.8740605016887385,0,0.998074
0.8528487505193685,0,0.999238
0.9341851528559517,1,0.999794
0.8570824204558933,1,0.999898
0.8328313181553966,1,0.999472
0.8659548493267477,1,0.999870
0.9426756018277385,1,0.999958
0.9693412527719287,0,0.999536
0.9816334177428759,1,0.999691
0.9651903554862415,1,0.999885
0.9102134697344864,1,0.999861
0.9000373889657919,1,0.999425
0.9442387945774733,0,0.898518
0.9469847157434084,1,0.999797
0.9301073136655786,1,0.999935
0.9565687569591997,0,0.998660
0.9208887743869213,1,0.999906
0.9584302688111969,0,0.923451
0.9737166760248798,1,0.999551
0.9787053147931453,1,0.999910
0.9635798743240346,1,0.999923
0.9343290992954975,0,0.990870
0.9717488550191707,1,0.999900
0.9651008440774884,1,0.999579
0.9056854159143167,1,0.999853
0.958928444892278,1,0.999953
0.9358942575211866,1,0.999706
0.9555369964940562,1,0.999801
0.947238784127365,1,0.999920
0.960675025016301,1,0.999873
0.9347485835385155,1,0.999515
0.9743769929955423,1,0.999885
0.9466399292064737,1,0.999824
0.9613508082860447,0,0.984640
0.9360283695456111,0,0.997795
0.9705460645525943,1,0.999909
0.972717538023846,1,0.999906
0.938432441891527,0,0.995135
0.8992969802019016,1,0.999674
0.9404585370521533,1,0.999949
0.9682054673792068,1,0.999951
0.9565681740146934,1,0.999816
0.8764543941243962,1,0.998707
0.9499880438504998,0,0.996725
0.9322741475793501,1,0.999168
0.9545925476009296,1,0.999817
0.8639116888456283,1,0.999249
0.869100822933265,0,0.998836
0.9341830992363457,1,0.999850
0.9221220365048006,1,0.999737
0.963493068247384,1,0.999773
0.9436827612665769,1,0.999933
0.9202391698815741,1,0.999576
0.9745235977839365,0,0.995529
0.9290828955400414,0,0.856624
0.9507290182774207,1,0.999954
0.9283558151546301,0,0.972383
0.9386845035715004,1,0.999293
0.8946586845986003,0,0.999159
0.919660091242453,0,0.998401
0.8517936315055018,0,0.995759
0.8310115056271713,0,0.977818
0.8690141687920951,1,0.999648
0.9739579549751661,1,0.999917
0.9158573616238723,1,0.999911
0.8390419995336214,1,0.999869
0.8438144621048237,0,0.998627
0.8990573433665909,1,0.999738
0.9625277557735773,0,0.997766
0.8796559637929121,1,0.999309
0.9864582351783451,0,0.998774
0.9067595855319832,1,0.999591
0.9182541643375757,1,0.999824
0.961682183006199,1,0.999959
0.9441931454350975,1,0.999891
0.9806463646946522,1,0.999954
0.8757103529892185,0,0.996697
0.9414251244967686,1,0.999448
0.8340571690704643,1,0.999971
0.935346315534535,0,0.987936
0.9108954927428784,0,0.977317
0.8175624861244885,1,0.999820
0.7888806235620537,0,0.995684
0.8472665510015444,0,0.995475
0.9478889389908475,1,0.998949
0.9407564099329768,1,0.999691
0.9331189336182505,1,0.999684
0.8495829017736096,0,0.980571
0.8471102621079638,1,0.999458
0.8621915059358849,0,0.985846
0.939065452020672,0,0.995004
0.8864894290440347,1,0.999926
0.8652985508161563,1,0.999917
0.9140588020595358,0,0.994373
0.8578652078208916,0,0.995261
0.7929912245670334,0,0.983991
0.9129639875357473,1,0.999843
0.8428679915925557,0,0.964527
0.9526996753965509,0,0.992599
0.9233189176239688,0,0.985129
0.9478552603375477,1,0.999728
0.925036328327767,0,0.956046
0.9032499013512055,0,0.962240
0.91070223871605,1,0.999757
0.900836442006734,0,0.969668
0.9175297556633353,1,0.999669
0.8874434638999239,1,0.999840
0.9490491171139621,0,0.978720
0.9564341658160139,1,0.999858
0.9302095923083463,1,0.999849
0.9671866456402243,1,0.999926
0.9495628437449973,1,0.999867
0.9241112602148075,0,0.997792
0.8736523094090726,1,0.999890
0.9348135660592576,1,0.999717
0.853667425812796,0,0.991962
0.9658273427643818,1,0.999817
0.8636650517119253,0,0.915657
0.9333123286813518,1,0.999838
0.9180989382420343,1,0.999926
0.9408472133172366,1,0.999691
0.9423630862411619,0,0.995963
0.9381100910420376,1,0.998618
0.9430338416178962,1,0.999910
0.871044319479122,1,0.999767
0.8747168401537065,1,0.999613
0.8965820459020729,1,0.999699
0.8861510221162688,0,0.998312
0.8827125573444686,0,0.973811
0.7876574414968145,0,0.979438
0.8037920202257622,0,0.976586
0.8931232904488152,1,0.999946
0.9390570334407888,0,0.976567
0.9594250628809675,1,0.999927
0.8897910642298765,1,0.999378
0.9050086704009555,1,0.999371
0.8806959349165305,1,0.999732
0.9608167285327107,0,0.999132
0.9017133520177483,0,0.967632
0.9394804891852665,1,0.999845
0.9651507320854151,1,0.999934
0.9610796843172955,1,0.999935
0.9634717154061253,0,0.992624
0.9268404700821796,1,0.999748
0.9612597328769314,1,0.999885
0.9259746984911703,0,0.980371
0.931800738297467,1,0.999767
0.9582726596523146,1,0.999884
0.9398923730748306,1,0.999939
0.9493194276756204,1,0.999947
0.9454541810326927,1,0.999957
0.9807449113836613,0,0.979455
0.9418173251954988,0,0.990770
0.8818007735871388,0,0.967828
0.969219190314571,1,0.999954
0.9438225443135496,0,0.992667
0.9509127938250964,1,0.999958
0.9662882461231478,1,0.999664
0.9717479912905169,1,0.999960
0.856835624594733,1,0.999932
0.9224264292022163,1,0.999614
0.9419443512900996,0,0.996737
0.9810279183972521,1,0.999754
0.9826673912730622,1,0.999893
0.9913537897277251,1,0.999854
0.9412615123639811,0,0.998092
0.9257322011517196,0,0.999201
0.8926275025388646,0,0.999019
0.9597503429599986,1,0.999694
0.944219300312615,1,0.999798
0.9532821396642089,1,0.999707
0.9589670998276372,1,0.999780
0.9433901268455086,1,0.999860
0.9383089186921229,1,0.999948
0.9638158237656029,1,0.999913
0.9742681408031906,1,0.999955
0.9707488625988312,1,0.999855
0.9687126777255064,1,0.999903
0.9818230675750822,1,0.999956
0.9613082001943744,0,0.996639
0.9062326683687529,1,0.999648
0.9198345304456931,0,0.966970
0.9317733645595688,0,0.993427
0.9274298068680658,1,0.998941
0.9220090658980292,1,0.999909
0.9650820046839642,1,0.999804
0.9400903461204677,1,0.999865
0.9461404475271104,1,0.999915
0.966986451387098,1,0.999128
0.8878255722044357,1,0.999272
0.9228789941873687,1,0.999283
0.9397927008062492,0,0.995837
0.9000713687692588,0,0.964444
0.877097667785103,0,0.997447
0.8930163564670366,1,0.999551
0.8546816835532669,1,0.999745
0.9282184567753088,1,0.999878
0.9429464415646317,1,0.999936
0.9279418389469754,1,0.999940
0.926782553314134,1,0.999782
0.8796840097422804,1,0.999877
0.9283110158676533,1,0.999799
0.9446409620812878,1,0.999477
0.92902895149459,1,0.999647
0.9584942466965417,0,0.985347
0.9341251536558106,1,0.999757
0.8532328350569541,1,0.999920
0.9215220334233165,1,0.999553
0.9311247848920784,1,0.999946
0.8661570902001865,1,0.999838
0.9347555898964376,1,0.999856
0.9381607743551946,1,0.999763
0.8607347356652845,1,0.999942
0.9590454686271236,1,0.999942
0.9566439862992125,1,0.999833
0.9439525482960903,1,0.999937
0.9288837947987779,1,0.999953
0.8475565488311306,0,0.999192
0.942006596430291,1,0.999861
0.9546432738234035,1,0.999896
0.9288737259896784,1,0.999916
0.8981163708928129,1,0.999854
0.9449237454816911,0,0.999075
0.9288852118796124,0,0.998095
0.9345064539753073,1,0.999737
0.93814173004859,0,0.970514
0.9370809477048163,1,0.999948
0.8951120450123131,1,0.999943
0.9572511056676012,1,0.999950
0.9022589853255911,1,0.999945
0.9443512467245232,1,0.999753
0.9353104478279061,1,0.999951
0.9134746459123693,1,0.999954
0.9308119184929847,1,0.999912
0.9129515116542903,1,0.999954
0.908893481601703,1,0.999632
0.9548825434490795,0,0.998478
0.8811657991411538,1,0.999786
0.8884249389572609,1,0.999949
0.9152250708343252,1,0.999952
0.9164751637582317,0,0.996866
0.8902161598059687,1,0.999944
0.9368355753288422,1,0.999773
0.9439725717984029,1,0.999952
0.9408597418572994,1,0.999891
0.8382128321468452,1,0.999592
0.9222534046644628,1,0.999787
0.9313477281030521,1,0.999896
0.9204378692847014,0,0.998195
0.9177880650784277,0,0.994830
0.9414257850436654,1,0.999957
0.934965410841914,1,0.999637
0.9451885318326925,1,0.999951
0.926401596739903,1,0.999767
0.9053449543728316,1,0.999679
0.8873115336440138,0,0.989183
0.9295727305317253,1,0.999944
0.8542393052427607,1,0.999885
0.9429491793416952,1,0.999954
0.8513156221229409,1,0.999801
0.7534028484123011,0,0.995131
0.9587528057884914,0,0.993868
0.8998155329859849,1,0.999750
0.89905071366884,0,0.986934
0.8374391534925922,0,0.975951
0.9416835737029311,0,0.969373
0.9318387681392176,0,0.998950
0.916908890107439,0,0.996650
0.9072774626905847,1,0.999939
0.9145119059113062,0,0.999135
0.9343743282203343,1,0.999940
0.9174389769052574,1,0.999802
0.9070945830569269,1,0.999789
0.9077017945713546,0,0.998274
0.9100789949498862,0,0.996658
0.8724979942759227,1,0.999700
0.9303263832798789,1,0.999784
0.9166508484246265,1,0.999790
0.9328514449123303,1,0.999828
0.8977198181932557,1,0.999941
0.9006615710318706,0,0.997779
0.9000299052274671,0,0.982350
0.9283077226280643,1,0.999638
0.8966123195275641,0,0.999113
0.9284688704336836,1,0.999942
0.9511618503897182,1,0.999941
0.9396172502733,0,0.994356
0.8834520965782525,0,0.999246
0.9558099568558861,1,0.999903
0.9335678346474089,1,0.999889
0.9490352558721513,1,0.999788
0.9562861850777861,1,0.999807
0.946630919556238,1,0.999947
0.9502662888669163,1,0.999884
0.9576294741800981,1,0.999948
0.9328533682804742,1,0.999947
0.9021514283522439,0,0.986235
0.9356839634383143,0,0.997482
0.8894330643602821,0,0.996819
0.9253477985127025,1,0.999638
0.8740564821186201,0,0.997159
0.8829406576942087,1,0.999709
0.9384020542477635,1,0.999943
0.8747391137901758,1,0.999944
0.9194651253720009,1,0.999950
0.9159922356537099,0,0.999314
0.9368557980050967,0,0.997523
0.8577780352219723,1,0.999538
0.9876352521003503,1,0.999960
0.8840120500763431,1,0.999953
0.9574813860900163,1,0.999916
0.9646465181764482,1,0.999960
0.8867834638458495,1,0.999702
0.9694210983260738,1,0.999825
0.9374621692376836,0,0.969623
0.8758258884206723,1,0.999933
0.9048621161036957,0,0.977573
0.8919430208872862,1,0.999906
0.9575139746887135,0,0.998727
0.9324730661277851,0,0.987876
0.969236752641997,1,0.999860
0.8769970544301049,0,0.998753
0.9644234133315905,1,0.999957
0.9419221751446186,0,0.999395
0.9205725572184504,0,0.999435
0.9845324705095988,0,0.981325
0.937760733781279,1,0.999898
0.9240315399708354,1,0.999953
0.9533013337959702,1,0.999953
0.9345902488114376,0,0.992049
0.9430533047453401,1,0.999797
0.9497722649522816,0,0.980054
0.9413212057452519,1,0.999953
0.8969502419849077,0,0.999226
0.986688076603998,1,0.999822
0.945009508798728,0,0.976606
0.9660207057352069,1,0.999705
0.9387743328636009,1,0.999874
0.9013374762396501,0,0.958121
0.9496671658534226,0,0.991942
0.9440341390731095,1,0.999949
0.9537899077201455,1,0.999727
0.968647251008733,1,0.999935
0.872468289117233,1,0.999630
0.9169882754458164,1,0.999704
0.9300162199272805,1,0.999597
0.9574120967256228,0,0.999494
0.9402664797134442,0,0.998719
0.9735043018188737,1,0.999578
0.9687101781476849,1,0.999623
0.9385333445806033,1,0.999871
0.94165151853976,1,0.999912
0.9563315153491013,0,0.978606
0.9433513743274576,0,0.982398
0.974781201360997,0,0.998522
0.9601049360014805,1,0.999725
0.9510055875330589,1,0.999856
0.9555710861261595,0,0.998759
0.8885629283306338,0,0.991947
0.9483046845952785,0,0.990882
0.9582314190721926,1,0.999943
0.9506276124166628,1,0.999916
0.924852114221105,1,0.999786
0.9427525019356012,1,0.999947
0.9536874952149127,1,0.999727
0.9558704467020525,1,0.999909
0.9755718735909475,0,0.999404
0.9256806696539429,1,0.999751
0.9235093268057362,1,0.999855
0.955410758892998,1,0.999933
0.9267599539557653,1,0.999950
0.9196945048020781,0,0.982919
0.8762613404887405,1,0.999486
0.9347717458771325,1,0.999950
0.942148045400995,1,0.999952
0.9308439625205822,1,0.999907
0.9257866155590845,1,0.999949
0.91892329737214,0,0.992456
0.9002394301141196,1,0.999862
0.9273539530124401,0,0.965140
0.9593830904723041,1,0.999957
0.8533220054445251,1,0.999633
0.8872770710341185,0,0.990595
0.9242346721651129,1,0.999823
0.9498506854039055,1,0.999827
0.9723458737443567,0,0.990251
0.9347249469338818,1,0.999954
0.8579549768065885,0,0.997240
0.9074358626309253,1,0.999938
0.8601924435335758,1,0.999896
0.878473510441143,0,0.994211
0.9399326963141129,0,0.997366
0.8759423322633509,0,0.998594
0.9098334762621312,1,0.999908
0.9487962592735506,1,0.999563
0.9243541511096541,1,0.999953
0.9029916162450848,0,0.998917
0.8849354122276697,1,0.999947
0.9609242103692369,0,0.996458
0.9126985824580304,1,0.999833
0.9636473160088687,0,0.999427
0.9609029530622536,1,0.999948
0.9183251895242578,0,0.974896
0.9536530098192804,0,0.991483
0.9156842510651482,1,0.999954
0.9541741580063797,1,0.999954
0.9344642078490736,1,0.999791
0.9542559030460642,0,0.997109
0.9097871830166832,1,0.999946
0.9656434834112514,0,0.995126
0.9463278950416304,1,0.999944
0.9114252310653747,1,0.999952
0.945528068409689,1,0.999856
0.9424090068799582,1,0.999531
0.9351923785102682,1,0.999927
0.951170113149775,1,0.999950
0.9470718247542318,0,0.995747
0.9522386948712545,1,0.999913
0.9306810743025875,1,0.999887
0.9148848241945418,0,0.976744
0.9444170266101576,1,0.999576
0.9486425582913135,0,0.998625
0.9185812327167321,1,0.999957
0.9726442995874393,1,0.999703
0.9345032620020008,1,0.999952
0.9379993004411071,1,0.999910
0.972885245411948,1,0.999955
0.9285034383558347,1,0.999948
0.9379382065441935,1,0.999680
0.9127324440245917,0,0.998966
0.909452416861111,1,0.999750
0.9740697394082606,1,0.999876
0.8665653313623312,0,0.997082
0.9402636074334989,1,0.999955
0.9006416924462621,1,0.999722
0.9188824161367323,1,0.999949
0.9660441040910428,1,0.999953
0.9616218910259808,1,0.999512
0.9429627427293701,1,0.999938
0.9430462497881621,0,0.998492
0.935865127912165,1,0.999541
0.9218267926319512,0,0.999259
0.9011876525070914,0,0.997477
0.9326708194486496,1,0.999829
0.9541492510021388,1,0.999943
0.9487057633489199,1,0.999850
0.9668925269588389,1,0.999943
0.9263607808838968,1,0.999828
0.9300746705235341,0,0.997587
0.9260418903061329,1,0.999596
0.8867787802213708,1,0.999949
0.9575091743598668,1,0.999863
0.9254261613098341,1,0.999950
0.9061259890178687,1,0.999705
0.9582026210520986,1,0.999809
0.9526214950008549,0,0.995178
0.946003306685778,1,0.999451
0.9548170982589178,0,0.999193
0.9481485189875237,0,0.999428
0.9450528514470103,1,0.999813
0.867297267735124,0,0.999208
0.9426270743709313,1,0.999943
0.9457856160886131,0,0.999427
0.9729421091626727,1,0.999835
0.9593741850729028,1,0.999939
0.9718731659631656,0,0.983881
0.9654624107498073,1,0.999913
0.9665860972462913,0,0.989399
0.9779265780108085,1,0.999701
0.955134422315895,1,0.999905
0.9084753062350659,1,0.999947
0.9349890647027319,1,0.999619
0.9590136389226877,1,0.999882
0.9647782606709405,1,0.999949
0.9582580038052919,1,0.999950
0.9741016428583757,0,0.995883
0.9658210047697462,1,0.999739
0.971479942286328,0,0.999159
0.9616496971518229,1,0.999950
0.9545830829760079,1,0.999953
0.935969951297501,1,0.999955
0.9623961459639663,1,0.999855
0.9664904282367545,1,0.999952
0.956217994287125,0,0.985788
0.9542073316399893,1,0.999920
0.9103839484570556,0,0.997851
0.9366612827978194,1,0.999948
0.9532412929710045,0,0.995952
0.9659754216210095,1,0.999859
0.9460776998970852,0,0.969486
0.9690030957496265,1,0.999854
0.9340383890524494,0,0.994857
0.952406977940385,0,0.995245
0.9337940782767848,1,0.999956
0.8979953422539514,1,0.999890
0.9800667233102239,1,0.999953
0.9270444351998439,1,0.999955
0.966642084710667,1,0.999584
0.9476659830480395,1,0.999910
0.9409164568996053,1,0.999955
0.9583195583849934,1,0.999948
0.937437265420337,1,0.999796
0.8897426899792097,1,0.999856
0.9543379643315175,0,0.970692
0.9285006275573393,1,0.999876
0.9761328080576497,1,0.999955
0.9356818822489539,1,0.999955
0.9783086004854399,1,0.999953
0.9486490644992738,0,0.993089
0.933638346519,1,0.999953
0.9628119581037671,1,0.999927
0.9114379176890878,1,0.999844
0.9212192546989331,0,0.989169
0.9216158475696822,1,0.999956
0.9373388480036942,0,0.981570
0.9338764029070181,0,0.977687
0.893167533596984,1,0.999954
0.9234402919728293,1,0.999848
0.843423204439277,1,0.999931
0.9244015078533052,1,0.999865
0.9139537903376662,0,0.990118
0.8649197966331591,1,0.999950
0.9245940000956959,1,0.999896
0.9651283286862726,1,0.999862
0.9214564360679962,0,0.978038
0.922565937446214,1,0.999943
0.9344191649507135,1,0.999707
0.8934132461954513,0,0.997256
0.8495142805809934,1,0.999766
0.7866579199638524,0,0.993656
0.9229974410262323,1,0.999896
0.8688787628770926,0,0.998418
0.9145534176811169,1,0.999939
0.9329238775135924,1,0.999739
0.932063973452972,1,0.999878
0.8965083191161787,1,0.999773
0.9554448607405484,0,0.988047
0.9595425467322377,1,0.999947
0.8843178151501095,1,0.999713
0.8909612092023288,1,0.999668
0.8832016618662083,1,0.999554
0.8827137624425841,1,0.999430
0.9438981105427282,1,0.999368
0.809100776543205,0,0.996458
0.8058250522185241,0,0.995978
0.9027516897197397,0,0.999240
0.8377766003472477,1,0.999268
0.942952318766488,1,0.999938
0.8273929575881889,1,0.999942
0.8919848534456476,1,0.999943
0.920673602175043,1,0.999545
0.8213293893102239,1,0.999785
0.9439811767581758,1,0.999948
0.9378945721664844,1,0.999947
0.9433544371415763,0,0.999215
0.9090150035252673,1,0.999939
0.8771741916411355,0,0.983374
0.908951121647941,1,0.999950
0.9180109004665991,1,0.999945
0.9152577536492082,1,0.999950
0.9667858442304236,1,0.999177
0.9493138276038134,1,0.999913
0.9494009582929015,1,0.999895
0.9476015872295749,0,0.998233
0.9227814784092738,1,0.999766
0.9178827713159629,0,0.986461
0.7657878552751171,0,0.997875
0.9457788272144632,0,0.992046
0.943481833339694,1,0.999647
0.9436571381533064,0,0.972638
0.9345655176878579,1,0.999955
0.9226417504309399,0,0.983765
0.9553520467452083,1,0.999631
0.955442547646996,1,0.999911
0.972238384194574,0,0.999028
0.8817686193639545,0,0.997911
0.9447357364569055,1,0.999947
0.973373305269194,1,0.999729
0.9545352348733371,1,0.999955
0.8722490236604494,1,0.999833
0.9293279765909048,1,0.999948
0.8665551474928005,1,0.999850
0.9082804524791972,1,0.999847
0.957893238293,1,0.999828
0.8774671469983947,1,0.999410
0.8788996815286948,0,0.999387
0.9469276352187488,1,0.999953
0.9767000241609204,0,0.961572
0.9026719014188683,0,0.991109
0.9062427900098433,0,0.968457
0.9214564102578637,1,0.999953
0.9329844329348358,1,0.999956
0.9382958610791593,1,0.999952
0.9328625614190268,1,0.999952
0.9765620161903517,1,0.999857
0.9278247849875693,1,0.999801
0.9477812396863688,0,0.986779
0.9046055293344228,1,0.999876
0.9708355492528815,1,0.999778
0.9218280291898243,1,0.999950
0.9706954513972813,1,0.999953
0.9060141704699903,1,0.999487
0.9439205335868736,1,0.999887
0.8225041700345663,0,0.962000
0.8924031754782715,0,0.958803
0.7835327126299605,0,0.995410
0.9123349646686904,0,0.965058
0.8903051015828503,0,0.956549
0.9425315087024176,1,0.999954
0.866535961541254,1,0.999713
0.9322460714408876,0,0.988963
0.9562799806492859,1,0.999925
0.946677199439745,1,0.999946
0.9525841187339648,0,0.983280
0.8770785652468615,1,0.999800
0.9494245449131072,0,0.996990
0.96401688837874,1,0.999944
0.966801016794307,0,0.998983
0.8867854765735371,1,0.999854
0.9165739424040892,1,0.999336
0.9455632770037062,1,0.999895
0.8804685745158389,0,0.997568
0.9620891016182088,0,0.999364
0.9115601736098036,1,0.999829
0.9193981118410269,1,0.999805
0.9459980924820041,1,0.999952
0.9076180729340492,1,0.999955
0.9184089316884269,1,0.999800
0.8854244012486837,0,0.998842
0.9482363926269759,1,0.999911
0.9199465185381465,0,0.999372
0.9454058841553776,1,0.999954
0.9416382369298927,0,0.999318
0.9583380359125626,1,0.999953
0.9126582328452892,1,0.999746
0.926657114191211,0,0.990970
0.9398883924872596,1,0.999904
0.8831645600985255,1,0.999892
0.9356039011447381,1,0.999807
0.9475753498194769,1,0.999840
0.8928580016655508,1,0.999946
0.9057402416752407,1,0.999953
0.8961626853659015,1,0.999947
0.8895970481439076,1,0.999558
0.9262844866305032,1,0.999942
0.9509253120690144,0,0.999276
0.8997738074144543,1,0.999946
0.9069688102852643,1,0.999952
0.9225698610835767,1,0.999947
0.8805179049240072,0,0.997396
0.9372300466473674,1,0.999952
0.9284702727619714,1,0.999907
0.9358991692992319,1,0.999898
0.8837824847253135,1,0.999823
0.8993784106851732,1,0.999859
0.9391790739187692,1,0.999895
0.9290494741743812,0,0.998958
0.9290405782645235,0,0.999474
0.9521631926295997,1,0.999777
0.9326719537017052,1,0.999941
0.9368789388375176,0,0.998525
0.9436992761044345,0,0.998219
0.92589827380946,1,0.999895
0.9766947449928689,1,0.999723
0.9516770470657459,1,0.999786
0.7943069755918261,1,0.998686
0.9833645031674605,1,0.998243
0.9910151742881926,0,0.979971
0.9930091549815043,1,0.999580
0.9460640936762836,1,0.999906
0.9404293888634807,0,0.999490
0.9672167315248658,0,0.996679
0.983820918599647,0,0.959587
0.9373421586812956,1,0.999797
0.9607803945140513,1,0.999184
0.9713874402081056,1,0.998924
0.9176188062587967,1,0.999355
0.9228703219649885,1,0.999533
0.9038387662984237,1,0.999631
0.9682982874687822,1,0.999869
0.9669824889366321,1,0.999756
0.9082078377035863,1,0.999126
0.9204760536156786,0,0.996636
0.9779114668223061,1,0.999902
0.9618452919091801,1,0.999317
0.9776112418832145,1,0.998016
0.9455191928339269,0,0.976591
0.9452315794868776,0,0.997672
0.9489290315585079,1,0.997712
0.9706615166932998,1,0.999494
0.9466230383091125,0,0.873102
0.979297359442114,0,0.928745
0.9775365784433301,1,0.999736
0.9748298305971532,1,0.999787
0.9215660629866522,1,0.997537
0.9574839389285669,1,0.999954
0.9574278042334329,1,0.999763
0.9637950891104375,0,0.996274
0.9567271902360527,0,0.995726
0.9462829362120884,1,0.999763
0.9461757741861224,0,0.996777
0.9667018974321989,1,0.999840
0.9611551310087001,0,0.973854
0.9717308908904617,0,0.855190
0.9349036571330718,0,0.998515
0.9489265190263331,1,0.999640
0.9721028905872371,0,0.937183
0.9118127151692371,0,0.884058
0.9538440684356269,1,0.999654
0.94698937201672,0,0.886163
0.9348881553673808,0,0.896791
0.9666999776586656,1,0.999581
0.9700967772525608,0,0.993760
0.968659459291019,0,0.996338
0.9709675249804166,1,0.999871
0.9656515211185249,0,0.988970
0.9656040273850347,1,0.999953
0.9655577215776178,0,0.998096
0.965500837003501,0,0.982664
0.9024731075240903,1,0.999916
0.9119674433560814,0,0.918226
0.9274364584618737,0,0.995000
0.9216563152488481,0,0.999268
0.932638903113844,0,0.994646
0.9081541169885531,1,0.999644
0.9005730369224294,1,0.999479
0.9125285921524451,1,0.999971
0.971836986409041,0,0.996656
0.9776015014207006,0,0.959195
0.9183440129180974,0,0.991470
0.9621511519843923,1,0.999776
0.9611800741285997,1,0.999823
0.961153412626301,0,0.996988
0.9676022216222857,1,0.999904
0.9487764296559056,0,0.996490
0.9588265660909844,1,0.999230
0.9509505849523088,1,0.999943
0.9767703792013964,0,0.999125
0.9840020425610989,0,0.996915
0.9387851712790793,1,0.999683
0.9529639468315447,0,0.998481
0.9602888779419656,0,0.977435
0.9598426957597601,0,0.995088
0.9598362159312076,1,0.995872
0.9470499118505579,0,0.969922
0.9320343548557982,1,0.994611
0.9207012244005072,0,0.992743
0.9496652700861045,0,0.994382
0.9128794852051175,0,0.978515
0.9375963510352104,1,0.999774
0.9530292087497293,0,0.988924
0.9575750200929218,0,0.939071
0.9308556114720411,0,0.889980
0.9420501379528969,0,0.991193
0.9471111327269268,1,0.999611
0.9216772052291167,0,0.934074
0.9173431026626802,0,0.990265
0.9350872445502655,0,0.920179
0.8375792246973764,0,0.993538
0.932106938905099,1,0.999668
0.9499553276341888,0,0.935127
0.9853412655669064,1,0.999820
0.9687838654683333,0,0.997568
0.9236264199524798,0,0.977299
0.9368038238271518,1,0.999867
0.9495790495003704,0,0.983007
0.9191158533898515,0,0.995585
0.9332943794717609,0,0.958027
0.9392751817852809,0,0.998590
0.9022990822544,1,0.999733
0.9466911837157068,0,0.885705
0.9395930108953315,1,0.999967
0.9538400903888765,1,0.999700
0.9836731287176793,0,0.887566
0.9441275134037147,0,0.906646
0.979912781800086,1,0.999943
0.9634733716284812,1,0.999470
0.8966752468965735,1,0.999812
0.8841544382762894,1,0.998846
0.9332717593339066,0,0.915562
0.952329804807635,1,0.999731
0.9551850723652036,0,0.906310
0.9145401765940148,0,0.996341
0.9750721200075304,1,0.999655
0.952308109308904,1,0.999969
0.9905127601717557,1,0.999766
0.9673318123938236,0,0.982770
0.8826829433863383,0,0.985507
0.9630126144606928,1,0.999909
0.957800687664375,1,0.999745
0.9413056608305143,0,0.951335
0.8971496992607236,1,0.999963
0.933404787512531,1,0.999970
0.9898047627632344,0,0.993833
0.895472001186015,0,0.916090
0.9750099774160741,1,0.999934
0.9504095914131742,0,0.986819
0.9650459742205353,0,0.997843
0.8752552943610772,1,0.999964
0.961129001216139,0,0.999341
0.9798634834764988,0,0.913987
0.9823025968684332,1,0.999971
0.9468802182514603,1,0.999653
0.9850889027533589,0,0.885801
0.9474398337578913,1,0.999767
0.928247191580731,1,0.999215
0.969823331507309,1,0.999970
0.9563300378726896,1,0.999834
0.9685251767830366,0,0.996828
0.9411486562457879,1,0.999925
0.956006869510884,1,0.999386
0.973976863746948,0,0.999107
0.9632075423352332,0,0.996016
0.9853348397077523,0,0.997798
0.9807772072551972,0,0.996573
0.9728083377869339,0,0.999447
0.9585350058022559,1,0.999963
0.9268164416463232,1,0.999098
0.9226104609693085,0,0.998258
0.9872245435538501,0,0.994559
0.9727970637326958,1,0.999616
0.9879946866631765,1,0.999901
0.9888344990047986,1,0.999813
0.9857043465178789,1,0.999938
0.9853816702439744,0,0.999300
0.9709635723343164,1,0.999861
0.9821186730916307,0,0.998986
0.9731678425107815,1,0.999449
0.9450856803645177,1,0.999772
0.9930648009339963,0,0.992955
0.9929450062369893,1,0.999953
0.9914063104411508,0,0.997507
0.9896824891132444,0,0.993913
0.9751299173994684,0,0.992073
0.9715997547061119,0,0.998184
0.9653963259985296,1,0.999257
0.5769216086389032,1,0.999461
0.9741653232265017,0,0.913392
0.9636225596097193,1,0.999844
0.9896489591665939,1,0.999941
0.9863895147164836,0,0.860192
0.9592536559501315,1,0.999777
0.9559279121369921,1,0.998075
0.9124892121474515,0,0.943569
0.9636945252260173,1,0.999613
0.9738479067665633,1,0.999855
0.964643912650774,1,0.999292
0.9709674108404043,1,0.999516
0.9795704783390913,1,0.999757
0.9788130809137211,1,0.999891
0.9814820768021377,1,0.999259
0.930286107979494,0,0.992812
0.9293670769288567,0,0.997963
0.9549170343082126,1,0.999913
0.9416424552314281,0,0.958056
0.9135882353441509,1,0.999366
0.936621288165665,1,0.998245
0.9740482666947916,1,0.999746
0.9770981953488048,1,0.999688
0.9702879960943096,1,0.999964
0.9707022033101727,0,0.827966
0.9706123133507846,1,0.999595
0.9567015463175774,0,0.998503
0.9425661980573783,0,0.998339
0.9424021443829261,0,0.997573
0.9396180133523168,1,0.997572
0.964144473210951,1,0.999805
0.9710322231144919,0,0.995905
0.9447430145583676,1,0.999840
0.9545658448377805,0,0.882295
0.9573691643476414,0,0.996509
0.9819500899983286,1,0.999841
0.9779557542697835,1,0.999846
0.9533802150800487,0,0.928545
0.9316842357022521,0,0.998479
0.935193982912284,1,0.999470
0.9351490886828481,1,0.999765
0.9510742383562582,1,0.999469
0.9749569411875768,0,0.838314
0.9748307159033509,0,0.994469
0.9324680238282596,1,0.999495
0.8996845891096087,0,0.985840
0.9477098444098997,1,0.999764
0.9563096482554047,1,0.999810
0.9588594168277113,1,0.999616
0.9552133778964588,0,0.982938
0.9607351672174816,1,0.999922
0.9544128037372462,0,0.902017
0.9566867810657681,0,0.951012
0.9850751778411393,0,0.930197
0.9730436886019453,1,0.999524
0.9604808958352582,0,0.981669
0.9580856675240023,1,0.999797
0.9722370622322067,0,0.998439
0.9463244940895332,1,0.999793
0.976900345276939,1,0.999891
0.9824207585695801,1,0.999293
0.9722032023079927,0,0.926215
0.9735961996424218,1,0.999545
0.951253051602416,1,0.999902
0.9786223502033016,1,0.999042
0.9670388203619065,0,0.998903
0.980683207430323,1,0.999868
0.9483189205463429,1,0.999718
0.9603749457238542,1,0.999918
0.9726464240561966,0,0.896146
0.9718104935329215,1,0.999213
0.9820050646210648,0,0.904299
0.969151229693035,1,0.999458
0.9505015637824508,0,0.996772
0.9705610918997555,1,0.999462
0.9427056585755171,1,0.999969
0.9162903645039607,1,0.999775
0.9298795842207381,1,0.999897
0.9384036459167374,0,0.992537
0.9424529810705748,1,0.999651
0.9476235701760581,0,0.985458
0.9559184430202349,1,0.999754
0.9409700752318066,1,0.999746
0.9595546018339082,1,0.999088
0.9391188828155128,1,0.999829
0.9674303438132611,1,0.999946
0.9876662078738877,0,0.876217
0.9600345184287579,0,0.949078
0.9701069223776357,0,0.988714
0.9672570656221141,1,0.999066
0.9572526524748834,0,0.994657
0.9445216068919495,0,0.997229
0.9443263228503375,1,0.999849
0.9459987178797271,1,0.999348
0.9549430041632897,1,0.999964
0.9878747830103962,0,0.801157
0.8857287441553163,1,0.999969
0.9189868044954563,0,0.906963
0.9323975410443532,0,0.993133
0.9391674487193331,1,0.999876
0.970080279225655,1,0.999903
0.9567709862669941,1,0.999966
0.9414207164701782,0,0.979869
0.9356627955806632,0,0.998943
0.8280354819077532,0,0.996987
0.8837725523077105,0,0.996917
0.8999234870685904,1,0.998810
0.9247958679900505,0,0.992762
0.9369871580338647,1,0.999836
0.9586327160580707,1,0.998973
0.9400734559259167,0,0.980447
0.9349200215810439,0,0.987611
0.9265920640781921,1,0.999559
0.9787559981983517,0,0.998859
0.9620052550362751,0,0.995716
0.9378122511981969,1,0.998780
0.9428350763038963,1,0.999820
0.9141579896700794,1,0.999245
0.9250264618693803,1,0.998545
0.9282051117037928,0,0.994245
0.928158463652313,0,0.970306
0.9259803678790262,0,0.997690
0.9474877667476531,0,0.805312
0.9298332292415461,1,0.999945
0.9297971265132291,1,0.998752
0.9187744628427287,1,0.998653
0.91559087892635,1,0.998505
0.955369614804114,1,0.999819
0.8951169164034797,0,0.973882
0.9017366336523571,0,0.972214
0.9697503865794967,0,0.997687
0.9728924440979682,1,0.999844
0.9533038119735427,0,0.998080
0.9597772708798297,1,0.999523
0.9112221343520613,0,0.973658
0.9291256076946465,1,0.999092
0.9496426935411488,0,0.970702
0.9302042271570552,0,0.996898
0.9560740932996974,1,0.999948
0.9362556261563189,0,0.876093
0.9186354174117659,0,0.993746
0.9196269071241541,0,0.992135
0.9232649038120436,0,0.998389
0.9725674111451362,0,0.903705
0.9798874637234106,1,0.999895
0.9733182373474357,0,0.994471
0.9907930522168881,1,0.998717
0.99068299918269,1,0.999733
0.9904581498386441,1,0.999925
0.9823861672890409,0,0.880435
0.9665390859596823,0,0.996581
0.9840766109677329,0,0.945396
0.972522500474475,1,0.999714
0.9758340447860947,1,0.999802
0.9566765246835737,1,0.999662
0.9666238855930768,0,0.996417
0.968421698829644,0,0.996135
0.9788078479149238,0,0.983498
0.936776155553102,1,0.999426
0.9423526622718449,1,0.999813
0.9535414640532746,0,0.996842
0.8979472598114561,0,0.968357
0.9367335273479078,1,0.999668
0.9572307594454991,0,0.960829
0.9172603492675732,1,0.999701
0.9569959714080605,0,0.986208
0.9841099908102502,0,0.996719
0.9449171202428001,0,0.998091
0.9877965283968607,0,0.996471
0.922389151079277,0,0.996231
0.9601190878721361,1,0.999882
0.9580640534097171,1,0.999841
0.9733974326417414,1,0.999938
0.9754812348559816,0,0.942312
0.9822781479777319,1,0.999878
0.9841977665118645,1,0.999902
0.9597510928798235,0,0.998655
0.9133750107896852,1,0.999971
0.9401144785393539,0,0.951971
0.9769345552380381,1,0.999769
0.9753933637106118,0,0.846287
0.9605773769727504,0,0.903547
0.9907682780863148,1,0.999959
0.9817958722755553,1,0.999971
0.9603416581742168,0,0.945246
0.9589307996992569,0,0.893771
0.9798328124955971,1,0.999933
0.9826872639763531,1,0.999971
0.9795162518909536,1,0.999623
0.9670511604914664,0,0.996682
0.9892663479275478,1,0.999927
0.9918213739238397,0,0.944323
0.9880121932963982,0,0.972029
0.9114435796898857,1,0.999964
0.9738420130100972,1,0.999953
0.9719347800442062,0,0.995872
0.9547432393271446,1,0.999964
0.9871877496330097,0,0.963839
0.9856180924809061,0,0.996331
0.971030304179311,0,0.997751
0.9780046871270838,1,0.999964
0.9844584310733855,1,0.999951
0.9878696396156049,1,0.999880
0.9649248601582393,1,0.999894
0.9412456620923878,0,0.846997
0.9758523408664277,0,0.939533
0.9881159106098122,1,0.999869
0.9827251202241322,1,0.999748
0.9949543170290479,1,0.997924
0.9757791357811199,1,0.999722
0.9687105741420001,1,0.999407
0.9867589930690261,1,0.999884
0.9891885395056664,1,0.999877
0.983393084092461,1,0.999926
0.9885669573928575,0,0.992744
0.9904561957653875,0,0.999045
0.9886692789068834,1,0.999584
0.9887027301995193,1,0.999955
0.9917432160802646,1,0.999908
0.9843794623917803,1,0.999705
0.9675939787278112,1,0.999752
0.9937570874454105,1,0.999959
0.9936336429672027,1,0.999970
0.9955380738547128,0,0.926027
0.9702309395064537,0,0.923572
0.9573167530406188,1,0.999810
0.9699254855675797,0,0.870862
0.9751912277501249,1,0.999755
0.9749832311082315,1,0.999476
0.8750804291008849,0,0.996744
0.9407168193060366,0,0.996382
0.9816461567962169,0,0.999155
0.9166304744177027,0,0.990558
0.9628928778503176,0,0.998740
0.9577809377526252,1,0.999398
0.9749536875904401,0,0.999206
0.9727826003529019,1,0.999798
0.9752519142207567,0,0.989356
0.9202962723461572,0,0.969641
0.959554035053599,1,0.999970
0.963546230104582,1,0.999785
0.969039221828921,1,0.999887
0.9786413242371629,0,0.998107
0.977161763052894,0,0.998996
0.9507542194119829,1,0.999949
0.9723115636823993,0,0.987690
0.9818832200344416,0,0.999044
0.9293045927317392,1,0.999890
0.9719332160446622,1,0.999932
0.9749567627187964,0,0.997907
0.9833777298088487,1,0.999489
0.9796430286464742,0,0.857342
0.9746154486908261,0,0.999126
0.9730733931363095,1,0.999746
0.9831486809688013,0,0.991880
0.9454174152424214,1,0.999027
0.981899816201664,1,0.999916
0.9828759320208252,0,0.978308
0.9935799971432646,1,0.999945
0.9888698925723017,1,0.999924
0.9787791474202311,0,0.997877
0.9785175328000473,0,0.982522
0.9377213662907158,0,0.993855
0.9609340841301048,1,0.998154
0.9662205787042165,1,0.999794
0.9484829032072212,1,0.999691
0.9232621495659518,1,0.999705
0.9806603534976941,1,0.999900
0.9697173444210128,1,0.999475
0.9518351502022526,0,0.994927
0.9882170039589957,0,0.998098
0.977947929871559,1,0.997896
0.9816566877087076,0,0.995933
0.9856329777719502,1,0.999899
0.9846300852403702,1,0.999914
0.9751269992899732,1,0.998700
0.9852191420969679,1,0.996324
0.9740390490731029,1,0.999808
0.9065126153293627,0,0.996873
0.9778569199248301,0,0.999227
0.9791322208872298,0,0.991983
0.9720515847366331,1,0.999898
0.9136544368581788,1,0.999950
0.982081268277562,0,0.896824
0.9852583635549469,0,0.994597
0.9763872056664975,0,0.993258
0.9788866576991626,0,0.997511
0.9835030658275793,1,0.999835
0.9866185265340149,0,0.922938
0.9878858595423357,1,0.999517
0.9732704292128929,1,0.999717
0.9643155502421253,0,0.996862
0.9819062116243303,1,0.999775
0.993533938801678,1,0.999164
0.994895209608356,0,0.990028
0.9763322855966977,1,0.999667
0.9921064841733492,0,0.995769
0.9887691822366839,1,0.998817
0.9749052758954873,1,0.999711
0.9739986128906051,1,0.999160
0.9790327167761393,0,0.983819
0.9802137015778876,0,0.977501
0.9606695044584365,0,0.998019
0.8922833936064737,0,0.996829
0.9443351506136338,0,0.996119
0.9541170726726661,0,0.947948
0.9768898202199828,0,0.991380
0.9811316506431813,0,0.860381
0.9274793162290484,1,0.999837
0.9333745528004087,0,0.933091
0.9445819977680142,1,0.999558
0.9388790679885397,1,0.999490
0.9488582541835223,1,0.999939
0.9650714712778881,0,0.896092
0.9575011911752355,0,0.994273
0.9652002846621653,0,0.992814
0.9768476755394638,1,0.999811
0.9594045688066908,1,0.999683
0.9658282605498127,1,0.999958
0.9183129142919266,0,0.911942
0.9182755834477757,0,0.993863
0.9517680428058954,1,0.999784
0.9665250214380823,0,0.998805
0.9907756894830174,0,0.983834
0.9741469823362077,0,0.998237
0.9702417965480653,0,0.831513
0.962558565688235,1,0.999685
0.9048397865091166,1,0.999337
0.9395941148598842,0,0.995681
0.9631172436376944,0,0.996719
0.9639177740407235,1,0.999969
0.9812957193277735,1,0.999806
0.9659714314774569,1,0.999292
0.9239686047013199,1,0.999969
