NaN,0,0.669582
NaN,0,0.633132
NaN,0,0.543901
NaN,0,0.433728
-0.00788611790959318,0,0.991099
-0.00896639948164323,0,0.986239
0.005173393730755887,0,0.649900
0.09434363186817868,1,0.999968
0.11989327880567029,0,0.719603
0.18573688286364887,0,0.879670
0.1851950233935357,1,0.999826
0.1851950233935357,0,0.868624
0.1851950233935357,0,0.780010
0.1851950233935357,0,0.743457
0.20168460337584188,0,0.870846
0.20168460337584188,0,0.786593
0.20168460337584188,0,0.754195
0.21817477164333837,0,0.865953
0.21817477164333837,0,0.759709
0.21817477164333837,0,0.725693
0.2898126853918765,0,0.885714
0.2898126853918765,0,0.864609
0.2898126853918765,0,0.764049
0.3023400638339246,0,0.765190
0.37225798667816745,0,0.755516
0.4949482606615832,1,0.999750
0.4949482606615832,0,0.867358
0.5053314716241031,0,0.784438
0.5140696020815899,0,0.711180
0.5140696020815899,0,0.560269
0.5140484858296871,0,0.719471
0.5140484858296871,0,0.573199
0.5139822237918801,0,0.634229
0.5221512683077658,0,0.892296
0.5221512683077658,0,0.624195
0.5276262221844917,0,0.519747
0.5431210627326017,0,0.429185
0.6027128607980333,0,0.880327
0.6053804336339027,0,0.780106
0.6162002215826232,0,0.997958
0.6162002215826232,0,0.836305
0.6214597437959725,0,0.842904
0.6265306674828794,0,0.881021
0.6363543934978207,1,0.999681
0.6563295134122431,0,0.840711
0.6757661062853484,0,0.814862
0.718112232753127,0,0.999207
0.718112232753127,0,0.825568
0.750307672333073,0,0.999127
0.7533434416646192,0,0.917025
0.7742222791732701,0,0.917520
0.7790069692911173,0,0.858418
0.7789230022669286,0,0.825887
0.7912233109560893,0,0.919991
0.79306554583736,0,0.844692
0.7925894722538983,0,0.880330
0.7904965581631124,0,0.940470
0.7900604604933844,0,0.934897
0.7885493724379574,0,0.937411
0.7906030834947572,0,0.236616
0.7903361047358363,0,0.903063
0.7901275124415935,0,0.996561
0.7858463769603355,0,0.849890
0.7856244626072126,0,0.873248
0.7762235279057857,0,0.934012
0.7759329258405897,0,0.932406
0.7734185676563442,0,0.930031
0.7721262151097515,0,0.907144
0.7711907488525377,0,0.791144
0.759541052833668,0,0.793426
0.7308713574060893,0,0.949585
0.7283671930900333,0,0.877490
0.7281264741163458,0,0.942116
0.7279380140054678,0,0.795174
0.726345000081454,0,0.916538
0.7260199954177068,0,0.944386
0.7256995348748231,0,0.749719
0.7109769582988265,0,0.843691
0.698966761237888,0,0.946995
0.698811416670431,0,0.884154
0.698617158565698,0,0.709172
0.6968809276779843,1,0.999710
0.6967003035644697,0,0.786087
0.656558027809294,0,0.951476
0.6559757402171652,0,0.853043
0.6548332462366606,0,0.928277
0.6534952271217439,0,0.889139
0.6462143297029309,0,0.901313
0.6515408199705637,0,0.631079
0.6623329321814044,0,0.661399
0.6866957619435881,1,0.999137
0.6927370430861556,0,0.802604
0.6959639342722512,0,0.883547
0.7049080707587858,0,0.782066
0.7081575611892325,0,0.926715
0.7227043665346822,0,0.949178
0.7320456945031985,0,0.801344
0.7382217213401784,1,0.999971
0.7421053270803564,0,0.916655
0.7449365155105188,0,0.933235
0.7465508085603634,0,0.915429
0.750392942650735,0,0.906725
0.7540489326760312,0,0.381943
0.7608383154801382,0,0.898374
0.7626445681669011,0,0.881504
0.7702071320081663,0,0.882533
0.771535398974511,0,0.883904
0.7750511533373481,0,0.872301
0.7773867403675813,0,0.861667
0.7827113619681745,0,0.937331
0.7860561772672293,0,0.931721
0.7870396253745844,0,0.694218
0.7900836466274425,0,0.897904
0.7917268170793076,0,0.930021
0.792184003941213,0,0.883105
0.7929240802811524,0,0.953078
0.7941558078262144,0,0.870425
0.7946453491316647,0,0.494057
0.7992394444387093,0,0.895624
0.7998180151944522,0,0.786649
0.8031914958094561,0,0.464627
0.8049260191884877,0,0.637450
0.8062708536257333,0,0.865348
0.8074475468208009,0,0.453488
0.8092960845104604,0,0.922069
0.8106170606452889,0,0.998493
0.8122666881244743,0,0.776580
0.8132385674206243,0,0.437900
0.8146016773849966,0,0.869732
0.8150058358738193,0,0.910261
0.8142207336014894,0,0.927883
0.8077139788520394,0,0.989479
0.8072459870185623,0,0.923943
0.8023801266905267,0,0.890867
0.799574196592886,0,0.942185
0.7979888821124234,0,0.990031
0.7967417184553635,1,0.999971
0.7901134266211409,1,0.999906
0.7831354720358275,0,0.997226
0.7818678084278989,1,0.999804
0.7791727816909683,0,0.925229
0.7771478248216536,0,0.994850
0.7761607645125526,0,0.998871
0.7795998319445498,0,0.995043
0.7775014351456521,0,0.998712
0.7757859084431706,0,0.998664
0.7759410708521688,0,0.998689
0.7749360549169411,0,0.929167
0.7774286313939748,0,0.998500
0.7777106674568117,0,0.997784
0.7780135321935198,0,0.998188
0.7779861634577283,0,0.996143
0.7789723570118543,0,0.998713
0.7801205009629937,1,0.999970
0.7815841905336409,0,0.998100
0.7843455263998771,0,0.998416
0.7865156206390188,0,0.998675
0.790530744290492,0,0.998292
0.7922969428947109,0,0.996245
0.7930589626716231,0,0.997468
0.795855881271965,0,0.997176
0.6995038303608596,1,0.999791
0.703463436974712,0,0.906719
0.7069724478903789,1,0.999971
0.7076528334629338,0,0.924060
0.7085642352548787,0,0.760142
