NaN,0,0.669582
NaN,0,0.633132
NaN,0,0.543901
NaN,0,0.433728
-0.005763140844653041,0,0.989924
-0.006853093678377166,0,0.982118
0.09050451665030013,0,0.674504
0.0920059395828303,0,0.950180
0.09190168129450965,0,0.199377
0.7912267403161116,1,0.999331
0.7970580525399606,0,0.518876
0.8030735072048842,1,0.999825
0.8589753088554472,0,0.987228
0.3077786521856526,0,0.988678
0.3660744398851233,0,0.997483
0.28099476710503474,0,0.990549
0.6095173974357597,0,0.970433
0.29503396427208756,0,0.771682
0.3927034850519454,1,0.999252
0.49650432112232157,0,0.983987
0.49272934081610303,0,0.999057
0.5027943408010473,0,0.993890
0.12450070762569336,0,0.998854
0.10567234348558543,0,0.911106
0.09994601265174728,1,0.999929
0.34587930028825664,0,0.988564
0.36536289960142704,0,0.944832
0.3175374166797524,0,0.953800
0.3436897399396267,0,0.967266
0.36575419061181086,0,0.978337
0.35229143890215275,0,0.981026
0.36442481898134804,0,0.990714
0.38343786388953244,0,0.946784
0.3890217914676297,0,0.799616
0.2230690094373922,0,0.995219
0.4740988725424453,1,0.999646
0.5894476693520712,1,0.998970
0.6713489441180963,0,0.999570
0.657656903285713,0,0.889848
0.6663055127875556,0,0.998331
0.13376092421242652,0,0.999521
0.09168362928349745,0,0.997436
0.09100342185688604,0,0.999108
0.09503420368935425,0,0.999001
0.10262602130297213,1,0.999802
0.08865899276709657,0,0.964013
0.09154520879919484,0,0.998786
0.09358833612575601,0,0.998904
0.09331108700370805,0,0.999159
0.0958892213511704,0,0.999022
0.09712566113730112,0,0.998584
0.09947281168035912,0,0.999012
0.10042352481836121,0,0.998361
0.09960343203187388,0,0.998249
0.10257185277488633,0,0.998098
0.10586590923223904,0,0.997987
0.10770843741667165,0,0.999530
0.11263186483326046,0,0.998205
0.174815337773116,0,0.964898
0.38834151936086614,0,0.989631
0.42865156363339973,1,0.999896
0.42591756286640176,0,0.909756
0.3679404823013432,0,0.941384
0.4173491743776119,0,0.858153
0.43982521977297184,0,0.941011
0.45090350999926715,0,0.949141
0.5579858662239229,0,0.957637
0.5277382131491836,0,0.990321
0.4649408677591715,0,0.995550
0.4889022373105728,0,0.998075
0.4842616760267986,0,0.936266
0.5622585692478418,0,0.943216
0.6138107889806981,0,0.994973
0.5454805758583338,0,0.975010
0.6140861030143775,0,0.995529
0.616400418964506,0,0.996032
0.5427263224139043,1,0.999944
0.7278750713253064,1,0.999950
0.6833643973489183,1,0.999523
0.7030702919645884,0,0.947717
0.5187093045927345,0,0.991256
0.38963491691842145,0,0.997833
0.550763217261224,0,0.998915
0.5562617509653154,0,0.960228
0.4965844541158353,0,0.996448
0.578120356661193,0,0.964045
0.5660426669774935,0,0.999482
0.5427347488738353,0,0.976636
0.6051002875328446,0,0.998999
0.6351320583888617,0,0.993749
0.68271291028919,0,0.995288
0.7326388500989636,0,0.998372
0.6991444549406906,0,0.993704
0.6998109389033761,0,0.994751
0.30895394630798584,0,0.982110
0.38938610387987,0,0.984743
0.6134215289972444,0,0.995424
0.7142023534410503,1,0.999958
0.28816906616373617,1,0.999876
0.24166245029529476,1,0.999835
0.2513110945409455,0,0.986130
0.6932925640372628,0,0.984104
0.287089159179654,1,0.999590
0.2419022138200115,0,0.999402
0.249098948513345,1,0.999960
0.4126345302773657,0,0.999344
0.3642711448681642,0,0.996484
0.32465933290555565,0,0.999305
0.31130873462791775,0,0.999338
0.3020463595633222,0,0.999230
0.2990688265624227,0,0.919937
0.30735879383111714,0,0.920313
0.30941409798452213,0,0.999151
0.3152506646699573,0,0.968299
0.7700456484348683,0,0.993821
0.55495275565266,0,0.982660
0.8121934165172596,1,0.999637
0.7560309588513225,1,0.999927
0.6952771650602471,1,0.999920
0.6980367361719123,1,0.999971
0.7739332910502865,1,0.999753
0.757753019571207,0,0.908082
0.6631041605334042,1,0.999911
0.6191772761227071,0,0.982164
0.7894972576504725,0,0.997174
0.7935453151464705,0,0.990444
0.782139272965099,1,0.999896
0.7363783201427897,1,0.999896
0.8095599479502167,1,0.999893
0.3426211539971923,0,0.999206
0.4259079856383087,1,0.999924
0.8206257748813468,0,0.999410
0.8480312331865254,1,0.999965
0.27987215752653133,0,0.999483
0.5297500735716512,0,0.989802
0.5228906110704266,0,0.982388
0.8742369632664755,0,0.997928
0.8473553699247778,0,0.992720
