-0.010935201069725948,0,0.251302
0.4532721631357117,0,0.974676
0.973245382444254,0,0.986619
0.9685725608328015,0,0.999879
0.9704917882091983,1,0.999845
0.8945872403033441,0,0.999834
0.9514483302771319,1,0.999946
0.921431772972626,1,0.999988
0.7121982885634415,1,0.999977
0.9841728694474086,0,0.999209
0.9310282283557971,1,0.999990
0.9759297113442701,1,0.999982
0.8994201940292241,1,0.999988
0.9906907090056304,1,0.999986
0.9650384820844851,1,0.999990
0.8964581284117555,1,0.999923
0.9731014317322784,0,0.999204
0.822292856534283,1,0.999989
0.7709837499047345,0,0.999628
0.9817178129675235,1,0.999985
0.9263924522555798,1,0.999989
0.9339198713676646,1,0.999989
0.7495056071329692,0,0.921061
0.9370219093986607,0,0.992981
0.9903696065243297,1,0.999989
0.8691391972556466,0,0.992432
0.8708884346195914,0,0.999514
0.9721906398100582,0,0.994739
0.8595618034863012,1,0.999979
0.9823306308807062,1,0.999960
0.9795840589814293,1,0.999934
0.9130012006853281,0,0.997614
0.9498161841967137,1,0.999916
0.9863465206036929,1,0.999950
0.9242451262374688,1,0.999943
0.9855004663622339,0,0.999514
0.985482380867466,1,0.999989
0.9847460681487415,1,0.999912
0.9679829436142102,1,0.999922
0.9460251967495982,0,0.999826
0.9611164945998232,1,0.999990
0.7615457959648319,0,0.998658
0.9371882754725883,1,0.999988
0.9175524111335603,1,0.999985
0.9582322709245715,0,0.999730
0.9272730775365904,1,0.999959
0.823063255194559,1,0.999867
0.9776503598975717,1,0.999984
0.9720190395623016,1,0.999985
0.8980190684938683,0,0.999819
0.9341174440912602,0,0.999475
0.6623734975669996,1,0.999940
0.6393269474290268,1,0.999980
0.9412900601102602,0,0.999602
0.8933502752075388,0,0.999405
0.9810936054712802,1,0.999988
0.9255224875413958,1,0.999985
0.9628205727220511,1,0.999989
0.9628150027914042,1,0.999990
0.898041001447223,1,0.999968
0.9357334124133977,1,0.999956
0.9027404120998578,0,0.999242
0.9464901591430925,0,0.999343
0.8992918753319814,0,0.999303
0.8628167931786515,0,0.999801
0.9552866128838579,1,0.999988
0.8819532880579711,0,0.999584
0.9872035809458137,1,0.999985
0.9804103588729514,0,0.999020
0.9761941201039426,0,0.999710
0.931384472212783,1,0.999987
0.9908151764055916,1,0.999987
0.9259811316259093,1,0.999842
0.9021253830704411,0,0.999784
0.9670222842935169,0,0.999818
0.9665213433362397,1,0.999984
0.95849925190204,1,0.999990
0.9596016223532285,1,0.999982
0.9685079603936851,1,0.999979
0.4750952435763437,1,0.999990
0.9206799809614089,0,0.999791
0.9630729688866506,0,0.999791
0.9785397570670562,0,0.974467
0.6465686079947185,1,0.999987
0.9512387629857174,1,0.999986
0.9560582254860266,0,0.999772
0.9708928557210138,0,0.997637
0.9666670033667466,1,0.999990
0.9665669185090398,0,0.999588
0.9869992349912075,0,0.999546
0.9699558760528096,1,0.999971
0.9484712934948013,1,0.999987
0.9229315965723354,1,0.999989
0.8809468907067195,0,0.999866
0.9195798190844754,0,0.998409
0.9209694809033433,0,0.999687
0.8742821771720061,1,0.999912
0.854477969436603,0,0.995982
0.9078927136735087,0,0.999816
0.9646256307199487,0,0.999450
0.8541000109462789,0,0.995023
0.9706858556931948,0,0.999781
0.9546294612043199,1,0.999990
0.9652064934805664,0,0.999181
0.8086538276783194,1,0.999925
0.902396307654242,0,0.998648
0.9469696604689389,0,0.998773
0.7890650553803971,1,0.999869
0.9641841723430487,1,0.999989
0.9570499262780008,1,0.999980
0.9730342252400489,1,0.999955
0.9554898873345753,1,0.999962
0.9343790296416091,1,0.999920
0.9678984471144635,1,0.999988
0.9305633087313396,1,0.999990
0.9693602195816808,1,0.999969
0.9537808871685861,1,0.999967
0.9719937121968495,1,0.999985
0.9598367540596283,1,0.999988
0.9813455266256227,1,0.999987
0.952469626390456,1,0.999990
0.8613685896306745,0,0.999573
0.9704501171582778,1,0.999923
0.9473171919713312,0,0.997363
0.9540924186344407,1,0.999965
