NaN,0,0.200317
NaN,0,0.212494
NaN,0,0.226778
NaN,0,0.244078
NaN,0,0.264743
-0.012486964259054982,0,0.193013
-0.012486964259054982,0,0.206884
-0.012486964259054982,0,0.219868
-0.012486964259054982,0,0.236948
-0.012486964259054982,0,0.255376
-0.016383032463367968,0,0.359930
0.09051019932871207,0,0.162007
0.09068439112247519,0,0.161944
0.09068439112247519,0,0.173767
0.794461901083712,0,0.956355
0.7859000587433487,0,0.205724
0.7849337832310886,0,0.205648
0.7849337832310886,0,0.217212
0.9005375893000969,0,0.550424
0.8574893661770066,1,0.999951
0.9660861543798949,1,0.999973
0.939834246811945,1,0.999800
0.9598443492093859,0,0.997200
0.8515818571694682,0,0.534325
0.9189382837866464,1,0.999960
0.909791022668239,0,0.982271
0.9580781495585584,1,0.999980
0.8512460100412127,1,0.999978
0.9463315906448454,0,0.395151
0.9621627287259469,1,0.999866
0.9697826570539018,1,0.999967
0.9671780533072286,1,0.999917
0.9711714387977428,0,0.999680
0.9445651051387929,0,0.936607
0.979930991939678,1,0.999959
0.9492186555386525,1,0.999940
0.9384951144698943,0,0.996145
0.9798606875016861,1,0.999825
0.9813376972342587,0,0.998623
0.9800888398004624,0,0.999682
0.9168656092177292,1,0.999751
0.9673190336934733,0,0.966312
0.945143865629412,0,0.999429
0.9743159693317723,1,0.999960
0.981377561826891,0,0.998458
0.9777931208795996,1,0.999960
0.9713264881989432,1,0.999960
0.9817452287713464,1,0.999839
0.9743114709703521,0,0.999765
0.980092591613076,0,0.975600
0.9773391520089539,1,0.999959
0.9876039756924607,1,0.999980
0.9602122140077923,1,0.999915
0.9748245361915212,0,0.998931
0.9647189949453722,0,0.999630
0.9828938352962274,1,0.999980
0.9844731663683973,1,0.999956
0.9833780378318777,0,0.999050
0.986938471070421,1,0.999645
0.9931626236866339,1,0.999956
0.9879692927014121,1,0.999956
0.9788522835631457,0,0.999135
0.9774852749077663,1,0.999867
0.9505249715221407,0,0.998010
0.989228197868055,0,0.999347
0.9840252175636839,0,0.999454
0.9446029768712979,1,0.999885
0.981684671783818,1,0.999973
0.9790424404139455,1,0.999961
0.9592224636544343,1,0.999640
0.9528303357125935,0,0.997845
0.9631779319670067,1,0.999967
0.9065938178720516,1,0.999948
0.9498281858458255,0,0.978842
0.9651157369767394,0,0.997382
0.983309462616525,1,0.999904
0.9684675746702575,1,0.999935
0.986048959295712,1,0.999926
0.9366804038782054,0,0.999224
0.914382399246846,1,0.999805
0.9613931587017983,1,0.999766
0.9834455686893457,1,0.999969
0.9022332606376263,1,0.999787
0.9712318318759204,1,0.999963
0.9759407550035083,1,0.999937
0.9835618311270129,1,0.999830
0.9647498127363312,1,0.999749
0.9836761723560721,1,0.999937
0.8621421967165309,0,0.998978
0.9502406462847499,1,0.999789
0.9852124238724165,1,0.999929
0.9580664645371634,0,0.972596
0.9768971083154991,1,0.999908
0.9687612190293146,0,0.998997
0.9863927385941798,0,0.998199
0.9875750944488398,1,0.999968
0.9449943468155283,0,0.999494
0.9733210040236099,1,0.999970
0.9778896663949715,1,0.999963
0.9680549810680074,0,0.995306
0.9777301954148245,1,0.999941
0.9756554297214783,0,0.992316
0.9859077928103357,1,0.999933
0.9850619539428122,1,0.999980
0.9895055375255891,1,0.999851
0.9911373782957883,0,0.999712
0.9576393053091937,1,0.999903
0.9772587030300521,1,0.999969
0.9682997885312324,1,0.999964
0.9572937709345406,0,0.999770
0.9299246343109718,1,0.999964
0.9679232357256919,1,0.999969
0.9559040728763313,1,0.999938
0.923255202664265,0,0.998330
0.9820865271019971,0,0.956656
0.9464061950417076,1,0.999893
0.9734725289745695,1,0.999972
0.9573477613558249,1,0.999965
0.9810373673546776,1,0.999969
0.9768452563706084,0,0.999447
0.9684178097715975,0,0.999551
0.9852309961037627,1,0.999915
0.9794384682815056,1,0.999912
0.9828597126170098,1,0.999864
0.9700552544663852,0,0.999488
0.9762921746575828,1,0.999832
0.9838757894082873,1,0.999972
0.9764961555869974,0,0.977749
0.9736801536563451,1,0.999964
0.9789378584566651,1,0.999964
0.9578840795075164,0,0.988499
0.9730007102142026,1,0.999945
0.9663915136098096,1,0.999959
0.9548251971861056,1,0.999925
0.9505109716482915,1,0.999913
0.9413616517892762,1,0.999957
0.8385603552899716,0,0.999562
0.9259900443766108,1,0.999977
0.9635744882282412,1,0.999958
0.9318258739026224,0,0.999433
0.9875002384099096,1,0.999971
0.9605313870073304,1,0.999959
0.9688430033864418,0,0.999106
0.9623422178573603,1,0.999806
0.9793795087340752,1,0.999920
0.97599909139877,1,0.999910
0.957208842797274,1,0.999980
0.9732421116680557,0,0.999655
0.9681956921901762,1,0.999965
0.970612712735985,1,0.999867
0.8740353207209415,0,0.999514
0.9720894755536107,1,0.999931
0.9689572842743772,1,0.999961
0.9650159685420425,0,0.998772
0.9875322545414663,0,0.999742
0.9696959425580757,0,0.997670
0.9017562945553843,1,0.999969
0.9722248653536042,1,0.999980
0.9806711393899471,1,0.999967
0.9710846915347615,1,0.999799
0.9794078653247222,0,0.957012
0.9724411305796541,1,0.999959
0.9688090026992527,1,0.999956
0.9875762106172924,1,0.999960
0.9772982837496194,1,0.999942
0.9788153283885332,1,0.999928
0.9742420489609264,1,0.999862
0.9517124072541364,1,0.999808
0.9427386308274364,1,0.999864
0.9634962225488295,1,0.999966
0.9649756994388736,1,0.999868
0.9599584112485093,0,0.999255
0.9742203830989475,1,0.999980
0.9560713757082798,0,0.998850
0.9714645032961037,1,0.999864
0.9726329722493725,1,0.999871
0.985288988754792,0,0.999492
0.9798076546567006,0,0.999105
0.9866998910277224,1,0.999917
0.9793253017669153,1,0.999966
0.9870466624274227,1,0.999979
0.9866894692486419,1,0.999978
0.9789881027050502,0,0.976638
0.9720096549987296,1,0.999911
0.984941011126151,1,0.999970
0.8980622040746067,1,0.999955
0.9885870776058451,1,0.999958
0.9716446891903388,1,0.999969
0.9591426202321601,1,0.999968
0.9746008333746775,1,0.999938
0.9789820538974108,1,0.999970
0.9640081627575778,1,0.999970
0.9775840566688649,1,0.999848
0.9768660481490571,1,0.999970
0.9786791038960723,1,0.999879
0.9822360924188882,1,0.999970
0.9558839184535325,1,0.999940
0.9503202516864124,1,0.999967
0.9635058257910779,1,0.999758
0.9381733962362782,1,0.999970
0.9642745455627942,1,0.999969
0.9848671763405047,1,0.999969
0.9481934230268636,1,0.999942
0.9668549092297497,1,0.999971
0.9928283859696186,1,0.999958
0.990614066999604,1,0.999963
0.9779991302487991,1,0.999816
0.9724619104421572,0,0.998966
0.9838463511062723,0,0.998943
0.986647781900973,1,0.999926
0.9818923129552286,0,0.999532
0.9845893355255065,1,0.999967
0.9891198523766533,1,0.999717
0.9838794767323863,1,0.999812
0.9857959271502682,0,0.999564
0.9690834921162058,1,0.999960
0.9767922117940724,1,0.999883
0.9676997013396811,1,0.999665
0.9720781071125052,1,0.999979
0.9800262618434892,1,0.999961
0.9886006254153237,1,0.999921
0.9839550694158963,0,0.997519
0.9552782541258444,0,0.999195
0.966133048486852,0,0.999587
0.9757806877430131,1,0.999849
0.978483044718662,1,0.999967
0.9633664106953365,1,0.999764
0.9577701776549215,1,0.999919
0.9825334738804766,1,0.999963
0.9477531130839436,1,0.999980
0.9309270389233053,1,0.999979
0.9766184784927049,1,0.999964
0.9735923300078599,0,0.999035
0.9811443937613303,1,0.999958
0.9223539005547744,1,0.999980
0.9619218461689166,1,0.999944
0.9358536230510495,1,0.999875
0.9822185304825712,0,0.998645
0.9839439582043535,0,0.997132
0.977857973722624,0,0.977350
0.973139714875146,1,0.999959
0.9616482217560148,0,0.999227
0.9638211644920004,0,0.998788
0.9779972534599002,1,0.999895
0.9862284774999187,1,0.999979
0.9531376716410209,1,0.999970
0.9278129246599465,1,0.999977
0.9432998137982234,0,0.999654
0.9852321394214821,0,0.999619
0.9747230249587757,1,0.999965
0.9333711979650421,1,0.999915
0.9825632253958213,1,0.999980
0.9738186027494055,1,0.999869
0.9374805981423885,0,0.966070
0.92584100751616,0,0.999544
0.9694218357440084,1,0.999930
0.9878223733199644,1,0.999964
0.9771934448920888,1,0.999943
0.9562370787536794,1,0.999971
0.9642251332539176,1,0.999968
0.95427363683685,1,0.999932
0.978119002773875,1,0.999839
0.9704892810954894,0,0.999216
0.9743214567439856,0,0.998545
0.9133035961993261,1,0.999763
0.9513934702764271,1,0.999971
0.9701416290654085,1,0.999828
0.9796524182990799,0,0.999514
0.9940774211022448,0,0.999412
0.989328754150195,1,0.999959
0.9881908335972939,1,0.999942
0.9806446133125034,1,0.999963
0.9792669386586312,1,0.999967
0.9743518626956794,1,0.999861
0.9542059486030541,1,0.999967
0.9474789934956107,0,0.997864
0.9711630655030165,0,0.999581
0.9699736168364672,1,0.999967
0.9686873192432074,1,0.999932
0.9888692875900875,1,0.999966
0.975417808203357,1,0.999751
0.9771510240031434,1,0.999931
0.9681746441632356,1,0.999965
0.9868529829213161,1,0.999964
0.9855268394125624,1,0.999964
0.9300932506740984,1,0.999717
0.9853546394258206,1,0.999966
0.9849302689090564,1,0.999864
0.9634926075665508,1,0.999966
0.9800720776806765,1,0.999966
0.977995130029822,1,0.999967
0.9766825107317972,1,0.999866
0.9743510080567264,1,0.999850
0.9781150940998713,1,0.999855
0.9696305893763058,1,0.999962
0.9737485525398196,1,0.999963
0.9658868247661375,0,0.999393
0.9801282133118534,1,0.999964
0.9892512882702008,1,0.999964
0.9808260457793702,1,0.999965
0.977315870901227,1,0.999930
0.9831533318158834,1,0.999965
0.9735405057507529,1,0.999961
0.9830718565371029,1,0.999966
0.9866136941768103,1,0.999964
0.9720279194867165,1,0.999929
0.9701562671108818,1,0.999964
0.9883142148840451,1,0.999897
0.985336275799606,1,0.999820
0.9866641680956478,1,0.999892
0.9795286601695556,1,0.999964
0.9810234408528684,1,0.999964
0.9859101189334855,1,0.999824
0.9659554914573412,1,0.999824
0.9766234933120236,1,0.999928
0.9583036391258495,1,0.999694
0.9755118481314302,1,0.999966
0.964143219139691,1,0.999929
0.97322429828397,1,0.999966
0.9850395053776039,1,0.999931
0.9719362037362452,1,0.999932
0.976123305851764,1,0.999861
0.9804685176698917,1,0.999966
0.9843578560039139,1,0.999965
0.9803787178396374,1,0.999966
0.9714786258120648,0,0.999454
0.9757328116137785,1,0.999965
0.9824720935176,1,0.999965
0.9832013849742127,1,0.999807
0.9802114279732248,0,0.999011
0.9777704531012164,1,0.999964
0.9773032378390103,1,0.999669
0.9707601327463399,1,0.999932
0.9844042588623294,1,0.999966
0.9727767913124233,1,0.999931
0.9786614398578182,1,0.999964
0.9811486299757833,1,0.999964
0.9790836252882175,1,0.999895
0.9784154469231698,1,0.999966
0.9712878605092155,1,0.999701
0.9775230659504626,1,0.999863
0.9827024298859651,0,0.999118
0.9669818477181714,1,0.999932
0.9796287570583074,1,0.999966
0.974139514312842,1,0.999966
0.9796401102547865,1,0.999932
0.9684799527756732,1,0.999932
0.9760427790951997,1,0.999967
0.9727032173084897,1,0.999858
0.980398391539554,1,0.999669
0.983069653582118,1,0.999966
0.9827901014608237,1,0.999964
0.9789020892614705,1,0.999925
0.9716015860065077,1,0.999965
0.9769839866544797,1,0.999736
0.9706447516978302,1,0.999969
0.9729687006171065,1,0.999926
0.9515395067204168,1,0.999783
0.9803955697931104,0,0.999224
0.9757194229094378,1,0.999973
0.9434985894946588,1,0.999828
0.9894780145918551,1,0.999965
0.9719431399691693,1,0.999961
0.9755102036073942,0,0.999552
0.9628570339944076,1,0.999959
0.9775837460403372,0,0.999393
0.8744047165981649,1,0.999930
0.9481660404083371,1,0.999961
0.9630041032485295,1,0.999965
0.9532999100191496,1,0.999962
0.9373711568362132,1,0.999964
0.9356042949052656,1,0.999928
0.9697143097624173,0,0.999269
0.9825673982396055,1,0.999845
0.9762614440667241,1,0.999838
0.9640769816894974,0,0.995534
0.9546883709594494,1,0.999958
0.961977757849885,1,0.999853
0.9720519091813257,0,0.999627
0.9695517456480931,1,0.999965
0.9705870687920656,1,0.999968
0.9769155794523756,1,0.999938
0.9563266167497498,1,0.999980
0.9601012241300814,1,0.999972
0.97895768501492,1,0.999832
0.9651590927214513,1,0.999879
0.9687553702492444,0,0.999505
0.9267985116413126,0,0.999745
0.9848019661225688,0,0.998779
0.9820152842268873,0,0.998101
0.9670177736548042,1,0.999980
0.9800194877030496,1,0.999896
0.9826491733384878,1,0.999863
0.9867359478392365,1,0.999862
0.9535692606241954,1,0.999931
0.9593613421726741,1,0.999977
0.9623319744940305,1,0.999977
0.9627288667964978,0,0.931679
0.9612339600425147,0,0.999415
0.9463921789564181,1,0.999893
0.9721204266881219,0,0.996742
0.9483512137461185,0,0.978841
0.9743408046627577,1,0.999964
0.9731471942813996,1,0.999895
0.9619845226926902,0,0.998083
0.9782797016004273,1,0.999966
0.9811896510005526,1,0.999980
0.9788428302266947,1,0.999969
0.9645542007936698,1,0.999976
0.9438178755012832,1,0.999966
0.9016720370070818,1,0.999932
0.9210761507092213,1,0.999972
0.9862458317216085,1,0.999963
0.9806407383890922,0,0.988177
0.9789404614064406,1,0.999898
0.9890652137322976,1,0.999969
0.9853723819371721,0,0.999488
0.9764738228267964,1,0.999976
0.9645665920163689,1,0.999935
0.976432549182665,1,0.999968
0.9776484727893044,1,0.999967
0.9868254310495558,1,0.999979
0.9606851714695472,1,0.999978
0.9743138824061265,1,0.999970
0.8789053813988188,1,0.999852
0.9259047630938224,0,0.998720
0.9373792795985003,0,0.998770
0.9610921167861658,1,0.999966
0.9780824707142224,1,0.999873
0.9737773097261887,1,0.999972
0.9828049717339009,1,0.999773
0.971628776576919,1,0.999965
0.9781982786333778,0,0.999742
0.9630754290292896,0,0.999735
