NaN,0,0.126628
NaN,0,0.151690
-0.012043072249127285,0,0.160317
-0.012043072249127285,0,0.184947
-0.019654814288808737,0,0.056144
-0.019654814288808737,0,0.065743
-0.019802933094722537,0,0.071987
-0.020853310468525465,0,0.071529
-0.020853310468525465,0,0.084758
-0.021083196816630557,0,0.224638
-0.022474339049831246,0,0.226822
-0.022474339049831246,0,0.268389
-0.023026043502209204,0,0.234411
-0.023026043502209204,0,0.282461
-0.024132259130777264,0,0.264116
-0.024132259130777264,0,0.294844
-0.023207455566130436,0,0.216778
-0.023207455566130436,0,0.257528
-0.023207455566130436,0,0.290119
-0.02473061974223673,0,0.313592
-0.024373761645564,0,0.232056
-0.024373761645564,0,0.272756
-0.024373761645564,0,0.315996
-0.022846679015467938,0,0.231014
-0.022846679015467938,0,0.271226
-0.023022671748023374,0,0.317602
-0.023022671748023374,0,0.342669
-0.020239998549429834,0,0.035285
-0.020522278533196325,0,0.217076
-0.020522278533196325,0,0.259104
-0.02086843208782604,0,0.208295
-0.02086843208782604,0,0.242543
-0.02086843208782604,0,0.284549
-0.021770203765374637,0,0.202933
-0.021770203765374637,0,0.234365
-0.021770203765374637,0,0.276413
-0.022334339520618064,0,0.190217
-0.022334339520618064,0,0.225044
-0.022334339520618064,0,0.269454
-0.023473155891284393,0,0.301671
-0.02575787490305762,0,0.271464
-0.02575787490305762,0,0.335580
-0.02140723682895423,0,0.426874
-0.02262076963528701,0,0.164469
-0.02262076963528701,0,0.471489
-0.02282248642072738,0,0.426621
-0.02282248642072738,0,0.483483
-0.02282248642072738,0,0.875512
-0.02156442733499559,0,0.440217
-0.019550901921234355,0,0.453167
-0.017747719498069366,0,0.460081
-0.017747719498069366,0,0.512317
-0.017747719498069366,0,0.883887
-0.018184166342640327,0,0.481706
-0.018184166342640327,0,0.869970
-0.019792168570696975,0,0.449866
-0.019792168570696975,0,0.507605
-0.019792168570696975,0,0.885299
-0.020226818835498813,0,0.884138
-0.020342785777678146,0,0.874039
-0.018408413258473425,0,0.429387
-0.018408413258473425,0,0.488420
-0.018408413258473425,0,0.880368
-0.016931271595130696,0,0.442209
-0.016931271595130696,0,0.498744
-0.016931271595130696,0,0.881189
-0.015321085287212753,0,0.869072
-0.009876317202606214,0,0.408547
-0.009876317202606214,0,0.839076
-0.009876317202606214,0,0.877391
-0.010216537302030862,0,0.869386
-0.01532483201567253,0,0.374518
-0.015116288566466683,0,0.494350
-0.015116288566466683,0,0.476007
-0.015288859838094544,0,0.486283
-0.015288859838094544,0,0.544470
-0.015288859838094544,0,0.516980
-0.015288859838094544,0,0.543154
-0.015375932664210229,0,0.461736
-0.015375932664210229,0,0.786415
-0.02060355361121495,0,0.308659
-0.02060355361121495,0,0.348752
-0.02060355361121495,0,0.379067
-0.02060355361121495,0,0.369645
-0.023507951699569044,0,0.322352
-0.023507951699569044,0,0.358681
-0.023507951699569044,0,0.382345
-0.023037938952678513,0,0.297986
-0.023037938952678513,0,0.339882
-0.023037938952678513,0,0.372105
-0.022461268900936346,0,0.330798
-0.022461268900936346,0,0.367369
-0.022950191612231687,0,0.339337
-0.022950191612231687,0,0.685389
-0.022950191612231687,0,0.696139
-0.01858593233961802,0,0.296650
0.6372400142055895,0,0.084797
0.6372400142055895,0,0.981801
0.6256420284369163,0,0.976049
0.5818469039461859,0,0.083936
0.5818469039461859,0,0.981068
0.646554222797825,0,0.099346
0.646554222797825,0,0.981036
0.646554222797825,0,0.975575
0.26175907243976215,0,0.928375
0.42519822549675107,0,0.949778
0.4326903835635273,0,0.958388
0.0938729145645913,0,0.994167
0.2606924315004611,0,0.978314
0.3010890656025135,0,0.930108
0.4424822855986869,0,0.999120
0.8089686836922602,0,0.998548
0.6929941257053115,0,0.999027
0.7468619882761517,0,0.999090
0.21185895362466162,0,0.880378
0.4108265884277379,0,0.998956
0.4782386037191186,0,0.998565
0.7271820270403833,0,0.999352
0.8184374441920728,0,0.996091
0.9191001031621308,0,0.998584
0.8208626506992436,0,0.996937
0.667373713790032,0,0.994358
0.641816965400589,0,0.992618
0.7670397948059592,0,0.998919
0.7164408962472801,1,0.999456
0.8097111877841451,1,0.999870
0.8377183150928962,0,0.996882
0.8237532530528135,0,0.984696
0.7272569760522984,1,0.999855
0.35101417421947356,0,0.997602
0.7845105746666063,1,0.999503
0.8611479692496319,1,0.999920
0.9259644103743068,0,0.999198
0.8861604453968598,0,0.998099
0.8560523187319411,1,0.999544
0.8400699597452584,1,0.999868
0.9217745233225088,0,0.996204
0.8908340984867111,1,0.999874
0.781840570873047,0,0.998795
0.750863161815689,1,0.999781
0.8525873461062299,1,0.999761
0.8358328340215705,1,0.999590
0.8360692058552445,1,0.999783
0.8916534657704706,1,0.999427
0.9073023996027005,1,0.999355
0.8441532390494685,0,0.999169
0.8806818398410018,1,0.999864
0.4604431402454082,0,0.996783
0.06457215565785782,1,0.999497
0.08822634371501657,1,0.999486
0.45450566877610954,1,0.999780
0.46934713315869053,1,0.999366
0.44818070373934277,0,0.995318
0.19316253137713382,0,0.994373
0.15846205668264465,0,0.997088
0.17147044193487954,0,0.998154
0.15916758218015686,0,0.990038
0.19058850863068927,0,0.973633
0.343183836714156,0,0.994912
0.4617114448923662,0,0.979788
0.43814485945929693,0,0.998946
0.40628114918742536,0,0.992722
0.4211495248860401,0,0.976127
0.5903976714082215,0,0.928814
0.20201631821815066,0,0.995280
0.7179691613886314,0,0.992867
0.7542577053210218,0,0.997406
0.701216039414809,0,0.981036
0.8232751234362946,1,0.999447
0.618728103039713,1,0.999578
0.8110458495556129,0,0.989925
0.8871582527629169,1,0.999600
0.8924923028842113,0,0.998960
0.9268101915350208,0,0.995803
0.7192711844351771,0,0.993236
0.7287817536089668,0,0.993415
0.27025432794613063,0,0.999229
0.1345681893733608,0,0.989236
0.2155793408302701,0,0.996083
0.6974849247964617,1,0.999482
0.4913930492328037,0,0.998842
0.8832578509709043,1,0.999543
0.45499969052597217,0,0.986217
0.60882057209509,0,0.996548
0.6023618227128491,0,0.992863
0.5751020645724004,0,0.996788
0.6056559309422772,1,0.999871
0.7376375824403097,0,0.999078
0.7502981039201166,1,0.999812
0.7745331634359035,1,0.999860
0.6465112191886054,0,0.998759
0.6410207948739112,0,0.995220
0.7294345342363847,0,0.994680
0.7615096992233935,0,0.999123
0.6805582206431501,0,0.992270
0.6244667272953582,0,0.995615
0.7246206029129812,0,0.998072
0.5374843669641569,0,0.997906
0.369760614236024,0,0.998612
0.463124284797702,0,0.988091
0.3439875800326195,1,0.999876
0.598635188891305,1,0.999946
0.38821092276304686,0,0.998979
0.5068910077472982,0,0.998291
0.33153035499409567,0,0.986562
0.23569472541601294,0,0.982596
0.4150887138587754,1,0.999472
0.3591248124100528,0,0.980433
0.4676964425230662,0,0.996955
0.43933369792308397,0,0.997610
0.1474130139946787,0,0.997255
0.2155483218247697,0,0.977159
0.24601359584422325,0,0.980846
0.2381368170589592,0,0.983837
0.4726821285634051,1,0.999563
0.3357438346722832,0,0.984852
0.324023322792172,0,0.970574
0.024370680284414487,0,0.997872
0.2244787323481555,0,0.997473
0.16947005357634834,0,0.998021
0.16574173040324108,0,0.985922
0.06181594966955549,0,0.974040
0.4589504043108785,1,0.999576
0.47697707590181077,0,0.996977
0.4313003403640695,0,0.999321
0.19463622210042403,0,0.989168
0.23553920974356166,0,0.996952
0.14539743350581955,0,0.993754
0.5697279204790897,0,0.990735
0.3359562488629478,0,0.989467
0.41063880577117085,0,0.994298
0.4634097452919464,0,0.997091
0.17824763485107858,0,0.956886
0.5538854924849129,0,0.982648
0.47959368672664104,0,0.996166
0.38345740747847107,1,0.999924
0.32978631068703124,0,0.991810
0.39909390755885826,0,0.991984
0.40074901819071845,0,0.998856
0.3317551790319176,1,0.999932
0.10406006629586638,0,0.998311
0.5271811541859469,0,0.999002
0.5428014657046502,0,0.992337
0.3329138169229061,0,0.996023
0.35467269103606963,0,0.976121
0.37584718645102433,0,0.997675
0.5969861432212501,0,0.968767
0.5672045929250379,0,0.946656
0.5239378712488919,0,0.998840
0.6677030310201878,0,0.983938
0.7138110361649116,0,0.998981
0.7167251515305201,0,0.998506
0.6462065303974515,1,0.999569
0.045889599785956074,0,0.971079
0.24031475354917647,0,0.971149
0.36479181819303413,0,0.999105
0.1661194523739207,0,0.970943
0.3319403258277898,0,0.993166
0.2574935088030157,0,0.952662
0.4046879230244176,0,0.987595
0.40130560727000686,0,0.995191
0.5057227022658793,0,0.997276
0.1717001225820738,0,0.990893
0.24515897518236116,0,0.986092
0.11448351104621224,0,0.996692
0.1923956574997332,0,0.990578
0.4335774569307581,0,0.987141
0.24414488976923002,0,0.995569
0.4482101088290545,0,0.908510
0.6076956738162015,0,0.996605
0.501767424041099,0,0.997421
0.18384558102003154,0,0.996956
0.5604223495760003,0,0.977113
0.4400180701982664,0,0.987511
0.419553857319391,0,0.996636
0.31338120959441285,0,0.979213
0.5008203244395925,0,0.997011
0.4660568062287174,0,0.992699
0.44943470885599557,0,0.993331
0.3705282028705506,0,0.996572
0.18664624499602717,0,0.996899
0.2509496400724839,0,0.996602
0.25040081147144716,0,0.970704
0.4757866687445354,0,0.997450
0.12175197205481585,0,0.989274
0.6891484174272559,1,0.999830
0.43072008131899153,0,0.991646
0.16856429930294242,0,0.996123
0.16488112938944663,0,0.968803
0.35783347642079144,1,0.999577
0.5189981143802208,0,0.987832
0.38658058752394175,0,0.995088
0.26713751940313785,0,0.974017
0.3885832658674278,0,0.981486
0.5577369189552429,0,0.997247
0.22604137985262954,0,0.993999
0.7326878161297534,0,0.976547
0.2857643256653839,0,0.989932
0.29426280533580546,0,0.880424
0.32661104966543,0,0.997987
0.3813322722749637,0,0.997461
0.41986233239750703,0,0.992554
0.44690879226043817,0,0.996720
0.613939871083685,0,0.997104
0.4821831569552695,0,0.974193
0.17155463880818625,0,0.985440
0.5541477828763853,1,0.999644
0.4620443530473893,1,0.999891
0.43894239262674273,0,0.996101
0.4245871390648615,0,0.993675
0.4809876711840449,0,0.998130
0.5198530183865391,0,0.986217
0.251798328904608,0,0.962991
0.37160763752758685,0,0.998592
0.21984249385926027,0,0.986325
0.4700282487292713,0,0.984703
0.34865806526358484,0,0.996023
0.3240209865626683,0,0.994917
0.4199841326877359,0,0.998443
0.2615452036980777,0,0.988877
0.49501969245505467,0,0.994629
0.28421928214896797,0,0.994333
0.26838836677012967,0,0.972207
0.1330225087578481,0,0.961430
0.13006760975243606,0,0.991605
0.09081168559672265,0,0.998897
0.1582048201098308,0,0.991463
0.1908357952123016,0,0.976006
0.6307810757053406,1,0.999929
0.5859577907952142,0,0.989473
0.32502618033584935,0,0.994558
0.6286003228263061,0,0.996281
0.4126006606996008,0,0.997546
0.5732887162768918,0,0.968941
0.5348402797502745,0,0.997852
0.5243433176057511,0,0.998370
0.4207853249774775,0,0.998170
0.5316923738292821,0,0.997205
0.1327894475336534,0,0.973937
0.5196784229528858,0,0.989222
0.6373531859528249,0,0.997316
0.6267674330566485,0,0.992951
0.5466428020838436,0,0.996893
0.6634369563838446,0,0.999238
