NaN,0,0.775905
NaN,0,0.775610
NaN,0,0.777125
NaN,0,0.776832
NaN,0,0.778316
NaN,0,0.779957
NaN,0,0.780980
NaN,0,0.781695
NaN,0,0.783296
NaN,0,0.785424
NaN,0,0.786866
NaN,0,0.789461
NaN,0,0.792051
NaN,0,0.796486
NaN,0,0.801402
NaN,0,0.807988
NaN,0,0.810355
0.010001486104657124,0,0.568222
0.0024573544671623107,0,0.614607
0.0024573544671623107,0,0.619331
0.0024573544671623107,0,0.624938
0.0024573544671623107,0,0.630869
0.0024573544671623107,0,0.638727
0.0024573544671623107,0,0.653374
0.0024573544671623107,0,0.654957
0.0024573544671623107,0,0.681419
0.0024573544671623107,0,0.684914
0.006729710436938621,0,0.628178
0.006729710436938621,0,0.633785
0.006729710436938621,0,0.639909
0.006729710436938621,0,0.647086
0.006729710436938621,0,0.653864
0.006729710436938621,0,0.672734
0.006729710436938621,0,0.672487
0.006729710436938621,0,0.695234
0.006729710436938621,0,0.706783
0.006729710436938621,0,0.715369
0.006729710436938621,0,0.714880
0.011854298740915094,0,0.660671
0.011854298740915094,0,0.669220
0.011854298740915094,0,0.677177
0.016277107683787973,0,0.620668
0.016277107683787973,0,0.640593
0.01632555693651334,0,0.695342
0.01632555693651334,0,0.698490
0.01632555693651334,0,0.700964
0.04970756099716325,0,0.609296
0.18948099897949644,0,0.941504
0.5674937853889099,0,0.993088
0.9369946289061034,1,0.999949
0.9658286429652845,1,0.999968
0.9732469403727372,1,0.999983
0.9554946593923274,0,0.999586
0.9486759952708952,1,0.999928
0.9647608570855025,0,0.998849
0.9154862595033109,0,0.756852
0.9885753692305208,1,0.999969
0.996670157217301,1,0.999973
0.9982548239636365,1,0.999967
0.9982548239636365,1,0.999983
0.9982548239636365,0,0.998932
0.9953191431695275,1,0.999962
0.9947528366651699,1,0.999981
0.996973050681308,1,0.999981
0.9942264011862976,0,0.972402
0.9942264011862976,1,0.999982
0.9942264011862976,1,0.999944
0.9939233613072705,1,0.999984
0.9939233613072705,1,0.999980
0.9939233613072705,1,0.999977
0.9918768383706508,0,0.999730
0.9918768383706508,1,0.999977
0.991818374798399,1,0.999978
0.9917143123685638,0,0.995893
0.9915582050489249,0,0.998412
0.9913430640777128,1,0.999980
0.9910613710695918,0,0.976991
0.9907051088788906,1,0.999942
0.9479754382475907,1,0.999982
0.957064904979646,1,0.999976
0.9770874330594679,1,0.999976
0.9239498994342997,0,0.854318
0.9926735306245521,1,0.999965
0.9583662098698826,1,0.999976
0.9071166738857135,0,0.999754
0.9580643984035289,1,0.999981
0.9870876990739413,1,0.999982
0.9786375699854414,1,0.999924
0.9702386930120457,0,0.641514
0.9902485162145063,0,0.998902
