NaN,0,0.199254
NaN,0,0.211348
NaN,0,0.225529
NaN,0,0.242705
NaN,0,0.263221
-0.011654971832315612,0,0.192829
-0.011654971832315612,0,0.206700
-0.011654971832315612,0,0.219869
-0.011654971832315612,0,0.236788
-0.011654971832315612,0,0.255000
0.005013146857454926,0,0.952623
0.04707691631474612,0,0.962471
0.08855903383904133,0,0.208245
0.08830125380562107,0,0.212739
0.08830125380562107,0,0.228210
0.08968491193975842,0,0.211631
0.08968491193975842,0,0.229174
0.08968491193975842,0,0.242389
0.08719221847969874,0,0.224708
0.08719221847969874,0,0.240031
0.06357085324032023,0,0.900238
0.10992301836895374,0,0.954634
0.08394349930364979,0,0.965528
0.1650219648909928,1,0.999980
0.07873352268846989,0,0.667260
0.2482237859345326,0,0.961306
0.1767089993888417,0,0.996302
0.3547724597845778,0,0.999588
0.2068893925804045,0,0.871862
0.2584913657849497,0,0.891646
0.2994975229436291,0,0.994427
0.1398924150709269,0,0.942206
0.41488422568195754,0,0.997563
0.4638417836087338,0,0.953461
0.30090251561792475,0,0.418186
0.26379191436759586,0,0.998214
0.5324101122680029,0,0.999041
0.5248671872865072,0,0.941525
0.19013523180514622,0,0.911743
0.44350206548712706,0,0.890225
0.25074495425481297,0,0.935511
0.29266139662063206,0,0.861028
0.3457940332575138,0,0.929736
0.3012304862596893,0,0.995890
0.35417027957257213,0,0.992746
0.4672735454937247,1,0.999834
0.3167225906607847,0,0.389563
0.3210826370357135,0,0.983263
0.29660307100112354,0,0.649036
0.46691033834584317,0,0.941249
0.5267542699862225,0,0.960595
0.15519244019543738,0,0.950999
0.20664671370117385,0,0.950564
0.24722282697870523,0,0.947902
0.4722392553477733,0,0.996860
0.23012050294984784,0,0.950784
0.29072621141332955,0,0.952009
0.268254543859366,0,0.951749
0.2849263595696288,0,0.998627
0.29891348393182554,0,0.946204
0.37550849742647,0,0.924166
0.27837484459443157,0,0.923158
0.28912532072663905,1,0.999778
0.3748316674997487,0,0.998295
0.33958727804716266,0,0.292185
0.24137231081360633,0,0.912168
0.40707296331045295,0,0.993013
0.341232044876011,0,0.800478
0.2981566480314536,0,0.917033
0.46756169448945,0,0.993747
0.48034245263512726,0,0.994563
0.5106602929554528,0,0.938804
0.3051169460436049,0,0.993458
0.6358754964474863,0,0.998534
0.406492165564881,0,0.983903
0.2801036358004828,0,0.924289
0.21521148351019798,0,0.961210
0.326839927750053,0,0.986225
0.3135233399659955,0,0.989240
0.2539484590661543,0,0.917941
0.2349099708043312,0,0.935165
0.34972186129113914,0,0.995061
0.17814697291741027,0,0.926027
0.4959353310958927,0,0.998145
0.5014187031770111,0,0.999455
0.4986500467030355,0,0.929021
0.28216050745243737,0,0.992597
0.39197370418079464,0,0.938299
0.488138680860681,0,0.996122
0.426946572180754,0,0.618668
0.4130981325833448,0,0.989716
0.32491748694944195,1,0.999790
0.6052419137518189,0,0.984599
0.32929977271806055,0,0.998966
0.2435921606919123,0,0.982985
0.27204204576781443,0,0.970112
0.3598610170514321,0,0.656872
0.2977818455754739,0,0.971230
0.24217687312251965,0,0.990139
0.2506424741640825,0,0.504702
0.4600930315314095,0,0.990785
0.5592521382031453,0,0.990923
0.43843071729093747,0,0.898061
0.48968654861023403,0,0.658640
0.2651132366336065,0,0.918338
0.6380866989633341,0,0.999166
0.712279469850312,0,0.987471
0.1895621595976712,0,0.991537
0.25332011132544346,0,0.998889
0.4676222238590656,0,0.984891
0.4828352047625616,0,0.982264
0.37736081763659524,0,0.609723
0.30668499901535445,0,0.965173
0.564171870473231,0,0.926459
0.561774712279407,0,0.984408
0.2517869185877788,0,0.999414
0.4960726186513591,0,0.927029
0.25897220945849786,0,0.999304
0.3215474263661519,0,0.923020
0.49061352151920984,0,0.618247
0.34067510186479266,1,0.999812
0.2602047050516073,0,0.937873
0.24086368160720945,0,0.938179
0.640404901994488,1,0.999745
0.2592138710423899,0,0.999543
0.4510388193974425,1,0.999793
0.42532169750883203,0,0.991676
0.42002424339302186,0,0.947153
0.4192698980697708,0,0.997052
0.42763657447769704,0,0.993506
0.29299730742740965,0,0.976671
0.3185033898036489,0,0.996891
0.3110226655942648,0,0.997402
0.5843984300536127,0,0.995566
0.32204865673712496,1,0.999677
0.39583038026713924,0,0.994404
0.4598068503111312,0,0.995510
0.42838064860013164,0,0.975883
0.5412073239688069,0,0.999054
0.653654693588263,0,0.997395
0.6904192500029305,0,0.999407
0.8094368620872812,1,0.999910
0.7935390481465765,1,0.999654
0.8382485513599123,1,0.999882
0.8550685783865085,1,0.999963
0.8928720867821597,1,0.999888
0.49806719488150436,0,0.981643
0.08967817065319451,1,0.999782
0.20948179294308486,1,0.999843
0.24086375089199696,0,0.911240
0.23825629543760599,0,0.997370
0.3063839934398521,1,0.999821
0.6793807311852176,0,0.992839
0.34725338929235794,0,0.992949
0.41015296007438157,0,0.944843
0.3482606266718128,0,0.522982
0.4347376632122449,0,0.990039
0.30262939882415735,0,0.984330
0.3335866303942709,0,0.921463
0.6318557629126287,0,0.992461
0.5185139255041873,0,0.992479
0.3260616113026431,0,0.999339
0.5466857983255584,1,0.999855
0.6385440705170178,0,0.999255
0.4884248307311207,0,0.992322
0.535582458737348,0,0.988050
0.5309225167412407,0,0.994710
0.5144233908972875,0,0.997578
0.3587321227469028,0,0.982895
0.5153951865580156,0,0.989675
0.533537221208051,0,0.984609
0.07951663996713554,0,0.996825
0.603094581846706,0,0.999207
0.3854554003090839,0,0.989655
0.25323556734055896,0,0.993913
0.27979474048841896,0,0.927102
0.47313182226460687,0,0.991529
0.4984125519840255,0,0.997371
0.35375044879103995,0,0.916469
0.5769346393507271,0,0.925235
0.5604183755015738,0,0.991344
0.46608610593160144,0,0.992494
0.4321940266093527,0,0.974152
0.49696407689750066,1,0.999881
0.5655366746363145,0,0.995595
0.5607777660014186,0,0.996740
0.5197684080893651,0,0.997845
0.16661222214801985,0,0.916176
0.4321420172679887,0,0.995535
0.45774974619236586,0,0.995208
0.6189279722795085,0,0.926021
0.47933979641080166,0,0.987458
0.5018483352422266,0,0.999554
0.5040891950949099,0,0.997201
0.48387125117547525,0,0.998313
0.4521350182584493,0,0.984953
0.5182022811171384,0,0.998446
0.2266284245093733,0,0.893174
0.5754145239919953,0,0.998015
0.6123430314692504,0,0.999469
0.5711219805154731,0,0.998878
0.5010700562494658,1,0.999821
0.5749159941299216,0,0.999521
0.5418949969924213,0,0.999522
0.38010676932731985,0,0.487493
0.36026079930263566,0,0.981277
0.44816183430954326,1,0.999745
0.32011896924428673,0,0.483320
0.17086867481964807,0,0.999598
0.22569585143938037,0,0.983269
0.23800999880529167,0,0.990590
0.5332653979657049,0,0.998155
0.5633304098402294,0,0.999321
0.7502976385359368,1,0.999727
0.8280050513795352,1,0.999924
0.7789529895746686,1,0.999714
0.7622781136393764,0,0.999373
0.7392359186206218,0,0.998591
0.2296408232447487,0,0.907457
0.5944369122917769,0,0.998269
0.34422553577037096,0,0.916357
0.4283410355645161,0,0.998271
0.2904213377988219,0,0.936094
0.29373918970707535,0,0.987604
0.22358361441233976,0,0.990041
0.25331728213537824,0,0.995797
0.3678324162906459,0,0.933058
0.3882566855270415,0,0.946952
0.38587146490225965,0,0.998450
0.37302587697138206,0,0.999258
0.5637965102445601,0,0.997154
0.33302868045714207,0,0.942497
0.589302460104683,0,0.999309
0.5067680027028278,0,0.987775
0.35577560397465136,0,0.994775
0.5147384274574013,0,0.998183
0.6152443856143467,0,0.983002
0.5766248558496259,0,0.999705
0.5706199155552376,1,0.999900
0.6195075203381121,0,0.991489
0.6522034270890257,0,0.992232
0.7038365218670084,0,0.999553
0.6126550366709468,1,0.999707
0.7044742224693069,0,0.986631
0.5637330256207113,0,0.985621
0.6886012885248061,0,0.996411
0.6737002309847546,1,0.999935
0.6384462230623371,0,0.988400
0.6973135002512648,0,0.997744
0.5129902064098292,0,0.924059
0.6154420237000114,1,0.999966
0.6514763883524921,0,0.999602
0.6447443932005155,0,0.997014
0.6924017139754802,0,0.995464
0.7076756733660114,0,0.999128
0.5597346529385,0,0.939079
0.6185906454803125,1,0.999873
0.5887414534484201,0,0.986569
0.48619321798410386,0,0.991598
0.5940661277734329,0,0.991195
0.4957236334883487,0,0.989843
0.6757323689660055,0,0.994823
0.7227036826164942,0,0.999312
0.6168384363579729,0,0.990214
0.7443061252877611,0,0.988396
0.7238441611832215,0,0.986375
0.7189724030523635,0,0.999629
0.5787646491653353,0,0.996075
0.7051450687797464,0,0.983504
0.7219848974256899,0,0.997661
0.7479108594679156,0,0.995783
0.3661341486458135,0,0.898762
0.4287936941698689,1,0.999940
0.5077772505308957,0,0.998614
0.5533873005291979,0,0.885609
0.5995109978006814,0,0.950202
0.6749767576446767,0,0.945962
0.7449546683511792,0,0.998878
0.6892666548128549,0,0.998059
0.7612088279466612,0,0.999403
0.7495130932482282,0,0.933516
0.7978774201179821,1,0.999842
0.7917642540205582,1,0.999915
0.5981331421125751,1,0.999942
0.6579457033213746,0,0.998983
0.43376069540098394,0,0.985621
0.4016390057243905,0,0.994977
0.5383781903302751,1,0.999819
0.3093744230329538,0,0.998742
0.47121024334691386,0,0.999158
0.5006672225166805,0,0.996281
0.6185312183246101,1,0.999964
0.6621545101827385,0,0.999293
0.4406780617532932,0,0.997852
0.7512180607569036,0,0.999553
0.8037360567663765,0,0.997116
0.6765813844231917,0,0.998454
0.7032645431922353,1,0.999917
0.6153025595958507,0,0.921777
