0.6730198249225758,0,0.977794
0.7616259614038486,0,0.969697
0.8331574523851446,0,0.975494
0.8796747003912657,0,0.974900
0.9068676335168686,0,0.987454
0.9260966613315585,0,0.981427
0.9382172247344667,0,0.983590
0.947516600069947,0,0.988450
0.9539796949576484,1,0.999267
0.9580843873656265,1,0.999377
0.9086447411449095,1,0.991501
0.9297832301188005,1,0.998688
0.9437175564051722,1,0.996644
0.9517688480877105,1,0.996320
0.9572333173334059,1,0.999346
0.9612402116656312,1,0.999303
0.9640245529973743,1,0.998206
0.9663342269845776,1,0.996735
0.9677691768055503,1,0.997714
0.9686278364939541,1,0.994850
0.9693371512189022,1,0.999251
0.9698279028486737,1,0.999294
0.9401791168693695,1,0.997961
0.9509931384800033,1,0.999328
0.9586219905728532,1,0.999377
0.963599896939775,1,0.999300
0.9667051686307654,1,0.998484
0.9691717219512029,1,0.995777
0.97091030544095,1,0.993475
0.9718911861682932,1,0.999383
0.9730603920240524,1,0.999262
0.9742233925679905,1,0.998394
0.9749909563590115,1,0.999183
0.9755494658250522,1,0.998514
0.9758601128310522,1,0.999211
0.9761301858059398,1,0.998774
0.9765003156028664,1,0.997877
0.9592017822914974,1,0.998484
0.965550980686914,1,0.996734
0.9698763442522398,1,0.998572
0.9729296976600653,1,0.999380
0.975343143690543,1,0.994687
0.9768374536538508,1,0.999181
0.977894079487869,1,0.998519
0.9787473318251159,1,0.997555
0.9794447446167507,1,0.999262
0.9798133529386108,1,0.999338
0.9800460681053426,1,0.999123
0.9800845492285191,1,0.998793
0.9802447574177637,1,0.997602
0.9804798117630082,1,0.999242
0.9806146247083395,1,0.999116
0.9806110501705876,1,0.999238
0.961604710776971,1,0.999139
0.9682148539661243,1,0.998414
0.9729131681126122,1,0.999188
0.9761005472154235,1,0.999172
0.9782446748022058,1,0.998028
0.9798184576909655,1,0.999109
0.9807760204872179,1,0.999377
0.9815177474910279,1,0.997324
0.9820466428285126,1,0.998682
0.9824893887901777,1,0.998163
0.9827481144442133,1,0.999249
0.9828493985373518,1,0.999110
0.9830463763752927,1,0.999133
0.983053084361281,1,0.998718
0.982995946630904,1,0.997458
0.9828715473627244,1,0.999166
0.9826227779668112,1,0.999066
0.9825500931709749,1,0.999210
0.961408338300226,1,0.999113
0.9684283873082776,1,0.999144
0.9730874258815941,1,0.998665
0.9764185081358968,1,0.999163
0.9787182253348242,1,0.997374
0.9804653055026329,1,0.998012
0.9815358157915217,1,0.998590
0.9822205061457873,1,0.998331
0.9827084008001906,1,0.998614
0.9828864289304942,1,0.999356
0.9829466050726279,1,0.996839
0.9829733703953745,1,0.998000
0.9830237061108357,1,0.999110
0.9830513672732695,1,0.999321
0.9830944461702216,1,0.999195
0.9830640661039397,1,0.999280
0.9829239560279871,1,0.999206
0.9827148324295939,1,0.998855
0.9824099757655109,1,0.998454
0.9820398623742145,1,0.999219
0.9816694350197497,1,0.997389
0.9668227584000424,1,0.999106
0.9717551118606005,1,0.999327
0.9748959730639841,1,0.998028
0.9773816915750919,1,0.999150
0.979148068606025,1,0.998703
0.9805050323290014,1,0.999169
0.9814245796217966,1,0.999155
0.982182048672393,1,0.999123
0.9826912477801416,1,0.996881
0.9830801493465186,1,0.999020
0.9832856453241026,1,0.999287
0.9832417680086478,1,0.999331
0.9831313960629929,1,0.998093
0.983025520928134,1,0.997534
0.98277111024985,1,0.998523
0.9825213770055933,1,0.999125
0.9823261123962178,1,0.997699
0.9820607901113949,1,0.998710
0.9818472695577909,1,0.999242
0.9816139396663284,1,0.997132
0.9812831662221434,1,0.998955
0.9808660221884842,1,0.997441
0.9648094075511493,1,0.999145
0.9697916624547369,1,0.998585
0.9734688838466913,1,0.999023
0.9764215168846523,1,0.999228
0.9786268881003692,1,0.999169
0.9801801358235412,1,0.996807
0.9814456657959819,1,0.998041
0.9821928945708726,1,0.999118
0.9826625136944855,1,0.998717
0.9830242747045171,1,0.999278
0.9830483004643228,1,0.999167
0.9831217540723387,1,0.996161
0.9832381302140416,1,0.999373
0.9831566410897568,1,0.999321
0.9829637986228076,1,0.997438
0.9829747815074363,1,0.999178
0.9827588395243806,1,0.999253
0.9825644240259424,1,0.999158
0.9825363695919531,1,0.999087
0.9823771335776084,1,0.999186
0.9820653855082341,1,0.999097
0.9817814847748202,1,0.999049
0.9814458686993732,1,0.998375
0.9813146474341523,1,0.998138
0.9811573131616395,1,0.998115
0.9695400292048949,1,0.999250
0.9737191976575014,1,0.999188
0.97699981171707,1,0.998035
0.9794768472002656,1,0.997074
0.9811594001340794,1,0.999039
0.9826523147385038,1,0.999153
0.9837897207970444,1,0.997361
0.9846419429573867,1,0.999342
0.985050949339101,1,0.999357
0.9853691509428798,1,0.999403
0.9855440337877198,1,0.999283
0.9857444513610937,1,0.998983
0.9859186834351751,1,0.999044
0.9860309051733562,1,0.998720
0.9859010182396345,1,0.998371
0.9857607276266035,1,0.999045
0.9856722587889568,1,0.998727
0.9855836554076006,1,0.999175
0.9854216688111755,1,0.999311
0.9853018720849941,1,0.999254
0.9849570815772521,1,0.998691
0.9846609584382414,1,0.999239
0.9843762567631377,1,0.999150
0.984150366775127,1,0.999280
0.9838343058411916,1,0.999168
0.9835774201326877,1,0.999142
0.9667570683013605,1,0.996058
0.9715189483022549,1,0.997567
0.9752565155778338,1,0.999281
0.9781445048038625,1,0.998748
0.979935434416012,1,0.999046
0.981427199974229,1,0.999258
0.9826877213544564,1,0.998932
0.9834807340896539,1,0.999265
0.9841286182042234,1,0.999100
0.9844980662185044,1,0.999284
0.9849094127572602,1,0.999259
0.9852281523040978,1,0.998534
0.9853262426189161,1,0.998580
0.9855486797281635,1,0.999289
0.9854803239157256,1,0.998164
0.9854383758558598,1,0.999319
0.9853049633828186,1,0.999167
0.9851441448913069,1,0.998069
0.9849013900806688,1,0.999293
0.9847398752987998,1,0.998706
0.9845964349254096,1,0.999267
0.9843682462823296,1,0.999103
0.9842423172032666,1,0.999283
0.9840214157904927,1,0.999113
0.9837098503805797,1,0.999288
0.9834483927369685,1,0.999224
0.9832418855421435,1,0.999163
0.9830465936486997,1,0.999316
0.9828351330643543,1,0.999310
0.9692134148569217,1,0.997644
0.9730425992561932,1,0.998551
0.9761547770585365,1,0.999193
0.9786257334024563,1,0.998261
0.9806544460997799,1,0.999294
0.9820707098678519,1,0.999343
0.9832636287424984,1,0.998601
0.9841082671712541,1,0.999006
0.9845703594505463,1,0.999034
0.9847856960007849,1,0.999058
0.985015978552268,1,0.998400
0.9850362635399578,1,0.999139
0.9851461029578603,1,0.999121
0.985125219673007,1,0.998294
0.984961174142462,1,0.999271
0.9847589534306211,1,0.999296
0.9846490882774228,1,0.999158
0.9845035416982214,1,0.998353
0.984237987670678,1,0.998253
0.9840671708959255,1,0.998715
0.9839419251519421,1,0.999317
0.9837704573587444,1,0.999250
0.9835931329559897,1,0.999225
0.9833492417666058,1,0.998565
0.9831435894208241,1,0.999234
0.9829729879228858,1,0.999077
0.9828670798928679,1,0.999226
0.9827283396533063,1,0.999342
0.9825781709354531,1,0.999330
0.9822875405091909,1,0.999354
0.9659970043793125,1,0.999332
0.9706679892424006,1,0.999186
0.9740363830384902,1,0.996556
0.9766860330168459,1,0.998553
0.9788421110221718,1,0.999162
0.980290591302215,1,0.999331
0.9813146084785349,1,0.998637
0.9821960740146897,1,0.997354
0.9826503509011577,1,0.999273
0.9829975030669724,1,0.999344
0.983310957011057,1,0.999022
0.9833770719666598,1,0.999445
0.9834050892085036,1,0.999251
0.9833058195365646,1,0.999279
0.9830747956267708,1,0.998814
0.9832116785152244,1,0.999109
0.9833882013313432,1,0.998627
0.9834552588934413,1,0.998853
0.9834224247579998,1,0.999121
0.983345175291634,1,0.999045
0.9832170433407315,1,0.999213
0.983242101454423,1,0.999260
0.9830607553039373,1,0.999219
0.9830396577385201,1,0.999131
0.9831005293977649,1,0.998283
0.9830754771234279,1,0.998879
0.9828927436580795,1,0.999242
0.9825732408440604,1,0.999293
0.9822867855623718,1,0.998875
0.9822689738294822,1,0.999186
0.9821376633459232,1,0.999049
0.982137172777489,1,0.999351
0.9634828059208658,1,0.999330
0.9689811885955868,1,0.999165
0.9732068874850277,1,0.999267
0.9762257001346248,1,0.997643
0.9789143338181798,1,0.997052
0.9809992763801892,1,0.998405
0.9823480729865893,1,0.999153
0.9835577721757403,1,0.997248
0.9847040655141589,1,0.998326
0.9855115978036431,1,0.997433
0.9860159668675873,1,0.998035
0.9862415488331928,1,0.999165
0.9865572970087579,1,0.999328
0.9868473740664435,1,0.998826
0.9871377186721394,1,0.999197
0.9873572513902428,1,0.999257
0.9874492975030992,1,0.998180
0.9875334774515304,1,0.998423
0.9875230394877138,1,0.999049
0.9874475759812799,1,0.998321
0.9873107243518306,1,0.999240
0.9873173677376845,1,0.999225
0.987152143104715,1,0.999215
0.9869292383788464,1,0.999371
0.9868115867288556,1,0.999314
0.9868768074471703,1,0.999171
0.9867238487597626,1,0.999299
0.9866043624954617,1,0.997851
0.9863065996616338,1,0.998730
0.9859997999503577,1,0.999295
0.98580390197998,1,0.997833
0.9855469846574154,1,0.999221
0.985327981576597,1,0.998101
0.9851763746857043,1,0.999319
0.9849605691548559,1,0.999248
0.9668886218588786,1,0.998053
0.9714931306630868,1,0.998512
0.9749513033318341,1,0.999293
0.9779060710531858,1,0.999293
0.9800617008969131,1,0.998350
0.9819284621498126,1,0.999240
0.9835258876914907,1,0.999194
0.9847493291982526,1,0.998035
0.9856355995256945,1,0.998253
0.9863757276713516,1,0.999302
0.9869097661836206,1,0.999337
0.9873154608878908,1,0.999076
0.9875451720937699,1,0.998337
0.9876822746639783,1,0.998995
0.9879197284492619,1,0.997886
0.9882406900661044,1,0.997691
0.9884347433318231,1,0.998174
0.9884951129923628,1,0.999155
0.9885475767327186,1,0.999042
0.9885766537260507,1,0.998488
0.988499856955778,1,0.998858
0.9884387088087595,1,0.999195
0.9883236836857529,1,0.999176
0.9882096966382423,1,0.998828
0.9882426057602504,1,0.997555
0.9882764772217288,1,0.999339
0.9881219989400519,1,0.998140
0.9879120215064424,1,0.998644
0.9877275300245261,1,0.999141
0.9875597853786573,1,0.997710
0.9874502279362866,1,0.999285
0.9874209380893301,1,0.998978
0.9872743509847941,1,0.999357
0.9870638823368566,1,0.998086
0.987027997023311,1,0.999262
0.9869474337001036,1,0.999303
0.9642691234598778,1,0.999219
0.9688694606787105,1,0.999257
0.9727836948742453,1,0.999274
0.9756712489764581,1,0.999075
0.9781613329927558,1,0.999038
0.9802100334074336,1,0.999012
0.9818163769035174,1,0.999228
0.9831533006411768,1,0.999056
0.9840443013391708,1,0.998818
0.9848038608975083,1,0.998187
0.9855219188231423,1,0.999167
0.9860787647275145,1,0.999288
0.9865341217967212,1,0.999174
0.9870164477698086,1,0.999201
0.9873901369817201,1,0.999113
0.987531601107809,1,0.998495
0.9876462400203552,1,0.999220
0.9875911250786656,1,0.998483
0.9875433362943425,1,0.998470
0.9874998304263166,1,0.999154
0.9874378986291455,1,0.999124
0.9872778234971944,1,0.998353
0.9870968129796933,1,0.999429
0.9869575645515349,1,0.999429
0.9869126965012943,1,0.999159
0.9866964780148124,1,0.999250
0.9863668996940299,1,0.999167
0.9860928497290572,1,0.999407
0.9859482219970889,1,0.999271
0.9858773076224001,1,0.998739
0.9856882558936257,1,0.999183
0.9855936515938926,1,0.999152
0.9855246687927158,1,0.999157
0.9854369224061199,1,0.999126
0.9852454732624903,1,0.998925
0.9850828073059299,1,0.999183
0.9850052849235981,1,0.999288
0.9848429109237258,1,0.998462
0.9847410893976408,1,0.999489
0.965828169431247,1,0.999119
0.9697384298801184,1,0.997283
0.9734565602230497,1,0.997848
0.976326564259787,1,0.999297
0.9784188267822995,1,0.992936
0.980417852492334,1,0.997779
0.9819533413910928,1,0.998205
0.9831873555651781,1,0.999062
0.9839364269422718,1,0.998524
0.9845791604171917,1,0.998238
0.9853505614367439,1,0.999244
0.9858856282376589,1,0.998324
0.9862278342509105,1,0.999188
0.9864791530674811,1,0.999346
0.9867907064804381,1,0.999261
0.9869194180826915,1,0.999333
0.987062656837498,1,0.997346
0.987045136825732,1,0.999289
0.987147281289373,1,0.999274
0.9871108379386568,1,0.999261
0.987072443167025,1,0.999208
0.9870239994683194,1,0.999104
0.9871111399792772,1,0.999141
0.9871236133179276,1,0.999041
0.987082506618391,1,0.999309
0.9870493802794574,1,0.999308
0.9868955606100904,1,0.999394
0.9867358439238921,1,0.999255
0.986621838771905,1,0.998730
0.9864829550834794,1,0.999077
0.9864030330689486,1,0.999195
0.9862298548240516,1,0.999203
0.9861229038812321,1,0.999304
0.9859379250315571,1,0.999124
0.9857574692886537,1,0.999311
0.9856157560470029,1,0.999322
0.9855538097955596,1,0.999382
0.9854880358304184,1,0.999378
0.9854264574722129,1,0.998802
0.9852974481483038,1,0.999268
0.9851940050707029,1,0.999133
0.968880140873447,1,0.999127
0.9721629150397839,1,0.999208
0.9747647251807865,1,0.999250
0.9768949382601377,1,0.997340
0.9785756596466827,1,0.999187
0.9799433372700256,1,0.996040
0.9809293485665044,1,0.998655
0.981694585114493,1,0.999211
0.9825608647996654,1,0.996845
0.9833147830904306,1,0.998011
0.9839125741051616,1,0.999280
0.984583602864563,1,0.998086
0.985104500917218,1,0.999246
0.9856241775733112,1,0.998553
0.9859736232775276,1,0.999244
0.9860737276778545,1,0.998347
0.9861011035325462,1,0.998765
0.9860430299391635,1,0.999269
0.9859726761510296,1,0.998095
0.9859442672281974,1,0.998895
0.9857455235072536,1,0.999165
0.985678089132457,1,0.998009
0.9854989126272689,1,0.999183
0.9853955743979258,1,0.999395
0.9853053785423517,1,0.998656
0.9850838236111141,1,0.999040
0.9849965144028398,1,0.999151
0.984798141924499,1,0.999307
0.98458449900998,1,0.999175
0.984369298493044,1,0.999162
0.9842233755794966,1,0.998720
0.9839379141717902,1,0.999263
0.9836598599998009,1,0.998093
0.9835286274409698,1,0.999089
0.983499728599061,1,0.998270
0.9833511816108741,1,0.999081
0.9832486817617658,1,0.999187
0.9831141537592805,1,0.999383
0.9829650316038462,1,0.998371
0.9827640618371416,1,0.999130
0.9825969509724719,1,0.998043
0.9824871734464615,1,0.999082
0.9682052575574216,1,0.998326
0.9718822485241346,1,0.996096
0.974766218125339,1,0.996012
0.9773232899705732,1,0.995521
0.9795016558478425,1,0.999311
0.981411627012512,1,0.997008
0.9825904633719722,1,0.998925
0.9836775936548601,1,0.999284
0.9848309772263019,1,0.999192
0.9854436376934217,1,0.998983
0.9859389361122409,1,0.998587
0.9865417823213963,1,0.998148
0.9871588485056632,1,0.998810
0.9876629453527868,1,0.998478
0.9881242834820705,1,0.997232
0.9884869111486819,1,0.998688
0.9888274966897131,1,0.997834
0.9890404953697906,1,0.999174
0.9891555286081806,1,0.997268
0.9891968164759495,1,0.998116
0.9891653011882647,1,0.999277
0.9891322253371534,1,0.998706
0.9890473243975512,1,0.997927
0.9889588187331908,1,0.999300
0.9888556239048423,1,0.998965
0.988702368865082,1,0.998520
0.9884039522203678,1,0.999209
0.9880723364275371,1,0.999049
0.9878237660683306,1,0.998253
0.9876295746265743,1,0.998319
0.9874841883014286,1,0.999071
0.9873226308691043,1,0.999080
0.9870565058354769,1,0.999083
0.9868442748543708,1,0.998377
0.9865693398437095,1,0.999269
0.9863483427025154,1,0.999214
0.986076688941625,1,0.999378
0.9858288452199407,1,0.999147
0.9855685948990363,1,0.999138
0.9853064727312494,1,0.998566
0.9851129815224515,1,0.998596
0.9849084166195541,1,0.999184
0.9847492261276481,1,0.998924
0.984455331119796,1,0.998037
0.9841734789891347,1,0.999331
0.9684367688390723,1,0.997537
0.9720515655359728,1,0.996032
0.9744430559547448,1,0.998926
0.9763885273875035,1,0.998932
0.9781249053375891,1,0.996144
0.9796981882327573,1,0.999115
0.9809175800579587,1,0.996122
0.9815631891951244,1,0.999142
0.9824321178676088,1,0.997070
0.9831776198447574,1,0.999127
0.9836804707718706,1,0.999089
0.9840527717667362,1,0.997387
0.984447346030515,1,0.997961
0.9847476208481082,1,0.998401
0.9849681257467451,1,0.997848
0.9850618095574599,1,0.998917
0.9853273819752459,1,0.998112
0.9855763525640792,1,0.999162
0.9857307593148155,1,0.999319
0.985869342260961,1,0.999140
0.9859624365503719,1,0.997480
0.9859446031680449,1,0.999257
0.9859057912904696,1,0.999316
0.9857663003146119,1,0.999303
0.9855739335230433,1,0.999418
0.9853803080663632,1,0.999119
0.9852233906058329,1,0.999391
0.9850434522276361,1,0.998208
0.9849301354156234,1,0.998748
0.9848069989431532,1,0.998294
0.9846481796550879,1,0.997743
0.9844823770773,1,0.999222
0.984338243895205,1,0.999187
0.9841947123768524,1,0.998650
0.9840632569670167,1,0.998600
0.9838964358739706,1,0.999328
0.9836881721564517,1,0.998678
0.9835133428567765,1,0.999222
0.9833167771970919,1,0.999291
0.9831113489455743,1,0.999157
0.9829127228887411,1,0.997736
0.9827088263281106,1,0.999318
0.9824713871645026,1,0.998632
0.9822473499339839,1,0.999133
0.9821168763331738,1,0.999328
0.9818997548295627,1,0.999212
0.9645143983048053,1,0.999371
0.9676887333610605,1,0.999093
0.9707755627693468,1,0.997087
0.9735826228950424,1,0.998307
0.9756199130215054,1,0.995115
0.9776104985641179,1,0.999221
0.9796461510443525,1,0.999279
0.9812810221667521,1,0.996921
0.9825109098495218,1,0.996747
0.9836759688983046,1,0.999147
0.9844834687207872,1,0.996587
0.985180454670992,1,0.999295
0.9856190255074121,1,0.999224
0.9860007116036732,1,0.999249
0.9863863776260047,1,0.999256
0.986661619811583,1,0.999122
0.9867824539168383,1,0.997951
0.9868754054713602,1,0.998673
0.9868965043964782,1,0.998741
0.9869635629931239,1,0.996370
0.9869027470702822,1,0.997985
0.9867829162947088,1,0.999254
0.986677602096012,1,0.998690
0.9864403123379438,1,0.999336
0.98632500388252,1,0.999032
0.9861136900414881,1,0.999117
0.9859069651545794,1,0.999157
0.9857830928556914,1,0.999430
0.9858621349416729,1,0.999291
0.9859172327569968,1,0.998383
0.985894525902615,1,0.999059
0.985877444421329,1,0.999133
0.985893127845099,1,0.999293
0.9858276400399393,1,0.998547
0.9858102874157476,1,0.999165
0.9857007332022066,1,0.998585
0.9855684205063879,1,0.999417
0.98552368481112,1,0.998668
0.9854654678448218,1,0.998593
0.985298848681257,1,0.999291
0.9852512594938336,1,0.998074
0.9851579616409586,1,0.999398
0.9850054945178441,1,0.998425
0.9848505731296435,1,0.999251
0.9847052115167988,1,0.999231
0.9845689590436476,1,0.999372
0.9844029937348371,1,0.998575
0.9842886281986776,1,0.999394
0.9840458471319595,1,0.999306
0.9655478952557456,1,0.998141
0.968874903781223,1,0.998584
0.971595041739934,1,0.997525
0.9739618532598828,1,0.998924
0.9755347405516877,1,0.999328
0.9769961024424578,1,0.999265
0.9784223044980062,1,0.999410
0.9794704398319224,1,0.999208
0.9805100410147558,1,0.999243
0.9815258102204294,1,0.999222
0.9823040000108809,1,0.999217
0.9828134361439451,1,0.998617
0.9833572006101559,1,0.999344
0.9837384005111245,1,0.998927
0.984057078456685,1,0.999257
0.9843111646950741,1,0.998984
0.9845498137402118,1,0.998648
0.9850112275576196,1,0.999201
0.9853851214159665,1,0.998127
0.9855296169405013,1,0.998384
0.9856066637887774,1,0.998011
0.9856274080351132,1,0.999306
0.9856464466200515,1,0.999159
0.9857075551105998,1,0.999292
0.9856327413451356,1,0.998700
0.9855907764634163,1,0.999255
0.9855641904094854,1,0.997294
0.9854097405435586,1,0.997834
0.9852433935012136,1,0.997886
0.9852831670786278,1,0.999108
0.985160344446851,1,0.999075
0.985088064311646,1,0.999083
0.9849457635262633,1,0.998689
0.984910160219609,1,0.999178
0.9848646772463432,1,0.999086
0.984821644247796,1,0.999076
0.9846432172825403,1,0.997727
0.9844532036219229,1,0.999174
0.9842645997073581,1,0.997563
0.9841377586305465,1,0.998554
0.9839813659844417,1,0.997947
0.9838531897330535,1,0.999218
0.9837134482230904,1,0.998688
0.9835728891418194,1,0.998805
0.9834473859512419,1,0.999110
0.9832490187161603,1,0.999328
0.98309053652344,1,0.999178
0.9829645195259484,1,0.999094
0.9828079048296676,1,0.996429
0.9827208520527118,1,0.999224
0.9825934039632145,1,0.999107
0.9677747869100185,1,0.998308
0.9718303157158559,1,0.997465
0.975142378635461,1,0.997203
0.9778832819092889,1,0.999261
0.9800669828737338,1,0.998748
0.981886263451396,1,0.999371
0.9833124043472321,1,0.999367
0.9843847816659981,1,0.998502
0.9851766209414824,1,0.997789
0.9858301494267011,1,0.997701
0.9864035289407171,1,0.999249
0.9868526853861508,1,0.997091
0.9871443536435118,1,0.997019
0.9872530934117999,1,0.999418
0.9873617606390561,1,0.999006
0.9874326631903492,1,0.998097
0.9875451801680976,1,0.999194
0.987591103581675,1,0.999094
0.9875585357131218,1,0.999056
0.9875579461154165,1,0.999373
0.9874680007886569,1,0.998692
0.9873305367844813,1,0.998796
0.9872028773049775,1,0.999135
0.9872052895187947,1,0.999165
0.9871942355516284,1,0.998954
0.9871599601919523,1,0.997734
0.9870610245699988,1,0.999169
0.9870348381508336,1,0.999377
0.9869480690088609,1,0.999104
0.9868490938072063,1,0.998968
0.9866965801829289,1,0.997685
0.9865697897680269,1,0.998606
0.9864114421509355,1,0.999188
0.9862464742689513,1,0.998948
0.9860394306143788,1,0.999283
0.9858808089046028,1,0.998715
0.9857203350932805,1,0.999411
0.9855730512944936,1,0.998577
0.9854194180769893,1,0.999134
0.985303033565991,1,0.998696
0.9851436541709339,1,0.999396
0.9850667270811914,1,0.998752
0.9848736687493492,1,0.999286
0.9847080216330818,1,0.998600
0.9845439531880341,1,0.999395
0.9844161159986677,1,0.999357
0.9843425637764853,1,0.999273
0.9842056179705384,1,0.999356
0.984116643142022,1,0.998678
0.9839909667270391,1,0.999191
0.983823704852091,1,0.999271
0.9836193598082089,1,0.998711
0.9657066010120317,1,0.999415
0.9693192042372065,1,0.997581
0.9724431627729722,1,0.995730
0.974997796485531,1,0.999245
0.9770857830964501,1,0.999387
0.978941472335313,1,0.999389
0.980577002819591,1,0.998545
0.9820831747741953,1,0.997581
0.9833545542914768,1,0.996919
0.9843097239168801,1,0.999100
0.9849572255853323,1,0.999278
0.9856351917176608,1,0.999096
0.9861085418711993,1,0.998778
0.9866394178486869,1,0.998066
0.9870673069584331,1,0.998741
0.9877173511671484,1,0.998794
0.9881946422387026,1,0.996183
0.9885528595544874,1,0.996045
0.9889101081621698,1,0.999209
0.9891015468137535,1,0.997375
0.9893290731333068,1,0.998462
0.9894755985468106,1,0.999000
0.9895675127601499,1,0.996829
0.9894956155540977,1,0.998732
0.989439402397173,1,0.997854
0.9894484787235373,1,0.999048
0.9894269403146105,1,0.999112
0.9894314903132699,1,0.999057
0.989363293935809,1,0.999245
0.9893040948536699,1,0.998764
0.9892807987019735,1,0.998729
0.9892052093637904,1,0.998958
0.9891276227723085,1,0.999245
0.989000962522105,1,0.999127
0.9889300016688124,1,0.997500
0.9888381559294748,1,0.998478
0.9887576783659039,1,0.998155
0.9886821086522919,1,0.999270
0.9885855869245859,1,0.997762
0.9884708374293538,1,0.996695
0.9883418257914519,1,0.999032
0.9882536897696454,1,0.998957
0.9880994532433675,1,0.999066
0.9879952485295016,1,0.999179
0.9878559495541149,1,0.999310
0.9876690061109485,1,0.999344
0.9875089516250676,1,0.998669
0.9873505972525811,1,0.997340
0.9871920389160111,1,0.999248
0.9870509438706551,1,0.998484
0.9868976381486456,1,0.998981
0.9867422428695907,1,0.998285
0.9866468386548976,1,0.999146
0.9865070024390703,1,0.999111
0.9864053466603501,1,0.999277
0.9657400307186789,1,0.997739
0.968662770156788,1,0.998377
0.9713541888905425,1,0.995040
0.9740417181241477,1,0.997813
0.9762311213943968,1,0.998358
0.9778437483362971,1,0.999293
0.979490903294648,1,0.998396
0.9807872369173511,1,0.997264
0.9818969365939628,1,0.998365
0.9831183153974831,1,0.998682
0.9841421754628473,1,0.998450
0.9849994009043351,1,0.998452
0.9856474414931602,1,0.998469
0.9862872143023381,1,0.998442
0.9867315238243817,1,0.999101
0.9870544152168693,1,0.997732
0.9873087440405868,1,0.999217
0.9875007470747095,1,0.998446
0.9877097350381312,1,0.999175
0.987851554079473,1,0.999223
0.9879943580310662,1,0.999375
0.9880910846286918,1,0.998354
0.9881601171833945,1,0.998704
0.988190425700378,1,0.999184
0.9881056360763404,1,0.998399
0.9881687726992971,1,0.998483
0.9882617406304126,1,0.999332
0.9882693233052852,1,0.998494
0.9882987539727267,1,0.999298
0.9882465569505462,1,0.999274
0.9882343335208749,1,0.999201
0.9881808655305103,1,0.999391
0.9880611729346401,1,0.999362
0.9879023658043025,1,0.999222
0.9877365242183991,1,0.999276
0.9876213737485162,1,0.999342
0.9875122291767731,1,0.998095
0.9874095940329679,1,0.999117
0.9872482116542983,1,0.999309
0.9870747976048803,1,0.999191
0.9868864337883125,1,0.998428
0.9867231511707987,1,0.998447
0.9865756460426423,1,0.998344
0.9864908948537142,1,0.998071
0.9863808462920479,1,0.999069
0.9862333458588597,1,0.999155
0.9861065396254958,1,0.998999
0.9859874130116048,1,0.998276
0.9858535090863174,1,0.998419
0.985747745520354,1,0.997326
0.9856454341728097,1,0.999385
0.9855172159880699,1,0.998358
0.9854062676734592,1,0.999142
0.985276495381626,1,0.999216
0.9851352229706236,1,0.999291
0.9850151446173737,1,0.998383
0.9849346406620243,1,0.997431
0.9644966845229241,1,0.995564
0.9679977909973421,1,0.997074
0.9713771567270845,1,0.998316
0.9739525880820632,1,0.999136
0.9761897182529239,1,0.997586
0.978026608189915,1,0.999117
0.9793952092185476,1,0.999174
0.9807309470671259,1,0.995979
0.9819615875879704,1,0.998634
0.9827564214165537,1,0.998324
0.9834492844680688,1,0.998395
0.9839183466667775,1,0.998386
0.9843485670865796,1,0.998476
0.9848072759613844,1,0.995789
0.9852632112560388,1,0.998821
0.9857839095273329,1,0.998819
0.9862227031198845,1,0.999148
0.9865827100941285,1,0.999311
0.9868269167730482,1,0.998271
0.9871196886336056,1,0.998604
0.9874207200263524,1,0.999402
0.9876549729594752,1,0.999274
0.9878380086987312,1,0.998084
0.9879932042054526,1,0.999115
0.9881549061210669,1,0.999243
0.9882705271137983,1,0.999221
0.9883286847060097,1,0.998621
0.9884377811109977,1,0.998259
0.9884817409830734,1,0.999271
0.9885110869031838,1,0.998998
0.9885149988486372,1,0.999179
0.9885643959349167,1,0.998540
0.9885418143608309,1,0.999270
0.9884532415844711,1,0.999206
0.9884026657033487,1,0.999395
0.9882939098060505,1,0.999015
0.9881626004270918,1,0.999258
0.9880463247896878,1,0.999274
0.9879415310215747,1,0.999174
0.9878253630053269,1,0.996728
0.98772689845064,1,0.999118
0.9875956861922652,1,0.997590
0.9874712700232768,1,0.999225
0.9873349952666535,1,0.999235
0.987302549714758,1,0.999326
0.9872086733991424,1,0.999244
0.987071244745103,1,0.999201
0.9869204187660797,1,0.999076
0.9868314915688741,1,0.998058
0.9867421320485323,1,0.998090
0.9866041652807471,1,0.999297
0.9865021561372515,1,0.999278
0.986426876990187,1,0.998096
0.9863249982966618,1,0.998913
0.9862078035809191,1,0.999041
0.9860603992157196,1,0.999117
0.9859834207136512,1,0.995086
0.9859137800203376,1,0.999194
0.9858234795202836,1,0.999283
0.9635556040208042,1,0.997305
0.966713075682117,1,0.997920
0.9694349377336754,1,0.996485
0.9716769960849623,1,0.996920
0.9738170109299289,1,0.997128
0.9753686579394201,1,0.998560
0.9766699897744439,1,0.999401
0.9777160752548169,1,0.999127
0.9787192429094688,1,0.997596
0.9794725723128579,1,0.997310
0.980241918710367,1,0.996564
0.9808920295122906,1,0.999261
0.9813447377238546,1,0.998966
0.9818211377544531,1,0.997481
0.9821699901380326,1,0.999325
0.9824029733033627,1,0.998974
0.9827382698343864,1,0.995997
0.9829946316754291,1,0.998992
0.9831147847740693,0,0.991085
0.9833765150121472,1,0.999296
0.9835976851308821,1,0.998311
0.9839277327429343,1,0.999337
0.9842646326767543,1,0.999047
0.9844712971702125,1,0.999225
0.984630015762582,1,0.999271
0.9847284449706403,1,0.999164
0.9850176420253842,1,0.998738
0.9851519720625396,1,0.997590
0.9851747414616797,1,0.996791
0.9851970316451475,1,0.997384
0.9853035043316877,1,0.999267
0.9853354718637697,1,0.999382
0.9853532001941983,1,0.999135
0.9853504072700866,1,0.999202
0.9854335019025836,1,0.999296
0.9854544091051055,1,0.999295
0.9854385994888594,1,0.999201
0.9853613531974749,1,0.999211
0.9852968772608981,1,0.998866
0.9852337468863798,1,0.996479
0.9851695973378639,1,0.999316
0.9850707171925839,1,0.999058
0.9850725341289194,1,0.999197
0.9850729759997596,1,0.999340
0.9850425170874031,1,0.999169
0.985051060208258,1,0.999359
0.9849997516367464,1,0.998355
0.9850137852781065,1,0.999362
0.9849233987933174,1,0.999385
0.984855272853671,1,0.998152
0.9847744472798518,1,0.999087
0.9847066965057126,1,0.999173
0.9846708559078903,1,0.999222
0.9846348119327003,1,0.998450
0.9845542513880731,1,0.999221
0.9844391118318104,1,0.998138
0.9843190326287636,1,0.998733
0.9842737684962306,1,0.996596
0.9842832319861405,1,0.996745
0.9842255964779321,1,0.999188
0.9841643101136583,1,0.999080
0.9629121258741937,1,0.995228
0.9662553074851614,1,0.999112
0.9687168527432185,1,0.997531
0.9710762997917922,1,0.998962
0.9731529806532235,1,0.999233
0.9750940797134743,1,0.999085
0.9765091876552229,1,0.998387
0.9780467683666193,1,0.995760
0.979362367550004,1,0.999086
0.9806154754457147,1,0.998328
0.981602477067837,1,0.999398
0.9824502497165029,1,0.997956
0.9832213128295645,1,0.998483
0.9838453273625581,1,0.999131
0.9843765822486727,1,0.998409
0.9848813951405194,1,0.999194
0.9853886315541853,1,0.998117
0.9858575130708884,1,0.999253
0.9863433111930985,1,0.999186
0.9867966572410276,1,0.999230
0.9872658188843679,1,0.999134
0.9876454879544916,1,0.999396
0.9879631049806645,1,0.999099
0.9881564163765783,1,0.999250
0.9883267006056665,1,0.996549
0.9884570719653784,1,0.996626
0.9885178722953739,1,0.999244
0.9886037253050836,1,0.995787
0.9886283287351323,1,0.998353
0.988663872627444,1,0.999403
0.9886468163470662,1,0.999067
0.988605534314377,1,0.999375
0.9885340812466598,1,0.999176
0.9885153645939013,1,0.999208
0.9884678787328053,1,0.999086
0.9883845172611923,1,0.999234
0.9882005197122647,1,0.999113
0.9879853255609924,1,0.999165
0.9878906322223834,1,0.999188
0.9878132727678136,1,0.999242
0.987679116245352,1,0.999361
0.9875202971004515,1,0.998469
0.98734057940151,1,0.999198
0.987209517860274,1,0.999190
0.9871040387282985,1,0.999227
0.9870281561384566,1,0.998434
0.986954129361806,1,0.996542
0.986876817128972,1,0.999287
0.9867799886925548,1,0.999345
0.986673168434076,1,0.998106
0.9865169443446143,1,0.998674
0.9863885718413854,1,0.999328
0.9863056000540246,1,0.999353
0.9862050302474591,1,0.999258
0.9861163659849235,1,0.999255
0.9860818671378607,1,0.999103
0.9860602004378535,1,0.999261
0.9860267187193705,1,0.999113
0.985990809371079,1,0.997976
0.9859312045062147,1,0.999155
0.9858834653836074,1,0.998154
0.9857743449538513,1,0.999188
0.9598769624544835,1,0.998344
0.963416433093796,1,0.996543
0.9669541774194889,1,0.997101
0.9698577066389548,1,0.997115
0.9722202632912859,1,0.998386
0.9745152586610515,1,0.996454
0.9765563741995708,1,0.998259
0.9781486203705706,1,0.995962
0.9794068451529185,1,0.998296
0.9804817561440031,1,0.999385
0.981736338397022,1,0.998426
0.982638797634951,1,0.996644
0.9834575830091522,1,0.999268
0.984081770331547,1,0.996429
0.9846577305883808,1,0.999065
0.9851159512449704,1,0.999253
0.9855348291432349,1,0.997766
0.9858330046434928,1,0.999160
0.9862196099579147,1,0.998065
0.9864928907280573,1,0.999095
0.9868539396090823,1,0.999136
0.9870522239418026,1,0.999079
0.9872354457626076,1,0.999133
0.9873749566132048,1,0.999106
0.9874321990895415,1,0.999179
0.9875499657245504,1,0.999197
0.9877580103486875,1,0.999169
0.9879798244989272,1,0.999180
0.9881968677075947,1,0.999027
0.9883707234314598,1,0.999254
0.9885266740742297,1,0.995202
0.9886483154721897,1,0.998292
0.9886588641413215,1,0.999071
0.9886006482293641,1,0.999200
0.9885298230945123,1,0.999044
0.9885337828292033,1,0.999299
0.9885608209879803,1,0.999369
0.9885253313676315,1,0.999266
0.9884390036767636,1,0.999177
0.9883006670072731,1,0.999255
0.9882804628260473,1,0.997984
0.9881915241411561,1,0.997959
0.9880860218248528,1,0.999190
0.9880303022436597,1,0.996506
0.9879591658837259,1,0.998182
0.9879077985079091,1,0.998981
0.987803634331809,1,0.999125
0.9876944084510203,1,0.998066
0.9875880860412277,1,0.999151
0.987480388528189,1,0.999263
0.9874400553283831,1,0.998082
0.9873752385767157,1,0.996687
0.9872513444693402,1,0.999158
0.9871488000459651,1,0.999097
0.9870396293187051,1,0.999359
0.986906364706636,1,0.999398
0.9868430210294282,1,0.999208
0.9867871173303426,1,0.998408
0.9866370033225632,1,0.999103
0.9865112158755605,1,0.997319
0.9863832398970362,1,0.998917
0.9862720147607602,1,0.998267
0.9862079433756574,1,0.998158
0.9861737496159706,1,0.999051
0.9861423473424644,1,0.999165
0.9609008552361602,1,0.998834
0.964206259311315,1,0.999033
0.9665736873560399,1,0.999167
0.9685859616306265,1,0.998934
0.9710853012317887,1,0.996743
0.9732831168367535,1,0.996350
0.975247869296731,1,0.998369
0.9769455192810829,1,0.998302
0.9784860385674076,1,0.997050
0.979643954792243,1,0.999052
0.9805417402626342,1,0.994744
0.9812737864258263,1,0.999312
0.9820178866892334,1,0.999186
0.9828014061540697,1,0.995070
0.9836148965742612,1,0.998253
0.9841721920715173,1,0.995830
0.9848490714981302,1,0.999340
0.9854258362378482,1,0.999156
0.9859012228235007,1,0.999298
0.9862122823602151,1,0.998517
0.9863452013806121,1,0.999288
0.9865801896528005,1,0.995784
0.9867149224301655,1,0.998408
0.9868408567104293,1,0.999318
0.9870326544307939,1,0.998047
0.9870390979018215,1,0.996663
0.9870724047314071,1,0.999104
0.9871632867613138,1,0.999180
0.9872241051549101,1,0.996421
0.9873033307823491,1,0.996983
0.9873331925129778,1,0.998007
0.9872963063639599,1,0.999117
0.9871720627655107,1,0.999147
0.9870748347382764,1,0.999365
0.9870127324217463,1,0.995916
0.9869301914366481,1,0.996582
0.9868338158906876,1,0.996461
0.9867674148884863,1,0.998392
0.9866551202634408,1,0.998262
0.9864837925390548,1,0.999133
0.9863586179844268,1,0.998951
0.9862158575055431,1,0.998481
0.986121525026383,1,0.998497
0.9860173907665392,1,0.999316
0.9858926959842639,1,0.999383
0.9858982241558694,1,0.999423
0.9858510957704025,1,0.999248
0.985825833551356,1,0.998406
0.9857751130935357,1,0.999230
0.985699205673236,1,0.999308
0.9856035050732888,1,0.998648
0.9854877382335024,1,0.999361
0.9854299869788805,1,0.999410
0.9852956418289087,1,0.999283
0.9852160234410198,1,0.997255
0.9851055741095102,1,0.997439
0.9849952253296348,1,0.999151
0.9848776656024614,1,0.998904
0.984740707024965,1,0.998503
0.984652702526286,1,0.999292
0.9845603847737886,1,0.999224
0.9844476804572894,1,0.997270
0.9843173402398525,1,0.998305
0.9841892180419415,1,0.999077
0.9840436464675945,1,0.999271
0.9839215458131156,1,0.999266
0.9837965118216113,1,0.999322
0.9614224440156123,1,0.999226
0.964502821995226,1,0.996283
0.967181823243103,1,0.998122
0.9693055146312637,1,0.999419
0.9712183348946503,1,0.995314
0.9729661426048588,1,0.997350
0.9746067659362008,1,0.999354
0.9761314455163966,1,0.999163
0.9773731731933544,1,0.999253
0.9783675287684995,1,0.998367
0.979312161631929,1,0.997602
0.9802824868574258,1,0.999157
0.9810500772259976,1,0.999263
0.9817009820659103,1,0.999334
0.9823024422251025,1,0.999195
0.9827982254550052,1,0.998230
0.9832674682429674,1,0.999139
0.9837175342222406,1,0.999247
0.9841040017447331,1,0.999123
0.9844439686971538,1,0.999173
0.9846606719366505,1,0.999349
0.9847513119535141,1,0.999201
0.9848893533043354,1,0.998383
0.98489206147571,1,0.997860
0.9851139725705976,1,0.999298
0.9852085036917816,1,0.998864
0.9852701491793419,1,0.996382
0.9853680644010152,1,0.999222
0.9854054365467313,1,0.999150
0.985400870439481,1,0.999361
0.9853489071525071,1,0.999376
0.9852487916181876,1,0.999224
0.985270971945734,1,0.999238
0.9852111549894934,1,0.999190
0.9851268139743304,1,0.999290
0.9850001594301914,1,0.998183
0.9848713639813252,1,0.999082
0.9847754989980604,1,0.999094
0.984693776399884,1,0.999210
0.9845963333956772,1,0.998452
0.9844844472365498,1,0.999216
0.9843653600571494,1,0.997699
0.9842421660305608,1,0.999270
0.9840832592867025,1,0.997095
0.9839151101631599,1,0.999118
0.9837376054617079,1,0.999218
0.983612941084261,1,0.997942
0.9834609522672157,1,0.999410
0.9833331618273965,1,0.999421
0.983273052245294,1,0.999218
0.9831766849702211,1,0.999150
0.983077448098007,1,0.999249
0.9829653905133998,1,0.999239
0.9828116594139381,1,0.997303
0.9826410452157627,1,0.998454
0.9826184588937509,1,0.998316
0.9827609662045399,1,0.997581
0.9828129498124196,1,0.999307
0.9827806230349908,1,0.999387
0.9827105366712082,1,0.999283
0.9826065195228074,1,0.999258
0.9825347233585924,1,0.999260
0.982409735544616,1,0.999270
0.9823743190119509,1,0.999329
0.9823206818880958,1,0.998718
0.9823443944611223,1,0.999005
0.982246215114057,1,0.998815
0.9821975567504999,1,0.999275
0.9821047184686705,1,0.999270
0.9623847281488063,1,0.997019
0.965337764784449,1,0.994624
0.9681997117733487,1,0.999187
0.9706442233779253,1,0.998250
0.9725120607663542,1,0.999153
0.9742189907499766,1,0.998311
0.9757521649252077,1,0.997623
0.9769013128451433,1,0.997986
0.9781645482544986,1,0.999292
0.9792194408810112,1,0.999047
0.9804318890635579,1,0.999139
0.9816058538157444,1,0.996751
0.9825925455391246,1,0.997089
0.9832663964767973,1,0.999272
0.9837947220804362,1,0.999343
0.9842166678702943,1,0.999131
0.9844846284410779,1,0.999060
0.9848314366622039,1,0.997865
0.98493177858416,1,0.999069
0.9851309221956588,1,0.999156
0.985269590421519,1,0.999362
0.9854825761444032,1,0.998534
0.9856691966452167,1,0.999171
0.9859118015013134,1,0.999089
0.986117579673384,1,0.998965
0.9862790228160688,1,0.999208
0.9866010413308803,1,0.998589
0.9868398205743873,1,0.999038
0.9870916796738904,1,0.998876
0.9873257326258628,1,0.999238
0.9872799552473772,1,0.999075
0.9873471050604564,1,0.999227
0.9874002759817126,1,0.997658
0.9874593378527596,1,0.999102
0.9874490945930677,1,0.999155
0.9874599108885543,1,0.999072
0.987443564003237,1,0.999224
0.9873596700633129,1,0.999183
0.9872798201141655,1,0.999023
0.9872249799833556,1,0.999067
0.987174676061556,1,0.999302
0.9871261661014664,1,0.999030
0.987145137549448,1,0.997201
0.9871850398603733,1,0.998654
0.9871926018427503,1,0.997011
0.9871374396251528,1,0.999120
0.9871584234539935,1,0.998448
0.9872909447431003,1,0.999178
0.9873678181472416,1,0.994939
0.9874643033910798,1,0.999127
0.9875555047643664,1,0.999231
0.987605039874475,1,0.998753
0.9876811560462224,1,0.998467
0.9877485509015789,1,0.997458
0.9877833031638369,1,0.999120
0.9878398694794158,1,0.996423
0.9879062010547408,1,0.999361
0.9879112959862737,1,0.999203
0.9879236252267947,1,0.999322
0.9878886709071653,1,0.999070
0.987822306178547,1,0.999057
0.9878017686113493,1,0.999053
0.9877800665899755,1,0.999053
0.9877521644926529,1,0.999030
0.9877012703859863,1,0.999331
0.9876592694244025,1,0.999153
0.9876093245887146,1,0.999305
0.9875468417151327,1,0.998764
0.9875104808827919,1,0.998289
0.9874758498986834,1,0.999278
0.9874440190409423,1,0.998827
0.9618162217812196,1,0.999288
0.9644363155320869,1,0.997420
0.9663327407446708,1,0.998190
0.9689578623072418,1,0.999378
0.9709714161369605,1,0.997673
0.9727955307156431,1,0.994517
0.9743547821782703,1,0.999265
0.9754783260106497,1,0.999078
0.9770494045352905,1,0.998762
0.978050391489505,1,0.999307
0.9791069693373909,1,0.997703
0.9800383255808238,1,0.999381
0.980842926484575,1,0.998846
0.9815375089950741,1,0.999273
0.9822726017849166,1,0.997059
0.9828056446095068,1,0.999322
0.9833706249650265,1,0.995352
0.9838444149619885,1,0.999028
0.9842994516246671,1,0.997434
0.9846054242750021,1,0.998233
0.9848566077541686,1,0.999261
0.9849537412162358,1,0.998466
0.9851785905685562,1,0.999021
0.985380316106949,1,0.999253
0.9855494116396211,1,0.999080
0.9856491481924213,1,0.998253
0.9856339345897704,1,0.999031
0.9856872517317056,1,0.999022
0.9857425788069466,1,0.999218
0.9858145023721908,1,0.996540
0.9858648911994808,1,0.997739
0.9859136109863545,1,0.999347
0.9859128974046145,1,0.995014
0.9858442748686884,1,0.999203
0.9857895673473507,1,0.999300
0.985712545903651,1,0.999250
0.9856138984871194,1,0.995965
0.9854895464437947,1,0.996068
0.985358015762338,1,0.999290
0.9852300484991123,1,0.997669
0.9852109060171237,1,0.998470
0.9851704402244272,1,0.998100
0.9851145113101685,1,0.999258
0.9850913365557206,1,0.998416
0.9850313424054293,1,0.999182
0.985010916891307,1,0.999180
0.984925629941026,1,0.999328
0.9849012939701378,1,0.999372
0.9848226330365605,1,0.999294
0.9847083741002142,1,0.996332
0.9845767319116524,1,0.999249
0.9844580769184501,1,0.999097
0.9843633257708352,1,0.998748
0.9843079665759077,1,0.998965
0.9842064973446868,1,0.999324
0.9841031312496041,1,0.998020
0.9840067945636728,1,0.999220
0.9839108755155657,1,0.999277
0.9838173511757068,1,0.998650
0.9837039317680559,1,0.999203
0.9835897087626571,1,0.999364
0.9834908155417125,1,0.999348
0.983386751579049,1,0.999220
0.9832724013655882,1,0.998666
0.9831540251466283,1,0.997904
0.9830028342375193,1,0.999383
0.9828789409547464,1,0.999203
0.98273719281537,1,0.999399
0.9826207307821805,1,0.999279
0.9825078730605709,1,0.999191
0.9824191639352089,1,0.999214
0.9823172255458233,1,0.999344
0.982206907281938,1,0.999245
0.9613676643523735,1,0.998005
0.9636868434075256,1,0.998435
0.9661626691198665,1,0.999072
0.9681361823554359,1,0.997712
0.9696344269755081,1,0.999173
0.9714625725705737,1,0.999023
0.9728692203737991,1,0.997715
0.9742918198250564,1,0.996283
0.9754596621683926,1,0.996264
0.9764879650626058,1,0.999363
0.9773640296952444,1,0.998285
0.9783213167590291,1,0.995822
0.9791076602051311,1,0.999258
0.9798158420208704,1,0.999283
0.9804140090215018,1,0.999163
0.9809221688403225,1,0.997540
0.9812695827634168,1,0.997726
0.981604200893621,1,0.997831
0.9818328698796934,1,0.999055
0.981962842461394,1,0.997768
0.9820435603171382,1,0.997389
0.9819662842839472,1,0.997391
0.9820295389838596,1,0.997696
0.9820626630642192,1,0.999022
0.9820193445955713,1,0.998922
0.9821463760463152,1,0.999270
0.9821924938016454,1,0.997416
0.9822021521066066,1,0.999211
0.9823005887984699,1,0.999319
0.9823583607350647,1,0.999034
0.9823655426498816,1,0.999143
0.9823469106974968,1,0.999352
0.9824035650392201,1,0.999348
0.9823393859641742,1,0.998964
0.9823516648269088,1,0.997563
0.9823327371967009,1,0.998355
0.9822442527957806,1,0.995825
0.9821343717763945,1,0.999118
0.9819898469272771,1,0.997384
0.9819331313961471,1,0.999198
0.9819242166831087,1,0.999120
0.9818483954411389,1,0.999130
0.9817499921398175,1,0.999307
0.9816326866390784,1,0.999140
0.9814847653327368,1,0.999345
0.9814795325971873,1,0.996136
0.9813619531584762,1,0.999033
0.9812105431140602,1,0.999343
0.9810369638588907,1,0.998172
0.9809194785919272,1,0.999158
0.9807794869376913,1,0.997886
0.9807006697695694,1,0.996678
0.9806020344470506,1,0.999278
0.9805353685722041,1,0.999258
0.9804448471915896,1,0.999305
0.980310079061127,1,0.998312
0.9802317776336633,1,0.998704
0.9802033176709891,1,0.996345
0.9802119328547951,1,0.998700
0.9801963019757989,1,0.999384
0.9801269425473799,1,0.998849
0.9801287700548793,1,0.998930
0.980048139489022,1,0.999270
0.9799636940278423,1,0.999057
0.9798420258764812,1,0.998444
0.9796866801212201,1,0.999129
0.9795803693299415,1,0.997398
0.9795313031793159,1,0.998959
0.9794521703314514,1,0.998821
0.9793331058495757,1,0.998125
0.9792922834171116,1,0.997473
0.979283706123622,1,0.999221
0.979268879621524,1,0.999088
0.9791817897341875,1,0.994702
0.9791363560985362,1,0.998607
0.9611682127697084,1,0.996986
0.9635947373528976,1,0.998421
0.9663118291104659,1,0.995012
0.9683964541044014,1,0.999328
0.9704236584311645,1,0.999231
0.9717482799897881,1,0.998408
0.9733578426777858,1,0.999336
0.9746273573938211,1,0.999180
0.9756635848002264,1,0.997218
0.9767730466393363,1,0.999268
0.9775562697587515,1,0.999090
0.9784490616313724,1,0.999292
0.9792255186294428,1,0.997275
0.9799802884633048,1,0.999261
0.9807505428665493,1,0.999158
0.9812980093673987,1,0.998770
0.9816874442180548,1,0.999165
0.9820948457036399,1,0.997673
0.9823818477377186,1,0.997454
0.9826924047158329,1,0.997967
0.9829782124548224,1,0.999076
0.9833058501833442,1,0.999307
0.9835438858244393,1,0.996330
0.9838435925671116,1,0.998139
0.9839800202869499,1,0.998024
0.9840745491187154,1,0.999289
0.9842053568261908,1,0.999254
0.984279868245194,1,0.999071
0.984316931806127,1,0.998818
0.9843719206453142,1,0.998952
0.984345883890687,1,0.997196
0.9843049741848972,1,0.999105
0.98427499393236,1,0.999211
0.9842852057236097,1,0.995293
0.9842487747678699,1,0.998243
0.9842845791564984,1,0.999169
0.984302371398496,1,0.998728
0.9843406751201982,1,0.998403
0.984296259984218,1,0.999067
0.9842356322444384,1,0.997573
0.9841921526375896,1,0.999035
0.9841343280698437,1,0.999190
0.984036512512685,1,0.998298
0.983930193341384,1,0.998131
0.983899311520561,1,0.999006
0.9838930044829156,1,0.999184
0.9838525344817055,1,0.998667
0.9837813538919371,1,0.997255
0.9837237275661599,1,0.996486
0.9836287201655746,1,0.999086
0.9835127431385589,1,0.999102
0.9834225311446713,1,0.998179
0.9833153017151333,1,0.999221
0.9832118569791432,1,0.999110
0.983049872433037,1,0.999220
0.9829292977904975,1,0.999176
0.9828262219596001,1,0.999319
0.982791908884426,1,0.997633
0.9827600387750006,1,0.999142
0.982687155874391,1,0.995766
0.9825994082909639,1,0.999162
0.9825095033133019,1,0.997923
0.9824146711645193,1,0.999241
0.9823169702423393,1,0.999250
0.9822333414448775,1,0.999107
0.9821101201870762,1,0.999201
0.9820286363569797,1,0.998060
0.9819450737407485,1,0.998321
0.9818511436731592,1,0.999291
0.9817510797233834,1,0.997630
0.9816305163106033,1,0.995916
0.981566737870875,1,0.998160
0.9814652865362739,1,0.998599
0.9813899890295319,1,0.995751
0.9812847805053866,1,0.998185
0.9811687057021601,1,0.999316
0.9810442573208221,1,0.995868
0.9586152954354491,1,0.996148
0.9616537497064064,1,0.998553
0.9646387438795497,1,0.998296
0.9675394443662577,1,0.995679
0.9698706033518041,1,0.998351
0.9720206714484464,1,0.996161
0.9739034635132712,1,0.995254
0.9754836285205742,1,0.997155
0.9770060311315449,1,0.998470
0.9780948592667593,1,0.995077
0.9792278198098835,1,0.999417
0.9804269083961181,1,0.998286
0.9813039190206109,1,0.998004
0.9820847528974481,1,0.998951
0.9826967975767394,1,0.999265
0.9832618299267192,1,0.999209
0.9837285753968553,1,0.998051
0.984188282481285,1,0.999259
0.9845175618308738,1,0.999139
0.9847950944976896,1,0.999043
0.9849937126857986,1,0.999133
0.9851955163187264,1,0.999194
0.9853089745769442,1,0.999171
0.9853625695629078,1,0.998067
0.9853952878746532,1,0.999159
0.98545052955926,1,0.999179
0.9854331271488573,1,0.999319
0.9853976496201606,1,0.999336
0.9853543510569236,1,0.999190
0.9853640208182279,1,0.995851
0.9853415234870316,1,0.995822
0.9852664610207715,1,0.999316
0.9851975665586639,1,0.999120
0.9852636047325225,1,0.998747
0.9853050122866508,1,0.999074
0.9852713028566997,1,0.999263
0.9852302977885367,1,0.999329
0.9851820067714732,1,0.998729
0.9851736719575995,1,0.999260
0.9851888432511309,1,0.999258
0.9851785659357447,1,0.997602
0.9851755590193069,1,0.999318
0.9851389523158879,1,0.998350
0.9851200812958547,1,0.999227
0.9850293810934524,1,0.996994
0.9849685127558363,1,0.999235
0.9848811565424342,1,0.999331
0.9847762192066328,1,0.999418
0.9846825183714205,1,0.999365
0.9846086637765783,1,0.999032
0.9844980500972784,1,0.999184
0.9843995143007371,1,0.999104
0.9842835110724609,1,0.999255
0.984157867974337,1,0.999349
0.9840194690887623,1,0.998087
0.9838738535146103,1,0.996942
0.983739336834664,1,0.999131
0.9836184550635546,1,0.999102
0.983469845301007,1,0.999302
0.9833272499596677,1,0.999302
0.9831756957938451,1,0.998088
0.9830622627138385,1,0.997292
0.982918272196379,1,0.999182
0.9827818405078975,1,0.998081
0.9825960383172629,1,0.997295
0.9823991653586521,1,0.999167
0.9821862630607964,1,0.999271
0.9819359496041825,1,0.999310
0.9819594393393911,1,0.998792
0.981955501699011,1,0.999392
0.9819099632308373,1,0.997145
0.9818416610019287,1,0.998083
0.98177129745439,1,0.999156
0.9817785493006005,1,0.998107
0.9817839251589218,1,0.997344
0.9818045646000901,1,0.999228
0.9817981122498856,1,0.998295
0.9817590764371686,1,0.999237
0.9817034826724789,1,0.998763
0.9572769336206473,1,0.995053
0.9605532283612346,1,0.999246
0.9638593917309063,1,0.995356
0.9666338776181915,1,0.996310
0.9688030036225306,1,0.999164
0.9708359662683049,1,0.996892
0.972683168173433,1,0.998454
0.9742251206229727,1,0.997567
0.9755994226055659,1,0.998374
0.9769305010334499,1,0.999289
0.9780603814383504,1,0.997070
0.9789431441479013,1,0.999234
0.9798582706116109,1,0.999182
0.9806256174781957,1,0.998279
0.9812549595927613,1,0.999248
0.9817746542482931,1,0.999283
0.9821845745532455,1,0.997214
0.982578156365269,1,0.999342
0.9829310379350299,1,0.999335
0.9831482758103055,1,0.999169
0.9833383181703313,1,0.999259
0.9834841465504042,1,0.999404
0.9836125014851936,1,0.999185
0.9837846521674569,1,0.997720
0.9839183418502455,1,0.999259
0.9840076497346869,1,0.999056
0.9839825114660162,1,0.999211
0.9840488054116834,1,0.999106
0.9841322643307382,1,0.998569
0.984070003400325,1,0.999086
0.9840340442688152,1,0.999203
0.9840009153271307,1,0.998473
0.9839730753836007,1,0.999218
0.9839123190092756,1,0.999190
0.9838427435171201,1,0.995754
0.983796478468322,1,0.999301
0.9837576617233069,1,0.999381
0.9836882935989554,1,0.999214
0.9835552549279637,1,0.999248
0.983378758495901,1,0.998138
0.98323845219956,1,0.997613
0.9830669483796263,1,0.999148
0.9828756954024107,1,0.998298
0.982683479787136,1,0.999263
0.9825371479412994,1,0.997512
0.9823643935971074,1,0.999387
0.9821852184846671,1,0.997533
0.982118669277341,1,0.998142
0.9820956363500938,1,0.997712
0.9821056138224653,1,0.999343
0.9820801431864702,1,0.998588
0.9820350367351901,1,0.999370
0.9819976601810267,1,0.999330
0.9819823103993273,1,0.999263
0.9819149058108265,1,0.999219
0.9818082093476768,1,0.998774
0.9816819262354404,1,0.998589
0.98156414763589,1,0.998610
0.9814517218526623,1,0.999268
0.9813473231513669,1,0.999275
0.981217461496894,1,0.999241
0.981104418340561,1,0.998743
0.9810014041935909,1,0.998737
0.9808991733034184,1,0.998636
0.9807658700679365,1,0.999154
0.9806804670101392,1,0.999183
0.9806199430055957,1,0.999394
0.9805121410842066,1,0.999274
0.9804034097425456,1,0.998786
0.9802956208058348,1,0.998043
0.9801826227573983,1,0.999158
0.980062577685504,1,0.995600
0.9799413356864577,1,0.999343
0.9798253825371764,1,0.999249
0.9797238411296698,1,0.999322
0.9796019984777338,1,0.999263
0.9794344909992274,1,0.998656
0.9792927445922434,1,0.997660
0.9791378065962387,1,0.999323
0.9789896021989499,1,0.999295
0.9788747046061953,1,0.998759
0.9568559660502871,1,0.997890
0.9598895557837345,1,0.994681
0.962516446557288,1,0.995702
0.9650087225618692,1,0.999242
0.9674565882185634,1,0.997573
0.9696339176666454,1,0.998658
0.9716192957504096,1,0.999137
0.9733006666538603,1,0.996217
0.9748059136733128,1,0.999362
0.9760098804187803,1,0.998433
0.9771412721087304,1,0.998180
0.978332212825384,1,0.998118
0.979420932894569,1,0.998101
0.9804446115006352,1,0.999371
0.9812676966433692,1,0.999412
0.9820271376884679,1,0.997590
0.9825924359176422,1,0.999387
0.9831465361068188,1,0.999222
0.9836612963589871,1,0.998454
0.9840756253201774,1,0.998073
0.9844360705053621,1,0.998764
0.9847065683525629,1,0.999371
0.9849240723481063,1,0.998073
0.9851143052069097,1,0.999350
0.9852450811113642,1,0.999008
0.9853654508172074,1,0.997795
0.9855829328619351,1,0.998253
0.9857697374705008,1,0.998545
0.9859340455885904,1,0.999060
0.9860342796029106,1,0.998444
0.9861137521846715,1,0.998759
0.986133950444995,1,0.999250
0.9861388349785497,1,0.996024
0.98611621836029,1,0.998571
0.9861054815155224,1,0.999175
0.986119310721202,1,0.998520
0.9860981608576989,1,0.999146
0.9860687435298635,1,0.999186
0.9860219607650602,1,0.998584
0.9858877134467422,1,0.999173
0.9857852854476011,1,0.998760
0.9856914719337884,1,0.999261
0.9855957872038785,1,0.999352
0.9854965710328979,1,0.998593
0.9853234141866685,1,0.999326
0.9852295427866878,1,0.997500
0.9851511505550029,1,0.999359
0.9850347804303734,1,0.999061
0.9849322196447199,1,0.997281
0.9848249694859416,1,0.997157
0.98466299095183,1,0.999304
0.9845017216061328,1,0.998817
0.9842761689016801,1,0.997146
0.984136048262834,1,0.999065
0.9839937333940069,1,0.999405
0.9838785035606031,1,0.999239
0.9837269829908111,1,0.998084
0.9835717635157805,1,0.999254
0.9834127917768926,1,0.997483
0.9833572429402294,1,0.999195
0.9833258655467312,1,0.999213
0.9833180819716596,1,0.999196
0.9832533168613082,1,0.999209
0.9832502920901544,1,0.997367
0.9831702219310007,1,0.999274
0.9831214980002586,1,0.998920
0.9830136656339915,1,0.999132
0.9829409519673069,1,0.999237
0.9828487530644074,1,0.999062
0.982713944858884,1,0.999348
0.9826162578883205,1,0.998125
0.9824880566000764,1,0.999159
0.9823656824985384,1,0.997557
0.9822028996481563,1,0.999167
0.9820679915821902,1,0.999170
0.9819628844113889,1,0.999403
0.9818455936753521,1,0.999034
0.9817467768815606,1,0.999148
0.9816449666761816,1,0.999112
0.9815410987084449,1,0.997447
0.9814206140488577,1,0.999007
0.9812802897364258,1,0.999302
0.9811675578984056,1,0.999199
0.9577087599386399,1,0.998081
0.9608724621465211,1,0.998268
0.9635631820563912,1,0.995298
0.965722903382002,1,0.998452
0.9678039531741721,1,0.997382
0.9698131855896923,1,0.998520
0.9714504256192995,1,0.996851
0.9728648974877238,1,0.995699
0.9740640172130675,1,0.998713
0.9753152722479688,1,0.998377
0.9762597002842113,1,0.999214
0.9771077275175487,1,0.999191
0.9779618049080371,1,0.999180
0.9787936379205647,1,0.999223
0.9795026135398279,1,0.999260
0.9800157240597668,1,0.999004
0.9803229713965544,1,0.999375
0.9807471234087205,1,0.999295
0.9809493282269758,1,0.995330
0.9811777742282399,1,0.999158
0.9814698381536812,1,0.999408
0.9816448444502176,1,0.999095
0.981941294199462,1,0.999308
0.982214444463811,1,0.997783
0.9824749868999029,1,0.999297
0.9826600871021025,1,0.999363
0.9828643846697175,1,0.995940
0.983020400747361,1,0.998542
0.9830923106385432,1,0.999116
0.9831667400087598,1,0.999142
0.983211183896771,1,0.999231
0.9832231646669364,1,0.998517
0.9831339330994594,1,0.999142
0.9831275922264521,1,0.995176
0.9834080094976477,1,0.999337
0.9836650954446441,1,0.999423
0.9839383566048402,1,0.998822
0.9841869897574529,1,0.997047
0.9843399889662698,1,0.999277
0.984478363177336,1,0.996315
0.9846078219787511,1,0.999063
0.9847468735246515,1,0.999168
0.9848277800533913,1,0.998516
0.9849042317061503,1,0.998469
0.9849309258647262,1,0.998760
0.9848700698813887,1,0.999011
0.984772535800703,1,0.999350
0.984824101473336,1,0.999136
0.9848006763182875,1,0.999192
0.9847796311343694,1,0.999314
0.984781940592477,1,0.998848
0.9847390903705527,1,0.999356
0.9847031815956534,1,0.999150
0.984687333782492,1,0.999130
0.9846558836944127,1,0.998259
0.9846174751585697,1,0.996008
0.9845548322281038,1,0.999182
0.9844549918041351,1,0.999339
0.9843356662702439,1,0.999353
0.984194634572138,1,0.999037
0.9841073986814747,1,0.999213
0.9840058142337348,1,0.997107
0.9838847691828688,1,0.999170
0.9837651457491375,1,0.998978
0.9836092648904048,1,0.999332
0.9834609500024765,1,0.999168
0.9833161517121235,1,0.998238
0.983164636009565,1,0.999294
0.9830282422525568,1,0.997892
0.9829208370428212,1,0.996795
0.9827675879479327,1,0.997901
0.9825997039837921,1,0.999377
0.9824842018097345,1,0.998776
0.9822979430499079,1,0.999376
0.9821021349040063,1,0.998828
0.9819388900163146,1,0.998213
0.9817728287864722,1,0.999216
0.9816191544301064,1,0.999328
0.9814581702045567,1,0.996921
0.981298688526156,1,0.999225
0.9811109904872084,1,0.996047
0.9809528981012103,1,0.999154
0.9807601999246289,1,0.999408
0.980744458312244,1,0.997317
0.9807189629049056,1,0.998203
0.9582935195790461,1,0.997414
0.9613872211887032,1,0.997033
0.9642818622496732,1,0.999128
0.9663383322841037,1,0.998373
0.9687408394144928,1,0.995261
0.970848759584661,1,0.997149
0.9727864724903688,1,0.999301
0.9744971420308637,1,0.998099
0.9760774226276604,1,0.999218
0.9772992751040809,1,0.999332
0.9783954272872228,1,0.998841
0.9793624181653293,1,0.999049
0.9802616983487602,1,0.998765
0.9811137683270853,1,0.999048
0.9818322220656761,1,0.999148
0.9824415555540557,1,0.999125
0.9829999630915779,1,0.994978
0.9834739066062314,1,0.999388
0.9840003198234647,1,0.999382
0.9844065863016973,1,0.998450
0.9847535137622219,1,0.999340
0.9850437487631208,1,0.999063
0.9852507734580314,1,0.995333
0.9854018343291657,1,0.997955
0.9855319528893063,1,0.999195
0.9856564789646268,1,0.995021
0.9857382630631896,1,0.998983
0.9857945208216897,1,0.999139
0.985834673699948,1,0.999309
0.9858369859650558,1,0.999249
0.9857869663566672,1,0.999146
0.985732774301351,1,0.996525
0.9856422172278408,1,0.999199
0.9855216979019013,1,0.997245
0.9854744867030678,1,0.999160
0.9854107426816469,1,0.998706
0.9852736727532602,1,0.998232
0.9851379959278908,1,0.995241
0.985018661209972,1,0.999308
0.9848327521952099,1,0.999219
0.9846972938287389,1,0.998316
0.9845161938671834,1,0.995296
0.9843544406102527,1,0.999228
0.9841822529508708,1,0.996972
0.9840088642506507,1,0.999167
0.9838014490974788,1,0.995156
0.9836022021002097,1,0.999072
0.9834023610325937,1,0.999313
0.9832327789163993,1,0.999284
0.9830538658674545,1,0.999033
0.9828857071438915,1,0.999295
0.9826991574467542,1,0.999249
0.9825029662353811,1,0.996209
0.9822999212660115,1,0.999034
0.9820926947992342,1,0.999335
0.9818979901026074,1,0.998280
0.9818336412062129,1,0.997914
0.9817638608578454,1,0.998062
0.981729503213532,1,0.999173
0.9816242073619078,1,0.997608
0.98154608928426,1,0.999180
0.9814520013691148,1,0.998011
0.9813650244493731,1,0.999382
0.9812459061438977,1,0.999390
0.981114738166398,1,0.999268
0.9809866456186606,1,0.999341
0.9808523880324331,1,0.997183
0.9807365983522133,1,0.999210
0.9805958922531838,1,0.999195
0.9804414000197617,1,0.997553
0.980290876369389,1,0.999300
0.9801665253405918,1,0.999234
0.9800036010729098,1,0.999363
0.9798525732211409,1,0.999246
0.9797070827366022,1,0.999331
0.9795672772424135,1,0.999283
0.9794267435259761,1,0.999261
0.9792784938793414,1,0.999358
0.9791100086689147,1,0.998754
0.9789947389060761,1,0.998228
0.9788947916635695,1,0.999193
0.9787368869490437,1,0.998574
0.9785643273393599,1,0.999287
0.9784356608367352,1,0.998602
0.9783071063390185,1,0.999253
0.9781649934968898,1,0.999199
0.9780498220714587,1,0.998836
0.9589187850023781,1,0.994944
0.9618995818807795,1,0.998645
0.9645138802941389,1,0.998635
0.966649960525744,1,0.997611
0.9687393875909726,1,0.999412
0.9705845330118955,1,0.997571
0.9724464501091398,1,0.998219
0.9740500398491185,1,0.999292
0.9753622852786248,1,0.999356
0.9766542472471135,1,0.999373
0.9781408770507032,1,0.999247
0.9793936699965451,1,0.995367
0.9803800770281108,1,0.999325
0.9812480736863083,1,0.997743
0.9819698501955796,1,0.999417
0.9826199052940818,1,0.999046
0.9832227753704962,1,0.998513
0.9837437759979308,1,0.995460
0.984129976629056,1,0.995296
0.9845372331119698,1,0.998331
0.9849406085516291,1,0.998283
0.9852507325407314,1,0.999340
0.9855378601166057,1,0.994247
0.9857652111769416,1,0.999174
0.9859818409289872,1,0.999308
0.9861865986696412,1,0.994949
0.986320935340474,1,0.998544
0.9864059812638711,1,0.999198
0.9864538828760923,1,0.999250
0.9864784504068639,1,0.999353
0.9864648809504165,1,0.998795
0.9865635122511599,1,0.997921
0.9866042511936339,1,0.999292
0.9866020514580327,1,0.999342
0.9865282737767944,1,0.996592
0.9864561817393737,1,0.999059
0.9863774608410371,1,0.999253
0.9862837636380154,1,0.999273
0.9861773798660789,1,0.997786
0.9860264847311175,1,0.997502
0.9858654692016366,1,0.998753
0.9857820136052401,1,0.999382
0.9856670073037256,1,0.999350
0.9855477869656041,1,0.999179
0.9853921268074527,1,0.999366
0.9852547732627096,1,0.998215
0.9851003866236671,1,0.998841
0.9849549159904925,1,0.999339
0.9847637487088258,1,0.999357
0.9845713823745097,1,0.999268
0.9844109334168115,1,0.998759
0.984245129399878,1,0.999373
0.9840735568151224,1,0.999103
0.983921464586514,1,0.999387
0.9837070219524515,1,0.997498
0.9834913736485927,1,0.999375
0.9832954413000784,1,0.997054
0.983142841831835,1,0.999302
0.9829788635267107,1,0.999138
0.9827617955033006,1,0.999195
0.9825697833129824,1,0.999225
0.9823619718625081,1,0.999066
0.9821530321219779,1,0.999153
0.9818899816154694,1,0.999402
0.981612715130681,1,0.999176
0.9813661555198141,1,0.998279
0.9811610037693522,1,0.998492
0.9809044645518036,1,0.999373
0.9807866718538072,1,0.999101
0.980790494356235,1,0.999201
0.9807796281067146,1,0.999343
0.9807682354849075,1,0.998979
0.9807244568103761,1,0.999213
0.9807013385976953,1,0.998686
0.9806505986444501,1,0.999346
0.9805737154476019,1,0.999353
0.980496913294512,1,0.998192
0.9804243065989101,1,0.999233
0.9803728151609012,1,0.999286
0.9802726114292112,1,0.999291
0.9801992031277019,1,0.999154
0.9801299178159004,1,0.999260
0.9800620072860501,1,0.999045
0.9799812139874805,1,0.999031
0.9798796386780457,1,0.999053
0.9797767407906424,1,0.999302
0.9796467951205386,1,0.999179
0.9795092946858278,1,0.998605
0.9793879000729374,1,0.998713
0.9589342132425922,1,0.995970
0.9619763264278326,1,0.995614
0.964928613742982,1,0.999090
0.9672766195125742,1,0.999028
0.9692626567189095,1,0.998811
0.971038303525318,1,0.999339
0.972654837290358,1,0.998057
0.974081635939478,1,0.998700
0.9752982134221427,1,0.997592
0.9763004174548227,1,0.998906
0.9771240478600645,1,0.997732
0.9778146775739252,1,0.998682
0.9785105908071368,1,0.998765
0.979081720878609,1,0.998326
0.9796680844093931,1,0.997698
0.9801545002564847,1,0.998404
0.9805215758652263,1,0.999410
0.9807992716861607,1,0.998476
0.9809443916332338,1,0.996990
0.9811098008719946,1,0.999194
0.9812260655672908,1,0.996582
0.9813544155879025,1,0.997251
0.9814859980487461,1,0.999284
0.9815958899309392,1,0.998762
0.981712986289101,1,0.995355
0.9817373468585487,1,0.998467
0.981760057537235,1,0.999316
0.9817142621508577,1,0.999303
0.9816748546116522,1,0.999146
0.981580176978624,1,0.999367
0.981439833431217,1,0.999088
0.9814051078178443,1,0.999050
0.9813764507492337,1,0.998694
0.9813319134159926,1,0.998780
0.9812132146964717,1,0.999253
0.9810997632420413,1,0.999306
0.9809749149099156,1,0.999328
0.9808815938636879,1,0.999082
0.980783501765474,1,0.998731
0.980677052670601,1,0.999368
0.980551448026228,1,0.999222
0.9803995883206271,1,0.996865
0.9801753271303341,1,0.999318
0.9800110749236374,1,0.999246
0.9798851292558235,1,0.997143
0.9797246371872301,1,0.999221
0.9795290726215884,1,0.999195
0.9793474093867919,1,0.998326
0.979147676686183,1,0.999385
0.9789447160073297,1,0.999147
0.9787678347805397,1,0.999153
0.9787908811343065,1,0.997533
0.9788301082630964,1,0.995668
0.9788445263618099,1,0.999066
0.9788913731973549,1,0.999332
0.9789188865376224,1,0.999162
0.9789415183892648,1,0.997821
0.9789443901643311,1,0.997535
0.978935998522835,1,0.999261
0.9789081825338051,1,0.998772
0.9788664655221403,1,0.999191
0.9788537184154277,1,0.999005
0.9788112411791967,1,0.999213
0.978778513999878,1,0.998768
0.9786696149013693,1,0.999287
0.9785516795185157,1,0.999162
0.9784201985464771,1,0.998783
0.9783723825892359,1,0.999057
0.9782838231734553,1,0.998321
0.9781782244092803,1,0.997565
0.978097108877336,1,0.998718
0.9780257168676421,1,0.999381
0.9779270328841259,1,0.998765
0.9778524239694365,1,0.998424
0.9777602818072684,1,0.999307
0.9776622138125444,1,0.998711
0.9775780614123056,1,0.999381
0.9774686291624195,1,0.999330
0.9773517388613281,1,0.999043
0.9772488335910218,1,0.998697
0.9771193946647309,1,0.999178
0.9770181075464149,1,0.999293
0.9769271118518149,1,0.999208
0.9768157575392399,1,0.999184
0.976710887285869,1,0.999289
0.976600455212595,1,0.999224
0.976444770182566,1,0.993988
0.976317832060519,1,0.999291
0.9761631103509556,1,0.996047
0.9760309242083249,1,0.999375
0.9759549888905659,1,0.999261
0.9590500067387524,1,0.997549
0.9622231493421537,1,0.999344
0.9649455855870515,1,0.996785
0.9674110104522524,1,0.997240
0.9692555525260182,1,0.995836
0.9711244639675767,1,0.998765
0.9729521367368423,1,0.999210
0.9744424072301406,1,0.999275
0.9758186560205753,1,0.999322
0.9771365724246827,1,0.995186
0.9781463406411632,1,0.999334
0.9789817680158809,1,0.998487
0.9797745522748227,1,0.998774
0.9804533832903636,1,0.998414
0.981062877916533,1,0.999138
0.9815819129413333,1,0.998741
0.9821870166513469,1,0.999353
0.9827469247462486,1,0.995245
0.983274173737481,1,0.997473
0.9838156690928076,1,0.998959
0.9842388150444648,1,0.997726
0.9846361509173019,1,0.998295
0.984988846422998,1,0.995287
0.9853028834207638,1,0.999110
0.9855431339480484,1,0.998691
0.9857175462426244,1,0.998308
0.9859004440709175,1,0.998365
0.9860737661360401,1,0.998642
0.9861876701860343,1,0.999302
0.9862765296586594,1,0.999293
0.9862943991768083,1,0.999211
0.9863904356444737,1,0.998404
0.9864427140653517,1,0.998211
0.9864293851725603,1,0.995280
0.986422971201413,1,0.998724
0.9863655558048445,1,0.998473
0.9863455287419415,1,0.998243
0.9862545376267947,1,0.998379
0.9861239716778619,1,0.999245
0.9860475026694017,1,0.999221
0.9859532967856206,1,0.999328
0.9858209811428411,1,0.999043
0.9857259479477662,1,0.998270
0.9856300673348901,1,0.996020
0.9855139191846227,1,0.998690
0.9853672887529508,1,0.998981
0.9851993942507092,1,0.999263
0.9850438380559497,1,0.998769
0.9848830126485013,1,0.998976
0.9847409494687469,1,0.999158
0.9845944146966418,1,0.999206
0.9843977645619606,1,0.999057
0.9842319977071526,1,0.999207
0.9840861347756614,1,0.999251
0.9839031355786495,1,0.998494
0.9837623931877515,1,0.999232
0.9835841822573238,1,0.999213
0.9834049984289869,1,0.999273
0.9832212873829679,1,0.999388
0.9830656126593214,1,0.996727
0.9828961257635669,1,0.999299
0.9827453557109134,1,0.999077
0.9825477642496286,1,0.999102
0.9823507391855224,1,0.999229
0.982175649109969,1,0.998700
0.9820062115294274,1,0.999235
0.9818792544262216,1,0.999258
0.9816862396393764,1,0.999280
0.9815583879409719,1,0.999294
0.9814224530688572,1,0.995981
0.9813272810283711,1,0.998397
0.9811710241481922,1,0.999288
0.9810447694426585,1,0.999010
0.9808668784913975,1,0.999314
0.9806715483807952,1,0.998344
0.9805055681420455,1,0.999119
0.9803423375897871,1,0.999378
0.9801361469113493,1,0.997438
0.9799722480813505,1,0.998689
0.9797861488465961,1,0.999386
0.979627893018293,1,0.998406
0.9794881821001181,1,0.995997
0.9793490656228803,1,0.999377
0.9792285504833917,1,0.999314
0.9790827704835018,1,0.999163
0.9789070976284501,1,0.999288
0.9787731641381155,1,0.999311
0.9786383628176213,1,0.999328
0.9784787600913902,1,0.998859
0.9783085608817386,1,0.999111
0.9781341247847015,1,0.999385
0.9779297011616701,1,0.998099
0.9777377811514867,1,0.999257
0.957654917928144,1,0.998832
0.9604024849808414,1,0.997232
0.9627638143243749,1,0.997837
0.9649367579746373,1,0.998979
0.9667644226249356,1,0.997251
0.9688085838810869,1,0.994920
0.9702282507690869,1,0.999276
0.9717091812838471,1,0.999241
0.9733772007866841,1,0.999315
0.9746276617355548,1,0.998874
0.9755724668978172,1,0.998911
0.9765371210509753,1,0.998966
0.977385361474655,1,0.999342
0.9781898297808809,1,0.997423
0.9789254291578638,1,0.997825
0.9795144447357936,1,0.994609
0.9800844926272059,1,0.999351
0.9808096502995433,1,0.998339
0.9811004574696234,1,0.998976
0.9813223260044773,1,0.999072
0.9815850251723942,1,0.999249
0.9819339119900213,1,0.999110
0.9820866950831982,1,0.998533
0.9822438900574991,1,0.999282
0.9824340538821853,1,0.999188
0.9825924109180504,1,0.999073
0.9827881186773464,1,0.999251
0.9829593113942148,1,0.998458
0.9829318436632509,1,0.997565
0.9828740159334696,1,0.999244
0.9828194642702232,1,0.998160
0.9827471086198886,1,0.999284
0.9827103372386576,1,0.995598
0.9827342302504728,1,0.999087
0.9827461669809252,1,0.999065
0.982718644096921,1,0.998112
0.9826950175903394,1,0.999268
0.9826972420985766,1,0.998774
0.9826809858453194,1,0.999283
0.9825572079819421,1,0.998737
0.9823606413645742,1,0.999109
0.9822313585697651,1,0.997333
0.9821149906524834,1,0.999262
0.9819718219788606,1,0.999122
0.9818567710808345,1,0.999321
0.9817875986921615,1,0.997519
0.9817525214351986,1,0.999119
0.9816575864833865,1,0.997685
0.9815566856430894,1,0.999231
0.9815092896589548,1,0.996252
0.9814849337758572,1,0.999035
0.9813220337816373,1,0.999241
0.9811594872980521,1,0.999148
0.9810247080570532,1,0.998736
0.9809175131525955,1,0.999374
0.9807580311033652,1,0.999345
0.9806768357584505,1,0.995913
0.9805457911744628,1,0.999220
0.9804297356989411,1,0.995907
0.9803093055953749,1,0.999018
0.9801355462070476,1,0.999218
0.9799678299954504,1,0.999305
0.9801700585715134,1,0.999324
0.9803384280590095,1,0.999034
0.9805422721336129,1,0.998587
0.980753458299682,1,0.998704
0.9808754995909009,1,0.999348
0.9810193247177683,1,0.999345
0.9812342440154181,1,0.999091
0.9813278210949252,1,0.999348
0.9814333587777944,1,0.998844
0.9814681685295011,1,0.995957
0.9815409314754061,1,0.998697
0.9816319822968033,1,0.999318
0.981748610368479,1,0.999233
0.9818373745739729,1,0.998386
0.9819578169185097,1,0.998953
0.9821198695432694,1,0.999278
0.9821553319129055,1,0.998792
0.9821660389785107,1,0.996521
0.9821467565340674,1,0.999186
0.9820897040959037,1,0.997238
0.9820464366857888,1,0.999307
0.9820952992088683,1,0.995833
0.9821383958619248,1,0.998451
0.9821381671086713,1,0.998261
0.9821703886007526,1,0.998348
0.9822118262288653,1,0.999418
0.9822764721937308,1,0.999309
0.9822837150329629,1,0.999072
0.9823126645387863,1,0.999145
0.9822657322128967,1,0.996356
0.9822755105542811,1,0.996081
0.9823098308162247,1,0.999275
0.9823436282789426,1,0.997660
0.9565197253351992,1,0.998013
0.9591263247892786,1,0.994971
0.9615506706312905,1,0.995836
0.9639843940218922,1,0.997112
0.9660384284214326,1,0.999375
0.9681303317500335,1,0.999020
0.969924939915892,1,0.998420
0.9716377907337965,1,0.996071
0.9728966128124388,1,0.999382
0.9740621789916186,1,0.997557
0.9751397196637399,1,0.996976
0.9762952223730363,1,0.997312
0.9771898206537587,1,0.998997
0.9777149860102492,1,0.998503
0.9783702248984361,1,0.999104
0.9790483863879252,1,0.998575
0.9797176722536062,1,0.999167
0.9802957796610466,1,0.998450
0.9809299590352183,1,0.999297
0.9814206410938708,1,0.997496
0.9815992012292639,1,0.999307
0.9817920520690923,1,0.995407
0.9819836360711653,1,0.998401
0.9821251372674559,1,0.999190
0.9824796825029216,1,0.999298
0.9827496032431359,1,0.999366
0.9829378904429138,1,0.998510
0.9831291065434876,1,0.999178
0.9833428914963175,1,0.999207
0.9835147218814997,1,0.999176
0.9835466345521424,1,0.999282
0.9835432819886241,1,0.996448
0.9836002331792487,1,0.999265
0.9836152776539376,1,0.996590
0.9836515801117522,1,0.998668
0.9836012943842535,1,0.999387
0.9835739294874462,1,0.999255
0.9835222599820772,1,0.999288
0.9835031793575825,1,0.999234
0.9835318394106308,1,0.998745
0.9835474822852083,1,0.999214
0.9835275986343402,1,0.999283
0.983483057929561,1,0.999355
0.9834349423786636,1,0.998664
0.983332070532616,1,0.998664
0.983319548349368,1,0.999334
0.9833864210705695,1,0.999334
0.9834890203741481,1,0.999405
0.9835514424373741,1,0.998358
0.9835115147625959,1,0.999394
0.9835415386835551,1,0.999240
0.9834911999507893,1,0.999255
0.9835331755608592,1,0.999005
0.9835201232138497,1,0.998691
0.9835106520136951,1,0.995916
0.9834716402883227,1,0.999312
0.9833762313140452,1,0.998622
0.9832949439176499,1,0.999088
0.9831860678460332,1,0.999311
0.98301700294752,1,0.995981
0.9829688995296032,1,0.998711
0.9829083362090981,1,0.999308
0.9827943318201137,1,0.999282
0.982672133301628,1,0.999204
0.982606584581187,1,0.999374
0.9825988176399807,1,0.999326
0.9825559751201567,1,0.999244
0.9825246977727355,1,0.998847
0.9824948516669537,1,0.998485
0.9824520502662886,1,0.999326
0.9823891143745612,1,0.996029
0.982338591059143,1,0.999367
0.9822468228484821,1,0.999286
0.9821761106983515,1,0.998467
0.9820854383420726,1,0.999325
0.9819578683979872,1,0.998294
0.9818482476713553,1,0.998999
0.9817562300334987,1,0.999264
0.981678602753292,1,0.999244
0.981633377592571,1,0.999268
0.9815726236888392,1,0.999370
0.9814846797264922,1,0.999037
0.9813913461571204,1,0.999174
0.9812836125044655,1,0.997251
0.9812263211670545,1,0.998299
0.981135959119036,1,0.999200
0.9810451353372214,1,0.999306
0.9809375531802899,1,0.999102
0.9808344180827789,1,0.999060
0.9807106522925387,1,0.999332
0.9806128479673617,1,0.999033
0.9805220143988994,1,0.999335
0.9803896459169591,1,0.998763
0.980247801270014,1,0.999266
0.980086891555922,1,0.998425
0.9800138503317137,1,0.997835
0.9799519191309073,1,0.998340
0.9557106750961026,1,0.997722
0.9590268094337113,1,0.997656
0.9617804907320295,1,0.997412
0.964404725886163,1,0.998134
0.9662016344426826,1,0.997908
0.9675828156987105,1,0.997632
0.9690935971638519,1,0.999034
0.9706704003947783,1,0.998161
0.9721196160074322,1,0.998133
0.9735634475550519,1,0.998727
0.974910317800384,1,0.997682
0.9760147850932376,1,0.999324
0.9770480784816599,1,0.997621
0.9780139966501018,1,0.999209
0.9787044930648667,1,0.999052
0.9794733771882127,1,0.999012
0.9802698059482451,1,0.997214
0.9808443131058283,1,0.998544
0.9813710111579746,1,0.999349
0.9819606491588225,1,0.999275
0.9823909550829876,1,0.996189
0.9828917980015044,1,0.999168
0.9832677783436028,1,0.999313
0.9834669602758037,1,0.998206
0.9836102750603569,1,0.997549
0.9838420375329957,1,0.999147
0.9840430735422392,1,0.999202
0.9841941974726657,1,0.999087
0.9843126600070409,1,0.999090
0.9843590958191412,1,0.998601
0.9844247517695578,1,0.997984
0.9845901492522038,1,0.999019
0.9846624729052157,1,0.998975
0.9847112370150717,1,0.999297
0.9847405612467691,1,0.998979
0.9847241918594287,1,0.999360
0.9847441740048701,1,0.999351
0.9847409145873439,1,0.999251
0.984737585459443,1,0.999044
0.9846342629360751,1,0.999035
0.9845267850729763,1,0.998901
0.9844087807498815,1,0.998656
0.9843371809766991,1,0.998280
0.984187873744357,1,0.999176
0.9840261475206883,1,0.996918
0.9838305784140974,1,0.998644
0.9836645506538242,1,0.999049
0.9835884632023247,1,0.999219
0.9835385901475581,1,0.999230
0.9834004269332367,1,0.998534
0.9833018167049289,1,0.996705
0.9831947361310887,1,0.996103
0.9830541245689453,1,0.999142
0.982862811771245,1,0.999118
0.9826785301332829,1,0.999124
0.9826429334668313,1,0.999095
0.9826097033749946,1,0.999142
0.9825849297447687,1,0.999145
0.9825165083144354,1,0.999184
0.9824841171336067,1,0.999032
0.9824067016354197,1,0.998463
0.9823480193707771,1,0.999291
0.9822817042189718,1,0.998371
0.9822021402232782,1,0.999244
0.9821410057651198,1,0.996523
0.9821454861994825,1,0.996542
0.9821480223001972,1,0.998876
0.9821253630486819,1,0.999338
0.9820785825866747,1,0.998696
0.9819872993803745,1,0.999101
0.9819162616729428,1,0.999044
0.9818463409121431,1,0.998382
0.981778052005582,1,0.996911
0.9816636392894682,1,0.999278
0.9815719470153206,1,0.999255
0.9814446941834837,1,0.999240
0.981355847800248,1,0.998550
0.9812671558605311,1,0.998775
0.9811558630529041,1,0.999348
0.9810732505789445,1,0.999177
0.9809505414624803,1,0.998321
0.9808279818119235,1,0.996387
0.9807041620336895,1,0.999329
0.98061626038776,1,0.999244
0.9805289838904376,1,0.997970
0.9804361044546128,1,0.997052
0.9803405553782836,1,0.999285
0.9802433784502831,1,0.999128
0.9801143038543709,1,0.998309
0.9799506970475227,1,0.998670
0.9798153206375203,1,0.998945
0.9797096944974398,1,0.997080
0.9795866538924173,1,0.998308
0.9794795691621415,1,0.998553
0.9793884438200937,1,0.999240
0.9792881684395676,1,0.998243
0.9791698430355776,1,0.998409
0.9790321899211106,1,0.999392
0.9789349955708527,1,0.998786
0.9542984047659142,1,0.995775
0.9572043848391256,1,0.997416
0.9600172954744578,1,0.999352
0.9623645385749675,1,0.999229
0.9642997637485636,1,0.997653
0.9661430791760465,1,0.999201
0.9678504927316001,1,0.999296
0.9692274601973107,1,0.998990
0.970387639103724,1,0.997255
0.971557089677475,1,0.999172
0.9728130682060775,1,0.997270
0.973859018275437,1,0.998700
0.9747705307608796,1,0.999119
0.9753776568582833,1,0.999278
0.9763084443602699,1,0.996091
0.9772342481451898,1,0.998299
0.978007408422583,1,0.999314
0.9786442069808164,1,0.999338
0.9792935729931977,1,0.998615
0.9797983594062516,1,0.995674
0.9802868573831194,1,0.999274
0.98078165940199,1,0.997477
0.9813561258235051,1,0.998629
0.981927734046016,1,0.999326
0.9824613745819997,1,0.998569
0.9829656914365479,1,0.999209
0.9834228705844009,1,0.999286
0.9838419483514689,1,0.999132
0.9842296556544371,1,0.999110
0.9845347370601434,1,0.995142
0.9848098591239393,1,0.995162
0.9851349193579041,1,0.999068
0.9853797476737275,1,0.998769
0.9855534186928832,1,0.998750
0.9857619330085218,1,0.999227
0.9859384304676692,1,0.999221
0.9861027269496668,1,0.998618
0.9862367376614479,1,0.999262
0.9863534023875916,1,0.999298
0.9864022517952029,1,0.998965
0.9864050913678121,1,0.998642
0.9864690872226982,1,0.999087
0.9865331709709517,1,0.999320
0.9865831089856502,1,0.999310
0.9865555433505966,1,0.999202
0.986600178591758,1,0.997481
0.986622257004404,1,0.999184
0.9866592401749339,1,0.997658
0.9866803323946669,1,0.997746
0.9866844700619899,1,0.999206
0.9866546108471658,1,0.998958
0.986604375946036,1,0.999216
0.9865043605920962,1,0.999201
0.9864241536643359,1,0.999319
0.9863186243547956,1,0.998254
0.9861812130233494,1,0.998675
0.9860962310449457,1,0.999004
0.9860443252824406,1,0.999413
0.9859710980723092,1,0.998505
0.9859076414678059,1,0.997185
0.9858327671967495,1,0.998283
0.9857411931636302,1,0.997739
0.985634108873992,1,0.999228
0.9855155586441288,1,0.997553
0.9853841076557444,1,0.999264
0.9852803074273838,1,0.998996
0.9851668708488788,1,0.997070
0.9850644021984155,1,0.998711
0.9849533196736734,1,0.999132
0.9848447574037507,1,0.997807
0.984703636986415,1,0.999098
0.9846057933155625,1,0.998583
0.9844596506309774,1,0.998998
0.9843193486084335,1,0.999203
0.9842049631856021,1,0.999183
0.9840723143296702,1,0.999114
0.9839648608942851,1,0.999121
0.9838391336820113,1,0.997835
0.9836945039531337,1,0.999303
0.9835463272075516,1,0.997790
0.9833508299848663,1,0.999349
0.9832838674352962,1,0.999308
0.9831740715772694,1,0.998673
0.9831017126025695,1,0.997738
0.9830235746727182,1,0.999259
0.9829184251198176,1,0.999120
0.982798736195571,1,0.998293
0.9826607048293169,1,0.999060
0.9825506489106371,1,0.998314
0.9824241064414405,1,0.999197
0.9823189581536336,1,0.999182
0.9821927305314478,1,0.998661
0.9821047746905084,1,0.998915
0.9819692114738467,1,0.997845
0.9818759650061936,1,0.998598
0.981749072150366,1,0.999148
0.981626770692882,1,0.998715
0.9814995336077521,1,0.998994
0.9813672035348211,1,0.998707
0.9812328006458035,1,0.999271
0.9811355181885486,1,0.998698
0.9531782587558681,1,0.997418
0.9564537916191416,1,0.998168
0.959417884499553,1,0.998463
0.9619335635423041,1,0.996575
0.9642899353240895,1,0.998709
0.9665002913225843,1,0.999314
0.9682951179989471,1,0.997481
0.9700013048156702,1,0.999022
0.9716061914246158,1,0.999346
0.9730043101150234,1,0.999314
0.9742720002824983,1,0.999107
0.9752735157438317,1,0.999321
0.976262051308848,1,0.998457
0.9774091954805796,1,0.995895
0.9784546089768308,1,0.998620
0.9793055335077948,1,0.999093
0.9800872320359598,1,0.999169
0.9807904259576844,1,0.999300
0.9813961375802,1,0.999082
0.9819794930917629,1,0.999052
0.9825171607529462,1,0.999304
0.9830379554054952,1,0.999153
0.9835512947352932,1,0.999306
0.9839383055852438,1,0.998146
0.9843406294564725,1,0.998289
0.9846939841686764,1,0.998413
0.9850028589289954,1,0.999137
0.9852200599359806,1,0.998354
0.9854176813329678,1,0.999054
0.9856099983936275,1,0.998682
0.9858044365656948,1,0.998514
0.9859467070279927,1,0.998502
0.9860448781074495,1,0.999136
0.9861113995182939,1,0.998572
0.9861348500373753,1,0.998121
0.9861341306723911,1,0.998433
0.9861177234671914,1,0.999344
0.986128556996715,1,0.999244
0.9861401481707238,1,0.999040
0.9861205632269724,1,0.999221
0.986038159967735,1,0.998396
0.9859838692618557,1,0.998677
0.9860132586721718,1,0.999286
0.985993040098001,1,0.999083
0.9859611487680803,1,0.997840
0.9859186302069527,1,0.999268
0.9858873555814364,1,0.999341
0.9858458865501305,1,0.998600
0.9857912609136112,1,0.997116
0.9857329436734125,1,0.996911
0.9856400059298617,1,0.997724
0.9855734304092933,1,0.997874
0.9854815963318931,1,0.999349
0.9853576746651035,1,0.998141
0.9852454767103801,1,0.999188
0.9851108310567492,1,0.998150
0.984978840131202,1,0.999189
0.9848551637764743,1,0.999347
0.9846823430011772,1,0.997414
0.9845546956059612,1,0.999185
0.9844590224088239,1,0.999281
0.9843765383703574,1,0.999218
0.9842973361510077,1,0.999282
0.9841621492117828,1,0.995931
0.9840011442223139,1,0.999253
0.9838736315244515,1,0.999181
0.9837509623740452,1,0.999180
0.9836317648855716,1,0.999288
0.983579722522824,1,0.999332
0.9834668392258208,1,0.999200
0.9833563753142008,1,0.999307
0.9832597405965497,1,0.997169
0.9831747657421522,1,0.997277
0.9830797096229734,1,0.997283
0.9829882551969343,1,0.997163
0.9828890951949447,1,0.999250
0.9827622300679278,1,0.998968
0.9826437586425631,1,0.999228
0.9825136569493199,1,0.998421
0.9824090756271068,1,0.998465
0.9823367544820008,1,0.999282
0.9822552118130871,1,0.999286
0.9821438817422155,1,0.998374
0.9820372747139834,1,0.999154
0.9819386845943991,1,0.998324
0.9818267676476614,1,0.999168
0.9817247869547945,1,0.999342
0.9816279677885505,1,0.997195
0.9815578155338753,1,0.999332
0.9814919324748375,1,0.999283
