0.7229409108566779,1,0.997276
0.7957137386600375,1,0.999193
0.8587172727183097,1,0.999291
0.8911304827593243,1,0.997052
0.9115586785668621,1,0.994314
0.9275724121189723,1,0.991453
0.9405956681735025,1,0.998729
0.948815917967305,1,0.996787
0.9540903481911595,1,0.999367
0.9581164151170142,1,0.998669
0.9612749610723891,1,0.995760
0.9247787409952248,1,0.998387
0.9397140515182576,1,0.998418
0.9501451504270307,1,0.999286
0.9572580763450851,1,0.998553
0.9623941524497964,1,0.998392
0.9657985525019823,1,0.995234
0.968487837752821,1,0.999252
0.9702762927849452,1,0.998748
0.971785249626942,1,0.998579
0.9731105901311523,1,0.994620
0.9739121938328755,1,0.995915
0.9745802592610342,1,0.999309
0.9457751419004274,1,0.992800
0.9554624448608543,1,0.996817
0.9622212295768571,1,0.998521
0.9666320838691848,1,0.999356
0.9698269539328628,1,0.999286
0.9722160127665066,1,0.999292
0.97382071171659,1,0.999253
0.9748798004203645,1,0.997269
0.9757406872409522,1,0.998845
0.9762191411789217,1,0.999134
0.9765246281209475,1,0.997354
0.9771753358819305,1,0.998609
0.9778062447442194,1,0.999323
0.9781650756983846,1,0.999306
0.9555592293286447,1,0.999357
0.9627171942377774,1,0.997189
0.9677511863862643,1,0.997447
0.9714061954699628,1,0.999274
0.9741683466448926,1,0.999423
0.975995968843305,1,0.999197
0.9772966738129182,1,0.997587
0.978233960022036,1,0.999332
0.9787150464101622,1,0.998361
0.9792616201512345,1,0.994902
0.9796873112038065,1,0.999375
0.9798648220906102,1,0.999284
0.9797246041344367,1,0.999340
0.9798498339544592,1,0.999308
0.9801098123135992,1,0.999145
0.9802266204951229,1,0.999352
0.9801563443284014,1,0.998783
0.9641620950518193,1,0.999267
0.969513338043946,1,0.995316
0.973612552179793,1,0.999385
0.9760596031369142,1,0.994749
0.9778505723021979,1,0.999325
0.9793142220341886,1,0.999263
0.9802759266566377,1,0.999253
0.9810338292793991,1,0.999372
0.9814846264653606,1,0.999238
0.9821666168271985,1,0.999361
0.9827431871029296,1,0.999358
0.9831084310785927,1,0.999282
0.9833929971036112,1,0.998902
0.9835698408398678,1,0.999324
0.9837575307660533,1,0.999304
0.9837871899215149,1,0.999321
0.9837371440049066,1,0.999255
0.983738451738527,1,0.999217
0.9632562395272587,1,0.999325
0.9683648818631544,1,0.999370
0.972117113002571,1,0.999283
0.9752056916568947,1,0.999388
0.9772173860833513,1,0.999347
0.9788465630135161,1,0.999064
0.9799439641762043,1,0.999351
0.9807606230227045,1,0.999325
0.9814561544135275,1,0.999271
0.9819673953597006,1,0.997611
0.9821858471357325,1,0.994960
0.9823316086945582,1,0.999241
0.9825098513256582,1,0.998621
0.9825091489965544,1,0.999062
0.9824877637891478,1,0.999146
0.9823299012006595,1,0.998554
0.9821098361181128,1,0.998625
0.9818870006101645,1,0.999014
0.9817393705461981,1,0.999216
0.9815177450334295,1,0.999339
0.9584562685742317,1,0.998700
0.9645437090191661,1,0.998588
0.9687197702957799,1,0.997683
0.9722834230015268,1,0.999199
0.9746918162125873,1,0.997692
0.9766100110668566,1,0.998668
0.9784050796679388,1,0.998969
0.979979726348289,1,0.997628
0.9809485580335056,1,0.998882
0.9816867116947865,1,0.998377
0.9823455507483423,1,0.999208
0.9828434358590853,1,0.999250
0.9830391930219485,1,0.999331
0.9832682773381247,1,0.999244
0.9834535369847025,1,0.998493
0.9835985435948267,1,0.999289
0.9835819560239314,1,0.999392
0.9835247814871452,1,0.999324
0.9834308775039028,1,0.997924
0.983370359475155,1,0.997877
0.9831465974447664,1,0.999379
0.9829394882719941,1,0.999371
0.9483871321448721,1,0.998556
0.9557814376781498,1,0.998559
0.9613062718305145,1,0.998562
0.9655854232849409,1,0.995958
0.9692627144827423,1,0.999377
0.972043855097196,1,0.998656
0.9741580746147174,1,0.998655
0.9757219279841267,1,0.994665
0.9772056519625345,1,0.999352
0.9783775673103771,1,0.998481
0.9791463109349008,1,0.998250
0.9797877015608446,1,0.999366
0.9805257567194307,1,0.994565
0.9811448130928867,1,0.995202
0.98175021044838,1,0.999335
0.9821365531896264,1,0.999120
0.9823384070963337,1,0.999180
0.9824565916165022,1,0.999295
0.9826173119305669,1,0.996471
0.9826782508224459,1,0.999343
0.982709124014907,1,0.999310
0.9826720184078716,1,0.999298
0.9825180101673573,1,0.999267
0.9823832736014566,1,0.996513
0.9443313410330263,0,0.992393
0.9508081593099622,1,0.998662
0.9561971370135839,1,0.999373
0.9601515253907105,1,0.995911
0.9635126126301283,1,0.999171
0.9663905256693062,1,0.999200
0.9691320409522425,1,0.994194
0.9708651840926047,1,0.998832
0.9724974851682768,1,0.999031
0.973818609238692,1,0.999364
0.9749115955297193,1,0.998789
0.9756801160418349,1,0.998270
0.9760780612947323,1,0.999320
0.9763479466798892,1,0.998766
0.9766976476956024,1,0.999325
0.9769021326836604,1,0.999248
0.9769389797940383,1,0.995578
0.9770854570960066,1,0.999303
0.977207618998044,1,0.993145
0.9772241202635145,1,0.999168
0.9772780232269169,1,0.996456
0.977244686972222,1,0.999312
0.9772387559735426,1,0.998457
0.9772262714096022,1,0.998560
0.9771433858164786,1,0.999323
0.9770595291397968,1,0.999228
0.9770228590655559,1,0.998543
0.9400125366009201,1,0.999360
0.9463880531223515,1,0.995263
0.951829048128723,1,0.995297
0.9558480452955068,1,0.999320
0.9594053228060131,1,0.999138
0.9625561842634934,1,0.998497
0.9651825566941291,1,0.999264
0.9677644371353792,1,0.998528
0.9697368933680668,1,0.994083
0.9714637891712785,1,0.999336
0.9727720080996503,1,0.993666
0.973792647370561,1,0.999371
0.9748659157390898,1,0.998521
0.9757906978232245,1,0.994394
0.976518121384532,1,0.999221
0.9771848762887185,1,0.999109
0.9777730058431459,1,0.999309
0.9782065198010687,1,0.999321
0.9786408095285906,1,0.999191
0.9790198413839144,1,0.996499
0.9791944991582254,1,0.995683
0.9793716797358871,1,0.999329
0.9794786267241666,1,0.999288
0.9794946082384266,1,0.999263
0.9795361355705255,1,0.999363
0.9795639970984374,1,0.999101
0.979457494202713,1,0.998510
0.9793097023285965,1,0.998126
0.9345354076118146,1,0.998093
0.9412576725378101,1,0.999347
0.9465863704413428,1,0.998517
0.952002277318602,1,0.998596
0.9564147625724885,1,0.999344
0.959818882217707,1,0.996776
0.9627528461321434,1,0.998611
0.9653084715872667,1,0.999129
0.9669457077785287,1,0.999322
0.9689471361502349,1,0.997669
0.9705714095435088,1,0.999125
0.9718670496126104,1,0.999289
0.9735753610852044,1,0.999102
0.9751654576248749,1,0.999297
0.9765150600271014,1,0.999268
0.9776959782875126,1,0.996916
0.9786542549151334,1,0.997517
0.9795185528513846,1,0.995289
0.9803053160031546,1,0.999311
0.9808475702154688,1,0.996949
0.9812894718099604,1,0.999322
0.981795683572782,1,0.995871
0.9821923219296866,1,0.999259
0.9825238757050481,1,0.999317
0.98277059701614,1,0.999374
0.9830000653803559,1,0.999318
0.98317063269413,1,0.999347
0.9833914507223407,1,0.999337
0.9833962158172059,1,0.999377
0.9834384692479607,1,0.999348
0.9278812521420734,1,0.999340
0.9359333064439229,1,0.998583
0.9422142743230126,1,0.998441
0.9477341149123959,1,0.999358
0.9527100994483659,1,0.998644
0.9570201895336581,1,0.999370
0.960627265216929,1,0.998586
0.9638492201239344,1,0.999153
0.9662331773816979,1,0.997645
0.9683947998526956,1,0.998763
0.9703544509075532,1,0.999359
0.9719268758253321,1,0.994074
0.9735601777739513,1,0.999292
0.9747515566520147,1,0.995423
0.9757120676689356,1,0.998544
0.9765046084730917,1,0.998717
0.977346886580144,1,0.998542
0.9781931800284639,1,0.999332
0.9788842208729902,1,0.999032
0.9793851077840785,1,0.998744
0.9798321848202889,1,0.998540
0.9803059745713466,1,0.999123
0.9805415499598881,1,0.998866
0.9808354314305459,1,0.999263
0.9810341043070261,1,0.999163
0.9811772139422793,1,0.997973
0.9813172096667055,1,0.999337
0.9813378122253771,1,0.999363
0.9813410990482629,1,0.997901
0.9813587660054687,1,0.998245
0.9813282830159954,1,0.998593
0.9812582369949733,1,0.998365
0.9156265762623907,1,0.993338
0.9257233495923821,1,0.999390
0.9340697360282654,1,0.999377
0.9406983576322192,1,0.998121
0.946601154244755,1,0.999217
0.9512809822286608,0,0.991875
0.9551379124653661,1,0.999242
0.958489865873518,1,0.998723
0.9610695888721664,1,0.998733
0.9634353578609127,1,0.999267
0.9653344027600099,1,0.998584
0.9669256820902693,1,0.999153
0.9685225165255458,1,0.998612
0.9697869069429919,1,0.998697
0.9709304782302276,1,0.998683
0.9720355696662301,1,0.995014
0.9730766964638198,1,0.999221
0.9739200781173571,1,0.995320
0.9747111538796126,1,0.997161
0.9754052196475013,1,0.999204
0.9758932949337366,1,0.999283
0.9764237166174948,1,0.998467
0.9767284950842363,1,0.999311
0.9771540923504126,1,0.996464
0.9775433025359213,1,0.999376
0.9777388504555737,1,0.999329
0.9778938515621586,1,0.999253
0.977989798508707,1,0.999190
0.9780605327920673,1,0.999372
0.9781684714466852,1,0.997120
0.9782828719512796,1,0.997216
0.9783906468791314,1,0.999273
0.9785143479661005,1,0.999320
0.9786274940541912,1,0.999389
0.9138747727801859,1,0.998575
0.9223303611386725,0,0.992199
0.9298356512580213,1,0.999290
0.9368911000785027,1,0.999337
0.9422041255096029,1,0.998618
0.9473843170874339,1,0.998665
0.9514605110926398,1,0.999056
0.9553473726648821,1,0.998776
0.958434040012439,1,0.998630
0.9611794317581505,1,0.999259
0.9635012257729981,1,0.999118
0.965949029716574,1,0.995399
0.9677703443704919,1,0.995810
0.9697248950860599,1,0.999351
0.9709726516485406,1,0.995202
0.972168294722505,1,0.998756
0.973331862616662,1,0.999356
0.9743660645257083,1,0.998603
0.9753878637510915,1,0.998751
0.9762881479319131,1,0.998829
0.9770170835143116,1,0.999250
0.9777274313369869,1,0.999203
0.9783915069669693,1,0.999333
0.9785594194189782,1,0.999066
0.9788504658236268,1,0.998665
0.9789966445522896,1,0.999263
0.9791855717677861,1,0.999151
0.9793631510735024,1,0.999267
0.9793543365958283,1,0.999237
0.9793867933083541,1,0.999115
0.9794398485943061,1,0.998470
0.9794669446374956,1,0.999268
0.9794255223648292,1,0.998602
0.9792916438262315,1,0.998741
0.9792154242619286,1,0.998367
0.9791485252142457,1,0.999301
0.9793151629135134,1,0.999239
0.9210172803222988,0,0.992318
0.9262276068916933,1,0.999346
0.930740540516247,1,0.999308
0.9349740714350293,1,0.998605
0.9389694431009155,1,0.999333
0.9426549552965472,0,0.992435
0.9459739682110888,1,0.995179
0.9482962672866254,1,0.995451
0.9502626015287788,1,0.995318
0.9523355300905427,1,0.999320
0.9542337685320476,1,0.997878
0.9563595029818281,1,0.998525
0.9580554872983559,1,0.994190
0.9596584751356552,1,0.994624
0.9611691517638205,1,0.998825
0.9624489374505899,1,0.999306
0.9634806428721809,1,0.998544
0.96445941188217,1,0.999288
0.9655751775829037,1,0.999041
0.966405229985811,1,0.999204
0.9672484063541755,1,0.997057
0.9678027305736193,1,0.999341
0.9681337250599213,1,0.998370
0.9685912781420654,1,0.998502
0.9690619424685141,1,0.999134
0.9694119780664312,1,0.999272
0.9697460536987723,1,0.997726
0.9700191135599028,1,0.999356
0.9704719546974903,1,0.997731
0.970821024893563,1,0.998585
0.9712240847332246,1,0.998397
0.9716754720205081,1,0.997590
0.9720634887921392,1,0.998495
0.9724684044291481,1,0.999376
0.972657472305563,1,0.999340
0.9728664912840908,1,0.999404
0.9730477818335048,1,0.999343
0.9731053663547228,1,0.999373
0.9156081386276832,1,0.998012
0.921525644120959,1,0.998479
0.926488287387293,1,0.994417
0.931265994162087,1,0.992893
0.9356462367362878,1,0.998362
0.9397066478744427,1,0.999240
0.942801696992104,1,0.999169
0.9457410848881028,1,0.999350
0.9484770300054857,1,0.998881
0.9511283615417419,1,0.997099
0.9530896441535124,1,0.999270
0.9549856642828931,1,0.995578
0.9570098505956968,1,0.995188
0.9584586536204345,1,0.997087
0.9596716488850352,1,0.999195
0.9609543298652807,1,0.998704
0.9618397524894156,1,0.998688
0.9625794578055372,1,0.998384
0.9631443137911987,1,0.998871
0.9636933250479406,1,0.999160
0.9642598906991893,1,0.999176
0.9649268619517288,1,0.998596
0.9657272173103374,1,0.997875
0.9664300535305121,1,0.995885
0.9669687314750084,1,0.999332
0.9673795212378082,1,0.997710
0.9678067015217269,1,0.999321
0.9682412317499979,1,0.998062
0.9686722402102655,1,0.998941
0.969153200144682,1,0.999223
0.9696432783817424,1,0.999021
0.9700417274096566,1,0.998739
0.9703534372654555,1,0.999370
0.9706804030195417,1,0.998574
0.9709408580692802,1,0.997004
0.9712482020002016,1,0.998978
0.971610207182998,1,0.999192
0.9718906554559313,1,0.999314
0.9720530268469079,1,0.998624
0.9721120058869539,1,0.999178
0.9180076536580747,0,0.992632
0.9240274943222618,1,0.998462
0.9296070008156998,1,0.998611
0.9345727737445485,1,0.999267
0.9385886335860024,1,0.999369
0.9425071124620588,1,0.998587
0.9458133020301547,1,0.999237
0.9488955910514959,1,0.994920
0.9516194137820878,1,0.999216
0.9540153747512745,1,0.998667
0.9559331644606643,1,0.998233
0.957572890290605,1,0.998595
0.9593938821986229,1,0.999069
0.9608906030982055,1,0.999392
0.962164387216876,1,0.997024
0.9629087639476245,1,0.996601
0.9637393227107813,1,0.999338
0.9644307775931786,1,0.996342
0.9650988888947006,1,0.999218
0.9656986614945892,1,0.997927
0.9663624598926468,1,0.998789
0.9668483240848794,1,0.999166
0.9673860973706534,1,0.998416
0.9680569204299019,1,0.999346
0.9685436964068853,1,0.998252
0.9690130847633107,1,0.998616
0.9691894142061798,1,0.999229
0.9693935934528457,1,0.998416
0.9696707037776281,1,0.998436
0.96987713243469,1,0.997306
0.9700584006869766,1,0.998809
0.9702074322339153,1,0.998577
0.9703229478276985,1,0.998600
0.9705519159111138,1,0.999257
0.9706480169388415,1,0.999120
0.9707774360931871,1,0.997105
0.9708633922471113,1,0.998470
0.9709735039466678,1,0.999289
0.9711890565347355,1,0.998578
0.9713624363668026,1,0.998580
0.971556849670583,1,0.999351
0.9717666294851753,1,0.999158
0.971849890276381,1,0.999336
0.9198415711497738,1,0.998121
0.9251483799030915,1,0.999304
0.9301028664506554,1,0.998373
0.9340980548738437,1,0.994039
0.9377737817101863,1,0.999208
0.94076361554072,1,0.999004
0.9438116895595986,1,0.995021
0.9464963516600623,1,0.999182
0.9488736824904603,1,0.999341
0.9509593734804193,1,0.992733
0.9528244518805504,1,0.999013
0.9547398146293488,1,0.999277
0.9564410036725984,1,0.999278
0.958299215736742,1,0.997249
0.9598993703909079,1,0.998502
0.9611783219906993,1,0.997924
0.9624247768823792,1,0.999303
0.9635814814747364,1,0.997030
0.9646493780525164,1,0.999367
0.9656189769612904,1,0.995192
0.9665087351905498,1,0.996334
0.9673088699816142,1,0.997337
0.9680283639310625,1,0.995766
0.9686144773491555,1,0.999249
0.9693086698924049,1,0.997815
0.969996228107087,1,0.999243
0.9706365120559906,1,0.999351
0.9710097328285133,1,0.999180
0.9714057863081684,1,0.997719
0.9718399056161829,1,0.998726
0.9721470506128503,1,0.998646
0.9724531318165903,1,0.997989
0.9727223957387413,1,0.999378
0.9729638480194167,1,0.999362
0.9732468695531081,1,0.999049
0.9735589025730151,1,0.998329
0.9739180303586099,1,0.999385
0.9740509378433793,1,0.998529
0.9741346763791687,1,0.999381
0.9742623113616398,1,0.998469
0.974318012428272,1,0.999295
0.9744430674239651,1,0.999387
0.9745502466793577,1,0.999136
0.9744706096203258,1,0.999261
0.9116108063948479,1,0.994273
0.917493300838343,1,0.993715
0.9223995233932301,1,0.998135
0.9265495787362221,1,0.998622
0.9308960884966277,1,0.998146
0.9349193932784691,1,0.998524
0.93845507080747,1,0.999425
0.9412368436431005,1,0.997510
0.9435501021497644,1,0.993342
0.9458441102670234,1,0.998425
0.9478915192268542,1,0.998979
0.9498957018422453,1,0.999050
0.9518315363573849,1,0.998756
0.9535543284794972,1,0.999301
0.9549085419271407,1,0.998717
0.9564392698059317,1,0.999197
0.9577523513074989,1,0.999197
0.9586542523194704,1,0.999418
0.9596141513913716,1,0.997370
0.9605626770738692,1,0.998261
0.9614959365545765,1,0.999006
0.9624025297396509,1,0.999244
0.9630363813997024,1,0.998042
0.9635925832557055,1,0.998025
0.9642465194293153,1,0.999285
0.964783319778305,1,0.999274
0.9652797697303835,1,0.999284
0.9658775926247375,1,0.998777
0.9662480864011909,1,0.999375
0.9667529748278336,1,0.999410
0.9673025118509451,1,0.999333
0.9678369342313174,1,0.998665
0.9682218061575676,1,0.999216
0.9686700447046106,1,0.998802
0.968945815636192,1,0.999309
0.9692920651276256,1,0.998489
0.9696000268362369,1,0.999183
0.9699597690601124,1,0.999272
0.9703827935978193,1,0.999305
0.9705079867658869,1,0.999294
0.970690793772159,1,0.996825
0.970844436226088,1,0.999302
0.9710518397382526,1,0.999216
0.9711300326246737,1,0.998370
0.9712521452047748,1,0.999301
0.9713924153744563,1,0.999253
0.9714809518431132,1,0.999407
0.9165951254861521,1,0.998553
0.9224589508939951,1,0.999117
0.9275182914796459,1,0.995997
0.9320926234836648,1,0.994289
0.9368819607213325,1,0.999396
0.941496350495562,1,0.999239
0.9447668703812256,1,0.999359
0.9474988842554224,1,0.995733
0.9506689323664803,1,0.995053
0.9534203013530156,1,0.996016
0.9558773656648502,1,0.998701
0.9579345644494929,1,0.998624
0.959898919847502,1,0.999249
0.9614652228339082,1,0.995078
0.9627091845430296,1,0.996664
0.9644350989971299,1,0.999309
0.9657506283271637,1,0.996345
0.9669059366387099,1,0.998620
0.9680009310776603,1,0.997807
0.9690413821444883,1,0.998634
0.969924448602884,1,0.999363
0.970428436727123,1,0.997727
0.9711604286587254,1,0.997321
0.9718036528055057,1,0.996296
0.9723173266824128,1,0.998507
0.9727024859309393,1,0.999329
0.9729878861363631,1,0.999332
0.9733516121537896,1,0.998265
0.9737588269366435,1,0.999333
0.9739209757052701,1,0.997295
0.9740661187009693,1,0.999015
0.9742325096781941,1,0.999205
0.9742606733436208,1,0.999154
0.974237631281589,1,0.999318
0.9743027495981145,1,0.997161
0.9744859526914532,1,0.999257
0.9746248221097806,1,0.999209
0.974779587666907,1,0.999216
0.9750073262356969,1,0.999410
0.9750393431968883,1,0.999281
0.9751100072177109,1,0.999381
0.9752277801428416,1,0.997997
0.9752798652005016,1,0.997161
0.975308011197258,1,0.997965
0.9753034305490178,1,0.999297
0.9753865700033671,1,0.999155
0.9754629895761044,1,0.998472
0.9754188174860579,1,0.997972
0.9140229028158587,0,0.991979
0.9205231560033067,0,0.992522
0.9251669486959615,1,0.998047
0.9301221588043009,1,0.998135
0.9339096945160883,1,0.998494
0.9372408567505133,1,0.998617
0.9402880679137307,1,0.998035
0.9436691623827713,1,0.998866
0.9470615779507819,1,0.997993
0.9498073433535951,1,0.998025
0.9523646633592967,1,0.996361
0.954781219228932,1,0.999384
0.9569946671666201,1,0.996599
0.9589954121924231,1,0.998524
0.9610737003077751,1,0.999389
0.9628356985179466,1,0.999244
0.964598639054242,1,0.994402
0.9662413547685311,1,0.996476
0.967935704171159,1,0.997185
0.9694342018603131,1,0.995374
0.9705720956349371,1,0.998579
0.971601900577331,1,0.999386
0.9726853216187936,1,0.999292
0.9733427495112666,1,0.999324
0.973949853086684,1,0.999275
0.9746751074581491,1,0.997805
0.975152147655581,1,0.995899
0.9756197864601741,1,0.999225
0.9759505185417364,1,0.999363
0.9762771286276867,1,0.997087
0.9766597686859086,1,0.997167
0.9769298382958423,1,0.998111
0.9771091630058454,1,0.997871
0.977325062230216,1,0.997973
0.9776331454404977,1,0.997165
0.9779427141292729,1,0.999257
0.9781007186063158,1,0.998540
0.9781433957352184,1,0.997869
0.9782102676049158,1,0.997778
0.9782877963443419,1,0.997988
0.9783836960549588,1,0.999339
0.9784897932519503,1,0.998483
0.9786199869376799,1,0.999323
0.9787494251841384,1,0.998326
0.9788847298344419,1,0.999169
0.9789628275170208,1,0.998527
0.9790855920448492,1,0.998544
0.979093989042618,1,0.997826
0.9791013790585757,1,0.998897
0.9791236348426139,1,0.999104
0.9791520445060069,1,0.998543
0.9147485707367893,1,0.998053
0.9214989660534131,0,0.992308
0.927452391711815,0,0.992662
0.9332522685390225,1,0.998704
0.938378775376279,1,0.998503
0.9428858137897984,1,0.998116
0.9468081817566592,1,0.993387
0.9505713524698244,1,0.999334
0.9532058631299626,1,0.998994
0.9562624849701398,1,0.998512
0.9589351615688995,1,0.998571
0.9617152305711085,1,0.999342
0.9641828773232338,1,0.999313
0.9659560544412035,1,0.994394
0.9675354875029207,1,0.997033
0.9688804294014013,1,0.998314
0.9702498457872449,1,0.999388
0.9713886589955848,1,0.999206
0.9725697594240706,1,0.999014
0.9736221765935148,1,0.998547
0.9745990812633197,1,0.999343
0.975195212999361,1,0.997266
0.9758136239838671,1,0.999250
0.9765221621720235,1,0.998463
0.9771170082460419,1,0.997985
0.9776177951633348,1,0.999295
0.9780885443316465,1,0.997224
0.9785347543055198,1,0.999292
0.9787626818475215,1,0.997209
0.9789496633385756,1,0.997262
0.9791167450448234,1,0.997209
0.9793806083230031,1,0.999292
0.979576679011784,1,0.998532
0.979725645205506,1,0.997921
0.9799199034542202,1,0.997270
0.9800384959592022,1,0.999349
0.9800380226690767,1,0.998485
0.9800322263165899,1,0.999306
0.9800309135426174,1,0.999252
0.980038448066901,1,0.999346
0.980061239587323,1,0.998525
0.9801057567150314,1,0.998545
0.9799951026050964,1,0.999211
0.9799213009295794,1,0.999230
0.9798595468266962,1,0.999288
0.9798358211239915,1,0.998658
0.9797863675727864,1,0.998543
0.9797372471477162,1,0.999380
0.9798297281995025,1,0.999256
0.9799646473844095,1,0.997076
0.9800454023125995,1,0.999362
0.9801504944033641,1,0.999094
0.9089864592967852,1,0.994780
0.9149521151993985,1,0.999400
0.9206442182941301,1,0.998503
0.9257261494387767,1,0.998071
0.9297616659161098,1,0.998239
0.9337356373836293,1,0.999329
0.9369529925124565,1,0.993392
0.9395247537244177,1,0.999243
0.9420198771067362,1,0.998920
0.9444750440287998,1,0.999117
0.9465338305962485,1,0.999328
0.9484664351486739,1,0.998614
0.9502761897190383,1,0.993750
0.9518916200450301,1,0.995157
0.9535435379476277,1,0.999018
0.9546585005752715,1,0.994438
0.9558199514956519,1,0.999305
0.9570093674318189,1,0.999455
0.9581840936549616,1,0.999241
0.9593622227373524,1,0.996540
0.9602630913156295,1,0.999317
0.9610629342492866,1,0.996808
0.9619766180596367,1,0.999321
0.9627651122969809,1,0.999328
0.9634831674558515,1,0.999333
0.9643083364744109,1,0.999321
0.9647856996679058,1,0.996954
0.96534732734203,1,0.995526
0.9658133044757424,1,0.999367
0.9662906466243997,1,0.999221
0.9665650919961498,1,0.999349
0.9669399121061265,1,0.995705
0.9672175225927773,1,0.999287
0.9675986050155228,1,0.999322
0.9680307063048463,1,0.997622
0.9682917162077,1,0.999405
0.9686511303444293,1,0.997625
0.9690447917818122,1,0.996484
0.9694546115567478,1,0.998486
0.9697881766485558,1,0.999460
0.9700270112785367,1,0.999025
0.970290913763971,1,0.999312
0.9705173851061769,1,0.999312
0.9707587613742523,1,0.999347
0.9709761981936504,1,0.999361
0.9711619831549161,1,0.999244
0.971390863628816,1,0.998528
0.9715528552698067,1,0.999277
0.9718199981297337,1,0.998688
0.972033889118634,1,0.998996
0.9723021311875264,1,0.999332
0.9724729000205448,1,0.996981
0.9726642964018284,1,0.999303
0.9727094496034355,1,0.999294
0.9728165151078791,1,0.999228
0.9135325973978238,1,0.999134
0.9186613913257462,1,0.998324
0.924043585645422,1,0.995137
0.9281762475655128,1,0.997934
0.9317250488793668,1,0.992706
0.9351738288556263,1,0.998519
0.9383204486134903,1,0.995698
0.9413669014766335,1,0.997338
0.9443776102623352,1,0.998703
0.946903133980986,1,0.999285
0.9490699793968703,1,0.998031
0.9510027969879795,1,0.999125
0.9531998212424325,1,0.996366
0.9552649480724774,1,0.997013
0.956811657950312,1,0.999199
0.958600062439034,1,0.998392
0.9601826288718567,1,0.998550
0.9615151648812683,1,0.996326
0.9625066240456819,1,0.999340
0.9637199349816296,1,0.999288
0.9648073403642374,1,0.999328
0.9655459506087494,1,0.998505
0.9663166574987784,1,0.999157
0.9670682067328878,1,0.998565
0.9677150935775594,1,0.997131
0.9681921824769831,1,0.998751
0.9687563081205388,1,0.997301
0.9693773663376393,1,0.999321
0.9697529225193597,1,0.999237
0.9701940713455504,1,0.998165
0.9705229411091179,1,0.998672
0.9708049259529016,1,0.997778
0.9712066267041761,1,0.998728
0.9716529842447672,1,0.997065
0.9719523465792339,1,0.999301
0.9723262087592417,1,0.999276
0.9725968857088213,1,0.999305
0.9727370639551121,1,0.997938
0.9728814343496834,1,0.999317
0.9729618089782067,1,0.999324
0.9731908142244212,1,0.999317
0.9733780578753229,1,0.998596
0.9735745789561484,1,0.999234
0.9736837451164724,1,0.998258
0.9737787841734842,1,0.999328
0.9739076615008448,1,0.998371
0.9739432600201866,1,0.998593
0.9740429216925548,1,0.998479
0.9741009242365234,1,0.999349
0.9741812509578665,1,0.999211
0.9742961638074198,1,0.999227
0.9744279369473774,1,0.998680
0.97460051933638,1,0.998844
0.9747812955209132,1,0.999314
0.9748906249122615,1,0.998441
0.9749340167409877,1,0.999320
0.9046749285468886,1,0.998700
0.9106356135325195,1,0.992685
0.9165929971661082,0,0.991551
0.9214074621744213,1,0.992562
0.9255175041116892,1,0.999241
0.9298618471257902,1,0.992636
0.9340254456578351,1,0.999190
0.9373478675023865,1,0.998441
0.9407707496570098,1,0.998944
0.9434632400687734,1,0.998446
0.9464839417242866,1,0.998497
0.9490016593198577,1,0.999418
0.9516035158336547,1,0.999345
0.9536635622803261,1,0.996420
0.9554291155516529,1,0.994143
0.9573351784713423,1,0.995617
0.9589771374538475,1,0.999300
0.9604954767274502,1,0.998498
0.9620027437638697,1,0.998537
0.9632659242661473,1,0.996340
0.9643358294498663,1,0.999332
0.9656299650149214,1,0.999378
0.9667666942538081,1,0.997724
0.9675863656027256,1,0.999303
0.9683856610209852,1,0.998478
0.9690598528989977,1,0.999314
0.9698511223491076,1,0.999113
0.9703072576894737,1,0.998496
0.9708565409038922,1,0.997010
0.9714688169989029,1,0.997189
0.9719917333998299,1,0.998315
0.9724462825037116,1,0.999225
0.9728884136232003,1,0.998187
0.9734314314242933,1,0.996877
0.9737727032949436,1,0.999302
0.9741045411709967,1,0.998606
0.9745001715566222,1,0.998548
0.9749042128477644,1,0.999418
0.9750771966237188,1,0.999170
0.9752592136814392,1,0.999209
0.9754440295821936,1,0.998436
0.9756014351908217,1,0.998805
0.9756413258802829,1,0.999336
0.9757263112391096,1,0.999394
0.9758626547156097,1,0.999272
0.9760538784497212,1,0.999296
0.9761916749531663,1,0.998563
0.976307765885437,1,0.999332
0.9764012547551051,1,0.997475
0.9765292883667984,1,0.999379
0.9766786997636081,1,0.999224
0.9768136665808754,1,0.999316
0.9768695358070535,1,0.999277
0.9769093547976324,1,0.999336
0.9770382797659299,1,0.999135
0.9770522331390896,1,0.998848
0.9770680479137014,1,0.999278
0.977085874006904,1,0.999220
0.903025044062603,1,0.992701
0.9087183761869367,0,0.992527
0.9139742465708157,1,0.997992
0.9188778153945552,1,0.999403
0.9238017336297096,1,0.994190
0.9282428443655278,1,0.999244
0.9320632950712533,1,0.999308
0.9355881146041017,1,0.999244
0.9383639157298639,1,0.998515
0.9411508433663338,1,0.996350
0.943667718773402,1,0.996054
0.9456490566802845,1,0.995070
0.9476223217441994,1,0.994902
0.949563393665127,1,0.999255
0.9513004251775972,1,0.996944
0.9526875610790837,1,0.997197
0.9539265817624627,1,0.997093
0.9548083264891463,1,0.998540
0.9554946012398309,1,0.999327
0.9564715016433945,1,0.998481
0.9573713715215936,1,0.999234
0.9580863803474498,1,0.997610
0.9588533612739905,1,0.997912
0.9596302034631145,1,0.999334
0.9605030793824033,1,0.998620
0.961135121358974,1,0.999339
0.9617595357732047,1,0.999309
0.9623950811344045,1,0.997738
0.9630473803906965,1,0.997028
0.963655674488717,1,0.999273
0.9640771002621374,1,0.998488
0.9644515843006716,1,0.999353
0.964875745946565,1,0.999342
0.9652452683212623,1,0.998580
0.965675648375148,1,0.999316
0.9660271190490332,1,0.999348
0.9662905010195012,1,0.998319
0.9664873055161423,1,0.998866
0.9666969795261531,1,0.999346
0.9668723546779934,1,0.998619
0.9671284613532702,1,0.999210
0.9672827638053976,1,0.998479
0.967340114207783,1,0.999227
0.9674668044092628,1,0.999288
0.9676474580144719,1,0.999334
0.9678459165856919,1,0.998565
0.9681396084901321,1,0.997557
0.96838664019842,1,0.999395
0.9686820059845545,1,0.999274
0.9688287726079866,1,0.999217
0.9690306084449599,1,0.999120
0.9692031227641333,1,0.999241
0.9693464316999291,1,0.999132
0.9695494249608555,1,0.998505
0.9697091877568654,1,0.999298
0.9699286939256127,1,0.998453
0.9700220694051132,1,0.999300
0.9701158474208826,1,0.999398
0.9701733504194254,1,0.999301
0.9702274758377651,1,0.999288
0.9702660179413942,1,0.999395
0.9099781213032333,1,0.998526
0.9143975577050444,1,0.998529
0.9186171425247962,1,0.992992
0.9227917518896136,1,0.996561
0.9269406748966913,1,0.999213
0.9304840979342582,1,0.993358
0.9339350531841704,1,0.999042
0.9374582561746639,1,0.999311
0.9403123775841719,1,0.995105
0.9427308469738394,1,0.994273
0.9452663770673049,1,0.999444
0.9476189126939968,1,0.997024
0.9494783231308795,1,0.999299
0.9507404588318022,1,0.999160
0.9517512016823194,1,0.999210
0.9527737858170986,1,0.998185
0.9540317431124274,1,0.997766
0.9553285852604875,1,0.995888
0.9563410354237708,1,0.999333
0.9575690002581965,1,0.998409
0.9589165472533088,1,0.996530
0.9600730417176351,1,0.999322
0.9608844035223102,1,0.996385
0.9617506138514544,1,0.997108
0.9626037228241574,1,0.998401
0.963301653603,1,0.999201
0.9638530885908883,1,0.998247
0.964358201441529,1,0.998474
0.9649139966873549,1,0.999345
0.9654180241642181,1,0.999321
0.9657517489932547,1,0.999321
0.9659931872810562,1,0.999382
0.9660909895609733,1,0.999213
0.9663712924630925,1,0.997024
0.9667317198207529,1,0.999339
0.9669878763473178,1,0.999340
0.9672774260355497,1,0.999358
0.9676603590002619,1,0.997050
0.9680034522335867,1,0.999273
0.9684158105042097,1,0.999169
0.9689116578130352,1,0.999388
0.9693914768367721,1,0.997717
0.9696651703075073,1,0.999407
0.969993973009552,1,0.999317
0.9703752862742442,1,0.997753
0.9708281901597067,1,0.999180
0.9710544681161943,1,0.998492
0.9712954223510933,1,0.998247
0.9714363173843802,1,0.998408
0.9714980746008255,1,0.999287
0.9715626458055954,1,0.999326
0.9717724523678999,1,0.999387
0.9719148952402669,1,0.997821
0.9720685136906478,1,0.999359
0.9721450465238224,1,0.999307
0.972323749544807,1,0.997647
0.9723723082431547,1,0.999312
0.972443950991328,1,0.999255
0.9726003053054314,1,0.999319
0.97263078305361,1,0.997701
0.9727026415799702,1,0.997842
0.9727630147402168,1,0.998551
0.9099979754793732,1,0.998457
0.9148340658608126,1,0.998618
0.919300497517135,1,0.998644
0.9238726591561632,1,0.998505
0.9281610889535191,1,0.998660
0.931811527847404,1,0.999324
0.9355178993489589,1,0.999227
0.9390562340313479,1,0.994007
0.9419014552584404,1,0.993492
0.9444630187901407,1,0.999161
0.9472040466189662,1,0.999277
0.9494345855893027,0,0.993439
0.9512519664246197,1,0.999331
0.9530802068104575,1,0.998442
0.9543660565029166,1,0.999169
0.9556482722243116,1,0.999330
0.9569263233151004,1,0.999328
0.9585038902494866,1,0.996756
0.9595879596313375,1,0.994021
0.9608692907608689,1,0.999293
0.9620265732410784,1,0.998465
0.9630548328559773,1,0.994701
0.9638437418112469,1,0.999127
0.9647655777371257,1,0.999334
0.9658572967579142,1,0.998493
0.9665190951290484,1,0.999284
0.9671865890361587,1,0.998472
0.9679247346330242,1,0.999300
0.9684799056905942,1,0.999309
0.9688068991184642,1,0.997859
0.9692253430554834,1,0.999320
0.9697824945983506,1,0.999353
0.9705599312973165,1,0.998056
0.971303473904287,1,0.998487
0.972055803887874,1,0.999228
0.9727116780635381,1,0.997286
0.9732902721410499,1,0.997389
0.9739455972273601,1,0.998071
0.9744533216776401,1,0.999187
0.9749430151017913,1,0.998966
0.9754128674831949,1,0.998445
0.9757803220980348,1,0.997995
0.9761260931984811,1,0.999228
0.976556231224254,1,0.996897
0.9769023887175019,1,0.999113
0.977224052474066,1,0.998613
0.977676137151924,1,0.999278
0.9781148012192747,1,0.998519
0.9784402846679877,1,0.999368
0.9786845035745505,1,0.999340
0.9789130213487323,1,0.999248
0.9791046481578047,1,0.998682
0.9793291024729671,1,0.998981
0.9794932156037787,1,0.998691
0.9797278461541805,1,0.998573
0.9798538554421712,1,0.998689
0.9799139544021578,1,0.997683
0.9799454326793704,1,0.999177
0.980057844418863,1,0.998521
0.9801323204267146,1,0.997825
0.9802016024005944,1,0.998487
0.9803577289828668,1,0.998358
0.9805416822925201,1,0.999324
0.9806211948652872,1,0.999116
0.9807018184690856,1,0.999278
0.9160558045151778,1,0.993182
0.9208892965340031,1,0.993803
0.9248055955363729,1,0.998112
0.9282731975069126,1,0.996581
0.9308864646836454,1,0.998545
0.9341501199775417,1,0.995868
0.9371150427192899,1,0.999328
0.9402260610003236,1,0.998451
0.9428335534415728,1,0.998031
0.9451416330723774,1,0.998255
0.9471150736350317,1,0.996355
0.948909528494834,1,0.998481
0.9507683613119435,1,0.998304
0.9523956789406038,1,0.999198
0.9537266435280404,1,0.994295
0.9550146381674409,1,0.999310
0.9564538657466397,1,0.999184
0.9579226770770459,1,0.996561
0.9590334065426518,1,0.996441
0.959835207110555,1,0.998678
0.9609320058500392,1,0.995745
0.9618662767373776,1,0.999326
0.9626623842704952,1,0.998185
0.9633809618639089,1,0.999216
0.9642090819705657,1,0.999307
0.964865642640848,1,0.999290
0.9653758399051131,1,0.999321
0.9658049792157495,1,0.999420
0.9663403018775992,1,0.999093
0.9667685676133797,1,0.999253
0.9670607426038969,1,0.998675
0.9673526824895559,1,0.997171
0.9677235198193138,1,0.999203
0.9680675963022178,1,0.998510
0.9683632307373603,1,0.997853
0.9686020913909409,1,0.999184
0.9688861034256323,1,0.998375
0.9691335900298802,1,0.999147
0.9695111427152339,1,0.995730
0.9696830527837211,1,0.998134
0.9698437093951418,1,0.997627
0.9699692224697428,1,0.999331
0.9701413877825831,1,0.999272
0.9704096849965327,1,0.998388
0.9706318433716915,1,0.998738
0.9707218371278795,1,0.994989
0.9707821699251641,1,0.999321
0.9708657588720185,1,0.999039
0.9709628630240553,1,0.997414
0.9711129453887222,1,0.998483
0.9711520109959063,1,0.999348
0.9711294804574984,1,0.999307
0.9711511385487802,1,0.998176
0.9711768823419903,1,0.995529
0.9712502965712244,1,0.995598
0.9715120116519397,1,0.996163
0.9717340232172291,1,0.996127
0.9719870953976013,1,0.996345
0.972255868956016,1,0.999251
0.9724651522143744,1,0.998701
0.9727179692944699,1,0.999284
0.9729300926018158,1,0.998584
0.9730698333290703,1,0.998577
0.9732905425285322,1,0.998264
0.9735257776390082,1,0.999125
0.9737411189351473,1,0.999333
0.9157662490175983,1,0.994548
0.9214919368785003,1,0.992997
0.925923952551869,1,0.998664
0.9303194328151932,1,0.997333
0.9343035104397079,1,0.999213
0.9379578907371846,1,0.998519
0.941412417647415,1,0.993238
0.9442955959582784,1,0.999409
0.9465511938943774,1,0.999271
0.9489269822080361,1,0.995711
0.9509774814239469,1,0.999300
0.95305478853558,1,0.994350
0.9550965913201238,1,0.994295
0.9569169235363154,1,0.999244
0.9585927581350827,1,0.999329
0.9599780916372983,1,0.999176
0.9614340841935741,1,0.999320
0.9626679288681959,1,0.999301
0.9640750655039714,1,0.999251
0.9651495066611081,1,0.998549
0.9660936936410849,1,0.993294
0.9669707506762723,1,0.999279
0.9678596250076885,1,0.994253
0.9684198702998882,1,0.999280
0.968981887572242,1,0.997724
0.9697170884775173,1,0.994281
0.970303627571206,1,0.999317
0.9706657623523192,1,0.998343
0.9710363285268784,1,0.998755
0.9714373596809404,1,0.999272
0.9718260396613715,1,0.997421
0.972182383470708,1,0.997201
0.9725940488931856,1,0.996899
0.9729966333002595,1,0.999300
0.9734089934568116,1,0.999245
0.9737664399457577,1,0.999120
0.9741256347428362,1,0.998878
0.9743963633273056,1,0.998329
0.9747623013848408,1,0.999314
0.9750400500180331,1,0.999219
0.9753514571022449,1,0.998322
0.9755594807917094,1,0.999292
0.9757955707971444,1,0.999349
0.9759302155594638,1,0.996082
0.9761064773809826,1,0.999301
0.9762805165869384,1,0.999301
0.9764031242392787,1,0.999419
0.9764078575610425,1,0.999310
0.9764983519161461,1,0.999348
0.9765261020504495,1,0.997826
0.976616707666847,1,0.998567
0.976659876355276,1,0.999339
0.9767046345766656,1,0.995562
0.9766935117713066,1,0.999093
0.9766819826341764,1,0.996047
0.9767103256365299,1,0.999305
0.9767096280443923,1,0.999271
0.9767358185661115,1,0.999171
0.9768197634830462,1,0.998540
0.9768415653537817,1,0.995723
0.9768485719958635,1,0.999260
0.9769021233923966,1,0.999382
0.9769280085097443,1,0.999316
0.9769187444213008,1,0.999312
0.9769665275295869,1,0.997610
0.9769652098678469,1,0.999142
0.976958711881172,1,0.999059
0.9769478016537344,1,0.999359
0.9769782594264804,1,0.998319
0.9201774916643705,1,0.998316
0.9246799932735738,1,0.994935
0.9289381809871262,1,0.998584
0.9327060487901037,1,0.997277
0.9361939381652516,1,0.993488
0.9392785504035565,1,0.998532
0.9417838407069757,1,0.999180
0.9440974072930193,1,0.998379
0.9463669893361015,1,0.998168
0.9483453514837934,1,0.998311
0.9502249348829548,1,0.993681
0.9521158442834878,1,0.994152
0.9535420504062292,1,0.999328
0.9548795447469383,1,0.994300
0.9564458679992444,1,0.993994
0.9579347588326005,1,0.999331
0.9594559878739037,1,0.997978
0.9608146541378737,1,0.996528
0.96196507927664,1,0.999307
0.9630482403870321,1,0.999333
0.9639847817704613,1,0.999151
0.9649060154811958,1,0.999171
0.9658314693283949,1,0.995249
0.9667475717565371,1,0.998431
0.9676619375928056,1,0.999326
0.9683732205778348,1,0.999318
0.969063696117219,1,0.999387
0.9697814172412287,1,0.994729
0.9704998660030484,1,0.998028
0.9711346874767137,1,0.995502
0.9717539593917831,1,0.999336
0.9723114050196212,1,0.998814
0.9727442877370591,1,0.998236
0.9732265675528853,1,0.998483
0.9736618158011081,1,0.999308
0.9739952852189446,1,0.997938
0.9743383575944856,1,0.998989
0.9746771768962229,1,0.999351
0.9750298428376418,1,0.998370
0.9753212032530828,1,0.998520
0.9755361756781941,1,0.998657
0.975790972579032,1,0.995556
0.9759715853660844,1,0.999402
0.9760773026169156,1,0.999359
0.9762291618864123,1,0.999349
0.9763903477173342,1,0.998600
0.9764889520632474,1,0.999327
0.9765669962612312,1,0.998594
0.9766011395884119,1,0.998645
0.9766146807107018,1,0.999270
0.9765875264132249,1,0.999328
0.9766084602207971,1,0.999276
0.9766211158447186,1,0.999357
0.9766813426923855,1,0.998374
0.9767373692374968,1,0.999321
0.9768573793266657,1,0.996700
0.9769536125985572,1,0.997139
0.976954377988859,1,0.996845
0.9769799598437194,1,0.998821
0.97699440216951,1,0.998329
0.976984540122029,1,0.998537
0.9770087432776413,1,0.999274
0.9770559568413812,1,0.999282
0.9770485438179328,1,0.999294
0.9770607909988025,1,0.998436
0.9770749855752598,1,0.999349
0.9770537132677082,1,0.997013
0.9770826223129194,1,0.999336
0.9770477883548878,1,0.999336
0.977034899229873,1,0.999298
0.9185449782622022,1,0.997859
0.9226715490001738,1,0.998510
0.9260590588389119,1,0.995444
0.9293259223939929,1,0.998668
0.9323402626057082,1,0.999197
0.9355229766954577,1,0.996823
0.9389425243786981,1,0.998479
0.9418010950720384,1,0.993082
0.9440899629583558,1,0.999350
0.9461826303437187,1,0.994776
0.948103296200773,1,0.995028
0.9498245174596208,1,0.999328
0.9513530460130024,1,0.998451
0.9527056157431608,1,0.999287
0.9542133586010061,1,0.995493
0.9553994319220701,1,0.998442
0.9565630149367367,1,0.999030
0.9575790936292895,1,0.999405
0.958546569538272,1,0.999206
0.9594471950198338,1,0.995856
0.9602176292977989,1,0.999286
0.9612744682247785,1,0.999321
0.9623087646437589,1,0.996724
0.9633007625361887,1,0.998049
0.9639457173685384,1,0.996252
0.9644653709593867,1,0.998500
0.9651308161354798,1,0.997234
0.9655685700106749,1,0.999232
0.9660117021992805,1,0.997245
0.966400367762508,1,0.998447
0.9669133968821934,1,0.999109
0.9672426809840018,1,0.999279
0.9675358762017714,1,0.994946
0.9679469734501722,1,0.997155
0.9681937335985037,1,0.998726
0.9683122412297256,1,0.999349
0.9685803350664213,1,0.999319
0.9687047346305104,1,0.999360
0.9689501248081646,1,0.997724
0.9692780728150974,1,0.995620
0.9694203823834718,1,0.999374
0.9696530050790161,1,0.999287
0.9698042009108446,1,0.999293
0.9699412510496962,1,0.999340
0.9700972675480255,1,0.997047
0.9701765736664197,1,0.999186
0.9702342967860258,1,0.998671
0.9703306429026641,1,0.998145
0.9704939440204684,1,0.996877
0.9705698294113532,1,0.997532
0.9705591800514962,1,0.999326
0.9706647131155799,1,0.999155
0.9707069821330534,1,0.998180
0.9707152965472612,1,0.998118
0.9707730572555222,1,0.997880
0.970783677637669,1,0.999274
0.9707418967998382,1,0.997978
0.9707139944626797,1,0.997834
0.970686317216222,1,0.998450
0.9706627670852482,1,0.999352
0.970545739046976,1,0.999386
0.9704883098669165,1,0.997981
0.9703740900210361,1,0.997856
0.9703346768285671,1,0.999296
0.9702611742139028,1,0.999267
0.9701899102989665,1,0.999290
0.9701732392511513,1,0.999332
0.9701956922370782,1,0.997528
0.9702636525394686,1,0.999356
0.9702669321137923,1,0.996307
0.9703395111106977,1,0.996121
0.9703712594512326,1,0.999314
0.9703875944560476,1,0.999377
0.9228467100870883,1,0.998711
0.9267773872664106,1,0.993213
0.9300915878142618,1,0.999253
0.9332766538281422,1,0.994911
0.9362410175416422,1,0.999093
0.9389596146272545,1,0.992642
0.9412193423366484,1,0.993140
0.9434071705018794,1,0.998469
0.9453064052057799,1,0.999081
0.9474625741398888,1,0.999327
0.9496568899131935,1,0.995816
0.9516173515194989,1,0.999330
0.9533113950626951,1,0.999249
0.9549188483505168,1,0.992674
0.9564550123631947,1,0.998789
0.9580014646158022,1,0.999267
0.9593148186967588,1,0.995885
0.9605040927729979,1,0.998733
0.9616779932541086,1,0.998968
0.9628328181126079,1,0.999339
0.9638902180317895,1,0.996727
0.9648074220112702,1,0.993338
0.965629923441286,1,0.999338
0.9664491255645317,1,0.993651
0.967156551389117,1,0.992604
0.9677125145629388,1,0.995801
0.9682722807924945,1,0.999341
0.968734555555021,1,0.999301
0.9692009929102112,1,0.998659
0.9696444696691794,1,0.994920
0.9699950429233173,1,0.999299
0.9701900142318487,1,0.999251
0.9703697333666556,1,0.998660
0.9706512188968984,1,0.999251
0.9708132182095583,1,0.999304
0.9709544267197957,1,0.999064
0.9712597659384804,1,0.995246
0.9715455053572519,1,0.999236
0.9717424241006802,1,0.999216
0.9719822869868908,1,0.994652
0.9722423785360769,1,0.997447
0.9723721467743304,1,0.999411
0.9725620587959507,1,0.999314
0.9728169121999598,1,0.993431
0.9730088265212125,1,0.996466
0.9731595183032069,1,0.999414
0.9732300526351768,1,0.997191
0.9733309226147666,1,0.996561
0.9734534927049738,1,0.997104
0.9735321479266255,1,0.999350
0.9735501456024035,1,0.999289
0.9735455143527024,1,0.998454
0.9735931981694632,1,0.999235
0.9737579255387424,1,0.999335
0.9738083585237347,1,0.999214
0.9738382605270404,1,0.998592
0.973848164955927,1,0.999349
0.9738277932262064,1,0.997863
0.9738430699110786,1,0.998496
0.9738615665907904,1,0.997920
0.9739411818239029,1,0.999267
0.9739541401664837,1,0.999304
0.9739109328571917,1,0.999354
0.9738201912303789,1,0.998384
0.9738266241156048,1,0.998337
0.9738233525186736,1,0.998426
0.9738049671645108,1,0.998026
0.9737944109433865,1,0.999328
0.9737153836963048,1,0.999339
0.973632750514076,1,0.997941
0.9735431768692341,1,0.999353
0.9734229292818356,1,0.996189
0.9733280785991704,1,0.999320
0.9732509934990464,1,0.997963
0.9212043352908549,1,0.999214
0.9253177525596871,1,0.993686
0.928525684988198,1,0.998575
0.9316450851677797,1,0.992903
0.9346366893749917,1,0.993984
0.9373017905012495,1,0.998664
0.9397175748889622,1,0.999357
0.9420096027199616,1,0.998454
0.9440652235343975,1,0.998495
0.9467590683095477,1,0.995342
0.948924556366896,1,0.998863
0.9510815364045184,1,0.995627
0.9529708027007816,1,0.998073
0.9544653714011787,1,0.998672
0.9560790147867879,1,0.992936
0.9575596965409,1,0.998308
0.9590199713422325,1,0.999250
0.9601612936325549,1,0.998624
0.9612044689993312,1,0.998645
0.9621146702346949,1,0.998715
0.9630611847364571,1,0.998428
0.9639354267652263,1,0.998256
0.9652375482485507,1,0.995455
0.9662854135975697,1,0.999339
0.9673277300143972,1,0.998668
0.9681690717829616,1,0.999391
0.9690468457950093,1,0.995082
0.9698965463645959,1,0.997436
0.9707214250945763,1,0.999277
0.9714232247552571,1,0.994964
0.9720660106490029,1,0.998728
0.9726710110515331,1,0.994853
0.9733308904230407,1,0.999331
0.9739904047601202,1,0.999083
0.9745837290419533,1,0.999080
0.9749952637940816,1,0.997249
0.9754548023402735,1,0.999337
0.9758649828258397,1,0.996702
0.9761173936848275,1,0.999331
0.976465747669225,1,0.997828
0.9768216399202039,1,0.998690
0.9772031358140931,1,0.994993
0.9774194707586867,1,0.999380
0.9776591515157392,1,0.999329
0.9778791717598844,1,0.999302
0.9780425055568245,1,0.999348
0.9782551593609968,1,0.999361
0.9783652982504176,1,0.999306
0.9784211250466459,1,0.997636
0.9784586498547142,1,0.999213
0.9784802970582994,1,0.996769
0.9784899699713518,1,0.996392
0.9784664552435713,1,0.998707
0.9784605390129878,1,0.996843
0.97848602965994,1,0.998520
0.9785374880524565,1,0.999355
0.9785857489674145,1,0.998430
0.9785615196710507,1,0.997749
0.9785205025247803,1,0.999321
0.9784766644176114,1,0.999242
0.9784566696798169,1,0.999319
0.9784037101068256,1,0.999379
0.9783740583228936,1,0.996313
0.9784168365912705,1,0.999326
0.978486156878405,1,0.998660
0.978482937946019,1,0.999371
0.9784259687964436,1,0.996348
0.9784129716890801,1,0.997914
0.9784531924119085,1,0.998644
0.9784886546108209,1,0.998667
0.9784570351703853,1,0.995516
0.9784283761068024,1,0.999342
0.9783944935935126,1,0.996329
0.9783723752629176,1,0.998690
0.9783288825756508,1,0.995652
0.9782467653499499,1,0.999354
0.9781574362271345,1,0.999327
0.9218905719213223,1,0.992642
0.9258877979349018,1,0.999305
0.9293155078213597,1,0.997273
0.9324951801125095,1,0.999275
0.9354416920481972,1,0.992913
0.9385668064765803,1,0.993455
0.9412685016179555,0,0.991183
0.9435442109154561,1,0.999300
0.9455905731490293,1,0.994437
0.9474221004030172,1,0.992532
0.9492532680661722,1,0.995649
0.9509787037640046,1,0.999333
0.9524453478941945,1,0.996791
0.9537988201327244,1,0.993559
0.9550795220892383,1,0.992554
0.9563653001565786,1,0.999335
0.9573634631230798,1,0.993343
0.9582220875265519,1,0.999294
0.9589445332797538,1,0.997398
0.9595348671007222,1,0.998283
0.9601020612521295,1,0.994796
0.9606648960281443,1,0.999300
0.9611953229750729,1,0.999394
0.9616760432179394,1,0.998394
0.9623348969586974,1,0.998733
0.9630743416689705,1,0.999318
0.9637079871247841,1,0.996521
0.9641268098291959,1,0.999294
0.9645799116507722,1,0.993935
0.964917114623014,1,0.998704
0.965339425073503,1,0.999234
0.9656478197136295,1,0.999314
0.9660103456035392,1,0.997353
0.966565664991318,1,0.997171
0.9670650183576524,1,0.998740
0.9674378802797449,1,0.999324
0.9678216189417419,1,0.999338
0.9681814562642895,1,0.999332
0.9685450466262951,1,0.998776
0.9689883937787322,1,0.999231
0.969252544736562,1,0.997149
0.9694611567098868,1,0.998637
0.9697479975719039,1,0.999162
0.9699985536244969,1,0.999282
0.9701971474009204,1,0.994436
0.9704882111088691,1,0.999274
0.9706747628270546,1,0.999375
0.970780767646959,1,0.998660
0.9708680017161495,1,0.999383
0.9709628278012451,1,0.999309
0.9711165350588866,1,0.999264
0.9711840506166112,1,0.997082
0.9712139259963455,1,0.998660
0.971365548502772,1,0.997881
0.9714895822810942,1,0.999333
0.971508009744629,1,0.999255
0.9716057756387323,1,0.999328
0.9716823302402304,1,0.999333
0.9717449805190984,1,0.997906
0.9718018639026252,1,0.998707
0.9717835816416018,1,0.999258
0.9717493213420973,1,0.997877
0.9717340400848987,1,0.999301
0.9717084191531826,1,0.997856
0.9716761899327044,1,0.999246
0.9717380860152783,1,0.999088
0.9718264876234727,1,0.994570
0.9718826339704778,1,0.999332
0.97186900736969,1,0.996892
0.9718754074193777,1,0.997801
0.9718810510654214,1,0.999206
0.9719303479094723,1,0.999305
0.9719423720315344,1,0.995238
0.9719569078950474,1,0.999307
0.9719488574445903,1,0.999260
0.9719520667723319,1,0.999240
0.9719774085266559,1,0.999289
0.9719227435542893,1,0.999389
0.9718561789996801,1,0.999083
0.9203940381253553,1,0.996109
0.9235089671317889,1,0.995630
0.9261035774730904,1,0.992913
0.9286173094380546,1,0.998645
0.9310437204050709,1,0.999318
0.9333614469925541,1,0.993197
0.9355554376725405,1,0.999254
0.937403535842275,1,0.999300
0.9391592806010132,1,0.999273
0.9408611162053737,1,0.999319
0.9427681083993161,1,0.999333
0.9447931542040904,1,0.998669
0.9463171610249078,1,0.999324
0.9479494862179656,1,0.994978
0.9496194105271611,1,0.999328
0.9510870159750064,1,0.995733
0.9522763106713397,1,0.995620
0.95342691597216,1,0.998708
0.9551149813428493,1,0.997602
0.9569499650685903,1,0.999162
0.95834446235555,1,0.999201
0.9597269657453523,1,0.999348
0.9609088061685276,1,0.996413
0.9620362297072015,1,0.997514
0.9632563693321909,1,0.999322
0.9642557738131684,1,0.999308
0.9652506219005111,1,0.993437
0.9661406061529311,1,0.999292
0.9670039753707684,1,0.999221
0.9678759520576711,1,0.999251
0.9687789114509774,1,0.999211
0.9695702155308767,1,0.999353
0.9702694278456152,1,0.998755
0.970865898728554,1,0.999078
0.971384920707073,1,0.994471
0.9719534809190683,1,0.999327
0.9724651513719588,1,0.999362
0.9729475273885179,1,0.994945
0.9735075579297425,1,0.998390
0.9740156355376908,1,0.999264
0.9743566270751048,1,0.999329
0.974804039794435,1,0.992331
0.9750959948819745,1,0.999227
0.975424418989892,1,0.999365
0.9755819680753234,1,0.999182
0.9758076536233922,1,0.999266
0.9759351547371697,1,0.999276
0.9760544662987967,1,0.997875
0.9762554518367103,1,0.998071
0.9763496821931443,1,0.999308
0.9764360820173756,1,0.999183
0.9765450457139125,1,0.999151
0.9765764415058358,1,0.995108
0.9767205011098655,1,0.993177
0.9768024767165693,1,0.996497
0.9768845620176092,1,0.999144
0.9769678051654329,1,0.999298
0.977022546540951,1,0.998748
0.977028963476096,1,0.997797
0.9770573994115159,1,0.998608
0.977111775594525,1,0.999104
0.977170148319604,1,0.999260
0.977284526552115,1,0.999222
0.9773409316594466,1,0.999176
0.9774006235708251,1,0.994444
0.9774492315903303,1,0.999189
0.9774876532704514,1,0.999204
0.9775370131685046,1,0.999148
0.9775792660873209,1,0.992476
0.9775956748044654,1,0.995536
0.9775817694169897,1,0.992974
0.9776046334704204,1,0.999259
0.9775769269169879,1,0.999270
0.9775518324774577,1,0.999447
0.9775249210648032,1,0.999186
0.9774791178004583,1,0.999359
0.9774087928241338,1,0.999260
0.9773941321155406,1,0.999195
0.9774142839445408,1,0.999243
0.9774391993849217,1,0.997687
0.9161169422878082,1,0.999334
0.9204778894327891,1,0.992840
0.9245024812328142,1,0.997961
0.9282191518270025,1,0.996119
0.931553268668339,1,0.999224
0.934581598628236,1,0.999331
0.9373924428571792,1,0.996132
0.9399962027465242,1,0.993765
0.9425904972773612,1,0.999292
0.9444302382539987,1,0.999300
0.9463233736359621,1,0.996104
0.9480615245315589,1,0.999323
0.949445057754651,1,0.998654
0.9508967571790524,1,0.999314
0.9521484506094603,1,0.999305
0.9533357388581409,1,0.999340
0.9544716823080278,1,0.999207
0.9554777709692622,1,0.999217
0.9564321657132215,1,0.998189
0.9575874920623941,1,0.999365
0.9586506713666239,1,0.999339
0.9597561005912195,1,0.999280
0.9606088956744906,1,0.999297
0.9614679631959732,1,0.999308
0.9621963892492904,1,0.996218
0.9630030760094335,1,0.999264
0.9639318067654373,1,0.999331
0.9648056214911113,1,0.999335
0.9656893258887688,1,0.999314
0.966509976748679,1,0.999304
0.9672169872886364,1,0.999327
0.9679509109809395,1,0.999351
0.968609104399852,1,0.999316
0.9692661029241768,1,0.999334
0.969888230296662,1,0.997495
0.9705172434567573,1,0.999288
0.97100866382194,1,0.999428
0.9715475610976188,1,0.998071
0.9719893639925831,1,0.992418
0.9724207529626657,1,0.998239
0.9728591959747585,1,0.999292
0.9732902667947083,1,0.999055
0.9738068325940599,1,0.999300
0.9741736893043421,1,0.997620
0.9745312715644658,1,0.999320
0.9748736213117477,1,0.998505
0.9750995528531999,1,0.999327
0.9753963684168132,1,0.992325
0.9756642746662966,1,0.999303
0.9758651091652514,1,0.999338
0.9760859597894007,1,0.997962
0.9762618551558685,1,0.997942
0.976311157828822,1,0.999301
0.9764058560731755,1,0.998495
0.9765390692326317,1,0.997930
0.9766235447917365,1,0.999261
0.9766332159826614,1,0.999231
0.9766821693206115,1,0.997868
0.9767036653768207,1,0.999317
0.9767730345567665,1,0.993469
0.9768410605295992,1,0.999224
0.9769092087569721,1,0.999315
0.9769593765831437,1,0.997973
0.9769665578782207,1,0.999317
0.9769849642511494,1,0.999298
0.977079802372106,1,0.999109
0.9771795290269559,1,0.997845
0.9772321152632398,1,0.999315
0.9772520875202801,1,0.999341
0.9773012954459399,1,0.998534
0.977280746237531,1,0.994350
0.9773040717977032,1,0.992107
0.9773033796060469,1,0.999322
0.977303131837947,1,0.999392
0.9773197516755995,1,0.999295
0.9772787099533903,1,0.993023
0.9772381187748248,1,0.999304
0.9772100589556323,1,0.992834
0.977128051814881,1,0.997823
0.9770661876020094,1,0.999285
0.9770157278500536,1,0.999226
0.9769857381258178,1,0.999297
0.9769219354745532,1,0.998517
0.9197614882434434,1,0.998512
0.9238645513179095,1,0.999333
0.9276790129820817,1,0.999322
0.9311359048755584,1,0.993502
0.934405450728591,1,0.994971
0.9372885279492071,1,0.999102
0.9399609111292171,1,0.999323
0.9427788861452945,1,0.993735
0.945185126827664,1,0.992883
0.9476816702533819,1,0.999297
0.9497826001234915,1,0.995519
0.9517948838109331,1,0.993646
0.9536341846742061,1,0.999276
0.9551563379612793,1,0.999165
0.9568090102217903,1,0.998372
0.9581571651812866,1,0.996823
0.9593565663454783,1,0.998060
0.9604321135715039,1,0.995781
0.961547220946938,1,0.999278
0.962564078368991,1,0.999262
0.9635953900730376,1,0.997120
0.964427575809881,1,0.999147
0.9652943485515313,1,0.999387
0.966013213726503,1,0.999309
0.9665652177318204,1,0.993636
0.9670868190693416,1,0.993755
0.9675265625289233,1,0.999322
0.9680168930034598,1,0.999267
0.9684220750457866,1,0.999272
0.9688093035669259,1,0.999340
0.9690972998732047,1,0.999344
0.9693630582682066,1,0.999241
0.9696881467997688,1,0.999243
0.9698587484404726,1,0.999318
0.97007599361223,1,0.999241
0.9703383196004994,1,0.999316
0.9704834425516067,1,0.997525
0.9707978520213995,1,0.999242
0.9710010791689119,1,0.999351
0.9710729013199011,1,0.999234
0.9713145607181461,1,0.994624
0.9714674433970907,1,0.994176
0.9715483452999456,1,0.999156
0.9716302889890549,1,0.999288
0.9718051322577608,1,0.997899
0.9719969670002209,1,0.999319
0.9722208159138717,1,0.997906
0.9724514793814428,1,0.997829
0.9726961524360334,1,0.999342
0.9727891550487504,1,0.999310
0.9729312984259267,1,0.998474
0.9730088474920056,1,0.998295
0.97311850186286,1,0.999254
0.973200299917608,1,0.994058
0.9732662742019785,1,0.999322
0.9734012073433969,1,0.994624
0.9734550958984266,1,0.999254
0.973505719580163,1,0.997763
0.9735324594537573,1,0.998379
0.9735595901358476,1,0.993496
0.9735574282475022,1,0.999222
0.973747481671296,1,0.999234
0.974106164965487,1,0.998574
0.9744620773643677,1,0.998577
0.9748567534135256,1,0.999275
0.9752485626961664,0,0.991406
0.9755145874804075,1,0.999281
0.9757858015097463,1,0.999337
0.9760906504797543,1,0.999354
0.9763663728665054,1,0.998147
