0.39916884759200255,0,0.888678
0.6927035781511275,0,0.888771
0.8892124383780802,0,0.988595
0.9491005566662165,0,0.986197
0.973403417631348,1,0.999327
0.9833698910205184,1,0.997567
0.9885417315880694,1,0.998160
0.9916579338463968,1,0.999416
0.9933829128382762,1,0.998603
0.9944179979364005,1,0.999356
0.9617588739277649,1,0.999155
0.9758415630295441,1,0.994757
0.9829018054987415,1,0.999206
0.987435905577391,0,0.992657
0.9899438657265496,1,0.999310
0.9916085204214934,1,0.996520
0.9929042453704642,1,0.997623
0.9940452877595668,1,0.999358
0.9947694736420085,1,0.999317
0.9953529015385518,1,0.998200
0.9958329409790715,1,0.999365
0.9961469480413286,1,0.999403
0.9964461568501839,1,0.999340
0.983665198569506,1,0.999402
0.987559313113303,1,0.992410
0.9898367904996823,1,0.994096
0.9915273443766437,1,0.998810
0.9926401223112318,1,0.994620
0.9934370607773838,1,0.997580
0.9939744920973937,1,0.999376
0.9945262441905267,1,0.994996
0.9949294686066079,1,0.998174
0.9952686777390363,1,0.998222
0.995531202966268,1,0.999408
0.9958014598105293,1,0.999165
0.9960908065915557,1,0.999311
0.9963244243304864,1,0.999307
0.9789736380618937,1,0.999191
0.983406734915073,1,0.999375
0.9866197807021224,1,0.999153
0.9885243242142081,1,0.999411
0.9901805478993954,1,0.998824
0.9915241641315746,1,0.997585
0.992633723253826,1,0.999242
0.9933369153139576,1,0.999243
0.99378041059257,1,0.999403
0.9942670951344814,1,0.999391
0.9946564972001042,1,0.998825
0.9950234981097357,1,0.991984
0.9953654495386643,1,0.999328
0.9955621450157227,1,0.999383
0.9957152573220894,1,0.997872
0.9958375229494368,1,0.998063
0.9672055639926818,1,0.999257
0.9738485152830891,1,0.999399
0.978505372544756,1,0.999320
0.9819129872526461,1,0.995410
0.9846768760233355,1,0.997106
0.986886375677275,1,0.997323
0.9884239956176627,1,0.998479
0.9897826315885598,1,0.999344
0.9909784715495256,1,0.997995
0.9918393935765367,1,0.998540
0.9923916375538082,1,0.999235
0.9928421141363005,1,0.999311
0.9932520467404254,1,0.997541
0.9935987263945434,1,0.999162
0.9938144048599992,1,0.999333
0.9939844090519767,1,0.999347
0.9941188229658374,1,0.998180
0.9944293008157591,1,0.999377
0.9712535451954198,0,0.993409
0.9770862451748539,1,0.999374
0.98164838230384,1,0.999369
0.9849887707561603,1,0.999380
0.9872183143888099,1,0.996269
0.9889975541545425,1,0.999368
0.9905484343767084,1,0.999349
0.9915677609958309,1,0.999320
0.9923087596562313,1,0.999371
0.9928999791459854,1,0.999265
0.9934599591999619,1,0.996803
0.9938655986403963,1,0.999332
0.994081681178514,1,0.998762
0.9942379918506388,1,0.997503
0.9944175266180731,1,0.996917
0.9945853610285901,1,0.998786
0.9946460796220696,1,0.999352
0.9949915271660429,1,0.998810
0.99529420308153,1,0.998755
0.9955311078489726,1,0.998474
0.9957747207796861,1,0.999314
0.9715824259948748,1,0.999333
0.9760226729588157,1,0.999322
0.9791825004319236,1,0.998680
0.9815919054307773,1,0.996222
0.9833493058127175,1,0.999367
0.9847543169428336,1,0.997794
0.9858579703969418,1,0.998832
0.9867087312911255,1,0.999266
0.9873133217021562,1,0.997218
0.9878643338996145,1,0.999320
0.9883235186718752,1,0.998125
0.9888559032656926,1,0.999308
0.9893520527119444,1,0.998703
0.9898889920453451,1,0.999298
0.9903011904517259,1,0.998562
0.9906820439606014,1,0.997222
0.9910183945487333,1,0.999168
0.9913221449827787,1,0.997487
0.9915770906688395,1,0.996481
0.9918129677845025,1,0.999241
0.9919867401581827,1,0.999387
0.9921193085929647,1,0.998123
0.9690195816389977,1,0.996638
0.973695863552777,1,0.993261
0.9772380526002963,0,0.984848
0.9803854429054318,1,0.996861
0.9828350381876572,1,0.999356
0.9847137043215272,1,0.999369
0.9862888606083744,1,0.997091
0.9872926478923683,1,0.999306
0.9882729314591476,1,0.998666
0.9890972638945644,1,0.999352
0.9897588502818456,1,0.998668
0.9903446262166455,1,0.999274
0.990939642709587,1,0.999079
0.9913213395425537,1,0.997490
0.9917784093661275,1,0.999248
0.9921278262317219,1,0.998607
0.9924963722657315,1,0.999365
0.9928506342380898,1,0.997849
0.9931651847396715,1,0.998379
0.9933924315086042,1,0.998858
0.993586507444485,1,0.998729
0.9937605977830234,1,0.999274
0.9939045892011307,1,0.997995
0.9940442821516691,1,0.999219
0.9533172456229814,1,0.999234
0.9609402049485424,0,0.991437
0.9667594964392111,1,0.999315
0.9707036983872416,1,0.996372
0.9748163801001348,1,0.999338
0.9777245617462674,1,0.998343
0.9801129963037838,1,0.999301
0.982154987538141,1,0.999304
0.9835834129947765,1,0.995845
0.9850267818525139,1,0.999224
0.9863811680388109,1,0.999265
0.9874916308257247,1,0.996906
0.9884710777303297,1,0.997431
0.9892690389960594,1,0.996021
0.9900305616496758,1,0.999221
0.9907228335719954,1,0.999313
0.9911900932869862,1,0.996715
0.991754076150404,1,0.999272
0.9923262127657475,1,0.997958
0.9928090800676204,1,0.999234
0.9932141370267423,1,0.998011
0.9934799094482802,1,0.999372
0.9937951312012631,1,0.999374
0.9940672123850902,1,0.998361
0.9943856284940713,1,0.999307
0.9946188161319133,1,0.999284
0.9534978925136373,1,0.995987
0.9597576363871685,1,0.995875
0.963578120676261,1,0.999347
0.968103325521201,1,0.997617
0.9721864900697772,1,0.999321
0.9750672409402371,1,0.995588
0.9777961705335205,1,0.998727
0.9796137307308788,1,0.999317
0.9814535841993842,1,0.998678
0.9830573015863722,1,0.996853
0.9840888489586858,1,0.997379
0.9848210562215182,1,0.993964
0.9855202965907441,1,0.997015
0.9860267501534404,1,0.997698
0.986326123371465,1,0.998572
0.9867739205714812,1,0.998498
0.9872321837331175,1,0.999268
0.9876816124061675,1,0.997491
0.9880750846180127,1,0.997797
0.9884094785106259,1,0.999104
0.9886506652890883,1,0.998551
0.989004716301485,1,0.996511
0.9893035690372387,1,0.997789
0.989648096163918,1,0.998782
0.9898628060761897,1,0.995536
0.990048385535527,1,0.999067
0.9904950455382355,1,0.995916
0.9908375747052416,1,0.999329
0.9911158184420887,1,0.998617
0.9449945556363443,1,0.999271
0.9532697085778732,0,0.991173
0.959656035545776,1,0.999128
0.9650276688468215,1,0.994378
0.9694371230845359,1,0.999353
0.9729847617748939,1,0.994012
0.9761376947882553,1,0.997881
0.9785123566455269,1,0.994832
0.9806462266076263,1,0.997887
0.9821791233340686,1,0.998139
0.9835613185975248,1,0.999278
0.9849738445568911,1,0.998009
0.9859646144767368,1,0.999243
0.9868369406282105,1,0.999165
0.9876296988601129,1,0.997892
0.9884011192502348,1,0.998479
0.9890637934124472,1,0.998750
0.9896108517170489,1,0.999346
0.990069742818716,1,0.999336
0.9904829175338449,1,0.998675
0.9908195361094991,1,0.997226
0.9912401743241339,1,0.999332
0.991569002883495,1,0.999032
0.9918576965788525,1,0.998426
0.992082435077568,1,0.997934
0.9922341431957218,1,0.999308
0.9923465222272857,1,0.998013
0.9924804807492418,1,0.998532
0.9926035495147463,1,0.999031
0.9927059608036793,1,0.997460
0.9406454367636634,1,0.999314
0.9501697708690713,1,0.999323
0.958385439414179,1,0.999341
0.9648562159495698,1,0.999113
0.9698951609238223,0,0.993201
0.9744057325442717,1,0.998171
0.9770142479875427,1,0.999289
0.9800398927861909,1,0.994528
0.982496201473781,1,0.997424
0.9843472949478089,1,0.998173
0.9856663030332999,1,0.999354
0.986846407423437,1,0.999340
0.9877562669515624,1,0.999232
0.9883720932667523,1,0.998835
0.9892703700026965,1,0.998705
0.9899226332257155,1,0.998830
0.9906282328041579,1,0.999074
0.9912752280315437,1,0.999281
0.9917549826092363,1,0.998721
0.9922332723688185,1,0.999281
0.9925612886230929,1,0.998750
0.9928549849361837,1,0.998711
0.9931537424302178,1,0.998835
0.9933886858961859,1,0.999061
0.9935541829460363,1,0.998503
0.99371621726025,1,0.998706
0.993831846791529,1,0.998728
0.9938952927594616,1,0.999344
0.9939170661571781,1,0.999046
0.9939303284804196,1,0.998746
0.9939172434913449,1,0.999127
0.9939322048115293,1,0.998762
0.9939551399456027,1,0.998748
0.9409208572042436,0,0.991167
0.9494807624278975,1,0.999358
0.9552037583473375,1,0.998383
0.9598909655314061,1,0.998242
0.9634777723035393,1,0.997472
0.9667556325203361,1,0.994859
0.9694674007922763,1,0.996215
0.9712745694611961,1,0.999310
0.9729550763298257,1,0.999182
0.9748592900060877,1,0.999215
0.9764464839881071,1,0.998126
0.9777215563417969,1,0.999375
0.9785853817079153,0,0.988409
0.9795085284282998,1,0.995938
0.9803877844130658,1,0.998161
0.9811153298622433,1,0.999335
0.9818092584426683,1,0.997901
0.982489670449398,1,0.998318
0.9829834825700441,1,0.996691
0.9835573540393269,1,0.998634
0.9839915515252851,1,0.999094
0.9843193823973491,1,0.999155
0.9847178861759072,1,0.998700
0.9850388428518096,1,0.998767
0.985276243818649,1,0.996127
0.9854268472071903,1,0.998752
0.9856605891891862,1,0.999384
0.9858698896316811,1,0.999341
0.9860614224185175,1,0.998724
0.9862065772781279,1,0.999221
0.9864394952833375,1,0.999242
0.9866990589553031,1,0.998664
0.9869513160995061,1,0.999306
0.9871964875872296,1,0.995485
0.9391172707368504,0,0.992706
0.9455319859795139,1,0.994753
0.9518703214122111,1,0.998746
0.9563445138496147,1,0.997344
0.960492489142811,0,0.992672
0.9644780534698948,1,0.999281
0.9676521809500984,1,0.999385
0.9705754755034461,1,0.999346
0.9729061642438676,1,0.996091
0.9747494607374778,1,0.994224
0.9761549574341435,1,0.997205
0.9775311611476791,1,0.994362
0.97863361194434,1,0.999048
0.9796431262524751,1,0.997476
0.9807121931934443,1,0.998453
0.9816336752336413,1,0.998593
0.9823809197636253,1,0.998211
0.9831787103174382,1,0.997963
0.9838150331421022,1,0.998768
0.9844565082074295,1,0.998888
0.984972857726595,1,0.998608
0.9855392554050694,1,0.998377
0.9859365359942028,1,0.999363
0.9863539611047226,1,0.995228
0.9867279845405457,1,0.998686
0.987064201034672,1,0.998726
0.9874189612105811,1,0.998732
0.9877036418637386,1,0.998840
0.987886421372521,1,0.998523
0.9880053825275265,1,0.993574
0.9881472959824842,1,0.998614
0.9883099465661461,1,0.999205
0.9885011985545222,1,0.999380
0.9886799259246173,1,0.996469
0.9888811578607208,1,0.999332
0.9890840008952142,1,0.999314
0.9892838645850444,1,0.997281
0.935639662173004,1,0.995575
0.9431419283338449,1,0.996778
0.9488794499182054,0,0.992264
0.953412261301977,1,0.993742
0.9576259408189588,1,0.999022
0.9611442715703687,0,0.990203
0.9644922288108743,1,0.995448
0.9670172950084192,1,0.998357
0.9690425384730044,1,0.999241
0.9713508210292328,1,0.996925
0.9738051466472382,0,0.992481
0.9758867910651076,1,0.993364
0.9776797256115735,1,0.999258
0.9794276839044093,1,0.996408
0.9806514850416477,1,0.999320
0.9818690578431897,1,0.996789
0.982908240010528,1,0.993658
0.9837717716079102,1,0.999220
0.984606099786918,1,0.999316
0.9853648634021072,1,0.995054
0.9860552676366819,1,0.997283
0.9866527725026845,1,0.999209
0.9872424821496448,1,0.999254
0.9878088317097464,1,0.999332
0.988329979739768,1,0.996757
0.9887975665160909,1,0.999371
0.9892303796312506,1,0.997126
0.9895526293235911,1,0.997426
0.9898703356573423,1,0.999359
0.9901645597204929,1,0.998724
0.9904276206690361,1,0.996518
0.9906080776336077,1,0.998089
0.990788629032665,1,0.996723
0.9909006268141617,1,0.998759
0.9909887983560076,1,0.999182
0.9910682968182358,1,0.997238
0.9910977011016316,1,0.996606
0.9911302137523309,1,0.999356
0.9252538952279766,0,0.992243
0.9337416173364701,1,0.996021
0.9424837713297008,0,0.992558
0.9501565255312289,1,0.994083
0.9566906442457207,1,0.998646
0.962162586419492,1,0.993649
0.9668617329577985,1,0.997541
0.9707949097539735,1,0.997371
0.9739388199012939,1,0.997489
0.9763660431952268,1,0.998310
0.978315496772113,1,0.997967
0.9798235305488447,1,0.998039
0.9813955655753819,1,0.994413
0.9827956235714204,1,0.999328
0.984051634105669,1,0.996545
0.9850924720020339,1,0.998764
0.9860121065498373,1,0.997751
0.9867612413952503,1,0.999275
0.9873367615706101,1,0.998699
0.9877277541590713,1,0.998770
0.9880404437284787,1,0.999235
0.9884166910618262,1,0.997234
0.9888200226232556,1,0.997295
0.9891310243835795,1,0.999358
0.9894091927953895,1,0.997760
0.9896763718166375,1,0.998591
0.9898908229922907,1,0.998759
0.9900826537016024,1,0.998379
0.9902584034779639,1,0.998523
0.9903278366678032,1,0.999315
0.990419086773313,1,0.999247
0.9906057596576525,1,0.998025
0.99076166092116,1,0.998770
0.9909832567563975,1,0.998078
0.9911361732871903,1,0.999253
0.9912749689494865,1,0.999399
0.9913877783018146,1,0.999233
0.9914499121780345,1,0.998671
0.9914907382501332,1,0.998560
0.9916438912336041,1,0.999406
0.9917758273679161,1,0.998781
0.9317656573082845,1,0.998821
0.9399968107916552,1,0.996717
0.9470032732090289,1,0.993876
0.9534094811771803,1,0.999378
0.9586784905020838,1,0.999115
0.9629312991842568,1,0.999308
0.9664640605698384,1,0.995876
0.9692262850212474,1,0.995608
0.9716638041519476,1,0.996697
0.9738154626600843,1,0.995745
0.9759414187706119,1,0.999235
0.9773772604860191,1,0.999227
0.9786423917736246,1,0.997970
0.9797764396273893,1,0.999383
0.9807278199975157,1,0.997253
0.9815976258251605,1,0.997519
0.9824422492609559,1,0.998034
0.9833888067284192,1,0.997863
0.9842997680360702,1,0.998532
0.9849119066446735,1,0.999437
0.9856591380323211,1,0.999371
0.9863405165874201,1,0.998865
0.98686698943882,1,0.996451
0.9872088584828626,1,0.997770
0.9876241852423632,1,0.999264
0.9880926444664487,1,0.999394
0.988507253663244,1,0.998862
0.9889328632537927,1,0.998765
0.9892232256373846,1,0.998720
0.9894855597719546,1,0.995892
0.9897069469684696,1,0.998640
0.9899491081510481,1,0.999244
0.9901364857497585,1,0.994677
0.9902504280784236,1,0.996823
0.9904890979647708,1,0.997567
0.9906994566967602,1,0.998848
0.9909155247080358,1,0.996610
0.9910873276025016,1,0.999290
0.9912643214131488,1,0.999274
0.9914507258282327,1,0.999437
0.9915886470301932,1,0.998538
0.9917050901225429,1,0.998628
0.9238330829096044,0,0.990518
0.9318724114485979,0,0.993218
0.9388960351762212,1,0.999328
0.9451379796705679,0,0.991720
0.9510412536832965,1,0.998504
0.9558059478089627,1,0.999337
0.9600579460209272,1,0.996476
0.9634800319311321,1,0.995346
0.9664706101390184,1,0.999334
0.9689880493903487,1,0.999321
0.9710944305986854,1,0.995938
0.9732482799393697,1,0.994163
0.9752181014783121,1,0.994984
0.9769714446842676,1,0.999359
0.9785538701779525,1,0.999375
0.9798191765876597,1,0.996962
0.9808834983506078,1,0.997845
0.9817803150647026,1,0.997262
0.9826035537154167,1,0.997301
0.98344046351007,1,0.997379
0.9841747008270505,1,0.998765
0.984786421775309,1,0.996993
0.9852399475631904,1,0.997260
0.9856026585870151,1,0.998025
0.985978970457802,1,0.999333
0.9864501766106996,1,0.997915
0.98681619593312,1,0.999392
0.9871862276283893,1,0.998068
0.9875352272061495,1,0.997987
0.9878047676258558,1,0.997846
0.9879916006655871,1,0.999297
0.9881356904640165,1,0.998084
0.9883140752662192,1,0.998802
0.9885267298294409,1,0.997922
0.9886696717037015,1,0.997884
0.9888968796288,1,0.998725
0.9891469444961848,1,0.997941
0.9893624199273422,1,0.998088
0.9895573027983865,1,0.999308
0.9897468776056417,1,0.999302
0.9899087031811798,1,0.997608
0.9900572742520181,1,0.999378
0.9902132748707421,1,0.998068
0.9903530982286387,1,0.999291
0.990477270104583,1,0.998661
0.9194326741971744,1,0.999300
0.9288500977131358,1,0.996575
0.937239755158784,1,0.997195
0.944101468042851,1,0.997528
0.94998481418414,1,0.998069
0.955572454207852,0,0.991481
0.9599276055077185,0,0.992455
0.9640482516694274,1,0.998858
0.9676284582230089,0,0.992866
0.9704409945098372,1,0.993689
0.9732104717928202,1,0.998142
0.9758164865042213,1,0.998129
0.9777604863229478,1,0.994584
0.9794416874700396,1,0.999294
0.9808597577998248,1,0.999133
0.9821694588118469,1,0.998982
0.9829266283117717,1,0.997472
0.9835325416045482,1,0.999289
0.9843666031762675,1,0.998666
0.9850338188386023,1,0.995801
0.9856972966888914,1,0.999343
0.9864212416685663,1,0.998589
0.9871262699689051,1,0.998628
0.9877626245144742,1,0.995446
0.9883089706904044,1,0.999204
0.9888643342747373,1,0.995241
0.9893662950376679,1,0.997810
0.9896866026786947,1,0.996040
0.9899438755445905,1,0.996332
0.9901694675892,1,0.999296
0.9904546030132573,1,0.998610
0.9906583933387724,1,0.999266
0.9909526629593143,1,0.996568
0.9912342463776537,1,0.996594
0.9914638412458064,1,0.998759
0.9916714070823996,1,0.996680
0.9918920241740424,1,0.998760
0.9920933717139848,1,0.997909
0.9923073970289206,1,0.997380
0.9924786505539926,1,0.996709
0.9926234739280217,1,0.998060
0.9927829979511175,1,0.999359
0.9928989583582668,1,0.999245
0.9929696712342478,1,0.999342
0.9930682122533853,1,0.998627
0.9930921799389428,1,0.997837
0.9931651292026623,1,0.999344
0.9251088345442418,0,0.988166
0.9317757265779631,1,0.994603
0.9377101077663752,0,0.991842
0.9426539429137578,1,0.997917
0.9482261849507585,1,0.999367
0.9526444259460657,1,0.995080
0.956074335724263,1,0.997860
0.9592047258552612,1,0.998075
0.9617479901508604,1,0.999330
0.9641274110986342,1,0.999304
0.9663317598675881,1,0.998667
0.9682098414934822,1,0.997829
0.9698458471783489,1,0.998359
0.971493168704423,1,0.999354
0.9729220951447051,1,0.999297
0.9743382874524481,1,0.999307
0.9755338512277768,1,0.998626
0.9766945556090924,1,0.998192
0.9778631884577204,1,0.998037
0.9789111696352525,1,0.997996
0.9797610152652307,1,0.998111
0.980603062931098,1,0.999352
0.9812500160098766,1,0.999358
0.9818015365840902,1,0.998093
0.9821794088414306,1,0.998646
0.9826340296355301,1,0.998611
0.9831005862092443,1,0.998722
0.9833764290845015,1,0.999385
0.9837992552157643,1,0.998226
0.9842117334976466,1,0.996965
0.9845957029031555,1,0.999377
0.9848776620738321,1,0.999286
0.9854437884974451,1,0.999233
0.9859555916529585,1,0.999344
0.9863554337552732,1,0.999376
0.9866575869439143,1,0.999090
0.9869488850411756,1,0.997917
0.9871819136030319,1,0.997628
0.9874701720641844,1,0.998132
0.987742437417207,1,0.998596
0.9881075091254314,1,0.998446
0.9883572608706716,1,0.998726
0.988675179766573,1,0.997860
0.9890133403024226,1,0.999362
0.9892843524195428,1,0.999336
0.9894833475836717,1,0.999308
0.9897548678912145,1,0.998094
0.9899555326385086,1,0.998587
0.919781289209036,1,0.994601
0.9273059583468211,0,0.990679
0.9341910469077755,0,0.992347
0.940537112517039,1,0.997506
0.9459820711928207,1,0.999383
0.9505697912854822,1,0.999289
0.954336885532452,1,0.998616
0.9577038428641914,1,0.996715
0.9608854762657889,1,0.993347
0.9640963745771024,1,0.993464
0.9666186749553866,1,0.999328
0.9689950640869412,1,0.998604
0.9711387404978892,1,0.996559
0.9728431281465103,1,0.997642
0.974396743058192,1,0.996762
0.97573874614355,1,0.995010
0.9772403737433524,1,0.999098
0.9783682358694312,1,0.993480
0.9794617125095205,1,0.998028
0.9805324277469913,1,0.995159
0.9814741345677702,1,0.994927
0.9823421416245989,1,0.997766
0.9831754594138612,1,0.997579
0.9838655666076477,1,0.996226
0.9844097190595696,1,0.997332
0.9848246576962887,1,0.995513
0.985191273325532,1,0.998163
0.9856656088337518,1,0.998084
0.9860325754203021,1,0.999301
0.9865221651639399,1,0.999363
0.9869810165539371,1,0.998553
0.9875099195522423,1,0.997551
0.9879376955899728,1,0.999353
0.9883464878123321,1,0.998722
0.9887778181966025,1,0.997024
0.9890983831079271,1,0.999343
0.9893422517906385,1,0.998752
0.9896469914048275,1,0.995946
0.9899774552915593,1,0.997257
0.990249875640111,1,0.997774
0.9905010981778725,1,0.996687
0.990801896570688,1,0.998098
0.9910259372003153,1,0.997984
0.9912347287293728,1,0.997829
0.9914147755306696,1,0.998843
0.9915540792077342,1,0.997333
0.9916410384652429,1,0.997647
0.9917644743076725,1,0.999363
0.9919125445066326,1,0.999282
0.9920364359989139,1,0.999244
0.9921627243362198,1,0.998727
0.9223596627064126,1,0.997792
0.9298808236594852,1,0.994475
0.9358010158446085,1,0.999186
0.9412103177963143,1,0.992862
0.9466672266791952,1,0.994609
0.9509112134679044,1,0.999221
0.9550228753338735,1,0.994931
0.9582422189598716,1,0.998542
0.9608786837554731,1,0.999357
0.962835220047353,0,0.992853
0.9646666911211913,1,0.999251
0.9663473751162284,1,0.995498
0.9683220236938412,1,0.998855
0.9701193573671231,1,0.997251
0.9719612972287754,1,0.997768
0.9739684412649674,1,0.994975
0.9756104471500131,1,0.999262
0.9770434786083529,1,0.999286
0.9779984619011433,1,0.998516
0.9790620692402863,1,0.998676
0.9800187843627141,1,0.997271
0.9806627155272697,1,0.999259
0.9815081692290226,1,0.996511
0.9824753979028349,1,0.995000
0.983303887748627,1,0.998653
0.9841684113457062,1,0.998557
0.9849725882681066,1,0.997391
0.9857567037687444,1,0.999286
0.9864446396633852,1,0.994602
0.987077290112212,1,0.999240
0.987633313911389,1,0.998179
0.9881156837986667,1,0.998527
0.9885130960779583,1,0.998862
0.9888534245315492,1,0.994865
0.9892053579852504,1,0.997875
0.9895287711679608,1,0.999359
0.9898517900368876,1,0.999287
0.9901964289913888,1,0.998142
0.9904606839802256,1,0.999333
0.9907468384545335,1,0.999281
0.9910010175846514,1,0.998805
0.9912361111621162,1,0.998108
0.9914692568729656,1,0.999153
0.9916820433764788,1,0.998526
0.9919160154410213,1,0.996060
0.9920960463634926,1,0.999359
0.9922580378442344,1,0.999378
0.9924194217616366,1,0.998540
0.9925416974315361,1,0.998786
0.9926668489357143,1,0.996916
0.9928025187202711,1,0.998743
0.9928969027905454,1,0.999343
0.9930064875767808,1,0.998819
0.9253717958552783,0,0.990241
0.9326235103243875,1,0.998517
0.9387099650788402,1,0.996843
0.9447211808234893,1,0.999314
0.9499240568150016,1,0.999324
0.9547054488861371,1,0.999236
0.95805438554872,1,0.997340
0.9608053876056029,1,0.996037
0.9632560800786693,1,0.999340
0.9653236103644521,1,0.995092
0.9673524416522475,1,0.996702
0.9693473905485058,1,0.996635
0.970999900256699,1,0.992314
0.9727173729895815,1,0.997856
0.9740728763279557,1,0.994249
0.9753933705614708,1,0.996984
0.9764936252761857,1,0.999324
0.9776779648829281,1,0.995899
0.9785820516543555,1,0.999294
0.9795084674091241,1,0.997768
0.9802841306174921,1,0.996651
0.9810716991747207,1,0.995547
0.9816804445244548,1,0.997500
0.9823054757868416,1,0.999387
0.9827842622249298,1,0.997571
0.9831292406419275,0,0.991354
0.9835832105478819,1,0.996098
0.9841559178979129,1,0.999358
0.9845646584330614,1,0.997436
0.9850790666281097,1,0.997411
0.985587886981005,1,0.995833
0.9859174789804064,1,0.998711
0.9862366897358492,1,0.999276
0.9865853144296945,1,0.998866
0.9867864788714056,1,0.998489
0.9869887154354019,0,0.991629
0.987191420019097,1,0.999368
0.9873277083243268,1,0.993739
0.9874211658113531,1,0.996379
0.9874766612449323,1,0.997436
0.9877188470397786,1,0.998628
0.9879375309413436,1,0.996151
0.988132571735074,1,0.999263
0.9883231569986362,1,0.999255
0.9884710534440191,1,0.998663
0.9886020782578699,1,0.998512
0.988709334179672,0,0.988845
0.9887777400757002,1,0.998065
0.9889011154175757,1,0.999365
0.9890479669577166,1,0.999305
0.989159523396807,1,0.998726
0.9892409045581276,1,0.998671
0.9893582652509922,1,0.998638
0.9894268325074186,1,0.999311
0.9894712161011349,1,0.998656
0.9267895033538325,0,0.992542
0.9322261676982485,1,0.999295
0.9377141529696101,0,0.991442
0.9428589471323531,1,0.996518
0.9471627511483651,1,0.997441
0.9515564097433792,1,0.999289
0.9553769145897596,1,0.999234
0.9581098008099251,1,0.998315
0.9607760198254646,1,0.999391
0.9629558554028868,1,0.999288
0.9649423797583201,1,0.993174
0.9668218478718362,1,0.994354
0.9683950192188994,1,0.994253
0.9703766343990159,1,0.996176
0.9721454321953462,1,0.998866
0.9736672861569978,1,0.999389
0.9749497148378016,1,0.992512
0.9760567069812067,1,0.996805
0.9770691864847912,0,0.988856
0.9780652585479372,1,0.999324
0.9789919475149106,1,0.997954
0.9799052617675924,1,0.998039
0.9806600417916463,1,0.997992
0.9813761437999489,0,0.990299
0.9820618415389576,1,0.998060
0.9826215935613583,1,0.997902
0.9831199228465701,1,0.998182
0.9834894958544197,1,0.999364
0.9839643153466165,0,0.991698
0.9843492308188718,1,0.998347
0.9847807877396202,1,0.997487
0.9852271389047544,1,0.997379
0.9855760878799625,1,0.998053
0.9859034048614727,1,0.997462
0.9861529316048464,1,0.998663
0.9863029223428726,1,0.999297
0.9864732639581126,1,0.995098
0.9865687354789684,1,0.998021
0.9868704647357103,1,0.996506
0.9873036022112907,1,0.999309
0.9877540729257025,1,0.998233
0.9881643502832911,1,0.991304
0.9884905772281134,1,0.997326
0.9887987156609301,1,0.997498
0.9892024709889936,1,0.998554
0.9896038308469066,1,0.998096
0.989871362628987,1,0.997460
0.9901670615231574,1,0.997877
0.9904221360133151,1,0.998061
0.9906569889060955,1,0.997842
0.990915098860688,1,0.998436
0.9911928374022068,1,0.999410
0.9914137298386745,1,0.998629
0.9916350079837918,1,0.999357
0.9918531915385601,1,0.997962
0.9920100119223858,1,0.998073
0.9921494702539723,0,0.984627
0.9274878247428255,1,0.998351
0.9342061762779346,1,0.993012
0.9398858386870831,1,0.997110
0.9449126725556203,1,0.994514
0.950040698701605,1,0.997741
0.9542221824240573,1,0.999342
0.9574453372491772,1,0.999363
0.9605507813384442,1,0.997618
0.9629055360873547,1,0.997135
0.9655993333227291,1,0.997525
0.9677573869275122,1,0.995003
0.9695260908926201,1,0.997778
0.9715818134016962,1,0.997616
0.9733979288173346,1,0.998812
0.9746416953455045,1,0.998660
0.9756170703917761,1,0.998115
0.9769155071138096,1,0.998753
0.9777848012842985,1,0.997774
0.9786784349636456,1,0.998681
0.9795400540092751,1,0.996608
0.9803082407959108,1,0.994688
0.9812954707504573,1,0.997817
0.9820430105964199,1,0.998547
0.9826433280712407,1,0.997467
0.9832050511227788,1,0.997340
0.9837171736831724,1,0.997541
0.9841045914605114,1,0.999179
0.9846002134243482,1,0.998590
0.9850585151428031,1,0.998568
0.9854450258389695,1,0.998675
0.9859639380322275,1,0.994982
0.9863704448041627,1,0.994747
0.986687155535494,1,0.999396
0.9870127452768364,1,0.994624
0.9872495721505535,1,0.998179
0.9874797046692602,1,0.999324
0.9876606265146997,1,0.998118
0.9878246378798264,1,0.998343
0.9880468245417557,1,0.998642
0.9882703000426577,1,0.998783
0.9884142250938157,1,0.999324
0.9885664982950454,1,0.998786
0.9887039182192117,1,0.997297
0.9888277278993665,1,0.996817
0.9889867068687219,1,0.999279
0.9891034813514318,1,0.999299
0.9891711346876118,1,0.998645
0.9892136460665104,1,0.999287
0.9892707473058514,1,0.996723
0.9893779927585105,1,0.997351
0.9894423881972948,1,0.998538
0.9895167987065622,1,0.997906
0.9895755283583295,1,0.999241
0.9896131138789512,1,0.998640
0.9896765686645788,1,0.998611
0.9897052445439959,1,0.999267
0.9897200934848925,1,0.997374
0.9896966105400741,1,0.996782
0.989853555619796,1,0.998839
0.930414393567199,1,0.997920
0.9367331468596668,1,0.997911
0.9427201239092263,1,0.998069
0.9481775465170885,1,0.996559
0.9532505520697034,1,0.991174
0.957888660717623,1,0.998525
0.961635895111194,1,0.993302
0.965104047162368,1,0.998099
0.968022973320194,1,0.999234
0.9704478669779365,1,0.999383
0.9722926833053418,1,0.996601
0.9741216328964716,1,0.995179
0.9758660585940756,1,0.999317
0.9775995031348411,1,0.997685
0.9791854956108709,1,0.999316
0.9805084202913321,1,0.997527
0.9817352859776483,1,0.998112
0.9827757005384272,1,0.998034
0.9837122942549633,1,0.995146
0.9845307093709358,1,0.995957
0.9853031463331271,1,0.997104
0.9860510336918766,1,0.998753
0.9866798943900662,1,0.995449
0.9871426541762075,1,0.995949
0.9875301764796516,1,0.995544
0.987925927349611,1,0.998104
0.9882911506367399,1,0.999320
0.9885604321612081,1,0.998046
0.9889971113420768,1,0.997171
0.9894014210702935,1,0.999357
0.9897213306240394,1,0.996768
0.9900147739978006,1,0.999354
0.9902593804910034,1,0.999296
0.9904740079135904,1,0.999350
0.9906940018889774,1,0.997954
0.9908959140493151,1,0.998694
0.9910964218639655,1,0.998830
0.9912662760360393,1,0.998074
0.9914026853431641,1,0.997947
0.9915341538976894,1,0.998083
0.9916547443042381,1,0.998452
0.9918261643478821,1,0.998739
0.9919601257260477,1,0.999292
0.992040395465927,1,0.997884
0.9921023213068182,1,0.998466
0.9921686174143364,1,0.998564
0.9922267109052446,1,0.998723
0.9922653549707366,1,0.998574
0.9923133665825973,1,0.999253
0.9923482063162635,1,0.999328
0.9923858376415476,1,0.999279
0.9923870941657228,1,0.999343
0.9924102226412885,1,0.997447
0.9924514190835616,1,0.999276
0.9925013576237485,1,0.999314
0.9925463339462585,1,0.994662
0.9925762133101789,1,0.999298
0.992613541981429,1,0.999318
0.9926451997203954,1,0.999288
0.9926490050258079,1,0.999298
0.9926376632097247,1,0.997976
0.9305454955920293,1,0.999371
0.936981624593041,1,0.999316
0.9425573174546333,1,0.995644
0.9472373496496795,1,0.997275
0.9513152118392415,0,0.992940
0.9553821810852202,0,0.990434
0.9592910440064141,1,0.999310
0.9623239079238693,1,0.998373
0.9649442892240501,0,0.990268
0.9672086926755127,1,0.999343
0.9693021929034272,1,0.996610
0.9709533692429942,1,0.998378
0.9726402022149963,0,0.970489
0.9740900676365527,1,0.999258
0.9752651070842849,1,0.998116
0.9765724418932653,1,0.994835
0.9778549882277965,1,0.999307
0.9789624545042991,0,0.991918
0.9799196714064282,1,0.998617
0.980753443253974,1,0.997218
0.9816428669456706,1,0.999288
0.9823432982931959,1,0.998030
0.9830576122583559,1,0.999300
0.9837287726897403,1,0.995443
0.9842915492177609,1,0.998035
0.9848309385715323,1,0.999305
0.9852353143779763,1,0.996610
0.985559588775157,1,0.999351
0.9859264201341079,1,0.999316
0.9861776566542656,1,0.999346
0.986453600839025,1,0.999354
0.9867454457283099,1,0.999367
0.9870128830506784,1,0.996713
0.9872291627562888,1,0.999333
0.9874712420339785,1,0.998108
0.9876924415937075,1,0.997387
0.9879146188554615,1,0.997717
0.9880575201159129,1,0.998817
0.9881415236623544,1,0.998711
0.98823066484569,1,0.999306
0.9882832275989082,1,0.999321
0.9883600318048971,1,0.998308
0.9883389356570412,1,0.997901
0.9883326937175588,1,0.997317
0.9883012735692429,1,0.993007
0.9885984919398193,1,0.997930
0.9890592178479699,0,0.987179
0.9894870331912293,1,0.999220
0.9898903927302173,1,0.999324
0.9902872611094609,1,0.997869
0.9906589440680122,1,0.999318
0.9910069048492385,1,0.998058
0.9912997607784247,1,0.999357
0.9915759639227016,1,0.998697
0.9918631282946094,1,0.998572
0.9921483655309141,1,0.998497
0.9923945770124338,1,0.999252
0.9926346056817028,0,0.983333
0.9928758849488095,1,0.999310
0.9930910558311097,1,0.999241
0.9933038322726224,1,0.998717
0.9934878247954029,1,0.998636
0.9936449695700157,1,0.998632
0.9277675043965797,1,0.997925
0.9336889206866826,1,0.999283
0.9389938050001999,1,0.997019
0.9436969990379369,1,0.998392
0.9481731473039459,1,0.998453
0.9521477667900623,1,0.997760
0.9554549326897666,1,0.997716
0.9585482970619891,1,0.999357
0.9611386699036921,1,0.999286
0.9635345691609875,1,0.997643
0.9654935304382614,1,0.998126
0.9672534240936658,1,0.997403
0.9690667028150779,1,0.996266
0.970741614951784,1,0.999350
0.9723207207585852,1,0.999302
0.9736819056129054,1,0.999299
0.9748724114776853,1,0.998205
0.9759235510968098,1,0.994307
0.9770798550596674,1,0.998479
0.9782383518511804,1,0.995444
0.9794040924255907,1,0.998090
0.9804883255746081,1,0.999332
0.9815124515619883,1,0.994809
0.9823491939407744,1,0.999351
0.9830683478737798,1,0.999296
0.9836059068423292,1,0.999341
0.9841595731174824,1,0.999342
0.9846849137435174,1,0.998757
0.9851820417004674,1,0.999315
0.9855182547887625,1,0.998674
0.9858331085761226,1,0.999238
0.9860617993900115,1,0.999344
0.9863194136035717,1,0.997253
0.9866105539359754,1,0.998351
0.9870781208071129,1,0.997181
0.9874566143032671,1,0.999269
0.9877746061404516,1,0.998084
0.9881116666833285,1,0.996060
0.9884252587844741,1,0.996169
0.9887375993187554,1,0.999246
0.9890426981046013,1,0.999080
0.9892668995243813,1,0.999321
0.9894952908128847,1,0.999174
0.9896878219619392,1,0.996992
0.9898367190923798,1,0.998686
0.9899343184759248,1,0.997153
0.9900624128944661,1,0.999205
0.9901543900657211,1,0.996628
0.9902285172741118,1,0.995927
0.9902839139564358,1,0.997835
0.9903258364517745,1,0.997139
0.9903595765833615,1,0.999382
0.9904119734964698,1,0.999328
0.9906111417999612,1,0.999332
0.9907721735808049,1,0.999328
0.9909023967153779,1,0.995977
0.9909860182889589,1,0.999266
0.9910768622633469,1,0.996571
0.991221349792942,1,0.999284
0.9913330343502788,1,0.999213
0.9914212061871808,1,0.996596
0.9914870329490705,1,0.998257
0.9915354042593552,1,0.997497
0.9915996600626766,1,0.997906
0.991742134660781,1,0.999312
0.9210456277914285,1,0.992604
0.9267585460587121,1,0.999315
0.9317668092624417,1,0.997664
0.9366110472979605,1,0.998154
0.9417053896977352,0,0.992131
0.9460250305170472,0,0.991973
0.9499847139069763,0,0.991786
0.9529706086760581,1,0.997169
0.9555422808631004,1,0.998881
0.9582589265679369,0,0.992243
0.9611301608364182,0,0.992787
0.9639606842187525,0,0.991848
0.9666136122516585,1,0.998076
0.9690098406653131,1,0.996310
0.9704050510506816,1,0.998101
0.9716882236176252,1,0.996838
0.97310888657943,1,0.997213
0.9743693612246108,1,0.998127
0.9753607169629239,1,0.999224
0.9766364238336793,1,0.998066
0.9778249055196782,1,0.999280
0.9787955394816061,1,0.999311
0.9796118689586063,1,0.994186
0.9807113631008167,1,0.999273
0.9816098763404156,1,0.998628
0.982326443551671,1,0.999304
0.9829022656973092,1,0.998017
0.9835033786740429,1,0.999219
0.9840988092787039,1,0.998512
0.9848110254016766,1,0.996992
0.9854428629712003,1,0.998090
0.985986336008887,1,0.994842
0.9863959506486164,1,0.998866
0.9867628469013371,1,0.997922
0.98711827675027,1,0.999318
0.987455587217224,1,0.998108
0.9878283878067513,1,0.999299
0.9881525816710968,1,0.999364
0.9883851710345337,1,0.997671
0.9886707403598852,1,0.994645
0.988824776129815,1,0.998100
0.9890132430118894,1,0.998629
0.9891443494894371,1,0.998072
0.9893073527599703,1,0.998029
0.9894460208313566,1,0.998392
0.9895682220204248,1,0.997277
0.9897920088176753,1,0.995682
0.9901593695684554,1,0.996503
0.9905124112705861,1,0.998594
0.9908331802786158,1,0.998705
0.991116542111261,1,0.998673
0.9913890912103827,1,0.999259
0.9916316840190815,1,0.997459
0.991845599582405,1,0.999334
0.9920043860523413,1,0.998625
0.9921740512270866,1,0.996615
0.9923322302613713,1,0.999279
0.992465608612664,1,0.997258
0.9926150073537612,1,0.997220
0.9927997072223608,1,0.999201
0.9929710875263502,1,0.999303
0.9931456492622002,1,0.999165
0.9932481587621164,1,0.999336
0.9933515091920179,1,0.997351
0.9934509882599537,1,0.999246
0.9935363416069656,1,0.998853
0.9936574135294577,1,0.999349
0.9187258919067968,1,0.999276
0.9253425792053116,0,0.991339
0.9305373382161392,1,0.993893
0.9354003003621748,1,0.992450
0.940435285101899,0,0.991402
0.9448364231166021,0,0.989347
0.9489070722158329,1,0.998677
0.9526875235571832,1,0.997947
0.9559140162541857,1,0.998509
0.9590935434637152,1,0.998034
0.9618268742802075,1,0.998308
0.9638787647607223,1,0.998556
0.9659058025361806,1,0.998411
0.9672980966246144,1,0.999271
0.9687264035034044,1,0.997956
0.9698679190514918,1,0.999391
0.9714803524661467,1,0.999254
0.9729541809175577,1,0.999285
0.9743360409541953,1,0.996873
0.9754233333045842,1,0.999182
0.9766887564235363,1,0.998013
0.9780318441874779,1,0.998156
0.9790739037627989,1,0.997445
0.9799856182948824,1,0.998017
0.9807331113871758,1,0.997300
0.9815909457829242,1,0.998659
0.9823637104935452,1,0.998127
0.9831852318960859,1,0.998831
0.9837565515543276,1,0.999373
0.9843186533390181,1,0.996390
0.9847931876900152,1,0.997197
0.9852692768022004,1,0.998509
0.9858253770550559,1,0.998067
0.9864106755453792,1,0.999363
0.9869508104509088,1,0.999302
0.9873462235434965,1,0.997216
0.9878068449142142,1,0.998029
0.9881157256181649,1,0.999284
0.988365106092546,1,0.994286
0.9886388842629714,1,0.996238
0.9889736712603526,1,0.997286
0.9892210146296775,1,0.999336
0.989395660133472,1,0.999322
0.989549020153087,1,0.999347
0.9897223632145928,1,0.998522
0.9899716437899406,1,0.998700
0.9902497672473151,1,0.998650
0.9904819851583265,1,0.999231
0.9907139927320372,1,0.998668
0.9909782763734838,1,0.999285
0.9912027161175464,1,0.997354
