0.9606451522588422,1,0.999323
0.934548353532534,1,0.995427
0.9521406242899527,1,0.999290
0.955758342207045,1,0.999297
0.9645437012933344,1,0.998165
0.9473977802167206,1,0.999315
0.9438487958080687,1,0.996556
0.9495406059359646,1,0.999143
0.9423911866761271,1,0.998992
0.9637718077025652,1,0.999292
0.9562867074887313,1,0.995766
0.9584485295468584,1,0.997169
0.94931821448222,1,0.999322
0.9501765348488764,1,0.999271
0.9448830263648865,1,0.998746
0.9554425490785706,1,0.998520
0.9428273916110779,1,0.999341
0.959385584438389,1,0.999255
0.9598816386009623,1,0.995305
0.9614001763065149,1,0.999376
0.9452601731834025,1,0.999290
0.9488028152822533,1,0.999299
0.9690849752586492,1,0.998404
0.9530984918148167,1,0.999253
0.9613382402241483,1,0.999146
0.9546148136431968,1,0.999251
0.9660412203112775,1,0.999296
0.9655203785380313,1,0.998574
0.9627033868858091,1,0.997853
0.9481653988604881,1,0.997044
0.9581934706074128,1,0.999180
0.9601706987335108,1,0.999299
0.9595905326864129,1,0.999183
0.9545635152738636,1,0.999377
0.9491146447565417,1,0.999285
0.9430129840535514,1,0.999289
0.965967033830326,1,0.998600
0.9604647082751738,1,0.998410
0.9550475935071805,1,0.998578
0.9559820575677332,1,0.999259
0.9534168441637605,1,0.993402
0.9613562129319847,1,0.999339
0.9511392218689545,1,0.998624
0.9643998840157956,1,0.999016
0.9480455075501212,1,0.999348
0.9617861278201777,1,0.998244
0.9601469978001321,1,0.999043
0.9577325823728365,1,0.998792
0.9632909472653262,1,0.999333
0.9665151018608173,1,0.997863
0.9657776789494656,1,0.999213
0.9530169015606169,1,0.998982
0.9686517322080016,1,0.995923
0.9605997710932447,1,0.998620
0.9638785300244346,1,0.999307
0.9602887784790916,1,0.997958
0.9600746438953447,0,0.991441
0.9619845728785241,1,0.999274
0.9525208510436466,1,0.991736
0.9519270676041847,1,0.998193
0.9590394727588839,1,0.998392
0.9622923365222923,1,0.999286
0.9643975044784365,1,0.999278
0.9649517948018054,1,0.998655
0.9580347784152696,1,0.999008
0.9691214051194614,1,0.999178
0.9679179771768901,1,0.993512
0.953408226098441,1,0.998593
0.9659613535332768,1,0.999248
0.9717906639278122,1,0.999268
0.9560675392980821,1,0.999161
0.9682920141924648,1,0.999113
0.9646936592638633,1,0.998512
0.9468100292392264,1,0.997619
0.9710004935838886,1,0.997874
0.9447029621015501,1,0.999412
0.9558868817694961,1,0.999305
0.9526729405580993,1,0.999280
0.9708104180223686,1,0.999324
0.9614123918699816,1,0.999193
0.9641852019935241,1,0.995809
0.9588813858219531,1,0.999293
0.9605897014191414,1,0.999153
0.9524610432892214,1,0.999283
0.9441946716712316,1,0.999302
0.9597191990283223,1,0.999320
0.9518616780328971,1,0.999255
0.9516993946635709,1,0.999280
0.9618859571808389,1,0.999281
0.9600858856541225,1,0.999288
0.96311182169624,1,0.999158
0.9687072051208819,1,0.999295
0.9640070230635904,1,0.999394
0.9653516727585155,1,0.998416
0.9470554569636154,1,0.997441
0.9613397915103151,1,0.999292
0.9436330015442208,1,0.999276
0.9494795796758779,1,0.999206
0.9434561087698524,1,0.999194
0.9548821505067467,1,0.994500
0.9640091267883882,1,0.999331
0.9660288782608369,1,0.999218
0.9556053037676585,1,0.999318
0.9591863660195842,1,0.998399
0.9547230579802634,1,0.999280
0.9689299533650161,1,0.999282
0.9676716493367545,1,0.999428
0.9601309502102783,1,0.997665
0.9587693246313936,0,0.985047
0.9594459900279848,1,0.998431
0.96556636613846,1,0.998620
0.9530226793448785,1,0.998716
0.9555784210742608,1,0.999308
0.9535338812219036,1,0.999229
0.9580323591193672,1,0.999301
0.9621743171651893,1,0.999259
0.9652441842075554,1,0.999244
0.9682265362660795,1,0.999337
0.9531770587915035,1,0.999190
0.9642175334700911,1,0.999290
0.9555860030075997,1,0.998498
0.9513788960776979,1,0.999280
0.9544329619880426,1,0.999372
0.9589222653277136,1,0.999326
0.9617392206568142,0,0.976488
0.9542510373879265,1,0.997729
0.9546828446135921,1,0.999350
0.9593839220912012,1,0.999221
0.9634679219145962,1,0.999323
0.9476801578956139,1,0.999251
0.9603351003859942,1,0.999319
0.9601158046127728,1,0.998922
0.9514527930792409,1,0.999241
0.9698787217804088,1,0.998534
0.9577659223146748,1,0.999340
0.9622707503220652,1,0.998636
0.9634130719143135,1,0.999241
0.9465486797526763,1,0.999420
0.9684896136006195,1,0.999351
0.9547933779891618,1,0.999257
0.9703189614683457,1,0.998958
0.9451423515245203,1,0.997791
0.9477891149525223,0,0.973154
0.9559287983778418,1,0.999327
0.9492205538104412,1,0.998138
0.9653321226786898,1,0.999248
0.9592238434063461,1,0.999255
0.9679504915410593,1,0.999275
0.9599905434820024,1,0.997050
0.9754864385268176,1,0.994470
0.9633711245956131,0,0.980565
0.9641815228716306,1,0.999384
0.965285650610587,1,0.999162
0.9680898157848876,1,0.999147
0.96208165579807,1,0.999320
0.961767236571054,1,0.998831
0.9575047611302772,1,0.999248
0.9605022678523459,0,0.978365
0.9609975204431694,1,0.999031
0.968561262994374,1,0.998668
0.9485348403585494,1,0.994511
0.9568384997246745,1,0.995268
0.9459389439753167,1,0.999280
0.9490244612719927,1,0.999109
0.9407893030868364,1,0.999301
0.9423119176285927,1,0.999248
0.9544998456135897,1,0.999318
0.9627292368803384,1,0.995363
0.9606188181609532,1,0.997691
0.9710487770424737,1,0.998967
0.9628652486885713,1,0.999321
0.9536115694550596,1,0.997250
0.9646149757842087,1,0.998244
0.9691957643289077,1,0.998028
0.9584988866071557,0,0.980328
0.9482139670214925,1,0.999271
0.9688738584125054,1,0.999221
0.9657482922740729,1,0.999277
0.9670614755592758,1,0.999317
0.9665763899808282,1,0.997736
0.9647470457044726,1,0.995693
0.9576318383051903,1,0.998951
0.9572278585149642,1,0.992851
0.9594372608076913,1,0.999324
0.9692659224447151,1,0.999221
0.9586022558611379,1,0.999083
0.9673669084088558,1,0.999297
0.9643079503927048,1,0.998667
0.9620669861725263,1,0.998387
0.9610138686028021,1,0.998581
0.9531077398889918,1,0.998004
0.9400627339525855,1,0.999307
0.9640343612595341,1,0.997315
0.9495524677341618,1,0.999287
0.953681358224347,1,0.999227
0.9615520014669421,1,0.999260
0.9621533630074625,1,0.998649
0.9638835184621269,1,0.999277
0.9547170536439812,1,0.997009
0.9534270366004587,1,0.999213
0.9664964517539083,1,0.998022
0.9685209184778851,1,0.999112
0.9667417502611408,1,0.998748
0.9654744262952278,1,0.999150
0.9536303165963058,1,0.998654
0.9644620597515673,1,0.999342
0.9548109005636811,1,0.999297
0.9541105345215583,1,0.999322
0.9674751215953035,1,0.999153
0.970713063025874,1,0.998312
0.967187371701952,1,0.996495
0.9530560976765476,1,0.999305
0.9623266334293487,1,0.999181
0.9614878157837803,1,0.999288
0.9589255234472798,1,0.999072
0.9384954144762364,1,0.998597
0.9625333759998794,1,0.998605
0.931861508691,1,0.997784
0.9440160600789567,1,0.999295
0.9484208609420172,1,0.999162
0.959220846078416,1,0.999031
0.9420693074330735,1,0.996479
0.9600752117303231,1,0.999310
0.9715952211940923,1,0.998340
0.94987942316402,1,0.999195
0.9456230005587087,1,0.997985
0.9549999564396213,1,0.999207
0.9623712834792915,0,0.973166
0.9555743142504216,1,0.999036
0.9745596369043,1,0.999284
0.9652754709983885,1,0.999213
0.9706299858911434,1,0.999303
0.9706209507829918,1,0.997500
0.9560974201667475,1,0.999376
0.9649731764433369,1,0.998711
0.967342925494617,1,0.998845
0.9687888655860097,1,0.998722
0.9573129560975514,1,0.998271
0.95417754847299,1,0.996408
0.9635313413381342,1,0.999349
0.9688436609597437,1,0.999246
0.9720139580074828,1,0.998926
0.9615955566796262,1,0.993818
0.9619493788666664,0,0.991277
0.9755737403023037,1,0.999260
0.9594546701516696,1,0.999150
0.9694066304447343,1,0.999327
0.9763307329174472,1,0.998235
0.9649041677009697,1,0.999158
0.9725008196830086,1,0.999389
0.960577944410763,1,0.995981
0.9560332949488627,1,0.998852
0.9660641651232444,1,0.999266
0.9609301717775484,1,0.996159
0.967303302955302,1,0.999017
0.9738105956401256,1,0.998608
0.9667006036048321,1,0.994024
0.9714096416904557,1,0.999008
0.9736712565589903,1,0.999307
0.9582526842582262,1,0.999136
0.9692773048185317,1,0.988764
0.9729946567267406,1,0.999242
0.9626191528167497,1,0.998521
0.9622934574330735,1,0.999026
0.9601296176152225,1,0.996853
0.9656503303143511,1,0.997763
0.9602095231405047,1,0.999296
0.9624473777032422,1,0.999289
0.9664839917980292,1,0.999329
0.965514724066975,1,0.999225
0.9727539729664652,1,0.999327
0.9647276144511608,1,0.998772
0.962070912105002,1,0.998047
0.9573310699702919,1,0.999275
0.9595738331734591,1,0.999431
0.9694932485005352,1,0.999247
0.9533031233142901,1,0.999283
0.9739414261572625,1,0.999183
0.9668060945808965,1,0.999213
0.9703055788393927,1,0.997455
0.9628221149890035,1,0.999324
0.961519708023476,1,0.998488
0.9661455325498993,1,0.998581
0.9698556932620945,1,0.997849
0.9704834714491253,1,0.998276
0.9613816094109232,1,0.999344
0.9590263652385105,1,0.999158
0.9622867541087449,1,0.997881
0.9723823702324877,1,0.997347
0.9569972832332039,1,0.999131
0.9655247241087752,1,0.999221
0.9614849191522021,1,0.998733
0.9733797392904467,1,0.999109
0.9700325969112478,1,0.999385
0.9653819022285604,1,0.998786
0.9599896416310276,1,0.999192
0.9617310517039763,1,0.999236
0.974257258244707,1,0.998642
0.9656396059759998,1,0.999293
0.9698955692010728,1,0.998807
0.9694330080255941,1,0.999146
0.9499725513628284,1,0.999391
0.961367734684571,1,0.999415
0.9716865345505334,1,0.999293
0.9677176444830052,1,0.999342
0.9713552459586928,1,0.999069
0.9579583799749368,1,0.998616
0.9738007730464565,1,0.999393
0.9614760797681164,1,0.999200
0.9692520446481447,1,0.999339
0.9569199705802395,1,0.998384
0.9648356748103448,1,0.998671
0.9608001006923321,1,0.999044
0.9767120401894696,0,0.929039
0.9645925581963761,1,0.991611
0.9650588763812287,1,0.999012
0.9682296826503792,1,0.998832
0.967891666920906,1,0.999264
0.9506470507785605,1,0.999287
0.9686332689343199,1,0.999272
0.9679587065906442,1,0.996195
0.9539188464090745,1,0.999218
0.9634381749571217,1,0.999124
0.9611798702547396,1,0.999283
0.9610805992057905,1,0.997214
0.9478868569796286,1,0.999280
0.9612874390072524,1,0.999289
0.9591471148485189,1,0.999249
0.9699647954296995,1,0.999228
0.9605217662325742,1,0.999104
0.9576311776979194,1,0.998730
0.965443266883736,1,0.998253
0.9603620150551653,1,0.998551
0.9646384845886126,1,0.997329
0.9672261820100146,1,0.999330
0.9667733648012694,1,0.997292
0.950957443533402,1,0.998853
0.9555725018944277,1,0.998870
0.9717542521999942,1,0.999265
0.9628635761624906,1,0.998577
0.9714519305237854,1,0.999188
0.9463374622840979,1,0.998308
0.9588833556603821,0,0.988946
0.9683599585891972,1,0.999185
0.9532366164645433,1,0.998167
0.9661101144636737,1,0.999139
0.9649328573536338,1,0.999351
0.9600245869878147,1,0.997255
0.9690962336679795,1,0.999210
0.9633933140580156,1,0.999335
0.9571612817046617,1,0.999341
0.9621731885649342,1,0.999350
0.9602244797175022,1,0.999325
0.9576008998595567,1,0.999377
0.9626853883961115,1,0.997379
0.9674669393003392,1,0.999227
0.9662624660823713,1,0.998201
0.9612832681090117,1,0.999036
0.9507643058030503,1,0.991194
0.9663922163101292,1,0.998408
0.949976226140734,1,0.999364
0.9526654821327317,1,0.993861
0.9545982507237564,0,0.992866
0.9637735824114331,1,0.999188
0.9447967669516896,1,0.998424
0.9665477092650481,1,0.999382
0.9493237159010396,1,0.998221
0.9602685348155263,1,0.999306
0.944021169248989,1,0.998154
0.9651440929172403,1,0.998233
0.9606969537994505,1,0.999281
0.9575877236615005,1,0.999229
0.962110145917093,1,0.999387
0.9515568264485922,1,0.998947
0.9430276534704428,1,0.999060
0.9632483365853406,1,0.999412
0.9412497448521436,1,0.999251
0.9452402264167249,1,0.999222
0.9496751872265703,1,0.999316
0.9560443539242655,1,0.998347
0.9591560361623064,1,0.998615
0.9529595779187678,1,0.999351
0.9567589328325267,1,0.999244
0.9582866753263574,1,0.999364
0.9638014199524407,1,0.999221
0.9411527189615702,1,0.999202
0.9614275624409703,1,0.998797
0.9634552174784435,1,0.999132
0.971942347304015,1,0.992793
0.9396175862648974,1,0.999118
0.9330631205298487,1,0.997874
0.9675590045734799,1,0.996022
0.966290156437854,1,0.998991
0.9686882877478474,1,0.999336
0.9530488198540746,1,0.999344
0.966644040032609,1,0.996105
0.9720727520307857,1,0.999150
0.9634553909449748,1,0.998907
0.9510876838951197,1,0.999400
0.9571361908043211,1,0.998030
0.9723985429757382,1,0.994393
0.9594840850616726,1,0.995754
0.9710771443933316,1,0.998639
0.9628753580191176,1,0.999307
0.9567488902046466,1,0.999356
0.9708433787450816,1,0.999106
0.9482515079880883,1,0.999357
0.9556520332156596,1,0.999343
0.963253760531192,1,0.997464
0.9618730102245209,1,0.999268
0.9596986971009948,1,0.999310
0.9664458722734647,1,0.988173
0.9499626927851808,1,0.998599
0.9590834509453282,1,0.992112
0.9593506108559833,1,0.999380
0.9652224711882417,1,0.998192
0.9698717433041351,1,0.999309
0.961851135281724,1,0.998650
0.9665941385245996,1,0.999052
0.9726828684963928,1,0.999311
0.9680456427160118,1,0.998636
0.9540383508141279,1,0.999182
0.9561101632329376,1,0.998315
0.9700526768078991,0,0.971831
0.956570635896721,1,0.997442
0.9522356621408884,1,0.997357
0.9507824984310135,1,0.999299
0.9696044775771,1,0.999366
0.9604156743456017,1,0.998690
0.9629897766824128,1,0.998683
0.9677087187851842,1,0.999192
0.9655903500807882,1,0.997305
0.9620792701403177,1,0.998250
0.9630552658355772,1,0.999224
0.9608709239533171,1,0.999282
0.9632664858865876,1,0.999205
0.9636587151126987,1,0.999195
0.9615081921903436,1,0.999208
0.9654139702133115,1,0.997172
0.9570225427486467,1,0.999006
0.9680420008417733,0,0.970000
0.9591112780321844,1,0.999141
0.964939299881635,1,0.997565
0.9456886814080921,1,0.998319
0.9599157630994752,1,0.998247
0.957043857472177,1,0.999272
0.963738551538832,1,0.999030
0.9668706520698934,1,0.999082
0.9549018229549632,1,0.993392
0.9637856402178272,1,0.999339
0.9549556754854877,1,0.999302
0.9569954770149519,1,0.998362
0.9612564674542747,1,0.999358
0.9667688813083274,1,0.997157
0.9663662222444304,1,0.998366
0.9624132475748612,1,0.999138
0.958516272175314,1,0.994479
0.9551624883880816,1,0.999226
0.9634855022132575,1,0.998607
0.9697846380190028,1,0.999146
0.9690794292595466,1,0.998646
0.9428452834495114,1,0.993506
0.9603728526895113,1,0.999287
0.9664100845558522,1,0.999449
0.9603847862436988,1,0.996476
0.9512272199071038,1,0.998711
0.9669851120585141,1,0.999285
0.960926506605756,1,0.999270
0.9706923262545175,1,0.998453
0.9659679608384194,1,0.997438
0.9686653435142315,1,0.999356
0.9556626918180537,1,0.999038
0.9450713866921393,1,0.998645
0.9687397158146229,1,0.993554
0.9553887048579179,1,0.992724
0.9669891579161448,1,0.995470
0.9614654519759107,1,0.998649
0.9691489186411,1,0.998789
0.9601967058498502,1,0.999294
0.9575621285697158,1,0.998707
0.9576779314126754,1,0.996732
0.9555802752008196,0,0.969436
0.9650342688445125,0,0.967807
0.9575007903351127,1,0.999283
0.9638001270493343,1,0.996813
0.9606468705381384,0,0.978705
0.9593178812878312,1,0.999295
0.960404747885766,1,0.992614
0.9650445185650143,1,0.993583
0.9444513759936467,1,0.998474
0.9589939200054904,1,0.997126
0.9514078779579204,1,0.997157
0.9625970420280313,1,0.999287
0.9662376595013205,1,0.999341
0.9541705615867807,1,0.998510
0.9561498575168808,1,0.999196
0.9650366970889341,1,0.995313
0.9605216221535811,1,0.999361
0.9510794558184318,1,0.999224
0.9445981471389983,1,0.998532
0.9562385494070019,1,0.999398
0.9554025679181337,1,0.999006
0.9522287675883762,1,0.998399
0.9700186303270318,1,0.999305
0.9585683590011025,1,0.998124
0.961401655636783,1,0.994449
0.9487853843843456,1,0.999263
0.9559418874828397,1,0.998779
0.9504902332253236,1,0.998681
0.9458177165629358,1,0.999234
0.9364071050823992,1,0.999248
0.9529249354697595,1,0.999175
0.9648306931535501,1,0.998110
0.9614774461002469,1,0.997753
0.9616705517343996,1,0.999209
0.9575227528999014,1,0.998623
0.9551499303016745,1,0.999329
0.9614442114440928,1,0.999257
0.9448747731633775,1,0.998606
0.9535105714348747,1,0.998735
0.9505794598100076,1,0.999225
0.950929993962393,1,0.999026
0.9663610766508414,1,0.994340
0.9518415286933628,1,0.999394
0.9446005002036112,1,0.999315
0.9504678884538144,1,0.999228
0.9573805335662173,0,0.990107
0.9437253776116089,1,0.999322
0.9421779576086207,1,0.998464
0.9577542090381962,1,0.999141
0.9558868163120628,1,0.997789
0.9551421213055712,1,0.996625
0.9562426577002794,1,0.999279
0.9635750649823525,1,0.992509
0.9583840940262133,1,0.999267
0.9624233813764076,1,0.998803
0.945434415021336,1,0.998383
0.9663077325043764,1,0.998934
0.9608934333479299,1,0.999342
0.9628847147894444,1,0.993603
0.9525106566538407,1,0.999195
0.9533260222450066,1,0.998855
0.957394357739445,1,0.999240
0.9527416416278462,1,0.999365
0.9620286588603274,1,0.998959
0.9613605581924107,1,0.999194
0.9493219271586637,1,0.998343
0.9570186700518417,1,0.997467
0.9520047135213308,1,0.999216
0.9517634219355994,1,0.999221
0.9623969209802237,1,0.999286
0.9526756850763952,1,0.999241
0.9448739735114952,1,0.998982
0.9529271494161186,1,0.998522
0.9631976922622021,1,0.999261
0.9593907124964348,1,0.996540
0.9601018559508845,1,0.999145
0.9589928464360123,1,0.999326
0.9558081933281021,1,0.998488
0.9426787086950646,1,0.999371
0.9530583133535999,1,0.998439
0.9553448210614659,1,0.997098
0.9540508718417006,1,0.999302
0.9617158262385332,1,0.999077
0.9473782795424889,1,0.996098
0.9464076625072781,1,0.998778
0.9551193176625652,1,0.999324
0.9395633330810778,1,0.999139
0.9551801133582019,1,0.999126
0.9700801796592714,1,0.998146
0.945867869194596,1,0.999144
0.9535422271103102,1,0.998797
0.9704360580149166,1,0.998374
0.9480269094779453,1,0.998847
0.9582514747581644,1,0.998969
0.9441382909115956,1,0.999294
0.9752486966030884,1,0.999218
0.9576998968770996,1,0.993124
0.9565610747373355,1,0.999308
0.9561642115882169,0,0.993099
0.9546118745418596,1,0.999299
0.9654086614324073,1,0.999405
0.9481995437608004,1,0.999234
0.9506754881460936,1,0.999354
0.9681915005314058,1,0.999225
0.9586669287086859,1,0.996044
0.9604095256193637,1,0.998991
0.964921661424043,1,0.997290
0.9606930265966935,1,0.999169
0.9518742752742821,1,0.999155
0.9567703198739802,1,0.999154
0.9521010988384879,1,0.997717
0.964971560357013,1,0.995353
0.9717033491729666,1,0.998993
0.9539464099711354,1,0.999218
0.9475516645535097,1,0.998139
0.9602880351780664,1,0.999125
0.9627368023381179,1,0.999345
0.9500512764261949,1,0.999261
0.9448570040727156,1,0.993232
0.9497117860554505,1,0.999107
0.9469099191688584,1,0.999221
0.9477020661710951,1,0.999190
0.9671398271281554,0,0.985185
0.9490625956357405,1,0.997026
0.9571394388774235,1,0.998277
0.9421464076237667,1,0.998354
0.9626783708723806,1,0.999424
0.9580990254143966,1,0.999275
0.9487754481176789,1,0.999263
0.9562016337316838,1,0.999184
0.9463659093175301,1,0.999234
0.9408118484114805,1,0.998523
0.9564268425180398,0,0.987097
0.9616124891022414,1,0.998325
0.9502748004071062,1,0.989677
0.9573246379830002,1,0.999220
0.9527155832326538,1,0.999314
0.9513213017978207,0,0.984894
0.9539920131251068,1,0.996909
0.9645109906244026,1,0.999391
0.953568074782542,1,0.990426
0.9418740814417581,0,0.989916
0.9470657327028804,1,0.999289
0.9630135782277519,1,0.992053
0.9483193682241468,1,0.999100
0.9447389079667862,1,0.997592
0.9486291202168908,1,0.999019
0.9469382616686488,1,0.999249
0.954569283552741,1,0.999296
0.9678658236386742,1,0.999287
0.940314042115566,1,0.999113
0.9549268359887443,1,0.999259
0.9559866928204406,1,0.999287
0.9606579486562061,1,0.998636
0.9534945900624694,1,0.998126
0.9492292687322404,1,0.995231
0.9435188432469332,1,0.996802
0.9634630850314747,1,0.999146
0.9407814852801049,1,0.999315
0.9545804223319295,1,0.999147
0.9665045031997489,1,0.999270
0.9709335162669498,1,0.998111
0.9563953347136119,1,0.999171
0.9440555030990586,1,0.998724
0.9617754699449446,1,0.999136
0.952666973730768,1,0.998793
0.9492354853042776,1,0.999298
0.9590704403305305,1,0.998084
0.9506313813765884,1,0.994705
0.9479882579536051,1,0.999277
0.9428371552090349,1,0.998434
0.9415486199155711,0,0.993276
0.9615778436434582,0,0.990681
0.9657128258339329,1,0.998363
0.9371384123400861,1,0.999248
0.9529354801772253,1,0.999443
0.952825371981646,1,0.996970
0.953512834206134,1,0.996610
0.9187009776512003,1,0.994229
0.9437481537529219,1,0.998992
0.9640867068717286,1,0.998255
0.9637503029341716,1,0.999235
0.9548707753502532,1,0.999122
0.9530074887728538,1,0.999208
0.9488904622683819,0,0.977155
0.945470645511568,1,0.999328
0.9464189030713341,1,0.997860
0.9370523709938209,1,0.999124
0.9529592663692312,1,0.999385
0.9549360731087589,1,0.998013
0.9469525605237187,1,0.999212
0.97147434380166,1,0.999060
0.9600833627407029,0,0.971264
0.9672225119486321,1,0.998557
0.9538957231694708,1,0.999282
0.9530648993612643,1,0.999057
0.9374110932534714,1,0.998698
0.9381614085373946,1,0.998314
0.9448328052086619,1,0.999310
0.951356821009605,1,0.996044
0.9432773875027595,0,0.976011
0.9629584803917066,1,0.999337
0.9473917445457224,1,0.999277
0.9528275847823852,1,0.999333
0.9501128445192846,1,0.998875
0.9527335167504307,1,0.998988
0.9474145225737889,1,0.999153
0.9414261112441193,1,0.996685
0.9343568331478653,1,0.999281
0.9549069362011571,1,0.999367
0.9475742075915801,1,0.999261
0.9466997575953214,1,0.995682
0.9588734949381225,1,0.999101
0.9523206651782438,1,0.999392
0.9467366329757135,1,0.999117
0.942190981194116,1,0.994569
0.9658758039870031,1,0.995993
0.9631717146210458,1,0.994048
0.9609762966617069,1,0.998515
0.9606140295368673,1,0.997137
0.9616315906553002,1,0.999226
0.9638469511267005,1,0.999300
0.9655679575428894,1,0.999349
0.9624444859427345,1,0.998709
0.9617779900558816,1,0.998913
0.9642409697596629,1,0.999288
0.9592980787976588,1,0.998741
0.9603547590638444,0,0.979781
0.9657881020563885,1,0.999246
0.9577182704088063,1,0.991388
0.9535386062222403,1,0.999372
0.9562047498742346,1,0.999183
0.9528808195663389,1,0.999162
0.9533124296068773,1,0.997991
0.9628890754595922,1,0.999233
0.9328216449280462,1,0.998066
0.957810275515068,1,0.998997
0.9448451294156479,1,0.999340
0.9502262634928162,1,0.999153
0.958138690577204,1,0.994398
0.9617035081152214,1,0.999196
0.9512471654579063,1,0.997886
0.9606295960488788,1,0.996183
0.9500809248211685,1,0.999299
0.9539385131624964,1,0.999389
0.9606895287154648,1,0.996364
0.9612337878309031,1,0.998513
0.9639428671419078,1,0.999178
0.9615417628421551,1,0.998387
0.961375736160425,1,0.998524
0.9642532304683671,1,0.998538
0.9648470084183031,1,0.996644
0.9550759080697536,1,0.999141
0.9575265014338769,1,0.998474
0.947115762747547,1,0.996313
0.9750077625154697,1,0.998238
0.9529684960177837,1,0.999388
0.9542597038666754,1,0.999192
0.97246671953318,1,0.998503
0.9625247577455698,1,0.999056
0.957637847482706,1,0.999161
0.9658695489737539,1,0.998963
0.9652854345861518,1,0.999090
0.9618666937356231,0,0.983320
0.9496091626409408,1,0.997691
0.9585349472356456,1,0.999338
0.96754537990432,1,0.999292
0.9478587365113872,1,0.999124
0.9675881064023583,1,0.999289
0.9588320202283273,1,0.998382
0.9575152820338854,1,0.996902
0.9666804337105566,1,0.999169
0.9551016391243919,1,0.996865
0.9491720602854248,1,0.998520
0.9353327517151394,1,0.999351
0.9423773290581766,1,0.991501
0.9446209573108425,1,0.998721
0.9385858432035944,1,0.999295
0.9498633605308248,1,0.999182
0.9623052136700756,0,0.913613
0.9555644595988029,1,0.998687
0.9559167339126878,1,0.998625
0.9498150772313382,1,0.995106
0.9396597102822006,1,0.998399
0.9475129689194719,1,0.999238
0.9524700066089055,1,0.999322
0.952114385997094,1,0.998414
0.9609913046633872,1,0.999295
0.9614736895381151,1,0.999203
0.9538291518088569,1,0.999417
0.9546878581503635,1,0.998541
0.9678472832561692,1,0.997599
0.969271549303902,1,0.998681
0.9607242629507817,1,0.996561
0.9514457626463011,1,0.996852
0.9633775743641023,1,0.998682
0.9547654149950972,1,0.997394
0.9495472487057979,1,0.999428
0.9515609489367333,1,0.999381
0.9401412491171501,1,0.999299
0.9133104648667024,1,0.999301
0.9392402792749621,1,0.999358
0.9517928867079835,1,0.997555
0.9568068038610786,1,0.998598
0.9531532005806812,1,0.988522
0.9626039469975157,1,0.998649
0.9460899924733197,1,0.997065
0.9478276420323564,1,0.998526
0.969694926916476,1,0.999315
0.9648954909830949,1,0.998537
0.9622943927194394,1,0.999151
0.9597902637225335,1,0.993371
0.9479739352062662,1,0.998498
0.9545591814202629,1,0.999350
0.9559471276377277,1,0.999098
0.958590271146211,1,0.994550
0.9628086872559043,0,0.985769
0.9628419964654834,1,0.998222
0.9622500004168136,1,0.999147
0.9532149883573865,1,0.997696
0.9640038887379361,1,0.999183
0.9617731830754361,1,0.987421
0.9348136594868104,1,0.997266
0.9538738207647313,1,0.998929
0.9639536174819487,1,0.999252
0.9378274359597113,1,0.998474
0.9613568003058246,1,0.992084
0.9586235884118225,1,0.998725
0.9638682390184355,1,0.997423
0.9466970196062082,1,0.998021
0.9413700916310093,1,0.999196
0.9570434636755443,1,0.999237
0.9527325964030284,1,0.999199
0.959078477093795,1,0.999249
0.9593395501230703,1,0.990110
0.9563840847501327,1,0.999199
0.9627029370371518,0,0.984375
0.9385887037822681,1,0.999165
0.9558413984457412,1,0.998195
0.9442964737062043,1,0.999083
0.931891506069816,1,0.997756
0.9510619603872792,1,0.997449
0.9447759505131742,1,0.998654
0.9616650931804025,1,0.998259
0.9525950058464682,1,0.999322
0.9521853030764655,1,0.999249
0.9623192686074443,1,0.999316
0.955871898589477,1,0.999316
0.9546262170815887,1,0.997678
0.9331310759371767,1,0.999240
0.9575035104242617,1,0.997712
0.9581336663482891,1,0.997606
0.9516219043768123,1,0.992867
0.950815417714415,1,0.998551
0.9518055463936614,1,0.998041
0.9584483206814453,1,0.999266
0.9546488102822129,1,0.998559
0.9463121973946987,1,0.994723
0.9492904418741107,1,0.999155
0.9538326680976273,1,0.998640
0.942522507908088,1,0.999238
0.94184194478705,1,0.999189
0.9504603907244022,1,0.999332
0.9614945922949236,0,0.989556
0.9571116868161644,1,0.999078
0.953439940031674,1,0.999202
0.9433180280199792,1,0.998467
0.9507541284222344,1,0.998598
0.9500207830762928,1,0.997999
0.9543035735775331,1,0.999286
0.9548085052060878,1,0.998309
0.9647673870884532,1,0.998677
0.9481684945072535,1,0.999266
0.9553394291139431,1,0.998440
0.9544053224345531,1,0.998981
0.9349304411767504,1,0.997596
0.9566334048754578,1,0.998344
0.9441741927346874,1,0.998730
0.959385595413811,1,0.999331
0.964195361804077,1,0.989583
0.9555401717950275,1,0.998122
0.9521702218927487,1,0.999276
0.9571267565169941,1,0.999101
0.9520483303844727,1,0.999151
0.9651613529355249,1,0.999244
0.9488023932463926,1,0.999339
0.9620627168403316,1,0.998817
0.959390682142052,1,0.999093
0.9533096579755707,0,0.981013
0.967143199992733,1,0.999088
0.9630522832221261,1,0.999309
0.9526653068727795,1,0.999311
0.9523248871598785,1,0.999309
0.9649636902967412,1,0.999326
0.9588624851067866,1,0.998466
0.9580232656432693,1,0.999092
0.9644502009633408,1,0.998616
0.9586456690834284,1,0.999330
0.9661847489297307,1,0.999127
0.9529917586279607,1,0.997391
0.9523417148986331,1,0.994764
0.9552356007175998,1,0.999370
0.9521652457145935,1,0.999219
0.9566478182162527,1,0.998235
0.9641323474085015,1,0.999361
0.9640205813022538,1,0.999283
0.9499538185930128,1,0.999404
0.9635781478691606,1,0.999326
0.9426393422658389,1,0.999285
0.9408872682669099,1,0.999343
0.9434487286830653,1,0.998588
0.9401661312427125,1,0.999248
0.9670313444638902,1,0.998410
0.9392415204290111,1,0.999360
0.9469804235677312,1,0.998741
0.9504697491872106,1,0.998512
0.9591402950515717,1,0.999120
0.9495389403175738,1,0.998492
0.9454117891089227,1,0.999167
0.9482005100697196,1,0.999353
0.9346056744271816,1,0.996601
0.9695240547698114,1,0.998650
0.9599796480493301,1,0.999051
0.9566554059795748,0,0.985016
0.962938094757777,1,0.999133
0.9480397533805726,1,0.999275
0.9371531348661888,1,0.999089
0.9598643539130346,1,0.994181
0.9529785271542998,1,0.999130
0.9609812694165213,1,0.998636
0.9376557637389812,1,0.999029
0.9369506836406972,1,0.998663
0.9454373426118474,1,0.998744
0.9583434175659389,1,0.999055
0.9588362100933358,1,0.997510
0.9515680750369588,1,0.999377
0.9485510465672928,1,0.997880
0.9586893025755452,1,0.999329
0.9527897595703874,1,0.998770
0.9529766597900927,1,0.998133
0.9472109887170517,1,0.998624
0.9651947408484465,1,0.999003
0.9505946475297427,1,0.998628
0.9361449996344305,1,0.999436
0.9666951544416458,1,0.999381
0.9510360345618339,1,0.999190
0.9541747254736336,1,0.999353
0.9430265786828017,1,0.998200
0.9525771139373637,1,0.999101
0.9511437402473791,1,0.998991
0.9551404151830458,1,0.994863
0.9641708725394283,1,0.998354
0.9444282445257784,1,0.999223
0.9427247204407485,1,0.999095
0.9462599937647859,1,0.999167
0.9434983377757895,1,0.997183
0.9542923754846447,1,0.999278
0.946419605714127,1,0.999035
0.9427040156128269,1,0.999160
0.9612552346054036,1,0.999244
0.9505847478819518,1,0.999322
0.9495511836112148,1,0.998675
0.9471347215150979,1,0.999326
0.9593519007819838,1,0.999251
0.9479852081394367,1,0.998536
0.9496681273537598,1,0.994885
0.9456581528565173,1,0.999263
0.9347630337775964,1,0.999156
0.9514428735385199,1,0.999289
0.9172321817113045,1,0.998066
0.9425784896474971,1,0.998498
0.9509689416845966,1,0.999357
0.9498466055557481,1,0.998841
0.9587539372464179,1,0.999226
0.9589263580397356,1,0.999273
0.9296822186608072,1,0.997226
0.9501273623903512,1,0.999208
0.9443121598268928,1,0.999231
0.9481035906118533,1,0.998650
0.9505799645524398,1,0.999131
0.9329703521222679,1,0.998700
0.9302267403120615,1,0.999262
0.9553035269013631,1,0.989328
0.954781548631347,1,0.998465
0.9412716089511898,1,0.999048
0.9424263871293613,1,0.998886
0.9567365202439838,1,0.998973
0.9451812182311843,1,0.998053
0.9507816575343547,1,0.997809
0.9465070368756142,1,0.999304
0.9585501037885422,1,0.998265
0.959893264943174,1,0.998143
0.967054239740444,1,0.997669
0.9616148311468642,1,0.999214
0.9617677715322293,1,0.993795
0.9598432795413683,1,0.994669
0.9628302948749466,1,0.999334
0.9728909281823049,1,0.999325
0.9647278267687448,1,0.999276
0.9555568127465165,1,0.999249
0.9483426072414527,1,0.999251
0.9364206766772103,1,0.998351
0.9384533338445478,1,0.997863
0.9477586658449259,1,0.998724
0.9444711875346347,1,0.998660
0.9610946000296196,1,0.998111
0.9567465699770715,1,0.998957
0.9524659006477398,1,0.994709
0.9536536906718015,1,0.995033
0.9504976535681522,1,0.998706
0.9463745736692216,1,0.997937
0.9574056728233312,1,0.998752
0.9516802738167229,1,0.998737
0.9517806072612124,1,0.999352
0.9524401110640595,1,0.999324
0.949746902739013,1,0.997760
0.9504815338034901,1,0.998433
0.9414442167871344,1,0.999097
0.944561355558451,1,0.998069
0.9540189090539342,1,0.999158
0.9624590420610101,1,0.999282
0.9523471886621645,1,0.999314
0.9566649377599562,1,0.998093
0.9495604649730728,1,0.998585
0.9547160124418148,1,0.999069
0.9623021621648922,1,0.998832
0.9396193988213828,1,0.999274
0.9422875904703877,1,0.999315
0.9508766719976454,1,0.999246
0.9584124977677515,1,0.999403
0.9539700712060069,0,0.990654
0.9429251763810101,1,0.999296
0.9291854333329247,1,0.999378
0.9451611862592558,1,0.999122
0.9342613230121717,1,0.994042
0.9567671470667493,1,0.999220
0.9528963816670682,1,0.999140
0.9338209650057269,1,0.999382
0.9519179266881752,1,0.999142
0.957153324170435,1,0.998532
0.9638925672933605,1,0.999165
0.9639708815047472,1,0.999051
0.9612520682212671,1,0.999032
0.9621769167563152,1,0.999323
0.9510690911468755,1,0.998451
0.9586111210648965,1,0.998914
0.9508379714625711,1,0.999174
0.9659937367359765,1,0.999322
0.9488400245379738,1,0.997326
0.9484159729876217,1,0.997740
0.9604003650451416,1,0.997317
0.9533670596146359,1,0.999131
0.9448156315370154,1,0.997904
0.9623744713117348,1,0.998953
0.9418899555233431,1,0.998810
0.9386399256001131,1,0.998972
0.947555852802501,1,0.999210
0.9528217740181536,1,0.998474
0.9334653541694343,1,0.999105
0.9571753686016437,1,0.999328
0.9565274427309591,1,0.993730
0.9526511770614292,1,0.998551
0.9476892141436668,1,0.997146
0.9586830539659458,1,0.999147
0.945820213129926,1,0.999099
0.9536287688162473,0,0.954635
0.9555686948336751,1,0.999058
0.9453178009865092,1,0.999382
0.9513889426958704,1,0.993042
0.9477729292143224,0,0.990705
0.9464061186984167,1,0.999158
0.9511454856164824,1,0.995509
0.948729395529521,1,0.998276
0.9528121863178203,1,0.994364
0.9596080207906625,1,0.995459
0.9582156030580558,1,0.999347
0.9442994701863623,1,0.996869
0.9602546513696654,1,0.996355
0.9612590969828477,1,0.998821
0.962554041871366,1,0.997305
0.9542245126791858,0,0.959924
0.950079435615855,1,0.999095
0.9581476579538138,1,0.999349
0.9483495039894545,1,0.999140
0.9488312660777976,1,0.999188
0.9541271364381305,1,0.999329
0.9479459172081169,1,0.999304
0.9473651613566277,1,0.999342
0.9515580356783946,1,0.997710
0.9566478935995957,1,0.999345
0.9573205935991598,1,0.999333
0.9602373211721444,1,0.999245
0.9485268092908962,1,0.999462
0.9328955696778142,1,0.998836
0.9525692695262126,1,0.999419
0.9495747487515592,1,0.999419
0.953846248884066,1,0.995219
0.9500104664777328,1,0.998743
0.9600844717184422,1,0.999386
0.9568120127256522,1,0.999348
0.942265614742489,1,0.998756
0.9606217724465772,1,0.998975
0.9527741056722777,1,0.998668
0.9295317103928545,1,0.997531
0.9412072565818601,1,0.997871
0.9505903803852201,1,0.999227
0.9495243913019239,1,0.999355
0.9464203658701171,1,0.999283
0.9413522691775014,1,0.996700
0.9311717661701947,1,0.999299
0.9496272168787907,1,0.999224
0.9695757543700809,1,0.999403
0.952067711316354,1,0.998993
0.9626465367631565,1,0.998922
0.9643416474964132,1,0.997878
0.9311940542020781,1,0.999091
0.9547439404234771,1,0.998579
0.944350737500034,1,0.999305
0.9511187874216135,1,0.999266
0.946604929128494,1,0.998257
0.9377614039407323,1,0.999440
0.935322043221895,1,0.999321
0.9559832938091257,1,0.999257
0.9569207048538902,1,0.997774
0.9604658601228997,1,0.999369
0.9473275046641346,1,0.999259
0.9589310230627837,1,0.999322
0.948040222387242,1,0.998628
0.9474260254598985,1,0.998669
0.9623657423395061,1,0.999379
0.9588507584582777,1,0.999380
0.9618809987857909,1,0.997743
0.9572302814930927,1,0.999366
0.9540935132152216,1,0.999335
0.9494487710241538,1,0.999452
0.9512584213103457,1,0.998477
0.9578688494149689,1,0.998172
0.9506426413824025,1,0.996377
0.9467600341873286,1,0.998774
0.9589036278887507,1,0.999185
0.9548469055990179,1,0.998098
0.9528637377235624,1,0.996973
0.9468414205064007,1,0.999399
0.935461484612538,1,0.999394
0.9591980516744504,1,0.999092
0.9546227635881908,1,0.997848
0.9496834819433259,1,0.999254
0.9561397625031921,1,0.998503
0.9406811900605038,1,0.998819
0.9581563204271636,1,0.999260
0.944074857987467,1,0.999300
0.9673798126533719,1,0.998542
0.9528871450737139,1,0.999319
0.9440778103909343,1,0.999257
0.9375646946656364,1,0.997367
0.9469540898738389,1,0.998845
0.9544900437018374,1,0.999325
0.9292206684289055,1,0.999281
0.9577066698050031,1,0.999400
0.9509095439347925,1,0.999418
0.9570611211133229,1,0.998822
0.9579361309953307,1,0.999306
0.9694403193905665,1,0.995399
0.9565452339953167,1,0.998395
0.9597153877188681,1,0.995360
0.9543298356854188,1,0.998020
0.9485217172896313,1,0.998285
0.9535819027964144,1,0.998386
0.9643650127622205,1,0.995830
0.933624345197759,1,0.999285
0.9542975139235834,1,0.999351
0.9381743788916894,1,0.997029
0.9494911391675903,1,0.997797
0.9394349368333148,1,0.999431
0.9413963601416794,1,0.998101
0.9569595987095965,1,0.998282
0.9502720177066442,1,0.996457
0.9302050368554549,1,0.998789
0.9615417033153527,1,0.999249
0.9359606637273562,1,0.999267
0.9385721353771791,1,0.999329
0.9648036249157753,1,0.998765
0.9611142939202425,1,0.997851
0.9577855173426251,1,0.999351
0.9687051474403346,1,0.999243
0.9566156238449377,1,0.999321
0.970449032303021,1,0.999225
0.951280134057675,1,0.998661
0.9385756732051423,1,0.999263
0.9374214047673688,1,0.998186
0.9511433766533656,1,0.999394
0.9579521502742364,1,0.999343
0.9513966739359421,1,0.999366
0.9446166401567194,1,0.995395
0.9484629626620962,1,0.999468
0.9484252697598751,1,0.998675
0.9512321675397423,1,0.999108
0.9647478425173425,1,0.999116
0.9534940993531008,0,0.983763
0.9527916329345852,1,0.998668
0.9443238968903009,1,0.998660
0.9380121070721636,1,0.999295
0.946702568437521,1,0.998707
0.9557972381922265,1,0.998431
0.9559157567564854,1,0.998038
0.9530566932737307,1,0.999442
0.9471685312559116,1,0.996296
0.9610159405567442,1,0.999381
0.9446418910204472,1,0.996735
0.9502238478775237,1,0.999339
0.9456702290782373,1,0.999395
0.9526977342867744,1,0.999270
0.9460771152131725,1,0.999085
0.9484338838497792,1,0.999343
0.9594059719131202,1,0.993776
0.9480414148904508,1,0.999353
0.9498384259423799,1,0.998496
0.94694126890828,1,0.999414
0.9493184323124976,1,0.999077
0.9461895662649036,1,0.999405
0.94355148264338,1,0.999093
0.9639367075015784,1,0.999203
0.9622109902328155,1,0.997664
0.9387951064571213,1,0.999331
0.9437018379185766,1,0.997234
0.9495201057680243,1,0.999379
0.9573672930248912,1,0.999258
0.9444135787827884,1,0.999401
0.9297431552945168,0,0.991930
0.9325045583949432,1,0.999070
0.9508143352380448,1,0.999250
0.9308949154049551,1,0.998299
0.9349146093156785,1,0.999311
0.9470061319381758,1,0.998668
0.9573049851618038,1,0.999272
0.9616763763001114,1,0.999349
0.9646185248910975,0,0.946642
0.9612457424756725,1,0.996321
0.9563388683848826,1,0.998792
0.9422827688946749,1,0.999331
0.9328614252274792,0,0.978566
0.947553594004945,1,0.999381
0.9468194442503204,1,0.999313
0.9295597946097098,1,0.999290
0.9479428630062056,1,0.999281
0.9509659888452644,1,0.999244
0.9592679917616473,1,0.996894
0.9609256570362249,1,0.999311
0.9598521793083857,1,0.999102
0.953659847822339,1,0.999354
0.9528201388157288,1,0.998859
0.9346368727005149,1,0.994685
0.9544095671705717,1,0.999124
0.9393234940616608,1,0.994667
0.9576388903593965,1,0.998690
0.9640167846177516,1,0.998638
0.9395277979879154,1,0.998096
0.95122039729488,1,0.999366
0.9628177311482113,1,0.999309
0.9536839075140864,1,0.999061
0.9598806358684633,1,0.999425
0.9294625149085244,0,0.978325
0.9354955166345134,1,0.999407
0.9322338310284595,1,0.999323
0.9195002963362493,1,0.999370
0.9584195664025419,1,0.999381
0.9655370971359228,1,0.998638
0.9531360479773668,1,0.999372
0.9592380150844042,1,0.999324
0.9575294360651468,1,0.999184
0.9514598861969463,1,0.999308
0.9559562586933407,1,0.999327
0.9576323958494487,1,0.999264
0.9424798356793428,1,0.999350
0.9510006443758857,1,0.998077
0.9393550852282517,1,0.999374
0.9656844861631636,1,0.997932
0.9508700227922906,1,0.997788
0.9665473295323767,1,0.999217
0.9568759053150778,1,0.998610
0.9526014017204341,1,0.999119
0.9664962558644787,1,0.999229
0.9610452127791848,1,0.999303
0.9618856419497896,1,0.999366
0.9572613341015783,1,0.999136
0.9524004942265222,1,0.998639
0.9673067325469423,1,0.999336
0.9599717818712298,1,0.999284
0.9503148550614531,1,0.997374
0.9537693113726092,1,0.999184
0.9474733025485949,1,0.998864
0.9571643642787528,1,0.992200
0.9512512335243997,1,0.995614
0.9643505738262196,0,0.965066
0.9512121901956464,1,0.999331
0.9660401576437824,1,0.994517
0.9645836259998123,1,0.998654
0.9732997171529487,1,0.999078
0.9505298504672564,1,0.998004
0.9715275719528196,1,0.999216
0.9619431888644974,0,0.983564
0.9522927646633585,1,0.997571
0.9576690291055913,1,0.998760
0.9624906074660424,1,0.997658
0.9498756493697053,1,0.999311
0.9478837091264608,1,0.993367
0.9510347787445054,1,0.999242
0.9615638539725625,1,0.991843
0.9534305767947411,1,0.999090
0.9747876916317204,1,0.997692
0.9638810692334897,1,0.998478
0.953127142342346,1,0.998381
0.9518814903413717,1,0.999159
0.9496572683202424,1,0.999433
0.9443672753719053,1,0.998583
0.9357996573113636,1,0.999316
0.9621554337161258,1,0.999349
0.9624010378548057,1,0.998451
0.9505139535183856,0,0.985915
0.954841319434447,1,0.993797
0.9441246745312437,1,0.998319
0.9443844574283744,1,0.998625
0.9640992681772963,1,0.998319
0.9574437783994697,1,0.999384
0.9555549238998015,1,0.995665
0.9689813895485209,1,0.999336
0.9658653783364073,1,0.998950
0.9636696046934238,1,0.999379
0.9469061991047228,1,0.999333
0.9544227351655611,1,0.999047
0.9445078038354663,1,0.999345
0.9673915481576353,1,0.999276
0.9367098713332536,1,0.998751
0.9469494996735169,1,0.999365
0.95190227037114,1,0.999103
0.9340916226084246,1,0.999097
0.9637743766493595,1,0.999252
0.9486797801646604,1,0.999303
0.9456605681749278,1,0.998623
0.9394202461995402,1,0.999210
0.9490587841648336,1,0.999204
0.9581852184483582,1,0.997627
0.9490540885589173,1,0.994709
0.951366510741882,1,0.999097
0.9570625333452105,1,0.998583
0.9584858898493306,1,0.999221
0.9347083388672235,1,0.999378
0.9574900173983445,1,0.997013
0.9569385918290295,1,0.996939
0.9533945769080845,1,0.995875
0.9389786102248812,1,0.999236
0.9498419490997627,1,0.998527
0.9589204407647011,1,0.998354
0.9471890570821521,1,0.995977
0.9479678432872707,1,0.999255
0.938029735402926,1,0.997744
0.9505806872413866,1,0.999389
0.9559088604712419,1,0.998685
0.9391535219940924,1,0.999377
0.9536234280065065,1,0.999425
0.9459608168715542,1,0.999410
0.9627150938351621,1,0.999391
0.9450305856119843,1,0.999428
0.9680690072791538,1,0.997602
0.9537343443855508,1,0.995968
0.9494987255618514,1,0.999305
0.9500155125884797,1,0.999276
0.9433514658415784,1,0.999280
0.9438470635176525,1,0.999360
0.9483153860096554,1,0.999292
0.9668115966441422,1,0.999280
0.9537925962919697,1,0.999165
0.9369726674240939,1,0.998779
0.9344728064699265,1,0.999077
0.9430605561509184,1,0.999381
0.9472907087698519,1,0.999261
0.9478681001270455,1,0.999426
0.9536778415711874,1,0.997647
0.9465186988451941,1,0.999332
0.9444128398235954,1,0.997840
0.9460733460094716,1,0.999435
0.9363549703166003,1,0.999355
0.961967523821638,1,0.998436
0.951257545018003,1,0.998330
0.9427026814412501,1,0.999294
0.9511916928528954,0,0.989817
0.9494393397688881,1,0.999356
0.9528222539074541,1,0.998872
0.9574908062482316,1,0.999187
0.9512679413658758,1,0.997995
0.9371431667601203,1,0.999152
0.9708119617014549,1,0.998516
0.9639533052202665,1,0.999240
0.9587823603183208,1,0.998451
0.9569502970214998,1,0.998708
0.9555581849011632,1,0.995352
0.961146455349732,1,0.999360
0.9506822671089933,1,0.998598
0.9610658041828514,1,0.999145
0.9451123882971726,1,0.997485
0.9435696366791326,1,0.997656
0.9567615943594839,1,0.997963
0.9684864103794552,1,0.999389
0.9533229410195276,1,0.999283
0.9561699416474636,1,0.999257
0.9569402683758239,1,0.999083
0.9528219912030825,1,0.999339
0.9542165707231564,1,0.999117
0.9458218294851123,1,0.998534
0.958625737857658,1,0.999228
0.9507814822704987,1,0.998666
0.9404563927390726,1,0.998299
0.9607069917127341,1,0.997512
0.9553933567675652,1,0.998170
0.956761822551623,0,0.944828
0.9622678172059654,1,0.998695
0.967529411378762,1,0.999124
0.9497406551230902,1,0.999296
0.9605607707273446,0,0.970137
0.9475514679019991,1,0.999395
0.9237919755315753,1,0.999361
0.9367315336694254,1,0.999122
0.9476530026952179,1,0.998219
0.9574259493456111,1,0.998845
0.9425124218548397,1,0.997738
0.9416354964815755,1,0.999110
0.9313553441822296,1,0.999355
0.9464982069250526,1,0.998495
0.9514127081852349,0,0.981723
0.9640867685170219,1,0.999257
0.9626977824161643,1,0.999130
0.9529058547170899,1,0.999238
0.9520382184939254,1,0.999253
0.9490156251972692,1,0.998157
0.9574302982612818,1,0.998238
0.9549829230861799,1,0.998613
0.9672339502237591,1,0.998574
0.9500624375706826,1,0.999331
0.9368316569405251,1,0.999264
0.9541004185912968,1,0.998608
0.9531033681038314,1,0.992740
0.9490279275048344,1,0.997705
0.9441812399963421,1,0.999342
0.943747871603071,1,0.998621
0.9396218514962058,1,0.999344
0.9288487197979672,1,0.998425
0.9346477990751687,1,0.999059
0.9571727485648549,1,0.999422
0.9438809494452426,1,0.998697
0.9507496173634095,1,0.999265
0.9272873831111537,1,0.994673
0.9550423240097646,1,0.999101
0.9438423960576937,1,0.998253
0.9517877517234441,1,0.999144
0.9441882496888367,1,0.998519
0.9583718907451247,1,0.998800
0.9590629280617227,1,0.999400
0.94481906532426,1,0.999281
0.9414327647091091,1,0.998773
0.948097561580498,1,0.996088
0.9253733274612556,1,0.998186
0.9495979354259829,1,0.999315
0.9537625880744863,1,0.999230
0.9474337769086745,1,0.997598
0.9327175399340379,1,0.999365
0.9478553296448278,1,0.998811
0.9594756504524306,1,0.999282
0.9466588484125094,1,0.997442
0.9581155062229036,1,0.999081
0.9525185012010691,1,0.998776
0.9283037487417544,1,0.999319
0.9458656190216287,0,0.983523
0.9516683446236774,1,0.999131
0.9405849827293802,1,0.999261
0.920044682740124,1,0.999187
0.9458746780405205,1,0.999307
0.9658697086272441,1,0.999347
0.9537744519636062,1,0.998609
0.9547787273550531,1,0.998641
0.9631385071141499,1,0.999382
0.9535435764602335,1,0.992441
0.9468865168347597,1,0.999367
0.9665378363961092,1,0.999264
0.9549716571132044,1,0.998726
0.9594174737219419,1,0.999388
0.9492721119549437,1,0.999389
0.9428325158928208,1,0.999398
0.9483962990158002,1,0.996294
0.9437721952199478,1,0.999110
0.9594176382991926,1,0.991788
0.9504309891293021,1,0.998844
0.9488352445666492,1,0.999418
0.9512685411846232,1,0.998717
0.9506370425139251,1,0.998792
0.9429622781320974,1,0.996838
0.9606640431453912,1,0.999184
0.9562637496205707,1,0.998659
0.9657007204172295,1,0.999344
0.9590452625012562,0,0.985114
0.9718216023830563,1,0.999348
0.954319336489746,1,0.999328
0.9720422353583394,1,0.999303
0.9532931770462467,1,0.999401
0.9283114366478195,1,0.999350
0.9515706038370181,0,0.984603
0.957199053527957,1,0.999211
0.9608182264961931,1,0.997131
0.9404982665778918,1,0.994990
0.9612521038803818,1,0.999147
0.9619398168101297,1,0.997715
0.9555152795941291,1,0.995081
0.9495327962784726,1,0.998880
0.9678320767483317,1,0.998693
0.9542974957268312,1,0.998585
0.9574954798351305,1,0.999264
0.9616637558551188,1,0.999257
0.9657089060717245,1,0.999448
0.9442570240531708,1,0.998711
0.9591105506625565,1,0.999341
0.9289463979827116,1,0.998918
0.940733137944605,1,0.998526
0.9387616641013494,1,0.997008
0.9594196051284257,1,0.997494
0.9444933895616758,1,0.999437
0.9377724433225152,1,0.999332
0.9542567961710349,1,0.996880
0.949855595712507,1,0.997266
0.9422723857959229,1,0.999366
0.9598773305313978,1,0.999448
0.9459591952046389,1,0.999250
0.9606613221705944,1,0.999373
0.943515103146261,1,0.999448
0.9590977892588669,1,0.998618
0.9492082087944502,1,0.999295
0.94732804937646,1,0.998978
0.9500262163260839,1,0.998416
0.9410088370692362,1,0.999399
0.9423643267328267,1,0.996454
0.9513416177645508,0,0.977537
0.9452239599821443,1,0.999413
0.9468201875510244,1,0.997967
0.9574589996209844,1,0.999161
0.9485768305151175,1,0.997683
0.9573581342677521,1,0.998231
0.9549455394982462,1,0.999430
0.9599749633816452,1,0.999403
0.9583255336184369,1,0.996534
0.9695812257265353,1,0.998786
0.9541247370964119,1,0.999254
0.9435811215929005,1,0.998009
0.9629172324826041,1,0.998146
0.9581708548470815,1,0.999335
0.9666217839092454,1,0.996953
0.949913229717045,1,0.999204
0.9280840439612387,1,0.999396
0.956359879068208,1,0.998743
0.9516885392603612,1,0.999267
0.9677141547367352,1,0.999297
0.9524416012299776,1,0.995763
0.9613534648472195,1,0.996637
0.9624997046848145,1,0.999394
0.9456975476793145,1,0.999360
0.9602027426044047,1,0.999357
0.9508217617980929,1,0.999342
0.9604809492557385,1,0.999354
0.9530736695914735,1,0.996525
0.9469880059483914,1,0.999352
0.955576860107,1,0.999193
0.9426749299190716,0,0.992160
0.9657619783357194,1,0.996790
0.9399250296838728,1,0.996708
0.9756977269957368,1,0.999467
0.9706864919503225,1,0.998985
0.9641298211872031,1,0.996883
0.9471473532553718,1,0.998973
0.9603555892670989,1,0.999395
0.9628542751412845,1,0.999132
0.9475630851858308,1,0.999068
0.9500851576053567,1,0.995179
0.9659516250376801,1,0.998433
0.9613878431621833,1,0.999255
0.9579159094900752,1,0.999122
0.9541236912765576,1,0.993117
0.9613644732594817,0,0.980749
0.9492674943700574,1,0.999334
0.9560320023923007,1,0.998165
0.9615229363259042,1,0.996103
0.9480139425278669,1,0.999412
0.9580827633307422,1,0.999155
0.9532987886517996,1,0.999105
0.9549297064181231,1,0.999292
0.9423683078653913,1,0.997138
0.9631907014407151,1,0.998824
0.9611261232310191,1,0.997965
0.9496058598829968,1,0.998893
0.9482232909499105,1,0.999453
0.9724066871570121,1,0.999345
0.9425970943426067,1,0.999251
0.9489417259854193,1,0.999172
0.9569009204274035,1,0.995748
0.9590028773668151,1,0.997227
0.9559484381083564,1,0.997635
0.953382380827773,1,0.999228
0.9426900350807405,1,0.999303
0.9552231324398508,1,0.999127
0.9606079532378666,1,0.996810
0.9641206897317967,1,0.997015
0.9729146708605082,1,0.999165
0.9541006732393964,1,0.999140
0.9689498653955252,1,0.999366
0.9642083482493964,1,0.998295
0.9494958366315525,1,0.999451
0.9671289763531884,1,0.998671
0.9554002193869445,1,0.999303
0.9413999293699837,1,0.999285
0.9467085991574214,1,0.998656
0.9444591420851937,1,0.999458
0.9558996782713088,1,0.999222
0.9581079515561038,1,0.997683
0.9620332445596846,1,0.999331
0.9587533424721598,1,0.993338
0.9586351865186744,1,0.999097
0.9538623205993447,1,0.999294
0.9573235095352038,1,0.998938
0.9550998309036277,1,0.999197
0.9546863921677257,1,0.999098
0.9676068766602856,1,0.995752
0.9678324222708989,1,0.998897
0.9709617276277419,1,0.998090
0.9665521783976572,1,0.999353
0.9656395224742692,0,0.988596
0.9476058546424808,1,0.999338
0.9354359948834864,1,0.998331
0.9636439125489009,1,0.998615
0.9625130257958715,1,0.999367
0.9645814432606145,1,0.997792
0.9646535297693876,1,0.999364
0.9694139945560005,1,0.999478
0.962357796793824,1,0.995578
0.9649486387238961,1,0.998856
0.9584843017397832,1,0.997886
0.9639810733069678,1,0.999234
0.9430249983577179,1,0.999328
0.9489712122532459,1,0.999459
0.9695924870762528,1,0.996431
0.9541137750258669,1,0.998874
0.9592703199193717,1,0.999244
0.9431158551425136,1,0.998639
0.9702675231789768,1,0.998403
0.9512829873028518,1,0.998217
0.9305005251847376,1,0.998914
0.9625483914333153,1,0.999407
0.9681588091080946,1,0.999441
0.955614162573316,1,0.999159
0.9572820338657382,1,0.999318
0.9542074227668228,1,0.999179
0.9641975772960978,1,0.999375
0.9439473306177608,1,0.999253
0.9664680503701412,1,0.999297
0.9650932116573041,1,0.999387
0.9506550793217813,1,0.999374
0.9599606624134039,1,0.998598
0.9499392549058217,1,0.999353
0.9561070776184031,1,0.999335
0.9548244755054641,1,0.998833
0.9545098826956442,1,0.999388
0.9599409459286511,1,0.999383
0.9424597137623931,1,0.998180
0.9617289039375004,1,0.999401
0.9686270870955985,1,0.999289
0.950350074338343,1,0.998744
0.9660361074687184,1,0.999328
0.9672972104377299,1,0.998313
0.966457300654261,1,0.999101
0.948619044258693,1,0.999175
0.9468668536302894,1,0.996956
0.9664675462528297,0,0.985179
0.9582752424290993,0,0.988798
0.9643951553110924,1,0.999164
0.9648089696792952,1,0.997859
0.9576653353805753,1,0.998176
0.9690309551213477,1,0.998646
0.9557299466437473,1,0.999296
0.9675653184984158,1,0.999311
0.9564405913579024,1,0.998753
0.9582552935286468,1,0.998350
0.9493428624066588,1,0.998607
0.9706647728918474,1,0.998996
0.9572267303215037,1,0.998156
0.971121314953916,1,0.998336
0.9564400771208947,0,0.982826
0.9662767604875768,1,0.998414
0.9558704213896012,1,0.999174
0.964884088025946,0,0.977099
0.9687109039947838,1,0.997944
0.9513583266211952,1,0.997517
0.9603437660979931,1,0.999403
0.9636952856599302,1,0.998513
0.957873305767585,1,0.999328
0.9629189294583929,1,0.998656
0.960165965018366,1,0.999378
0.9533224031699966,1,0.998723
0.9573018889538241,1,0.998539
0.9531901486635074,1,0.998225
0.9713822804378632,1,0.999349
0.9444090297708574,0,0.990954
0.9537760713480969,1,0.998544
0.9607547522139082,1,0.994586
0.9627460730407496,0,0.989875
0.9681315730373392,1,0.999439
0.9600044015683262,1,0.996403
0.9492729640137395,1,0.999374
0.9579658155064511,1,0.998756
0.9615496595210702,1,0.999354
0.9610580417618945,1,0.998505
0.949267242615334,1,0.999246
0.9516415777990349,1,0.999209
0.9606020177103763,1,0.999176
0.9550575986641451,1,0.997027
0.9646781214224304,1,0.998485
0.9615158605382137,1,0.996930
0.9709109370271038,1,0.998293
0.968676553534936,1,0.997683
0.9525187842938657,1,0.998706
0.948672817833982,1,0.999211
0.9505286147178127,1,0.999356
0.9496481948129193,1,0.999406
0.9659491478403712,1,0.997734
0.9496821714091647,1,0.999374
0.95039993744262,1,0.999012
0.9544210534565294,1,0.998175
0.9643137338298934,1,0.999249
0.9602448396849974,1,0.999049
0.947972465224216,1,0.999332
0.9364997170749556,1,0.999158
0.9604839218706851,1,0.999264
0.9449320299824039,1,0.998724
0.9394361967310472,1,0.999343
0.9655818493889341,1,0.998344
0.9534078428133718,0,0.989524
0.947729049790813,1,0.999396
0.9681302725599434,1,0.997214
0.9573504499159015,1,0.999209
0.9548088030253321,1,0.998068
0.9622469336816901,1,0.999224
0.9590798272526742,1,0.996004
0.9597829863385778,1,0.999341
0.961218386174941,1,0.997820
0.9641710214190135,1,0.998603
0.9649872882324911,1,0.999306
0.9443640284501748,1,0.997658
0.952315824726529,1,0.999398
0.9453320885801357,1,0.999377
0.9634448293331138,1,0.997509
0.9627783468402719,1,0.999278
0.9350618153133395,1,0.998745
0.953890208467086,1,0.999307
0.961082563036227,1,0.997928
0.9640892730799625,1,0.999463
0.9475815917427315,1,0.999263
0.954487642266161,1,0.999273
0.9543794430531913,1,0.999274
0.9588388279597275,1,0.999367
0.9599181302561424,1,0.999178
0.9550914389701575,1,0.999364
0.9498136553119105,1,0.999296
0.9539672840973705,1,0.999315
0.9566370072382941,1,0.998733
0.9531460069518441,1,0.999419
0.9604895601283011,1,0.997596
0.9699772549708653,1,0.999184
0.9697990745040465,1,0.998278
0.9563317322077509,1,0.998581
0.9520161022655801,0,0.990947
0.9497501900402128,1,0.998026
0.9629675712184114,1,0.999222
0.9464219875777279,1,0.999348
0.9571747124994443,1,0.999428
0.9284571493240475,1,0.998906
0.9479687725677289,1,0.999317
0.9464142828813303,1,0.999341
0.9594911258467501,1,0.999290
0.9436060499061754,1,0.999371
0.9440869768605665,1,0.999372
0.9594395585463106,0,0.990755
0.9275932867252158,1,0.998063
0.9507883951750422,1,0.999401
0.9406728742802457,1,0.999416
0.9583277336633153,1,0.999342
0.9553296594789987,1,0.995781
0.9398633818436611,1,0.999370
0.9490219392791104,1,0.998342
0.9514334465997418,1,0.998527
0.9636575570391844,1,0.998217
0.9484561442662859,0,0.983871
0.9449669425706205,1,0.998474
0.9514463419850531,1,0.999408
0.9559328518137772,1,0.999502
0.9569507039254886,1,0.999385
0.947041239560886,1,0.997774
0.9422734089386208,1,0.999282
0.9520102279329306,1,0.995561
0.960600049255112,1,0.998557
0.9467365803486139,1,0.995857
0.9260519585759658,1,0.997763
0.9615012760197564,1,0.999469
0.953935080528827,1,0.999214
0.9342888839234804,1,0.998570
0.9592122784212433,1,0.999447
0.9299952036575531,1,0.999339
0.944996980061299,0,0.987129
0.9274015482991186,1,0.998465
0.9533567823506385,0,0.984787
0.9491415787706391,1,0.998907
0.9528687979624574,1,0.999266
0.9637244761619378,1,0.999367
0.9460843834395859,1,0.999292
0.9604659485801338,1,0.999299
0.9540746704678881,1,0.999333
0.9472362777433726,1,0.999350
0.9537367838958472,1,0.997884
0.9596688238745966,1,0.999206
0.9484041981558129,0,0.918713
0.9614470483764884,1,0.999363
0.9621539732108493,1,0.998990
0.9660312493348207,1,0.999136
0.9508012764434963,1,0.998210
0.9670880487984287,1,0.999160
0.9666766479532888,1,0.998113
0.958582084558731,1,0.999288
0.9643015632975475,1,0.999296
0.960807016901785,1,0.998450
0.9599462171076436,1,0.999093
0.9596140803636385,1,0.999182
0.9604796415833121,1,0.998671
0.9445474962369406,1,0.999254
0.9693273411312961,1,0.999213
0.9573584631664734,1,0.999336
0.9425961470571633,1,0.995714
0.9688480875075988,1,0.998780
0.9638719297860202,1,0.999325
0.9656913089950278,1,0.999178
0.9586711559174961,1,0.999300
0.9687562864392186,1,0.999043
0.9595354751510426,1,0.999169
0.9413372201501111,1,0.999300
0.960700530462692,1,0.998827
0.9603719212526823,1,0.999429
0.961878539011413,1,0.998409
0.9613322464094071,1,0.999365
0.9641714105212204,1,0.999445
0.9534572922473207,1,0.998742
0.943717548186471,1,0.998515
0.9409308382194831,1,0.999389
0.9434219892033731,1,0.999344
0.9582417844997051,1,0.999309
0.9512818251515722,1,0.998172
0.9500650517936021,1,0.999340
0.9528882868301324,1,0.998784
0.9537787034197591,1,0.998707
0.9631049898272708,1,0.999321
0.9559308454824885,1,0.998321
0.9684333739741784,1,0.999257
0.958378965475959,1,0.998755
0.9390585153252767,1,0.998637
0.9515141153790075,1,0.998155
0.9437848985776477,1,0.998358
0.937463996502984,0,0.990061
0.9668572027221146,1,0.993485
0.9593713013595091,1,0.999404
0.9516270078456391,1,0.999153
0.9519095978637232,1,0.999057
0.9408651564049535,1,0.994986
0.9214302667887307,1,0.997893
0.9500804490859744,1,0.999420
0.9445819954620189,1,0.994143
0.9339653460676224,0,0.985507
0.9265910586217214,1,0.999333
0.9503442537584229,1,0.999402
0.939503578599396,1,0.999273
0.9439717981240742,1,0.999202
0.9467435595566688,1,0.999147
0.9415163063908909,1,0.998240
0.9214916729513367,1,0.998669
0.9539089129798459,1,0.999336
0.9449603205313168,1,0.999372
0.9601693906764479,1,0.999350
0.9460632933826028,1,0.999319
0.947612675763107,1,0.999303
0.9572564243033007,1,0.999212
0.9440065198875136,1,0.999283
0.9443145334444855,1,0.993761
0.9591118262845997,1,0.999022
0.9603421017728153,1,0.999383
0.954928165029805,1,0.999319
0.954784698108579,1,0.999432
0.957612876782839,1,0.999389
0.9496880409295448,1,0.997391
0.9083278290240526,1,0.999413
0.9441239953072232,1,0.998122
0.9643770388013955,1,0.999349
0.9604079490025337,1,0.999403
0.9631921587411559,1,0.998347
0.9638121900114758,1,0.998140
0.9615712516850535,1,0.999405
0.9440259685044881,1,0.998062
0.9612753825933044,1,0.999401
0.9408399523155001,1,0.997896
0.9347244910158493,1,0.999147
0.9488949203475239,1,0.998775
0.9431425863935338,1,0.999275
0.9554883828046136,1,0.999329
0.9505826293694251,1,0.998355
0.9383932078203612,1,0.997995
0.9569149433514281,1,0.999367
0.9526305902306899,1,0.995444
0.9641401941377559,1,0.997163
0.9566424371403424,1,0.999088
0.945254314308377,1,0.999158
0.9422935673023135,1,0.999149
0.953267699789334,1,0.992767
0.9526823645103296,1,0.999178
0.9516693583814754,1,0.998783
0.9551609859274686,1,0.999307
0.9356879884059234,1,0.995819
0.9512772380628784,1,0.999359
0.9515571038760958,1,0.999304
0.9632482766341133,1,0.993578
0.9537627202634319,1,0.999220
0.9495659004535731,1,0.999044
0.9414305127220259,1,0.999263
0.9532734700258827,1,0.999411
0.9710732862222567,1,0.996956
0.8992158930365428,1,0.999188
0.9529448319404118,1,0.997906
0.9366350288921242,1,0.997122
0.9508625514158894,0,0.988131
0.9519555204949969,1,0.998845
0.91807219653903,1,0.998595
0.9214516756180797,1,0.990217
0.9223534055628801,1,0.999314
0.9337865694417986,1,0.999420
0.9624202498533625,1,0.999336
0.9204259978325937,1,0.999348
0.9438737834073239,1,0.999333
0.9526055232458116,1,0.999340
0.929651679806672,1,0.999314
0.9473630712106917,1,0.999314
0.9500990122332191,1,0.999354
0.9427240204850269,0,0.977127
0.9439755913582794,1,0.999254
0.9596339024603607,1,0.997441
0.9107793510260839,1,0.998627
0.9401223803235499,1,0.998528
0.9481056738759597,1,0.999238
0.950397030449993,1,0.999448
0.9577310208646169,1,0.999363
0.948383635948591,1,0.996843
0.9554291003409424,1,0.997531
0.960025398248617,1,0.998369
0.951852137962869,1,0.998579
0.9449901444421694,1,0.998782
0.9577934786058502,1,0.997872
0.9445328338253594,1,0.999450
0.9501421708940926,1,0.999430
0.9539672575219951,1,0.993965
0.9505416720968932,1,0.999379
0.9539424372593075,1,0.995708
0.9514604901903161,1,0.999301
0.9475497237389872,1,0.999466
0.9503265504734895,1,0.999389
0.9443951491039483,1,0.999209
0.9432495687055354,1,0.999431
0.9339212341728174,1,0.997465
0.9637351230732836,1,0.998131
0.9421741995463022,1,0.999173
0.9611881396387314,1,0.999247
0.9531978039598913,1,0.998855
0.9447142938057339,1,0.996566
0.9492364472025703,1,0.995649
0.9595080176020288,1,0.999367
0.9627641688873092,1,0.999253
0.9702343134431013,1,0.997627
0.9572950144527448,1,0.999311
0.948257994484297,1,0.999416
0.9594468367799333,1,0.999228
0.9702227608895062,1,0.999249
0.9616453506409602,1,0.998200
0.9586214007374491,1,0.999364
0.9571686090541482,1,0.999222
0.9560605923634873,1,0.999310
0.9477635497541596,1,0.994409
0.9376449818748477,1,0.999267
0.9596930609635026,1,0.998973
0.9403052481011189,1,0.997387
0.9546653226228287,1,0.999335
0.9428635950770927,0,0.962963
0.9643560016021988,1,0.999381
0.9376183363308055,1,0.999495
0.9567537627198356,1,0.994532
0.9574088637813424,1,0.998596
0.9589396083809438,1,0.999355
0.9589056398820098,1,0.999265
0.9599973612233036,1,0.999362
0.9465763024690524,1,0.999317
0.9511203642428896,1,0.999289
0.9539346913233451,1,0.999475
0.9510714196046941,1,0.998792
0.9470409170110595,1,0.999349
0.9494795769532455,1,0.999402
0.9383659233521263,1,0.999391
0.955605700972653,1,0.999302
0.9378995636832979,1,0.998093
0.9523002615418921,1,0.998374
0.9570669060598076,1,0.999218
0.9633554700471291,1,0.999392
0.9622313983262546,1,0.997561
0.9555666176674007,1,0.999030
0.9435679595488222,1,0.995183
0.9429735852750926,1,0.998834
0.9443725050540835,1,0.998379
0.9238389562284296,1,0.999250
0.9364996094995546,1,0.998782
0.9312008604800226,1,0.999383
0.9448828838890281,0,0.982094
0.9540484979566511,1,0.998074
0.9513513166335092,1,0.999398
0.9538844850888339,1,0.999300
0.9552788945956885,0,0.990654
0.9450574768540814,1,0.998808
0.9488785672579905,1,0.999379
0.9429163127903226,1,0.999273
0.9447777189083342,0,0.987256
0.9527085963389075,1,0.999177
0.9498235400426808,1,0.999320
0.9494208727017613,1,0.999286
0.9521298779005873,1,0.998863
0.9653145500949631,1,0.999346
0.9708529436262576,1,0.999323
0.953318320880062,1,0.999328
0.9373320133323114,1,0.999317
0.9422373208583256,1,0.999422
0.949331436586838,1,0.998697
0.9474794656715922,1,0.999442
0.9474867033988481,1,0.999241
0.9392046551377392,1,0.998775
0.9471533486095667,0,0.990670
0.9580912814009342,1,0.998420
0.9494947409699392,1,0.998117
0.9578082437800817,1,0.999379
0.9349365995015765,1,0.999254
0.9400621875249601,1,0.998164
0.9443528053872695,1,0.996747
0.9391607486138578,1,0.998681
0.9409914052271463,1,0.999210
0.9361493851462153,1,0.999369
0.9432683714299663,1,0.999387
0.9445544555288083,0,0.990161
0.9494719250752075,1,0.999371
0.9462146951023055,1,0.999480
0.9400516357368838,1,0.998696
0.9430351162412548,0,0.975891
0.9501509671917534,1,0.999312
0.9487706192918569,1,0.999375
0.9553510788514832,1,0.997640
0.9508157120929338,1,0.998230
0.9395657301735887,1,0.999362
0.9558435013994465,1,0.997959
0.9597119098742849,1,0.999275
0.9227975013217393,1,0.992985
0.9561621779903271,1,0.998049
0.9444349353002457,1,0.999372
0.9479043075589016,1,0.996057
0.9538473778605154,1,0.999196
0.9518884068140353,1,0.999298
0.9574166366903661,1,0.999346
0.9562721776194107,1,0.999388
0.9571850133965709,1,0.998696
0.9557425486683112,1,0.998729
0.9375276277217058,1,0.999245
0.9599740533849938,1,0.997826
0.9406747905760995,1,0.999378
0.9646966265884106,1,0.995268
0.9322594020443211,1,0.998634
0.9487625679475736,1,0.999315
0.9415480292273259,1,0.999282
0.9688032651554856,1,0.999235
0.9479584809735137,1,0.997883
0.9458121240023953,1,0.999343
0.9549946324179048,0,0.990686
0.9454059370930747,1,0.999372
0.9641188495224867,1,0.998323
0.935585644574491,1,0.996992
0.9555848331921403,1,0.997531
0.945387517579431,1,0.998179
0.9376041366159056,1,0.996833
0.9560453106002457,1,0.999363
0.9481979184471722,1,0.999255
0.943872068006812,1,0.998593
0.9524677696487572,1,0.997760
0.9342048518086351,1,0.999358
0.923275713136206,1,0.998084
0.9613900319895825,1,0.999297
0.9345639081534455,1,0.999269
0.9506812389156618,1,0.999348
0.9557970839899077,1,0.999322
0.949481296399073,1,0.999301
0.9365826965185217,1,0.999267
0.9504744676006115,1,0.998819
0.9405722598410038,1,0.999005
0.9456364848575818,1,0.999375
0.9358703165941167,1,0.999315
0.9530409962223173,1,0.999326
0.9394704362861915,1,0.999376
0.9398746080956466,1,0.998728
0.9212675499657828,1,0.995841
0.9085495873850026,1,0.999382
0.9606421364896668,1,0.998003
0.9371696972012152,1,0.998768
0.9464925030332241,1,0.998946
0.9503233361453369,1,0.999339
0.9367655760028893,1,0.998882
0.9510969986854746,1,0.998787
0.9569513803670684,1,0.999358
0.9590679454466984,1,0.999135
0.9569403055286385,1,0.999299
0.9600211218485357,1,0.998606
0.9474833559443397,1,0.999192
0.9433325335207187,1,0.999371
0.930669500895041,1,0.999394
0.9376340629840715,1,0.999373
0.9385171920026087,1,0.998963
0.9317321069422615,1,0.998915
0.9478167840153235,1,0.999386
0.9357598452415196,1,0.998778
0.9444991927203826,1,0.999439
0.9384634024209637,1,0.998873
0.9540864370583743,1,0.999432
0.9504774278337428,1,0.999373
0.9581905188044892,0,0.990593
0.9480298251088916,1,0.993399
0.9452440597314514,1,0.999323
0.9489097133175362,1,0.999369
0.9647171173526619,1,0.999424
0.944820642664751,1,0.999458
0.9628948529370631,1,0.999346
0.940480987633351,1,0.999335
0.9617033593297872,1,0.999162
0.9628426641366772,1,0.993816
0.9516807680640903,1,0.999396
0.9364942151213497,1,0.999334
0.9450800260635119,1,0.998967
0.9056431151441029,1,0.992126
0.9216513178430985,1,0.999349
0.9540177989944706,1,0.998720
0.9485147211820557,1,0.999185
0.9587704832832923,1,0.999451
0.9324527382251095,1,0.999329
0.9528700226459029,1,0.999418
0.9495706865112555,1,0.999384
0.9330366214550165,1,0.999285
0.9450962353322391,1,0.998559
0.9507890982336474,1,0.999362
0.9587818579519579,1,0.999402
0.9422706367751149,1,0.998197
0.9498480102361642,1,0.999127
0.9452934980170398,1,0.999302
0.9617638125756813,1,0.997234
0.9668077483527056,1,0.999377
0.9563570386501941,1,0.998826
0.9608830857383225,1,0.998621
0.9620752450757536,1,0.996825
0.9358498118968507,1,0.999421
0.9512369625505399,0,0.987825
0.9503222143947264,1,0.999426
0.9558753460183599,1,0.997722
0.9386428428865368,0,0.977099
0.970629171703729,1,0.998611
0.9470520755723218,1,0.997623
0.9458706943684436,1,0.997121
0.9332822208660128,1,0.998104
0.9379101667670336,1,0.999105
0.9392113935696008,1,0.998851
0.9298785836509943,1,0.996575
0.9384618497913549,1,0.999335
0.922842241832014,0,0.978216
0.9463017865872224,1,0.998876
0.9478850070129907,1,0.999374
0.9459470305687961,1,0.999372
0.9413105054815339,1,0.998215
0.9487131282394916,1,0.999317
0.9423609099693773,1,0.998607
0.9651071630445692,1,0.998421
0.9562858533552482,1,0.997408
0.9650888213574148,1,0.999373
0.964828011182605,1,0.999439
0.9511007290636312,0,0.990122
0.9408565687502072,1,0.999196
0.9268373903587047,1,0.999244
0.9466530981476845,1,0.999417
0.922897462694578,1,0.998824
0.953268293850292,1,0.999318
0.9380606383345869,1,0.999412
0.9325346230346824,1,0.998235
0.9364419890101755,1,0.998745
0.9381261099434544,0,0.987736
0.9300876551048156,1,0.999455
0.9532845184970403,1,0.999391
0.9578992971579323,1,0.998594
0.9597558158461922,1,0.999329
0.9291589035964668,1,0.998596
0.9393092995758772,1,0.999402
0.9376240393007522,1,0.997781
0.95653524074575,1,0.999330
0.9484611324803283,1,0.998219
0.9600805573630476,1,0.999306
0.9329626416202932,0,0.991679
0.9344506064646545,1,0.999351
0.956748427822116,1,0.999342
0.9243301001059232,1,0.999450
0.9456512619552685,1,0.998954
0.9356061288764078,1,0.996911
0.9358704494447462,1,0.991438
0.9370660402136656,1,0.995459
0.9461956478434387,1,0.999448
0.96269107321132,1,0.999398
0.9522795412183679,1,0.997738
0.9405959067346458,1,0.998765
0.9427386244250114,1,0.999153
0.9458659050187732,1,0.999415
0.9356987973354206,1,0.998842
0.962988392505006,1,0.999206
0.9537950962167879,1,0.999392
0.9463477121097648,1,0.998778
0.9426555680965746,1,0.999352
0.9478108410425882,1,0.999386
0.917434662246242,1,0.999150
0.9421644421198796,1,0.997617
0.932093988742668,1,0.999435
0.9287187018074352,1,0.999400
0.9449180421861478,1,0.999117
0.9502084527235174,1,0.996016
0.9304117445908356,1,0.999354
0.9355833024587967,1,0.996301
0.9458265371024851,1,0.998561
0.948862806348965,1,0.999217
0.9222283202792922,1,0.999208
0.9377990260084386,1,0.999211
0.9441019614762546,1,0.999404
0.9425372395019016,1,0.999432
0.9398954282669234,1,0.999198
0.9407468174296773,1,0.999253
0.9394383991324629,1,0.999270
0.9450197835098372,1,0.999370
0.9240407488535477,1,0.999409
0.9282325881794001,1,0.994616
0.9524699153440045,1,0.998810
0.9468427208641371,1,0.999382
0.9430582292559467,1,0.998810
0.9546239886341169,1,0.999147
0.9434928821534297,1,0.998429
0.9514934286915957,1,0.999248
0.9276738463861895,1,0.997666
0.938257846978938,1,0.999356
0.9515768271763759,1,0.999376
0.9355279195968226,1,0.998308
0.9372609113920046,1,0.999268
0.939473130641251,1,0.999231
0.9399205905266917,1,0.999283
0.9472383346395052,1,0.998547
0.9549666465381758,1,0.999332
0.9401127593555594,1,0.998741
0.9565919007428558,1,0.999195
0.9443088969744386,1,0.999377
0.9596847209131961,1,0.999036
0.9553011165664401,1,0.999429
0.9340773863531161,1,0.998661
0.9514975251354488,1,0.999294
0.9322897373489157,1,0.997985
0.9515271179935004,1,0.999312
0.9392043597279005,1,0.999320
0.9530312714149725,1,0.999300
0.9420285278432152,1,0.999264
0.9402697221963867,1,0.998721
0.9438267718069387,1,0.998645
0.9450429510343661,1,0.997312
0.9481233738314044,1,0.998426
0.9456250024350538,1,0.999280
0.9437394146934455,1,0.999382
0.948909515766296,1,0.999377
0.931343307383465,1,0.999274
0.9421050666560075,1,0.999231
0.9355498243671948,1,0.999394
0.9436039160794291,0,0.983947
0.936833605840005,1,0.999412
0.9296333961024724,1,0.999342
0.940522761052189,0,0.988523
0.9467043892976459,1,0.999348
0.9483605786960718,1,0.999335
0.9475810658505046,1,0.998467
0.9505632882441157,1,0.999360
0.9563842975924172,1,0.999273
0.9443050105644024,1,0.998670
0.9448887150743416,1,0.999408
0.931247164110881,1,0.998256
0.9426631141057191,1,0.999295
0.9220864751967955,1,0.997008
0.8873763544572377,1,0.998849
0.9469377830471807,1,0.999377
0.9505559543291967,1,0.999141
0.9461000655309881,1,0.999241
0.9299830172377392,1,0.999219
0.946235598468734,1,0.996934
0.9499278670605984,1,0.998894
0.956988998027375,1,0.999370
0.928894446814988,1,0.997270
0.9498936750592264,1,0.998799
0.9385655561851047,1,0.999345
0.9280272128693234,1,0.998922
0.9028226116454872,1,0.997539
0.956374389326712,1,0.994511
0.9275614237961601,1,0.998079
0.9445718132375914,1,0.998812
0.9435020820762049,1,0.997853
0.9496807783975783,1,0.998509
0.9370125373326604,1,0.999407
0.9217653888648727,1,0.999424
0.9365809384617955,1,0.993263
0.9411478284202416,1,0.999472
0.9370592950703475,1,0.998853
0.9207267347198208,1,0.999408
0.9384445827950672,1,0.999398
0.929000271013869,1,0.998821
0.9354429795951994,1,0.999130
0.9079819704018268,0,0.990453
0.9468716096444487,1,0.991817
0.9169542656816355,1,0.999311
0.9213318777864445,1,0.999438
0.9486401651675372,1,0.998785
0.9455559364560528,1,0.999427
0.9469306722016747,0,0.988285
0.9545480312569695,1,0.999124
0.9463615228944771,1,0.995146
0.9528145170238818,1,0.997741
0.956659035341135,1,0.999376
0.9566097697476117,1,0.999254
0.9532250765911234,1,0.998249
0.9501286776837197,1,0.999328
0.9522517447300963,1,0.999109
0.9566771903835053,1,0.997551
0.96651153768993,1,0.998316
0.9503227893994485,0,0.978873
0.95020052640358,1,0.998857
0.9583866668284249,1,0.999268
0.9658922800433418,1,0.994137
0.9396032248988461,1,0.999265
0.9370462989414553,1,0.999303
0.9420319978275857,1,0.999427
0.9384239235099583,1,0.999375
0.9520751282850392,0,0.991590
0.9391082445876092,1,0.997416
0.9600944444036741,1,0.999333
0.9542139547892454,1,0.999394
0.9602496565836708,1,0.999360
0.9607165565333674,1,0.999343
0.9491875153398039,1,0.998847
0.9582139867718761,1,0.999356
0.9528910477192379,1,0.998744
0.9488798096200008,1,0.998682
0.9454070813926557,1,0.999321
0.9404316652762337,1,0.998821
0.9619823829780857,1,0.999327
0.9530980830465049,1,0.997393
0.9448479743702796,0,0.974281
0.9535957590042883,1,0.999333
0.9501857476803578,1,0.999361
0.9546324519411535,1,0.999348
0.9576345706832249,0,0.976424
0.9658971655403199,1,0.999346
0.9660509980529554,1,0.999405
0.9729322518378388,1,0.999260
0.9602463150282983,1,0.999401
0.9552320669556689,1,0.998380
0.9631129174448603,1,0.998731
0.9544118098046402,1,0.999190
0.9407167687288956,1,0.999363
0.9570305816665394,1,0.998502
0.9625935863226603,1,0.993076
0.9419348356967799,1,0.999321
0.9314804965522916,1,0.999430
0.9542660348268642,1,0.999246
0.9556653699901003,1,0.998742
0.9386292595104405,1,0.999311
0.9465175034094849,1,0.999329
0.9518330070133737,1,0.999363
0.9614190733201641,1,0.999330
0.9640769140171479,1,0.998622
0.9423741738638111,1,0.999168
0.9232410902468023,1,0.999285
0.9287081745455714,1,0.997595
0.9502547142697928,1,0.998549
0.9435725762576448,0,0.990499
0.9447248451826072,1,0.999371
0.9354711700812689,1,0.998257
0.9372593955111158,1,0.996436
0.9377361975200703,1,0.998089
0.9443981069488674,1,0.999112
0.94593089103596,1,0.998295
0.9431845431749909,1,0.999329
0.9349312052668276,1,0.998435
0.9576235769794489,1,0.999380
0.952185258078594,1,0.997586
0.954436401791267,1,0.999278
0.9452120258502671,1,0.999390
0.9548523591970941,1,0.999311
0.9548216137091167,1,0.999235
0.9384276716645908,1,0.998298
0.9382547835012637,1,0.999328
0.956712277921422,1,0.999362
0.9499354139318974,1,0.999169
0.9577941307008907,1,0.999365
0.9654044824391064,1,0.997063
0.9628135134063092,1,0.999235
0.9640092551159317,0,0.976190
0.9517964959795929,1,0.999133
0.9604118482895737,1,0.999421
0.9696303131463018,1,0.999461
0.9622382985754036,1,0.999248
0.9623918224038506,1,0.993519
0.9378883084369292,1,0.999361
0.9659229556039948,1,0.991338
0.9630388578156599,1,0.998539
0.9489477007820545,1,0.999301
0.9583492136716587,1,0.999255
0.9661289811222171,1,0.999300
0.9630992443381605,1,0.999280
0.9546606852757065,1,0.999359
0.9638855089076718,1,0.997932
0.9534401546327494,1,0.999321
0.9541848093714351,1,0.998996
0.9371913630034667,1,0.999170
0.9655847944343696,1,0.999355
0.9416697853863781,1,0.999400
0.9658117095385973,1,0.999425
0.9539426241457865,1,0.996523
0.9528144566755742,1,0.997643
0.9479615692356858,1,0.998488
0.9509061935219835,1,0.998378
0.9528194573733051,1,0.998834
0.9369308259516843,1,0.999387
0.9455747592752294,1,0.999426
0.9442219294176061,1,0.999426
0.9565318952834373,1,0.998869
0.943856919167959,1,0.999399
0.9483563408529645,1,0.999318
0.9608959311241454,1,0.998472
0.9643340911518191,1,0.999320
0.9504871526332601,1,0.997221
0.9647187430866553,1,0.999375
0.9620027116792061,1,0.998092
0.9495497643050697,1,0.998965
0.950766616999504,1,0.998174
0.9285903748707003,1,0.999209
0.9458603362359388,1,0.999464
0.9611818784874032,1,0.999341
0.9492443799954221,1,0.995413
0.9574000440090297,1,0.999341
0.9595868033185329,1,0.999026
0.9574773870003584,1,0.998852
0.9646525760631665,1,0.998412
0.9498036621541054,1,0.999328
0.9597613077472431,1,0.995157
0.95976501387873,1,0.999346
0.9557420473345631,1,0.999397
0.9464477863645404,1,0.999158
0.9551700077767817,1,0.999328
0.9531893650229398,1,0.999136
0.9621074330870504,1,0.999366
0.9622265995769682,1,0.999435
0.9581520282077708,1,0.995851
0.9580393474609723,0,0.987091
0.940350853471868,1,0.997970
0.9404654224875096,1,0.999384
0.9497325450155693,1,0.999445
0.9606980526523209,1,0.999374
0.9563623416880979,1,0.999356
0.9545928583922788,1,0.999423
0.9425323417841159,1,0.999147
0.9477259797729787,1,0.999089
0.9306148808595501,1,0.999418
0.9585456713595287,1,0.998761
0.9609303315837439,1,0.999399
0.9490807741448474,0,0.978128
0.9630177930699857,1,0.998378
0.9444322525031967,1,0.999267
0.9529746035382941,1,0.999392
0.9676262177571058,1,0.999144
0.9616594903006651,1,0.999365
0.961397645655723,1,0.999398
0.9490676803220307,1,0.999090
0.9563428289001584,1,0.998121
0.9654446986681379,1,0.999326
0.970036318817503,1,0.997441
0.9355434276115718,1,0.999289
0.9554262634411318,1,0.999245
0.9548813983663077,1,0.999419
0.9609574850698277,1,0.990800
0.9356656547568538,1,0.998344
0.9652806908940795,1,0.998150
0.9539490962300379,1,0.999403
0.9538880628963538,1,0.999194
0.9385159937062257,1,0.997983
0.9436247844649496,1,0.999425
0.9406093740591904,1,0.999377
0.9343985485855125,1,0.999406
0.9593672353207935,1,0.999295
0.9566589129024704,1,0.998695
0.9625067769792682,1,0.999449
0.9659728226868121,1,0.998193
0.9480760768195294,1,0.998768
0.958094189498755,1,0.998682
0.9560438349001749,1,0.998608
0.9471478791995717,1,0.996441
0.9531411870671347,1,0.999453
0.9446273414121513,1,0.999368
0.9481954540348679,1,0.999242
0.9498175105792646,1,0.999328
0.9561872833186128,1,0.999435
0.9478846069770983,1,0.998866
0.9599430291722012,1,0.999309
0.9581250327847901,1,0.999349
0.9597275408743215,1,0.998234
0.9456140063698444,1,0.999263
0.9428262744178666,1,0.999411
0.9494606389186561,1,0.999387
0.9552768167058849,0,0.937610
0.9325101137024097,1,0.998779
0.9666807063631009,1,0.990683
0.9581837482774115,1,0.999392
0.9536208906299962,1,0.999416
0.9539307064248416,1,0.999326
0.945630832310874,1,0.998305
0.9587928388847635,1,0.999369
0.9371124039191285,1,0.998152
0.9558843416004073,1,0.999430
0.9566102564837259,0,0.991221
0.9579174109849283,1,0.999284
0.9585004335444661,1,0.999378
0.9577691363759178,1,0.997378
0.9404574766521795,1,0.998782
0.9321917967254818,1,0.999377
0.941425604429217,1,0.999338
0.9468942815810452,1,0.998264
0.9189216582765456,1,0.999293
0.9658086646241543,1,0.999309
0.9358620020243762,0,0.991263
0.9489872610682458,1,0.997687
0.9474607431695564,1,0.999344
0.9687482907252354,1,0.995508
0.9637818517705178,1,0.998794
0.9509708711250802,1,0.999353
0.9472041206276121,1,0.999379
0.9459699937688392,1,0.999280
0.9560920875959804,1,0.998335
0.9458808666662948,1,0.999267
0.9451550638013185,1,0.999398
0.9637277762872309,1,0.998617
0.9497543647821521,1,0.999351
0.9422052679262194,1,0.997372
0.9354245525546359,1,0.997504
0.9605657470372974,1,0.999240
0.9667355817614652,1,0.999413
0.9475374144203312,1,0.999385
0.9460473581521056,1,0.998529
0.9458176986285209,1,0.999405
0.9525039433813067,1,0.999331
0.9614582556277904,1,0.999365
0.9525268552003762,0,0.987003
0.9590907414268941,1,0.999389
0.9512227444756028,1,0.999353
0.9533038449107659,1,0.997878
0.9345332259394472,1,0.999394
0.9561666378679268,1,0.999308
0.9489560669786181,1,0.999401
0.9510860514384183,1,0.999250
0.9466035779334867,1,0.999112
0.9407298384258153,1,0.998491
0.933560037177897,1,0.995218
0.9511526922819399,1,0.997288
0.9479242226629843,1,0.994061
0.9458306436407978,1,0.996955
0.9602662267166446,1,0.999262
0.9496070806615515,1,0.998882
0.965285915736547,1,0.999160
0.9484593264803274,1,0.999353
0.9504764973355185,1,0.995528
0.937020249087707,1,0.998340
0.9414267852261713,1,0.999378
0.9529098479350481,1,0.996957
0.9595678164465421,1,0.999326
0.9588758902047768,1,0.997989
0.9307205629409288,1,0.998871
0.9455011450800199,1,0.998699
0.9346209438526178,1,0.999355
0.9535360558194768,1,0.997460
0.9535438703777307,1,0.998702
0.9417014434707514,1,0.999365
0.9292431788808218,1,0.999205
0.9567089736639053,1,0.994768
0.9538996173900778,1,0.999388
0.9463084036035959,1,0.999318
0.9419311401411432,1,0.999280
0.9575630268200674,1,0.999264
0.964958283558378,1,0.994290
0.9658631951043383,1,0.999330
0.9612766977610964,1,0.999357
0.9516489288813961,1,0.998689
0.9343706454832728,1,0.999438
0.9621895906022273,1,0.998768
0.9620935821280076,1,0.999429
0.96567002164823,1,0.999218
0.9322657103904042,1,0.998324
0.948659786587111,1,0.999385
0.9498087211976043,1,0.997245
0.9599281232015433,1,0.999427
0.9444584838209051,1,0.999250
0.9544495993130413,1,0.999301
0.9608904688649929,1,0.998564
0.939168363570135,1,0.999379
0.957947861198337,1,0.999273
0.9599569058806399,1,0.997401
0.9333725416248448,1,0.999398
0.9512463777261688,1,0.998602
0.9397684070665944,1,0.999481
0.9581442359114386,1,0.999054
0.9508108676106419,1,0.998596
0.9489447781129849,1,0.999251
0.9464088749939901,1,0.999373
0.9405798223666006,1,0.992598
0.940925870314862,1,0.999263
0.9583718448324023,1,0.999392
0.9435618655598622,1,0.999369
0.9493798664650669,1,0.998283
0.9421164552313334,1,0.998238
0.9477366373256471,1,0.999364
0.9570214328600462,1,0.999250
0.9412780355114234,1,0.998688
0.939954114421963,1,0.998093
0.9474177711406786,1,0.999434
0.9487613968102778,0,0.977879
0.9497407842528495,1,0.999130
0.9535558472096667,1,0.999375
0.9651570206986805,1,0.999332
0.9592257798251176,1,0.999256
0.9452510114179332,1,0.999410
0.9618712225436461,1,0.999427
0.9785557040244612,1,0.999184
0.943521735856556,1,0.999369
0.9386693048259709,1,0.999367
0.958277077150778,1,0.999368
0.9619990973101662,1,0.999284
0.9530752080245029,1,0.999311
0.953195268799211,1,0.999334
0.9228512500152983,1,0.998385
0.9581741066125299,1,0.999214
0.9499170067894019,1,0.996032
0.9490996873474291,1,0.998936
0.9523074086657258,1,0.998742
0.9554433531789017,1,0.998972
0.9386101816728815,1,0.993271
0.9578133476847533,1,0.999447
0.9473931672420169,1,0.999384
0.9540528218440791,1,0.998809
0.9387500445788276,1,0.999433
0.9669948707876581,1,0.998270
0.9685132241281055,1,0.999327
0.9642182337051292,1,0.997972
0.9560481881253488,1,0.998779
0.9471367374236338,1,0.999230
0.9423223451106599,1,0.998747
0.9334342693099915,1,0.997455
0.9588375400735589,1,0.999233
0.9503462137754113,1,0.999427
0.9475075215501838,1,0.998005
0.9645112121064203,1,0.999328
0.9393204703978488,1,0.998561
0.9383127316844841,1,0.998845
0.9574970991989424,1,0.999334
0.9477192281306821,1,0.998887
0.9340021248569492,0,0.974158
0.9461790921735844,1,0.999190
0.9567864716906458,1,0.999340
0.9434984344902037,1,0.999466
0.9237273656554322,1,0.999265
0.9396397549925207,1,0.999304
0.9544754572042171,1,0.999276
0.9282620035587329,0,0.990977
0.9451538602826556,1,0.999327
0.9416835641721701,1,0.998454
0.9318439057870831,1,0.998051
0.9501425044597658,1,0.998708
0.951981897450144,1,0.999473
0.9535614575166645,1,0.999375
0.9634409732645947,1,0.999415
0.9594623977483702,1,0.998850
0.9488379316407966,1,0.999142
0.9560263020932344,1,0.999298
0.9599555709856257,1,0.995265
0.9434934672777546,1,0.999324
0.9428573403555786,1,0.997411
0.9588921940649262,1,0.999395
0.9546836669667741,1,0.999388
0.9550181718605637,1,0.999251
0.9486546520006072,1,0.997377
0.9365599081022236,1,0.998616
0.9393317645391269,1,0.999360
0.9499675875720978,1,0.999418
0.9607936259205754,1,0.998553
0.9562774476780771,1,0.999415
0.9314944289869574,0,0.992006
0.951468284117292,1,0.998745
0.9481135982882153,1,0.999317
0.9673586076683125,1,0.999208
0.9438582239845994,1,0.998742
0.9467648777617103,1,0.998553
0.9486840226770101,1,0.997440
0.9442968756430761,1,0.999392
0.9441685005615065,1,0.999390
0.9407893197833496,1,0.999309
0.9340226643584171,1,0.998692
0.9531487840036154,1,0.992032
0.9471535318337866,1,0.999436
0.9408376380409084,1,0.999420
0.9485842801302997,1,0.998899
0.9414895773759424,1,0.999367
0.9321644403120054,1,0.998769
0.9456381446883373,1,0.999360
0.9330169705768411,1,0.994075
0.9480617772535015,1,0.997333
0.963786999484842,1,0.999188
0.9614154544289713,1,0.998341
0.94829417030639,1,0.997754
0.9582147348724728,1,0.998516
0.9523668146828798,1,0.999478
0.9567305209830468,1,0.999378
0.9592646116129991,0,0.990196
0.958429401926895,1,0.999373
0.9514241036903746,1,0.996656
0.9607977827751629,1,0.999325
0.9536940159634243,1,0.999427
0.9368615016498639,1,0.999361
0.9471664872628737,0,0.990050
0.9507869873717535,1,0.999221
0.9490495762693354,1,0.998112
0.959178305900428,1,0.999386
0.9506217929305456,1,0.999454
0.9316755759392068,1,0.999357
0.9527385816423214,1,0.999472
0.9486175940227093,1,0.998799
0.9281218158710586,1,0.998247
0.9333093469826034,1,0.998337
0.9056661739112943,1,0.999328
0.9429302780713035,1,0.998675
0.940954209294593,1,0.998341
0.9547168283060928,1,0.999330
0.955552360173779,1,0.999372
0.949177117145821,1,0.999317
0.934361451961595,1,0.999303
0.9562655987997387,0,0.989837
0.9468031950642688,1,0.998631
0.9714766284167132,1,0.999323
0.9430887992688021,1,0.999436
0.9510582460848997,1,0.999355
0.9530421661475968,1,0.999367
0.9489070706091091,1,0.996038
0.9554844210922994,1,0.997825
0.9280376425209529,1,0.999316
0.9631599720958448,1,0.999210
0.9647386661517583,1,0.993560
0.9608978201057851,1,0.997606
0.9426691523671585,0,0.940351
0.9476792719785505,1,0.999286
0.9532195880574196,1,0.992948
0.9462156948771815,1,0.997937
0.9245672576721063,1,0.998321
0.9443363647467273,1,0.999384
0.9437545972160856,1,0.999313
0.9585751569074559,1,0.999365
0.9357115508773044,1,0.997660
0.9573392395704713,1,0.997956
0.9289163921744625,1,0.997199
0.9427665707204226,1,0.993870
0.9264711209690892,1,0.998666
0.9256598557547808,1,0.999427
0.9472332548761953,1,0.999335
0.93139856206011,1,0.999343
0.9258327641943365,1,0.998918
0.9487988850335194,1,0.998339
0.9632138300378956,1,0.999422
0.9472043378861605,1,0.999417
0.9407067186674144,1,0.999282
0.9608085867602071,1,0.999212
0.9359907384170386,1,0.998572
0.9548946354509074,1,0.998124
0.949836216454313,1,0.999403
0.9456931229894501,1,0.999435
0.9526444041461839,1,0.998689
0.9699217247193221,1,0.991111
0.962949824244434,1,0.999397
0.9384299065246158,1,0.998188
0.9625816002545012,1,0.999239
0.9508546960383466,1,0.999354
0.9582020209360488,1,0.999374
0.9612659881330732,1,0.999352
0.9419926406569917,1,0.998724
0.9394357032015207,1,0.999373
0.9512473429035615,1,0.994778
0.9594705225393619,1,0.998828
0.9392726850297621,1,0.997734
0.9553358124899257,1,0.998983
0.9545053944454356,1,0.999407
0.9374544251651524,1,0.998654
0.9416696582870382,1,0.998724
0.94699382608138,1,0.999287
0.9524386289445692,1,0.999329
0.9530511316921172,1,0.999375
0.9608614116721191,1,0.999260
0.9552959762007028,1,0.998549
0.9605741761960968,1,0.998821
0.9361600941360673,1,0.999339
0.9309797293892146,1,0.996711
0.9604495524321459,1,0.999133
0.9507150791396478,1,0.997997
0.9548201960355263,1,0.998692
0.9424393812956409,1,0.999391
0.9632988979125482,1,0.999174
0.9339945082025337,1,0.997980
0.9419926746990945,1,0.999458
0.944442205566028,1,0.999192
0.9480483600187564,1,0.999309
0.9482688900624302,1,0.997991
0.9526051151720044,1,0.998720
0.9411923944722738,1,0.999317
0.9434939867451974,1,0.999375
0.9543515151519595,1,0.999237
0.9508870213053064,1,0.999344
0.9353700986699449,1,0.999310
0.9632912437059663,0,0.988489
0.9579189689573776,1,0.998704
0.9464452256191134,1,0.999300
0.9555668656806109,1,0.999458
0.9489394335872352,1,0.999433
0.9552834684605449,1,0.999374
0.9558078437318035,1,0.999291
0.9279607490968579,1,0.999374
0.9327459981616573,1,0.999358
0.9503572632709117,1,0.999322
0.950270951834318,1,0.998851
0.9582711259546199,1,0.998437
0.943813980047601,1,0.999411
0.9437369476164029,1,0.999382
0.9596319341258043,1,0.999301
0.9415064509779856,1,0.998795
0.9381429532345964,1,0.999151
0.9452728791606365,1,0.996940
0.9544862106062022,1,0.999381
0.9381520585352789,1,0.999334
0.9406157439386239,1,0.999400
0.9564936674834521,1,0.999345
0.9540024455085819,1,0.996503
0.9446757990481992,1,0.999277
0.9375295346086483,1,0.998213
0.9463772947051591,1,0.999409
0.9592354037110008,1,0.999308
0.956426277755284,1,0.999395
0.954300571735232,0,0.975682
0.9527839861947668,1,0.999178
0.9449732878814605,1,0.999360
0.9277477100867726,1,0.997693
0.9537580973973261,1,0.997817
0.9513460405452216,1,0.999182
0.9279427414647494,1,0.999231
0.9423652821068567,1,0.999229
0.9481020639275745,1,0.998385
0.9304388596503244,1,0.998778
0.9332410174819329,1,0.998814
0.9598685219127908,1,0.998656
0.9518910787340059,1,0.998668
0.9517974100358397,1,0.999309
0.9424303143903385,0,0.990764
0.9466112409203845,1,0.998679
0.9605484378653755,1,0.999266
0.9219276937626811,1,0.999382
0.9518835792941277,1,0.999326
0.9395483037541075,1,0.999278
0.9416937213737315,1,0.999135
0.9198621971316214,1,0.997372
0.9587971499528897,1,0.998673
0.9584110901092474,1,0.997333
0.9499025161258007,1,0.998644
0.9493895342234296,1,0.993671
0.9471876036970756,1,0.997151
0.9549994534096415,1,0.999440
0.9350550706682259,1,0.998925
0.9272424481788559,1,0.998480
0.9438310573114738,0,0.988667
0.9337657381931683,1,0.999154
0.9472478766740005,1,0.999294
0.9585746249526587,1,0.999260
0.9458387826474228,1,0.998761
0.9089222640322572,1,0.999426
0.9408168855411347,1,0.998842
0.9488715733814412,1,0.997905
0.9477104655333889,1,0.999282
0.9500557162610578,1,0.999426
0.9395240894558163,1,0.998018
0.9453672936003202,1,0.999349
0.9279476162418462,1,0.999267
0.9377529788060464,1,0.999346
