0.986843877517475,1,0.998568
0.991950155178713,1,0.998995
0.9963635998252957,1,0.998616
0.9946850120896948,1,0.998436
0.9944829822975284,1,0.998535
0.997177928065904,1,0.999117
0.9984677166286128,1,0.999131
0.9949842982908933,1,0.999212
0.9976742334040839,1,0.998963
0.9943861930671484,1,0.999372
0.996618854608172,1,0.999159
0.9959902167708766,1,0.999410
0.996280826118623,1,0.998507
0.9968321274639287,1,0.999341
0.9975840567173874,1,0.999278
0.9966593455427184,1,0.999277
0.9947279624865606,1,0.998414
0.9955154216565628,1,0.999044
0.9953012373831128,1,0.999430
0.9970654548007842,1,0.999322
0.9967850230248582,1,0.999384
0.993604344748572,1,0.999485
0.9968929380618342,1,0.999343
0.9972096995680305,1,0.999424
0.9984588176205464,1,0.999257
0.9893733897185576,1,0.999188
0.996152004585903,1,0.997927
0.9980967141808265,1,0.998894
0.997556819628369,1,0.999265
0.9963254956906679,1,0.999121
0.9972684048118439,1,0.998292
0.995960344506213,1,0.999413
0.9975924593456758,1,0.999392
0.998223776662277,1,0.999324
0.9963129075766792,1,0.999292
0.9970782606705221,1,0.998574
0.994804936463019,1,0.999215
0.9985293939575075,1,0.998601
0.9972741361130532,1,0.999349
0.9967741914188077,1,0.999318
0.9963264149306342,1,0.999417
0.9982753001336565,1,0.999329
0.9972541913042459,1,0.999384
0.9971473981178117,1,0.999391
0.9964987054214653,1,0.999366
0.9947325693671234,1,0.999338
0.9978763012084079,1,0.998238
0.9962245694432879,1,0.999253
0.9984802840288596,1,0.999306
0.9979210462453236,1,0.999330
0.9978260726942388,1,0.999379
0.9980989812257463,1,0.999303
0.9978553896170546,1,0.999219
0.997018117337642,1,0.999420
0.9978584279397047,1,0.999354
0.9980007463802234,1,0.999308
0.9967515171866619,1,0.999287
0.9963089686615098,1,0.999142
0.9960291630766777,1,0.998165
0.9979600002019717,1,0.999128
0.9964792402502589,1,0.999274
0.9955240713065894,1,0.999289
0.9969386550678558,1,0.999388
0.9973072874727256,1,0.999308
0.9942661377446146,1,0.999188
0.9964307906759697,1,0.999446
0.9975888003255112,1,0.999327
0.9967671945911498,1,0.999352
0.995143650299371,1,0.999039
0.9959544276072608,1,0.999342
0.9973928884559878,1,0.998357
0.997030011316138,1,0.999202
0.9969290789596614,1,0.999133
0.9970983749464156,1,0.999438
0.996891591978635,1,0.999248
0.9964469172059169,1,0.999021
0.9973527673272633,1,0.999147
0.9974941434802206,1,0.999369
0.9952272608742222,1,0.999398
0.9970093096584952,1,0.999038
0.997214648015995,1,0.996916
0.9979836349443869,1,0.999388
0.9961499213141191,1,0.999090
0.9970972883850305,1,0.999376
0.996366988772332,1,0.999254
0.9972916211660943,1,0.999347
0.9973995911905461,1,0.999291
0.993726529006454,1,0.999261
0.9943458362656392,1,0.999087
0.9973315702437122,1,0.998577
0.996666358757479,1,0.999154
0.9946155000142305,1,0.999373
0.997224115437934,1,0.999275
0.9967761929980319,1,0.999253
0.9968833134375288,1,0.999444
0.9969283181771497,1,0.999235
0.9979017768918743,1,0.999371
0.997182085407695,1,0.999174
0.9966610950388288,1,0.999310
0.9982230207005378,1,0.999233
0.9954157108682755,1,0.999242
0.9976541787116021,1,0.999250
0.994780082784245,1,0.999322
0.990453761700721,1,0.998568
0.9937092991118294,1,0.999326
0.9953144239825414,1,0.998800
0.9985193603509709,1,0.999285
0.9968242060049852,1,0.998904
0.9954124456391767,1,0.999405
0.9981401156000609,1,0.999149
0.9954410778456906,1,0.999257
0.9968212785106324,1,0.998890
0.9984386625746104,1,0.998950
0.9981855842765025,1,0.999129
0.9963898550545146,1,0.999034
0.9963637419738252,1,0.999162
0.9977511535825113,1,0.996121
0.995673872178572,1,0.999323
0.9975950667150147,1,0.999299
0.9970902939554509,1,0.999187
0.9976981737458624,1,0.999326
0.9970197103106081,1,0.999374
0.9973069977774083,1,0.999284
0.9963109102498291,1,0.999190
0.9970345922173154,1,0.999277
0.9948224398227996,1,0.999211
0.9972434972224582,1,0.999342
0.9961809483863232,1,0.999368
0.9973070654212831,1,0.998162
0.9970604328302591,1,0.999169
0.9926678493166936,1,0.999309
0.9938950697669088,1,0.999192
0.9966837816842095,1,0.999380
0.996028583216591,1,0.999225
0.9948900433656106,1,0.997280
0.9933647152666971,1,0.999327
0.9974558979197059,1,0.998776
0.9972832814318621,1,0.999353
0.9944540058432544,1,0.999368
0.9985055715052354,1,0.999303
0.9950142755763536,1,0.999272
0.9963579407133261,1,0.999347
0.9975503328504802,1,0.998965
0.995860354670075,1,0.999323
0.995224838537911,1,0.999395
0.9938503981871942,1,0.999250
0.9966581576509805,1,0.999362
0.9969971610265848,1,0.999072
0.998591277474444,1,0.999207
0.996214463625963,1,0.999364
0.9959199206310426,1,0.999313
0.9982660778641461,1,0.999283
0.9952842039922039,1,0.999321
0.9975073589115826,1,0.999346
0.9970724225220904,1,0.999335
0.9962345473654134,1,0.999217
0.9939658879998119,1,0.998026
0.998154532485174,1,0.999211
0.9937733567791132,1,0.999302
0.9961566515133523,1,0.999228
0.9975525407265519,1,0.999273
0.9989225047832899,1,0.999381
0.9932012483821462,1,0.999120
0.997017394590633,1,0.999371
0.9938975181919774,1,0.999347
0.9951017396199312,1,0.999279
0.9983582379612823,1,0.998659
0.9963659606579827,1,0.999028
0.9981475969968373,1,0.999165
0.9946880671842551,1,0.998056
0.996780883790875,1,0.999275
0.9971339954601468,1,0.998133
0.9956912092807396,1,0.998624
0.9957924938605801,1,0.999070
0.9971926188682008,1,0.999092
0.9954698843851091,1,0.999334
0.9965358846348793,1,0.999272
0.9972497416724388,1,0.999030
0.9975762619273647,1,0.999330
0.9920971888049938,1,0.998390
0.9969392966080393,1,0.999363
0.9956938160384593,1,0.998852
0.9965480370022968,1,0.999354
0.9978419881443015,1,0.999114
0.9965323505641989,1,0.999271
0.9961862803303542,1,0.999277
0.9963215468420519,1,0.999297
0.99805878494461,1,0.997661
0.9929864369075074,1,0.999280
0.996517959716336,1,0.999314
0.9958795782672357,1,0.999426
0.996930233240294,1,0.999301
0.9980067845938659,1,0.999352
0.9930004029475666,1,0.999045
0.9947127250582907,1,0.999245
0.994282294270214,1,0.997872
0.9965182157952871,1,0.999237
0.9957797214564504,1,0.999367
0.9960012784085305,1,0.999137
0.994809471047787,1,0.999277
0.9950295413134849,1,0.997326
0.9955347615815727,1,0.999318
0.9943757759297019,1,0.998564
0.9956302713382355,1,0.999283
0.9978996801989629,1,0.999380
0.9961546720650519,1,0.999328
0.9950775573381128,1,0.999282
0.9919386624984484,1,0.999157
0.9934354514461462,1,0.999328
0.9948341430034662,1,0.999316
0.9978934329748799,1,0.998953
0.9971697836725645,1,0.999317
0.9957148940555743,1,0.999110
0.9945245772394952,1,0.998474
0.9947009761148562,1,0.997657
0.9955005141789154,1,0.999328
0.9956014548029976,1,0.999208
0.9919547913533028,1,0.999240
0.9958750945992184,1,0.999142
0.994199299155334,1,0.999272
0.993329795404552,1,0.999428
0.9964134920827848,1,0.999314
0.9977283670409841,1,0.997285
0.9960432746153653,1,0.999165
0.9937146804352323,1,0.999395
0.9972599533498445,1,0.999235
0.9962741299978722,1,0.999312
0.9966800417637741,1,0.999162
0.997029285913436,1,0.999338
0.9960906395501296,1,0.999293
0.9956574792381281,1,0.999137
0.9960901218196817,1,0.998624
0.9959287742646344,1,0.997510
0.9953060553758102,1,0.999227
0.9932744216592948,1,0.999350
0.9936507184758748,1,0.998541
0.9963362103528735,1,0.999299
0.9984938132723504,1,0.998343
0.995781687403309,1,0.999378
0.9922861989544556,1,0.999385
0.9915784009824211,1,0.999398
0.9961452653032751,1,0.999282
0.9972805406433513,1,0.999216
0.9936245320613033,1,0.998478
0.996466660826599,1,0.999192
0.9935869977231012,1,0.999223
0.9938553612519443,1,0.997209
0.9966602113760196,1,0.999289
0.9934561972963075,1,0.999306
0.9971387911685469,1,0.999164
0.9926475918587632,1,0.999288
0.9943910492911804,1,0.999321
0.9965901231334791,1,0.999327
0.9941881056149,1,0.999256
0.9974876234124951,1,0.999344
0.9938008996745016,1,0.999301
0.9934307933048654,1,0.999305
0.9961488678777862,1,0.998113
0.9969738419437867,1,0.999010
0.993048118851839,1,0.998500
0.9965881753395106,1,0.999298
0.9964440283270145,1,0.999317
0.9968981413719077,1,0.999270
0.995373693326444,1,0.999171
0.9870629735878534,1,0.999200
0.9929253294742093,1,0.999176
0.9919684674594196,1,0.999332
0.9927472954198292,1,0.999124
0.9932894026539854,1,0.999221
0.9934523622375186,1,0.999223
0.9926441320806945,1,0.999144
0.9968915416525511,1,0.999261
0.987199342825821,1,0.999376
0.994567634574229,1,0.999290
0.9926276083676312,1,0.998982
0.9900185849020653,1,0.999208
0.9968233000860164,1,0.998735
0.992188092476247,1,0.999295
0.9962225366829398,1,0.998822
0.9964188913955935,1,0.999290
0.9954232108266025,1,0.999207
0.9932748359102268,1,0.998110
0.992843982042647,1,0.999160
0.9931734662631668,1,0.999088
0.9947045832136023,1,0.999306
0.9866958195409586,1,0.999126
0.9912543414974216,1,0.999121
0.9947474034112449,1,0.999350
0.995228106933011,1,0.997423
0.9896331661482921,1,0.999391
0.9977279394557076,1,0.999143
0.9958623296163083,1,0.999255
0.9966576553536549,1,0.999322
0.9937200389615837,1,0.999424
0.9970510640406917,1,0.999325
0.9963265591886288,1,0.999087
0.9934237762517266,1,0.999395
0.9957505031794394,1,0.999369
0.9972575507050039,1,0.999178
0.9986570793735792,1,0.998759
0.9951475687539829,1,0.999354
0.9921948262475563,1,0.999077
0.9955363569149646,1,0.999250
0.9954566692914556,1,0.999202
0.9947899645181647,1,0.999439
0.9951998076579526,1,0.999083
0.9954832792760895,1,0.999240
0.9931248039414329,1,0.999302
0.9942855031834792,1,0.999238
0.9958148394318868,1,0.999362
0.9959034185523719,1,0.998429
0.9964096737612113,1,0.998041
0.9955964616879517,1,0.999221
0.997707274701407,1,0.999378
0.9908334599536169,1,0.999420
0.9934336204108324,1,0.999367
0.991549792790378,1,0.999340
0.9932995155750864,1,0.999381
0.996915835038448,1,0.999268
0.9936018052462376,1,0.999200
0.9946345146605325,1,0.999327
0.9892643429463633,1,0.998504
0.9965308983836326,1,0.999324
0.9955754490096506,1,0.999301
0.9971260753265153,1,0.999231
0.9924420026156615,1,0.999307
0.9969623783909811,1,0.999375
0.9941121469448808,1,0.999304
0.9912586241711129,1,0.999322
0.9956415403706733,1,0.999284
0.9945307588788259,1,0.999249
0.9959531075375898,1,0.999201
0.9964185251626957,1,0.999349
0.9964346169295086,1,0.999350
0.9963819596566996,1,0.999344
0.9979319158864803,1,0.999258
0.9982636885319298,1,0.999250
0.9979532167046858,1,0.999295
0.9951452096767596,1,0.998530
0.9964823565721393,1,0.999391
0.9981967499898278,1,0.999249
0.9967822139123811,1,0.999202
0.9949851656589007,1,0.999067
0.9951958191115642,1,0.999372
0.9966787356037689,1,0.999332
0.9960992613986668,1,0.999231
0.9960658570507649,1,0.999219
0.9958297112512025,1,0.999347
0.995346110327041,1,0.999213
0.995914155289706,1,0.999182
0.9966958899044663,1,0.999283
0.9926504436804133,1,0.999332
0.9970942338150961,1,0.998138
0.9952391235372026,1,0.999222
0.9966232394586563,1,0.998041
0.9951346952148354,1,0.999245
0.9914881476229179,1,0.999263
0.9942261888224277,1,0.999301
0.9964472324591428,1,0.999196
0.9955690458692703,1,0.999229
0.9983560392444356,1,0.999337
0.9857409757117589,1,0.999284
0.9951944799101473,1,0.999036
0.9959922589230408,1,0.999264
0.9977944014701176,1,0.998987
0.9908049284102084,1,0.999274
0.9945851535592466,1,0.999319
0.9954665133200903,1,0.999231
0.9961762798321206,1,0.999357
0.9920103998409298,1,0.999389
0.9884225328561005,1,0.999146
0.9968233805801721,1,0.999362
0.9963363294798326,1,0.999291
0.9958616740017119,1,0.999323
0.9947217521377592,1,0.999348
0.996030341213609,1,0.999343
0.995075950592946,1,0.999228
0.9943335777592982,1,0.999270
0.995845729597999,1,0.999219
0.9967350428225069,1,0.999328
0.9901780248034789,1,0.999160
0.992091408979319,1,0.999203
0.9939291155251452,1,0.998973
0.9933807145079143,1,0.997901
0.9907881748313239,1,0.999080
0.9949253651081905,1,0.999321
0.9974256781844932,1,0.999267
0.995294797516399,1,0.999224
0.9951629559120051,1,0.999242
0.9941020418286546,1,0.999311
0.9945820555866328,1,0.999105
0.9960036594371205,1,0.998762
0.9959823062304763,1,0.999255
0.995181652887656,1,0.999293
0.9937860867436252,1,0.999023
0.995682292112312,1,0.999337
0.9953251293009957,1,0.999312
0.9964330488627698,1,0.999396
0.9956646398633314,1,0.998770
0.9897188285963386,1,0.999219
0.9961793095991711,1,0.999296
0.9891620464926508,1,0.999241
0.9915870691807406,1,0.999327
0.9946727944130553,1,0.999328
0.991318711397239,1,0.998551
0.9917768033762375,1,0.999387
0.9844983070721822,1,0.999273
0.9934244827139685,1,0.999144
0.9934117851917089,1,0.998940
0.996841018032894,1,0.998419
0.9960716759910629,1,0.999082
0.9969547694903321,1,0.999297
0.9961524257750818,1,0.999003
0.9974332646784099,1,0.999316
0.995136825589684,1,0.999350
0.9964178361966651,1,0.999046
0.9960109813214619,1,0.999282
0.9955346624743185,1,0.999266
0.994764214914835,1,0.999360
0.9952057659726524,1,0.999190
0.9968785190672544,1,0.999308
0.9962945646552266,1,0.998948
0.9974803556121353,1,0.999387
0.9966361993087941,1,0.998826
0.9972361589370361,1,0.999398
0.9968232590740794,1,0.999176
0.9982858859742875,1,0.999148
0.9977106034624375,1,0.999222
0.9970804946042149,1,0.999377
0.9957368486236908,1,0.999276
0.9933167558836712,1,0.999129
0.9974081758045904,1,0.999359
0.9941832326075866,1,0.999273
0.9965279482168501,1,0.999265
0.9974841169731007,1,0.999311
0.9939288583234199,1,0.999150
0.9966804273126465,1,0.999081
0.9965887370132596,1,0.999177
0.9945821735823132,1,0.999352
0.997506567720387,1,0.998061
0.9966487374448005,1,0.999420
0.9961315457381699,1,0.998783
0.9953858558345605,1,0.999323
0.9939623755443288,1,0.999288
0.9964262925874856,1,0.999254
0.9922918587791872,1,0.999213
0.9956756464506041,1,0.999336
0.9964981858885384,1,0.999056
0.9952606184050695,1,0.999231
0.9962841601132854,1,0.999301
0.9958807163446266,1,0.999331
0.9966943495988814,1,0.998691
0.9948685515173822,1,0.999074
0.9917760165279068,1,0.998279
0.9953407914515391,1,0.998976
0.993550891050953,1,0.998111
0.9944441719965317,1,0.999328
0.9879639057928556,1,0.999383
0.9907008636735145,1,0.998043
0.9938817105251351,1,0.999368
0.9948220040512233,1,0.999342
0.9889224606514889,1,0.999244
0.9968846659212732,1,0.999187
0.9948735849395224,1,0.999298
0.9915610235005327,1,0.999209
0.99577854681495,1,0.999317
0.9890795277589186,1,0.998431
0.9900134954006564,1,0.999218
0.9962106052352155,1,0.998610
0.9972531679557501,1,0.999307
0.9957406844977279,1,0.999189
0.9956588688756991,1,0.999317
0.9964775811324412,1,0.999265
0.9947377147930954,1,0.999074
0.9953603229918252,1,0.999149
0.996524789668585,1,0.999164
0.9929101463635454,1,0.999098
0.9964495087679743,1,0.999043
0.9970312973529707,1,0.999265
0.9967973886434254,1,0.998642
0.9986073418865775,1,0.999344
0.9979132837910336,1,0.999229
0.9963517443513261,1,0.999079
0.995717470967099,1,0.999270
0.9959275498526867,1,0.999346
0.9959706421193911,1,0.998238
0.9971914712980018,1,0.998548
0.9981736500907037,1,0.998433
0.9950930856403969,1,0.999270
0.9949769116586438,1,0.999144
0.9967863306520348,1,0.999283
0.9968600903339843,1,0.998974
0.996677334764719,1,0.999121
0.9951108972225807,1,0.999458
0.9950640618924401,1,0.999304
0.9974895102708388,1,0.999401
0.9977515918073978,1,0.999186
0.9973030045556553,1,0.999364
0.9982958283783226,1,0.999346
0.9934855055637072,1,0.996875
0.9971310948015539,1,0.999248
0.9959418463352571,1,0.999338
0.9966125326431285,1,0.998920
0.9968642049562486,1,0.999114
0.996993152498356,1,0.999127
0.9976371622874279,1,0.999327
0.9933258113553536,1,0.998273
0.9944701145407708,1,0.999012
0.9976404136254077,1,0.999179
0.9972880733058372,1,0.999247
0.997626678760208,1,0.997650
0.9948178945082317,1,0.998994
0.9920209934282262,1,0.999224
0.9928388926903849,1,0.998450
0.9962104245416603,1,0.999297
0.9960062047618793,1,0.998581
0.9958987629284235,1,0.999213
0.9967996227303572,1,0.999271
0.9950574103896282,1,0.998715
0.9952608339392282,1,0.998497
0.9947125797957003,1,0.997638
0.9952143781653047,1,0.998725
0.9949401494791166,1,0.999036
0.9958589694415884,1,0.998390
0.9949124328967389,1,0.999188
0.996994140914919,1,0.999369
0.9953407696637451,1,0.999343
0.9956473270246954,1,0.998131
0.9936710745197648,1,0.999270
0.9962104850103498,1,0.999339
0.9970438111361276,1,0.999419
0.995962454444055,1,0.999307
0.9949853128094712,1,0.997382
0.9963179602499821,1,0.999291
0.9913390801410156,1,0.997942
0.9932603646971061,1,0.999339
0.9923291175007475,1,0.999297
0.9943522645553664,1,0.998956
0.9966248605972113,1,0.998832
0.9971873704513378,1,0.999160
0.9972247097317753,1,0.999389
0.9955465329247152,1,0.999344
0.998420260302211,1,0.999149
0.9981116295006565,1,0.999203
0.9920356901530132,1,0.999317
0.997461716174719,1,0.997835
0.9975593453503342,1,0.999285
0.9973511612663648,1,0.997660
0.9931233878397496,1,0.999307
0.9964607477648935,1,0.999361
0.9939320060761869,1,0.999196
0.993947185229616,1,0.999273
0.997517553785424,1,0.999315
0.993835712635224,1,0.999369
0.9967288166008201,1,0.997696
0.9984391520056812,1,0.999169
0.9982772289071511,1,0.999257
0.9926596166366187,1,0.999326
0.997182047587875,1,0.998522
0.9956073794764833,1,0.999171
0.9944546436824451,1,0.999304
0.9952377602502606,1,0.999213
0.9936358855212418,1,0.999165
0.9953163246225208,1,0.999292
0.997737320040127,1,0.999313
0.9977171172858683,1,0.999211
0.9963869857530524,1,0.999250
0.9947971274257204,1,0.997945
0.997383209966529,1,0.999265
0.9943551541940194,1,0.999346
0.9937678869858035,1,0.999195
0.9940034848386418,1,0.998765
0.9966315664993072,1,0.999421
0.9962384530565751,1,0.999090
0.9936624124101774,1,0.998390
0.9948322695059525,1,0.999393
0.9966908079447414,1,0.999109
0.9972752350964705,1,0.999234
0.9971964226841384,1,0.999156
0.9955395506994476,1,0.999177
0.9965233044324733,1,0.999339
0.9953661686070097,1,0.998622
0.9932941631659544,1,0.999376
0.9949626122250812,1,0.999413
0.9963240783853973,1,0.999359
0.9955830556246938,1,0.999286
0.996964539251362,1,0.999199
0.9951404678419534,1,0.998488
0.9894810096769786,1,0.998789
0.9952767680255431,1,0.999231
0.9919368691463915,1,0.999307
0.9980894844376124,1,0.998899
0.9962092004028128,1,0.999280
0.9966025366916055,1,0.999258
0.9954023604328708,1,0.999260
0.9937789575215363,1,0.999178
0.9950850702088225,1,0.999160
0.9971400062770132,1,0.999240
0.9977231649154278,1,0.999274
0.9964908112808714,1,0.998599
0.99572117125014,1,0.999260
0.9955409057709633,1,0.999338
0.9980469460905458,1,0.999327
0.994055278709611,1,0.999351
0.9961850219949641,1,0.998319
0.9957044834343621,1,0.999315
0.9964001176499222,1,0.998538
0.9942785405366533,1,0.999388
0.9976435536313047,1,0.998654
0.9924920161956912,1,0.999151
0.9963915143967047,1,0.999363
0.9928150836263427,1,0.999182
0.9956296729924891,1,0.999139
0.9981437138846557,1,0.998026
0.9970071857080239,1,0.998779
0.9919900629065236,1,0.999390
0.9965855251139185,1,0.999335
0.9966167485899989,1,0.999034
0.997792640836076,1,0.999278
0.9955006177765224,1,0.998068
0.9942927050635764,1,0.999187
0.9932773361129537,1,0.998182
0.9956661897508755,1,0.999225
0.9922885693729724,1,0.999365
0.9973507743759599,1,0.999236
0.9963360535461111,1,0.998935
0.9968486392490015,1,0.999245
0.9951796854180921,1,0.999255
0.998504975885124,1,0.999139
0.9966690890946784,1,0.999171
0.9977119102699954,1,0.999212
0.9989359551365392,1,0.999391
0.99751704357292,1,0.999182
0.9978390212976044,1,0.999381
0.9946854215172921,1,0.999221
0.9943774051336202,1,0.999343
0.9943908303742509,1,0.998603
0.9946033341114807,1,0.999355
0.9958842043743259,1,0.999368
0.997316136717912,1,0.999254
0.9896379381414349,1,0.999278
0.9920598761926046,1,0.998740
0.9908540766219117,1,0.999285
0.9972431140418496,1,0.999372
0.9955099399252969,1,0.999320
0.9972625445288502,1,0.999284
0.9963951740241813,1,0.999286
0.9974639537618306,1,0.999156
0.9960230469214026,1,0.999322
0.9964220685228565,1,0.999138
0.9954252506018922,1,0.999140
0.9954978316842067,1,0.999003
0.9951944987166285,1,0.999141
0.9921372517212519,1,0.999178
0.9951726884720993,1,0.999259
0.9970399043842533,1,0.998457
0.9967694405220588,1,0.999311
0.9965807957839912,1,0.998350
0.9951442717469227,1,0.999082
0.9955428405593814,1,0.999415
0.9917555765235163,1,0.999316
0.9924503386983863,1,0.998936
0.9970138920258617,1,0.999406
0.9963199427071627,1,0.999355
0.9987892928298889,1,0.999171
0.9967080711134486,1,0.999359
0.9910851457660567,1,0.998700
0.9959820572115158,1,0.999355
0.9935426331773947,1,0.998738
0.9948778372764843,1,0.999270
0.9931964406831186,1,0.999236
0.9960476404361936,1,0.999132
0.9957633704416023,1,0.999047
0.9988919120851476,1,0.999132
0.9958468010656186,1,0.999035
0.9954572095871429,1,0.999206
0.9971559468270884,1,0.999039
0.9970091331696856,1,0.999348
0.9957249610009874,1,0.999327
0.9982865130574163,1,0.998541
0.996328902472999,1,0.999266
0.9963405198470401,1,0.999358
0.9962668701976817,1,0.998496
0.9925751428481454,1,0.999296
0.9966531894933428,1,0.999339
0.9982703949774909,1,0.998160
0.9947952913710328,1,0.999350
0.9980399410799082,1,0.998513
0.9959768214737149,1,0.999328
0.9941785378111009,1,0.999203
0.9967387007856492,1,0.999310
0.995001502397972,1,0.996222
0.9944539527414878,1,0.999150
0.997549760054752,1,0.999327
0.9964186441977172,1,0.999050
0.9975271618955858,1,0.999145
0.9955750425111802,1,0.999367
0.9976627292286447,1,0.999059
0.9953026784510105,1,0.999323
0.9978944316499442,1,0.999396
0.9975502029745964,1,0.999217
0.9941191294667053,1,0.999366
0.9977291000755025,1,0.997504
0.9957990234764683,1,0.999355
0.9961239230656743,1,0.998815
0.9943634263684035,1,0.999287
0.9957557984645236,1,0.999167
0.994900940192724,1,0.999291
0.9962341922223531,1,0.998640
0.9967141130068963,1,0.998369
0.9976899689598483,1,0.999328
0.997486359540232,1,0.999110
0.9987671082775741,1,0.998612
0.9948193167305053,1,0.999351
0.9908325536712753,1,0.999244
0.997767796614667,1,0.998809
0.993682340442096,1,0.999255
0.9948769348440227,1,0.995752
0.9949120524403516,1,0.999326
0.9955337157190282,1,0.999254
0.9941428127200499,1,0.999379
0.9953627799834098,1,0.998571
0.9944756192934513,1,0.999138
0.9937530308089702,1,0.999317
0.9928880365565393,1,0.999163
0.9950235945550513,1,0.999264
0.9935488478084925,1,0.998328
0.9962485683322831,1,0.998629
0.9944718169232767,1,0.999328
0.9955759723432547,1,0.999290
0.9961091816428564,1,0.999353
0.9917865265744839,1,0.999166
0.9980253453583698,1,0.999261
0.9942999675449989,1,0.998689
0.9970094024418388,1,0.999243
0.9952392651653864,1,0.999354
0.9922328493335751,1,0.998106
0.9965702349842533,1,0.999262
0.9876748969360444,1,0.999271
0.9944628861284847,1,0.999343
0.9939697360264164,1,0.999063
0.9924403311116462,1,0.999359
0.9977646251039531,1,0.999284
0.9954961637684081,1,0.998901
0.9946716320079737,1,0.999286
0.9939811031536868,1,0.999063
0.9985829946416808,1,0.999160
0.9977144436642237,1,0.999251
0.9937788284462118,1,0.999272
0.9954058014736991,1,0.999309
0.995962477979152,1,0.999342
0.9973895292944627,1,0.999395
0.9955014487899781,1,0.999389
0.9938465491161511,1,0.999284
0.9938354938838099,1,0.998502
0.9948715003287367,1,0.999055
0.9940626896587432,1,0.998890
0.990786848088372,1,0.999208
0.9952968647115484,1,0.996647
0.9941937445061152,1,0.999283
0.9925761211876876,1,0.999347
0.9880379394110486,1,0.999144
0.9953012924667657,1,0.999332
0.9948639651363217,1,0.998388
0.9962979553350593,1,0.999219
0.9984202015869516,1,0.999266
0.9931922997056327,1,0.999196
0.9971046449677358,1,0.999337
0.9950404452393321,1,0.997317
0.9987124650006385,1,0.998459
0.9965526874035391,1,0.999346
0.9942586593342008,1,0.999249
0.9949671310645369,1,0.999383
0.9969279987999251,1,0.998905
0.9975094350216898,1,0.998232
0.9956756298592616,1,0.999344
0.9981306949014378,1,0.999254
0.9973558679241317,1,0.999279
0.99476825535426,1,0.999259
0.9979197541476428,1,0.999311
0.9977940968521147,1,0.999212
0.9963668068228102,1,0.999052
0.9968128890949687,1,0.999214
0.997087726672375,1,0.999275
0.9936919002565224,1,0.999329
0.9929197362522953,1,0.999301
0.9951596946726698,1,0.999241
0.9952118252554076,1,0.998188
0.996987593423453,1,0.999136
0.9977183919278788,1,0.999372
0.9937246133034746,1,0.998377
0.992365276305313,1,0.998104
0.9957932334062256,1,0.999192
0.993177678779731,1,0.999264
0.9903357741793015,1,0.998481
0.9959452324929546,1,0.999273
0.9964437386531507,1,0.999330
0.9979123085631226,1,0.998996
0.9948972631516255,1,0.999176
0.9952750860180155,1,0.999148
0.9972880961158969,1,0.999192
0.9918100264542294,1,0.999209
0.9935756531741621,1,0.998729
0.9974752273871379,1,0.999298
0.9963285297389655,1,0.999166
0.9951760621988192,1,0.999299
0.9956132852508986,1,0.999233
0.9966706976593295,1,0.998981
0.9951694828057012,1,0.999215
0.9958265799986002,1,0.999363
0.9961230346842767,1,0.998952
0.9952110052336466,1,0.998763
0.9957951489753465,1,0.999074
0.9928468939379763,1,0.998692
0.9965616169823676,1,0.999368
0.9969864747263104,1,0.999257
0.9929284414858032,1,0.999019
0.9962791372806578,1,0.999253
0.9963089823794186,1,0.999339
0.9947154218455613,1,0.999392
0.9980699227686369,1,0.999421
0.9977861868384584,1,0.999216
0.9970373521688468,1,0.999094
0.9965625269475434,1,0.999174
0.9976824803924421,1,0.999284
0.9961739638119453,1,0.999307
0.9973996118713537,1,0.999355
0.9922285308347873,1,0.998974
0.9938461837186504,1,0.999326
0.9986469219465385,1,0.998946
0.9953984612003031,1,0.999263
0.9954410288544346,1,0.999346
0.997824968260879,1,0.999380
0.9953529754684288,1,0.999350
0.99116447492479,1,0.998222
0.9967642466902447,1,0.997534
0.9972772268737653,1,0.999132
0.9955511501768708,1,0.999356
0.9979604457756155,1,0.998992
0.9966533383116958,1,0.999146
0.9945853372079695,1,0.998501
0.9981967382702144,1,0.999351
0.9950269294781336,1,0.998714
0.9944365633295433,1,0.999220
0.9967018506527928,1,0.998377
0.9974603211777908,1,0.996249
0.9964101359451079,1,0.999026
0.994565187840198,1,0.999358
0.9974320742192102,1,0.999211
0.9949419810523967,1,0.999211
0.9935821546096723,1,0.999263
0.9959079443923103,1,0.999325
0.9934432151318908,1,0.999131
0.9962166280302608,1,0.999133
0.9986471893194293,1,0.999306
0.9975512350515556,1,0.999170
0.9981029720692702,1,0.998395
0.998549934265732,1,0.999372
0.9977228678156055,1,0.999408
0.9944157337030404,1,0.999144
0.991809529926275,1,0.999268
0.996857147954925,1,0.998880
0.9979731180265847,1,0.999194
0.9947227065608718,1,0.998585
0.996420205217247,1,0.999287
0.9941276484459752,1,0.999264
0.9932419569400593,1,0.998953
0.9946833857332188,1,0.999335
0.9938201086063512,1,0.997872
0.995859186953238,1,0.999162
0.9928531581642794,1,0.998888
0.9976815955193763,1,0.999425
0.9978508042802748,1,0.999333
0.9979808999228974,1,0.998762
0.9972291049466446,1,0.999067
0.9945845401846151,1,0.999227
0.996915027165376,1,0.999234
0.9973487938203024,1,0.998808
0.9982166228601351,1,0.999077
0.9950769108051263,1,0.999247
0.9972656063674289,1,0.999383
0.9950366722158804,1,0.999342
0.9923619597962436,1,0.999300
0.9957839119422042,1,0.999222
0.9928842449590835,1,0.999276
0.9962465829114158,1,0.999288
0.9947247099810569,1,0.997549
0.9970939131111759,1,0.999330
0.9939475945034865,1,0.999171
0.9940891704177615,1,0.999261
0.9954127159190513,1,0.999327
0.9968789819148044,1,0.999393
0.9968524932971926,1,0.999461
0.9978683992140854,1,0.999411
0.9946735184046243,1,0.999085
0.9978291755832439,1,0.998536
0.9945741989095518,1,0.999342
0.9943140491032961,1,0.999373
0.9955804042404661,1,0.999403
0.9974016602266538,1,0.999388
0.9954388536461709,1,0.998999
0.9967489602224816,1,0.998321
0.9977632706902467,1,0.998503
0.997081311578309,1,0.999287
0.9961960591623069,1,0.999208
0.9965777576767061,1,0.999385
0.9946138934330039,1,0.998615
0.9942322160010173,1,0.998963
0.9968994168698226,1,0.999313
0.9961958211222,1,0.998133
0.9978216010244636,1,0.998820
0.9973022022047043,1,0.999298
0.9961061914512747,1,0.999263
0.9921498015991985,1,0.998691
0.9970759610725116,1,0.999322
0.9941468926211545,1,0.999178
0.9942552671236664,1,0.999293
0.9940938953692148,1,0.999329
0.9960673346503748,1,0.999133
0.9979225320960331,1,0.999361
0.9941623210626409,1,0.999381
0.9974823543155934,1,0.999142
0.9970639288868491,1,0.999330
0.9976944249308386,1,0.998102
0.9937937037777703,1,0.999174
0.996542498269613,1,0.999084
0.9911271519324238,1,0.999365
0.996460942842597,1,0.999323
0.9979187217097064,1,0.999238
0.995167959449037,1,0.999301
0.9968154043634937,1,0.999231
0.9944152211978377,1,0.998746
0.9962636550277101,1,0.999248
0.9962100039726488,1,0.999118
0.995604547876244,1,0.998411
0.9969581228281932,1,0.998837
0.9957522594532152,1,0.999242
0.9964876888035783,1,0.999334
0.9967632932415539,1,0.999356
0.9951485209926367,1,0.999150
0.9933342016427287,1,0.999176
0.9959273364498771,1,0.999376
0.9973431707950428,1,0.999289
0.9965521852777877,1,0.999281
0.9971182480440798,1,0.999318
0.9954645212106445,1,0.998113
0.9953527233675658,1,0.999297
0.9963614061089223,1,0.999404
0.996989899172794,1,0.999337
0.9934916849314903,1,0.998842
0.9975464324857706,1,0.999111
0.9965734088137229,1,0.999144
0.9938793174641314,1,0.998614
0.9939758454810014,1,0.998978
0.9945906729331864,1,0.998233
0.9915712378197795,1,0.998730
0.9964087382061936,1,0.999335
0.9968585394607079,1,0.998834
0.9941336894829934,1,0.999200
0.996777710034795,1,0.998963
0.9961170981248942,1,0.999361
0.9967662973341058,1,0.998540
0.9988781901021557,1,0.999103
0.9946877853046892,1,0.999280
0.995278306624349,1,0.999386
0.9932717143638304,1,0.999301
0.997347921242859,1,0.999356
0.9944498215587372,1,0.999097
0.9954565962113653,1,0.998727
0.9943020399283968,1,0.999203
0.997132190448654,1,0.999174
0.9919985884392528,1,0.999213
0.9969704384356189,1,0.999380
0.9951776346260418,1,0.999276
0.9973997569255982,1,0.999340
0.9892847250272906,1,0.998794
0.9939050248293938,1,0.999202
0.9958797244431262,1,0.999310
0.9963866466100494,1,0.999292
0.9928242229506693,1,0.999267
0.9953187688140108,1,0.999318
0.9958328891948679,1,0.998509
0.9955628079885702,1,0.999347
0.994353318110904,1,0.999336
0.9956036371822591,1,0.999285
0.9972829022283611,1,0.999321
0.9940073027856003,1,0.999362
0.9970984860237551,1,0.999297
0.9969334393705308,1,0.999110
0.9944437817912205,1,0.999326
0.995906648201805,1,0.999363
0.9934602051109356,1,0.999230
0.9968477829256864,1,0.999265
0.9953715544224472,1,0.999320
0.9946958905339603,1,0.999389
0.9975182643463616,1,0.999329
0.9981250176113987,1,0.999269
0.9972416097911933,1,0.998945
0.9953978106595798,1,0.993921
0.9929913193081659,1,0.999268
0.9939454570628004,1,0.999277
0.9943293152401653,1,0.999279
0.9987133894312186,1,0.999105
0.9963617964638695,1,0.998031
0.9974073344609976,1,0.999352
0.9980928949280152,1,0.999286
0.9973983036953391,1,0.999220
0.998093148395355,1,0.999373
0.995467226760594,1,0.999273
0.9977843593777226,1,0.999265
0.993225951962054,1,0.998805
0.995968595100336,1,0.999304
0.9975657628032237,1,0.999222
0.9942162017836293,1,0.999209
0.9932822864508587,1,0.999184
0.9976025720961119,1,0.999295
0.997045148267171,1,0.999328
0.9976210378804912,1,0.999307
0.9979501906847089,1,0.999183
0.992237518906959,1,0.999270
0.9966630931024651,1,0.999167
0.9951403077120724,1,0.998256
0.9934268495924491,1,0.998954
0.9982160827602065,1,0.998469
0.9947959233393886,1,0.999295
0.9969487574077551,1,0.998534
0.9952669249044253,1,0.997425
0.9941598307870821,1,0.999271
0.9919372871846798,1,0.999148
0.9962061803942048,1,0.999223
0.9937564217667345,1,0.999192
0.9953393119900579,1,0.999178
0.9968435068919002,1,0.999286
0.9932797161472458,1,0.999228
0.999235226975416,1,0.999298
0.9970640550150291,1,0.999290
0.996461107544605,1,0.998318
0.9976556296457164,1,0.999104
0.9964531161303433,1,0.999127
0.9970852980488204,1,0.999336
0.9975068621534408,1,0.999213
0.9916225828623562,1,0.995506
0.9960745091643155,1,0.999137
0.9962212814290892,1,0.999215
0.9974274176704288,1,0.999269
0.997344049550308,1,0.999210
0.997721367669397,1,0.999230
0.995415015136102,1,0.999295
0.9931503130382533,1,0.999083
0.9962274308178445,1,0.999235
0.9958517402413594,1,0.999246
0.9975414867203767,1,0.999234
0.9945214028406849,1,0.999272
0.9966348258018459,1,0.999101
0.9958052861639987,1,0.999172
0.9866930551111922,1,0.988158
0.9926396843776023,1,0.999411
0.9919597521382729,1,0.999294
0.995851074824719,1,0.999147
0.997448593744311,1,0.999027
0.9971086224348726,1,0.999331
0.9967592413198206,1,0.999270
0.9958186135723652,1,0.999223
0.9959909476470267,1,0.998018
0.9938314594566413,1,0.998523
0.9965521761630498,1,0.999266
0.9972326917862694,1,0.999182
0.9977512728490731,1,0.999153
0.9952949483892654,1,0.999377
0.9966479819299131,1,0.999347
0.997339573077846,1,0.999020
0.9949566622645093,1,0.998771
0.9944955076231003,1,0.999330
0.9936453251009405,1,0.998974
0.9981274008150064,1,0.998883
0.9974472376097334,1,0.999172
0.993136370684179,1,0.998236
0.9973205132832735,1,0.999054
0.9959172529944289,1,0.999278
0.9873292398027556,1,0.999334
0.9947735619338044,1,0.999326
0.9944462049371063,1,0.999301
0.9959235997125055,1,0.999145
0.9969831462855492,1,0.999304
0.9974090413548594,1,0.999305
0.9922997434059,1,0.999300
0.9969827748922133,1,0.998370
0.9900215903519847,1,0.999279
0.9961263300171653,1,0.998655
0.9969807622929441,1,0.998298
0.9913803466832969,1,0.999007
0.9920066457380865,1,0.999321
0.9975287027725198,1,0.999038
0.9918624705207422,1,0.999327
0.9920894164340416,1,0.999158
0.9958034928036898,1,0.999358
0.9971215182370231,1,0.999250
0.9969075630014894,1,0.999253
0.9989892070781726,1,0.999250
0.997314805420107,1,0.999295
0.9946555568827044,1,0.999347
0.9979719052753364,1,0.999332
0.9955367157860697,1,0.998577
0.9985560295011969,1,0.999264
0.9981502470086867,1,0.999314
0.9981525197971457,1,0.999295
0.9979048712099847,1,0.999227
0.9972224928372335,1,0.999364
0.9972611763541837,1,0.998867
0.9959381894070676,1,0.999273
0.9983402038964421,1,0.999296
0.9951648975706324,1,0.999245
0.9943621008543799,1,0.999171
0.9986560572178205,1,0.999283
0.9976637303964286,1,0.998750
0.9957417918890709,1,0.999301
0.9952697440137896,1,0.997039
0.9955464941382252,1,0.999305
0.9989022560769335,1,0.999120
0.9962623531737989,1,0.998125
0.9970586525747032,1,0.999285
0.9972839917716617,1,0.999280
0.996195931824856,1,0.999132
0.9970246027743317,1,0.999270
0.9963733169207833,1,0.998511
0.9969965345781491,1,0.999187
0.9980317185781039,1,0.999213
0.9983501757712916,1,0.999174
0.9965919534630356,1,0.999153
0.9973811821064061,1,0.999180
0.9973010120126679,1,0.999293
0.9968215046301959,1,0.999249
0.9988875884963061,1,0.999343
0.9967807946524511,1,0.999281
0.9972174832959939,1,0.999345
0.9965153055560714,1,0.999174
0.9959437820617638,1,0.999102
0.9976611221323013,1,0.999305
0.9984615599332258,1,0.999078
0.9984641624408402,1,0.998424
0.9988648711106521,1,0.999073
0.9964046784774098,1,0.999176
0.995887973700044,1,0.999295
0.99565494027393,1,0.996721
0.9964788692082125,1,0.999208
0.9954171187592058,1,0.999339
0.9959682782684515,1,0.999190
0.9963037850507024,1,0.999312
0.9981792013212486,1,0.999419
0.9964513154394322,1,0.998155
0.9981587122735961,1,0.999255
0.9975513566251932,1,0.998814
0.9971984550807106,1,0.998738
0.9974609998195523,1,0.999255
0.993486179908309,1,0.999028
0.9966789049927048,1,0.999314
0.9970047836826508,1,0.999249
0.9988967404872046,1,0.999289
0.9979563145004161,1,0.997606
0.998848140415986,1,0.999109
0.9958162433289816,1,0.998747
0.9970718728213463,1,0.999179
0.996465143279023,1,0.999334
0.9963544547889012,1,0.999005
0.9965873925323278,1,0.999249
0.9978980838568998,1,0.999363
0.9953528595839836,1,0.998633
0.9942504514588394,1,0.998471
0.9977895450197103,1,0.999234
0.996071435158965,1,0.999293
0.9979849192200714,1,0.999087
0.9957096518877357,1,0.999274
0.9933752692955711,1,0.999416
0.9978527789423334,1,0.999319
0.9971038581731899,1,0.999317
0.9963465342387722,1,0.999357
0.9973391893294868,1,0.997797
0.994245752101438,1,0.998825
0.9977520148711025,1,0.999246
0.9958871010992119,1,0.999216
0.9984364689544494,1,0.999241
0.9972696877243435,1,0.999222
0.9971221767589238,1,0.998927
0.9971956136725212,1,0.999233
0.9957236065754681,1,0.999392
0.9978670155713236,1,0.999162
0.9959500863823786,1,0.999130
0.9972519482262607,1,0.999107
0.9982477282406491,1,0.999036
0.9954773864304514,1,0.998747
0.9954261205267496,1,0.998009
0.9972231186117065,1,0.999380
0.9983481215613977,1,0.999209
0.9945458549952887,1,0.997984
0.9981880681522264,1,0.999375
0.9938539028828827,1,0.997908
0.9973064632856703,1,0.999192
0.9973614016167258,1,0.999288
0.9955184894408107,1,0.997678
0.998537057723185,1,0.999238
0.998405236012172,1,0.999274
0.9961503308767776,1,0.999320
0.9963503835422667,1,0.999169
0.9979109915183214,1,0.999061
0.9975054253057767,1,0.999126
0.9892896976110581,1,0.999434
0.9947154521762492,1,0.999321
0.9944465375158651,1,0.999339
0.9980661866935903,1,0.999266
0.996233732126357,1,0.999384
0.9958210330083019,1,0.999034
0.9918129695006114,1,0.999167
0.9972680930964904,1,0.999166
0.9935010927027838,1,0.999232
0.9971197573097181,1,0.999038
0.9976266707851257,1,0.999142
0.9979327944134695,1,0.999235
0.9967505934399642,1,0.999222
0.9943963275970029,1,0.999230
0.9975277754345777,1,0.999310
0.9974709409191997,1,0.999311
0.9940561775675021,1,0.998888
0.9956303276372681,1,0.999314
0.9957646625391733,1,0.996173
0.9951095253242618,1,0.998466
0.9966911366842486,1,0.999350
0.9933913910028086,1,0.999038
0.9965609488888604,1,0.999337
0.9953289035807861,1,0.999279
0.9973148131822407,1,0.999341
0.994707774212741,1,0.999118
0.9944981271149188,1,0.999199
0.9943725489757552,1,0.999171
0.996635244514257,1,0.998439
0.9985241373591828,1,0.999301
0.9969591396152268,1,0.999165
0.9956642335356165,1,0.999113
0.9974965526311453,1,0.998309
0.9962177218316718,1,0.999244
0.9929896316383422,1,0.999114
0.9965686899388603,1,0.998829
0.9972002538577842,1,0.999270
0.9902518303533171,1,0.999184
0.9906073101795825,1,0.999264
0.9927938127710589,1,0.999227
0.991351757857107,1,0.999186
0.9936475570209702,1,0.999294
0.9944225158588431,1,0.999263
0.9963321832554227,1,0.999335
0.9966770020994942,1,0.999174
0.9944114119151827,1,0.995812
0.995956773091832,1,0.999358
0.9938533314569601,1,0.999392
0.9940677584096261,1,0.998960
0.9978190956894574,1,0.999309
0.9973057841818876,1,0.999175
0.9871518422285382,1,0.999202
0.997802982329742,1,0.999430
0.9940786508132179,1,0.999409
0.9961381713580584,1,0.999444
0.9887987666564705,1,0.998414
0.9966934267567094,1,0.999181
0.9969776568691778,1,0.999194
0.9954804116805858,1,0.999278
0.9967786209955009,1,0.998446
0.9936475136528665,1,0.998570
0.9952002034223948,1,0.998675
0.9946801713910358,1,0.998622
0.9941357268438181,1,0.999421
0.9941005033128953,1,0.999343
0.9908492554364732,1,0.999049
0.9947462775910567,1,0.997275
0.9926174426488537,1,0.999216
0.9953040667496313,1,0.998661
0.9938921091330335,1,0.999089
0.995140186786408,1,0.998213
0.9949708206042708,1,0.999285
0.9962537794421779,1,0.999258
0.9934153891576799,1,0.994828
0.9927352365861244,1,0.999296
0.9903797109230069,1,0.999421
0.9937620568279963,1,0.999320
0.9961051929692898,1,0.999180
0.9916541538025695,1,0.998223
0.9976845348106359,1,0.999356
0.9960203549441874,1,0.999325
0.9954421048363818,1,0.999358
0.9934550560757841,1,0.999394
0.9964177906856865,1,0.998342
0.9943906392340788,1,0.999350
0.9909556455006956,1,0.999376
0.9950553043534451,1,0.999224
0.9948716814238506,1,0.999342
0.9907866827359576,1,0.999003
0.9917662783180007,1,0.994845
0.996237898016132,1,0.999351
0.9972471581461315,1,0.998183
0.9985412891853856,1,0.999403
0.9945224611135908,1,0.998638
0.9912365866587356,1,0.999303
0.992316971340371,1,0.999421
0.9966402280814369,1,0.999360
0.992702203258243,1,0.999382
0.9940094572597087,1,0.999377
0.9959297822360716,1,0.999405
0.9969137861755724,1,0.999321
0.9941586985370635,1,0.999162
0.9923568447605562,1,0.999404
0.9947446249991284,1,0.998079
0.9945006368732289,1,0.999343
0.9960421197650711,1,0.999313
0.9899960157878929,1,0.998613
0.9917270860813946,1,0.999178
0.995224260544969,1,0.998558
0.9923533176772573,1,0.999241
0.9941621782040021,1,0.999346
0.9878142811390868,1,0.999237
0.9937357815684427,1,0.999341
0.9898640155073457,1,0.999268
0.9923616953346783,1,0.999457
0.9943799942107129,1,0.999364
0.9908435002585894,1,0.999066
0.9859076938079594,1,0.999347
0.9903439964516565,1,0.999299
0.9917018993560472,1,0.999354
0.9975966964524587,1,0.999428
0.9957073842330957,1,0.999359
0.988490774527016,1,0.998677
0.9959507473093048,1,0.999375
0.9914781071808411,1,0.999408
0.9864093349987348,1,0.999352
0.9944935909984878,1,0.998654
0.9940184395588566,1,0.997462
0.9875972609716848,1,0.998037
0.9919312701354226,1,0.998736
0.9950320498465415,1,0.999317
0.9867520750714842,1,0.998668
0.993655464298223,1,0.999143
0.994331542803351,1,0.999399
0.9925200956743828,1,0.999315
0.9950082313667218,1,0.999390
0.9931978081449562,1,0.996981
0.9951883191265286,1,0.999398
0.9920433732750576,1,0.999497
0.9853926406020385,1,0.997934
0.9924686663129323,1,0.999204
0.9889925017800284,1,0.998112
0.9929300063829873,1,0.999246
0.9947592729890561,1,0.999417
0.9897295926344793,1,0.997947
0.9972769107705111,1,0.999252
0.9918023904993102,1,0.998296
0.9905250748393769,1,0.999347
0.9956494147170774,1,0.999292
0.9890141411886528,1,0.999392
0.9920166451476412,1,0.999407
0.994682449658479,1,0.999429
0.9875130562638834,1,0.999365
0.9934867216947934,1,0.999414
0.9942686433995519,1,0.999430
0.9929975377972747,1,0.999403
0.9891389021871568,1,0.998752
0.9818935504990386,1,0.999336
0.9939474971909746,1,0.999176
0.9974796788346881,1,0.999273
0.995423757729755,1,0.999404
0.9969579660434846,1,0.999284
0.9948860956080517,1,0.999022
0.9964806933582556,1,0.999186
0.9964830127009929,1,0.999301
0.9949505871873433,1,0.999309
0.9925008635159395,1,0.998104
0.9980841218356561,1,0.999382
0.9956356519917393,1,0.999158
0.9908556507111883,1,0.999218
0.9916893701999044,1,0.999113
0.9938339476758231,1,0.999152
0.9921415144038416,1,0.999194
0.9955585467882491,1,0.998575
0.997155554811127,1,0.999381
0.9943602199681402,1,0.999237
0.9916346982028921,1,0.998732
0.99762495490475,1,0.999252
0.9953883196943016,1,0.999329
0.9949364526100919,1,0.999333
0.9946938171088512,1,0.999232
0.9957735836774767,1,0.999185
0.9938715143560771,1,0.999141
0.9948461052697893,1,0.999376
0.9934901355175354,1,0.999394
0.9975367507773755,1,0.999271
0.9957042689140622,1,0.999333
0.9850889020266491,1,0.999365
0.9884398675651432,1,0.999401
0.9928951626841369,1,0.999148
0.9935894251862805,1,0.999254
0.9971120322048985,1,0.999416
0.9874976145780937,1,0.999295
0.9873666811305543,1,0.999398
0.9959189846329737,1,0.999186
0.993840694835067,1,0.999361
0.9955372933626379,1,0.999394
0.9955926746206389,1,0.999288
0.9947953563631984,1,0.999192
0.9913418875637612,1,0.999365
0.9959999513956619,1,0.999235
0.9931800802948579,1,0.999343
0.9889321836221776,1,0.999341
0.9943799965361477,1,0.999298
0.9916687154504349,1,0.999271
0.9940093254706592,1,0.999299
0.988968757637759,1,0.999355
0.9969056433607568,1,0.999414
0.9952929229667798,1,0.998821
0.9972681353224908,1,0.999436
0.9951829354321331,1,0.998791
0.9933965466154111,1,0.999407
0.9964237077962976,1,0.999386
0.995177259358469,1,0.999403
0.9953807651537284,1,0.998826
0.9969946111422641,1,0.999427
0.9895111965051945,1,0.999066
0.9940489664327286,1,0.999335
0.9933614714925517,1,0.998383
0.9954391583383665,1,0.999344
0.9954950454453049,1,0.996817
0.991157621716455,1,0.999337
0.9947148551828087,1,0.995961
0.9934614038761935,1,0.999422
0.990744654678909,1,0.999245
0.9912980452572189,1,0.999428
0.991537830569434,1,0.999423
0.9917741339399061,1,0.998742
0.9854672180987233,1,0.998746
0.9906051612053166,1,0.999375
0.9970425673238631,1,0.998849
0.9947294478475923,1,0.998885
0.9950094273923946,1,0.999061
0.9903945633784186,1,0.999098
0.9934027111444111,1,0.999347
0.9938468563112439,1,0.999296
0.9900366818960047,1,0.999167
0.9980182937486981,1,0.997770
0.9955977880939488,1,0.999396
0.9871752817931543,1,0.999206
0.9965070041076555,1,0.999267
0.9986298100314972,1,0.998987
0.9983018316317053,1,0.999398
0.9933785666896096,1,0.999127
0.9974250507680661,1,0.999353
0.9928624074887021,1,0.999420
0.9960327927547556,1,0.999421
0.9971534605696477,1,0.999318
0.9945818320420137,1,0.999400
0.9935558221456198,1,0.999357
0.9947568041561432,1,0.999416
0.9981942959690846,1,0.999395
0.9981551826783188,1,0.999345
0.9988638366909531,1,0.999206
0.9926634889252908,1,0.999258
0.9955991368422599,1,0.999317
0.9941993777597687,1,0.999046
0.9971871702251083,1,0.999290
0.9924711868990045,1,0.999264
0.9939480474016462,1,0.999352
0.9968980588939591,1,0.999361
0.9973569612257922,1,0.999291
0.990855005817546,1,0.999369
0.9992357048586546,1,0.999285
0.9969517827842761,1,0.997623
0.9929342769421525,1,0.998542
0.9956785628530278,1,0.998729
0.9973019369575341,1,0.999349
0.9901851393216018,1,0.999167
0.9912880036218643,1,0.999188
0.9955703163396694,1,0.999314
0.9940597130472673,1,0.998739
0.9936683889506446,1,0.999262
0.9953412737731878,1,0.999400
0.9957986806623887,1,0.999377
0.9931579192823968,1,0.999419
0.9930328391565082,1,0.999211
0.9921844445685782,1,0.999409
0.9937962082596096,1,0.999409
0.9949006284473259,1,0.999278
0.9924531519695756,1,0.999311
0.9918961505332531,1,0.999277
0.9913514385987879,1,0.999392
0.9954408736117639,1,0.999284
0.9908035687349264,1,0.999397
0.995207012524348,1,0.999273
0.9934257349345339,1,0.999400
0.9943625242285999,1,0.999283
0.9821569365654683,1,0.999372
0.9919713580429541,1,0.998020
0.9942737999133612,1,0.999346
0.992455959109826,1,0.999316
0.9906392759161596,1,0.999155
0.9970522821860198,1,0.999363
0.9914992854543783,1,0.999425
0.9902369146332198,1,0.999393
0.9957690716472513,1,0.999372
0.9923785665315767,1,0.999191
0.9963470039640676,1,0.999428
0.9929402954986877,1,0.999429
0.9951066471185813,1,0.999373
0.99053301469794,1,0.999373
0.9904552386910487,1,0.999421
0.9967045772005948,1,0.999354
0.9895198482682603,1,0.999097
0.9855610057495751,1,0.999388
0.9907000808851307,1,0.999175
0.985002658914531,1,0.999245
0.9892788494884301,1,0.998853
0.987893350155135,1,0.999376
0.9951058445094686,1,0.999282
0.9929084922752505,1,0.998826
0.9948720409101501,1,0.999208
0.9927309958968688,1,0.999387
0.9830761995353307,1,0.999224
0.994847698322488,1,0.999429
0.9948056334554082,1,0.999421
0.9927184009070292,1,0.999371
0.9923044780839543,1,0.999398
0.9834525793821289,1,0.998383
0.9964949149450834,1,0.999425
0.9955281608803136,1,0.997096
0.993101243084375,1,0.998565
0.9919506647272153,1,0.999358
0.9929511767447365,1,0.999438
0.9969953971668394,1,0.999269
0.9937804095993723,1,0.997350
0.9976718299645865,1,0.999399
0.9907669246847747,1,0.999219
0.9959513556050494,1,0.999335
0.9922920703649916,1,0.996176
0.9972642126556216,1,0.999409
0.9975179088362525,1,0.999346
0.9980367510928112,1,0.999248
0.9955373524958757,1,0.999345
0.9937876286834953,1,0.999349
0.9962936608633602,1,0.999383
0.9937573298701534,1,0.999307
0.99398695979821,1,0.999012
0.9969457847907532,1,0.999311
0.9984532945886825,1,0.999428
0.9959347124653396,1,0.999234
0.9970481977887843,1,0.999136
0.9913763795770528,1,0.998353
0.9924249028601546,1,0.999249
0.9867055814326969,1,0.999276
0.9966449981367993,1,0.999185
0.992394798416925,1,0.999441
0.9903961086127734,1,0.999235
0.9913323411364922,1,0.999367
0.9922249040873404,1,0.999375
0.9904859092708937,1,0.998200
0.9918152080276676,1,0.999240
0.9937836078817973,1,0.999180
0.9960705694397233,1,0.999388
0.9931178280887016,1,0.998880
0.996391576811285,1,0.999417
0.994826028572386,1,0.999402
0.994141571631088,1,0.999253
0.9924398575481524,1,0.999363
0.9821321632316579,1,0.999397
0.9926170941474961,1,0.999241
0.9921580130468178,1,0.999444
0.993545212203361,1,0.999204
0.9978200324088184,1,0.999375
0.9939530461604634,1,0.998692
0.995461325872435,1,0.999238
0.9953126407014705,1,0.999297
0.9956335559809665,1,0.999315
0.9944598030318663,1,0.999424
0.9964543188320238,1,0.999428
0.9921911675275648,1,0.999443
0.9954648596157699,1,0.999302
0.9943304353864012,1,0.997952
0.9941900462298774,1,0.999230
0.9953300736065288,1,0.999209
0.98973243487922,1,0.998660
0.9959748928994026,1,0.997606
0.9942480659297032,1,0.999418
0.9932813068387006,1,0.999394
0.9971835838245163,0,0.987500
0.9920132477027521,1,0.998766
0.996149398701546,1,0.999399
0.9956696089042214,1,0.998539
0.9953065623338467,1,0.999316
0.9881005888536486,1,0.999222
0.9929166855019695,1,0.999405
0.9942634509295354,1,0.999448
0.9930397205360956,1,0.999427
0.9952308775711772,1,0.999389
0.9936325929533618,1,0.999376
0.9894835096164304,1,0.999412
0.9928034158790683,1,0.999431
0.9978700100337027,1,0.999405
0.9943118502994615,1,0.999204
0.9961864440277626,1,0.999276
0.9932674215582876,1,0.999373
0.9979290729055912,1,0.999334
0.9933869875717292,1,0.999322
0.9958327824416122,1,0.999203
0.9888966439698468,1,0.999387
0.9952136646137042,1,0.999415
0.9979397784935793,1,0.999274
0.9932160095527888,1,0.995492
0.9952764544597923,1,0.999089
0.9896375140040646,1,0.999339
0.9944684123047045,1,0.999313
0.9949440105893236,1,0.999467
0.9907530176513349,1,0.998493
0.9923633728176229,1,0.997151
0.992726830059024,1,0.999180
0.9963336865434215,1,0.999097
0.9969928778531714,1,0.999263
0.9847085359730916,1,0.999179
0.9948931649902263,1,0.999412
0.9895088585365001,1,0.999282
0.9892055552595113,1,0.998803
0.991991158897241,1,0.998609
0.9916841081844415,1,0.998870
0.9936378932685541,1,0.999326
0.9924151861818743,1,0.999378
0.993035360448351,1,0.999362
0.9836010980779518,1,0.999084
0.9950115054884326,1,0.999344
0.9943370095813401,1,0.999332
0.9948596012796774,1,0.999398
0.995529957130605,1,0.999398
0.9954250860817699,1,0.999329
0.9882511464958708,1,0.998930
0.9864262897433107,1,0.999424
0.9809886352320141,1,0.999324
0.9844475037575513,1,0.999415
0.9970664961875418,1,0.999319
0.9935250118116796,1,0.999152
0.9881612641591956,1,0.999358
0.994769497683377,1,0.999404
0.9903711914772582,1,0.998748
0.9921760870891313,1,0.999346
0.9944227884403458,1,0.999385
0.9948274299565503,1,0.999431
0.9908177577696777,1,0.998814
0.9976146852789409,1,0.999301
0.9909586452875706,1,0.999432
0.9835512350396519,1,0.999297
0.9844139922709301,1,0.999414
0.9721371753249183,1,0.999152
0.9947434068395872,1,0.999444
0.9934492028855132,1,0.999463
0.9958730901009542,1,0.999386
0.9951924910592399,1,0.999353
0.9968308766348619,1,0.999385
0.9895522506308884,1,0.999427
0.994075508076877,1,0.999319
0.9910435019862971,1,0.999209
0.9979874383745755,1,0.999298
0.993291749561584,1,0.999442
0.99270300545582,1,0.999280
0.9956366728300059,1,0.999442
0.9973771222527862,1,0.999342
0.9975218332105432,1,0.999418
0.9942290871272688,1,0.999358
0.9985637180490564,1,0.999408
0.9958696005774712,1,0.999380
0.9944074721059746,1,0.998821
0.9956620639096964,1,0.998819
0.9963116259012076,1,0.999148
0.9949107584633248,1,0.999283
0.9957321292794665,1,0.999410
0.9941050154784911,1,0.999318
0.9964838101054021,1,0.999397
0.9956318537329987,1,0.998688
0.9972749253029519,1,0.999069
0.9950896106147389,1,0.999453
0.9963179593160514,1,0.999428
0.9960468403452938,1,0.999308
0.9932110156370586,1,0.999248
0.995278910267971,1,0.998700
0.9920637865049923,1,0.999401
0.9958741560979969,1,0.999409
0.9934537774392249,1,0.999378
0.9957381925362837,1,0.999357
0.9954698844580439,1,0.999377
0.990726448408572,1,0.998769
0.9961878189572666,1,0.999041
0.9935977695953048,1,0.999345
0.994405844707239,1,0.999372
0.9959695012667403,1,0.999347
0.9880668279785941,1,0.999410
0.9953728855209953,1,0.999283
0.9967388186270788,1,0.999400
0.9938568381358768,1,0.999360
0.9944689876589471,1,0.999341
0.9943355855683403,1,0.998471
0.9960673590409664,1,0.999354
0.9874351553877884,1,0.999265
0.9929220019629103,1,0.999257
0.9875893461258942,1,0.998390
0.9960704164734872,1,0.999300
0.9913987595012362,1,0.999244
0.9952001107943795,1,0.999359
0.9927111321718267,1,0.999317
0.995417593138698,1,0.999272
0.9943077414621914,1,0.999308
0.9961126437148263,1,0.998563
0.9934905190066167,1,0.999407
0.9904616711816242,1,0.999420
0.9910592234475906,1,0.999299
0.991117556522018,1,0.999383
0.9934852893279275,1,0.998624
0.9947316055566332,1,0.999398
0.9867076220923657,1,0.999402
0.9955847488655829,1,0.999327
0.9913047378183235,1,0.999318
0.9935942064123898,1,0.999334
0.9917248522910623,1,0.998843
0.9891830863347219,1,0.997696
0.9941141967479235,1,0.998603
0.9955002883275232,1,0.999392
0.9945304577127644,1,0.999339
0.988774277749281,1,0.999373
0.9932183077220397,1,0.999383
0.9845396050513517,1,0.999391
0.9971218612036487,1,0.999391
0.9944883683402076,1,0.999418
0.9958729474856908,1,0.999448
0.9949345352519408,1,0.999470
0.9979005772234142,1,0.999414
0.9940165321640714,1,0.999237
0.9951521037056468,1,0.999378
0.9942529770199614,1,0.999428
0.99557335656991,1,0.999204
0.9952322338919982,1,0.999392
0.9923209030566096,1,0.999307
0.9936111731629282,1,0.999310
0.9917309462889591,1,0.999405
0.9926277018319939,1,0.999369
0.9866000547531469,1,0.999214
0.9918208556796185,1,0.998548
0.9901488410045043,1,0.999399
0.9949569789121884,1,0.999322
0.9890075880404837,1,0.998644
0.9959897046165807,1,0.998631
0.991389414794388,1,0.999469
0.993247268187366,1,0.999184
0.9968270533226573,1,0.999267
0.9899999002169686,1,0.999370
0.9949729423846995,1,0.999255
0.9905264258494976,1,0.999294
0.9901332153385068,1,0.999165
0.9919513505715208,1,0.999122
0.9934406516907935,1,0.999361
0.9974479281906653,1,0.999358
0.9901449844337185,1,0.999287
0.9963448800178623,1,0.999442
0.9925966841163651,1,0.999288
0.9947523086683133,1,0.999390
0.9938445629588377,1,0.999442
0.9962090483689023,1,0.998890
0.995597917921645,1,0.999437
0.9947722913692324,1,0.998357
0.9933520551745572,1,0.998947
0.9968353887818727,1,0.999333
0.9964631650888603,1,0.998195
0.9899397826984643,1,0.998633
0.9926286890021268,1,0.999350
0.9951099819423929,1,0.999316
0.996587881583208,1,0.999321
0.991853332835383,1,0.999225
0.9954186557449936,1,0.999246
0.9968736192884708,1,0.999378
0.9969019809928117,1,0.999411
0.9895428937971189,1,0.999398
0.9966900783891017,1,0.999404
0.9975013132584764,1,0.998654
0.9925015612482746,1,0.998267
0.990938914100196,1,0.998542
0.9989136782161945,1,0.999415
0.9940730531677157,1,0.999457
0.9953525915678919,1,0.999398
0.9940128882379572,1,0.998633
0.9942969761992693,1,0.999431
0.9955550774749534,1,0.999386
0.9938573689849051,1,0.999389
0.995915466448238,1,0.998908
0.9980180010943767,1,0.999159
0.9948693182420568,1,0.999394
0.9956346503524223,1,0.999384
0.994492224814311,1,0.996004
0.988600596987074,1,0.999003
0.9947875136691995,1,0.999304
0.9907059715847867,1,0.998786
0.9923283740552485,1,0.998791
0.9938689513462324,1,0.999391
0.9954383503390101,1,0.999393
0.9956946020785346,1,0.999339
0.997527497654288,1,0.999368
0.9933426450112766,1,0.998284
0.9954973264571975,1,0.999302
0.9824699279283345,1,0.999307
0.9943387803630818,1,0.999438
0.9918109481945948,1,0.999439
0.9878446840800836,1,0.999309
0.9945792628593562,1,0.999172
0.9974341161370167,1,0.999363
0.9917159696764987,1,0.999416
0.993974648536124,1,0.999153
0.9941411047060675,1,0.999396
0.9954500886159464,1,0.998953
0.9968131128670215,1,0.999415
0.9935679190043684,1,0.999351
0.987858484138042,1,0.999333
0.992800339163442,1,0.998581
0.9934398534518118,1,0.999394
0.9930411031950106,1,0.999333
0.9915074400155129,1,0.999331
0.9923700652631243,0,0.991793
0.9946537818836778,1,0.998979
0.995035194582265,1,0.999310
0.992123028758801,1,0.999419
0.9937914697517918,1,0.999331
0.9976624717057698,1,0.999265
0.9848849539354246,1,0.998994
0.9937396522955493,1,0.999351
0.9744412414745379,1,0.998481
0.9956126864122907,1,0.999330
0.992900983918767,1,0.999315
0.9948024023462146,1,0.998779
0.9892776557930388,1,0.998867
0.9884748490390323,1,0.998860
0.9895329789149138,1,0.999235
0.9930292443823032,1,0.999409
0.9922069437462404,1,0.999430
0.9911084673618604,1,0.999376
0.9870098060167478,0,0.992350
0.997031542677194,1,0.999176
0.9970736500474708,1,0.999447
0.995544889314345,1,0.998765
0.995547292579926,1,0.999374
0.9948972934178055,1,0.999380
0.9934733507789113,1,0.999276
0.9956782521284523,1,0.999428
0.9942663619573401,1,0.999174
0.9895788207496065,1,0.999343
0.9907027811588255,1,0.999384
0.9955433883050137,1,0.999379
0.9912197464918119,1,0.999401
0.9929519979986289,1,0.999219
0.9901723973431853,1,0.999277
0.9909525915529039,1,0.999409
0.9936543419369546,1,0.999174
0.9937780874557126,1,0.999399
0.9839025410175458,1,0.999378
0.9929315894870269,1,0.998824
0.9894850946328188,1,0.996444
0.995529760867139,1,0.999403
0.9902586184642633,1,0.999285
0.9964361682300187,1,0.999425
0.9965200383737746,1,0.999383
0.9930087968218946,1,0.999264
0.9966178176322265,1,0.998752
0.9981731598399723,1,0.998784
0.9943143777755902,1,0.999324
0.9953182923550921,1,0.999239
0.9946244701006647,1,0.994304
0.9968760540618804,1,0.999359
0.9955165654959666,1,0.999423
0.9977599346722296,1,0.998611
0.9958233125234276,1,0.999336
0.9960918179244125,1,0.999476
0.9922301761826795,1,0.997654
0.9972639926661122,1,0.999416
0.9895305676460329,1,0.999353
0.9968296113295879,1,0.999379
0.9938546628894568,1,0.999444
0.9921290118213644,1,0.999316
0.9910136294409164,1,0.999265
0.9895695221226781,1,0.999283
0.9942719561868693,1,0.999330
0.9968351428154482,1,0.999419
0.9944082012348134,1,0.999234
0.9898682583515789,1,0.997865
0.9836142216272159,1,0.999388
0.9956772672957976,1,0.999414
0.9960561497191537,1,0.999334
0.992753014790676,1,0.999349
0.9928769591971776,1,0.998722
0.9973315891712502,1,0.999372
0.9923706467717853,1,0.999374
0.993256777488761,1,0.999258
0.9952403706443488,1,0.999349
0.9891840996322958,1,0.999328
0.99516728694159,1,0.999443
0.9970675562027683,1,0.997865
0.9967049077197284,1,0.999343
0.9915336813794412,1,0.999242
0.9929897882663498,1,0.999144
0.9912707573230651,1,0.999268
0.9881969921375732,1,0.997583
0.9855992244981382,1,0.999315
0.9944520246963556,1,0.999345
0.9894179770910283,1,0.997974
0.9938937701416877,1,0.999407
0.9950482412038226,1,0.999308
0.9955770932616305,1,0.999319
0.9885900174583443,1,0.999333
0.9901988583879033,1,0.999219
0.9920903512900707,1,0.999308
0.9962862184442353,1,0.999370
0.9873791760122773,1,0.997976
0.995975715725391,1,0.998599
0.9920071509679861,1,0.999381
0.9948157234021191,1,0.999341
0.9892341688504855,1,0.999068
0.9890631050388284,1,0.999323
0.9972532844047696,1,0.999356
0.9893820862459282,1,0.998026
0.9894170011480057,1,0.999378
0.9862903420652823,1,0.999367
0.9912836429018024,1,0.998110
0.9896566877544289,1,0.997285
0.9828157470386567,1,0.999325
0.9939826975168736,1,0.999380
0.9929614140666589,1,0.999325
0.9974467548965148,1,0.999398
0.9955756344691518,1,0.999288
0.9966046248862692,1,0.999332
0.9981099151084841,1,0.999380
0.9971333328036388,1,0.999336
0.9973757493791766,1,0.999427
0.9974576330279918,1,0.999419
0.9958046096270282,1,0.999127
0.9926292939390713,1,0.999406
0.9940977073079073,1,0.999338
0.9962968584634743,1,0.999408
0.9969456188454611,1,0.999371
0.9970821113327277,1,0.999238
0.9977405970903692,1,0.999307
0.9972775807087301,1,0.999314
0.9988237501622508,1,0.999322
0.9979806961231916,1,0.999349
0.9977162723370515,1,0.999250
0.9926676382941825,1,0.999369
0.9933963937891697,1,0.999254
0.9950464291755364,1,0.998640
0.9931584913880339,1,0.999304
0.9971473476323426,1,0.999379
0.9968484057968495,1,0.999309
0.9942104448103402,1,0.999314
0.9952752108466503,1,0.999421
0.9962839942021688,1,0.999419
0.9977543214441084,1,0.999384
0.9881954807114239,1,0.999371
0.9913208635268106,1,0.999305
0.9936816798332223,1,0.998738
0.9946193813597974,1,0.999184
0.9943196379093097,1,0.999437
0.9954487745260517,1,0.999449
0.9939535954481195,1,0.999183
0.9942109868412012,1,0.999317
0.9935660404144975,1,0.999301
0.992219536481387,1,0.999318
0.9969456015851812,1,0.999382
0.9913900549302672,1,0.999419
0.996263227735334,1,0.999330
0.9975141687849002,1,0.998805
0.9912281566705214,1,0.998206
0.9922261125969261,1,0.999299
0.9893531575361825,1,0.999273
0.9868427656165406,1,0.998803
0.996476885716873,1,0.999361
0.9925829137522133,1,0.999418
0.9927857801709856,1,0.999418
0.9952073849704404,1,0.998654
0.9958328559905127,1,0.999435
0.9956016945903776,1,0.999333
0.9979873253282904,1,0.998649
0.9959109424583097,1,0.999381
0.9869791711838665,1,0.999461
0.9945936106869716,1,0.998560
0.9885619634635245,1,0.999351
0.9975294936614646,1,0.999450
0.9948912792450162,1,0.999387
0.9940627407688649,1,0.998720
0.9954753463078132,1,0.999389
0.9943972302674621,1,0.998404
0.9933287771494702,1,0.998304
0.9950410859408502,1,0.999343
0.9872640332458172,1,0.998424
0.9947546185062409,1,0.999386
0.9962824460820313,1,0.997855
0.9956687992312229,1,0.999102
0.9941413325789819,1,0.999317
0.9967594270651734,1,0.999418
0.9970201567182959,1,0.999181
0.9952727955716899,1,0.999424
0.9961219319547242,1,0.999405
0.987820640617075,1,0.997610
0.9962731807151353,1,0.999418
0.9954507338151923,1,0.999275
0.9943287933197077,1,0.999326
0.9945511017983258,1,0.999421
0.9968040940709961,1,0.999449
0.9962089063887455,1,0.999336
0.9920656808470193,1,0.999421
0.9883150768690182,1,0.999391
0.9971566572089003,1,0.999422
0.9859484951708218,1,0.998365
0.9945777537112674,1,0.999266
0.9934594675656098,1,0.999100
0.9917275359114478,1,0.998815
0.9945275422580131,1,0.998555
0.9961082962527221,1,0.998915
0.9980274208703432,1,0.999329
0.9953203164524809,1,0.999266
0.9939911055075384,1,0.999206
0.9969780849387303,1,0.997719
0.9879399297184749,1,0.999455
0.9964705690261546,1,0.999263
0.9911796179286643,1,0.999315
0.9915212206168843,1,0.999264
0.9960653624492579,1,0.999019
0.9958922543830668,1,0.998724
0.9965334758883899,1,0.999392
0.9950571698127473,1,0.999314
0.9942822073113029,1,0.999349
0.9905829315955045,1,0.999428
0.994466967199489,1,0.998779
0.9862674360660721,1,0.998728
0.9942944194184302,1,0.999276
0.9928077813266636,1,0.999454
0.9965474217664316,1,0.999335
0.991466238344321,1,0.998864
0.995032487319906,1,0.999279
0.9943125145180022,1,0.999378
0.9895457360570487,1,0.998550
0.9858189608555445,1,0.998683
0.9927168064114502,1,0.999158
0.9921516820012247,1,0.999363
0.9921827072464928,1,0.999316
0.9927708752001754,1,0.997172
0.9947126065072431,1,0.999423
0.9948856199159481,1,0.999434
0.9947663518817389,1,0.999139
0.9959686296493244,1,0.999353
0.9989353667680853,1,0.999244
0.9956129537760898,1,0.999402
0.9938583077506077,1,0.999233
0.9927016394597724,1,0.999136
0.9878773259023574,1,0.999250
0.9939472624739677,1,0.999389
0.9945672740522511,1,0.998035
0.9883746920614547,1,0.999282
0.994676507429411,1,0.999222
0.9962680775392869,1,0.998611
0.996300305012015,1,0.999382
0.9956656230008156,1,0.999280
0.9895230818140084,1,0.999189
0.9943906562581204,1,0.999376
0.9946451478834999,1,0.999418
0.9973354901481202,1,0.999328
0.9929380627170583,1,0.998757
0.9962301251401626,1,0.999301
0.9956214231521654,1,0.999399
0.9928186880645606,1,0.999395
0.9967711586858405,1,0.999257
0.9965230286177927,1,0.999308
0.994277005634867,1,0.999198
0.9976928315118012,1,0.999383
0.9956205981253574,1,0.998028
0.9969290924566185,1,0.999369
0.9949076258646838,1,0.999283
0.9933660935277419,1,0.999351
0.9951573693320022,1,0.999175
0.9887100878727803,1,0.999336
0.9892712486148089,1,0.998236
0.9924902508477179,1,0.999233
0.997370625310755,1,0.999463
0.993985873311411,1,0.999329
0.9906641315835576,1,0.999189
0.9916206019493468,1,0.999370
0.9900674080290675,1,0.998545
0.9966746825039973,1,0.996063
0.9880931060537528,1,0.999389
0.9875947345036001,1,0.999202
0.9960006950972655,1,0.999244
0.989613604273801,1,0.999259
0.9938383269985369,1,0.999269
0.9938769661006301,1,0.999073
0.9944124354493296,1,0.999347
0.9866813704751578,1,0.999503
0.9909129542387679,1,0.999300
0.9882832796643337,1,0.999369
0.9909851740569507,1,0.999198
0.9970061406862514,1,0.999383
0.9979283628902987,1,0.997705
0.9926675693109749,1,0.998600
0.9931290059051555,1,0.999449
0.9969709205746785,1,0.999412
0.9947748478556037,1,0.999358
0.9939599335586322,1,0.999071
0.9946603075410151,1,0.999423
0.994287386490177,1,0.998926
0.9919324915708186,1,0.999453
0.9934168451921519,1,0.999343
0.9879947113123574,1,0.999359
0.990752550248027,1,0.999203
0.9915617002607813,1,0.999332
0.9915833198793648,1,0.999343
0.9799422536836087,1,0.999363
0.9977293259422393,1,0.999411
0.9908830864492052,1,0.999316
0.9984008189167911,1,0.999433
0.9942321567237583,1,0.999392
0.9968463361011063,1,0.999319
0.9952653748923898,1,0.999298
0.9972978302937072,1,0.999398
0.9971601866031767,1,0.999417
0.9958650610712307,1,0.999385
0.991855293798186,1,0.999233
0.9885441501068207,1,0.999434
0.9925875695929269,1,0.999403
0.9904004803476915,1,0.999422
0.9934870366314896,1,0.999232
0.9910558066311017,1,0.999394
0.9952516522204746,1,0.999398
0.9912761911795757,1,0.998693
0.9910082384468685,1,0.999442
0.9968545139904247,1,0.998881
0.9958369446094861,1,0.999417
0.9873001411177033,1,0.998330
0.9957311207116937,1,0.999319
0.9947521470671464,1,0.999371
0.9926938658299991,1,0.998213
0.98993473104517,1,0.999354
0.9926667763186973,1,0.999218
0.9876360107775055,1,0.999367
0.9960709612765336,1,0.999362
0.9958882902580044,1,0.999366
0.9954163361356031,1,0.999404
0.9968754874963339,1,0.999323
0.9934432917720818,1,0.999255
0.9897423256832447,1,0.999293
0.9902412576740223,1,0.999424
0.9893370195744025,1,0.998028
0.9889249359853851,1,0.999391
0.9952896771466796,1,0.998493
0.992721599057261,1,0.999317
0.9926935973148723,1,0.999139
0.992840143881874,1,0.999405
0.983959055764989,1,0.999277
0.9970013259567942,1,0.999404
0.9920347632233039,1,0.998651
0.9969150556701761,1,0.999430
0.9936848064399602,1,0.999200
0.991973948145778,1,0.999348
0.9913012401955303,1,0.999406
0.9883503851012533,1,0.999437
0.997520608165826,1,0.998424
0.9949817228533314,1,0.999254
0.996690978985887,1,0.999449
0.990545914370816,1,0.999428
0.9919944876860985,1,0.999266
0.9911362237094362,1,0.999436
0.9932584205462863,1,0.998477
0.9967340791970948,1,0.999409
0.9899933808129807,1,0.998379
0.9969766980954231,1,0.999451
0.9977995400673603,1,0.999398
0.9937615630927362,1,0.999316
0.9849000189869331,1,0.999336
0.9972097186617895,1,0.999389
0.9949834793022406,1,0.999249
0.9926957752005163,1,0.999069
0.9855163804892568,1,0.999150
0.9886900571206276,1,0.998810
0.9961205796070794,1,0.999413
0.9952606420466703,1,0.999455
0.9918966758065583,1,0.999155
0.9978730370157849,1,0.999363
0.9901832446348016,1,0.999353
0.9964609150270873,1,0.999303
0.9946792329780517,1,0.999318
0.9965766392665981,1,0.999353
0.9926961794405629,1,0.999264
0.9942641514326302,1,0.999338
0.993661421181299,1,0.999335
0.9949128039990216,1,0.999170
0.9918165139675715,1,0.995716
0.9922266994065658,1,0.998760
0.9968244532939701,1,0.999319
0.9925703559179544,1,0.999380
0.9904869832569863,1,0.998616
0.9907068669964527,1,0.998458
0.9875434503834032,1,0.998388
0.9981254482772457,1,0.999420
0.9932400467986441,1,0.998562
0.9918426949691492,1,0.999114
0.9945508089804767,1,0.999351
0.9978276865277773,1,0.998822
0.9955558296903109,1,0.999359
0.9887497068711546,1,0.998809
0.9920940223780808,1,0.999173
0.9898268012079275,1,0.999310
0.9906131397215338,1,0.999382
0.9947466079959808,1,0.999380
0.9965856711196794,1,0.999344
0.9966373246961705,1,0.999383
0.993979971889067,1,0.999432
0.9894487267219539,1,0.999187
0.9905312833164232,1,0.999420
0.994770561072137,1,0.999225
0.9942203123560349,1,0.999286
0.9913778722102881,1,0.999430
0.9926081497341438,1,0.999334
0.9916376492815009,1,0.999301
0.9884477581933372,1,0.999211
0.9967636627212334,1,0.999145
0.9957972318191526,1,0.999239
0.9948811035355389,1,0.999418
0.9884953171666346,1,0.999293
0.9916268580052449,1,0.999254
0.990948943859116,1,0.999355
0.9943633959751993,1,0.998784
0.994186706960211,1,0.998792
0.9949748623583347,1,0.999432
0.9888835271617474,1,0.999421
0.9940313271492577,1,0.999292
0.9955874513479114,1,0.998537
0.9952012253260906,1,0.999380
0.9904925484989666,1,0.999347
0.9960658695519818,1,0.999351
0.9978511766060949,1,0.999145
0.9930896691579063,1,0.998714
0.9938491242909904,1,0.999171
0.9986048643343922,1,0.999369
0.989582128397282,1,0.999351
0.9949726158016357,1,0.999289
0.9917549292205867,1,0.998009
0.9858525697744536,1,0.999306
0.9899114927521926,1,0.999323
0.9899175609194921,1,0.997862
0.9947353808895832,1,0.999464
0.9929112469247451,1,0.999333
0.9931672491716071,1,0.999324
0.992870762205052,1,0.999351
0.9925893783493759,1,0.999251
0.9955409319241041,1,0.999414
0.9909011106294177,1,0.998567
0.9948714048396038,1,0.997661
0.9975245866942017,1,0.999076
0.9908568746765333,1,0.999391
0.9933028688381959,1,0.999361
0.9967409140680672,1,0.999238
0.9942026209955714,1,0.999341
0.996909844272161,1,0.999406
0.9949990177558246,1,0.999436
0.9916144581876497,1,0.999378
0.9798789696555551,1,0.999206
0.9881502582403918,1,0.999307
0.9857272929398813,1,0.998335
0.9872345535306212,1,0.998869
0.9953552993324886,1,0.999433
0.9959996424130274,1,0.998850
0.9978859305492801,1,0.999298
0.9867898177759924,1,0.997609
0.9951802791095282,1,0.998628
0.9965770579327815,1,0.999383
0.9955318439489579,1,0.999418
0.9898321506466009,1,0.999334
0.9944651635517459,1,0.998850
0.9811646358287079,1,0.999394
0.9909890057124231,1,0.999290
0.9940837249497958,1,0.997674
0.9886877200254013,1,0.999409
0.9933933246739107,1,0.999268
0.9945191533301043,1,0.998312
0.9964975234710172,1,0.999369
0.991924881485734,1,0.999362
0.9946615416097035,1,0.999346
0.9925078123023828,1,0.999335
0.9953198829811416,1,0.999332
0.9967475308998587,1,0.999377
0.991905295344086,1,0.995723
0.986046460144189,1,0.999386
0.9887439890184203,1,0.999162
0.9894806712916432,1,0.999300
0.9957502927567601,1,0.999395
0.9974377624132225,1,0.999392
0.994870053115963,1,0.999311
0.9947609591335311,1,0.999273
0.9926779578987228,1,0.998271
0.9937320410202536,1,0.999084
0.9939028327919502,1,0.999354
0.9896144060361108,1,0.999265
0.9916227368478842,1,0.999213
0.9933724272016506,1,0.998562
0.9967782371993427,1,0.999208
0.9927232663073727,1,0.999444
0.9938166994036405,1,0.999182
0.9848257991340765,1,0.997868
0.991670080430099,1,0.996772
0.9904773078054956,1,0.999411
0.993114824019293,1,0.999410
0.9948970942493067,1,0.999368
0.9932774464476218,1,0.999438
0.9950566175176051,1,0.999356
0.9971585151158981,1,0.999399
0.9925332104396669,1,0.999444
0.9866248046361565,1,0.999437
0.9965054680613289,1,0.999381
0.992603548459512,1,0.999384
0.9966101698021032,1,0.999441
0.9921359290761375,1,0.999443
0.9868638200511206,1,0.999416
0.9926300144395673,1,0.999324
0.9935851649805975,1,0.999396
0.9951872848930945,1,0.999322
0.9908609871275436,1,0.999343
0.9978095003605679,1,0.999429
0.9944930544222801,1,0.999426
0.9923473339328223,1,0.998163
0.9906389452502561,1,0.999383
0.9900830196141439,1,0.999406
0.9895380525232256,1,0.998843
0.9781398231706762,1,0.998728
0.9881203063461645,1,0.998071
0.9919939746667265,1,0.999358
0.9949321482900706,1,0.999260
0.9956811647166082,1,0.999388
0.9947119896390044,1,0.999422
0.9928138274808737,1,0.998735
0.9873540019999926,1,0.999353
0.9955803499212436,1,0.998742
0.9964071159297014,1,0.999341
0.9888740118054762,1,0.999288
0.9947773759270199,1,0.999385
0.9893755472966034,1,0.999348
0.9872116052743666,1,0.998880
0.9869855601971693,1,0.998759
0.9825317219503978,1,0.998695
0.9979214345241995,1,0.999365
0.994569187918716,1,0.999226
0.9936478770347795,1,0.998589
0.9944042718724931,1,0.999437
0.9938679594712936,1,0.999298
0.9940453126706281,1,0.999171
0.990227317525835,1,0.998978
0.9972386728274178,1,0.998401
0.9974593561657443,1,0.999411
0.9919662041560587,1,0.999352
0.9939680638852133,1,0.999261
0.9956065338640051,1,0.999373
0.9956168037809292,1,0.999373
0.9939593268524555,1,0.999365
0.9966114134709225,1,0.998733
0.9858927590204699,1,0.999385
0.9928585719488556,1,0.999383
0.9945864591988557,1,0.999386
0.990467140204014,1,0.999360
0.9957979103907794,1,0.999394
0.9901293662710561,1,0.999358
0.9895843800299026,1,0.999242
0.9978230985690411,1,0.999382
0.9971075280557041,1,0.999414
0.9881609326589157,1,0.998863
0.9878707085703308,1,0.999279
0.9940355954426696,1,0.999388
0.9919613044246282,1,0.998788
0.9928732362518525,1,0.999227
0.9918666239906365,1,0.999357
0.9948450564138641,1,0.999260
0.9901187425230655,1,0.998139
0.9947867338748427,1,0.999345
0.9960475186673143,1,0.999360
0.9979843505034783,1,0.999361
0.9959421799344392,1,0.999444
0.9933397657701851,1,0.999310
0.9929766401352683,1,0.999304
0.9970494298217953,1,0.999480
0.9930054141888223,1,0.999230
0.9914990855826455,1,0.999379
0.9918102719741366,1,0.999365
0.9912046680397326,1,0.998700
0.9964549330006982,1,0.999351
0.9910446152328626,1,0.999388
0.9947896238888106,1,0.999331
0.9893501947128428,1,0.998943
0.991772384140056,1,0.998762
0.9912081017774311,1,0.999366
0.9956185353577294,1,0.999248
0.984352752197104,1,0.999377
0.99264049947164,1,0.999379
0.9879504667713428,1,0.998614
0.9944620753906231,1,0.999400
0.9952045412226623,1,0.999412
0.9884339496404823,1,0.998604
0.9930086787817154,1,0.999293
0.9846040271064618,1,0.999373
0.9936816141418615,1,0.997948
0.9840469138909297,1,0.999230
0.9847574266810221,1,0.997636
0.9956089469959082,1,0.999183
0.9935287553935368,1,0.999359
0.9923535739627316,1,0.999327
0.9953094840052137,1,0.999315
0.9888184815395026,1,0.999316
0.994399045289148,1,0.999435
0.9938983985530522,1,0.997705
0.996583556980994,1,0.998831
0.9885982756152655,1,0.999343
0.99354780636481,1,0.999395
0.9855294202002457,1,0.999329
0.9962329730326546,1,0.999238
0.9952219712235304,1,0.999371
0.9909751057674512,1,0.998236
0.9971232317192471,1,0.998737
0.9883150284490302,1,0.999206
0.9851583304605714,1,0.999418
0.9911773833477397,1,0.999381
0.9920840483721244,1,0.998104
0.9934131725810671,1,0.998787
0.9949379785198468,1,0.999375
0.9932597335475064,1,0.999357
0.9893489881950241,1,0.999390
0.9955803265798157,1,0.999244
0.9888699220091676,1,0.999087
0.9880549997840243,1,0.999300
0.9925832837645278,1,0.999443
0.9917792154634764,1,0.999392
0.9945240336951785,1,0.999256
0.992990704273247,1,0.999329
0.9922627452259211,1,0.998614
0.9848379751378908,1,0.999221
0.9939420159157727,1,0.999430
0.9869285364922495,1,0.999240
0.9947721033167944,1,0.996203
0.9900064280469597,1,0.999257
0.9937087615507435,1,0.999193
0.9934580272389559,1,0.999375
0.9855654117089898,1,0.999367
0.9934030134193745,1,0.999386
0.9926298382138974,1,0.999353
0.9898550358677014,1,0.999334
0.986500694065139,1,0.999366
0.9883491679774926,1,0.999254
0.9964237624446431,1,0.999393
0.9828019811153783,1,0.999288
0.9833287106235509,1,0.999322
0.9868592458357492,1,0.998771
0.9964308731702991,1,0.999410
0.9975572291374926,1,0.999411
0.9934916970751271,1,0.999352
0.993439766899951,1,0.999273
0.9939830638972471,1,0.999270
0.9904898601468957,1,0.999369
0.994685945064991,1,0.999237
0.9900547047823381,1,0.999257
0.9905491750809191,1,0.999394
0.9921342154533865,1,0.998741
0.9936253940824364,1,0.994987
0.9907764875975176,1,0.996764
0.9944307061480956,1,0.999407
0.9907857934251254,1,0.999437
0.9926148035826075,1,0.999311
0.9883077247729081,1,0.998347
0.990520803855599,1,0.999304
0.9877789569941848,1,0.999347
0.9833496880602965,1,0.999450
0.9924140924736572,1,0.999285
0.9843675670421996,1,0.999409
0.9853492761132432,1,0.999424
0.9831061394039031,1,0.999373
0.9856358183886446,1,0.999241
0.9950075863488551,1,0.999356
0.9936930333799178,1,0.998197
0.9923349985118837,1,0.999388
0.9946237220686465,1,0.999417
0.98463224123138,1,0.999162
0.9929016320558574,1,0.999188
0.9948382146394883,1,0.998578
0.9917483152582908,1,0.999407
0.9826697029548644,1,0.999408
0.9948879405480512,1,0.999241
0.9942789875608283,1,0.998570
0.990128434083125,1,0.999246
0.9879942627729476,1,0.998453
0.9895498223634321,1,0.999431
0.9861086579040512,1,0.999307
0.982243340081623,1,0.997951
0.9870309746279639,1,0.999046
0.9927973125598043,1,0.999229
0.9924153110290834,1,0.999291
0.9893239116591551,1,0.999145
0.9930000955761871,1,0.999331
0.9910980675254657,1,0.999383
0.9935221519188965,1,0.999381
0.9836455871672899,1,0.999398
0.992984105894719,1,0.999399
0.9927398845349086,1,0.999293
0.990866656785694,1,0.999280
0.9912095958875602,1,0.999232
0.9963369862344713,1,0.999366
0.9865579852814688,1,0.999353
0.9864268936669889,1,0.999379
0.9879721356159327,1,0.999312
0.9828914477691998,1,0.999189
0.9845493584185376,1,0.997781
0.9883254793528253,1,0.999324
0.9649227687618027,1,0.999116
0.9852842350829106,1,0.999209
0.9944063718528615,1,0.999378
0.9958530572941816,1,0.999274
0.9867888571888639,1,0.998808
0.9898197933083996,1,0.999402
0.9916595910371058,1,0.999321
0.995155397850599,1,0.999330
0.9926714155576002,1,0.999165
0.9947152589721105,1,0.999188
0.9824892168615341,1,0.999439
0.9909554441628701,1,0.999214
0.9919719989057401,1,0.998548
0.9870878962165738,1,0.998814
0.992325324002298,1,0.998849
0.9936550370664392,1,0.999258
0.9874358494236345,1,0.999194
0.992680963939897,1,0.999027
0.9893800442106051,1,0.999303
0.9908595914411606,1,0.999445
0.991347589948834,1,0.999449
0.9907399015274612,1,0.998862
0.9921988129988606,1,0.999296
0.9952733593207632,1,0.999371
0.9952462148869525,1,0.999301
0.9845779063571081,1,0.998250
0.9971970846073556,1,0.999425
0.9932984720303234,1,0.998714
0.9951824896888236,1,0.999325
0.9898883610279736,1,0.999431
0.9902749470980644,1,0.999383
0.9932105004457119,1,0.999125
0.9812355319651773,1,0.999417
0.9934929233233135,1,0.998685
0.9942793553072022,1,0.999234
0.9960178114313505,1,0.999102
0.9951297751609555,1,0.999242
0.9988420410272962,1,0.999421
0.9958865376864333,1,0.999288
0.9945179930818534,1,0.999273
0.9943101270459258,1,0.998791
0.9924230680668789,1,0.999457
0.9875639800179955,1,0.998928
0.9909270955666847,1,0.999388
0.9889992666048861,1,0.999214
0.9913613291029143,1,0.999370
0.9912083936918044,1,0.999337
0.9922907912388663,1,0.999351
0.9903117453387844,1,0.999250
0.9909815368964574,1,0.999373
0.9927437393648787,1,0.999322
0.9884486540553342,1,0.999400
0.992709092704295,1,0.999476
0.9929085374725765,1,0.999391
0.9921359646477682,1,0.999327
0.9865843219659451,1,0.999329
0.9911448323517443,1,0.999432
0.978900843056055,1,0.999461
0.9935599136360008,1,0.999288
0.9944342975797235,1,0.998730
0.9856931402657811,1,0.998804
0.9814670239709323,1,0.999279
0.994659472402234,1,0.999283
0.9918614889786281,1,0.999328
0.9904600054753209,1,0.999458
0.9920140289265811,1,0.999287
0.9865036631669998,1,0.999293
0.997018897863608,1,0.999356
0.9967825808810069,1,0.999394
0.9972921087193226,1,0.999369
0.9899104947816646,1,0.999284
0.9966616335276521,1,0.998771
0.9933816392039861,1,0.998431
0.9884208265446066,1,0.999455
0.9939658243548133,1,0.999079
0.9917922841084027,1,0.998741
0.9899896032231599,1,0.999396
0.9819122056374864,1,0.999410
0.9963316848066404,1,0.999363
0.9977161083605656,1,0.999347
0.9968971862284426,1,0.999391
0.9921085195814978,1,0.998246
0.9842756102564926,1,0.998872
0.9955975231649948,1,0.998678
0.9944998708479086,1,0.999408
0.9927694136344304,1,0.999373
0.9963279889839141,1,0.999206
0.9898414174645392,1,0.998585
0.9950906721633972,1,0.999278
0.994726273071393,1,0.999460
0.9960693033742806,1,0.999281
0.9942345577210687,1,0.999395
0.9868443804946408,1,0.999426
0.9956111609259698,1,0.999418
0.9924739812843718,1,0.999412
0.9918221305571064,1,0.999391
0.9915131708167318,1,0.998675
0.9936299736936887,1,0.998797
0.9930426599285539,1,0.999448
0.9908066047263361,1,0.999434
0.9930685909138216,1,0.998424
0.9958373153420592,1,0.999361
0.9946273780515107,1,0.998538
0.9902778853436999,1,0.999304
0.9967045191348477,1,0.999249
0.9983485390725411,1,0.999316
0.9941403140438465,1,0.998814
0.9954004130503507,1,0.999471
0.9972062676642366,1,0.999402
0.9928659177903869,1,0.999292
0.9957950061553308,1,0.999416
0.9898192641788279,1,0.999321
0.99722726465676,1,0.999225
0.9928372155538725,1,0.999272
0.9938626202295343,1,0.999336
0.9950017273091094,1,0.999356
0.993959798623892,1,0.999320
0.9898926611105474,1,0.997645
0.9887643869127604,1,0.999307
0.9936171257672587,1,0.998778
0.9882992855102637,1,0.999319
0.9863160139401183,1,0.999299
0.9910132622447093,1,0.999380
0.9831369356596272,1,0.999194
0.9929249052432145,1,0.999341
0.9952558344060805,1,0.999187
0.9976283870102107,1,0.999432
0.9925692204416027,1,0.998813
0.993218827019608,1,0.999414
0.9915866982285437,1,0.999443
0.9921344660013786,1,0.999408
0.9925717052359881,1,0.998775
0.9958342406855594,1,0.997754
0.9906050779519807,1,0.999278
0.9887189679600032,1,0.998586
0.9888911673134688,1,0.998830
0.9858673944299734,1,0.999070
0.997613075906348,1,0.998880
0.9938661237864668,1,0.998620
0.9794392655381479,1,0.999388
0.9852404756404917,1,0.999363
0.9882337708634858,1,0.998153
0.9942308039486158,1,0.997955
0.9831576122123379,1,0.999219
0.9951414265396855,1,0.998888
0.9921372560672239,1,0.999385
0.9906700571892799,1,0.999387
0.993779158096105,1,0.999447
0.9893230220867272,1,0.998574
0.9855820906477614,1,0.999345
0.9767821031850462,1,0.999212
0.9948291374074876,1,0.997442
0.969309223342897,1,0.999351
0.9923609854266237,1,0.999201
0.9902144603456896,1,0.999303
0.99384274845359,1,0.999447
0.9910284181921188,1,0.999461
0.9948764269511239,1,0.999255
0.9855376764654052,1,0.999275
0.9862644379986701,1,0.999225
0.9901079143070661,1,0.999302
0.9952655192306927,1,0.998620
0.9970842319063555,1,0.999418
0.989031406946902,1,0.999288
0.9936975849694036,1,0.999348
0.9910987788986448,1,0.999389
0.9914793725370756,1,0.999318
0.9865733633948424,1,0.999313
0.9940080245542916,1,0.999415
0.9948255631062741,1,0.999080
0.9948305477738315,1,0.999156
0.9863248353980882,1,0.999206
0.9928473516011292,1,0.999343
0.9937708273832156,1,0.999426
0.9891964203597601,1,0.998893
0.9889154113670846,1,0.999345
0.9952681987632737,1,0.999443
0.9972530823999096,1,0.999319
0.9945178438288457,1,0.998700
0.9958249469159879,1,0.999382
0.9964804655314062,1,0.999365
0.9951105610881564,1,0.999327
0.9975288015189204,1,0.999383
0.9945806482081592,1,0.999265
0.9969097296947117,1,0.999253
0.9951899124838429,1,0.999325
0.9947497862914503,1,0.998809
0.9963452271142763,1,0.999383
0.9954531979819455,1,0.999228
0.9934518053489204,1,0.999422
0.9957222949547824,1,0.998660
0.9958713883539431,1,0.999388
0.9950721316646554,1,0.999398
0.9949760581400412,1,0.999325
0.9944655265086014,1,0.999275
0.9919316394045078,1,0.998588
0.9944264380500117,1,0.999432
0.9952559396580429,1,0.999298
0.9923806093130658,1,0.996753
0.9966879968296567,1,0.998046
0.9909532041971153,1,0.999317
0.9958381605875642,1,0.999148
0.9921872816353495,1,0.999439
0.9934367569341827,1,0.999426
0.992505461502337,1,0.997860
0.9917626404304534,1,0.999139
0.9932527714275093,1,0.999383
0.9821089827475449,1,0.998670
0.9940936973061502,1,0.999380
0.9870989628517832,1,0.997465
0.9939526740047693,1,0.999303
0.9949325817313335,1,0.999400
0.9968209094052695,1,0.999259
0.9934122728243349,1,0.999541
0.9943667042313297,1,0.999452
0.9950027282631276,1,0.999413
0.9974010754229776,1,0.999410
0.9916118275373687,1,0.996283
0.9934311110405617,1,0.999188
0.9919344402984804,1,0.999387
0.9937278933801926,1,0.999255
0.9970082628524045,1,0.999396
0.9957964821372243,1,0.999433
0.9941001109922459,1,0.997821
0.9925377101398264,1,0.997914
0.9944761894263063,1,0.999380
0.9959863279516685,1,0.999340
0.9974681898618174,1,0.999336
0.9938979987763678,1,0.999280
0.9952407148010393,1,0.999375
0.9974414679286541,1,0.999377
0.9938699858452473,1,0.999301
0.9979343372174478,1,0.999384
0.9913853417428656,1,0.999378
0.9969803486819384,1,0.999433
0.9897632322254548,1,0.999344
0.9928910099541262,1,0.999334
0.9919555594388053,1,0.998786
0.9871265481944906,1,0.999171
0.9947821420005888,1,0.999396
0.9913457943331465,1,0.999415
0.9957913168941254,1,0.999439
0.995205584653605,1,0.999491
0.9918609061068763,1,0.999397
0.9924712587193738,1,0.999082
0.9888896992825796,1,0.999387
0.9950004097955224,1,0.998674
0.9933463028288403,1,0.999217
0.9907078351083657,1,0.999380
0.9940884944738061,1,0.998817
0.9968404951539553,1,0.998133
0.9918303331070831,1,0.999305
0.9967468516073755,1,0.997896
0.9903277567087503,1,0.999371
0.9933157489154827,1,0.999440
0.9952030652250309,1,0.998494
0.996483140487801,1,0.998720
0.9934619638724503,1,0.999301
0.9961634843409299,1,0.999425
0.9936567491431391,1,0.998651
0.9960666911355595,1,0.999147
0.9951299695522744,1,0.999312
0.9930793888745367,1,0.999401
0.9906149602618288,1,0.998697
0.9923083755803271,1,0.999344
0.9852305003465521,1,0.999080
0.9945309164692283,1,0.999319
0.9933325032042938,1,0.999235
0.9969625135615642,1,0.999230
0.9947131544097727,1,0.999391
0.9924743994074828,1,0.999258
0.9890651583925516,1,0.998859
0.989759508840816,1,0.999348
0.9923310400273625,1,0.999380
0.9779987185193149,1,0.999278
0.9914845081965321,1,0.999277
0.9896865322829774,1,0.998875
0.9927876520666558,1,0.999443
0.9962895011229386,1,0.999372
0.9920572047138722,1,0.999389
0.9951668804391525,1,0.999401
0.9903581709501579,1,0.999437
0.9955919818494159,1,0.999316
0.9973399107239291,1,0.999442
0.9927477458998135,1,0.999335
0.9955824723695428,1,0.999400
0.9933977140881876,1,0.999169
0.9971883491456456,1,0.999115
0.9937187851853182,1,0.999294
0.9955246049510481,1,0.999389
0.993638062863874,1,0.999057
0.9953461146376352,1,0.999375
0.9976887895738367,1,0.999278
0.9910654504528584,1,0.999420
0.9945005490448251,1,0.999406
0.9965347547441782,1,0.999276
0.9967999000887838,1,0.999177
0.9955357583204139,1,0.999282
0.9916365617288845,1,0.998763
0.9944592908459873,1,0.999181
0.9949228356038391,1,0.999384
0.9862648247094855,1,0.999142
0.9930466677380001,1,0.999130
0.9934079932243911,1,0.999311
0.9920718208711287,1,0.999311
0.9933815015154616,1,0.999446
0.9907224754806283,1,0.999266
0.9923879433150666,1,0.998340
0.9916638695458911,1,0.999339
0.9959051680627498,1,0.999349
0.9963647540855288,1,0.999381
0.9898721747075501,1,0.999267
0.9934977148250326,1,0.999393
0.9940430345100979,1,0.998700
0.9922320051692383,1,0.999301
0.9938234275333053,1,0.998560
0.9898612638267474,1,0.999173
0.9892626631574368,1,0.998687
0.9962223202584849,1,0.999348
0.9957306720824559,1,0.999317
0.9951587129744582,1,0.999395
0.9925302835322632,1,0.999316
0.9876259168070981,1,0.999325
0.9963966811826965,1,0.998401
0.9928757018490292,1,0.998501
0.9888648994459174,1,0.999374
0.9918779766962729,1,0.999349
0.9960273322800367,1,0.999257
0.9961483998860826,1,0.999315
0.9921990282696842,1,0.999276
0.9925646213281568,1,0.998940
0.9922077380403042,1,0.998395
0.9937303965035256,1,0.998800
0.9965217458609833,1,0.999355
0.9920792431386526,1,0.998650
0.9825054525847877,1,0.998920
0.992767553924261,1,0.999433
0.9928370609839428,1,0.999443
0.9900756102802248,1,0.999356
0.9901322279540966,1,0.998840
0.9876950051427628,1,0.999387
0.9920877771249523,1,0.999347
0.9887680446862317,1,0.997927
0.9901459106232454,1,0.999426
0.9886343590240863,1,0.999344
0.990422927309766,1,0.999369
0.9970228776897632,1,0.997973
0.993297085376156,1,0.999260
0.9977251618710654,1,0.999419
0.9938069415355876,1,0.999223
0.9955075621620593,1,0.996825
0.9910255719841442,1,0.999238
0.9931688814545703,1,0.999380
0.9945622292618196,1,0.999127
0.9884947416530194,1,0.999291
0.9941841438969437,1,0.999411
0.9931593911101912,1,0.999248
0.9932088243803904,1,0.999262
0.9944229812939003,1,0.994210
0.9951403338483731,1,0.999306
0.9941014610778978,1,0.998847
0.996995349947802,1,0.999218
0.9957686294976594,1,0.999385
0.9884121404683447,1,0.999274
0.9928262538047843,1,0.999421
0.9896089149605092,1,0.998592
0.9970251913354335,1,0.999246
0.9932140338223372,1,0.997854
0.9969873625622883,1,0.999020
0.9964312357225754,1,0.999396
0.993392419949394,1,0.999310
0.9935838760560161,1,0.998918
0.9895962211938416,1,0.999431
0.9908998562601572,1,0.999420
0.9941273630316807,1,0.999268
0.9889027602225957,1,0.999464
0.9935171501119591,1,0.999128
0.99628661440275,1,0.999338
0.9921421314872994,1,0.999434
0.9970912029185638,1,0.999373
0.9928933352801917,1,0.998177
0.9934851975122494,1,0.999392
0.981450051782555,1,0.999363
0.9921866138899805,1,0.999373
0.9934726493056114,1,0.999248
0.9964067962472782,1,0.999420
0.9968009726287166,1,0.999275
0.9905499149362735,1,0.999375
0.9861670181527789,1,0.998308
0.9931148681946175,1,0.999451
0.9914788924522484,1,0.999191
0.9898475110388618,1,0.999344
0.9922410515425197,1,0.998543
0.9901154609383924,1,0.999151
0.9852410442685963,1,0.999335
0.9886209226905187,1,0.999254
0.9933221876085919,1,0.999344
0.9864370840804119,1,0.999320
0.9913427373531628,1,0.992727
0.9877769982549016,1,0.999265
0.9929120972929859,1,0.998550
0.9855957375416473,1,0.999228
0.9897316280488311,1,0.999106
0.9696725952966081,1,0.998663
0.9850478763272827,1,0.998219
0.9960738231196217,1,0.999308
0.9962792361813058,1,0.998476
0.9876497666490142,1,0.999408
0.9902008367756341,1,0.999199
0.9930324390467392,1,0.999421
0.9945005363980641,1,0.999209
0.9960759782880977,1,0.999328
0.9935351490853418,1,0.999228
0.9953002297072621,1,0.999233
0.9959723154715544,1,0.999364
0.9982837984528883,1,0.999368
0.9944575266183909,1,0.999204
0.9959499901043142,1,0.999380
0.9913531396311686,1,0.998685
0.9954558945570336,1,0.999187
0.9918019756079313,1,0.999402
0.9889557849149802,1,0.999454
0.9845670684956926,1,0.999310
0.9952152088456573,1,0.999346
0.9978451536679575,1,0.999323
0.9925030831385687,1,0.999395
0.9861245784504317,1,0.999284
0.9927733600120099,1,0.999367
0.9969734531202751,1,0.999388
0.9959765665141664,1,0.999426
0.9951530821357331,1,0.997343
0.9916745632671902,1,0.999286
0.9881613032703671,1,0.999468
0.994785055102471,1,0.999258
0.9976378420897017,1,0.999394
0.9926645201499806,1,0.999442
0.9945161288205815,1,0.999408
0.9907568136803079,1,0.999349
0.9989087699239293,1,0.999375
0.9962347999734497,1,0.999420
0.9955191404143496,1,0.999356
0.9916652668274784,1,0.999139
0.9930327297789594,1,0.999207
0.9965739450013921,1,0.997848
0.9938785869296507,1,0.999294
0.9925228017692179,1,0.998638
0.9880463756554977,1,0.999473
