0.7418307411225765,1,0.985447
0.7538118441483396,0,0.069519
0.8246459017564155,0,0.948187
0.41697609823111975,0,0.636066
0.5066250471744483,0,0.857788
0.6589024112131859,0,0.152632
0.6810546053128032,0,0.972495
0.7339557946115307,0,0.727660
0.7419500192453024,0,0.058296
0.8096778502080306,1,0.980769
0.6527677294236349,0,0.629344
0.6660026941172259,0,0.739336
0.6330534789175104,1,0.988662
0.4861033246380993,0,0.936306
0.6117741652966717,0,0.963134
0.5351173605368249,0,0.862069
0.7337008860317061,0,0.844765
0.7337566462450549,1,0.994318
0.6973798280712534,0,0.173160
0.5508961545078019,0,0.267717
0.6991482618859116,0,0.974576
0.7230595397007303,0,0.845070
0.32063347035369355,0,0.758333
0.28479949176249303,0,0.209913
0.45991966662418293,0,0.806794
0.32277160245663084,0,0.500911
0.35208881468585357,0,0.724852
0.6573649842314598,0,0.928767
0.367949681538372,0,0.821033
0.09364089361955907,0,0.355357
0.08624094131103929,0,0.569196
0.08679208716747175,0,0.399522
0.13528315482029013,0,0.861804
0.12017465934888506,0,0.786730
0.04848617727904588,1,0.995381
0.10935654712486001,0,0.674473
0.21593221042870472,0,0.960177
0.14797232664518148,0,0.860640
0.18129855036406023,0,0.916667
0.2281238488312129,0,0.969298
0.31327878685189325,0,0.898438
0.2724115084088664,0,0.324211
0.1484451183214887,0,0.152805
0.18886223155600285,0,0.289855
0.24831874802216788,0,0.858657
0.38745541724347243,0,0.805447
0.4438174171999252,0,0.888889
0.16602388937716056,0,0.227848
0.17603522127114135,0,0.777351
0.1829972366633745,1,0.996540
0.2518745308155198,0,0.285714
0.2914864838925431,0,0.910828
0.2604532767138975,0,0.484694
0.14588398200133568,0,0.709877
0.14960773436380242,0,0.793103
0.1269518172820256,0,0.474249
0.10640318544888908,1,0.981982
0.11999687358196667,0,0.653846
0.14731068087159505,0,0.517717
0.057247262213247045,0,0.898039
0.17703506364277158,0,0.532338
0.1509955304525364,0,0.721429
0.1712970728056693,0,0.526652
0.36132169234477135,0,0.923304
0.4033691451732808,0,0.874704
0.29951830366955107,0,0.650430
0.347862386026159,0,0.840816
0.4840090865126248,1,0.976190
0.352276545278546,0,0.766423
0.3844425901993248,0,0.898496
0.4111899015437971,0,0.803493
0.524961287500955,0,0.882022
0.6311168507425337,0,0.942966
0.3609412295634194,0,0.125786
0.24710607678947452,0,0.765957
0.4449703764751805,0,0.383529
0.5070600908367164,1,0.960630
0.5070314510432584,0,0.857567
0.30354593376123434,1,0.972696
0.20960822250494848,0,0.775982
0.37372363505076733,0,0.287815
0.40475956125832274,1,0.971609
0.507253239147152,0,0.715686
0.45469018476162504,0,0.790795
0.6565518899340047,0,0.746753
0.44278449635084527,0,0.781316
0.44496307961475623,0,0.899705
0.3559566912013205,0,0.810976
0.5665990455396133,1,0.996409
0.47484363191289186,0,0.595092
0.41753889517534715,0,0.736292
0.660110156444302,1,0.986577
0.6065897270270354,1,0.979167
0.5190938164988874,0,0.721311
0.21658015277541473,0,0.789308
0.16923458157378005,0,0.924561
0.24434538721946272,0,0.417266
0.2513203798118067,0,0.583630
0.33884076764093013,0,0.080679
0.3080408047903825,0,0.852041
0.35567481666579465,0,0.837302
0.3452149511127002,0,0.875598
0.4646462916699573,0,0.766667
0.2894642107895211,0,0.901124
0.18849242090180024,0,0.922306
0.2340740381989472,0,0.665263
0.36890083265298096,0,0.622093
0.06662713593737048,0,0.611111
0.05344913502246322,0,0.366748
0.08865017843061883,0,0.886617
0.11490947158573456,0,0.621868
0.1638371451218058,0,0.735169
0.19144686616102863,1,0.986541
0.11137815060031461,0,0.428571
0.13457164062804997,0,0.660640
0.158864654036233,0,0.365591
0.29406402324044345,0,0.871212
0.26994528277686747,0,0.599502
0.2861870228173633,0,0.701299
0.1890391655874977,0,0.807256
0.15273569496730907,0,0.701149
0.21959810231505536,1,0.956835
0.34162178486209793,0,0.899083
0.4400639879073998,0,0.875000
0.37279033713753035,0,0.195833
0.2691989349136884,0,0.233333
0.38782479240207035,0,0.922118
0.12481320154534567,0,0.128261
0.2239026502184024,0,0.610507
0.10901380903376191,0,0.935897
0.09009223023045117,0,0.251174
0.1261708927140746,0,0.284360
0.18478917520705834,0,0.513978
0.18569469952920337,0,0.835010
0.10410648872479322,0,0.283478
0.10200405214638236,0,0.546269
0.17925498476830792,0,0.867133
0.12474335260211514,0,0.798479
0.11167902010733888,0,0.047244
0.12740288113163994,0,0.237094
0.18277655264760756,0,0.091146
0.16607398023357758,0,0.799591
0.12686804569620858,0,0.539548
0.2645668751744984,0,0.698305
0.21835871582594307,0,0.937500
0.19139971436503564,0,0.877934
0.23644473875865635,0,0.687075
0.314328799124721,0,0.745308
0.19452980856566635,0,0.673611
0.19622052824775027,0,0.492537
0.24678492654839698,0,0.781991
0.1752710805312914,0,0.943396
0.1969740104997463,0,0.616915
0.2996950246582819,0,0.775982
0.36788174902319565,0,0.930180
0.3324397959071654,0,0.840116
0.5428790611805904,1,0.963542
0.4768035463640861,0,0.650000
0.4124495587392303,0,0.557025
0.398319289689905,0,0.590535
0.2717006749832047,0,0.127371
0.4728923837107116,1,0.980392
0.549290044717991,0,0.737410
0.39980173881128306,0,0.950226
0.35540759130818117,1,0.971698
0.3511052207880775,0,0.471311
0.40432020734281543,0,0.622263
0.4786180851001667,0,0.921811
0.22776105375552091,0,0.628319
0.56031896688381,0,0.976271
0.6012365997465734,0,0.262156
0.45493161613046107,0,0.589212
0.395636612781919,0,0.961672
0.26476718538549476,1,0.945736
0.1771253062520461,0,0.497382
0.1545586540387144,0,0.058411
0.19073778903972696,0,0.317073
0.24908114511499074,0,0.612795
0.3375744146661019,0,0.647975
0.249110392049154,0,0.099537
0.20464788081392027,0,0.322709
0.07356229445676454,0,0.917062
0.1751064155868591,0,0.087786
0.11363659681393845,0,0.939457
0.16842810181546458,1,0.951923
0.2221790351494729,0,0.903226
0.22066475028231194,0,0.258278
0.19280546381560024,0,0.634921
0.198741954547593,0,0.440181
0.18337547447560035,0,0.822951
0.35988703317280885,0,0.750000
0.2921907422023432,0,0.831202
0.350515119161778,0,0.416058
0.29417276999541625,0,0.406977
0.14466673239091699,0,0.929619
0.17853932418733742,0,0.074733
0.1912024323935069,0,0.625514
0.25858340324539414,0,0.353398
0.28794078540893664,0,0.417004
0.4355093712608537,0,0.916058
0.5871586312361506,0,0.902240
0.6608101788752276,0,0.929530
0.7302154997667515,0,0.859677
0.40357377980734116,0,0.626350
0.2226883813361812,0,0.778302
0.5107342177353636,1,0.981265
0.24105164102160478,0,0.820755
0.22589485201984186,0,0.363128
0.28081149509490033,0,0.577982
0.1630715531921805,0,0.815857
0.07127106020778191,0,0.961039
0.04553632879559994,0,0.731148
0.10834490282693672,0,0.269421
0.13620133349672214,0,0.754032
0.19204278090052557,0,0.085890
0.2111901588588472,0,0.682573
0.19260763790504468,0,0.056940
0.25996452804728154,0,0.982372
0.2663969767297158,0,0.571429
0.3293946260000475,0,0.932950
0.20974404994629883,0,0.717949
0.1810477769990877,0,0.501253
0.18248013878304636,0,0.867742
0.22630945772371067,0,0.009756
0.21024976151520533,0,0.956221
0.29704826000354984,0,0.140625
0.346572003415103,0,0.309293
0.28199194486109436,0,0.899598
0.42571917960093425,0,0.211864
0.38081276603975656,0,0.956364
0.29454672462036047,0,0.691871
0.3077649990959011,0,0.115979
0.2955647271115803,0,0.486957
0.4950436757251348,0,0.899351
0.5915826010557332,0,0.892430
0.3828586315539466,0,0.759336
0.4432410766624638,0,0.876543
0.5747304097930444,0,0.947939
0.3914444062648441,0,0.761364
0.5036305471973046,1,0.989130
0.5398873078328339,0,0.951754
0.5550137370184841,0,0.474359
0.328485215552913,0,0.679739
0.41119455610700056,0,0.290520
0.5169115707620101,0,0.968692
0.19187783283477994,1,0.975676
0.4047704852819453,0,0.857895
0.5642814980832638,0,0.932917
0.3965596813440813,0,0.843829
0.5283081688718025,0,0.553191
0.44302053379280903,0,0.421687
0.43806608384550905,0,0.611599
0.4413121879030897,1,0.974425
0.41726214331324757,0,0.768889
0.4075304609048061,0,0.242424
0.4646873044602847,0,0.489130
0.5720138988535046,0,0.087500
0.4215326059662771,0,0.862687
0.49564808816212996,1,0.975684
0.5039806290643115,0,0.971983
0.5779592508702446,0,0.758264
0.3776456474059699,0,0.601476
0.4904483761159455,0,0.818182
-0.007885651321630464,0,0.349030
0.028307247956409574,0,0.334328
0.047311312230659215,0,0.668990
0.06632921418795436,0,0.793696
0.08586137717966562,0,0.274699
0.08084109724170548,0,0.536424
-0.012450482456524088,0,0.104478
0.03642236222370173,0,0.810484
0.0960131261140527,0,0.797732
0.16541738532362893,0,0.380392
0.22052312576946193,0,0.846154
0.20172631463105156,0,0.947748
0.3706118049792712,0,0.944744
0.3884859072217813,0,0.959488
0.4738203068829129,0,0.536797
0.29174377849285493,1,0.982759
0.1956456958737598,0,0.777778
0.02212932662643822,0,0.289562
0.04667105598032906,0,0.050562
0.11296823812148303,0,0.670077
0.0994453116656748,0,0.309392
0.21461410343982207,0,0.820116
0.21584296843278586,0,0.728195
0.251148693049853,0,0.901141
0.26388910647164127,0,0.410985
0.25687120385952017,0,0.292096
0.19419996058417827,0,0.763006
0.18950322903944677,0,0.868020
0.3251224266574282,0,0.897098
0.25457807507972235,0,0.380952
0.050085076298949295,0,0.970917
0.10983572915253612,1,0.947020
0.064421865148676,0,0.022883
0.045147134188026905,0,0.482394
0.14516660869508674,0,0.382550
0.0022391606375563476,0,0.363303
0.06614725023990808,0,0.045455
0.1629427741840982,0,0.755906
0.19853566470919082,0,0.047120
0.1513428388385252,0,0.754864
0.16804741729207395,0,0.963788
0.1789595923020923,0,0.721519
0.1443940540801387,0,0.348624
0.10554709464546423,0,0.256684
0.1773011721731642,0,0.970115
0.2263299069904104,0,0.956175
0.20619703196760056,0,0.686404
0.2924269204292314,0,0.701807
0.2985411981793139,0,0.609551
0.16239999369110103,0,0.801653
0.2433401584025314,0,0.859079
0.2546030534441525,0,0.893035
0.24568997008234902,0,0.286853
0.2651543448210821,0,0.488189
0.2974502758847347,0,0.152344
0.12139470398991499,0,0.949074
0.057567668937549776,0,0.536017
0.11515973727917546,0,0.503937
0.24571196331585407,0,0.887755
0.35896360004040223,0,0.914454
0.35372442606228527,0,0.248337
0.21400293799250147,0,0.367171
0.2469206455838204,1,0.970779
0.32029297050028904,0,0.895954
0.24759606067631476,0,0.956522
0.2552727698335309,0,0.855932
0.2510210140896959,0,0.962054
0.30156260195271556,0,0.500000
0.31595319353135903,0,0.775132
0.3705460871887049,0,0.435523
0.42452654410454743,0,0.194617
0.4775113476701963,0,0.775148
0.48168429006395586,0,0.463415
0.40902640564467146,0,0.504202
0.31872787730312374,0,0.787565
0.37361934443850686,0,0.744361
0.2922317025091329,0,0.710059
0.28294009045779683,0,0.917910
0.38728765744569765,0,0.833735
0.2923822137096665,0,0.952239
0.47829997158086063,0,0.966431
0.416645106553968,0,0.894428
0.3275231664544641,0,0.738028
0.2085048982711644,1,0.978979
0.24415046946517968,0,0.870000
0.322225687948364,0,0.639024
0.20927650263812783,0,0.036313
0.19621431931294692,0,0.867435
0.1853523129044795,0,0.193029
0.3123637453737537,0,0.921182
0.3229960059124277,0,0.201405
0.35959431014066306,0,0.843220
0.28635906599611544,0,0.969907
0.3480317020795345,0,0.978131
0.19679182281812044,0,0.682403
0.3217842157181619,0,0.798635
0.39690971653787327,0,0.893971
0.3087571575993166,0,0.926282
0.11185212818723778,0,0.583333
0.07077881240026385,0,0.195853
0.1486947719327564,0,0.289474
0.24352589164831503,0,0.531381
0.21861498462935688,0,0.698675
0.22624588303944224,0,0.790948
0.15259842184008254,0,0.136585
0.13533947521600836,0,0.549356
0.1954513270505377,0,0.765823
0.4584736490902138,0,0.893258
0.6218883060493976,0,0.481982
0.3536661894676292,0,0.388626
0.3805865025766774,0,0.784000
0.4631647344082749,0,0.835249
0.30607669797571796,0,0.797015
0.4203496193948205,0,0.947573
0.23443113531378348,0,0.778393
0.33452573034596383,0,0.334483
0.34493251508894324,0,0.407821
0.5410447439016551,0,0.428169
0.1745507156893912,0,0.420690
0.22265648513248265,0,0.591216
0.2933086419372361,0,0.718550
0.2585994607068963,0,0.821355
0.24796294037005429,0,0.654723
0.10772658571192686,1,0.993691
0.2277788465429625,0,0.020942
0.32603041884529466,0,0.433862
0.32502897976042294,0,0.854430
0.42467186152730213,0,0.946988
0.19995992306629087,1,0.993164
0.09282649547875997,0,0.190332
0.16527648765184857,0,0.690141
-0.007265868472232553,0,0.095335
0.12955708630161847,0,0.099196
0.09884630619289823,0,0.717949
0.1273611900124781,0,0.763441
0.23046186002892044,0,0.280453
0.20812931848047178,1,0.990888
0.13865401775874778,0,0.831731
0.11263290856245903,0,0.040359
0.1372895516142935,0,0.814307
0.20049636385645894,0,0.934156
0.13827672413652925,0,0.343195
0.079953473990054,0,0.703767
0.09625006949379589,1,0.992908
0.09321216486920815,0,0.353783
0.126962390336507,0,0.070769
0.10120501233245698,0,0.580645
0.21852742410491013,0,0.380282
0.10983471872084993,0,0.163539
0.359878929828519,0,0.405263
0.262371915347753,0,0.529412
0.30975355512127234,0,0.853414
0.28688301851450837,0,0.914855
0.19455072552040584,0,0.587264
0.22053911802678888,0,0.095588
0.22186155759867746,0,0.410359
0.27409875395826694,0,0.873355
0.14154720970643592,0,0.726087
0.2038574011904,0,0.775510
0.2666201595537887,0,0.899510
0.25593325751063933,0,0.698565
0.31853714308466324,0,0.045455
0.4810554705517438,0,0.302949
0.2854322429724149,0,0.914530
0.29628169482873296,0,0.397895
0.5198613150443832,0,0.898851
0.48945745668122714,0,0.752896
0.5170857807021496,0,0.810811
0.2562956591090811,0,0.396619
0.47526552462801663,0,0.841026
0.4568080645574782,0,0.819277
0.5196334672089158,0,0.544379
0.5359475770691662,0,0.197425
0.6438867664859415,0,0.910345
0.6567414566434159,0,0.971979
0.6567676589757308,0,0.884876
0.6426847905619818,0,0.851124
0.7466893260936385,1,0.990172
0.8053906803252754,1,0.993225
0.8481597718767352,1,0.991919
0.29707363821321153,0,0.026022
0.21293537314083108,0,0.417910
0.20637238013355527,0,0.762295
0.20050807145060398,0,0.923547
0.27039361076802787,0,0.784141
0.2782884810801498,0,0.884451
0.075161535527025,0,0.314851
0.058488413629112265,0,0.213675
0.17537934983282055,0,0.753275
0.10327799209843044,0,0.218329
0.1143175705273016,0,0.695279
0.17233139863753316,1,0.988201
0.16469000282582383,0,0.503922
0.2277247482642348,0,0.757009
0.2920771528003477,0,0.918138
0.0885647322698281,0,0.565371
0.15751834102616272,0,0.949861
0.20069338489875418,0,0.838488
0.24392872723643644,0,0.870787
0.1936220145020055,0,0.580645
0.2477031913868274,1,0.992424
0.2863668414770842,0,0.908257
0.29128115775691577,0,0.737500
0.23158028214738632,0,0.518182
0.29700274423542017,0,0.879781
0.29438323257114535,0,0.678700
0.21126390354506838,0,0.548128
0.24667227114762963,0,0.964744
0.2530004051838277,0,0.157333
0.3120343512689445,0,0.606987
0.293669479666911,0,0.754464
0.28634095666158293,0,0.753488
0.3644357582533118,0,0.904328
0.2624959748023485,0,0.253264
0.3832131575060299,0,0.802239
0.404760027873042,0,0.953125
0.08203370402668689,0,0.264650
0.3186958777639833,0,0.868351
0.40791116862789434,0,0.956522
0.6391950467085565,0,0.893617
0.5157188688287782,0,0.905473
0.6007206557562849,0,0.936404
0.5345920393384587,0,0.139423
0.4304815806010331,0,0.843137
0.5270674233354834,0,0.945568
0.6858100027522347,1,0.993534
0.6954827636441585,0,0.751220
0.6285171563614517,0,0.713178
0.39789963686178076,0,0.854015
0.38730119655904593,0,0.703008
0.3238224910646732,0,0.888889
0.4791464022410512,0,0.880952
0.335190492742918,0,0.722222
0.3984408043950543,0,0.864023
0.254067707864883,0,0.558011
0.45009764687569015,0,0.963077
0.5756901246200132,0,0.954006
0.2839646431098418,0,0.357860
0.2448620917692026,1,0.969565
0.4729815952690368,0,0.302381
0.08764970891639415,0,0.182022
0.1522938749697432,0,0.440633
0.16802637603925966,0,0.762319
0.25919841993121295,0,0.804762
0.12350072974224537,0,0.657509
0.018888889137166718,0,0.224806
0.14270149814706126,0,0.328244
0.14192917041396858,0,0.694611
0.17268439071547484,0,0.819413
0.1765111856808382,0,0.929167
0.14796146155318826,0,0.544715
0.14141480375574902,0,0.132992
0.1248766035000444,0,0.132609
0.1462159549419927,0,0.379221
0.06281647040068748,0,0.943243
0.14983935044060012,0,0.462312
0.10359753438633326,0,0.444944
0.10781237432146201,0,0.929952
0.11189403894373684,0,0.723333
0.05573718252340926,0,0.623025
0.1398167108762556,0,0.856757
0.045352996807298374,0,0.071090
0.11414492865562137,0,0.342373
0.1068493571390063,0,0.216216
0.044391612140861104,0,0.160000
-0.0384388770942504,0,0.874715
-0.007663177757172296,0,0.324324
0.022467202466270392,0,0.751572
0.055675449483580886,0,0.182857
0.11667962858690545,0,0.210317
-0.018313179701455587,0,0.144000
0.041789687615549846,0,0.416667
0.05075553092604903,0,0.949451
0.128243891378195,0,0.537634
0.09729180935226946,0,0.436567
0.051824865985990155,0,0.556468
0.0764099947567923,0,0.634877
0.14483849949724564,0,0.764940
0.2319474125750689,0,0.362550
0.39078794371964876,0,0.182186
0.40739941268946944,0,0.897550
0.5050862972771277,0,0.363636
0.5789340383805937,0,0.815385
0.6254328106787203,0,0.173127
0.6333160280672667,0,0.338415
0.3606160053382404,0,0.198992
0.29330377207328634,0,0.525862
0.4348830294050163,0,0.739812
0.2665169906125768,0,0.714286
0.12542685474212678,0,0.817935
0.10600093068056081,1,0.962547
0.11717836535268818,0,0.531697
0.2085253344041415,0,0.649215
0.3096377586563261,0,0.867596
0.317685388729378,0,0.596591
0.22656090396094056,0,0.754587
0.2992163579087632,0,0.861244
0.288351359499655,0,0.524221
0.13633386804624956,0,0.954710
0.14777622763363846,0,0.760494
0.13979909140948144,0,0.360759
0.224131027511635,0,0.599190
0.2370848283698372,0,0.955224
0.19055902624480828,0,0.317829
0.1674454268923105,0,0.790361
0.18745429361062135,0,0.703125
0.08915686445176912,0,0.845745
0.06414825473011807,0,0.838068
0.09036260588452873,0,0.648084
0.14929972504341674,0,0.775449
0.13955286766786426,0,0.323864
0.2390970766444374,0,0.609312
0.23512011468125327,0,0.911043
0.2978558129532989,0,0.301397
0.24256245408201144,0,0.628571
0.43077171898490624,1,0.956897
0.22316370707680191,0,0.653153
0.26577020153292685,0,0.946176
0.16411104600840692,0,0.766204
0.21294475197194657,0,0.734899
0.2083395916618475,0,0.818653
0.26151970236171446,0,0.985337
0.23548338471289287,0,0.835391
0.2767337858439355,0,0.745098
0.27867615346825164,0,0.264103
0.3286356680973058,0,0.839757
0.4065680530060016,0,0.747346
0.3411116935889037,0,0.952790
0.3751334937116937,0,0.241667
0.3078305440451155,0,0.952965
0.28762073769117763,0,0.610000
0.2445723884104725,0,0.782609
0.25411707874398487,0,0.926587
0.22131278090857556,0,0.968288
0.3148204335833515,0,0.919708
0.25812884872888264,0,0.410995
0.22606055658546023,0,0.288828
0.11254199440571012,0,0.151603
0.17868890801209045,0,0.707196
0.19497893528024987,0,0.892734
0.18902614054713376,0,0.348089
0.42572051587128545,0,0.251852
0.26266952654172454,0,0.834395
0.2514125921998063,0,0.377005
0.3339171611569389,0,0.496528
0.5153075096132682,1,0.985714
0.5278752405166304,0,0.956522
0.519269643042709,0,0.970280
0.4396011914735358,0,0.947692
0.5608642150576673,0,0.919014
0.5080687091453427,0,0.873547
0.6634509327061562,0,0.174917
0.47841093721733363,1,0.994175
0.6671341334470404,1,0.983568
0.35879370144009515,0,0.221831
0.2692151260203955,0,0.306748
0.4475173921050377,0,0.864341
0.44013368921033613,0,0.922780
0.3105227800370516,0,0.634731
0.19633921054664208,1,0.994924
0.1717689226669119,0,0.802857
0.14778230715201598,0,0.267081
0.25759644503690726,0,0.450593
0.3401908810522156,0,0.846939
0.24055759711533947,0,0.791809
0.1338119421803968,0,0.422018
0.25818419531559067,1,0.969419
0.2500781101747166,0,0.278226
0.13255913597266264,0,0.617241
0.1578057670906478,0,0.372832
0.025205696941303087,0,0.000000
0.07724458095658458,0,0.163904
0.13850090746134625,0,0.452991
0.23898003072184312,0,0.369198
0.24480749020157186,0,0.705645
0.22806322218638517,1,0.990854
0.2940460247269125,0,0.832021
0.37486834824430004,0,0.904694
0.23417693467089218,0,0.161850
0.09749332373105028,0,0.291176
0.25103620797638043,0,0.409938
0.08729326682193893,0,0.529086
0.1468327479800191,0,0.390625
0.15676959702345655,0,0.851852
0.22021983199198233,0,0.379032
0.11413083300555966,0,0.666667
0.11571897290832518,0,0.734737
0.07694559624455734,0,0.841270
0.09708394263881528,0,0.557303
0.14067120668964653,0,0.314554
0.10505443946574662,0,0.746137
0.141240867125714,1,0.986799
0.16507222588115292,0,0.206294
0.14259093107736884,0,0.454343
0.21522247555865698,0,0.273684
0.1880527771404016,0,0.679856
0.22085369696630391,0,0.791667
0.22548378011035747,0,0.552885
0.11667418265082947,0,0.566075
0.09419489948674531,0,0.542222
0.06298739613982327,0,0.515385
0.033122823048800716,0,0.125000
0.06039704124769635,0,0.379213
0.09679024695139504,0,0.835443
0.13736122256396022,0,0.875380
0.17373891418257464,0,0.412245
0.13800944891862788,0,0.634146
0.0433030169776631,0,0.691304
0.04663068415924255,0,0.708134
0.059441590924713364,0,0.257576
0.24876898864543498,0,0.587242
0.47581474384771427,0,0.973837
0.3068229539246173,0,0.572178
0.4714870995143287,0,0.094340
0.4023394645634218,0,0.647436
0.4542687020275043,0,0.585366
0.2974311645118029,0,0.895161
0.49680144949629307,0,0.675595
0.27753568016207164,0,0.899767
0.3571301598176367,0,0.908108
0.4145022911807575,1,0.994398
0.6208899435081561,0,0.589431
0.5530965963082077,0,0.956376
0.42674693072303693,0,0.503145
0.6075575802909319,0,0.500000
0.4405677763990285,0,0.407917
0.41488966769953584,0,0.297297
0.4974232489565433,0,0.647482
0.46081711911230366,0,0.039216
0.6047860825216602,0,0.872464
0.5206648329052624,0,0.937086
0.42227717548233157,0,0.640777
0.44383675725646105,1,0.950000
0.5387637870538323,0,0.772152
0.46771806350741246,0,0.429054
0.44616661097408505,0,0.242754
0.43384055290337925,0,0.367257
0.5720145553822,0,0.844639
0.3257347632965111,0,0.535284
0.3170738939411788,0,0.853047
0.3046781175947764,0,0.661789
0.17855877241262905,0,0.756264
0.2257163672810683,0,0.686420
0.20160509101768415,0,0.705539
0.2660636696914973,0,0.827519
0.12679373434198193,0,0.593830
0.17264856855980876,1,0.984321
0.15477676004290436,1,0.982005
0.09341997969333254,0,0.953390
0.11144117390751984,0,0.843049
0.06446445473855421,0,0.039146
0.09481750706445145,0,0.887931
0.06665316889714916,0,0.231660
0.10742910018477736,0,0.170699
0.09001111119917753,1,0.992661
0.13155364877230888,0,0.261168
0.13775247267635748,0,0.956000
0.23304478018249378,0,0.372470
0.1316892444420255,0,0.940171
0.07550515011871065,0,0.558036
0.13953315626888463,0,0.527076
0.1563303247363488,0,0.712329
0.12747861206168312,0,0.131991
0.11165760723010593,0,0.658537
0.1710546134434715,0,0.397094
0.2218128392924963,0,0.715164
0.2394156161439468,0,0.753780
0.30546926387740125,0,0.847423
0.2927868991438873,0,0.441595
0.15395228922239243,0,0.720000
0.17337362059122655,0,0.315385
0.13089937933146742,0,0.783835
0.057602498461919144,0,0.319287
0.06126146123268321,0,0.875931
0.081602094529386,0,0.558696
0.07384497450242694,0,0.781182
0.10700268055921895,0,0.249471
0.07012522971987407,0,0.750000
0.10358874595504415,0,0.714286
0.13192611302037363,0,0.960145
0.22420007036171882,0,0.362140
0.4909705339337889,0,0.949324
0.4406140077756926,0,0.751748
0.5581159373040979,0,0.947826
0.46121004301974206,0,0.709091
0.5903168340600233,0,0.640127
0.5513325363794231,0,0.534989
0.635216044000361,1,0.997214
0.7833809775048032,0,0.958115
0.6438959392561161,1,0.986767
0.6927634721594456,0,0.613187
0.7122264418078387,0,0.537778
0.3234708833390024,0,0.546931
0.38336398572722546,0,0.963362
0.40301652818117983,0,0.941788
0.3719543247735282,0,0.868952
0.338394209349405,0,0.523973
0.4421041031678973,1,0.990066
0.5552295430064526,0,0.956341
0.6195619520101221,0,0.907539
0.3236348270250679,0,0.668529
0.3894679719794566,0,0.875000
0.3580142175702862,0,0.858586
0.28365500385141373,0,0.943396
0.329231141520276,0,0.459364
0.21439218586653216,0,0.769504
0.187999625805678,0,0.963124
0.2993994806506296,0,0.227513
0.1517663502033694,1,0.979104
0.24859087399532487,0,0.842105
0.20690049669551613,0,0.168856
0.2831190345946493,0,0.877551
0.3346506572569804,0,0.447099
0.3729044072435283,0,0.662500
0.28111705351475175,0,0.189448
0.20968218170231048,0,0.231278
0.10507129295147001,0,0.535565
0.0920926914898945,0,0.478448
0.008805900283319557,0,0.717213
0.046479592610764495,0,0.406780
0.07953581810994753,0,0.723881
0.038274186095453265,0,0.678899
0.11425652751363617,0,0.723971
0.17742575946126343,0,0.674487
0.14877787180586566,0,0.535948
7.564805412709645E-4,0,0.387097
0.003683716190266341,0,0.163462
0.021002908539484576,0,0.145455
0.06565029712183591,0,0.407609
0.029149612783936914,0,0.460938
0.06532784116668294,0,0.258883
0.09893454931145743,0,0.793939
0.08757160550949941,0,0.668354
0.17942786026685711,0,0.273585
0.124608401530834,0,0.744681
0.27898471868209346,0,0.944444
0.2098150004329843,0,0.243697
0.11704052157965444,0,0.825095
0.149219501870882,0,0.854054
0.1913511660017674,0,0.934307
0.15299120730367258,0,0.422680
0.19949419111995811,0,0.836502
0.16841239705385583,0,0.882022
0.15736453269277384,0,0.730159
0.11851958373214751,0,0.111617
0.15310166023965097,1,0.961538
0.08959851653870063,0,0.625000
0.09027236151655421,0,0.665505
0.13369091717648177,0,0.823789
0.1787064225596899,0,0.703476
0.16109439009201473,0,0.792706
0.13051063956242548,0,0.889145
0.19860082723874878,0,0.740648
0.06259904182965281,0,0.479167
0.1804740564806054,0,0.665680
0.23942696237020758,0,0.851852
0.42907057886101974,0,0.027248
0.38872280844370044,0,0.688496
0.43654352945887387,0,0.258065
0.6463673865507557,0,0.747664
0.6926733878942207,1,0.998099
0.7202384666654542,0,0.879699
0.8241857081528489,0,0.694268
0.6365429862971484,1,0.992105
0.5159504057960188,0,0.897297
0.5030100565161524,0,0.789969
0.36850485365211705,0,0.902655
0.055368492562121875,0,0.691542
0.03192618131666629,0,0.421652
0.10459723974314428,0,0.820789
0.06680984184555376,0,0.635762
0.15459816865904705,1,0.976190
0.08974516900130722,0,0.840000
0.18322933577706035,0,0.760331
0.2738404553232648,0,0.979557
0.13855361809802497,0,0.851992
0.11918422073623984,0,0.665179
0.03251433490004282,0,0.079618
0.08819629372234364,0,0.685930
0.12314722855116571,0,0.607940
0.19794180552166057,0,0.518293
0.1473367896240682,0,0.113879
0.19542006854828162,0,0.401961
0.15996838926227272,0,0.791395
0.18578103706518778,0,0.290484
0.2794288524896021,0,0.800407
0.3778601244363042,0,0.766600
0.4509448582807736,0,0.674200
0.44897666027891525,0,0.116242
0.24418176577532597,0,0.625232
0.2605743303976043,0,0.341912
0.14439347792458435,0,0.559387
0.16896370900581814,0,0.584746
0.1227003172284258,0,0.576271
0.19407412420477643,0,0.366412
0.27772920019663644,0,0.750000
0.21789399790126787,0,0.059016
0.300829724792824,0,0.645418
0.4103585506314061,0,0.648221
0.3581781979740732,0,0.927928
0.19720693368581352,0,0.602339
0.2035078746758541,0,0.265464
0.3089534708142143,0,0.627451
0.39485433563802147,0,0.940701
0.419592626356094,0,0.570213
0.2961632681059946,0,0.454148
0.4021183921939063,0,0.782392
0.3769500277574788,0,0.674576
0.23271808720939324,0,0.896414
0.251418773107749,0,0.880531
0.27614039001731067,0,0.578534
0.20031032087020256,0,0.726368
0.11165954525364466,0,0.098765
0.24006251115560265,0,0.289617
0.2165942191936323,0,0.896000
0.1660732977289563,0,0.341902
0.18980170964242304,0,0.100386
0.10223523103561916,0,0.299728
0.11171742739625362,0,0.238938
0.09918378102693684,0,0.233607
0.14652543887996683,1,0.966387
0.0372301212489832,0,0.428571
0.05161924402920625,0,0.151639
0.1278688691839449,0,0.678457
0.15839580084470706,0,0.120000
0.0675833833511077,0,0.358456
0.21136271243934035,0,0.745000
-0.04557417580932038,0,0.149635
0.08133832505526963,0,0.342750
0.1799172244191762,0,0.896667
0.0930397033692572,0,0.873267
0.2164004723826357,0,0.196262
0.3865961791333212,0,0.528000
0.5016043362248497,0,0.854785
0.4193532629866213,0,0.649123
0.49765935309647996,0,0.948837
0.6306063180051666,0,0.969631
0.6287692922407303,0,0.851528
0.37830486766310234,1,0.972527
0.4615120631328973,0,0.252459
0.5722974203777181,0,0.948980
0.43975746150924133,1,0.996132
0.4577736200611685,0,0.875519
0.1698842615478923,0,0.276316
0.33731251654273103,1,0.985366
0.2921350230401746,0,0.730519
0.30675375526603427,0,0.526104
0.37346013007687456,0,0.820580
0.26089705199683677,1,0.983607
0.28250170586961776,0,0.918848
0.27893260624314187,1,0.989343
0.1329691363341973,0,0.641026
0.0828946381113291,0,0.804469
0.1521072657877579,0,0.330677
0.1623854289494395,0,0.921260
0.22906649070359003,0,0.486486
0.24918017191814978,0,0.927667
0.15645592512104076,0,0.775926
0.1637128119719394,0,0.242881
0.12748388859894821,0,0.816754
0.17814398304848728,0,0.735612
0.24173899542508978,0,0.836066
0.2576888996283779,0,0.316489
0.3546268932873703,0,0.986315
0.23055755423375116,0,0.636364
0.11721639808861466,0,0.307692
0.21894137644800693,0,0.678241
0.27826137665548295,0,0.964286
0.1876716321014334,0,0.792350
0.12613538971543378,0,0.018735
0.24288609566921623,0,0.490234
0.18139789832880127,0,0.552500
0.29170394909157255,0,0.245856
0.16221438291541165,0,0.839879
0.13034484828545578,0,0.437500
0.22216752948042365,0,0.505190
0.09599360802419171,0,0.585366
0.2130653028350807,0,0.893204
0.2662242058804005,0,0.834677
0.32482649691435883,0,0.933014
0.3270462813251115,0,0.044304
0.28239750775053796,1,0.970588
0.29185464815035655,0,0.522843
0.19711783274661593,0,0.535632
0.25174554459557874,0,0.868056
0.2297575870054025,0,0.115274
0.27985075249054425,0,0.615012
0.2178137056641516,0,0.474886
0.07960128675543994,0,0.748808
0.11577523130077935,0,0.857855
0.09293936436001879,0,0.067797
0.16174801130135855,0,0.941909
0.056237441071519345,0,0.367003
0.017037859033493283,0,0.618380
0.11036423199530902,0,0.257212
0.09490702219953319,1,0.984709
0.1409701085193866,0,0.068894
0.13226259141812224,0,0.959770
0.026353537467927863,0,0.489362
0.09935944998336252,0,0.159751
0.13718797868542168,0,0.674374
0.10891916421788045,0,0.528409
0.15528885599431078,0,0.046832
0.12385266279191556,0,0.496368
0.12429101569683096,0,0.800000
0.29119836703836016,0,0.547710
0.2791318590918475,0,0.616798
0.2398806035882846,0,0.711111
0.13828489943006572,0,0.740964
0.15081444172313738,0,0.905063
0.20536557579272202,0,0.356436
0.3320432368763239,0,0.643836
0.5807686421421843,0,0.932264
0.5096785234719337,0,0.679856
0.7436372488072887,1,0.988987
0.8284533081119401,1,0.977778
0.439774177855036,0,0.439716
0.5967296829187362,1,0.988732
0.6814607666192863,0,0.976827
0.6107877223896582,1,0.980663
0.7047020420326846,0,0.928375
0.47268246186550344,0,0.886957
0.38963829546727324,0,0.846491
0.32224447853596644,0,0.803653
0.37901728255920836,0,0.623025
0.5169249203634514,0,0.543860
0.3903235722870801,0,0.774011
0.44084644830061315,0,0.912671
0.488190773588898,0,0.952494
0.5358499198831344,1,0.992509
0.6180748859651083,0,0.954023
0.6148468469751166,0,0.936543
0.43706061227765924,0,0.850980
0.4661394071883337,0,0.826190
0.4434370701605656,0,0.803167
0.39811992318469613,0,0.584000
0.36578033518342445,1,0.979263
0.43484675105221615,0,0.797872
0.1762962661832221,0,0.535420
0.08080454193163451,0,0.873762
0.03318411192770038,0,0.822674
0.0069943139790158955,0,0.420664
0.00312587994421313,0,0.198895
0.03391799079393209,0,0.681208
0.06331705457055715,0,0.723636
0.09520468478473325,0,0.232365
0.12027304757283065,0,0.488048
0.06518617924279048,0,0.309677
0.05146542509326014,0,0.602339
0.0075447542159136575,0,0.498734
0.043242240241831306,0,0.124183
0.05055880914114339,0,0.449468
0.012962575298319214,0,0.763848
0.06189049772335752,0,0.555749
0.07158166101553894,0,0.888268
0.13204364733294535,0,0.241573
0.07935212964900813,0,0.353191
0.04072548164792985,1,0.977876
0.16211661925462822,0,0.507042
0.1168941559829142,0,0.803226
0.06470866337806745,0,0.688845
0.08234914465460755,0,0.578125
0.10392074382069816,0,0.182540
0.1149847255814224,0,0.599251
0.15787120008175898,1,0.988034
0.14658488491369692,0,0.969231
0.13597210600403117,0,0.165829
0.14209406507027192,0,0.465217
0.18946056343498174,0,0.636782
0.2219647305532816,0,0.365427
0.25004789917608333,0,0.900000
0.282929361951547,0,0.901961
0.3125325643926911,0,0.928803
0.291420042467361,0,0.855346
0.26862793111133887,0,0.791176
0.2984696245368713,0,0.690583
0.3283134268906755,0,0.373333
0.234313609480426,0,0.132353
0.25253269410272733,0,0.752294
0.3001103032320162,0,0.536508
0.3109289228659937,1,0.958333
0.4054468298010127,0,0.716180
0.2707514329764173,0,0.860390
0.22311916898810702,0,0.193925
0.1662771268842004,0,0.349727
0.28810897984007894,0,0.807921
0.13204347864793425,0,0.900677
0.06894572647770386,0,0.545161
0.10285131891011196,0,0.838284
0.09278211899579956,0,0.325866
0.058909806209045526,0,0.192460
0.238450544624443,0,0.375191
0.34615045188693727,0,0.651822
0.3358844012094699,0,0.827982
0.2677998287349794,0,0.212346
0.4851628177156734,0,0.907767
0.4929839901635293,0,0.911058
0.26811934922356667,0,0.576850
0.41501485630863005,0,0.882736
0.35054485412663,0,0.942529
0.10979655606905032,0,0.441441
0.380157641948911,0,0.860577
0.19120566353580415,0,0.461538
0.34762264420153033,0,0.438983
0.35104149177479294,0,0.742857
0.07910523991980033,0,0.475610
0.10952897503588414,0,0.709328
0.15289037950567586,0,0.663701
0.22913062855548846,0,0.910543
0.2017826859668157,0,0.368821
0.14044611961834944,0,0.304910
0.09025640878895438,0,0.758865
0.18294696294650134,1,0.969880
0.146135677353506,0,0.425076
0.12303781898633577,0,0.112676
0.08523964646922072,0,0.354402
0.04100482328365314,0,0.848185
0.197109980626048,0,0.880000
0.24990791110535882,0,0.487805
0.18402335489964247,0,0.034188
0.16618899573726986,0,0.410526
0.17437878180526845,0,0.586885
0.24247577924886934,0,0.833837
0.291178801588942,0,0.357964
0.13066152847755896,0,0.200495
0.23090069493385812,0,0.825123
0.14830579994332557,0,0.580925
0.22663893679135128,0,0.319266
0.16824771230348037,0,0.886957
0.2146814785223761,0,0.429672
0.19736396369489945,0,0.974903
0.29082484999717945,0,0.761905
0.39486137741357114,0,0.774590
0.4369945741417443,0,0.164557
0.48908710746404094,0,0.930348
0.3410654481650016,0,0.017341
0.1833070191796137,0,0.394558
0.21202997294385867,0,0.409326
0.060627251436146355,0,0.695652
0.13912570995717874,0,0.352601
0.10002042949459122,0,0.956229
0.04655318847524592,0,0.247768
0.08532178789427346,0,0.933333
0.1309506656291801,0,0.120332
0.18296819751966018,0,0.333333
0.1555764278981989,0,0.641350
0.21629722227679485,0,0.655844
0.1762078572276856,0,0.863281
0.26272799770433397,0,0.387900
0.24918374538901303,0,0.972545
0.3784628696571947,0,0.811494
0.40959269104743773,1,0.982726
0.3153186011936221,0,0.926267
0.402125061027911,0,0.205797
0.20217032154168293,0,0.095101
0.18934403358373736,0,0.156250
0.08836023992967688,0,0.532468
0.08254766251145693,0,0.133333
0.07441562763272036,0,0.663957
0.10606814818386481,1,0.998084
0.06880839914180771,0,0.441296
0.0982589914353114,0,0.917373
0.09225022441950755,0,0.577017
0.09807689576204398,0,0.743316
0.09986599465399343,0,0.764331
0.13464331838085108,0,0.865789
0.17369577160730773,0,0.776614
0.22932306418753573,0,0.763636
0.2778145183119385,0,0.777311
0.3157958102105143,0,0.870629
0.26092803159828043,0,0.879310
0.38291969703575746,0,0.939024
0.35997213625458313,0,0.817427
0.28714349235889836,0,0.269461
0.3329417044420951,0,0.763838
0.2699940331927695,0,0.350394
0.040973538934883535,0,0.431341
0.18783132706152839,0,0.022222
0.1444916748177954,0,0.516304
0.32084288748544115,0,0.578512
0.19880444546912057,0,0.617241
0.3170413980670009,0,0.660079
0.48366512001770956,0,0.810502
0.626205247017903,0,0.876712
0.4779562480955222,0,0.950147
0.5871691833174195,1,0.977578
0.6592689191329533,0,0.883848
0.7059509366842999,0,0.354217
0.37163036137704386,0,0.556034
0.5206915827841829,0,0.298667
0.21806303724325443,0,0.809524
0.2948173938822184,0,0.865772
0.38980467132895374,0,0.627907
0.5133869254984971,0,0.936000
0.5595957510232484,0,0.897810
0.3913092634732267,0,0.564356
0.1851610994834045,0,0.384328
0.2874479618746922,0,0.906694
0.20682647868156798,0,0.977083
0.2265618761527721,0,0.844681
0.3038029787794625,0,0.483122
0.3866911914335858,0,0.975460
0.30860445089155514,0,0.844244
0.39659276994088427,0,0.608392
0.4255844474445259,0,0.916067
0.5165396952075424,0,0.524590
0.2613866231758525,0,0.539604
0.08534218203692573,0,0.104938
0.11559533033017076,0,0.197917
0.14885521265064822,0,0.454545
0.0913462218286865,0,0.350685
0.16558507591155827,0,0.784512
0.16490682190670297,0,0.656109
0.2822873141216746,0,0.308219
0.34420911867265996,0,0.914706
0.23893726397819093,0,0.687980
0.20831699032009562,0,0.729494
0.2878431290867068,0,0.507553
0.08664079915661922,1,0.993658
0.025438719490877306,0,0.518760
-0.013354619999504878,0,0.051020
-9.252237085776239E-5,0,0.420701
0.013689844425972262,0,0.242494
0.0031004183531608315,0,0.396552
0.13733641293257,0,0.727273
0.08200986855702103,0,0.362264
0.11291675983452779,0,0.209016
0.10069424684416017,0,0.679245
0.07404702283971111,0,0.276753
0.0288944626448552,0,0.244409
0.1034010521398044,1,0.982249
0.18014802599281873,0,0.645038
0.20499643892782815,0,0.767956
0.15195780700054093,0,0.575150
0.1496104310295137,0,0.596200
0.19121379800424246,0,0.896296
0.19866169436201234,0,0.912698
0.15479495923979195,0,0.465909
0.2381321325943859,0,0.084932
0.08016794434659505,0,0.274262
0.17864472704790973,0,0.352550
0.34674746209374,0,0.940133
0.15903861474227338,0,0.269430
0.08291571098559272,0,0.416069
0.1197840604345003,0,0.229358
0.10413254833726103,0,0.692833
0.031438960910657364,0,0.218456
0.017988153877071828,0,0.354497
0.05873904519056643,0,0.645477
0.08386308995994281,0,0.730070
0.09651597730878006,0,0.255230
0.04332490026563589,0,0.022071
0.07226878026625794,0,0.516779
0.14817670029365748,0,0.568182
0.0053245688493530965,0,0.039088
0.04983034255146628,0,0.245575
0.08061085686258998,0,0.883523
0.3002387981643957,0,0.934354
0.23219388517465114,0,0.879518
0.22790562452061316,0,0.862963
0.39811454358633963,0,0.627530
0.18600624848970876,0,0.525097
0.19736110690772743,0,0.696296
0.32147610145436617,0,0.761062
0.09459727902476535,0,0.866511
0.10755711981438291,0,0.881057
0.23800848692668938,0,0.883234
0.257251477771163,0,0.799342
0.29164712323775044,0,0.873874
0.25948763064335695,0,0.800000
0.26905689720282727,0,0.719141
0.166306220554439,0,0.736364
0.2733589554029672,0,0.883090
0.2579073660151031,0,0.708633
0.3686869588973864,0,0.085551
0.6664347638732315,0,0.954751
0.4616519181640509,0,0.491803
0.3389609658080584,0,0.751950
0.4027401617318454,0,0.633252
0.40375603828201945,1,0.993814
0.4128509617598086,0,0.896970
0.5684154611581497,0,0.968051
0.5499547622130367,0,0.969412
0.5398281400401448,0,0.833846
0.44764923599849543,0,0.783357
0.4552102473418773,0,0.819820
0.6042308601564969,1,0.993023
0.44295826842919545,0,0.594175
0.4938600030867758,0,0.756303
0.5987350965954742,0,0.885033
0.5106584784323196,0,0.878472
0.3768546634566671,0,0.930894
0.5451312245439419,0,0.961165
0.5863745260574308,0,0.922280
0.38882057169562395,0,0.959350
0.34005390303681576,0,0.900850
0.018978708577313912,0,0.758454
0.08730801620863916,0,0.963265
0.04904925001288155,0,0.299145
0.10021682845903265,0,0.583004
0.12650683750475586,0,0.827493
0.15911477200083426,0,0.920354
0.21931450863832416,0,0.864964
0.038851276491522785,0,0.639769
0.1541995955718671,0,0.829787
0.06486482543221277,0,0.809695
0.07861590713652708,0,0.718954
0.08379417370398527,0,0.797900
0.14470716971064052,0,0.805298
0.08056496594945559,0,0.444730
8.304564271469981E-5,0,0.779510
0.06997106805793797,0,0.822917
0.08122162541093128,0,0.462738
0.18009264957907048,0,0.620209
0.17448458098168007,0,0.853147
0.20090998228682952,0,0.203947
0.15145858428742848,0,0.315650
0.17146312745380538,0,0.763401
0.20411853375256245,0,0.223853
0.2768524062656739,0,0.945946
0.30580334266524206,0,0.968610
0.06633829150143447,0,0.327711
0.09204431333741556,0,0.974713
0.1479458797131797,0,0.873294
0.13569354566288178,0,0.810105
0.14048777534054305,0,0.853846
0.1832484982963623,0,0.623978
0.12794104208951415,0,0.331942
0.05222341267695499,0,0.089831
0.111288347963568,0,0.729412
0.22772390993096653,0,0.340580
0.23190033636077967,0,0.781163
0.24701534146030127,0,0.696099
0.2688195945740331,1,0.971429
0.26189245614585366,0,0.814925
0.3021679772213009,0,0.915825
0.18798619330806124,0,0.772727
0.2968307854180561,0,0.972387
0.37251716457689976,0,0.883281
0.48398017434643315,0,0.110294
0.4736670599336366,0,0.246835
0.43078601704133945,0,0.504554
0.5607384714607114,0,0.627072
0.4449421983399531,0,0.853357
0.4420817054566248,0,0.809816
0.499186123787441,0,0.301370
0.5058920698366093,0,0.606952
0.41561382022016186,0,0.780549
0.4627579354184996,0,0.886139
0.5905867136812188,0,0.444444
0.3210962181262673,0,0.347945
0.3220374576749483,0,0.761468
0.16933487124861138,0,0.918067
0.22446785263428098,0,0.929348
0.1793583311228652,0,0.662921
0.12410555470180103,0,0.029650
0.17028722816864397,0,0.966667
0.22721548634502256,0,0.883281
0.1862523016730255,0,0.066815
0.15700296855534346,0,0.364542
0.23997970848873781,0,0.857143
0.2580681348293921,0,0.566327
0.21353391831261812,0,0.965699
0.3716710265039083,0,0.915464
0.4784422522101402,0,0.789333
0.3824363185882168,0,0.877005
0.5946284842496196,0,0.959559
0.6027704413750382,0,0.880109
0.6835850597619212,0,0.817391
0.700233771870092,0,0.297735
0.7588308168539034,0,0.975057
0.8583121560257628,1,0.991919
0.6064707232582918,0,0.979239
0.7125112673424445,0,0.880734
0.6556926112275763,0,0.931818
0.21910398113273016,0,0.932624
0.15071724014568133,0,0.903148
0.19223868315458334,0,0.808989
0.19261193279880734,0,0.916667
0.05969341917682311,0,0.720721
0.07537825217446505,0,0.852878
0.14698707539291544,0,0.339703
0.20274066809375366,0,0.911232
0.09567879828990378,0,0.188329
0.13838034225849055,0,0.531561
0.18374167591798576,0,0.489437
0.13782870009080705,0,0.629412
0.2627643078188592,1,0.985859
0.0958171390316349,0,0.350000
0.06729833109826022,0,0.396040
0.20253818084379374,0,0.800412
0.21078331862426591,0,0.813043
0.03926571380089916,0,0.144963
0.13499350141319422,0,0.592292
0.08379475704810668,1,0.953020
0.1500456437248526,0,0.575301
0.15982724940098464,0,0.408451
0.06437049967850422,0,0.575000
0.029287471464110544,0,0.088050
0.19414293684683745,0,0.893574
0.05733815118327202,0,0.854626
0.0806996559904186,0,0.179104
0.0809056660781862,0,0.377976
0.053083926834706745,0,0.395437
0.12001743686078202,0,0.620462
0.14068168121712626,0,0.445629
0.23522821827215307,0,0.921909
0.21466186137311516,0,0.957169
0.18080714490198246,0,0.944444
0.25908161955275166,0,0.480851
0.238629844767158,0,0.835381
0.2823704905546785,0,0.942943
0.39877015439226465,0,0.919708
0.2730573655326761,0,0.542662
0.16334951169423576,0,0.744780
0.270487885708549,0,0.824691
0.24685088493857327,0,0.782609
0.26508440488454066,0,0.150943
0.34400848398318107,0,0.388199
0.42423422785526993,0,0.926686
0.35852312268184405,0,0.236220
0.24416932305993325,0,0.934483
0.28483810514665403,0,0.672840
0.29501771855255166,0,0.957377
0.1681125633537879,0,0.946188
0.15817440107856062,0,0.752717
0.11942192743392481,0,0.915761
0.23053597537454187,0,0.401460
0.27067768688025073,0,0.760355
0.24247627343292233,0,0.760563
0.2023761065431028,0,0.312977
0.12584364642671989,1,0.984655
0.18250728604257702,0,0.369681
0.30365334347196843,0,0.897436
0.19810921939006654,0,0.592875
0.33981414896446227,0,0.182163
0.34158916040363285,0,0.322086
0.4083719856659476,0,0.752941
0.4781714611568745,0,0.959488
0.34372623116415457,0,0.632287
0.25023948940301516,0,0.890785
0.16707472235082368,1,0.981308
0.23024754801815217,0,0.734513
0.24539378045512453,0,0.759184
0.2504787146133203,0,0.639535
0.2527980018495036,0,0.372881
0.061046607435954074,0,0.739018
2.869068985353817E-4,0,0.075410
0.03594414986681548,0,0.750000
0.03812866842056292,0,0.891616
0.08617406309653204,0,0.412371
0.12964025452724456,0,0.347368
-0.013830093066373667,0,0.454976
0.10962578624607881,0,0.272997
0.07080119743033993,0,0.474026
0.08665657147282257,0,0.736842
0.125150278815016,0,0.333333
0.09317063241674317,0,0.259459
0.1315706267910684,0,0.395498
0.11746945760128609,0,0.763636
0.32466309302288443,1,0.984375
0.3271679871999694,1,0.965517
0.37320444590183227,0,0.670213
0.42931384911014203,0,0.760309
0.5874412487880021,0,0.587054
0.5811759742462868,0,0.752412
0.49637370079997434,0,0.598338
0.5850616408407986,0,0.566964
0.2589510884635413,0,0.857651
0.20999498401734018,0,0.693267
0.29156061166740166,0,0.077093
0.1812722296222771,1,0.978320
0.21327641250413407,0,0.690773
0.14481060454671574,0,0.809091
0.1259955447558632,0,0.680639
0.20716188524600393,0,0.824873
0.32235902770565167,0,0.831373
0.3208349238725903,0,0.234818
0.29359108099743864,0,0.768844
0.39836506313269376,0,0.883289
0.2969782224150792,0,0.136778
0.403765464090647,0,0.969945
0.4726349262941148,0,0.302817
0.6302717278021861,0,0.664360
0.6451653289134205,0,0.813953
0.5952269797919039,0,0.708475
0.5668606123446933,1,0.984277
0.662988053500852,0,0.816594
0.5968674642825663,1,0.988701
0.720801144065307,0,0.676301
0.6570795377618929,0,0.325581
0.6013788728455792,0,0.371622
0.15192052470912304,0,0.511777
0.08902033119558839,0,0.497418
0.17522495522631876,0,0.430622
0.07053264964724738,0,0.359517
0.050883341881603594,0,0.845638
0.09133088672739736,0,0.796657
0.0827421801936474,1,0.980769
0.05987482357876331,0,0.478307
0.11470736817701856,0,0.229630
0.0744430790901481,0,0.839142
0.12343839775320792,0,0.541219
0.09807130869238198,0,0.652561
0.17045443065606122,0,0.687500
0.18466787877283775,0,0.481781
0.006330856257621823,0,0.355556
0.03182722385143059,0,0.650155
0.015902714968927766,0,0.268293
0.0618388690672483,0,0.116564
0.07134921855210985,0,0.748276
0.09724173254387146,0,0.944853
0.07123583885250714,0,0.326316
0.035740853354589534,0,0.698630
0.06783241988098006,0,0.789256
0.15198868700485013,0,0.634961
0.17066368291171738,0,0.908642
0.11445072920963677,0,0.644315
0.20287104278390405,0,0.714286
0.24567162500413928,0,0.518760
0.0756168187602812,0,0.830078
0.10358628999954501,0,0.209615
0.1355319748966098,0,0.825427
0.12057393514082075,0,0.204276
0.07230303205992694,0,0.930233
0.04682053118098647,0,0.767742
0.17348199113300133,0,0.803167
0.20344253813335803,0,0.795789
0.11106801607234071,0,0.052500
0.1862872478334061,0,0.619289
0.18366845441074553,0,0.694779
0.18804983638111109,0,0.967254
0.2109194204655213,0,0.147679
0.19324646632655307,0,0.657825
0.06074668131434595,0,0.925094
0.1374623070803765,0,0.632381
0.14549140006459677,0,0.864023
0.07962175978024523,0,0.359331
0.14501015339435333,0,0.359155
0.11472276676579445,0,0.625000
0.14824975622624273,0,0.811490
0.14450133676258137,0,0.229508
0.14942169747201683,0,0.609665
0.14530268167789823,0,0.513793
0.14596955494826272,0,0.837696
0.1907277150840423,0,0.283251
0.13922220876522579,0,0.228942
0.10961484529131502,0,0.577670
-0.004756997550298619,1,0.984496
0.11573909568768206,0,0.615635
0.0750392138107715,0,0.205479
0.1206100882877286,0,0.420213
-3.1423709742255823E-4,0,0.538462
0.1631958905674902,0,0.326087
0.22859674929811766,0,0.784946
0.19602818153895446,0,0.485714
0.2693556480061783,0,0.574074
0.11911801412048392,0,0.873529
0.15998525098972688,1,0.958506
0.40188413756746694,0,0.757238
0.5818015767987713,0,0.909774
0.656795727782193,0,0.700441
0.18102119760522517,0,0.895928
0.24194123133246886,0,0.303279
0.16612854964010337,0,0.440605
0.18613666612873478,0,0.290766
0.2874260910238547,0,0.825843
0.39222614848828447,0,0.868732
0.5116713036300597,0,0.969404
0.4814706785539762,0,0.689531
0.42193646484542835,1,0.984091
0.2598881286898728,0,0.857488
0.4109088119619613,0,0.695560
0.349095936838818,0,0.762431
0.32111242517818894,0,0.287879
0.2815442611540146,0,0.902954
0.31415974203985797,0,0.857143
0.2612031621532181,0,0.743363
0.4374561013357848,0,0.856842
0.12679043349884878,0,0.572271
0.12383581893340248,0,0.286902
0.07896196417075207,0,0.752577
0.11385672226681111,0,0.368812
0.11717750195467497,0,0.959578
0.16318698536823475,0,0.617080
0.19099153171471292,0,0.946043
0.1098656278309929,0,0.600000
0.17123373623144564,1,0.989498
0.17475203642030884,0,0.159091
0.24040399852964084,0,0.256831
0.2258294693121676,0,0.900000
0.07574208774575424,0,0.073171
0.15111971032660934,1,0.996732
0.20967452748758264,0,0.010899
0.17670435506958904,0,0.217617
0.2788357014034025,0,0.637066
0.2579918025010163,0,0.574879
0.3316440472250607,0,0.922764
0.327525696586925,0,0.763810
0.45465613646617614,0,0.845238
0.47241895967776754,0,0.376623
0.582524391491177,0,0.742373
0.324554385546241,0,0.160000
0.42427862538506017,0,0.579572
0.1439456256283854,0,0.019704
0.2834747477403525,0,0.554054
0.22117638981643487,0,0.894545
0.273035666098713,1,0.975490
0.31716984785822977,0,0.854348
0.2963157723834524,0,0.833333
0.4060034688754524,0,0.561243
0.3832344932430284,0,0.883055
0.42338772207078296,0,0.055336
0.349819858928831,0,0.828947
0.2950918436859927,0,0.452539
0.4700675818367198,0,0.842491
0.4348861432174808,0,0.689655
0.29291265137373473,0,0.932976
0.46864324809170915,0,0.953535
0.482911158163043,0,0.954064
0.3358709678152834,0,0.958042
0.38063702507394326,0,0.573351
0.31958973433322097,0,0.210702
0.13671285114699838,0,0.290323
0.14073466509430166,0,0.724696
0.10513847691196676,0,0.890411
0.061135955568574894,1,0.988962
0.002019955640943488,0,0.540741
0.022135540676129797,0,0.418953
0.15916267977983822,0,0.807851
0.13849071224291745,0,0.764415
0.11044183174223908,0,0.252174
0.11367654929807013,0,0.858006
0.20431970388715115,0,0.392663
0.18585830683005994,1,0.992908
0.19142251754479447,1,0.991525
0.17370804073585583,0,0.292473
0.2160566212789723,0,0.675147
0.16331627638972362,0,0.379958
0.23042216610126884,0,0.975048
0.07537616909503195,1,0.989474
0.11038951630718355,0,0.810964
0.1058775872297644,0,0.649746
0.10881800840050597,0,0.704918
0.18035678314565556,0,0.282851
0.1145800148519685,0,0.874157
0.19892904860956967,1,0.994595
0.1721197747944898,0,0.850498
0.15540864955434971,0,0.565401
0.13634034412670978,0,0.351485
0.1695306353382626,0,0.830000
0.053625883716160436,0,0.372414
0.055984860985791425,0,0.269531
0.059906297916633364,0,0.476603
0.12585118831696307,0,0.645946
0.1555092622762939,0,0.328691
0.1397647645831849,0,0.513228
0.1921216986116749,0,0.828851
0.18217613930262436,0,0.562264
0.20923340194535026,0,0.920578
0.3262777837650368,0,0.829208
0.32147180552180743,0,0.514986
0.2555617426379545,0,0.748988
0.4221817323451536,0,0.591954
0.3679867068806682,0,0.372093
0.4034325753696901,0,0.844130
0.31247482958799105,0,0.643341
0.4207776813202442,0,0.775556
0.4817420754735776,0,0.532544
0.4650515891644812,0,0.404568
0.42065026897182767,0,0.670000
0.3404848101178459,0,0.956962
0.2910374293706227,0,0.577438
0.3212389874343338,0,0.409201
0.4130343462452122,0,0.936567
0.5110103007007885,0,0.810690
0.4659762492560156,0,0.680597
0.24306335018089203,0,0.025568
0.29807810468539203,0,0.420043
0.37655837457435,0,0.914000
0.4252580698290512,0,0.828092
0.4222980467966947,0,0.860577
0.5107997254681649,0,0.689266
0.358364760404564,0,0.711009
0.44100144873841013,1,0.963542
0.5514271247079887,0,0.957111
0.32440033089866077,0,0.477633
0.28116699388096134,0,0.774530
0.2966506008551653,0,0.193103
0.14635536549293326,0,0.090909
0.19560282063579204,0,0.805419
0.2049720281729849,0,0.623126
0.24328144089174594,0,0.842402
0.23133814897236735,0,0.479866
0.3718903877861831,0,0.935714
0.19164542527578154,0,0.679339
0.2270064488217338,0,0.807018
0.24896891257241416,0,0.755396
0.29599913370424674,0,0.612975
0.306268482151259,0,0.574257
0.05886926029367555,0,0.242775
0.06149393087277579,0,0.384774
0.10067597079840605,0,0.209163
0.14909372532699194,0,0.687719
0.16556857183306348,0,0.427481
0.13862682285645342,0,0.685771
0.10293845424297235,0,0.931298
0.0552087660808738,0,0.581227
0.20763037594818537,0,0.926941
0.09437310383000888,0,0.738776
0.16457063662154925,0,0.623800
0.15640196982329072,0,0.665414
0.21211710751963092,1,0.997275
0.2512788870545584,0,0.948718
0.24260650741796763,0,0.691700
0.3112531884060846,0,0.901515
0.22202271996653705,0,0.828452
0.20077478537492757,0,0.812383
0.18366396445329,0,0.431373
0.1636148503542303,0,0.859008
0.21915615510459224,0,0.889109
0.23057970598217667,0,0.337539
0.1751746383199923,0,0.318761
0.08573254382937015,0,0.253863
0.11033160293666189,0,0.844560
0.11322593671117306,0,0.866667
0.06124888041857623,0,0.497340
0.0494262335488269,0,0.566740
0.11498642976850082,0,0.956221
0.08294630895908522,0,0.960168
0.18239014020066527,0,0.624709
0.2293671845939163,0,0.364532
0.12933616826702252,0,0.872047
0.08808137274756561,0,0.575820
0.1506103971301358,0,0.695652
0.20217136424772056,0,0.541284
0.1309232129991951,0,0.127389
0.11244783348642981,0,0.284314
0.14704933308020718,0,0.673759
0.1533472437748067,0,0.475524
0.11781477021088456,0,0.190476
0.1465382886942829,0,0.688889
0.13087453479698666,0,0.788018
0.11177466919082753,0,0.654237
0.14316376443207496,0,0.368519
0.06341485854712811,0,0.758216
0.07644089275223187,0,0.066079
0.12749547951272422,0,0.807882
0.11095679993503167,0,0.365482
0.11172199891046311,0,0.263021
0.1383226388697809,0,0.357257
0.10300228866441712,0,0.244635
0.12629260886606208,0,0.515957
0.167718374951049,0,0.817292
0.10616607523865774,1,0.961905
0.2193740578842898,0,0.454094
0.222528088318613,0,0.197248
0.2037742148415999,0,0.737705
0.1049376795683174,0,0.378378
0.20876141443058882,0,0.212598
0.1908171590127967,0,0.525862
0.23303056887299156,0,0.725869
0.2463199005030248,0,0.903409
0.17259501931234142,0,0.509804
0.15562812686746133,0,0.769821
0.22347294760962555,0,0.758209
0.23357028515506362,0,0.736617
0.22187691454991199,0,0.588350
0.19682161955692154,0,0.566964
0.29696489517162744,0,0.796825
0.3368362514996175,0,0.895582
0.2550378285667717,0,0.821718
0.34721168923188606,0,0.480469
0.22074203297555256,0,0.821293
0.40757289177334693,1,0.991632
0.17181346642869263,0,0.120000
0.36148810775488566,0,0.572152
0.46502788789413113,0,0.758974
0.42369821817232195,0,0.765823
0.4176273637287408,0,0.761161
0.34013091392089184,0,0.259709
0.5613198830579762,0,0.575824
0.6046539196491061,0,0.653846
0.524260667132192,0,0.588435
0.5897545420963993,0,0.885965
0.3967049180369913,0,0.682474
0.3809619047381749,0,0.171233
0.41737647561686403,0,0.852405
0.21648537346519808,0,0.802299
0.07306596749200986,0,0.322870
0.09517878956633598,0,0.623418
0.130646605763261,0,0.671875
0.0753962114948688,0,0.208243
0.08211026542292978,0,0.420896
0.10126321320974319,0,0.969432
0.07207343842750012,0,0.894737
0.12499684705423772,0,0.726471
0.08937049149958723,0,0.871921
0.08312990433311297,0,0.356522
0.2339884291238725,0,0.837209
0.12900581498558267,0,0.899396
0.2380166393059508,0,0.129771
0.22700232020589778,0,0.945763
0.322746554127416,0,0.685065
0.3807779761126536,0,0.660377
0.27015892863264496,0,0.921162
0.23862945767317542,0,0.708920
0.361665721285746,0,0.834197
0.1634966310249317,0,0.517685
0.144611397811348,0,0.450980
0.13115816363667762,0,0.524249
0.13855788743438072,0,0.407202
0.17442286370209148,0,0.724706
0.13534844914858568,0,0.675472
0.1215209047009097,0,0.722449
0.15860163762482535,0,0.172199
0.21684206502139958,0,0.934615
0.3052280515852731,0,0.951439
0.26510415676177485,0,0.930233
0.22757450707575155,0,0.969925
0.35858589373205,0,0.558621
0.371437893089761,0,0.451143
0.33027623033092623,0,0.814961
0.21883654577446726,0,0.228833
-0.03369028496213026,0,0.265092
0.1112985527422343,0,0.775281
0.07185348759601708,0,0.428016
0.04182010355563611,0,0.287823
0.05234591595999548,0,0.274131
0.06901276249065805,0,0.209677
0.1793435940736654,0,0.431818
0.14156936832796294,0,0.714286
0.15807782585131303,0,0.878893
0.2278905444276788,0,0.295269
0.10839869350634691,0,0.409524
0.12169105940635698,0,0.566901
0.09596330673322569,0,0.674740
0.10217929785277782,0,0.444954
0.1823491855913196,0,0.877470
0.1551332579862342,0,0.173913
0.20098948192270297,0,0.976087
0.22411307260010102,0,0.826180
0.1113926201239933,0,0.542857
0.2346962754579137,0,0.861972
0.23734497792908055,0,0.777494
0.2187294748203121,0,0.549738
0.22026099444174124,0,0.170391
0.2216740119391127,0,0.828250
0.27169935908014536,0,0.609418
0.34080209252052357,0,0.909091
0.11156055095478777,0,0.756579
0.237551050692149,1,0.977887
0.035604469219677234,0,0.660679
0.048828485076282006,0,0.655914
0.15675848936515732,0,0.754153
0.21455169937931615,0,0.779891
0.2613785040216129,0,0.841328
0.11838561022579054,0,0.141538
