0.12568924308774476,0,0.967156
0.21888872807389095,0,0.988117
0.29569989956952464,0,0.996266
0.29599169050609214,0,0.989093
0.2975576741475537,0,0.987021
0.29968914116062667,0,0.987566
0.3040382255226992,0,0.984151
0.3062787002598552,0,0.987961
0.30646161167557834,0,0.983869
0.3067491418785829,0,0.975624
0.3070880088702446,0,0.983410
0.31585649949525035,0,0.982092
0.3159408619633286,0,0.986537
0.3159467245334962,0,0.984042
0.31595321140789134,0,0.983458
0.3159635667145375,0,0.963554
0.31597054835652694,0,0.987689
0.3159741772296754,0,0.986260
0.31707145639322565,0,0.987746
0.3170729989746038,0,0.986967
0.31707580237057154,1,0.999972
0.3171225053608078,0,0.986392
0.31796215216392537,0,0.981636
0.31880318873129465,1,0.999993
0.323406598333724,0,0.990273
0.32357586641463404,0,0.982668
0.3247414862868173,0,0.987596
0.32510551154317907,1,0.999943
0.3254868169419969,0,0.999826
0.32719194086183695,0,0.987937
0.32811098815608014,0,0.986276
0.34368043721091657,0,0.986664
0.3437056642728202,0,0.990452
0.34372273178102297,0,0.998113
0.34373877054825797,0,0.995115
0.3437505465173622,1,0.999992
0.3437808808220287,0,0.968756
0.343904117896339,0,0.987120
0.35683851504828,1,0.999951
0.3566284196619714,0,0.982981
0.3637633092398725,0,0.975085
0.3647167415348578,0,0.989271
0.36520795260017525,0,0.986567
0.3706959232427504,0,0.983335
0.37290650885784826,0,0.987629
0.373010485131665,0,0.988343
0.3824687608664432,0,0.983311
0.38991431395385845,0,0.990633
0.39812244517594547,0,0.991426
0.41409286298944425,0,0.991277
0.43770520180424904,0,0.996848
0.4389907730387949,0,0.988470
0.44151690517143416,0,0.998864
0.4647802627464486,0,0.997881
0.47519158839231024,0,0.989948
0.4975745635976626,0,0.986186
0.5247667333131742,0,0.991091
0.5706418271169331,0,0.991400
0.5964773127318298,0,0.990144
0.5992217258376112,0,0.990249
0.5996257855378184,0,0.990151
0.6000800242439638,0,0.990891
0.6004783179460609,0,0.990747
0.6011668343615674,1,0.999993
0.6017336600448372,0,0.990903
0.6018883845604515,0,0.990576
0.6053199072435657,0,0.990412
0.6076658355896293,0,0.990660
0.6133275895861723,0,0.999555
0.6142350558343648,0,0.990147
0.621129717714493,0,0.990025
0.623843363320789,0,0.989526
0.6244259550406274,0,0.989324
0.6245913883405729,0,0.988998
0.62493918526196,0,0.989994
0.6250669797620746,0,0.999212
0.6251286715738668,0,0.990257
0.625295673349412,0,0.989282
0.6256635915582495,0,0.990081
0.6260826395218291,0,0.989191
0.6277901066963539,0,0.989554
0.630979512862202,0,0.990344
0.6317742090236864,0,0.990445
0.6346923184474819,0,0.990350
0.6393781127485587,0,0.991148
0.650105538050509,0,0.989699
0.6502908539108713,0,0.990970
0.6503178152046776,1,0.999954
0.6503326352504909,0,0.989951
0.6503558228398886,0,0.990153
0.6506261251859409,0,0.989924
0.6506498973073744,0,0.999023
0.6510572295485454,0,0.990870
0.6597882713502892,0,0.989916
0.6680241449634473,0,0.990619
0.672084543000278,0,0.990328
0.6780619294948067,0,0.991526
0.7045022768260711,0,0.989760
0.705953482134055,0,0.999910
0.705994343919613,0,0.995578
0.7092455723059984,0,0.991585
0.7179698962191208,0,0.999922
0.7294586239441323,1,0.999974
0.7660365953863207,0,0.999823
0.7814413954300687,0,0.993214
0.781645684297713,0,0.999706
0.7826193821988588,0,0.989796
0.7826268261722353,0,0.990345
0.7826349235937936,0,0.991107
0.7826513493716902,0,0.990559
0.782759752732765,1,0.999948
0.7837005445424251,0,0.991004
0.787965806187159,1,0.999934
0.7883940734382487,0,0.991001
0.7943448562949147,1,0.999987
0.7979824182431061,0,0.991573
0.80312428721966,0,0.992528
0.8062116530503912,0,0.990527
0.8070357025758044,1,0.999987
0.8075296852177084,0,0.995736
0.8100538953263808,0,0.999823
0.8107371981142895,1,0.999980
0.8113623785145183,0,0.990970
0.8123873561423837,0,0.988412
0.8160310959383039,0,0.989230
0.8176595579991476,0,0.990113
0.8242628749757134,0,0.990089
0.8290204041093834,0,0.990565
0.8399828628609805,1,0.999993
0.8410578973066504,0,0.992402
0.8478238169763537,0,0.995155
0.8521500668031935,1,0.999961
0.8631436063411865,0,0.999915
0.8651564597731334,1,0.999948
0.8705739105960129,1,0.999993
0.8782899749864247,1,0.999993
0.8817851652154707,0,0.994587
0.8842678115504868,0,0.999902
0.8902004565036881,1,0.999993
0.8965111173303313,0,0.996523
0.9041274086526807,0,0.992671
0.9041658825461373,0,0.999452
0.9121292677571556,0,0.998124
0.9216232175285829,0,0.996887
0.9263986511742813,0,0.999502
0.9324488731885937,0,0.999528
0.9367065602198851,1,0.999993
0.9426213487343362,0,0.998785
0.9484867441863045,1,0.999993
0.9486232770396466,0,0.990503
0.9492070029076554,0,0.992183
0.9504911790746772,0,0.988689
0.951476483901786,0,0.999928
0.9515165379206164,0,0.992440
0.952006423187747,0,0.992209
0.9524434347156298,0,0.992836
0.9526610554196019,0,0.992778
0.9528006708720841,0,0.972101
0.9534080034061906,0,0.991215
0.9536221041817979,0,0.997671
0.9538929546023852,0,0.978197
0.9541779189292371,0,0.993097
0.954300457391994,0,0.990298
0.9542755611557954,0,0.992418
0.9542476761738126,0,0.994051
0.954260441196074,0,0.997842
0.9544459982404789,0,0.992259
0.954747624379726,0,0.996277
0.9548670443705031,0,0.993595
0.954990070541871,0,0.994341
0.9552576775774009,0,0.994059
0.9557943465838219,0,0.996178
0.955783579204125,0,0.996969
0.9557725053767037,0,0.994428
0.9557682244394767,1,0.999980
0.9557620172279164,0,0.997076
0.9557556683114591,0,0.994294
0.9557469155135109,0,0.994198
0.9561930706685033,0,0.995569
0.9566044923331197,0,0.993322
0.9567770065014048,0,0.995883
0.9569705600353438,0,0.993187
0.957197617682636,0,0.994605
0.9574253415795341,0,0.994820
0.957662216930707,0,0.993970
0.9579356589136561,0,0.992080
0.9581733014266779,0,0.999012
0.9583710186466816,0,0.994685
0.9586449878771209,0,0.994563
0.958904204120855,1,0.999993
0.9590525172254444,0,0.998499
0.9592997034242191,0,0.995049
0.9594570505044198,0,0.999658
0.9607766095907789,0,0.999805
0.9611358600020278,0,0.994926
0.9625449868801894,1,0.999993
0.9632106954074946,0,0.995945
0.9639824581550567,1,0.999984
0.9652874238636234,0,0.993144
0.9674119162574133,0,0.995930
0.9685280588246937,0,0.999881
0.9687044661073542,1,0.999974
0.9689056697124072,0,0.998964
0.9703664936147124,1,0.999977
0.9691424304771227,0,0.999850
0.9624998936560302,1,0.999980
0.9625408858758521,1,0.999993
0.9476181583763353,0,0.997491
0.9476710241640692,0,0.994716
0.948235107497221,0,0.996497
0.9492498885690948,0,0.997389
0.9510095440003246,0,0.995673
0.9544464991983272,1,0.999993
0.9556349617047323,0,0.998430
0.9560995521483593,0,0.999838
0.956643628262826,0,0.982758
0.9569816302884889,0,0.990520
0.9573595162976095,0,0.999870
0.9577401316796261,0,0.995775
0.9589505535031015,0,0.999908
0.959274546309787,0,0.996930
0.9593497582252929,0,0.997150
0.959850230951951,0,0.999883
0.9598503887871117,0,0.998945
0.9603429293443891,0,0.997588
0.960379509490002,0,0.997612
0.960214026517581,0,0.997123
0.9589688916750096,0,0.998288
0.7806716895130659,0,0.994428
0.8301383097609799,0,0.985732
0.8455829458824116,0,0.981122
0.8461691190629428,0,0.979533
0.848684993608704,0,0.977410
0.8498765521159186,0,0.994739
0.8506274944716761,0,0.994179
0.8523007207738432,0,0.986690
0.8535672593388529,0,0.999446
0.853397507473338,0,0.982319
0.8546138999601748,0,0.986374
0.8568707433752496,0,0.981185
0.8580577064669374,0,0.999568
0.8618439805801988,0,0.999876
0.8630520745196468,0,0.997898
0.8644257873729269,0,0.996036
0.8650917994256663,0,0.992578
0.8679308535026738,0,0.994138
0.8682788327491903,0,0.991361
0.8691433981146699,1,0.999987
0.8694808412929107,0,0.984773
0.871891535726155,0,0.998862
0.8723691472293965,0,0.996414
0.8742663560742628,0,0.997310
0.8761399505110596,0,0.997507
0.8770393412036159,0,0.999204
0.8775712219561014,0,0.987661
0.8787757509349121,1,0.999976
0.8801388798740125,0,0.994804
0.8823229381030216,1,0.999993
0.8830279630269721,0,0.995712
0.8838324885643158,0,0.999213
0.8853713428187068,1,0.999980
0.8870842103030797,0,0.994692
0.8875623215236681,0,0.999124
0.8893084300442688,0,0.991359
0.89178773392781,0,0.993662
0.8925732941015605,0,0.998950
0.892605101998452,0,0.999507
0.8935256962104193,0,0.997263
0.8947264142521717,0,0.984927
0.8946712388027728,0,0.993084
0.8949645671125109,0,0.998691
0.8948954716264752,0,0.985339
0.8948218045048975,0,0.998552
0.8953369715735108,0,0.993154
0.8970147526921591,1,0.999993
0.8969295693808229,0,0.982904
0.8986138723054891,0,0.993292
0.8998622499612996,0,0.997568
0.9001320716788859,1,0.999993
0.9002902165631261,0,0.999227
0.9026532345869313,0,0.999909
0.902815338252804,0,0.991289
0.9037022133613447,1,0.999967
0.9039946326447675,0,0.988364
0.9059953308661621,0,0.995575
0.9087350828984515,0,0.990297
0.9095746675548506,0,0.983794
0.9104001895447486,0,0.993466
0.9126118512847263,0,0.999321
0.9138056956908097,1,0.999987
0.9142898439004724,0,0.999645
0.9148097363244871,0,0.999029
0.9156884367748158,1,0.999993
0.9159104834961461,0,0.996121
0.9163658598530781,0,0.998611
0.917548369107574,1,0.999993
0.9181434827970604,0,0.999765
0.9189088811844527,1,0.999993
0.9206350786592306,0,0.995881
0.9224298655418713,1,0.999993
0.9229021337675887,0,0.998763
0.9235039176901606,1,0.999980
0.9246401293649308,0,0.999488
0.9255870532284801,0,0.998641
0.927472804746743,0,0.996286
0.9277881514227848,0,0.999757
0.9285390071343339,0,0.998657
0.929112128553264,1,0.999980
0.929112128553264,1,0.999984
0.9308966897537335,0,0.999479
0.9309120316514349,0,0.994471
0.9309509398501237,1,0.999931
0.9309598116201638,0,0.999471
0.9309664933391653,0,0.999770
0.9309861455403768,0,0.998688
0.9310290957178581,0,0.998996
0.9310544145534718,0,0.989688
0.9310916277232172,0,0.997876
0.93116197707688,1,0.999954
0.9313234483510249,0,0.999507
0.9316134455340296,0,0.994823
0.9316588585685083,0,0.998798
0.9321312266434085,0,0.996953
0.9323803673328775,1,0.999986
0.9325853624161814,0,0.998115
0.9326105227920514,0,0.991315
0.9332027244004366,0,0.998316
0.9331910221392363,0,0.992845
0.9331898207170324,0,0.999212
0.9331887118503939,0,0.998849
0.9331852319680174,0,0.998728
0.9331815967583066,0,0.999213
0.9331815967583066,0,0.999828
0.9331792230757294,0,0.998728
