0.34768317109231195,0,0.986344
0.462064465944305,0,0.987518
0.4627380590591906,0,0.999902
0.46311920185778055,0,0.999799
0.4751087474038792,0,0.999711
0.48904534414736356,0,0.990146
0.5728020267669904,1,0.999993
0.7406884823292645,0,0.984520
0.7415514918159487,0,0.996656
0.7428995930263909,0,0.987732
0.7447750107836555,0,0.988402
0.7460652917695372,0,0.990175
0.7500552963803124,0,0.986299
0.7527347273643833,0,0.988890
0.7537423799411498,0,0.988595
0.7607441919341192,0,0.999759
0.7617542355952597,0,0.987350
0.7678030096060111,0,0.988969
0.8503077799520101,0,0.999419
0.6068869543969456,0,0.999382
0.6359700904786679,0,0.989771
0.8250505838336439,0,0.999732
0.8390929458181611,0,0.991451
0.7931836767090562,0,0.988620
0.7736531140849466,0,0.989130
0.7222084686694028,0,0.999669
0.6598250319884111,0,0.989022
0.28011333465210464,0,0.990033
0.2894296711693409,0,0.989143
0.29069670839651174,0,0.999823
0.28494590069488746,0,0.989923
0.4796869605815153,0,0.991050
0.5000680815527425,0,0.989194
0.49794696068727845,0,0.990316
0.3026419316366738,0,0.990723
0.338003266679375,0,0.998465
0.39659324746527,0,0.999304
0.4222842201823992,0,0.999018
0.6832665589181973,0,0.999321
0.7004884630843896,0,0.997454
0.729948091449406,0,0.992003
0.7716544184939447,0,0.998767
0.6764670537668901,0,0.998919
0.6313841628026287,0,0.999632
0.5161022119228592,0,0.991903
0.4871785393807079,0,0.992026
0.46887565049723884,0,0.999221
0.7254843208049139,0,0.991686
0.7296382043697531,0,0.999394
0.786888325035184,0,0.999734
0.7018030244988575,0,0.999442
0.5616270943062908,0,0.999855
0.6086472861248694,0,0.999709
0.6087034821103219,0,0.998784
0.6096074601495962,0,0.994505
0.6133063199141684,0,0.991577
0.7558496665583133,0,0.999668
0.8393496219617949,0,0.999334
0.8378313781845957,0,0.999385
0.8355529623718335,0,0.991243
0.8309659195678358,0,0.999199
0.8262130487844619,0,0.999869
0.8213301587624047,0,0.999880
0.8135706661503311,0,0.999351
0.8035498843668728,0,0.984680
0.7856667181285062,0,0.999486
0.7740402794936397,0,0.998808
0.601425421754894,0,0.998571
0.5742577421140515,0,0.991078
0.47405111055407356,0,0.999585
0.20642965113423056,0,0.996272
0.22200491927350718,0,0.997615
0.22373564028676793,1,0.999975
0.22721839351509746,0,0.999755
0.22838263919581678,1,0.999992
0.2640252486678832,0,0.999893
0.2682621043956811,0,0.999910
0.43674325717432766,0,0.996478
0.2036900498222147,0,0.999734
0.19792020012549152,0,0.990520
0.192496001705258,0,0.998572
0.18514709429822157,0,0.999861
0.18032432880461235,0,0.996304
0.1744166888199119,0,0.990480
0.16857969880883003,0,0.999875
0.16351565519052147,1,0.999986
0.15000837026451389,1,0.999969
0.14650173350898685,1,0.999943
0.14316084332982773,1,0.999954
0.06130843928464264,0,0.995793
0.08018094832639959,0,0.997339
0.10149500952401265,0,0.999779
0.1187067514051833,0,0.997417
0.12994517714041515,0,0.999777
0.14681604794174635,0,0.999361
0.16171114445311924,0,0.999314
0.1607070111136308,0,0.996317
0.16744904742821462,0,0.983978
0.3893204048156044,0,0.999234
0.17468531403892654,0,0.989805
0.1357990200847897,0,0.995112
0.1461756587584858,0,0.993780
0.15958287639078106,0,0.995557
0.40098711944656,1,0.999969
0.4904068200396148,0,0.998200
0.679481172642022,0,0.997651
0.6804230068077773,0,0.979031
0.6810208388472847,0,0.997766
0.6827118860003243,0,0.995853
0.45875316482229694,0,0.998977
0.5231207078412096,0,0.998022
0.4036345707838353,0,0.999236
0.5460290707033004,0,0.997530
0.771065695083915,0,0.996719
0.7815347777037789,0,0.996770
0.44816656116164,0,0.999679
0.7268232979939359,0,0.999833
0.7849118057838584,0,0.997800
0.8078925068242799,0,0.996482
0.8739501202905883,0,0.997292
0.8444240820688106,0,0.999738
0.8862138313247829,0,0.998112
0.9143158538389135,0,0.995832
0.9076880183196986,0,0.996891
0.8732077980644691,0,0.981728
0.7854203760452906,0,0.998370
0.7161224012694055,0,0.984709
0.6613783937978445,0,0.998533
0.6600397902744721,0,0.997150
0.6574193555990394,0,0.981798
0.6529260915187151,1,0.999893
0.644588998658378,0,0.996069
0.634148671370392,0,0.998150
0.6038269172820167,0,0.998722
0.6165030261350811,0,0.996540
0.6531274910112641,0,0.998792
0.576109242901748,0,0.989416
0.6841231883595585,1,0.999763
0.7054454889432521,0,0.980568
0.7239369044324008,0,0.997677
0.751248628542635,0,0.997756
0.7751284367408935,0,0.998596
0.8079519604265458,0,0.998424
0.8137316141251129,0,0.995606
0.804433481656519,0,0.995998
0.8226470272529328,1,0.999992
0.8574682632148762,0,0.982305
0.7861973354678322,0,0.993087
0.7954155151388393,0,0.998258
0.8794985284664708,0,0.984708
0.8807045798204028,1,0.999993
0.8744149292343584,0,0.996137
0.8633226345603069,0,0.997998
0.8845928251114513,0,0.999668
0.8763937069818112,0,0.999801
0.8869730443241887,0,0.997441
0.868415765984296,1,0.999992
0.903168508915527,0,0.999337
0.8946992912038828,0,0.997580
0.9102593778175443,0,0.992524
0.9104747631009986,0,0.999759
0.9099031612825265,0,0.993229
0.9074230010226817,0,0.999226
0.908734698946724,0,0.994838
0.9107955474348095,0,0.999463
0.9117788857437218,0,0.999444
0.8993802331588738,0,0.993128
0.9127894708739182,1,0.999962
0.9222532831523625,0,0.998881
0.9239242771820187,0,0.999849
0.9157807058153384,0,0.999729
0.9123410980007011,1,0.999969
0.8547240481394437,0,0.995257
0.8589090960377114,0,0.999862
0.8598414724754977,1,0.999974
0.8639390866496811,1,0.999961
0.8580330520479115,0,0.999710
0.8593696293717262,0,0.993199
0.8323019953704661,0,0.999304
0.8003521925841421,0,0.999482
0.6833611982499757,0,0.999170
0.9029663594555367,0,0.999909
0.8888873648493434,0,0.999907
0.8947414130504869,0,0.999409
0.9028234160538057,1,0.999987
0.9239388723211298,0,0.999308
0.9427371881932158,0,0.999824
0.9329822877474697,0,0.999650
0.9563509603930899,0,0.999772
0.9367144939300095,0,0.999855
0.6037551836189002,1,0.999907
0.6716393338436407,0,0.999083
0.038545878786000035,1,0.999845
0.1882504951193058,1,0.999957
0.3222364071065815,1,0.999938
0.38563521683849344,0,0.999342
0.5160034786655734,0,0.998715
0.5160386808748613,1,0.999993
0.5115000631365013,1,0.999993
0.5005084095399108,1,0.999993
0.46721065156730385,0,0.984556
0.40380497319366465,0,0.997750
0.32781435987353835,0,0.996358
0.328847929017654,0,0.995991
0.3345541352450445,0,0.996408
0.25844562782355596,0,0.997023
0.24530349846094773,0,0.997945
0.13064481194681926,0,0.996993
0.23028346115276688,0,0.996827
0.31635907941263613,0,0.999115
0.3186451757157083,0,0.998631
0.32233812954731,0,0.999463
0.32593493511097293,0,0.999708
0.24623950085450655,0,0.998136
0.3672508532497672,0,0.999900
0.38371249585293316,0,0.999860
0.3493566525395473,1,0.999985
0.6127460502190917,0,0.993760
0.6092400298780807,0,0.997038
0.6478742204214395,0,0.998721
0.5321317604079319,0,0.999895
0.5255704092302337,0,0.999038
0.6138777461353696,0,0.999523
0.7059490094109234,0,0.999810
0.6938878732832001,0,0.999904
0.6624186584358033,0,0.999576
0.7198433187854404,0,0.999028
0.6247635593662075,0,0.995809
0.6393667009129514,0,0.993389
0.6449633966873515,0,0.999691
0.6757976840380177,0,0.996423
0.5804553573834524,0,0.999435
0.5482830964123357,0,0.996213
0.7172979124002321,0,0.998242
0.6983162366682018,0,0.998631
0.7703890249239512,0,0.998552
0.7618826007947528,0,0.993714
0.7488752434846141,0,0.992775
0.7824726042808293,0,0.998511
0.7098635949929206,0,0.994031
0.8127963601327866,0,0.998481
0.7775657054202328,0,0.997152
0.7975821265208825,0,0.999135
0.799644580452772,0,0.994047
0.8083427797728636,1,0.999987
0.8127226429637168,0,0.999707
0.8267387188387902,0,0.996806
0.8170124098188898,1,0.999945
0.8314030998590952,1,0.999932
0.7852821697142977,0,0.997528
0.786356127262305,0,0.995095
0.6370717610554554,0,0.996387
0.6933308661304655,0,0.996648
0.6129576799239401,0,0.998093
0.6844305876092855,0,0.993198
0.8149432547720007,1,0.999979
0.7748581248065627,0,0.998159
0.7925771206500416,1,0.999987
0.8185535035326161,0,0.999397
0.8321197086733509,0,0.998618
0.7864246088164094,0,0.996410
0.8489721304140274,0,0.999874
0.8730267588074846,0,0.999803
0.8298498627352267,0,0.997456
0.8118053509620732,0,0.999863
0.7251854619755388,0,0.993234
0.6609174972281225,0,0.998991
0.5837315671838254,0,0.995602
0.8205871331319643,0,0.996948
0.8756156554850628,0,0.999884
0.8529842474798963,0,0.999646
0.8673724016899494,0,0.998474
0.8824983782007475,0,0.999237
0.8790178114078845,1,0.999973
0.8596515760875842,0,0.999693
0.8390567472286036,0,0.999903
0.8755723383778848,0,0.999925
0.8332579789163489,0,0.991220
0.8861547264198306,0,0.999895
0.8913296118543103,0,0.998845
0.8995620606820495,0,0.999746
0.8968318279106078,1,0.999993
0.8971611791076315,0,0.999574
0.9135148948141418,0,0.999898
0.9083430838527903,0,0.999912
0.9122334966243737,0,0.999420
0.9171091629018083,0,0.999709
0.9153568534483676,1,0.999993
0.9085407322839598,0,0.999705
0.9125636615580407,1,0.999946
0.9153673392261636,0,0.999551
0.9079251695892404,0,0.999745
0.9082221348049366,0,0.999894
0.9121393551631448,0,0.990144
0.9096883777492593,1,0.999961
0.9086963901319937,0,0.999785
0.9114484724488274,0,0.999273
0.9157033716995929,0,0.999908
0.916387843426206,0,0.999784
0.9225416005768362,0,0.999573
0.9207150381343684,1,0.999935
0.9268651149510864,1,0.999961
0.93173972208407,0,0.999888
0.8868054068544209,0,0.999230
0.9322879580085618,0,0.999438
0.6690884345032803,1,0.999993
0.696288657434137,0,0.999908
0.8770527690045266,0,0.999488
0.9422027266807191,1,0.999987
0.882147543222931,0,0.999761
0.8514305995001101,0,0.999387
0.3009333299920922,1,0.999942
0.7587398417850961,0,0.998533
0.9041094899108036,0,0.997933
0.9255512759500808,0,0.999692
0.9294781105026013,0,0.998277
0.9420174523134105,0,0.998654
0.9434698731335436,0,0.999816
0.9199377484779279,0,0.999798
0.933275339279316,0,0.999855
0.9250355756779641,0,0.999862
0.8987878932676857,0,0.999148
0.8968875125760357,1,0.999987
0.9378512353667382,1,0.999993
0.675203867582372,1,0.999986
0.9345274342234592,0,0.999908
0.939100264867769,0,0.999292
0.9346227068961083,1,0.999974
0.9418156210818703,0,0.997225
0.9456114731873648,0,0.999558
0.9233166508850567,0,0.998082
0.9358154221890785,0,0.999649
0.9373459638356185,0,0.999850
0.9398649657353413,0,0.997636
0.9375004776398873,0,0.998354
0.6413938944199719,0,0.999728
0.9054154041057116,0,0.998846
0.7270838648276934,0,0.996620
0.8016045441936376,0,0.999075
0.8108054061197808,1,0.999993
0.8849216486207134,0,0.999429
0.8988754282494931,0,0.999928
0.8711556731969741,0,0.998390
0.9143584315880635,0,0.999912
0.9158361692417366,0,0.998849
0.929344452870566,0,0.999924
0.9273475402172189,0,0.999614
0.9094219755582945,0,0.999295
0.7993948158963703,0,0.994849
0.8041331931673288,0,0.999510
0.7654402495686058,1,0.999801
0.6300897372004624,0,0.998994
0.48530535492800414,1,0.999913
0.4372408457859952,0,0.999649
0.3730832859794869,1,0.999900
0.33983606760413193,0,0.998948
0.400433011284809,0,0.998567
0.37845367641189487,0,0.998335
0.32951216893926477,0,0.998034
0.4776737726082809,0,0.996436
0.8792260492599119,0,0.999922
0.8751447778532743,0,0.999000
0.8771756003590403,1,0.999935
0.8514862572306754,1,0.999956
0.8585852498095294,0,0.999469
0.8724854956413609,0,0.999693
0.7931660932503386,0,0.999492
