0.02181729715562003,0,0.006243
0.09066937630581674,0,0.007381
0.14222921456874307,0,0.008006
0.7532366236062742,0,0.930632
0.6902907494667764,0,0.065567
0.5642649000249716,0,0.992796
0.5582423927756321,0,0.996617
0.6049481822547709,0,0.996831
0.3926812694926951,0,0.996473
0.6799097179368478,0,0.991475
0.51274309557248,0,0.997670
0.5060391171983388,1,0.999990
0.49886826621923336,1,0.999989
0.45263265939008,1,0.999968
0.7316451820604137,1,0.999945
0.5072609374947152,0,0.998125
0.5891822077799722,0,0.996190
0.5762820689016898,0,0.999870
0.5582454579348269,0,0.999882
0.6178621701426504,0,0.998351
0.39383659231593576,0,0.990666
0.6636622323618361,0,0.998081
0.6814269797427922,0,0.999827
0.34618689837012334,0,0.999870
0.39454078349085336,0,0.996654
0.6181744531283533,0,0.993875
0.4574573023417988,0,0.999807
0.6021924260585141,1,0.999921
0.6837740439487332,1,0.999981
0.5941285504192144,1,0.999991
0.5768918173814972,0,0.993584
0.6289297516086655,0,0.994463
0.4052916460524778,0,0.987277
0.6931285609819272,0,0.996491
0.710619197740331,0,0.999352
0.5947763148667434,0,0.993780
0.5448491918715365,0,0.999241
0.6868543811298109,1,0.999921
0.7560616606042749,1,0.999924
0.766957353186964,1,0.999991
0.7039778072130141,0,0.996934
0.5404505193720278,1,0.999980
0.6712378078377207,0,0.998921
0.8158719187981005,1,0.999944
0.6223578941798186,0,0.997908
0.4424185925005548,0,0.999783
0.5912836260974011,0,0.996453
0.6046940520998361,1,0.999971
0.41179329294579486,0,0.998095
0.6754247992808653,0,0.999549
0.7752564489450405,0,0.998302
0.4181751905358814,0,0.985834
0.5692352101613984,0,0.999059
0.7549286124978553,0,0.999523
0.6457325413066839,1,0.999902
0.47150613017198495,0,0.999003
0.6549643774508688,0,0.989466
0.635898023957023,0,0.997869
0.21134621616284743,1,0.999979
0.2965751417966031,0,0.996933
0.7030652060706089,0,0.997617
0.6294952932453753,0,0.997336
0.4254553487996472,0,0.995030
0.6109752166581222,0,0.997868
0.37449494014672363,0,0.997514
0.6922601326585589,0,0.997717
0.5726830477506665,0,0.998695
0.576235397188206,0,0.998687
0.36508723992021624,0,0.999033
0.2657975604314799,0,0.998296
0.5862165486964751,0,0.999704
0.7833461789127147,1,0.999963
0.7657927256357809,0,0.998991
0.7648119807287524,0,0.999455
0.8322338839293791,1,0.999973
0.7703826423976768,0,0.999864
0.5112501444669962,0,0.998586
0.72634966554953,1,0.999963
0.7330009296294958,0,0.999798
0.6350512613257482,1,0.999961
0.5903471855615567,0,0.997750
0.45978512314068604,0,0.998939
0.6129566927876633,0,0.998503
0.7800794168552834,1,0.999944
0.6427077895482628,1,0.999952
0.8301914368117422,1,0.999972
0.6623572191447753,1,0.999931
0.8302108451966718,1,0.999991
0.740947824261338,0,0.997462
0.7894693680001009,0,0.999898
0.6766393714391183,0,0.999735
0.5635467211009116,0,0.999460
0.713312910760535,1,0.999990
0.6422679239100563,1,0.999957
0.8006105255204894,0,0.998629
0.708639211153408,0,0.993191
0.6615532718946678,0,0.999796
0.6773585002268918,0,0.999769
0.8281077468480346,0,0.999278
0.5654457195647687,1,0.999990
0.5006770097581897,1,0.999908
0.6020704120122731,1,0.999929
0.6555870671982718,0,0.988530
0.5298098081871422,1,0.999981
0.31617665722638405,1,0.999988
0.46912965684611246,0,0.996442
0.45123500648383547,1,0.999910
0.7518673328629598,1,0.999990
0.7992357271308963,0,0.999761
0.7991134067479978,0,0.998616
0.8435482352114103,1,0.999929
0.8384474711460289,0,0.999784
0.7740955219638168,1,0.999963
0.8411296963664541,0,0.999743
0.8493212320095023,0,0.996859
0.7786987822387634,0,0.996577
0.7679656918701987,0,0.994060
0.8324073641156472,0,0.999855
0.5665511407051771,0,0.999157
0.6487902642979378,0,0.997782
0.830056529535217,0,0.999464
0.6437519032806475,0,0.994984
0.8068588108172462,0,0.998703
0.7929847656610803,0,0.999870
0.6793965820406443,1,0.999990
0.7467283017359215,0,0.999700
0.7808421068432533,0,0.999372
0.7081258390155549,0,0.999219
0.2282288904640488,0,0.999033
0.6981050807092917,0,0.999585
0.6549898410829896,0,0.999791
0.7373595503704825,0,0.992739
0.7156428135052916,0,0.999865
0.6849818275743613,0,0.999792
0.7650642393129886,0,0.993341
0.8153615278418013,1,0.999981
0.7431661184532375,0,0.999856
0.810401411910127,0,0.999031
0.6312119542507458,0,0.996903
0.7304058323405457,0,0.999796
0.5371390788339518,0,0.999712
0.8157738581216173,0,0.995819
0.6866159145932343,0,0.996535
0.7573992820924503,0,0.998749
0.742907901623378,0,0.999240
0.8367730096567976,0,0.999884
0.7058695776026958,0,0.998881
0.8068487605082049,0,0.999818
0.7915286435198233,0,0.999353
0.7380018783828627,0,0.998707
0.6847972746047604,0,0.999835
0.5678526955827115,1,0.999991
0.8175166873324101,1,0.999954
0.7955770755640055,0,0.994653
0.4324918353582362,0,0.992212
0.8071328585562094,1,0.999982
0.20646288875856056,0,0.992746
0.29075344405770376,0,0.999685
0.11419346113789035,0,0.994663
0.08266789654855297,0,0.998675
0.277094719968374,0,0.999689
0.7987519901457903,0,0.999719
0.680038652522461,0,0.997874
0.8451034703845627,0,0.999828
0.8328251704782439,0,0.980272
0.8485814703198147,0,0.999825
0.6822606641645373,0,0.999575
0.6149474694503272,1,0.999980
0.7724785471898448,1,0.999962
0.6313833130772885,0,0.995089
0.8075124851918869,1,0.999965
0.8549939832886356,1,0.999991
0.7326267144880892,0,0.999513
0.8740868789215472,1,0.999973
0.7989719883418865,0,0.997533
0.5951660840479989,0,0.997729
0.4627948919810039,0,0.997224
0.7474779021633458,1,0.999945
0.7799651383465283,1,0.999981
0.887143992031606,0,0.999888
0.8529336181810229,0,0.999628
0.8577165907785058,1,0.999991
0.8354006216238241,0,0.996343
0.8270667324873024,0,0.996687
0.6122115143195123,0,0.993050
0.8521354570705022,0,0.999600
0.858781424508709,0,0.999594
0.80603640707027,0,0.999641
0.759455886904568,0,0.996572
0.8762184606308742,0,0.999640
0.8428078158479961,1,0.999991
0.8371194947980913,1,0.999991
0.5751897051341305,0,0.996515
0.8099429337766818,0,0.999565
0.6063745926835631,0,0.999273
0.7399178322810959,0,0.991310
0.5868230390411674,0,0.995079
0.5837189095710863,0,0.999102
0.7524782218073741,0,0.987239
0.16092490660980066,1,0.999975
0.7877687705610007,0,0.969181
0.5824592841787096,0,0.997529
0.607063675505248,0,0.999844
0.7242831524453285,1,0.999991
0.18431332195142258,0,0.999249
0.19636425400434537,0,0.998695
0.06734027237534973,0,0.999518
0.2491529032009941,0,0.994786
0.09238311688929803,0,0.992718
0.10749823922243046,0,0.991345
0.10163556224434053,0,0.998581
0.11957045508380557,0,0.991811
0.1069227260434549,0,0.997819
0.13551315829568958,0,0.987566
0.5525745026487244,0,0.992685
0.356028577552346,1,0.999968
0.32637739727995896,0,0.998104
0.5260542832654376,0,0.995913
0.16991064179785703,0,0.997426
0.5598600572648529,0,0.983427
0.55814299013428,1,0.999990
0.2558446175265947,0,0.997568
0.19530153603161254,0,0.999794
0.23654650381760278,0,0.997812
0.09667930042719598,0,0.997316
0.020944431869280782,0,0.998979
0.002194699869470373,0,0.998074
0.0017241371671275559,0,0.999002
5.688062188650007E-4,0,0.996325
0.008343804414295426,0,0.991141
-8.350764050361441E-4,0,0.992266
0.011427508147412592,0,0.982263
0.0035440429666630836,0,0.989179
0.05735885616324288,0,0.985164
0.034453337779567925,0,0.991110
0.020994873563472887,0,0.985469
0.049681872213928426,0,0.984655
0.05894490382170124,0,0.979418
0.0287746934143547,0,0.999555
0.01720066602101233,0,0.978355
0.036577516115975865,0,0.999290
0.001373697414422212,0,0.966862
0.011269654988587025,0,0.992407
0.02473787754677138,0,0.988499
0.022513327658926715,0,0.999711
0.03271176464995074,0,0.999788
0.03878396630371845,0,0.980574
0.007828683898916724,0,0.996166
0.01790648253106086,0,0.991339
0.03955191806453328,0,0.963799
0.021837676503008635,0,0.994267
0.018823859598885943,0,0.972160
0.018364685250713348,0,0.995005
0.044225502011812474,0,0.989322
0.05969523114196013,0,0.998815
0.04040076658582891,0,0.997720
0.024551280231732486,0,0.986557
0.030592091339377476,0,0.991579
0.01023887337119517,0,0.969700
0.010958693977491503,0,0.999494
0.030879316663809216,0,0.981876
0.019396390237911964,0,0.993539
0.017203108255447998,0,0.991265
0.023383323136981538,0,0.974242
0.04396726323751874,0,0.936807
0.04800012895561175,0,0.962316
0.061850328768508156,0,0.991121
0.06712723338523896,0,0.997717
0.06858841022588587,0,0.975794
0.06435408466264422,0,0.974093
0.06910494672434976,0,0.997586
0.042130332896113176,0,0.992505
0.06248053007857809,0,0.955404
0.04999837321670296,0,0.951707
0.0483948532870029,0,0.963508
0.07413679270513306,0,0.995057
0.06869628363930588,0,0.968679
0.06780306938510365,0,0.973046
0.06132059044921268,0,0.995954
0.07931338418085096,0,0.952349
0.08241896699053045,0,0.969437
0.0983565322010552,1,0.999983
0.06174771382917011,1,0.999883
0.07324834445611336,0,0.992444
0.09476342067779354,0,0.971143
0.08602187118150482,0,0.994760
0.0792133174171973,0,0.998040
0.09578193140376473,0,0.994089
0.08561350812490928,0,0.971223
0.12308294437633535,1,0.999906
0.1331164068280264,0,0.967708
0.10002441286073797,0,0.992194
0.14748625262135961,0,0.978844
