0.24346346255393073,0,0.947408
0.5546366525673284,0,0.989052
0.24306306682580797,0,0.990559
0.4192727573912908,0,0.998327
0.45537267345232796,0,0.996835
0.23947422488418993,0,0.994426
0.31898394782093686,0,0.999622
0.43811133528539303,0,0.998149
0.47818847737150355,1,0.999946
0.5508866111922376,0,0.999570
0.13156637027096424,0,0.987955
0.3049347851393304,0,0.994474
0.2751329087928908,0,0.989975
0.5095042992524736,0,0.999013
0.48224770769366093,0,0.999395
0.19607057333818811,0,0.998845
0.26938280173149287,0,0.996512
0.23723581220893192,0,0.998656
0.21658987924373338,0,0.993736
0.25201619877056075,0,0.996659
0.17948383528919323,0,0.984151
0.17670370232708663,0,0.984720
0.17441691694695785,0,0.962001
0.22662953993369694,0,0.967457
0.3731589656548388,0,0.993709
0.11842569070837103,0,0.975491
0.4062170513111906,0,0.990322
0.5985030192769083,0,0.992289
0.6902741400951287,0,0.999842
0.6173707286237178,1,0.999987
0.2667246934100665,0,0.997392
0.28581586098003253,0,0.988067
0.3600332334134741,0,0.995646
0.2854290457566669,0,0.993957
0.26065793368265244,1,0.999919
0.2563742720936119,1,0.999924
0.35066032299473426,0,0.986422
0.36451219212864855,0,0.972666
0.1542169703845814,0,0.987307
0.12198640538672677,0,0.998251
0.11855375462132514,0,0.982849
0.1374292597434163,0,0.972726
0.18351676068485753,1,0.999972
0.1815237143237006,0,0.995669
0.3787276437321086,0,0.999801
0.37463008662342256,0,0.991104
0.46899839485250117,0,0.997323
0.5867467274725242,0,0.994959
0.4451299728694594,0,0.997516
0.4492376880356007,0,0.997838
0.443068892774515,0,0.998345
0.2741824001299924,0,0.997672
0.2681519348086839,0,0.985487
0.2805795105149049,0,0.996438
0.2657033955004764,1,0.999946
0.3813451395714318,1,0.999933
0.1868801991254383,0,0.988139
0.19487555006663662,0,0.995975
0.26208031701231355,0,0.997574
0.27518784031045407,0,0.995624
0.4095296095335765,0,0.999203
0.4281006357829059,0,0.998331
0.5026878173540109,0,0.998595
0.44028829174096323,0,0.993522
0.46244980983010786,0,0.998300
0.41411802331215675,0,0.999323
0.46473676001220626,0,0.999399
0.44412607753684263,0,0.984462
0.4929165737633794,0,0.998975
0.41589214040820816,0,0.992146
0.3464292583912408,0,0.996031
0.3378862820333386,0,0.999579
0.31620438874902534,0,0.990971
0.3384407443921286,0,0.983685
0.3464385882945409,0,0.997412
0.36480055731944844,0,0.998527
0.31101784610671007,0,0.998237
0.35864701909065627,0,0.999085
0.40046576686841695,0,0.999584
0.4393654701771689,0,0.999575
0.3966429679932691,0,0.997484
0.4778077973057289,1,0.999888
0.5493324992653729,0,0.998844
0.5045861715165045,0,0.991947
0.5360469367903894,1,0.999945
0.49859857629164006,1,0.999921
0.5733482674425239,0,0.994073
0.5152997244480433,0,0.999295
0.4444073793839222,0,0.999681
0.2675893155648904,0,0.981913
0.420587465599982,0,0.998291
0.47761098864855056,0,0.998950
0.4251712718523784,0,0.995784
0.5000110535373858,0,0.998851
0.463907138441817,0,0.998419
0.5202987590248567,0,0.999767
0.5745571852428946,0,0.994868
0.5271965492024093,0,0.999304
0.5627526300970419,0,0.998198
0.6090563934475549,1,0.999961
0.5109292538352763,1,0.999936
0.5623383461605724,0,0.999710
0.575114111062797,1,0.999958
0.6528037685236646,1,0.999987
0.4580034417106524,1,0.999961
0.5386939904620165,0,0.995506
0.3124929858037604,0,0.973746
0.45662102372495467,0,0.997124
0.15760280424629544,0,0.993226
0.16022851841466318,0,0.995107
0.3745391021066427,1,0.999882
0.23911483534567016,0,0.997041
0.44967867863143274,1,0.999972
0.34685353985625145,0,0.999191
0.44008239406090166,0,0.997837
0.3800555191671964,0,0.998372
0.516791087717587,0,0.997657
0.4496561143001274,0,0.998721
0.12168610233208389,0,0.997098
0.3190236242039435,0,0.985152
0.35143831258290925,0,0.990504
0.07971431354369596,0,0.978622
0.14134551648727575,0,0.995646
0.34406909575298794,0,0.998701
0.1595600271692496,0,0.990676
0.24075356845726645,0,0.975813
0.1165600773959073,0,0.989358
0.09783323093243365,0,0.989911
0.11783538632505008,0,0.993424
0.11770508297187783,0,0.996515
0.051857680239586125,0,0.986399
0.11558404227264739,0,0.979228
0.10469447770770558,0,0.992107
0.1472127394250374,0,0.999829
0.33301471866525156,0,0.998590
0.39769407674495677,0,0.972550
0.4134252069261104,0,0.992532
0.4940514356025507,0,0.989578
