0.7121064951392205,0,0.999745
0.6098305898728985,0,0.999823
0.619844175120593,0,0.999530
0.4073973835694528,0,0.999843
0.441102839530522,0,0.998016
0.44953496846482005,0,0.999197
0.42856834944010996,1,0.999991
0.38668942257485933,0,0.999835
0.3814091832232563,0,0.999487
0.3262151444830225,1,0.999912
0.41344755084214224,0,0.998853
0.42549186557248536,0,0.997104
0.42332205965902236,0,0.998438
0.3825076523322335,1,0.999972
0.4236387373146914,1,0.999982
0.4218299792786827,0,0.999793
0.42777510275719965,0,0.999701
0.4423978085110851,0,0.998281
0.4171350426417038,0,0.998532
0.3817585351458554,0,0.999429
0.3779408625472443,1,0.999972
0.4354057429156841,1,0.999953
0.4299114060051209,0,0.997755
0.41704170885257474,1,0.999982
0.4454286483396451,1,0.999972
0.46252730802110226,0,0.996644
0.4516728529851957,1,0.999971
0.46938384944390216,0,0.999020
0.20759478539559711,0,0.998122
0.2133867568311703,0,0.999263
0.2532787615146077,0,0.997556
0.23355286866474204,0,0.998199
0.25769505676401083,0,0.997954
0.4178052721968785,1,0.999990
0.4136625728002273,0,0.999309
0.36836459698288837,1,0.999907
0.40299362141649053,0,0.996871
0.19237358853736766,0,0.999832
0.16428688389925114,0,0.999243
0.319728041841833,0,0.998960
0.2954201193071869,0,0.987094
0.32886498162162936,0,0.999859
0.2526002872800877,0,0.996398
0.21245938111431467,0,0.992982
0.2072216970375614,0,0.997545
0.24031728386600612,0,0.999161
0.4137537282539623,0,0.997657
0.3467456346476177,0,0.986178
0.34331432086442354,1,0.999924
0.3696101064627389,1,0.999971
0.33981878447322167,0,0.999888
0.2905201401801104,0,0.999526
0.3470911811991564,0,0.997549
0.2843978408330158,0,0.999848
0.3152193326541866,1,0.999935
0.2293932263288483,1,0.999941
0.3541617884040689,0,0.988752
0.2562944125257541,0,0.999437
0.29757537777588305,0,0.998435
0.3456700242478097,0,0.999645
0.3155723141596293,1,0.999991
0.2790818361062006,0,0.999873
0.3853961919595767,1,0.999962
0.2199892454500744,0,0.999811
0.35300663926522863,1,0.999972
0.317710784399822,0,0.999556
0.30693463964507517,0,0.994960
0.36338940981965984,0,0.999775
0.2936297615135724,0,0.996397
0.25201336713702766,0,0.999731
0.34113495084372714,0,0.998696
0.3607629721421726,0,0.998875
0.29937368351109456,1,0.999914
0.20880359564649278,0,0.998215
0.31966547515704097,0,0.997909
0.3751483613940499,0,0.978868
0.3306280924113141,0,0.998043
0.3991563918110484,0,0.999722
0.24098493632146842,0,0.999605
0.3575873336611609,0,0.997928
0.4216423297561873,0,0.989645
0.34938671582960407,0,0.999213
0.33972197119048525,0,0.998996
0.3595288032302246,0,0.996808
0.35370847208789924,0,0.992278
0.3250620714907932,1,0.999991
0.20217302025683914,1,0.999980
0.201882417156201,0,0.998637
0.3266198792637738,0,0.994552
0.3324353351596562,0,0.999383
0.2057512520345529,0,0.999196
0.22218808311422075,1,0.999960
0.3908492164521157,0,0.999806
0.29311754734370377,0,0.991960
0.3242126099456104,0,0.998926
0.3753499519889458,0,0.999024
0.33828061590684516,1,0.999904
0.3444049112966746,0,0.999640
0.42877433977371376,1,0.999902
0.37683043646345044,1,0.999941
0.30761030243911547,0,0.961454
0.3528840503022701,0,0.973511
0.3203050486196924,0,0.999219
0.36790692147989756,0,0.999831
0.33660250792410745,0,0.997038
0.1379122069216533,0,0.998734
0.3416304295560533,0,0.999142
0.19257556145138113,0,0.994520
0.23043470398675098,1,0.999990
0.2567779396757854,0,0.996823
0.22309242924773723,0,0.995843
0.2037339565944517,1,0.999921
0.3050379694362646,1,0.999972
0.2958768307529375,0,0.999329
0.2294070069352649,0,0.998639
0.2523611527167929,0,0.998109
0.2627035318620712,0,0.968608
0.42470429687799954,0,0.980476
0.19849002138971872,0,0.999384
0.255482207966829,0,0.998979
0.3043603648008003,1,0.999980
0.3568210315787103,0,0.999867
0.23844812032074292,0,0.971740
0.294499630160155,1,0.999925
0.39685549684979105,0,0.998735
0.3177319931216914,1,0.999914
0.32670334273672036,0,0.976133
0.2854063548290304,0,0.999702
0.18201261448884767,0,0.997746
0.323263995415726,0,0.999175
0.3300153787772776,0,0.995240
0.23104252840194317,0,0.999712
0.30547220287791976,0,0.999856
0.3067565049532475,0,0.999516
0.3374585579526774,0,0.999583
0.3088969538655555,1,0.999991
0.2968875233713356,1,0.999981
0.28080108012776034,0,0.999051
0.3178858479405539,1,0.999991
0.3446454803429707,0,0.999246
0.38274291248710807,0,0.980301
0.3121933918480381,1,0.999981
0.3245278480062701,1,0.999981
0.2969640942511982,1,0.999972
0.3892009009439559,0,0.999879
0.360419845438885,1,0.999991
0.4128544814323213,0,0.996928
0.41824273704711545,1,0.999991
0.4022163719109304,1,0.999971
0.2357858082081306,0,0.999136
0.33904994212792217,1,0.999972
0.3743979475142806,1,0.999940
0.3199200308073365,1,0.999963
0.3476078841313974,1,0.999981
0.34841400846738735,1,0.999942
0.344511158113085,1,0.999962
0.36744040046281734,0,0.993489
0.3094656545702798,0,0.998178
0.4274092901157736,0,0.983668
0.3504693176084765,1,0.999991
0.32599114398563817,1,0.999991
0.33205086834263703,0,0.999898
0.35127266896071196,0,0.998340
0.3408158839720388,0,0.999366
0.3498888149622404,1,0.999941
0.37113282122861596,0,0.991441
0.40813686515728154,1,0.999990
0.3958927998465539,0,0.999831
0.4004664947583699,1,0.999915
0.3240245999315503,0,0.978783
0.37071635089915184,1,0.999952
0.3570253295824025,1,0.999991
0.3776772772862537,1,0.999981
0.35415297791198613,0,0.997808
0.3971415534400579,0,0.984231
0.3751778369958567,1,0.999954
0.39773395035089526,0,0.999375
0.3475792982457239,1,0.999991
0.44400051771521354,1,0.999962
0.36898569674767895,0,0.999657
0.3747694886746548,1,0.999981
0.34412463596001647,1,0.999990
0.42650299341569164,1,0.999981
0.30085068263150616,0,0.991840
0.3125220539521705,0,0.989452
0.3628197437794812,1,0.999991
0.3764868286314683,0,0.999716
0.35480663019913256,0,0.998552
0.45309047306805883,0,0.987702
0.3559879954259255,0,0.999622
0.43035871915347945,0,0.996339
0.33324176784997783,0,0.999791
0.3578181591766969,1,0.999953
0.34965062222365284,0,0.981898
0.4163644791922618,0,0.999738
0.2231357971364246,1,0.999964
0.3283466653776042,0,0.986127
0.430461512817738,1,0.999961
0.35889357150230866,0,0.999427
0.3201774642535825,1,0.999932
0.3663579496928507,0,0.999505
0.3650517261598106,1,0.999991
0.3350257446233352,0,0.998927
0.34563021029439217,0,0.992197
0.34036456942797394,0,0.999861
0.35312628571258015,0,0.997774
0.2931975619261301,1,0.999981
0.32152344059582166,1,0.999991
0.29666526373326624,0,0.999670
0.3253157295052699,1,0.999980
0.291298886671293,1,0.999991
0.30075329486214647,1,0.999952
0.2365205317976296,1,0.999971
0.36690663011221497,0,0.999690
0.36940250108268474,0,0.999643
0.3281051262221577,0,0.998678
0.40283791366314414,0,0.999136
0.3975950411272113,1,0.999991
0.38210936325160677,1,0.999972
0.34145052332331444,0,0.999507
0.3379041014493065,1,0.999990
0.3488735340222793,1,0.999981
0.2308654324590589,0,0.999455
0.4104766118896583,1,0.999991
0.23675040945434583,0,0.999304
0.34733290321616983,1,0.999991
0.33606284264101965,0,0.999515
0.3786503933510181,0,0.999830
0.4208123235616628,1,0.999981
0.4254516397375853,0,0.995588
0.30739051988541444,1,0.999971
0.4023234577953647,0,0.992403
0.4122297312028399,0,0.999156
0.31656078205222016,1,0.999963
0.3373304580338663,0,0.999766
0.3864085354805783,0,0.993294
0.3977224360259686,1,0.999971
0.3973561866500893,0,0.999781
0.4118303682341308,1,0.999991
0.34046807922493844,0,0.999382
0.3723713040522919,1,0.999991
0.35336128327626015,0,0.999103
0.3662610742585554,0,0.998981
0.3513732591326609,0,0.999702
0.36918706716821,1,0.999924
0.35485708600095867,1,0.999911
0.4013750536165957,1,0.999981
0.393875488335995,1,0.999970
0.37734503019570736,0,0.999793
0.33612743772770043,1,0.999944
0.33775854653798815,1,0.999991
0.3818122556057754,0,0.995472
0.3172276770151083,1,0.999981
0.2982534946782675,1,0.999991
0.3568028793991346,0,0.999513
0.30085251880106384,1,0.999973
0.29469377199145486,1,0.999972
0.3959219314816047,1,0.999943
0.22107028812462387,0,0.999523
0.40934867584951795,0,0.998140
0.3781119546958094,0,0.999333
0.3997044708423777,0,0.999781
0.3536572771705487,1,0.999934
0.32841216042969845,1,0.999944
0.4142659963992761,0,0.999295
0.35892086360327424,1,0.999918
0.41277753595977656,0,0.998233
0.35488576676754263,1,0.999991
0.31053880947676943,0,0.998877
0.2903414277010326,1,0.999912
0.38277277802331844,1,0.999991
0.386840582659294,0,0.999763
0.3673168723646655,0,0.999542
0.3832725954690038,0,0.999897
0.3381385464368652,0,0.999678
0.3951762017272383,0,0.997196
0.35075297538902284,0,0.998703
0.31011020419254814,1,0.999972
0.3541738626690665,0,0.999800
0.280022557364303,0,0.999861
0.2174009809340249,1,0.999981
0.25957613199114293,0,0.990810
0.1893532224001198,1,0.999981
0.25872570112239013,0,0.999536
0.1587605989941874,1,0.999991
0.23915563334340734,0,0.999793
0.1951958576593034,0,0.999488
0.18859675655170335,1,0.999971
0.2953359605279813,0,0.999612
0.32047267246463834,0,0.999534
0.2834261741186588,0,0.997275
0.2602209757453686,0,0.999165
0.3305580513818535,0,0.998012
0.29035809612854097,0,0.999384
0.2895928997147912,0,0.993529
0.2660039197267686,0,0.995076
0.28730464896067903,0,0.997539
0.30639070103721694,0,0.999728
0.35132176856270136,0,0.999886
0.32806472457623487,0,0.999650
0.24645558893566638,0,0.999115
0.2721329555775681,0,0.999698
0.25953781779095475,1,0.999961
0.28810922493537794,0,0.999849
0.3481417821486052,1,0.999981
0.3544853567342764,0,0.997024
0.22767323682941212,1,0.999972
0.27508349741840193,1,0.999925
0.31117830019439974,0,0.999696
0.3158807702061138,1,0.999953
0.23960683390217885,0,0.999195
0.3674155265185617,0,0.999841
0.3399399884130758,1,0.999953
0.34848269091965683,0,0.999622
0.1998923767984963,0,0.999594
0.2654832010978275,0,0.997629
0.2726790452563493,0,0.988697
0.1720469669088179,0,0.982029
0.1335784820902196,0,0.994909
0.16095322825646807,0,0.983548
0.18936948297045264,0,0.999740
0.2640890775294913,1,0.999944
0.19998009586288984,0,0.999163
0.1723917716646694,0,0.993909
0.19952034389712062,0,0.999465
0.256383812448775,1,0.999932
0.21807815763846403,0,0.993448
0.18379953846149552,0,0.998933
0.18414395117660157,0,0.999856
0.18211619605720586,0,0.997240
0.2842078655147591,0,0.990806
0.19530450478192185,0,0.986728
0.25067144176031547,0,0.993059
0.240632699961511,0,0.996525
0.18083713925350964,0,0.994321
0.19410942056057376,0,0.997151
0.22769431092487297,0,0.999865
0.27796616725713164,1,0.999991
0.26353425410051545,1,0.999991
0.18819290132028063,0,0.997920
0.22445611337614652,0,0.999672
0.25701873538325376,0,0.999792
0.21083193480413773,0,0.952524
0.13063021016742363,1,0.999980
0.22739497169494025,0,0.999672
0.24826906764709836,0,0.999894
0.19905886061415498,1,0.999990
0.2651485453457676,0,0.999552
0.17638296219,0,0.999497
0.28499849554573936,0,0.995992
0.21543347628878,0,0.993373
0.19888676520605988,0,0.999653
0.1515510910425237,0,0.992852
0.2101447150452402,0,0.996979
0.211605730573035,0,0.995956
0.1603345741896513,0,0.999865
0.17792721297826383,0,0.981919
0.2853612484899022,0,0.999464
0.19751331880526077,0,0.998952
0.16902305737561465,0,0.989988
0.22264657888232042,1,0.999952
0.22252080374237848,0,0.998948
0.18988378245414558,0,0.989860
0.2675152779477293,1,0.999982
0.23672786202383478,0,0.999886
0.14590560123585355,1,0.999901
0.11761839320131784,0,0.999752
0.21173152953626181,0,0.999477
0.21371983374600045,0,0.999634
0.20192229725146782,0,0.999739
0.15406707143113677,0,0.999606
0.16763523650705434,0,0.992805
0.22161539894369756,0,0.995026
0.20266571895844457,0,0.999399
0.18936834844128933,0,0.999406
0.23833849391394626,0,0.999224
0.21413320723289347,0,0.997861
0.255682306819065,0,0.999672
0.1953704078657531,0,0.991414
0.18155580581918956,0,0.988606
0.2294214507801583,0,0.997089
0.27674569097748963,0,0.998903
0.23978417763986218,0,0.997463
0.21684227351338922,0,0.999825
0.2574863775989742,0,0.998862
0.30433414211899196,0,0.996393
0.25027569854968573,0,0.999130
0.30712063574668447,0,0.999710
0.23303981628500545,0,0.999239
0.24588733338756708,0,0.999874
0.2253691656484493,1,0.999915
0.22352729337882266,1,0.999944
0.2397120270176549,1,0.999991
0.33827409907863043,0,0.994796
0.3117023104739924,0,0.999450
0.2505176104441945,0,0.998424
0.25983004176064733,0,0.998310
0.3618347195437916,0,0.996716
0.28831086888354973,0,0.996396
0.22962664043503092,0,0.997228
0.2125721466652699,0,0.989074
0.2610889174512287,0,0.998723
0.338266113818946,1,0.999972
0.2824264916845745,0,0.999544
0.2094613983370353,0,0.999845
0.2551937114933224,1,0.999920
0.3094267652487286,0,0.998201
0.19908154013946244,0,0.998528
0.18099736267980687,0,0.998980
0.2953624790708585,0,0.995340
0.259473469086732,0,0.998358
0.25806522447977737,0,0.997229
0.24747998112172032,0,0.999692
0.2394275895843974,1,0.999990
0.2689950729975682,0,0.999875
0.2742583348379162,0,0.999053
0.28828357513298564,0,0.993963
0.28833175423456064,0,0.998942
0.28912627717326733,0,0.993937
0.2556221100245357,0,0.999429
0.31056181320845766,1,0.999991
0.2340073816442676,0,0.999882
0.23431362715102633,0,0.995970
0.23504824041998118,1,0.999991
0.30773408763425214,1,0.999991
0.23263509092204035,0,0.999834
0.22525385162809858,0,0.999464
0.209307183975975,0,0.997869
0.24559954768617379,0,0.999378
0.25873070078003113,0,0.996138
0.2757657740838491,1,0.999971
0.18929855994200484,0,0.999440
0.3567081191588725,0,0.998354
0.24567719885158668,1,0.999982
0.24728177000399656,1,0.999990
0.24884397815795095,0,0.999174
0.20697361901681377,0,0.999629
0.2746143965480216,0,0.999572
0.20170314332529865,0,0.999697
0.37098796360312164,0,0.999828
0.21807575092647874,0,0.997899
0.254202745095846,1,0.999991
0.31017309266377907,0,0.999053
0.2701989817886722,0,0.999263
0.2180117220655647,0,0.995957
0.3122380464565112,0,0.986942
0.16432563019723412,0,0.999421
0.2574254650113846,0,0.998365
0.24639284145659007,0,0.999778
0.28156485867936715,0,0.996689
0.2504603675384354,0,0.999672
0.24051097787465225,0,0.999706
0.3039353839837625,0,0.997740
0.22843990294324712,0,0.999321
0.28432850016390915,0,0.989878
0.2162034023470253,0,0.989102
0.14820354528566437,0,0.998445
0.2146909576380729,0,0.996776
0.2366010590972892,1,0.999981
0.24119207166973364,0,0.998427
0.235729267279388,1,0.999980
0.17335322668723088,1,0.999961
0.2559291422309361,0,0.988113
0.2359619370884852,0,0.998285
0.2369245549134686,1,0.999950
0.2684375061334727,0,0.982541
0.27168325590281617,0,0.992128
0.2593401011674169,0,0.999712
0.24489606155468746,0,0.996131
0.13168758269266634,1,0.999930
0.16313643139650907,0,0.998225
0.3106517342619166,1,0.999991
0.22173706429431111,1,0.999901
0.1823437953501874,1,0.999981
0.24595312206445977,0,0.995026
0.16895522084787915,0,0.999811
0.27021855297085234,0,0.999018
0.27368111887732127,1,0.999943
0.21827195243769484,1,0.999901
0.2183426594101421,1,0.999930
0.2538039058469754,0,0.994206
0.19680800055767592,1,0.999901
0.1905378921718745,0,0.997057
0.2907855327613675,0,0.997702
0.2505280664188823,0,0.997059
0.3073409312983757,1,0.999925
0.3000977041315382,0,0.999447
0.176252803306057,0,0.998564
0.16689366403902822,0,0.998265
0.20650974620347892,0,0.999814
0.20181110191500806,1,0.999990
0.2584084716212047,0,0.998158
0.25775779414778277,0,0.998083
0.17013324700197036,0,0.993259
0.23819969204847907,1,0.999930
0.26946427453908367,0,0.999138
