0.9036735294815702,1,0.999888
0.8081447645187022,0,0.999754
0.7384745817843518,1,0.999986
0.7533985331902512,1,0.999987
0.8434811275090559,1,0.999972
0.7866001899644515,1,0.999987
0.7312211374916137,1,0.999986
0.8522061963180546,1,0.999958
0.790525096119583,1,0.999987
0.6745327602695358,0,0.999805
0.9037079567696611,1,0.999865
0.8426589154868757,0,0.999324
0.7839135906362811,1,0.999987
0.790368653406208,0,0.997553
0.791543132302988,1,0.999987
0.8537284967685176,1,0.999908
0.8574550897620679,1,0.999974
0.8593840903330145,1,0.999987
0.7632551263852797,0,0.999763
0.8412654653540963,0,0.999703
0.8321485389200562,1,0.999986
0.8881674429803836,1,0.999986
0.8918370934688132,1,0.999987
0.9069251935402192,1,0.999919
0.7071751430319207,1,0.999868
0.7413283068371682,0,0.999674
0.7441182672060471,1,0.999986
0.8440904411270845,1,0.999987
0.7984619305507736,1,0.999987
0.7877884712295619,1,0.999987
0.7592190474150833,1,0.999986
0.6952991282642544,1,0.999987
0.7748022318142193,0,0.998720
0.8655122134808056,1,0.999973
0.8071674153596179,1,0.999920
0.812425086261141,1,0.999973
0.700349139604652,1,0.999987
0.8099377261801644,1,0.999987
0.7306352486436708,1,0.999987
0.8677903536360461,0,0.993267
0.7780864526463426,1,0.999973
0.7017690627734474,0,0.999817
0.9073912851278765,1,0.999974
0.8436136099397983,1,0.999905
0.7651948380690979,1,0.999908
0.7033901912447339,1,0.999908
0.8414069990652687,1,0.999987
0.8264142200694411,0,0.999588
0.8174685734284677,1,0.999960
0.8117475237017151,1,0.999987
0.8669428658962748,1,0.999987
0.8336572131965496,1,0.999931
0.7402227263962874,1,0.999919
0.8556536107926463,1,0.999919
0.8236066287959702,1,0.999987
0.7913556039300743,1,0.999986
0.7977846213610905,1,0.999973
0.8232994413061665,1,0.999987
0.8157942000208295,1,0.999987
0.8404379279360604,1,0.999891
0.8088911039991677,0,0.999835
0.8727856064275067,1,0.999986
0.9020337185758064,1,0.999986
0.7249266152864706,0,0.998932
0.8843199248291771,1,0.999986
0.7076840216238997,0,0.989043
0.7803577922960636,1,0.999973
0.785386175340838,1,0.999986
0.8421990499099392,1,0.999986
0.8087527026176264,1,0.999973
0.8820325860050858,1,0.999932
0.7799770983363807,1,0.999987
0.7946324499711009,1,0.999986
0.8346287307199255,1,0.999959
0.8231476509283473,1,0.999948
0.83083442045201,1,0.999986
0.8320318638639757,1,0.999986
0.8944490379500197,1,0.999987
0.8563128811531275,1,0.999986
0.8204190038573237,0,0.999670
0.8347597994539327,1,0.999986
0.8024788022253271,1,0.999987
0.8406376239978294,1,0.999985
0.843131618635343,1,0.999933
0.6990624637186923,1,0.999986
0.7045080190542881,1,0.999987
0.8656425550483333,1,0.999987
0.7712434305822117,1,0.999986
0.7805828326987714,1,0.999987
0.7915986221741097,1,0.999987
0.8247541294169168,1,0.999987
0.7675528310939941,1,0.999986
0.7491636058398752,1,0.999959
0.877787732941561,1,0.999972
0.7476896097858983,1,0.999959
0.7334657738951978,1,0.999986
0.8556885505513919,1,0.999972
0.8432302140815158,1,0.999959
0.8707076514716191,1,0.999962
0.8335098198071194,1,0.999986
0.9064225500433093,1,0.999986
0.7798750041144507,1,0.999986
0.8431998874829164,1,0.999986
0.8220055769446895,0,0.999845
0.6435070314730936,0,0.999815
0.7450841610116921,1,0.999986
0.8372065977939095,1,0.999986
0.7255385069680028,1,0.999986
0.7522902518542997,1,0.999986
0.7482523919428505,1,0.999972
0.7116993168631197,1,0.999987
0.8514077461274923,0,0.999612
0.916815109545268,1,0.999957
0.8056070350008102,1,0.999986
0.7887677124406304,1,0.999974
0.7094822179559725,1,0.999986
0.9419756517484845,1,0.999986
0.8148214073337037,1,0.999986
0.8815799352867675,1,0.999986
0.7320554519012651,0,0.999844
0.8268054856059394,1,0.999944
0.8553509176640698,1,0.999986
0.799281181178434,0,0.995797
0.8162329880839037,1,0.999986
0.8063159158343857,1,0.999947
0.7546484913467015,1,0.999987
0.8667136078083344,1,0.999946
0.8970137398284755,1,0.999973
0.8351453316978883,1,0.999987
0.737969646956227,0,0.998460
0.8389588244475633,0,0.997812
0.7324090554816148,1,0.999987
0.8045064601346839,1,0.999986
0.8564539365765881,1,0.999986
0.7317906154552344,0,0.995913
0.7689059108528256,1,0.999972
0.7215566272316154,1,0.999919
0.8443630870022388,1,0.999986
0.7573467951124739,1,0.999972
0.8251034924531043,0,0.999835
0.8162797650307125,1,0.999986
0.662507509793032,1,0.999959
0.78614307852554,1,0.999986
0.8770666086942968,1,0.999986
0.7284073838653302,1,0.999986
0.8113048175515354,1,0.999986
0.7129745478746103,1,0.999958
0.7399664372013777,1,0.999975
0.7930938211849603,1,0.999972
0.823031808958602,1,0.999931
0.7464298763800336,1,0.999987
0.8483162974713713,1,0.999986
0.7424754571183205,1,0.999986
0.7827404694321696,1,0.999986
0.8483577680745185,1,0.999973
0.862277897087555,1,0.999918
0.8421071270723763,1,0.999986
0.903501423002178,0,0.999822
0.78952724015269,1,0.999890
0.9484521188434979,1,0.999972
0.9306758395043636,1,0.999959
0.8373754721019532,1,0.999986
0.7923272669222289,1,0.999933
0.7711749738382706,0,0.999018
0.7920260983759689,1,0.999974
0.8234037117036488,1,0.999973
0.9396458178511462,1,0.999972
0.8686659400555441,1,0.999932
0.9257056770867768,1,0.999986
0.7916309887716507,1,0.999960
0.7884818042512429,1,0.999987
0.8668246468167883,1,0.999919
0.8351013344937707,1,0.999986
0.7981197425814475,0,0.999252
0.8483900849865635,1,0.999986
0.7787131939214424,1,0.999987
0.7171582618226852,1,0.999987
0.727414163724643,1,0.999974
0.8075057533068755,1,0.999986
0.798367950890525,1,0.999986
0.8991352566269912,1,0.999973
0.8801469351707114,1,0.999986
0.7706143244809605,1,0.999961
0.7638095815309879,1,0.999987
0.7450926150332026,1,0.999961
0.7908140109292173,1,0.999973
0.8052873316981172,1,0.999960
0.8619651989928807,1,0.999944
0.7849327120710835,1,0.999987
0.8069848346301868,1,0.999986
0.8322776659822682,1,0.999973
0.8821978159725212,1,0.999903
0.8678816912611693,1,0.999986
0.8153395865532185,1,0.999922
0.9030010014201482,1,0.999973
0.794322986431323,1,0.999987
0.6925034667877964,1,0.999961
0.8608743365624696,1,0.999987
0.8920148861285365,1,0.999986
0.8301265559820238,1,0.999987
0.7666099489698648,1,0.999986
0.7849995698144249,1,0.999987
0.8092413317626489,1,0.999987
0.8158589079629424,1,0.999986
0.8235959182292621,1,0.999986
0.8164597501384339,1,0.999878
0.8658461202699417,1,0.999986
0.8786601188436011,1,0.999946
0.7427013302395753,1,0.999986
0.8982873478203806,1,0.999973
0.842166469271658,1,0.999973
0.7256733177178823,1,0.999987
0.8397276395609907,1,0.999986
0.875218638036817,1,0.999986
0.7248463172908798,1,0.999987
0.8069606135482029,1,0.999986
0.7991124130344845,1,0.999986
0.8900745608327691,1,0.999986
0.7629611704994319,1,0.999946
0.7253180691081622,1,0.999961
0.8017285531784253,1,0.999987
0.857288741069941,1,0.999987
0.8634337738724511,0,0.999666
0.8684602832201018,1,0.999987
0.8613198886126813,1,0.999931
0.8405725044988366,1,0.999959
0.7493482857609417,1,0.999986
0.7788872611176783,0,0.978881
0.833632742903737,1,0.999987
0.8258066013545043,0,0.999825
0.8123560120754427,1,0.999987
0.8711465688669873,1,0.999986
0.7970061737623023,1,0.999986
0.7936703386662071,0,0.998545
0.7231588186830051,1,0.999986
0.8707388181590718,1,0.999973
0.7314694509424609,1,0.999987
0.8139531623773342,1,0.999987
0.8561079381156205,0,0.999826
0.7771897309069289,1,0.999987
0.8336732027729901,1,0.999987
0.8020518446947907,0,0.999722
0.9022099013848635,1,0.999986
0.8159321750928752,0,0.999777
0.8055442928372262,1,0.999973
0.9008061982937867,1,0.999986
0.8214949775189264,1,0.999986
0.8925988233236691,0,0.997916
0.8398610156613252,1,0.999931
0.8718570948494319,1,0.999972
0.7726162835793038,1,0.999987
0.86025939786636,1,0.999959
0.8235023723584469,1,0.999973
0.8115700997775818,1,0.999987
0.8929156698217278,1,0.999974
0.82858905193761,1,0.999904
0.7919271634280731,1,0.999961
0.8824327205039985,1,0.999987
0.7359412702875295,1,0.999987
0.8869899663376668,0,0.999834
0.885598467976477,1,0.999986
0.87581523903384,1,0.999986
0.7803815824062521,1,0.999931
0.7661562995709158,1,0.999973
0.7915345179355905,0,0.999840
0.7186803990981339,1,0.999986
0.795375480941932,1,0.999974
0.8321982283281634,1,0.999935
0.878833372017295,1,0.999986
0.8389227666362161,1,0.999972
0.8832464456446331,1,0.999987
0.825736518714466,1,0.999986
0.8797086051059188,1,0.999986
0.7862134506129649,1,0.999973
0.912098719222787,1,0.999960
0.9211456036974651,1,0.999916
0.9086819695447854,1,0.999986
0.9201302212838058,0,0.999045
0.8277698101665051,1,0.999907
0.8290980752339661,1,0.999986
0.70923161865321,1,0.999974
0.8695404093550996,1,0.999862
0.7795125079100189,1,0.999905
0.7893224379608884,1,0.999986
0.874643444841846,1,0.999986
0.6780389708762183,1,0.999973
0.8179876899821165,1,0.999987
0.79987974511224,1,0.999974
0.8482065224386645,1,0.999987
0.8386974432754919,1,0.999986
0.8882975462190691,1,0.999986
0.7865881602054339,0,0.999826
0.8314139315334432,1,0.999889
0.8948089036250972,1,0.999958
0.8481527368550226,1,0.999986
0.8290809041582347,1,0.999986
0.7909172887814748,1,0.999987
0.8481052269869443,1,0.999987
0.7039873625618294,1,0.999986
0.7709228523735809,1,0.999986
0.8404464377921449,1,0.999986
0.8895938620563119,1,0.999987
0.8149787729524477,1,0.999986
0.8581727610462063,1,0.999973
0.8385917223382677,1,0.999973
0.8446838960204953,0,0.999776
0.8479637602969923,1,0.999986
0.7631823008051776,1,0.999891
0.8335138085513492,1,0.999986
0.7538563860600639,1,0.999986
0.8536086230974447,1,0.999986
0.8514775618500287,1,0.999973
0.8578050457301563,1,0.999987
0.7878147365124154,0,0.999249
0.8505844974577067,1,0.999932
0.9364783303797033,1,0.999987
0.8641605628778173,0,0.991555
0.8617781469627,1,0.999986
0.8241257457600857,1,0.999986
0.8826918687893548,1,0.999987
0.842054986066022,1,0.999922
0.9527595122126564,1,0.999973
0.809231982959026,1,0.999987
0.9040246650855011,1,0.999986
0.8359982263594429,1,0.999986
0.825017568446339,1,0.999972
0.7438065338329787,1,0.999986
0.8575842873194776,1,0.999885
0.776269545852414,1,0.999986
0.78825412000855,1,0.999987
0.7646212627024653,1,0.999973
0.8443731049561717,1,0.999905
0.8416118966761904,1,0.999959
0.7176862723125593,1,0.999987
0.847923756526437,1,0.999889
0.846932899448998,1,0.999986
0.8886758888507192,1,0.999946
0.7723606282937642,1,0.999986
0.7040749896278917,1,0.999987
0.8559923280604224,1,0.999986
0.6940261877821149,1,0.999987
0.8302642458090874,1,0.999916
0.8331430328727029,1,0.999945
0.7460909276703016,1,0.999987
0.8799674384065046,1,0.999906
0.785167718410058,1,0.999986
0.8088521511913646,0,0.998572
0.8707905173671717,1,0.999959
0.8279197194103648,1,0.999987
0.8628111202221228,1,0.999987
0.7253860533559444,1,0.999974
0.7711026310175738,1,0.999986
0.8468245070318768,0,0.997576
0.8235178342559637,0,0.999483
0.864489575360898,1,0.999986
0.7604697964077898,0,0.998307
0.9152555192185634,1,0.999986
0.7929144207879211,1,0.999987
0.8498458749489479,0,0.999685
0.8894791615391984,1,0.999986
0.7869919904711737,1,0.999972
0.7668659947779274,0,0.999814
0.7802607992276966,1,0.999947
0.7792971336539523,1,0.999883
0.8385962086572593,1,0.999986
0.8391365743173048,0,0.999580
0.8252605027871356,0,0.999338
0.7851143300412464,1,0.999919
0.7743782715101065,1,0.999973
0.7902534331993758,1,0.999986
0.7209040710771797,1,0.999892
0.6731985023970191,1,0.999973
0.9066731270283599,1,0.999973
0.8180183751578854,1,0.999905
0.9130823517961666,1,0.999960
0.8953271103520156,1,0.999987
0.8317990901277001,1,0.999987
0.9083195814085955,1,0.999958
0.7709402940681351,0,0.999808
0.7889242990656972,1,0.999987
0.8408626892859555,1,0.999986
0.8370462093938538,1,0.999903
0.9043703735307371,1,0.999875
0.8857874747429698,1,0.999944
0.8313795316051485,1,0.999987
0.8946932548499654,1,0.999901
0.6824870292871728,1,0.999987
0.7850392318562692,1,0.999986
0.7878779246921361,1,0.999986
0.7949404747879084,1,0.999961
0.7002605654057091,1,0.999986
0.90413876109787,1,0.999973
0.8525104038175307,0,0.999146
0.910205113437567,1,0.999959
0.7396551172299096,1,0.999987
0.7479047243798627,1,0.999986
0.7513145694211644,1,0.999986
0.8471810002088191,0,0.999536
0.7372922829034081,1,0.999930
0.8324311265196706,1,0.999973
0.8234392205629516,1,0.999986
0.7749115546133128,1,0.999960
0.6917051682742096,0,0.999735
0.8415043219914197,0,0.999739
0.8306501764177381,1,0.999986
0.9157384643948859,1,0.999959
0.8732512850282305,1,0.999957
0.9146204200210175,1,0.999986
0.8940710072598382,1,0.999887
0.83615805924963,1,0.999917
0.8555831932025141,1,0.999986
0.8480570039598585,1,0.999973
0.9118346118593902,1,0.999971
0.8362275691672117,1,0.999986
0.9354080650266885,1,0.999986
0.8653176719365265,1,0.999987
0.8469425270788745,1,0.999986
0.8852048161121484,1,0.999986
0.819798896000323,1,0.999986
0.8449150284103499,0,0.999834
0.9290996006507314,1,0.999971
0.8904176155792212,1,0.999986
0.8552377139968469,0,0.997366
0.8354268139216419,0,0.999844
0.8073898090978078,1,0.999988
0.8070409882090491,0,0.988025
0.8074294028487725,1,0.999973
0.837500867232249,1,0.999973
0.882331786348026,1,0.999986
0.8289416406109367,1,0.999917
0.8515284518613291,1,0.999987
0.8561734655920868,1,0.999987
0.8844224638833398,1,0.999987
0.8419084013236039,1,0.999986
0.9111149738508839,1,0.999987
0.754288394125568,1,0.999973
0.9129538255548515,1,0.999986
0.8370826904336304,1,0.999986
0.8669380869834197,1,0.999960
0.7668369599346555,0,0.999790
0.9183190296975259,1,0.999986
0.8965494673398415,0,0.998122
0.928904578326049,1,0.999972
0.8665013918417442,1,0.999973
0.8322129878573877,1,0.999986
0.7566801294032107,1,0.999987
0.7939658172910733,0,0.999833
0.8891293598720363,1,0.999986
0.8176928633617244,1,0.999903
0.8230846685317209,1,0.999987
0.8155942836092944,1,0.999917
0.7971944787692455,1,0.999986
0.8192508595674631,1,0.999987
0.7330054857768948,0,0.999365
0.8652380009046088,1,0.999986
0.8298881627284999,1,0.999987
0.9544586219808298,1,0.999986
0.8068157778417981,1,0.999987
0.8543050666212181,1,0.999987
0.9237832238267334,1,0.999986
0.8848887934619684,1,0.999986
0.8750622307057548,0,0.999783
0.90057208507682,1,0.999986
0.82845673366997,1,0.999987
0.8658263250505099,1,0.999987
0.8452735058966656,1,0.999957
0.772883483319037,1,0.999986
0.8371197435789025,1,0.999942
0.8342768109057728,0,0.997664
0.8542395448836066,1,0.999918
0.8495603319298127,1,0.999972
0.8875822841490641,1,0.999987
0.8574434443571136,1,0.999959
0.8916568408853512,1,0.999986
0.8533143471276731,1,0.999986
0.8825394525748296,1,0.999986
0.77838006444836,1,0.999986
0.796333827798988,1,0.999986
0.8471231116330381,0,0.999600
0.8340086249307028,1,0.999973
0.8423393683052117,0,0.999837
0.8071274226103212,0,0.999514
0.8745318330576007,1,0.999986
0.8306700437066716,1,0.999987
0.7960032985002545,1,0.999906
0.8068686735538855,1,0.999987
0.7750599667738916,1,0.999960
0.8566348536374951,1,0.999986
0.8375662619526398,1,0.999972
0.7017768494378528,1,0.999974
0.8142600839825986,1,0.999935
0.9204698717209742,1,0.999973
0.9241110997780937,1,0.999986
0.8231117388141079,1,0.999987
0.8974374375302421,1,0.999972
0.8748561504546077,1,0.999986
0.8473478402757088,1,0.999919
0.7850699241910052,1,0.999893
0.8891455891302086,1,0.999986
0.9086968325049646,1,0.999986
0.832498975424719,1,0.999946
0.8206013218879675,0,0.977852
0.8160697377842252,0,0.999760
0.7953949132933018,1,0.999958
0.6988195771494075,1,0.999987
0.7826760592875972,1,0.999986
0.7678763141024171,1,0.999973
0.855023706157624,1,0.999972
0.8195489920141142,1,0.999973
0.8385517155628851,0,0.987095
0.8073640027225676,1,0.999986
0.9146710153837896,1,0.999986
0.7340545249587476,0,0.999544
0.8054680841649169,1,0.999987
0.8289619263770509,0,0.999855
0.9229057616951798,1,0.999986
0.8047004663309828,1,0.999986
0.6965834412469422,0,0.999242
0.7890005698209437,1,0.999986
0.7674170668939656,1,0.999973
0.836355845071118,1,0.999973
0.7837740518928685,1,0.999986
0.7615090067919107,1,0.999974
0.7092792637659824,0,0.998424
0.6349022485717422,0,0.998358
0.8125717068733732,1,0.999987
0.708969531488755,0,0.999856
0.8447838394692442,1,0.999906
0.856645815546321,1,0.999986
0.827652409238032,1,0.999986
0.840687703260554,1,0.999947
0.8502984608401896,1,0.999986
0.8162112410595641,1,0.999987
0.8045422979451807,0,0.993946
0.7926781905961955,1,0.999986
0.8528779220364964,1,0.999986
0.8516533565913762,1,0.999931
0.8327635870514092,1,0.999986
0.7414712106053314,1,0.999933
0.7875428652342173,1,0.999876
0.8787716336127452,1,0.999987
0.7708166810871447,1,0.999931
0.8050224753478804,0,0.999415
0.7792924103062222,0,0.999409
0.8553363085440076,1,0.999986
0.7478276382365423,1,0.999987
0.8322352758637654,0,0.999779
0.7136748605002383,1,0.999903
0.7955771763279192,1,0.999929
0.8133051175294428,1,0.999960
0.7396480367647972,1,0.999921
0.8408212961074979,1,0.999986
0.8750104788274415,1,0.999986
0.7601946084765212,1,0.999987
0.7514903551030035,1,0.999986
0.7726352374705527,0,0.999788
0.9150781763963962,0,0.999460
0.7874950823836485,1,0.999959
0.8746455992045654,1,0.999987
0.8114150733540089,1,0.999932
0.8600896004270706,0,0.999834
0.8621958841883853,1,0.999986
0.8328932534198019,1,0.999974
0.8241645776338022,0,0.999685
0.8729531729570366,1,0.999886
0.9077776848651548,1,0.999986
0.7923891865901436,1,0.999973
0.8588952931413723,1,0.999986
0.8873774946018154,1,0.999963
0.8833229789474024,1,0.999986
0.8786767066624751,1,0.999986
0.8894512202964172,1,0.999972
0.6875291815464083,1,0.999946
0.8852311444578473,1,0.999986
0.8819847475057969,1,0.999986
0.7751875239505309,0,0.999811
0.8392474671057512,1,0.999986
0.8155468885921721,1,0.999972
0.8964764348404008,1,0.999986
0.9079290497895118,0,0.999600
0.8690684230912001,1,0.999986
0.8512496948239925,1,0.999972
0.855187319139113,1,0.999987
0.8664605133456478,1,0.999986
0.7275137893780683,1,0.999986
0.8192006197879872,1,0.999894
0.8045721375348226,0,0.998485
0.8346118477461174,1,0.999986
0.8813609193960412,1,0.999961
0.8159055766917549,1,0.999972
0.8992983435631872,0,0.998970
0.8931341592243525,0,0.999772
0.8088528059713124,1,0.999986
0.8917240393563615,1,0.999987
0.8797710747183802,1,0.999973
0.8141250062587879,1,0.999987
0.8712793034159487,1,0.999986
0.8041684295573703,1,0.999986
0.8844608950203123,1,0.999986
0.913328080229328,1,0.999971
0.8899125754155872,1,0.999986
0.8355948660556421,1,0.999889
0.9112186157210851,1,0.999986
0.8330274499510651,1,0.999973
0.7962668077899645,1,0.999986
0.8174558350283311,1,0.999987
0.9208356463532459,1,0.999986
0.8420552038900184,1,0.999986
0.8949332747347896,1,0.999986
0.8309456724774957,1,0.999986
0.8742685591267414,0,0.999747
0.877330212329252,1,0.999972
0.8696009901994393,1,0.999986
0.7728015893710215,1,0.999931
0.8521223273650613,1,0.999986
0.8760995526992669,1,0.999986
0.8376043878200552,1,0.999931
0.8608453120192265,1,0.999972
0.6897263778552944,1,0.999960
0.7543090394316754,0,0.999246
0.8453690500090535,1,0.999986
0.7487609630086909,1,0.999987
0.8566127786391515,1,0.999987
0.8128226727626049,0,0.999564
0.8698139758897984,0,0.999805
0.7908937830504364,1,0.999986
0.7877625667594372,1,0.999973
0.8033810052584212,0,0.999624
0.8893562643952831,1,0.999987
0.7854014045724611,0,0.999048
0.7041802822469787,1,0.999987
0.8252535992840093,1,0.999986
0.8504399205948655,1,0.999945
0.8895747451630456,1,0.999987
0.8541774906525654,1,0.999986
0.7911050900712869,0,0.999646
0.7554240402718684,1,0.999987
0.7709642541794155,1,0.999987
0.8824079139440154,1,0.999860
0.7969434765895137,0,0.999682
0.8184334845357234,1,0.999866
0.6445298755074157,1,0.999987
0.8700988103680072,1,0.999974
0.8440036849051918,0,0.996493
0.6771915813661713,1,0.999975
0.835908091537988,1,0.999987
0.7532276577778214,1,0.999973
0.8375094301730509,1,0.999986
0.8987930698685994,1,0.999986
0.8680710726002748,1,0.999973
0.850654582142224,0,0.999615
0.7969516500491615,0,0.999780
0.8198346052170138,1,0.999986
0.8860265767717956,1,0.999986
0.8630018186932438,1,0.999986
0.8849776225426401,1,0.999974
0.7403376133780435,0,0.999562
0.8533324912755246,1,0.999987
0.833566914625578,0,0.999833
0.900910860131299,1,0.999876
0.8648221490900625,1,0.999987
0.871540104468578,1,0.999986
0.8625306869821633,1,0.999934
0.8557381478167464,1,0.999945
0.7994549943336862,1,0.999972
0.8966755684217953,1,0.999986
0.7573914181045945,1,0.999986
0.8346410734543012,1,0.999987
0.8178413795810132,1,0.999973
0.8570690193972281,1,0.999972
0.7968540713183879,1,0.999947
0.7758057002385041,1,0.999986
0.685163471500218,0,0.999825
0.7817734545234923,1,0.999987
0.781518144437988,1,0.999986
0.8247108767583039,1,0.999960
0.8544473704053175,1,0.999986
0.7304981650991669,1,0.999986
0.7800183597569535,0,0.999826
0.7830575554336581,0,0.999383
0.8276125817704201,0,0.999659
0.8888894751938575,1,0.999973
0.8569923000552379,1,0.999972
0.7906016141779596,1,0.999986
0.8388222598060646,1,0.999986
0.8841057624438156,1,0.999986
0.8393994838430527,1,0.999987
0.8774960463101761,1,0.999972
0.8223346165907955,1,0.999920
0.9021298750518585,1,0.999972
0.7552668480773737,0,0.999825
0.7758011373073627,1,0.999987
0.7644892137031243,1,0.999916
0.8588635021918312,1,0.999958
0.8807536475995622,1,0.999986
0.8417215125809879,1,0.999944
0.8257880115051356,0,0.999816
0.8342879343557063,1,0.999958
0.8419226137899344,0,0.999803
0.8556039731175145,1,0.999972
0.7577471757241447,1,0.999974
0.786111640780616,1,0.999974
0.8559686939144866,1,0.999986
0.8778625800589304,1,0.999986
0.7848302530246296,1,0.999973
0.7381467598975598,1,0.999986
0.7992163596179942,1,0.999986
0.8280635166366699,1,0.999987
0.8156825020298542,0,0.999826
0.7969076429866258,1,0.999987
0.7211365060372974,0,0.999771
0.8336671266823272,1,0.999972
0.845386151331101,1,0.999987
0.8315009933393214,1,0.999973
0.8722621148941462,1,0.999987
0.9062238019808662,0,0.999847
0.8342309637394955,1,0.999986
0.8588115603701474,1,0.999986
0.841958506641835,1,0.999973
0.8185657017707773,0,0.996474
0.8893272215048268,1,0.999987
0.8180670974818045,1,0.999986
0.6959713750378577,1,0.999987
0.9421756814398956,0,0.977463
0.8765694336530724,1,0.999886
0.7829142126326409,1,0.999986
0.8647671257652486,0,0.999402
0.8507320660864408,1,0.999876
0.8542048943815393,1,0.999933
0.8985238422271156,1,0.999973
0.7813144639667982,1,0.999987
0.832990771661805,1,0.999986
0.9017526388753742,1,0.999986
0.8079629909476427,1,0.999946
0.8327206322225335,1,0.999973
0.7976808337203507,1,0.999986
0.8570216944054802,1,0.999986
0.8654236110487596,1,0.999986
0.8551345293485777,1,0.999987
0.841480777204784,1,0.999975
0.8577149141724024,1,0.999973
0.8873905525848667,0,0.989602
0.8339667254778337,1,0.999985
0.8378735611490161,1,0.999987
0.8570241741405142,0,0.999847
0.8020217545128089,1,0.999986
0.774097866679146,1,0.999973
0.818314932933307,1,0.999987
0.790143593048912,0,0.999817
0.7655486554821656,0,0.999568
0.9238724501326583,1,0.999986
0.8564848595001007,0,0.999747
0.8523599786042573,1,0.999930
0.8335770113458436,0,0.999780
0.8236014958843025,1,0.999972
0.8994374356829202,1,0.999973
0.7908346080415328,0,0.998601
0.8507648013375397,1,0.999919
0.8343751496251742,1,0.999958
0.8946201166087832,1,0.999986
0.9069602707798216,1,0.999986
0.8193991782078737,1,0.999877
0.9225459761677157,1,0.999986
0.79259439343718,1,0.999960
0.8547955663960768,1,0.999972
0.8367456723729962,0,0.999488
0.8875114359999744,1,0.999986
0.8912815921424607,1,0.999987
0.8204868413266163,0,0.999420
0.8820644105994018,1,0.999933
0.8123791641976071,1,0.999986
0.8512054727172385,1,0.999986
0.8734581418516489,1,0.999986
0.8507635328654515,1,0.999898
0.8727885467987997,1,0.999863
0.8476490792755805,1,0.999973
0.8171623595074126,1,0.999986
0.8254918411945956,1,0.999973
0.8613360497326343,0,0.999834
0.8128478644148468,1,0.999986
0.8310921303461851,1,0.999986
0.8501060341109539,1,0.999986
0.8676534382835291,1,0.999891
0.8701551935138948,1,0.999987
0.8763596047905902,1,0.999889
0.832785982722903,1,0.999986
0.7389387142047327,1,0.999972
0.8325205587816912,1,0.999986
0.8381312127856949,0,0.999719
0.8187023252995936,1,0.999987
0.8732048347850289,1,0.999986
0.8518740708367191,1,0.999959
0.7533885316970628,1,0.999973
0.8272144006752996,1,0.999986
0.829388940493581,1,0.999972
0.6616226166906094,0,0.996668
0.8510717521679778,1,0.999986
0.8401877688376448,1,0.999944
0.6841197913862104,1,0.999986
0.9097083527106097,1,0.999972
0.8889911139003418,1,0.999901
0.772372951096362,1,0.999931
0.861808443668472,1,0.999973
0.9193494879036698,1,0.999986
0.8307028675187172,1,0.999986
0.7521368695935725,1,0.999972
0.822231602025054,1,0.999987
0.8649401649170736,1,0.999972
0.8865110324404843,1,0.999986
0.8904604705829207,1,0.999986
0.85711621814018,1,0.999986
0.852291729900153,1,0.999986
0.7650939195447506,1,0.999987
0.7676823291249432,1,0.999987
0.7930582072069088,1,0.999986
0.8386204433038555,1,0.999973
0.8051630433156378,1,0.999918
0.8060481129861583,1,0.999986
0.8958888219259146,0,0.999655
0.8433258001117621,1,0.999986
0.8760785897754013,1,0.999932
0.8336225111706519,1,0.999987
0.8941311386861286,1,0.999987
0.8466622226455872,1,0.999986
0.8627475557618075,1,0.999986
0.8363779438180851,1,0.999986
0.8737955570260963,1,0.999986
0.8970552668107491,1,0.999986
0.8808810577591275,1,0.999905
0.7832392544639526,0,0.999833
0.8471101370717429,1,0.999875
0.9066923511991183,0,0.986162
0.8918851837789987,1,0.999916
0.847603979876091,0,0.999769
0.8235006680819015,1,0.999986
0.8431478938399891,0,0.999683
0.8960514793332738,1,0.999958
0.8618595276164894,1,0.999918
0.7706244608115519,1,0.999986
0.8401051227696684,1,0.999900
0.8272387363090798,1,0.999973
0.786320355630285,1,0.999986
0.78010017861267,1,0.999905
0.8308435430750596,1,0.999958
0.8285842436562715,1,0.999987
0.7707567424987687,1,0.999972
0.8223799053838644,1,0.999986
0.8194482335919892,1,0.999892
0.9069828864009416,1,0.999986
0.8585666609473968,1,0.999986
0.7986730744275017,0,0.999846
0.764790214152507,1,0.999987
0.8387889770840974,1,0.999987
0.809250647965576,1,0.999863
0.8466553806838999,1,0.999893
0.8390619764294026,1,0.999916
0.9154493877175315,1,0.999986
0.8854242631435527,0,0.991716
0.9204086992500586,1,0.999986
0.8484977472737248,0,0.999794
0.7641206591432264,1,0.999974
0.826890414520114,1,0.999946
0.7869187884870856,1,0.999961
0.9177535613898024,1,0.999987
0.862252225995567,1,0.999889
0.8162546291335081,1,0.999987
0.7118177348445186,1,0.999932
0.8476358369642224,1,0.999931
0.8975701267562628,1,0.999986
0.8035239138714939,1,0.999987
0.8897855183973238,1,0.999947
0.8060554750651682,0,0.982778
0.8881313174342095,1,0.999919
0.8666494906326567,1,0.999986
0.859612943549453,1,0.999986
0.7348362430174693,1,0.999986
0.873195601172281,1,0.999987
0.8936586638789247,1,0.999986
0.846089572368949,1,0.999917
0.8572137493382435,1,0.999973
0.7363552440919072,1,0.999986
0.7733638635554196,1,0.999986
0.858615929432667,1,0.999986
0.8351959631017657,1,0.999986
0.8765881385600623,1,0.999916
0.815066165315442,1,0.999986
0.8594801577838279,1,0.999986
0.878869693724595,1,0.999974
0.7449708462693777,1,0.999936
0.8609420673070107,0,0.999819
0.7956728142494949,1,0.999972
0.8669967446529834,1,0.999958
0.8661475656424361,1,0.999987
0.8983558019122377,1,0.999865
0.8158395965925642,1,0.999986
0.8471040677665436,1,0.999944
0.8678878784752502,1,0.999987
0.859420151931568,1,0.999986
0.8357305464494789,1,0.999973
0.8765965954960615,1,0.999906
0.8926273960956664,1,0.999972
0.8345491591029216,1,0.999987
0.8360194259715583,1,0.999958
0.8976310322323954,1,0.999863
0.811647582699489,1,0.999884
0.8533310283880946,1,0.999986
0.778299831848664,1,0.999947
0.8774073964865067,1,0.999973
0.8419547723258332,1,0.999986
0.7876485405962649,1,0.999986
0.9084382369250005,1,0.999988
0.9226389117931596,1,0.999930
0.8642351387260722,1,0.999986
0.8717583096281342,1,0.999973
0.8795114850376121,1,0.999986
0.8637274633199294,1,0.999986
0.7879801362908309,1,0.999987
0.9331341000165192,1,0.999986
0.914703218521837,1,0.999986
0.894092649718634,0,0.999848
0.8551230980150644,0,0.999529
0.8638860523322872,1,0.999986
0.870033262264363,1,0.999890
0.7941678570381725,1,0.999973
0.8733569782165546,1,0.999986
0.8316746956121255,1,0.999987
0.8599161055209642,1,0.999959
0.8563372402686449,1,0.999890
0.9107231148140748,1,0.999918
0.7010110037889037,1,0.999973
0.7926215398258337,0,0.999425
0.8826971259226745,1,0.999973
0.8047474519533766,1,0.999921
0.8845037036425626,1,0.999986
0.9425907673755627,1,0.999986
0.8603145173523828,1,0.999986
0.913930291411642,1,0.999986
0.8796934655632194,1,0.999972
0.8402100517840542,1,0.999959
0.856651921972524,1,0.999894
0.7993680210856984,1,0.999973
0.9179230398097652,1,0.999934
0.8856262189511055,1,0.999987
0.7687582785069272,1,0.999986
0.7649396992622866,1,0.999987
0.8782141071924491,1,0.999973
0.8180890090030064,1,0.999986
0.9067774675893012,0,0.996375
0.8795007654449333,1,0.999972
0.8814226852831609,1,0.999987
0.7626131299401439,1,0.999890
0.8420249535690681,1,0.999986
0.8681421965725046,1,0.999987
0.8237059550785407,1,0.999973
0.9051594941467879,1,0.999974
0.7616722470831786,0,0.999840
0.9212282001119747,1,0.999986
0.8977663775866042,1,0.999986
0.8571362271578523,1,0.999860
0.8135053772492986,1,0.999972
0.8978385571650928,1,0.999973
0.9200899173465907,1,0.999987
0.8941517065549393,1,0.999943
0.8220692198706236,1,0.999986
0.8376376503575554,1,0.999986
0.7582351512152564,1,0.999972
0.7383450172724663,1,0.999959
0.7562962547498723,1,0.999962
0.6948471766853943,1,0.999958
0.7734627670884153,1,0.999947
0.896121370711441,1,0.999986
0.8471139891125998,1,0.999878
0.8839184701850535,1,0.999986
0.8899501374783122,1,0.999890
0.919127565882593,1,0.999986
0.8127291924213693,1,0.999947
0.8889901444183369,1,0.999986
0.8042076040720963,1,0.999973
0.7890783438861879,1,0.999987
0.8050140015113734,1,0.999973
0.7538940317129033,1,0.999987
0.8078062282558041,0,0.999774
0.8582756794542692,1,0.999972
0.8380563538690494,1,0.999986
0.838319798270544,0,0.997832
0.8842351734111841,1,0.999930
0.9027428242086097,1,0.999959
0.8607798993344217,1,0.999972
0.9039965036832666,0,0.999617
0.8406436943912946,1,0.999972
0.9245042630160265,1,0.999987
0.8508850004481006,1,0.999973
0.8991422204500976,1,0.999960
0.7219774196046009,1,0.999973
0.8797458340606317,1,0.999957
0.8294396592071543,1,0.999866
0.7774689324773492,1,0.999957
0.8358499797007386,1,0.999986
0.8879627288672782,1,0.999986
0.8583399949721687,1,0.999987
0.8854097812140439,1,0.999986
0.8616091341138054,1,0.999972
0.7993407359420625,0,0.999216
0.8876225131463461,1,0.999986
0.8664218540168733,0,0.999665
0.9182307533961779,1,0.999959
0.864381389760316,0,0.999848
0.7239680084608724,1,0.999973
0.8521091566650949,1,0.999987
0.8340583838432912,1,0.999972
0.8045257931632159,1,0.999987
0.7889140418901976,1,0.999986
0.8439992710939263,1,0.999973
0.8745856810862551,1,0.999986
0.8566551747153944,1,0.999986
0.6943720180400416,1,0.999961
0.8331763725696604,1,0.999958
0.8348966336657151,1,0.999919
0.869524019412996,1,0.999987
0.8810255300957732,1,0.999986
0.8868348076318784,1,0.999903
0.8737615008832804,1,0.999987
0.7323376177144819,1,0.999974
0.8890482697676727,1,0.999973
0.9229369257477033,1,0.999986
0.8583668844306321,1,0.999972
0.6990831742402642,1,0.999987
0.893961303867393,1,0.999944
0.8241996753625743,1,0.999986
0.8514121114852768,1,0.999974
0.8422377904888632,1,0.999987
0.8087416775737997,1,0.999958
0.9330606530182136,1,0.999987
0.8517791132617288,1,0.999972
0.7219836233322716,1,0.999986
0.915172843765318,1,0.999986
0.7498235767708133,1,0.999879
0.8845312267260477,0,0.998727
0.8325035875902005,1,0.999986
0.83149893747703,0,0.999835
0.7790151479990475,1,0.999973
0.8173952069370396,1,0.999891
0.8502596075040821,1,0.999919
0.8362232396737214,1,0.999987
0.8654024162693347,1,0.999986
0.794007772101637,1,0.999891
0.911508341548538,1,0.999986
0.9410675273265321,1,0.999959
0.9137811625458768,1,0.999986
0.8677864652425739,1,0.999986
0.9063836600564196,1,0.999987
0.7438881719883791,1,0.999987
0.8461665864737475,1,0.999987
0.7408884980341377,1,0.999987
0.8321579190394532,1,0.999987
0.8606854525455698,1,0.999986
0.8929038849855584,1,0.999987
0.7982369147371832,1,0.999987
0.8358331469350418,1,0.999932
0.9056759248426822,1,0.999987
0.9020066650990133,1,0.999916
0.8831338859478204,1,0.999986
0.8655753605427013,0,0.999639
0.8045680411755067,1,0.999945
0.794196193863996,1,0.999986
0.7967861088410438,1,0.999986
0.7953798305403552,0,0.998972
0.895405178680603,1,0.999973
0.9077576993050072,1,0.999986
0.8676798608811362,1,0.999920
0.8314560301184147,1,0.999986
0.8494478647808381,1,0.999987
0.8431019316473468,1,0.999972
0.7413636104353318,1,0.999987
0.889809746649033,1,0.999973
0.9135764398745873,1,0.999986
0.7836023917353288,0,0.999684
0.8566550125329262,1,0.999986
0.8680804092852176,1,0.999971
0.8805789842353803,1,0.999972
0.8235263602440996,0,0.999531
0.8525807585378693,1,0.999986
0.7881144766563954,1,0.999959
0.8252687910366591,1,0.999986
0.8901964252493313,1,0.999904
0.8553868845327892,1,0.999974
0.8099033734142851,0,0.999648
0.8639691793750445,0,0.999014
0.8507736569562762,1,0.999986
0.888294244962155,1,0.999973
0.9380659927132219,1,0.999986
0.9088578325745906,1,0.999986
0.7935683462329997,1,0.999987
0.6726130870257189,1,0.999987
0.94078766484196,1,0.999986
0.8228217208263906,1,0.999986
0.8170923398225929,1,0.999973
0.7630189111072325,1,0.999986
0.8694681805678873,1,0.999960
0.7785817543868813,1,0.999960
0.7961173481676924,1,0.999986
0.8451030143345228,1,0.999927
0.7642794702370515,1,0.999986
0.7921870360030877,1,0.999959
0.9296833367811427,1,0.999986
0.8484433507283466,0,0.991092
0.8559005046120411,1,0.999986
0.8464281091860713,1,0.999986
0.7381341181019876,1,0.999987
0.8664276413592424,1,0.999986
0.8421081091130436,1,0.999987
0.801936626959561,1,0.999973
0.8623175028338048,0,0.999788
0.7705511566225416,1,0.999959
0.798001294270657,1,0.999904
0.7572150627708034,1,0.999944
0.8789185140390313,1,0.999946
0.8983969262287365,1,0.999986
0.8786380220555842,1,0.999986
0.8776343178054294,1,0.999959
0.9086662148431467,1,0.999986
0.900252822770408,1,0.999972
0.8315504285936914,1,0.999904
0.8380227287875573,1,0.999973
0.8653524385496264,1,0.999986
0.764336136397113,0,0.999798
0.8713956683221782,1,0.999987
0.7544619543100972,0,0.999336
0.795155856678032,1,0.999973
0.8585609032383852,1,0.999919
0.6990504127321991,1,0.999987
0.6765940703120522,1,0.999986
0.9145458312028133,1,0.999973
0.885871976492323,0,0.999843
0.8996729337433852,1,0.999987
0.7223598212351052,1,0.999987
0.8467153055892067,1,0.999986
0.7857600562144187,0,0.999714
0.8185662870285155,1,0.999903
0.7594453886921919,1,0.999986
0.7793477169743404,0,0.999660
0.8057159571170115,1,0.999862
0.8767974766276008,1,0.999866
0.9156674168686925,1,0.999933
0.8108767383269657,1,0.999986
0.8798236219915533,1,0.999958
0.9388658603563963,1,0.999972
0.8844603870123058,1,0.999973
0.7938483456292366,0,0.999808
0.8614530848995833,1,0.999986
0.9037852796320904,1,0.999972
0.8487157892716372,1,0.999986
0.88765653493593,1,0.999972
0.9199682675737337,1,0.999987
0.8401631723897135,1,0.999986
0.865612318613793,1,0.999862
0.8637581827128595,1,0.999987
0.8191130308622698,0,0.999570
0.843200678245303,1,0.999987
0.8572685657471716,1,0.999959
0.9500255109650604,1,0.999985
0.8769160491780637,1,0.999986
0.8499674309490715,0,0.999698
0.7726318319009374,1,0.999960
0.7259586132746246,1,0.999987
0.9038083527276037,1,0.999986
0.8403798924289237,1,0.999972
0.8587615128788845,1,0.999971
0.7447490046482008,1,0.999986
0.7976782970488259,0,0.997474
0.8780428796834018,1,0.999876
0.8443191767125131,1,0.999971
0.7559578798825388,1,0.999987
0.8206335075336082,1,0.999986
0.8040993476192333,0,0.999826
0.7517375126298664,1,0.999987
0.8080365530458827,1,0.999986
0.9392843203356274,1,0.999986
0.9169051608744553,1,0.999986
0.9506469230457025,1,0.999986
0.9276766178373138,1,0.999986
0.8894114696178849,1,0.999946
0.8486133384894509,0,0.999732
0.8323436855320588,1,0.999973
0.862236817082726,1,0.999973
0.8349399036687197,1,0.999986
0.8821287973870262,1,0.999986
0.7456812504060772,1,0.999987
0.853095677980947,1,0.999986
0.832435859438303,1,0.999959
0.915668495473216,1,0.999986
0.9195176812388948,1,0.999928
0.7766899403141116,0,0.983581
0.8939978530921884,0,0.999801
0.9002004825565079,1,0.999986
0.8398407473221495,1,0.999987
0.7973338856493252,1,0.999987
0.7057668024170246,0,0.999030
0.8061221250712107,1,0.999986
0.7943355505780207,0,0.999076
0.8191675582494057,1,0.999946
0.9111035689280713,1,0.999987
0.8569499973809808,1,0.999986
0.837691566500136,1,0.999960
0.8468676440257208,1,0.999987
0.8033944901467763,1,0.999973
0.9214753522432763,1,0.999986
0.8481839410545366,1,0.999986
0.8649095979781644,1,0.999986
0.8256364336991203,1,0.999986
0.9237052858794735,1,0.999986
0.845577766670202,1,0.999958
0.8075828803052133,1,0.999862
0.8314559870551282,1,0.999986
0.9137576666459604,1,0.999900
0.8452298401622019,1,0.999986
0.7572465366203696,1,0.999986
0.8175816655318736,0,0.999793
0.72546358797019,1,0.999972
0.8632727736099485,1,0.999974
0.8346286251671886,1,0.999974
0.8546329592093836,1,0.999986
0.7649684385715528,1,0.999986
0.8376079170040848,1,0.999986
0.8392799465168417,0,0.999518
0.8970673898079153,1,0.999903
0.9182967449894003,1,0.999986
0.8692762102506418,0,0.994570
0.9168214616616773,1,0.999986
0.8579201873844426,1,0.999931
0.9063730713583243,1,0.999987
0.9235593662255297,1,0.999960
0.8296986084837483,0,0.999323
0.7901106618946747,0,0.997282
0.8013676564145176,1,0.999972
0.9127642441275404,1,0.999973
0.8615162009715442,1,0.999933
0.8813772990252592,1,0.999986
0.759126347479014,1,0.999987
0.8155843041461494,0,0.999801
0.8200112177232473,0,0.989455
0.8577009178635018,1,0.999943
0.8875598494849024,1,0.999986
0.8443162667679556,1,0.999973
0.8444509204545982,1,0.999986
0.8355899646429132,1,0.999986
0.8556506558149907,1,0.999917
0.8201939495544084,1,0.999986
0.8895377759306701,1,0.999986
0.8317694532836969,1,0.999932
0.8185081562371948,1,0.999974
0.8984995050619894,1,0.999986
0.7552054462883893,0,0.999808
0.8779703635318297,1,0.999988
0.8866218002825693,1,0.999973
0.8850086557537048,1,0.999973
0.7742876046603552,1,0.999973
0.8885606733063971,1,0.999987
0.876156405443519,1,0.999944
0.8498615426490607,1,0.999958
0.818240579292119,0,0.999854
0.8575188200960913,1,0.999957
0.8828722157291969,1,0.999987
0.8367487961988938,1,0.999987
0.7538027715756574,1,0.999973
0.7394361684051619,1,0.999987
0.8926052492538606,1,0.999986
0.9166337878873412,1,0.999973
0.8102632794665044,1,0.999986
0.7660143505501983,0,0.999579
0.8667745956977232,0,0.999852
0.9250327183051763,1,0.999973
0.8159959452319238,1,0.999986
0.8944157384504263,1,0.999986
0.811782647342968,1,0.999987
0.8900353119172683,1,0.999986
0.8359032467924734,1,0.999986
0.846335210423759,1,0.999986
0.7417164915559006,1,0.999987
0.7895483430087942,1,0.999973
0.8036992156835189,1,0.999973
0.9017005109862243,1,0.999904
0.8613761611754763,1,0.999973
0.8665539613298413,1,0.999972
0.9122893515666665,1,0.999986
0.8119858924959427,1,0.999974
0.8104828178722157,1,0.999987
0.9005135220485289,1,0.999986
0.773273581517286,1,0.999973
0.732582267092259,1,0.999987
0.8945457524705054,1,0.999986
0.8790926336164607,1,0.999986
0.8127024903555563,0,0.999474
0.8662271137688959,0,0.999835
0.8361858824711114,1,0.999987
0.87254747642716,1,0.999876
0.8461822299852368,1,0.999987
0.8058612279568681,1,0.999986
0.9018534236361324,1,0.999986
0.8099896420094043,0,0.996064
0.8754786064544642,1,0.999987
0.8660306813808413,1,0.999857
0.8546305653409765,1,0.999987
0.7726073181226206,1,0.999974
0.8180847634970508,1,0.999946
0.8495765573358749,1,0.999986
0.8472854623245865,1,0.999972
0.7689695331773109,0,0.999654
0.8737044622217999,1,0.999959
0.816317505785385,0,0.999846
0.7803315340331365,1,0.999986
0.8509631173779166,1,0.999987
0.8893566933692356,1,0.999986
0.8389924841760465,1,0.999986
0.7587380245216857,1,0.999947
0.7950217617860138,1,0.999887
0.8518390543816308,0,0.999796
0.8928581282443309,1,0.999973
0.8470732150500251,1,0.999972
0.8404024701377405,1,0.999987
0.832215250403788,1,0.999987
0.8739095256751245,1,0.999891
0.797867966945628,0,0.999682
0.9006162771995803,1,0.999986
0.7812217251485447,1,0.999862
0.9355965560689493,1,0.999987
0.9106540857750512,1,0.999986
0.9156919149995854,1,0.999960
0.918605260805813,0,0.999346
0.8796090597926062,1,0.999973
0.9268599938261145,1,0.999986
0.8932723872012439,1,0.999986
0.9088750125680027,1,0.999986
0.8863169420102195,1,0.999986
0.8706624712845327,1,0.999986
0.9157890687557932,1,0.999986
0.7636612152671627,1,0.999986
0.8027504598683362,1,0.999973
0.8420929965680102,1,0.999878
0.8003979834386478,1,0.999986
0.8288126698546662,1,0.999918
0.850679898670971,0,0.995812
0.867676615756028,1,0.999986
0.8914175810343578,1,0.999986
0.8780336411527231,1,0.999973
0.8076700794137728,1,0.999959
0.8873637801829394,1,0.999986
0.8677588957068633,1,0.999986
0.8125511794770301,0,0.999684
0.8375282872000888,1,0.999972
0.7945348426401501,1,0.999972
0.8878802910516552,1,0.999987
0.881123233905855,1,0.999930
0.9434471856826605,1,0.999971
0.834596528137435,0,0.999613
0.9192231778393419,1,0.999945
0.8877499697017618,1,0.999987
0.8660181810950814,1,0.999987
0.8737374907886247,1,0.999973
0.876297034145907,1,0.999987
0.8649029693353136,1,0.999932
0.8825880895016048,1,0.999891
0.8998751364879174,1,0.999987
0.8380130092765599,1,0.999987
0.8643678860666743,0,0.999759
0.9016398484590746,1,0.999986
0.8810337603093337,1,0.999987
0.8322659618889451,0,0.998624
0.8140486052019811,1,0.999987
0.7978035159641267,1,0.999973
0.8012183547618964,1,0.999986
0.8269686062029094,1,0.999928
0.7607624693887431,1,0.999972
0.8839158236430265,1,0.999972
0.8706978638164912,1,0.999986
0.9029833456892389,1,0.999986
0.7928927460643846,1,0.999986
0.8995518944092357,1,0.999973
0.8971512269031038,1,0.999986
0.9026626017651943,1,0.999986
0.842390292898935,1,0.999973
0.8902019016535391,1,0.999986
0.8726323028372803,1,0.999987
0.8893201233005527,1,0.999946
0.8402459265121406,1,0.999903
0.8971432835971712,1,0.999973
0.8321256864935671,1,0.999986
0.7764761629583417,1,0.999946
0.8827164001051698,1,0.999973
0.8192679465394188,0,0.999814
0.8333980836943194,1,0.999973
0.8781491936289989,1,0.999942
0.8720637741877292,1,0.999986
0.8734232566267124,1,0.999973
0.8257734027117954,1,0.999986
0.8333217723517414,1,0.999944
0.8213997475484534,0,0.999795
0.9051882369163876,1,0.999986
0.8623218052665076,1,0.999986
0.8741612524320953,1,0.999986
0.8060594638001278,1,0.999986
0.8417638194300602,1,0.999959
0.8950005587484606,1,0.999987
0.8859442816092411,1,0.999972
0.8075150678548916,0,0.999602
0.7435725585704177,0,0.999755
0.8954649270580913,1,0.999920
0.9012315420216629,1,0.999972
0.7486413571636589,1,0.999987
0.9100306297301158,1,0.999972
0.8011026551942271,1,0.999987
0.8824794342260098,1,0.999934
0.8365078643292743,0,0.999766
0.9286986567110355,0,0.994614
0.8886166895406962,1,0.999987
0.8504777778247415,1,0.999880
0.7721642049771473,1,0.999986
0.863100336236664,1,0.999987
0.8644926473840133,1,0.999986
0.8982441965844488,1,0.999986
0.8134664022535597,1,0.999986
0.8780888873350403,1,0.999986
0.84157629512615,1,0.999986
0.7562849967745454,0,0.993369
0.8047172625318385,1,0.999987
0.8992035267634663,0,0.999637
0.9279091531037051,1,0.999973
0.7836007187077196,1,0.999987
0.9256781128291885,1,0.999986
0.8683659464529137,1,0.999877
0.8216103372991594,1,0.999986
0.8177572555747746,1,0.999986
0.6912952629940058,1,0.999986
0.8442443887169979,1,0.999986
0.8253051845783244,1,0.999986
0.7513562236145523,0,0.999481
0.8759056886028043,1,0.999972
0.8427251777400979,1,0.999974
0.8968364864076176,1,0.999973
0.8750058657553381,1,0.999972
0.8242566432687303,0,0.999638
0.8590439547016651,1,0.999933
0.8017101766035951,1,0.999945
0.869120769729935,0,0.999485
0.8167429671050582,1,0.999905
0.8736945161215632,1,0.999959
0.8412870704597164,1,0.999987
0.8503327399523509,1,0.999986
0.831975639718986,1,0.999986
0.8212628049268033,1,0.999972
0.8260807920023145,1,0.999933
0.8562725580562701,1,0.999945
0.9263462406328778,1,0.999986
0.8554064081818616,1,0.999987
0.8813462448025254,0,0.999560
0.8989066825337384,1,0.999986
0.8809281873851739,0,0.978262
0.8905231858321988,1,0.999986
0.7363919464898538,1,0.999958
0.822186820213977,1,0.999987
0.9122549935034382,1,0.999973
0.8762645617211581,1,0.999986
0.8898862270460706,0,0.999821
0.8659069365992738,1,0.999972
0.7782077795375134,1,0.999891
0.6836793365358736,1,0.999987
0.8703676633762492,0,0.999850
0.7986986257979827,1,0.999958
0.881423485604833,1,0.999986
0.8892748285622953,1,0.999986
0.8402142149999269,1,0.999945
0.8383914720686411,1,0.999986
0.8737580437252981,0,0.999453
0.8466798686166517,1,0.999986
0.8779212553416389,0,0.999839
0.808298654667875,1,0.999987
0.7556993747093789,1,0.999987
0.7906080075458524,1,0.999986
0.8282309333384003,1,0.999987
0.8497708649056176,1,0.999944
0.6034320656912757,1,0.999987
0.850669293036007,1,0.999959
0.8007652712409652,1,0.999987
0.8154666540301111,1,0.999986
0.9569429533088453,1,0.999986
0.8961035883628106,1,0.999958
0.8867544998666634,1,0.999947
0.8815127060074004,1,0.999973
0.8760052312910561,1,0.999986
0.7055943609955632,1,0.999986
0.7649988930988988,1,0.999959
0.8714266935616553,0,0.999803
0.7375365512118518,1,0.999973
0.8153373633167085,1,0.999986
0.7789815107611655,1,0.999874
0.7688306815818476,1,0.999958
0.9092272316654283,0,0.999612
0.9286161265741452,1,0.999986
0.8472182230854265,1,0.999986
0.8162481876279944,1,0.999918
0.868091782663691,1,0.999986
0.8593120997269444,0,0.995756
0.7951491967764311,1,0.999986
0.9288544420834247,1,0.999973
0.8869634178592719,1,0.999959
0.9189402121066718,1,0.999986
0.795014049719029,1,0.999986
0.8888739961492993,1,0.999958
0.8511032513154471,1,0.999986
0.8664902610583672,1,0.999958
0.8901432583924053,1,0.999986
0.8684598921578163,1,0.999972
0.8720291723627706,1,0.999986
0.8469112667917923,1,0.999986
0.8070043964725767,0,0.999822
0.7976005518259114,1,0.999973
0.9020898880123654,1,0.999959
0.840357805323169,0,0.999852
0.7707810201195,1,0.999987
0.7971099211156591,1,0.999891
0.8072332012772924,1,0.999960
0.8341773178243537,0,0.970469
0.7896028655623274,1,0.999973
0.8278160247326706,1,0.999960
0.8724753968750726,1,0.999986
0.7453644257466393,1,0.999987
0.8763068269757606,1,0.999986
0.8894163371918157,0,0.999353
0.7395701741267419,1,0.999986
0.878411641935905,1,0.999891
0.7548995428447973,1,0.999959
0.8801472805149809,1,0.999958
0.7659430417216175,1,0.999986
0.8812083466671761,1,0.999986
0.8477293040408617,1,0.999972
0.8998574862292101,1,0.999959
0.8161825319461673,0,0.999730
0.8869115449304464,1,0.999986
0.9140901885936205,1,0.999986
0.8829552436088102,1,0.999986
0.8465398403592583,1,0.999987
0.7675504451313351,1,0.999987
0.8699054796381059,1,0.999987
0.9003915495400231,1,0.999922
0.9276136191588157,1,0.999931
0.8660910731889871,0,0.999686
0.8254542783198057,1,0.999960
0.8817923697425732,1,0.999986
0.9202605475018313,1,0.999944
0.8626846337762685,1,0.999973
0.9152621329349787,1,0.999957
0.9078425871145791,1,0.999986
0.9076844048970822,1,0.999987
0.7976240701577451,1,0.999986
0.7237863087213044,1,0.999973
0.7999273487000831,1,0.999987
0.8279883712917625,1,0.999973
0.7635825733168776,1,0.999986
0.7937298744276416,1,0.999986
0.7968804212119246,1,0.999890
0.7911234694910493,1,0.999986
0.7928577477082678,1,0.999987
0.8225263520974989,1,0.999888
0.8744838489149928,1,0.999959
0.7538248766196063,1,0.999972
0.7869016751175298,1,0.999973
0.8164085408477191,1,0.999986
0.6946726739530842,1,0.999876
0.9022697775619106,1,0.999960
0.8393189800842862,1,0.999987
0.9028332437406378,1,0.999987
0.807408862923903,1,0.999973
0.814947289464143,1,0.999900
0.8091797375724162,1,0.999986
0.8246395325209637,1,0.999986
0.7608289560303578,1,0.999973
0.852517420575443,1,0.999986
0.7921608211965915,1,0.999986
0.9302311686257502,1,0.999958
0.7649027529262702,1,0.999973
0.8660663644347893,1,0.999986
0.8983404921605397,1,0.999986
0.8863391038748164,1,0.999986
0.8886772891803565,1,0.999986
0.7686503893667287,1,0.999986
0.8390850147586837,1,0.999987
0.6904045403064264,1,0.999974
0.7192697542350593,1,0.999987
0.8130333898107542,1,0.999986
0.769499526450997,1,0.999894
0.8812272767638284,1,0.999986
0.8242925605003638,0,0.996998
0.910900552477989,1,0.999973
0.8345626893980348,1,0.999917
0.8638164676092585,1,0.999987
0.8201418903269839,1,0.999878
0.8791205956288787,1,0.999959
0.8677835720358823,1,0.999876
0.8634255978936329,1,0.999986
0.8323725996557692,1,0.999973
0.8731208959947744,1,0.999986
0.8416471640523403,1,0.999987
0.8237918080254454,0,0.999808
0.8196273243534355,1,0.999973
0.9162941952580749,1,0.999986
0.8253652987168832,1,0.999987
0.8645254162269358,1,0.999931
0.8545963087161119,1,0.999986
0.9049714300967114,1,0.999959
0.8385014998860063,1,0.999959
0.8812737608210132,0,0.999737
0.8933588069510972,1,0.999986
0.9027421263432813,1,0.999986
0.7909925031370607,1,0.999987
0.9440309052794579,1,0.999986
0.8965656851868834,1,0.999986
0.868465119865923,1,0.999973
0.7547293763943076,1,0.999986
0.7582088709593365,0,0.999748
0.7803736628323071,1,0.999930
0.8198482076363691,1,0.999986
0.9106635530919767,1,0.999986
0.8488146284275405,0,0.998996
0.8449087972200061,1,0.999986
0.8247526521590757,1,0.999986
0.8407357775923352,1,0.999972
0.7378575710793186,1,0.999961
0.806268395196735,1,0.999986
0.7552833452459254,1,0.999987
0.8831267256799761,1,0.999986
0.9271248752529107,1,0.999986
0.8877579706566027,1,0.999973
0.8757907516148984,1,0.999986
0.8584719275218673,1,0.999890
0.8019900189447755,0,0.999062
0.8509806367827564,1,0.999986
0.7307055013640997,1,0.999973
0.6956864558434152,1,0.999986
0.8688774402725801,1,0.999986
0.9044771493335921,0,0.999781
0.8652411837250661,1,0.999987
0.8775721780959661,1,0.999972
0.8071813202001668,1,0.999861
0.8804658644773925,1,0.999986
0.7205111500678406,1,0.999987
0.7097564371443059,0,0.999618
0.941678649577588,1,0.999986
0.7847632894431467,0,0.999838
0.883976829330372,1,0.999972
0.8995417890306897,1,0.999986
0.8267477829171506,1,0.999986
0.9010356747093033,1,0.999943
0.9074469171753049,1,0.999973
0.8798129009934746,1,0.999986
0.8605280207790703,0,0.999777
0.8665940427764355,1,0.999944
0.8533996388010109,1,0.999901
0.8160285896756608,1,0.999986
0.8924720854108179,0,0.999820
0.8716278049703979,1,0.999986
0.8609926471115803,1,0.999921
0.8685210302165352,1,0.999944
0.8487751679184334,1,0.999986
0.8653513254315335,1,0.999987
0.9084560915997233,1,0.999986
0.7580931864264778,1,0.999973
0.8518733773106141,0,0.999766
0.7225662513871991,1,0.999987
0.7032195443573492,0,0.999766
0.6837310758486468,1,0.999975
0.8889738605292399,1,0.999986
0.8051599060409711,0,0.999527
0.9058092856579242,1,0.999986
0.8655894739821485,1,0.999987
0.9154440404322235,1,0.999986
0.9064024974698014,1,0.999958
0.718342036843746,1,0.999876
0.8766539761792053,0,0.999610
0.8056805169172043,1,0.999986
0.780068525087136,0,0.999514
0.7784263733021103,1,0.999907
0.7936261557990415,1,0.999908
0.893331275898732,1,0.999986
0.8521701469259615,1,0.999973
0.8962281934890617,1,0.999986
0.7941499482384891,1,0.999987
0.8469917585069457,1,0.999959
0.7390210802609569,1,0.999986
0.8804578326596674,1,0.999972
0.928622742049935,1,0.999918
0.7981385091610798,1,0.999987
0.9178337521030834,1,0.999975
0.8454540834079295,1,0.999986
0.8590264375960971,1,0.999986
0.8170203770322851,1,0.999931
0.8351316601708297,1,0.999987
0.9055454863084599,1,0.999904
0.8173794648300001,0,0.999612
0.8581477837098873,1,0.999986
0.9378705734201659,1,0.999986
0.8621944527659816,1,0.999986
0.88161744022395,1,0.999960
0.8142289809142437,1,0.999986
0.8212269581024316,1,0.999987
0.8211913786996025,1,0.999960
0.8079777862142647,1,0.999987
0.8351264185448989,1,0.999986
0.8736543727225218,1,0.999986
0.8959408782255317,0,0.999815
0.8128595474278448,1,0.999972
0.8760741927610233,1,0.999987
0.8473633486631293,1,0.999919
0.910253371741942,1,0.999987
0.7929586064460561,1,0.999987
0.8961543021670216,1,0.999931
0.8678036203962312,1,0.999986
0.8616854171768968,1,0.999959
0.8697842080672746,1,0.999960
0.6876688351715053,1,0.999987
0.8674135403744128,1,0.999972
0.8721138183615956,1,0.999986
0.8004877060592623,0,0.997875
0.8048653375544967,1,0.999974
0.840563917058157,1,0.999947
0.9440137920454261,0,0.999814
0.9532039129620768,1,0.999986
0.9099022313089885,0,0.990982
0.9199164831559248,1,0.999890
0.9025021876146635,1,0.999986
0.8661746476039661,1,0.999987
0.868914590033687,1,0.999986
0.7186950809962577,1,0.999986
0.8441603158530718,1,0.999972
0.8241486381202274,0,0.999789
0.8919084445350051,1,0.999986
0.742098586040335,1,0.999986
0.8653660468350037,1,0.999986
0.8471343059873054,1,0.999986
0.900438190122386,1,0.999986
0.9313220262951784,1,0.999986
0.8501943463230521,1,0.999986
0.8320240155579537,1,0.999972
0.8346413116895681,1,0.999986
0.8780364702281794,1,0.999986
0.79494349291892,1,0.999986
0.8775802902098406,0,0.999751
0.8592363194032029,1,0.999920
0.8499518183488364,1,0.999986
0.8296551911157997,1,0.999986
0.8737571866028889,1,0.999987
0.8321816911193307,1,0.999974
0.8870898173364502,1,0.999987
0.8839176020157087,1,0.999987
0.8521583312241305,0,0.999567
0.779356578422746,1,0.999916
0.8385859039131409,1,0.999958
0.9126834426081576,1,0.999914
0.8667549771182278,1,0.999986
0.7792651108383631,0,0.998577
0.8361651443650836,1,0.999945
0.8422548394315751,1,0.999986
0.865971580354391,1,0.999919
0.8238461401384599,1,0.999932
0.8955029600215381,1,0.999986
0.8640786919086284,1,0.999973
0.8916577324445515,1,0.999987
0.8321831438456221,0,0.997487
0.8794879556588001,1,0.999960
0.8724275770674702,1,0.999986
0.8552525361282184,1,0.999973
0.855399502107581,1,0.999974
0.8747078482504623,1,0.999973
0.7969415646366698,1,0.999987
0.8721070472155678,1,0.999986
0.7994455040675932,0,0.999597
0.886323557233257,1,0.999986
0.8925277185685895,1,0.999986
0.8770482009773992,0,0.999706
0.8651220373840971,0,0.999819
0.9097202427506342,1,0.999950
0.8365650806735565,1,0.999916
0.8580669120122865,1,0.999974
0.7161010559662102,1,0.999961
0.8457698773413875,1,0.999933
0.7986042557563326,1,0.999973
0.8442894398284349,1,0.999986
0.7504203294140455,1,0.999947
0.8226012343262769,1,0.999986
0.8159479915147357,1,0.999918
0.903441567499553,1,0.999972
0.8668018914574286,1,0.999986
0.8691039457800067,1,0.999986
0.8032795219503479,1,0.999986
0.89294035225028,0,0.997726
0.8484505949558282,1,0.999972
0.8081869516085961,1,0.999973
0.8005479182349171,1,0.999986
0.7794290495130416,1,0.999885
0.9035099834072319,1,0.999987
0.8485097732741763,1,0.999986
0.7955156371346872,1,0.999929
0.9319129731333852,1,0.999958
0.8216731140049705,1,0.999986
0.6997422604699193,1,0.999986
0.8921564052419768,1,0.999986
0.8751859759810099,1,0.999986
0.8239650368139466,1,0.999972
0.8875138328973581,1,0.999986
0.8886662671447083,0,0.999829
0.8540523553794469,1,0.999986
0.8892900083790866,0,0.999720
0.9063794581508137,1,0.999986
0.848900370351609,1,0.999987
0.8658971156166337,1,0.999986
0.8654906617615304,1,0.999945
0.853522683053518,1,0.999905
0.8699300462391313,1,0.999986
