0.8983862284002111,1,0.999905
0.8565192914334095,1,0.999907
0.9283295942511572,1,0.999742
0.8518798358693456,1,0.999816
0.8855030193548532,1,0.999725
0.8692001642974445,1,0.999918
0.8580372671646291,1,0.999712
0.8562382169871263,1,0.999926
0.869114575860834,1,0.999444
0.8699651664553112,1,0.999923
0.8981392279321703,1,0.999913
0.8808985186427863,1,0.999921
0.8588998295330541,0,0.994407
0.9113976379544181,0,0.987186
0.881672567700673,1,0.999915
0.8847877054377712,1,0.999919
0.8421941410536595,1,0.999910
0.8727162444601227,1,0.999832
0.8516827874645524,1,0.999843
0.8643560055304889,1,0.999921
0.898488214252448,1,0.999474
0.8846666502343116,1,0.999715
0.9024649821487751,1,0.999921
0.8555935671119665,1,0.999668
0.8561340916237616,1,0.999464
0.8924576971563327,1,0.999923
0.9120810799669902,1,0.999724
0.9378513921359163,1,0.999706
0.84798187235175,1,0.999383
0.8968045931442815,1,0.999841
0.9009900528680042,1,0.999844
0.8334034197521201,0,0.996905
0.8732838817773686,1,0.999915
0.8519386579346344,1,0.999922
0.9025588692835201,1,0.999576
0.8962946728297703,0,0.998849
0.8668543922013556,1,0.999610
0.9042717274260852,1,0.999815
0.9210553558803457,1,0.999833
0.9240300039695188,1,0.999337
0.9053114421232303,0,0.998714
0.8908305176579715,1,0.999853
0.916925634252927,1,0.999925
0.9076276321483806,1,0.999828
0.8980238100035169,1,0.999847
0.9227690777016561,1,0.999912
0.905140740600253,1,0.999922
0.8975376591972248,1,0.999772
0.8747446377088779,1,0.999841
0.8921556625298489,1,0.999637
0.9059798144419752,1,0.999369
0.862530949711453,1,0.999842
0.8610341490183505,1,0.999916
0.8021514528366646,1,0.999300
0.904174536994636,1,0.999492
0.8839415134510905,1,0.999924
0.8649722153361504,1,0.999720
0.8635820505135461,1,0.999460
0.9256563166647546,0,0.995768
0.8664688673433478,1,0.999664
0.8514804630004611,1,0.999745
0.9143469744007993,1,0.999692
0.9089390372026402,1,0.999921
0.8799594026466442,1,0.999909
0.8492959745239133,1,0.999911
0.8301285012868862,1,0.999503
0.8486229269002613,1,0.999658
0.9140836850412927,1,0.999906
0.8764963166743164,1,0.999910
0.8691110854571273,1,0.999849
0.8700899494554695,1,0.999277
0.8789560234359867,1,0.999590
0.8856834024868512,1,0.999817
0.8758005422922814,1,0.999926
0.878777590060028,0,0.998911
0.8967024039386841,1,0.999853
0.8807716338673965,1,0.999912
0.8117491727908828,0,0.998717
0.8475492234241455,1,0.999831
0.8524901505727334,1,0.999928
0.872573788496824,1,0.999566
0.8615295434899936,1,0.999921
0.8912043532753134,1,0.999683
0.8235651297827018,1,0.999709
0.8965282069064968,1,0.999398
0.9133721778460334,1,0.999277
0.9125244126152561,1,0.999853
0.9020125866835571,1,0.999927
0.868440442549643,1,0.999674
0.844029610066472,1,0.999921
0.9201589225411929,1,0.999918
0.8713416468939891,1,0.999769
0.8864077332218906,1,0.999905
0.9090068400875511,1,0.999921
0.9327998057255058,1,0.999845
0.8675780475426457,1,0.999817
0.9126210835006164,1,0.999914
0.9109253375495145,1,0.999920
0.900810799992731,1,0.999916
0.9205444811145336,1,0.999907
0.9041482245300224,1,0.999776
0.9059962007074074,1,0.999835
0.8783999140401865,1,0.999735
0.9184284156864345,1,0.999915
0.92518483978136,1,0.999923
0.8977178672644089,1,0.999910
0.8837308968605992,1,0.999922
0.8567461704742729,1,0.999921
0.8772333879317586,1,0.999929
0.8914800296935899,1,0.999925
0.9031882452109143,0,0.999070
0.8946081241292659,1,0.999839
0.8879443603387625,0,0.971659
0.8963410654402295,1,0.999923
0.8895889323339687,1,0.999926
0.9143561035200177,1,0.999929
0.894547627201089,1,0.999701
0.8956319384470208,1,0.999918
0.8874740424009432,1,0.999497
0.8349498642437432,1,0.999922
0.8657496686251965,0,0.998568
0.914054983534272,1,0.999918
0.878391714504566,1,0.999928
0.876947809627353,1,0.999848
0.8965783566844646,1,0.999585
0.881669603555065,1,0.999350
0.8505803120663967,1,0.999916
0.8752712758366394,1,0.999923
0.8240314991455209,1,0.999614
0.8101445564695107,1,0.999928
0.869721808166375,1,0.999926
0.8520587864067758,1,0.999923
0.8790730505197922,1,0.999927
0.8497935618023054,1,0.999921
0.8762631740099862,1,0.999922
0.9041730682566465,1,0.999635
0.8810501491045624,1,0.999192
0.8819550097681834,1,0.999926
0.7927603046317585,1,0.999923
0.8469752666276164,1,0.999782
0.8502329583829842,1,0.999928
0.8114873289275233,1,0.999792
0.8954640910506736,1,0.999921
0.8803726693351933,1,0.999925
0.9319014219663188,1,0.999827
0.890333661673356,1,0.999815
0.920048550940768,1,0.999728
0.9043734688950634,0,0.996561
0.8621889823449838,1,0.999909
0.843860833574455,1,0.999690
0.9128692647707595,1,0.999552
0.8683575339790858,1,0.999274
0.8975870853002963,1,0.999917
0.8392135180685468,1,0.999921
0.8515275273272334,0,0.998552
0.8279352166198085,1,0.999529
0.8888982195235371,1,0.999764
0.8626372496899586,1,0.999912
0.8297458366091108,1,0.999916
0.8614233989820715,1,0.999452
0.8765950754134461,1,0.999857
0.9136389013431622,1,0.999919
0.8831479112858226,1,0.999849
0.9006573189852538,1,0.999910
0.9024473188605734,1,0.999927
0.8995664398173483,1,0.999924
0.9019216470789186,1,0.999905
0.8865029417052662,1,0.999910
0.8832201969485733,1,0.999178
0.913249445769133,1,0.999827
0.8905714619400507,1,0.999915
0.9076838105787632,1,0.999829
0.9194977902321776,0,0.998054
0.9020041955721029,1,0.999901
0.8919272389108234,1,0.999921
0.9005969647314626,1,0.999156
0.9154652597042516,1,0.999921
0.9122663148224441,1,0.999911
0.920905939279611,1,0.999931
0.9024447324831826,1,0.999923
0.8894238334483128,1,0.999909
0.8295774634906018,1,0.999916
0.8488138350018575,1,0.999574
0.873221865268657,1,0.999434
0.9019044702031823,1,0.999910
0.8794426589915246,1,0.999842
0.8523339851772803,1,0.999462
0.9001439724101908,0,0.987840
0.8851238280282628,1,0.999908
0.8944903593396925,1,0.999916
0.8818669761049889,1,0.999918
0.8631631004606092,0,0.993545
0.8329023041618824,0,0.998958
0.8536285216469987,1,0.999696
0.8564852921940844,1,0.999923
0.8328557128209302,1,0.999347
0.8637229174923023,1,0.999856
0.8370891807923503,1,0.999845
0.836195460833499,1,0.999434
0.8702755391781725,1,0.999246
0.8923764955641781,1,0.999696
0.8541076210999979,1,0.999931
0.879223497353577,1,0.999923
0.8740634306436129,1,0.999926
0.8880886334822754,1,0.999915
0.8444834412135955,0,0.990761
0.8592100041637822,1,0.999680
0.8836428972448487,1,0.999750
0.8629692402371517,1,0.999909
0.9112198306893632,1,0.999930
0.8509463287640521,0,0.999056
0.8854442387086879,0,0.997357
0.8845724208697178,1,0.999921
0.8874430208115137,1,0.999932
0.881869901062562,1,0.999833
0.9037653417757942,1,0.999660
0.9283489076900038,1,0.999912
0.8882304694782959,1,0.999665
0.8628201866697203,1,0.999632
0.8433592223068811,1,0.999682
0.8999271058366306,0,0.999013
0.8911699266310594,1,0.999920
0.8918124147447215,1,0.999182
0.8965825186718501,1,0.999407
0.8011360255572846,1,0.999921
0.9000100661783503,0,0.997839
0.9089004981435428,1,0.999920
0.9084343924228986,1,0.999920
0.8689572591500456,1,0.999928
0.8416755237411083,1,0.999788
0.832671529046188,1,0.999625
0.8992172569302788,1,0.999921
0.8782642367837997,1,0.999678
0.8784898347648912,1,0.999926
0.8706046508275372,0,0.997365
0.8400004440050183,1,0.999912
0.8249693301907005,1,0.999821
0.8921828829809947,1,0.999759
0.8136037882601097,0,0.995458
0.8549055920536308,0,0.998532
0.8590344057522847,1,0.999919
0.8683275349620782,1,0.999728
0.8795823100517176,1,0.999827
0.8288572040859618,1,0.999597
0.9071725613601045,1,0.999838
0.8818330867284433,1,0.999671
0.8877647009008244,0,0.999160
0.844590585151302,0,0.991950
0.8865045446980764,1,0.999917
0.888384773436974,1,0.999918
0.892259344672563,1,0.999341
0.8546179644091966,0,0.990470
0.9170686956362043,1,0.999854
0.8856089753779496,1,0.999859
0.8610088341076405,1,0.999921
0.8836801537793947,1,0.999467
0.9191084536343257,1,0.999831
0.866247725788653,1,0.999907
0.8481136359533588,1,0.999893
0.8450239867868347,0,0.998600
0.8880050525883253,1,0.999849
0.8881212459433379,0,0.979791
0.8582396611707509,1,0.999808
0.8404249902445,1,0.999365
0.8934545876747813,1,0.999603
0.9023663609595245,1,0.999759
0.8857644417308078,1,0.999645
0.8579138419498445,1,0.999866
0.8884522812298102,1,0.999918
0.8440227478138446,1,0.999743
0.8210563031819912,1,0.999916
0.84099446657341,1,0.999753
0.8754331680836583,1,0.999596
0.8840578046809787,1,0.999924
0.9088798632208719,1,0.999915
0.8506475761151449,0,0.999077
0.8951223677274907,1,0.999928
0.8721507348637888,1,0.999924
0.8800388956745653,1,0.999922
0.8678588162670602,1,0.999826
0.8982478720086047,0,0.998579
0.8871984127783313,1,0.999811
0.8988607604356036,1,0.999918
0.909812013169746,1,0.999917
0.8717131939200317,0,0.998833
0.8987867084692364,1,0.999512
0.8884649112624343,0,0.998884
0.8737881097242433,1,0.999672
0.8612398680785055,1,0.999839
0.8948449632400325,1,0.999702
0.8934169519248711,1,0.999912
0.8465307709250747,0,0.998270
0.8258022649118936,1,0.999863
0.868639042381833,1,0.999911
0.8795260424665867,1,0.999854
0.880628085606117,1,0.999918
0.8802405108564466,1,0.999714
0.9165523186001969,1,0.999917
0.8853256921134731,1,0.999931
0.8848650452658726,1,0.999932
0.8817492282084521,1,0.999921
0.9079828849772934,1,0.999924
0.9321060970433016,1,0.999907
0.8850648030488913,1,0.999926
0.8541252990458619,1,0.999925
0.8880463980795045,0,0.997734
0.8962724073610792,1,0.999920
0.866743093721054,1,0.999920
0.8530516669426835,1,0.999788
0.8544968968829318,1,0.999927
0.8472790166802222,1,0.999917
0.8640729620230089,1,0.999746
0.9182937885984328,0,0.997331
0.8730988636979219,1,0.999756
0.8932785551959469,1,0.999931
0.8306286706192777,0,0.999073
0.8804495848711148,1,0.999923
0.897022855554775,1,0.999506
0.9011545584544354,1,0.999908
0.8879060072716392,1,0.999930
0.8710005656069223,1,0.999919
0.8512493843561482,1,0.999929
0.8173668021183308,1,0.999923
0.8529117749739222,1,0.999927
0.8845908692449622,1,0.999246
0.8648335581633071,1,0.999908
0.8566938762061836,1,0.999362
0.8979424764205481,1,0.999266
0.8552799271117715,0,0.996957
0.8576618225915854,1,0.999920
0.792978999788155,0,0.998684
0.7996237006121566,1,0.999519
0.8053536155951,1,0.999727
0.8732159171099843,0,0.997736
0.8352393072401375,1,0.999847
0.8564346726827319,1,0.999851
0.8795166506462658,1,0.999902
0.903358161879864,1,0.999896
0.8765302257858472,1,0.999202
0.9102654207157336,1,0.999913
0.859476360650009,1,0.999856
0.8868833379511631,1,0.999577
0.9189839729937611,1,0.999928
0.8145070393040892,0,0.997996
0.9244097913055584,1,0.999633
0.8447010584339963,1,0.999912
0.8544611511397375,1,0.999916
0.871797174151262,1,0.999905
0.8296774295386967,1,0.999919
0.8536699951543046,1,0.999904
0.8285802738861447,1,0.999930
0.8757659613643284,1,0.999918
0.8732058837230284,1,0.999917
0.8730721604007908,1,0.999852
0.859498710966311,1,0.999931
0.8698369460174685,0,0.998625
0.870112758497793,1,0.999916
0.8435944879730313,0,0.997653
0.846248548062827,1,0.999693
0.8454213287464736,1,0.999858
0.8943935772883891,1,0.999915
0.9511196807207039,1,0.999918
0.8804484693130498,1,0.999921
0.8892217210678078,1,0.999913
0.8628045009573645,0,0.998611
0.8712071853861247,1,0.999740
0.8962072720156873,1,0.999849
0.9011140673488294,1,0.999913
0.8794596309355901,1,0.999924
0.9088395222785457,1,0.999924
0.8709334702923271,1,0.999271
0.8781767789140885,1,0.999917
0.8650256307358221,1,0.999850
0.8898128989627154,1,0.999922
0.8740797121696524,1,0.999930
0.8739320951802539,1,0.999574
0.9041023260079099,1,0.999625
0.9058835269939958,1,0.999919
0.8836549454742268,1,0.999108
0.8591374450446817,0,0.999094
0.8960943120535413,1,0.999533
0.9258331736869286,1,0.999917
0.9235283176420342,1,0.999930
0.9067281803665249,1,0.999896
0.9154911708237673,1,0.999366
0.9149438787393914,1,0.999911
0.8936104420935096,1,0.999729
0.8498542631062654,1,0.999911
0.8236648232130445,1,0.999373
0.8666097705640707,1,0.999837
0.8057855669594389,1,0.999919
0.8819092325634236,1,0.999845
0.8476196426410536,0,0.997871
0.8707815604994316,1,0.999915
0.8789443223681426,1,0.999810
0.7936943876508264,1,0.999392
0.881808971221313,1,0.999905
0.9107395523561131,1,0.999815
0.8893731820123443,1,0.999906
0.9027812733052143,0,0.991727
0.8727647048668434,1,0.999502
0.8965472934184153,1,0.999927
0.8459079476433601,1,0.999741
0.9194044022497986,1,0.999917
0.8673292891718408,1,0.999172
0.8582875059326994,1,0.999911
0.8782864835255686,1,0.999858
0.8615526545489819,1,0.999584
0.878753250442157,1,0.999922
0.9327831624300774,1,0.999736
0.8570601618704626,0,0.998490
0.9009772754069486,1,0.999919
0.8135678840246642,1,0.999919
0.8255495173086089,1,0.999917
0.8567043017601805,1,0.999921
0.9061739948523205,1,0.999920
0.7651775466435897,0,0.996941
0.8979901210962493,1,0.999826
0.8675265884245308,1,0.999750
0.9106140622789686,1,0.999913
0.8514986032617947,1,0.999330
0.9040379077040486,1,0.999706
0.8758035744965316,1,0.999910
0.8570916096334644,1,0.999919
0.8852629645812113,1,0.999920
0.8765484899155427,1,0.999922
0.8930907922404274,1,0.999851
0.8785112955285307,0,0.998613
0.8948018237585349,1,0.999782
0.8619339530993152,1,0.999922
0.8816244639308124,0,0.999042
0.9179505299245496,1,0.999928
0.8679518372644293,1,0.999920
0.873896045044843,0,0.994587
0.8584062247739156,1,0.999268
0.9301791991037772,1,0.999675
0.8862944455107863,1,0.999922
0.8684658101342183,1,0.999482
0.8642677394436838,1,0.999555
0.9223253569379651,1,0.999675
0.8972302451835097,1,0.999436
0.8973272995480799,1,0.999924
0.8801616940523875,1,0.999926
0.9182891648890328,1,0.999928
0.8559793282323096,1,0.999859
0.8854397743017863,0,0.998661
0.8986143603853277,1,0.999844
0.9058403029157659,1,0.999669
0.926487838061197,1,0.999934
0.8343408941354207,1,0.999774
0.8674243360033573,1,0.999926
0.9082536710280343,1,0.999930
0.8833763288718814,1,0.999921
0.8817713120848614,1,0.999434
0.8831028544664893,1,0.999917
0.8773181752746771,1,0.999908
0.8801195587896092,1,0.999411
0.8912255741878428,1,0.999922
0.8951035409954318,1,0.999441
0.8540620462813414,1,0.999847
0.8798620162491482,1,0.999820
0.9197237700542238,1,0.999928
0.8512780942630028,1,0.999783
0.8871210388037379,0,0.998324
0.8507097226048169,1,0.999931
0.8451087862400037,0,0.999071
0.9131514853136921,1,0.999703
0.9134916461678745,1,0.999914
0.8861942507119654,1,0.999913
0.92921745203337,1,0.999811
0.9255413906728537,1,0.999906
0.887008407439792,0,0.995906
0.8898820803366666,1,0.999895
0.9185081994402851,1,0.999901
0.912551098552248,1,0.999910
0.8928548537001226,1,0.999918
0.9063688488583981,1,0.999917
0.875196010560614,1,0.999917
0.8579075753385595,1,0.999901
0.8659423359316643,1,0.999530
0.9006493032734634,0,0.995359
0.9172066614077121,1,0.999909
0.8971387608687146,0,0.998650
0.9262732870091437,1,0.999912
0.9178291934274215,1,0.999094
0.8627248806982003,1,0.999905
0.897837321502451,0,0.996927
0.9251856252443293,1,0.999910
0.9300802411815993,0,0.998459
0.8678993404351946,1,0.999913
0.8883660279605784,1,0.999901
0.9002003061960924,1,0.999911
0.9238228184713044,1,0.999738
0.915551647725934,1,0.999825
0.8597309693154237,0,0.991944
0.8646037880711341,0,0.998946
0.8886332740612538,1,0.999288
0.8812303972091257,1,0.999912
0.8938936843374989,0,0.998470
0.8739532616782271,1,0.999836
0.8867377285401774,1,0.999719
0.9169425823774822,1,0.999719
0.8708962683751538,1,0.999903
0.9206978009430682,1,0.999903
0.8883484735796892,0,0.998340
0.862781065320495,1,0.999825
0.9122279740791154,1,0.999906
0.8954564995876697,1,0.999902
0.8856550444015936,1,0.999677
0.9199442532953489,1,0.999906
0.9013310617147219,1,0.999830
0.9109023466730334,1,0.999569
0.8920448630494665,1,0.999906
0.9195114368827066,1,0.999904
0.9181783248267227,1,0.999909
0.9071309110905434,1,0.999648
0.8927014345655427,1,0.999904
0.8962806826374825,1,0.999914
0.9180064446802242,1,0.999919
0.9181233012039647,1,0.999914
0.9178209202832349,1,0.999910
0.8936437016642452,1,0.999916
0.8729824627593968,1,0.999788
0.8591535903942935,1,0.999912
0.8613326415179691,1,0.999911
0.908175782470116,1,0.999897
0.8722323697177273,1,0.999908
0.9030850300640433,1,0.999906
0.873708511460617,1,0.999911
0.8742234242259859,1,0.999533
0.9065449579906594,0,0.983854
0.8806152121016303,1,0.999893
0.8798595783840402,1,0.999906
0.9273567483847747,1,0.999913
0.8862192467812355,1,0.999632
0.9114042044223599,1,0.999922
0.9004210670950125,1,0.999837
0.8756599376830869,0,0.999041
0.8604530695922586,1,0.999840
0.8703301909143132,1,0.999626
0.8619288518344609,1,0.999267
0.8613428205013566,0,0.998270
0.9039461433564965,1,0.999922
0.8392956252413223,0,0.998307
0.8845308955333351,1,0.999926
0.8627312972615,1,0.999929
0.9156811348940079,1,0.999913
0.8723536293960686,1,0.999904
0.8227801477140502,1,0.999833
0.9057748721495879,1,0.999775
0.8075426595667691,0,0.999023
0.9049364474586464,0,0.998074
0.9295572155778521,1,0.999921
0.892631462324732,1,0.999753
0.8987210028240864,1,0.999928
0.8972037029946816,1,0.999662
0.8883178908076089,1,0.999918
0.8950565238433991,1,0.999904
0.9190004816116815,1,0.999751
0.8922971889996097,1,0.999832
0.9003739625006778,1,0.999915
0.9211562664444506,1,0.999500
0.8898837907744974,1,0.999928
0.8617387093044908,1,0.999929
0.9221944656156837,1,0.999674
0.911097167951537,1,0.999675
0.9244387891611822,1,0.999914
0.8887099155518441,1,0.999898
0.8929080535089722,1,0.999890
0.8908454800982786,1,0.999640
0.9084494397019597,1,0.999913
0.9044994185682184,1,0.999794
0.9103884684944951,1,0.999894
0.847466490620017,1,0.999918
0.9196528470711577,0,0.997153
0.8904504327043464,1,0.999822
0.8468102357504558,1,0.999674
0.8638115652293958,1,0.999837
0.90510638513693,1,0.999831
0.8899811341104147,1,0.999840
0.8916502754116772,1,0.999912
0.8466719764187824,1,0.999919
0.8876587036448226,1,0.999842
0.9237138172253807,1,0.999830
0.8807150376293975,0,0.997264
0.8915316672264144,1,0.999620
0.8829684713457897,1,0.999922
0.888207056103457,1,0.999922
0.899022673360857,1,0.999926
0.8765448003867601,1,0.999751
0.9265487614572877,1,0.999760
0.8846187108772537,0,0.980710
0.915500221522299,1,0.999809
0.9054552919605903,1,0.999808
0.9179672236549373,1,0.999920
0.8986851357729638,1,0.999730
0.9263689228004259,1,0.999902
0.9159051935726132,1,0.999928
0.8818592867905274,1,0.999922
0.8302316267806155,1,0.999488
0.8856096972026111,1,0.999926
0.9024154905563884,1,0.999907
0.8876787188782255,1,0.999912
0.9059200455193747,1,0.999916
0.9136863008134254,1,0.999711
0.8957443862804215,1,0.999919
0.840684740480034,1,0.999918
0.8815237275065695,1,0.999607
0.9057164036635691,1,0.999908
0.8684553716189576,0,0.998994
0.8823395605419418,1,0.999912
0.861843017687733,0,0.996700
0.8666179765835325,1,0.999931
0.8540056672170115,1,0.999580
0.8891960400470241,1,0.999900
0.8037655643735644,1,0.999762
0.8826668203569796,1,0.999841
0.8765803722617381,1,0.999829
0.8967703848725552,1,0.999832
0.875436620181378,1,0.999659
0.8868218414362138,1,0.999787
0.9080388475652464,1,0.999924
0.8831596000351185,1,0.999754
0.9014614360110476,1,0.999912
0.8918376560328215,1,0.999922
0.8873172050850758,1,0.999824
0.9070055823271524,1,0.999923
0.8428356447761666,1,0.999925
0.8969971109764242,1,0.999855
0.883393982646371,1,0.999911
0.8677927736019915,1,0.999910
0.8609419816998342,1,0.999833
0.8964939709129113,1,0.999905
0.9391088006789233,1,0.999921
0.8398164943761252,1,0.999927
0.8068059800533676,1,0.999298
0.8553071269294368,1,0.999860
0.8949459348759434,1,0.999919
0.861543279222683,1,0.999844
0.9077900125382282,0,0.998555
0.9247404132480023,1,0.999911
0.9139027852808853,0,0.999092
0.8631202764124379,1,0.999922
0.8562852134412072,0,0.981262
0.9297001704178047,1,0.999600
0.9456770934433688,1,0.999915
0.919632383920329,1,0.999918
0.8484654036183773,1,0.999920
0.922335488616815,0,0.998784
0.9097229202127347,1,0.999816
0.8649799845933323,0,0.968249
0.8794609840699138,1,0.999915
0.8929538955680877,1,0.999922
0.8836863246828649,1,0.999911
0.8718629547572586,1,0.999913
0.8115810480561725,1,0.999739
0.9130974556509986,1,0.999923
0.8709295286702157,1,0.999923
0.8801816885050149,1,0.999763
0.8974246716750444,1,0.999128
0.9136665781766362,1,0.999597
0.8659666896560937,1,0.999723
0.8866913985307951,1,0.999921
0.8895577211577405,1,0.999916
0.9243424540969677,1,0.999913
0.878574566118299,1,0.999915
0.9118871649409903,1,0.999197
0.8923258573523898,0,0.989862
0.9175982412127148,1,0.999908
0.9070050165367538,1,0.999772
0.8881229120977505,1,0.999817
0.8696827073246417,1,0.999927
0.8925190563135346,1,0.999929
0.9141860897348189,1,0.999930
0.9126038004921389,1,0.999855
0.8816233790628004,1,0.999925
0.8696694187054428,1,0.999921
0.8753834202196148,0,0.999033
0.9036245614323061,0,0.998286
0.8541377886515654,1,0.999717
0.8819748100793805,1,0.999616
0.8310052048359372,1,0.999748
0.8738027278046719,1,0.999786
0.7833173731371722,1,0.999681
0.8296663027948635,1,0.999843
0.8951593949586412,0,0.997445
0.8953081767711092,1,0.999835
0.9310888414822973,1,0.999513
0.9006341564254519,1,0.999839
0.8478570795350656,1,0.999846
0.8847452675558297,1,0.999444
0.8941563384957197,1,0.999920
0.8784253264778799,1,0.999911
0.8565702722486126,1,0.999913
0.8405357209698686,1,0.999924
0.9008514609970781,1,0.999911
0.8942244725608723,1,0.999917
0.8658461171923186,0,0.993402
0.8928380508077408,1,0.999914
0.9122360594858129,1,0.999914
0.9452305541330831,1,0.999662
0.8862603270360128,1,0.999826
0.8755303706357331,0,0.998622
0.8476365925787349,0,0.997438
0.8781854428182657,0,0.997835
0.8132054585198849,1,0.999920
0.8195725192747126,1,0.999921
0.8942076092128962,1,0.999916
0.9130934857428468,1,0.999920
0.8970661083596645,1,0.999918
0.905651393122792,1,0.999844
0.908311258889764,1,0.999909
0.8641281840682012,1,0.999773
0.8882621430174045,1,0.999919
0.8543271777687993,1,0.999921
0.8257087357511186,1,0.999115
0.855829820838991,1,0.999329
0.8967920970604122,1,0.999757
0.9166651959079504,1,0.999911
0.9021931078100607,0,0.990225
0.8953077715780506,1,0.999914
0.895979483093353,1,0.999925
0.8814472051600253,1,0.999766
0.8650460824586824,1,0.999840
0.8649411599440298,1,0.999528
0.8617726369106358,1,0.999924
0.8960077279726394,1,0.999705
0.908960803689839,1,0.999843
0.8757338904728142,0,0.998036
0.9106432649731463,0,0.997551
0.8900573063329896,1,0.999930
0.914108470646788,1,0.999920
0.912979659410924,0,0.998096
0.9179502352266786,1,0.999632
0.8843741162876699,1,0.999916
0.9134780405912531,1,0.999923
0.8803842476028438,1,0.999845
0.8872389448878203,1,0.999685
0.8695001429918926,1,0.999540
0.8649488780975484,1,0.999772
0.8692316873982491,0,0.997308
0.8991924041097343,1,0.999829
0.8196486130847304,1,0.999843
0.8903076264575736,0,0.998889
0.8862720237174619,1,0.999918
0.8761125377259396,1,0.999783
0.8700216005861373,0,0.998526
0.8607053294916862,0,0.998731
0.8653633795083621,1,0.999920
0.8690891820457021,1,0.999837
0.877013017481216,1,0.999605
0.8871226796818462,0,0.996517
0.8720692168445832,1,0.999911
0.8679290225759142,1,0.999841
0.8295650835264334,1,0.999912
0.8680531366918871,1,0.999758
0.8591591205543696,1,0.999846
0.897201381261525,0,0.995563
0.8809815866581788,1,0.999750
0.908053227685255,1,0.999918
0.8883246907427651,1,0.999267
0.893669939220191,1,0.999297
0.8625986478270613,1,0.999904
0.8582248953273247,1,0.999826
0.8628143549284344,1,0.999844
0.8542598846008942,1,0.999747
0.8626879552591966,1,0.999903
0.8890813169409909,1,0.999927
0.8675786259238056,1,0.999925
0.8528182959488747,1,0.999850
0.8858235987363456,1,0.999775
0.9280616566103519,1,0.999853
0.8704032927550102,1,0.999852
0.8906153786048258,1,0.999917
0.8975955572101185,1,0.999924
0.8638261025663989,1,0.999919
0.8997990807086523,1,0.999917
0.8745813788802341,1,0.999928
0.8438823855847739,1,0.999926
0.7948554407566003,1,0.999716
0.8563976450689584,1,0.999469
0.8510449599677838,1,0.999843
0.8836230850304057,1,0.999928
0.8582184020730602,1,0.999678
0.8921780051415911,1,0.999816
0.8637177335525746,1,0.999525
0.8612207893039835,1,0.999923
0.8981767575012325,1,0.999929
0.9201555763335335,0,0.993447
0.876942659896644,0,0.998236
0.8626932495179119,0,0.994019
0.8815741198523801,1,0.999927
0.92150084931098,1,0.999927
0.8596349181363243,0,0.998960
0.8741223702250338,1,0.999909
0.8686955312852116,1,0.999916
0.8317699594834789,0,0.998926
0.847260896865808,0,0.996076
0.8325836305256126,0,0.996421
0.8664004452834541,0,0.998847
0.8515562552947701,1,0.999928
0.8982227193928236,1,0.999548
0.9201190708724646,1,0.999909
0.9203187559343642,1,0.999913
0.921333682052023,1,0.999914
0.8585476912779068,1,0.999545
0.8607033475873932,1,0.999906
0.9230916007128368,1,0.999434
0.9193733188724776,1,0.999304
0.9112237418797677,1,0.999744
0.9327102366082897,0,0.995144
0.9265757347775659,1,0.999673
0.8450701789670754,1,0.999808
0.8624312993848368,1,0.999921
0.8609830217388945,1,0.999917
0.850502838928933,1,0.999669
0.8751230828765096,1,0.999840
0.9098065637921919,1,0.999911
0.8821967298942052,1,0.999933
0.8552689783825859,1,0.999914
0.8966671314994263,1,0.999850
0.8627915044126808,1,0.999926
0.8437327180181919,1,0.999928
0.887255149529252,1,0.999859
0.8427987160137608,1,0.999421
0.8728217944721979,1,0.999836
0.8189844149076152,1,0.999927
0.8231696580123409,1,0.999917
0.8390203336370698,1,0.999928
0.9235859243667799,1,0.999919
0.8969352445877465,1,0.999357
0.9006683948920703,1,0.999920
0.8864880854633587,1,0.999928
0.8549935364574468,1,0.999739
0.8448210970515854,1,0.999915
0.869845625501803,1,0.999913
0.886475689263401,1,0.999455
0.8952522807727227,1,0.999431
0.8598816342922204,0,0.997185
0.8731420699719433,1,0.999731
0.8901000078830652,1,0.999912
0.8867194134494751,1,0.999691
0.8777568432260585,1,0.999907
0.8324242970240397,1,0.999919
0.8743399512045034,1,0.999908
0.898633788940076,0,0.998818
0.9069783226703622,1,0.999839
0.9296603636146178,1,0.999927
0.874486431831635,1,0.999922
0.9136882454955985,1,0.999451
0.9189479219763905,1,0.999921
0.9006827837894572,1,0.999911
0.8665051101024733,0,0.998992
0.9159919146586816,1,0.999825
0.9227282593026911,1,0.999922
0.9220311997963041,1,0.999813
0.8642935549608087,1,0.999526
0.9178411948651879,1,0.999903
0.8746044725214394,1,0.999917
0.8449727268341585,0,0.998145
0.9131425431045058,1,0.999919
0.8682433177016827,1,0.999830
0.9135974117644178,1,0.999829
0.9206598139728087,0,0.997305
0.8736732133780579,1,0.999916
0.8788787118846558,1,0.999732
0.9174584575797432,1,0.999830
0.9069347747759985,1,0.999914
0.8917650097174574,1,0.999917
0.8998563237522892,1,0.999726
0.8682512187976178,1,0.999918
0.8755326582199152,0,0.998331
0.9064146570387595,1,0.999509
0.8690351878234204,1,0.999393
0.8935038229638724,1,0.999906
0.8764290792984292,1,0.999828
0.9005087513984111,1,0.999822
0.8896294774666904,1,0.999925
0.8992126944692065,0,0.998764
0.8945949323057715,1,0.999913
0.8898238182757888,1,0.999732
0.8935230853704184,1,0.999832
0.8680692474246512,1,0.999828
0.8421493447160436,1,0.999379
0.9057463372547513,1,0.999645
0.903616810321795,1,0.999726
0.8763089901552564,1,0.999403
0.8983764040633951,1,0.999731
0.9045287018717983,1,0.999910
0.8980864654199806,1,0.999501
0.9143573912010754,1,0.999805
0.8679093118241374,1,0.999923
0.9080701172710637,1,0.999913
0.8751991623901658,1,0.999595
0.8963199032027747,1,0.999915
0.9108683513325749,1,0.999795
0.915253364706469,1,0.999743
0.8896125016959758,1,0.999274
0.9214513388451882,1,0.999921
0.8640802402924297,1,0.999914
0.8876781560287903,0,0.999043
0.8722856322089635,1,0.999914
0.8636706998880899,0,0.997515
0.9200497226792873,1,0.999636
0.9116851651978299,1,0.999614
0.887242246644942,1,0.999918
0.9294413312603783,1,0.999911
0.8783365146011147,0,0.998146
0.8780605148102778,0,0.998983
0.8922488991054548,1,0.999918
0.8575273001436303,1,0.999773
0.8810169241982937,1,0.999923
0.844280739760488,1,0.999596
0.8371010488697449,1,0.999917
0.8902594307525732,1,0.999840
0.8703699605553402,1,0.999911
0.8635437145006838,1,0.999922
0.8938297936888122,1,0.999896
0.9098100423645124,1,0.999720
0.9224888097484308,1,0.999907
0.8604708321575385,1,0.999452
0.9028748338229203,1,0.999914
0.9094251926311978,1,0.999919
0.8841054569276611,1,0.999913
0.9039357325632315,1,0.999915
0.8693642533721342,1,0.999737
0.8793881107248742,1,0.999915
0.8749687105740354,1,0.999911
0.8709469486189128,0,0.991647
0.9012272039959162,1,0.999934
0.8465485809800751,1,0.999832
0.9224972135118497,0,0.999112
0.8567774138812928,1,0.999906
0.8747798427763747,1,0.999926
0.8734251035485195,1,0.999610
0.8453152585021424,1,0.999260
0.8533952076183314,1,0.999915
0.9109785264678264,1,0.999913
0.8828463873578832,1,0.999920
0.8652105449228451,1,0.999836
0.861395800371908,1,0.999855
0.8876233084232299,1,0.999843
0.8713089333971367,1,0.999815
0.8699326946460949,1,0.999919
0.8903900692791425,1,0.999716
0.8594883358188778,1,0.999616
0.8465149529060747,1,0.999926
0.8665780186397727,1,0.999923
0.8976934697457173,1,0.999481
0.8736411749431274,1,0.999920
0.8731598479332555,1,0.999844
0.8586975622863322,1,0.999827
0.8971333909105713,0,0.999058
0.886038974117061,1,0.999921
0.8824528409863285,1,0.999755
0.9078409969899325,1,0.999525
0.8859371917859269,1,0.999608
0.9037733344320379,0,0.998467
0.8286690691358808,1,0.999685
0.8630348606110492,1,0.999904
0.8567246245755558,1,0.999846
0.8453789584715352,1,0.999668
0.8280628065675889,1,0.999662
0.8921270167378659,1,0.999924
0.8865243947597203,1,0.999714
0.9055068321070542,1,0.999637
0.8712795843733028,1,0.999928
0.9242409694366701,1,0.999928
0.8574685464519064,0,0.996781
0.8718252469188832,1,0.999916
0.8607449604815226,1,0.999734
0.8171359639990546,1,0.999916
0.8862658561253327,1,0.999916
0.8580010956889309,1,0.999385
0.873978549140956,1,0.999288
0.9041796533647923,1,0.999922
0.8169885698107285,1,0.999919
0.803110513050159,0,0.998321
0.8543617577674166,1,0.999399
0.9099840742948732,1,0.999927
0.8844549981079739,0,0.999132
0.877265390637616,1,0.999923
0.8979575734660917,1,0.999810
0.8731395299543079,1,0.999656
0.82720192983788,1,0.999917
0.9183464544905556,1,0.999901
0.9338547220173417,1,0.999917
0.8967508611751532,1,0.999812
0.9059001158256561,1,0.999906
0.9100204908988848,1,0.999915
0.9275559662591735,1,0.999903
0.9187460564034324,1,0.999915
0.9382008580024103,1,0.999828
0.918849896547606,1,0.999918
0.8539703964213807,1,0.999914
0.8874846574453665,1,0.999918
0.9079267175010968,1,0.999726
0.8706042607335931,1,0.999917
0.9103395847198051,1,0.999920
0.8869699489905809,1,0.999842
0.8860144146201556,1,0.999920
0.8679170269309439,0,0.998096
0.8734628244953975,1,0.999796
0.8939330048490273,1,0.999751
0.8614496239866309,1,0.999928
0.7981078055650633,1,0.999922
0.903633767050547,1,0.999651
0.920506890397514,1,0.999843
0.8393892781245855,1,0.999535
0.9044749751850241,1,0.999918
0.8830096560325126,1,0.999927
0.8928136100272542,1,0.999905
0.8638544813250889,1,0.999923
0.8312721087364479,1,0.999611
0.8494950275012552,1,0.999920
0.8517570038601501,1,0.999919
0.8978261451095132,1,0.999859
0.8494842551720849,1,0.999925
0.8915628290552755,1,0.999602
0.9089365987976511,1,0.999838
0.8615465189189153,1,0.999924
0.8677912624520235,1,0.999903
0.8625762792078603,0,0.998530
0.856347069988058,1,0.999926
0.8573926819827833,1,0.999920
0.8534885226618089,1,0.999912
0.8661398956930296,1,0.999859
0.8264481990352394,1,0.999920
0.8665479572843682,1,0.999927
0.8447369920389212,1,0.999715
0.8692731066663575,1,0.999677
0.8795181055019252,1,0.999588
0.8734025339946933,1,0.999827
0.8544069852780435,1,0.999922
0.856786856907039,0,0.998984
0.8753470582392431,1,0.999684
0.8765373910396818,1,0.999770
0.8755727017098824,0,0.997229
0.8972027500888307,1,0.999815
0.8986799931281438,1,0.999220
0.9193896851615682,0,0.998042
0.9147802131645498,1,0.999816
0.8951152450533931,1,0.999924
0.8547841028930234,0,0.997126
0.8998356261606769,1,0.999919
0.8738395712082752,1,0.999914
0.9081875568818324,1,0.999910
0.8566854202771575,0,0.991759
0.8669341662003901,1,0.999917
0.8823569685021598,1,0.999679
0.8985822770079367,1,0.999283
0.8474249885858486,1,0.999824
0.8739124557697173,1,0.999915
0.7914236827386826,1,0.999921
0.8859585671346125,1,0.999919
0.8816593571622116,1,0.999513
0.8088034065373798,1,0.999163
0.855217063589152,1,0.999358
0.9013948873318061,1,0.999918
0.8157807576190792,1,0.999855
0.8278604710201863,0,0.998489
0.7867721568926561,1,0.999923
0.8865501941841264,1,0.999918
0.8802779404566234,1,0.999419
0.879589636952828,1,0.999926
0.9255929773891871,1,0.999917
0.8507739931566979,0,0.997297
0.891998023178868,1,0.999905
0.8828719796912285,1,0.999904
0.8583835020181197,1,0.999837
0.8972045221043865,1,0.999227
0.8530208135477161,1,0.999566
0.8935988351180895,1,0.999743
0.9279967410432687,1,0.999840
0.8793678775806153,1,0.999782
0.8560955459817857,1,0.999918
0.883052649473837,1,0.999917
0.8733066275186452,1,0.999819
0.8553264986016318,1,0.999921
0.8528811790556918,1,0.999772
0.887109265823696,1,0.999917
0.8560713928107301,1,0.999930
0.8559292189724508,1,0.999587
0.898654058938958,1,0.999905
0.8786650549407559,1,0.999931
0.860830247091735,1,0.999921
0.8397204974673563,1,0.999930
0.8646129022390951,1,0.999757
0.8689475050171636,1,0.999931
0.8655890166692463,1,0.999859
0.8385338394915881,1,0.999773
0.9197448035633976,1,0.999911
0.9305819062440052,1,0.999913
0.8979981567993738,1,0.999623
0.9061736506823533,1,0.999918
0.9218334964606838,1,0.999920
0.8839195363943789,1,0.999818
0.87061895582979,1,0.999813
0.8401732573868622,1,0.999848
0.8678539343502206,1,0.999917
0.8848651605675683,1,0.999925
0.8629505896809416,1,0.999907
0.8987956305278254,1,0.999925
0.8891413305323634,0,0.998737
0.8639327600243384,1,0.999917
0.9012602300577773,1,0.999656
0.9014976340779808,1,0.999630
0.882240450323833,1,0.999915
0.7901953252807947,1,0.999923
0.8712638573617844,1,0.999851
0.8997603184069266,1,0.999920
0.8896888709974479,1,0.999833
0.8697953575459908,1,0.999386
0.8451174160989894,1,0.999835
0.9088806263575918,1,0.999906
0.8793980160539352,1,0.999826
0.8890424363595627,1,0.999916
0.8787668087993604,1,0.999741
0.8636035731976266,1,0.999923
0.8784937642762927,1,0.999923
0.8757048973931463,0,0.995327
0.9098385329685601,1,0.999919
0.8834449449844379,1,0.999902
0.8976460325826175,1,0.999624
0.8162855095632712,1,0.999926
0.8810146897819201,1,0.999908
0.8527831020907355,1,0.999926
0.850977577941093,1,0.999931
0.8543489471601426,1,0.999932
0.8415687991498563,1,0.999602
0.8939587741450328,1,0.999927
0.8552322341894165,0,0.999055
0.8841491678229825,0,0.994874
0.8965014895231714,1,0.999613
0.9330862789037305,1,0.999923
0.8723690315955022,1,0.999845
0.881560723967461,1,0.999751
0.8755406176733205,0,0.996382
0.869152597085268,0,0.997140
0.9171381472844532,1,0.999915
0.8826311732035432,1,0.999921
0.8886218189898998,1,0.999918
0.9195135715693197,0,0.994510
0.8514333895982716,1,0.999923
0.8618595253072586,1,0.999847
0.8671323728309931,1,0.999922
0.8776736889293308,1,0.999405
0.890212801176565,1,0.999164
0.9302701993999081,1,0.999906
0.8933060262760931,1,0.999915
0.8107976288722054,0,0.997664
0.8907906993347827,1,0.999751
0.8732020341797403,1,0.999923
0.8770505741396732,1,0.999681
0.9133596013181311,1,0.999917
0.8873477324038613,1,0.999917
0.8988061710965156,1,0.999920
0.8231258274517016,1,0.999356
0.8265288827155703,1,0.999904
0.8994618870329334,1,0.999908
0.8801745051330037,1,0.999906
0.9081833062047707,1,0.999906
0.8955264481787767,1,0.999829
0.9021023311982104,0,0.997151
0.9187897157690487,1,0.999177
0.9024517930175143,1,0.999922
0.8881515247576807,1,0.999912
0.9127472278760047,1,0.999914
0.9111494595549138,1,0.999446
0.8653034228870391,1,0.999740
0.8939147367186508,1,0.999921
0.8581608637874834,1,0.999918
0.9098302490682092,1,0.999905
0.9201359361523604,1,0.999849
0.8659036130725856,1,0.999599
0.8845979870154361,1,0.999928
0.875411913412216,1,0.999921
0.9001486250833466,1,0.999928
0.9121564736154372,1,0.999920
0.8576764496810656,0,0.980277
0.9200257456955437,1,0.999755
0.9136851767844212,0,0.997219
0.8604727664105237,1,0.999920
0.9146264298442789,1,0.999924
0.8629557796144568,1,0.999755
0.894286195874975,1,0.999839
0.9178854998380198,1,0.999922
0.8788488238167403,1,0.999909
0.7884958484565857,0,0.998395
0.9133519978827216,1,0.999924
0.8592727784087948,1,0.999857
0.8337965944679366,1,0.999731
0.8804378780592392,1,0.999724
0.8236771183837717,1,0.999932
0.8582388588331453,1,0.999854
0.8984843231415606,1,0.999434
0.8988790324130287,0,0.998716
0.9209133114095385,1,0.999926
0.8822736835554351,1,0.999286
0.8840833883986497,1,0.999930
0.9008352384537073,0,0.998931
0.8948583338466015,1,0.999841
0.8747155493491625,1,0.999920
0.9043645139547273,1,0.999588
0.8930673245603054,1,0.999921
0.9469892694755646,1,0.999922
0.8892214891288265,1,0.999766
0.825448560720119,1,0.999915
0.8648666069679879,1,0.999333
0.840253241225595,0,0.998177
0.8766901728864726,1,0.999926
0.8531709093971728,0,0.981361
0.8877680857486983,1,0.999800
0.8684247105126346,1,0.999921
0.8820883987072451,1,0.999912
0.8787722772305866,1,0.999914
0.8706755382179373,1,0.999924
0.8757609297317934,1,0.999924
0.914522377545608,1,0.999879
0.914411484690143,1,0.999658
0.8841119676719764,1,0.999909
0.8949578437892259,1,0.999922
0.8833843955027078,1,0.999897
0.9053292179842654,1,0.999915
0.9024648591727239,1,0.999911
0.8993328212219166,1,0.999911
0.9040433206703696,1,0.999921
0.9136836158867169,0,0.998163
0.9256069817645239,1,0.999770
0.9232343200006903,1,0.999906
0.9398221833870044,1,0.999910
0.8577345985777113,1,0.999207
0.8794838660921317,1,0.999838
0.8907699639909451,0,0.976755
0.8827817060614669,1,0.999923
0.9043906194866412,1,0.999909
0.8889415117814998,1,0.999241
0.8686126263361021,1,0.999931
0.8519830474809256,1,0.999929
0.9238345218089309,1,0.999915
0.8702639920197974,1,0.999693
0.8645384165208242,1,0.999922
0.8643572627550258,1,0.999919
0.8879253671408206,0,0.997508
0.8837475167703424,1,0.999603
0.8338995014565782,1,0.999785
0.823010941238533,1,0.999861
0.8393934092675401,1,0.999921
0.8657162629725303,1,0.999920
0.8862220565262875,1,0.999925
0.8675345503144358,1,0.999917
0.8404649106407102,1,0.999256
0.8404040260931055,1,0.999838
0.9201608882698578,1,0.999196
0.8922859789758335,1,0.999739
0.9064600918765998,1,0.999927
0.9126057829060465,1,0.999924
0.8982125176752561,0,0.998590
0.8641721113932354,1,0.999930
0.9023140035244356,1,0.999925
0.8989130949622942,1,0.999909
0.9187359608288438,1,0.999918
0.9170515483968585,1,0.999920
0.9124660679082378,1,0.999689
0.9109865176368115,1,0.999339
0.895563023415597,0,0.999084
0.9288902082430454,1,0.999639
0.9264924169067337,1,0.999785
0.899996530701234,1,0.999663
0.9403424321486576,1,0.999835
0.929449667871453,1,0.999928
0.8584831462932284,1,0.999920
0.9046398020417427,1,0.999913
0.8952120422853006,0,0.991947
0.9077470040627441,1,0.999921
0.8643764331948073,1,0.999913
0.8917800746639741,1,0.999686
0.9270441119636107,1,0.999918
0.9155444588799699,1,0.999633
0.902593944988045,1,0.999840
0.925263207492179,1,0.999925
0.8830959578279508,1,0.999856
0.9080081811793442,1,0.999920
0.8933311951207227,1,0.999673
0.8673659212027064,1,0.999715
0.8810696348653511,1,0.999921
0.8761771474125006,1,0.999671
0.9160564113806418,1,0.999921
0.9055776240116451,1,0.999905
0.9135391146080823,1,0.999909
0.9159543758053166,0,0.996728
0.9255332218928413,1,0.999643
0.9127879489877718,1,0.999907
0.8956806619601952,1,0.999821
0.8897320734220435,1,0.999817
0.8965067829264232,1,0.999920
0.8894328529726803,1,0.999844
0.9079109884255826,0,0.997425
0.86026758035391,0,0.992915
0.8727505637162548,1,0.999847
0.8833403315934605,0,0.974355
0.9118135745540015,1,0.999689
0.9382368712103233,1,0.999843
0.8769397993858304,1,0.999738
0.8889456109719943,1,0.999920
0.8826444829206217,1,0.999915
0.8351485855996053,1,0.999914
0.9069556881967099,1,0.999609
0.8423589072592786,1,0.999918
0.894272130052388,1,0.999920
0.9028578076730898,0,0.998194
0.8993898083285672,1,0.999472
0.924609865820159,1,0.999804
0.9359794642644262,1,0.999583
0.8781105012648137,1,0.999821
0.8922712004279197,1,0.999830
0.9088573159000901,1,0.999913
0.9179903087527015,1,0.999655
0.941654312793178,1,0.999908
0.933381839850928,1,0.999108
0.9134246233879367,1,0.999832
0.8530315297890642,0,0.995799
0.8235843862985618,0,0.997854
0.8878602666462017,1,0.999441
0.8977393143510874,0,0.997511
0.876345988653997,0,0.994780
0.9075475576360903,1,0.999901
0.8514437652173111,1,0.999915
0.8531660415589212,1,0.999917
0.8867269818214446,1,0.999918
0.8759576350487451,1,0.999839
0.8744899033106273,1,0.999824
0.8771321505012051,1,0.999752
0.8955817755532943,1,0.999515
0.8155502093583379,1,0.999848
0.8870857850414581,0,0.995904
0.8799366893142911,0,0.978432
0.8287534575737376,1,0.999929
0.899114691822636,1,0.999847
0.9192568166424503,1,0.999406
0.8800193410596631,1,0.999924
0.8167412143633015,1,0.999932
0.881751410858425,1,0.999923
0.9057144199874172,1,0.999915
0.8152563322808715,1,0.999928
0.851164587656692,1,0.999931
0.8772921446085189,1,0.999519
0.9012820459877696,1,0.999782
0.8223486977680231,1,0.999434
0.8211679909666364,1,0.999685
0.839436149985159,0,0.998684
0.9500396751173021,1,0.999920
0.8992437865010424,1,0.999712
0.8921364794188616,1,0.999912
0.9056736731457572,1,0.999930
0.8850386154419333,1,0.999932
0.8633130361232537,1,0.999911
0.8632567352064441,1,0.999919
0.9273298968643028,1,0.999915
0.888809519403193,1,0.999915
0.8818051424930048,1,0.999919
0.9360451092596088,1,0.999514
0.9282646659830539,1,0.999919
0.8651016992603614,1,0.999931
0.8888990926223497,1,0.999919
0.9098107079647134,1,0.999921
0.911693951537435,1,0.999921
0.8956212011097128,1,0.999614
0.9142246674421041,1,0.999913
0.9078893549269527,1,0.999834
0.9072507278716766,1,0.999834
0.9202353968360595,1,0.999929
0.9070347735569663,0,0.998839
0.8957063228784586,1,0.999928
0.9153545890605376,0,0.998864
0.8932065172061454,1,0.999914
0.9064454289717616,1,0.999845
0.8664440881377505,1,0.999762
0.8203697259062752,1,0.999922
0.8382976958212782,1,0.999922
0.9468007987541474,1,0.999656
0.8944577844829136,1,0.999859
0.9002723779813252,1,0.999919
0.9353760006879352,1,0.999927
0.8788775014848393,1,0.999837
0.8832702343609677,1,0.999913
0.9246798374001673,1,0.999915
0.9336745195702213,1,0.999911
0.9265682268975335,1,0.999272
0.934301299633945,1,0.999816
0.9147578424156068,1,0.999375
0.8448703692737993,1,0.999921
0.8877114186966617,1,0.999909
0.8832801800832615,1,0.999668
0.9164608474464907,0,0.996589
0.9255216736150481,1,0.999916
0.8703696164114768,1,0.999834
0.8746207131896812,1,0.999736
0.888929738918178,1,0.999927
0.8477222175803304,1,0.999924
0.8549999696968983,1,0.999931
0.9220792212100026,1,0.999926
0.8639739281731039,1,0.999918
0.8654011073722986,1,0.999474
0.8800477776440045,1,0.999548
0.9199142805748953,1,0.999816
0.8614425285441021,1,0.999836
0.9007930749075628,1,0.999820
0.8949462644666479,1,0.999920
0.880895102864164,1,0.999920
0.8192028230265651,1,0.999920
0.8953989529892252,1,0.999839
0.816912375288938,0,0.992220
0.8793135659331522,1,0.999928
0.889135539568814,1,0.999836
0.8741897582622886,1,0.999397
0.8979505216774611,1,0.999615
0.9112713271744611,1,0.999907
0.8756912112657731,1,0.999745
0.8577730245594827,1,0.999827
0.8685642180967261,1,0.999929
0.8915773448822488,1,0.999915
0.8606883775885429,1,0.999926
0.8810848652854987,1,0.999526
0.8653104841596586,0,0.996338
0.9387398529202473,1,0.999904
0.8876988018350804,1,0.999913
0.8355886215728382,1,0.999929
0.8543140268225534,1,0.999539
0.8797707554926095,1,0.999164
0.863020352693849,0,0.998584
0.8951066494314348,1,0.999927
0.9184038434762627,1,0.999833
0.8577852559814568,1,0.999851
0.8565363824258302,1,0.999392
0.8791472990465163,1,0.999917
0.9057179884136379,1,0.999915
0.8841324461633595,1,0.999907
0.8643160527783804,1,0.999913
0.8354982201388094,0,0.998301
0.8687711000768076,1,0.999924
0.9223516947105427,1,0.999926
0.8837393786737604,1,0.999917
0.8614819977058623,1,0.999862
0.9286948044725928,1,0.999227
0.8763933005962806,1,0.999758
0.8581478366319285,1,0.999916
0.8638087159637882,1,0.999917
0.8803676705176637,0,0.975544
0.8239743688978274,1,0.999932
0.9047213706947935,1,0.999835
0.8735267775857519,1,0.999538
0.8982062248219581,1,0.999918
0.9018071558849877,1,0.999925
0.8987425521304379,1,0.999918
0.8783284929652025,1,0.999924
0.9125062079989448,1,0.999921
0.8455359251911956,1,0.999783
0.8625749961712631,1,0.999834
0.8359503424901937,1,0.999439
0.8886187003474182,1,0.999421
0.8578449388715103,1,0.999928
0.8470999061243037,1,0.999624
0.8906900542100684,1,0.999914
0.805028039664522,1,0.999918
0.8284595379927586,0,0.998754
0.8883923336208938,1,0.999912
0.9277177523705189,1,0.999914
0.9122347760252972,1,0.999807
0.8744498084504934,1,0.999917
0.9374174339868436,0,0.997955
0.940617528937685,1,0.999358
0.8858917445115329,1,0.999846
0.8680195697550726,1,0.999362
0.8626417736574661,1,0.999916
0.8135918195782768,1,0.999531
0.8296710413350732,1,0.999191
0.7962751876091193,1,0.999922
0.8806489251151305,1,0.999920
0.8389288646897867,1,0.999928
0.8454973244716051,0,0.999000
0.9261963790728989,1,0.999895
0.8999069997226137,1,0.999922
0.9158959119505543,1,0.999852
0.8948255012725208,1,0.999930
0.8915028415581975,1,0.999925
0.8515279351018078,1,0.999771
0.8458341508786702,1,0.999836
0.8383118945185309,1,0.999919
0.8899944772647275,1,0.999919
0.8318870901419787,1,0.999915
0.8263091063485264,1,0.999930
0.872133208444588,1,0.999925
0.9227850051297457,0,0.998463
0.8812062407962026,0,0.999002
0.8891354656145354,1,0.999918
0.8171440230254643,1,0.999922
0.9101277945598523,1,0.999917
0.937918387417991,1,0.999920
0.867181520699651,1,0.999842
0.9168384120995735,1,0.999844
0.881827449751028,0,0.998501
0.8716376901972683,1,0.999897
0.8836198507956924,1,0.999758
0.8786663928010714,1,0.999927
0.8712496960073318,1,0.999901
0.9281691710789051,1,0.999388
0.9130830404838126,1,0.999726
0.8936193629534142,1,0.999570
0.8804241738913299,1,0.999394
0.8530854736054949,1,0.999838
0.860711604344067,1,0.999652
0.8899205323066226,0,0.996066
0.9139099264838346,1,0.999746
0.9253043070198554,0,0.998740
0.862225170372812,1,0.999717
0.8764156794084688,0,0.992527
0.9005987195925275,0,0.999074
0.911757085536315,1,0.999919
0.8538315214802652,1,0.999768
0.859763817225776,1,0.999836
0.8910633636587485,0,0.997050
0.8918394483733413,0,0.994421
0.8987788446198142,1,0.999915
0.8916664495188509,1,0.999925
0.8829043807618485,1,0.999917
0.8680299580872477,1,0.999930
0.8806850901757783,1,0.999743
0.886368903650727,1,0.999855
0.8897601573036372,1,0.999787
0.8847341851383248,0,0.998976
0.8837993943601062,1,0.999920
0.8626662697224443,1,0.999681
0.8616734193962308,1,0.999918
0.9041980062710437,1,0.999909
0.8294801896630818,0,0.977810
0.8851068169579862,0,0.998650
0.8663243873734569,1,0.999914
0.8943086398957749,1,0.999918
0.8582044081362743,1,0.999769
0.8490819936578121,1,0.999650
0.8473817635927438,1,0.999914
0.8456464905902574,1,0.999826
0.8398483468107053,1,0.999404
0.8696178509609864,1,0.999705
0.9322779111672974,1,0.999920
0.9059306827766109,0,0.998825
0.8937799547374914,1,0.999756
0.88451639196215,1,0.999920
0.8895017442651288,1,0.999818
0.9116717938972027,1,0.999742
0.9012914900671184,0,0.998790
0.8963381087946927,1,0.999915
0.8832114119758392,1,0.999922
0.8853131981243179,1,0.999914
0.9240699243099256,1,0.999753
0.926892624126865,1,0.999915
0.9117725702591083,1,0.999908
0.8873599242709919,1,0.999905
0.8696479143279541,1,0.999893
0.9221604211889775,1,0.999831
0.8944846295056009,1,0.999340
0.9217072394921002,1,0.999907
0.8760095634770686,1,0.999912
0.8969011991894432,1,0.999907
0.8457751563045536,1,0.999921
0.8127451413493407,0,0.994019
0.9151934276788292,1,0.999823
0.8974260292244449,1,0.999915
0.9006730412215067,1,0.999901
0.8941902850580422,0,0.996639
0.8701159535958342,1,0.999920
0.8751004553956279,1,0.999752
0.8940656506950707,1,0.999917
0.8965905580615515,1,0.999903
0.8738186321885676,1,0.999908
0.8958849608054774,1,0.999918
0.8882331214302185,1,0.999917
0.8935814625665233,0,0.996629
0.8783741620047313,1,0.999894
0.9203950571887904,1,0.999914
0.8974531746080369,1,0.999904
0.9192598029604548,1,0.999828
0.9159490461997108,1,0.999914
0.9076278964018988,1,0.999907
0.9110678692871124,1,0.999917
0.8292725934747794,0,0.998573
0.8845374268669489,1,0.999913
0.9053508961270151,1,0.999923
0.9044549382455725,0,0.998189
0.9366602887462022,1,0.999908
0.8882454752982196,1,0.999900
0.8870770098061047,1,0.999913
0.9082550065652532,0,0.995305
0.9100720584626549,1,0.999922
0.9172037857258948,1,0.999923
0.9136389664160497,1,0.999914
0.9226801861305697,1,0.999917
0.920540907481656,1,0.999920
0.8996456471749255,1,0.999554
0.9143478531847841,1,0.999913
0.906485632431858,1,0.999913
0.9016005802191037,1,0.999912
0.8821433383095083,1,0.999708
0.8950726898310333,1,0.999618
0.903389198253587,0,0.996268
0.9186543164110061,1,0.999914
0.8825646713530968,1,0.999381
0.9056115490357435,0,0.998147
0.8948832322802711,1,0.999742
0.9142683141955492,1,0.999915
0.8950006682156902,0,0.994774
0.9005386079329138,0,0.996738
0.8596045213483475,0,0.998251
0.8702648194410039,1,0.999536
0.8325326575914926,1,0.999825
0.8913918193010743,1,0.999920
0.9344634208192932,1,0.999131
0.8468294077251272,1,0.999908
0.876419933855296,1,0.999918
0.8981900301267041,1,0.999834
0.9272590421007056,1,0.999916
0.9031947935398229,1,0.999913
0.861224658338683,1,0.999914
0.8894922158489256,1,0.999919
0.8558375474893412,1,0.999144
0.8850499481692266,1,0.999911
0.9170809232404905,1,0.999918
0.8881004065770496,1,0.999919
0.8907385149750524,1,0.999263
0.9023983018051397,1,0.999653
0.8993273289639669,0,0.996891
0.8872792537244102,1,0.999908
0.8723002636510134,1,0.999915
0.8080213334833838,1,0.999826
0.8987234431566179,1,0.999497
0.9041849008689907,1,0.999828
0.8802155035620021,1,0.999820
0.8707882837536085,1,0.999836
0.8865555671040556,1,0.999803
0.9132559169066738,1,0.999640
0.9121643087575765,1,0.999217
0.8995823699567058,1,0.999830
0.923990993239395,1,0.999913
0.9272276540651716,1,0.999586
0.937457341906612,1,0.999911
0.8482564610344193,1,0.999919
0.8441976720318279,1,0.999913
0.8972424191996623,0,0.998530
0.8662965168387036,1,0.999830
0.9297679879895566,1,0.999417
0.8823530152695094,1,0.999922
0.8739621045480568,1,0.999907
0.9112396413785127,1,0.999901
0.9025749394178066,1,0.999824
0.8568255567799862,1,0.999915
0.8236148926606832,0,0.999069
0.8939054450443153,1,0.999844
0.8927531206012913,1,0.999915
0.8965671905720443,1,0.999850
0.8870351677692322,1,0.999836
0.9375773887524358,1,0.999919
0.9213165241926943,1,0.999914
0.8927918482136663,1,0.999928
0.8681028717977871,1,0.999918
0.8707657828360261,0,0.998221
0.9167831983086895,1,0.999837
0.9100112451799005,1,0.999314
0.8963152300646838,1,0.999926
0.8831617232963513,1,0.999678
0.8881910437516269,1,0.999302
0.8780542673090236,1,0.999922
0.8839547262188319,1,0.999920
0.885003723610145,1,0.999531
0.9061880820131243,0,0.998694
0.8301460188586663,1,0.999918
0.8332100015504823,1,0.999928
0.8797984416055671,1,0.999913
0.8434840585346411,1,0.999604
0.8890871914704863,1,0.999923
0.9065900238221288,1,0.999902
0.9178361753171818,1,0.999917
0.8869078447978457,1,0.999921
0.8606208178513474,1,0.999732
0.9137807219357877,1,0.999913
0.8503432932450986,1,0.999733
0.880410679859568,0,0.998996
0.8696935847897445,0,0.999075
0.8440019439626733,1,0.999924
0.8482324896529051,1,0.999932
0.8410727772816083,0,0.997284
0.8765715336674458,0,0.999175
0.9004989448622708,0,0.998283
0.8886537094817093,1,0.999306
0.9199897378275566,1,0.999904
0.9108565180958305,1,0.999911
0.8972071004988605,1,0.999255
0.8893732066963057,1,0.999830
0.8876695590365943,1,0.999916
0.904841925656353,1,0.999916
0.8860569414096641,1,0.999915
0.8651372454117428,1,0.999920
0.8779453751839021,1,0.999907
0.8731993770185481,0,0.999100
0.8858958029476078,1,0.999844
0.9029212295048388,1,0.999833
0.9106715684594833,1,0.999691
0.9034543902932164,1,0.999817
0.9245040886420697,1,0.999922
0.9141559174323761,1,0.999813
0.9091472320346379,1,0.999905
0.8791707267100978,1,0.999922
0.9266269111038052,0,0.998757
0.8796586681457998,1,0.999924
0.9123971920072663,0,0.998538
0.9174910903697643,1,0.999845
0.8739710050006588,0,0.986964
0.9080786841713352,1,0.999913
0.927900358986084,1,0.999907
0.9049671629137652,1,0.999923
0.914024946941858,1,0.999736
0.9157049011734866,1,0.999921
0.9018970603448914,1,0.999720
0.932230544939999,1,0.999914
0.8983904882694788,0,0.998885
0.8599004558964274,1,0.999831
0.8734352930557915,1,0.999929
0.8472875991427228,0,0.998939
0.8273775123011365,1,0.999924
0.8666926121676792,1,0.999853
0.9001365132266891,1,0.999927
0.866158549090262,1,0.999927
0.8997489621611255,1,0.999926
0.8525967946055336,1,0.999432
0.9152361566617122,1,0.999917
0.8982663642299195,1,0.999923
0.8998774189481649,1,0.999915
0.914053021170233,1,0.999358
0.9026566031826605,0,0.998433
0.926099893486505,1,0.999665
0.9173448095615164,1,0.999910
0.8680099997735741,1,0.999851
0.8989127670759973,1,0.999923
0.8473416587451039,1,0.999367
0.8913712916068771,1,0.999916
0.84829829714062,1,0.999427
0.8464734858991967,1,0.999924
0.8554663904257344,0,0.998759
0.8283833841993972,1,0.999924
0.8949390975539425,1,0.999918
0.8579548722144112,1,0.999917
0.8757123668350197,1,0.999928
0.8381154526935445,1,0.999273
0.8360160170458794,1,0.999830
0.8552287376470035,0,0.999058
0.8585315024467202,0,0.998345
0.8590591956870605,1,0.999654
0.8561019610117737,1,0.999850
0.887043240756288,0,0.996019
0.9104564659752923,0,0.999102
0.8743866010215543,0,0.998798
0.8979265275518779,1,0.999927
0.890324957992961,1,0.999844
0.8912352063603074,1,0.999922
0.8991856907040063,1,0.999856
0.868466797575295,1,0.999912
0.8616212404611969,1,0.999925
0.9237942480158793,1,0.999696
0.9255607016993769,1,0.999533
0.9281973203978768,1,0.999924
0.90306309085262,1,0.999484
0.8022418880799482,1,0.999924
0.8658173162001206,1,0.999831
0.8722281945768843,1,0.999912
0.7965356789751997,1,0.999667
0.8377533627499387,1,0.999354
0.7723034966546001,1,0.999838
0.9184477149108422,1,0.999342
0.9248416815744502,1,0.999911
0.9232017669352732,1,0.999913
0.9121814288352178,1,0.999907
0.9018237081229746,0,0.997405
0.907835025998566,1,0.999662
0.9077472340618646,1,0.999389
0.9180732951255625,1,0.999910
0.8784705285275517,1,0.999659
0.8985583983919365,1,0.999889
0.8915721772895202,1,0.999910
0.9064283763459708,1,0.999598
0.8558973915068867,1,0.999541
0.9184229719550145,1,0.999912
0.8786630790909479,1,0.999733
0.929681670506392,1,0.999913
0.8879851700821164,1,0.999292
0.9027722969697781,1,0.999228
0.9143020704757338,1,0.999618
0.9124688414390374,1,0.999617
0.8912319330371049,0,0.998569
0.8695944982698032,1,0.999906
0.8625100276574517,1,0.999901
0.8446341493759019,1,0.999911
0.8747357281346252,1,0.999890
0.9030770728377684,1,0.999574
0.8784188019634491,1,0.999737
0.863252632045948,1,0.999657
0.854132133737552,1,0.999830
0.8877968682718184,1,0.999160
0.9134089429424606,1,0.999767
0.9060674001886364,1,0.999913
0.8910816074586932,1,0.999821
0.8912286471091582,1,0.999817
0.8944337387763316,1,0.999690
0.918392053236127,1,0.999844
0.9102816420803534,1,0.999832
0.8751826255650715,1,0.999858
0.8988723522983406,1,0.999920
0.8756641993138782,1,0.999915
0.898326348305826,1,0.999696
0.858171147342958,1,0.999926
0.8911347380904184,1,0.999352
0.8971068269067431,1,0.999360
0.9156598353063221,1,0.999914
0.8816235960248677,1,0.999584
0.9311148543190052,1,0.999916
0.8826793748045848,1,0.999928
0.8987913323791483,1,0.999919
0.8840285698049504,1,0.999532
0.8795549100039296,1,0.999927
0.9057325861870005,1,0.999746
0.8817796827519333,1,0.999912
0.8702182331634566,1,0.999725
0.8890985037887053,1,0.999651
0.8844701955318565,1,0.999828
0.8335699095846613,1,0.999920
0.8761355373940328,1,0.999829
0.8985623986209146,1,0.999922
0.8579383991867684,1,0.999922
0.861369948223584,1,0.999917
0.9054566445138197,1,0.999913
0.8927508223498241,1,0.999923
0.8685989281983306,1,0.999766
0.8543371473649145,1,0.999199
0.8926428623278189,1,0.999842
0.9039106418160615,1,0.999925
0.8997123899961318,0,0.991437
0.8696152987048197,1,0.999925
0.8046663118889412,0,0.999055
0.8344508051484214,0,0.998789
0.8825218075712005,1,0.999845
0.8819052163343086,1,0.999929
0.8777004608065319,1,0.999921
0.9117152516473197,1,0.999853
0.8783537096650621,1,0.999930
0.8795169619132013,0,0.999082
0.8622516797658668,1,0.999732
0.8788384579748401,1,0.999919
0.9272724585774886,1,0.998969
0.9458709994785219,1,0.999918
0.8455418931841047,1,0.999776
0.8972647512068027,1,0.999588
0.90680508105238,1,0.999450
0.8729769403763994,1,0.999921
0.9093150866630536,1,0.999915
0.9229053800704545,1,0.999904
0.8756443629355634,1,0.999485
0.838615860126916,1,0.999922
0.9052871981160062,1,0.999909
0.9105306138583971,1,0.999620
0.9246654567359879,1,0.999698
0.9096534446940813,1,0.999908
0.8781744032635517,1,0.999822
0.879978598441307,1,0.999666
0.8861043023884633,1,0.999483
0.9364505687843172,1,0.999841
0.9344380435080771,1,0.999921
0.9017245069126536,1,0.999927
0.8881439967920637,1,0.999922
0.9193907363918469,1,0.999917
0.9018879806035917,1,0.999860
0.8888256920538751,1,0.999926
0.8774513007338018,1,0.999911
0.8690694098057624,1,0.999698
0.8473319505206488,1,0.999487
0.8302670958187599,1,0.999342
0.8755227107724876,1,0.999913
0.8747665337333163,1,0.999929
0.892414414695217,1,0.999845
0.875610559535235,1,0.999861
0.8848078886514429,1,0.999827
0.8755501986020277,1,0.999930
0.8437614535733841,1,0.999930
0.9299355110769785,1,0.999914
0.9127894811354678,1,0.999922
0.9208002867373066,1,0.999465
0.9362250537174459,1,0.999912
0.9184281102774734,1,0.999606
0.8550347461737465,1,0.999841
0.9268131144346794,1,0.999827
0.9345804477517634,1,0.999912
0.8813189714445994,1,0.999842
0.8928749276210676,1,0.999920
0.8879520354510156,1,0.999857
0.8429786641012819,1,0.999917
0.8827798834583892,1,0.999917
0.9160048065600145,1,0.999689
0.8955228891810625,0,0.998491
0.8753926542171117,0,0.991631
0.8835460890798671,1,0.999919
0.8648676092393089,1,0.999917
0.8647553298096636,1,0.999917
0.8614616112387694,1,0.999921
0.8997683158272252,1,0.999279
0.8985446724830455,0,0.998820
0.9049917490316847,1,0.999921
0.8876838650951576,1,0.999928
0.8355148212169378,0,0.998947
0.881980483300796,1,0.999928
0.873181182201636,1,0.999912
0.8723403238065996,1,0.999924
0.8481893087051893,1,0.999589
0.8718106644576444,1,0.999835
0.8655925281077489,0,0.999003
0.9194492823760262,1,0.999764
0.9083691844395265,1,0.999931
0.8301049816152697,1,0.999908
0.9051008553421904,1,0.999905
0.9260542570488076,1,0.999470
0.8523022267228652,1,0.999856
0.8144589640104205,1,0.999913
0.9015136947715867,0,0.997237
0.9150224490648725,0,0.998438
0.868838782466185,1,0.999930
0.9273238872531567,1,0.999921
0.9059958479109562,1,0.999918
0.9106069161958382,1,0.999912
0.8598098675768606,0,0.997756
0.8625593707005901,1,0.999681
0.9028200368841991,1,0.999913
0.8849126913388456,1,0.999788
0.8987547520689042,0,0.996333
0.9019926337570472,1,0.999926
0.8799088803459721,1,0.999925
0.9103882468049774,1,0.999781
0.87580446848287,0,0.998834
0.9069675665189101,1,0.999927
0.8738552122088145,1,0.999406
0.8559299433241679,0,0.993823
0.9199361482285359,1,0.999759
0.8830954663828255,1,0.999923
0.8859086538730411,0,0.999015
0.9042152479772847,1,0.999917
0.8705713469859087,0,0.995684
0.8526367041526464,1,0.999920
0.8967070844789561,1,0.999737
0.9013993579374681,1,0.999809
0.8930980897173351,1,0.999915
0.8988105747651373,1,0.999920
0.8476578132913243,1,0.999909
0.8782997353984502,1,0.999837
0.9181419712008806,1,0.999928
0.8837999475348036,1,0.999922
0.9060413229952129,1,0.999916
0.8266807905556491,1,0.999832
0.8166596737221159,0,0.993326
0.8586489666762704,1,0.999925
0.8845873613201664,1,0.999914
0.8509385336601938,1,0.999926
0.8533072039520557,1,0.999059
0.889282273577304,1,0.999905
0.8831509517907471,1,0.999917
0.8716892323975675,1,0.999922
0.9021447045324008,1,0.999781
0.8397157412997687,1,0.999787
0.8432111717781944,1,0.999855
0.887928967508397,1,0.999898
0.8287542330106233,1,0.999842
0.8719998520965194,1,0.999917
0.8322191611447961,0,0.997627
0.7829599735026311,1,0.999912
0.8691148761962159,1,0.999847
0.8827738444000682,1,0.999912
0.9122872801742656,0,0.998038
0.913641129704653,1,0.999351
0.9067110552442723,1,0.999240
0.8748674418133116,1,0.999538
0.9062749739682474,1,0.999921
0.885953062271113,1,0.999470
0.9003662496019958,0,0.998479
0.8828814835488633,1,0.999913
0.8842035827816314,1,0.999816
0.8445794643188111,1,0.999276
0.8861485536451406,1,0.999910
0.8982010381852756,1,0.999824
0.8640426778217568,1,0.999914
0.901339330377147,1,0.999436
0.8966733534571658,1,0.999908
0.88476852793352,1,0.999574
0.8419660369960006,1,0.999407
0.8649291979402028,1,0.999800
0.8748396598917156,1,0.999476
0.915963558492735,0,0.998334
0.86150897230351,1,0.999085
0.8834150948969505,1,0.999523
0.9115097581668328,1,0.999917
0.8965442333881583,1,0.999823
0.8883557178718335,1,0.999553
0.8624964484158981,0,0.996149
0.9079165608498263,1,0.999919
0.9095600714326678,1,0.999819
0.9049244780591481,1,0.999772
0.9083898446539468,1,0.999735
0.9333228701944821,1,0.999911
0.885661028590104,1,0.999755
0.9004712745849756,1,0.999842
0.8926120480738469,1,0.999913
0.9103612664735194,1,0.999821
0.8862137309681497,1,0.999922
0.8529927911962354,1,0.999921
0.8876540364451962,1,0.999826
0.8847677309808131,1,0.999737
0.8967473358716895,1,0.999922
0.8811391190026442,1,0.999921
0.906013609183958,0,0.991989
0.8721245627255639,1,0.999230
0.9198735174627278,1,0.999920
0.8894804342112475,0,0.998014
0.8629237253059289,1,0.999923
0.8680661857056257,1,0.999917
0.8167725040225788,1,0.999759
0.9289021735045824,1,0.999912
0.8832792614755365,1,0.999922
0.9140413133606039,1,0.999835
0.9119476890940655,1,0.999919
0.9097187549849132,1,0.999929
0.8519875696246949,0,0.999076
0.8935371756450837,0,0.999015
0.9116641610351934,0,0.994598
0.9226581117485521,1,0.999915
0.9098753875034041,0,0.990757
0.875721882176192,1,0.999918
0.8993633254739705,1,0.999914
0.925159000334885,0,0.996394
0.894341691392728,1,0.999546
0.8881482690193017,1,0.999912
0.8898052974547002,1,0.999910
0.8629365550895277,1,0.999638
0.8738299374698858,1,0.999927
0.864691830015873,0,0.992585
0.9022275832984671,1,0.999822
0.8489759555442655,0,0.998722
0.8449917472513654,1,0.999530
0.8503046463258225,0,0.997444
0.8730272673593654,1,0.999920
0.8724239386340552,1,0.999826
0.8530272798208695,1,0.999862
0.865822285238561,1,0.999910
0.867935024755994,0,0.997592
0.8630650117203457,1,0.999919
0.925751003441736,1,0.999848
0.8472367494159854,1,0.999927
0.8612200906401231,1,0.999441
0.9167292831254155,1,0.999702
0.9004186813472539,1,0.999919
0.9400289928015744,1,0.999684
0.9212345987517482,1,0.999922
0.9153481363363769,1,0.999685
0.9015301375515752,0,0.993324
0.9096109381097489,1,0.999923
0.9398584856381049,0,0.995778
0.8853991039682211,1,0.999831
0.895659549189513,1,0.999820
0.8434220404942161,1,0.999915
0.8826002469287145,1,0.999920
0.9193297863301212,1,0.999916
0.8855502000092123,1,0.999772
0.871034983096617,1,0.999910
0.8937828411227003,1,0.999821
0.8301346051189571,1,0.999916
0.9181238167144029,1,0.999923
0.8488657679328755,1,0.999847
0.919923518316629,1,0.999420
0.9194130494893359,1,0.999770
0.8540617856214601,1,0.999790
0.9173112964832518,1,0.999922
0.9199971848836563,1,0.999619
0.9071977937127831,1,0.999914
0.9014640102199343,1,0.999839
0.8107945225973502,1,0.999920
0.8901924876340597,1,0.999922
0.8596960208832456,0,0.998667
0.875084043312806,1,0.999909
0.9188590245411238,1,0.999920
0.9097094077116649,1,0.999920
0.8859598813132843,0,0.998761
0.913338543507068,1,0.999857
0.909512712110004,1,0.999847
0.9101026871557765,1,0.999931
0.8924520724854309,1,0.999846
0.9208618836138088,1,0.999933
0.8818059245522196,1,0.999927
0.8494494446256443,1,0.999922
0.8473645680153241,1,0.999657
0.8948163967780627,1,0.999908
0.8672487457404486,1,0.999921
0.90463237331951,1,0.999924
0.9049262260683585,1,0.999850
0.9056175911653862,1,0.999831
0.8796498139420514,1,0.999928
0.8604908704276647,1,0.999789
0.9197272121361421,1,0.999927
0.8127522597391819,1,0.999922
0.9426949955661846,1,0.999909
0.9115985204563255,1,0.999276
0.8954283581794072,1,0.999813
0.9055750458631334,1,0.999916
0.8845592393591942,0,0.998744
0.8731354616744179,1,0.999923
0.871976022685945,1,0.999916
0.863983576987066,1,0.999312
0.8952203287201037,1,0.999908
0.8292339229226284,1,0.999816
0.8256917565590146,0,0.993851
0.8979363526686299,1,0.999911
0.8823510555746885,1,0.999918
0.8935935888764177,1,0.999926
0.9134583730202968,0,0.998649
0.9238598486495848,1,0.999924
0.9190812687398398,1,0.999919
0.8380991797199995,1,0.999919
0.8948576626831991,1,0.999301
0.872166087760034,1,0.999732
0.8533666768514268,1,0.999833
0.8543577617867792,1,0.999921
0.8784004500757181,1,0.999610
0.9180731452758839,1,0.999838
0.9171609357864198,1,0.999835
0.861653361597117,1,0.999918
0.88452343444951,1,0.999743
0.8934650120545147,1,0.999913
0.8964322887995484,1,0.999910
0.9257292030658778,1,0.999829
0.8786030060156105,1,0.999921
0.906231333594405,1,0.999926
0.8965289833121927,1,0.999922
0.9358155217417341,1,0.999816
0.8585069320816213,1,0.999915
0.8780815054020825,1,0.999911
0.89385819972766,1,0.999533
0.8929497689297188,1,0.999581
0.9154152245917212,1,0.999915
0.9141163847105358,0,0.998841
0.8840912697245701,1,0.999819
0.910964051616827,0,0.998248
0.8721730942234551,1,0.999907
0.9105276015202343,1,0.999920
0.8454426136114725,1,0.999914
0.8732778983358084,0,0.996993
0.8614871307051084,0,0.995185
0.8915664733299931,1,0.999912
0.815345163689623,1,0.999930
0.8274056669772916,1,0.999928
0.903241056935331,1,0.999909
0.9034656145643777,1,0.999912
0.856201569942952,1,0.999835
0.9357654860385074,1,0.999499
0.8946145628964627,0,0.998933
0.861127427298189,1,0.999916
0.8793961727777628,1,0.999925
0.850674169389204,1,0.999700
0.8978582533459268,0,0.990633
0.8752578858972024,1,0.999914
0.9123002608353276,0,0.995827
0.8551561399596274,1,0.999923
0.8464415464616063,0,0.997466
0.8502456479409604,1,0.999929
0.832172081071817,0,0.991820
0.9190317720817724,1,0.999918
0.915426202337769,1,0.999917
0.8585964326486308,1,0.999911
0.8833684394998181,1,0.999373
0.9287187328543126,1,0.999909
0.8108657023735567,1,0.999636
0.9520005578800401,1,0.999694
0.9182584380751551,1,0.999907
0.9258601951801033,1,0.999643
0.8699314313663253,1,0.999907
0.8564147506600127,1,0.999830
0.9074052233404427,1,0.999917
0.8892000210588626,1,0.999924
0.9189837549870926,1,0.999826
0.8902682616810643,1,0.999679
0.9156001561207877,1,0.999903
0.869493600926518,1,0.999614
0.8503362371147385,0,0.998420
0.9130434664313894,1,0.999922
0.9200721058170139,1,0.999913
0.8824972613560419,1,0.999921
0.9236480100027593,0,0.992066
0.8799784545728889,1,0.999732
0.8491837682560146,1,0.999828
0.9242713683267879,1,0.999899
0.8863805190196863,1,0.999825
0.8721870952253483,1,0.999914
0.9300981501386276,1,0.999908
0.9167066696743018,1,0.999896
0.9040003648048109,1,0.999384
0.906894607421915,1,0.999908
0.9111466517670803,1,0.999912
0.9049505751911016,1,0.999612
0.8379264982176088,1,0.999444
0.8910965985338721,1,0.999916
0.862838777836059,1,0.999823
0.9345419053851883,1,0.999914
0.8643718540259354,1,0.999417
0.8867653070755018,1,0.999907
0.8332346509093571,0,0.997056
0.8970672762565597,1,0.999909
0.9023063176881845,1,0.999770
0.8634952061478272,1,0.999915
0.8346573665910488,1,0.999740
0.8745914622775864,1,0.999910
0.8852641373462051,1,0.999909
0.8554963700986125,1,0.999538
0.8778388552798722,1,0.999917
0.9150506367417094,1,0.999919
0.844236160294996,1,0.999924
0.8938802769438685,1,0.999918
0.9191429356094819,1,0.999821
0.8744787949186821,0,0.996968
0.9263550251818599,1,0.999919
0.897992530091183,1,0.999923
0.8475248190520547,1,0.999922
0.8839760212909203,1,0.999921
0.9363662205732699,1,0.999773
0.8528385172802933,1,0.999825
0.8578862322969376,0,0.997488
0.8584050914509248,1,0.999908
0.8588270767302393,1,0.999844
0.8718989926713112,1,0.999840
0.8920522010983399,0,0.994430
0.9192562173587069,1,0.999852
0.892538968912519,1,0.999927
0.8954558766288335,1,0.999702
0.8643498511945873,1,0.999917
0.9028832817236908,1,0.999840
0.8513785820505392,0,0.995569
0.9218716054531567,1,0.999909
0.8733731709516469,1,0.999764
0.9188425122619307,1,0.999917
0.8900760205845737,1,0.999574
0.8689227204629083,1,0.999926
0.867822160435065,1,0.999468
0.8821451423902213,1,0.999915
0.9015601946856184,0,0.990384
0.920319486513575,1,0.999917
0.9169751895827066,1,0.999919
0.8688952281549718,1,0.999918
0.8983399536834661,1,0.999918
0.888690334984133,1,0.999919
0.9064109183039171,0,0.999031
0.9182244795388592,1,0.999909
0.9048056759722323,1,0.999907
0.8823972303936735,1,0.999835
0.8942276502436373,1,0.999912
0.9044127350220383,1,0.999903
0.8879237893915589,1,0.999845
0.8719942201718418,1,0.999922
0.8465304430017074,1,0.999922
0.916378429288791,1,0.999922
0.8839921781204372,0,0.998680
0.8968050100831165,0,0.997027
0.9015954886659373,1,0.999921
0.8932602932906358,1,0.999908
0.91423831781772,1,0.999919
0.8894380867612424,1,0.999922
0.9142002273625508,1,0.999911
0.9003365544301166,1,0.999814
0.8834052169685603,1,0.999839
0.8756442832317705,1,0.999918
0.8912611481982268,1,0.999912
0.909888137578066,1,0.999916
0.8937946479747496,1,0.999529
0.8530957688165633,1,0.999921
0.8917713364750759,1,0.999682
0.9018818173145203,0,0.998906
0.9227360911276496,1,0.999838
0.8905914498441536,1,0.999817
0.8553838813897999,1,0.999920
0.9296778509036814,1,0.999915
0.8831728839113762,0,0.997818
0.9066719140051728,1,0.999919
0.87329424373692,1,0.999601
0.8905032348202233,1,0.999912
0.8948800580443566,1,0.999723
0.8736836199335571,1,0.999900
0.8375547712122624,1,0.999722
0.8721753776111515,1,0.999918
0.907167392995992,1,0.999822
0.8806274696476558,1,0.999629
0.8919229153224496,1,0.999828
0.9040347275947596,0,0.974934
0.858918282996536,1,0.999917
0.8954757747762737,1,0.999851
0.8570861821354474,1,0.999918
0.8632385223363144,1,0.999918
0.8295133025750553,1,0.999829
0.8506366831648839,0,0.974500
0.9337575179482237,1,0.999916
0.9138359738133606,1,0.999730
0.8722384828924287,1,0.999834
0.8503035665346967,0,0.998775
0.8546547964561979,0,0.997400
0.829870745341883,0,0.998874
0.8510537938896106,1,0.999217
0.8523585700982527,1,0.999902
0.8810068367824968,1,0.999454
0.9195888604100556,1,0.999922
0.913110876434499,1,0.999802
0.8129762662188353,1,0.999452
0.8668940583104824,1,0.999910
0.8892917600510731,1,0.999922
0.8606894036630522,1,0.999836
0.8643803641135129,0,0.998518
0.8229479661472944,1,0.999923
0.8301062952927531,1,0.999839
0.8347935785223177,1,0.999921
0.8779492915154613,1,0.999926
0.7865788495253591,1,0.999507
0.8397864475962421,1,0.999910
0.8315326237224779,1,0.999926
0.9231389463881285,1,0.999668
0.837234890888495,1,0.999930
0.8628012313765127,1,0.999929
0.8739932762388359,0,0.997643
0.9206443948929917,1,0.999917
0.8917712042603464,0,0.966778
0.905883077801826,1,0.999910
0.9196061790096178,1,0.999919
0.8406636491637727,1,0.999919
0.8665984126320342,1,0.999753
0.8548852652185273,1,0.999915
0.8037294313985786,1,0.999917
0.884471136850487,1,0.999916
0.9086735406405084,0,0.998763
0.895097981897606,1,0.999922
0.9218154779462692,1,0.999846
0.8920918443123619,0,0.998077
0.8351493432055077,1,0.999926
0.8892844402740788,1,0.999666
0.9036768022836458,1,0.999910
0.7697254894215866,1,0.999453
0.905625002013093,1,0.999702
0.9016845540055022,0,0.997473
0.8559163382059105,1,0.999911
0.9082988852098722,1,0.999907
0.8775402605915432,1,0.999920
0.9439996159473647,1,0.999925
0.9210928289135955,1,0.999912
0.8662928860826292,1,0.999902
0.9107873798314499,0,0.998855
0.9032742842115808,0,0.998673
0.8384142242788223,1,0.999766
0.8922907838964247,0,0.998403
0.847876476843952,0,0.994150
0.909668166458732,1,0.999777
0.8969353851932964,1,0.999721
0.875032836735833,1,0.999913
0.9007529434759761,1,0.999929
0.8615752075309447,1,0.999902
0.8632223068339715,1,0.999912
0.8417228592471723,1,0.999918
0.906405356509108,1,0.999922
0.9003743030501624,1,0.999917
0.8759357852950089,1,0.999928
0.8927453572404505,1,0.999917
0.9277224970980751,0,0.996730
0.8543455729827203,0,0.995619
0.8703797794271173,1,0.999923
0.8889363723921635,1,0.999920
0.8219047807438116,1,0.999843
0.8879163536691865,1,0.999344
0.9101231271025965,1,0.999921
0.9074777038135556,1,0.999831
0.8438758708487031,1,0.999927
0.8541839283972624,1,0.999914
0.8942921616339493,1,0.999454
0.8363713193584261,1,0.999928
0.8602331593976446,0,0.993573
0.814580810655479,1,0.999863
0.8447748458478843,1,0.999842
0.9029990353850067,1,0.999914
0.8407588845901618,1,0.999793
0.8657374146001419,1,0.999756
0.8352169564941331,1,0.999326
0.8517878858837783,1,0.999863
0.9130662859640303,1,0.999924
0.8201376826112539,1,0.999927
0.9142600236932692,1,0.999919
0.8890338018374643,1,0.999926
0.901921819478387,1,0.999819
0.876980617364477,1,0.999918
0.8922835664306187,1,0.999749
0.871325463169939,1,0.999830
0.9168262142256706,1,0.999859
0.8028776003795237,0,0.999212
0.9030421327136485,0,0.996875
0.8996706618042903,1,0.999701
0.8247114782575911,0,0.997471
0.8236135016888081,0,0.998547
0.906137704501391,1,0.999917
0.8536527606627601,1,0.999818
0.8410260960749782,1,0.999765
0.8679375721676624,1,0.999918
0.8694955990738589,1,0.999843
0.8973826799934957,0,0.998820
0.8492998858743539,1,0.999927
0.9003334664806039,1,0.999749
0.8980385808217286,1,0.999750
0.8629450694820314,1,0.999766
0.8563140404860974,1,0.999915
0.8805682793019214,1,0.999530
0.9078691585399541,1,0.999918
0.8783795077890766,0,0.998137
0.8898792334485913,1,0.999826
0.8951368702211094,1,0.999755
0.8845414558949785,1,0.999508
0.902850073639201,1,0.999904
