0.20628010272216582,0,0.909162
0.3474025346034909,0,0.993255
0.4337741599271486,1,0.999322
0.5390067473924985,1,0.999934
0.5762783959487763,0,0.968170
0.6166764449846484,1,0.999931
0.6504294378546651,1,0.999862
0.6883083915472697,1,0.999628
0.76317930839743,0,0.997976
0.5601017332650885,0,0.938113
0.6364000440289822,0,0.996373
0.40548825410118566,0,0.995861
0.37882880541152275,0,0.996798
0.3955229264372584,0,0.944046
0.3840551144454117,0,0.970535
0.392426660123006,1,0.999558
0.42050329678501175,0,0.999084
0.41111898982992234,0,0.994408
0.4684236851808058,0,0.991963
0.5005325481133263,0,0.960742
0.518212137511992,0,0.997686
0.5518511391295953,0,0.999159
0.5741225569888215,0,0.997692
0.5599020574193416,0,0.993211
0.6055144912408609,1,0.999454
0.4570002537047909,0,0.970364
0.371929145964278,0,0.997791
0.45668373861562117,0,0.969270
0.5363968321569316,0,0.998674
0.4490436332979071,0,0.987373
0.5166871686200677,0,0.866254
0.44698837150386284,0,0.988006
0.5319828724265154,0,0.955865
0.5245938433051054,0,0.981098
0.5680015490228068,0,0.998297
0.627201768863895,0,0.994059
0.4100129113475572,0,0.983778
0.3912693031552891,0,0.987606
0.4242575867374892,0,0.998454
0.392326217520148,0,0.997011
0.43748744405646184,1,0.999867
0.472520838840272,0,0.770842
0.4501795713279368,0,0.983375
0.4746560023302419,0,0.993499
0.49922068595724095,0,0.998390
0.5357126955303437,1,0.999927
0.5172546504504195,0,0.995840
0.45618322372334424,0,0.950460
0.5142634447333867,0,0.949428
0.5139350315641684,0,0.997362
0.5345450188509204,0,0.936698
0.5425661177436348,1,0.999931
0.5964386763386641,1,0.999921
0.5306439713726113,0,0.997568
0.5270143941081012,0,0.995710
0.7111700179522806,0,0.997275
0.5776950338148713,0,0.993643
0.5968828507135517,0,0.998147
0.5977277620895062,0,0.993460
0.6056599225990025,0,0.992525
0.7011330500313735,0,0.991377
0.5124448653263928,0,0.998223
0.5823882039243166,0,0.928801
0.5489979910635016,0,0.958738
0.6452307197805939,0,0.988377
0.6805308818725309,1,0.999588
0.5657910639534337,0,0.995729
0.40641577092858033,0,0.997261
0.3728733206153144,0,0.986490
0.3540743157553785,0,0.559876
0.37273567712203465,0,0.994016
0.3852919327681261,0,0.997182
0.39702738008613736,0,0.990628
0.4726527461132261,0,0.997400
0.47962690292738225,0,0.983478
0.5205834591369346,0,0.591302
0.5511950946734677,0,0.998574
0.5419122131345916,0,0.998074
0.5009096233545679,0,0.996442
0.5158370101867961,0,0.985277
0.5502787447439644,1,0.999788
0.5465976067047293,0,0.994033
0.41903120586404646,0,0.994073
0.4634300028533334,0,0.956632
0.4901927463191942,0,0.996552
0.5339335836084657,0,0.994574
0.5427766508407202,0,0.995935
0.5554629863520302,0,0.993315
0.5848239736741777,0,0.997271
0.6449852403242751,0,0.957696
0.5994402477662684,0,0.999160
0.6402985679793605,0,0.994778
0.5730463072350768,0,0.995779
0.6087511810351477,0,0.997004
0.6152850265803181,0,0.991647
0.6299069185042344,1,0.999926
0.660383506396192,0,0.992257
0.6596861019296647,1,0.999642
0.5047236423859546,1,0.999500
0.678614997450129,1,0.999848
0.5864372493318977,1,0.999936
0.6060689086486929,1,0.999560
0.5598463813457036,0,0.998941
0.6404413819457607,1,0.999805
0.6209841146933879,1,0.999925
0.500472792420561,0,0.993242
0.5162851639535178,0,0.997396
0.5706254615102205,0,0.961739
0.5956454866216558,0,0.999255
0.6070082141479533,1,0.999930
0.6428382868145741,0,0.992796
0.6365244329077033,0,0.998911
0.617623740824918,1,0.999862
0.5597099476485256,0,0.993622
0.4764754864610336,0,0.987630
0.5280453027656594,0,0.997353
0.5293628713135533,0,0.985536
0.6087330340670204,0,0.990700
0.6446577975361474,0,0.996262
0.302284692463253,0,0.984577
0.22783227485796445,0,0.942439
0.13112478997260762,0,0.987982
0.14203899532105022,0,0.987263
0.2029829551844384,0,0.952378
0.2398081154455642,0,0.994960
0.209141503740435,0,0.988967
0.22109074233494086,1,0.999382
0.20676472583407052,0,0.995293
0.22770054253953562,0,0.992563
0.26324029845016034,0,0.988625
0.3035424134284057,1,0.999937
0.1831766180013481,0,0.996066
0.23600765483163727,0,0.997757
0.32018391671250646,0,0.994558
0.31036245486550884,0,0.992234
0.34258703845710564,0,0.979956
0.37635565404076105,0,0.975464
0.4068200898533317,0,0.948524
0.44554410427819935,0,0.987962
0.4131010563150177,0,0.990482
0.4738283060620697,0,0.999225
0.522117024862588,0,0.965771
0.5369374392057569,0,0.999139
0.43012523396011854,0,0.992843
0.48006256300642414,0,0.996711
0.5035246992959971,0,0.964551
0.528192886377376,0,0.967266
0.6022299104575866,0,0.996808
0.520176834579648,0,0.992958
0.5392425981651101,0,0.993268
0.5359952678448803,1,0.999378
0.6278635992380803,0,0.988471
0.580526264652348,0,0.994261
0.602762744365548,0,0.994035
0.5711980487665269,0,0.949762
0.5660364113749471,0,0.983416
0.6951681273992079,0,0.995047
0.6060556685928512,1,0.999520
0.21779670026866585,0,0.965801
0.3110240614969948,0,0.999141
0.32957310684772506,0,0.998301
0.41412183537240616,0,0.998427
0.39285613103376293,0,0.999190
0.45893213806064476,1,0.999786
0.500435487042452,0,0.996902
0.6004723211583327,0,0.991208
0.6042216375863169,0,0.998538
0.5570444686676723,0,0.987552
0.5982097127162399,0,0.995217
0.5907131671816405,0,0.997303
0.6677235226626533,0,0.998078
0.6620089825272351,0,0.992944
0.4892036387888098,1,0.999638
0.4582893450090106,0,0.991851
0.5764608302534725,0,0.997258
0.5047173250290385,0,0.997725
0.5615164548161591,0,0.945067
0.5042133107618334,0,0.998027
0.5580304680357521,0,0.999176
0.5167091635785721,0,0.999039
0.5316476354081215,0,0.998451
0.5749737143982202,1,0.999607
0.546294208585658,0,0.997765
0.5955007150908025,1,0.999938
0.5581004291535965,0,0.998364
0.6314906713429848,1,0.999496
0.4690856874530419,0,0.986280
0.21042632844077475,0,0.992206
0.2861208694783428,0,0.997562
0.35558280288044714,1,0.999657
0.36088441271743354,0,0.980858
0.3552105168358863,0,0.999375
0.33013908091718186,1,0.999719
0.45992377032441406,0,0.990143
0.47664355673223113,0,0.957735
0.42890835877735173,0,0.967955
0.31260255247275603,0,0.988940
0.14039312325084566,0,0.985994
0.22182491232617263,0,0.993479
0.22491925388219672,0,0.932429
0.27079027235107667,0,0.989749
0.27411296912780925,0,0.998932
0.31452590298428634,0,0.996063
0.3054100280615261,0,0.996050
0.32264124097979335,0,0.982407
0.32796275975372585,0,0.995304
0.40182245064265193,1,0.999802
0.4522256780279718,1,0.999858
0.4786170669318109,1,0.999377
0.5244259019853379,0,0.989556
0.5162249440095537,0,0.997813
0.41861036655197037,0,0.989119
0.31778873592638995,0,0.991740
0.39517675847006856,0,0.989132
0.42127007681305273,0,0.996839
0.3728268429195074,0,0.998266
0.20254620813428914,0,0.998935
0.18889867188562245,0,0.980919
0.21856516953327149,0,0.994505
0.24032318537867894,0,0.997747
0.171279190143831,0,0.992235
0.21680845682518715,0,0.996033
0.28237992439484555,1,0.999348
0.316244286269236,0,0.995862
0.36465811061614634,0,0.995330
0.39725159120723785,0,0.770742
0.47012532409181285,0,0.978680
0.5002949236913494,0,0.997635
0.506870940922324,0,0.998935
0.4257904631237838,0,0.993364
0.5265602004802147,0,0.997597
0.5049841427024226,0,0.993873
0.5140138191822649,0,0.997923
0.5869740323500873,0,0.995448
0.5128159379559437,0,0.999262
0.6044325490181276,0,0.998759
0.5317161236477266,0,0.997187
0.5958834972242096,0,0.998097
0.5725301794723381,0,0.998518
0.5687626130708625,1,0.999804
0.5440723183582576,1,0.999226
0.6549981194125786,0,0.999047
0.6495899448239019,0,0.999022
0.6249384776402434,0,0.991606
0.6515589752881008,0,0.995713
0.5990930137881839,1,0.999930
0.6560946263635584,0,0.995871
0.7023083280975473,1,0.999479
0.687885528434488,1,0.999869
0.7236959530181174,1,0.999584
0.6684329179208628,1,0.999804
0.650021884442147,1,0.999931
0.6658677336216549,1,0.999804
0.6910690490354569,0,0.999214
0.6437930810781358,1,0.999630
0.37201565488575516,1,0.999772
0.45185213953056536,1,0.999593
0.4386427142636662,1,0.999794
0.5289652061116141,0,0.997783
0.5296048950650244,0,0.996568
0.5282325825461758,0,0.997164
0.5891028267651023,0,0.998940
0.5964218796503978,0,0.997039
0.6443907669014528,0,0.987775
0.6306079103261356,0,0.999190
0.6627607431970096,1,0.999354
0.6342979521974357,0,0.998302
0.6388701239866126,0,0.997710
0.6687060300845797,0,0.996984
0.10905236356193686,0,0.976251
0.15220361318441678,0,0.989847
0.24266260090095002,0,0.999087
0.21270016077331438,0,0.998567
0.2560767579689736,0,0.996530
0.30453068124749444,0,0.992683
0.21729958762773074,0,0.995034
0.20810009157421022,0,0.990301
0.2428337689076303,0,0.990754
0.23683225390246976,1,0.999756
0.30079402983015036,0,0.987328
0.3310631577926186,0,0.999308
0.29748335459654557,0,0.999194
0.12935079549800546,0,0.993942
0.10993178130314973,0,0.993135
0.1782303473456383,0,0.976010
0.3032096439591897,0,0.994028
0.33674343221608793,0,0.995112
0.2815488301656453,0,0.994406
0.28076355978085704,0,0.984996
0.3587404737205303,1,0.999578
0.3795152127231272,0,0.983143
0.30550035748592275,0,0.986300
0.2346444417878009,0,0.993341
0.2759566423857206,0,0.990528
0.28726544756288575,1,0.999589
0.2886775696880151,0,0.995945
0.35269056052522674,1,0.999874
0.4303838183002062,0,0.987367
0.44584829064796905,0,0.998456
0.4178168513257289,0,0.948750
0.4194707660569345,0,0.996706
0.31229455509332466,0,0.976457
0.3292735643811053,0,0.987334
0.3080988141366062,0,0.989460
0.39502700030519017,0,0.985041
0.5018128494142428,0,0.985150
0.26982740222640567,0,0.992262
0.3514503513720319,0,0.999099
0.3294934712049985,0,0.986386
0.31751696631978926,0,0.991845
0.3673395667481958,0,0.998391
0.37400520023032496,1,0.999515
0.3902204594147958,0,0.993497
0.2419833407161983,0,0.988103
0.3086988020376529,0,0.998360
0.23263298970806612,0,0.985510
0.24666940328288525,0,0.996549
0.24999342880471392,0,0.997864
0.32272433844422366,0,0.990842
0.29854632270751585,0,0.989255
0.33927019684253423,0,0.976357
0.35953907808107416,0,0.981317
0.4107913859149215,1,0.999523
0.460244257711324,0,0.988547
0.23899877724545873,0,0.996407
0.2501704604533837,0,0.997099
0.3618243111789637,0,0.987262
0.24525645906058063,0,0.998760
0.1731641834458137,0,0.988750
0.1816143328662339,0,0.975447
0.20702219236135685,0,0.989031
0.2316306491194999,0,0.996318
0.17606692235793656,0,0.989204
0.22328041681701255,0,0.994501
0.2759171328079611,0,0.954763
0.31244922940932796,0,0.696526
0.37762430448899764,1,0.999399
0.4331557324997449,0,0.997875
0.45033042966654463,0,0.996376
0.4931358681985235,1,0.999675
0.4625594483323952,0,0.993220
0.47577920371186333,0,0.987856
0.5046813476799777,0,0.996600
0.5358290909525627,1,0.999933
0.5673025394206322,0,0.987821
0.5649199585809362,0,0.997455
0.6614524272187498,0,0.999024
0.6238851973547984,1,0.999446
0.456439516942252,0,0.993828
0.2874324221401715,0,0.997205
0.35511509907849814,0,0.998361
0.3805796796535741,0,0.998806
0.3246944047438239,0,0.996414
0.48678311587371015,0,0.996161
0.4733426743631749,0,0.992958
0.49026277922538797,0,0.983136
0.40104294750682157,0,0.997559
0.4163127451472303,0,0.996959
0.5256769019453263,0,0.976272
0.5377579087668101,0,0.996007
0.4582025365249488,0,0.998373
0.5031458047436531,0,0.986044
0.48344383090146253,1,0.999309
0.5177979009404026,0,0.990523
0.5476867365610999,0,0.998296
0.4985272522289155,0,0.988840
0.4729437452817514,0,0.997766
0.4907106027657035,0,0.995800
0.5007745556193532,0,0.998248
0.44077671998464607,0,0.994678
0.5492986464497976,0,0.996167
0.49735454315628735,0,0.998792
0.4574448256204672,0,0.973864
0.2065991944105781,0,0.998918
0.31329028292182265,0,0.984010
0.3858679643178376,1,0.999791
0.43649756804697154,0,0.988207
0.4837051277278741,0,0.993120
0.197192534896062,0,0.985382
0.24208856047290223,0,0.993472
0.27951036725088807,0,0.996625
0.37167307234412367,0,0.994379
0.29565331558015706,0,0.990969
0.395947430337288,0,0.994954
0.41802198213129205,0,0.998331
0.47498636755211254,0,0.996188
0.4199126385331494,0,0.996827
0.4891128311037508,0,0.998460
0.4226641010436445,0,0.996545
0.45411382832555974,0,0.994019
0.42042845261668527,0,0.983017
0.40607340264038805,0,0.984265
0.3958259414561412,0,0.992261
0.4619926874150876,0,0.992454
0.44061590578647847,0,0.992161
0.5038175779437782,0,0.996730
0.5198170851203345,0,0.990910
0.5896363896290621,0,0.926427
0.6086959153868745,0,0.988434
0.6088007511484654,0,0.987175
0.5048664598358783,0,0.995072
0.5576583530827585,0,0.997483
0.5508227958234397,0,0.998001
0.3798656108254594,0,0.973130
0.5448172990631676,1,0.999730
0.5059703004667793,0,0.985037
0.5337171700384669,0,0.997612
0.2456786208353105,0,0.990059
0.2550125791599059,0,0.998977
0.3446976328179305,0,0.994666
0.3161920580066888,0,0.996414
0.3965295566648559,0,0.997380
0.3822483806190725,0,0.983698
0.34844961060407414,0,0.142018
0.3263313329815159,0,0.996963
0.34804110930062904,0,0.997878
0.2756952620895796,0,0.996953
0.4204990338119675,0,0.995187
0.20579074028117497,0,0.990830
0.2630257263780726,0,0.999054
0.3221513750782143,0,0.992785
0.3354635781048649,1,0.999627
0.28563396473925873,0,0.985315
0.2897700660415186,0,0.997835
0.35983194515129274,0,0.991890
0.3861197799091163,0,0.989136
0.3059680819739349,0,0.993708
0.2610347005588689,0,0.994840
0.3310061888561659,0,0.993289
0.2769551130279121,0,0.996136
0.274911598777115,0,0.998561
0.33317123804287235,0,0.998450
0.34410313477657645,0,0.994010
0.39551783222226544,1,0.999462
0.44514041410610006,1,0.999758
0.335458103282487,1,0.999943
0.34574599715612786,0,0.998858
0.36927067090724736,0,0.989572
0.4468094043508955,0,0.995126
0.508730967586976,0,0.957048
0.5457502848366645,0,0.978532
0.4816833936227599,1,0.999492
0.5194166104596232,1,0.999350
0.4783617134310696,1,0.999576
0.4904584625835636,0,0.989178
0.5682282834018982,0,0.998929
0.4570432719941862,1,0.999620
0.44623470616936495,0,0.998323
0.5065107364229577,0,0.992422
0.5688017242011294,1,0.999795
0.6329496677125279,0,0.997782
0.6140132795502781,0,0.994630
0.5677422420920704,0,0.990714
0.5608620997982562,0,0.987381
0.5195802529134298,0,0.998154
0.5333300815983011,1,0.999935
0.5877446506192803,1,0.999560
0.6438359714581856,0,0.998527
0.6304617818966581,0,0.998225
0.6161982766358503,0,0.997526
0.2325417204289348,0,0.983392
0.4008970587911568,0,0.997849
0.14116588365853036,0,0.989390
0.15186339089135073,0,0.988905
0.17880856964493885,0,0.996844
0.24299854180492708,0,0.997591
0.30231400224074717,0,0.989521
0.3367287828645674,0,0.998703
0.4273111526085366,0,0.999265
0.4164044807943568,0,0.998131
0.33317088320370825,1,0.999933
0.3778768845653411,0,0.993853
0.45082376312721323,0,0.966782
0.3868881482945137,0,0.997708
0.3101908050609118,0,0.985853
0.33596535723217064,0,0.966815
0.3529317356919658,0,0.998063
0.3871820976923627,1,0.999495
0.390334547886139,0,0.960759
0.20181963597082883,0,0.961457
0.28003706800687195,0,0.994661
0.26898758450935534,0,0.994317
0.2891138069827365,0,0.985493
0.2916751080849345,0,0.991072
0.40453122176548534,1,0.999714
0.34169105910345227,1,0.999651
0.39628095375490613,1,0.999510
0.4050688901979623,1,0.999938
0.4491848659528989,0,0.997573
0.4338871192646847,1,0.999936
0.49208324685365556,1,0.999871
0.36745123702402704,0,0.989757
0.4097251173758966,0,0.997594
0.46446135277269235,1,0.999857
0.4341701380358897,1,0.999699
0.46528879764960895,1,0.999802
0.4659208900455768,1,0.999723
0.4586296859388427,0,0.996194
0.4148054322447249,0,0.976779
0.4047159147697969,0,0.975423
0.4559227613415915,0,0.998839
0.4516681854843483,0,0.997376
0.5699972538692446,0,0.998486
0.5517299481748709,0,0.998220
0.537809802773824,0,0.998681
0.47593348067558855,0,0.998916
0.44056765517364443,0,0.997488
0.572256988408694,0,0.998898
0.5233284944918013,0,0.998130
0.4156103740227789,0,0.979221
0.14547847326129018,0,0.976501
0.13971132861377095,0,0.973057
0.15506104977205803,0,0.987208
0.21425319186558728,0,0.988837
0.23842953929629224,0,0.997718
0.29163493591470496,1,0.999792
0.19622287021469206,0,0.989829
0.21009741247891886,0,0.980751
0.27367271930000464,0,0.997908
0.2877598607079652,0,0.988516
0.257160356997398,0,0.984105
0.3184009856744792,0,0.985661
0.34284520354632747,0,0.981795
0.3596453655301403,1,0.999841
0.43317410291787095,0,0.987904
0.5266744607198877,0,0.944238
0.5058740293458985,0,0.982519
0.5416118252935049,0,0.982502
0.5567806710782128,0,0.946866
0.5390846588390971,0,0.988027
0.49374129450532883,0,0.971622
0.32749339089799206,0,0.992710
0.27509787206628594,0,0.987278
0.31374261384675006,0,0.894095
0.36635794269895683,0,0.995144
0.37391486874850766,0,0.994151
0.2060034385217291,0,0.996446
0.27884515957783507,0,0.992903
0.25227550155137823,0,0.982496
0.29696846150179246,0,0.988820
0.33651221333610887,0,0.996033
0.31715142893939885,0,0.995462
0.3480834594008195,1,0.999637
0.34782945705105695,0,0.996925
0.3759841691950517,0,0.996248
0.46920048130215847,0,0.989573
0.3935370733645944,0,0.981119
0.44867499369942443,0,0.995146
0.395317079243296,0,0.997467
0.4116853446915796,0,0.984626
0.412360872949621,0,0.998445
0.42989031512839326,0,0.941274
0.5459642746986975,0,0.998180
0.5824122027567323,1,0.999417
0.4517340667650817,0,0.994437
0.4900382676888183,0,0.994211
0.4672105185948287,0,0.990840
0.5142503637349916,0,0.999067
0.5375207969399765,0,0.998767
0.48198442429913085,0,0.994656
0.46090937568691487,0,0.997543
0.43317601363837493,0,0.997312
0.45386181501148826,0,0.985490
0.6106616181324667,1,0.999858
0.19611358286476466,0,0.992531
0.28418759091238055,0,0.976341
0.31846654641605254,0,0.998479
0.38900031823655296,0,0.989932
0.31715987142777274,0,0.994189
0.3735613502622538,0,0.996546
0.43636139796475537,1,0.999716
0.4157403201657922,0,0.987348
0.4289636261395656,0,0.996297
0.45243245004146715,0,0.976963
0.5391833570618118,1,0.999935
0.560892660533157,0,0.994183
0.5925366863770285,0,0.993082
0.5706512617888161,0,0.996304
0.5489284161778794,0,0.993281
0.5852711253233814,0,0.996729
0.5657845971120722,0,0.989201
0.42581251303071266,0,0.993985
0.2543957907969557,0,0.986129
0.1329794326899413,0,0.995920
0.19619391343652484,0,0.986154
0.25085987804231347,0,0.983708
0.2674124055037614,0,0.986235
0.23635789990528716,0,0.987200
0.2841730152750783,0,0.983942
0.30013262061780005,0,0.994011
0.32315217487737313,0,0.996380
0.36056500503600764,0,0.985244
0.23963146767802038,0,0.991395
0.2872197588556576,0,0.989977
0.34826308758828356,0,0.992835
0.3049423570572617,0,0.997723
0.33675302760703,0,0.979414
0.3968006901026731,0,0.992902
0.4759346267120617,0,0.993263
0.43598862705453995,0,0.986191
0.44365420595973803,0,0.988012
0.4548541054277769,0,0.994544
0.3931741978801411,0,0.998271
0.26758972255585484,0,0.979698
0.30289950284458467,1,0.999733
0.3873345251816905,0,0.985260
0.35947569712974464,0,0.988611
0.33610943604420745,0,0.989198
0.3406269103024923,0,0.987807
0.3739684896287152,0,0.995256
0.22652384862881123,0,0.986503
0.20721934812566492,0,0.992071
0.2382136638322057,0,0.990237
0.2583931167302489,1,0.999727
0.2602717128745088,0,0.993596
0.30189806462596175,0,0.995808
0.2063253488493936,0,0.987662
0.2764201342079521,0,0.990212
0.33326135744231333,1,0.999939
0.41001597752367525,0,0.995353
0.4511776374038924,0,0.992980
0.4446718095111474,1,0.999305
0.38381095377983876,0,0.975790
0.26685173359977704,0,0.998309
0.2650980900655103,0,0.984986
0.27383857639140524,1,0.999389
0.31748777980518267,0,0.977465
0.3730549303660887,0,0.998398
0.37931059346022555,0,0.992011
0.44827116314357357,0,0.999217
0.355773117991286,1,0.999849
0.21932056735061584,0,0.988689
0.28061043587441203,0,0.990677
0.32130206285449897,0,0.999220
0.3961815081930648,0,0.995895
0.29505089196179407,0,0.993647
0.2751367985457047,0,0.995271
0.25045656733072275,0,0.992824
0.20059834556631134,0,0.978321
0.24780969334015546,0,0.992471
0.2371120287891448,0,0.994152
0.2900081066178425,0,0.994181
0.34683829344976363,0,0.994018
0.3401617053260493,0,0.942704
0.4572720093221263,0,0.999026
0.41553565164765516,0,0.980662
0.4318568596038529,0,0.987634
0.4183262789066825,0,0.970943
0.4360757505688012,0,0.984857
0.5620355257528878,0,0.610900
0.4740851627273667,0,0.991389
0.5854125092318229,0,0.996549
0.5644670600466817,1,0.999246
0.6144376281843604,0,0.997666
0.5624971115879783,0,0.995957
0.39311875507671734,0,0.990415
0.4429025626718312,0,0.997782
0.4584831899183391,0,0.995447
0.390925022210884,0,0.999050
0.366456978230516,0,0.994915
0.45863317607728427,0,0.985207
0.4365734193813001,0,0.983876
0.40543235074893125,0,0.980246
0.4197779474872461,0,0.955489
0.4391581077255735,0,0.993343
0.4284554646152464,0,0.984328
0.5214578445730801,0,0.981614
0.4767020810698358,0,0.998991
0.4922721035791355,0,0.998423
0.48853482918064606,0,0.997624
0.4471324799476299,0,0.990879
0.47479717051904585,1,0.999860
0.21649880227559626,1,0.999447
0.2645510464870245,0,0.997379
0.37011123613226043,1,0.999860
0.3958994250863504,1,0.999934
0.35390421172362585,0,0.976600
0.41476789384829094,0,0.998070
0.4432090084890472,0,0.993278
0.5118654511279294,0,0.996390
0.49635329037186704,1,0.999616
0.5687175059584992,0,0.995776
0.45968478778324856,0,0.998639
0.47084472041278214,0,0.995515
0.5569938840104763,0,0.997862
0.5398754157386871,0,0.990433
0.5236406105885851,0,0.997105
0.5191295190326385,1,0.999546
0.5209319118670684,0,0.999205
0.5697347472664979,0,0.996626
0.5763311113512501,0,0.995873
0.5763402939463237,0,0.998061
0.6215890879722432,0,0.999266
0.6386318878780655,0,0.993004
0.6594607984156983,0,0.992882
0.5704165629807074,0,0.998923
0.5876393855686409,0,0.997812
0.5774694618278635,1,0.999936
0.6079538418603958,1,0.999802
0.5683901397015484,0,0.997228
0.5843120256487374,1,0.999539
0.6203744730893577,0,0.996990
0.6192433522668745,0,0.993815
0.18185137940858936,0,0.948486
0.23434235866395017,0,0.984650
0.09436173638665656,0,0.968692
0.13739456510740314,0,0.993937
0.12798607619967636,0,0.978368
0.14371919835090147,0,0.976906
0.13871708873568606,0,0.996133
0.19966522661503586,0,0.988428
0.1596899920547065,0,0.994625
0.14591599395523738,0,0.990984
0.18113678776919845,0,0.992710
0.1833373574445821,0,0.995267
0.23074676244911452,0,0.975031
0.14735905777264932,0,0.994514
0.11241186956314525,0,0.996320
0.09333629014368146,0,0.976213
0.12437075175673601,0,0.976201
0.15868502788347924,0,0.972625
0.16917102452197505,0,0.996029
0.18301452148371225,0,0.972943
0.2418364436452105,0,0.981813
0.25890961906746596,0,0.989603
0.2910018477027084,0,0.813784
0.13651445195174738,1,0.999861
0.1205194382635513,0,0.986620
0.12751667100846711,0,0.993220
0.17924412848379537,0,0.187095
0.25796129893918884,0,0.952254
0.3128849124205717,0,0.997975
0.3067248833305402,0,0.998474
0.3960196903321545,0,0.995646
0.468827790340265,0,0.992703
0.40674930462821,0,0.995031
0.49153851309861424,0,0.994223
0.5100820579173464,1,0.999939
0.5627050682398227,0,0.995018
0.5037328969167263,0,0.993123
0.5840550385284928,1,0.999936
0.5349011460660298,0,0.998991
0.5624832188592129,0,0.998865
0.6095732485798976,0,0.992283
0.430449590104242,1,0.999555
0.4143224354116124,0,0.983733
0.5115858356695069,0,0.974183
0.45076162966128114,0,0.992063
0.5337768121819862,0,0.997160
0.45505143517705654,0,0.994891
0.5628850624669742,0,0.990234
0.5135314608515857,0,0.973078
0.5197127912933978,0,0.997875
0.52288958565874,0,0.995617
0.5449878483693764,0,0.984097
0.5508032340676201,0,0.992446
0.6152410419677364,0,0.996773
0.49702109376733367,1,0.999863
0.5726852953261532,0,0.997329
0.6389540681023036,0,0.995201
0.5690703611805508,0,0.986354
0.4906981097782052,0,0.996962
0.5139943426950859,0,0.991281
0.49785801202109586,0,0.996678
0.5179044975921797,1,0.999498
0.5855425650441582,0,0.997635
0.5179195895692899,0,0.998533
0.5603779773814179,0,0.992052
0.618841791195612,0,0.991630
0.6240754480896238,0,0.985696
0.18517055847533567,0,0.990442
0.19007435881151574,0,0.991706
0.15442401078380943,0,0.997442
0.167078039760958,0,0.981596
0.22587755479335578,0,0.993503
0.11931619120623065,0,0.975156
0.15263724000329587,0,0.985097
0.14009413496267062,0,0.969460
0.13528144635397074,0,0.993388
0.18504762484816942,0,0.997914
0.15194380035298635,0,0.998381
0.15901251658694074,0,0.985796
0.18331932722478342,0,0.994330
0.19224008587321384,0,0.996876
0.13483337682211743,0,0.960615
0.18574783210710213,0,0.988752
0.18548630818260148,1,0.999409
0.21560770299941565,0,0.986675
0.1710357402808217,0,0.976420
0.17552978046746412,0,0.994821
0.24145913237717853,0,0.986641
0.2759959934198476,0,0.988335
0.31987943206740727,0,0.976002
0.2915763683466402,0,0.999082
0.41676021245095335,0,0.998844
0.3798701590048286,0,0.998816
0.44687991505752733,1,0.999923
0.47871558466016434,1,0.999305
0.2986601588042763,0,0.973887
0.3084625619972663,0,0.998135
0.33633867339918183,0,0.997006
0.46115756245108946,0,0.998655
0.4736989574151997,1,0.999607
0.4826960521615427,0,0.994526
0.3735151248188265,0,0.977283
0.4131931009922416,0,0.984238
0.4020778125180136,0,0.998528
0.4791002796672764,0,0.999125
0.41819355491627,0,0.998626
0.5700928939599264,0,0.989466
0.5437469570475216,0,0.976241
0.49758929682492975,0,0.997459
0.47376365751482835,0,0.973356
0.5852732783254657,0,0.998928
0.6229117710397052,0,0.998287
0.5445247260221492,0,0.998640
0.5861761031709298,0,0.995252
0.5294830083020512,1,0.999867
0.49038329937005853,1,0.999861
0.5472534911232939,0,0.998826
0.5148095953671927,0,0.996637
0.5667371514309298,0,0.998962
0.518959384299067,1,0.999727
0.5461564503316617,0,0.998837
0.5864684128037808,0,0.997393
0.5488444347566105,0,0.998958
0.5145977809925103,0,0.998638
0.6028910084140182,0,0.996865
0.5304148122017597,0,0.997515
0.5322390844575715,0,0.999131
0.6299609666143352,0,0.997420
0.5860141422578764,0,0.995035
0.6505925275062596,0,0.997322
0.6053895146597155,1,0.999675
0.6043014119385252,0,0.997235
0.6917026833077667,0,0.998589
0.6855029215431736,0,0.999033
0.5925599474673792,0,0.998446
0.6539265335430876,0,0.982461
0.6072007245722119,0,0.999219
0.6554750993244784,1,0.999445
0.10413302157696214,0,0.969899
0.11146177051444979,0,0.987935
0.14428512874295635,0,0.997657
0.17005363812129679,0,0.992213
0.16920619302759454,0,0.998431
0.1293159059610264,0,0.993059
0.18073698908438493,0,0.993267
0.21263021111087785,0,0.998368
0.21143397680270087,0,0.996686
0.24452921071120798,0,0.988989
0.24079729232096625,0,0.998334
0.2775060645949097,0,0.996320
0.23004449908280672,0,0.995081
0.2502583864848185,0,0.996295
0.31396827293795243,0,0.999223
0.35705375066967343,0,0.998431
0.3811830662736042,0,0.997632
0.4477737036250806,0,0.993858
0.4512365875306462,0,0.979940
0.4197234825840626,1,0.999601
0.4270896661945622,0,0.993611
0.49470410334718723,0,0.999069
0.5557978852177883,0,0.995738
0.563679569396899,1,0.999863
0.6120368747763726,0,0.996688
0.6127972169992798,0,0.998669
0.608195820027238,0,0.996270
0.5540832524834745,1,0.999814
0.5916331606328982,0,0.995652
0.6547062641605313,0,0.953518
0.5897122144881156,0,0.998360
0.6531062085411086,0,0.991702
0.6224736334648809,0,0.993774
0.6900283741964389,0,0.996432
0.6925970276037364,0,0.998939
0.6057079801969888,0,0.998743
0.5600194368395427,1,0.999851
0.5898421618767783,1,0.999353
0.596323370732197,0,0.999090
0.6117692310860576,0,0.996062
0.5755842799899605,0,0.992768
0.6151470056256818,0,0.999078
0.3965583197651018,0,0.996252
0.15082069815148771,0,0.994747
0.1932525704063083,0,0.981332
0.20808403610075757,0,0.996077
0.16859976965926285,0,0.998103
0.20307034091728277,0,0.998481
0.2560540666849326,0,0.987990
0.27109943057297786,0,0.997044
0.18126289001921098,0,0.993430
0.22751789500002095,0,0.982611
0.1963083561435511,0,0.989811
0.26335891641983844,1,0.999396
0.27342431322468264,0,0.993677
0.28034642080585875,0,0.996397
0.30406918490193025,1,0.999303
0.3540594608564043,0,0.993880
0.32209693200017653,0,0.998404
0.31150498142349087,0,0.998561
0.4567911841612822,1,0.999603
0.331672072303199,1,0.999326
0.3796043662795491,0,0.996117
0.29973674650574106,0,0.992886
0.310989276789729,1,0.999346
0.3014843841787454,1,0.999499
0.34460693413191695,1,0.999286
0.3841816271892714,0,0.995668
0.4108477689898345,0,0.995693
0.4305579371002615,0,0.996955
0.34248303486342196,0,0.996369
0.39482310015741306,0,0.997452
0.41167161704893446,0,0.997910
0.36847457494876334,0,0.995984
0.5663960869624518,0,0.985061
0.4687553534369259,1,0.999542
0.28242038328129915,0,0.999089
0.33456499110751586,0,0.993297
0.41056478595461343,0,0.996620
0.41490372258823777,0,0.998480
0.44168081222206196,0,0.998731
0.45982803098537967,1,0.999321
0.49996079445814534,0,0.991175
0.5290879732810466,0,0.992288
0.5537733434813086,0,0.993607
0.6146772646535028,1,0.999459
0.5738417103343381,0,0.998504
0.5649165997561945,0,0.996461
0.5825639492010868,0,0.986892
0.6222026820845609,0,0.997654
0.6055817738600637,0,0.999229
0.602218974861102,0,0.993367
0.5210159884397668,0,0.976577
0.5252579697293894,0,0.998984
0.5178970496435152,1,0.999806
0.48578329696173495,0,0.997553
0.5515988925349679,0,0.997699
0.6157524257548563,0,0.996114
0.630497074287052,0,0.993187
0.6352981445682915,0,0.990921
0.3402439888040443,0,0.995536
0.4380373778518521,0,0.998875
0.4065492580840637,0,0.998611
0.3601047258060335,0,0.991391
0.34225004514034896,0,0.986486
0.42045908125604603,0,0.997213
0.40308335429867925,0,0.990266
0.4435726665017132,0,0.985004
0.4072980770012606,0,0.997472
0.347659297819902,0,0.995772
0.43456031825422914,0,0.993007
0.4507158904240997,0,0.986889
0.16984677827779707,0,0.988108
0.2072318507317468,0,0.996519
0.18795865994632333,1,0.999588
0.16232297507487184,0,0.997477
0.15377857652026505,0,0.963731
0.1823642562674443,0,0.983599
0.14817245192390024,0,0.976991
0.22391555582173642,1,0.999928
0.11231000768912816,0,0.988393
0.17049408084348408,0,0.985306
0.18416554618935688,0,0.997216
0.19277605800142292,0,0.995252
0.1848394454451871,1,0.999844
0.21793308194856129,0,0.987536
0.21421264994657538,0,0.998013
0.27213240984674913,0,0.983842
0.2662778969282193,0,0.993056
0.2977508808387806,0,0.998871
0.3146699350718578,0,0.994209
0.3044203073690422,0,0.992962
0.3195649053426058,1,0.999334
0.26718285490318405,0,0.986805
0.3018057401384021,0,0.985579
0.2933182405544583,0,0.998926
0.3387593585497188,0,0.993214
0.23492760476414112,0,0.996671
0.30808869706241254,0,0.988177
0.32849229628217685,0,0.994170
0.267124547372064,0,0.999226
0.30111535598064465,0,0.998762
0.1662233923329615,0,0.997101
0.26055120681845906,0,0.990848
0.3323650793015643,1,0.999233
0.35154859255324256,0,0.999227
0.40514050747442215,0,0.995764
0.34628971772678346,0,0.998152
0.4098746857114763,0,0.987592
0.4611674796620253,0,0.998453
0.48865426291858305,0,0.998088
0.5478442805490571,0,0.998728
0.42910443830277756,1,0.999930
0.45618903082199075,1,0.999503
0.5001122190887419,0,0.996418
0.5653377164810859,0,0.992360
0.5127217856820416,0,0.746453
0.5674987538776902,0,0.998705
0.5406889093989337,0,0.996488
0.5643006113874685,0,0.989083
0.5878802504843842,0,0.995350
0.5867139595858021,0,0.997452
0.538825766691221,0,0.993392
0.5805542062227022,0,0.997599
0.5955217148845398,0,0.981483
0.6111103957597341,0,0.996561
0.6176270999327418,1,0.999728
0.5468131558552383,0,0.994704
0.18865485320432906,0,0.992894
0.16918398948091798,0,0.994313
0.18939670006975107,0,0.994433
0.22411630760218076,1,0.999573
0.21535786736797624,0,0.994546
0.25591110643979814,0,0.998727
0.2991990666777017,0,0.994296
0.2546967952600011,0,0.999146
0.2509074265415561,0,0.980909
0.3019765497531876,0,0.987290
0.2819826270049479,1,0.999870
0.26992835235589696,0,0.995654
0.294257927492069,0,0.997428
0.2863485001659814,0,0.988080
0.34129988313816395,0,0.996251
0.36296911403412874,0,0.993727
0.354162015496785,0,0.997542
0.30574954886548067,0,0.997669
0.2854365123670757,0,0.971220
0.2846400182813404,0,0.970750
0.31484924422333466,0,0.990005
0.31806710062590876,0,0.994393
0.3069637795575469,0,0.996035
0.34773900277852543,0,0.996328
0.378995627311416,1,0.999636
0.28924340397013676,0,0.996072
0.2732849821917056,0,0.990460
0.3051488860772759,0,0.987125
0.32243965209614783,0,0.990723
0.2929997451435031,0,0.992059
0.37100340901594053,0,0.974308
0.32091623842974243,0,0.986771
0.32131250492492996,0,0.994182
0.36117859021585796,0,0.995903
0.3606523090979732,1,0.999520
0.3724034041782392,0,0.997435
0.32734554328644033,0,0.994600
0.45028757891780413,0,0.996802
0.3729916958845644,0,0.993763
0.3774434608065575,0,0.995316
0.43396764159885,0,0.997493
0.39891731111865325,0,0.994910
0.4251155783906957,0,0.996358
0.23630545166511255,0,0.996749
0.2760854978972753,0,0.995341
0.3394821487030308,0,0.995788
0.3545167801723597,1,0.999852
0.3912541225314302,0,0.995960
0.46504147710345195,1,0.999881
0.46501824338094244,1,0.999516
0.5152600827374585,1,0.999593
0.5492543473746164,0,0.988634
0.43735675115265676,0,0.990439
0.33928180237623035,0,0.996429
0.40022925254704844,0,0.989322
0.3812333493139209,0,0.972866
0.32818752114563343,0,0.971629
0.2816468248570122,1,0.999487
0.2413366727004785,0,0.992152
0.2748382594587903,0,0.998633
0.34945552459691015,0,0.998288
0.30324111358284717,0,0.987535
0.32301938829967936,0,0.971530
0.34424189255600984,0,0.989571
0.3668708138110372,0,0.970008
0.48196960730581795,1,0.999932
0.3881700966624925,0,0.971045
0.43261747163739783,1,0.999669
0.4635058718253833,1,0.999819
0.4253568400577092,0,0.998863
0.4982295471175583,0,0.993874
0.5499834966662138,0,0.994693
0.5596213345000102,1,0.999848
0.5786127805811507,0,0.999153
0.5616215287094997,0,0.996279
0.39111761398899264,0,0.989571
0.28061032790211465,0,0.997727
0.2206419479266056,0,0.993530
0.2513870271942686,0,0.983227
0.2591569312203373,0,0.996417
0.37321445154742083,0,0.997576
0.23913814511021847,0,0.977680
0.32949448412534593,0,0.991517
0.1675801759926298,0,0.996391
0.19026307475837484,0,0.990361
0.27503625659260234,1,0.999661
0.26900482628417394,0,0.996222
0.23521820386396539,0,0.936400
0.21316859862548992,0,0.996408
0.2933724930663339,0,0.527594
0.29625856039312976,0,0.995372
0.2225060886278561,0,0.997862
0.14605638259628612,0,0.979414
0.2063971414156139,0,0.998009
0.18428869971487621,0,0.977647
0.1977901251841259,0,0.998117
0.16212846141868878,0,0.990656
0.24597602210984723,0,0.989467
0.24024506335428888,0,0.992211
0.2860019771373786,0,0.988371
0.29686040316223855,0,0.973677
0.31388810428784913,0,0.996992
0.2963551038392627,0,0.995889
0.34049482310810136,0,0.993706
0.25462664971069116,0,0.995884
0.2966461253071746,0,0.957607
0.3342450697649748,0,0.988588
0.3581756315333681,0,0.993503
0.16085416059773258,0,0.998752
0.18337674716702096,0,0.997093
0.3385037703841731,0,0.977243
0.22803066275279937,0,0.994467
0.26811261944140624,0,0.988673
0.24080146008404085,0,0.997810
0.22395810323685844,0,0.987945
0.2403532628633065,0,0.994299
0.20465425886162172,1,0.999803
0.2596975609997455,0,0.994350
0.2665368791519683,0,0.988666
0.3123745558912992,0,0.995575
0.45716309445983233,1,0.999470
0.4164055937532427,0,0.998378
0.40099082682516246,0,0.988063
0.45514972560023936,0,0.999252
0.30855378438261116,0,0.991794
0.41794687344471737,0,0.960063
0.4773622855141048,0,0.992355
0.452202192243237,0,0.994755
0.36063060268399466,0,0.997765
0.3912903144634262,0,0.968555
0.4424326447658094,0,0.999188
0.4561329171760576,0,0.910907
0.44211249728969315,0,0.981638
0.4240604719614773,0,0.993315
0.4895661645089217,0,0.998708
0.48465458952419677,0,0.996928
0.4855362077876885,1,0.999794
0.5119874190007361,0,0.996066
0.5364212184369049,1,0.999575
0.5282853150338802,0,0.995345
0.6088252527092451,0,0.998084
0.509788058812047,0,0.998119
0.5093529288123134,0,0.998436
0.6182892000682882,1,0.999592
0.5947352435610909,1,0.999428
0.5818995173930022,1,0.999928
0.5396615252566431,0,0.994571
0.6123659704072603,1,0.999744
0.6433597853345836,1,0.999868
0.6117737997590172,0,0.993767
0.6944746214590829,1,0.999736
0.6637752031794026,0,0.999065
0.7098491239983838,1,0.999786
0.4212260448829822,0,0.997860
0.39086705683759704,0,0.994938
0.3251220201664498,0,0.994935
0.3194216834240004,1,0.999524
0.3009033290196304,0,0.980412
0.14428060938688453,0,0.988873
0.15902722493050858,0,0.998495
0.22302122679706987,0,0.996760
0.18734164407360013,0,0.990269
0.2524088524715789,0,0.985000
0.1760476949820609,0,0.992856
0.12098523145498563,0,0.982835
0.19807117165753765,0,0.974459
0.23504148772030958,0,0.992474
0.1919373176995236,0,0.939619
0.26153425701937993,0,0.982331
0.22405691985642784,1,0.999578
0.1389836536514858,0,0.991063
0.1367416777750741,0,0.991280
0.14895926219827912,0,0.985982
0.17020755374967927,0,0.995278
0.14482292221618298,0,0.975865
0.1347525197948077,0,0.998694
0.16646467005646845,0,0.982695
0.1600160291852576,0,0.990594
0.16667952089547156,0,0.995311
0.17895738277865814,1,0.999364
0.19679279275685524,0,0.998137
0.18950422427692512,0,0.992562
0.20360390364844638,0,0.989836
0.21013597822922322,0,0.998512
0.23681112875221771,0,0.994566
0.24570651587739784,1,0.999385
0.24762400978148866,0,0.996343
0.26815286294866963,0,0.977890
0.28996734609186586,0,0.997565
0.2916658950213937,0,0.983711
0.19817451901301292,0,0.997963
0.2713619893413993,1,0.999929
0.3086921806717732,0,0.993373
0.36687361463876317,0,0.985091
0.40873408977301884,0,0.996622
0.40176362404386473,1,0.999403
0.449659606544637,0,0.991862
0.46634869235899884,1,0.999603
0.536536908004682,0,0.998356
0.6073949210344027,0,0.998798
0.5345185349131863,0,0.986740
0.47463379982146653,0,0.996895
0.4509892795318157,0,0.998629
0.5376805031831812,0,0.996531
0.5231369560782152,0,0.992720
0.543053677611237,0,0.994980
0.5887086508347614,0,0.999035
0.5651300137779218,1,0.999667
0.5793126697953821,0,0.998983
0.5533990775149827,1,0.999401
0.6171900731599758,0,0.994395
0.5938595604382587,0,0.981190
0.6258459881228775,0,0.999010
0.32786381415520666,0,0.995141
0.1701737944695672,0,0.997603
0.10611085509035509,0,0.990953
0.12233124159557125,0,0.992882
0.1481091033728331,0,0.950881
0.17230856259087843,0,0.998844
0.176941071805282,0,0.995246
0.19277247051015403,0,0.987819
0.2130619038504835,0,0.994581
0.2555170724808766,0,0.991768
0.28082141764594865,0,0.997504
0.2617068865128265,0,0.992374
0.2786162520292172,0,0.995002
0.32177907941819534,0,0.997204
0.32221761683548317,0,0.996738
0.3451356997381359,0,0.994743
0.3341280794158312,0,0.984412
0.3265187540362281,1,0.999419
0.3879904254356912,0,0.987583
0.3834694472108047,0,0.993577
0.42012539111435804,0,0.984181
0.41678082998506666,0,0.996169
0.4388517044516191,0,0.999016
0.4302177975329335,0,0.995813
0.4785733401944019,0,0.993484
0.5080367023453867,1,0.999443
0.23856858952154256,0,0.986518
0.18959257493760484,0,0.981919
0.23364359550959654,0,0.966096
0.21988531041791004,0,0.995082
0.1959771191334731,0,0.981973
0.26555805085244866,0,0.993298
0.22370232885512295,0,0.984869
0.2699097646593798,0,0.996508
0.29391161840778507,0,0.998763
0.26567275273510765,1,0.999493
0.28742672320013224,0,0.992007
0.21823619636721245,0,0.979988
0.30012958621373276,0,0.996837
0.2502899963769242,0,0.997045
0.3600474080891053,0,0.998225
0.37968082787668916,0,0.991539
0.5067548001342093,1,0.999553
0.4689227879914158,1,0.999579
0.5376582922074771,0,0.979737
0.41324453158371655,0,0.986295
0.4329815138314592,0,0.998606
0.3294207816114546,0,0.991802
0.34681609390736534,0,0.995796
0.3867000173222189,0,0.996355
0.3896098893778327,0,0.999227
0.31813116911912254,0,0.996633
0.16725243567890322,1,0.999350
0.28364853818025104,0,0.992113
0.3272594843670487,0,0.991488
0.37132238014724894,0,0.992553
0.40755073044699724,0,0.998304
0.38314411144013766,0,0.972505
0.42343561358985377,0,0.997571
0.45070549001379445,0,0.984823
0.4299569353896854,0,0.986909
0.4850823399652209,0,0.998612
0.5350038453473048,0,0.998829
0.3115874204147273,0,0.982349
0.22597311585584462,0,0.997572
0.27568175168717407,0,0.994290
0.32084193644842723,1,0.999669
0.3460493266672138,0,0.996291
0.27384834863036456,0,0.983815
0.35984114354299035,0,0.999278
0.27016600838645505,0,0.999178
0.30556678928831743,0,0.992768
0.34655260822134437,0,0.640278
0.2871718270372595,0,0.991623
0.31150919765542273,0,0.994816
0.358176302884486,0,0.997332
0.37842979980834823,0,0.983450
0.3600285444130962,0,0.996999
0.4491275431175009,0,0.991054
0.443883888872102,0,0.990232
0.4435708803540542,0,0.997869
0.4703976674134319,0,0.997947
0.37617771014092816,0,0.990975
0.4843180550468465,0,0.991320
0.3618795749102342,0,0.998773
0.35149908981122024,0,0.996007
0.37391879573803477,0,0.998963
0.39048571367068435,0,0.994626
0.4217593948376123,1,0.999629
0.4304176306821699,0,0.997699
0.45973523321915477,0,0.998870
0.4639342885653834,0,0.996527
0.5133868967912668,0,0.997642
0.5305991982010216,1,0.999489
0.5062990669027341,0,0.997897
0.525435590761676,0,0.994871
0.48630177139151654,1,0.999868
0.4878622412022049,0,0.999114
0.5283600478493595,0,0.998414
0.5774400504879835,0,0.998424
0.34511263642140305,0,0.986585
0.367541829666347,0,0.996707
0.3393495752909021,1,0.999608
0.3294241542084194,0,0.991566
0.3077983878225686,0,0.991460
0.32681707799232207,0,0.996388
0.3066888895630034,0,0.987573
0.2954446841739212,0,0.996767
0.28441370700964375,0,0.997141
0.3088521154438075,0,0.994896
0.32519877551795673,0,0.996110
0.2910618970260863,1,0.999205
0.2795642678519001,0,0.972956
0.24064530968571693,0,0.995963
0.3027515169959007,0,0.993608
0.339439312727805,1,0.999666
0.1963807695726515,0,0.990114
0.29494242161727696,0,0.999226
0.1998802262150216,0,0.993330
0.15782858157902582,0,0.998282
0.14160865693739985,0,0.983209
0.168717099042918,0,0.985113
0.16234810176063588,0,0.988199
0.16088951964904702,0,0.982804
0.23267298157368987,0,0.984000
0.16048073572580687,0,0.991198
0.16675244862727656,0,0.996666
0.17814881440722155,0,0.992440
0.20100674598904517,0,0.998551
0.2240046948468116,0,0.997056
0.21102066766285815,0,0.989060
0.19926569018975818,0,0.972698
0.19906015965323703,0,0.996012
0.2536575077054878,0,0.977064
0.29373306936858123,1,0.999934
0.26877833809367824,0,0.996447
0.4129004144602597,1,0.999695
0.40072749133589813,1,0.999703
0.4510297801454869,1,0.999444
0.4327805790390336,0,0.988796
0.45631057989646595,0,0.998875
0.5150586384590891,1,0.999936
0.4458166106673978,1,0.999924
0.4636027649516191,1,0.999791
0.5348096217681421,0,0.991145
0.5400795815749047,0,0.998984
0.496493360636646,0,0.998394
0.19368781645039732,0,0.999210
0.21061782508391816,0,0.988841
0.24747233937440724,0,0.998571
0.31171441455342086,0,0.995218
0.3000943636545056,0,0.993804
0.35285984461535014,0,0.996710
0.3131615419425595,1,0.999746
0.3154780329251009,0,0.979783
0.3562845197139908,0,0.984813
0.4111315309737793,0,0.988323
0.3926115710170237,0,0.814002
0.18882314121238328,0,0.996666
0.2964764971988201,0,0.999145
0.32519929973721384,1,0.999393
0.3531957347229863,0,0.996430
0.23462871314487688,0,0.964822
0.23969061250260515,0,0.986729
0.2483895413397756,0,0.991289
0.24866496700642615,0,0.992937
0.2480787229355851,0,0.994706
0.3788255066190447,0,0.975747
0.5206224112748661,1,0.999667
0.4751831269399343,0,0.989490
0.5519866248771889,0,0.994244
0.440159785049356,0,0.979990
0.41555901705413173,1,0.999418
0.47298080815705945,0,0.997166
0.4703389814793665,1,0.999793
0.4385523828528178,0,0.998607
0.5101235734507625,1,0.999762
0.47632765653206427,1,0.999535
0.5288957761965104,0,0.996050
0.5328236268746198,0,0.993048
0.4982066706968158,0,0.998060
0.541407817525358,1,0.999472
0.562788911524265,1,0.999595
0.5590878269732351,0,0.993868
0.5389390648088553,0,0.997827
0.5651535948377732,1,0.999422
0.503412266323774,0,0.987707
0.5842801700873022,0,0.995222
0.5367078589010088,0,0.998352
0.5586007182211088,0,0.998319
0.58421032409078,0,0.996060
0.5574402714160618,1,0.999701
0.5808931180337024,0,0.999156
0.6160227299039497,0,0.989716
0.2793573658787165,0,0.981214
0.1338105610577523,0,0.997582
0.1980036092715937,0,0.997558
0.13607192546296498,0,0.992622
0.13128995633889054,0,0.979386
0.15235050465127184,0,0.987580
0.10303805594298272,0,0.984600
0.18183511511314024,0,0.973656
0.171150302585048,0,0.991298
0.2093311985492943,0,0.996237
0.13915079894723947,0,0.981045
0.1623812763627496,0,0.993797
0.19065625027727012,0,0.987777
0.21350185933489274,0,0.989109
0.18383461706101137,0,0.988660
0.27805134778806306,0,0.979982
0.22056809652970408,0,0.991222
0.2344134253239388,0,0.991678
0.17082352606646695,0,0.981904
0.27946006555898595,0,0.995986
0.20052096306304637,0,0.991246
0.2853702097825051,0,0.996015
0.24759365187569723,0,0.998373
0.22475037953917676,0,0.995069
0.3217585310715965,0,0.996233
0.3711148393877835,0,0.979340
0.336174864761481,0,0.994644
0.3694232829031367,0,0.998950
0.3777835465896044,0,0.747715
0.41308562786837877,0,0.991521
0.40559030803077756,0,0.992164
0.3594517332901535,0,0.992911
0.39527439459647723,0,0.964279
0.42117853305424713,0,0.994761
0.29392672202817366,0,0.998238
0.37473408903696825,0,0.967799
0.5301281688616506,0,0.979297
0.38432575879146086,0,0.998732
0.2655546183430873,0,0.989128
0.28724186120307477,0,0.987250
0.33318845723273843,0,0.986103
0.38098834035777585,0,0.987816
0.3493992354757518,0,0.993861
0.32523049622377487,0,0.222139
0.32604950161863716,0,0.983137
0.39038267072388233,0,0.995942
0.31415496195008,0,0.998840
0.34092243809054884,0,0.998930
0.3500484950123653,0,0.987945
0.4170641555963811,0,0.998749
0.3425049321626716,0,0.994011
0.29521532802675804,0,0.984265
0.24317710939426168,0,0.995805
0.28772361463539814,1,0.999868
0.28496179754264866,0,0.994244
0.271213128079143,0,0.982881
0.3123807755969855,1,0.999867
0.34394673286048594,0,0.998811
0.31149219037460746,1,0.999441
0.2934412169107169,0,0.994257
0.2701351405870922,0,0.990068
0.2652616835674709,1,0.999288
0.2792208498191731,0,0.988609
0.28897708397506444,0,0.995140
0.28426802265575607,0,0.995411
0.3163317557475685,0,0.983652
0.3616752429738403,0,0.997923
0.37957130554558777,0,0.998365
0.35863646470199123,0,0.977900
0.35318148714389525,0,0.998778
0.3071983266077111,1,0.999330
0.3688453992889196,0,0.988728
0.3694041171242046,0,0.999149
0.3062219237553558,0,0.990372
0.3953801906023873,0,0.984051
0.3695088502313217,0,0.988195
0.27960249837737666,0,0.993664
0.3261869890042651,0,0.993222
0.35077080984753967,0,0.993382
0.37997264804203473,0,0.996280
0.2925540597132209,0,0.986329
0.18006417614476855,0,0.998843
0.3783706502352298,0,0.983897
0.3076588521950303,0,0.983637
0.3624909678977074,0,0.996160
0.3118565289352507,0,0.992980
0.41763681650783235,0,0.992442
0.45575706329708093,0,0.995345
0.41600622990103653,0,0.987111
0.3574585422356952,0,0.974269
0.283033173339,0,0.979651
0.28673220785844955,0,0.974526
0.3245609011724073,0,0.990610
0.29963684847097777,0,0.958730
0.2761273504265089,0,0.979257
0.342529711835037,0,0.994662
0.17243671697642812,0,0.994241
0.17542183135561962,0,0.980764
0.1384052738449456,0,0.990045
0.1821751746712601,0,0.987905
0.1840282447418807,0,0.983277
0.16799264223753319,0,0.998410
0.16717349765228362,0,0.989573
0.200911200259152,0,0.986820
0.23258026214783728,0,0.993996
0.2704064753369528,0,0.990072
0.28576287975441456,0,0.944379
0.34169335553915803,0,0.998272
0.38921050564776394,0,0.990598
0.4867937262658181,0,0.993800
0.4917730676951073,0,0.993730
0.4703611481978491,0,0.865027
0.4942186816705401,0,0.997799
0.4286492881498058,0,0.992835
0.4652322516790374,0,0.986520
0.38087308829087624,0,0.996769
0.44796185724318355,0,0.998281
0.49836644568097344,0,0.999055
0.47062009503842067,0,0.996833
0.5444099452487223,1,0.999921
0.5335468162570309,0,0.177522
0.5451921840815841,1,0.999324
0.5663002271067593,1,0.999705
0.4593605055529958,0,0.996757
0.575668192879885,0,0.998959
0.5895008244637592,0,0.993904
0.5533256599083352,0,0.986091
0.5850448888908855,1,0.999860
0.5339105349064983,0,0.996987
0.5490383316410778,0,0.992334
0.26747645841225914,0,0.987031
0.23596156371057167,0,0.995687
0.20708093192597216,0,0.993586
0.2730265787938488,0,0.979061
0.21346478318928377,0,0.998589
0.2056119024475262,0,0.996414
0.24013597083329477,0,0.997831
0.20594051686300885,0,0.981330
0.27672415635302894,0,0.983599
0.19022848461499248,0,0.980140
0.19638523654747633,0,0.977647
0.21867613115951742,0,0.992385
0.17679703444995074,0,0.984108
0.18520310761834866,0,0.997843
0.2432538142653759,0,0.998300
0.20660775299197304,0,0.995067
0.12483377936953795,0,0.984784
0.1621474118529553,0,0.991208
0.16892188026456956,0,0.886502
0.18963272847460985,0,0.995514
0.20944517920237263,0,0.993853
0.10878704861634854,0,0.968243
0.19173249010574525,0,0.997281
0.21122172181900528,0,0.975022
0.1836378626267535,0,0.987816
0.16910475242299874,0,0.981066
0.20175359215639066,0,0.998771
0.2775510666271657,0,0.974698
0.23506528973318844,0,0.987823
0.19836508994337776,0,0.987856
0.22190370118706032,0,0.993652
0.21418805727122014,0,0.995817
0.2096866129360857,0,0.987525
0.28467013209183273,0,0.994026
0.2744730608841144,0,0.990705
0.25981937054828086,0,0.987484
0.2804506507201848,0,0.994578
0.27796794182317974,0,0.998102
0.2159500880572628,0,0.997384
0.1693915975876865,0,0.997078
0.16032804314788376,0,0.977824
0.16306720826983828,0,0.998379
0.19638299176472726,0,0.998781
0.19527080425547164,0,0.998763
0.18607453532011065,0,0.984943
0.1835722095092289,0,0.990520
0.2064062009214361,0,0.986267
0.21941863523496138,0,0.986860
0.27473496801691727,0,0.998270
0.2805092090450696,1,0.999931
0.33956257315768246,0,0.992398
0.3333487776756896,0,0.976248
0.3182052559000778,0,0.990721
0.3769043029346076,0,0.998381
0.3398864457339699,0,0.987643
0.24398756541022082,0,0.992843
0.2611885378873808,0,0.997885
0.21175172447260257,0,0.995424
0.2508070855403032,0,0.986719
0.1963151841244861,0,0.986711
0.19543609073766632,0,0.996049
0.16141160059454382,0,0.996124
0.22521871168513227,0,0.992613
0.25828287789730753,0,0.993792
0.3034916002188072,0,0.998557
0.38413971475133657,1,0.999754
0.42186805878856665,0,0.999069
0.36414090230540885,0,0.999028
0.44694832289014585,1,0.999867
0.436661134261083,0,0.984903
0.43446935604400455,1,0.999498
0.5214408523363171,1,0.999514
0.46747531326292613,0,0.989080
0.4090453697836013,0,0.993542
0.39417805158351327,1,0.999926
0.4156870400489759,1,0.999724
0.440179715103987,0,0.986495
0.434886851953067,0,0.980682
0.41263306855595083,0,0.996590
0.47202952053309016,0,0.994672
0.4818395239270545,0,0.996659
0.4771415035654082,0,0.996751
0.45542485425811047,0,0.995566
0.5278552808381411,0,0.980957
0.5239561175863053,0,0.998865
0.5109071744705102,1,0.999808
0.5938385376827346,0,0.998282
0.5112332458687442,0,0.999220
0.28442638503962314,0,0.998863
0.17823844501155653,0,0.992980
0.1861045048702822,0,0.997187
0.1253104748168873,0,0.994404
0.15466962853577718,0,0.998247
0.1974229897324602,0,0.992440
0.2116270986148557,0,0.984849
0.23647752090900842,0,0.536401
0.25021348983763647,0,0.964829
0.2847983624579594,0,0.997267
0.32918639936896205,0,0.993220
0.3692746301953784,0,0.986772
0.37982270631573933,0,0.992557
0.26962340288140985,0,0.997359
0.2910437361311183,0,0.998048
0.3140758958504598,0,0.996309
0.31646249036879665,0,0.996579
0.3139782530387802,0,0.996709
0.2860970403649162,0,0.968325
0.3586570317142936,0,0.989192
0.3919073489412769,1,0.999608
0.39154347735217715,0,0.993812
0.34309880581238705,0,0.944631
0.36940644688478813,0,0.990203
0.4236373317248874,0,0.995219
0.39402524130198474,0,0.987181
0.38147878927488105,0,0.993724
0.4471086749561744,0,0.992944
0.44414646266476676,0,0.999022
0.45077017833655925,0,0.995036
0.36219991940325413,0,0.993820
0.46221457214362033,0,0.988725
0.467894291857804,0,0.990526
0.5020163106831881,1,0.999386
0.5293979841106614,0,0.992559
0.4536586908835881,0,0.997726
0.487602408276161,0,0.999059
0.46792432655192734,0,0.998418
0.5242047716978514,0,0.996777
0.5050208560431672,1,0.999460
0.508227432454752,0,0.988984
0.5264590067113433,0,0.998654
0.4997771130004679,0,0.993673
0.5106917643558005,1,0.999789
0.5723271963749305,1,0.999378
0.5485378457394064,0,0.998673
0.5836598473861772,0,0.988140
0.6207748164235304,1,0.999935
0.5826011241294718,0,0.997512
0.545793416437917,0,0.999069
0.5856710547619887,1,0.999486
0.5152749048826863,0,0.996921
0.6148391715759639,1,0.999633
0.4113859673346008,1,0.999448
0.3159670521996705,0,0.980814
0.2436943150526455,0,0.991851
0.2712012459789686,0,0.991842
0.2983328838901075,0,0.991796
0.2909046416525404,1,0.999932
0.19806121650386113,0,0.994294
0.20187560435064536,1,0.999388
0.17906547796611846,0,0.997374
0.2209161906031105,0,0.998921
0.2852162163038233,0,0.996340
0.3034274641607939,0,0.975094
0.35051740746881077,0,0.973145
0.41780181011867257,1,0.999872
0.4771325945071368,0,0.982591
0.4535541630975651,0,0.998359
0.3430676674364342,0,0.998367
0.43729384981786507,0,0.989101
0.429564616167119,0,0.995869
0.5050979720731358,1,0.999644
0.28067607501528136,0,0.670927
0.27490194712327526,0,0.993719
0.3313905115165899,0,0.999263
0.35310963812934704,0,0.993440
0.3641268433443908,0,0.993477
0.4003478557845199,0,0.994884
0.4816177402457775,0,0.998778
0.4106151960056683,0,0.998678
0.4130252669539137,0,0.984309
0.492458226316572,0,0.999175
0.492585799732675,0,0.993521
0.29706515376074044,0,0.993207
0.26183548158406,0,0.977939
0.376860804798076,0,0.987037
0.32958248539940393,0,0.996390
0.43669007639960083,1,0.999751
0.40418611301293583,0,0.996859
0.39438167169950955,1,0.999446
0.17939757590999209,0,0.994395
0.14116466629395893,1,0.999287
0.15631642860742948,0,0.985872
0.18949224105199397,0,0.986919
0.21167833381498258,0,0.998701
0.2254010504583145,0,0.985947
0.260458107973748,0,0.990789
0.18881588797982038,0,0.995503
0.1510175418803597,0,0.985552
0.1890377987969076,0,0.998043
0.18125570189060825,0,0.979415
0.22797155217957601,0,0.996555
0.20498843746758363,0,0.992665
0.19450999843623612,0,0.986873
0.24760907675648602,0,0.986272
0.2599467920064455,0,0.998225
0.3832745531034407,0,0.993440
0.26615113228558906,0,0.978776
0.3315292262055101,0,0.977020
0.382023160364889,1,0.999493
0.3007503156833916,0,0.990007
0.32137475543096317,0,0.997526
0.35917907392614856,1,0.999396
0.31042325656547204,0,0.988419
0.3798067917125517,0,0.998139
0.40680909264533627,0,0.998666
0.391876770430143,0,0.994916
0.4257635683987965,0,0.998540
0.4711931828640573,0,0.998746
0.43180740431245684,0,0.975993
0.4876684738367848,0,0.998548
0.25380297500158183,1,0.999560
0.23160795850263183,0,0.994532
0.27796625225592936,1,0.999931
0.2057391191709592,1,0.999856
0.29926594809801027,0,0.985997
0.37303925855161313,0,0.986057
0.2553464800897293,0,0.996672
0.2240364397772251,0,0.989928
0.27029759275142673,0,0.995290
0.25571725660253525,0,0.996459
0.2913186885698523,0,0.996325
0.2513021259835315,0,0.980787
0.2781024330658223,0,0.755514
0.2776107730035432,0,0.989634
0.2909239560036483,1,0.999601
0.2753071495115751,0,0.988167
0.2879021834043201,0,0.992179
0.31814286024928967,0,0.997478
0.2404996175403315,0,0.980767
0.24631309227438825,0,0.990371
0.3044435130889648,0,0.996581
0.3161172880105153,0,0.995198
0.3528094452608337,0,0.976460
0.3148011501201545,1,0.999437
0.33173377570091905,0,0.985042
0.31632406821409326,0,0.987515
0.33876958236444077,0,0.998958
0.37716917736108324,0,0.994817
0.32983500622399775,0,0.998864
0.3125935747175462,0,0.977934
0.18635915298332828,1,0.999847
0.2057394863276807,0,0.989894
0.2551839351663089,0,0.989319
0.33710488344126277,0,0.980453
0.3500285810470009,0,0.993750
0.350466670644737,0,0.989263
0.4183575866324013,0,0.991967
0.41326195538032473,0,0.997060
0.41646712206014674,0,0.991339
0.38897846377915457,0,0.935030
0.3886393313069118,0,0.993435
0.33008600948964495,0,0.997275
0.3277713544030323,0,0.978125
0.35625049818161775,0,0.990970
0.3987270272135562,0,0.980917
0.447827889480182,0,0.987207
0.44676068490289106,1,0.999524
0.44565227598193025,0,0.994728
0.4499826784225452,0,0.995408
0.4366640280556356,0,0.997112
0.5323875553408425,1,0.999728
0.5236171297355218,1,0.999818
0.44227341385731483,0,0.975608
0.539818264662353,1,0.999520
0.419237587937804,0,0.980841
0.5455785529174225,0,0.990594
0.5792976435866057,0,0.992713
0.5211892488954063,0,0.997675
0.5022005424473912,0,0.998908
0.4358985669736644,0,0.978355
0.4506315707103239,0,0.993382
0.5641796705220213,0,0.990429
0.5162650568459707,0,0.991211
0.4304806371767416,0,0.988444
0.4106378271410288,0,0.997653
0.2016116085493538,0,0.988152
0.2003147704825367,0,0.986323
0.19321553939504926,0,0.972236
0.15381219714758357,0,0.974268
0.1799508913880927,0,0.988807
0.1719228795866132,0,0.993377
0.13981502760024836,0,0.993740
0.25776325669906924,0,0.984490
0.32624282971540614,1,0.999460
0.2198623933978156,0,0.989351
0.2006276787475027,0,0.989836
0.3380834274335591,0,0.988785
0.290595285510667,0,0.998596
0.348137934024374,0,0.997328
0.3229787214427208,0,0.993504
0.3571436342242199,0,0.987667
0.359174735362942,0,0.967299
0.3221305116304403,0,0.977669
0.3339749441557533,0,0.994835
0.37535313212289323,0,0.996775
0.42017244895327027,0,0.995329
0.35976320130403194,0,0.996035
0.418894202383749,0,0.998180
0.4134931286400152,0,0.991636
0.4530658240096128,1,0.999930
0.3063611084936565,0,0.987993
0.3796246878018431,0,0.995456
0.26313394360853726,0,0.999145
0.32672529103720716,0,0.987525
0.3277230360278206,0,0.996800
0.3710326579020598,0,0.995548
0.4108570173363813,0,0.995608
0.4254502003332878,0,0.993784
0.44638808423332854,0,0.977312
0.4142069432940584,0,0.995340
0.23258824382068552,0,0.983591
0.2627565862681662,0,0.986425
0.20424132760109745,0,0.986121
0.18689991842360515,0,0.983238
0.22357374678978134,0,0.992121
0.20416486296619263,0,0.987090
0.19140140787468857,0,0.993959
0.3580199689871025,0,0.997181
0.23127749754012744,0,0.980137
0.2562081969899674,0,0.971639
0.23610471734705452,1,0.999288
0.2729087539693808,0,0.989707
0.29352547529059464,0,0.973164
0.27020630997267303,0,0.997233
0.39868326689276223,1,0.999704
0.1993489022137461,0,0.995771
0.2120047717745647,0,0.978346
0.2935727475055876,0,0.988040
0.30792277215014174,0,0.999215
0.24971350729458547,0,0.992251
0.29097825800321814,1,0.999315
0.29939164241165267,0,0.997323
0.2579839469158602,0,0.985119
0.29184993369154566,0,0.994146
0.3060082954490206,0,0.997633
0.23563855414289817,0,0.987767
0.3088555836573744,0,0.982745
0.2835601136199792,0,0.997663
0.24959914693821125,0,0.969027
0.33124085919639534,0,0.755532
0.31729905170195444,1,0.999589
0.2789084733572498,0,0.992094
0.27868453570673907,0,0.998262
0.35297195416020893,0,0.986296
0.2888391771400621,0,0.997073
0.37038578083750984,0,0.999192
0.36517403052310177,1,0.999475
0.37053545764298135,0,0.996703
0.3900369974407297,0,0.981908
0.3050965720046486,0,0.993676
0.4376109321302667,0,0.998936
0.33459720466485593,0,0.983856
0.4098211515336417,0,0.983481
0.4067487243390421,0,0.980940
0.44929265180792266,0,0.997722
0.4906353321818021,0,0.993856
0.4709470301666201,0,0.977210
0.44662923348530104,0,0.973102
0.39070592362095197,0,0.994600
0.5062475490287754,1,0.999632
0.36716609173097553,0,0.995929
0.3033457581919153,0,0.980562
0.42283195454781036,0,0.986528
0.46180632064381183,0,0.997796
0.44966105083182034,1,0.999593
0.46475807804649677,0,0.994906
0.38371150039051877,0,0.994698
0.5347563208540056,1,0.999934
0.41609383274929,0,0.997238
0.5048366784338046,0,0.983711
0.5232787552710321,0,0.999184
0.5377867585102629,0,0.995566
0.49590053092293973,0,0.848163
0.4717399281732565,0,0.998225
0.45390359265128566,0,0.997324
0.5248675968786001,0,0.993631
0.4625804233454467,0,0.997305
0.3438346507978587,0,0.977268
0.5515918739331114,0,0.998170
0.4887087326708457,0,0.999083
0.47747831039455024,0,0.996922
0.6280569932134001,0,0.984996
0.5001931140050713,0,0.988648
0.4645757446641786,0,0.995116
0.51879572273575,0,0.995584
0.5028336643313686,1,0.999521
0.498027720143035,0,0.997620
0.6389676763493856,0,0.986614
0.4878525394831262,0,0.984316
0.6543669966900437,0,0.997880
0.5269311001392993,1,0.999603
0.6280444292408712,1,0.999525
0.6069101043618471,0,0.991810
0.5775702205705046,1,0.999933
0.5445840991663022,0,0.998510
0.5697887057725635,0,0.994337
0.6635313665184283,0,0.998396
0.3552686467488104,0,0.995206
0.35230810318658656,0,0.986781
0.2376035864927535,1,0.999553
0.12157449941726871,0,0.955512
0.11326143896437518,0,0.991470
0.10725889001483142,0,0.988459
0.13370090088930922,0,0.996481
0.13154556632076392,0,0.978188
0.1441692003598262,0,0.988109
0.14355227523456698,0,0.994418
0.17800255045088056,1,0.999341
0.24807423198286127,0,0.991770
0.20360334663477986,0,0.998365
0.2107800663216814,0,0.990297
0.21341464749478942,0,0.977045
0.20327134450551998,1,0.999666
0.2812733290619433,0,0.999056
0.23462245626019698,0,0.991791
0.22386615608372448,0,0.978592
0.18802218717473954,0,0.996219
0.2508668585147281,0,0.952716
0.29659219747741206,0,0.971219
0.19848974221202081,0,0.973083
0.20171357053917358,0,0.998386
0.2057024052631217,0,0.997371
0.2400025772975955,0,0.898450
0.23749698472707254,0,0.993002
0.2289565670323952,0,0.997366
0.27464413296568574,0,0.997750
0.26004673858645755,0,0.986300
0.24171217604643203,0,0.990992
0.30293326574637336,1,0.999939
0.4068549362652564,0,0.998075
0.37924937407460196,1,0.999441
0.4056007777352282,0,0.993422
0.4227710485994685,1,0.999526
0.4682065159896381,0,0.985882
0.49109075380930883,0,0.995341
0.4774122495572551,0,0.994777
0.5233028814430902,0,0.998829
0.46749639844459495,0,0.994026
0.4498311930814455,0,0.999041
0.48035730366218593,0,0.988234
0.5205231645719536,1,0.999583
0.5437324335504937,1,0.999604
0.5033967173352812,0,0.985622
0.586590373736906,0,0.997245
0.5515284060923094,1,0.999492
0.6135912759730977,0,0.989072
0.5435714979763943,0,0.979954
0.6223461830426267,0,0.880620
0.6491711615023293,1,0.999443
0.5763151075284251,0,0.987279
0.6303669099342022,0,0.985024
0.6063713621847829,0,0.990552
0.5803195620843721,1,0.999646
0.5879406001043488,1,0.999512
0.5811799287024612,0,0.998647
0.5957627841321699,0,0.998854
0.5440816544918006,1,0.999938
0.6407940909983653,1,0.999395
0.6120759422674653,0,0.998217
0.6005139068155798,0,0.995788
0.3558594266529839,0,0.996582
0.44237997480318847,0,0.995856
0.4585816319813306,0,0.995637
0.3844351128515357,0,0.996285
0.33693330750470346,0,0.986128
0.4593677008379591,0,0.996084
0.2385011371989555,0,0.986995
0.2379329954647261,0,0.979957
0.2094050960216765,0,0.997736
0.2669669099519055,0,0.986952
0.27068509290928944,0,0.997236
0.20378680890544792,1,0.999934
0.2289480439036387,0,0.997953
0.21321379706164142,0,0.992387
0.2533177972422531,0,0.998112
0.230771584865234,0,0.982033
0.26044259970900924,1,0.999670
0.26175104982529895,0,0.996956
0.16205266758509562,0,0.996340
0.20753295446721204,0,0.968309
0.14075549559735123,0,0.986888
0.17813485279763366,0,0.987496
0.1551011731394528,0,0.982235
0.15881500127912837,0,0.994562
0.15118313700720837,0,0.994688
0.1721691468282027,0,0.991359
0.18942695133677745,0,0.846080
0.19565878965855055,0,0.995024
0.20772894637988684,0,0.994299
0.20340180191560403,0,0.994768
0.2620708976604465,0,0.985391
0.22271566359711556,0,0.981376
0.1476639773780716,0,0.972108
0.2916646783125954,1,0.999241
0.24201762871992324,0,0.985470
0.28363846837312046,0,0.994604
0.31683012747590916,0,0.992156
0.33803495223189006,0,0.997543
0.3700923767771634,0,0.998497
0.2567572823438428,0,0.992242
0.2870364213950959,0,0.994762
0.35002005349181725,0,0.991394
0.36951744166341965,0,0.989172
0.38215196495496306,0,0.992715
0.34812763077831343,0,0.999081
0.36466087728453367,0,0.995042
0.34217394150539865,0,0.998479
0.41807836257804026,0,0.996211
0.36758669366859487,0,0.998925
0.34474086190937153,0,0.992114
0.3572589613282102,1,0.999666
0.37764620460702714,0,0.998683
0.4037184453971995,0,0.989444
0.14797094658154866,0,0.991322
0.2191531353323093,0,0.999166
0.23252422881106455,0,0.992781
0.2051109738328775,0,0.997805
0.25140459531658677,0,0.996855
0.2617600225546467,0,0.988235
0.2689700681202976,0,0.979790
0.29023701895832793,0,0.993816
0.25425009382881136,0,0.997247
0.25786884696660345,0,0.999266
0.29694968130981203,0,0.992338
0.32992803681549904,0,0.999283
0.3880765672368289,1,0.999589
0.3944574660765888,0,0.997797
0.3700599758952676,0,0.982430
0.41235890359022936,0,0.999112
0.46955331223599667,0,0.997338
0.4691201402532708,0,0.997721
0.5360233016023818,0,0.997950
0.5416847429835652,0,0.998203
0.42386136761089926,0,0.998007
0.41754273809217773,0,0.996815
0.5403022795503769,0,0.998674
0.47839315223292717,0,0.996403
0.5342500049933481,0,0.996903
0.48992002435972065,0,0.751595
0.5307273855735035,1,0.999861
0.5328778416030088,1,0.999934
0.5787850108373568,0,0.868651
0.5815409510532288,0,0.992655
0.5198616962348728,1,0.999935
0.5613833014235899,0,0.995768
0.5525463111777048,0,0.999159
0.6169295143740118,1,0.999694
0.5802880764126909,1,0.999793
0.5974683065093769,0,0.998935
0.5790422270906015,1,0.999736
0.6097299613983916,0,0.991539
0.6169436909104242,0,0.995422
0.589504961739458,1,0.999932
0.6340799562299905,1,0.999939
0.6682402571988528,0,0.991881
0.640447989936382,0,0.998355
0.639633500726462,1,0.999693
0.6423211155040095,0,0.997180
0.6198443933392929,1,0.999800
0.6649012265979787,0,0.997842
0.6774297687316885,1,0.999771
0.16893005849392953,0,0.992657
0.18641230769656258,0,0.999259
0.12329071187606033,0,0.996464
0.16397737347654176,0,0.993715
0.20103293238386677,0,0.997237
0.23109057655896956,0,0.985952
0.20962388792741676,1,0.999315
0.19509817931492773,0,0.992005
0.20280756656316576,0,0.994922
0.23834067904503833,0,0.994185
0.23318361970841317,0,0.992939
0.2115997098234437,0,0.992660
0.23827492636982028,1,0.999790
0.2337162639978014,0,0.997064
0.24628387091879794,0,0.984689
0.28056677254965984,0,0.996432
0.24045992098623706,0,0.998443
0.28566408097909995,0,0.998755
0.2952135338152807,0,0.994257
0.3145808568726871,0,0.993240
0.25074618813302435,0,0.992735
0.27040593645980476,0,0.997328
0.30599569249803843,0,0.995498
0.34048270051774093,0,0.987587
0.3214284791756868,0,0.997887
0.3021881220981242,0,0.993504
0.31593684184090326,0,0.998234
0.3443476556547077,0,0.989826
0.3383028057678946,0,0.996515
0.35650806624826664,1,0.999606
0.36351321507497675,0,0.998962
0.386671441048895,0,0.986221
0.37077652751308104,0,0.998924
0.44635353126096755,1,0.999934
0.42794390887966116,0,0.995798
0.3630957857726173,0,0.998433
0.4076085100744519,0,0.982189
0.39673462642585167,1,0.999668
0.42009718624524717,1,0.999660
0.4155778058161446,0,0.997652
0.4754026189113588,1,0.999611
0.4269705980619563,0,0.990130
0.4110194898708695,0,0.996886
0.4475859518942196,0,0.989088
0.4640884341986483,0,0.995798
0.48487922501073527,0,0.991954
0.14804819296168142,0,0.977473
0.12284223128824838,0,0.998967
0.12852481490286674,0,0.995449
0.14316257942523677,0,0.985331
0.1364483123375192,0,0.983791
0.13039508015171514,0,0.988506
0.1123318463347551,0,0.977145
0.13861479354633072,0,0.998216
0.1046870042032057,0,0.993281
0.12427157491277868,0,0.986563
0.13234818706146356,0,0.965936
0.1489067311207927,0,0.917626
0.16415772038149648,0,0.983216
0.19061623377278697,0,0.892623
0.28634466133101494,0,0.977568
0.23605790789877323,0,0.998630
0.24833108216800878,0,0.975834
0.36456945783375416,1,0.999930
0.29517243946964583,0,0.988956
0.3579754204273486,0,0.980959
0.44421831419598296,0,0.977640
0.406109490174709,0,0.984629
0.35172112527952704,0,0.998960
0.25335336462714547,0,0.998790
0.3398434475631513,0,0.988516
0.3003675251912251,0,0.994798
0.344475627336194,0,0.973719
0.4119280047799718,0,0.988830
0.38332540692358336,0,0.994402
0.33044380584917077,0,0.990600
0.39800835359630327,0,0.980103
0.41768251412643975,0,0.997499
0.45256281636757406,0,0.913634
0.37778456192530024,0,0.996123
0.3904697273329789,0,0.984497
0.3837055853118835,0,0.973798
0.4151058778773031,0,0.998906
0.4045643777482933,0,0.979069
0.4067112673487915,0,0.983394
0.4544990785450496,0,0.990580
0.478701467098773,0,0.991720
0.461237717454133,0,0.988443
0.5292260865016688,0,0.987082
0.4924028462265545,0,0.998185
0.4636510326944295,1,0.999510
0.2990740168596324,0,0.998129
0.24415204534693632,0,0.998907
0.2414601137519593,0,0.990289
0.2619405671425241,0,0.998881
0.21600236988292004,0,0.988130
0.2557669143402178,0,0.995923
0.32923863053207464,0,0.991437
0.24593462446840839,0,0.997283
0.21780840234470067,0,0.997809
0.24867487180393485,0,0.982284
0.2515993836912958,0,0.991552
0.26072150608687056,0,0.988608
0.22687240374822362,0,0.995005
0.23386858923513829,1,0.999387
0.25987447614742537,0,0.995619
0.2846080333491879,0,0.999246
0.2585363971904628,0,0.997885
0.35220930474267254,0,0.992873
0.30290748911662363,0,0.981809
0.262913455245278,0,0.994444
0.2002949011713439,0,0.971240
0.18499302408710394,0,0.975554
0.21748708081802048,0,0.985433
0.19318998869281076,0,0.996064
0.2183050398952425,0,0.988679
0.24790306413191304,0,0.991091
0.2527586923853821,0,0.994586
0.29406195847738464,0,0.986833
0.2360887949702191,0,0.992280
0.28514795186409886,0,0.991008
0.27399647135726174,0,0.987111
0.33445345311035984,0,0.990085
0.3592831226519271,0,0.996327
0.33168207132224353,0,0.985743
0.33046560070433517,0,0.994586
0.35015315996620805,0,0.979540
0.367652448559525,1,0.999422
0.37725970133642694,0,0.979175
0.462279561684556,0,0.997997
0.29533498790483326,0,0.984820
0.2996326031512771,0,0.995953
0.16932988919124253,0,0.996956
0.212399722488595,1,0.999323
0.20340891166354386,0,0.997849
0.216864584960738,0,0.999054
0.17975449137693317,0,0.997610
0.2610066479647848,1,0.999683
0.29272905361445095,0,0.989896
0.2779091571428689,0,0.992881
0.28394024672827356,0,0.975829
0.3025706981475624,0,0.986560
0.20695196542922636,0,0.993213
0.26852937390009884,1,0.999775
0.3487440811624811,1,0.999928
0.31974419014645067,0,0.979925
0.3275020566630206,1,0.999519
0.35800990764302737,0,0.870414
0.36731775284257456,1,0.999537
0.3691065025189546,0,0.998625
0.34393791397144924,0,0.998274
0.3843784019483083,0,0.996371
0.33907639085876584,0,0.979476
0.33266462210812714,0,0.998501
0.15922870420838472,1,0.999289
0.1640931932780763,0,0.987122
0.2255573974688497,0,0.989990
0.22606971587126198,0,0.958784
0.26695983197798157,1,0.999540
0.2586749764391742,0,0.998660
0.22368055838979609,0,0.988850
0.2685861163620699,0,0.990705
0.20881437533530084,0,0.984255
0.18229910675445674,0,0.988719
0.2587583305060767,0,0.993313
0.2347542057572178,0,0.994180
0.3078237701057578,0,0.991663
0.34763660286860487,0,0.990093
0.3415577760114567,0,0.984798
0.4111309298415342,0,0.988712
0.3821689284135834,0,0.994107
0.42475173003412864,0,0.987737
0.4392688439399231,0,0.991511
0.5054266355503297,0,0.999178
0.4101731350554841,0,0.998450
0.4549347896643684,0,0.994950
0.4986117547396613,0,0.998894
0.18618366540804435,0,0.992868
0.17107807131919964,0,0.994613
0.20888121009479976,1,0.999742
0.18259397069704492,0,0.988934
0.22803299503239943,0,0.992200
0.2757013209405863,1,0.999464
0.27561414508500914,0,0.999162
0.18804467770951575,0,0.998672
0.2616226696436029,0,0.990845
0.24207124543262348,0,0.998323
0.3248049635709238,1,0.999650
0.2634866913146943,0,0.995346
0.29480622409785334,0,0.997701
0.32331123523631156,0,0.997070
0.3826505074309445,0,0.994702
0.3326095383969693,1,0.999933
0.1834788456514639,0,0.998522
0.21541072428975075,0,0.998378
0.22190730083683513,0,0.992596
0.23716063396150444,1,0.999808
0.26741485647313046,1,0.999404
0.2636162904912645,0,0.997744
0.2609553838998681,0,0.997880
0.3092132358862655,0,0.997396
0.35822966737010303,1,0.999353
0.2901522275107358,0,0.998992
0.35384013723665114,1,0.999445
0.29224060798780466,0,0.997721
0.33606371470713226,0,0.998639
0.3442798004450909,0,0.998836
0.2740292726754912,0,0.815474
0.3068200254900872,0,0.990514
0.29469593804327243,0,0.998639
0.370219934161622,0,0.998982
0.31464347161446116,0,0.999054
0.32254598210951607,0,0.997247
0.35957666806771454,0,0.999204
0.36508552738717553,0,0.997446
0.3390247822866355,1,0.999343
0.356466897394229,0,0.985771
0.37686620240141516,1,0.999629
0.4141006137375966,0,0.998019
0.3799395762649802,1,0.999583
0.38914479663846113,0,0.997587
0.4062114876671336,0,0.998614
0.17961609385929297,1,0.999606
0.1898045457483812,0,0.995657
0.15618885882706113,0,0.995073
0.23055781087387933,0,0.979405
0.2379435140665314,0,0.990239
0.19113711032734193,0,0.995392
0.21219918957320294,0,0.987343
0.23309313146449784,0,0.996814
0.2308140468994489,1,0.999313
0.2551658466939422,0,0.996611
0.2669530351199251,0,0.990683
0.3102481548401398,0,0.994528
0.3015693418303192,0,0.991074
0.2777522770728483,0,0.993748
0.29194154074330936,0,0.989785
0.22909271519456842,0,0.990510
0.23030156464833304,0,0.976746
0.2971615781911054,0,0.986137
0.16586856773270164,0,0.988963
0.15991865728289423,0,0.996853
0.248998214241362,1,0.999813
0.23676469101721315,0,0.995322
0.21980760090169485,0,0.998662
0.2712824870568411,0,0.995522
0.28083247651283316,0,0.994931
0.3131298562204529,0,0.998215
0.27332513323265173,0,0.995244
0.28769286263315785,0,0.970543
0.29880436479814587,0,0.996648
0.31613888505218235,0,0.997319
0.3321905392707813,0,0.989024
0.374055465034769,0,0.984425
0.35593044216319153,0,0.997656
0.33339436558235697,1,0.999598
0.3177204405414793,0,0.988415
0.3567005562020568,0,0.997119
0.39578848859070775,0,0.994861
0.40822606312084825,1,0.999529
0.39799168039737703,0,0.996474
0.43637999893161306,0,0.997732
0.43332021860069914,0,0.978960
0.4120503605740963,0,0.989990
0.4133174440172796,0,0.991808
0.4362388803446992,0,0.993688
0.19663433892179755,0,0.993997
0.2307798959697139,0,0.986780
0.27259057350293403,0,0.988571
0.3175429014940289,0,0.995778
0.2997594961050051,0,0.978918
0.3680836998167344,0,0.996188
0.40760207865513276,0,0.996089
0.43084772618238293,0,0.975302
0.41030779896253644,0,0.969522
0.3853431785115296,0,0.995140
0.46225200442761477,0,0.990550
0.4753319389996428,0,0.999231
0.5277651717861399,1,0.999935
0.4671139647268743,0,0.998207
0.5846906323341868,0,0.991216
0.6286082984765136,0,0.990632
0.48361035601406327,0,0.998958
0.5475060514173791,1,0.999735
0.4751808718556736,0,0.996904
0.524288127514067,0,0.994054
0.502315224793998,0,0.994190
0.5933021592826673,0,0.982471
0.5763448062344844,0,0.996616
0.5672570398019774,1,0.999370
0.5006554546706198,0,0.992733
0.5429066813129919,0,0.995706
0.5549303799313907,0,0.997458
0.6300838273814727,0,0.994024
0.5168654485910051,0,0.979496
0.5854242701117908,0,0.999192
0.5535671134537882,0,0.995271
0.5740550423143399,0,0.983280
0.6632432253014684,0,0.996496
0.6617893676029932,0,0.872270
0.6589819675479567,0,0.990121
0.6022830078949994,1,0.999658
0.6682073315042144,0,0.997371
0.6336210150533449,0,0.992474
0.645468170591807,0,0.998939
0.6874861651003442,1,0.999934
0.26723397593484494,0,0.994574
0.17254036282812393,0,0.987891
0.1461178328569055,0,0.992033
0.198411867720805,0,0.989568
0.1806391276336801,0,0.985608
0.22126039453763063,1,0.999930
0.22539409008894534,1,0.999840
0.26182563588912555,1,0.999785
0.29046058342434955,1,0.999415
0.19523595812737335,0,0.988573
0.2938217230748696,1,0.999540
0.27121589968977117,0,0.985334
0.2628860773667752,0,0.919807
0.19087494164286942,0,0.984095
0.2636066782954424,0,0.998483
0.27933609995630276,0,0.984831
0.16197379514927082,0,0.983834
0.14040642920197058,0,0.980887
0.15956512734551975,0,0.981510
0.1956216864014194,0,0.996056
0.13845017162376175,0,0.981279
0.2179043974858673,1,0.999749
0.23347508025885694,1,0.999865
0.20234023740425033,0,0.993282
0.24188075466892536,0,0.996243
0.23034962223538819,0,0.985819
0.26364432425209505,0,0.998648
0.29542072746268283,0,0.982173
0.27004105685662877,0,0.995373
0.22184232525721975,0,0.997025
0.2798119109170307,0,0.989821
0.2748887478844456,0,0.991579
0.2219008045994382,0,0.988387
0.09439044105873903,0,0.982987
0.1296421717247205,0,0.987870
0.12087850218590598,0,0.981131
0.14212311413830053,0,0.993266
0.16101740273065812,0,0.998003
0.15568586294348727,0,0.987864
0.16651781469010035,0,0.987465
0.20276374918742077,0,0.986612
0.18922051673444534,0,0.993743
0.24101508797025328,0,0.982169
0.28157922790333884,0,0.996815
0.23747619207052603,0,0.996916
0.2215741063763564,0,0.989781
0.23054518904461413,0,0.998796
0.2812879702863357,0,0.765322
0.25011019280951424,0,0.993179
0.2158487828811564,0,0.989915
0.22998233272177152,0,0.994565
0.19226671152875052,0,0.968638
0.18071016824164188,0,0.992015
0.2377571569713069,0,0.997937
0.2388846826742819,0,0.987635
0.32936342918195466,0,0.982507
0.32004348186459,0,0.992977
0.3035354212840798,0,0.997267
0.3641070920687694,0,0.991104
0.3700910672519696,0,0.999009
0.2982606713881965,0,0.999195
0.394328932200236,1,0.999449
0.3915069971407552,0,0.995375
0.31365736454397736,0,0.994357
0.3437592702677804,0,0.995727
0.366564536470905,1,0.999933
0.44245650572723016,0,0.986949
0.27647626341788434,1,0.999943
0.2953550156629978,0,0.997445
0.34963892854933487,0,0.997385
0.34371887471446955,0,0.997734
0.34240562700747174,0,0.997595
0.39797570609112104,0,0.999320
0.41001846616203486,0,0.991295
0.4526699816243053,1,0.999881
0.4863063142329677,0,0.997804
0.47128619134203603,0,0.998679
0.5435041600340982,0,0.999330
0.5284629000117677,1,0.999815
0.5271457377440144,0,0.998878
0.5493024951147136,0,0.996243
0.5383727575538594,0,0.998283
0.545031615199312,0,0.982544
0.5431347153745796,0,0.996415
0.5769612867213905,0,0.997310
0.5194585723086982,1,0.999748
0.5205238376266442,0,0.999078
0.5969715333353186,0,0.997527
0.5506006765623447,0,0.985272
0.6492265169370692,0,0.999064
0.6367984896134413,0,0.998644
0.66520358633801,0,0.995175
0.5843236275644965,0,0.998987
0.6367429321464312,0,0.984583
0.622559970531488,0,0.995728
0.6196047918935093,0,0.999152
0.31875948494519213,0,0.988322
0.21232550765827216,0,0.983766
0.3157425767526726,0,0.991893
0.32228687608536416,0,0.995734
0.22404461817033444,0,0.996107
0.3754293172721202,0,0.996516
0.20913050014349327,0,0.990430
0.1880705960851313,0,0.980137
0.16475179308019303,0,0.994233
0.2159801190620526,0,0.993491
0.23746836177486186,0,0.991288
0.22767951266592246,0,0.960066
0.20831357238247364,0,0.985989
0.2514301102002478,0,0.995246
0.19876569737328822,0,0.994261
0.21939733271436074,0,0.998919
0.18292718608114225,0,0.990211
0.2524640894733946,0,0.999124
0.30299110595196793,0,0.983530
0.21992087509598163,1,0.999932
0.20110109702712264,0,0.994843
0.11735814498101442,0,0.980013
0.14611633627124987,0,0.981530
0.1584000130435656,0,0.996810
0.1616806272236468,0,0.997690
0.18592498862314882,0,0.994553
0.19678457404115615,0,0.988931
0.22070408708440595,0,0.998552
0.2054095151839106,0,0.994319
0.21583114555688618,0,0.995240
0.2740578987301709,0,0.992098
0.24717517673927572,0,0.999050
0.2960208294393927,0,0.998552
0.25705204686197086,0,0.968106
0.1693376203560194,0,0.985741
0.22348507164478873,0,0.984692
0.1751472358066874,0,0.978723
0.1497071382302257,0,0.995101
0.19714007764022354,0,0.963706
0.2387677812756781,0,0.993367
0.23382393604695945,0,0.997660
0.21127851707858916,0,0.995375
0.19595905376926795,0,0.998232
0.19808302783403733,0,0.990207
0.19407883067652715,0,0.989342
0.20990067051802666,0,0.995899
0.26157959712601225,0,0.996360
0.2442711863988492,0,0.994659
0.23877630705454606,0,0.986618
0.28116677742475604,0,0.983371
0.28686288818113986,0,0.998742
0.301388990717232,0,0.975106
0.3349564156082306,0,0.994254
0.3324470560046862,0,0.987710
0.3067513426802902,0,0.995570
0.3189150960827774,0,0.996092
0.3398619863862618,0,0.988507
0.2914278752406839,0,0.988729
0.2699396408434348,0,0.998357
0.2939875003355947,0,0.996047
0.34347111235992406,0,0.991646
0.33149333096646166,0,0.995143
0.32112645448616817,0,0.993896
0.38115168053406434,0,0.981008
0.32559635374055984,0,0.992929
0.363317589644079,0,0.990123
0.3172939020393998,0,0.991411
0.3393680071360273,0,0.975808
0.31029961150709057,0,0.990506
0.3775158829935982,0,0.967305
0.39181613482515226,0,0.994344
0.3473084138025731,0,0.990945
0.3734753193350269,0,0.991234
0.3953940871320478,0,0.980748
0.3539627357451882,0,0.990197
0.43153117340748665,0,0.997223
0.38433771180552456,0,0.661262
0.44414366243386294,0,0.992315
0.22517633439326304,0,0.986068
0.2705763519938675,0,0.999073
0.31519304254506214,0,0.998536
0.37120021126791364,0,0.992021
0.3954622432316215,0,0.999101
0.44992171112438173,1,0.999873
0.42608000290422804,0,0.982139
0.4172922424510073,0,0.992953
0.3516487160454139,0,0.984292
0.33942142063370945,0,0.989889
0.3408498967861583,0,0.998661
0.3122329854291898,0,0.990621
0.3595458183169557,0,0.999059
0.3396675925347155,0,0.990490
0.40657032253729886,1,0.999450
0.3475521065834888,0,0.995852
0.40761970296789773,0,0.998948
0.48492210268401403,0,0.998432
0.3939745331551023,0,0.989805
0.3995784534309007,0,0.990383
0.4241118090994541,1,0.999781
0.5209767817036789,1,0.999387
0.45032260940933666,0,0.996790
0.4656533784748926,0,0.998214
0.4468634089435818,0,0.996621
0.41199732876145073,1,0.999710
0.46529326300656293,0,0.999070
0.4914326201427596,0,0.998560
0.48981000296125105,0,0.997969
0.4886244328646765,0,0.998171
0.5013864240839078,0,0.996379
0.5466550994658818,0,0.998891
0.5499158680230015,0,0.999073
0.5510106677726763,0,0.998390
0.18861019489465317,0,0.986288
0.18101845512587147,0,0.986686
0.1892791821212821,0,0.994029
0.1933939262951772,0,0.986061
0.19079790137392091,0,0.975593
0.23258037587017066,0,0.988499
0.17766764984056413,0,0.998132
0.22915519083567065,0,0.998946
0.23211287812639586,0,0.997836
0.22916970145209348,1,0.999746
0.26065854669376287,0,0.996952
0.2530770891022014,0,0.988021
0.2950630890440402,0,0.495170
0.3230137955362295,0,0.992630
0.4009738628543661,0,0.996621
0.3692934776693912,0,0.998568
0.4235526926812813,1,0.999554
0.40360010880220437,0,0.996504
0.40071720399370686,0,0.996331
0.3990137078126893,0,0.989579
0.39970260286717046,1,0.999665
0.3725153077407487,0,0.991797
0.3442527770937563,0,0.997137
0.24674558731776677,0,0.996468
0.2910587592948581,0,0.994229
0.2753854718852081,0,0.988412
0.3587846726799898,0,0.994746
0.31596137657720674,0,0.996541
0.32484483324707447,0,0.989330
0.3590626014467315,0,0.995785
0.3324729604174895,0,0.997070
0.40719758006125656,1,0.999747
0.3695994168787743,1,0.999792
0.3899277205673768,0,0.996617
0.3081845954431281,0,0.998099
0.38643177301295395,0,0.994289
0.35400486430344796,0,0.995909
0.3624247566465598,0,0.998955
0.3331673073581758,0,0.992997
0.37866420753855956,0,0.997875
0.41565791352768233,0,0.998846
0.41335486411835115,0,0.992205
0.3844885864920987,0,0.998763
0.4557352782044241,0,0.998464
0.4857519145670185,0,0.997334
0.43838390990162784,0,0.998791
0.4776146630286118,1,0.999743
0.40652803674478966,0,0.996387
0.4426642847122039,0,0.993882
0.3816650065212779,0,0.993918
0.40293807878308074,0,0.989386
0.38610648664634895,0,0.951109
0.495047963215187,1,0.999544
0.43673974972707896,0,0.996379
0.4137442912734823,0,0.994982
0.5014859836721175,0,0.997339
0.44108656711239824,0,0.983461
0.4811110056769091,0,0.996725
0.46542353166901046,0,0.985071
0.39286915881995504,0,0.995012
0.3343154645462473,0,0.993038
0.47492453643699056,0,0.998456
0.5026235879598115,1,0.999874
0.43072175559457554,0,0.987319
0.480547468692214,0,0.994656
0.27523678286233666,0,0.988904
0.3099331527564097,0,0.993210
0.20855570609586774,0,0.990596
0.23011414239275005,0,0.985981
0.23891425651100787,0,0.998520
0.25578368058925227,0,0.990109
0.25483789959068454,0,0.996731
0.2629022912362754,0,0.996026
0.2721136756188976,0,0.997278
0.2690442651333803,0,0.998139
0.2870623501369443,0,0.994158
0.27637830723213425,0,0.997946
0.28737734313007157,1,0.999579
0.33376861760738497,0,0.996437
0.2773428131786555,1,0.999682
0.31542968748399836,0,0.998905
0.28493470160681433,0,0.993835
0.3026073916430214,1,0.999593
0.3719537854502354,0,0.999241
0.38583273922552064,0,0.994240
0.37780562575686083,1,0.999426
0.3994465066601514,0,0.999299
0.5037888143248903,1,0.999934
0.47534584227854704,0,0.995183
0.44983706060870743,0,0.989464
0.40542804002562843,1,0.999567
0.4500022818236564,0,0.997637
0.4690138965265479,0,0.995781
0.46505153497950463,0,0.995331
0.48462270078440495,0,0.997557
0.5434972294186133,0,0.999002
0.4775719955950027,0,0.995229
0.45990512963778774,0,0.998916
0.5292181928836468,0,0.999284
0.4465292750918894,0,0.994744
0.48469516202720564,1,0.999806
0.49692891639201275,0,0.998974
0.5198984777868385,0,0.990739
0.5761166623539804,0,0.997258
0.6143202216329878,0,0.998666
0.5915072290733251,1,0.999795
0.5467996023914911,0,0.992041
0.5402969718936361,0,0.998765
0.5961225057251905,0,0.998804
0.5770178084914929,0,0.999192
0.5576858060912797,0,0.998235
0.41735411485093593,0,0.999068
0.3796853180227153,0,0.993575
0.4081020915169472,0,0.991965
0.42634045395917275,0,0.993491
0.39123031668774705,0,0.905236
0.4498040102931371,0,0.996834
0.4455441084223536,0,0.998114
0.2773215217252449,0,0.998561
0.316393622165562,0,0.996374
0.31648392482533433,0,0.991981
0.30721554848095983,0,0.985593
0.24982886611344868,0,0.987574
0.2736327774382518,0,0.990803
0.28451330505334305,1,0.999542
0.2560725192450787,0,0.989772
0.27280421943698463,0,0.974924
0.29145359148678346,0,0.999158
0.27069622643421143,0,0.990888
0.33310493212946063,0,0.988668
0.3786743765494021,1,0.999737
0.2564871017879168,0,0.994635
0.2909511119246402,0,0.998836
0.3365165278814736,0,0.997788
0.3243157529490204,0,0.998766
0.2426163412320597,0,0.997351
0.2862191440059946,1,0.999528
0.3072187760343431,0,0.996941
0.2829894840540107,0,0.997766
0.2857094499145389,0,0.975982
0.28364268682800703,0,0.992296
0.29245760008578947,0,0.997871
0.18290664987286795,0,0.992168
0.1984806054288117,0,0.997003
0.23591039658316224,0,0.995786
0.1938765324366218,0,0.996226
0.1874919761442194,1,0.999684
0.3039245681591741,0,0.995230
0.31927335817729774,0,0.986769
0.27029872818888023,1,0.999813
0.32244171795832777,0,0.999079
0.20155660280429372,0,0.979377
0.2577117504088083,0,0.997559
0.26130105709336915,0,0.992809
0.307234439617278,0,0.997262
0.2847342363301702,0,0.994735
0.27572146052744,0,0.996821
0.2857553097154747,0,0.999204
0.25854015806559205,0,0.997811
0.3311064284537604,1,0.999546
0.3039058056836995,0,0.996615
0.2218442476886913,1,0.999797
0.19690892597948517,0,0.987472
0.20459068352224544,0,0.993348
0.3068831208933004,0,0.982413
0.17765471801577762,0,0.955275
0.1709910306481653,0,0.980806
0.18749385682954794,0,0.998636
0.23447422224709233,0,0.989861
0.18414691370979794,0,0.983296
0.16325503122595086,0,0.991192
0.23045367273806572,0,0.998436
0.2128369218200493,0,0.995212
0.23384543115352885,0,0.996845
0.1697705538139808,0,0.980075
0.2466091088151299,0,0.975055
0.25606456571942526,0,0.979904
0.2670813082195782,0,0.989202
0.22428439951881943,0,0.991018
0.2016304529153981,0,0.994207
0.2799483973935979,0,0.993156
0.24525495983016085,0,0.993265
0.22914398136737638,0,0.997772
0.22689752697639173,1,0.999310
0.2600585780595393,0,0.995813
0.260501867447138,0,0.996179
0.2583096005659083,1,0.999576
0.26642493423996366,0,0.993775
0.2872275746730556,0,0.996094
0.2968090828742749,0,0.977196
0.2890791178001858,0,0.984756
0.2230010979524977,1,0.999682
0.2612054775380683,0,0.996686
0.2669926215474916,1,0.999624
0.341313625657673,0,0.998497
0.3615287012307761,0,0.996971
0.38490247005280903,0,0.995794
0.3999840015643411,0,0.997988
0.3977877705341864,1,0.999869
0.4032286526813448,0,0.991350
0.35027027554456563,0,0.978656
0.19809703914450771,0,0.987155
0.2123013193631455,0,0.981330
0.23076573923960678,0,0.990842
0.3145367551654724,0,0.998262
0.26991242081608463,0,0.988919
0.27772547317596813,1,0.999714
0.3156687621631639,0,0.999136
0.388728459900024,1,0.999760
0.30637740049462686,0,0.994039
0.33791304198330363,0,0.998176
0.37012107434831226,0,0.991080
0.40942262470835605,0,0.998980
0.3872458420377021,0,0.998318
0.41432615620317564,0,0.978629
0.3035229901821084,0,0.960123
0.2674349339458662,0,0.981604
0.22866451054788475,0,0.996089
0.364588661749215,0,0.880457
0.33173024324285144,0,0.989586
0.3396871496361389,0,0.997754
0.34789613415844634,0,0.967150
0.3846775008783939,0,0.995150
0.35679523273522845,0,0.996504
0.3973163480786246,0,0.983925
0.3925453483474018,0,0.985673
0.44850999758682925,0,0.994021
0.3492941491149152,0,0.997751
0.38775404286419896,0,0.996999
0.4133536327532708,0,0.994531
0.34553803399265237,0,0.995225
0.3657995464361381,0,0.995540
0.5124266814912443,0,0.996560
0.5572060680288604,0,0.999005
0.5007158555811211,0,0.991623
0.5453501301542352,0,0.980898
0.5334753698241856,0,0.984474
0.5784329868802458,0,0.988930
0.5470522932466381,0,0.994129
0.4472131407267217,0,0.987031
0.4546773099451621,0,0.987027
0.5764806907768097,0,0.989170
0.46435423351060945,0,0.990133
0.43592986567154746,0,0.985409
0.5663098364586593,0,0.999148
0.6110046630024297,0,0.998502
0.40151195682340657,0,0.984911
0.5464417699527897,0,0.995540
0.6221676407215725,0,0.986019
0.618749855961853,0,0.992070
0.5594354995368968,0,0.995203
0.6539275641009269,0,0.986368
0.5134238550019,1,0.999340
0.5407658443408656,0,0.984960
0.33459837152961724,0,0.988073
0.3497463712613895,0,0.987622
0.29302740496745205,0,0.996408
0.31284432415514096,1,0.999111
0.36042516850816164,0,0.994501
0.33818345932618765,1,0.999476
0.39111965339852905,0,0.994069
0.3866971159789474,0,0.997834
0.41536963507104047,0,0.996637
0.4007526601222188,0,0.991374
0.37892037907093773,0,0.995724
0.4418412344151184,1,0.999429
0.4091055676081137,0,0.982650
0.43200026169884587,0,0.998507
0.4009091346905505,1,0.999324
0.4682254846594118,0,0.997558
0.4279105487644896,0,0.997674
0.4532273438869211,0,0.996651
0.40447210875021056,0,0.993606
0.42085176296978166,0,0.998688
0.4829174069712827,0,0.997323
0.44465673337008876,1,0.999363
0.47783886571584494,0,0.995716
0.4819373878256436,0,0.996808
0.48758149769165765,0,0.999242
0.5412364448545093,0,0.987160
0.4455055905629393,1,0.999739
0.4223300840640747,0,0.990451
0.46649104334877656,0,0.996958
0.5342917404446648,1,0.999579
0.46971856551709656,1,0.999407
0.4833922215377681,0,0.995820
0.520160256871576,0,0.981829
0.5753623042754358,0,0.997794
0.5070732083471401,0,0.999049
0.5016579986186763,0,0.997595
0.49446881539092274,1,0.999363
0.5280297945879322,0,0.997646
0.5732075924055167,1,0.999775
0.5522404278904022,0,0.996766
0.5442381510020036,1,0.999687
0.5658307324165449,0,0.958236
0.5771662394119059,0,0.990863
0.5107976289551424,0,0.994428
0.505663425404996,1,0.999573
0.5636681904946921,0,0.983765
0.5888846157496136,1,0.999935
0.5637937367771321,0,0.989132
0.5441049823759688,0,0.999232
0.5806347678381053,1,0.999927
0.5537547186915529,0,0.997804
0.5496483143638092,0,0.994124
0.25219642743723675,0,0.991508
0.27996329536421966,0,0.996875
0.33645334263960436,0,0.973443
0.3989324186693678,1,0.999803
0.3738844297607362,0,0.987914
0.3958353759756814,0,0.996398
0.4352271017039104,0,0.999229
0.40381354424265,0,0.994070
0.4392811524460663,0,0.987840
0.503220024091671,0,0.986981
0.4981949823877923,1,0.999930
0.5318732606798102,0,0.998126
0.5793804176392567,1,0.999293
0.5607850371110306,0,0.999075
0.5190066761753618,0,0.998226
0.5709419666846633,0,0.993796
0.5713105261908551,0,0.999130
0.5714054154820588,0,0.997819
0.6147791373447288,1,0.999930
0.5873215398347719,0,0.991869
0.1942433992940589,0,0.996985
0.1778926955740779,0,0.988968
0.18138121965157786,0,0.986288
0.24306517879910522,0,0.996160
0.26124989782442365,0,0.980620
0.29049019504958107,0,0.996747
0.30741811252352697,0,0.988525
0.31359483037178154,0,0.984057
0.28944332438407555,0,0.973630
0.3126963841852526,1,0.999528
0.32477588825259773,0,0.980166
0.3210555804989413,0,0.996259
0.3677887400531142,0,0.986344
0.3139621121762197,0,0.997002
0.33439039374185614,0,0.998575
0.35103755019639654,0,0.998586
0.4088139828422437,0,0.994775
0.41798253604992264,0,0.998299
0.4587267081231951,0,0.982155
0.38578751424652097,0,0.993005
0.43064442538387154,0,0.995328
0.42681721982731974,0,0.997852
0.40216579860754104,0,0.971853
0.448790413147365,0,0.995698
0.44444437127426645,0,0.992074
0.455846835948571,0,0.981886
0.42937242691346705,0,0.997833
0.49864515684949157,0,0.981854
0.44146968052932095,1,0.999532
0.5000026670677329,1,0.999934
0.5046964879625706,0,0.993303
0.502013359226949,0,0.998858
0.4973468211363124,0,0.996451
0.562992477078264,0,0.989400
0.5305843715830252,1,0.999609
0.5472717083759941,0,0.998957
0.5425857759919999,0,0.996855
0.603481446567232,0,0.998515
0.6212656113333421,0,0.997908
0.5507590189691483,0,0.505161
0.5900380279883758,0,0.997617
0.5442459023340456,0,0.997146
0.5761668498166458,1,0.999808
0.6182579951070141,0,0.994827
0.5822563061322421,0,0.999226
0.5872280285753884,0,0.997505
0.5777964091850798,0,0.998592
0.5664906234793347,1,0.999925
0.6022844021007844,0,0.991514
0.6141089596599161,0,0.997087
0.6819789986111587,0,0.998752
0.14056779797050978,0,0.988587
0.18202420863157942,1,0.999484
0.21894041003257889,0,0.994321
0.36651821723380934,0,0.997944
0.2014013884183549,0,0.994238
0.17484038948637323,0,0.997659
0.20809520997128927,0,0.996146
0.2634758960688497,0,0.998989
0.18951216875737528,0,0.990282
0.25478519570314373,0,0.996067
0.17842380932443283,0,0.994912
0.25095679395320536,0,0.997970
0.19612370895940873,0,0.985378
0.32702660536736156,0,0.995825
0.1884071488253884,1,0.999717
0.30447391491718134,0,0.994589
0.19240540326375644,0,0.999224
0.23774378514191064,0,0.998376
0.23191815345238503,0,0.998743
0.17880587948694474,0,0.996955
0.2138854915317186,0,0.997103
0.2366729666839182,1,0.999523
0.12618679127305402,0,0.998544
0.21643443266204215,0,0.995853
0.10596302383485141,0,0.986902
0.11943948951705155,0,0.992485
0.09845197730241259,1,0.999618
0.12470559118228303,0,0.971167
0.22774078703616144,0,0.970648
0.16656566129846515,0,0.975355
0.1472512161230488,0,0.927936
0.14157421890094257,0,0.963039
0.18309434337624414,0,0.985648
0.21466512747376884,0,0.995955
0.17414713052884484,1,0.999251
0.14865087930061732,0,0.992785
0.14232914393501725,0,0.989900
0.11114773236252787,0,0.991620
0.12156576281275952,0,0.988931
0.1376328717800392,0,0.987523
0.1324680793444316,0,0.992007
0.15751194479670244,0,0.996575
0.20308787430910627,0,0.994587
0.20304490227440083,0,0.992708
0.19989114899467722,1,0.999422
0.24821175350967514,0,0.998914
0.33040265725648776,0,0.995592
0.30867789056785233,0,0.988649
0.34519223102156815,0,0.998705
0.33797505110542087,0,0.992759
0.4570518982070839,0,0.748972
0.25457746787949703,0,0.990313
0.28518747415969536,0,0.991360
0.3529962280474776,0,0.998499
0.3860760561216507,0,0.992054
0.37061037402450997,0,0.994030
0.45025057245589784,0,0.984873
0.44283798288478843,0,0.982962
0.3840547054890647,0,0.976388
0.39400261952448873,0,0.991919
0.4668740250163988,1,0.999637
0.3880261464818432,1,0.999464
0.41086151547920746,0,0.995038
0.4135003592819755,0,0.998379
0.48454059621753814,0,0.992571
0.5012494508066874,0,0.990273
0.4282686307485428,0,0.994397
0.4707462070937454,0,0.997506
0.5373481785273428,0,0.998858
0.42131263087460075,0,0.991951
0.4505521680354098,0,0.996589
0.4650409425326557,0,0.997978
0.5247282873454695,0,0.990182
0.4913330230160767,0,0.998146
0.5619831050738711,0,0.998932
0.5643311732184122,0,0.996383
0.5198494024708618,0,0.990500
0.5763553585823589,1,0.999762
0.610106456202464,1,0.999670
0.5283992766936935,1,0.999489
0.6107340065803641,0,0.984336
0.3159492520932205,0,0.997496
0.37059947098300255,0,0.993633
0.36945121203369713,0,0.996812
0.35536414637310143,0,0.997244
0.4646092905762918,0,0.983313
0.4258124181918198,0,0.427500
0.3853324599256359,0,0.995719
0.28490827376051636,0,0.996573
0.4105278803762689,0,0.985270
0.42828053687685746,0,0.995355
0.3691586117614456,0,0.993892
0.46745130591005607,0,0.998835
0.40510975620331846,0,0.991349
0.4106439173901755,0,0.995153
0.4240173726505473,0,0.992362
0.48079981955297435,0,0.985259
0.4868252378234716,0,0.992461
0.4626691577447888,0,0.998915
0.2626047936980882,0,0.998444
0.29242053957807007,0,0.997997
0.26847573002242225,0,0.989794
0.20904781027235872,0,0.993930
0.28609086293669767,1,0.999574
0.3318969199896539,0,0.998285
0.3174891894531224,0,0.998411
0.33225415684302784,0,0.992229
0.38083796599063074,0,0.998323
0.41545296023468153,0,0.989671
0.3923235459961991,0,0.969721
0.34210312202862675,0,0.989881
0.2551480862998207,0,0.996015
0.2700455779007934,0,0.989009
0.3037529050438656,0,0.999105
0.25586371674428365,0,0.985844
0.28884726214650336,1,0.999719
0.2621549266415931,0,0.990712
0.27902373476327663,0,0.994332
0.24323270347230033,0,0.975938
0.24789354293858748,0,0.968031
