0.9021160813663718,1,0.999311
0.9404850931538331,1,0.999496
0.8984680461974995,1,0.999409
0.930531182496701,1,0.999629
0.9253727359232382,1,0.999908
0.9367192084558256,1,0.999898
0.922191055363972,1,0.999909
0.8708753398396265,1,0.999356
0.9071826421397882,1,0.999817
0.9223792676163038,1,0.999902
0.9029141694311119,1,0.999590
0.8796848782550626,1,0.999460
0.9021965303320111,1,0.999621
0.8907273609288024,0,0.981336
0.8996197606274319,0,0.965349
0.9098980408120463,1,0.999729
0.918137159808158,1,0.999905
0.9110711062659476,1,0.999904
0.885563889621115,1,0.999913
0.9267705528490544,0,0.996168
0.8915607231556192,1,0.999907
0.894896410012801,1,0.999915
0.9261741188909074,1,0.999889
0.9137487137663018,0,0.983702
0.906437866471866,1,0.999918
0.8702702347524855,0,0.998328
0.9161078414607718,1,0.999914
0.8770885711547842,1,0.999741
0.9231167436178757,1,0.999915
0.9091038663418484,0,0.992154
0.9106300999365424,1,0.999916
0.9034636692736265,1,0.999926
0.9302865179940587,1,0.999916
0.9015454702331761,1,0.999744
0.9035241207713723,1,0.999915
0.9397126746831485,1,0.999841
0.9155624840965415,1,0.999925
0.8878685448029786,0,0.997688
0.9064299454727394,1,0.999688
0.9304668110990311,0,0.991256
0.9141466260762084,0,0.988139
0.9032840391750976,1,0.999913
0.9123446228733413,1,0.999566
0.9271275680024011,1,0.999921
0.9170959303825706,1,0.999922
0.8693886238006732,0,0.998690
0.9271791424314185,1,0.999920
0.931443537466231,1,0.999756
0.8569541838406971,0,0.997850
0.8964096407199407,1,0.999920
0.906823611302056,1,0.999921
0.916673496839993,1,0.999265
0.9102815694572993,1,0.999918
0.8474295722835647,1,0.999920
0.8905961502562615,1,0.999847
0.8905935683718418,1,0.999517
0.8728304234697407,1,0.999925
0.92088487169859,1,0.999811
0.8545636386512389,1,0.999845
0.9324604823872322,1,0.999915
0.8807466057761739,1,0.999924
0.8921253366370908,0,0.995280
0.8905198546825686,1,0.999369
0.8896886201472258,0,0.998928
0.9103893001701866,0,0.998882
0.8963753295883071,0,0.999155
0.9068207098593022,1,0.999923
0.8858403254900286,1,0.999910
0.9095000418813343,0,0.999137
0.9192723851976609,1,0.999686
0.8139700464543287,1,0.999655
0.8536191738000072,1,0.999346
0.9190295939822961,1,0.999288
0.9120562248200581,1,0.999922
0.9164591889713906,1,0.999926
0.9009585795374139,0,0.968938
0.8867996592408471,1,0.999922
0.8823388638658565,1,0.999920
0.9171325888302095,1,0.999429
0.8476382480721928,0,0.984290
0.896053864650145,1,0.999928
0.9210110020505117,1,0.999850
0.8640434486442831,1,0.999922
0.8907782871390181,1,0.999515
0.9335121884092923,1,0.999815
0.948137743690363,1,0.999831
0.8885909594791788,1,0.999912
0.7811040700984035,1,0.999930
0.9567340018262825,1,0.999917
0.9098617571805262,1,0.999912
0.8737405522023586,1,0.999920
0.8966815895678142,0,0.998957
0.8427645666336938,1,0.999924
0.9027988846725825,0,0.999120
0.923966361858108,1,0.999673
0.8736271429599867,1,0.999761
0.8782642627217315,1,0.999930
0.8926141361310327,1,0.999914
0.9043427043015745,1,0.999921
0.9103368473121524,1,0.999927
0.8980951787137679,1,0.999928
0.9221316065665142,1,0.999843
0.8933362704542284,1,0.999920
0.9225488124940587,1,0.999421
0.9025757220128571,1,0.999920
0.8839882313982884,1,0.999919
0.9438782727115012,1,0.999644
0.9196731586693769,1,0.999121
0.9094869391819181,0,0.996630
0.9059477664114008,1,0.999928
0.870091027416108,0,0.999187
0.8928887909526688,1,0.999926
0.9249436077200309,1,0.999913
0.8837403132805037,0,0.998121
0.8531516056170692,0,0.990638
0.8999490600651606,1,0.999915
0.8788579938309173,1,0.999915
0.9006854795289155,0,0.998519
0.9297967655430508,1,0.999917
0.8949425116383111,1,0.999926
0.9342324954914107,1,0.999920
0.91172856210435,0,0.999140
0.9092051184158068,1,0.999691
0.9165463080501084,0,0.999016
0.8868610965596435,1,0.999760
0.9048280072464482,0,0.998092
0.9373031733528885,1,0.999395
0.8551249621111147,0,0.998182
0.899204755428474,1,0.999929
0.9179109924941795,0,0.999129
0.878743003775434,1,0.999653
0.8763027663985248,1,0.999778
0.8970509064447268,1,0.999930
0.8730249929835031,1,0.999929
0.9218757124748383,1,0.999782
0.9010659349531108,1,0.999929
0.9271514464564969,1,0.999929
0.9429925417273566,0,0.998197
0.866237960256066,1,0.999927
0.862721116010341,1,0.999928
0.8770248820014322,1,0.999915
0.8423206903675458,1,0.999524
0.892797331220016,1,0.999403
0.843651172480983,0,0.988935
0.8371036751169658,1,0.999922
0.8382972426708146,1,0.999847
0.8553095186300856,0,0.995848
0.8885917118520383,1,0.999930
0.8770789375829312,1,0.999916
0.8192625781659745,1,0.999521
0.9152894568352081,1,0.999929
0.947923568661947,1,0.999695
0.9248975323050045,1,0.999269
0.8414312489516158,0,0.998140
0.8451744302294326,0,0.997713
0.8719111257201109,1,0.999855
0.8751697029926582,0,0.998587
0.8900749493913547,1,0.999927
0.8647431758676544,1,0.999930
0.8992233447496372,1,0.999763
0.8488302612673634,1,0.999922
0.8763423230872056,1,0.999927
0.8263426628010578,1,0.999927
0.862477274718806,1,0.999920
0.8646873631167291,1,0.999708
0.8620178004615843,0,0.981728
0.8535043856130465,0,0.989722
0.8778210689557704,1,0.999930
0.893467002896273,1,0.999839
0.8135122254385556,1,0.999658
0.8593790834982381,1,0.999861
0.8614244455429002,1,0.999720
0.8679688127928766,1,0.999915
0.9087418351754355,1,0.999924
0.8597898667952657,0,0.998742
0.8319127060613205,1,0.999849
0.8033394924179821,1,0.999922
0.844755374478744,1,0.999920
0.8791386487733408,1,0.999374
0.9131664406366264,1,0.999928
0.9179583400505684,1,0.999918
0.9232088255008233,1,0.999430
0.9305311255972398,1,0.999624
0.9257403845807425,1,0.999911
0.8857423285336941,1,0.999148
0.8300361274612242,1,0.999572
0.8342587180832364,1,0.999366
0.8453345237360597,1,0.999924
0.8481457133646654,1,0.999776
0.8462135147398988,1,0.999920
0.7677925816655662,0,0.998668
0.870517949237611,1,0.999924
0.8404802690982709,1,0.999928
0.8663459094424778,1,0.999919
0.8505708634478657,1,0.999922
0.8520533689304401,1,0.999760
0.8667572120287332,1,0.999928
0.8950405911505004,1,0.999928
0.8297879404975482,1,0.999923
0.9112691560465989,1,0.999925
0.8932998228898691,1,0.999925
0.858260232371266,0,0.997447
0.8635426504726146,1,0.999848
0.8813504606204787,1,0.999924
0.9098094443030128,1,0.999917
0.9266642969077551,1,0.999829
0.9328057314501778,1,0.999925
0.9216782414196332,0,0.994730
0.922773677515304,1,0.999407
0.8734771056294969,1,0.999926
0.922909671384622,1,0.999908
0.9274647409042823,1,0.999916
0.9080517661140446,1,0.999919
0.9473346584171949,1,0.999923
0.9169030877812346,1,0.999527
0.9300157762086928,1,0.999921
0.8932901666703194,1,0.999841
0.9213949387023703,1,0.999847
0.9199889248095126,1,0.999922
0.8943011262303502,1,0.999301
0.9496420005433301,0,0.999018
0.9517799792468912,1,0.999912
0.918300480162056,1,0.999926
0.924920905759554,1,0.999837
0.8463082849048471,1,0.999925
0.9155269473334916,1,0.999924
0.8941846041963807,0,0.977862
0.9344623104128639,1,0.999534
0.8864418310507087,1,0.999922
0.8879742173636299,1,0.999819
0.9238422875528106,0,0.998420
0.8672094983277735,1,0.999924
0.8677782784332031,1,0.999919
0.8743645324034749,1,0.999692
0.9241500404160895,1,0.999903
0.9316458479623382,1,0.999477
0.9065411523386339,1,0.999235
0.9237975008333826,1,0.999915
0.948603445891827,1,0.999661
0.9220361873535475,1,0.999138
0.9164594809583981,0,0.995967
0.9109540235978214,1,0.999705
0.863453564674836,1,0.999697
0.8997127614704479,1,0.999910
0.8498961096776666,1,0.999757
0.9117972720287768,1,0.999845
0.9190246177359113,0,0.985041
0.9153556327435688,1,0.999847
0.8847230434633704,1,0.999923
0.9083770811465947,1,0.999230
0.9030186583237544,1,0.999684
0.892889029555718,1,0.999846
0.8688785565667503,1,0.999923
0.8990751630573153,1,0.999928
0.887432520179155,1,0.999744
0.8903233111167628,1,0.999825
0.8885098896340815,1,0.999910
0.8778924395893949,1,0.999735
0.9056422337132982,1,0.999920
0.8508367679600617,1,0.999641
0.8644566220180765,1,0.999913
0.8937278809100995,0,0.999177
0.8221898651660123,1,0.999336
0.8988533929560266,1,0.999899
0.8845540686158446,1,0.999919
0.8743231106614928,1,0.999843
0.8516126718432013,0,0.999162
0.9059939912410239,0,0.999182
0.8851435586240951,1,0.999926
0.8556201042740191,1,0.999509
0.9132785831075436,1,0.999921
0.8453642993688752,0,0.996169
0.8825417537167057,1,0.999846
0.9181230168592575,1,0.999914
0.8945907890662815,1,0.999777
0.8834685208592692,1,0.999718
0.8662414768545554,1,0.999924
0.8963078006727055,0,0.998381
0.8993553004187123,1,0.999918
0.9145501757897146,1,0.999930
0.8596677187235827,1,0.999781
0.8837017799183887,1,0.999921
0.8638157711955501,0,0.998863
0.8657834691009451,1,0.999923
0.8560182027264845,1,0.999841
0.8827144621652144,1,0.999924
0.8834719913021376,1,0.999913
0.8686202826171675,1,0.999845
0.8867311047577509,1,0.999300
0.8604038560024877,1,0.999845
0.8648434279495728,1,0.999923
0.8524565636418672,1,0.999702
0.8750173396019504,1,0.999634
0.8523873140862024,1,0.999861
0.7972126844667669,0,0.998767
0.9052648158301386,0,0.996982
0.9384123065525465,1,0.999910
0.914843074955887,1,0.999588
0.9063956066101717,1,0.999912
0.9524542552789435,1,0.999923
0.890043174562355,1,0.999678
0.9150057861835483,1,0.999923
0.9546756280012125,1,0.999526
0.9096212277558793,1,0.999911
0.8884255460844087,1,0.999915
0.9451097117163907,1,0.999718
0.9472599365136269,1,0.999911
0.9042861544174121,1,0.999612
0.8944140585568183,1,0.999918
0.9016482604040155,1,0.999920
0.8741832322497012,1,0.999844
0.8480374312781929,1,0.999611
0.8507157338204083,1,0.999932
0.8643787740637161,0,0.998899
0.8887837316136235,1,0.999821
0.8761785407833325,1,0.999926
0.8973402395413264,1,0.999930
0.8841124609503845,1,0.999920
0.9013590675080015,1,0.999922
0.8161403779243752,1,0.999923
0.8003181770224718,1,0.999733
0.881653694408491,1,0.999920
0.8410004302443135,1,0.999841
0.8878600002947208,0,0.998783
0.9006482969002313,1,0.999853
0.9135324636599824,1,0.999840
0.9095297347473189,1,0.999560
0.8910416308985198,1,0.999912
0.8363921052788813,1,0.999924
0.8726672582581974,1,0.999839
0.9184003934082698,0,0.994056
0.8625347144904606,0,0.997974
0.8774930342106128,0,0.999024
0.9361602941036047,1,0.999612
0.9228883803252546,1,0.999926
0.8942724027412492,0,0.998693
0.8649458840880591,0,0.998371
0.8874989092113035,1,0.999930
0.8781503197638879,1,0.999562
0.866976005788806,1,0.999771
0.819281219575722,1,0.999710
0.8651568137018713,1,0.999854
0.8600609599632856,1,0.999699
0.8316429365116853,1,0.999777
0.8856885317369299,1,0.999320
0.9098484033652813,0,0.994767
0.8481160027793078,1,0.999327
0.9009190430840336,0,0.998864
0.8989571951190157,1,0.999923
0.9159325560791728,1,0.999929
0.933022719272916,1,0.999679
0.9048822429880029,0,0.998496
0.8696379708679596,1,0.999929
0.8685426592407547,1,0.999850
0.8605975594591424,1,0.999838
0.8531079725482267,1,0.999861
0.8771532114781395,1,0.999844
0.873328941436583,1,0.999906
0.8721485877933337,0,0.998207
0.9282226748093105,1,0.999401
0.8885875123844043,1,0.999849
0.8631681440061987,1,0.999366
0.8586900582718726,0,0.998372
0.8876500743733424,1,0.999509
0.9080320604934282,1,0.999572
0.8917438954886979,1,0.999716
0.8757267681460971,1,0.999923
0.8740409334875374,1,0.999861
0.8996218553953372,1,0.999666
0.8887136215171405,1,0.999923
0.8540094343312655,1,0.999917
0.8991316187075772,1,0.999922
0.843492631251581,1,0.999926
0.8658357592785247,1,0.999848
0.8432370289423953,1,0.999925
0.8921861771777266,1,0.999720
0.8386702745519777,0,0.992681
0.8638763044309236,1,0.999923
0.8720664258504824,0,0.998563
0.8033926493168762,0,0.989310
0.8830523664998052,1,0.999614
0.8992349494352743,1,0.999930
0.8377265208919654,1,0.999929
0.8764234520584705,1,0.999928
0.864123527626728,1,0.999296
0.8647080490848225,1,0.999790
0.8533161655143268,1,0.999692
0.8320660298456553,1,0.999617
0.8735351285775977,1,0.999921
0.9184281139488015,1,0.999916
0.8132585063885314,1,0.999910
0.8961474725805733,1,0.999707
0.9139454523807704,1,0.999381
0.8667991830499568,1,0.999911
0.880921201893747,0,0.986070
0.8591540510514138,1,0.999841
0.8404371326777571,1,0.999924
0.865604069364983,1,0.999917
0.8932808167513606,1,0.999353
0.8224897589450157,1,0.999929
0.8532415053241655,1,0.999824
0.8959591311674532,1,0.999846
0.8191152800315529,1,0.999761
0.8678247273220897,1,0.999379
0.8689702476373645,1,0.999344
0.905644148025859,1,0.999835
0.8891044131225884,1,0.999912
0.8767496501542418,1,0.999913
0.8397626610918307,0,0.998707
0.8953645213616832,1,0.999915
0.8839751552077468,1,0.999915
0.9090691228461464,1,0.999430
0.9342663506573261,1,0.999831
0.8902586534686163,1,0.999784
0.9069507881267769,0,0.999036
0.8857808624178461,1,0.999912
0.9138448659834704,1,0.999838
0.8611735924076394,1,0.999929
0.8660882377150975,1,0.999656
0.892556492686416,1,0.999783
0.868347974705073,1,0.999928
0.9223623670995773,1,0.999860
0.8584769273501944,1,0.999922
0.8623450889009003,1,0.999929
0.783937796021287,1,0.999727
0.826496388784575,1,0.999697
0.8721034571790044,0,0.999066
0.8086658716182773,1,0.999834
0.8719630706293693,0,0.995890
0.8391747857849221,0,0.998546
0.8710105239714708,1,0.999919
0.9026133943647954,1,0.999861
0.9017316101640505,1,0.999918
0.9249028277954152,1,0.999913
0.8474126027601863,1,0.999928
0.862036398756565,1,0.999761
0.8541821120149505,0,0.999035
0.8651626733466257,1,0.999754
0.919509687668318,1,0.999926
0.880891798119543,1,0.999920
0.8869756025402674,1,0.999722
0.8496421899114818,1,0.999928
0.8634334677134508,1,0.999913
0.8963823247717826,0,0.995804
0.8814642346864187,1,0.999858
0.8933887851839851,1,0.999928
0.8930130003675902,1,0.999917
0.9016491436889708,1,0.999610
0.8636357155042236,1,0.999791
0.8866317223422868,1,0.999926
0.8686832743986403,0,0.999213
0.9050885410538682,1,0.999919
0.9309167087377351,0,0.998934
0.8887498443136319,1,0.999923
0.8683835348073669,1,0.999912
0.8935320953296483,1,0.999840
0.8599206474908966,1,0.999515
0.8351020756205192,1,0.999590
0.9009695814373743,1,0.999907
0.8662397151919012,0,0.986083
0.8331794933381866,1,0.999690
0.8874546437206519,1,0.999932
0.8601406078193918,0,0.998701
0.8901849842501869,1,0.999927
0.8828055133326003,1,0.999776
0.9055161733520012,1,0.999832
0.9112628694510719,1,0.999828
0.8682127123073555,1,0.999346
0.9383008592445574,1,0.999926
0.9354384433814797,1,0.999929
0.9310663317706354,1,0.999915
0.8975919933068135,1,0.999856
0.8990380095850113,1,0.999919
0.8912824374981531,1,0.999920
0.9228792121704552,0,0.983877
0.9026463701512765,1,0.999818
0.8799978059329939,0,0.996264
0.8738682153059067,0,0.998385
0.9125474557220166,1,0.999756
0.8707199113930404,0,0.997905
0.9216723279629365,0,0.999124
0.8813679675377322,1,0.999842
0.8781158575028959,0,0.996808
0.9326546980841688,0,0.966276
0.9019983849494781,1,0.999839
0.8935807928271994,1,0.999919
0.9133974844868064,0,0.962942
0.8544146188353525,1,0.999920
0.8915019746800962,1,0.999920
0.9252453006583634,1,0.999863
0.8800397690947744,0,0.994096
0.8935341226601541,0,0.999028
0.8436750124454014,0,0.974232
0.8920113604756029,1,0.999923
0.9159121943135132,1,0.999843
0.8638306695909104,1,0.999929
0.8754222383940471,1,0.999930
0.8974584806566951,1,0.999927
0.8760563739697144,1,0.999926
0.8675206279355313,1,0.999721
0.8770085544673724,1,0.999934
0.8092310709370756,1,0.999921
0.8467895073597819,1,0.999826
0.8597396926010363,1,0.999922
0.8899222783604825,1,0.999906
0.8246477515260714,1,0.999922
0.8299136211839093,0,0.992500
0.8492964489015783,1,0.999928
0.8870360666453933,1,0.999736
0.8899155455467044,0,0.990509
0.7896655162869606,0,0.998163
0.8638600504530016,1,0.999851
0.8609330986075904,1,0.999838
0.8389771679307538,1,0.999396
0.888052196630528,1,0.999930
0.9059664093164556,1,0.999712
0.8880904810117978,1,0.999482
0.8740794414696514,1,0.999927
0.9350821706522516,1,0.999926
0.9244945827303477,1,0.999920
0.8153452622089495,1,0.999756
0.9253612079145942,1,0.999931
0.8285433838483781,1,0.999854
0.9032585232274677,1,0.999918
0.9092284303950481,0,0.997009
0.9318922756561688,1,0.999913
0.9407131800353796,1,0.999922
0.931462546160124,1,0.999219
0.9069093329406893,1,0.999915
0.9192577805128463,1,0.999834
0.9415136883031775,1,0.999498
0.8852754886126609,0,0.996745
0.9376326444494755,0,0.998819
0.9031538957871138,1,0.999915
0.9212988279654504,1,0.999833
0.928673879871596,1,0.999837
0.937770392670919,1,0.999819
0.908756304965663,1,0.999925
0.8682253011219951,1,0.999839
0.899841232746323,1,0.999597
0.9262968531223015,1,0.999917
0.8830341361016376,1,0.999762
0.9387777733074126,1,0.999816
0.9451455538218437,1,0.999923
0.949182442032139,1,0.999909
0.9395561849665607,1,0.999414
0.9021651111375723,1,0.999909
0.9220446284288232,1,0.999818
0.9382331847507805,1,0.999472
0.916070700756192,1,0.999741
0.9371814427371155,1,0.999372
0.8655883422185741,0,0.998948
0.8822612831697348,1,0.999609
0.8837085522942001,1,0.999903
0.9266057616339691,0,0.999081
0.9187588914034708,0,0.998848
0.937922460710916,1,0.999931
0.9054518746781809,1,0.999505
0.8893082694132933,1,0.999607
0.893852837642881,1,0.999858
0.9054849655561131,1,0.999645
0.9041015892134149,1,0.999642
0.8897294018512528,1,0.999783
0.9096475218215737,1,0.999931
0.8567338775731468,0,0.998433
0.8473485672290255,0,0.998818
0.8571804720120896,1,0.999772
0.8804612474658047,1,0.999493
0.9176814036178362,1,0.999587
0.8976272459465618,1,0.999929
0.8860570204073026,1,0.999852
0.8984656901672995,1,0.999920
0.935841721030115,1,0.999783
0.875211566174443,1,0.999917
0.8878304258453774,1,0.999909
0.9225580642047445,1,0.999346
0.899029782929854,1,0.999507
0.9138600749815963,1,0.999915
0.9154841024877358,1,0.999926
0.9020352424708162,1,0.999830
0.8763190434928471,1,0.999920
0.8959715146392572,1,0.999743
0.8817891294320127,1,0.999774
0.8696062790903911,1,0.999789
0.8790348714485257,1,0.999927
0.8986689927922791,1,0.999924
0.894868905978049,1,0.999834
0.8728608480472881,1,0.999826
0.8927676142246962,1,0.999919
0.912293480981384,1,0.999378
0.9146080908942645,1,0.999859
0.8577710346619821,1,0.999930
0.8720570882400183,1,0.999929
0.9266674149022809,0,0.994772
0.8999829026729401,1,0.999856
0.8657268806326334,1,0.999356
0.8979197967620449,0,0.997058
0.8717438732317536,1,0.999847
0.8718411554766057,1,0.999920
0.9195988357360465,0,0.961465
0.8645156218797339,0,0.994668
0.8909844834842683,1,0.999742
0.8826325548475284,1,0.999856
0.864620990789902,0,0.998791
0.8747192970055562,1,0.999662
0.9203413322853015,1,0.999382
0.8944517635146734,1,0.999696
0.8761753076790186,1,0.999822
0.9276184030600324,1,0.999835
0.9232260321204615,1,0.999758
0.9013603724611232,1,0.999418
0.9103193380967036,0,0.983566
0.9328673637632918,1,0.999916
0.9075586071737662,1,0.999465
0.9253742322498675,1,0.999927
0.9060878866010939,1,0.999265
0.9395704895435066,0,0.995465
0.889719440038972,1,0.999613
0.9014676519259496,1,0.999929
0.8872912937107742,0,0.993713
0.8977362824170974,1,0.999774
0.8860822889255558,1,0.999844
0.9110067782125261,1,0.999841
0.9407579291915948,0,0.997400
0.9172734223077825,1,0.999835
0.9311404356798019,0,0.998088
0.8313489415659738,1,0.999300
0.8592326222901822,1,0.999926
0.7580657739278711,0,0.998066
0.9177135907471641,1,0.999921
0.8948298406488441,1,0.999606
0.8598664054496927,1,0.999305
0.9064999651624452,1,0.999915
0.8664559872640688,1,0.999926
0.9015426264164784,1,0.999474
0.8811569647905019,1,0.999916
0.871806066590342,1,0.999918
0.911610228046341,1,0.999563
0.9342925165865495,1,0.999928
0.9158047163894936,1,0.999771
0.890829431971442,1,0.999911
0.8868649547647132,1,0.999918
0.9217073861403198,1,0.999602
0.9183025412534056,1,0.999274
0.9091360802086899,1,0.999929
0.8976010141739424,1,0.999927
0.8677000997338573,1,0.999930
0.8937615483841055,1,0.999922
0.877358208326337,1,0.999920
0.8992084909178709,1,0.999404
0.8412906128456095,1,0.999924
0.8918526941254794,1,0.999924
0.9030493441862322,1,0.999922
0.8600570654227211,0,0.998995
0.917332907893358,1,0.999842
0.9562309188364142,1,0.999696
0.8847458165380424,1,0.999766
0.8867904742715418,1,0.999919
0.9050516281954085,1,0.999846
0.9081388414813476,1,0.999922
0.8624010070470094,1,0.999437
0.8379213024438736,1,0.999420
0.8469513013757164,1,0.999420
0.8901349342697619,1,0.999853
0.8161897487210467,0,0.998477
0.7991542982070565,0,0.996569
0.8295324422410643,1,0.999919
0.8238467198846436,1,0.999298
0.8889825205266363,1,0.999748
0.9272545417997835,1,0.999766
0.8401300916823468,1,0.999923
0.826358263074667,1,0.999844
0.8950963106114348,1,0.999570
0.8940775304726574,1,0.999835
0.8945462006336274,1,0.999926
0.895289236564175,1,0.999857
0.9214495142557155,1,0.999735
0.8749299120916386,1,0.999325
0.8327900343438448,0,0.997964
0.8693866752258967,1,0.999930
0.8683221071273403,1,0.999707
0.9060691737211783,0,0.998780
0.9383301993010272,1,0.999925
0.8625388704786019,1,0.999918
0.8911339802824702,1,0.999805
0.8980501723893507,1,0.999196
0.8978427215310288,1,0.999917
0.8816977941412749,1,0.999849
0.9021296526033921,1,0.999217
0.9112666997192488,1,0.999643
0.904426426830185,0,0.999149
0.8823578342311589,0,0.998853
0.9009169371009143,1,0.999721
0.9228043597429306,1,0.999920
0.9029715761189089,1,0.999923
0.9137789297681751,1,0.999922
0.9041113185593531,1,0.999923
0.8477184213835416,1,0.999853
0.9188589765557545,1,0.999426
0.9121955006735281,1,0.999791
0.8930556369870966,1,0.999724
0.908224258703924,1,0.999830
0.9465219449526779,1,0.999920
0.9398298953396479,1,0.999913
0.927253174531032,0,0.998344
0.9042930007941175,1,0.999366
0.8831550082821966,1,0.999628
0.8376489044912871,1,0.999929
0.8575691437197525,1,0.999784
0.9301196050843065,1,0.999920
0.9077987611003356,1,0.999688
0.8804716863673417,1,0.999818
0.9000882828726031,1,0.999566
0.9210902109190751,1,0.999920
0.8966491778865169,1,0.999756
0.8433913644856896,1,0.999848
0.8063365260256699,1,0.999857
0.8509882526713713,1,0.999924
0.838280120550784,1,0.999351
0.8310471615615944,0,0.990083
0.909892048678214,1,0.999446
0.9009952862796661,1,0.999847
0.9330014744932745,1,0.999729
0.8777938755633301,1,0.999714
0.8702504812933367,1,0.999627
0.8738659706128031,1,0.999917
0.8922275354192487,1,0.999921
0.9088906090734168,1,0.999921
0.889713025964125,1,0.999749
0.9038001291864542,0,0.998132
0.8811209023243264,0,0.997717
0.8872305051461299,1,0.999847
0.8990396780276972,1,0.999918
0.8790519538831938,1,0.999920
0.8501951864010961,1,0.999638
0.883361940739992,1,0.999925
0.903089931766178,1,0.999665
0.8588442329889628,1,0.999651
0.8936905270134746,0,0.998588
0.8857936206269231,1,0.999916
0.8749462034325202,1,0.999922
0.9008139316236093,1,0.999607
0.8866769474638422,1,0.999927
0.889441853183989,1,0.999916
0.9004976618348586,1,0.999847
0.9092105639040915,1,0.999932
0.9291122437827836,1,0.999654
0.8985366719238488,1,0.999908
0.83163180915556,0,0.993200
0.8942877645519922,0,0.969974
0.9242015285554669,1,0.999905
0.8839307039355268,1,0.999769
0.9053394355124358,1,0.999724
0.9342442674294925,1,0.999914
0.9293976468103912,1,0.999911
0.9141267363748244,1,0.999092
0.9114236904435465,1,0.999741
0.9265103968443276,1,0.999555
0.9083551929021609,1,0.999904
0.8995417792208171,1,0.999225
0.9002720617762032,0,0.996508
0.9122362746355968,1,0.999837
0.9160654791220619,1,0.999837
0.9227293409879158,1,0.999903
0.8849291193311304,1,0.999624
0.9061445482873888,1,0.999852
0.8604457466828712,1,0.999928
0.8533002910177834,1,0.999911
0.8455920734108391,1,0.999538
0.8743498071133146,1,0.999861
0.8513397327928741,1,0.999922
0.9109386911872209,1,0.999646
0.8979265375732355,1,0.999928
0.894369354225147,1,0.999855
0.9300310340782919,1,0.999852
0.8803452736928324,1,0.999898
0.8372555612742152,1,0.999921
0.8966341293668026,1,0.999769
0.8917631131662116,1,0.999927
0.856899984378714,0,0.999071
0.8872591674377135,1,0.999835
0.8399658184703839,1,0.999902
0.8255053767610053,1,0.999466
0.921045774936108,0,0.994661
0.8536240213891745,1,0.999799
0.8682298984715608,1,0.999930
0.871322168279707,1,0.999545
0.9288093189692732,1,0.999923
0.881245598655421,1,0.999687
0.8764225363174922,1,0.999930
0.9012698061596033,1,0.999530
0.8998354422232162,1,0.999920
0.8932272054937227,0,0.967110
0.9153280775803304,0,0.998695
0.853523067011798,1,0.999925
0.8497068428737907,1,0.999919
0.809900268240441,1,0.999853
0.8874855801466942,0,0.993345
0.8206586792633579,0,0.994914
0.8939078539664819,1,0.999838
0.8384043653471165,1,0.999789
0.8754146828409208,1,0.999928
0.9208460177532732,1,0.999922
0.9280053863497087,1,0.999913
0.9055582990642596,1,0.999432
0.8261580706443087,0,0.979063
0.9053252932912325,1,0.999838
0.9084629956907438,1,0.999923
0.8396644207042743,1,0.999835
0.8922162814136363,1,0.999768
0.8803174865622373,1,0.999921
0.9016808012535426,1,0.999756
0.8819402168869057,1,0.999925
0.8982014271217169,1,0.999197
0.8981516945577259,1,0.999711
0.8922936926011152,0,0.998865
0.859846844108638,0,0.999097
0.8807166015416721,1,0.999758
0.8611375429131068,1,0.999918
0.8905203751159415,1,0.999919
0.9439012147056257,1,0.999918
0.9247389871217295,1,0.999903
0.9233325841147271,0,0.998215
0.9138968440684684,1,0.999526
0.8657938491349575,1,0.999921
0.9044817023768704,1,0.999905
0.89426511353914,0,0.986334
0.8509815397025996,1,0.999699
0.8654065044047801,1,0.999853
0.8820717500520227,1,0.999916
0.9015120678800083,1,0.999819
0.8431387382385935,1,0.999929
0.868209187785007,1,0.999919
0.9134714206450176,0,0.998576
0.8508165862542947,1,0.999817
0.781904596613699,1,0.999921
0.9038353396471561,0,0.989936
0.8645647271225813,1,0.999907
0.8988982278656902,1,0.999877
0.8700528109680944,1,0.999933
0.8702922808572137,1,0.999745
0.9000364761554152,0,0.999061
0.8639002538031287,1,0.999912
0.864999555763467,1,0.999915
0.863587815636231,1,0.999780
0.8438487742636801,1,0.999653
0.8509686773946891,1,0.999768
0.843384597506522,0,0.969989
0.8939128876254533,0,0.998556
0.9035729882872191,1,0.999924
0.918768610859078,1,0.999902
0.9319093556983544,0,0.997434
0.8742473967021569,1,0.999926
0.87585232894445,1,0.999634
0.8326323675763508,0,0.999135
0.91209015347878,1,0.999855
0.881437188634571,0,0.998851
0.8109043663810196,1,0.999930
0.8264414121955858,1,0.999921
0.8253433281663607,1,0.999689
0.7904670545740622,1,0.999925
0.8406136355694639,1,0.999636
0.8397702171839068,1,0.999859
0.9071090955651592,0,0.998166
0.8982828120342348,1,0.999843
0.9153275797650264,1,0.999928
0.8782631472822664,1,0.999918
0.8647455970949289,0,0.999175
0.8300600369736881,1,0.999356
0.8670042058670032,1,0.999201
0.8728709971429133,1,0.999927
0.8909307514682046,1,0.999576
0.8813566054938715,1,0.999530
0.8981604206821813,1,0.999931
0.8968622562620566,1,0.999862
0.8629943115033898,1,0.999769
0.8390686632340724,0,0.999110
0.9311384631380537,1,0.999826
0.9341153449532367,1,0.999904
0.9368788970713113,1,0.999921
0.9018913161813162,1,0.999843
0.8330106096357539,1,0.999854
0.8546089759464245,1,0.999490
0.8840595080079621,1,0.999932
0.8961427613571187,1,0.999519
0.8205422949004914,1,0.999855
0.8564104977494315,1,0.999651
0.8464776190194266,1,0.999913
0.8679358051478216,0,0.998949
0.812514666204242,1,0.999922
0.9078051203267165,1,0.999839
0.8965896230877429,1,0.999915
0.8710022811164724,1,0.999932
0.8521492014368771,1,0.999648
0.8386315948302276,0,0.967928
0.8582851534202858,1,0.999812
0.8821667408653159,1,0.999856
0.8900847762380909,1,0.999577
0.9295973838906502,1,0.999918
0.9055072781647161,1,0.999858
0.8784673073527908,0,0.998798
0.8720643391903851,1,0.999921
0.8412529411737816,1,0.999234
0.8359437586908347,1,0.999925
0.7897962703480749,1,0.999855
0.7815920485005834,0,0.997764
0.8280647655442006,1,0.999920
0.8354484512463094,1,0.999796
0.8459935645083999,1,0.999352
0.8407166875494168,1,0.999811
0.8617537318541323,1,0.999920
0.8376127816775861,0,0.999120
0.879820006819972,1,0.999931
0.867050168321955,1,0.999438
0.8467489575135324,1,0.999916
0.8421007274188216,0,0.998992
0.8113494170893267,1,0.999712
0.7519590812627084,1,0.999851
0.8910914117504417,1,0.999712
0.8577982200262692,1,0.999916
0.8939521746882951,1,0.999759
0.8666239694992804,1,0.999861
0.8872111709839999,1,0.999789
0.8851009596374583,0,0.994206
0.8795121996788173,1,0.999928
0.8636088456748472,1,0.999840
0.8955247911722078,1,0.999921
0.8310738912011557,1,0.999495
0.868421635079725,0,0.997327
0.8764121223974262,1,0.999922
0.9005042668722656,1,0.999916
0.9172085246834014,1,0.999213
0.9003589258116006,1,0.999734
0.8488557093594861,1,0.999842
0.8655344056960724,0,0.997407
0.8707540823308512,1,0.999622
0.8575996696379016,1,0.999905
0.8587130999040193,1,0.999522
0.9085448671250363,1,0.999762
0.9152896665455547,1,0.999610
0.9328571299385038,1,0.999368
0.9201318876870044,1,0.999910
0.9182159965983426,1,0.999910
0.9324944323705974,1,0.999203
0.9447000275400229,1,0.999820
0.916310227186812,1,0.999914
0.9278754266335674,1,0.999753
0.9290479993028158,1,0.999830
0.9320633837275476,1,0.999313
0.9394176668082947,1,0.999653
0.923488938378358,1,0.999909
0.9161667518675417,1,0.999914
0.9365846088485128,1,0.999626
0.926013056472694,1,0.999835
0.9101821082933028,1,0.999915
0.908855388187928,1,0.999744
0.9412811604848859,1,0.999918
0.9279973945885219,1,0.999924
0.8587156444205434,1,0.999417
0.8633870903790365,0,0.998661
0.8365578161140329,1,0.999928
0.8537562437956512,1,0.999783
0.8593760507933474,1,0.999919
0.8872206680864061,1,0.999926
0.8826437639756801,1,0.999922
0.8868913915568813,1,0.999847
0.8968849951236614,1,0.999922
0.9058870607265094,1,0.999921
0.8400898827847924,0,0.999040
0.9065126875164143,1,0.999769
0.866614516876384,1,0.999683
0.8687567944427675,1,0.999832
0.8948308385412332,1,0.999920
0.8992726187878105,1,0.999911
0.9329684908889773,0,0.996280
0.8780737716585069,1,0.999904
0.8603642325814043,1,0.999513
0.8575532470449485,1,0.999842
0.9039287630558125,1,0.999821
0.8504000577105675,1,0.999315
0.8705871333737518,1,0.999843
0.8455252234664798,1,0.999757
0.903339947236805,1,0.999920
0.8547279669100525,1,0.999917
0.8787710115446887,0,0.998388
0.8952125522915727,1,0.999756
0.8900584743952114,1,0.999920
0.9295218784775989,1,0.999924
0.8872778013904011,1,0.999926
0.8673243024597674,1,0.999581
0.8590298579796288,1,0.999715
0.9143470410857408,1,0.999586
0.9133555814210398,1,0.999844
0.9333096208729854,1,0.999928
0.8975369929948581,0,0.965752
0.8955467432332375,1,0.999928
0.8923329336383401,1,0.999656
0.8797810501982114,1,0.999757
0.8856845526124807,1,0.999921
0.862076254272324,1,0.999921
0.8813014302384891,0,0.998900
0.9013180416502575,1,0.999577
0.8904263113133507,1,0.999844
0.8826781846242919,1,0.999930
0.825674846151491,1,0.999924
0.8763481399447623,0,0.998973
0.8261887842096796,1,0.999918
0.8937299158478836,1,0.999923
0.8717820786214389,1,0.999360
0.830679432491878,1,0.999927
0.8528579657324503,1,0.999167
0.8958323279952181,1,0.999665
0.8731693293015145,1,0.999321
0.8332801105624171,1,0.999917
0.8560026242437372,1,0.999762
0.8879155749950429,0,0.998663
0.8508750264727903,1,0.999822
0.8706269347989098,0,0.998382
0.8046477824722521,1,0.999919
0.8599578750683464,0,0.998371
0.864732161866829,0,0.998869
0.8902398435836736,1,0.999323
0.8487968044837548,0,0.998544
0.8532223098937273,1,0.999921
0.851583051628927,1,0.999928
0.8311540675416758,1,0.999922
0.8369938754395009,1,0.999915
0.8433391678319082,0,0.992991
0.9198478891949706,1,0.999725
0.8836128390702631,1,0.999413
0.8461613449983058,1,0.999619
0.8025671911386134,1,0.999681
0.8426660880941449,0,0.995860
0.8946633897584605,1,0.999854
0.8225658896514462,1,0.999920
0.8661878948196056,1,0.999643
0.8647868545874459,1,0.999929
0.8304896008672066,0,0.993195
0.8188187039315244,1,0.999923
0.8819799338423182,1,0.999351
0.9076554816436332,1,0.999654
0.8461580811094603,1,0.999691
0.8109668099171644,1,0.999913
0.9067964943241209,1,0.999853
0.9434341425364329,1,0.999920
0.8677086085367012,1,0.999505
0.866939374164353,1,0.999786
0.9044196462093824,1,0.999399
0.9077291876714191,1,0.999912
0.9180624518043617,0,0.998899
0.9400029733005923,1,0.999928
0.9029068432378333,0,0.995842
0.9031056843110519,1,0.999926
0.8737353769101683,1,0.999781
0.9319747219350589,1,0.999854
0.9244500948984838,1,0.999926
0.9101996012787062,1,0.999736
0.8795633513206804,1,0.999783
0.8957946340745995,1,0.999926
0.9278730127426124,1,0.999854
0.9015037572438729,1,0.999926
0.9029520760159114,1,0.999924
0.8583898521784935,0,0.997937
0.9168911481342394,0,0.998163
0.9298413353743692,1,0.999739
0.9421525529713203,1,0.999839
0.9476262832015809,1,0.999923
0.9354770024692959,1,0.999619
0.8967350810092936,0,0.998527
0.9167577275771822,1,0.999844
0.9362995271978516,1,0.999406
0.9198942040145934,1,0.999918
0.8999622367432358,1,0.999854
0.938616103620642,1,0.999771
0.9387458507797185,0,0.999193
0.9322708483055457,1,0.999922
0.892035925196232,0,0.997925
0.9072359735969294,1,0.999927
0.8903937289436302,1,0.999715
0.883560569882482,1,0.999768
0.9071514424736018,1,0.999820
0.9256156846578729,1,0.999355
0.8994730532983123,1,0.999769
0.9165152455600736,1,0.999534
0.8902008799777669,1,0.999651
0.938288818402568,1,0.999915
0.9312833959364487,1,0.999846
0.882882077835129,1,0.999535
0.8656094325423287,1,0.999636
0.8770417074217075,1,0.999913
0.8169645037139425,1,0.999860
0.8539316468895591,0,0.998976
0.8771418910895273,1,0.999916
0.8977498432044614,1,0.999920
0.865431183274605,1,0.999921
0.8226450709237169,1,0.999840
0.8409260922433648,0,0.999127
0.8377701394227881,1,0.999924
0.918667205057713,0,0.989148
0.9046846790960577,1,0.999853
0.8795295250049108,1,0.999781
0.9129551312960476,1,0.999931
0.8288662471673006,0,0.998975
0.8756172921212991,1,0.999932
0.9065723174245153,1,0.999824
0.8980813858912384,1,0.999600
0.7785433752756856,0,0.989539
0.864127776814453,1,0.999240
0.8505402921967709,1,0.999928
0.8805265472572957,1,0.999918
0.8461900406995426,1,0.999781
0.876382159256848,1,0.999831
0.870309242397256,0,0.997069
0.8734119802314495,1,0.999611
0.9449909380950262,1,0.999902
0.9307451999514856,1,0.999914
0.9206083254596372,1,0.999909
0.8912177835772807,1,0.999296
0.9219231937731176,1,0.999824
0.8940053372495008,1,0.999923
0.8742464523476745,1,0.999629
0.8894730194378077,1,0.999924
0.9214187707588406,1,0.999563
0.9023854233408748,1,0.999825
0.9068183500078958,1,0.999929
0.8544599927588414,1,0.999279
0.8500631043035661,1,0.999841
0.9236230190129293,1,0.999923
0.8779294818093406,1,0.999574
0.871739329654034,0,0.994298
0.8506184240524605,0,0.992011
0.8965092935559421,1,0.999927
0.9095708440591209,1,0.999921
0.8777341517719169,1,0.999850
0.847880034105371,1,0.999923
0.8610301018540913,1,0.999919
0.8658057548853911,1,0.999921
0.7980025479149102,1,0.999929
0.8712868195428288,1,0.999683
0.8849026597715963,1,0.999855
0.8770941186325283,1,0.999507
0.9031687494195195,1,0.999914
0.8835550916153654,1,0.999778
0.8653979825084488,1,0.999752
0.8381537685548518,1,0.999916
0.8821100773324726,1,0.999656
0.9163602113259888,1,0.999915
0.8572494837480598,1,0.999855
0.8878125918197067,1,0.999931
0.8512870872258583,1,0.999832
0.9102153267585376,1,0.999765
0.8832233978979697,0,0.996475
0.851060349244605,1,0.999854
0.882329539257807,1,0.999678
0.8984663492353547,0,0.998389
0.9003691701364348,1,0.999788
0.8905425750109889,1,0.999924
0.8821354581598372,1,0.999916
0.8681371021595298,1,0.999838
0.9059227683805421,1,0.999589
0.9054350878241286,1,0.999288
0.8616867121671624,1,0.999931
0.9024645623605901,1,0.999536
0.86884691113603,1,0.999644
0.8947839359287881,1,0.999838
0.8668134434936825,1,0.999352
0.8542904751345136,1,0.999604
0.8359423840784094,1,0.999595
0.9389628318982922,1,0.999930
0.8629940848071603,1,0.999922
0.8704948408033364,0,0.998482
0.8477835887689859,1,0.999917
0.8611837174143557,0,0.992192
0.919457433173163,1,0.999929
0.8453180114785062,1,0.999420
0.8688648715932087,1,0.999928
0.8822002449804209,1,0.999690
0.8854052876205526,1,0.999921
0.8999738659965393,1,0.999920
0.9291770135454147,1,0.999910
0.8191256604472061,1,0.999918
0.8670202770984384,1,0.999571
0.9056659151188696,1,0.999645
0.8767459210149372,1,0.999921
0.8861551423245083,1,0.999605
0.8772053106928797,0,0.998842
0.8846793735568939,1,0.999264
0.8797077368800237,1,0.999758
0.8784627785050582,1,0.999919
0.8505697661445973,1,0.999922
0.836340594491436,1,0.999836
0.8608392523129573,0,0.991028
0.8785681154977105,1,0.999372
0.8907042955066836,0,0.989596
0.897300607866193,1,0.999921
0.9190485100090752,1,0.999925
0.8527625527227614,0,0.989702
0.8860768841522052,1,0.999762
0.8429821614445664,1,0.999426
0.8709986806842317,1,0.999921
0.9153291246821114,0,0.999055
0.9043589568244944,1,0.999921
0.8412228961180599,1,0.999853
0.8608149616643561,1,0.999405
0.8568327407714282,1,0.999925
0.9383066413692973,1,0.999840
0.8834241069449379,1,0.999914
0.9024084556164458,1,0.999753
0.9060991631470172,1,0.999768
0.8575622534827219,0,0.996335
0.8939199835594897,1,0.999847
0.8830848345476049,1,0.999844
0.9319370400361127,1,0.999920
0.9133346490827856,1,0.999611
0.9190333331188791,1,0.999924
0.9096795014929479,1,0.999923
0.9153728835444681,1,0.999850
0.8814899298391394,1,0.999895
0.9532463132928385,1,0.999924
0.9296701932732067,1,0.999838
0.8381431583317734,1,0.999922
0.9302497146067256,1,0.999563
0.9130841950052705,1,0.999441
0.9292600087328097,1,0.999930
0.9035823961958815,1,0.999928
0.9110999790964979,1,0.999857
0.8976583664071498,1,0.999931
0.8703690041967885,1,0.999931
0.9152569590647033,1,0.999757
0.8468065582955394,0,0.998176
0.9242780348659261,1,0.999840
0.8831748354843602,1,0.999777
0.9248868548166997,1,0.999923
0.867849764768844,0,0.993699
0.8532077656343477,1,0.999842
0.8748568672904166,1,0.999614
0.9188473763857539,1,0.999789
0.9202135960196695,1,0.999928
0.8927555207148855,0,0.999019
0.8969755119530913,1,0.999651
0.8571909447328453,0,0.999052
0.8761453144714397,1,0.999927
0.9124568507405459,1,0.999859
0.859290583363918,0,0.999029
0.8438334462763267,1,0.999319
0.8140096938350114,1,0.999928
0.8965901267775819,1,0.999922
0.8714919803065753,1,0.999745
0.8784588473947648,1,0.999847
0.848023886263811,1,0.999456
0.8278336218601746,1,0.999916
0.8821592258444334,0,0.998913
0.8378905274148152,1,0.999929
0.8223317642029502,1,0.999837
0.8410628937412243,1,0.999918
0.8226877794911215,1,0.999922
0.8363243020090431,1,0.999924
0.8661567699013866,1,0.999904
0.8848356360290014,1,0.999640
0.8656114714068268,1,0.999299
0.9032364482593297,1,0.999923
0.8778214436096085,1,0.999691
0.8499548858366516,1,0.999910
0.8392941908912732,1,0.999861
0.8467533483109639,1,0.999923
0.8559020475710011,1,0.999306
0.8450938774683616,1,0.999147
0.8708250992387173,1,0.999918
0.8461573856537554,1,0.999537
0.8469994619782549,1,0.999472
0.8480255592917875,1,0.999850
0.8664832754553109,1,0.999819
0.8663331926552376,1,0.999922
0.8994787040468295,1,0.999922
0.8778405619251991,0,0.998704
0.8059313035601672,1,0.999916
0.8255785037258823,1,0.999927
0.7817754613548995,0,0.998201
0.8381663477137691,0,0.999195
0.8301219516517878,1,0.999530
0.8558965863266577,1,0.999855
0.8268312058012097,1,0.999920
0.869481043387486,1,0.999627
0.8498282330702429,1,0.999919
0.8858571184627287,1,0.999793
0.8671114676268394,1,0.999756
0.8771987679050957,0,0.969320
0.8821794542291775,1,0.999673
0.8390146168274641,1,0.999660
0.873280513369349,0,0.999067
0.873309191606238,1,0.999924
0.8986933706971624,1,0.999538
0.9278302853335598,1,0.999825
0.8855073507721313,1,0.999918
0.8973185512049453,1,0.999775
0.8350883180189373,1,0.999920
0.8691659955685789,1,0.999672
0.9236860264671098,1,0.999916
0.8629980990320314,1,0.999375
0.8264567238772812,1,0.999350
0.878413931831632,1,0.999713
0.8631040071401882,1,0.999634
0.9275091135918231,1,0.999926
0.9132710409338696,1,0.999365
0.8941325898479962,1,0.999672
0.9254073766327341,1,0.999170
0.8911519988661963,0,0.994114
0.9283933267550489,1,0.999680
0.9020468181530398,1,0.999920
0.8532317021566124,1,0.999927
0.8594343150677721,1,0.999928
0.8664499088809199,1,0.999926
0.8840206204600699,1,0.999554
0.9110840072451862,1,0.999859
0.8687414947804729,1,0.999506
0.8316349172712796,0,0.999168
0.8349643790385844,1,0.999859
0.884148099620846,1,0.999920
0.912311699974385,1,0.999923
0.8989098490206309,1,0.999924
0.8192532271042251,0,0.998895
0.8671883172388064,1,0.999921
0.8563723398160843,1,0.999914
0.8869180847616654,1,0.999751
0.9033480725183272,0,0.977254
0.8556541095433254,1,0.999660
0.8867179886220523,1,0.999613
0.8548389661292314,1,0.999637
0.8734016041705163,1,0.999733
0.8582640396592244,1,0.999538
0.8484735599341573,0,0.996831
0.8240590170152646,1,0.999280
0.8922029001086024,1,0.999859
0.8539494426170627,0,0.997933
0.7498176697039906,1,0.999474
0.8339084261589809,1,0.999760
0.8894830570141109,1,0.999858
0.8224950222473303,1,0.999765
0.8237871550933189,1,0.999928
0.9059607787690542,1,0.999653
0.8373239115910057,1,0.999931
0.8462811291193741,1,0.999774
0.8432811459951526,1,0.999637
0.8632314297711972,0,0.986819
0.8597220535273397,0,0.997088
0.8840112464845605,1,0.999839
0.8504263648610781,1,0.999844
0.8828771005044059,1,0.999917
0.8646205189773585,1,0.999854
0.8216254684485604,1,0.999924
0.8614492468079654,1,0.999409
0.8101206461149414,1,0.999931
0.8920127035130895,0,0.992944
0.8725777696569721,1,0.999919
0.8892483485363135,0,0.997657
0.8940901218907804,1,0.999925
0.8931737274606446,1,0.999918
0.8565213311305274,1,0.999511
0.9156044627902433,1,0.999924
0.8364039817824849,1,0.999929
0.882464371597077,0,0.996906
0.8206927148049128,1,0.999915
0.8327120462306252,1,0.999503
0.8910580926584755,1,0.999834
0.8107329287806742,0,0.992173
0.8523460593708745,0,0.990934
0.8350132891538403,1,0.999930
0.8504473938829805,1,0.999666
0.8251418353164278,1,0.999902
0.8632721796596183,1,0.999388
0.8665182776737567,0,0.998624
0.8544638559096379,1,0.999413
0.7966062133158738,0,0.994055
0.8467941869310829,1,0.999364
0.9124162758077324,1,0.999916
0.8697790109862905,1,0.999917
0.8853478107083583,0,0.998897
0.8615279378876864,0,0.984301
0.9342582423390551,0,0.984244
0.8967342581941523,1,0.999766
0.8890139427839004,0,0.998943
0.8175723054983546,1,0.999751
0.8774769778665481,1,0.999924
0.8361346964835189,1,0.999919
0.8185935441901927,1,0.999855
0.919215545112586,1,0.999925
0.8768810354627349,1,0.999921
0.8736037145469142,1,0.999841
0.8688233345975875,1,0.999536
0.8903802232142489,1,0.999922
0.8729552397657626,1,0.999434
0.8778653358821604,1,0.999847
0.8769999271437111,1,0.999922
0.8769911066688237,1,0.999922
0.7991722151663986,1,0.999827
0.8376108647642397,1,0.999850
0.8742065034176848,1,0.999503
0.8466373914358167,1,0.999904
0.8365214881846217,0,0.998987
0.8493976052425483,1,0.999741
0.8405681777390779,1,0.999842
0.85770769122039,1,0.999707
0.9089078010176638,1,0.999922
0.8603082934730399,1,0.999926
0.8755877722014747,0,0.998982
0.8634742881492854,1,0.999857
0.8923888797545987,1,0.999770
0.8947271858516705,1,0.999780
0.8704667522214635,1,0.999860
0.8911085018322125,1,0.999858
0.8846011939020353,1,0.999925
0.9315681449373333,1,0.999855
0.8636017092831584,1,0.999929
0.935963763529707,1,0.999928
0.9024153691425545,0,0.998441
0.9340538898027568,0,0.999089
0.9023960549799277,1,0.999930
0.9289488106439994,1,0.999923
0.915421547091934,1,0.999924
0.9319055041630884,1,0.999901
0.9395248912004714,1,0.999919
0.80783230797748,1,0.999928
0.8741454294719554,1,0.999929
0.9238973669820514,1,0.999284
0.9188419806595484,1,0.999930
0.9329827008859741,1,0.999852
0.9274082493193576,1,0.999919
0.8774275407563362,1,0.999920
0.9521664405953502,1,0.999908
0.8875574789608013,1,0.999724
0.8782911705694616,1,0.999784
0.8543500971757498,1,0.999848
0.8311718560176075,1,0.999911
0.9110511049583354,1,0.999783
0.8980545323829318,1,0.999925
0.9291665444717186,1,0.999790
0.8928749601840035,1,0.999914
0.910532718118883,1,0.999922
0.9128134882664998,1,0.999925
0.9037818197140747,1,0.999865
0.9105200501835892,1,0.999928
0.9081268528796693,1,0.999925
0.8871160008821324,1,0.999914
0.8967841947084929,1,0.999811
0.877479484131208,1,0.999380
0.9072326016064849,1,0.999913
0.8967155466748681,1,0.999925
0.8986165979223565,1,0.999845
0.9131862749043332,1,0.999711
0.9212006453134225,0,0.998930
0.9018247935742697,0,0.997303
0.8170346762309828,0,0.998335
0.8678915933547492,1,0.999480
0.8441390012799638,1,0.999910
0.9115177050573712,1,0.999359
0.8403961658489969,0,0.997778
0.9354472795859604,1,0.999682
0.8941594643754082,0,0.972234
0.9045081914207278,1,0.999922
0.9484046900960388,1,0.999926
0.9315880067094802,1,0.999922
0.932979441948337,1,0.999925
0.9281216211337922,1,0.999921
0.9289069187834658,1,0.999919
0.8943189298892802,1,0.999774
0.8844960113718756,1,0.999830
0.9063637238269003,1,0.999924
0.8836363491937872,1,0.999723
0.9265166071950335,1,0.999844
0.9162373612418881,1,0.999824
0.8461542182847406,0,0.998974
0.9137373759593266,1,0.999560
0.9057162946146813,0,0.998870
0.922869339091762,1,0.999276
0.9062605067284948,1,0.999485
0.925608145625287,1,0.999917
0.9050720339730856,1,0.999911
0.9168799573985913,0,0.998903
0.9231291053322727,1,0.999256
0.8623474471987159,1,0.999773
0.9100662268040615,1,0.999921
0.9235472081823073,1,0.999847
0.9187287294569034,1,0.999739
0.9284871469259154,1,0.999203
0.9115508218922804,1,0.999912
0.8511737747036604,1,0.999290
0.8975901444559253,1,0.999582
0.8303566539484188,1,0.999930
0.8575444781707906,1,0.999923
0.8620666133182093,0,0.999183
0.8560179314599753,1,0.999531
0.9172800224354573,1,0.999922
0.8991827567899862,0,0.998124
0.8537843354716333,1,0.999432
0.8695000260955489,1,0.999922
0.8934846518437526,1,0.999761
0.8935752003354082,1,0.999909
0.8757249833972333,0,0.999111
0.9139082650953236,0,0.998867
0.9110372127544402,1,0.999891
0.8961432326135409,1,0.999821
0.8463120468469534,1,0.999760
0.9375440135250868,1,0.999916
0.8976673341582065,0,0.998441
0.8999665688006082,1,0.999631
0.8734877749016399,1,0.999932
0.8949309559888468,1,0.999661
0.930896339720003,1,0.999930
0.9138495501034172,0,0.997126
0.873316957688735,1,0.999838
0.8385523997917279,1,0.999930
0.8879528133730141,0,0.999114
0.8810952667552864,1,0.999922
0.8881411792278735,1,0.999918
0.91046598040671,1,0.999908
0.8815827348722528,1,0.999843
0.8475011789918651,1,0.999929
0.8820013107851332,1,0.999862
0.880346814772735,1,0.999925
0.9159013533026037,1,0.999915
0.8651746137260794,1,0.999922
0.9053839467052097,1,0.999741
0.8995286874377384,1,0.999917
0.843336266117619,0,0.997185
0.9034114236983417,1,0.999929
0.8666043195313443,0,0.985641
0.8934903346601364,1,0.999215
0.8513254053489006,1,0.999929
0.9050781628662825,1,0.999917
0.8878963163346151,1,0.999928
0.8404321715146961,0,0.998714
0.8816682837101797,1,0.999780
0.8831817746004025,1,0.999786
0.9030012053177849,1,0.999748
0.9040462243254771,1,0.999842
0.8720165608590204,0,0.995916
0.8692846804446266,1,0.999186
0.8724808132079048,1,0.999922
0.9133403027230085,1,0.999908
0.9018082544957089,1,0.999841
0.8791262804565756,0,0.989511
0.8667430335560098,1,0.999616
0.8892424240208168,0,0.989038
0.8744009989978955,1,0.999910
0.9035659176544247,1,0.999451
0.8805095504944043,1,0.999918
0.903625506491916,1,0.999928
0.865648579353431,1,0.999859
0.8443573882221322,1,0.999924
0.895594267103999,1,0.999780
0.9112561919270663,1,0.999465
0.9119212729860786,0,0.995057
0.8932823616592178,1,0.999930
0.877069416024697,1,0.999718
0.7869367647898422,1,0.999926
0.8706134201635052,0,0.999139
0.8961666294966637,1,0.999929
0.9192607212802898,1,0.999854
0.9209107655364266,1,0.999838
0.8795303828006226,0,0.998434
0.8814512629202275,1,0.999745
0.88312689547875,1,0.999845
0.8887581917681692,1,0.999515
0.8770723444517453,1,0.999783
0.906975875427741,1,0.999685
0.895183059039858,1,0.999913
0.8862004980286874,1,0.999927
0.8826393663016301,1,0.999428
0.8825609399550021,1,0.999464
0.8746578926531583,1,0.999376
0.9212455835965987,1,0.999924
0.8897785433523181,0,0.998670
0.8911424717154731,0,0.998800
0.9233523216347406,0,0.998236
0.8248764367032637,1,0.999916
0.8661715291783387,1,0.999921
0.8172100634164406,1,0.999761
0.8706736436788319,1,0.999504
0.8296004858678623,1,0.999164
0.8716168957129047,1,0.999764
0.8674671801504109,1,0.999296
0.7925189670949245,1,0.999924
0.8876232760616011,1,0.999525
0.8975974412110108,1,0.999902
0.8858645784601732,1,0.999903
0.8801126294219643,1,0.999664
0.8964198232523286,1,0.999909
0.8760201927030893,1,0.999835
0.886054771556502,1,0.999829
0.8626269356776618,1,0.999927
0.8376346194444384,1,0.999462
0.9376249220270846,1,0.999636
0.810183840526718,1,0.999670
0.8595680569765972,1,0.999516
0.8659011702479782,1,0.999722
0.874804260701999,1,0.999419
0.8613641825920616,1,0.999473
0.8940424889023287,1,0.999920
0.821525208463027,1,0.999918
0.8537276570150507,1,0.999816
0.8575127490875339,1,0.999916
0.8666778923101578,1,0.999918
0.8656854971127884,0,0.996800
0.8298162858523249,0,0.995944
0.8938183078630413,1,0.999765
0.8973219856036866,1,0.999771
0.8892499860791614,1,0.999524
0.8321084656311981,1,0.999861
0.8811931636955421,0,0.997957
0.8484164789574654,0,0.999094
0.8414458220366915,1,0.999843
0.8961188397886038,0,0.999122
0.8629405469895177,1,0.999769
0.7707030074728334,1,0.999927
0.8880396275821663,0,0.997810
0.8978402295106676,1,0.999920
0.8460752353122033,1,0.999651
0.877441081633307,1,0.999505
0.7899486294906474,0,0.993862
0.859919253086594,1,0.999928
0.8823364369473495,1,0.999920
0.8838154924383882,1,0.999922
0.9269255355173778,1,0.999399
0.857410977142417,0,0.980086
0.8448307296809024,1,0.999915
0.8466280391460669,0,0.998317
0.8068722595977112,0,0.997763
0.8691028077448388,1,0.999909
0.8383178304726059,1,0.999790
0.79690645746688,1,0.999713
0.9170301570235312,1,0.999537
0.8444548255071774,1,0.999930
0.8219421792699064,1,0.999862
0.882063845199627,0,0.997933
0.8802473736878695,1,0.999928
0.871496961369459,1,0.999921
0.8405825442894507,0,0.997766
0.8648332915957196,1,0.999923
0.8996584502388898,0,0.994785
0.9067947272684332,1,0.999649
0.8807840468834561,1,0.999704
0.8779438207199807,1,0.999753
0.9000330815307994,1,0.999792
0.8739972235322312,1,0.999922
0.8485336177064103,1,0.999923
0.8889568452609912,1,0.999920
0.8757319155874673,1,0.999853
0.7583080716793537,1,0.999634
0.8963090364589869,1,0.999839
0.9154037932505658,1,0.999916
0.8557413701536101,1,0.999920
0.901433412207765,1,0.999837
0.879868861102277,1,0.999928
0.8655165064171363,0,0.998976
0.8878987776790027,1,0.999650
0.9016492125130896,1,0.999917
0.8868438991035282,1,0.999925
0.8835220271975749,1,0.999918
0.8889834871351691,1,0.999930
0.8826984298236256,1,0.999840
0.9051654299123533,0,0.998221
0.9283575417941587,1,0.999739
0.9022765063417064,0,0.999100
0.8583709957811705,1,0.999914
0.9383239471432354,1,0.999573
0.9028565375450921,1,0.999840
0.887019675976108,1,0.999526
0.9102173556384658,1,0.999930
0.9103587349616706,0,0.999066
0.9048134176640458,1,0.999509
0.9257328479823523,1,0.999920
0.9090431569524655,1,0.999922
0.9131438987538727,1,0.999909
0.8582742290172255,1,0.999667
0.8896320866801775,1,0.999921
0.9027296024149676,1,0.999098
0.840752028020169,1,0.999759
0.8852110581352589,1,0.999649
0.8543971315760635,1,0.999930
0.8354731866686269,1,0.999909
0.8584217775768114,0,0.998807
0.8007163342820588,0,0.987865
0.8674020986967238,1,0.999844
0.8809433452968413,1,0.999817
0.8833825514563162,1,0.999919
0.9113513758420628,0,0.998088
0.894626007990421,1,0.999916
0.907736535980553,0,0.999063
0.9101463757292053,1,0.999406
0.8799690968402307,1,0.999340
0.8932029093822539,0,0.997567
0.9096981918506991,1,0.999921
0.9143549844390436,1,0.999483
0.8683427006795075,1,0.999837
0.7864866513543176,1,0.999441
0.8144218554544587,1,0.999732
0.8766868975143163,1,0.999920
0.8500581308892851,1,0.999909
0.850801245746051,1,0.999922
0.860054293961354,0,0.997823
0.8610037350237553,0,0.998550
0.897151763965882,1,0.999743
0.8709654489219941,1,0.999912
0.8704898587243526,1,0.999774
0.9069960544324907,1,0.999829
0.8490754833349864,0,0.994533
0.8336510195381033,1,0.999909
0.8026358405704425,1,0.999788
0.8920473576703909,1,0.999923
0.8871829736585305,1,0.999611
0.9166850137532054,1,0.999097
0.8812598175830508,1,0.999913
0.8542479976232473,0,0.990497
0.9145528246009886,1,0.999834
0.8748126824278811,1,0.999852
0.8590153551672933,1,0.999928
0.8796213022607405,1,0.999925
0.8296731102065393,1,0.999706
0.8565915777186237,1,0.999927
0.8832502691436038,1,0.999774
0.8734337368547083,1,0.999928
0.8386412582745295,1,0.999921
0.8604594124485995,1,0.999917
0.8429089054373333,1,0.999831
0.8474380693786684,1,0.999928
0.8968092767435003,1,0.999912
0.88095529192016,1,0.999923
0.8711475561146049,1,0.999841
0.8306129246478505,1,0.999919
0.8497856812823841,1,0.999853
0.8670406683243602,1,0.999840
0.7963173387700078,1,0.999920
0.7916321980524527,1,0.999640
0.8608207605038476,0,0.997123
0.8178720677425186,1,0.999213
0.8616251428831381,1,0.999793
0.8504841401325995,1,0.999914
0.9081633483602177,1,0.999843
0.8486544428265832,1,0.999503
0.8822414565769059,1,0.999376
0.9039480158357931,1,0.999839
0.8332352242332681,1,0.999694
0.881167737462152,1,0.999757
0.8860454938009379,0,0.998872
0.8352157706544004,1,0.999913
0.8616334377191459,1,0.999856
0.8610597219322994,1,0.999826
0.8717299087688896,1,0.999912
0.8683432585239537,1,0.999910
0.8521560993180225,1,0.999923
0.8721269362261653,1,0.999783
0.9070301807683192,0,0.997363
0.8741530078440988,1,0.999349
0.8516706791268056,1,0.999762
0.8360028284720945,1,0.999859
0.8390811430628557,1,0.999784
0.8803140941457448,1,0.999923
0.8772924561486948,1,0.999784
0.8798862079506695,0,0.999032
0.8914333146712783,1,0.999736
0.8596764969277958,1,0.999840
0.8939606432864466,0,0.996045
0.8670841580423371,1,0.999504
0.8960431034614366,0,0.984666
0.8798530944308759,1,0.999783
0.854836184616333,1,0.999919
0.9120175576911781,1,0.999760
0.9060895639845234,0,0.999092
0.8282036661164957,1,0.999677
0.877943055296168,1,0.999502
0.8832658319203045,1,0.999922
0.8666018134144612,0,0.986141
0.8776076211041617,1,0.999930
0.8643935263864021,1,0.999717
0.8434855129398584,1,0.999848
0.8808634933526457,1,0.999305
0.8658671529698656,1,0.999923
0.861974540363696,1,0.999151
0.8296671131344648,0,0.971607
0.8553134145023649,1,0.999925
0.8874013709905574,1,0.999821
0.8878347693162191,1,0.999911
0.8650984005709474,1,0.999915
0.8475908061928241,1,0.999909
0.881090483828998,1,0.999843
0.8633257191822641,1,0.999794
0.9119785007552524,1,0.999830
0.8588473063681991,1,0.999839
0.8550499160614629,1,0.999908
0.8575695969211109,1,0.999650
0.8633482258161082,1,0.999173
0.8993889537246582,1,0.999824
0.8605633522980582,0,0.998847
0.8412256415603554,1,0.999673
0.8901438594907959,1,0.999753
0.8864616296208844,1,0.999919
0.836825832885221,1,0.999792
0.889323022030142,1,0.999787
0.9289368064533657,1,0.999559
0.8595625098944888,1,0.999857
0.9149199964066915,1,0.999787
0.8366693349582901,1,0.999645
0.902434614691557,1,0.999916
0.8836439339657901,0,0.998270
0.9078743108246955,1,0.999919
0.885005465513592,1,0.999923
0.9021983401761701,1,0.999916
0.846835666178398,1,0.999612
0.884887033365123,1,0.999433
0.8536699590036386,1,0.999858
0.8404814915021463,0,0.998844
0.8833621685163914,1,0.999918
0.8512363291519668,1,0.999708
0.881383238705391,1,0.999312
0.8790352789465273,1,0.999930
0.9099759996212935,1,0.999834
0.8801617597103762,1,0.999923
0.8578900552223686,1,0.999928
0.8808922384738047,1,0.999659
0.8885193338665583,1,0.999832
0.8679000416440461,1,0.999596
0.9117029296347545,1,0.999930
0.8762637619535568,1,0.999772
0.862772079187827,0,0.998422
0.8526228567511922,1,0.999525
0.900008515638418,1,0.999926
0.9061231942483052,1,0.999914
0.8812227545715787,1,0.999206
0.8773484181360239,1,0.999757
0.8342278015858977,1,0.999783
0.8748518931193371,1,0.999919
0.8476550333984336,1,0.999927
0.8504524406827246,1,0.999917
0.8184827022739222,1,0.999844
0.8720898985732602,1,0.999675
0.8431704491860466,1,0.999911
0.8656170064683242,1,0.999259
0.9387895818539341,1,0.999764
0.8644699291539661,0,0.986720
0.8989161082370083,0,0.999211
0.8625139593301405,1,0.999126
0.931797711171079,1,0.999923
0.876866406921042,1,0.999927
0.9105153803470211,1,0.999926
0.9122047133728153,1,0.999908
0.9206169338475725,1,0.999836
0.8763974750658294,0,0.998189
0.8949800723580572,0,0.998277
0.8664769347323813,1,0.999351
0.9040626052068113,1,0.999914
0.8839185636028831,1,0.999760
0.8952076109920407,1,0.999751
0.8645507951715252,1,0.999663
0.8841981842188007,1,0.999701
0.85665142109282,1,0.999928
0.8843466454514389,1,0.999788
0.903601929715185,1,0.999932
0.8697750899405464,1,0.999340
0.8861665238221725,1,0.999927
0.8734530102137926,1,0.999914
0.9129762485223555,0,0.998092
0.8951259542931347,1,0.999909
0.872228965075709,1,0.999912
0.8846384284563186,1,0.999907
0.9280963955671598,1,0.999845
0.8590106374424065,0,0.998558
0.8658156814432729,1,0.999918
0.8561235080125273,1,0.999919
0.889973106963399,1,0.999721
0.8802584232501995,1,0.999113
0.9165211406143207,1,0.999300
0.8788049011771986,1,0.999751
0.872350544829558,1,0.999904
0.881866778678004,1,0.999929
0.8672127989031334,1,0.999421
0.885666020310174,1,0.999831
0.8629310898716098,1,0.999767
0.9207326009840745,1,0.999853
0.8579553824850131,1,0.999858
0.902721114264008,1,0.999922
0.9003995906183335,1,0.999930
0.9105734751874903,0,0.998424
0.8791616389260025,1,0.999495
0.860332507109025,1,0.999691
0.8566788071469208,0,0.990921
0.9097521523630402,1,0.999904
0.9126210684961596,1,0.999909
0.9270012224167162,0,0.998866
0.9048445503952784,1,0.999771
0.9196076653858173,1,0.999845
0.8742007206249558,1,0.999845
0.8486397259733564,1,0.999441
0.8592369321301981,1,0.999852
0.8699401680986077,1,0.999926
0.8730539878035828,1,0.999924
0.8306850986615193,0,0.995443
0.8582016918657893,0,0.986628
0.8372531724195337,1,0.999698
0.8723941240018919,1,0.999859
0.8441878016869552,1,0.999918
0.8854553546362545,1,0.999918
0.9125484150850757,1,0.999515
0.9082734349896108,1,0.999598
0.9031362325257332,1,0.999921
0.8765309899208896,0,0.986312
0.8765447560439895,1,0.999835
0.8186565646337591,1,0.999204
0.7582575595886952,1,0.999643
0.870601629177795,1,0.999913
0.9160070512602742,1,0.999918
0.8738247047049608,1,0.999920
0.8743612974431908,1,0.999755
0.8691804129470883,1,0.999921
0.9134382862171724,1,0.999923
0.8859703849028588,1,0.999923
0.8797002266914105,1,0.999929
0.8763360565989935,1,0.999921
0.8827387757689958,1,0.999864
0.895653761850367,0,0.998875
0.858448255308017,0,0.976705
0.8151605214546855,1,0.999641
0.8080948161286772,0,0.997955
0.8208732161588611,1,0.999756
0.8966431192141812,1,0.999926
0.8943391092139321,1,0.999833
0.8337636054112668,0,0.999015
0.8782090253578843,1,0.999918
0.8343497609673153,1,0.999620
0.8132725764023129,1,0.999928
0.8717423203098695,1,0.999781
0.904488425843377,0,0.999196
0.8492199073282137,1,0.999920
0.8943092080925726,1,0.999920
0.8626132955319833,1,0.999927
0.7867781724198966,0,0.994152
0.8875963632941659,1,0.999854
0.8673014226532455,0,0.998316
0.8453870129389547,1,0.999926
0.8348134560953935,0,0.998986
0.8621911926782071,1,0.999359
0.7906901665056885,0,0.998386
0.8706085322391053,1,0.999923
0.8849696324133333,1,0.999908
0.8063606961308568,1,0.999929
0.8320873999561426,1,0.999917
0.825246136459556,1,0.999481
0.8689680735899322,1,0.999915
0.8060812351133828,1,0.999706
0.8775505904152856,1,0.999920
0.7493169626146929,1,0.999634
0.8773123482276225,1,0.999921
0.8787779127109752,1,0.999917
0.8386953663235314,0,0.984721
0.9002510260506807,1,0.999646
0.831075282797686,1,0.999928
0.8835080053314404,1,0.999854
0.8708248296133465,1,0.999772
0.86132564932838,1,0.999528
0.9010027960696622,1,0.999012
0.8635742193708127,1,0.999926
0.8409671161186747,0,0.996931
0.8897972089866842,1,0.999919
0.8143295331891015,1,0.999930
0.852593194715419,1,0.999845
0.8502120579242204,1,0.999704
0.8928682640787241,1,0.999821
0.8860697335153827,1,0.999861
0.8314831886662746,1,0.999920
0.8333985806727833,1,0.999930
0.9105381097863016,1,0.999390
0.8672828838077606,1,0.999925
0.839869509665246,1,0.999917
0.901928649239536,1,0.999752
0.8545498170316363,1,0.999916
0.880693913993025,1,0.999837
0.8246716483221381,1,0.999916
0.8879170640763773,1,0.999290
0.8808199582252012,1,0.999788
0.8537635298707507,1,0.999363
0.8785882045342848,1,0.999635
0.8180486426959083,1,0.999920
0.8121440082867796,1,0.999930
0.8581772196340659,1,0.999785
0.8141991149139904,1,0.999785
0.8783355828359781,1,0.999927
0.8297865461274728,0,0.996838
0.8856611203770077,1,0.999903
0.8534426073236876,1,0.999920
0.8650883724811509,1,0.999854
0.8626368645266869,1,0.999928
0.9026139748277415,1,0.999847
0.8579218177579205,1,0.999678
0.847336107321955,1,0.999825
0.9102448721223321,1,0.999759
0.8798737080107895,1,0.999915
0.7842714130499622,1,0.999791
0.7123483093892035,0,0.996983
0.7402800780001711,1,0.999918
0.7516313071905556,1,0.999367
0.9406366636880624,0,0.977498
0.8674553915835278,1,0.999100
0.8289538894320014,0,0.947365
0.8584960489434741,1,0.999920
0.8304570756571029,1,0.999927
0.8930116137857499,1,0.999782
0.8797434879721431,1,0.999917
0.9005315729869887,1,0.999911
0.8593077425040028,1,0.999921
0.8834889144882035,1,0.999928
0.8581577835926026,1,0.999932
0.869577937864199,1,0.999920
0.933448149080437,1,0.999840
0.8305568357875882,1,0.999927
0.8041395784623621,1,0.999655
0.9031727628888695,1,0.999931
0.9076370786853127,0,0.998588
0.8717113357930105,1,0.999825
0.8937709893609548,1,0.999930
0.8920944665344355,1,0.999920
0.8782508252540051,1,0.999763
0.8750588015179106,1,0.999925
0.8583603773439977,1,0.999918
0.8967869410145626,1,0.999769
0.8447078527097364,1,0.999475
0.8319357755353489,1,0.999915
0.8154174120509471,0,0.994871
0.8020405192929018,1,0.999919
0.8735514164794875,1,0.999923
0.839057153478441,1,0.999691
0.8446199472554144,1,0.999909
0.8749676020178981,1,0.999921
0.8886616069847764,1,0.999601
0.8759149295640051,1,0.999577
0.8746585006434788,1,0.999921
0.8903871874618249,1,0.999834
0.8595163026811993,1,0.999930
0.9031573056616368,1,0.999931
0.8506733700293012,1,0.999918
0.8687310547235901,1,0.999585
0.8986479297113437,1,0.999276
0.8718286780780785,1,0.999915
0.9060913945487921,1,0.999920
0.8437887963014569,1,0.999588
0.9044895395752182,1,0.999928
0.8570308916465734,1,0.999921
0.8940759360226656,1,0.999711
0.8740881898094877,1,0.999860
0.8792845322761303,1,0.999912
0.8604072795803721,1,0.999920
0.8851683043143648,0,0.986255
0.8697432716588486,1,0.999842
0.837497597049623,1,0.999929
0.9269636489502396,1,0.999306
0.9089171791003513,0,0.998329
0.8640637540208348,1,0.999917
0.9095782108631935,1,0.999756
0.858711336448853,1,0.999785
0.8636084355408175,1,0.999843
0.8534696901264871,1,0.999924
0.9170157210290658,1,0.999850
0.8283809633299464,1,0.999932
0.9085468714143369,1,0.999925
0.8495595864860025,1,0.999927
0.8547492864825386,1,0.999927
0.8323930286291771,1,0.999927
0.8410639804832819,1,0.999111
0.8406781333079586,0,0.996372
0.8770781979898168,1,0.999922
0.8689002359066993,1,0.999926
0.7954473641583221,1,0.999640
0.9012495456070158,1,0.999837
0.858854141295824,0,0.998989
0.8895603518556874,1,0.999343
0.9261076372043795,1,0.999925
0.9243210914096318,1,0.999816
0.9240722630873177,1,0.999840
0.9316932391423627,1,0.999926
0.9233052127449887,0,0.993448
0.9301507147856909,1,0.999934
0.8282225135238332,1,0.999628
0.8651070644994651,1,0.999736
0.8628729742836387,1,0.999492
0.9189176223200886,1,0.999639
0.8507144731607731,1,0.999929
0.9183451959120065,1,0.999918
0.8835062087447538,0,0.998155
0.8920274986668146,1,0.999919
0.8734003052054546,0,0.998699
0.8953289005461277,1,0.999919
0.8792569140202268,1,0.999524
0.8312997458079583,1,0.999924
0.9085423015871316,1,0.999931
0.7907583267334309,1,0.999925
0.8478092989197007,1,0.999860
0.8490294634122763,0,0.998595
0.8846971136356107,0,0.999002
0.8904853256998523,1,0.999927
0.9205026352662616,1,0.999859
0.8734740050232952,1,0.999776
0.9067250447342646,0,0.998516
0.9071810411300456,1,0.999492
0.8895246217769827,1,0.999783
0.9182643567970019,1,0.999709
0.866967966547837,1,0.999562
0.8391519752841651,0,0.994319
0.9049743858858819,1,0.999711
0.8989476225204415,1,0.999923
0.8649119469136985,1,0.999928
0.8476597778804732,1,0.999917
0.9025593652435177,1,0.999660
0.8401578623666243,1,0.999922
0.9284377339129696,1,0.999681
0.8788548931544453,1,0.999834
0.8753947227049232,1,0.999926
0.9056098068685641,1,0.999416
0.8297897100790973,1,0.999519
0.8341720574974905,1,0.999839
0.8443121822482312,1,0.999919
0.890647808038366,0,0.999155
0.8549971150328294,1,0.999634
0.8425253052766849,1,0.999926
0.8837115594388876,1,0.999751
0.8831474339604789,1,0.999778
0.9122796568591497,1,0.999290
0.8756167368373484,1,0.999673
0.8443277511644605,1,0.999843
0.8506084373558137,0,0.998902
0.9080745649764427,1,0.999819
0.8773046171092933,1,0.999741
0.8457024895484939,1,0.999920
0.9075215234089705,1,0.999352
0.9076903941640442,1,0.999391
0.9252995604953864,1,0.999525
0.9090453633090031,0,0.999054
0.8625450991065933,1,0.999846
0.8918198405051212,1,0.999770
