0.25373828708561474,0,0.725527
0.4220815278719262,0,0.988444
0.5192740388475082,0,0.987703
0.5745405130403574,0,0.989586
0.619706613414001,0,0.960414
0.6880683344319617,0,0.985673
0.7558527820305696,0,0.971167
0.8078970329855347,1,0.999885
0.8398350295718479,0,0.987644
0.8627479898762068,1,0.999891
0.888327515596522,1,0.999882
0.9068734749199985,1,0.999882
0.9260926667085139,1,0.999878
0.9377553245406991,1,0.999868
0.9462301471333058,1,0.999896
0.9537296520203623,1,0.999900
0.7953834168477035,1,0.999254
0.8297014877882851,1,0.999051
0.8733287265742793,1,0.999801
0.9049675029425568,1,0.999883
0.9218105945640117,1,0.999893
0.9337906052387615,0,0.765191
0.9336235215217977,1,0.998015
0.9331397855975547,1,0.999833
0.9326953047989557,0,0.936934
0.9323758620163611,1,0.999461
0.9330119216377135,0,0.895754
0.9341419193493229,1,0.999655
0.9356473848351768,1,0.999831
0.9368971615657622,1,0.999843
0.9412952532252334,1,0.999754
0.9450081479596232,1,0.999563
0.946375278844365,1,0.999302
0.9476394681947765,1,0.999029
0.9499407771420522,1,0.999001
0.8069033657004818,1,0.999858
0.8227575454570382,1,0.999784
0.8465372546051309,1,0.999546
0.8713655863668898,1,0.999881
0.8931594759631539,1,0.999882
0.8982651884465302,1,0.999842
0.8985202801722166,0,0.961810
0.8992822804135561,1,0.998791
0.9023443375171094,1,0.999255
0.9058123097094485,1,0.999922
0.9122419739939033,1,0.999879
0.9180271035851859,1,0.999749
0.9248356570636658,1,0.999720
0.9304399021352481,1,0.999475
0.9358070626880322,1,0.999866
0.941061720955573,1,0.999746
0.9451864474421582,1,0.998825
0.9487557767415453,1,0.999139
0.9519194398680515,1,0.999681
0.8578573745536354,0,0.994200
0.8739931726296046,1,0.999758
0.8861639079150937,0,0.946403
0.8962757106299635,0,0.996146
0.9047843650924909,0,0.998104
0.9193202971642692,1,0.999088
0.9209202571758024,1,0.999460
0.9228383315877091,0,0.964027
0.9239458186814141,1,0.999891
0.9241279548859278,0,0.998489
0.9241307747375963,0,0.917041
0.9258891540022932,0,0.990629
0.9268386472760675,0,0.998438
0.9280872708419013,0,0.993719
0.927668173810354,1,0.999885
0.9269837245881886,1,0.999849
0.9262621361093646,0,0.781870
0.9255886110465066,1,0.999521
0.9249783897226002,1,0.999879
0.9261283781673297,0,0.957255
0.9265614420718626,0,0.993939
0.9259199269015137,1,0.999274
0.9281847819333862,1,0.999152
0.9288504874056793,1,0.999901
0.928983711964026,1,0.999681
0.9300727767523821,0,0.949104
0.9316902103993585,0,0.941969
0.9323002343716347,0,0.997094
0.9337988799663326,0,0.997726
0.86889020861938,1,0.999857
0.8839190074766181,1,0.999892
0.8968283688409102,1,0.999617
0.9046121064904101,0,0.996212
0.912076275735129,0,0.887665
0.9172731857609009,0,0.996058
0.9217815851552973,1,0.999891
0.9249726789362331,1,0.999624
0.9283843026165762,1,0.999817
0.9338344791918187,1,0.999877
0.9382041547191967,0,0.995162
0.9409538622738792,0,0.995250
0.9442620594869335,1,0.999918
0.9481649780157958,1,0.999908
0.9514990385526212,0,0.998823
0.9537039541950597,1,0.999800
0.9546661401904378,0,0.995421
0.9556696359150142,1,0.999689
0.9563666395822967,1,0.999708
0.957422100570819,1,0.999260
0.9580044185717572,1,0.999836
0.9594797266139606,0,0.999104
0.9610919389463589,1,0.999664
0.8944424272076796,1,0.999898
0.9049948781421973,1,0.999653
0.9158623386712176,1,0.999727
0.9216398199537775,1,0.999611
0.9266681849632634,0,0.998708
0.9336271283807791,0,0.998547
0.9390286314432748,1,0.999436
0.9416358003381297,1,0.999886
0.9422612579804585,0,0.998635
0.9426744480594961,0,0.997594
0.9431101746561186,1,0.998966
0.9424960927376123,1,0.998927
0.9419691859623893,1,0.998966
0.9410457337592306,1,0.999884
0.9398472117667018,1,0.999760
0.9387779341585234,0,0.968614
0.9377945290881793,0,0.998305
0.9364702510481118,0,0.997129
0.9354627413099615,1,0.999620
0.9345034531231591,1,0.999676
0.9332885310119379,0,0.996695
0.9322543842565246,0,0.955087
0.930879490810985,0,0.998975
0.9301174099291936,1,0.999878
0.9293432807505836,1,0.999201
0.92891924968864,1,0.999697
0.9283424146705468,0,0.997581
0.9275389031871402,1,0.999407
0.9271743796647871,1,0.999820
0.9265450076622619,0,0.995247
0.9256069771789687,0,0.987742
0.9250534493696198,1,0.999913
0.9243993233019342,1,0.999775
0.9242750866756473,1,0.999775
0.9236493688376763,0,0.997013
0.9231411070081506,0,0.998611
0.9227398493768557,1,0.999186
0.9023838060387392,0,0.995424
0.9061710659676612,0,0.997610
0.9085795843348234,0,0.996179
0.91158229486454,1,0.999550
0.913624281607056,1,0.999504
0.9151130773885956,1,0.999876
0.9159579604027317,1,0.999183
0.9162825709840484,0,0.992588
0.9161287320914866,1,0.999490
0.9167999853597186,1,0.999695
0.9169065008750964,0,0.996988
0.9165675216600666,0,0.998967
0.9167139671609049,1,0.999425
0.9165235354286705,0,0.998871
0.9156330591184589,1,0.999180
0.9147865017592686,1,0.999757
0.9142262301962002,1,0.999627
0.9141734825197935,0,0.998192
0.9136508624253954,0,0.969452
0.9131477252369951,1,0.999812
0.9123537747401441,0,0.998488
0.911592972756103,1,0.999905
0.9112405989286839,0,0.997096
0.9111131987655233,0,0.990139
0.9106735336470578,0,0.995886
0.9102328174090738,0,0.994347
0.9098723072655702,1,0.999815
0.9092282415860345,1,0.999655
0.9084885899366745,0,0.998125
0.9084456861435205,0,0.993313
0.908280820733074,0,0.997424
0.9081156886619439,0,0.993282
0.9079887071883613,1,0.999453
0.9079433145966527,0,0.996434
0.9079626775598274,0,0.996887
0.9079534433413998,0,0.997616
0.9079068489837238,0,0.994240
0.9079681801522651,0,0.998155
0.9079454548806841,1,0.999810
0.9080825497517606,0,0.996408
0.9085416894507543,0,0.998574
0.9087653075113518,1,0.999213
0.9089493834210775,1,0.999787
0.9092894332521323,0,0.997428
0.9098896568362316,1,0.999549
0.910405278156357,0,0.999004
0.9041999926693919,1,0.999507
0.9063686932951782,1,0.999902
0.9083659689468171,1,0.999454
0.9105811307588298,1,0.999896
0.9123765546275816,1,0.999108
0.9134939287777835,1,0.999814
0.9141978074213185,0,0.977982
0.9153257593654509,0,0.886296
0.9154150469660581,0,0.998776
0.9157165150320485,0,0.997379
0.9158378789352141,0,0.998989
0.9158628879888593,1,0.999017
0.9159832666589557,0,0.996418
0.915600579506644,0,0.995683
0.9148600663215306,1,0.999551
0.91378674453936,0,0.994609
0.91315851488569,1,0.999895
0.9118742051562598,1,0.999616
0.9109542443070013,0,0.997607
0.9110360944836615,0,0.988618
0.9112193410411233,1,0.999034
0.9106025656302356,0,0.996975
0.909856713412484,1,0.999418
0.9087651533854102,0,0.998538
0.9078808500871692,0,0.997411
0.9066232135826483,0,0.998298
0.9059258163989518,0,0.996528
0.9048934564663301,0,0.926780
0.9038200090783913,0,0.903484
0.9025736525352619,0,0.989774
0.9013437309979225,1,0.999875
0.8999679719573059,1,0.999607
0.898635870331009,0,0.997298
0.8974273243169228,1,0.999872
0.8960242395050771,0,0.998581
0.8942187081889545,0,0.994065
0.8926550621897565,0,0.993849
0.8908977209944046,1,0.999576
0.8891927278187285,0,0.998178
0.8883887445010846,1,0.999157
0.8874711034615606,1,0.999094
0.8856828588592655,0,0.900598
0.8849124022457708,1,0.998924
0.8845694964196477,1,0.999895
0.8838160062945566,0,0.992147
0.8820308701357915,0,0.898649
0.8806105035666346,0,0.996266
0.879550622917433,1,0.999891
0.8784764328754384,0,0.992805
0.8769783811348965,1,0.999605
0.8757087909367289,0,0.987786
0.874851869540454,0,0.996835
0.8755794942655247,0,0.997438
0.8762609431439092,0,0.991415
0.8764470244266438,1,0.999815
0.8760195376739419,0,0.994574
0.8849924523534917,0,0.995996
0.885032039417509,0,0.997038
0.885499704916246,1,0.999747
0.8847568796149258,0,0.998947
0.8839738296413614,0,0.997299
0.8823174264578764,0,0.994620
0.8817113903988728,1,0.999327
0.8824236884578883,0,0.996015
0.8815697965055656,1,0.999370
0.8799027448749179,0,0.996747
0.8783390375457073,0,0.996474
0.876612017026403,1,0.999813
0.8749635108544703,1,0.999033
0.8739193129898578,1,0.998994
0.8727118568014873,0,0.977058
0.8712246212871131,0,0.995046
0.8702089987204427,0,0.916439
0.8680244929342447,0,0.984830
0.8661516909444597,1,0.999627
0.8645152327750075,1,0.999315
0.8631275222800763,1,0.999811
0.861086370867391,1,0.999799
0.8600911053075762,1,0.999583
0.8596567155921734,0,0.994688
0.8584330235190979,1,0.999099
0.8576287621051711,1,0.999827
0.8567246960830545,0,0.997198
0.8566859465070727,0,0.996065
0.8566883119067437,1,0.999125
0.8560325195093865,1,0.998967
0.8553791142499375,0,0.998039
0.8542311464499672,1,0.999207
0.8550505665728105,1,0.999700
0.8569731039349663,0,0.997401
0.8584674333313803,1,0.999828
0.8592766374536452,0,0.998835
0.8589237072654173,1,0.999173
0.8581972529336148,0,0.997661
0.8573138146756379,0,0.998371
0.8567490211352778,0,0.997096
0.8594547289573831,0,0.993353
0.8612026654595427,0,0.992280
0.8632872447957097,1,0.999900
0.8650322687202907,0,0.995911
0.8660317601465289,0,0.989279
0.8674664108232485,0,0.998692
0.8680472085918448,0,0.994909
0.8685508132094529,1,0.999578
0.8685782499422429,0,0.998627
0.8682089855406147,0,0.989181
0.8678166661295126,0,0.982154
0.8671433614851412,0,0.997377
0.8667678001518253,0,0.996064
0.8662455419400684,0,0.974495
0.865713624493868,0,0.994402
0.8651379153496772,0,0.972384
0.8645265287648246,0,0.991373
0.8640202223820808,0,0.991530
0.8631122850643917,1,0.999902
0.8622327452656103,0,0.985880
0.8620844859277156,0,0.996112
0.8618609240711755,0,0.990242
0.864452342157659,0,0.996476
0.8657815898424668,0,0.974977
0.8660948095865093,0,0.972101
0.8657888328830815,1,0.999203
0.8656749470198788,0,0.995840
0.866344016121584,0,0.998739
0.8657094535906718,1,0.999373
0.8651711477090651,1,0.999650
0.8653563716854688,0,0.995436
0.8632847207184062,0,0.996221
0.8613676579778482,0,0.965065
0.8605525285966751,0,0.997851
0.8619592015792674,0,0.994310
0.8642447303626085,0,0.995285
0.8667872480518488,0,0.998540
0.8692571019849804,0,0.989494
0.8722188969006051,1,0.999681
0.8743072794795145,0,0.992675
0.8762264359232713,0,0.998493
0.877463469521075,1,0.999897
0.8792084639959614,0,0.982860
0.8814220560508861,0,0.997346
0.8828433905794818,0,0.996935
0.8813018456267772,1,0.999799
0.8802147158955339,0,0.992166
0.8786629193947173,0,0.997681
0.8782747374093999,0,0.993075
0.8779709918989974,0,0.997116
0.8765949374492648,0,0.990250
0.875750646000455,0,0.994349
0.8743748588022708,1,0.999912
0.8733193847738147,1,0.999235
0.8728722389222657,1,0.999790
0.8730180370870905,1,0.999895
0.8722817357375464,1,0.999909
0.8712568978796785,0,0.995674
0.8706740410052771,0,0.992254
0.8705788227960797,0,0.996492
0.8720348445336905,0,0.996832
0.871732353178467,1,0.999659
0.8716367627956711,0,0.996421
0.8718348945371361,1,0.999721
0.873891419910857,0,0.997029
0.8760351611028351,0,0.998120
0.8771125159337688,0,0.996057
0.8778145576004316,0,0.998080
0.8792703644449077,0,0.996814
0.880728008166691,0,0.996491
0.8823135715038493,0,0.997538
0.88451142617143,0,0.991439
0.8867551187772502,0,0.981486
0.8891354864547174,0,0.997963
0.891050792748144,0,0.994116
0.8924368631997676,0,0.996333
0.8937991479752305,1,0.999678
0.8952462682819506,0,0.998373
0.8971602600364099,0,0.998917
0.8980123325307469,1,0.999912
0.898267359556634,0,0.998243
0.8985475567585729,0,0.981291
0.8990817120519321,0,0.993484
0.8999738978700765,0,0.997978
0.9007934938712701,0,0.998312
0.9014817940900012,0,0.997090
0.9024790637144258,0,0.996794
0.9034646874726706,0,0.995443
0.903781284578214,1,0.999447
0.9041736667722731,0,0.994421
0.864283332620009,0,0.998690
0.8733961741431021,0,0.996223
0.8802899670396209,1,0.999730
0.8814840874489069,0,0.997942
0.8827477994833594,0,0.996827
0.8840026021004207,0,0.998226
0.8851932681227169,1,0.999823
0.8885768809706136,1,0.999751
0.8906984728465981,1,0.999565
0.8917415224534632,1,0.999068
0.8926439117095798,0,0.995524
0.892406572573439,1,0.999216
0.8932748579294914,1,0.999899
0.8939421956212176,0,0.998639
0.8938463596361137,0,0.998210
0.8941679537852097,0,0.996886
0.896583816362367,1,0.999901
0.8993201278675532,1,0.999533
0.9021059435249961,0,0.992269
0.9038205987358482,1,0.999629
0.905643796765449,0,0.996456
0.9074105677529677,0,0.991784
0.9093524514934572,0,0.995270
0.9099434112319171,0,0.996761
0.9096337884101423,0,0.990037
0.9091880932341091,1,0.999346
0.9089310933808334,1,0.999786
0.908758281760128,0,0.992611
0.9084380134544352,1,0.999788
0.9079637406093864,0,0.993357
0.9073814487376276,0,0.997866
0.9068121178048111,0,0.999028
0.9066085958179141,1,0.999796
0.906496624419518,1,0.999542
0.9060572334264404,0,0.998086
0.9050216960376769,1,0.999294
0.9044225921238678,0,0.995973
0.9043654696084724,0,0.996077
0.9042840410910559,0,0.997383
0.904209691566796,0,0.997492
0.9035854499039425,0,0.990951
0.9035346236582888,0,0.993959
0.90356270793859,0,0.998133
0.9032858036840467,0,0.997568
0.9029315017627043,0,0.998873
0.9026689569136338,0,0.995940
0.9025876469139065,0,0.996818
0.9026856226060097,0,0.992809
0.9026534392547549,0,0.992668
0.9023877270326349,1,0.999796
0.9019242944109339,0,0.998623
0.9014233756212959,0,0.993943
0.9009485176153912,1,0.999710
0.9001875505832516,0,0.996926
0.8994934252844802,0,0.998708
0.8990470493005196,1,0.999896
0.8984373832067059,0,0.996812
0.8981938539818712,0,0.997209
0.898118724126657,0,0.998011
0.8978273916747864,0,0.996648
0.8975041658544144,0,0.992899
0.8972000932286093,0,0.995644
0.8969262554013733,1,0.999438
0.8965244007688692,0,0.996259
0.8964476884465269,0,0.997548
0.8962477241007633,0,0.993804
0.8962805201365701,1,0.999914
0.8963813956572572,0,0.998271
0.8961079297713475,0,0.996646
0.8752238352528121,1,0.999830
0.8767033638939655,1,0.999893
0.8788031897953151,0,0.995094
0.8791781200618851,0,0.994450
0.8800120581734076,0,0.997077
0.8812840798632569,0,0.995192
0.8814971723472464,0,0.995880
0.8823213430495898,0,0.996566
0.8840197189693161,0,0.995723
0.8848510203399487,0,0.993340
0.8848266947753849,1,0.999810
0.8843399291186637,0,0.995077
0.884089300226315,0,0.992168
0.884349105713108,0,0.997568
0.8847382462805586,0,0.997471
0.884080649888858,0,0.995621
0.884117746673966,1,0.999671
0.8849429424318636,0,0.998375
0.8861956803890593,0,0.990606
0.8882505575208127,0,0.996815
0.8905609815431583,0,0.998013
0.892163212179638,1,0.999685
0.8937268517214101,0,0.997523
0.8951543485369322,1,0.999905
0.896109248360798,0,0.997702
0.8966329836016325,0,0.997255
0.8969839146467193,0,0.996018
0.8977130993783703,1,0.999599
0.8975745526836962,0,0.991994
0.8975022727564977,0,0.998930
0.8972076951059771,0,0.995585
0.8970688219758896,0,0.998025
0.8966352626167104,0,0.994481
0.8963410916339105,1,0.999897
0.8956920033841969,0,0.997476
0.8960567189519957,0,0.993809
0.8966009630545436,0,0.997186
0.8970119846913036,1,0.999924
0.8967382282424062,0,0.994110
0.8963098554776783,0,0.988452
0.8957843779969745,0,0.993390
0.8952659614625554,0,0.996622
0.8951514259842391,0,0.996525
0.8953085797090765,1,0.999908
0.8949998549537589,0,0.993283
0.8947633269567695,0,0.996583
0.894956738975827,0,0.996310
0.8948937582825799,0,0.992606
0.8950291787667057,0,0.995586
0.8947713402127695,1,0.999729
0.8945765020321973,1,0.999175
0.8947006341562818,0,0.993462
0.8955539100312331,1,0.999563
0.8963871101017952,0,0.990799
0.8974895050135124,0,0.997573
0.8981913624490008,0,0.998632
0.8991218546650932,0,0.993205
0.8990334665838497,0,0.998938
0.8988630995462327,0,0.991758
0.8986002267266702,1,0.999909
0.8988414201274372,0,0.994639
0.8986774981253965,0,0.996604
0.8985056684950119,0,0.997562
0.8983157542945048,1,0.999906
0.8979983620017359,0,0.996909
0.8979013886846783,0,0.992639
0.8978632047683858,0,0.997417
0.8974495790487045,0,0.991533
0.8971288698319692,1,0.999905
0.8969156811757779,0,0.992834
0.8968776847888611,1,0.999842
0.8968610454631725,0,0.992257
0.879520102609987,0,0.997440
0.8825152603737834,0,0.996358
0.8859742824679202,0,0.996671
0.8877355557884343,0,0.996083
0.8909217342040499,1,0.999050
0.8917881226164031,0,0.996783
0.8940131677034543,0,0.994003
0.8960409050632148,0,0.996683
0.8965969304375208,0,0.995618
0.8969277247469356,0,0.995470
0.8970354632659032,1,0.999316
0.8967569865918243,0,0.990573
0.8962590696030053,0,0.997129
0.8960649904213276,0,0.994779
0.8962336280332021,0,0.992479
0.8966924101167267,0,0.993690
0.8967729887774833,0,0.996133
0.8970945552542166,0,0.998131
0.896816772648916,1,0.999929
0.8964419559504513,0,0.993466
0.8957441785673754,0,0.993584
0.8949895710393831,0,0.994208
0.8950435580802545,0,0.997087
0.8945010275551893,0,0.997171
0.8943757754428413,0,0.995770
0.893843018443091,0,0.991005
0.8936493087498321,0,0.991049
0.8938327889596719,1,0.999914
0.8944881135300272,0,0.992392
0.8946298103172238,0,0.989487
0.8943449620999218,1,0.999718
0.8949199208710474,0,0.997689
0.8950383472539466,0,0.995856
0.8952592864343307,0,0.997582
0.8954634683606822,0,0.993265
0.8956184599398013,1,0.999813
0.8960587208623376,0,0.994277
0.8958506142490648,0,0.996676
0.895833209629376,0,0.995290
0.8957645427269484,0,0.996988
0.8971904188119645,1,0.998888
0.8973320779661675,0,0.991902
0.8968873163541125,0,0.997738
0.8968126480425072,1,0.999547
0.8967777307173298,0,0.990550
0.8964513891880267,0,0.992577
0.8965111090479218,0,0.996320
0.8969215051107989,0,0.996743
0.897666488317083,0,0.993333
0.8978521018962389,0,0.994672
0.898179401785433,0,0.992869
0.8986590729859035,0,0.998039
0.8987208457711066,0,0.993210
0.8992266641158715,0,0.993148
0.8999296506820397,1,0.999750
0.9006208735246277,0,0.996593
0.9013019761063378,1,0.999670
0.9018884400500069,0,0.995763
0.9023055656184495,0,0.994721
0.9024805986729828,0,0.995573
0.9031399353396979,0,0.997667
0.9038442288958337,0,0.992828
0.9045225183997654,0,0.996769
0.9052762497074188,1,0.999701
0.9062411016135985,1,0.999770
0.9072813204892067,1,0.999924
0.9082011982824356,0,0.995963
0.9087676081450937,0,0.993396
0.9092248745566178,0,0.995701
0.9095743482874816,0,0.993180
0.9103632242619978,1,0.999917
0.9111088355015283,1,0.999720
0.8735245257464422,0,0.997983
0.8778698769896253,0,0.996344
0.8811453588397226,0,0.998871
0.8841299399697394,0,0.991053
0.8875475289570947,1,0.999460
0.8892274229138609,1,0.999908
0.890838522049744,0,0.994561
0.8926794768941864,1,0.999737
0.8945750879218656,0,0.993851
0.8963986093534186,0,0.995959
0.8982398959767781,1,0.999600
0.9005604708132326,1,0.999915
0.9026473445724041,1,0.999911
0.9035100107481117,1,0.999674
0.9042205572254433,0,0.996967
0.905078228541139,1,0.999679
0.9059098437830758,0,0.995392
0.9067581276771243,0,0.994921
0.9075880098448532,0,0.996314
0.9078663050383781,0,0.994618
0.9080972345803537,0,0.998197
0.9082129236386446,0,0.996106
0.9082877172877905,1,0.999925
0.908727112522346,1,0.999912
0.9092687650204443,0,0.996325
0.9097766963349556,0,0.994870
0.9102001292554618,0,0.997575
0.9104441961526599,0,0.994535
0.9107642858307693,0,0.993160
0.9109982137135187,1,0.999909
0.9113313817597872,1,0.999909
0.911891620164103,1,0.999913
0.9122171651953104,0,0.993766
0.9126385931735146,0,0.995531
0.9127088652791281,0,0.995637
0.912881809406305,0,0.799061
0.9130541443772657,1,0.999543
0.9127396562227272,1,0.999891
0.9124906699687286,1,0.999685
0.9121302408768648,0,0.998661
0.9120575314507688,0,0.995290
0.9117604455209153,1,0.999896
0.9115066316934387,1,0.999882
0.9118363380188246,1,0.999824
0.9116465928939964,0,0.995796
0.9114696143844288,0,0.997911
0.9111778418575074,1,0.999114
0.9107319640736838,0,0.987617
0.9111324780389187,1,0.999092
0.9107948451972386,1,0.999573
0.9105844980806669,0,0.998902
0.9099126057509308,0,0.992161
0.9091928456379682,0,0.981401
0.9084444563699491,0,0.993834
0.9078697312838742,1,0.999449
0.9073819096968089,1,0.999934
0.9066134480239294,0,0.994488
0.905916080193337,0,0.992239
0.905324478181352,0,0.989940
0.9048401859157372,0,0.988181
0.9044368901614566,0,0.992093
0.9042450584730598,0,0.996723
0.9041647472024584,0,0.994056
0.9036263928914531,0,0.987171
0.9028062484324637,1,0.999237
0.902070361764017,1,0.999885
0.9010353543947967,0,0.978888
0.9000206846282931,1,0.999773
0.8993132702558708,1,0.999403
0.8985193122625472,0,0.998162
0.8976546662718101,0,0.956842
0.8968885592129952,1,0.999274
0.8960755684820625,0,0.990211
0.8950682004288587,1,0.999365
0.8940845542400598,0,0.983757
0.8931002766646603,0,0.993626
0.8920916040029179,0,0.995611
0.8908927510131985,0,0.959320
0.8820952130789943,0,0.992095
0.8823478198481477,1,0.999535
0.882299795430759,0,0.992563
0.8823115968691398,1,0.999666
0.8815819135595464,0,0.975935
0.8813779605852834,0,0.983917
0.8814621263399534,1,0.999601
0.8811211261645968,1,0.999789
0.8821015398642448,0,0.992449
0.8827029418576916,1,0.999893
0.8822673983072843,0,0.990075
0.8811107365161645,0,0.990139
0.8799823962002482,0,0.992059
0.8790256529208752,0,0.995296
0.8776505559005184,1,0.999799
0.875999404526372,0,0.987339
0.8745498743072543,0,0.997359
0.8726385733100978,0,0.970005
0.8709164375981042,0,0.997440
0.8691761034693778,0,0.952537
0.8665683901824541,0,0.990116
0.8631230210743415,0,0.998463
0.8594504117844849,0,0.983754
0.8575728416233157,1,0.999886
0.8549113612279845,1,0.999764
0.852377329479154,1,0.999890
0.8505134300763724,0,0.995992
0.8472649802170095,0,0.988673
0.8435124147026185,0,0.990891
0.8411333619817084,0,0.983784
0.8381423934062894,0,0.984425
0.83501278372442,0,0.990309
0.831315059511376,1,0.999658
0.828677163579147,0,0.952683
0.825782392520823,0,0.986647
0.8226547568936124,0,0.984670
0.8195222093156003,0,0.985693
0.8168339591626322,0,0.982683
0.8149952074460357,1,0.999476
0.8130669201830845,0,0.988605
0.8115933913248717,1,0.999405
0.8088519069975841,1,0.999886
0.8066440818751728,0,0.987773
0.8050547725069106,0,0.988646
0.802259869357496,0,0.954840
0.7997368126565427,1,0.999877
0.7972026163631961,1,0.999882
0.7951750221943251,1,0.999906
0.7939527287127637,0,0.989503
0.7923688591114032,1,0.999740
0.7908301383948335,0,0.998845
0.7900023520233048,1,0.999589
0.7891793290646458,1,0.999158
0.7886387926895386,0,0.998334
0.7889700315622704,0,0.994445
0.7889328861585863,1,0.999906
0.7895574920902749,0,0.977328
0.7896574195535918,0,0.984160
0.7902332494698593,0,0.993200
0.7904284605555223,1,0.999809
0.7907008444244484,0,0.990592
0.7907849416576377,0,0.998738
0.7913050703166664,0,0.990321
0.7910192623184493,0,0.990543
0.7909947199096581,1,0.999892
0.7906265960608218,0,0.988087
0.7911397019531743,0,0.997680
0.7913126644240916,1,0.999416
0.7908875504222469,0,0.993866
0.7907318474368815,0,0.998612
0.7896225787957112,1,0.999136
0.788671978397983,0,0.991789
0.7874928800392031,1,0.999773
0.786282231605017,1,0.999741
0.7850560668279698,0,0.984137
0.7837468679384025,0,0.980699
0.7829456432402981,0,0.986562
0.782111934028107,1,0.999744
0.7812895390492451,0,0.982485
0.780946710654418,0,0.977530
0.7810525421526884,0,0.980984
0.7804461797384227,0,0.980013
0.7792607769618526,0,0.985365
0.7777722545644338,0,0.982193
0.7768194000387175,1,0.999028
0.7760846531907498,0,0.954612
0.7754305863590665,1,0.999787
0.7748594583859718,1,0.999312
0.7738154420536654,0,0.991525
0.7736807727547174,0,0.983852
0.8801549319153238,1,0.999445
0.8810945658168758,1,0.999764
0.8817023717104936,0,0.987296
0.8821441261287869,0,0.997273
0.8813800071761992,1,0.999756
0.8812029327499105,1,0.999143
0.8814780399761752,0,0.998355
0.8816391464529388,0,0.977233
0.8821347820494143,0,0.991935
0.8825514775111377,1,0.999774
0.8822384838906208,0,0.989770
0.881270935493582,0,0.997310
0.8811443443815816,0,0.992068
0.88062926323939,1,0.999905
0.8791647671820725,1,0.999751
0.8779590690096662,1,0.999437
0.8758931051761922,0,0.998054
0.8739267645077623,1,0.999242
0.8729154866673973,0,0.997678
0.8721180169245092,0,0.981634
0.8722145703678827,0,0.988003
0.8715542742741199,0,0.985915
0.871579518680998,0,0.979101
0.8706820029117752,1,0.999824
0.8693242154158409,1,0.999920
0.8668922965178498,1,0.999889
0.8644480175078539,0,0.994123
0.8624039496461736,0,0.993217
0.8609873815641779,1,0.999094
0.8598281595901898,0,0.980049
0.8588053215258509,1,0.999669
0.8576162700695703,0,0.991604
0.8571227651017225,0,0.995573
0.8566167461951728,0,0.996816
0.8562204065555301,0,0.992886
0.8556410382334626,0,0.995211
0.8545645167427766,0,0.991227
0.8534966356253785,0,0.996695
0.8520699785612866,0,0.987782
0.8506120039885772,0,0.987670
0.8493645991731334,0,0.988009
0.8481788000057043,0,0.991477
0.8468096171864128,0,0.996576
0.8455721849679063,0,0.979867
0.8440944542296507,1,0.999078
0.8423616532720802,0,0.991072
0.8402320663630558,0,0.972976
0.8382864902727819,0,0.993806
0.8365213232073151,0,0.997878
0.8344140659069679,1,0.999824
0.8321628973250367,0,0.997527
0.8303116568767483,1,0.999779
0.8285056533216955,0,0.996875
0.8268243851633368,1,0.999871
0.8254067380537367,0,0.989298
0.82404693940405,0,0.990873
0.8223641690147463,0,0.985222
0.8204481331059599,0,0.998105
0.8187221514593924,1,0.999778
0.8177089494205049,0,0.998436
0.8165403074146109,0,0.992178
0.8153614229493371,0,0.994693
0.8146808908793972,0,0.987111
0.8135573253929288,0,0.993781
0.8126346683002252,0,0.988180
0.8128585165124013,0,0.998666
0.8127760362089477,1,0.999744
0.8123856005905371,0,0.989180
0.8118140976329501,0,0.994536
0.8117206470110349,0,0.989898
0.8110463535937747,0,0.988263
0.8101888936300188,0,0.991896
0.8102768994528852,0,0.995902
0.8099686764209006,1,0.999528
0.8095222178561506,1,0.999665
0.8091109821395124,0,0.989073
0.8085842786682177,0,0.987468
0.8076032936506466,0,0.994241
0.8079147848731214,1,0.999896
0.8080060912870929,1,0.998985
0.8076673028224991,1,0.999891
0.8071772781751791,0,0.997385
0.8066432658576665,0,0.980226
0.8059848379720992,0,0.977653
0.8052835937635102,1,0.999808
0.8047839551496233,0,0.994238
0.8041726536782727,0,0.988338
0.8034971294741564,0,0.988080
0.8027551714118162,0,0.984437
0.8021594785231437,1,0.999874
0.8013234853433875,0,0.984463
0.8004817791723271,0,0.986602
0.7997765835390059,0,0.991404
0.7991498199115145,1,0.999510
0.7984248105806409,0,0.982727
0.8745797956458764,0,0.977509
0.8767014473862951,1,0.998904
0.8780454980422056,0,0.951118
0.8790871385204443,0,0.994810
0.8796556085901309,1,0.999891
0.8803593634397068,1,0.999629
0.881377783984862,0,0.992521
0.8826821805165195,1,0.999556
0.8833346679654658,1,0.999600
0.8838230084952537,0,0.993817
0.8841534782391715,0,0.992087
0.8835069287842278,0,0.993077
0.8820351823212422,0,0.972096
0.8807238169940615,1,0.999020
0.8793635936805924,1,0.999185
0.8788573673524896,1,0.998976
0.8775195254385117,0,0.991997
0.8761559617582035,1,0.999398
0.8751354002541218,0,0.997955
0.8749932468897529,0,0.994003
0.8753595462568919,1,0.999723
0.8759801765173173,0,0.998683
0.8755781365004526,0,0.992526
0.8756216925272584,0,0.992733
0.8747465558622617,0,0.989307
0.8742034381870932,0,0.995270
0.8739461906937805,0,0.992326
0.8729076220670535,0,0.996558
0.8718276037463142,1,0.999759
0.8701314960335874,0,0.983981
0.8689268523658119,0,0.990601
0.8679426128546808,0,0.983743
0.8669104824175148,1,0.999892
0.8653218319857835,1,0.999489
0.8639609202148498,0,0.985862
0.8623484817071162,0,0.988105
0.8605019938631124,1,0.999918
0.8587519986543704,0,0.997007
0.8570201796603866,0,0.999026
0.8558271270814798,1,0.999893
0.8549473057352683,0,0.996608
0.8535501327273076,0,0.998854
0.8524997065247014,0,0.994735
0.8509731211328414,1,0.999895
0.8497776436040108,1,0.999907
0.8486728237315734,0,0.998971
0.8468621098595994,1,0.999044
0.8449790777852931,1,0.999307
0.8436535614951856,0,0.993796
0.8421436592094733,1,0.999910
0.8406837524067214,0,0.990118
0.8393478537476389,1,0.999316
0.8379099300482544,0,0.992575
0.8364678775702454,0,0.997514
0.8357477273441142,0,0.991337
0.8348664147081668,0,0.984672
0.8341060768628479,0,0.992832
0.83306114132202,1,0.999902
0.832073954541263,0,0.996756
0.8308554619863316,0,0.981053
0.8297002358621047,1,0.999904
0.82883411061638,0,0.996101
0.8280302795097839,0,0.994514
0.8272573421314802,1,0.999694
0.8263433966167232,0,0.988508
0.8253784427977392,0,0.987629
0.824201548094037,1,0.999892
0.8231627867947683,1,0.999887
0.822324488220608,0,0.987006
0.8213576518759477,0,0.989785
0.8207590898277172,0,0.989948
0.8198679330493227,1,0.999803
0.8189022333282192,0,0.992929
0.8182872948643566,0,0.986550
0.817632150224323,0,0.995782
0.8166006322659218,0,0.995707
0.8158777261930302,0,0.998968
0.8152178545962263,0,0.988058
0.8149048133971999,0,0.990040
0.8138666876384314,0,0.981309
0.8128913150777356,0,0.989921
0.8116495283151611,1,0.999735
0.8107894049749087,1,0.999818
0.8100492524982984,1,0.999610
0.8104531327665264,0,0.990538
0.8111985272384625,1,0.999802
0.8115985764058277,1,0.999806
0.812367245337806,1,0.999909
0.8130218509056311,0,0.990893
0.813640944481865,0,0.995178
0.8712483495735667,0,0.997067
0.8798718505002499,0,0.985845
0.8872321086889499,0,0.998420
0.8926661608248482,0,0.992961
0.8962532587454878,1,0.999911
0.8991256173707889,0,0.991748
0.9003026519484256,1,0.999312
0.9006143447423179,0,0.994107
0.9004559091342674,0,0.995387
0.8992558855308621,1,0.999695
0.8976225294529557,0,0.994544
0.8954512761674172,1,0.999551
0.8939412955279781,0,0.995745
0.8918724012315015,0,0.996132
0.8904367066691116,0,0.986253
0.8906992245464497,0,0.998359
0.8908254787727756,0,0.998563
0.8908147034089543,0,0.994457
0.8906049126778715,0,0.996177
0.8905649006665408,0,0.990856
0.890194983411626,0,0.995749
0.8895350488893511,1,0.999903
0.8888556761056058,0,0.990490
0.8881887148597397,1,0.999812
0.8878387226108108,0,0.994020
0.8867696432004979,1,0.999619
0.8859792781854303,0,0.992878
0.8848650053496706,1,0.999150
0.8833916106389369,0,0.994341
0.882053884719254,0,0.998833
0.8800616497712801,0,0.995426
0.8778154938192639,0,0.989362
0.8764566963158452,1,0.999248
0.8748331104805493,1,0.999631
0.8731596186942203,0,0.987698
0.8717693167570474,0,0.992537
0.870053555276616,0,0.989815
0.8688736006928391,0,0.996484
0.8671892346028369,0,0.991771
0.8654452651311176,1,0.999261
0.8640277803018774,1,0.999509
0.8626515179045642,0,0.996778
0.860628072084147,0,0.988700
0.8589296574922964,0,0.998240
0.8565901026507085,0,0.993664
0.8549864292938992,1,0.999162
0.8536590544176981,0,0.998632
0.8520529625200186,0,0.991400
0.8501074421484734,1,0.999899
0.8483172852012217,1,0.999692
0.8467311272309664,1,0.999633
0.8441496726315063,0,0.998679
0.8437536377772423,0,0.998501
0.8432314074968926,1,0.999415
0.842094111164697,0,0.981722
0.8413246614564196,1,0.999082
0.8407761975474152,0,0.996680
0.840318524480673,0,0.948770
0.8395512812241608,0,0.991013
0.8392526649068681,0,0.997638
0.8386791774935425,1,0.999901
0.8377840787886187,0,0.989284
0.8370855469118782,0,0.990823
0.8367000995964592,0,0.998166
0.8361689807068632,0,0.997911
0.8356225300447215,0,0.989760
0.8352605593901781,0,0.990099
0.8348024480953908,0,0.994423
0.8340656237778931,0,0.965115
0.8334370166101838,0,0.996752
0.833205951360079,0,0.995962
0.8324215676109729,1,0.999738
0.8318968747885487,0,0.956066
0.8314474621921556,0,0.995156
0.8307510922624196,1,0.999615
0.8301254058460606,0,0.996645
0.8298371311697643,1,0.999316
0.8294306367316635,0,0.990508
0.8289459938876714,0,0.996418
0.8280496745855284,0,0.991946
0.82713362578743,0,0.998516
0.8260459876570219,0,0.993884
0.8254630178360247,0,0.989240
0.8251057250232301,0,0.998642
0.825062157100319,1,0.999584
0.8242208399864018,0,0.998481
0.8230914103038672,1,0.999909
0.8222161765912757,0,0.996815
0.8211082041079399,1,0.999917
0.8207329243417241,0,0.996460
0.8204184411931202,0,0.985444
0.8196397463156625,1,0.999340
0.8193089098377636,0,0.997030
0.8183219694848909,0,0.988412
0.8179387589218743,0,0.989216
0.817642625214814,0,0.996171
0.8690714415572031,1,0.999812
0.8717174408698393,0,0.977664
0.8739697636114142,0,0.975805
0.8757247088078559,0,0.977487
0.8775874507684689,0,0.998280
0.8793710757647086,1,0.999291
0.8804919525695779,0,0.997223
0.8805429320765605,0,0.990918
0.8810057344063393,1,0.999894
0.8807909430636103,0,0.998395
0.8796975738177251,1,0.999190
0.8786596445099331,0,0.997387
0.8773387303390774,0,0.993405
0.8760512114823044,0,0.997801
0.8751720949238309,0,0.994398
0.8740226288197502,0,0.994121
0.8731023785835004,0,0.993617
0.8715222045129857,0,0.992013
0.8701754294837991,0,0.988971
0.8690025809440691,0,0.988616
0.8681169824464302,0,0.995866
0.8664780752508425,1,0.999632
0.865509970036134,1,0.999765
0.8648827836347383,1,0.999828
0.863474631545204,0,0.985512
0.8619764890735221,1,0.999695
0.8607658829687861,0,0.993094
0.8590735269541804,0,0.990091
0.8567244617518203,0,0.986025
0.854484239126751,1,0.999713
0.8527842347539397,0,0.990702
0.851548140542912,1,0.999693
0.8493558373323427,0,0.976069
0.8478524870671896,0,0.989814
0.8457165244605136,0,0.996595
0.8436858406937503,0,0.985912
0.8424730053671671,0,0.988136
0.8405205219464025,0,0.981652
0.8394729928256961,1,0.998918
0.8382680405667667,0,0.982207
0.8369425518807487,0,0.990481
0.8357995750488517,0,0.991563
0.8340286299463026,0,0.995167
0.8325247256708265,0,0.988078
0.8308816975526581,1,0.999818
0.8301348031813154,1,0.999547
0.8285405067139748,0,0.991920
0.8266878081093558,1,0.999227
0.8252843699023975,0,0.998777
0.8241467974082014,0,0.993938
0.8226710564156804,0,0.985747
0.8218929914847721,1,0.999640
0.8210300567797493,0,0.985855
0.8202187271090187,0,0.979269
0.8190649196928829,0,0.996470
0.8171530144876399,0,0.998538
0.8150110590782819,1,0.999853
0.8142478520874401,1,0.999921
0.8122626394151489,0,0.981687
0.8106589046184228,0,0.991312
0.8098670345027043,0,0.996159
0.8091040614500078,1,0.999567
0.8084735732429326,1,0.999650
0.8082578487254732,0,0.994224
0.8077472624082813,1,0.999580
0.8073374986700996,0,0.995973
0.8071353508753668,1,0.999788
0.8067266814798987,1,0.999474
0.806486266786957,1,0.999569
0.8057931266131474,1,0.999865
0.805181136821098,0,0.998370
0.804499557363083,0,0.986139
0.804059945330629,1,0.999447
0.8035120051192588,1,0.999496
0.8029694702208084,0,0.993115
0.8025819417273021,0,0.989724
0.8017703496004644,0,0.991734
0.801164596357291,1,0.999502
0.8004800073465027,0,0.994170
0.7999618767424305,0,0.993792
0.7993723615423501,0,0.990528
0.7985717570261528,1,0.999420
0.7984868794822841,1,0.999220
0.7979954992053905,1,0.999914
0.797580647901522,1,0.999823
0.7971464066489597,0,0.991897
0.7966129660827986,1,0.999440
0.7960085489690379,0,0.975740
0.795012676645705,0,0.991511
0.7941266468253965,1,0.999915
0.7939510683037533,1,0.999828
0.7934255400395678,0,0.988355
0.793161820541217,0,0.992395
0.792878964293658,1,0.999894
0.7927197796019968,0,0.987160
0.7924734985286702,0,0.994651
0.7923740651350634,0,0.995810
0.7921479477873022,0,0.991706
0.7919846990780866,0,0.997017
0.7919736859003519,0,0.986931
0.7919289586492366,0,0.998296
0.7918631252262068,0,0.999048
0.7914934548666016,0,0.991615
0.7910248571336551,0,0.988297
0.8752593868565645,1,0.999784
0.8777672735552308,0,0.988792
0.8800487572975471,1,0.999908
0.8819462535193403,0,0.994251
0.8828843277713259,1,0.999649
0.8837614421301581,1,0.999750
0.8841235345803982,0,0.992541
0.8846292971943475,0,0.993007
0.8838715337960972,0,0.989599
0.8827156981860759,0,0.996689
0.881320883063704,0,0.992322
0.8795693245960391,0,0.986017
0.8784094552583364,1,0.999456
0.8768364140904266,0,0.997584
0.8747560636002581,1,0.999384
0.8729365345212708,0,0.957216
0.8718866820153572,1,0.999707
0.8700085267218424,1,0.999496
0.8682130352570822,0,0.993464
0.8666081541399857,0,0.996554
0.8645772626373488,0,0.998870
0.8618472462966505,1,0.999815
0.8591588088920686,0,0.997186
0.8571047590094406,0,0.981171
0.8562395979027944,0,0.988857
0.8537671756645463,0,0.986488
0.8520963124373795,1,0.999394
0.8498903132375389,0,0.997907
0.8480360200234579,0,0.993918
0.8461085392618435,0,0.984960
0.8426801733707817,0,0.988092
0.8400600300428972,0,0.991020
0.8383860607325768,0,0.984761
0.835953770750188,0,0.994287
0.8337119551764267,0,0.990776
0.8319785959835825,1,0.999805
0.830540046539106,1,0.999913
0.8295045944088082,0,0.993748
0.8279224513224918,1,0.999504
0.8263942995481117,0,0.987276
0.8252035735049634,0,0.980866
0.8228563770319756,1,0.999803
0.8220119828759986,0,0.996112
0.8207158148292832,1,0.999807
0.8184469140149836,0,0.985534
0.8162865229473195,0,0.990900
0.8143986537820365,1,0.999902
0.8131862136884513,0,0.982648
0.8109617642700563,1,0.999485
0.8085525407246921,0,0.986557
0.8066054101297063,1,0.999145
0.804355142578484,0,0.985669
0.8024588203224275,0,0.997899
0.7998258963276614,1,0.999898
0.7964622153457134,0,0.985894
0.7943891134955327,0,0.991134
0.7925813823127931,0,0.990728
0.7906501220414064,0,0.949272
0.7877500591807344,0,0.991768
0.785252365980242,1,0.999527
0.7834770388843537,1,0.999152
0.7824846699812957,0,0.980644
0.7812520306714646,0,0.985790
0.7799738839280662,1,0.999309
0.7779765330294174,0,0.990869
0.776028967428994,0,0.984007
0.7741920754586383,0,0.985740
0.7722919960769158,0,0.990019
0.7707285771253545,0,0.990292
0.7694460776450895,0,0.968720
0.7685190592162081,1,0.999909
0.7674360082066806,0,0.998550
0.7660527726919173,0,0.989707
0.7648052850877537,0,0.985432
0.7630114966104825,1,0.999901
0.761227890461697,0,0.995456
0.7596053261881754,0,0.982730
0.7591017396020787,0,0.998560
0.7582344001985648,0,0.972927
0.7567765930104254,0,0.996881
0.7555887852340782,0,0.998016
0.7541597025689255,1,0.999657
0.7521456637674169,0,0.987362
0.7508687406717459,0,0.979278
0.7499563207053651,1,0.999345
0.7487245097015044,0,0.988629
0.7476904401469984,0,0.987658
0.7461305246165556,1,0.999509
0.7446964534599054,0,0.998700
0.7438033121802259,0,0.989343
0.7428857911534276,0,0.981518
0.7416322331590893,1,0.999690
0.740560286775026,1,0.999900
0.7397884397197755,0,0.993553
0.7396372849104864,0,0.983111
0.7386574251849487,0,0.996004
0.7381435024644973,0,0.989153
0.8595616129665233,0,0.978876
0.8586987924274214,0,0.993091
0.857808047400718,0,0.992064
0.8558101044326166,0,0.997264
0.8536258340514523,1,0.999703
0.8515996219391109,0,0.997691
0.8487025368925717,1,0.999793
0.8464119573730307,0,0.989746
0.8430315001915173,0,0.998453
0.841897548918081,0,0.992875
0.8389480563211619,1,0.999786
0.8371286311607377,0,0.994548
0.8356279146587355,0,0.998177
0.8326495978879441,0,0.988386
0.8302354125421612,0,0.983170
0.8290684717480351,0,0.998996
0.8262529120698997,0,0.980902
0.823886754178491,0,0.992406
0.8208057460323559,0,0.992920
0.8178243087797868,0,0.998639
0.8140677778703631,0,0.982299
0.8114192781933052,1,0.999889
0.8087216287845485,1,0.999152
0.8045772780057775,0,0.992958
0.8024033434231261,0,0.990810
0.7997823591413488,0,0.976813
0.7960967570545855,0,0.996786
0.7930261317168343,1,0.999576
0.789462542405939,0,0.998491
0.7857244539488232,1,0.999089
0.7824340835172733,0,0.990833
0.7790241009707918,0,0.992317
0.7761514169669294,1,0.999153
0.7740624602388149,0,0.981763
0.7712421680219239,1,0.999399
0.7688879370019627,1,0.999804
0.7664598188279753,1,0.999900
0.7640415428268345,0,0.992245
0.7621656823920377,0,0.966775
0.7597305395114361,0,0.996018
0.7567302921436616,1,0.999914
0.7546238892942444,0,0.991650
0.7523746188735024,0,0.967349
0.7510567588343116,0,0.977648
0.7491810036251835,1,0.999655
0.7473580144810721,0,0.993622
0.7461439735551955,0,0.978402
0.745320609814234,1,0.999791
0.7449589262688225,0,0.973761
0.7443246194292762,0,0.989246
0.7437747780575036,0,0.968820
0.7430294720671807,1,0.999786
0.7419331163523802,1,0.999915
0.7410476880133231,1,0.999907
0.7397202232462347,0,0.987397
0.7384917863256656,0,0.980105
0.7374417951845537,1,0.999494
0.7362643717223152,0,0.988898
0.7350798917184186,0,0.996222
0.7342574220978644,0,0.971560
0.7335311975412439,0,0.988786
0.732116879986786,0,0.991622
0.7306752325022637,0,0.988471
0.7294454931583804,0,0.985856
0.7277934213850498,0,0.986642
0.7267585984573339,0,0.988879
0.7255394150196175,0,0.987987
0.7245494366683296,0,0.996608
0.7234162633220959,0,0.973342
0.722513979176001,0,0.995539
0.7214190132774745,0,0.988665
0.7205731340980651,1,0.999711
0.7189737962224905,0,0.985146
0.7180135306367311,0,0.977311
0.7169004149550573,0,0.981250
0.7157035416556309,0,0.966571
0.7147731350497553,1,0.999912
0.7136379589551289,0,0.984983
0.7127975788744765,0,0.997375
0.7117500527012602,0,0.969598
0.7106776639215077,0,0.980208
0.7097415354040141,0,0.998913
0.7088155463836452,0,0.997970
0.7078109700814627,0,0.973571
0.7067024687279438,0,0.964851
0.705495817773161,0,0.987733
0.7038723674809318,0,0.969691
0.702534396889319,0,0.994150
0.7010608853726924,0,0.987152
0.7000549570003362,0,0.989002
0.6989990418447275,0,0.998164
0.6980342159626732,1,0.999832
0.6971723564486236,1,0.999912
0.6962988060307385,1,0.999604
0.69503594824498,0,0.966209
0.6941941625760981,0,0.989250
0.8057850483103903,0,0.985974
0.8037882298466922,0,0.986064
0.8017295238154917,0,0.977563
0.8007832793465026,0,0.987599
0.7978604364179137,0,0.973489
0.794859502462323,0,0.987899
0.792135778162278,0,0.983799
0.7876994721603482,0,0.998029
0.783922798607257,0,0.959368
0.7802986876262153,1,0.999826
0.7779046778011932,0,0.987701
0.7758330727125903,0,0.987785
0.7727952974572913,0,0.998751
0.7710014078393764,0,0.986354
0.7674503603029235,0,0.989074
0.7643935300786158,0,0.998885
0.7612666298194435,0,0.960729
0.7581192123889866,0,0.993633
0.7543813376114782,0,0.984168
0.7511668872269215,0,0.998993
0.7477720920621598,0,0.961244
0.7442052536931866,0,0.998310
0.7408342736088908,1,0.999680
0.738706126102577,1,0.999827
0.7353468806723781,0,0.988670
0.7320326826114476,0,0.960402
0.7287224374751583,1,0.999897
0.7255880384094359,0,0.997969
0.7228571779827591,1,0.999908
0.7192685821082218,0,0.991537
0.7162662759506419,1,0.999901
0.7157831917933604,0,0.991791
0.7138286049373798,1,0.999807
0.7116721970739904,0,0.987860
0.7099308626416708,0,0.998510
0.7089409630221798,0,0.970785
0.7069433515162508,0,0.986438
0.7047674081726341,0,0.992926
0.7025735316380818,1,0.999544
0.7007421656265242,0,0.990193
0.6984756237551121,0,0.984798
0.6965172425663165,0,0.964258
0.6955398032365107,0,0.991737
0.6940001277427618,1,0.999771
0.6925243907776177,1,0.999808
0.6907576735715916,1,0.999498
0.6900003343701901,0,0.962701
0.689275806981393,0,0.965081
0.6881562546556611,0,0.986950
0.6867292873817828,0,0.998047
0.6845927165674989,0,0.993505
0.6830477649442638,1,0.999511
0.6817825697333199,0,0.985321
0.6801760511066578,1,0.999164
0.6798621040993901,1,0.999438
0.6782535123689716,1,0.999829
0.676863674195443,1,0.999896
0.6756922229983753,0,0.955340
0.6749675470722847,1,0.999585
0.6743173691708887,0,0.993557
0.6735908252511558,0,0.991446
0.6722788515499819,0,0.987355
0.6709413410485146,0,0.995919
0.6700409140431759,0,0.969466
0.6693491785746494,1,0.999079
0.6685851004145853,0,0.998491
0.6679171160961058,1,0.999808
0.6671731643609805,0,0.991718
0.6659610546706833,1,0.999894
0.6648841915212641,1,0.999909
0.6653017595563915,0,0.986617
0.664268063998725,0,0.961416
0.6632541094828543,0,0.984811
0.6628276698881808,1,0.999908
0.6620903246521123,0,0.952523
0.6613889279797077,0,0.984414
0.661280106528155,1,0.999892
0.6607186752591682,0,0.984454
0.6597746749039936,0,0.983008
0.6595609337547395,1,0.999832
0.6589746311856299,0,0.995152
0.6582169465026485,0,0.969278
0.6578313037174225,0,0.989210
0.6569000507703343,0,0.997730
0.6559860695396331,1,0.999890
0.6555565732050807,0,0.998425
0.6549611332286339,0,0.962226
0.6545593776149384,0,0.986107
0.6544200957819899,1,0.999606
0.654045669101844,0,0.988523
0.6539112148763023,0,0.957004
0.6535217933027497,0,0.992358
0.6532813677394638,0,0.996648
0.653673531917084,0,0.992549
0.653375790105131,0,0.990232
0.6528485833415055,0,0.993802
0.6524879552289321,1,0.999823
0.6522582753023343,1,0.999588
0.6521419823128918,1,0.999524
0.6520671232238126,0,0.992469
0.6518312832688965,1,0.999892
0.7959447653953579,1,0.999228
0.7960491498416319,0,0.988102
0.794131748633379,1,0.999915
0.7922194194846351,0,0.964048
0.791473379368507,0,0.961381
0.7883184297965072,0,0.958630
0.787126476117318,0,0.994111
0.7852281719099802,0,0.993393
0.783410530282765,1,0.999914
0.7824274051578974,1,0.999094
0.7797124439019797,0,0.989849
0.7774944166014504,0,0.988558
0.7749558744505114,0,0.999044
0.7723649193211977,0,0.991921
0.7700028217544697,0,0.998448
0.7673230879561728,1,0.999898
0.764203538122261,1,0.999091
0.762784348919606,1,0.999417
0.7591676854876694,0,0.965185
0.7560257596514596,1,0.999359
0.7552618733084231,0,0.985407
0.7526849367776227,0,0.998737
0.7501420607088477,1,0.999031
0.7487679337895699,0,0.992182
0.7466271627498275,1,0.999670
0.7457276717286141,1,0.999694
0.7440249123322581,0,0.996306
0.7425535439359031,1,0.999906
0.7405543249433085,1,0.999468
0.7385685752692399,1,0.999920
0.7364391698699108,0,0.983856
0.7344321069793912,0,0.986210
0.7332322396525411,0,0.961377
0.7318214830110977,1,0.999425
0.7295893405074517,1,0.999610
0.72701965289245,0,0.985255
0.7244424830710511,0,0.964245
0.7216919459994502,0,0.998802
0.7199657473539454,0,0.987652
0.7189184817577208,0,0.998387
0.7181052446726378,0,0.993857
0.7162678214011201,0,0.965158
0.715823215233179,1,0.999912
0.7151565183850888,1,0.999916
0.7142004144611671,0,0.989284
0.7138936277110008,0,0.965887
0.7128942815465182,0,0.988771
0.711536670650005,1,0.999103
0.7105515277434834,1,0.999895
0.7096163926147194,1,0.999695
0.7086281635730836,1,0.999703
0.7079781709576837,0,0.962594
0.7075061453754794,0,0.990659
0.7069294994049125,0,0.982139
0.7071118484996202,0,0.999049
0.7078111635255362,1,0.999488
0.7104000294576182,0,0.989663
0.7130179786934648,0,0.995571
0.7143297253831115,0,0.997991
0.7153819215029548,0,0.973303
0.7158685364257796,1,0.999833
0.716330334937329,0,0.980638
0.7169910746777459,0,0.999009
0.7173541568172341,0,0.996175
0.7178480951989832,1,0.999303
0.7191041247101063,0,0.985149
0.7209781615270773,1,0.999418
0.7225551812417432,1,0.999812
0.723683341803452,1,0.999901
0.7244858938216646,1,0.999651
0.7244561249062694,0,0.995359
0.7243907608759355,0,0.986388
0.7243155562863299,0,0.988589
0.7246683937455206,0,0.986004
0.7256805099119706,1,0.999902
0.7258770212176467,0,0.978259
0.7269563144366038,0,0.977571
0.7275569143649957,0,0.997716
0.7280050923216201,1,0.999396
0.728455872015818,0,0.998865
0.728721549418031,1,0.999370
0.7291578671247341,0,0.998804
0.7306536457260975,0,0.985424
0.7333185164253951,1,0.999890
0.7350063875150721,0,0.993590
0.7369610183214081,1,0.999906
0.7390237718485894,1,0.999907
0.7417147209897985,1,0.999316
0.7453741160822718,0,0.986277
0.7486731363877086,0,0.998676
0.8015945390324983,0,0.986875
0.8108990837537526,1,0.999514
0.8184845598315016,0,0.997347
0.8244011834168334,0,0.989181
0.8318573970891664,1,0.999338
0.8414413953354091,1,0.999900
0.8483298239207492,1,0.999903
0.8524255897539068,0,0.987856
0.8545464677615354,1,0.999894
0.8556155093396534,1,0.999782
0.8584175742200546,0,0.983874
0.8592313353264626,1,0.999893
0.8586538544531694,1,0.999534
0.8576726688287852,1,0.999452
0.8567140850829311,1,0.999906
0.8554827079472462,1,0.999901
0.8542924827462967,1,0.999167
0.8532495787683484,0,0.998837
0.8539688113457515,1,0.999781
0.854220216469336,1,0.999420
0.8543874127314268,1,0.999900
0.8545337293647846,0,0.978044
0.854475914291438,1,0.999818
0.8539945549263666,0,0.987327
0.8544009320972566,1,0.999786
0.854341319436501,1,0.999893
0.8534138396936902,0,0.998650
0.8535182266124675,0,0.995328
0.85431334678047,0,0.971687
0.8545465229767528,0,0.988275
0.8543669523807634,0,0.995738
0.8540969554140447,0,0.989836
0.8548634715263302,1,0.998966
0.8559927749824432,1,0.999309
0.8569390830320873,1,0.999031
0.8575123867629902,1,0.999624
0.8580945072830329,0,0.996441
0.8589094017502499,0,0.997892
0.8590899076181808,1,0.999814
0.8592492169096944,1,0.999902
0.8590465296820639,1,0.999211
0.858463946380885,1,0.999340
0.8577252195537536,1,0.999155
0.8568484208634392,1,0.999893
0.8562317779710519,1,0.999585
0.8554954933237437,1,0.999643
0.855120978730612,1,0.999040
0.8544985305208405,1,0.999787
0.8540521296837537,1,0.999068
0.8534738617432537,0,0.992910
0.8530728973341076,1,0.999699
0.8525239280780919,1,0.999899
0.851920069270579,1,0.999104
0.8513687972066978,1,0.999408
0.8511786812875541,1,0.999526
0.8506148953144684,0,0.998986
0.8499607107020473,0,0.996875
0.8498448531263769,0,0.992715
0.849381167728285,1,0.999826
0.8495140761839179,1,0.999715
0.8495722621897408,0,0.992020
0.8489292028754013,1,0.999115
0.8487877067868739,1,0.998780
0.848603381223389,1,0.999897
0.8483020992816722,1,0.999802
0.8481050616082365,0,0.952371
0.8475277715813839,1,0.999136
0.8471241533105008,1,0.999243
0.8469216704716418,0,0.990056
0.8464393264337643,0,0.993367
0.8463146540288475,0,0.991205
0.845962124459057,0,0.958899
0.8455078755108337,1,0.999902
0.8451583419369219,0,0.961323
0.8446845337803781,0,0.984130
0.8442739667618238,0,0.985756
0.8440378460786754,1,0.999340
0.8434735268404504,1,0.999918
0.8431572614742487,1,0.999805
0.8428482094756317,1,0.999143
0.8423277319795206,1,0.999440
0.8003897221882839,0,0.998242
0.8012144189441908,1,0.999449
0.8026877053266739,0,0.996445
0.8043495137869104,0,0.958153
0.8041322262771796,0,0.996386
0.8045398669574241,0,0.998841
0.8038346810593066,1,0.999818
0.8041488445924249,0,0.990147
0.8058456395338564,0,0.992669
0.8060798256283876,0,0.989973
0.8060599454941452,0,0.995860
0.8053809414220893,0,0.990182
0.8043522564551646,0,0.993449
0.8044340911291158,0,0.992666
0.8034286856873849,0,0.989058
0.801653005421395,0,0.957407
0.8009889797814223,0,0.992255
0.8000082623046326,0,0.994298
0.7984046834891391,0,0.998488
0.7971487083595188,1,0.999210
0.7956107630529493,0,0.954314
0.7935380527289043,1,0.999668
0.7919242103774081,0,0.998195
0.7912553006226064,0,0.993149
0.7902471912530241,0,0.985356
0.7896687589662681,0,0.987317
0.7884220332570413,1,0.999890
0.7875034477661834,0,0.997194
0.7866586220494879,0,0.997047
0.7851285289662037,0,0.956122
0.7865666378280911,1,0.999437
0.7889141506545327,0,0.980533
0.7896996838041518,1,0.999903
0.7883708960894948,1,0.999911
0.7873313572724261,1,0.999898
0.7856196543643195,1,0.999908
0.7842017240427682,0,0.991760
0.7824368923356405,1,0.999594
0.7807870315612065,1,0.999426
0.7794184444406507,0,0.998677
0.7785711276708522,0,0.998352
0.7768551695133016,0,0.995935
0.7752560693262651,0,0.965853
0.7741856438344146,1,0.999898
0.7734599693060444,1,0.999361
0.7725919588302976,1,0.999904
0.7719666616886613,1,0.999888
0.770438282519457,0,0.997651
0.7695140010110757,0,0.988302
0.7687202282870964,0,0.983065
0.7675778900707197,0,0.952964
0.7666142729200714,1,0.999890
0.7656888744341896,0,0.990742
0.7640400489111294,1,0.999277
0.7626844971420543,0,0.993277
0.7659904577735834,0,0.997592
0.7658318212470743,0,0.964405
0.7647851053761052,0,0.985608
0.7637516348179678,1,0.999912
0.7624137078527577,0,0.992428
0.7614542098791439,1,0.999897
0.7609849762121931,0,0.993756
0.7602413051645225,1,0.999423
0.7595327676984763,1,0.999442
0.7601893981267664,0,0.959332
0.759437489682931,1,0.999916
0.7587500961155108,0,0.993585
0.7582803210279865,0,0.998170
0.7578714967262498,0,0.984405
0.7572343813545148,1,0.999903
0.7568931668585711,0,0.989570
0.757258754296086,0,0.998066
0.7572803340302134,0,0.992340
0.7570188289608053,0,0.998868
0.7569062264500008,1,0.999900
0.7579922845760817,1,0.999892
0.7597169890672891,1,0.999883
0.7613986723847368,0,0.987855
0.7625481071975487,1,0.999673
0.7639112760049813,0,0.959961
0.765459975678808,1,0.999900
0.766836284386235,1,0.999915
0.7685133172310907,1,0.999924
0.769629779921755,0,0.988363
0.7707899662560396,0,0.993831
0.771814710206869,1,0.999625
0.7726259277221975,1,0.999527
0.7725966841195413,1,0.999902
0.7725919865727854,1,0.999637
0.7726599645887272,1,0.999881
0.7725424310474088,0,0.998628
0.8053461363848499,1,0.999723
0.8082809266670754,1,0.999692
0.8121069712896911,1,0.999913
0.8166694089153326,0,0.998719
0.8196322586787848,0,0.996855
0.8208588648519352,1,0.999302
0.8211895859277912,1,0.999809
0.8242330362228267,1,0.999604
0.8247287869288592,1,0.999904
0.8259586149517097,0,0.962193
0.8237092481856644,0,0.990740
0.8233287945782464,1,0.999358
0.8218733563171556,1,0.999402
0.8203160127102084,1,0.999900
0.8183839074455971,0,0.999005
0.8155022316404799,1,0.999786
0.8152018540850537,0,0.992586
0.8118737915972498,1,0.999908
0.8108531677987415,0,0.998757
0.8086876707725793,1,0.999905
0.8066647279635161,1,0.999346
0.8030452753063724,1,0.999242
0.8001544451099745,1,0.999900
0.799216417879408,1,0.999908
0.7987580382427978,0,0.998797
0.7982514349918809,1,0.999838
0.7976141966463757,0,0.997736
0.7970655241258222,1,0.999897
0.7963901607072493,1,0.999137
0.7957146788426632,1,0.999577
0.7936360693510128,1,0.999902
0.793025237502026,1,0.999690
0.7914707151590508,1,0.999792
0.7913661834214849,1,0.999906
0.7893471514253703,1,0.999603
0.7882269421887739,0,0.960700
0.787392599972173,1,0.999913
0.7854044541595274,1,0.999897
0.785604314028598,1,0.999634
0.7838119330638109,1,0.999329
0.7829573168258921,1,0.999331
0.7819721074881396,0,0.985858
0.780346349381744,1,0.999246
0.7794821292689538,1,0.999668
0.7782756855673544,1,0.999901
0.7779704909005656,0,0.995762
0.777352688433483,1,0.999911
0.7766739529046969,1,0.999895
0.7758865691918406,0,0.985201
0.7745172218716111,0,0.997939
0.7736960811818534,0,0.998896
0.773398102333894,1,0.999331
0.7725548561479166,1,0.999727
0.7719362228608002,1,0.999646
0.7721465854554984,1,0.999415
0.7709094605845319,1,0.999928
0.7700002025045867,1,0.999920
0.7700747563274141,1,0.999493
0.7696386469512645,1,0.999920
0.7690364036350984,1,0.999574
0.7700729252609192,1,0.999808
0.7713561461289151,0,0.994629
0.7716674767339616,0,0.987553
0.7712036408075877,1,0.999909
0.7706698659736203,1,0.999902
0.7705436410020144,1,0.999072
0.7705841510051271,1,0.999721
0.7725128761277558,1,0.999661
0.773567418299871,1,0.999556
0.7740293696941396,0,0.993520
0.7741373858251434,1,0.999580
0.7741171620307531,1,0.999905
0.7732918393931225,1,0.999372
0.7731964056593414,1,0.999595
0.7726441391292169,1,0.999891
0.772428316096112,1,0.999142
0.7727286889498728,1,0.999282
0.8149679402568046,0,0.961398
0.8192864739067028,0,0.997865
0.8284995270480378,1,0.999385
0.8309322168579564,1,0.999794
0.8356860841909943,1,0.999690
0.836162153752554,0,0.994182
0.8375135197595074,1,0.999657
0.8391621147990745,1,0.999899
0.8409069966413484,1,0.999543
0.8423808513084894,1,0.999643
0.8425915322877917,1,0.999036
0.8423726703518052,1,0.999016
0.841466847424539,1,0.999446
0.8434937586574259,1,0.999791
0.8412834007294521,1,0.999525
0.8404765803200077,0,0.988017
0.8387600015623369,1,0.999889
0.8367412315206825,0,0.994963
0.8350663590754259,0,0.993829
0.8331179938318453,1,0.999907
0.8310390782834151,1,0.999234
0.8298654035402429,1,0.999894
0.829423578274482,1,0.999911
0.8272560709723291,0,0.992759
0.8244765739440473,1,0.999904
0.8229349912493998,1,0.999903
0.8209314039712761,1,0.999911
0.8195674825726912,0,0.992456
0.818400393631417,0,0.992738
0.8175988862346929,1,0.999670
0.817384381899534,0,0.996474
0.8170456620374307,1,0.999729
0.8163379695693096,1,0.998945
0.8156613953714625,0,0.988252
0.8147053106978971,1,0.999888
0.8142190290036383,0,0.960520
0.8159236497135919,1,0.999699
0.8173807879043832,1,0.999497
0.8184984038825955,1,0.999767
0.8189506302930671,1,0.999418
0.8180282248358342,1,0.999611
0.8169828254917388,1,0.999913
0.8156756230535565,1,0.999351
0.8145658194491225,0,0.997743
0.8129368067949195,0,0.992729
0.8114982662163854,1,0.999807
0.8100174563413539,1,0.999910
0.8081771628177468,0,0.990589
0.8065642025216145,0,0.998465
0.8050421522897195,1,0.999906
0.8042858642667418,1,0.999331
0.8028759750804497,1,0.999912
0.8025216404697275,1,0.999042
0.8020410844999235,1,0.998967
0.8016617859961965,0,0.984648
0.8016298729123519,0,0.989285
0.8008693832765271,1,0.999166
0.8002077297190574,0,0.997070
0.7996104544888593,0,0.997311
0.7990675108472154,0,0.995765
0.7981761919227327,0,0.997403
0.7972798927416006,1,0.999907
0.7964185083602832,1,0.999556
0.7956931822289405,0,0.991171
0.7948598384985345,1,0.999374
0.7943515835182658,1,0.999688
0.7934612898712871,0,0.990475
0.7928577464756353,1,0.999812
0.7917282043991387,0,0.980916
0.7907663006887553,1,0.999817
0.7896914945581418,1,0.999843
0.789143647496347,1,0.999668
0.7883064437309147,1,0.999903
0.7875220586615698,1,0.999720
0.7863355630645247,1,0.999759
0.7856547117602649,0,0.995357
0.784881958940923,1,0.999502
0.7837645112436619,0,0.993289
0.783044865158527,0,0.991077
0.782248891136259,1,0.999907
0.7814780497419171,0,0.981302
0.7805505337419867,0,0.990306
0.779702255177419,1,0.999383
0.7789035813890784,0,0.998236
0.7778340855038377,0,0.985673
0.7778242703355855,1,0.999827
0.778354478581258,1,0.999821
0.8236228518510214,0,0.995491
0.8295266239847948,1,0.999722
0.8316035701560168,0,0.994560
0.8334954240234103,1,0.999907
0.83355391671781,0,0.998883
0.832795261458261,1,0.999555
0.8323488641181628,1,0.999906
0.8319266541225938,1,0.999687
0.829709316293328,1,0.999290
0.8310118703095482,1,0.999639
0.8337242965235876,1,0.999828
0.8360377916861469,1,0.999912
0.8405739670018904,0,0.992736
0.840631805641443,0,0.996478
0.8405368887129541,0,0.996153
0.840342710502835,0,0.993468
0.8414348567496621,1,0.999911
0.8387861545704506,1,0.999908
0.8367444410335833,0,0.999023
0.8341219418126014,1,0.999821
0.830845568205218,0,0.991671
0.8282762801097456,1,0.999210
0.8253068733438852,1,0.999831
0.8225798354889485,0,0.990694
0.8200407932827124,0,0.993715
0.8170595208510826,1,0.999042
0.8134508954767381,1,0.999665
0.8106665409837814,0,0.992437
0.8085361787951382,0,0.998930
0.8073508087833489,1,0.999142
0.8048850006805605,0,0.998919
0.8028457732003458,1,0.999224
0.8000151089019535,1,0.999440
0.79897529897638,0,0.991914
0.7990127777211139,1,0.999093
0.7985317518471448,1,0.999448
0.7967186693000201,0,0.997932
0.7947495646745483,0,0.998213
0.7923178432321483,1,0.999255
0.7903426088488199,1,0.999498
0.7895828031503379,1,0.999917
0.791486743218518,1,0.999714
0.7930558471166897,0,0.993315
0.7954604227527327,1,0.999779
0.7958007887750749,0,0.993402
0.7942951663932273,1,0.999232
0.7932409945836345,1,0.999613
0.7918934040719928,0,0.987526
0.7901800431061425,1,0.999539
0.7889633302143961,0,0.998378
0.788709237209155,0,0.999006
0.7885867047073863,0,0.991950
0.7898328300420626,1,0.999398
0.7901719772863655,1,0.999829
0.7899641589517394,1,0.999307
0.7886481146486944,1,0.999816
0.7883872584505648,0,0.998091
0.7882095371994703,1,0.999901
0.7869764016262094,0,0.971953
0.7861122787753418,1,0.999631
0.7854179719707934,1,0.999220
0.7845196133547344,1,0.999829
0.7840251622187416,1,0.999708
0.7831926263987714,0,0.987052
0.7825212468484634,0,0.988553
0.7816890329595563,0,0.986029
0.7813807324940399,1,0.999898
0.780726376973057,1,0.999707
0.7797986380929515,0,0.998646
0.7787331154079947,1,0.999692
0.7777602975088539,1,0.999518
0.776504217498774,0,0.991129
0.7753019514342427,1,0.999561
0.7738347098745951,1,0.999891
0.7729309113867026,1,0.999717
0.7721839379677305,0,0.994972
0.7710007359752733,1,0.999725
0.7696313891911793,0,0.985173
0.7687269200540983,1,0.999524
0.7682204904357773,1,0.999078
0.7678350222527027,0,0.995760
0.7675096010757922,0,0.986023
0.767108857339393,1,0.999129
0.7668744103521611,1,0.999129
0.7663919779656645,0,0.986198
0.7659295048108422,1,0.999712
0.8259979419021239,0,0.989607
0.8257920322954184,0,0.994628
0.8252130538350084,1,0.999904
0.8244771059752599,1,0.999319
0.8228827918373798,0,0.992245
0.8209909012172998,0,0.987861
0.8172278860707369,0,0.993235
0.8149459387538164,1,0.999904
0.8129858662228856,0,0.997600
0.811613268304773,1,0.999087
0.8107922950844024,0,0.955456
0.8093622112771786,1,0.999618
0.8092639441441793,1,0.999899
0.8078309957151424,0,0.986074
0.806189074811543,0,0.990053
0.804740810889757,0,0.993041
0.8032230500042319,1,0.999334
0.8017458093369387,0,0.997088
0.7999361597870225,1,0.999820
0.7985170662308853,0,0.994435
0.7980036566336296,0,0.998797
0.7974701539432534,0,0.994624
0.7965887174069484,1,0.999899
0.7945190518249143,0,0.995628
0.7925167730617653,1,0.999815
0.7915689776730462,1,0.999231
0.7896546749542498,1,0.999905
0.7876184427298362,1,0.999803
0.7852904678548799,1,0.999809
0.7827738191553363,0,0.995037
0.780580972665166,0,0.990999
0.7785542136817039,0,0.985229
0.7764904345506194,1,0.999890
0.7742627099230254,1,0.999904
0.7718548880966271,1,0.999602
0.7697761881665418,1,0.999299
0.7676043667732364,0,0.962712
0.7649775438513796,0,0.987089
0.7625106098953935,0,0.980347
0.7597775180445854,1,0.999656
0.7580792474384845,1,0.999895
0.756504361085453,1,0.999615
0.7540537242509395,0,0.997507
0.7513084432936207,1,0.999192
0.7488233117309214,1,0.999893
0.7483629127559391,1,0.999925
0.7491705281925699,0,0.998756
0.7493597831076414,1,0.999440
0.7516808006276892,1,0.999904
0.7541909125465035,1,0.999725
0.75418177410869,0,0.989155
0.754331592915742,1,0.999910
0.7544631646188457,0,0.998696
0.7555984928361658,1,0.999804
0.7547271909170326,1,0.999828
0.7543750777421905,1,0.999822
0.7536287440262824,1,0.999319
0.7525821816049255,1,0.999714
0.7516320629835158,0,0.995842
0.7520908384352092,1,0.999202
0.753215245883762,1,0.999441
0.7547653971604023,1,0.999696
0.7566398413025384,1,0.999293
0.7561848678117334,0,0.996634
0.7558775363257249,0,0.989391
0.7558687146896593,1,0.999799
0.7560071041616273,1,0.999703
0.7554859072336791,0,0.957972
0.7553144628639513,1,0.999794
0.7547762974883478,1,0.999805
0.7542231593719706,1,0.999741
0.7552938677075925,1,0.999822
0.7573692608567291,0,0.989816
0.7586840750073707,0,0.989912
0.7606796194113532,0,0.987776
0.7632588100743338,1,0.999602
0.765064282004814,1,0.999107
0.7666058693383002,0,0.999057
0.7674844818335271,1,0.999603
0.7686602777624062,1,0.999548
0.7695384195651147,0,0.987124
0.7710592816589447,0,0.960729
0.7725337908992985,1,0.999926
0.7746867403970168,1,0.999925
0.7775567019450272,1,0.999746
0.7803554213925958,1,0.999825
0.7825437618953673,1,0.999905
0.78367425324598,1,0.999605
0.7847173625035214,1,0.999909
0.7849332418282056,0,0.995470
0.8359896408412992,0,0.978056
0.8405396495881244,0,0.973823
0.8452420129307324,1,0.999926
0.8492427469443566,1,0.999903
0.8513156504362848,1,0.999540
0.8517492046212881,1,0.999903
0.8520869182826738,1,0.999775
0.8518649175501349,1,0.999233
0.8518535719614553,1,0.999904
0.8515772788382124,0,0.970626
0.8508119819267252,0,0.995389
0.8509418138252637,1,0.999525
0.8505075435790477,0,0.998884
0.8490447234533863,1,0.999917
0.8465673009901681,0,0.995889
0.8444828772000175,0,0.997880
0.8426261202564809,1,0.999904
0.8437430578982783,1,0.999810
0.8476996613660782,1,0.999809
0.8507337200848823,1,0.999173
0.8533162049038323,0,0.976065
0.8564749308316737,1,0.999817
0.858494220415171,1,0.999910
0.8578780682899402,0,0.998816
0.85738293160747,0,0.998650
0.8565582418265942,0,0.973704
0.8553580915688384,0,0.997005
0.8540905772777879,0,0.977833
0.8526618635597578,1,0.999906
0.8515347412942127,0,0.994255
0.8502078886113413,1,0.999700
0.8484864286767557,1,0.999904
0.8469315712859551,1,0.999906
0.8452343721562161,1,0.999356
0.843726246598256,0,0.991991
0.842918476465771,0,0.973561
0.8417789787799096,1,0.999914
0.8404417134100641,0,0.986054
0.839282914078497,0,0.998997
0.8380220104957251,1,0.999307
0.8366439402716899,0,0.988034
0.8352468182370121,0,0.990805
0.8336682466888544,1,0.999265
0.8317982299253734,1,0.999903
0.8300844409194772,0,0.966070
0.828269999190093,1,0.999913
0.8263272690641604,1,0.999912
0.8248591209003253,1,0.999316
0.8232395501621083,0,0.967268
0.8216826445331507,1,0.999591
0.8199304392196087,1,0.999306
0.8191499198057679,1,0.999911
0.8191262042580653,1,0.999656
0.8185225417484147,1,0.999902
0.818060940019813,1,0.999365
0.8176457048812666,1,0.999668
0.8175812764422911,1,0.999734
0.8178302210280114,0,0.991617
0.817331539074859,0,0.985130
0.8168177903917917,1,0.999285
0.8158173350770692,1,0.999298
0.8149406492370057,1,0.999598
0.8140841953547604,0,0.997961
0.8131719615950709,1,0.999892
0.8120615161996672,0,0.951289
0.8108864297818452,0,0.982237
0.8098956296042266,1,0.999692
0.8088323584410946,1,0.999906
0.807612541142917,1,0.999612
0.8065155792108696,1,0.999711
0.8055818218205317,1,0.999904
0.804781609581909,0,0.998719
0.8041298776886892,1,0.999898
0.8035220451365959,0,0.992740
0.802675366723624,0,0.996328
0.8020809978427355,1,0.999348
0.8011587326771649,0,0.996373
0.8002510819736668,1,0.999153
0.7992878208273969,1,0.999559
0.7981613420455225,1,0.999392
0.7969509494290019,1,0.999531
0.7958363618103634,0,0.985298
0.7948002745600643,1,0.999151
0.7942127430298414,1,0.999329
0.793901469402834,1,0.999451
0.7934866713360376,0,0.988169
0.7929172860943869,1,0.999545
0.7937459876359663,1,0.999830
0.7932603537190832,1,0.999723
0.7926509819841147,1,0.999891
0.7923434128442571,1,0.999902
0.791790678109202,0,0.993752
0.7913062466036063,1,0.999581
0.7907044206911837,1,0.999912
0.7912194155184868,1,0.999473
0.8430079554065435,1,0.999784
0.8492882446376817,0,0.996238
0.8521388605071769,1,0.999747
0.8546443418200079,0,0.998385
0.8555871030237581,1,0.999915
0.8566113974742078,0,0.976060
0.8561937011469859,1,0.999533
0.8555851732597838,0,0.995755
0.8545425625199128,1,0.999907
0.8523921791591306,0,0.998199
0.8500157866063982,1,0.999905
0.8467191671803657,1,0.999900
0.8431716780437781,0,0.998988
0.8388624653363808,1,0.999917
0.8347164592392068,1,0.999694
0.8313049964298982,1,0.999293
0.8279697120037393,1,0.999661
0.8242795362664007,1,0.999336
0.8203072086644394,1,0.999905
0.8166803399959622,1,0.999895
0.8136838637663879,1,0.999704
0.8110746450720592,0,0.998910
0.8083137779150151,1,0.999358
0.8051730101021976,1,0.999703
0.8017760826266964,1,0.999729
0.7985012620885762,1,0.999710
0.7957787466308641,0,0.988379
0.7928238005930883,1,0.999530
0.7902466422618953,0,0.987591
0.788366667113664,1,0.999624
0.7863425760935613,1,0.999912
0.7859934275134485,0,0.991120
0.7867538884052616,1,0.999383
0.7869414540727674,1,0.999798
0.7874207755538657,1,0.999912
0.7882393037886515,1,0.999400
0.7881975602266111,0,0.991891
0.7881190893497496,0,0.998183
0.7877280556276102,0,0.991735
0.7873762893038622,1,0.999343
0.787677978844187,1,0.999176
0.7871470904306286,1,0.999798
0.7868104706951883,1,0.999905
0.7857765783324189,1,0.999809
0.7847200553169948,1,0.999905
0.7844525814775022,0,0.988135
0.7842957401086544,1,0.999132
0.7834628293697828,1,0.999913
0.7825046514130835,0,0.996673
0.7824703357813582,1,0.999795
0.7836133364926994,1,0.999912
0.7845698950683335,1,0.999906
0.7848438511902931,0,0.987306
0.7855801089677454,0,0.989821
0.7860372748127802,1,0.999753
0.7865967234125162,1,0.999645
0.7892525935957079,1,0.999911
0.7916602082214694,0,0.959876
0.792177058814921,0,0.991558
0.7927209725466977,1,0.999808
0.7933741131688742,0,0.994955
0.7936642649612803,1,0.999906
0.7942323756466211,1,0.999903
0.7945595554169808,1,0.999898
0.7947032509767384,1,0.999197
0.7944790413090301,0,0.982819
0.794287512691192,1,0.999729
0.795040889208544,0,0.998444
0.7960753001643871,1,0.999913
0.7962257838084601,1,0.999801
0.7965181236517321,0,0.991112
0.7980540427662163,1,0.999428
0.7981025413192007,0,0.984932
0.798246098338364,0,0.989442
0.7985299495258336,1,0.999448
0.7982575400913322,0,0.994789
0.7980302920059734,1,0.999681
0.7976861633765802,1,0.999552
0.7972941226183573,1,0.999714
0.7968157284132255,1,0.999815
0.7964693580854766,1,0.999040
0.7962221030561292,1,0.999813
0.7971342418481866,0,0.998714
0.7982080985061863,1,0.999913
0.8014784495080987,0,0.998794
0.8046162255944151,1,0.999923
0.8072598210202219,1,0.999900
0.8091569061249252,1,0.999698
0.8106107473608258,0,0.993932
0.8115687544569238,1,0.999912
0.8128849625521595,1,0.999405
0.8434904582023283,1,0.999778
0.8473282332967639,1,0.999495
0.8509398208561362,1,0.999893
0.8556081161998078,1,0.999647
0.8591320399086226,1,0.999908
0.8613214255395704,1,0.999911
0.8631151143208795,1,0.999734
0.8651922752637623,1,0.999818
0.8674544347544263,1,0.999431
0.86974788247009,1,0.999745
0.8742325325690662,1,0.999365
0.8777744380064577,1,0.999810
0.8808137096387457,1,0.999348
0.883846425825426,1,0.999661
0.8857457854437686,1,0.999629
0.886859629829398,1,0.999823
0.8881238757345337,0,0.998930
0.8878797884909864,1,0.999457
0.8872240176112484,1,0.999811
0.8862378080715996,1,0.999914
0.8845886641009314,1,0.999817
0.8827409948310944,1,0.999656
0.8812364503116163,1,0.999907
0.8797025349339568,1,0.999484
0.8777457905108924,1,0.999907
0.8758275152854805,1,0.999908
0.8749174978753973,1,0.999894
0.8740654164726567,1,0.999664
0.8729566160335894,0,0.997809
0.8718386665227963,1,0.999905
0.8701133418270767,1,0.999893
0.8682744561132767,1,0.999658
0.866091593745605,1,0.999555
0.8640614464785048,0,0.993541
0.8628037558535295,1,0.999893
0.8608576766165479,0,0.969520
0.8590933280588593,1,0.999905
0.8579332283294343,1,0.999638
0.8561773363826611,0,0.997359
0.8540210167369806,1,0.999259
0.85283592613382,1,0.999907
0.8507409796027263,1,0.999611
0.8485145376866525,0,0.997920
0.8462393982416795,1,0.999906
0.8442738623285387,1,0.999907
0.842284093095581,1,0.999560
0.8407467186958709,0,0.998905
0.8402863687044919,1,0.999446
0.8397714493150493,0,0.994103
0.839333820940803,0,0.995595
0.8387777913247914,0,0.993879
0.8382640104501082,0,0.997944
0.8376269264947381,0,0.991766
0.837497639265356,1,0.999906
0.8376656330484811,1,0.999715
0.8379957964807047,1,0.999470
0.8382886017210832,1,0.999661
0.8384460094055174,1,0.999740
0.8383353481527267,1,0.999442
0.8379765383781806,1,0.999367
0.8378313622159426,1,0.999737
0.8374260848250821,1,0.999919
0.8376780937165385,1,0.999752
0.8374585278223027,1,0.999824
0.8368370156062668,1,0.999608
0.8365995275940488,1,0.999650
0.8372332979785634,1,0.999906
0.8386629882324483,1,0.999097
0.8399736896925379,1,0.999905
0.8410040282337132,1,0.999067
0.8425007130799765,1,0.999817
0.8436362574488276,1,0.999901
0.8443977361192248,1,0.999811
0.8455210683039646,1,0.999854
0.8462363637227263,1,0.999732
0.8470258308192828,1,0.999900
0.8479970933673934,1,0.999892
0.8488948437366636,1,0.999732
0.8497330391100901,1,0.999315
0.8505206209262873,1,0.999908
0.850300213220647,0,0.988341
0.850275293885509,0,0.977527
0.8501890501526971,0,0.996814
0.8499142720966366,0,0.975134
0.8497780093998922,1,0.999909
0.8494836335635416,1,0.999732
0.8483479623683248,1,0.999558
0.856940303316413,1,0.999910
0.8652011860536674,1,0.999726
0.8700085564396163,1,0.999714
0.873789538799113,0,0.977618
0.8769750320221846,1,0.999910
0.878861362893207,1,0.999361
0.882713557914649,1,0.999823
0.8844307848388422,0,0.970931
0.8847635605894753,0,0.994769
0.884943419814426,1,0.999541
0.8845603186831527,1,0.999708
0.8835496368549562,0,0.998806
0.8823655790543886,0,0.999188
0.8811260582412194,1,0.999446
0.8790528494051977,0,0.987186
0.8773246504766503,1,0.999707
0.8751410023143119,1,0.999089
0.8725501423446351,1,0.999907
0.8702275183332148,1,0.999556
0.8693058502382675,1,0.999904
0.8670734819651031,1,0.999368
0.8651240474452937,0,0.995200
0.8629898031164287,1,0.999747
0.8633272866100566,0,0.995356
0.863872084705208,0,0.992672
0.8640492351840522,0,0.992351
0.8637360960703575,0,0.995476
0.8632106802635434,0,0.998753
0.8631810552635967,0,0.996454
0.8633658019356674,1,0.999843
0.8643843343158788,1,0.999755
0.8662860634255919,1,0.999737
0.8680957182179755,1,0.999836
0.8691328224375203,0,0.998312
0.8690053395187852,0,0.998805
0.8685074617932643,1,0.999714
0.8681076707528675,1,0.999039
0.867743758944333,1,0.999669
0.8672373571691693,1,0.999423
0.8663913702195779,1,0.999770
0.8654142274526145,1,0.999370
0.8644330822875553,0,0.997009
0.8634977731727792,1,0.999926
0.8625006970133741,0,0.977178
0.8624447914779528,1,0.999905
0.8621480909258956,0,0.995186
0.8620112698412843,0,0.994127
0.8620690550925656,1,0.999919
0.8623311377013292,1,0.999824
0.8628958713305108,1,0.999910
0.863259234163854,1,0.999923
0.8639253864200938,1,0.999849
0.8641500486031323,1,0.999912
0.8640372865740077,0,0.996932
0.8639012670902363,1,0.999618
0.8635346000443205,1,0.999909
0.8633944308022772,1,0.999916
0.8630265235562415,0,0.998880
0.8628588973695827,0,0.995379
0.8624562759234192,1,0.999714
0.862261353195442,1,0.999913
0.8618927890597551,1,0.999631
0.8615265401696731,1,0.999441
0.8607795629508316,1,0.999318
0.8601462789207597,1,0.999828
0.8595817583096601,0,0.992746
0.8589544950484956,1,0.999417
0.858239211075875,0,0.997483
0.8577774119620409,0,0.973612
0.8573065075086249,0,0.997361
0.8566787312631836,0,0.986360
0.8561010313711406,1,0.999188
0.8555889020638713,1,0.999689
0.854827850927145,1,0.999909
0.8540879161476629,0,0.973972
0.8530021000725865,0,0.996763
0.8520943660079112,1,0.999258
0.8512488177633291,0,0.997304
0.8504595741746509,1,0.999704
0.849519201294874,0,0.998487
0.8486993335988593,0,0.997810
0.8479939528183321,1,0.999188
0.8472131412175157,0,0.987563
0.8464780978882173,0,0.989550
0.8455242554305571,0,0.988944
0.8445090401256908,1,0.999822
0.8433923104177552,0,0.963166
0.8427086596224044,0,0.998481
0.8420864411571881,0,0.968539
0.8412857693353429,0,0.997908
0.8402881688668142,1,0.999915
0.8393445943323874,0,0.985793
0.8384769733041735,0,0.998246
0.8377194118704577,0,0.969943
0.8410322226592231,1,0.999905
0.8449186267876319,0,0.998601
0.8492562764314628,1,0.999692
0.8517206504648542,1,0.999718
0.854531573964089,1,0.999903
0.8554769263714438,0,0.994373
0.8557475444821091,0,0.998112
0.8559022683528382,0,0.963273
0.8555970941017705,1,0.999642
0.8544976877479955,0,0.997864
0.852836137984487,1,0.999910
0.8495969031436971,1,0.999202
0.8470263737878119,0,0.997133
0.8443785325010906,1,0.999382
0.8423316004348206,0,0.966218
0.8402015568811756,0,0.999088
0.8375252396724195,1,0.999641
0.8341855943955762,1,0.999620
0.8306813533695231,1,0.999745
0.8267383317061328,1,0.999807
0.8228533883278234,1,0.999569
0.8192281470134937,0,0.998997
0.8161732062277032,0,0.997552
0.8118382640192054,1,0.999601
0.8092084969904092,1,0.999690
0.8065227800636755,1,0.999672
0.804048524525204,1,0.999018
0.8011142653965562,1,0.999116
0.7988581418727082,0,0.989773
0.7963175786273684,0,0.993301
0.7932175433824638,1,0.999502
0.7898179900746805,0,0.996865
0.7876973469398101,0,0.990161
0.7851614292203548,0,0.994713
0.7824538982186202,1,0.999349
0.7802709896387691,1,0.999905
0.77753582635514,0,0.983437
0.7751578289228133,0,0.998170
0.7729941339622756,1,0.999594
0.7709155593427015,0,0.997036
0.7690996121643776,0,0.991751
0.7669593825885012,1,0.999166
0.7646421150370252,0,0.998698
0.7623892515100245,0,0.998217
0.7602315981021913,1,0.999529
0.757944178653397,1,0.999151
0.7552788220364258,1,0.999428
0.7531744079810856,0,0.996609
0.7507176757087554,0,0.996183
0.7486997757049457,0,0.992299
0.7464419560998986,0,0.996401
0.7451933136910475,1,0.999677
0.7443897902637127,0,0.996364
0.7442258556600074,0,0.998530
0.7440292956374446,0,0.998593
0.7442321136272423,0,0.999018
0.7431571955921349,1,0.999734
0.7417512627961027,1,0.999909
0.7406553055231608,1,0.999799
0.7391704192039928,0,0.998225
0.7379678564145914,0,0.995953
0.7365231591001539,0,0.997659
0.7355651676388771,1,0.999795
0.7345071511153702,1,0.999299
0.7341202998642561,1,0.999413
0.7332610582709329,1,0.999357
0.7325062773989892,1,0.999801
0.7322269187876645,1,0.999514
0.7315314327035531,1,0.999821
0.7304415261429805,1,0.999622
0.7294250040890659,1,0.999555
0.7292178482096725,1,0.999170
0.7296934252874492,0,0.998987
0.7294719846289761,1,0.999801
0.7286706047593078,0,0.996929
0.7278497910310294,0,0.998849
0.7271122248227454,0,0.999076
0.7263260172758029,1,0.999503
0.7255948396470056,1,0.999422
0.7250902026382859,1,0.999162
0.7247908647358668,0,0.998957
0.7246714810214396,1,0.999915
0.7241027714949495,1,0.999430
0.724036865480278,1,0.999613
0.7238510522697265,0,0.998884
0.7233487950703457,1,0.999904
0.7228261446935587,0,0.986548
0.7225131663869129,1,0.999222
0.7221823881180901,1,0.999168
0.7218443249130799,0,0.998339
0.7215178319463388,1,0.999539
0.7217785932239708,1,0.999812
0.7222616811579201,1,0.999902
0.7228354971643037,0,0.998689
0.7233706530653067,1,0.999899
0.7236831050484265,1,0.999902
0.7241000740622031,1,0.999030
0.7241195334523551,1,0.999724
0.7238136476909656,1,0.999161
0.8361218122670057,0,0.998966
0.8435815739153872,0,0.995553
0.849893770678178,0,0.992693
0.8569263472104971,0,0.998483
0.8612627576623193,0,0.995569
0.8638073585771896,1,0.999414
0.8648089393811894,0,0.992753
0.8657502826238619,1,0.999278
0.8674474410594952,1,0.999440
0.8688906833172803,1,0.999495
0.8696696316639564,1,0.999907
0.8683768903510736,0,0.992720
0.8663371611845629,0,0.997762
0.8646645727968887,1,0.999076
0.8632467286694211,1,0.999760
0.8632131997283086,0,0.998521
0.8621434699496773,1,0.999569
0.8609504012364882,1,0.999822
0.8606513366642062,0,0.998933
0.8598875387378884,1,0.999726
0.8582230924148502,0,0.998862
0.8564987827812091,1,0.999659
0.8546908726657366,1,0.999489
0.8523246442825184,1,0.999660
0.849404039564863,1,0.999573
0.8468335601095505,1,0.999683
0.8444879134817704,1,0.999656
0.8420104686565484,1,0.999157
0.8399020546757586,1,0.999451
0.8380405373395793,1,0.999909
0.8369035982038189,1,0.999657
0.8349867172688453,1,0.999379
0.8337593960609027,1,0.999731
0.8332930394477426,0,0.998785
0.8339527947947207,1,0.999310
0.8342666669070469,1,0.999257
0.8348297609713333,1,0.999530
0.8341848289758738,1,0.999424
0.8337698174472029,1,0.999251
0.8330714408278935,1,0.999247
0.8316799561318287,1,0.999535
0.8304970516733113,0,0.998952
0.8299140665012265,1,0.999361
0.8295371663234643,1,0.999730
0.8289509726605735,1,0.999176
0.8287476376259956,1,0.999480
0.8282687566031731,0,0.990665
0.8277719438330005,0,0.992357
0.827213422343018,1,0.999589
0.8271918959029243,0,0.998267
0.8268288541689123,1,0.999294
0.8265979338540892,1,0.999060
0.8257326875089264,0,0.994241
0.8251098148192793,0,0.991750
0.8242409534291717,0,0.997944
0.8232133619723677,1,0.999907
0.8224108657331002,1,0.999394
0.822129182079443,1,0.999611
0.8221408576420418,1,0.999743
0.8215444000681658,1,0.999803
0.8207865060745891,0,0.998805
0.819644872116805,1,0.999402
0.8191243713429203,0,0.952749
0.8184076788154703,1,0.999462
0.8177764390390533,0,0.999006
0.817019108998569,1,0.999662
0.8161419138842083,1,0.999895
0.8156233490761655,0,0.998810
0.8153036434020953,1,0.999476
0.8155286852356163,1,0.999689
0.8153096683249712,0,0.998136
0.8154010380735889,0,0.990259
0.8149716430687746,1,0.999404
0.8144465917547068,1,0.999395
0.8134937120795436,1,0.999906
0.8128828036566009,0,0.998264
0.8122883263320456,1,0.999903
0.8117282702918456,1,0.999632
0.8111759178274166,0,0.997270
0.810894793057191,1,0.999725
0.8108508775192766,1,0.999800
0.810834095765728,0,0.998194
0.810230748488281,1,0.999708
0.8095851759651269,1,0.999906
0.8089262675875507,1,0.999808
0.8085134677853167,1,0.999795
0.808120854918716,1,0.999682
0.8076307459437834,1,0.999908
0.807415389205746,1,0.999683
0.806900822829311,0,0.987417
0.8326562545173459,0,0.996184
0.842240378504991,1,0.999896
0.8483211398904084,0,0.969934
0.853801687392843,1,0.999813
0.8596559039500506,0,0.998645
0.8642122051898566,0,0.996937
0.867703480028597,1,0.999894
0.8701979340865335,1,0.999019
0.8719772602313779,1,0.999822
0.872801002269863,0,0.996470
0.8731867280077072,0,0.997282
0.873584504355528,1,0.999638
0.8741435901901792,1,0.999401
0.8739655529381158,0,0.996295
0.8725716254508648,0,0.995128
0.8717824149797297,1,0.999809
0.8713126482817611,0,0.998061
0.8685624385650633,1,0.999155
0.8669187958366958,1,0.999893
0.8651255258532906,1,0.999361
0.8632296753206061,1,0.999904
0.8606803805031471,0,0.996429
0.8580658151643271,1,0.999819
0.8562785558389828,1,0.999223
0.8545006280680617,1,0.999812
0.8525604745122844,0,0.998885
0.8505146185644613,0,0.999134
0.8490093529001465,0,0.962365
0.8477567134470297,0,0.998003
0.8460688101241391,0,0.997342
0.8441094074902323,1,0.999564
0.842180399337215,0,0.997734
0.8401613182999806,1,0.999795
0.8388156948876279,1,0.999272
0.8374363546418845,1,0.999193
0.837418189168899,1,0.999185
0.838414953085179,1,0.999816
0.8376388255875026,1,0.999170
0.8360552516894203,1,0.999898
0.8347044328079061,1,0.999495
0.8345725449446932,0,0.995500
0.8333931991780816,1,0.999184
0.8322272949982694,1,0.999901
0.8309144401669394,1,0.999836
0.8290885889455221,1,0.999907
0.8272291566332077,1,0.999566
0.8260630834038144,1,0.999718
0.8253974867857286,0,0.998501
0.8252017843269714,1,0.999159
0.8251897875532791,1,0.999816
0.8252436961803787,1,0.999329
0.8251884563619012,0,0.997073
0.8246003475027435,0,0.998080
0.8243790721660038,1,0.999492
0.8242326071272912,0,0.998051
0.8238126429632995,1,0.999905
0.8233192689797323,0,0.992943
0.8229845555553447,1,0.999920
0.8228143125903532,0,0.997347
0.823381175750788,1,0.999723
0.8232384797264272,1,0.999903
0.82331857250588,1,0.999853
0.8230843681061196,1,0.999809
0.8234939387273709,1,0.999616
0.8235746544645686,1,0.999838
0.8236629052207751,1,0.999420
0.8235408384711631,1,0.999834
0.8237299145681708,1,0.999610
0.8234606705243535,0,0.997055
0.8230958489337993,1,0.999380
0.8226188139688386,1,0.999106
0.8224165572850723,1,0.999533
0.8222618641888896,1,0.999430
0.8221861248991491,1,0.999569
0.8241084248535284,1,0.999741
0.8260255831030195,1,0.999911
0.8281221055845426,0,0.998519
0.8296438905565724,0,0.998556
0.8307422623840475,1,0.999748
0.832367545235989,1,0.999910
0.8336107397549709,1,0.999923
0.8346403612979988,0,0.998080
0.8356365671776014,0,0.998136
0.8366928249581449,1,0.999844
0.8375732096376989,1,0.999835
0.8383619101501348,1,0.999710
0.8393123697581539,0,0.998063
0.8402805110649022,1,0.999909
0.8414404721865338,1,0.999804
0.8421569196568731,1,0.999107
0.8434372202131948,1,0.999700
0.8448741097128407,1,0.999819
0.8464053804293783,1,0.999726
0.8476906972062525,1,0.999318
0.8444034557780576,1,0.999908
0.8595596170553917,1,0.999916
0.8717761842873463,1,0.999564
0.8814565422351123,1,0.999809
0.8885638467037079,1,0.999672
0.8940334918035944,1,0.999649
0.8982323107000215,0,0.998114
0.901746326960962,1,0.999797
0.9032770175318643,1,0.999805
0.9038040846552056,0,0.994597
0.9039081318647255,1,0.999671
0.9038291626259964,1,0.999620
0.9031957609151983,0,0.998007
0.9025022535226322,0,0.997091
0.9017434951989401,1,0.999273
0.9019676836942433,0,0.997050
0.9015661578733191,1,0.999808
0.9005611913553032,0,0.998822
0.8997502006140651,1,0.999608
0.8983372590539763,1,0.999906
0.896382396729396,0,0.998968
0.8952834183470089,1,0.999689
0.8933750121667642,1,0.999628
0.8919574074719226,1,0.999640
0.8907687969551622,1,0.999275
0.8893254136987735,0,0.998866
0.888914295745604,1,0.999625
0.8879807960063831,1,0.999422
0.8864025282266581,0,0.996910
0.8848535268676939,1,0.999808
0.8834499431358245,1,0.999806
0.8822958172425851,0,0.998917
0.880896879413849,1,0.999073
0.8795982040133139,0,0.997345
0.8786886712702163,0,0.995312
0.8770525337893452,1,0.999738
0.8755218198596727,0,0.992140
0.8738319230528854,0,0.997732
0.872107265346063,1,0.999578
0.8714099939061984,1,0.998962
0.8739746665003773,1,0.999898
0.8764306355709615,1,0.999899
0.877417618599864,1,0.999435
0.8784369857891466,1,0.999482
0.8792196243593347,1,0.999560
0.880598482766558,1,0.999614
0.8814015522562668,1,0.999483
0.8821771423379529,0,0.995624
0.8826068699869154,1,0.999570
0.8832159003422784,1,0.999510
0.8839973915233922,0,0.994672
0.8842065156163671,1,0.999541
0.8849066668612096,1,0.999278
0.8857936487665738,1,0.999355
0.8857152055529485,1,0.999335
0.8855721956588837,1,0.999432
0.8853763839043595,1,0.999807
0.8853677147038364,1,0.999630
0.8856753833413625,1,0.999713
0.8854726407764674,1,0.999926
0.8849710729696378,1,0.999906
0.8843928657686512,1,0.999324
0.8838064095063355,1,0.999582
0.8832591230244718,1,0.999815
0.8827544420388145,1,0.999912
0.8826802046999876,1,0.999903
0.8822881659272414,1,0.999162
0.8817521855426295,1,0.999462
0.8820772818539641,0,0.999090
0.8824103018718182,1,0.999519
0.8820662088857243,0,0.998657
0.881602691044716,1,0.999812
0.8811401550474045,1,0.999633
0.8809346610678235,1,0.999914
0.8805528915403178,1,0.999157
0.8799674357098284,1,0.999724
0.8794912023747476,1,0.999913
0.8791704850178723,0,0.998128
0.878617800704082,1,0.999354
0.8785959534073258,1,0.999347
0.8783481975874924,0,0.998826
0.8777684524899693,1,0.999061
0.8773417717943259,1,0.999805
0.8770536380032891,1,0.999635
0.8766538070649937,1,0.999448
0.8759142906585263,1,0.999824
0.8754742728704141,1,0.999723
0.8746761655059321,1,0.999237
0.8741156775685879,1,0.999813
0.8737454136587108,1,0.999906
0.8731056162510391,1,0.999910
0.8730728652554177,1,0.999805
0.8730590777882611,0,0.997624
0.8722818468899377,1,0.999276
0.8717134285336806,1,0.999458
0.8713121044723044,1,0.999803
0.8708425258196403,1,0.999648
0.8700431878731022,1,0.999549
0.8692138097653748,1,0.999200
0.8282988536746524,1,0.999811
0.8396227990565803,1,0.999528
0.8470885630087351,1,0.999913
0.8537511546327394,1,0.999455
0.8578169136898744,1,0.999615
0.8618616020572206,1,0.999909
0.8669453011895715,0,0.998830
0.871644792602821,1,0.999910
0.8748917944942016,1,0.999161
0.8795818354448907,0,0.998606
0.8833033337646972,1,0.999080
0.8856097477450864,1,0.999898
0.8867036582121802,1,0.999031
0.8882441121311647,0,0.998951
0.8896307874117215,1,0.999900
0.8896959164099806,1,0.999706
0.8900731578926897,1,0.999762
0.8904751369332267,1,0.999153
0.8898534780378937,1,0.999814
0.8888056136800004,0,0.999007
0.8873436413518606,1,0.999904
0.885812817630209,0,0.993039
0.8842046436529848,0,0.998812
0.8828356760031275,1,0.999932
0.8811269989324415,1,0.999901
0.8790211976827594,1,0.999723
0.876995201231196,1,0.999905
0.8753690583227596,1,0.999803
0.8737117141533985,1,0.999907
0.8715332678052076,1,0.999713
0.8702133449111225,1,0.999816
0.8685563588204652,1,0.999904
0.8670878656818015,0,0.999010
0.8654024932307315,0,0.998196
0.8633388515985188,0,0.998872
0.8612195549269541,1,0.999379
0.860307410072692,1,0.999341
0.8591236605932936,1,0.999909
0.8581876086321975,0,0.998861
0.8573981436342635,0,0.998085
0.8563310128774514,1,0.999710
0.8549166989511614,1,0.999907
0.8536384662908436,0,0.998689
0.8529130781771322,1,0.999418
0.8520856431465407,0,0.995181
0.8509970084605156,1,0.999527
0.8500316566848778,0,0.995990
0.8492702942836929,1,0.999821
0.8485887045856997,1,0.999799
0.8479479569973246,1,0.999800
0.8474390175899954,1,0.999912
0.8469879866250671,0,0.998758
0.846317208433324,1,0.999918
0.8456942622043515,0,0.998995
0.8460055476265389,1,0.999805
0.8457674473666306,1,0.999342
0.8455645724347787,1,0.999908
0.8456241680377413,0,0.995972
0.8454553964414289,1,0.999174
0.8446999284604706,1,0.999839
0.8439562571375584,1,0.999681
0.8431195703661416,1,0.999627
0.8424722887359262,0,0.998953
0.8420281407546641,0,0.997662
0.8412841158388328,1,0.999222
0.8405087556799143,1,0.999903
0.8395576576148661,1,0.998982
0.8384873590728654,0,0.998361
0.8374415841086252,1,0.999810
0.8365293114118353,0,0.997577
0.8359692624485148,1,0.999525
0.8351369292719267,1,0.999702
0.8348373107901393,0,0.997590
0.8340883653839646,1,0.999896
0.8335843301721547,0,0.997101
0.8330624130418436,0,0.961480
0.8327351069971509,0,0.998269
0.8318907568269103,1,0.999311
0.8312612044628842,0,0.998735
0.8309077745606532,1,0.999823
0.8306004044069367,1,0.999909
0.83030619390538,1,0.999106
0.8298604756589488,1,0.999309
0.8296224904379188,0,0.998903
0.8294468099018787,1,0.999123
0.8292494208721706,1,0.999534
0.8291701886476075,1,0.999905
0.8285854329908348,0,0.998744
0.8282359110897611,1,0.999135
0.8277862753378982,1,0.999668
0.8277323884305481,0,0.998810
0.8277677812750682,1,0.999808
0.8276745353178394,0,0.998996
0.8275376311708144,0,0.998414
0.8273376648405796,1,0.999898
0.8268037832243957,1,0.999728
0.8266281691305736,1,0.999893
0.8260754257420243,1,0.999083
0.8257636214787324,1,0.999085
0.8255303378070755,0,0.998364
0.8253004220409295,0,0.998808
0.8254671716978192,1,0.999447
0.8261812224257205,0,0.999007
0.829067342822744,1,0.999556
0.8422311715104063,1,0.999912
0.8513658124833058,1,0.999519
0.8594122303511114,1,0.999401
0.8678039420394986,1,0.999809
0.874217106252981,1,0.999186
0.8788017317102788,1,0.999215
0.8832412570117936,1,0.999195
0.8861388763207342,0,0.998598
0.8869946288849303,1,0.999552
0.8885034624284391,1,0.999373
0.8893742266218314,1,0.999818
0.8900607485689325,1,0.999809
0.889709395319256,1,0.999723
0.8911726776597005,0,0.998423
0.893261841058322,1,0.999523
0.8940891772539669,1,0.999808
0.8946863253773737,1,0.999153
0.8952915347237921,1,0.999638
0.8950771778104452,0,0.998971
0.8950373377551303,0,0.998343
0.8954298312197093,1,0.999413
0.8950977534870059,1,0.999576
0.8941793582632472,1,0.999397
0.8936321046229884,1,0.999812
0.8923249564248844,1,0.999360
0.8923528607619035,1,0.999905
0.8914529544402513,1,0.999156
0.8903910472114263,1,0.999607
0.8895735911310786,1,0.999222
0.8884770867731133,1,0.999808
0.8873590140741057,1,0.999071
0.8865643146102128,1,0.999286
0.8857790852430922,0,0.998820
0.8848772061099989,1,0.999247
0.8840408858042202,1,0.999641
0.8827524240387891,1,0.999529
0.8816305106206086,1,0.999023
0.8808387138104289,1,0.999725
0.88043061076586,1,0.999734
0.8800775002574261,1,0.999790
0.8797453516791705,0,0.998930
0.8791943912557298,1,0.999716
0.8781150935588586,1,0.999349
0.8769976354620995,1,0.999869
0.8760260845845912,0,0.998818
0.8748608978204494,1,0.999398
0.8736218274112767,0,0.998506
0.8726378564328553,0,0.998910
0.8712891043562371,0,0.997295
0.8699726655773632,1,0.999902
0.8689061416176485,1,0.999556
0.8685932720348024,1,0.999389
0.8695787587011891,1,0.999903
0.8707055050219492,1,0.999853
0.8709509810939092,1,0.999814
0.8709743862658511,1,0.999908
0.8710486420762412,1,0.999557
0.8711428973524138,1,0.999913
0.8712700256852889,1,0.999166
0.8713501184006699,1,0.999744
0.8714835038346729,1,0.999904
0.8722770132570323,1,0.999707
0.8727402086429951,1,0.999852
0.8735039962364903,1,0.999392
0.874142564451893,1,0.999723
0.8745907193670552,1,0.999740
0.8755587447746244,1,0.999778
0.8761615696672022,1,0.999085
0.8763919621899655,1,0.999559
0.8760477833044537,1,0.999740
0.8754708871648639,1,0.999130
0.8749023567141468,1,0.999304
0.8742617402312454,1,0.999516
0.8738983319437973,1,0.999865
0.8732903361909955,1,0.999461
0.8725649802269335,0,0.998622
0.8720262656916136,1,0.999716
0.8713367122993567,1,0.999721
0.8706889297566717,1,0.999904
0.8697876643663621,1,0.999196
0.8698523946911861,1,0.999818
0.8699927099594151,1,0.999812
0.8701907532184986,1,0.999911
0.8706436389663352,1,0.999914
0.871561124677291,1,0.999909
0.8723833322703958,1,0.999736
0.8728296731759678,1,0.999310
0.8725540719766686,1,0.999727
0.8722528821700272,0,0.998874
0.8718626261079636,1,0.999184
0.871590976727987,0,0.999007
0.8712055270255168,1,0.999807
0.8711143937087524,0,0.998933
0.870799884023343,0,0.998964
0.8705760050855131,1,0.999729
0.8702581608479554,1,0.999458
0.8702043199452523,1,0.999805
0.8701377390307293,1,0.999909
0.8212679936607103,1,0.999402
0.8356396559148975,1,0.999636
0.8470526971428618,1,0.999910
0.85719635908177,1,0.999373
0.8657158007443523,1,0.999041
0.8721292801775502,0,0.998548
0.8768944098049856,0,0.998152
0.8803251680560455,1,0.999730
0.8829384655691872,1,0.999828
0.8834483463740133,1,0.999746
0.8836914985032277,0,0.992122
0.8835106938692584,1,0.999725
0.8836005880986043,1,0.999509
0.8841531362883919,1,0.999463
0.8844137261616593,1,0.999906
0.8850615768873313,1,0.999429
0.8837486615096848,1,0.999270
0.8828799989373859,1,0.999303
0.882029608796936,1,0.999913
0.8806862179268935,0,0.991819
0.8784481936401617,0,0.998319
0.8765503616192333,1,0.999258
0.8761377550757957,1,0.999179
0.8780859129449771,1,0.999716
0.8791675534076739,1,0.999494
0.8805984019389674,1,0.999901
0.88157086402198,1,0.999640
0.8817660993981696,1,0.999902
0.8832247054092589,1,0.999921
0.8836699475700007,1,0.999906
0.8829668280395122,1,0.999907
0.8826471611599118,1,0.999914
0.8820398375355136,1,0.999682
0.8815086852427767,1,0.999625
0.8825793542417553,1,0.999709
0.8829205293234558,1,0.999826
0.8834875957479672,0,0.995821
0.8842632697651244,1,0.999728
0.8846035401560733,1,0.999741
0.8844773798933889,0,0.998226
0.8841832314296235,1,0.999919
0.8839476937154414,1,0.999904
0.8835412598034775,0,0.998200
0.8831302518569762,0,0.998828
0.8828143718395527,1,0.999907
0.8820459996548978,0,0.998116
0.8812718885720382,1,0.999916
0.8805116980721349,1,0.999914
0.8797499071056689,1,0.999904
0.8789721311588378,1,0.999623
0.8784011611937712,1,0.999923
0.8785800181324523,1,0.999451
0.8787142981890321,1,0.999737
0.8787396914773767,1,0.999915
0.8785837833820387,1,0.999138
0.8786102154986394,1,0.999658
0.8787249189352268,1,0.999919
0.8785928796624902,1,0.999776
0.8786521968602498,1,0.999901
0.8785333397575154,1,0.999831
0.8782928992297285,1,0.999904
0.8782417445231826,1,0.999416
0.8781816709498103,1,0.999738
0.8780206747749685,1,0.999650
0.8784931413373823,1,0.999862
0.8792060335600872,1,0.999401
0.8797445208903895,1,0.999726
0.8800585438151836,1,0.999535
0.8801110663233969,1,0.999907
0.8801519012795044,0,0.998382
0.8800761486722195,0,0.998800
0.8799504225974499,0,0.997778
0.8798257575036266,0,0.998494
0.879639987322311,1,0.999611
0.8794275313256177,1,0.999914
0.8793852824351062,1,0.999580
0.8793040439582933,0,0.998533
0.8791527609710776,1,0.999243
0.8790679728707812,1,0.999637
0.878824636304614,1,0.999915
0.8787076436924603,0,0.998783
0.8786404396523242,1,0.999653
0.8785035014644477,1,0.999914
0.8783222762439373,0,0.998965
0.8781341470871659,1,0.999817
0.8780022866504705,1,0.999916
0.8778678248634156,0,0.995094
0.8779730348686268,1,0.999744
0.8781541039812165,0,0.998701
0.8780909197417432,1,0.999639
0.8780818963054111,0,0.998523
0.8779603380348457,0,0.998863
0.8778324743596533,1,0.999337
0.8778651636122577,1,0.999246
0.8775823705937372,0,0.998628
0.877336495931133,0,0.998307
0.8769654765391465,1,0.999909
0.8767833514434205,1,0.999448
0.876731597339561,1,0.999239
0.8764602428350433,1,0.999217
0.8118804481469344,1,0.999582
0.8267468670069983,1,0.999350
0.840274973268312,0,0.998445
0.8500653426448892,1,0.999549
0.8586230687605697,1,0.999910
0.8654703140969516,1,0.999562
0.8705770282107992,1,0.999584
0.8754033326659979,1,0.999638
0.879086489855095,1,0.999903
0.8815586894770677,0,0.999116
0.8836424620703648,1,0.999805
0.8846426888084962,0,0.996542
0.8853838161869879,0,0.998876
0.8865315155127486,1,0.999909
0.8866415282601824,1,0.999650
0.8876247118249092,1,0.999391
0.8881625556244601,1,0.999619
0.8891118371058647,1,0.999893
0.8884643617625333,1,0.999729
