0.8150105954812793,1,0.999477
0.8789692921605134,1,0.999836
0.9451900868929496,1,0.999605
0.8954890005476345,1,0.999732
0.9095425697583168,0,0.998172
0.8729642346160835,1,0.999757
0.9111748159619227,1,0.999836
0.9093726967247338,1,0.999571
0.9138099804099752,1,0.999911
0.9446062099203867,1,0.999838
0.8390986742046393,1,0.999301
0.9514254808733651,1,0.999915
0.8394802369208991,1,0.999737
0.8495602691608451,1,0.999912
0.9311201689046987,1,0.999536
0.896291898186772,1,0.999816
0.9358726909372465,1,0.999797
0.8690772646512605,1,0.999917
0.9276454067057752,1,0.999912
0.9341823720315681,1,0.999544
0.8892827080165389,1,0.999836
0.9201715397691248,1,0.999916
0.8997708240067938,1,0.999613
0.9150447967931032,1,0.999920
0.9113011749215205,1,0.999692
0.9013506061561315,1,0.999577
0.9053766283348885,1,0.999747
0.9212677383656497,0,0.998939
0.8965643323594641,1,0.999838
0.9223453957414857,1,0.999609
0.8390171539942888,0,0.997388
0.9199753690826633,1,0.999447
0.914259125374779,1,0.999435
0.8788742993661961,1,0.999357
0.8813438061125589,1,0.999676
0.8828639120808249,1,0.999917
0.8866490913038453,1,0.999740
0.9081390148744051,1,0.999913
0.911410369259611,1,0.999914
0.8659583787193733,1,0.999835
0.9253483494066148,1,0.999911
0.9117699942325788,1,0.999832
0.8954098879923906,1,0.999838
0.9288130696540818,1,0.999837
0.8651674177454334,0,0.999056
0.874209618122708,1,0.999806
0.9151958635967458,1,0.999757
0.8711194320667934,1,0.999759
0.8940062966754714,1,0.999492
0.8668922890418594,1,0.999659
0.9180648847671864,1,0.999762
0.8760398262912887,0,0.996636
0.9298124416361546,1,0.999915
0.8511392853722081,1,0.999698
0.8610373485462144,1,0.999922
0.9099148715765104,0,0.981516
0.9143514586048138,0,0.999037
0.9102963555247818,1,0.999212
0.8907056031013835,1,0.999929
0.9012901532646839,1,0.999923
0.8826670403833119,0,0.996738
0.8792932319022129,1,0.999928
0.8525482694473732,0,0.995715
0.8783087044118554,0,0.999114
0.8031256295913264,0,0.998473
0.7886708467266662,1,0.999715
0.7819524648260208,0,0.987545
0.8479258727124842,1,0.999924
0.8669546214948132,1,0.999920
0.8455963702574414,1,0.999926
0.9201126261317271,1,0.999926
0.7964164912773614,1,0.999923
0.9135831069859507,1,0.999921
0.8137054890846157,0,0.998126
0.8761581377707288,0,0.998891
0.8498376675423849,1,0.999919
0.7858669799610557,1,0.999924
0.852533230820518,0,0.998608
0.906654209770418,1,0.999744
0.7928541595363665,1,0.999851
0.9151684347350941,1,0.999621
0.8610793109624758,0,0.994141
0.8963247831930927,1,0.999749
0.8801902483591202,1,0.999926
0.9179566137087435,1,0.999767
0.928646376527821,1,0.999920
0.8286410225136452,1,0.999554
0.8733194895610666,1,0.999567
0.9051180479277735,1,0.999917
0.9088483116195131,1,0.999924
0.930143763586031,1,0.999924
0.9416289304952252,1,0.999848
0.8650644508759427,0,0.984382
0.8974211764646375,1,0.999735
0.83096880830579,1,0.999920
0.8880017861161089,1,0.999915
0.891414023889089,1,0.999908
0.8866139889294391,1,0.999318
0.9139263461124572,1,0.999757
0.8700889443064005,0,0.998403
0.9042052297374404,1,0.999489
0.8664394213896746,0,0.997553
0.8877888509959238,1,0.999204
0.8721269849633924,1,0.999357
0.8649536671847983,0,0.997526
0.826667437700744,1,0.999361
0.8922004885280858,1,0.999530
0.8875044356884074,1,0.999281
0.915350095588329,1,0.999849
0.8887348014312538,1,0.999845
0.9341649460277287,1,0.999919
0.904686253440949,1,0.999852
0.91599655560833,1,0.999836
0.8966955661473046,1,0.999623
0.9098836026405043,1,0.999917
0.9330010063779131,1,0.999701
0.9013837945047378,1,0.999918
0.853367552580994,1,0.999569
0.9345516666288566,1,0.999786
0.8085213319965735,0,0.998721
0.8546984824096918,1,0.999927
0.8797833568832265,1,0.999849
0.8810843492340581,1,0.999766
0.9297210495019136,1,0.999919
0.8759010782580962,1,0.999744
0.8643183664610103,1,0.999827
0.9018083865938089,1,0.999919
0.8679700959038303,1,0.999852
0.9178476711163928,1,0.999928
0.8793482930227097,0,0.997429
0.8778358462019012,1,0.999924
0.8889779856600765,1,0.999760
0.8900518101878933,1,0.999923
0.8768722312448034,0,0.998644
0.8831535150948242,1,0.999928
0.8882551839170509,0,0.995762
0.8597964067568407,1,0.999834
0.8750941435655631,1,0.999917
0.888987634495287,1,0.999841
0.9216363096053848,1,0.999671
0.9086996781085125,1,0.999913
0.9085278414676647,1,0.999618
0.9108973523536786,1,0.999924
0.8429826372806367,1,0.999691
0.8896229104477404,1,0.999918
0.8803103337649484,1,0.999768
0.8969694809893719,1,0.999734
0.9147521115569454,1,0.999339
0.887941426996455,1,0.999838
0.9057050715226151,1,0.999921
0.8519489280570056,1,0.999915
0.9026752875843294,1,0.999929
0.8848118752931061,0,0.998430
0.854747685957959,0,0.997130
0.9101530997002372,1,0.999920
0.8901758988938279,0,0.998961
0.9435528946979729,1,0.999926
0.8834974589562039,1,0.999263
0.8290288489357948,1,0.999922
0.8954738935190849,1,0.999921
0.9307462098505761,1,0.999919
0.900049718679942,1,0.999370
0.8344330313313159,1,0.999925
0.8995498542261116,1,0.999691
0.9087838771408145,0,0.996445
0.8613143043107149,1,0.999766
0.8596012705838474,0,0.995068
0.8563677134313536,0,0.998649
0.8570376187580576,1,0.999362
0.840332362357892,1,0.999769
0.8344828336215929,1,0.999921
0.8599430240667211,1,0.999923
0.8219753210032477,0,0.999172
0.8732953432698196,1,0.999481
0.7451892326978858,1,0.999925
0.8120685959249748,1,0.999673
0.7940864599553994,0,0.997583
0.794799117139234,1,0.999410
0.8720640823265102,1,0.999912
0.8306377282046814,1,0.999927
0.8497387612331425,1,0.999921
0.8608359118496538,1,0.999441
0.8839541864547394,1,0.999918
0.8534008091448211,1,0.999928
0.8672960941648049,0,0.996823
0.8372197585262322,1,0.999772
0.8455498505591185,1,0.999926
0.8398930083574645,1,0.999629
0.8310040246381674,0,0.991227
0.8889698489165675,1,0.999599
0.9227255748086723,1,0.999913
0.9114156386549691,1,0.999907
0.8801975081584689,1,0.999828
0.9305019736548745,1,0.999921
0.9451397089059238,1,0.999192
0.9219239383111052,0,0.998422
0.8750122971127265,1,0.999914
0.8638004276793977,1,0.999921
0.888803188120832,1,0.999912
0.908327002102129,1,0.999918
0.8753697437495433,1,0.999921
0.874581066156323,1,0.999916
0.9270215864932506,1,0.999852
0.9078807396237448,1,0.999924
0.9058604555640463,1,0.999917
0.85811689324875,1,0.999926
0.8846967222369548,1,0.999914
0.8938369397979751,1,0.999838
0.8812263643319735,1,0.999483
0.8814733959285767,0,0.999182
0.8932107488583825,1,0.999627
0.8270687798373947,1,0.999915
0.8833526249971719,1,0.999926
0.9309047983358751,1,0.999924
0.9197613799071077,1,0.999920
0.8614309489061072,1,0.999923
0.9025076150855701,1,0.999757
0.9053369710514967,1,0.999854
0.8761034654403281,1,0.999453
0.8902053128832508,0,0.997752
0.9157641425441015,1,0.999850
0.8611149609435644,1,0.999763
0.9090516748849459,1,0.999921
0.8342677138536572,1,0.999412
0.9094549945187266,1,0.999509
0.9157056466098601,1,0.999918
0.8810853991473109,1,0.999916
0.8557917561844599,1,0.999586
0.9184066905089213,1,0.999243
0.9232576291980993,0,0.998897
0.8661890703209705,1,0.999671
0.9086241082778572,1,0.999679
0.8631515705298695,1,0.999919
0.8440344780819702,0,0.996906
0.8966122671353323,0,0.999086
0.8814711375553923,1,0.999915
0.9228433781216154,0,0.998797
0.8962619663847224,1,0.999831
0.9087869619734713,1,0.999910
0.8973899701534956,1,0.999593
0.8938156792159461,1,0.999848
0.9039027092202455,1,0.999666
0.8654354265660232,0,0.997384
0.9410572357930902,1,0.999927
0.9365745913735166,0,0.998023
0.9223351048564827,1,0.999921
0.89111422243128,1,0.999723
0.8958971787976302,1,0.999926
0.8832976556318275,1,0.999927
0.9068612896507181,1,0.999913
0.8750618297556798,0,0.966759
0.9083359154048093,1,0.999918
0.8819204249810285,1,0.999907
0.8866851589479395,1,0.999813
0.8852600498373796,1,0.999916
0.9322293212936225,1,0.999756
0.894630267840452,1,0.999514
0.9122160259952738,0,0.998924
0.8736809163936409,1,0.999764
0.9042308018715277,1,0.999837
0.8850848913576929,1,0.999588
0.8954575652034081,1,0.999758
0.9342565256273563,1,0.999917
0.9060329737109638,1,0.999912
0.9204871736546888,1,0.999566
0.9028287903546821,1,0.999911
0.9042636638357646,1,0.999749
0.9234155902283928,1,0.999756
0.8646356953657091,0,0.999007
0.8725271832670829,1,0.999911
0.9024262624556966,1,0.999917
0.8814675888872412,1,0.999510
0.8853068833138009,1,0.999915
0.8879748312696545,1,0.999911
0.9144553792389669,1,0.999926
0.8931993201788393,1,0.999914
0.8941254106878281,1,0.999926
0.9133382423851697,1,0.999843
0.8807873495323227,0,0.989346
0.9196156641997726,1,0.999926
0.8728603529082405,1,0.999925
0.8737044279158375,1,0.999919
0.898704964117414,1,0.999777
0.8998188823165627,1,0.999840
0.8734488992277807,1,0.999919
0.8117492463077121,0,0.997515
0.9259233259293306,1,0.999838
0.8979045064304075,1,0.999922
0.9119106089346689,1,0.999917
0.867420950931097,1,0.999740
0.8763821419983868,0,0.998699
0.8700616469717586,1,0.999918
0.8608998818370736,1,0.999917
0.8585080159462305,1,0.999695
0.8938872022759616,1,0.999918
0.8565574977112165,0,0.996786
0.8889383129380496,1,0.999838
0.8684808899838898,1,0.999846
0.8843804732953922,1,0.999919
0.872468600893008,1,0.999842
0.8991474786446453,1,0.999383
0.8829813659008147,1,0.999611
0.9228117079580854,1,0.999837
0.9141105832856137,1,0.999834
0.886151310738395,0,0.989478
0.8930241970046878,1,0.999768
0.8256554158599392,1,0.999921
0.8520443562085575,1,0.999913
0.867554998938243,1,0.999916
0.8893759721005856,0,0.998966
0.8837440420884027,1,0.999182
0.9138360644960776,0,0.999173
0.9046161369843465,1,0.999836
0.8960176931669147,1,0.999836
0.9099526015648037,1,0.999908
0.8005097315023653,0,0.997020
0.8975428883620531,1,0.999846
0.9133846603493017,1,0.999860
0.87508231275141,1,0.999919
0.8309184942809227,1,0.999926
0.8665744800477366,1,0.999925
0.8911258806006299,0,0.996293
0.8648600535562404,0,0.997935
0.8828551339161725,1,0.999833
0.8871051597048415,1,0.999645
0.8277779467745392,1,0.999926
0.8960822199601924,1,0.999698
0.8378586680504677,1,0.999279
0.8471542619921488,0,0.998762
0.9055747214049132,1,0.999500
0.9016063084915792,1,0.999843
0.8446987138549307,1,0.999925
0.9033061217765287,1,0.999919
0.9203987467752105,1,0.999918
0.886623199480192,1,0.999607
0.8811542137980297,1,0.999849
0.86736812405853,1,0.999734
0.8569231531463173,1,0.999737
0.8728412265357589,1,0.999925
0.8858804803102305,1,0.999928
0.9021617099157504,0,0.997060
0.8273558880933624,1,0.999838
0.8009169145747005,0,0.994002
0.8026819204727573,1,0.999482
0.8213884343388834,1,0.999918
0.789464408401863,0,0.998505
0.8122073209347486,1,0.999445
0.8662512611581498,1,0.999190
0.8871421794870302,1,0.999925
0.8456314827666485,1,0.999757
0.8424791146498871,0,0.965988
0.875886815480982,1,0.999923
0.900866286586873,1,0.999921
0.8867869043867612,1,0.999846
0.8644277951331357,1,0.999849
0.8684403624780568,1,0.999697
0.9229721166707927,1,0.999925
0.8230005318549122,1,0.999854
0.7890482279058515,1,0.999928
0.82853376671998,1,0.999199
0.8956711415989859,0,0.998544
0.8991458465166158,1,0.999929
0.8328299890796182,1,0.999851
0.7587354812150742,1,0.999661
0.8701744067761555,1,0.999694
0.8627053399046184,1,0.999693
0.8569015137110338,0,0.998718
0.8398355119983939,1,0.999377
0.8834020155073568,1,0.999924
0.8784774272833419,1,0.999916
0.9091284594384537,1,0.999842
0.9016139252567724,1,0.999761
0.8139118840412815,0,0.982389
0.8539596304342197,1,0.999738
0.8420328599694075,1,0.999556
0.8333445118261249,1,0.999849
0.8813770748402037,1,0.999916
0.9097651973363611,1,0.999922
0.9192401852833214,1,0.999920
0.8968230579408775,1,0.999287
0.8831180681817483,1,0.999754
0.8370368664515762,1,0.999920
0.8868671390341123,1,0.999920
0.879436012170512,1,0.999918
0.9143693535486095,1,0.999915
0.8944084006086168,1,0.999397
0.874692865905212,1,0.999922
0.8730885006543634,1,0.999828
0.9005299999374899,1,0.999920
0.8526990874379751,1,0.999639
0.9138987547418321,1,0.999814
0.879741113173387,1,0.999268
0.8338509166622983,1,0.999430
0.7707431848540435,0,0.998477
0.8264705517683436,1,0.999847
0.874577450889381,1,0.999920
0.7990976039946899,1,0.999917
0.9104245202457851,1,0.999828
0.8453348777667564,1,0.999825
0.8921276820012504,0,0.993958
0.8748489867974498,1,0.999917
0.8564068041017012,1,0.999579
0.8949844043724152,1,0.999921
0.8964061800120597,0,0.998856
0.8600743960267689,1,0.999383
0.8215519904093793,1,0.999751
0.8535228505076389,1,0.999924
0.8344122394673895,1,0.999917
0.8785991222400594,1,0.999921
0.889184101094336,1,0.999914
0.8789841971106389,1,0.999833
0.8773988441608914,1,0.999915
0.8653177501205065,1,0.999921
0.7784094255438407,1,0.999663
0.8344984191285955,1,0.999906
0.8855864370404055,1,0.999910
0.845245367194705,1,0.999185
0.9188931228608781,1,0.999828
0.901729902104197,1,0.999176
0.8866931881187426,1,0.999825
0.882156856626586,1,0.999835
0.871605854049099,1,0.999917
0.8700800548976013,1,0.999582
0.8765446377920704,1,0.999834
0.9392189143285569,1,0.999919
0.8892436282936903,1,0.999526
0.8590808695198914,1,0.999911
0.8731991353604678,1,0.999840
0.8859687158624892,1,0.999910
0.8808148914195002,1,0.999838
0.9188352066246982,1,0.999905
0.8372230170509983,1,0.999741
0.8279025834583854,1,0.999915
0.8749637224651997,1,0.999571
0.8563775286442841,1,0.999324
0.841793404926879,1,0.999919
0.8595403585382982,1,0.999917
0.8715829839457926,1,0.999828
0.8815970921180007,0,0.982348
0.8419378904367966,1,0.999919
0.8719379102667592,1,0.999835
0.8540907435775504,1,0.999922
0.8797489230525417,1,0.999928
0.8727398946829953,1,0.999928
0.8448015862344983,1,0.999922
0.8700985691954803,1,0.999914
0.8665618999335302,0,0.998572
0.8619205342680198,1,0.999838
0.8661139195222873,1,0.999927
0.8676468135299366,0,0.997634
0.8896299331618523,1,0.999842
0.9176449722966966,1,0.999916
0.9059340080552563,1,0.999270
0.8369159795920091,1,0.999925
0.8824564529449208,1,0.999851
0.8932978762128893,1,0.999532
0.8410620156850412,1,0.999849
0.8465915696846831,1,0.999674
0.8604787502921223,0,0.990132
0.7872830581522438,0,0.984119
0.9052511156384294,1,0.999841
0.904655869290081,1,0.999622
0.8633948755555378,1,0.999914
0.8181281108735455,1,0.999759
0.8855022683827923,1,0.999756
0.8595496965310621,0,0.995041
0.8332051943084747,1,0.999166
0.8911021737000632,1,0.999926
0.8641542011490146,0,0.997590
0.8045167573588851,1,0.999550
0.776175021958189,1,0.999838
0.8952506077961364,1,0.999847
0.9206600621133835,1,0.999423
0.9095767624324466,1,0.999811
0.8341435817113849,1,0.999834
0.8809986422718847,1,0.999928
0.8569626939643082,1,0.999850
0.845230476299024,1,0.999918
0.8655519395760205,1,0.999766
0.8898767795187638,1,0.999917
0.8310373894924595,1,0.999921
0.9067959237648934,1,0.999922
0.8568916300961079,0,0.999035
0.7841864751360218,0,0.999092
0.8812277291784062,1,0.999917
0.9002799477029712,1,0.999671
0.8761799069486907,1,0.999918
0.8895929523458059,1,0.999838
0.8755889116932044,0,0.998857
0.8959026410898875,1,0.999852
0.8261933090773891,1,0.999851
0.8993535694489906,1,0.999679
0.8250156394767181,1,0.999926
0.8674879691237344,0,0.998952
0.9124024909979934,1,0.999768
0.9041968736573504,0,0.996106
0.9199785780199081,1,0.999916
0.9252648873041777,1,0.999847
0.871091878216665,1,0.999920
0.9010909427257344,1,0.999917
0.8485461369047036,1,0.999839
0.8830442673476804,1,0.999658
0.8746486333003606,1,0.999678
0.8395866492681072,1,0.999637
0.8191445158062869,1,0.999835
0.8668330022594477,1,0.999767
0.7644656530642295,1,0.999777
0.833613511442504,1,0.999928
0.8476516850847187,1,0.999617
0.8304360273064757,1,0.999542
0.8627748508268291,1,0.999922
0.8921205359433816,1,0.999426
0.8525675283784659,0,0.988332
0.8034898547015443,1,0.999914
0.9062673474703177,1,0.999855
0.8786699666908915,1,0.999924
0.82097185978276,0,0.998446
0.8199342818267482,1,0.999313
0.7905076881418351,1,0.999920
0.7563247418198922,1,0.999924
0.9217122630281214,1,0.999915
0.8818286627078515,1,0.999925
0.8584590653287268,1,0.999928
0.8716564303036048,1,0.999921
0.8704728958880911,1,0.999833
0.864660553634008,1,0.999927
0.8773599682267789,1,0.999457
0.822286371743051,1,0.999679
0.8019075341591209,1,0.999850
0.8472955203897972,1,0.999424
0.897508673951871,1,0.999924
0.8934782565497327,1,0.999928
0.8741719791068824,1,0.999822
0.8565978444615613,1,0.999920
0.8817928499315388,1,0.999454
0.8712393959690736,0,0.988078
0.8877950155976774,0,0.984563
0.8238548390017822,1,0.999598
0.8779307589250737,1,0.999540
0.8653019554796452,1,0.999927
0.9206603974302014,1,0.999922
0.8826282127391134,0,0.996607
0.8580109339344348,1,0.999914
0.9248433126799568,1,0.999927
0.9314426857556135,1,0.999210
0.8930765708493628,1,0.999923
0.7752643094942963,0,0.997696
0.878021528458551,1,0.999851
0.9085287557552786,1,0.999847
0.8481377768804473,0,0.995315
0.8372502222102927,1,0.999929
0.8921822891341132,1,0.999666
0.9059178977914,0,0.997821
0.9061181645012862,1,0.999764
0.8731847071015297,1,0.999637
0.8812310939270495,1,0.999926
0.8751237708696146,1,0.999916
0.8625175863740784,1,0.999616
0.8410914665685959,0,0.983940
0.9000736061693688,0,0.998712
0.8282937816566794,1,0.999857
0.867823506456705,1,0.999921
0.8466695600291986,1,0.999918
0.8868925495062234,0,0.998441
0.9142837376073816,1,0.999908
0.9061922148416073,1,0.999921
0.9004530335015501,1,0.999840
0.8939109257395634,1,0.999924
0.8423764759980725,1,0.999914
0.880248758835216,1,0.999768
0.8505557042473926,1,0.999925
0.8065553948735017,1,0.999840
0.7717739297402366,1,0.999855
0.8724234323204761,1,0.999923
0.8531089193289775,1,0.999842
0.8497967310435187,1,0.999923
0.8383846352492799,0,0.997782
0.8453856338948432,1,0.999846
0.9082070444216713,0,0.992581
0.8621218994698854,1,0.999753
0.8447333139866778,0,0.998903
0.8537794369914269,1,0.999450
0.8006986223256258,1,0.999764
0.8694526334184405,1,0.999844
0.8694020788576666,1,0.999920
0.8710178358707565,1,0.999614
0.8966418835949738,1,0.999727
0.8693073029677881,0,0.996580
0.8928453154526977,1,0.999767
0.8575729178958683,1,0.999928
0.8559103343765552,1,0.999919
0.8825232630670989,1,0.999915
0.8295467065354015,1,0.999670
0.8558543544335154,1,0.999922
0.8613708783630647,0,0.987503
0.8818172796593031,1,0.999274
0.7529890723750099,1,0.999764
0.8598769768711733,1,0.999920
0.7788150796337917,1,0.999927
0.8737458085220688,1,0.999690
0.8657536428002218,1,0.999922
0.8737099688956246,1,0.999658
0.8765623649891372,1,0.999609
0.8361376509451045,1,0.999922
0.919439767876409,1,0.999921
0.910100554188461,1,0.999923
0.8731676281567934,1,0.999835
0.8557096522022292,1,0.999924
0.8672270119459775,1,0.999921
0.8603733328292483,1,0.999922
0.9000720263516954,1,0.999779
0.9037890719432924,1,0.999682
0.8757545048708509,1,0.999844
0.9059069125521247,1,0.999540
0.8709202205979345,1,0.999390
0.8734022936524306,1,0.999854
0.9016974367827899,1,0.999916
0.8972733489098282,1,0.999524
0.8501489655337954,1,0.999851
0.8572783903506441,1,0.999751
0.8873555134220166,1,0.999915
0.891384467658948,0,0.995463
0.9014823952144785,1,0.999825
0.8569456376090705,1,0.999912
0.8641592233395889,1,0.999925
0.8938830214575718,1,0.999853
0.8610970509174896,1,0.999826
0.8497996468888591,1,0.999489
0.831319245438448,1,0.999788
0.8712885564389908,1,0.999513
0.8509243008626678,0,0.987168
0.8165647896102305,1,0.999431
0.8404894861806006,1,0.999912
0.8270111525789087,0,0.998428
0.8644133287387561,0,0.999132
0.8125089818613899,0,0.998637
0.8401051633224893,1,0.999832
0.8830963777966602,1,0.999922
0.8003399245549003,1,0.999915
0.87429834840237,1,0.999854
0.8715331405787673,1,0.999917
0.8224465645181719,1,0.999924
0.8522659774693168,1,0.999919
0.9025893503919886,1,0.999916
0.8209227106268697,1,0.999785
0.8481478594455587,1,0.999895
0.8629844664066177,1,0.999922
0.8735578567291116,1,0.999612
0.8867087010468546,1,0.999518
0.8292549047180723,1,0.999686
0.8452653734470413,1,0.999913
0.8635357862387816,1,0.999201
0.8212947995560825,1,0.999922
0.8517788549732984,1,0.999845
0.8854102395914374,1,0.999747
0.8362086379890847,1,0.999674
0.841758761345774,1,0.999924
0.8585263873931789,0,0.979690
0.8706063999107337,1,0.999922
0.892389008699029,1,0.999917
0.8102730894297019,1,0.999922
0.86110168051693,1,0.999917
0.8264537195228092,0,0.998414
0.859529356723575,0,0.999215
0.8400784735563233,1,0.999921
0.8579898076463524,0,0.988919
0.8368438104366078,1,0.999845
0.865176896726578,1,0.999365
0.8661500271501934,1,0.999728
0.8460822546416773,0,0.998076
0.8334528241366719,1,0.999925
0.8750726124496155,1,0.999912
0.824921860353684,1,0.999278
0.8811118726495523,1,0.999766
0.8599161667902471,1,0.999927
0.904700933798185,1,0.999921
0.9606643706255739,1,0.999924
0.8804566273866913,0,0.994705
0.9094259096548785,0,0.999057
0.8338978082730726,1,0.999829
0.9094374507357564,1,0.999512
0.9116320830727241,0,0.998710
0.9043166725276532,1,0.999686
0.852998824235841,1,0.999490
0.867918851281536,1,0.999489
0.8496304935694097,1,0.999602
0.8725070921404826,0,0.995027
0.8653555722291859,0,0.987521
0.8768212787092078,1,0.999497
0.8784842163992581,1,0.999927
0.8371854445739622,1,0.999659
0.8994146815990065,1,0.999922
0.9142343269906746,1,0.999915
0.9050247100960908,1,0.999819
0.903339908817606,0,0.998416
0.9150993361396962,1,0.999920
0.8773847856880863,1,0.999916
0.9151173608313566,1,0.999760
0.8257384277425416,0,0.975391
0.8191886222050184,0,0.998964
0.801332496203107,1,0.999242
0.8592727245967118,1,0.999684
0.8808274509837831,1,0.999922
0.7703269640581759,1,0.999695
0.9112119061740164,1,0.999844
0.8756935168472091,0,0.999023
0.8506748770233233,1,0.999408
0.8519974831402629,1,0.999672
0.8310506417535121,0,0.997456
0.8518925980698587,1,0.999591
0.8470049718877226,1,0.999919
0.8668410808594926,1,0.999844
0.8474543724608096,1,0.999929
0.8693634442442699,1,0.999840
0.8668824323862448,1,0.999918
0.8848661617571321,1,0.999924
0.7998964742930356,1,0.999918
0.8712180602300684,1,0.999846
0.8880490973631184,1,0.999922
0.9061250475590944,1,0.999844
0.877476981976262,1,0.999529
0.8613463586457056,1,0.999923
0.8795888324102197,1,0.999919
0.8917665287660533,1,0.999921
0.877198006055617,1,0.999852
0.8564102481726442,0,0.971637
0.8625171202498466,1,0.999926
0.8954497224483144,1,0.999916
0.8603935120166364,1,0.999605
0.8997481200994244,0,0.995460
0.8804411156618552,1,0.999318
0.8559524902153683,1,0.999691
0.9027402265304482,1,0.999919
0.8265950011769005,1,0.999476
0.8956592729262319,1,0.999915
0.8662594636387695,1,0.999919
0.8870111438243026,1,0.999825
0.8849089739705983,1,0.999658
0.8510487365353694,1,0.999917
0.8632212807646944,1,0.999841
0.8524256485699797,1,0.999916
0.8056009026434218,1,0.999762
0.85229609469733,1,0.999476
0.8851386258036072,1,0.999918
0.8725600720373659,1,0.999482
0.8700350568783194,0,0.997791
0.8989386489970584,1,0.999519
0.8517514356780559,0,0.997761
0.8876240910631852,1,0.999280
0.8666151170980614,0,0.997947
0.8290368371672779,1,0.999928
0.8967670940694279,1,0.999925
0.7743521349394866,1,0.999848
0.8650811954011484,1,0.999920
0.8536851199801834,1,0.999338
0.8538474091622874,1,0.999925
0.8300362652936104,0,0.984632
0.8391366128419494,0,0.998709
0.8811132525159769,1,0.999923
0.8893811398997866,1,0.999575
0.8505486347784142,1,0.999694
0.9125071264895711,1,0.999367
0.803418292512404,1,0.999923
0.8729868373678277,1,0.999642
0.8544438176812056,1,0.999713
0.8219406344371922,1,0.999848
0.8031155980103204,0,0.998913
0.8438092395522762,0,0.996478
0.8421488616822599,1,0.999925
0.8430412405427069,1,0.999712
0.8522288816682261,1,0.999751
0.8676780016285589,1,0.999511
0.8887307053268031,1,0.999555
0.8563192313961613,1,0.999926
0.8834336847379882,1,0.999924
0.8372705562571882,1,0.999848
0.8882571935416002,1,0.999843
0.8413173013219725,1,0.999915
0.8425169836217167,1,0.999843
0.8577966337446212,1,0.999846
0.8631272810132689,1,0.999619
0.9172154435842331,1,0.999461
0.8458130614796765,1,0.999926
0.856227500426231,1,0.999771
0.905991119449616,1,0.999515
0.8360997352863049,1,0.999860
0.8673401125971665,1,0.999919
0.9137116825666577,1,0.999931
0.835447021540802,1,0.999901
0.894086133944517,1,0.999917
0.9194741507669533,1,0.999539
0.902393465069063,1,0.999921
0.8825211939322106,1,0.999786
0.8287309380503215,1,0.999785
0.8771287556590691,0,0.997164
0.8287372393746673,1,0.999920
0.8954430958782413,1,0.999917
0.8426876727870249,1,0.999757
0.8542450686032201,1,0.999789
0.9182938411139935,1,0.999718
0.8628567964845771,0,0.997884
0.9044278992773492,1,0.999916
0.8321384210311448,0,0.998432
0.8568625137622864,1,0.999919
0.9085255249215055,1,0.999342
0.9008281559372484,1,0.999926
0.9096816168036699,1,0.999854
0.8828532543008248,1,0.999927
0.8891549634370182,1,0.999926
0.8717972697519867,1,0.999839
0.8572895269421709,1,0.999920
0.8633931591444601,1,0.999915
0.8481696806939442,1,0.999918
0.8707629007291787,1,0.999922
0.8726056261856957,1,0.999446
0.8648219018815138,1,0.999854
0.8629257832021245,1,0.999909
0.8572422506564729,1,0.999638
0.9151253096894693,1,0.999925
0.8432183467780043,1,0.999390
0.890084934615085,1,0.999612
0.8322384902944925,1,0.999919
0.861196780682222,1,0.999557
0.860975216320433,1,0.999842
0.7000389052957066,1,0.999677
0.841590995840948,1,0.999750
0.8057164524347381,1,0.999778
0.8572729018032827,1,0.999921
0.8318625319780178,1,0.999276
0.8625165391245434,1,0.999826
0.8817915340746456,0,0.999067
0.8325192501069211,0,0.999196
0.9008264702038673,1,0.999921
0.8357132714238409,1,0.999843
0.884176005744615,1,0.999916
0.8841227191318634,1,0.999705
0.8815965620161805,1,0.999760
0.8643788726975262,1,0.999746
0.8602321032369769,1,0.999596
0.8556729269930892,1,0.999927
0.8597008120833115,1,0.999853
0.8636697081888587,1,0.999835
0.8889116030545927,1,0.999918
0.8781063447122345,1,0.999382
0.8883381314471287,1,0.999785
0.8781666341659022,0,0.994341
0.8497953295927162,1,0.999220
0.9225976514366123,1,0.999921
0.8147831017399464,0,0.998387
0.8219537793627474,1,0.999854
0.8369213924092005,1,0.999464
0.8584954391523381,1,0.999843
0.8750556342809062,1,0.999686
0.8074200162404629,1,0.999834
0.9012036836289397,1,0.999849
0.8864584981941126,0,0.998319
0.8287573356391555,1,0.999720
0.8991712168804784,1,0.999909
0.8659958614715004,1,0.999570
0.8467963622149157,1,0.999916
0.7379420353599284,1,0.999919
0.8126394184201318,1,0.999918
0.8928954623916526,1,0.999907
0.895948030559937,1,0.999518
0.886799837245462,1,0.999916
0.876460224024905,0,0.998996
0.9090373963923053,1,0.999917
0.8683099682215408,1,0.999918
0.9225278325681303,1,0.999915
0.8283258044352185,1,0.999923
0.9116312054417197,1,0.999567
0.8782552001710247,1,0.999921
0.9269030204288558,1,0.999922
0.8878027237419219,1,0.999914
0.8437676802705562,1,0.999917
0.8401453056152496,1,0.999837
0.9092157265552806,1,0.999917
0.8695986427780837,1,0.999587
0.8606196089011879,1,0.999843
0.81881518910833,1,0.999913
0.7973648041860764,0,0.999016
0.8536941558444023,1,0.999919
0.9073752539142218,1,0.999838
0.9015318101516565,1,0.999515
0.9137732325975595,1,0.999681
0.9214049613690649,1,0.999913
0.8872019158387856,1,0.999919
0.9188916547409846,1,0.999921
0.9338639777369354,1,0.999659
0.929713140712225,1,0.999918
0.8607118504717026,1,0.999926
0.8635295871086724,1,0.999754
0.9087420601412423,1,0.999676
0.9162493433938467,1,0.999614
0.8268192865354255,1,0.999925
0.8534873667473412,1,0.999783
0.8665510996943908,1,0.999924
0.8704478988509979,1,0.999837
0.8933311327101524,1,0.999923
0.8617637591724251,1,0.999928
0.8561502927143124,1,0.999480
0.8266914956220945,0,0.995163
0.8827356323542933,1,0.999314
0.8708884297075398,1,0.999836
0.8467044006466353,1,0.999926
0.8951709172352527,1,0.999548
0.8978327112818538,0,0.997047
0.9157383775010589,1,0.999920
0.8961566324115582,1,0.999919
0.8776320010924111,1,0.999923
0.8794027550815507,1,0.999847
0.8918241722315235,1,0.999919
0.8735369021622187,0,0.999176
0.8698067727755721,1,0.999924
0.9161614434442275,1,0.999848
0.8499004259538491,1,0.999461
0.8149851902350205,1,0.999924
0.8477603771828,0,0.996579
0.7876234261842742,1,0.999297
0.8866588110952429,1,0.999914
0.8405897079389919,1,0.999354
0.8602576043953037,1,0.999785
0.850626822154038,1,0.999762
0.8640244234645217,1,0.999850
0.8200372091203908,1,0.999923
0.8890394814898939,1,0.999692
0.893825568706628,0,0.998784
0.8980153267193272,1,0.999474
0.886983998603282,1,0.999563
0.9116236529520946,1,0.999916
0.8364730142275048,1,0.999753
0.8850610575063077,1,0.999561
0.8635538955952752,0,0.998022
0.9170567230415388,1,0.999842
0.9092478298727633,0,0.997278
0.911108958181445,1,0.999923
0.9154151248045335,1,0.999843
0.90702604766248,1,0.999422
0.8765763307499754,1,0.999831
0.9013522863959891,1,0.999915
0.9301594094482032,1,0.999832
0.873012196489478,1,0.999550
0.8949294678722973,1,0.999663
0.8775686496503107,1,0.999331
0.8784044310249396,1,0.999738
0.8584298998589446,0,0.998088
0.8310577721460198,1,0.999927
0.9015976162875474,1,0.999914
0.8827964290593833,1,0.999755
0.8743521658323187,1,0.999923
0.8874873712183448,1,0.999691
0.8764740518388945,1,0.999533
0.9051793143071865,1,0.999841
0.8942509770399615,1,0.999763
0.8643923617345337,0,0.994902
0.8613797711212936,1,0.999921
0.8604496197535257,1,0.999924
0.7996528824492473,1,0.999394
0.8011809030732621,1,0.999926
0.8910756957378406,1,0.999921
0.842041610931878,0,0.936272
0.8710537653300929,1,0.999410
0.8255726351102617,1,0.999914
0.9108111122968,1,0.999837
0.9065980257785433,1,0.999324
0.8640505672664969,1,0.999222
0.8503102578964152,1,0.999443
0.8731830540046402,1,0.999425
0.8603666088285897,1,0.999779
0.8755235723762602,1,0.999240
0.8860038603111938,1,0.999926
0.903968716812535,1,0.999920
0.9031969706497258,1,0.999837
0.8169401461042352,1,0.999756
0.8966837615553978,1,0.999691
0.8503123429935028,1,0.999834
0.792553872125064,1,0.999850
0.841450527320077,1,0.999682
0.8542637675706652,0,0.999079
0.8335689781842381,1,0.999839
0.8425868792494388,0,0.998096
0.8552811219598297,0,0.999107
0.8572733592000276,1,0.999919
0.8567146943803727,1,0.999912
0.8595035211746297,1,0.999920
0.922228343987913,1,0.999455
0.9017362749914837,1,0.999913
0.8821271167127903,1,0.999582
0.8658795366897085,1,0.999916
0.9039999960496323,0,0.992699
0.8658961713325027,1,0.999758
0.8971513570451238,1,0.999907
0.9129913198180286,0,0.998646
0.8959819626334607,1,0.999603
0.8187315693629289,1,0.999918
0.8907785672946507,1,0.999537
0.9139956666623447,0,0.997406
0.8807688503052005,1,0.999827
0.9045678776680545,1,0.999267
0.9125812866738047,1,0.999831
0.8855917293059505,0,0.993003
0.9226245179263084,1,0.999580
0.8987046466948756,1,0.999842
0.918280331940308,1,0.999916
0.9025733681406649,1,0.999917
0.9109371903094459,1,0.999916
0.8870607522435681,1,0.999920
0.9275789180271569,1,0.999629
0.9134193859494737,1,0.999914
0.92906445493946,0,0.998672
0.8857062330804778,0,0.989819
0.8688822308059914,1,0.999925
0.859428145437921,1,0.999929
0.9169751343743389,1,0.999821
0.883425699596672,1,0.999921
0.892578592838941,1,0.999742
0.8709947242977332,1,0.999927
0.8817284120137073,1,0.999691
0.8373235182287477,1,0.999920
0.910520483472583,1,0.999319
0.8847692941142519,1,0.999683
0.8955398636483666,1,0.999923
0.842065872602818,1,0.999611
0.8838086506141913,1,0.999821
0.8256546208531653,0,0.998394
0.899614917244022,1,0.999919
0.9183722613476787,0,0.982701
0.9249556804207091,0,0.997186
0.9210391764564723,1,0.999927
0.9010715430989901,1,0.999917
0.9124591158917557,1,0.999670
0.8693751417364649,1,0.999919
0.9178084876380551,0,0.981612
0.9292884702820707,1,0.999323
0.8954214909131112,1,0.999737
0.9094765257998745,1,0.999904
0.8933506540415239,1,0.999646
0.9328204889653041,1,0.999826
0.9143722027048713,1,0.999913
0.8195535819304922,1,0.999555
0.8886080878010534,1,0.999919
0.7882210657026103,1,0.999855
0.7797524458312057,1,0.999856
0.8147457280222614,1,0.999927
0.7972785363385788,1,0.999703
0.8589696349047762,1,0.999850
0.8323684187892592,1,0.999919
0.7713966753746405,1,0.999917
0.7867805627011127,1,0.999767
0.8193326515212633,1,0.999706
0.77575865517459,1,0.999363
0.8433931165329841,1,0.999853
0.8931744184599706,1,0.999521
0.8594143851983623,1,0.999843
0.8665742622817562,1,0.999167
0.8481971001030062,1,0.999486
0.8119111082917815,1,0.999690
0.9008389396595071,1,0.999917
0.9019605240144191,1,0.999844
0.8720843522703398,1,0.999367
0.8804050373332188,1,0.999923
0.9056649698119057,1,0.999771
0.9259859141168166,1,0.999919
0.8836016709687197,1,0.999766
0.9117600855532612,1,0.999904
0.841982465431729,1,0.999603
0.806558975946791,1,0.999607
0.8981486454054186,1,0.999927
0.8627940141347658,1,0.999836
0.8800204727951602,1,0.999668
0.7936670493982148,1,0.999921
0.8719049056651887,1,0.999920
0.7852616907477603,1,0.999928
0.8744204687428577,1,0.999391
0.820472737464831,1,0.999920
0.8650581394462975,1,0.999926
0.8204863583973816,1,0.999759
0.8219850419391433,0,0.994272
0.808006823143688,1,0.999928
0.8430547072432252,0,0.998674
0.8841144833255666,1,0.999772
0.8842410317288184,0,0.999159
0.8080753098491479,1,0.999678
0.8687671050043354,1,0.999928
0.8812309573936662,0,0.998061
0.8878788378581122,1,0.999847
0.8440658447040414,0,0.998321
0.8807430985864345,1,0.999920
0.8866574273284461,1,0.999490
0.8622218766744069,1,0.999523
0.8610786643742265,1,0.999675
0.8284548085387601,1,0.999493
0.8318422806117622,1,0.999922
0.826783092758566,1,0.999846
0.845055576593191,0,0.997779
0.8530291770198279,1,0.999912
0.7965569963876187,1,0.999409
0.8121988650118681,1,0.999752
0.8799931610486447,1,0.999676
0.8261227886689593,0,0.987442
0.776951725491609,0,0.996180
0.7587449079806934,0,0.997704
0.8049145449696979,1,0.999548
0.7760496449574236,1,0.999751
0.8644088074171695,1,0.999823
0.8631066119941507,1,0.999601
0.8676192168109019,1,0.999921
0.8506840734069125,1,0.999303
0.9140750123927004,1,0.999486
0.846036438903946,1,0.999848
0.8857270944733325,1,0.999921
0.9191979918644576,0,0.994997
0.9070743169772172,1,0.999918
0.9384960851929428,1,0.999839
0.8842447999858284,0,0.997470
0.8855598787923387,1,0.999576
0.8347059503869891,1,0.999762
0.938530481685948,1,0.999925
0.8855308266026787,1,0.999923
0.8977391584575926,1,0.999916
0.8840042380533685,0,0.999006
0.9101681938190813,1,0.999915
0.9078127418067633,1,0.999930
0.8522581222771898,1,0.999692
0.8824003367679133,1,0.999847
0.913412770697028,1,0.999925
0.9260509546778883,1,0.999916
0.8589843955641469,1,0.999923
0.9085216094139746,1,0.999913
0.8446463487066946,0,0.991564
0.8826001319214662,1,0.999488
0.9103441288366352,1,0.999559
0.928066745174425,1,0.999924
0.8653916405912545,1,0.999918
0.9077364013252541,1,0.999922
0.9052204870483904,1,0.999926
0.9156944402950339,1,0.999919
0.8904113583461976,1,0.999839
0.9145969177123372,1,0.999417
0.8611741508174346,1,0.999926
0.892443091740138,1,0.999923
0.8385521309780877,0,0.997638
0.9134659712176333,1,0.999404
0.837261001512426,1,0.999806
0.8118838464045742,1,0.999926
0.754945220918855,1,0.999918
0.8757898586511257,1,0.999921
0.85686756121867,1,0.999922
0.7898420464627315,1,0.999831
0.8842486146856292,1,0.999905
0.8376098538575902,1,0.999846
0.9219856376119333,1,0.999924
0.893298474147682,0,0.998349
0.8766766625286813,1,0.999285
0.8223315079155976,1,0.999490
0.8365077119518431,1,0.999924
0.8833886426359069,1,0.999640
0.9006478305281421,1,0.999922
0.8581229600294157,1,0.999849
0.8791567997393672,0,0.995189
0.8872686573217972,1,0.999760
0.8943752091260496,1,0.999925
0.7880273223398947,1,0.999755
0.8328095186302252,1,0.999423
0.9262335023010596,1,0.999705
0.9136570534247074,0,0.998776
0.8918082157656324,1,0.999831
0.8911890475686157,1,0.999931
0.8520575261345359,1,0.999923
0.8942416367369681,1,0.999922
0.903485919727377,1,0.999928
0.8900502252818832,1,0.999928
0.8524558442393265,1,0.999927
0.8379959728025941,1,0.999924
0.8887574263989892,1,0.999912
0.8539148803294985,1,0.999579
0.8560190766099741,1,0.999915
0.8306732694678666,1,0.999917
0.8720292370000395,1,0.999293
0.8616081651275135,1,0.999917
0.8424159908809267,1,0.999841
0.8756066240219778,1,0.999510
0.9341260233249732,0,0.998570
0.9023807881171068,1,0.999767
0.8264781210334866,1,0.999746
0.8949214307349411,1,0.999522
0.8917468946145761,1,0.999920
0.8845815585979329,1,0.999835
0.8388047156176512,0,0.991841
0.7964035669948721,0,0.995217
0.8325103307154608,1,0.999837
0.8528553082493536,1,0.999160
0.8702546807493916,0,0.998589
0.876667278155892,1,0.999510
0.8827163843366042,1,0.999832
0.837968669258687,1,0.999847
0.8414606088595261,1,0.999856
0.8779542646931778,1,0.999924
0.8618593849477827,1,0.999925
0.8826084463274738,1,0.999688
0.8535735365469312,1,0.999918
0.8651078664622026,1,0.999852
0.8974999342762645,1,0.999920
0.9190496722558236,1,0.999834
0.8267282431504519,1,0.999293
0.8560257226013217,1,0.999840
0.9015635705656156,1,0.999915
0.8383088832342179,1,0.999838
0.8836708414561566,1,0.999844
0.9119016051732503,1,0.999921
0.8463862107892981,1,0.999690
0.9111036281904547,1,0.999923
0.8801897478536207,1,0.999923
0.8943887210021453,0,0.998485
0.8818707545100091,0,0.994025
0.9072435928454365,1,0.999919
0.8729874719861781,1,0.999301
0.8682351100310766,1,0.999929
0.8372047537457836,1,0.999388
0.8163394522407651,1,0.999343
0.8913409088364069,1,0.999615
0.8765358157080286,0,0.986321
0.8646839959811883,1,0.999921
0.8977522153641068,1,0.999838
0.8684505069669676,1,0.999850
0.8545512504009605,0,0.998723
0.8085342613447972,0,0.999128
0.9116246445257138,1,0.999846
0.8215723044261289,1,0.999593
0.8118981065592062,1,0.999917
0.8408027946997116,1,0.999524
0.8347469139937898,1,0.999914
0.8161514406676564,1,0.999759
0.8286375241350287,0,0.998049
0.8027663341105331,1,0.999916
0.8855393320363005,1,0.999761
0.8787943868607135,0,0.998948
0.889134332835387,1,0.999769
0.8641122455073587,1,0.999458
0.8246086532342406,1,0.999920
0.874783294658286,1,0.999606
0.9099446074710169,0,0.997896
0.8693056874046006,1,0.999449
0.846862847925309,1,0.999686
0.856609569392657,0,0.994726
0.8410029061618634,1,0.999919
0.8567817891703544,0,0.999052
0.7832708546558007,1,0.999927
0.8120173128439124,1,0.999841
0.878979612863757,1,0.999486
0.8464676303204014,0,0.991513
0.8456218340435436,1,0.999613
0.8945008599453387,1,0.999853
0.8945675109972306,1,0.999927
0.861405248881477,1,0.999751
0.8427697422071356,1,0.999912
0.8862664879805904,1,0.999921
0.8833198377464618,1,0.999927
0.8634262269335533,0,0.995189
0.9061147737311641,1,0.999702
0.8763722079331264,1,0.999324
0.8874329521492785,1,0.999925
0.908486380178332,1,0.999927
0.9109921368174834,1,0.999853
0.8629821736307187,1,0.999831
0.7937553911368407,1,0.999922
0.8647928416384422,0,0.999082
0.8783424269413553,1,0.999852
0.9027831999543459,1,0.999925
0.8827554951413173,1,0.999510
0.8232432989343245,0,0.998894
0.8198960051628158,0,0.998866
0.8022004529442992,1,0.999927
0.8584252621126818,0,0.999030
0.8198588222783257,1,0.999929
0.8608888586553516,0,0.996425
0.8256083684330993,1,0.999925
0.8113280869267794,1,0.999929
0.873904869683575,0,0.982969
0.8446433206179296,1,0.999922
0.8757845667542837,1,0.999846
0.8303934840219027,1,0.999687
0.8720889885353327,1,0.999925
0.8812137200129845,1,0.999847
0.8898139855989686,1,0.999861
0.8217873855440203,1,0.999270
0.9045539117730598,1,0.999922
0.8484872597823079,1,0.999765
0.8396865187777313,0,0.996336
0.8482213190015578,1,0.999649
0.8315205460350618,1,0.999850
0.8099397150241731,1,0.999404
0.8696235279747958,1,0.999853
0.8391166721372876,0,0.997552
0.8268339469183725,1,0.999319
0.8653247757168698,1,0.999777
0.8635061220521636,1,0.999840
0.8170177238557637,1,0.999496
0.8675983041579707,1,0.999844
0.8334948536615757,1,0.999927
0.8131550998552854,1,0.999926
0.8119363504406375,1,0.999926
0.7976392809244888,1,0.999783
0.864813762124142,1,0.999924
0.8217354896844571,1,0.999780
0.9101292084214009,1,0.999927
0.8167080596142969,1,0.999709
0.8757255786654895,0,0.996393
0.8569140756193415,0,0.998602
0.8901884601607061,1,0.999927
0.8520474865938116,1,0.999241
0.8596423267072234,1,0.999711
0.8752292373085456,0,0.982230
0.8052124001865475,1,0.999772
0.9053109987100785,1,0.999914
0.8885580113859705,1,0.999919
0.9066522172487285,0,0.996165
0.8778850484266638,1,0.999841
0.8295068558382694,1,0.999919
0.9006200156599734,1,0.999839
0.8940595234203051,1,0.999758
0.8771400713801903,1,0.999844
0.8867918238476341,0,0.998858
0.841782582578545,1,0.999927
0.8303209099436343,0,0.998653
0.9169076352999429,0,0.967915
0.8426711434656532,1,0.999781
0.8423533881053368,1,0.999835
0.8537039527395035,1,0.999322
0.8951574480365057,1,0.999913
0.862018609286055,1,0.999488
0.8468864851971964,1,0.999039
0.8705291535450191,1,0.999834
0.8855717037313392,0,0.978971
0.8713638328356692,0,0.991665
0.8349421696506775,1,0.999525
0.8255693331697446,1,0.999927
0.7738954389973268,0,0.994902
0.8088898011421792,0,0.998575
0.8499069616985319,1,0.999920
0.9463849106645642,1,0.999925
0.8947186948535879,1,0.999921
0.8802566816976923,1,0.999846
0.7837375033034435,1,0.999915
0.7835518798790689,1,0.999919
0.875551572549934,1,0.999623
0.8911361254164044,1,0.999924
0.8062797367272379,0,0.996258
0.8508198253650193,1,0.999826
0.8921532212072703,1,0.999836
0.820810365500169,1,0.999845
0.8032724548934921,1,0.999909
0.7796450517822238,1,0.999917
0.755910105729773,1,0.999920
0.8335428230623858,1,0.999920
0.8850925568373282,1,0.999923
0.7869832128098321,1,0.999721
0.885239797034854,1,0.999847
0.8783865560281714,1,0.999611
0.8505105058684496,1,0.999852
0.8900097519575145,1,0.999829
0.8132009547166189,0,0.997803
0.7898327902739415,1,0.999920
0.8776566023640133,1,0.999456
0.89530348732829,1,0.999916
0.8870642941905859,0,0.997729
0.9011088974717397,1,0.999921
0.7789730326032017,0,0.997556
0.8157909305030442,1,0.999848
0.869828283196771,0,0.998968
0.8852388349797217,0,0.965487
0.8804499893351039,0,0.999063
0.8852884104374238,1,0.999914
0.7667904482492218,1,0.999931
0.8384829745511709,1,0.999501
0.8391528840954319,0,0.978108
0.8154486914567535,1,0.999614
0.8571661271880775,0,0.998773
0.8559037430186894,0,0.988648
0.8742758219961706,1,0.999676
0.9271742545455016,1,0.999921
0.8686472069768629,1,0.999916
0.8828847974537628,1,0.999611
0.8930521212387063,1,0.999917
0.906211624389994,1,0.999924
0.8109171249939227,0,0.997659
0.867600815851938,1,0.999846
0.899727086701572,0,0.998335
0.8831647857717374,1,0.999854
0.8779591085947798,1,0.999825
0.8673403090084791,1,0.999919
0.869678897406309,1,0.999923
0.904424881996874,1,0.999914
0.8666985800952145,1,0.999776
0.8392426096125364,1,0.999909
0.8634297440910608,1,0.999923
0.8648580357067646,1,0.999913
0.8707585829969673,1,0.999922
0.8526865342239186,1,0.999854
0.8052387200045319,1,0.999485
0.9069702417552462,1,0.999917
0.8874339291113246,1,0.999513
0.8698875844381809,1,0.999924
0.9130648678296104,1,0.999919
0.9095564541436328,1,0.999396
0.896383047516782,1,0.999919
0.8802241610702561,1,0.999922
0.906802752590599,1,0.999917
0.8601287453650931,1,0.999919
0.9056455608503327,1,0.999775
0.8737668207698226,1,0.999919
0.8790058342519056,1,0.999763
0.8693210528695837,1,0.999919
0.92207494575126,1,0.999759
0.845638673905372,0,0.994548
0.844341003402516,1,0.999910
0.8364202747477555,1,0.999910
0.8512765918818004,1,0.999921
0.8721034921686068,0,0.999122
0.8796054522465976,1,0.999920
0.8657891184246472,0,0.999099
0.8600149941334736,0,0.996690
0.8770124541009757,1,0.999776
0.8808145746669417,1,0.999926
0.8810579805780057,1,0.999930
0.8740105812622984,1,0.999928
0.8687535522020471,1,0.999839
0.8590642356240801,1,0.999920
0.9087749779558362,1,0.999481
0.8634324639295802,1,0.999454
0.9200057081995634,1,0.999574
0.8524245642063543,1,0.999604
0.9217818858670715,1,0.999257
0.8942845835174934,1,0.999750
0.8748042285329318,1,0.999927
0.886385289975983,1,0.999662
0.8906095081003006,1,0.999918
0.8887324308121156,1,0.999835
0.865812903098404,1,0.999928
0.8910235871488502,1,0.999372
0.8554159881286326,1,0.999921
0.8006912994488565,1,0.999517
0.8873936548769259,1,0.999687
0.8744393363697207,1,0.999917
0.8606791376094846,1,0.999444
0.829775957393637,1,0.999921
0.8458447206209371,1,0.999837
0.7885403709694879,1,0.999606
0.853180198092881,1,0.999925
0.8968784048669215,1,0.999919
0.8556871713271563,1,0.999923
0.8468758710258615,1,0.999854
0.7585037335071422,0,0.998819
0.9224193860454315,1,0.999920
0.8589054254576042,1,0.999512
0.8741800697099532,1,0.999924
0.8444398202805492,1,0.999923
0.8656755863819907,1,0.999739
0.7833358103975521,1,0.999919
0.9153344098231982,1,0.999916
0.9194714362163124,0,0.996285
0.9049302353318787,1,0.999784
0.8556038176611499,1,0.999910
0.834735811047361,1,0.999856
0.8063367755689657,1,0.999918
0.8559986967037603,1,0.999929
0.8347108836184128,1,0.999920
0.8821489733372057,1,0.999567
0.8281383798072243,1,0.999918
0.8931270829026686,0,0.998815
0.8850461867545343,1,0.999920
0.873927484374388,1,0.999920
0.9071574576681637,1,0.999608
0.8142866740861113,1,0.999784
0.8910979264033732,1,0.999820
0.897263399615277,1,0.999922
0.8497711310460203,1,0.999769
0.8515656133865309,1,0.999767
0.8592192105468429,0,0.998657
0.8234984761362129,1,0.999928
0.910709691430036,1,0.999630
0.8716980423793541,1,0.999918
0.8867795045054273,1,0.999851
0.8540752330656763,1,0.999860
0.8363260803155118,1,0.999703
0.8456753099147529,1,0.999700
0.8581068036844481,1,0.999538
0.8416635490695089,1,0.999919
0.8088238064284285,1,0.999922
0.8993545159757816,1,0.999927
0.8440218965384617,1,0.999775
0.9090564733362235,1,0.999827
0.8782942561581442,1,0.999565
0.8361588481105171,1,0.999443
0.8610661166371105,1,0.999928
0.8532259144299691,1,0.999925
0.9201738258453248,1,0.999855
0.7865338453243117,0,0.996524
0.8099681146315507,1,0.999927
0.9029136730149837,1,0.999922
0.8853411941028498,1,0.999742
0.8607211764641957,1,0.999389
0.872032346170882,1,0.999704
0.893877765534274,1,0.999820
0.8822638674768024,1,0.999921
0.8793486440519787,1,0.999638
0.8194706588012549,1,0.999927
0.8947095326151523,1,0.999638
0.8710137033052975,1,0.999921
0.8760741304676994,1,0.999925
0.8912652402649142,1,0.999846
0.8830125246726348,1,0.999840
0.876807686386904,1,0.999854
0.8532285968292354,1,0.999923
0.8860953420498605,1,0.999916
0.8424140075926202,0,0.986697
0.8950214589297469,0,0.999025
0.895710457945414,1,0.999925
0.8819853323575969,1,0.999829
0.9286741861198421,1,0.999925
0.884665611688864,1,0.999267
0.9037117407080854,1,0.999910
0.8850894978659769,0,0.996452
0.8891659909029671,1,0.999757
0.8064666609901471,1,0.999527
0.9030815376588797,0,0.999086
0.8564775523208781,0,0.996827
0.8795734064055875,1,0.999429
0.8810320543712387,1,0.999924
0.8471052688471975,1,0.999919
0.8457950887281201,1,0.999920
0.8635391402744854,1,0.999771
0.8737648964020337,1,0.999450
0.853666040358132,1,0.999848
0.8717093651193879,1,0.999757
0.7907496826159245,1,0.999513
0.8987650177670161,1,0.999911
0.8825216762987722,1,0.999737
0.8258646831661486,1,0.999378
0.844473123947779,1,0.999837
0.8490579704583303,1,0.999849
0.8712277165141148,1,0.999924
0.8513807820822986,0,0.999096
0.8179843721443806,1,0.999919
0.7974752470020774,1,0.999918
0.8049588173302128,1,0.999921
0.8460559642192537,1,0.999851
0.8643503885311317,1,0.999911
0.8643752711584431,1,0.999925
0.8157076931468892,1,0.999773
0.8116861788092443,1,0.999414
0.8590540267909073,1,0.999922
0.8936587575940559,1,0.999917
0.9003815527400623,1,0.999847
0.8098662640805163,1,0.999615
0.875883682696252,1,0.999774
0.8433525287747929,1,0.999917
0.8983401829856889,1,0.999428
0.890715064986174,1,0.999851
0.9212581726309959,1,0.999825
0.9599208346372359,1,0.999386
0.9003498425719944,1,0.999830
0.924422703298818,1,0.999735
0.8237515037550304,1,0.999847
0.8578454432464573,1,0.999918
0.8959962591006132,1,0.999915
0.8461476345495055,1,0.999844
0.850523648922223,1,0.999923
0.8571298767376326,1,0.999757
0.8750012964946117,1,0.999919
0.8488873796850784,1,0.999830
0.8467866079312892,1,0.999836
0.8747792327308962,1,0.999605
0.852575660433954,1,0.999300
0.8980219107410652,1,0.999919
0.8963635212333458,1,0.999850
0.9139148694242861,1,0.999399
0.8741715686549486,1,0.999928
0.8848326248944423,0,0.999090
0.8256324877040867,1,0.999854
0.8481305218896683,1,0.999921
0.8282903386131282,1,0.999593
0.877727214490277,1,0.999929
0.8858053500114006,1,0.999611
0.8718911838370595,1,0.999923
0.8822227732390758,0,0.998851
0.9026575301614163,0,0.998962
0.9002812709262514,1,0.999330
0.8892624013331185,0,0.987860
0.9073670509561511,0,0.998576
0.8860769687232514,0,0.998881
0.7752288384377275,1,0.999454
0.8739122721706304,0,0.998890
0.8790315118564251,1,0.999777
0.9266073311084667,0,0.997825
0.8909490847925354,1,0.999659
0.8960566339731092,1,0.999927
0.8923671196796528,1,0.999911
0.9079262395716703,1,0.999918
0.8950235863456087,1,0.999565
0.9120684147759819,1,0.999926
0.8762700964480248,1,0.999923
0.8552995500802221,1,0.999401
0.8819073469643973,1,0.999638
0.9022525686838726,0,0.998953
0.8673068904213952,1,0.999531
0.8727454635048926,1,0.999929
0.910699927846796,1,0.999837
0.9208472859334509,0,0.998774
0.8593183527032743,1,0.999830
0.9053255366820074,1,0.999764
0.888726160143216,1,0.999917
0.9254142381297299,1,0.999317
0.8187414746710523,1,0.999279
0.911007583815358,1,0.999927
0.906834272238206,1,0.999553
0.9052541837197106,1,0.999928
0.9056717969228459,1,0.999921
0.8752899159514779,1,0.999389
0.8931303603738819,1,0.999919
0.8848256859796402,1,0.999343
0.8529147302213566,1,0.999924
0.9007805475557216,1,0.999918
0.8930633715954764,1,0.999841
0.8911928872926226,1,0.999760
0.9174136945209995,0,0.998681
0.903422425735933,1,0.999925
0.9256538323085188,1,0.999745
0.90267500111952,1,0.999926
0.9326840488491615,1,0.999921
0.8812366283744526,1,0.999841
0.8918388579756127,0,0.999051
0.905947899916046,0,0.996520
0.8123542458332599,1,0.999925
0.844761393605067,1,0.999927
0.8143166310252612,1,0.999924
0.851971387009272,1,0.999833
0.8757464012078715,1,0.999924
0.862980638839596,0,0.994986
0.8752184932913402,1,0.999339
0.8321128382410242,1,0.999919
0.7934271850376127,0,0.998972
0.8886557488773849,0,0.998584
0.7941960547393259,1,0.999841
0.8134186213029883,1,0.999735
0.8076912780024788,1,0.999918
0.8471426144173565,1,0.999926
0.8484816896031693,0,0.999024
0.8079840834388003,1,0.999919
0.7048015870844805,1,0.999926
0.8519337926588822,1,0.999688
0.8247714032282119,1,0.999532
0.8676684892892113,1,0.999928
0.8156350107599329,1,0.999916
0.8061833206446233,0,0.998761
0.8548946358745194,1,0.999911
0.8807261753792545,1,0.999846
0.8721663892567665,1,0.999837
0.8392529561338332,1,0.999175
0.8217041921238643,1,0.999854
0.7791613416481558,1,0.999842
0.8747070759860277,1,0.999920
0.8485831649891398,1,0.999337
0.8621628581742514,1,0.999918
0.8214753633663736,1,0.999841
0.8013694617276823,1,0.999917
0.8163455508998189,1,0.999758
0.8614877964221678,1,0.999451
0.888161008495889,1,0.999765
0.8532002646551476,1,0.999921
0.8823971447548997,1,0.999923
0.8759053696669055,1,0.999257
0.8672076637838744,1,0.999857
0.8557069254158332,1,0.999922
0.8378397806265439,1,0.999923
0.7901735073531417,1,0.999857
0.8549877872653219,0,0.998482
0.8590493814276522,1,0.999913
0.878289124266483,0,0.998728
0.8630571763717129,1,0.999416
0.808888701759131,1,0.999921
0.8953325817582858,1,0.999355
0.8438808446772866,1,0.999756
0.8389453026619922,1,0.999923
0.8671293881002567,1,0.999620
0.797751217643495,1,0.999634
0.8679424259795672,1,0.999409
0.8851923632827561,1,0.999851
0.9210481185603662,1,0.999847
0.8449760011175398,1,0.999922
0.8224188471675177,1,0.999926
0.8620173101847971,0,0.995926
0.8269655069619821,1,0.999914
0.8321744577187825,1,0.999928
0.8761122937043188,1,0.999929
0.8975869993836062,1,0.999859
0.9024885831361423,1,0.999924
0.8163364351930145,1,0.999328
0.8435517109721321,1,0.999499
0.8664248036405879,1,0.999920
0.8406412722857851,1,0.999930
0.8971171337465937,1,0.999783
0.8950360541867877,1,0.999758
0.7536830742041732,1,0.999831
0.8781774831645619,1,0.999915
0.858444964999125,1,0.999913
0.815804853738125,1,0.999337
0.7923238853176369,1,0.999638
0.8489141256152083,0,0.998376
0.8584331741546223,1,0.999921
0.8475090818533958,1,0.999840
0.8872441952398857,1,0.999924
0.8742544277895055,1,0.999593
0.8233286124517576,1,0.999347
0.8085018537498767,1,0.999916
0.8021064360940257,0,0.998142
0.8127718701078736,1,0.999926
0.8192419282148959,1,0.999847
0.8359013265261199,1,0.999760
0.808816680880518,1,0.999610
0.8003229948796048,0,0.999131
0.7757858120371757,1,0.999380
0.826981516698499,1,0.999917
0.774240398810792,1,0.999921
0.8294475944770808,1,0.999921
0.8107131657034006,0,0.998465
0.8522258077884849,1,0.999927
0.8728125253506804,1,0.999927
0.8467859739940824,1,0.999919
0.8555394004877217,1,0.999855
0.84697511990567,1,0.999912
0.849841923914868,1,0.999917
0.7942031216686646,0,0.997873
0.8435679520715303,1,0.999613
0.8550737179146628,1,0.999926
0.8179811994182021,0,0.987000
0.8693123040142887,1,0.999925
0.8228940233761037,1,0.999920
0.8156435099014799,1,0.999926
0.8694664260183406,1,0.999916
0.8260673129520243,1,0.999927
0.7808812335693869,0,0.998840
0.8495175620966064,1,0.999839
0.9066749808082067,1,0.999923
0.9120569304913848,1,0.999922
0.9292087047760307,1,0.999918
0.8844030609127451,1,0.999742
0.8725388687747624,1,0.999612
0.8073609414113386,1,0.999512
0.8705597886411743,1,0.999756
0.9112433788920962,1,0.999497
0.8648137101775452,1,0.999924
0.7909273508473739,1,0.999775
0.851681695980895,1,0.999687
0.8436534054376602,1,0.999475
0.8659663528897873,1,0.999752
0.805795014996765,1,0.999471
0.8623944840940112,1,0.999926
0.9026717197543555,1,0.999336
0.8155684074437483,1,0.999931
0.8716789380788971,1,0.999918
0.8748681135650521,1,0.999451
0.8864428541494044,0,0.997807
0.9345361531571034,1,0.999922
0.8776074185635087,1,0.999763
0.8695279017980492,1,0.999853
0.7984838578148005,1,0.999757
0.8446573519941623,1,0.999917
0.856858163608133,1,0.999608
0.8253859214772887,1,0.999496
0.8729942786821036,1,0.999922
0.8925478524149717,1,0.999520
0.8873648931040873,1,0.999918
0.8967699334731094,1,0.999925
0.8268810544938698,1,0.999370
0.9050707040529858,1,0.999762
0.8817312840081218,1,0.999921
0.8865089229742293,1,0.999688
0.827442917292234,1,0.999250
0.9055215535371993,1,0.999701
0.8552572248715808,1,0.999920
0.8932309988966568,1,0.999907
0.844662819438356,0,0.988343
0.8401572697474746,1,0.999419
0.9003954916477676,1,0.999921
0.8721383612126238,1,0.999483
0.8790080049729622,1,0.999676
0.7880585801410444,0,0.997055
0.9099270396611251,1,0.999769
0.8957341951672745,1,0.999927
0.876913314599149,1,0.999921
0.894727767487804,1,0.999845
0.9036513224981233,1,0.999923
0.7578511164433073,1,0.999924
0.9320642919446744,1,0.999841
0.8142381881648177,1,0.999844
0.8827910354582974,1,0.999765
0.8818927675361571,1,0.999845
0.888084182417852,1,0.999852
0.9042570035328672,1,0.999916
0.8237441896333522,0,0.998925
0.9097224674354338,1,0.999667
0.8817139037995667,1,0.999757
0.913438322407653,1,0.999928
0.8889932123062675,1,0.999923
0.9024040360133576,1,0.999849
0.9167746732989335,1,0.999922
0.8957245718042084,1,0.999923
0.888089084137245,1,0.999770
0.9176841036120856,1,0.999925
0.8915937748079263,0,0.999092
0.8999042733893736,0,0.997823
0.8992050165738411,1,0.999927
0.9067183085243927,1,0.999926
0.8529953455724782,1,0.999913
0.8774505696810653,1,0.999836
0.8831255303994514,1,0.999916
0.9125413841096662,1,0.999920
0.8702825329756734,1,0.999763
0.8768583422097942,0,0.998782
0.8849226828791046,1,0.999248
0.9267104382339084,1,0.999912
0.9112873117952403,1,0.999914
0.8443938937500028,0,0.995856
0.866593960372188,1,0.999910
0.8589249633074378,0,0.997636
0.8562551614975248,1,0.999280
0.870301978817599,1,0.999923
0.8050943495904109,1,0.999824
0.8180452032243081,1,0.999345
0.8035034845223255,0,0.999056
0.8150825652711313,1,0.999489
0.8755829104337044,0,0.994064
0.8832481335524466,1,0.999912
0.8627173765097348,0,0.998847
0.9064486540164333,1,0.999916
0.8584785883794736,1,0.999837
0.8541637759019198,1,0.999913
0.8950106197883205,1,0.999562
0.9018067688813091,0,0.998443
0.8240513219719696,1,0.999783
0.8718149196155421,1,0.999920
0.8524677167243909,1,0.999927
0.8154099297012399,1,0.999474
0.7815570477066474,1,0.999632
0.8219206091498544,0,0.997705
0.8491711477904078,1,0.999861
0.8751157649084172,1,0.999921
0.8719468309451877,1,0.999854
0.8966308153270273,1,0.999671
0.8063731191615686,1,0.999932
0.8445029833668253,1,0.999619
0.8561717466404427,1,0.999810
0.9011958240701302,1,0.999853
0.8497069370590459,1,0.999273
0.851025241921762,1,0.999837
0.8477817521963625,1,0.999921
0.7849113960055024,1,0.999917
0.8332535154034943,1,0.999760
0.8397317469568558,1,0.999783
0.9120454419225653,1,0.999916
0.852226209468474,1,0.999858
0.8074696213357523,1,0.999929
0.8711270605543994,1,0.999929
0.8268230078661412,1,0.999753
0.8393947058699321,1,0.999912
0.9096758124932558,1,0.999922
0.8854430888505751,1,0.999670
0.9141419745584466,0,0.998156
0.8908352339334288,1,0.999755
0.8883101653858007,1,0.999692
0.8933446193394269,1,0.999917
0.8272435781689107,1,0.999765
0.7772187919526234,1,0.999619
0.8330093136040319,1,0.999928
0.8087818470173587,0,0.998154
0.8990092870805582,1,0.999923
0.8809874276932742,1,0.999927
0.8713742494546974,1,0.999845
0.9048313446179681,0,0.997799
0.8843483742680286,0,0.983002
0.893610706652471,1,0.999919
0.8657119607426095,1,0.999772
0.8431485027414133,1,0.999332
0.8819823560782184,1,0.999923
0.8485866635069436,1,0.999914
0.8212043294846433,1,0.999927
0.8732149205903613,1,0.999926
0.8822229296459531,1,0.999917
0.806446455311259,1,0.999846
0.8671471545594075,1,0.999925
0.7956440201142565,1,0.999923
0.8619806956892606,1,0.999668
0.8146920927596808,1,0.999710
0.8425237027838003,1,0.999921
0.8760547417538469,1,0.999754
0.8933722144563738,1,0.999759
0.9181760091780099,1,0.999923
0.9461636977666714,1,0.999705
0.9245500225872301,1,0.999841
0.8769628482717935,1,0.999923
0.9039593127449138,1,0.999744
0.8282528874628945,1,0.999922
0.9079897657868504,1,0.999743
0.8585653585063197,1,0.999693
0.8919252820777908,1,0.999628
0.8902718290893308,1,0.999923
0.8935293331329797,1,0.999920
0.9214465338580844,1,0.999912
0.8813570394605241,1,0.999923
0.8322258304505071,1,0.999765
0.8147499663061049,1,0.999685
0.8422263132218227,1,0.999841
0.9081234656930548,1,0.999549
0.8726990738869582,1,0.999237
0.8672184804367633,1,0.999603
0.9032002745120841,1,0.999660
0.8366560752076242,1,0.999916
0.9086477559568603,0,0.994428
0.9038079854286526,1,0.999925
0.9028640716125426,1,0.999701
0.9162539377294378,1,0.999588
0.9107403326085239,1,0.999916
0.8756306511728278,1,0.999543
0.9107407631589821,1,0.999844
0.8271130957046419,1,0.999919
0.8719251046193389,1,0.999909
0.9176546874026941,1,0.999924
0.864081382778269,1,0.999919
0.8575139721257256,1,0.999700
0.9226007899838499,1,0.999261
0.8355163573672911,1,0.999836
0.9299981199050078,1,0.999918
0.8525682603874275,1,0.999742
0.8844685763506553,0,0.997691
0.9188349985043602,1,0.999921
0.9405444923856368,1,0.999670
0.9154001871328544,1,0.999912
0.9156554223381851,1,0.999919
0.9448965540758346,1,0.999839
0.9238472249915962,0,0.998951
0.9339607038260503,1,0.999918
0.9074329553004196,0,0.997231
0.8290089592405255,1,0.999590
0.9223509874351148,1,0.999918
0.9438760710847217,1,0.999916
0.9115311581205161,1,0.999107
0.9354674979698412,1,0.999913
0.9081509853954193,1,0.999512
0.883556342115397,1,0.999908
0.8281173581214338,1,0.999575
0.9036095703123052,1,0.999328
0.8979714472882344,0,0.998899
0.842198667194597,0,0.997165
0.9467947554082293,1,0.999826
0.8830315896540363,1,0.999926
0.8762340251171199,0,0.983000
0.8467591531737824,1,0.999864
0.8379740751578525,1,0.999921
0.8339387314460325,1,0.999912
0.8562879438653744,1,0.999839
0.8385876200730826,1,0.999834
0.8929552695017516,1,0.999927
0.8834684957279978,1,0.999685
0.8595419535674571,1,0.999482
0.9088478602204331,0,0.992688
0.8528687158242427,1,0.999322
0.8269972400638205,1,0.999682
0.8301139648251489,1,0.999917
0.8548501545834003,1,0.999917
0.8443476540209182,1,0.999915
0.8003170373081836,0,0.998955
0.8844280845910584,1,0.999756
0.8366270020375667,1,0.999275
0.872226211509921,1,0.999913
0.8912989439409341,1,0.999920
0.8561313014773098,0,0.975957
0.8298679310115508,1,0.999828
0.8340880400482661,1,0.999921
0.8690973467013196,1,0.999913
0.867004993103462,1,0.999838
0.8747905048139616,1,0.999547
0.8694360556790077,0,0.999104
0.8134041757236853,0,0.991140
0.8477889634139087,1,0.999473
0.8301834385129939,1,0.999760
0.8671548891948933,1,0.999910
0.7572239825391225,1,0.999922
0.9013805679663189,0,0.962028
0.8268656018308894,1,0.999764
0.8402536111816422,1,0.999840
0.8951452545883192,1,0.999765
0.8632244906880201,1,0.999624
0.9106152227736297,1,0.999757
0.9206468371146338,1,0.999282
0.9068939064617879,1,0.999775
0.9104255009023968,1,0.999501
0.8894795172979919,1,0.999922
0.901230089561546,1,0.999927
0.9095365681093137,1,0.999925
0.8148503901851988,1,0.999652
0.8605751565932414,0,0.960027
0.8642023361148862,1,0.999756
0.862018440554545,1,0.999922
0.8305952622505521,1,0.999356
0.8962901697739766,1,0.999428
0.9145756910277928,1,0.999927
0.8393286482530087,1,0.999778
0.8077677801437483,0,0.998085
0.8897457692653168,0,0.984283
0.8845682471108471,1,0.999849
0.8891737583013315,1,0.999928
0.9193845151730501,0,0.999039
0.8784360536667493,1,0.999746
0.8740215138530107,1,0.999269
0.8690297782730266,1,0.999765
0.8647737236494812,1,0.999761
0.820720375062615,1,0.999758
0.8395358606014701,1,0.999569
0.8447611293056527,1,0.999623
0.8063731911077677,1,0.999700
0.8579019646405167,1,0.999919
0.884874398393779,1,0.999702
0.8671245128967173,1,0.999922
0.8720826070890041,1,0.999928
0.8973516519118292,1,0.999926
0.8902583576665526,1,0.999613
0.8767100250113136,1,0.999451
0.8853091036555768,1,0.999928
0.9034039877144535,1,0.999330
0.9218911105830147,1,0.999917
0.8553045732677192,1,0.999764
0.8431172757238091,1,0.999918
0.8709667277673729,0,0.997518
0.8903695836493852,1,0.999929
0.8680276701036153,1,0.999923
0.8695804686785128,1,0.999211
0.8944523481232143,1,0.999751
0.8424483473445656,1,0.999839
0.8522096704388682,1,0.999608
0.9193333983179748,1,0.999828
0.8616934797132351,0,0.979935
0.9039217388343831,1,0.999272
0.8940497760863954,1,0.999855
0.8091670423463141,1,0.999917
0.8787040672788003,1,0.999827
0.9279907435220138,0,0.998782
0.9014440981814728,1,0.999839
0.9045545559810999,1,0.999850
0.8982335487357693,1,0.999922
0.918227473686149,1,0.999925
0.8811286183176215,1,0.999840
0.8812610916351908,1,0.999744
0.8845556174301683,1,0.999732
0.8512503173303384,1,0.999918
0.8909222948342106,1,0.999916
0.9172030117244898,1,0.999612
0.8892648975719676,1,0.999681
0.901836449670284,1,0.999832
0.9201554079937164,0,0.998912
0.8722792962159464,1,0.999850
0.8901107028540155,1,0.999924
0.9033162459967983,1,0.999920
0.8490627713249647,1,0.999687
0.8603665166876641,0,0.998175
0.8991623496041717,1,0.999923
0.9025016103785407,0,0.998850
0.9124144972199663,1,0.999376
0.8664637138890138,1,0.999925
0.8762525575618738,1,0.999919
0.8868895349923794,1,0.999758
0.9080422522723554,1,0.999764
0.8687380708300992,1,0.999337
0.9215101516553904,1,0.999921
0.8680742295674764,1,0.999200
0.8679027599821167,1,0.999595
0.8980504631508424,1,0.999836
0.8702002415850864,1,0.999691
0.8503567818343429,1,0.999919
0.9106782499641608,1,0.999921
0.8735132871160844,1,0.999924
0.8801796279512126,1,0.999709
0.8779892645946343,1,0.999920
0.8898741711019535,1,0.999917
0.8834072359803787,1,0.999693
0.905910318108949,1,0.999921
0.9068910261221251,1,0.999512
0.8898258675493035,1,0.999758
0.8435169246950617,1,0.999845
0.8427605485941819,1,0.999766
0.8864991694648577,1,0.999335
0.8426579648214098,1,0.999420
0.8714381752186305,1,0.999842
0.8806504652978548,1,0.999917
0.8432638132675071,1,0.999918
0.8660261483455551,1,0.999925
0.9138018595045512,0,0.998479
0.8176335778209993,1,0.999535
0.8466619422810695,0,0.998962
0.8678845165368699,1,0.999847
0.8625466399293283,1,0.999924
0.847218016427242,1,0.999765
0.8774093798503252,1,0.999846
0.8806840778099134,0,0.998999
0.808138440263084,0,0.998859
0.8969963173730863,1,0.999922
0.8834435425049627,1,0.999921
0.8454611144037341,1,0.999853
0.8533437969594441,1,0.999924
0.7918420379775524,1,0.999924
0.894339402547896,0,0.986557
0.8737871293798977,1,0.999704
0.853542153368427,1,0.999921
0.9287758092613673,1,0.999923
0.8944487493432027,1,0.999921
0.9144779327547339,1,0.999920
0.8401802020309294,1,0.999672
0.9087671326716378,1,0.999914
0.9039307032017142,1,0.999853
0.9067398925173041,1,0.999617
0.853006972128429,1,0.999838
0.9097832098873894,0,0.998476
0.8941091211243535,1,0.999925
0.9049384892356519,1,0.999916
0.9240431461780227,1,0.999928
0.827412305396247,1,0.999562
0.8425966611097551,1,0.999918
0.891441376923537,1,0.999928
0.8549967294040622,0,0.998674
0.848391514631189,1,0.999921
0.9374236768468184,1,0.999920
0.8913268600791996,1,0.999462
0.9059632867387168,1,0.999847
0.8945080147797119,1,0.999838
0.9102689165859278,1,0.999524
0.8593425916731423,1,0.999773
0.8610061034632449,1,0.999925
0.8302003959928699,1,0.999929
0.8768219730232818,1,0.999916
0.8475308377334042,1,0.999920
0.7579054534874452,0,0.996455
0.8759419075471441,0,0.986943
0.8660642592014832,1,0.999913
0.8924302355176943,1,0.999922
0.9175433277739722,1,0.999646
0.8775518341477778,0,0.999002
0.8708285879139738,1,0.999713
0.8630511288971515,1,0.999929
0.9037992951113548,0,0.999065
0.8902303116840372,1,0.999920
0.9209993500673688,1,0.999921
0.915296847921295,1,0.999835
0.8311191844420786,0,0.998250
0.8834970831439104,1,0.999925
0.8367656216513863,1,0.999925
0.9340359886349295,1,0.999921
0.8935106043406897,1,0.999654
0.8380660436534174,1,0.999921
0.9253143794824169,1,0.999923
0.9131349426829927,1,0.999920
0.93751803464188,1,0.999918
0.8095513636004316,1,0.999847
0.8753910312177248,1,0.999848
0.9072375968605605,1,0.999768
0.9138065885421108,1,0.999851
0.8517838728984314,1,0.999922
0.9081305789581622,1,0.999927
0.8590372949644959,1,0.999918
0.9013939157086028,1,0.999928
0.9641590689458688,0,0.998735
0.896176221620087,1,0.999918
0.9030238316708867,1,0.999679
0.8989410382927685,1,0.999850
0.8307046403586554,1,0.999780
0.8517299387360967,1,0.999915
0.8634865851101934,1,0.999546
0.8272053435585864,1,0.999851
0.8600083021962505,1,0.999326
0.8936623734772148,1,0.999916
0.8908146706820006,1,0.999664
0.9127223949382566,1,0.999919
0.9203160962713061,1,0.999916
0.8820509028906728,1,0.999126
0.8406982528268501,1,0.999915
0.8422651298045041,1,0.999917
0.935710395894573,1,0.999821
0.9000966148258617,1,0.999917
0.8353505820831372,1,0.999836
0.8152026450018719,1,0.999745
0.8829895974714286,1,0.999823
0.8428044972194597,1,0.999923
0.890440759515853,1,0.999924
0.9303726587908361,0,0.998688
0.9066409154609804,0,0.998160
0.9092348523855489,1,0.999761
0.8346508735189254,1,0.999833
0.8429451413552987,1,0.999848
0.9009755450812604,1,0.999688
0.858601100921168,1,0.999839
0.8288837434101864,1,0.999925
0.8653758648896084,1,0.999463
0.8458586739096775,1,0.999681
0.8894312063690831,1,0.999767
0.890933762451976,1,0.999917
0.9110018436843126,1,0.999916
0.8624008423030669,1,0.999851
0.8599876378907962,1,0.999922
0.8353410920865426,0,0.997622
0.6957432266818335,1,0.999920
0.7704570154807152,1,0.999769
0.7819964670553692,1,0.999918
0.8484702575173158,1,0.999840
0.8112408292086155,1,0.999153
0.8904188671708139,1,0.999767
0.8831300971559534,1,0.999920
0.9073797282106161,1,0.999652
0.8957941363277974,1,0.999917
0.8907651385455012,1,0.999672
0.848781517989878,1,0.999839
0.8525499534819807,1,0.999230
0.8524760576577084,1,0.999201
0.8291125653639275,1,0.999842
0.8011726916522491,1,0.999927
0.8323612729072432,1,0.999778
0.8098834087779603,1,0.999840
0.7977086737436022,0,0.999191
0.9131205186100978,1,0.999920
0.8661103517971735,1,0.999225
0.8501788590068443,0,0.998015
0.8649697546585671,0,0.985798
0.8992732224305183,1,0.999782
0.8631736172611394,1,0.999922
0.88872065960232,1,0.999683
0.8373929525371081,1,0.999484
0.8579754522732154,1,0.999550
0.8797361682158071,1,0.999834
0.8658158248963987,1,0.999344
0.8324371159423448,1,0.999919
0.8828752698589127,0,0.991622
0.8572453558039147,1,0.999685
0.8399330357908422,1,0.999844
0.8440328727257551,1,0.999796
0.8066833015608436,1,0.999928
0.854184925082321,1,0.999919
0.8699801796473382,1,0.999927
0.8213753046775631,0,0.993750
0.8581714323058014,0,0.996481
0.8512288202093018,1,0.999358
0.7806472670892607,1,0.999759
0.8574579558372405,1,0.999925
0.8599883891293647,1,0.999835
0.8922614293881291,0,0.998450
0.9074376823016196,1,0.999771
0.8961584117924798,0,0.999080
0.7784693037432331,0,0.997595
0.7941027167000582,1,0.999920
0.8453188776413957,0,0.998824
0.8352227989177519,1,0.999440
0.8588144348109079,1,0.999617
0.87220618322454,1,0.999915
0.8682056896670617,1,0.999569
0.839497324158014,1,0.999679
0.8516937629986585,1,0.999686
0.7961966411886933,1,0.999854
0.8697406407789634,1,0.999769
0.8086359157078941,1,0.999914
0.8704997338543652,1,0.999918
0.8876549400660836,1,0.999495
0.8504554529243507,0,0.977952
0.8221228188316242,1,0.999854
0.8198722886289473,1,0.999931
0.7969836418860778,1,0.999675
0.8372659691815674,0,0.998590
0.8201744469491749,1,0.999679
0.8315900682172419,1,0.999924
0.8617501019300834,1,0.999924
0.8133585122640038,1,0.999924
0.8255304336098077,1,0.999674
0.8604336899961758,0,0.998497
0.7954725547778682,1,0.999680
0.8354667734351271,1,0.999926
0.840726435259331,0,0.992263
0.907669216075657,0,0.998988
0.8674896041960711,0,0.988468
0.8672725220650354,1,0.999926
0.8691306290795561,1,0.999762
0.8537030216104499,0,0.997080
0.8814210634534944,1,0.999662
0.9327651871221102,1,0.999916
0.913793442462544,1,0.999419
0.9041466456804399,1,0.999918
0.8371207211060806,1,0.999181
0.8281464654482127,1,0.999216
0.8228403168136673,1,0.999841
0.8772599063079115,1,0.999837
0.7930717608257395,1,0.999919
0.8501484445686918,1,0.999561
0.797253965631902,1,0.999523
0.8960606510367035,0,0.972325
0.8391108854896585,1,0.999917
0.8405239241609004,1,0.999918
0.8291417651526729,0,0.998853
0.859774997347883,1,0.999913
0.8909123049616658,0,0.990095
0.8656146154850859,1,0.999822
0.8869248031713637,1,0.999659
0.884424515093162,1,0.999344
0.9110121175991055,1,0.999658
0.8974112389489096,1,0.999918
0.9251235586584956,1,0.999916
0.8200690825969574,0,0.997659
0.8387765384803226,1,0.999754
0.8834903167956696,1,0.999775
0.8609620188007902,0,0.996847
0.8113711747105208,1,0.999631
0.8680718924824943,1,0.999686
0.9132180047184653,0,0.975440
0.8512881743703407,1,0.999926
0.9288947266414851,1,0.999923
0.9195462557122378,1,0.999921
0.8719676218331291,1,0.999926
0.8137282719752524,0,0.964612
0.900201790505133,1,0.999683
0.894417577125813,1,0.999925
0.8128506589602424,1,0.999759
0.857429622469024,1,0.999559
0.919647869523876,1,0.999831
0.8870169467151556,0,0.990826
0.9053359846781058,1,0.999919
0.8902353882617733,1,0.999922
0.8790675210615353,1,0.999395
0.881908001467287,1,0.999839
0.8988857699999631,1,0.999924
0.8741783877012317,1,0.999920
0.8796736872050237,1,0.999916
0.8750173874406157,1,0.999236
0.8440192811257607,1,0.999918
0.8681967698840587,1,0.999915
0.8549773561342846,1,0.999924
0.7861080706201741,1,0.999771
0.8865946691312484,0,0.990191
0.8588706203360748,1,0.999918
0.8700279175877389,0,0.998443
0.8617507302872297,1,0.999440
0.8572206910024833,1,0.999908
0.8615060224328017,1,0.999925
0.8949562139458537,1,0.999926
0.8504200772979387,1,0.999762
0.8185297139661476,0,0.998683
0.8179210554046488,0,0.997501
0.8481412797552729,0,0.995514
0.9063439998436408,0,0.986842
0.9072316125198772,1,0.999919
0.8269704676180655,1,0.999605
0.8746840549563424,1,0.999303
0.7973365785648234,1,0.999910
0.8483246219217919,1,0.999918
0.8651748972861546,0,0.960641
0.8416134763796613,0,0.982337
0.7676336767011022,0,0.998557
0.7791315834670326,1,0.999922
0.8367291836238627,1,0.999694
0.8876020344646975,1,0.999923
0.8874890554442716,0,0.984949
0.8558986328795261,1,0.999841
0.8916786743331859,1,0.999921
0.918533586733959,1,0.999917
0.8350268184307179,1,0.999757
0.8086720969814102,1,0.999713
0.8389886557107716,1,0.999832
0.7860351592728066,1,0.999306
0.7973132943016679,1,0.999522
0.8752262606109062,0,0.998549
0.8289701524080536,1,0.999926
0.8253767634400452,1,0.999577
0.8646858329345444,1,0.999926
0.8863644369628895,0,0.998942
0.8733800409957821,1,0.999925
0.8537357158295918,1,0.999925
0.8504273662009643,0,0.999051
0.8517114846493353,1,0.999859
0.8842783916157945,1,0.999694
0.8608778759983402,1,0.999583
0.8252765994291906,0,0.998780
0.8499213910489238,0,0.975859
0.8538079966775193,1,0.999926
0.839652577234898,1,0.999920
0.8838181673363608,1,0.999901
0.9170698796349347,1,0.999916
0.8761313567361223,1,0.999749
0.833224981745994,1,0.999680
0.9054961988793913,1,0.999921
0.9116027791315892,1,0.999859
0.8816492481539028,1,0.999857
0.8533223565991631,1,0.999922
0.8757279509531986,1,0.999782
0.8917001812175872,1,0.999914
0.9300352092821581,1,0.999578
0.9317708862588897,1,0.999920
0.8516671081212641,1,0.999850
0.8596473724050631,0,0.997869
0.8329454724461952,1,0.999921
0.8726385452658786,1,0.999850
0.8392841194633452,1,0.999919
0.8387208889651625,1,0.999692
0.9062175020049711,1,0.999910
0.8996769543385021,1,0.999920
0.8770898158397492,1,0.999676
0.9129192532624232,1,0.999758
0.8552842337928698,0,0.999029
0.8689398546748301,1,0.999927
0.8584443646913203,1,0.999925
0.8717650190630122,1,0.999852
0.8532334737817059,1,0.999852
0.8874800860979442,1,0.999852
0.8867774311557579,1,0.999920
0.9025182720015525,1,0.999226
0.8856141024930873,1,0.999921
0.9018492269709891,0,0.995666
0.8658015469024622,1,0.999563
0.8745579043656516,1,0.999433
0.8735521900209227,1,0.999920
0.8967238548141554,1,0.999840
0.8717795295486187,1,0.999921
0.9053603343017387,1,0.999835
0.8927813141387853,1,0.999919
0.9016099055147825,1,0.999922
0.8211058630776719,1,0.999918
0.8447033281782927,1,0.999757
0.9351287314261194,1,0.999821
0.824183480412162,1,0.999916
0.8842568583370319,1,0.999909
0.896854112442965,1,0.999647
0.8773434400903375,1,0.999400
0.9033280859218182,1,0.999920
0.9390681273837732,1,0.999481
0.9240738095752512,1,0.999916
0.9060209535649597,1,0.999919
0.9284002865484933,1,0.999912
0.8788863862833852,1,0.999913
0.9214601447729741,1,0.999913
0.9071945241892555,1,0.999824
0.8718518886226548,1,0.999833
0.935723867111801,1,0.999303
0.9014924604753659,1,0.999835
0.9081497444402433,0,0.998625
0.8830016547518978,1,0.999916
0.8993902609045269,1,0.999755
0.8074361450423626,0,0.998557
0.9104397394480204,1,0.999923
0.7696445342335313,1,0.999781
0.8522642439191261,1,0.999926
0.8377941062975353,0,0.999117
0.8781386494190643,1,0.999917
0.8463648541537814,0,0.981754
0.8000278480659547,1,0.999927
0.855549511269154,1,0.999923
0.8085569418460808,1,0.999849
0.7728736256148789,1,0.999928
0.8648791523497039,1,0.999922
0.8616195454579726,1,0.999923
0.8771040866593263,1,0.999926
0.8734038355414678,1,0.999841
0.8435691076105645,1,0.999764
0.8131756450185716,0,0.997837
0.8267740811276697,1,0.999924
0.8432354532506448,1,0.999923
0.7973208367997182,1,0.999834
0.8306365976672457,1,0.999416
0.8465569062657234,1,0.999697
0.8738363759885012,1,0.999923
0.8661866283415709,1,0.999917
0.9085798588224532,1,0.999673
0.8996929997110573,1,0.999777
0.8302000130855236,1,0.999415
0.8073577935274872,1,0.999913
0.8587503576788179,1,0.999393
0.8181896159726054,1,0.999821
0.8160000157558048,1,0.999380
0.7801064310249882,0,0.997723
0.7506863744948503,1,0.999777
0.8555088013821348,1,0.999838
0.8379058378740768,1,0.999853
0.813960534238392,1,0.999920
0.8071716473613483,1,0.999926
0.752445491733428,0,0.994643
0.8409695167810035,0,0.997600
0.7924480213991464,1,0.999916
0.8135378748260551,1,0.999704
0.7910660474314506,1,0.999923
0.836498402584694,1,0.999917
0.7853442614693339,1,0.999515
0.8588609300245909,1,0.999926
0.8495843957085802,0,0.996620
0.8055205005497534,1,0.999831
0.8333677990538156,0,0.998315
0.797894318922312,1,0.999918
0.8468370569332496,1,0.999920
0.8117682199355342,1,0.999368
0.8224706405188151,1,0.999523
0.8209132165523837,0,0.995770
0.8627393743712863,1,0.999833
0.8717337354943525,1,0.999512
0.8466596062634985,1,0.999921
0.857246022498558,1,0.999843
0.9046613107327206,1,0.999921
0.8875537762717478,1,0.999832
0.8663787532407912,1,0.999919
0.8703672891632201,1,0.999738
0.7842428976945435,0,0.997512
0.810289227074399,1,0.999263
0.8592731163097315,1,0.999773
0.8962549169837807,0,0.993852
0.8553532705416108,1,0.999746
0.8633394455358077,0,0.997269
0.8653211705494473,1,0.999914
0.8792291847647913,0,0.998064
0.8329362273051326,1,0.999922
0.8340278354529437,1,0.999518
0.822830884586354,1,0.999915
0.867061029857298,1,0.999922
0.8705281499879592,1,0.999920
0.8580924276228464,0,0.998802
0.874382343629296,1,0.999841
0.8898894659671776,1,0.999830
0.7971441588262151,1,0.999231
0.7839828566535644,1,0.999928
0.817162775849696,0,0.998345
0.855697113861569,0,0.998248
0.8837222207830191,1,0.999287
0.7896504939892047,0,0.991726
0.800910303141548,1,0.999928
0.8261004220392244,1,0.999857
0.8503076860064422,1,0.999349
0.8242906661435455,1,0.999921
0.8668721905006994,1,0.999919
0.8908025506217483,1,0.999840
0.8946839968251115,1,0.999433
0.7971912307401917,1,0.999839
0.8261007059373928,0,0.991977
0.7978609125010552,1,0.999921
0.8220384392853591,1,0.999785
0.7855852195115454,0,0.999015
0.8286506240248734,1,0.999925
0.835076620273858,1,0.999736
0.8351604667376789,1,0.999444
0.7592792363035572,0,0.997673
0.8338843993316036,0,0.997665
0.7835446582993489,0,0.998524
0.8068188914642325,0,0.976490
0.8211269799020294,1,0.999788
0.7726675871928699,1,0.999640
0.8296114397431901,1,0.999853
0.8179126967901333,1,0.999917
0.8324304239612551,1,0.999922
0.8332591871967306,1,0.999277
0.8648725381628685,1,0.999704
0.8572450813492168,1,0.999761
0.9105950495956199,1,0.999757
0.8338648694516052,1,0.999923
0.8283080847899338,1,0.999472
0.8500289394707169,1,0.999921
0.7902262308677751,1,0.999924
0.7691317617237582,1,0.999917
0.8051216480207658,1,0.999682
0.826876975865923,1,0.999633
0.8970668909776004,1,0.999251
0.8823658244246739,1,0.999913
0.8570856773126322,1,0.999920
0.9058855420103605,1,0.999912
0.8196386252079781,1,0.999826
0.9109315934900124,1,0.999918
0.8902904494197874,0,0.998667
0.8695478941726185,1,0.999852
0.8747186123814439,1,0.999849
0.8810701365725429,1,0.999916
0.8537356951963142,1,0.999764
0.8610213087887421,1,0.999857
0.8777194636030621,1,0.999839
0.8521159562441938,1,0.999920
0.8631950361089151,1,0.999928
0.8459107265741127,1,0.999404
0.8476943071075256,1,0.999927
0.7975396217015898,0,0.998615
0.8537609360586075,1,0.999428
0.8671109185835401,1,0.999458
0.8978076554231321,1,0.999920
0.8735773952115617,1,0.999916
0.8934138030591666,1,0.999658
0.8522721244399549,1,0.999581
0.908792696797717,1,0.999917
0.8621262665766559,0,0.997878
0.8643821901484711,0,0.998315
0.8863254815934463,1,0.999921
0.8804360695003196,0,0.997348
0.8870399898940966,1,0.999455
0.8566805471720111,1,0.999921
0.9184959099951047,1,0.999927
0.8870915962777319,1,0.999853
0.88430420249407,1,0.999815
0.8461280928749811,1,0.999845
0.8937503359130329,1,0.999770
0.8520739328151422,1,0.999918
0.8276233093385369,1,0.999837
0.8897981393342702,1,0.999916
0.9044173760060282,1,0.999575
0.9014381895320679,1,0.999922
0.8424525178802083,1,0.999333
0.8934774284054832,0,0.993143
0.8575524832388569,1,0.999917
0.7588754354799326,0,0.998716
0.925205240596715,1,0.999388
0.8954156039050257,1,0.999768
0.8299629014166892,1,0.999532
0.8458152396153469,1,0.999923
0.8927816256701162,1,0.999921
0.9245388278594204,1,0.999925
0.9248148114373816,1,0.999922
0.8983421401183015,1,0.999926
0.8326700904870272,1,0.999775
0.8134217684108636,1,0.999912
0.8595836033943843,0,0.998679
0.8464706624674261,1,0.999922
0.8776085647671319,0,0.996574
0.9114121424683987,1,0.999833
0.8874913604528981,1,0.999929
0.8491676234476073,1,0.999778
0.8617564387838625,0,0.999158
0.8708412491901086,1,0.999920
0.8417906020374161,1,0.999859
0.9158600970695953,1,0.999919
0.8152143179931199,0,0.999050
0.8648632724372238,1,0.999925
0.7562175834698172,0,0.963780
0.8623908520346308,0,0.997992
0.8367334945464916,1,0.999523
0.8209876513632881,1,0.999662
0.8289674906202084,1,0.999858
0.8475424182704138,1,0.999489
0.8399913382004703,1,0.999421
0.801054148503354,1,0.999917
0.8702594223038413,1,0.999924
0.8965531665714753,1,0.999586
0.8402091475856218,1,0.999543
0.8685915545000011,0,0.998145
0.863219550255242,1,0.999828
0.8448365252159141,1,0.999336
0.9126595316063573,1,0.999912
0.9066092500395199,1,0.999712
0.8917439234582671,1,0.999740
0.8578926530438828,1,0.999916
0.8288188816625726,1,0.999348
0.8010007848932368,1,0.999915
0.8093662663855374,1,0.999782
0.7520023257696854,0,0.998693
0.8103200396026979,1,0.999678
0.7833344409025551,1,0.999927
0.8220869767712521,1,0.999844
0.7986512774329969,1,0.999922
0.9269060619414854,1,0.999921
0.8952537067557493,1,0.999922
0.90140967153133,1,0.999754
0.9039690566200873,1,0.999824
0.858417783603997,1,0.999916
0.8553787052453194,1,0.999546
0.9062962124387225,1,0.999922
0.8810093397536287,1,0.999918
0.8671266675554484,1,0.999856
0.878822097954898,1,0.999922
0.8413804596853033,1,0.999687
0.8371896888955208,1,0.999772
0.829165821763304,1,0.999926
0.9095076480046682,1,0.999466
0.8222095424589031,0,0.999041
0.7663287814118083,1,0.999921
0.8194665028507966,1,0.999927
0.85779940489674,1,0.999925
0.83301942647384,1,0.999233
0.7688280217530506,0,0.998783
0.8399902689017162,1,0.999843
0.9103489070222085,1,0.999738
0.8328394684169623,1,0.999926
0.8521233509621743,1,0.999685
0.8460471114521565,1,0.999755
0.8819041989612071,1,0.999842
0.8161757750358302,1,0.999930
0.8905787144553131,1,0.999919
0.869967297954061,1,0.999214
0.8777827001247682,1,0.999841
0.8383621153591392,1,0.999921
0.8969393951147584,0,0.996099
0.7782979294258945,1,0.999922
0.8921698394826176,1,0.999522
0.8359317414469911,0,0.996753
0.863449082170118,1,0.999838
0.8214544887042443,1,0.999919
0.9066394375688731,1,0.999920
0.8642033149682853,1,0.999919
0.8562682090386686,1,0.999920
0.838525253293961,1,0.999855
0.8526123572703656,1,0.999768
0.7712262680682952,1,0.999398
0.8801902825523682,1,0.999926
0.8874046114533752,0,0.999173
0.8474821744450411,1,0.999822
0.856005170158578,1,0.999778
0.870384579955182,1,0.999782
0.9250981503083078,1,0.999918
0.920425148701211,1,0.999916
0.8345197273057278,0,0.988604
0.9167228748781686,1,0.999842
0.844857198141642,1,0.999447
0.8648204255239045,1,0.999850
0.8464929037544717,1,0.999927
0.873549245855237,1,0.999777
0.902049243588535,1,0.999922
0.8917134064558635,1,0.999851
0.8401308482351028,1,0.999922
0.8868725057970341,0,0.997917
0.8354340235890628,1,0.999853
0.8923308765157829,1,0.999924
0.9079017771506832,1,0.999847
0.8627401473656824,1,0.999929
0.8732536945510648,1,0.999928
0.921408853205805,1,0.999767
0.9148101834046678,1,0.999634
0.9067265466435723,1,0.999748
0.8822530461523246,1,0.999759
0.8858624953292314,1,0.999418
0.8882005506884048,1,0.999924
0.8672614589745973,1,0.999928
0.8633966554822206,1,0.999666
0.8384759106146442,1,0.999560
0.8738487977162004,1,0.999920
0.9083078323580018,1,0.999922
0.8661178122618102,1,0.999924
0.8822069116937159,1,0.999834
0.8789903718304493,0,0.999157
0.9133295165523087,1,0.999474
0.8956792435866044,1,0.999913
0.8926179955410576,1,0.999847
0.8654162445485134,1,0.999781
0.8647119802991994,1,0.999852
0.8749368794559197,1,0.999929
0.9107510621895674,1,0.999921
0.8323885272038427,0,0.997224
0.8134099037027334,1,0.999670
0.8789365283085263,1,0.999700
0.8486027976540466,0,0.966834
0.833463288065908,1,0.999840
0.8097855627404749,1,0.999919
0.8910335970200868,1,0.999928
0.8917634078298355,1,0.999755
0.8931851176240083,0,0.998494
0.8680735924737294,1,0.999850
0.8081042921996746,0,0.996508
0.8625050345017803,0,0.990800
0.8950394677090276,0,0.998695
0.8785969117989985,1,0.999618
0.8665540379880169,1,0.999847
0.8472611117689748,1,0.999928
0.9068311402716611,1,0.999912
0.7796532713365728,1,0.999641
0.9085825023810362,1,0.999641
0.7873775049300399,1,0.999924
0.8436880849080723,1,0.999836
0.828520541508996,1,0.999919
0.783119473866029,1,0.999844
0.8216137339407357,1,0.999921
0.8159110040528008,1,0.999925
0.8355984233390316,0,0.998921
0.860181613932532,1,0.999927
0.8221376091554243,1,0.999851
0.8510408198700852,1,0.999927
0.8281714000641359,1,0.999545
0.8891232080575914,0,0.998107
0.8097274065142538,0,0.999183
0.9142152702501536,1,0.999848
0.9027006062606111,1,0.999922
0.8778602735291934,1,0.999845
0.8952670852148411,1,0.999919
0.9023962638228802,1,0.999924
0.9143347610793655,1,0.999854
0.8601557578575296,1,0.999839
0.8373758691436762,1,0.999921
0.8780091497767468,1,0.999915
0.8187556090209566,1,0.999918
0.8275781671515241,1,0.999855
0.7753539234782117,1,0.999536
0.8306284018178183,0,0.998945
0.9094946971377773,1,0.999834
0.8879820245289597,1,0.999917
0.8573279981403429,1,0.999821
0.9277324052528736,1,0.999784
0.8281102019213378,1,0.999769
0.8037875635703653,1,0.999680
0.8704637056689536,0,0.998971
0.7963160369642466,0,0.998654
0.8016044660884749,1,0.999661
0.9238586447044871,1,0.999830
0.8831998721002798,1,0.999916
0.8886612602486883,0,0.997949
0.9175880399737057,1,0.999240
0.8904884007969485,0,0.998633
0.9100908514771242,1,0.999922
0.8879056515622901,1,0.999920
0.8309345835468445,1,0.999911
0.8478345904146195,1,0.999851
0.8599089918125691,0,0.997676
0.8334436045067801,1,0.999454
0.8679278441659746,1,0.999923
0.8375270076067215,1,0.999917
0.847963033815693,1,0.999923
0.7718861085417861,1,0.999463
0.7280893319993373,1,0.999836
0.8712445747771678,1,0.999819
0.8731476235520659,0,0.997927
0.8840056655312735,1,0.999915
0.8674653357125478,1,0.999753
0.872777909799661,1,0.999847
0.8897027344008667,1,0.999695
0.8734700303452387,1,0.999919
0.8448800565266963,1,0.999921
0.7513182966545786,1,0.999918
0.8738589849607274,1,0.999920
0.9132722584013988,1,0.999921
0.8362498883506052,1,0.999840
0.885385266567893,1,0.999503
0.8653371445335847,1,0.999828
0.8920036827808518,1,0.999834
0.8519990872583765,1,0.999837
0.8900579725861818,1,0.999918
0.8791960484033707,0,0.990783
0.8435042584176887,1,0.999837
0.8786035170209271,1,0.999765
0.8769677074487968,1,0.999299
0.8914852694828582,1,0.999909
0.8882422941171387,1,0.999912
0.8272856593515199,1,0.999648
0.8332796288075751,1,0.999844
0.8781479063321583,0,0.998063
0.7983314047958343,1,0.999923
0.8755012971393905,1,0.999921
0.9177432841584113,0,0.998661
0.9004568984788809,1,0.999911
0.9072429638988327,1,0.999911
0.886364625192369,1,0.999821
0.8290506906900031,1,0.999916
0.9320149936561473,0,0.998944
0.8832423797811563,1,0.999922
0.8069888519180434,1,0.999763
0.8172099750754107,1,0.999926
0.8416067181395246,0,0.998460
0.8602564964245406,1,0.999919
0.8396706050320251,1,0.999775
0.7834876603648843,1,0.999458
0.7860753094763998,1,0.999836
0.9016805214467669,1,0.999916
0.8459231978894267,0,0.996004
0.8841795072112304,0,0.991711
0.8258400765516543,1,0.999839
0.8812655636582518,1,0.999921
0.8427043288520586,0,0.998987
0.8181737497438604,0,0.997491
0.8161984094482243,0,0.983089
0.8749913197489411,1,0.999927
0.8607897981278276,1,0.999670
0.8869674277277971,1,0.999921
0.8719905333908574,1,0.999926
0.8440220219265927,1,0.999849
0.9176409477753547,1,0.999766
0.9256898857976275,1,0.999922
0.8890428885127889,1,0.999819
0.8770141050123281,1,0.999927
0.8573078049139856,1,0.999917
0.8708416415068335,1,0.999624
0.8497885965434843,1,0.999485
0.8032186984362958,1,0.999564
0.7704864705869497,1,0.999712
0.8611395814965259,1,0.999738
0.8403525388626265,1,0.999609
0.8420060171865049,1,0.999603
0.8820508306889987,1,0.999830
0.8573932521019837,1,0.999924
0.8718288047239992,1,0.999621
0.8423995753268594,1,0.999540
0.8570963201475184,0,0.999090
0.8992382654946711,1,0.999647
0.8714296468703452,1,0.999913
0.7952135774344945,1,0.999309
0.8817225751303083,0,0.999090
0.8921214659690548,1,0.999468
0.7804249828414708,1,0.999518
0.8747126337358371,1,0.999758
0.7944760152997258,1,0.999926
0.9020617507367708,1,0.999925
0.8762528030646022,1,0.999334
0.8258887809976503,1,0.999308
0.8653346094135249,1,0.999536
0.8054552718421104,1,0.999925
0.8776696275651965,1,0.999922
0.911832015147736,1,0.999920
0.8698363075963412,1,0.999471
0.8713623646539822,1,0.999925
0.8570005131573568,0,0.998837
0.8749628537228162,1,0.999926
0.8657334745705667,0,0.998078
0.878125542580416,1,0.999927
0.8147081603358711,1,0.999776
0.8355886513286345,1,0.999920
0.8699004371583806,1,0.999920
0.869955609896188,0,0.990604
0.9090199752968291,1,0.999919
0.8627682116104901,1,0.999761
0.8809569837643586,1,0.999923
0.864431605066378,1,0.999734
0.8375873379443074,1,0.999922
0.8740121272311588,1,0.999916
0.8568183871923044,1,0.999923
0.8467759933322141,1,0.999258
0.8545285664148254,1,0.999922
0.8578221829497806,1,0.999917
0.8775818909242307,0,0.998639
0.9166635749496619,1,0.999654
0.9115448570783149,1,0.999917
0.855623558486521,1,0.999913
0.8592952156879748,1,0.999751
0.8850275851061503,1,0.999927
0.8858912489880402,0,0.994743
0.877763713024904,1,0.999926
0.8392145905747855,1,0.999853
0.8131036887263395,0,0.998616
0.8745501100318962,1,0.999747
0.8104418840726962,1,0.999925
0.8234748342876882,1,0.999920
0.7478066430827781,1,0.999489
0.7312150450203458,0,0.998889
0.8575063569793321,1,0.999738
0.8734423161207507,1,0.999570
0.7715705921451079,1,0.999775
0.8549457439521027,1,0.999767
0.8650671001883653,1,0.999777
0.8304849980771869,0,0.997169
0.820014184466591,0,0.998582
0.8964533198669158,1,0.999671
0.8415122046443355,1,0.999926
0.8237691746149571,0,0.996769
0.7975472436867128,1,0.999566
0.8435059776693963,1,0.999369
0.8557431146170241,1,0.999830
0.8336294760219436,0,0.997932
0.799952323529667,1,0.999676
0.849956579494639,1,0.999921
0.8176974521652682,1,0.999353
0.8032617917952526,1,0.999686
0.8310788185715491,1,0.999842
0.8771924262036087,0,0.999101
0.8263106160492316,1,0.999918
0.8735214046982889,1,0.999924
0.8151085274307273,1,0.999272
0.8268323008725316,1,0.999927
0.8590171801770232,1,0.999555
0.8591431050944829,1,0.999919
0.8944659841579873,1,0.999922
0.8052711010791144,0,0.999018
0.8629100023725641,1,0.999927
0.8826856225775745,1,0.999915
0.8214118272931042,1,0.999918
0.8550875106131473,1,0.999442
0.8264401104925593,1,0.999921
0.8020876354755718,1,0.999924
0.8897154478344879,1,0.999805
0.7950931194202094,1,0.999748
0.8812837179024855,1,0.999924
0.7964843264202094,1,0.999927
0.8006038482423704,0,0.987130
0.902052288830766,0,0.998044
0.9266877947392462,1,0.999921
0.8830917820870832,0,0.998989
0.8939628497319996,1,0.999916
0.8325598995044307,1,0.999638
0.9077266665235544,1,0.999839
0.8873633705794868,0,0.995872
0.8577084419128101,1,0.999917
0.8919465014431743,1,0.999844
0.7952522885559737,1,0.999494
0.7272622473409319,1,0.999922
0.8543124257055186,1,0.999918
0.8266732741421426,1,0.999610
0.8875509250637971,1,0.999917
0.8729890766571016,1,0.999926
0.8144509597296395,1,0.999842
0.8563821820956751,0,0.998211
0.8217311822147344,1,0.999771
0.8590078455534281,1,0.999920
0.8921858843483469,1,0.999844
0.8502049538112726,0,0.994265
0.8916802577800899,1,0.999922
0.8834557436543544,1,0.999728
0.8973919815556557,1,0.999914
0.8340275738606373,1,0.999911
0.8469677753343026,1,0.999914
0.8498077475733959,1,0.999918
0.8518560839903161,1,0.999917
0.8565666803494025,1,0.999693
0.8231609579907855,1,0.999920
0.8598201747785527,1,0.999924
0.9131650537129812,1,0.999833
0.9145480875682241,1,0.999762
0.9176521700368656,1,0.999753
0.8905088757266543,0,0.998749
0.8794911661515062,0,0.998960
0.8602618818653645,1,0.999676
0.8343953951285379,0,0.998304
0.900199710319534,1,0.999856
0.8866396528691356,0,0.999123
0.8065941611551124,1,0.999392
0.8804812789049289,1,0.999924
0.9343118186836092,1,0.999922
0.8896837283444162,1,0.999849
0.8697605861948787,1,0.999758
0.8934489282176807,0,0.998524
0.9323574026962919,1,0.999766
0.8913663696743209,1,0.999918
0.8618130957146952,1,0.999843
0.8104788827425242,1,0.999923
0.8497518563138134,1,0.999914
0.8596500877525541,1,0.999844
0.8871110025991092,1,0.999531
0.8660969312608962,1,0.999588
0.9060635387593533,0,0.999206
0.879271785375957,1,0.999783
0.899827269479742,1,0.999699
0.8937595788481332,1,0.999529
0.859305658359846,1,0.999921
0.8696716404494871,1,0.999840
0.8330270599703113,1,0.999531
0.874132080428063,1,0.999925
0.8552409297237907,1,0.999911
0.8797462055833,1,0.999914
0.8153059704424721,0,0.995108
0.8510690008474283,1,0.999446
0.8287799560603749,1,0.999929
0.790909116446181,1,0.999277
0.8258609254243855,1,0.999631
0.8845045767621902,1,0.999922
0.8583052919688346,1,0.999919
0.8516674603542344,1,0.999825
0.8380564020622882,1,0.999836
0.8588458464405723,1,0.999916
0.8642972411387493,1,0.999845
0.9029319137782813,1,0.999923
0.8944690210276265,1,0.999918
0.8985067134165879,1,0.999917
0.9275488432603688,1,0.999918
0.8818774667391168,0,0.996857
0.8576118142337084,1,0.999246
0.8221766471852275,0,0.999015
0.8917574737295298,0,0.998991
0.9187111555646761,1,0.999764
0.8239033273154116,1,0.999375
0.811817801603868,0,0.992444
0.9218997835268931,1,0.999671
0.9209891653441399,1,0.999924
0.8471401007621702,1,0.999854
0.8653484320017848,1,0.999927
0.9048935249094787,1,0.999768
0.9091894993242426,0,0.996970
0.925235278678724,1,0.999477
0.8761655236344089,1,0.999692
0.7559972704963244,1,0.999756
0.8455567758110848,1,0.999253
0.8808269707378152,1,0.999670
0.8306400589829706,1,0.999518
0.8752502749971656,0,0.999161
0.8646599088400626,0,0.973722
0.8601101866506232,1,0.999929
0.8513334862876003,0,0.990073
0.9070505543291887,1,0.999760
0.9029081301063322,1,0.999833
0.8790207797704467,1,0.999748
0.8187120254398138,1,0.999683
0.8413455956379888,1,0.999920
0.8549634437619098,0,0.995265
0.8607656764166108,1,0.999926
0.8803499183255191,1,0.999851
0.8102228679389855,1,0.999922
0.8338691598118204,1,0.999673
0.859405681766357,1,0.999579
0.8887668696492239,1,0.999920
0.817076141941311,1,0.999769
0.8775598849003927,1,0.999691
0.8102181458704221,1,0.999929
0.8502838945818204,1,0.999927
0.8315947416861296,1,0.999925
0.8643286336012891,1,0.999920
0.8176099420098496,1,0.999658
0.8412142963089543,1,0.999924
0.8166212735501237,0,0.993609
0.8966132161931363,1,0.999617
0.8529422778573419,1,0.999925
0.7762145185401055,0,0.980990
0.8534273049162817,1,0.999694
0.816396124968733,1,0.999511
0.8238642299541452,1,0.999848
0.8875098328584016,1,0.999925
0.8953661210397763,1,0.999927
0.7861351606170806,0,0.978168
0.8364993482086479,1,0.999839
0.8057760187160776,1,0.999366
0.7960961077486906,1,0.999747
0.8602808989900176,1,0.999929
0.7846911394566164,0,0.998978
0.8275512282668186,0,0.998907
0.7261311049025573,1,0.999414
0.8392481676159814,0,0.998735
0.851762894534712,1,0.999916
0.8734929982421583,1,0.999922
0.7628767739522777,1,0.999693
0.7757416802765754,1,0.999619
0.8217062269673856,1,0.999826
0.7831653293719003,0,0.998203
0.8457854611716046,1,0.999824
0.8616023574686231,1,0.999754
0.8321951649852514,1,0.999339
0.7651650879029457,0,0.996740
0.8618503567998627,1,0.999377
0.8581064641465107,1,0.999274
0.8684162457701172,1,0.999764
0.873536816014158,0,0.997949
0.8879961492977656,1,0.999657
0.8214139328643486,1,0.999917
0.8434534326942338,1,0.999431
0.8828291391411824,0,0.998902
0.8692892349858165,1,0.999841
0.8278497922160151,1,0.999768
0.8384823504116307,1,0.999827
0.830263623553885,1,0.999911
0.8421686392552078,0,0.998262
0.8175369306234689,1,0.999927
0.8686661474132918,1,0.999704
0.8892433945733159,1,0.999915
0.8999137176715071,1,0.999619
0.8260806220699483,0,0.996178
0.7005858588863936,0,0.999200
0.7528002509420971,0,0.998709
0.8674179379726783,0,0.998425
0.8622397021460955,1,0.999926
0.8006271734674277,0,0.997119
0.9226200682965658,1,0.999924
0.8379991575795714,1,0.999596
0.8686670894761286,1,0.999271
0.87202866706338,1,0.999840
0.8461080176157857,1,0.999700
0.876935700607558,1,0.999762
0.8261264731333484,1,0.999863
0.8982933449205439,0,0.999113
0.8714659064626245,1,0.999859
0.8643863250066987,1,0.999918
0.8743644054567353,1,0.999819
0.8151975827054762,1,0.999926
0.8513907084262318,1,0.999405
0.8940836172318497,0,0.993238
0.8860985079015793,0,0.999031
0.7763252150292962,1,0.999849
0.9305251090390477,1,0.999602
0.8427871005485724,1,0.999676
0.8630678300965142,1,0.999540
0.8757935400131759,1,0.999851
0.8620755574138879,1,0.999516
0.8943924948840143,0,0.998734
0.8202682188708587,1,0.999857
0.8079234107787605,0,0.991686
0.7722700006945145,1,0.999770
0.8669906723112925,1,0.999920
0.8528649582168082,1,0.999919
0.8227201946437236,1,0.999833
0.8791070618839508,1,0.999826
0.8512021299970574,0,0.998643
0.8978763466572072,1,0.999928
0.87668693955399,1,0.999915
0.8488506101242486,1,0.999767
0.8234004173821611,0,0.983065
0.9109422794047356,1,0.999665
0.8803310380675684,1,0.999830
0.8870306650198811,1,0.999843
0.8841238659634888,1,0.999575
0.8256552521365841,1,0.999550
0.8501884310984757,0,0.990419
0.8785409027583334,1,0.999911
0.8490689240069644,1,0.999740
0.8524718465209195,1,0.999857
0.8301586553348625,1,0.999854
0.886907878303953,1,0.999928
0.810770229140929,0,0.998842
0.8395755032547406,0,0.999026
0.8104194311994082,0,0.998882
0.8545177999975311,1,0.999923
0.8314475653903847,1,0.999928
0.8484928685976468,1,0.999922
0.8344869689966313,0,0.990163
0.8513453212424309,1,0.999912
0.7870960177257105,1,0.999295
0.8400598109235192,1,0.999748
0.8681060375085604,1,0.999767
0.7849198399876902,1,0.999921
0.8066266927899097,1,0.999694
0.8969386142687169,0,0.995363
0.8268974728072702,1,0.999754
0.8253818625523498,1,0.999838
0.8230339505961458,0,0.990562
0.8144353790188081,0,0.998421
0.8106176304739403,1,0.999918
0.8174383164471228,0,0.998238
0.7679703380780148,1,0.999927
0.8651747673154605,1,0.999703
0.8338136177030689,1,0.999614
0.8829836012280116,1,0.999923
0.779244156408925,1,0.999533
0.8232280659731311,0,0.998985
0.8673072203336849,1,0.999756
0.8514943705313851,1,0.999845
0.8288102657539324,1,0.999656
0.851378070677538,1,0.999844
0.873573590642396,1,0.999226
0.9001177941618489,1,0.999604
0.8949592333338371,0,0.998726
0.8452035899915294,0,0.997632
0.8487701687646214,1,0.999921
0.8797247786897411,0,0.995112
0.9004299822340764,1,0.999626
0.8982623547670661,1,0.999836
0.8551683196994804,1,0.999927
0.8274276681007994,1,0.999766
0.8366095015780739,1,0.999927
0.8036325930897239,1,0.999921
0.8624870178675469,1,0.999924
0.7514350903996465,1,0.999925
0.8042034005170762,1,0.999248
0.8509442522913209,1,0.999771
0.8297989668716944,0,0.998483
0.8579108339542798,0,0.997355
0.8471996131318497,0,0.999137
0.79177489227136,0,0.998945
0.8752661336612517,1,0.999517
0.8871881359848056,1,0.999245
0.8904067699908457,0,0.990096
0.8363047396672096,1,0.999229
0.8146393348182362,1,0.999857
0.842895898598725,1,0.999916
0.8968145420074294,1,0.999363
0.8988073400858788,1,0.999922
0.7400077531309806,0,0.998872
0.8814846912465241,1,0.999332
0.8369289574325915,1,0.999682
0.79374213235133,1,0.999924
0.8560057744917696,1,0.999834
0.8252804126084496,0,0.997228
0.8719390734685557,0,0.996212
0.8671472605803783,1,0.999927
0.894204237582928,1,0.999853
0.8931788899416383,1,0.999839
0.7924786354719385,0,0.978480
0.8639437717552448,0,0.993862
0.885099150230803,1,0.999926
0.9085377801064743,1,0.999855
0.8583215587529827,1,0.999539
0.8296682831612336,1,0.999838
0.8511040929005232,1,0.999922
0.7996002170932486,1,0.999522
0.8467879808156177,1,0.999689
0.8570622174606128,1,0.999919
0.8914671598626516,1,0.999923
0.8678540939887682,1,0.999833
0.8798431071465971,1,0.999920
0.8286022056250346,0,0.998603
0.8672501538747817,1,0.999748
0.8326826343828545,1,0.999906
0.8947791757325011,1,0.999907
0.8167832623922753,1,0.999923
0.9052741799522008,1,0.999921
0.8685354240776094,1,0.999307
0.867631851847821,1,0.999772
0.8160975477450454,1,0.999928
0.8339951844151868,1,0.999493
0.8869066637960947,0,0.991600
0.8540034135617639,1,0.999926
0.8325166787038142,0,0.999141
0.8812018701106663,0,0.998323
0.8259189179725107,1,0.999928
0.8403002740312335,1,0.999841
