0.7855713541333765,0,0.996298
0.7922947865285489,1,0.999504
0.6976987442592948,0,0.994859
0.8334433365479306,0,0.997579
0.8225081862820607,0,0.994535
0.7528144269502403,1,0.999738
0.6920345961178217,0,0.996964
0.7203297878880145,1,0.999567
0.7873351411600927,1,0.999913
0.6682862979919203,1,0.999760
0.7032566655880605,0,0.997440
0.7380817961722491,1,0.999816
0.7640439947693161,1,0.999229
0.7674147178335237,0,0.998675
0.5433423709315162,0,0.998608
0.6204193066765943,1,0.999506
0.6163382027620885,1,0.999452
0.6258294258998018,1,0.999688
0.692192770168236,0,0.995389
0.5518551403423428,1,0.999302
0.5010196766450274,0,0.995408
0.6036754820996776,0,0.998820
0.5631440203491737,0,0.998778
0.5456256023561797,1,0.999936
0.5833882036597839,0,0.999049
0.5617557627909828,0,0.997101
0.5933932950944304,0,0.991767
0.5208879808775969,0,0.997205
0.4353229935731612,1,0.999918
0.48584333305515626,0,0.999084
0.6229408485817364,1,0.999741
0.5773454724384925,1,0.999472
0.5558492355743924,1,0.999931
0.6153519871742396,1,0.999632
0.49196416891629435,0,0.996254
0.4161182905979805,0,0.992092
0.32360957500193277,0,0.998644
0.493609768304946,1,0.999603
0.39819439727593486,1,0.999539
0.460549434428391,1,0.999443
0.5246894712784951,1,0.999939
0.5014132259326606,0,0.996821
0.49114773669075096,1,0.999569
0.47951600972145664,0,0.996974
0.4670791006172471,1,0.999484
0.49698106605836223,1,0.999865
0.42474281469467473,0,0.997646
0.5336139710580203,1,0.999863
0.4730276040915081,0,0.998230
0.5455364028018644,1,0.999936
0.5779779374041892,0,0.997859
0.5659792889241366,1,0.999874
0.5740356852837544,0,0.998664
0.6144014523342578,1,0.999742
0.6043882331900173,1,0.999609
0.4981078417298843,1,0.999930
0.5513968813313321,1,0.999932
0.5267248701187248,1,0.999936
0.5928881132697404,0,0.997687
0.5533323166825199,1,0.999672
0.5596440052515401,1,0.999932
0.4999129318825757,1,0.999582
0.5398163901134644,0,0.995321
0.604135485615597,0,0.998766
0.5969298435093083,0,0.997944
0.5961249746157198,0,0.995988
0.5912018251103592,1,0.999633
0.5781715196006874,1,0.999743
0.5848496054115132,1,0.999589
0.6477794640807151,1,0.999557
0.5907329460726697,1,0.999937
0.6024439579769567,1,0.999422
0.6431139351133524,0,0.998929
0.5470763726196206,1,0.999800
0.6132461502133855,1,0.999931
0.6227035412895892,0,0.996954
0.5729901305165788,1,0.999721
0.6128355725846978,1,0.999933
0.6171002115204998,1,0.999697
0.6138045062113228,1,0.999933
0.6589088284017108,1,0.999874
0.6200116268004646,1,0.999939
0.5919434592080429,1,0.999385
0.6311497896168025,1,0.999868
0.6436115466783008,1,0.999443
0.6147999271072377,0,0.995505
0.5361208604194986,1,0.999933
0.48630289334085064,0,0.998224
0.49872616699784234,1,0.999819
0.5283985703396484,1,0.999938
0.5102369669717598,1,0.999940
0.5419045140043588,0,0.997164
0.5281447262480686,1,0.999877
0.5117788915767991,1,0.999866
0.5194133265733056,1,0.999873
0.5181620731953019,1,0.999622
0.519161618159162,1,0.999877
0.5525494253104866,0,0.998865
0.5348331862812604,1,0.999748
0.5107447954886587,1,0.999932
0.5271091685570028,1,0.999866
0.5387707684854741,0,0.999009
0.4835836030801516,1,0.999864
0.533323258210402,0,0.998463
0.5207707413496742,0,0.998713
0.5673115280998107,0,0.998676
0.571401106823253,1,0.999936
0.4729815614088316,0,0.995301
0.5476208560500714,0,0.996155
0.5243704365550538,0,0.993131
0.5587186327087772,0,0.997231
0.5767640461417773,1,0.999602
0.5046176449002584,1,0.999364
0.5860192391584356,0,0.996808
0.5469628853158702,0,0.987387
0.5294215308135727,1,0.999934
0.5679958867167446,1,0.999933
0.522868570860136,1,0.999629
0.5358776136794337,0,0.998967
0.5279192285294044,1,0.999941
0.4701845734191451,1,0.999937
0.5476775115655524,1,0.999316
0.544405033392702,0,0.998985
0.479649921804663,0,0.999093
0.5396422178638614,1,0.999668
0.5141006878337303,1,0.999521
0.4593827175181658,0,0.998041
0.5205946790882958,1,0.999936
0.4454880298825336,1,0.999864
0.4708730391867661,1,0.999863
0.4798565340789904,0,0.998173
0.4890726535876146,0,0.998832
0.4676373937240663,0,0.996898
0.49779653560785814,0,0.999018
0.5129270488202757,1,0.999741
0.4514728227806474,1,0.999935
0.5366614000805324,1,0.999678
0.49826029338419126,0,0.998924
0.4952637493700657,0,0.998475
0.5193102805146287,1,0.999934
0.5145991944347442,1,0.999801
0.5025053180765638,0,0.997579
0.5268863706838676,1,0.999520
0.5320769682186848,1,0.999646
0.5238964902830332,1,0.999603
0.5437736378244022,1,0.999804
0.5029833965328859,1,0.999401
0.44793701634052974,0,0.992274
0.5165917285493083,0,0.999056
0.47307631504923237,1,0.999708
0.5400343600856947,0,0.984811
0.4440560390673359,1,0.999929
0.4909277460926685,1,0.999651
0.41946092710761573,1,0.999734
0.5395083886301187,1,0.999925
0.5246523435298434,1,0.999932
0.5454817062742692,1,0.999799
0.5320435607824475,0,0.999067
0.5598175611364997,1,0.999930
0.547687955137259,1,0.999744
0.5334105836557911,0,0.994320
0.5033366246699755,1,0.999931
0.46606097167206456,0,0.997416
0.4752683177122414,0,0.996554
0.5340590092088173,1,0.999737
0.5181039040526367,1,0.999928
0.5184033540129807,1,0.999932
0.5034285885040323,0,0.999041
0.5334448818650388,1,0.999931
0.5434634942438746,0,0.999197
0.5465087427909059,0,0.997795
0.47440562782602996,1,0.999791
0.4881879606278273,1,0.999804
0.530982497897358,1,0.999800
0.5317869781900555,0,0.996144
0.5317747215173941,1,0.999873
0.4904193536949801,0,0.998959
0.5166241613127769,1,0.999938
0.5290708254258969,1,0.999928
0.5293376586151247,1,0.999861
0.5163603904835321,1,0.999868
0.5612972309771881,1,0.999649
0.5063167367982181,1,0.999716
0.5328762019756356,1,0.999671
0.4704150821991356,0,0.999212
0.5193035661694841,0,0.998739
0.4408735167213301,0,0.999274
0.565480719666916,0,0.998289
0.5111210889037069,0,0.999289
0.4901794395308144,1,0.999796
0.5389818684223104,0,0.999109
0.5679070329243082,0,0.997665
0.5734154647756771,0,0.998656
0.4578884731314924,1,0.999935
0.47742860904697954,1,0.999936
0.5235537862515989,1,0.999819
0.513453671805098,1,0.999516
0.5130828683779944,0,0.980297
0.5359990605452234,1,0.999663
0.49457346073029346,1,0.999931
0.4656952490736942,1,0.999869
0.5345237017166382,0,0.999227
0.538967051018287,0,0.989304
0.5204703720687472,0,0.998412
0.47846385722526485,1,0.999789
0.4743636439609519,0,0.998899
0.5121407665787692,1,0.999379
0.5184374603064063,0,0.987613
0.45348104485372437,1,0.999796
0.47273190697903605,1,0.999372
0.515863416719392,0,0.999100
0.4904332885389222,0,0.994997
0.48269749364805414,0,0.999240
0.5139405824427691,0,0.999017
0.4792532830045262,1,0.999932
0.5086099644126719,1,0.999931
0.5143038253645804,1,0.999810
0.44192110128358086,1,0.999718
0.505232300335306,0,0.999195
0.4559982535120985,0,0.994804
0.5438155569444119,0,0.997855
0.4430318101122658,1,0.999802
0.5185593691160761,0,0.999316
0.4469737376187335,1,0.999872
0.45703927267297245,0,0.997921
0.5249860815517939,1,0.999419
0.4849755381372327,1,0.999935
0.52466279277316,1,0.999688
0.5260486221867648,1,0.999812
0.5403055783951898,0,0.998888
0.5133377378994756,0,0.998834
0.49312454376929343,1,0.999746
0.5285105318842988,1,0.999938
0.5134253152880908,0,0.998660
0.5036287143777602,1,0.999487
0.5588022294125194,0,0.998459
0.5560140685934245,1,0.999566
0.540793158717065,1,0.999936
0.5181935047000663,1,0.999870
0.530819476548896,0,0.996961
0.4964205503886445,0,0.997377
0.5037810894859489,1,0.999653
0.5131677725372982,1,0.999810
0.5309905606052926,0,0.996719
0.5326075623101577,1,0.999806
0.5884164766813812,0,0.994676
0.5236874451354282,1,0.999935
0.48947924067708487,1,0.999869
0.5320776177748205,1,0.999309
0.5516204104374207,0,0.998024
0.5430823970584547,0,0.998997
0.49505974610715814,1,0.999805
0.5159266610760999,0,0.997241
0.5009322796569088,1,0.999740
0.5723025100540707,1,0.999931
0.5200261366500025,1,0.999571
0.4747737155254079,0,0.999017
0.4950801122057793,1,0.999861
0.49908380143902875,0,0.999244
0.5140786783476207,0,0.992622
0.49997118573888055,0,0.998126
0.4112302273545224,1,0.999935
0.5029889030530725,1,0.999790
0.4997678409192154,1,0.999554
0.4881263674700157,0,0.999106
0.5166809345609257,1,0.999937
0.5138738526048728,1,0.999807
0.4622351111621575,1,0.999931
0.49213250843337353,1,0.999723
0.44502444687175635,1,0.999928
0.4850122643850067,0,0.998472
0.49987507377708157,1,0.999633
0.4394514501220132,0,0.999268
0.40147421957535767,0,0.998496
0.4591715832664673,0,0.996725
0.5219851888739293,1,0.999856
0.5062652296229997,1,0.999932
0.46097178360647617,0,0.991111
0.4232962099893981,0,0.998687
0.5189630803937577,0,0.998896
0.48686874244767103,1,0.999936
0.5389815296862436,0,0.997522
0.5117934671090776,0,0.999235
0.5192630483673374,1,0.999874
0.4636685383306863,0,0.997909
0.45887696996826294,0,0.998087
0.5395766080027946,1,0.999928
0.44905022080433665,1,0.999801
0.4532193138153087,0,0.996898
0.5000441228976474,0,0.998518
0.5217081024970679,1,0.999588
0.4564330810999458,0,0.996076
0.4806201515648509,0,0.995502
0.4564280506137083,0,0.986029
0.494073688368534,1,0.999433
0.4689276671072302,1,0.999586
0.522207102615007,1,0.999933
0.5183142019933693,0,0.999207
0.5115529824482422,1,0.999631
0.5009713329174852,1,0.999865
0.49811721937142156,1,0.999512
0.49772338646649095,0,0.993550
0.43219529788519745,1,0.999868
0.547424769201486,0,0.992658
0.42165338976034095,1,0.999863
0.4856291032354368,1,0.999865
0.47719421127792144,0,0.998178
0.5120625741479744,0,0.999211
0.49277454465516757,1,0.999748
0.5194800130645022,0,0.998699
0.5409421393264539,0,0.981825
0.47577535775480284,1,0.999719
0.5039371767881299,0,0.998687
0.4763046041970692,0,0.999154
0.49758096332302726,0,0.998940
0.5118891740523001,1,0.999655
0.496579545184825,0,0.989104
0.5684625659759103,1,0.999938
0.5211367676531113,0,0.996482
0.5056027354982586,0,0.992674
0.44485227757453,0,0.996226
0.5347534682421825,0,0.992125
0.47366871995478665,1,0.999787
0.5234319969765473,0,0.999085
0.4535311036076124,0,0.997304
0.5033302980586227,0,0.996512
0.48559032914102207,0,0.998899
0.5114997568092383,0,0.998749
0.49758984782316346,1,0.999747
0.46911155050090025,1,0.999857
0.5346338862331312,0,0.998683
0.4989747401716715,0,0.995722
0.4771650935069506,0,0.993258
0.45440288294920206,1,0.999852
0.5255057438562751,1,0.999628
0.4920300755532222,0,0.995049
0.5152349950337749,0,0.996288
0.5280155178295182,1,0.999934
0.479687522570426,1,0.999668
0.5720147593609091,1,0.999873
0.5745730590072575,1,0.999801
0.4731784972816683,0,0.998532
0.5538396105518077,0,0.998053
0.5275667390599635,1,0.999928
0.5273800106752363,0,0.998068
0.5161503033228055,0,0.996126
0.4680337578513152,1,0.999803
0.5254716486247792,1,0.999798
0.4347685495476478,0,0.999313
0.4930581057738447,0,0.998811
0.5325913193218458,0,0.999216
0.5264758390783019,0,0.994729
0.5424594520861351,1,0.999806
0.47157384092845095,0,0.961442
0.5757539723028857,1,0.999744
0.5715515295813085,0,0.991220
0.5204890952117615,1,0.999864
0.5308111685792855,1,0.999935
0.46100019418593463,0,0.999252
0.536879751577256,1,0.999403
0.4671281854187466,0,0.999020
0.5301658790802106,1,0.999934
0.49394650038418625,1,0.999414
0.532263728583668,0,0.999214
0.5247612634340567,1,0.999928
0.5233386250938773,0,0.989808
0.5791131035330795,1,0.999364
0.5471667535588446,1,0.999718
0.5376259561808479,1,0.999875
0.5041496327773352,1,0.999936
0.6228582093161759,1,0.999925
0.568901490178109,0,0.998982
0.5763756863343742,1,0.999928
0.5839334094471789,0,0.998945
0.508454235325927,1,0.999928
0.48371402342231995,1,0.999634
0.53762212256257,1,0.999352
0.5283408756104769,1,0.999404
0.5104907017869539,1,0.999790
0.5117242913179727,1,0.999929
0.5503820526328497,1,0.999298
0.5073696968507037,1,0.999331
0.5769324384068921,0,0.997498
0.5102982901211199,1,0.999819
0.5551212773826747,1,0.999935
0.5818266118926856,0,0.995580
0.6023123665785656,0,0.996979
0.5611950131911835,1,0.999932
0.5437230880434067,1,0.999557
0.5265865760818943,1,0.999651
0.5560679578877762,0,0.999184
0.584735069424103,1,0.999378
0.5612975256963195,1,0.999867
0.5649339756066231,1,0.999751
0.5561089516154787,1,0.999939
0.6026624950013794,1,0.999938
0.5555345735724498,1,0.999518
0.5366847787798394,0,0.998770
0.5493831414511078,0,0.998855
0.49006178368973385,1,0.999318
0.45433275587078914,0,0.990881
0.47077631602657577,1,0.999656
0.4993225674163105,1,0.999318
0.5080838607442397,0,0.993052
0.48419472411631226,1,0.999938
0.48149550953250825,0,0.998992
0.43228703399197554,1,0.999427
0.48913706319719663,0,0.997503
0.44874347924782576,1,0.999860
0.40361986651068316,0,0.998809
0.4619351397410213,0,0.998540
0.4879112864881972,1,0.999373
0.4817897202861114,1,0.999428
0.4747748135548268,0,0.998399
0.5209668373788979,1,0.999934
0.43337161398258983,1,0.999873
0.5155521262810574,1,0.999514
0.49183858900517125,1,0.999302
0.46345080327681354,1,0.999932
0.48656615683989557,0,0.998725
0.49753082991917613,0,0.998664
0.3944722099773344,1,0.999735
0.483666627696098,1,0.999867
0.46052652622833007,1,0.999929
0.5293333522687534,1,0.999937
0.541384955376035,1,0.999684
0.4954853917205075,0,0.998209
0.5089399129848399,1,0.999545
0.49477055089854255,1,0.999931
0.49425582768787996,1,0.999617
0.5121033162014579,1,0.999293
0.4876748406419837,1,0.999930
0.5194849782127103,1,0.999863
0.49309582285632736,1,0.999878
0.42445378171556225,1,0.999466
0.49949494311336706,0,0.998774
0.48991254051988975,1,0.999933
0.4678069039962553,1,0.999934
0.42022035831474636,0,0.976294
0.46775231144319085,1,0.999937
0.43384835289027757,0,0.992620
0.489339027968108,0,0.996806
0.48180019772824645,0,0.998414
0.48599938464223985,1,0.999930
0.4780019737307038,0,0.998318
0.5290011623647203,0,0.997257
0.49664561243445227,1,0.999808
0.4563279826585753,0,0.998235
0.4778240133461423,0,0.996907
0.4869189779383599,1,0.999677
0.45741136486709794,0,0.997087
0.4847978702735009,0,0.998419
0.492821510632405,1,0.999860
0.483911848876792,0,0.988782
0.4401975004798948,1,0.999936
0.4467133390314443,0,0.992831
0.458545574227336,1,0.999937
0.4649985208078465,1,0.999865
0.47218656715593504,0,0.998435
0.47604299592114774,0,0.996280
0.5000499436887447,1,0.999864
0.4996459829993256,1,0.999935
0.5110079697721002,0,0.995504
0.44827054066268013,1,0.999617
0.440506000545616,1,0.999808
0.49888274248772285,0,0.999091
0.47486906959156955,1,0.999930
0.446660789653857,1,0.999926
0.43805735187785394,0,0.998299
0.47854056342142287,1,0.999934
0.4473779510087295,0,0.995827
0.49250580995919513,0,0.998522
0.45877893815303883,1,0.999462
0.42292665762677584,0,0.998477
0.4634711284461458,0,0.998118
0.5039807633922615,1,0.999796
0.5202394193675962,0,0.994845
0.43390408351450555,0,0.996035
0.5120164163609355,1,0.999414
0.4741707961223335,1,0.999933
0.48938097685737786,1,0.999932
0.5111043010531375,1,0.999929
0.4933245052238645,1,0.999934
0.5151937209111932,0,0.998482
0.4664928754765204,0,0.987284
0.49695374894281075,0,0.972292
0.4791447906972252,1,0.999336
0.4879639953958353,0,0.999020
0.5089629986765463,1,0.999811
0.46159035855966646,1,0.999934
0.48508618431105355,0,0.995976
0.4739070673026797,0,0.997059
0.48707349244778214,0,0.997394
0.4792079765086419,0,0.999171
0.4944003438483734,0,0.999310
0.49571827890394266,0,0.996321
0.4268685685157699,0,0.993303
0.46216226315961584,1,0.999876
0.5273501344988447,0,0.998441
0.5035447085075777,1,0.999932
0.4964331308939681,1,0.999935
0.4970938481920313,1,0.999935
0.4663206553293363,1,0.999799
0.5497428719641797,0,0.990608
0.480425704694779,1,0.999809
0.5233396859041073,1,0.999871
0.5172444663216185,0,0.995250
0.4033792784501316,0,0.994954
0.44258579377324453,1,0.999675
0.5403492129738574,1,0.999936
0.4974304467282414,0,0.999314
0.48461674614446076,1,0.999789
0.5271868320320288,1,0.999936
0.504488995889931,1,0.999932
0.4521763240590977,1,0.999936
0.49573992175912657,1,0.999860
0.5074243381145278,0,0.997690
0.4582502169192282,1,0.999934
0.49964172818087255,0,0.996265
0.52497547230604,0,0.997590
0.5016059503632561,1,0.999417
0.4767948935126416,0,0.999254
0.48284437964531507,1,0.999673
0.5373122646720122,0,0.998976
0.5336261845790371,1,0.999937
0.5231905554374703,1,0.999750
0.5095777112317541,0,0.997549
0.5040394921724517,1,0.999864
0.49811383477744525,0,0.999137
0.467871969149448,1,0.999794
0.48328154113360267,1,0.999929
0.474283345640979,1,0.999742
0.4549697858823182,1,0.999792
0.49378002008311556,0,0.996739
0.3710949239017952,0,0.997853
0.42174141248604485,1,0.999855
0.46730438884528336,0,0.998129
0.4645803929853812,1,0.999728
0.4772048578484483,0,0.998779
0.5231668506173632,1,0.999931
0.4383926126139016,1,0.999393
0.4574254108517482,1,0.999863
0.4654523972572365,1,0.999935
0.49455137121073794,0,0.996179
0.520991292755951,0,0.993972
0.5354127502869755,0,0.997520
0.5147676839075229,0,0.998853
0.5450344533609727,0,0.992399
0.48429594127226955,1,0.999934
0.5303579109092157,1,0.999873
0.4845860513089538,1,0.999597
0.5084208145231899,0,0.994712
0.5284629267083657,1,0.999445
0.5282503569390766,0,0.995349
0.5122295309702815,0,0.996265
0.5019056500799648,0,0.991860
0.4805562267689504,1,0.999937
0.4465671883809063,0,0.999166
0.5232483220777927,0,0.995079
0.5224997721954279,1,0.999929
0.4980014435521068,1,0.999865
0.4380607070899396,1,0.999790
0.46529075203625175,1,0.999934
0.5329070078304036,1,0.999356
0.387006635001971,1,0.999404
0.4332406343765494,1,0.999929
0.45915418433453353,0,0.994662
0.4939214151674302,1,0.999450
0.476301130624476,1,0.999931
0.4439448850527442,0,0.996997
0.4931787308111518,1,0.999807
0.5298727576885502,1,0.999937
0.5542096950970261,1,0.999932
0.44900989800945446,1,0.999928
0.4411687508945277,0,0.999283
0.5513774076334386,0,0.998041
0.447710116897169,1,0.999632
0.45359126656887394,1,0.999873
0.5204664384042261,0,0.997225
0.5059487182126313,0,0.997835
0.5446168377638461,0,0.998442
0.4652564966651104,1,0.999934
0.4710796432909533,1,0.999930
0.5385627521510998,1,0.999361
0.44712754106505165,0,0.998413
0.4907132009128132,1,0.999937
0.5176275792952648,0,0.994773
0.49792753731053696,0,0.998271
0.43158675266895874,1,0.999799
0.5365256879656856,0,0.999198
0.48754884727383285,1,0.999872
0.44698224153329874,0,0.999267
0.4938210493342631,0,0.992459
0.5088381405303413,0,0.996788
0.4764533263289545,0,0.997148
0.5509709554690664,1,0.999497
0.5213370410248176,1,0.999940
0.5232477669612282,0,0.997052
0.5518285991603951,0,0.998751
0.4896078495052313,0,0.975647
0.5200263697979525,0,0.998205
0.5555430707787723,1,0.999331
0.5583876032685197,1,0.999819
0.5252776411785081,0,0.988770
0.5392336011915424,1,0.999937
0.5498009520384223,1,0.999342
0.5094284806682395,0,0.998006
0.5040471889359766,1,0.999931
0.5329452374906571,1,0.999934
0.5620361825353125,1,0.999363
0.571467460832792,1,0.999807
0.5893264360366285,1,0.999556
0.5391743663230151,1,0.999937
0.5411627577508691,1,0.999935
0.568068168296539,0,0.997975
0.5763387809821517,0,0.996705
0.582269342824069,0,0.989830
0.5995706605471389,1,0.999655
0.5185063168816474,0,0.998829
0.5299457715485014,0,0.982243
0.5796980829723289,1,0.999547
0.574492192064679,0,0.999052
0.5395553753564781,1,0.999937
0.5536704743324186,0,0.997024
0.5506871650904674,1,0.999864
0.5390516943318105,0,0.998125
0.5567337092517639,0,0.992205
0.4871864035530263,1,0.999938
0.5555944269914024,1,0.999936
0.48990631978540844,1,0.999785
0.5301576882345296,0,0.999255
0.5285729395985347,0,0.998713
0.529155446463513,1,0.999803
0.5224276672921745,0,0.997753
0.5374145235093581,1,0.999938
0.5681817022477172,1,0.999802
0.5447222379970033,0,0.999272
0.5954127190861289,0,0.999043
0.5774403843874456,1,0.999862
0.5578803951576731,1,0.999934
0.5604972474100912,1,0.999933
0.5559920465444674,1,0.999934
0.5669165628862949,1,0.999931
0.5815800265913801,1,0.999658
0.5900783910848617,0,0.998329
0.5608591354309348,0,0.999232
0.5957482215049827,1,0.999456
0.573740569271662,1,0.999938
0.5447022059336784,1,0.999937
0.5905789558692407,0,0.998540
0.5735891951004227,0,0.998138
0.5196506919285342,0,0.997617
0.5878147936600054,0,0.999049
0.5218601886208416,1,0.999935
0.6077321213780764,1,0.999876
0.5981822409829322,1,0.999666
0.5552546717549967,0,0.988716
0.5875657309645702,0,0.983684
0.5023176527136541,0,0.998921
0.5770389628859602,1,0.999930
0.5109575407578761,1,0.999871
0.5879947377046387,1,0.999608
0.5994195447340627,1,0.999938
0.538088819400398,1,0.999806
0.5567609341533305,1,0.999677
0.5167819654632962,1,0.999745
0.47532693318467806,1,0.999931
0.5309729831232645,1,0.999628
0.5152986102827789,0,0.996124
0.557986857071556,1,0.999935
0.5732471802234234,0,0.996579
0.4964399669143476,0,0.995743
0.5294956160924925,1,0.999806
0.49067424460493003,1,0.999872
0.5453487733589324,1,0.999876
0.5455624894358172,0,0.993812
0.5972976700978633,1,0.999929
0.5410484336777188,1,0.999559
0.5878881983540484,0,0.997927
0.568992763190902,0,0.999054
0.5199385110879285,0,0.998659
0.563578632830006,1,0.999936
0.5684515273135395,1,0.999811
0.49176591957495563,1,0.999939
0.5493175377317607,0,0.992985
0.5219296557047699,0,0.996922
0.6224222710034738,1,0.999935
0.5775848871682416,0,0.998575
0.6061290304871229,0,0.997619
0.6070529485804594,0,0.999046
0.19711796773762774,1,0.999801
0.2560354587055739,1,0.999860
0.17891227304898172,0,0.999081
0.211055983635117,1,0.999703
0.19874440439014687,0,0.998686
0.2360482274026593,0,0.996155
0.2374370448919443,1,0.999787
0.19806941909637693,1,0.999635
0.28000191625712406,0,0.986269
0.2660779202856403,1,0.999570
0.19612242438804298,0,0.995712
0.22926232253868095,1,0.999411
0.2572062264428398,1,0.999918
0.23303994154938887,0,0.998975
0.2942129408936781,0,0.999221
0.3427698824467648,0,0.990213
0.22396037943532235,1,0.999715
0.3439008961053378,1,0.999375
0.34886903011009074,1,0.999933
0.35452429365001914,0,0.998234
0.32642586207835206,0,0.999170
0.22534261958418833,1,0.999367
0.21707641093554814,1,0.999194
0.26659228301277577,1,0.999365
0.24289461001745632,1,0.999918
0.36869546527213515,0,0.995814
0.3650514680612241,1,0.999861
0.3573915612976936,1,0.999861
0.27161680975299785,0,0.995087
0.3185478003155958,1,0.999585
0.3494354141756855,0,0.997019
0.26253074805625937,0,0.997885
0.372081103004829,1,0.999864
0.252779410100556,0,0.999110
0.3223507438389017,1,0.999795
0.30086235428268937,0,0.998854
0.2927880971599516,0,0.994958
0.2182028922743359,0,0.992287
0.2367986432715423,0,0.997321
0.2708463014750207,1,0.999926
0.39067439462168896,1,0.999778
0.3723081086266516,1,0.999932
0.29603773914219256,1,0.999706
0.2138548009347414,0,0.994167
0.2105472938595869,1,0.999590
0.3910530858424823,0,0.997251
0.2814474509943078,0,0.999117
0.34301245271556935,0,0.988116
0.2652660258414112,1,0.999555
0.23774193624305934,1,0.999334
0.23174895343449725,0,0.996347
0.28740666054808944,0,0.989742
0.21954791827348882,0,0.998926
0.30601582158531027,1,0.999495
0.28799888485964853,1,0.999560
0.33581879264827685,0,0.997513
0.36634090509253614,1,0.999865
0.36630388428774535,1,0.999856
0.25733591863381866,1,0.999791
0.3345439032237241,1,0.999928
0.3886658209668899,1,0.999930
0.32741735578793424,0,0.998487
0.30426855826311566,0,0.998179
0.26219382149022064,0,0.997298
0.38288630786206096,1,0.999929
0.27905036376526987,1,0.999929
0.29893264281922016,0,0.993396
0.267986281578263,1,0.999353
0.3100171057432638,0,0.992614
0.25846090350548345,1,0.999320
0.315139631945388,1,0.999857
0.4140600931263103,1,0.999934
0.3449323262582463,0,0.998197
0.29214208974711053,1,0.999928
0.30085394881750255,0,0.995209
0.32784089119431453,0,0.997449
0.26462872007726107,1,0.999926
0.3580009619637487,0,0.994380
0.34428039998024057,0,0.997996
0.27663488742202547,1,0.999401
0.3557431921513352,0,0.997826
0.31096415119034376,1,0.999854
0.2724231228932097,0,0.997334
0.3225637036389489,1,0.999926
0.3812031620129428,0,0.994123
0.2886512105568239,1,0.999778
0.3488106908366077,1,0.999928
0.2660639499871978,1,0.999423
0.35778487318490837,0,0.999179
0.32327529398825866,1,0.999775
0.30341242320074474,1,0.999855
0.3255766554719813,1,0.999553
0.24201508182177564,0,0.994706
0.334993003620191,0,0.989434
0.3261412626386348,1,0.999723
0.3257643048972133,0,0.999226
0.3922598618447391,0,0.993964
0.35932781853408735,1,0.999862
0.3694319982878584,1,0.999519
0.378104031408948,1,0.999927
0.36150813871126564,0,0.993562
0.41067795586554856,1,0.999931
0.3808129328227054,0,0.993813
0.320351478895109,1,0.999222
0.2200584520626397,0,0.997053
0.21950888362916807,0,0.995194
0.20574185520245264,1,0.999785
0.2701613740726103,1,0.999380
0.2255211792512128,1,0.999467
0.20739936592653246,1,0.999743
0.22079862704933279,1,0.999930
0.22474305620945592,1,0.999617
0.24823176766687313,1,0.999540
0.3083525385758709,1,0.999914
0.26389159717523825,0,0.996426
0.2569706899730473,1,0.999931
0.24440231204306614,1,0.999421
0.26610456080140615,0,0.994446
0.24624712732054543,1,0.999930
0.18377742738185976,1,0.999930
0.23488662619994663,1,0.999739
0.22823377540718795,0,0.998719
0.2138795332662811,1,0.999793
0.1999874191959196,0,0.998324
0.22544731883094285,1,0.999375
0.25034893451160595,1,0.999785
0.3001924659715144,1,0.999763
0.2755512568004224,1,0.999653
0.2613698755463357,0,0.995867
0.2676978308990635,1,0.999498
0.23008847593816165,0,0.994970
0.3404857277796293,1,0.999423
0.39116572214458617,1,0.999930
0.2567489598122232,0,0.988589
0.24626802999648723,1,0.999298
0.2733276340259402,1,0.999926
0.2130608215056872,0,0.979018
0.26141850334589734,1,0.999643
0.25767555258230135,1,0.999931
0.20405473926187712,1,0.999318
0.29883277903838706,0,0.997634
0.3303793891909146,1,0.999374
0.2901099197718316,0,0.998972
0.29234645425651007,0,0.997658
0.32844601608403595,1,0.999789
0.28066426561654967,0,0.998818
0.2821088172007425,1,0.999360
0.21644356001207848,0,0.998783
0.32712124671426923,1,0.999703
0.27707721665222856,0,0.998521
0.33871222394954265,0,0.999300
0.27821463067652125,0,0.992921
0.22534480538239296,0,0.998378
0.41186694561640014,1,0.999683
0.3158218571634242,1,0.999635
0.21548266132219346,0,0.998752
0.3535265823103715,1,0.999450
0.26515257124507113,0,0.998552
0.2557723037147076,1,0.999860
0.19763598838907254,0,0.988280
0.24436890712712167,0,0.999081
0.24853823512785064,0,0.995458
0.33648869147563404,1,0.999933
0.24871569248808867,1,0.999795
0.2621881478239024,1,0.999849
0.2527069809397434,0,0.999139
0.22146955080978903,1,0.999789
0.19039859426035208,1,0.999808
0.3588123839713047,1,0.999743
0.256459863099255,1,0.999723
0.2655331097241791,0,0.999178
0.2375817941119665,1,0.999932
0.27416783865313604,0,0.995913
0.2634817282644918,0,0.997943
0.23738824524834481,1,0.999931
0.3794083135527468,1,0.999751
0.2492998473557559,1,0.999587
0.24270394201653175,1,0.999400
0.2463283464795074,1,0.999801
0.30096452978527277,0,0.978590
0.23842551023075823,0,0.997880
0.2375308765420245,1,0.999863
0.32880842263292503,0,0.990930
0.266308597190348,1,0.999589
0.27494666910894455,1,0.999935
0.22971131489540753,1,0.999921
0.3200890890336692,1,0.999870
0.2845855162592017,1,0.999872
0.2912637448834388,1,0.999928
0.2362242922444414,1,0.999920
0.3828263318969938,0,0.995128
0.2537244908169161,0,0.999166
0.2345532652485859,1,0.999934
0.24282381930290317,1,0.999437
0.22367253284470268,0,0.998926
0.28163622912273606,0,0.970889
0.23830041761477366,1,0.999851
0.21213139944467752,1,0.999930
0.25343849121603246,1,0.999842
0.3557863068247977,1,0.999782
0.3275023852884194,1,0.999851
0.301921681499836,1,0.999684
0.262746794979586,1,0.999785
0.2853717077844342,1,0.999690
0.3362822038440875,0,0.997768
0.3683760948512063,0,0.999163
0.2945488067254397,0,0.999158
0.32139980523197476,0,0.999125
0.30669891213541195,1,0.999932
0.3452007512017347,0,0.998099
0.4676941413945473,1,0.999248
0.40152064835384066,1,0.999924
0.37853378131643955,1,0.999851
0.4132814255618152,1,0.999937
0.24019146065362879,0,0.991781
0.24990376280883178,1,0.999924
0.23790868606549767,1,0.999406
0.2696669367953731,1,0.999932
0.3329177597015735,1,0.999708
0.2610535146687946,0,0.999100
0.44370364341161106,1,0.999744
0.25491680521303467,0,0.998457
0.2934380220167526,0,0.998121
0.24937544691632108,1,0.999930
0.2743176029326345,1,0.999931
0.2554286753565574,0,0.999044
0.24258877747048957,0,0.994307
0.3417127873784293,1,0.999363
0.28657673245462,1,0.999440
0.26735672080790157,0,0.997827
0.30265411275821097,0,0.996479
0.43667363463807457,1,0.999361
0.28947737750737706,1,0.999471
0.2657521687997958,0,0.987896
0.30211175108531724,1,0.999927
0.2449046260637065,0,0.990855
0.2576775963823317,1,0.999810
0.2680726862494683,0,0.978420
0.3160011166716574,1,0.999937
0.33149035853881204,1,0.999659
0.2686277756158583,0,0.989507
0.28698980460013995,1,0.999435
0.3262919706785588,0,0.996541
0.2919322898491347,1,0.999800
0.3750565924889337,1,0.999936
0.36364355080563837,1,0.999929
0.3246617556638659,0,0.999248
0.2587533970344231,1,0.999937
0.2706341046172628,0,0.995704
0.2541069568225479,1,0.999935
0.2854853488018788,0,0.998358
0.4273294651305972,1,0.999930
0.3262683103021316,0,0.998454
0.31759281877861073,1,0.999934
0.2717116872181686,1,0.999927
0.25955444582843074,1,0.999931
0.445568887318014,1,0.999478
0.30203417665318,0,0.997012
0.31310606217194376,1,0.999657
0.348391588149955,1,0.999938
0.3671140878443192,1,0.999925
0.2914190128558122,1,0.999935
0.3254673971197086,1,0.999474
0.4307316908648544,0,0.998750
0.36465029682588584,1,0.999935
0.3303876041359929,0,0.999209
0.3126410189158305,1,0.999743
0.3514254287322068,1,0.999869
0.3719345076218952,1,0.999929
0.4289657066984249,1,0.999655
0.39612649050447163,1,0.999937
0.30063778376979305,1,0.999929
0.24569647357465013,1,0.999313
0.439815434670144,0,0.998909
0.4025056444698523,1,0.999658
0.3418501179428688,1,0.999667
0.2599961807420386,1,0.999421
0.32335627937347505,1,0.999866
0.29941858460419285,0,0.998541
0.29290337765316976,1,0.999247
0.31243123999071964,0,0.992488
0.3830522763046938,1,0.999933
0.4275030353664951,1,0.999656
0.3886540138869552,1,0.999926
0.41112379250824904,1,0.999937
0.38752312318412435,0,0.998219
0.3325692687271031,1,0.999925
0.3941035847277435,0,0.998893
0.34622192189176965,1,0.999744
0.3396453599706002,0,0.998119
0.299351641416979,1,0.999627
0.36112379007283435,0,0.998622
0.40330582979382024,1,0.999807
0.41874701713433765,1,0.999486
0.33336380365816304,0,0.946671
0.4243999476168939,0,0.997980
0.22595172762290514,1,0.999791
0.2407408131934643,1,0.999931
0.24918188633113325,1,0.999932
0.35603757492001686,1,0.999707
0.2615618861836833,0,0.997732
0.34700708465884106,1,0.999873
0.33132880410181825,0,0.998314
0.3252072100351997,1,0.999808
0.30047594207025136,0,0.997075
0.3325366309470001,1,0.999528
0.3224067868571403,0,0.954642
0.29774580099688497,1,0.999375
0.24927579716614603,0,0.997023
0.26416355955351667,1,0.999577
0.2941774849374122,0,0.994898
0.32495276233819226,1,0.999931
0.26009783228625616,0,0.974594
0.31421436634375205,0,0.997730
0.2915429498239672,0,0.998745
0.4223001426476606,1,0.999717
0.39235110565092784,1,0.999934
0.3454999097956801,0,0.998214
0.30613100969060747,1,0.999316
0.3112734264908855,1,0.999521
0.23481004925431892,0,0.996575
0.30092670588916104,0,0.999130
0.2653593356664926,0,0.999169
0.3003802301135684,1,0.999366
0.2957495511551385,1,0.999664
0.4013636175284462,1,0.999847
0.30056808565789306,0,0.998127
0.3704339442868694,1,0.999933
0.2734376104539204,0,0.996530
0.3457225787675244,0,0.994785
0.34185931741302983,1,0.999462
0.4084705447724671,0,0.995340
0.3153044308418591,0,0.989315
0.2438415694029826,0,0.998752
0.3762592501783111,1,0.999790
0.44255159449032644,0,0.995233
0.284864123805808,1,0.999931
0.36604568149964034,1,0.999931
0.31855348698943825,1,0.999935
0.3177289708237759,1,0.999641
0.3254804962593519,1,0.999929
0.36666180309791346,0,0.994904
0.42348131317698307,0,0.998965
0.4397116557886337,1,0.999936
0.3712977002869974,1,0.999860
0.40891179377647346,0,0.998988
0.30755472710843357,1,0.999863
0.3206507922085181,0,0.949702
0.3523005535208836,1,0.999934
0.36839470971823673,1,0.999927
0.3828371304777383,0,0.998052
0.296004870230382,0,0.998636
0.2664150730982239,1,0.999936
0.32463594636130194,1,0.999588
0.34603593902780766,1,0.999733
0.33437429481690795,1,0.999664
0.27877330817998625,1,0.999934
0.34697904683977737,0,0.997649
0.32689136082828896,1,0.999683
0.2902365879365665,0,0.999293
0.34407545823288904,0,0.998414
0.3689125765005974,0,0.997883
0.3286555118951163,0,0.998798
0.4166953994436999,0,0.998628
0.4506068506934526,0,0.999254
0.43814513553493417,1,0.999465
0.3885832257327177,1,0.999924
0.43593188884854744,1,0.999927
0.40706934795400584,1,0.999930
0.4089216496613585,1,0.999562
0.29205885808217713,0,0.998984
0.3520814158677068,1,0.999874
0.3296660722271621,1,0.999931
0.35083684361108913,1,0.999933
0.3558401244314672,1,0.999925
0.28154391985707117,1,0.999809
0.4121235035130745,0,0.998796
0.3052061837941028,1,0.999934
0.3886719497287728,1,0.999936
0.4202295993978731,1,0.999931
0.3375676710647274,0,0.998896
0.3171628010088482,0,0.999193
0.4687659553090324,1,0.999873
0.46573254690503146,1,0.999937
0.3539704450028746,1,0.999931
0.37220385768433845,1,0.999866
0.3230674943683191,0,0.998005
0.369767746704692,1,0.999488
0.3496358927614605,0,0.998819
0.38989257699925334,1,0.999482
0.35033758596810244,0,0.996179
0.3315912684659189,1,0.999685
0.3478609017570098,0,0.998239
0.3216757000003007,0,0.981793
0.4311235913263684,0,0.988338
0.4095308967772904,1,0.999547
0.3747507861020079,1,0.999662
0.40970108992709975,1,0.999933
0.4117493867172302,1,0.999267
0.38714680100844806,0,0.998959
0.3611071019641901,1,0.999934
0.4005570539125049,1,0.999936
0.348041626325334,1,0.999480
0.3696887325744293,1,0.999932
0.3328931826172427,1,0.999374
0.3783748181764302,0,0.998285
0.36867706366172115,0,0.999014
0.3482671855204472,0,0.994847
0.35869572769637614,1,0.999934
0.35450038404771406,0,0.999229
0.3870763965042389,0,0.997078
0.36533789428118724,1,0.999601
0.4332119402450198,0,0.998718
0.4340298920357058,0,0.998776
0.4593831787013764,1,0.999938
0.32247041516822567,1,0.999936
0.417232090132586,0,0.997925
0.3290690108099383,1,0.999935
0.3298412678669825,1,0.999937
0.3335383291584585,1,0.999874
0.3670873897972688,1,0.999557
0.3586360306300445,0,0.998119
0.33099993771033237,1,0.999692
0.3555308545890284,1,0.999810
0.4163401666930476,0,0.999130
0.3874085307124129,1,0.999651
0.39293485290080105,0,0.999010
0.3718061826019894,1,0.999810
0.38216618268189884,1,0.999939
0.39667823226071985,0,0.998146
0.41161703817723827,0,0.999058
0.4154553933557273,1,0.999721
0.3749933864918499,0,0.999034
0.3710259468249644,1,0.999939
0.34992542815264455,0,0.999115
0.41737779819354,1,0.999486
0.4112171086535227,0,0.998281
0.4012440067217161,0,0.999252
0.3966062224225249,1,0.999584
0.47384435255709273,1,0.999938
0.47515600184677464,1,0.999378
0.4635042430093279,1,0.999931
0.34279048039821985,1,0.999633
0.3475553539315811,1,0.999937
0.3644811674944876,0,0.994777
0.433001330844957,1,0.999493
0.4291629241773876,1,0.999931
0.38492114877987155,0,0.999189
0.39643909174055675,1,0.999797
0.47419252492961544,1,0.999936
0.405086726362731,1,0.999855
0.44397163150883434,1,0.999713
0.29271811967844075,1,0.999789
0.38768826041363175,1,0.999511
0.44906629004131354,1,0.999810
0.42338654756318034,0,0.998318
0.4121068153553688,0,0.997228
0.42055109784127964,0,0.998499
0.41490007373630583,0,0.993630
0.35544268695699693,1,0.999489
0.4315052202710622,1,0.999936
0.44455673377745514,1,0.999854
0.39312244964556003,1,0.999744
0.4577641365996554,1,0.999702
0.4514913136875558,1,0.999933
0.4303817291621661,1,0.999854
0.39316912857029457,1,0.999811
0.4102072648413134,1,0.999503
0.44130227729754984,0,0.998968
0.48287200954087944,0,0.995473
0.4470836894096578,1,0.999875
0.44472231411992535,0,0.999063
0.383529438479724,0,0.997706
0.3789716779789782,1,0.999542
0.42774500884498246,0,0.996474
0.4002270587342052,1,0.999576
0.419461502796043,0,0.998952
0.3616079326404645,1,0.999936
0.4726512848772356,1,0.999937
0.5197627161756799,0,0.997659
0.4807700253775306,1,0.999936
0.4961060507416434,0,0.995689
0.4072425190744984,0,0.998624
0.4179129611393863,1,0.999384
0.4371091077449808,1,0.999937
0.4133574235744147,0,0.998376
0.4743586769085118,1,0.999816
0.42756572783990654,0,0.998388
0.44414973154732335,1,0.999937
0.42624916215187697,0,0.999259
0.4433635001787846,1,0.999874
0.35604844174756717,0,0.998938
0.40179252333644655,1,0.999580
0.39648599572560134,0,0.999288
0.41581040281950393,1,0.999632
0.4954887687228049,1,0.999572
0.4010318784143282,1,0.999590
0.42433982348959787,1,0.999496
0.42269980466897294,1,0.999421
0.512731843754779,1,0.999500
0.44445107834297454,0,0.991816
0.5086039103309514,1,0.999937
0.39066862077053927,1,0.999811
0.42679923290523225,1,0.999938
0.40027330878725137,0,0.981715
0.513826915217783,1,0.999937
0.4681752755187441,0,0.998854
0.4190307820145411,1,0.999749
0.4753265638851619,0,0.996825
0.435582616156269,1,0.999875
0.4534258499847102,1,0.999811
0.42455474953671446,0,0.998832
0.41166284367217415,1,0.999728
0.4441569176445476,1,0.999866
0.4140549991160214,1,0.999790
0.42732029427609214,0,0.998552
0.5084498388203771,1,0.999936
0.39521238298545236,1,0.999936
0.42726636410039387,0,0.994008
0.42450278831344046,1,0.999937
0.4129965911068075,0,0.998746
0.4557923099736415,0,0.996522
0.44805704334084806,0,0.987196
0.37158435390619193,1,0.999557
0.34045772950874514,1,0.999691
0.37580542634262054,1,0.999936
0.35016201468210467,1,0.999706
0.5220280370458305,1,0.999504
0.42671140898252946,1,0.999564
0.4736867570040382,0,0.995718
0.3698118448422458,1,0.999935
0.41150227467144174,1,0.999547
0.33626047772841655,1,0.999935
0.44116228817138065,0,0.996417
0.3926160548302208,1,0.999815
0.35698606133631694,0,0.994193
0.38573099988215487,1,0.999747
0.4396017922997777,0,0.986755
0.33870338685528195,1,0.999932
0.3305806087821664,1,0.999931
0.38387287901634976,1,0.999682
0.40173933746085955,0,0.997308
0.43604425003463104,0,0.999258
0.34482097673546336,0,0.986543
0.3925367556555698,1,0.999874
0.39275527978508024,0,0.997589
0.3284708398820297,0,0.998941
0.4026697279431282,1,0.999799
0.44839967831750827,0,0.998600
0.40350646536364515,0,0.999048
0.35958953375459773,1,0.999938
0.488511007930106,0,0.998890
0.507396912397701,1,0.999815
0.515267963510784,0,0.997615
0.3538918829891047,1,0.999818
0.40647979236872017,1,0.999803
0.41783786644746557,1,0.999814
0.39983615577963555,1,0.999735
0.36685518825538915,1,0.999931
0.35830517976681026,1,0.999817
0.43551781894512204,1,0.999931
0.4177712163110912,1,0.999638
0.39393212594398747,1,0.999927
0.3438279158725279,1,0.999937
0.37904952514863394,0,0.998796
0.5127023232781495,1,0.999725
0.5215741028878795,1,0.999434
0.5395054318556258,0,0.998806
0.5261670483147117,1,0.999374
0.5175155858728859,0,0.998463
0.5282011412997996,1,0.999871
0.4844664497129343,1,0.999861
0.4999389307234249,0,0.997852
0.5351072717471491,1,0.999655
0.5114094385886598,1,0.999739
0.411043516482039,1,0.999937
0.43098341253055905,1,0.999737
0.45704825880139077,1,0.999930
0.43375131569678504,0,0.999231
0.47151341742035097,1,0.999616
0.48367301528779616,0,0.999082
0.46386784382546076,1,0.999938
0.4926694645743821,1,0.999282
0.4845678181136355,1,0.999873
0.4488625454455522,0,0.998728
0.482915073352464,1,0.999872
0.3764350018534106,1,0.999649
0.3877605525636447,0,0.998970
0.40957586289765735,0,0.998759
0.3698416234525236,0,0.997116
0.4161005310637472,1,0.999931
0.4161689036449765,0,0.996641
0.48715771355829895,1,0.999754
0.43030264807127083,0,0.997193
0.4343501856246134,0,0.995100
0.4652289818456578,0,0.998690
0.43014593778578347,1,0.999932
0.46444938749879416,1,0.999794
0.3616507679290701,1,0.999855
0.3564279351205529,0,0.972745
0.5071971613856564,1,0.999931
0.4800890029246759,0,0.995007
0.46888839482600647,0,0.997997
0.47883508734155494,1,0.999936
0.49451227678447723,0,0.995479
0.44918853911408174,0,0.997928
0.46977394612413315,1,0.999782
0.47069473427362685,1,0.999682
0.48941496333945517,1,0.999555
0.4788025249498712,1,0.999932
0.4320112926229138,1,0.999937
0.46808905481256624,0,0.998454
0.47086617793874214,0,0.999051
0.4437185074871674,0,0.998859
0.4299948835438774,1,0.999653
0.46496544901683706,0,0.996962
0.4288758589066751,1,0.999581
0.4727661964372261,1,0.999932
0.44036665520103074,0,0.998553
0.45269800795131643,1,0.999727
0.49890379915106114,1,0.999434
0.4181993942808779,1,0.999277
0.39050609318647267,0,0.996937
0.4006734067546105,1,0.999269
0.5135612984250661,0,0.998685
0.5183066124004473,1,0.999939
0.48034596350684433,0,0.996931
0.4889434198769277,0,0.998884
0.5137346332643682,1,0.999695
0.5200595558807722,1,0.999809
0.5327788744237486,0,0.999101
0.5033210635850546,1,0.999621
0.50417197780972,0,0.998703
0.4476014997199848,1,0.999565
0.45151352621708835,1,0.999689
0.47685353641904066,1,0.999661
0.47582969890565874,0,0.998449
0.4406762000884227,0,0.996014
0.49122273581056036,1,0.999938
0.4822410016232526,1,0.999932
0.4350892325421728,0,0.999011
0.4211299711720964,0,0.993544
0.43208990347716814,1,0.999794
0.4585780859388696,1,0.999872
0.434644640442161,1,0.999937
0.49160405256480266,0,0.997846
0.3906217137143075,0,0.998478
0.47998967817382454,0,0.999234
0.48524118435476,1,0.999792
0.47722565513274684,1,0.999933
0.4055338977317394,0,0.999094
0.42117100211508396,1,0.999870
0.5123650764309142,0,0.996960
0.4611785540303424,0,0.993672
0.4250893472543672,1,0.999936
0.44938336775369625,0,0.999238
0.4641869172229002,1,0.999864
0.49247681416656597,1,0.999937
0.48625535386550317,1,0.999747
0.5035484053749942,1,0.999938
0.44046376105924223,1,0.999417
0.3994799686806145,1,0.999630
0.39636206935198376,1,0.999937
0.38464884313801945,0,0.994167
0.4432391470650564,0,0.998593
0.39633271300633116,0,0.998678
0.42119146805916047,1,0.999528
0.4068694541989699,0,0.997183
0.4693384710687166,1,0.999870
0.3692142007081972,1,0.999564
0.5488314370377265,0,0.997543
0.49655949144571143,1,0.999939
0.4807619244924636,1,0.999938
0.4845687560016866,1,0.999646
0.4949610332914922,1,0.999938
0.5158893810972973,0,0.998081
0.5431367967811305,1,0.999503
0.4775592137822783,0,0.999064
0.5027000529159752,1,0.999814
0.4656939622942485,0,0.998958
0.521847922727746,0,0.994549
0.39643733720278795,1,0.999625
0.4195758459431063,0,0.993448
0.38993144254337175,1,0.999929
0.353682083845885,0,0.988583
0.4260778097041188,0,0.998195
0.36496246290632006,1,0.999528
0.3659668829935496,0,0.995572
0.36792654165950267,1,0.999353
0.44793949799852617,0,0.996297
0.36108739394493317,0,0.996422
0.3896113099446698,0,0.997125
0.47450536145432476,1,0.999865
0.3625343329549032,0,0.997581
0.4345878525177481,1,0.999547
0.40669493172734,0,0.997545
0.3962661629626797,1,0.999707
0.3558294617176841,0,0.996883
0.3867489093522836,1,0.999407
0.3918680094148157,0,0.999229
0.3908625162502196,1,0.999800
0.36994034673501214,1,0.999866
0.4048273702108314,1,0.999926
0.40321528228054776,0,0.992713
0.3539211532858014,1,0.999934
0.422585258536473,1,0.999458
0.3943456838567073,0,0.989844
0.446449711879741,1,0.999929
0.4401695320290186,1,0.999857
0.41755267297580084,1,0.999802
0.42189177123549704,0,0.994593
0.4347555840739881,0,0.997146
0.3520982329130117,0,0.998655
0.3946592442847464,0,0.998479
0.40960671243584157,0,0.998662
0.42271085912732687,0,0.995956
0.4016119598483213,1,0.999930
0.4045991791917126,0,0.977367
0.47074136554521206,1,0.999935
0.4533006760868553,0,0.997154
0.4498503048170885,0,0.990903
0.4075836971628449,0,0.992971
0.4045489137696826,1,0.999858
0.4121806746000775,0,0.997588
0.37741197656155984,0,0.998895
0.39399099534581117,1,0.999927
0.4491820221644059,1,0.999865
0.40927064847371514,0,0.998743
0.4171123095599199,1,0.999673
0.39981795658470265,1,0.999570
0.4242420219251012,0,0.997834
0.4147402142871296,1,0.999785
0.41371932044732235,0,0.994976
0.44912402930077155,1,0.999775
0.4229894077417375,1,0.999230
0.45395956498460965,0,0.991764
0.4178809527414275,1,0.999695
0.4156997718776599,0,0.998604
0.42219219496640314,1,0.999929
0.4377718255849783,1,0.999930
0.4458199170448954,1,0.999926
0.40724649531135454,1,0.999921
0.44541783075725994,0,0.992276
0.4536228674418367,0,0.996252
0.3852852888037723,1,0.999476
0.39461308610748724,0,0.997267
0.3909912131804914,0,0.996994
0.3500141128415502,1,0.999635
0.3784263675723698,0,0.998529
0.45331412819918415,1,0.999872
0.43219848554454426,1,0.999480
0.4456215814796862,1,0.999465
0.42634530781389524,1,0.999654
0.4274300344151568,1,0.999307
0.4490826657174782,0,0.996624
0.35595990191850324,1,0.999924
0.4572364990824861,0,0.993902
0.3773022809396325,0,0.997016
0.3785639895223257,1,0.999254
0.46990286536303,0,0.991304
0.39150806207075556,0,0.997371
0.49552604272003703,1,0.999934
0.3981955669097299,1,0.999865
0.4242958686172796,0,0.998157
0.451133735504714,1,0.999733
0.37888572641775403,1,0.999662
0.43682320447300754,0,0.999303
0.3667589374191729,0,0.996377
0.38277849619502813,1,0.999477
0.41979873866803474,1,0.999809
0.4433970603110135,0,0.999138
0.4541534484128221,1,0.999938
0.46685600979405173,1,0.999792
0.4115737912395667,0,0.997726
0.3912521906114194,1,0.999934
0.38672902897524414,1,0.999665
0.39015029158446385,0,0.991230
0.4238397079437501,0,0.996928
0.441612464070095,1,0.999474
0.3910318288372444,0,0.991950
0.40091101221149295,0,0.999137
0.3964341310620025,1,0.999396
0.3742861553278805,1,0.999934
0.4102090626592498,0,0.998542
0.4497968086548113,1,0.999868
0.48757221227976133,0,0.996355
0.4787158302818727,0,0.994159
0.4561586220996364,1,0.999717
0.4278421824360193,0,0.998874
0.39203769639309427,0,0.995520
0.4092262079842464,1,0.999924
0.3832424693168928,1,0.999848
0.42042125516914364,0,0.988851
0.3954255120266035,0,0.998637
0.4122848516384408,1,0.999928
0.40239288630379777,1,0.999929
0.38773027565066015,1,0.999840
0.44298657845812794,0,0.985452
0.48623114823551716,0,0.998113
0.38709173262777863,1,0.999185
0.37824212051359685,0,0.995867
0.37335091617181004,0,0.997570
0.4444315500652428,0,0.995712
0.4342236228018635,0,0.981456
0.4567878370068471,1,0.999790
0.4326351874910836,1,0.999516
0.41685080812201664,1,0.999916
0.3929359576202635,0,0.998090
0.4156331163250287,0,0.998578
0.44976952244456486,0,0.998230
0.4186654367791979,0,0.999109
0.4693792041195705,1,0.999635
0.4409350020045738,0,0.996731
0.38775076534970504,1,0.999338
0.47079313928746386,0,0.999216
0.39341640536884703,0,0.999165
0.45719776550206037,1,0.999924
0.45649491554614813,1,0.999927
0.46154902041496076,1,0.999927
0.4454025098447727,0,0.998594
0.4287399088731404,0,0.990593
0.4327594241234722,1,0.999568
0.4583408253134374,1,0.999927
0.41952744945889,1,0.999865
0.4868939966707101,1,0.999737
0.4482708621267692,0,0.999123
0.46385493125553556,1,0.999931
0.4230054703936625,1,0.999707
0.5019922364067552,1,0.999805
0.517742104161302,1,0.999467
0.48297170384987004,1,0.999799
0.4888447555156075,0,0.999243
0.4737909066682876,1,0.999934
0.4659685376834288,0,0.999156
0.4837048639684962,0,0.995482
0.4831690056909311,1,0.999733
0.4757281181104978,0,0.993255
0.49551618546980475,0,0.998521
0.5430066379861108,0,0.998478
0.5472007986106788,1,0.999425
0.5270610340449967,1,0.999743
0.4746316292863921,0,0.997401
0.45008603323407553,0,0.991383
0.456063757482024,1,0.999734
0.4847166338614315,1,0.999663
0.45643089997257735,1,0.999399
0.4703367673622509,1,0.999929
0.4644105466266933,1,0.999539
0.4348656892633828,1,0.999324
0.4222745754529073,1,0.999384
0.44698770586452063,0,0.999255
0.4594877043458207,0,0.998706
0.46941959003077766,1,0.999933
0.4639427131939686,0,0.992759
0.36540554302516914,0,0.997361
0.4583367382675781,1,0.999849
0.37654473001516975,1,0.999931
0.47030245956151373,1,0.999734
0.4398907119831448,0,0.991344
0.4630205108692644,0,0.999084
0.46108449584978856,0,0.998214
0.45261433847362553,0,0.998527
0.42031454151149167,0,0.999214
0.47175816519964714,1,0.999778
0.4961954914346137,1,0.999929
0.459587505427605,1,0.999853
0.4376591542866798,0,0.984744
0.4334832473780434,1,0.999731
0.4477898749142367,1,0.999528
0.46828043965492444,0,0.995322
0.41888445369579524,1,0.999413
0.4627269613333218,1,0.999867
0.5051848459739479,1,0.999529
0.46103817583687623,0,0.998673
0.46254958215101755,0,0.998932
0.43675310246132304,1,0.999942
0.420320385912126,1,0.999663
0.4774549705409475,1,0.999574
0.46943920011773427,1,0.999935
0.4649504109927325,0,0.998339
0.49673691819420107,1,0.999936
0.4836884772322283,0,0.999288
0.4590286919118559,1,0.999390
0.4857072385565569,1,0.999802
0.4258183973271189,0,0.998456
0.4353059514649531,1,0.999791
0.44229399266242236,1,0.999330
0.47778142795415474,1,0.999493
0.49819792248274,1,0.999925
0.4807882613424175,0,0.998753
0.46880470817068354,0,0.994134
0.4438820053586459,0,0.995293
0.4577435487534058,0,0.998555
0.44532099919854745,0,0.996196
0.4664430543308462,1,0.999932
0.477054934774601,1,0.999934
0.43825633445125073,0,0.998332
0.44763974670369183,1,0.999569
0.49223407076901415,1,0.999805
0.48632630181295083,1,0.999853
0.4441422474418431,0,0.996936
0.4936297323421506,1,0.999531
0.47188048411682376,1,0.999738
0.4627836384779818,1,0.999473
0.4761869885453069,0,0.998549
0.46163584030200633,1,0.999928
0.46088836837281855,1,0.999633
0.4965728257536729,1,0.999923
0.46113569455833603,1,0.999930
0.47952114809825763,1,0.999788
0.43629005881238225,1,0.999935
0.45612458734638106,0,0.997749
0.4223204045873481,1,0.999934
0.4732777792496431,1,0.999386
0.49214339391857703,0,0.999049
0.4658380477337442,1,0.999399
0.48942276616380853,0,0.998617
0.4991993767792886,1,0.999933
0.4768636476353217,1,0.999932
0.48821074221037675,0,0.997380
0.5051240611043389,1,0.999929
0.5218893882967758,1,0.999485
0.4499179233342845,1,0.999594
0.4653097043253469,1,0.999935
0.4921892819086422,1,0.999798
0.5456902051420541,0,0.998969
0.521698467838836,1,0.999711
0.5268971008672169,0,0.999270
0.4622326607873553,1,0.999936
0.529120787354601,0,0.996387
0.49901511731554377,1,0.999408
0.46783443051547074,1,0.999335
0.4706110965591462,1,0.999928
0.4891899094518415,0,0.981464
0.4908435296750748,0,0.998987
0.4863597921403499,0,0.987251
0.48841945016929184,1,0.999323
0.46503735461090295,0,0.995094
0.474657517377537,0,0.995489
0.46132362239492236,0,0.998535
0.5017287670397689,0,0.999246
0.5081351435086013,1,0.999866
0.4909010043774614,1,0.999929
0.4759879733644881,0,0.999191
0.45488284418137737,0,0.999096
0.45860346873966196,1,0.999853
0.4609948303524315,1,0.999338
0.49718834765254594,0,0.997789
0.5139009574787068,0,0.996495
0.464962037883115,0,0.998051
0.47533761419658543,0,0.997940
0.4709220378348406,1,0.999859
0.4896101889855265,0,0.998350
0.47671403987792554,0,0.997906
0.4756715058237505,1,0.999937
0.4703966769663139,0,0.997646
0.44718420079265914,1,0.999937
0.4607536495339076,0,0.993048
0.4496675661524957,1,0.999725
0.46295224783486766,0,0.998316
0.49212441276508045,1,0.999875
0.4336979654674899,0,0.967281
0.4616863665781116,1,0.999438
0.48991818486663824,1,0.999880
0.4800799054839304,1,0.999613
0.48433071389186916,1,0.999875
0.4558891199020009,1,0.999583
0.42611290322174555,0,0.998833
0.4195108898636648,0,0.996023
0.4733733095360122,1,0.999875
0.4751729558165352,0,0.996003
0.49790463490289744,1,0.999930
0.511023935794489,1,0.999930
0.4483909101706162,0,0.998543
0.5220512384823931,0,0.998427
0.4500800835595427,0,0.995447
0.4811924974557972,1,0.999718
0.4292812551592834,1,0.999937
0.46086264591084664,1,0.999496
0.46645334889967616,1,0.999815
0.45468635636041255,1,0.999612
0.42004620846556595,0,0.995066
0.483536380194322,1,0.999875
0.439782932630815,1,0.999937
0.49092758472553344,1,0.999796
0.44640269097136065,1,0.999938
0.46523027168689496,0,0.998840
0.5069142363740244,1,0.999933
0.47741466590855913,1,0.999768
0.44149008087202257,0,0.998790
0.5074172534015018,1,0.999667
0.4870431660867752,1,0.999653
0.46669705671867656,0,0.999053
0.48567954895662824,0,0.998360
0.4957089609120984,1,0.999325
0.43362710124783493,1,0.999572
0.48252061583915423,1,0.999590
0.5050151764616848,1,0.999929
0.46115868512213826,1,0.999810
0.5048753306740357,0,0.989054
0.46613616290103826,0,0.997026
0.4908392049945754,0,0.998787
0.4531172080515433,0,0.996731
0.4238520668667375,1,0.999860
0.4410809990135121,0,0.991488
0.4182146979379187,1,0.999505
0.4959525729781182,1,0.999861
0.49247724068029225,0,0.997164
0.4807082341214394,1,0.999933
0.48463741228925455,0,0.999000
0.4628295767393694,1,0.999328
0.4672377603571277,1,0.999929
0.5156632138787254,1,0.999725
0.47819051199761126,1,0.999793
0.48371153322997623,1,0.999932
0.476797723461396,1,0.999934
0.5591157158841449,0,0.997186
0.5520295975500203,0,0.997577
0.5767423552193774,0,0.996851
0.5354147624033893,0,0.998362
0.5183512074422562,0,0.998904
0.541426845204839,1,0.999679
0.5316079882297587,1,0.999867
0.544752107569407,0,0.998908
0.522785620995566,1,0.999393
0.5126254489870116,1,0.999630
0.5364698223190003,1,0.999874
0.5215428312325779,1,0.999935
0.544516262093268,1,0.999746
0.5446320994092776,1,0.999937
0.5038761031530471,0,0.996507
0.5231613166458221,0,0.995695
0.5328472146829519,0,0.998260
0.5840151983266552,1,0.999811
0.5430990315418549,0,0.999313
0.4901554661404042,1,0.999471
0.4860729773349196,0,0.997964
0.48857976703747025,0,0.985377
0.4975487567803644,1,0.999788
0.5062056267684567,0,0.998401
0.46605730838612247,0,0.998403
0.4780698589721449,1,0.999436
0.4504225681595331,1,0.999931
0.5242353906852578,0,0.999314
0.5027799472659429,1,0.999937
0.5329295434362952,0,0.997909
0.49550086379427805,0,0.997519
0.5343174696518133,1,0.999874
0.5206413479364553,0,0.996568
0.4875917410095332,1,0.999938
0.48022171407151376,0,0.999147
0.5151166644514585,1,0.999863
0.49971493828065366,0,0.999046
0.4575039791104838,0,0.998974
0.47829816871456615,1,0.999440
0.42781548088363897,1,0.999930
0.4711785260687481,0,0.996307
0.44532038661533274,0,0.997697
0.5235924686532865,0,0.997006
0.4911132216813338,0,0.999029
0.4444935458574728,0,0.997079
0.528119218614786,0,0.998879
0.4990242780363493,1,0.999938
0.46812761858211993,1,0.999565
0.4405008361292725,0,0.995310
0.5376885846066014,1,0.999814
0.48112868508324774,1,0.999936
0.43826678370024147,0,0.997324
0.5243145470837258,1,0.999571
0.5037061666409577,1,0.999443
0.5143961043034934,1,0.999374
0.5253449730803519,1,0.999932
0.49838263403215616,1,0.999725
0.5302898952672899,0,0.996650
0.45498291525003837,0,0.996823
0.37544590215784596,0,0.994478
0.37867996193571507,1,0.999644
0.3969858300219737,1,0.999434
0.37570985754783975,1,0.999788
0.3687301167379249,1,0.999791
0.37706455257132865,1,0.999929
0.42681112818879624,0,0.995613
0.4119737737842104,0,0.992943
0.47903582201978445,0,0.982138
0.3757494971121626,1,0.999730
0.40094825212419555,0,0.998996
0.45956374955841045,1,0.999926
0.4065171324688575,0,0.998257
0.41390500039377903,0,0.998627
0.48905057766742277,0,0.973638
0.3991417485687496,1,0.999936
0.4535206003937292,0,0.997477
0.5124769878995725,0,0.995111
0.42886754678856265,1,0.999410
0.46045591397677516,0,0.998974
0.45927377460130797,0,0.998062
0.3527298662739834,0,0.999240
0.43322679425261695,1,0.999658
0.4429844518043282,0,0.998341
0.37560386945552765,1,0.999734
0.4480640206078348,1,0.999731
0.38328524830095845,1,0.999929
0.421221935142672,1,0.999934
0.4382697285977449,1,0.999925
0.4069082156887182,1,0.999924
0.45578297542536284,1,0.999784
0.43991891233387725,1,0.999925
0.4036350975534233,1,0.999932
0.3969235095748296,1,0.999861
0.4265934313344186,1,0.999935
0.4481985601184094,1,0.999932
0.3840066731058814,0,0.998387
0.39901085660190694,1,0.999933
0.4351735527175586,1,0.999927
0.41579356350242563,1,0.999933
0.3577106008402828,0,0.996592
0.4133226259623519,0,0.997044
0.43324464893306575,1,0.999784
0.4692960403740786,1,0.999864
0.42389317693814366,1,0.999933
0.47947114638525173,1,0.999930
0.39453561645060314,1,0.999732
0.36977310242921846,0,0.995849
0.34833550071304614,1,0.999229
0.39490045260113465,0,0.997529
0.38881433186696435,1,0.999646
0.4048722303787633,1,0.999783
0.36665957499441776,1,0.999923
0.3560848238877744,1,0.999850
0.4104569549445105,1,0.999849
0.3841161746343767,0,0.994108
0.33640037190633615,1,0.999850
0.3976993055196756,0,0.997933
0.40383255455483175,0,0.998884
0.45081602684602,1,0.999920
0.40341901801651414,1,0.999854
0.4634684817704132,0,0.997725
0.4075271530549283,0,0.997807
0.3918083039923449,0,0.994542
0.36112355060138057,1,0.999842
0.41809012735434264,0,0.985799
0.44484842924281165,0,0.995562
0.41528607038692716,1,0.999918
0.33531471029290416,1,0.999336
0.40869155673352053,1,0.999236
0.424769920416266,1,0.999585
0.434203837486649,0,0.966930
0.365823700058447,1,0.999928
0.45959449611324826,0,0.998441
0.371324470709645,1,0.999866
0.36748132620462426,1,0.999518
0.4194436709305564,1,0.999773
0.4191697795438199,0,0.998859
0.37877601998668364,0,0.999003
0.37183460999241774,0,0.998911
0.36954475257601016,1,0.999927
0.43395029189085305,0,0.993501
0.4253350863525958,1,0.999405
0.3378301181857848,0,0.976767
0.3929024055588417,0,0.993213
0.36359690101114805,1,0.999930
0.3550016675475316,0,0.999042
0.38461611724473366,1,0.999933
0.42761302040806776,0,0.996283
0.4351283710834143,0,0.999230
0.3766674002300855,1,0.999721
0.44589152207966487,1,0.999854
0.3798500013939086,0,0.998780
0.31975423170202183,0,0.997671
0.4349631559210747,1,0.999405
0.4156749819275076,1,0.999924
0.4338781023790861,0,0.999064
0.38649846608508087,0,0.975258
0.3829441806511678,0,0.997220
0.38331201590474745,1,0.999325
0.47349012686416636,1,0.999484
0.43324483748549475,1,0.999932
0.38493909509060853,1,0.999512
0.3335418771577088,1,0.999853
0.4064942121601612,1,0.999283
0.43832461659864963,1,0.999862
0.3865235566851961,1,0.999865
0.43674830818479893,1,0.999932
0.45051683959860267,1,0.999932
0.41129679520411555,0,0.995143
0.4325113922878858,0,0.999278
0.3359722701544692,1,0.999799
0.40125542145371534,1,0.999925
0.3880102887996661,0,0.994006
0.4398053812274739,1,0.999794
0.43535552692146123,1,0.999520
0.3414152543004022,0,0.998165
0.3922192636558758,1,0.999921
0.4031073102758462,1,0.999602
0.4073626004267318,0,0.998680
0.40640927608706556,0,0.999115
0.44245610404201025,1,0.999847
0.39608513130253076,0,0.998291
0.38914235168992883,0,0.994123
0.43613831647081636,0,0.997510
0.38346113015740196,1,0.999328
0.4160392912054673,0,0.998199
0.43358141389039795,0,0.998401
0.38508645457266055,1,0.999857
0.44946747944344584,1,0.999623
0.4029246017844117,1,0.999839
0.4393389753529755,1,0.999929
0.3808465467236691,1,0.999842
0.3816163842163191,1,0.999924
0.3860337537909131,1,0.999766
0.42506310267618436,1,0.999927
0.34634181344809734,0,0.997715
0.40729610276900086,1,0.999344
0.4355709998991314,1,0.999928
0.35306399253612114,0,0.998465
0.41470048977526436,0,0.998582
0.37329415687232526,1,0.999923
0.3895070646926942,1,0.999930
0.45173639437081853,1,0.999316
0.42024182416935374,0,0.996274
0.4015391265488381,0,0.997707
0.40524800571410236,1,0.999471
0.43670176798277277,1,0.999913
0.44028132158412303,1,0.999839
0.3393173230046092,0,0.993971
0.45081068240628963,0,0.991989
0.4236283019016854,0,0.989232
0.4267264311358349,1,0.999851
0.4349734355765185,0,0.997662
0.41965910403838036,1,0.999691
0.39867959342411236,0,0.991324
0.4299105201827797,1,0.999925
0.3866512064920705,0,0.999075
0.38346546855555225,1,0.999920
0.3757353794758249,1,0.999918
0.4374025812085342,1,0.999420
0.4629318897607469,0,0.999126
0.44208437892863695,1,0.999713
0.4499624108716479,1,0.999865
0.4595626745593953,0,0.996124
0.43424104759836324,1,0.999390
0.44463161727300626,0,0.999299
0.4642750459565547,1,0.999803
0.45433955318217767,1,0.999665
0.42133926709147584,0,0.999211
0.4843728125099525,0,0.999050
0.39982164578119195,1,0.999797
0.49187251584871616,1,0.999854
0.4467038723151175,0,0.986259
0.48048252454889034,1,0.999313
0.4094866643034084,1,0.999933
0.42803224488192654,1,0.999934
0.46086630317872795,0,0.998228
0.4505647434073873,1,0.999667
0.37075094517286694,1,0.999845
0.48756251706432363,0,0.997628
0.4721882117790467,0,0.997635
0.448333177054404,0,0.988973
0.46605152712195164,1,0.999929
0.35533069465579564,0,0.996833
0.44997576136962525,0,0.999289
0.4017284177179036,0,0.998382
0.4196527068277039,0,0.998591
0.41884014096205374,0,0.997017
0.5000453495754452,0,0.997243
0.3723051727982941,1,0.999807
0.4540738921638247,0,0.990846
0.38119467359243286,1,0.999613
0.41808467943912514,1,0.999929
0.45268634197660984,1,0.999772
0.407823373625894,1,0.999789
0.37491003357311137,1,0.999926
0.4375929656426832,1,0.999925
0.4755729443376619,0,0.988345
0.4219251732512931,0,0.991376
0.3721373096130132,1,0.999770
0.3742340065657937,1,0.999720
0.41600159714108453,1,0.999622
0.33133943178582387,0,0.992603
0.4713721025591853,0,0.997419
0.42377410782842495,1,0.999930
0.3851660991633568,0,0.993118
0.3546738648989485,0,0.996015
0.38084681729841424,1,0.999687
0.38610365574455435,1,0.999919
0.3959571080451055,1,0.999765
0.4651829191289122,1,0.999927
0.3719731946146162,0,0.998649
0.3461838699500823,1,0.999929
0.4183793522213437,1,0.999921
0.4479958835484488,1,0.999691
0.43857053928585216,1,0.999864
0.4005226508679926,1,0.999590
0.45810101312657275,0,0.998438
0.4358190605761513,0,0.974354
0.38842148455546893,1,0.999927
0.2856255144131689,1,0.999716
0.3814566508376772,1,0.999570
0.43348885121348707,0,0.985700
0.3776173695837774,0,0.999232
0.44235436081348567,1,0.999481
0.3801573676691695,1,0.999920
0.35744104455192566,0,0.998466
0.400274306440788,0,0.997383
0.48497688666754096,0,0.998649
0.38757966158511753,1,0.999794
0.34692462730759505,1,0.999459
0.45093001947261707,0,0.998965
0.3909534958251748,1,0.999863
0.44179732001987293,0,0.989500
0.35436144763804467,1,0.999464
0.3816887283110352,1,0.999862
0.39896378875792476,1,0.999844
0.4609895936213954,0,0.998958
0.4561005810056628,1,0.999707
0.3822688887677595,1,0.999857
0.41058669942643194,1,0.999588
0.3421653268242493,1,0.999570
0.45702149120461005,1,0.999363
0.35023297858872676,1,0.999501
0.4150766435508176,1,0.999929
0.40747072188157135,1,0.999861
0.41940981603716193,0,0.991234
0.3742168701812261,1,0.999377
0.4018685478892762,0,0.998497
0.37633467235411755,1,0.999922
0.4618644440043986,1,0.999936
0.42696645180367043,0,0.997312
0.4169939177549512,1,0.999600
0.4474894137343721,0,0.999006
0.4289752895202669,0,0.990356
0.38461940139581924,0,0.996715
0.42040274340620326,1,0.999384
0.41077218851439307,0,0.998429
0.3404419363910927,0,0.997103
0.3985224412583691,1,0.999800
0.39357460475284395,1,0.999499
0.4412328922846094,1,0.999857
0.40676050937588354,1,0.999923
0.4469756572301665,0,0.997862
0.45976748969749137,0,0.991880
0.3436149928449518,0,0.998934
0.39256842206864084,1,0.999789
0.3929421914729321,0,0.997597
0.44042480550798924,1,0.999348
0.4991390414441259,1,0.999929
0.49899476817359073,1,0.999672
0.4487126725473335,1,0.999868
0.46862679737503665,1,0.999803
0.46486184244838186,1,0.999871
0.469189065070185,0,0.998951
0.4535586568336057,0,0.992806
0.5059042085238368,0,0.999049
0.4661115894107471,0,0.998846
0.45963741025341853,0,0.998983
0.47311845269200703,1,0.999868
0.4596538737214339,1,0.999624
0.47273062466793625,1,0.999706
0.47761009733534093,1,0.999932
0.48871476200705455,1,0.999732
0.45646545856388293,1,0.999938
0.42676560878043124,0,0.995456
0.40104703829515426,1,0.999744
0.5123749919588361,1,0.999926
0.4453240580640152,1,0.999863
0.4910123629451963,1,0.999934
0.2775572535068238,1,0.999506
0.36553834470957575,0,0.996497
0.37542911651007077,1,0.999868
0.3893238379495927,1,0.999869
0.370525339692323,0,0.985643
0.3797706982475053,1,0.999930
0.32399000856934834,1,0.999925
0.31518776684298055,1,0.999928
0.3766043641122917,1,0.999614
0.4239044112279138,0,0.998717
0.3999782774688243,0,0.998811
0.4105622586331655,1,0.999477
0.37357653844606054,1,0.999868
0.42049300365726355,1,0.999599
0.38981136611278777,1,0.999806
0.38171854559129204,0,0.998374
0.39344987793578406,0,0.998708
0.37954291445309807,1,0.999922
0.3822140053150794,1,0.999933
0.38747360867187364,1,0.999732
0.39115867017262634,1,0.999932
0.38667635927034444,1,0.999396
0.4104813830765383,0,0.990204
0.35816642997150167,1,0.999925
0.3734760169485575,0,0.998510
0.3572064471806215,1,0.999383
0.3650536718334118,1,0.999935
0.3646991221884027,0,0.998042
0.3714337990250175,1,0.999667
0.3778538255609054,1,0.999322
0.36765878367046584,1,0.999864
0.3083483991205577,1,0.999866
0.32120135034582314,0,0.998973
0.39372941525234795,0,0.997998
0.32083127567709113,0,0.992428
0.3521530277584404,0,0.997589
0.3869829907229978,1,0.999933
0.31044978765843273,1,0.999933
0.31536190990695345,1,0.999692
0.37486179210353826,0,0.993084
0.39228693996913827,0,0.999182
0.3600012302017375,0,0.999053
0.33525294762715735,1,0.999863
0.29940658215536375,0,0.998052
0.4134211565819268,1,0.999930
0.3280356776275225,1,0.999470
0.31355824302185054,1,0.999866
0.3728929073179042,1,0.999657
0.29717196098323284,1,0.999930
0.3546351769175206,1,0.999585
0.3377707777090961,0,0.996878
0.4475975446916547,1,0.999932
0.37534445836115277,0,0.998611
0.2712944064415553,1,0.999587
0.3640555876286313,0,0.998629
0.381497257388302,0,0.997829
0.3819571890014688,1,0.999649
0.34323698179141343,1,0.999933
0.34264095236226844,0,0.998248
0.36161210811694877,1,0.999664
0.3599964535553433,1,0.999858
0.36517770051942816,1,0.999933
0.3007512735489816,0,0.997627
0.3617860125742888,0,0.998507
0.3486778009644038,1,0.999799
0.3612740264639867,0,0.998464
0.3751800216566639,0,0.977068
0.3121338337667206,1,0.999932
0.35359931335406763,0,0.996729
0.32097543961726743,0,0.999098
0.32748998200251883,1,0.999472
0.41719809852381656,1,0.999637
0.29064030875940644,1,0.999783
0.3153413355895954,1,0.999928
0.3893410733253745,0,0.998867
0.38058532924066646,0,0.974377
0.32472199172701005,0,0.995176
0.3035594570519161,1,0.999800
0.3988292333315972,1,0.999930
0.3323290981037643,0,0.998917
0.4008371232113411,0,0.998104
0.3710908811486577,0,0.997625
0.32922691808507715,1,0.999935
0.3385089675691536,1,0.999801
0.32010333457350754,0,0.997952
0.41658969835350573,1,0.999933
0.353001661519012,1,0.999343
0.4166623134321911,0,0.999060
0.4188935825001034,0,0.997338
0.36209638107706826,1,0.999856
0.3319333737483933,1,0.999718
0.2478455137663612,1,0.999734
0.34966577423924317,0,0.999156
0.29734851482506425,0,0.997837
0.3626455087589276,0,0.990747
0.26542487421313743,1,0.999606
0.3118207988603891,0,0.998769
0.2953794102708433,0,0.997612
0.28941362545708976,0,0.988197
0.3409518070083831,0,0.998886
0.34342137545443135,1,0.999857
0.29060370213947534,1,0.999928
0.3350766219980061,0,0.993778
0.32672577973273403,0,0.997597
0.31019258611360656,1,0.999537
0.3686088326358532,0,0.992926
0.33900373069814693,1,0.999930
0.36582168479794985,1,0.999646
0.3326190213202346,0,0.994788
0.39321615812033517,1,0.999665
0.3478377017040146,0,0.998478
0.32807928480123844,1,0.999722
0.3278171927135554,1,0.999441
0.3744347169769098,0,0.991845
0.3348221410103137,0,0.996999
0.32756647662428023,1,0.999928
0.33649293536030944,0,0.989487
0.3724804338267115,0,0.998687
0.41313186498652793,0,0.997883
0.4326045346864424,0,0.998118
0.43068952999337484,1,0.999858
0.39606076506429133,1,0.999618
0.3929438070849294,0,0.998224
0.3970568380434318,0,0.998818
0.45399129935710864,0,0.998930
0.437604283685057,1,0.999599
0.4609878106913605,1,0.999930
0.44481086812205695,0,0.992107
0.4371089334819869,0,0.998446
0.41659088368814123,1,0.999785
0.4112611478951554,0,0.998358
0.4221631990312056,0,0.993541
0.4276745045476666,1,0.999861
0.43681756944950906,0,0.992339
0.4542637004977707,0,0.997147
0.45371051166740817,0,0.999120
0.464914463093118,1,0.999652
0.440103998447881,0,0.993465
0.44138249124439793,0,0.998710
0.45678133590539377,1,0.999933
0.4501504198498365,1,0.999929
0.4073309846441555,1,0.999931
0.4558435706945429,1,0.999928
0.4587072554957693,0,0.998700
0.42933202662320596,1,0.999310
0.4192681715687878,0,0.997426
0.38596178263780895,0,0.996404
0.46613163207892117,1,0.999642
0.4632145201619834,1,0.999869
0.38798927504842246,0,0.992842
0.42731770263366925,0,0.995520
0.42749659035144894,0,0.997695
0.45398653048343024,0,0.996684
0.4562277892010028,1,0.999788
0.434654160334326,1,0.999797
0.43378871636170613,0,0.992788
0.4666595990863647,0,0.997797
0.42307975592780833,0,0.995288
0.4294743087866413,0,0.996463
0.4256860059698471,1,0.999929
0.3920418912234085,0,0.989362
0.4066106828313999,0,0.998762
0.43674753609516903,1,0.999934
0.4128490328257333,0,0.995696
0.4111070461480384,0,0.996561
0.41267644564548434,0,0.991781
0.4147422660782462,0,0.996442
0.41929650424285336,0,0.998646
0.4261768417288931,1,0.999788
0.4068977702926955,1,0.999436
0.4099005576339043,1,0.999741
0.39661936850064927,1,0.999923
0.43609031909202195,0,0.992974
0.405297507011687,1,0.999935
0.3977310663465001,0,0.999150
0.37935114082032545,1,0.999565
0.43492290438900105,0,0.993136
0.4274784391064945,1,0.999929
0.39890864447508356,1,0.999934
0.40856146705383184,0,0.997043
0.4477534551985299,1,0.999935
0.41810375833273805,0,0.996491
0.3617939149783396,1,0.999645
0.41010810905382816,0,0.998253
0.404934639296442,1,0.999803
0.434259342005078,1,0.999734
0.4332431621547541,1,0.999928
0.3793288105965857,1,0.999805
0.45137301163060667,1,0.999933
0.42818815452227105,0,0.996447
0.4248553675380131,1,0.999679
0.4135507373491292,0,0.992609
0.3705201493108172,0,0.992149
0.4274187486554156,1,0.999603
0.40180178831053803,1,0.999802
0.45758407388854133,0,0.997799
0.43922942039487756,1,0.999354
0.4070446063836186,0,0.997566
0.4364272256890325,1,0.999783
0.46066476100235276,0,0.997284
0.4271502622237847,0,0.998581
0.4305445114151598,0,0.991644
0.44826583523459446,0,0.998101
0.3994533028217306,0,0.998938
0.42687923692232516,0,0.994427
0.45622562233105773,1,0.999927
0.43849442871562405,1,0.999933
0.41339017221706054,0,0.997815
0.4189182752628573,0,0.998644
0.46308795287128657,1,0.999594
0.3714031028628644,1,0.999743
0.43222211472768995,0,0.999133
0.3864737226394556,1,0.999728
0.4344820767639053,1,0.999932
0.391344816273526,1,0.999803
0.4880017040437597,1,0.999738
0.4593849506285769,1,0.999870
0.4328007947184883,1,0.999796
0.4438725812931828,1,0.999926
0.40680321132075553,1,0.999867
0.4508244643188514,1,0.999866
0.4040676816833827,0,0.998248
0.39550675610767544,0,0.995498
0.4166701300505491,0,0.963372
0.4256943715117019,0,0.995733
0.4210405383384221,1,0.999679
0.3854090048474622,0,0.993973
0.3621764240177203,1,0.999931
0.38952006242297343,0,0.998738
0.45194155905164957,1,0.999875
0.40386597321712286,1,0.999804
0.4141489854216056,1,0.999461
0.42230965006178606,1,0.999795
0.40716749827451393,1,0.999690
0.38693444909822894,1,0.999932
0.4434911826685522,1,0.999815
0.4042442362785808,0,0.999176
0.4067478742617594,0,0.994780
0.40610607886528444,1,0.999862
0.4292150782810931,1,0.999928
0.3880959328313884,0,0.997819
0.4834420340025574,1,0.999926
0.46526854999108735,1,0.999508
0.3974063548940033,1,0.999929
0.37749927993174487,1,0.999932
0.4363121795065094,0,0.999049
0.41069039410860053,1,0.999931
0.4101185621956555,0,0.996572
0.4366075487188029,1,0.999469
0.4407741870174075,1,0.999936
0.4272055352854413,1,0.999926
0.40169429148870556,1,0.999937
0.39393134391102036,0,0.997992
0.40446109489877763,0,0.997924
0.41253644781823445,1,0.999936
0.4214422030715413,0,0.998799
0.4037411853088803,0,0.994776
0.40460397998653863,0,0.997907
0.3808190608567897,1,0.999874
0.37033577565902653,0,0.996579
0.4249421243231021,1,0.999329
0.3983783436464258,0,0.997354
0.42845015315018825,1,0.999938
0.3379380059583909,1,0.999938
0.3509186651561383,1,0.999463
0.36393584181516325,0,0.999130
0.4016902287297449,0,0.996976
0.4133602011053306,0,0.992035
0.4110935113349984,0,0.994581
0.3595819774328412,0,0.998967
0.33686189381980597,0,0.997307
0.3305446189568084,1,0.999564
0.38073821942432656,1,0.999939
0.35297182986992176,1,0.999876
0.37621896346388,0,0.998737
0.3556102528890058,1,0.999932
0.371697773794125,1,0.999939
0.3787386139642685,1,0.999938
0.3379544473071756,0,0.999330
0.40179333276923646,1,0.999937
0.35016713507476677,1,0.999873
0.35759962930034594,1,0.999936
0.3723778716504117,0,0.993633
0.3941537883920486,0,0.999110
0.35402817452676594,1,0.999873
0.36046787007043907,0,0.999140
0.38404284176215187,1,0.999853
0.3292877136014416,0,0.994115
0.4063213085840292,1,0.999937
0.3250152260040497,1,0.999717
0.368380836831039,1,0.999934
0.34559991315931654,1,0.999937
0.3365570010594627,0,0.986767
0.3661481861829298,0,0.996892
0.3491764297328532,0,0.994343
0.35664355068739734,1,0.999718
0.3442160012751754,1,0.999870
0.3867623921099392,0,0.994394
0.32544679307159075,0,0.997825
0.376476745788585,1,0.999441
0.3814522407418158,0,0.992958
0.34099062263197216,0,0.998762
0.3474220520431221,1,0.999377
0.3394455323341287,0,0.997773
0.3527113824874415,1,0.999585
0.36987735539948075,1,0.999650
0.37005553662242063,1,0.999936
0.38958848747873165,1,0.999871
0.3949378664302961,1,0.999938
0.41980938121615474,0,0.999284
0.35116553861464905,1,0.999871
0.3582442673373223,0,0.995228
0.3995499336082801,0,0.992965
0.4210201174616111,1,0.999930
0.35079410567715275,0,0.993444
0.36566095744613214,1,0.999783
0.3910913200389787,0,0.996614
0.3869878720799943,0,0.993746
0.3549211688578854,1,0.999648
0.3924784105077961,1,0.999936
0.38909279236208505,0,0.996584
0.4237563683090887,0,0.995616
0.4094098151310116,1,0.999651
0.3967621231773328,0,0.998559
0.38593091914652555,0,0.998414
0.39005277184370574,1,0.999936
0.38354161710983314,1,0.999875
0.4016766446398385,1,0.999936
0.3682669605093186,1,0.999937
0.3778311798967568,0,0.994714
0.3732156677997412,0,0.998823
0.36589035302488393,0,0.998337
0.3872441666855572,1,0.999934
0.3285499577996319,0,0.998267
0.3812201452036298,0,0.995171
0.37793314368712283,0,0.997711
0.3620465506141864,1,0.999927
0.42845758666439004,1,0.999855
0.39990504863439935,0,0.993540
0.3890790181830135,1,0.999930
0.39903818050922346,0,0.998412
0.4139279803878623,1,0.999465
0.4231209101826521,0,0.996712
0.37338661293647324,1,0.999344
0.44652952183726785,1,0.999932
0.46407775907481225,0,0.996235
0.43780385246591236,1,0.999873
0.4127797851113455,0,0.998908
0.4373490187096718,1,0.999937
0.4440496102436705,1,0.999536
0.4405495430578028,1,0.999933
0.41986569527188494,1,0.999561
0.3884317401238545,0,0.999002
0.44430077394931844,1,0.999938
0.4476880400350712,0,0.999244
0.393498238101893,0,0.994317
0.43610981620358386,0,0.990083
0.4224154713816781,0,0.997899
0.4316576976371836,0,0.998376
0.4484770151519387,1,0.999875
0.4401768637868674,1,0.999462
0.4463273865600116,0,0.995030
0.41001548547820266,0,0.998686
0.46820961759544594,0,0.998546
0.43480069745357464,1,0.999931
0.47232682907139345,1,0.999866
0.43361640610450186,1,0.999938
0.47787205198696414,0,0.990635
0.4241896644922588,1,0.999346
0.4384003961668868,0,0.990444
0.3860280528719777,1,0.999938
0.4827330014028614,1,0.999934
0.4517810153662524,1,0.999510
0.45493135220919995,1,0.999938
0.4609494488112245,0,0.993967
0.4443134122748798,1,0.999936
0.44712036045308573,1,0.999745
0.4761171982542273,0,0.999225
0.43693760480902505,1,0.999872
0.4425041805825068,1,0.999935
0.4610328581432261,0,0.997693
0.46502421452319015,1,0.999875
0.3978795149138744,1,0.999935
0.43644377210939034,0,0.996958
0.4349114690151764,0,0.996240
0.45379129875693536,1,0.999935
0.4383872178165534,1,0.999526
0.4508371767630236,0,0.998857
0.42396936029350546,1,0.999743
0.4433689130499826,0,0.999026
0.46458895785425136,1,0.999937
0.4572412051511169,1,0.999860
0.43291002078843405,0,0.999304
0.46087040579735195,1,0.999936
0.4658595409634647,1,0.999382
0.46494709278440477,1,0.999929
0.4629718248460532,1,0.999929
0.48206785179305434,1,0.999937
0.4213324785394172,1,0.999936
0.4590837716082508,0,0.999027
0.4416271320168883,1,0.999938
0.4439909884584134,1,0.999932
0.42580638593996406,0,0.996382
0.4537519179963698,1,0.999680
0.469226784289961,0,0.995240
0.48102062928497247,1,0.999938
0.4885707222270283,0,0.998960
0.45607268422021263,0,0.999069
0.4846799744175869,1,0.999813
0.46621380420086017,1,0.999869
0.45942175808630376,0,0.999168
0.43578084621361657,1,0.999930
0.42347700141820077,1,0.999626
0.461240911904496,1,0.999936
0.4728207193593048,0,0.994834
0.46109224771315716,1,0.999806
0.46763278779097006,1,0.999492
0.45893288242020985,1,0.999937
0.449310477113512,1,0.999936
0.4594233521094301,0,0.998721
0.42459540539161295,0,0.995622
0.4363787022047242,0,0.999210
0.44066386505699634,0,0.994804
0.41145422061696596,1,0.999536
0.4540708355850974,1,0.999871
0.4281112765371782,1,0.999721
0.43920543820876584,0,0.995035
0.4605151482871402,1,0.999803
0.4552236496205392,0,0.990976
0.4262349072448899,1,0.999930
0.46476003733588495,0,0.998191
0.4549173725923158,0,0.999060
0.4370769649852553,1,0.999537
0.45191659801500556,1,0.999865
0.41421207337438426,0,0.997742
0.45398210270624795,0,0.998467
0.4355020448843627,1,0.999932
0.43908517386983276,0,0.994323
0.43820408805110733,0,0.998923
0.43942162598694245,0,0.997180
0.4677363834381623,1,0.999800
0.37860161641703255,0,0.998066
0.39462109575398807,1,0.999929
0.44357763001292355,1,0.999859
0.4487263938563996,0,0.998031
0.44219084485669635,0,0.994743
0.39566435640455244,0,0.991748
0.43014098475049695,1,0.999934
0.4685767397241287,1,0.999310
0.4500018136945577,0,0.997054
0.4621251789526459,1,0.999789
0.4017266387314802,1,0.999934
0.3873586644126568,0,0.998304
0.42749354664747935,0,0.995581
0.3913916428641483,0,0.992989
0.4138474349345698,0,0.992497
0.3903338526013994,0,0.999036
0.39283774135292565,1,0.999276
0.431935930434104,0,0.998924
0.41446066740420845,1,0.999650
0.3814149325637817,0,0.999014
0.42216057118572203,1,0.999374
0.37375962043073785,0,0.998297
0.3872885235653588,1,0.999586
0.4147791088497754,0,0.998482
0.39816410221894766,1,0.999937
0.40851297752037763,1,0.999933
0.3765062037101242,0,0.995534
0.3968099479900127,0,0.997911
0.24709525401984825,0,0.988052
0.24171218626229757,1,0.999387
0.197748727468346,0,0.995088
0.24669362022338348,1,0.999839
0.2788093157910083,0,0.997774
0.21924927834531163,0,0.996408
0.25848960592116826,1,0.999801
0.29123239027879083,1,0.999861
0.33462059760306884,1,0.999318
0.2219483832541933,1,0.999924
0.3003329693590556,0,0.996579
0.2744644439230501,0,0.996982
0.23797224164452757,0,0.998692
0.24763963230089658,0,0.986970
0.2706909726486979,1,0.999453
0.1922744819321037,1,0.999794
0.29362593687731947,0,0.999233
0.19239303901629867,1,0.999863
0.26372059245656865,0,0.999284
0.28016613344845015,1,0.999869
0.2262659427510469,0,0.995869
0.28195640973990105,1,0.999376
0.2489302058222835,0,0.998419
0.31048824059976954,0,0.999028
0.2885002617572255,1,0.999579
0.2837524783562121,1,0.999932
0.24385248965365314,1,0.999875
0.250968560406396,1,0.999752
0.25957077854750105,1,0.999269
0.2881494940119308,0,0.998914
0.2523644570228332,1,0.999931
0.23458678933872137,1,0.999527
0.25810482021648534,1,0.999532
0.2894251809545529,0,0.996993
0.2588609435045175,1,0.999930
0.2717517960604744,0,0.998973
0.3062150646800055,0,0.997703
0.30920661462238264,1,0.999340
0.30160216345347696,0,0.998603
0.2679840055263634,1,0.999938
0.26132590735888517,1,0.999572
0.23434054822120795,1,0.999871
0.2698341578547572,1,0.999933
0.27779133609807966,0,0.998199
0.2334035850376857,1,0.999354
0.25697712555555097,0,0.998519
0.25683210784598953,1,0.999629
0.3513129084013903,1,0.999776
0.2877352803206065,0,0.984098
0.25614101204715684,0,0.997518
0.3095424675064533,0,0.999204
0.2891560853311465,1,0.999529
0.24228547683029897,1,0.999933
0.2604833279784567,1,0.999924
0.2670184087512252,1,0.999932
0.23823476598866528,1,0.999685
0.2834043368386539,1,0.999928
0.22023499776410577,0,0.997617
0.32551745926645764,0,0.998503
0.27264220829938507,1,0.999689
0.25210404814354725,1,0.999926
0.2451184021172491,1,0.999932
0.19454678629119557,1,0.999860
0.24135469678436505,0,0.993854
0.29671914192136906,0,0.996819
0.25528663274209806,1,0.999522
0.3279877088057502,0,0.998398
0.3906354404925264,1,0.999603
0.3074820439516082,0,0.998630
0.31108683861337644,1,0.999849
0.3036317063461712,1,0.999420
0.25280567138916976,1,0.999397
0.27365401247099275,1,0.999798
0.247048561497188,1,0.999925
0.2906432235909438,0,0.998899
0.2706979653486676,1,0.999795
0.2913724750235484,0,0.995196
0.26824238812245627,1,0.999936
0.3037474719237125,0,0.998895
0.2717501676843327,0,0.997465
0.24740867210323642,1,0.999327
0.2624012573783845,0,0.999344
0.22986761824896462,0,0.995817
0.38119774047269744,0,0.997324
0.3458293159403279,1,0.999866
0.3030586429790683,0,0.999292
0.38007696108069555,0,0.998654
0.29068256842205903,1,0.999721
0.3120407667147348,1,0.999639
0.28708782873168626,1,0.999735
0.304452037618384,1,0.999922
0.2929532509852711,1,0.999842
0.24983274868112285,0,0.998692
0.24561001657379974,1,0.999817
0.23603724143005658,0,0.999240
0.2654192067525644,1,0.999868
0.3313763754453881,1,0.999722
0.25576727217390466,1,0.999937
0.24482001397863454,1,0.999929
0.2738830776,1,0.999395
0.25779731687284035,0,0.993759
0.25699007685432396,1,0.999936
0.30472035688778504,1,0.999936
0.20448699794395292,0,0.996261
0.32359507504671864,1,0.999933
0.2444811985968724,1,0.999730
0.26641840811764134,0,0.998981
0.23566709745118747,0,0.995403
0.2777636913236893,1,0.999868
0.2775813246250724,1,0.999934
0.31171632862412907,1,0.999558
0.22903400468248555,1,0.999933
0.24836142839735917,1,0.999862
0.29207443822676016,0,0.998340
0.2655956578766977,0,0.975684
0.323270635754179,1,0.999863
0.27060161998216814,0,0.994301
0.29656552275613585,1,0.999601
0.2614544792657073,1,0.999933
0.2798175643106536,0,0.998775
0.25736375622445756,0,0.998420
0.2830306742620776,0,0.998200
0.23942945447000763,0,0.998448
0.30139801748965955,1,0.999466
0.2396469300105733,1,0.999781
0.33076894774395554,0,0.997777
0.3362409676227281,1,0.999261
0.2875606844494328,1,0.999848
0.2908517104138989,1,0.999926
0.2935822002541888,1,0.999927
0.3811645499190987,0,0.997367
0.3057279405552989,0,0.999236
0.24510818172713886,1,0.999862
0.26498868904648604,1,0.999933
0.24894320858329375,1,0.999326
0.28523514765576324,1,0.999729
0.25932922598493785,0,0.995136
0.29113581101640706,0,0.998873
0.30189963959573574,1,0.999932
0.25075720794493156,1,0.999784
0.26431078740559577,1,0.999928
0.266491981479933,1,0.999931
0.33954566047805645,0,0.992232
0.26903495703347724,0,0.999158
0.28951797796084666,1,0.999934
0.293088158736186,0,0.997634
0.27429393521711604,1,0.999870
0.3635962485403553,0,0.998827
0.31733322996736746,1,0.999390
0.28330260572541044,1,0.999852
0.29468900483420074,1,0.999793
0.25942706266990945,1,0.999558
0.2792848208543864,0,0.996785
0.29854288974575366,0,0.999014
0.3932545829925252,1,0.999478
0.287256101453392,0,0.999117
0.31159683279983297,0,0.993948
0.36630274727548484,1,0.999389
0.26072735287131493,0,0.998948
0.3364953398656058,0,0.993432
0.33069257632210286,1,0.999805
0.35388646862858286,0,0.998549
0.33340029373888275,1,0.999936
0.28175215259049946,1,0.999669
0.2646887165654209,0,0.998099
0.276544960164026,1,0.999930
0.2737877567474751,1,0.999943
0.30589282729608813,1,0.999790
0.45034933698973095,0,0.998537
0.31369407984654163,0,0.997559
0.2932006058450972,1,0.999925
0.34162270468814376,1,0.999359
0.3624974028165338,1,0.999607
0.3057602064606186,1,0.999776
0.32514887770401796,0,0.999018
0.2711883005499244,1,0.999856
0.29905521864548873,1,0.999934
0.2965561844196385,1,0.999932
0.29215786229750396,0,0.998620
0.27039206044657993,1,0.999315
0.30376417280334395,1,0.999482
0.32928659089725604,1,0.999868
0.28669267797927805,1,0.999770
0.323747702098688,1,0.999926
0.2791100856984793,1,0.999859
0.37073829829630706,0,0.998727
0.277003196201623,1,0.999930
0.3281664713504211,1,0.999869
0.2763146249868017,1,0.999872
0.29696829058459306,0,0.998609
0.33347185229897647,0,0.990819
0.3754332642502492,0,0.990704
0.3109370861733834,1,0.999931
0.39105707247723087,1,0.999668
0.4158792938414692,1,0.999595
0.3331238130452849,1,0.999665
0.2729430660379242,1,0.999936
0.2880689368994444,0,0.999065
0.27251443551736754,0,0.996425
0.36227339194171715,0,0.998782
0.26685480749442425,1,0.999928
0.25868290021755774,1,0.999933
0.3088039861911922,1,0.999801
0.3119004028483826,1,0.999404
0.32438462407876334,1,0.999197
0.26874853725516573,1,0.999926
0.3956542369413297,1,0.999591
0.2791735479192019,0,0.998898
0.33219327984374025,0,0.999047
0.292075840293036,1,0.999713
0.2923296478687972,0,0.999269
0.28255993100910304,0,0.993347
0.27350030814016035,1,0.999932
0.3207508334477316,1,0.999934
0.2992810822541881,1,0.999873
0.3079740475612163,1,0.999660
0.27264235524901326,1,0.999879
0.25322884964936143,0,0.997536
0.29075581452678384,1,0.999936
0.39067377829363586,0,0.998684
0.31196076821574176,1,0.999937
0.3214436640639962,1,0.999851
0.3358239209352025,0,0.997954
0.3618687782811384,1,0.999779
0.2916940588995469,0,0.999103
0.25319343589799287,1,0.999925
0.2915230356176805,1,0.999922
0.27188564398589976,0,0.999127
0.2772368196003993,1,0.999846
0.2736817122610986,1,0.999922
0.29559846792171546,1,0.999923
0.2615621916529348,1,0.999670
0.40211223082772407,1,0.999856
0.34672935021493917,1,0.999378
0.34892628870588943,0,0.996673
0.3171533035022594,1,0.999927
0.28246871769869025,1,0.999428
0.3026735800189826,1,0.999926
0.277703891581167,1,0.999923
0.3097188123913387,0,0.992451
0.39202108076848824,0,0.995720
0.3430897750681594,1,0.999695
0.357613983006742,1,0.999310
0.314600008926946,1,0.999657
0.32153421833589896,1,0.999932
0.2809100894934094,1,0.999933
0.2649251229881574,1,0.999725
0.34351785976399196,0,0.945225
0.27664134293882126,0,0.996363
0.28301259192676764,1,0.999795
0.3034782202272607,1,0.999933
0.3106411463096282,1,0.999642
0.32430187267513294,1,0.999930
0.2892331559975438,1,0.999863
0.3260442601104085,1,0.999933
0.3389975145887112,1,0.999484
0.3573632223491949,1,0.999933
0.3318019259152612,1,0.999924
0.33060160838735103,1,0.999922
0.2934782946248498,1,0.999770
0.3219830766798875,1,0.999927
0.38222052100329756,1,0.999316
0.2822499711430249,0,0.992817
0.2734597567508293,1,0.999850
0.3354144579138723,1,0.999921
0.3029530177311346,0,0.998207
0.3378206436683985,0,0.999019
0.356167649029658,1,0.999925
0.3723299784753335,1,0.999646
0.2908000569860877,1,0.999408
0.31990395067670785,1,0.999859
0.3398029968721512,1,0.999932
0.273480795693121,1,0.999386
0.33856621570096257,0,0.998664
0.3400166019836198,1,0.999935
0.3477959994362418,1,0.999854
0.31583487441141983,1,0.999935
0.3046947239138863,1,0.999710
0.3081075746206669,0,0.979582
0.29437712740897826,1,0.999501
0.3108295451611611,1,0.999808
0.33551643472880166,1,0.999854
0.32504788039127946,1,0.999413
0.27540769192742454,1,0.999859
0.2974808086965604,1,0.999930
0.2971241269938416,0,0.998098
0.32661501231027656,1,0.999212
0.36220046279348816,0,0.997756
0.3182438363871267,1,0.999628
0.2893791264926836,0,0.995869
0.3566443031958037,0,0.998432
0.33730627558295145,1,0.999782
0.29167427343085744,1,0.999404
0.2648690207267002,1,0.999930
0.24906701175065732,1,0.999933
0.3009256352137547,1,0.999877
0.28114027645771206,1,0.999426
0.34992288812405287,0,0.999180
0.3165315382005101,1,0.999786
0.3525953429401849,1,0.999867
0.2748746224172787,1,0.999865
0.31012146986984407,1,0.999862
0.30287436896712105,1,0.999932
0.3445356093531683,1,0.999571
0.2764918428673355,0,0.997688
0.30407811856789224,0,0.998817
0.2995266079409822,1,0.999869
0.2731291849910081,1,0.999671
0.30707566440061623,1,0.999934
0.3557520511762924,0,0.990384
0.2917861220203805,0,0.997119
0.3075889476190893,1,0.999877
0.3172016542373354,1,0.999865
0.30776918348573445,1,0.999805
0.40575362848209856,0,0.985721
0.32335034341254004,0,0.998589
0.3169385411177934,0,0.989869
0.2949859443524905,1,0.999819
0.28891947088924597,1,0.999934
0.3281312019495711,0,0.996198
0.3238246404332755,1,0.999932
0.32404218686938113,1,0.999867
0.3149198092643721,1,0.999861
0.3980678294260691,1,0.999601
0.27128624453396905,1,0.999688
0.3036676331209802,0,0.997345
0.27980257148849647,1,0.999855
0.3589380608216665,1,0.999702
0.3767685235991795,0,0.998883
0.31644371128287996,0,0.998872
0.3214969734848769,1,0.999935
0.35462202008043464,0,0.999102
0.32370883343932216,1,0.999929
0.3648750147263385,0,0.998902
0.2982303180764929,0,0.999264
0.32596855811763664,1,0.999725
0.39560994000249217,0,0.996635
0.3055974989695885,1,0.999660
0.3481158403119777,0,0.999060
0.34706727134389814,0,0.996949
0.2807874833901121,1,0.999928
0.30581647105036863,1,0.999925
0.3379958568510764,1,0.999801
0.32465161491787026,1,0.999932
0.32547365577313736,1,0.999778
0.34855136872084225,1,0.999856
0.3507993441221764,1,0.999868
0.3550842048438254,1,0.999938
0.3873047072561164,0,0.998409
0.30724827216761597,1,0.999354
0.32665403821374833,1,0.999851
0.2872854552663791,1,0.999926
0.2955313806287687,0,0.998578
0.3223170522760459,1,0.999668
0.3309827905739781,1,0.999930
0.3079673723309226,1,0.999811
0.32582336201287004,0,0.939075
0.3939417705540206,1,0.999795
0.3098082761837722,0,0.997264
0.3230352982286256,1,0.999797
0.32209403948328247,0,0.991624
0.28493298570125236,1,0.999793
0.29417772289975275,0,0.996895
0.32816040327066065,1,0.999929
0.32933515028703325,1,0.999798
0.3319274252034426,0,0.948186
0.35040703356315883,1,0.999527
0.3186973678883522,0,0.998440
0.31296695937682945,0,0.995749
0.2748956098646393,0,0.996849
0.30898710427417675,1,0.999930
0.34581156522206463,1,0.999686
0.3067068149433142,1,0.999516
0.3617564079141394,1,0.999464
0.41480250376769623,0,0.999219
0.28004200019861347,1,0.999798
0.29200488405530806,1,0.999931
0.31080101496238527,0,0.995958
0.34179145661350613,1,0.999931
0.2948908260076575,1,0.999419
0.3362283917945103,1,0.999933
0.30476029741548066,1,0.999788
0.333365159302197,1,0.999845
0.29172007542052947,1,0.999926
0.3487693864907818,1,0.999849
0.3490657409566202,1,0.999243
0.3916177645787461,0,0.997236
0.2978662610972215,1,0.999852
0.3604459174866215,0,0.996908
0.3827280350421331,1,0.999690
0.3530800396826641,1,0.999848
0.32922584949153766,0,0.997177
0.30288207492352437,0,0.999214
0.3418846147080528,1,0.999860
0.31599407920749906,0,0.998373
0.2926769420839672,1,0.999853
0.3188800063831079,1,0.999851
0.327187949442772,1,0.999552
0.30520074753263265,1,0.999852
0.2924818069571893,1,0.999928
0.33719827894171417,0,0.998534
0.27834417756643176,1,0.999398
0.33524558188276316,1,0.999930
0.28443813745762886,0,0.998349
0.3806397279706064,0,0.998759
0.3320809176135288,0,0.998014
0.37990701058124915,1,0.999930
0.3111950659771443,0,0.988499
0.3455551570849576,1,0.999926
0.33734543592663907,0,0.998273
0.34263968818539875,1,0.999867
0.3283215518453648,1,0.999802
0.3430781183645957,1,0.999799
0.3452125130567879,1,0.999927
0.3472982209684402,1,0.999931
0.34184526873447363,1,0.999932
0.34349289744874373,0,0.998248
0.3371434155544015,1,0.999927
0.32088508526336434,1,0.999792
0.3139971305856003,1,0.999525
0.3509869587551498,0,0.984508
0.3593209185720845,0,0.998471
0.3544945886246158,0,0.997364
0.3133197129166403,1,0.999853
0.3725997583583817,1,0.999434
0.35184646760986105,1,0.999381
0.3410265790257072,1,0.999737
0.33988630105727563,0,0.991979
0.29466832545135535,1,0.999931
0.3590312781373823,1,0.999927
0.35492909156236657,0,0.998122
0.35030699498823664,1,0.999932
0.3699510759956461,1,0.999932
0.3943339163966607,1,0.999775
0.35419404662780085,1,0.999482
0.37495324975188266,1,0.999516
0.3939187536991114,1,0.999927
0.3480447184994663,1,0.999668
0.35755985318295785,0,0.996969
0.3414410576614313,1,0.999926
0.41551665288579,1,0.999525
0.32429795677321793,0,0.995557
0.32807050152376294,0,0.990974
0.2891690770464248,1,0.999929
0.2588705933819772,0,0.997637
0.2811205777263193,1,0.999863
0.34250532913706794,1,0.999873
0.35055273951772664,1,0.999865
0.28698386813845805,1,0.999409
0.3068194846035709,1,0.999869
0.314835449937339,0,0.999028
0.32670761912812074,1,0.999800
0.39820165821212267,1,0.999932
0.2828891117419928,1,0.999868
0.4340694371256146,1,0.999511
0.33028726505937717,0,0.998800
0.2890229699945094,1,0.999589
0.28932278623607055,1,0.999299
0.3148317659305231,1,0.999934
0.31286189542096837,1,0.999875
0.33974450803765,1,0.999582
0.33489794611130447,1,0.999732
0.337202723915905,0,0.997792
0.3126164462418515,1,0.999775
0.3527649818239622,0,0.996716
0.3109932430571128,0,0.999026
0.299437137159153,0,0.989033
0.2968896643376492,0,0.994156
0.31929548133840446,1,0.999934
0.3350712236666574,1,0.999932
0.31375283999130865,1,0.999703
0.3426885729590011,0,0.998498
0.33681136621394436,0,0.994099
0.3473020419362864,0,0.999018
0.3535775272850312,0,0.998674
0.298475756992036,1,0.999409
0.2870649320665267,1,0.999535
0.33012968742429305,1,0.999378
0.30445345366188925,0,0.977345
0.3115113546272243,1,0.999927
0.31281562363487503,1,0.999926
0.32083044712930736,1,0.999405
0.34850979272054855,0,0.998970
0.25752769745745924,0,0.997379
0.3615661057935373,1,0.999775
0.337951814635412,1,0.999527
0.27211261454113056,0,0.998317
0.3343281139703854,1,0.999865
0.3313855311458632,0,0.998964
0.3223107534424199,1,0.999932
0.35237913823265,0,0.999165
0.32313147409453297,1,0.999926
0.30272107069631793,1,0.999450
0.31821272135440687,0,0.999179
0.3659652287663953,1,0.999481
0.31936314464447724,1,0.999689
0.377845533301418,1,0.999770
0.3256345150405143,0,0.997942
0.30653969515557744,1,0.999397
0.2982389649396271,0,0.992190
0.33357260273176687,1,0.999648
0.358103183376426,1,0.999930
0.3381827865305536,0,0.998884
0.34173826072826574,1,0.999738
0.3221178835287517,1,0.999931
0.3720358445312341,1,0.999722
0.3864518890572974,1,0.999726
0.31343366179177073,1,0.999806
0.32335944789605336,1,0.999475
0.3615574667833818,0,0.997956
0.34717851963427593,1,0.999634
0.3814462944804667,1,0.999922
0.3250599535182745,1,0.999932
0.34020598167744137,0,0.998034
0.31998769234190494,1,0.999781
0.3525449706007298,1,0.999928
0.386010514237247,1,0.999667
0.39135794565018683,0,0.996894
0.3628253695061734,1,0.999872
0.3456890058150229,0,0.998814
0.3331305155235541,1,0.999929
0.363992999945869,1,0.999551
0.3564561926015366,0,0.993949
0.30464602108528227,1,0.999933
0.3626383205901594,0,0.998569
0.35834761910131624,0,0.999094
0.35433682157691426,1,0.999930
0.35796038649815687,1,0.999341
0.3583620790417246,1,0.999658
0.2955023847328946,0,0.996503
0.25138376175498733,1,0.999927
0.35040222826577583,1,0.999709
0.3269375640848253,1,0.999927
0.32828074351252867,1,0.999933
0.33653031189716287,1,0.999870
0.32665664768825103,0,0.999171
0.2921906371862317,0,0.997385
0.3154148665407064,1,0.999927
0.3576053886637761,1,0.999923
0.33780541231741,1,0.999933
0.311692565379377,0,0.997333
0.3642021020090208,1,0.999933
0.323931687126319,1,0.999829
0.32402415576980154,1,0.999534
0.36381000908876665,1,0.999507
0.3863954594114047,0,0.998685
0.3238831980968692,1,0.999925
0.28736472955170755,0,0.997012
0.31394284258386423,1,0.999746
0.31799149977392577,1,0.999805
0.30821699884583503,1,0.999711
0.34396931691698407,0,0.998170
0.3298169223802511,1,0.999923
0.4156112263818772,1,0.999438
0.34981925705017264,0,0.996235
0.33497663725058713,0,0.998811
0.36315953311364335,1,0.999926
0.37545178347961156,1,0.999930
0.3315554931153997,1,0.999855
0.31330223807014157,1,0.999800
0.3289968065240858,1,0.999444
0.38564712569059356,0,0.998906
0.3425777341300855,0,0.998907
0.29283485364007883,1,0.999922
0.332111153235796,1,0.999926
0.33829239125677046,0,0.998709
0.35537904423376454,1,0.999642
0.35000658242179716,0,0.998745
0.3643138577262532,0,0.996566
0.36050982945018106,1,0.999843
0.3253433520045851,0,0.998123
0.32531271873233547,1,0.999857
0.3251130789656286,1,0.999775
0.3958301765308652,1,0.999844
0.3001611859335877,1,0.999847
0.302109033299505,1,0.999583
0.3285520882150661,1,0.999928
0.3529526205889479,1,0.999929
0.40667077286876246,1,0.999812
0.3397315467496066,1,0.999927
0.3497301820795304,1,0.999740
0.3178402547718611,0,0.995543
0.3348094802279007,1,0.999921
0.3598357773057827,1,0.999279
0.36630527428037574,1,0.999634
0.3427737661685765,1,0.999411
0.31834208864223584,1,0.999642
0.3088667697901472,1,0.999799
0.32606066354586677,1,0.999257
0.3587060530890844,1,0.999651
0.3877292316664016,0,0.999189
0.3733134265308979,0,0.995684
0.3370082981487293,1,0.999784
0.33256223902099047,1,0.999924
0.39450947017782245,0,0.998970
0.37995601952129276,1,0.999924
0.29515512453184295,0,0.994578
0.37286465736179836,1,0.999572
0.3821937811366239,0,0.998592
0.3758611290436698,1,0.999331
0.37956854196359807,1,0.999715
0.4398696555581484,1,0.999790
0.3535735715626644,0,0.997927
0.33256602369060917,0,0.999158
0.34990123557641944,1,0.999385
0.33637887825177326,0,0.999071
0.33066717838591536,0,0.995529
0.29621813777864126,1,0.999930
0.3753752374305311,1,0.999403
0.4051384515177821,0,0.998340
0.4211207535996043,1,0.999932
0.3257273514902159,1,0.999929
0.2970120882409581,1,0.999732
0.3803950516052385,0,0.998410
0.3961445776954959,1,0.999927
0.28254721106558695,1,0.999929
0.3284333631340565,1,0.999872
0.3085790668704549,1,0.999928
0.31682563223578303,0,0.997298
0.3839090896413675,1,0.999704
0.2984112443811318,1,0.999862
0.36571022169142536,1,0.999762
