0.7628936077437918,0,0.996620
0.5969214444507103,0,0.995528
0.6601328763131389,0,0.997272
0.36819054738455465,0,0.985195
0.539484842161349,0,0.992660
0.8007609572104583,0,0.988296
0.6770013346687292,0,0.998466
0.391679737626628,0,0.982526
0.5259650534980244,0,0.998108
0.5641504896658184,0,0.997265
0.47694577286904954,0,0.990590
0.4678150291939709,0,0.984300
0.6753917210918247,1,0.999341
0.6551618982072769,0,0.983452
0.6074433761040555,0,0.996776
0.6726560156602409,1,0.999778
0.6832395485467276,0,0.996597
0.6809474807123654,0,0.996234
0.7788053118115569,1,0.999847
0.725997448535638,1,0.999774
0.5000343438417828,0,0.991213
0.4476819646387683,0,0.989471
0.364962022277934,0,0.982511
0.4054832944553797,0,0.996888
0.4218847423615542,0,0.993536
0.552574012181981,0,0.996466
0.6450493350341262,1,0.999777
0.60402739996863,0,0.978940
0.7026495975218306,0,0.998555
0.7466525155285766,1,0.999853
0.599109815287928,0,0.998732
0.6755202219285253,0,0.995449
0.5830699789097018,0,0.983356
0.7351244684295273,0,0.994529
0.7021356231092798,1,0.999919
0.6815300748744699,0,0.986904
0.425622838809795,1,0.999520
0.3531865514670857,0,0.972591
0.45860507548757057,0,0.999014
0.3821161017890276,0,0.985064
0.518745627036427,1,0.999771
0.6125916068536528,0,0.997729
0.5843077388316525,0,0.994573
0.6133854781465856,1,0.999927
0.6328105924823184,0,0.997644
0.5124664199687288,0,0.993255
0.5533766877781863,0,0.966275
0.5366445940804342,0,0.997412
0.5000894943671117,0,0.976511
0.5399947960274852,1,0.999373
0.5644586980464141,0,0.989314
0.6500625990512762,0,0.995722
0.4237200957119511,0,0.998038
0.4336908418867548,0,0.998727
0.4429024852182977,0,0.988754
0.5099896139196934,0,0.995921
0.5242061064227616,0,0.996049
0.43514155661752263,0,0.998500
0.523528603905242,1,0.999854
0.5874824826474262,0,0.998396
0.5743127926611581,0,0.999235
0.5787353078156816,0,0.996637
0.5424816391799775,0,0.987835
0.5774841453001749,0,0.998285
0.45877779334989033,0,0.988939
0.46999291086202155,1,0.999689
0.4519891794224706,0,0.997136
0.466451169160183,0,0.976953
0.526153429674273,0,0.998956
0.5699617099179188,1,0.999645
0.4080544941321173,0,0.998456
0.3498955845492186,0,0.979409
0.40872789968676104,0,0.974406
0.43457051065365354,0,0.992266
0.4394868355900362,0,0.965257
0.4148609692959801,0,0.967527
0.29107491594622437,0,0.978974
0.32429891956090645,0,0.997998
0.35338523130964183,0,0.971766
0.5463814842813886,0,0.994808
0.25278415384851766,0,0.978918
0.302100368444845,0,0.989310
0.363295400715893,0,0.983941
0.3856446875100848,1,0.999686
0.3064065819280442,0,0.997139
0.3630937882464987,0,0.979717
0.43443384620008574,0,0.999048
0.4583796290074851,1,0.999839
0.5361560718004714,0,0.999118
0.5776072355526091,1,0.999698
0.5910277879703804,0,0.997866
0.644907736064192,1,0.999343
0.6304885270925898,0,0.998748
0.6455586533279262,0,0.999189
0.705990020951966,1,0.999707
0.6050199118630354,0,0.997229
0.6466562456470275,0,0.999188
0.6681794978908686,1,0.999558
0.6228334157790882,0,0.998701
0.14531201861061527,0,0.993866
0.18739157276382454,0,0.992866
0.2498932612064212,0,0.985470
0.39619561504063433,0,0.998484
0.5513714014116474,0,0.995316
0.6301266197731742,0,0.998472
0.5809498403028521,0,0.999006
0.6757291138106416,1,0.999407
0.6772293724485609,1,0.999614
0.8225451655649861,1,0.999777
0.41421335708159784,0,0.992628
0.528174258440644,0,0.990842
0.5210461969826236,1,0.999378
0.6003866938601107,0,0.998610
0.4879445435068924,0,0.993356
0.5286504367652196,1,0.999562
0.46015388244670163,1,0.999419
0.08765292784389271,0,0.993929
0.07433392282528309,0,0.985742
0.04922623396546127,0,0.993799
0.05395683245428977,0,0.988584
0.08612471395244284,0,0.984393
0.08094859111448229,0,0.989574
0.056689015016291915,0,0.985482
0.06205625207233385,0,0.994489
0.1725163657005191,0,0.967632
0.2948500336397753,0,0.996670
0.44926199688945734,0,0.998513
0.6772133200924866,0,0.987621
0.6664914834292515,0,0.993023
0.6192520099163268,0,0.993949
0.6759414986429647,0,0.994215
0.6579639007529516,0,0.994548
0.5568548054285338,0,0.995119
0.5858316715512041,0,0.989751
0.6173520313527545,0,0.996688
0.4712646313234971,0,0.992095
0.5685798094550294,1,0.999774
0.5580646162122275,0,0.995964
0.5899439066725379,0,0.997991
0.6608973887112795,1,0.999498
0.6442061079496425,0,0.998016
0.7235507231807102,1,0.999924
0.6751743334509912,1,0.999790
0.3690694517048121,0,0.992727
0.47537235250513804,0,0.997880
0.5277704839100382,1,0.999311
0.5431396740505209,1,0.999924
0.47735168302358155,0,0.995636
0.4539051635928949,0,0.990139
0.5236183200357017,0,0.997213
0.24046302816072332,0,0.971721
0.4481870065661153,0,0.984978
0.6609156861881151,0,0.994448
0.6833631677791155,1,0.999847
0.5617105982895554,0,0.994124
0.6359724258073386,0,0.999126
0.6820302839004414,0,0.998009
0.5682795862366419,0,0.989652
0.4562813781021928,0,0.991185
0.6023680285720349,0,0.999134
0.46936243302733965,0,0.997374
0.623434471779227,0,0.986382
0.5497949447290154,0,0.986111
0.5066502602863137,0,0.982292
0.485242318946569,1,0.999381
0.5022885529654763,1,0.999699
0.6201278502862365,1,0.999931
0.5963215187663025,1,0.999926
0.5679342992683556,0,0.998167
0.5799483739633837,1,0.999192
0.5396208098622319,0,0.998890
0.5951853561694478,0,0.998708
0.60570516106179,1,0.999841
0.6063401442240464,1,0.999328
0.5756550452865425,1,0.999633
0.6878201375649976,1,0.999858
0.6507519474042734,1,0.999684
0.6830486580271474,0,0.993547
0.71643087870585,0,0.997208
0.6274987800053835,0,0.991580
0.6907494054397971,1,0.999847
0.6754462400033338,0,0.997351
0.5966396885961878,1,0.999542
0.4780296609466094,0,0.998531
0.46660401146373426,0,0.991891
0.5079295352201773,0,0.997129
0.5509996534949083,0,0.989958
0.44282721426858956,0,0.995649
0.6492754806753689,0,0.999125
0.7123916115390027,0,0.999149
0.6823361301173427,1,0.999617
0.5745137027596746,0,0.996206
0.5701510697628955,0,0.992499
0.49018386292185584,0,0.982741
0.49670859544165447,0,0.996864
0.557344262070501,0,0.998692
0.5547647022964983,0,0.996677
0.6330180731809621,0,0.985194
0.6007710313789861,0,0.993947
0.5994879252019427,0,0.998476
0.5237153514039101,0,0.989558
0.5844134387246062,0,0.994198
0.5358764537545395,0,0.998762
0.6206487863431636,1,0.999400
0.661621588416876,1,0.999375
0.6127164124163591,0,0.985658
0.5315997503918848,0,0.998166
0.5662320519970797,0,0.998882
0.5235014861940279,0,0.997975
0.5467992268285048,0,0.991932
0.586938752724155,0,0.991318
0.6725485246096955,0,0.998656
0.7088799162821249,1,0.999529
0.6052914448403475,0,0.998996
0.6647370565662549,0,0.996489
0.6626488820153498,0,0.998858
0.3437825982666535,0,0.995761
0.3745486052378216,0,0.986061
0.443995408120498,0,0.976457
0.17216756301609043,0,0.976147
0.21717582487614948,0,0.988215
0.341395725301342,0,0.997375
0.33801328071659953,0,0.978893
0.457906030936402,0,0.984801
0.47452164782591116,0,0.972446
0.516796520126289,0,0.998635
0.5433653990111502,0,0.995883
0.5831903468416014,0,0.994807
0.6398777792155846,0,0.995950
0.43350408246149613,0,0.980982
0.41020432108522287,0,0.992187
0.4064680674836135,0,0.996479
0.18075866469245147,0,0.994564
0.1901396066447691,0,0.976339
0.18883038495693216,0,0.989527
0.19815756544141302,0,0.997966
0.19860908201466146,0,0.988908
0.10726673007389563,0,0.971130
0.10189310924646955,0,0.972787
0.126694427357579,0,0.978396
0.11253336850787701,0,0.994582
0.1431572981809759,0,0.999083
0.10198313943174821,0,0.986325
0.12504755794102237,0,0.991036
0.16387819672156265,0,0.989918
0.1579129764175917,0,0.970840
0.21376966908344672,0,0.979114
0.25440920985871784,0,0.997797
0.3695215512006379,1,0.999768
0.5522018776008423,0,0.992165
0.48455289349523034,1,0.999847
0.440194625774185,0,0.973794
0.5345641571468158,0,0.998581
0.6342591555952534,0,0.998820
0.7295450700213353,1,0.999758
0.6578022982260057,0,0.987869
0.4272613245169384,0,0.958872
0.34109162949051297,0,0.989843
0.3870542586717975,0,0.997827
0.37588322290057613,0,0.994548
0.40477705105496903,0,0.992282
0.4457467094550245,0,0.994554
0.4376094036807499,0,0.994352
0.256976903649941,0,0.954853
0.2580832602379506,0,0.997816
0.23283288439652386,0,0.995793
0.341832833476737,0,0.998460
0.4267462944115257,0,0.985441
0.36883300842696826,0,0.992201
0.4173017203501135,0,0.986472
0.44863526918548446,0,0.989141
0.46648588248945144,0,0.990531
0.5749717512408276,0,0.989101
0.2553111140044736,0,0.963022
0.2920398778635066,0,0.984772
0.4116788560211992,0,0.996151
0.41812245540525234,0,0.997806
0.4924646096364067,0,0.996654
0.10867850186804207,0,0.979012
0.17020452409772996,0,0.969964
0.21252286111213897,0,0.993645
0.40956846358647964,0,0.995374
0.49024344622022187,0,0.997700
0.5633340368797837,0,0.994572
0.5816661446976008,0,0.992069
0.5331321178697934,0,0.986657
0.5759465564387936,0,0.976751
0.6435136147766124,1,0.999384
0.6927433602235511,0,0.994085
0.5937442429762804,0,0.996001
0.6793434834943387,0,0.992632
0.5753064454475797,0,0.992513
0.5910795834694009,0,0.975518
0.6014526170955827,0,0.982375
0.6661276348952063,0,0.998443
0.6291466821091414,1,0.999433
0.6068809313142284,0,0.996618
0.7066739769341545,0,0.997588
0.5364248933986125,0,0.995164
0.4754269856067088,0,0.981811
0.5654566493825912,0,0.994670
0.5681405053820155,0,0.982464
0.5705150384496576,0,0.996068
0.6255990112581796,0,0.999027
0.48613877516986626,0,0.972685
0.37946522668491833,0,0.992532
0.3987837188540063,0,0.988417
0.4324459800455324,0,0.991341
0.3733211363676639,0,0.977144
0.35497945226217903,0,0.980361
0.40673796111611066,0,0.990122
0.4214246520960946,0,0.986235
0.37988753582816637,0,0.974817
0.44163218164926477,0,0.988009
0.4815463994730548,0,0.996954
0.4235639426030768,0,0.995225
0.124502537889424,0,0.977773
0.17680519395524041,0,0.985762
0.31882856557076505,0,0.997278
0.6202303096943866,0,0.984698
0.6544957643707857,0,0.996501
0.6105654858598066,0,0.994130
0.6993364552309613,0,0.996455
0.5818759648966976,0,0.998682
0.6331553289299918,0,0.998147
0.6682594629113043,1,0.999632
0.660674751186996,0,0.996315
0.7079924005732903,1,0.999762
0.6887060912369184,0,0.995672
0.5770791372989131,0,0.990419
0.6352975549021769,0,0.998960
0.7381987330914517,1,0.999763
0.7153284935758372,0,0.999047
0.6012360659319892,1,0.999612
0.44231191721462726,0,0.998650
0.4011241257656761,0,0.983188
0.36001390203662614,0,0.996750
0.45428730703734294,0,0.992472
0.3845812015973944,1,0.999687
0.42948364839232694,1,0.999697
0.41679567843596305,0,0.981415
0.44709106022031986,0,0.998625
0.4274020674598776,0,0.986877
0.21983857956932581,0,0.990312
0.1698746945587527,0,0.977601
0.16685311439308914,0,0.989020
0.2703930140738509,0,0.961572
0.2413893314006216,0,0.988494
0.2240934348004521,0,0.989744
0.15506931924935455,0,0.996274
0.24276954724504216,0,0.984910
0.1801810464367219,0,0.979585
0.17545524799134807,0,0.991436
0.20487295481891277,0,0.998563
0.2638235988858848,0,0.993075
0.3254093432205605,0,0.994480
0.1770714531610696,0,0.979347
0.21519651693691183,0,0.993393
0.26103709161306116,0,0.996304
0.33298615321295094,0,0.985340
0.5114128113907653,0,0.994820
0.5973162628126264,0,0.980207
0.6154174146092449,0,0.997425
0.6032961377965221,0,0.994167
0.5885798571059505,0,0.998005
0.6284115409546053,1,0.999699
0.6912345209264156,0,0.998698
0.5758709175471759,1,0.999426
0.5878654472456922,1,0.999553
0.6719579149508978,1,0.999421
0.517857304164007,0,0.990967
0.5507347669943812,0,0.998211
0.61129634430707,0,0.994046
0.6190167377735872,0,0.989385
0.6993804578310215,1,0.999698
0.5741433706167097,0,0.999160
0.6390964644847379,1,0.999856
0.6953004748290154,0,0.996014
0.742096832219948,0,0.996082
0.6596723324501939,0,0.997951
0.41063147923086624,1,0.999368
0.41379056399236785,0,0.992557
0.43490926968649174,1,0.999425
0.45830918821002553,0,0.998213
0.48658438025688217,0,0.997982
0.4492124297675427,0,0.995649
0.47121757987548185,0,0.989715
0.481697423232101,1,0.999771
0.5074356130400022,0,0.996961
0.5335158097634112,0,0.997575
0.4881152816965466,0,0.996517
0.5179041361594862,0,0.996829
0.5066340174974661,0,0.999185
0.5581324047248641,0,0.996634
0.4916232354361059,0,0.972253
0.5294474977521201,1,0.999524
0.43340985384920533,0,0.986363
0.46516930184256655,0,0.990610
0.13477098892821762,0,0.993916
0.2427111397186914,0,0.997203
0.35635661298246024,0,0.996665
0.4922545647092296,0,0.997453
0.6372505450226013,1,0.999279
0.6582344262352583,1,0.999651
0.7306618930319295,0,0.994268
0.736861904889355,0,0.998071
0.5357827259035493,0,0.979798
0.5249607538455185,0,0.981106
0.47843383377859233,0,0.985337
0.43409917606439047,0,0.995817
0.45217949966895177,0,0.998948
0.4666183470324333,0,0.989238
0.4792136323491834,0,0.988357
0.5484083937678893,0,0.990623
0.4115528194102751,0,0.993140
0.5324085694025468,0,0.977032
0.7082244394044817,0,0.994055
0.42731404126417,0,0.989694
0.5727546441486556,0,0.983173
0.5065366551046846,0,0.991569
0.5703325147502905,0,0.998509
0.5316281898950037,0,0.993569
0.5983199321645435,0,0.982060
0.6097768544390809,0,0.988319
0.5760163770124215,0,0.993684
0.6095767474771631,0,0.994754
0.6290040904032346,0,0.998840
0.6287074300556961,1,0.999571
0.4690824690820462,0,0.991530
0.5132326311031271,0,0.985985
0.4494509227957827,0,0.999170
0.42729154792285556,0,0.998479
0.5295047013594923,0,0.990084
0.5707627521062633,1,0.999385
0.6001910469063959,0,0.990207
0.585852122242439,0,0.987333
0.6264949365385984,0,0.996271
0.6306449633212237,0,0.998569
0.5710815896406561,0,0.998796
0.5284001535223749,0,0.997344
0.5399483937407887,1,0.999842
0.42426798877008415,0,0.988364
0.4497917021848386,0,0.982753
0.2612325819672315,1,0.999850
0.4470270077967114,1,0.999472
0.6818840408638174,0,0.987979
0.7161620484422546,1,0.999557
0.5467219331420392,0,0.995514
0.5747614775582567,1,0.999543
0.6658611061066376,0,0.995966
0.5869650618936223,1,0.999240
0.6607966329062349,0,0.999014
0.6492988223833519,0,0.998004
0.5767791733189823,0,0.989183
0.6714888055910169,1,0.999847
0.6306336849364106,0,0.999128
0.6770164519903991,0,0.998814
0.7209206055020881,0,0.993828
0.6865983815827862,0,0.998902
0.7166612554850397,1,0.999676
0.647112289533325,0,0.998093
0.5517688847288427,0,0.993564
0.4692473957321046,0,0.998149
0.44880385456302996,0,0.998841
0.46954862615898096,1,0.999766
0.4746458967544029,0,0.994492
0.41021587694170886,0,0.996673
0.1436707563335155,0,0.975787
0.14793336731300366,0,0.977754
0.1349247062131245,0,0.992225
0.16482087995074826,0,0.978574
0.22968509669125223,0,0.985408
0.27172585689796064,1,0.999844
0.18988877827280462,0,0.990392
0.17846530495889393,0,0.990442
0.17483902661805606,0,0.971123
0.10583951441843226,0,0.982895
0.08922112315416011,0,0.990763
0.1094048902165234,0,0.988695
0.12562406346748595,0,0.993116
0.0900559751454266,0,0.985062
0.09292580472482248,0,0.994856
0.09292864079216033,0,0.905123
0.13679995358178357,0,0.997385
0.14438005250355518,0,0.997843
0.1359388856925949,0,0.988372
0.15938218638828236,0,0.975345
0.16954503771431956,0,0.992369
0.23070996132314886,0,0.998066
0.177198358978005,0,0.983965
0.26074586105541386,0,0.994053
0.6456447092174565,1,0.999846
0.7511812178456284,0,0.995152
0.7431094357807909,1,0.999921
0.7302746573648415,1,0.999704
0.4258769206238864,1,0.999181
0.44070534157355656,0,0.999089
0.48947877209049245,0,0.986666
0.5024442920927874,0,0.999039
0.5318239684406311,0,0.998907
0.5748124148147236,0,0.992960
0.5986826397191314,1,0.999296
0.6002850290843802,0,0.995792
0.5567177980625932,1,0.999305
0.6210402229076623,0,0.997258
0.5821165629299879,0,0.996201
0.6487220343354775,0,0.998566
0.6177417452544431,0,0.996626
0.6636130176748015,0,0.984145
0.6717784420501698,0,0.994679
0.6950855799815694,1,0.999243
0.5030155574433037,1,0.999376
0.4321998825088972,0,0.986972
0.5022970336918178,0,0.996682
0.47632298828620817,0,0.998886
0.46615845546463797,0,0.997620
0.5180892631595784,0,0.994906
0.5341481397001352,0,0.997019
0.40916212817669506,1,0.999449
0.4851442588303458,0,0.995605
0.4753629262373871,0,0.996232
0.42789097301461193,0,0.988722
0.4691535210173427,0,0.990925
0.49053315583271884,1,0.999605
0.5661232066560768,0,0.996304
0.5185968559817797,0,0.994760
0.5531658510769426,0,0.989332
0.5643217639070706,1,0.999840
0.6067430021063491,1,0.999457
0.6324730891563235,0,0.996767
0.4024745845316276,0,0.982914
0.37902005261827293,0,0.989553
0.35737498177751986,0,0.990194
0.39378458260241916,0,0.970980
0.3725472282245264,0,0.986937
0.3546695674158528,0,0.982344
0.3027002416248082,0,0.992895
0.29148478456046556,0,0.997693
0.3342981870881045,0,0.981448
0.5128378112168696,0,0.987232
0.6068414920011892,0,0.994032
0.7060828620413866,0,0.999012
0.6218684808443465,0,0.997953
0.631170755717765,0,0.997877
0.7201039345429108,1,0.999845
0.7456512125930753,0,0.998651
0.6022270511762463,0,0.984644
0.5234724091595057,0,0.981990
0.5225510393764582,0,0.987985
0.5572236489714304,1,0.999580
0.6001978096816509,0,0.993867
0.45638905733311386,0,0.985472
0.5892124597554241,0,0.998853
0.5569222385364667,0,0.982316
0.5991210065116563,0,0.980613
0.5993700225484548,0,0.995032
0.6069145364418754,0,0.994538
0.7058442901036535,1,0.999420
0.49185143489747174,0,0.986379
0.5298759423440988,0,0.992501
0.6506065919532914,0,0.995883
0.5202002519190062,0,0.997081
0.5571894184507798,0,0.987450
0.48341194285238553,1,0.999921
0.3275704689641842,0,0.958653
0.30283162180414064,0,0.978322
0.32011823488755475,0,0.980063
0.32289182200610994,0,0.970814
0.3657952880060057,0,0.972376
0.30295955167711786,0,0.976192
0.15078336772604034,0,0.983499
0.15656712319385013,0,0.996618
0.10925572979391146,0,0.965653
0.08739089874273766,0,0.991364
0.11615215929138215,0,0.993052
0.146476539527164,0,0.983944
0.11073214649457705,0,0.975375
0.1124014088762211,0,0.965738
0.13019364669945904,0,0.992116
0.1251536651127316,0,0.971865
0.13493785040076423,0,0.984100
0.14644414403019143,0,0.976687
0.15465385630624742,0,0.984819
0.16872424951067683,0,0.997973
0.16830403005040181,0,0.994919
0.1806851715197952,0,0.985151
0.18713481900541443,0,0.991949
0.19473218823555694,1,0.999705
0.15342316984511006,0,0.965525
0.22460608404025273,0,0.995456
0.37573321167801466,0,0.986632
0.6583722727022249,1,0.999846
0.6491876375387063,0,0.996799
0.6950780728308706,0,0.993242
0.5201618215398124,0,0.981558
0.3896588534822899,0,0.983549
0.366353190516096,0,0.999002
0.43575752369160337,1,0.999466
0.5279308627068162,0,0.995733
0.5854895043191748,0,0.997256
0.4618514327129576,0,0.989472
0.4444905430505665,0,0.993703
0.30939853851439875,0,0.998718
0.3391554431336635,0,0.995542
0.340973601587125,0,0.959889
0.4521599742756061,0,0.969746
0.43801917498071624,0,0.979660
0.28813113088912834,0,0.985805
0.3187702409439952,1,0.999478
0.3519142347226862,0,0.979297
0.44131113012236417,0,0.981106
0.38828948354743836,0,0.996586
0.4529064274573702,0,0.983780
0.5401061285431349,0,0.994940
0.46134211834128047,0,0.998725
0.35986819519501423,1,0.999608
0.39039956812053495,0,0.999169
0.5208610932752693,0,0.995859
0.3178194758189347,0,0.967519
0.32454734395417556,0,0.996647
0.38403061807425914,0,0.965985
0.3406482845228036,0,0.998531
0.39148894082735053,0,0.978171
0.4386177605240652,0,0.976463
0.5052385928827303,0,0.997867
0.5390146269090332,0,0.996531
0.5885239694090599,0,0.984120
0.517843206321825,0,0.998794
0.5941070554834704,0,0.963728
0.3004048477431311,0,0.985888
0.3102814408667054,0,0.989296
0.29169217848735196,0,0.997418
0.3132410204869937,1,0.999408
0.28628153345114166,0,0.993389
0.26718901652345,0,0.991339
0.15478460745677924,0,0.975471
0.1776088639937584,0,0.983848
0.18844343698174312,1,0.999922
0.19299216336868963,0,0.994576
0.2182094413124345,0,0.976857
0.21017222232142654,0,0.989986
0.24451291284295695,0,0.995060
0.32844586898510725,0,0.977052
0.5708896730863948,1,0.999852
0.6958824222866695,0,0.996109
0.7279012250552426,1,0.999437
0.6832830121524628,0,0.994882
0.5986994055583863,0,0.998427
0.46727074413403125,0,0.981029
0.3638957210651881,0,0.993030
0.27552807525038964,0,0.974117
0.28119986017387666,0,0.996356
0.30494258522041023,0,0.984086
0.4413378867509507,0,0.994419
0.3409110119380595,0,0.995626
0.4668719091372126,1,0.999522
0.5469446349785151,1,0.999277
0.5639591056593837,0,0.999016
0.6652866127353879,1,0.999770
0.6144715528311403,0,0.998403
0.3280545416924275,0,0.995303
0.3184499815016613,0,0.993367
0.3248601218274193,0,0.992677
0.3952263845320527,0,0.991454
0.3749604415493978,0,0.996610
0.3970776909056925,0,0.998383
0.4081063103141527,0,0.988073
0.4874185527897664,0,0.998832
0.5604372129434088,0,0.970326
0.41910915922790887,0,0.994298
0.447318944049894,0,0.996195
0.49740134073809394,0,0.981395
0.44144917607361145,0,0.993000
0.4990324133545768,0,0.998716
0.5976358548147568,1,0.999847
0.5924150298024873,1,0.999281
0.6018190440342939,1,0.999772
0.5310783430563455,0,0.996961
0.45632923270420017,1,0.999228
0.5359538689384756,0,0.988690
0.5079822943295257,0,0.997377
0.6731232313615434,0,0.997839
0.5965579184552212,1,0.999351
0.5746637050055488,1,0.999760
0.5544474513197093,0,0.998538
0.6541736614532809,1,0.999538
0.7193536811373427,1,0.999625
0.6208879841294004,0,0.991054
0.5478596536126055,0,0.996388
0.6165170233587693,1,0.999767
0.5874156879502008,0,0.993863
0.5937651036115997,1,0.999643
0.5486317017898884,1,0.999929
0.5734054548539079,0,0.998330
0.6248744783865964,0,0.988030
0.5941015381144894,0,0.992561
0.6085787641689545,0,0.993589
0.6496020276002749,0,0.995352
0.7910155643107756,1,0.999919
0.7983180352010146,1,0.999635
0.4678718457368078,0,0.986187
0.4572019223695132,0,0.994338
0.5122710876792573,0,0.997802
0.48795974416232846,0,0.993124
0.5748465910448094,0,0.994368
0.4201266100652879,0,0.995867
0.42211569121591475,0,0.995129
0.5175954277155985,1,0.999690
0.4070991013903186,0,0.995805
0.37662333292950406,0,0.983715
0.4111272509560823,0,0.971042
0.36220816221449587,0,0.992154
0.39352908230552947,0,0.995746
0.49522838073333053,0,0.998783
0.4908833761410082,0,0.998451
0.5249450826758356,0,0.972890
0.6404430727051622,0,0.996250
0.6189202647949971,0,0.985608
0.604444744151799,0,0.999164
0.6197394071654225,0,0.977421
0.31590611333238944,0,0.988363
0.35314359399336004,0,0.997586
0.38362427524546355,0,0.986988
0.3698281048214798,0,0.973257
0.3788885451170644,0,0.998069
0.3362450544727509,0,0.995894
0.3682107845681718,0,0.998926
0.397185795935635,0,0.993622
0.41445082890104634,0,0.994133
0.4639169301982767,0,0.982726
0.16850592809512419,0,0.995900
0.22187770477721394,1,0.999845
0.2301657382379338,0,0.998762
0.12734212304974216,0,0.964551
0.09286814682875826,0,0.988192
0.10675989521671664,0,0.999105
0.0997254260311232,0,0.993052
0.1444686274633991,0,0.994038
0.14917981386216597,0,0.980578
0.17131423375250263,0,0.992155
0.15750388260560352,0,0.977001
0.180091837350361,0,0.996970
0.16294831448629818,0,0.997469
0.20256747459836102,0,0.999138
0.18689874219884725,0,0.981740
0.25023696665747397,0,0.994641
0.25793007856950073,0,0.980781
0.30366891636671073,0,0.980285
0.318573000483962,0,0.992048
0.3847440223176449,0,0.998562
0.402266087650126,0,0.996572
0.4175544763725837,0,0.987764
0.5421176940351995,0,0.997517
0.43539116813026535,0,0.969244
0.5044443286120724,0,0.988515
0.6423039344854623,1,0.999921
0.7531001325231201,1,0.999922
0.7777874382454817,0,0.995746
0.7443051091037063,1,0.999764
0.667342995903114,1,0.999777
0.8154308355701303,1,0.999774
0.7322235285266439,0,0.968421
0.8040616055546637,1,0.999785
0.6455755770433033,0,0.998554
0.5607441252845535,0,0.986496
0.551459628494741,0,0.992861
0.6190480445373596,1,0.999409
0.518729956139108,0,0.989869
0.3567151839920013,0,0.995163
0.43632369034526614,0,0.978811
0.3846218356425898,0,0.990736
0.4637012903527468,0,0.994948
0.49784679216904865,0,0.993750
0.43005763627792737,0,0.998206
0.3657809128359036,1,0.999411
0.3505671580107242,0,0.982401
0.4093016531770875,0,0.997730
0.39153907229877954,0,0.975171
0.4140818293078252,0,0.990283
0.3803869856741403,0,0.974353
0.3907328127648601,0,0.997526
0.4498163148646658,0,0.990368
0.47420659626415224,0,0.994264
0.48555486978445983,0,0.990205
0.4577858940423178,0,0.995907
0.4157161423063412,0,0.984074
0.4439654854550273,0,0.984476
0.3830487911492703,0,0.995151
0.47785406298428357,1,0.999750
0.48423794032793355,0,0.968819
0.6181122626499547,0,0.985392
0.5015852954253588,0,0.986466
0.20146712895556113,0,0.998607
0.1650508492761535,0,0.962995
0.17964425067108372,0,0.986117
0.16821979730008177,0,0.995258
0.13681765849309635,0,0.952886
0.15169923793489565,0,0.991160
0.1181979288785641,0,0.988591
0.11451287322646816,0,0.991954
0.12814227447053614,0,0.994204
0.11804426278675526,0,0.996065
0.16150859153755895,0,0.979609
0.14586674959028112,0,0.993574
0.13436147092737985,0,0.985518
0.15677516231440108,0,0.963198
0.18312422097575803,0,0.985743
0.20073644581282063,0,0.998445
0.21990157398076726,0,0.971405
0.2351613011343348,0,0.998174
0.276198770099307,0,0.972512
0.3584586943805546,0,0.964205
0.3848413900882772,0,0.996708
0.2839967002648645,0,0.996202
0.4397615155183268,0,0.991552
0.5645384839031,0,0.998231
0.6879205106403273,0,0.986214
0.742589303988193,1,0.999288
0.7386807322629879,0,0.992318
0.6103724987821607,0,0.987274
0.5868875985807899,0,0.997938
0.7046888405084751,0,0.998739
0.7362296212547228,0,0.995376
0.6956711594845251,1,0.999664
0.6568473809579592,0,0.990551
0.7061109872536896,0,0.986458
0.7497112249682453,0,0.998552
0.7196536212636797,0,0.997734
0.7310557822417821,1,0.999486
0.7223488888472321,0,0.992020
0.7197370133443712,0,0.996754
0.42802283339518055,0,0.990924
0.6172040909072333,0,0.997054
0.6525084365237255,0,0.997571
0.6342886326750211,0,0.996082
0.571219755023791,1,0.999400
0.6679367514924092,1,0.999920
0.42180544952144366,0,0.995422
0.4713408909779568,0,0.982734
0.7385058064959392,1,0.999779
0.7168274678944605,1,0.999444
0.6768685989136446,0,0.998744
0.6372117920944288,0,0.998040
0.6310981601194718,0,0.994692
0.6572757285338202,1,0.999844
0.5770980974998784,0,0.997631
0.5900961043526124,0,0.997462
0.5175748786197616,1,0.999618
0.5589665436476883,0,0.996251
0.6753813300677954,1,0.999845
0.6972998673986711,1,0.999923
0.6778598476118215,1,0.999784
0.678212525505417,0,0.997750
0.48379579656422156,1,0.999924
0.5436169200589677,0,0.998567
0.45596549807138165,1,0.999403
0.39072129221838564,0,0.987309
0.5041214255218178,0,0.998777
0.493371375942832,1,0.999623
0.5186604422460613,0,0.998202
0.506003355305862,0,0.987448
0.36424936953540943,0,0.990593
0.4477906045116485,1,0.999412
0.3963756484611347,0,0.978678
0.37521139276208587,0,0.971836
0.4595652433317001,0,0.982138
0.4380491021956533,1,0.999925
0.49745978828478643,0,0.979422
0.4747113023403697,0,0.989330
0.5673333011124517,1,0.999789
0.5729602071020586,0,0.997731
0.5905878692971088,1,0.999928
0.6433692178028486,0,0.999131
0.5715117650001372,1,0.999926
0.44519818772925374,0,0.998563
0.7327267570680578,1,0.999474
0.501789519121412,0,0.974197
0.512894895758764,0,0.996695
0.3905684880972453,0,0.990326
0.4646131077436904,0,0.983383
0.6260490876204097,0,0.976250
0.75351249960517,0,0.997750
0.7923667421814031,1,0.999619
0.6755705452821249,1,0.999253
0.6754570291043044,1,0.999684
0.7210784372175525,0,0.998988
0.6918756178595293,0,0.997780
0.6879466266768014,1,0.999462
0.7260274818093289,1,0.999460
0.6933838487119869,0,0.999087
0.6769111819055429,0,0.993396
0.6890683166935758,0,0.997038
0.7280571355241294,1,0.999598
0.7479245259585826,1,0.999667
0.6583353340011614,0,0.997465
0.6657702849263942,0,0.997745
0.7261321088011774,0,0.996592
0.3634904915006329,0,0.994961
0.342330675350931,0,0.994241
0.35449401877899545,0,0.979757
0.3169795787948048,0,0.985987
0.3509075415982029,0,0.997078
0.3752697985210824,0,0.962504
0.40934364111554766,0,0.996701
0.4534672537608295,0,0.994929
0.3712727213818553,1,0.999775
0.35832762644136934,0,0.982053
0.4563203053264251,0,0.974398
0.39318964147865054,0,0.992770
0.4079379528695931,0,0.993620
0.42074762472629407,0,0.998017
0.42272436928419305,1,0.999921
0.46516596396703924,0,0.986091
0.4415153507222778,0,0.996632
0.42157536643700855,1,0.999838
0.43031739879497655,1,0.999849
0.4112299486219898,0,0.987493
0.5078662866770167,1,0.999632
0.4993145226706178,0,0.997571
0.5217925817206245,0,0.975519
0.5055309820790936,1,0.999313
0.5093549961074637,0,0.997379
0.5004622677541154,0,0.995928
0.4609671943416541,1,0.999929
0.27933937329956693,0,0.997329
0.2742865367173824,0,0.991169
0.13716286237544603,0,0.980634
0.15031320139517465,0,0.992639
0.14351174132971214,0,0.991641
0.31692369703128287,0,0.981496
0.31202562342263535,0,0.970555
0.3796378540219431,0,0.987254
0.40220036538731185,0,0.979332
0.34178316833498545,0,0.996603
0.36890198748886704,0,0.978448
0.4672205636930244,0,0.971497
0.3155732812709439,0,0.998531
0.12750561604157087,0,0.987822
0.25137105374328284,0,0.980526
0.35387175341288246,0,0.991421
0.46908444464645255,0,0.998384
0.6064456411791224,1,0.999288
0.6334699500252402,0,0.990007
0.5846438426225559,0,0.997983
0.5621665014994857,0,0.998871
0.4669633148503607,0,0.978643
0.7048050067030465,1,0.999618
0.7835823483531088,0,0.998171
0.7768230970538279,0,0.996631
0.7190555038649167,1,0.999762
0.37741070845100017,0,0.997147
0.25372602533398597,0,0.985781
0.44216516619086255,0,0.997354
0.4165997306039669,0,0.999052
0.45949219500990635,0,0.997911
0.4676355317956455,0,0.994045
0.5954182457139813,1,0.999544
0.550137091009912,0,0.997185
0.4894564740908983,0,0.987244
0.5764473393786491,0,0.997702
0.6205603166397975,0,0.998956
0.6106342039172284,1,0.999850
0.6179381128089569,1,0.999851
0.5953298389504686,0,0.997165
0.6752988111536236,0,0.998949
0.5890360004649504,1,0.999491
0.6275894616298335,0,0.998895
0.6900648114630666,0,0.998917
0.6472370434507995,0,0.991397
0.63486497407409,0,0.998334
0.6549758832736884,0,0.998475
0.6554965341946116,0,0.997353
0.6618025776853984,0,0.996899
0.6099223549175185,1,0.999922
0.3491365385212528,0,0.998695
0.36940954347592253,0,0.997303
0.29316747981919566,0,0.989379
0.2805881957004743,0,0.990145
0.3864827762085771,0,0.995099
0.389792553545511,1,0.999919
0.4205445116528078,0,0.985955
0.3188431947805762,0,0.998693
0.4085827715259423,1,0.999749
0.3556997649352466,1,0.999681
0.3890941310868858,0,0.998546
0.4119146828018818,0,0.995094
0.4516278068174431,0,0.998961
0.4820447832352763,1,0.999549
0.49576217575189413,1,0.999533
0.4816256302580914,0,0.992943
0.47255386067369626,0,0.999071
0.47106566919027937,0,0.979940
0.5474340869663797,1,0.999531
0.3337104121308452,0,0.994866
0.2900737402553371,1,0.999618
0.3776300247729301,0,0.983302
0.38280369114280854,0,0.984231
0.3655933354672623,0,0.978788
0.3755746226455565,0,0.985335
0.4845742354276142,0,0.997735
0.4827885930741326,0,0.993892
0.39889613280852254,1,0.999435
0.42478732494962435,1,0.999846
0.481229953187739,0,0.997825
0.31246587368442164,0,0.981448
0.4387633461193682,0,0.997603
0.6893316588146902,1,0.999845
0.7137797956813027,1,0.999714
0.6881570149488384,1,0.999857
0.7063065500566971,0,0.998251
0.6241479130190295,1,0.999707
0.6938000549457252,1,0.999496
0.5847677876944335,0,0.990467
0.5426463009418419,0,0.998880
0.3430150550876136,0,0.997068
0.4090867451936305,0,0.998460
0.49042979329352177,0,0.998379
0.4812313348422348,0,0.998836
0.3715216152660899,0,0.995998
0.5106399013976431,1,0.999344
0.520902153167827,1,0.999783
0.5255052817817604,1,0.999924
0.5305896182860115,1,0.999613
0.48860743943178114,1,0.999554
0.43861025554649896,1,0.999562
0.48911619994982886,0,0.997823
0.45785477657906837,0,0.995935
0.4921447398411781,0,0.998483
0.37662358632448656,0,0.998806
0.5375865765898389,0,0.998863
0.42286308906218956,0,0.991085
0.4822680276857198,0,0.998814
0.5553426898743262,0,0.997922
0.4621002470941813,0,0.992111
0.4518430059687224,0,0.993307
0.43369387830660416,0,0.998286
0.48019393317723785,0,0.997100
0.5451214856993178,0,0.993768
0.41336102023331583,0,0.998055
0.4689212626898818,1,0.999402
0.48721036842544413,1,0.999497
0.4800415682628952,0,0.987167
0.5459268757360175,0,0.994333
0.5249167811599473,0,0.997113
0.4156221695615923,0,0.988637
0.5374765299377173,1,0.999624
0.583750853365162,1,0.999213
0.4167289780324922,0,0.980255
0.4645666382197457,1,0.999925
0.4359030011904679,0,0.995102
0.49093696429786876,0,0.993016
0.45083900875027827,0,0.992646
0.5017811699764134,1,0.999540
0.4412820842134408,0,0.995211
0.5099543588528943,0,0.992362
0.5241078971234079,1,0.999529
0.42230865826043246,0,0.996201
0.5190175673949957,0,0.997774
0.45463283311706887,0,0.997386
0.5210126873376582,1,0.999705
0.5725464736648216,1,0.999681
0.5511922745078343,0,0.998999
0.4719238456188334,0,0.996094
0.3523962327207535,0,0.998550
0.3238078092768614,0,0.997607
0.3187972074504251,0,0.995479
0.38848238366734755,0,0.977638
0.3670304320777167,0,0.987114
0.3463888225775057,0,0.950108
0.4868241534542784,0,0.992115
0.45283375847984797,0,0.990942
0.512920443322633,0,0.997599
0.586739101808375,0,0.998674
0.5629211928773282,0,0.987000
0.6837288592329113,1,0.999927
0.6928079330947098,0,0.994597
0.6952767320833998,1,0.999369
0.518630515285445,0,0.997623
0.24133457625375,0,0.996693
0.36414306466487045,0,0.993684
0.48747474315682526,0,0.996423
0.575718724807528,0,0.997225
0.626358519436257,0,0.998700
0.6809539939169893,1,0.999236
0.698101617151328,1,0.999925
0.724780373188097,0,0.994152
0.7296584336354809,1,0.999919
0.5106387465857678,1,0.999776
0.49005979295667446,1,0.999856
0.47900514785089665,0,0.996513
0.4738283221468685,0,0.996971
0.4967130577870871,0,0.986477
0.5772790565327659,1,0.999920
0.5999205801127069,0,0.999013
0.5415912760193607,0,0.992171
0.5816577588960246,1,0.999924
0.5489599453049012,0,0.999048
0.4502915975778591,0,0.996845
0.5548635131595951,1,0.999923
0.564662079000943,0,0.998714
0.5739598412347885,0,0.998947
0.556212978156002,1,0.999484
0.5518409994022998,0,0.998291
0.581356277770265,0,0.995899
0.4360912174658047,0,0.967329
0.4914649450539193,0,0.995178
0.39752619381124105,0,0.976979
0.5095194334073012,0,0.989318
0.41197874440694254,0,0.996386
0.48020210524418583,0,0.986963
0.4349392581557808,0,0.991726
0.46169872266551704,0,0.994323
0.4919117988599947,1,0.999433
0.527062862218476,0,0.980752
0.4407003187389066,0,0.988001
0.5899589645902977,0,0.994063
0.6216772247973281,0,0.998074
0.6093461975627333,0,0.996915
0.4779599056259031,0,0.991034
0.45638028854123486,0,0.982119
0.511152715197408,0,0.997448
0.28350452457529707,0,0.983833
0.2825366286318343,0,0.954507
0.26741536312509356,0,0.961132
0.39191363201057666,0,0.983637
0.3276358187016734,0,0.999018
0.3446066776666625,0,0.986474
0.19109980433096596,0,0.974721
0.2477193408506675,0,0.990147
0.19174651103991266,0,0.960250
0.16190295185020304,0,0.990793
0.18114272149026966,0,0.994614
0.1421356275253414,0,0.982648
0.14581311052354082,0,0.985061
0.13180154141524378,1,0.999675
0.14501110543800697,1,0.999758
0.1334887537709094,0,0.978792
0.14543605116508287,1,0.999701
0.16083135417596586,0,0.968046
0.18920443671189766,0,0.998662
0.1778126148027546,0,0.996812
0.16903905862788351,0,0.990968
0.20813592723050564,1,0.999538
0.3553957970815064,1,0.999540
0.5144329420293917,0,0.993045
0.5571560292672524,0,0.976900
0.7042785258886445,1,0.999778
0.7466012512897309,0,0.993397
0.4859855778199097,0,0.987008
0.5345672706364631,0,0.991138
0.6074767089426939,0,0.998947
0.6711294712166175,1,0.999709
0.7553614004844228,1,0.999620
0.6451414037158061,0,0.981870
0.6795586535012091,0,0.994612
0.4788049420839253,0,0.997892
0.44400929996832467,0,0.991916
0.45506077754142527,0,0.997583
0.23996128923173252,0,0.999141
0.26395451798103026,0,0.982859
0.4653921519191863,0,0.998181
0.3145333272530016,0,0.996696
0.37681640314402554,0,0.996117
0.5123391041450668,0,0.995892
0.47855121116250615,1,0.999751
0.4691601890822495,0,0.990028
0.5774731227785159,0,0.995216
0.5810381241722594,0,0.989659
0.5874474354600715,0,0.995301
0.5715612394814403,0,0.999156
0.5726584012726008,0,0.997603
0.600453901715773,0,0.994880
0.6625325757407697,0,0.995689
0.551877279780104,0,0.994255
0.592375286253031,0,0.995234
0.570971128517841,0,0.995213
0.6057893236201968,1,0.999690
0.6121085236946119,0,0.997207
0.6568874894223918,0,0.998099
0.6540680985957126,1,0.999508
0.6895654417027443,0,0.998665
0.5947578438842461,0,0.998655
0.5672096612793995,0,0.994326
0.6056897381341889,0,0.994435
0.5878658402270044,0,0.996988
0.5546606483736805,0,0.986579
0.3861162925540506,0,0.983900
0.5477627787900416,1,0.999694
0.5175597347339893,0,0.996667
0.4761062183081752,0,0.998572
0.5904088318271846,0,0.997456
0.5813588945096948,0,0.996471
0.5785721042836797,0,0.995068
0.43689930809383437,1,0.999849
0.4601031462381373,0,0.988742
0.4883673483136826,0,0.996394
0.6212625280718636,0,0.997415
0.5996599834000675,0,0.997579
0.6240333099925266,1,0.999841
0.5655298884157423,0,0.994256
0.4672151803391123,1,0.999705
0.37753598145662826,0,0.994462
0.3574020107575969,1,0.999537
0.33552050825793994,0,0.965000
0.2508581081839431,0,0.968631
0.2144651576116745,0,0.993788
0.24252550156839298,0,0.993833
0.18971618175994223,0,0.979112
0.21543782262752337,0,0.991105
0.27770257748520627,0,0.982463
0.2490783450172115,0,0.957362
0.24843712908357993,0,0.988518
0.21645045127242266,0,0.991118
0.3650113419260312,0,0.976673
0.48613469080408633,0,0.984068
0.5783227766705208,0,0.997908
0.6517494163739725,0,0.998991
0.7064034023989683,1,0.999851
0.7346722288712536,0,0.997905
0.6120675539269688,0,0.993091
0.43235521816331113,0,0.969449
0.5062035743230374,0,0.976422
0.39019836508409067,0,0.994465
0.40060260680972176,0,0.988921
0.3986995060990662,0,0.991787
0.47253603043575254,0,0.998280
0.5269323497893194,1,0.999752
0.5573975150171594,0,0.997846
0.5506009808114597,0,0.968707
0.5480370087955583,0,0.995810
0.5537438560940762,0,0.973562
0.6356266298710739,0,0.996268
0.5532887761183737,0,0.998410
0.3899862388338533,0,0.995026
0.3713799688759011,0,0.997443
0.35622678713770967,0,0.989348
0.4419279171269639,0,0.994335
0.2525112009819033,0,0.970695
0.2969873113757051,0,0.998417
0.2690618890319185,0,0.992542
0.2965155883002168,0,0.990401
0.2740778055082442,0,0.977834
0.2709715918133811,0,0.958115
0.2944852909091241,0,0.963537
0.29583130446991523,0,0.989762
0.2958583729683238,0,0.964928
0.3223001270232595,0,0.996939
0.40073867325650814,0,0.995513
0.38548862313015286,0,0.992122
0.36857470841312173,0,0.966162
0.35754691600477656,0,0.983182
0.4236241737091806,0,0.968685
0.2943517936859913,0,0.997182
0.4157998207935026,0,0.971178
0.4269081359310575,0,0.983553
0.4191666657052435,0,0.992571
0.3175533297186048,0,0.992217
0.3263158816104254,0,0.968028
0.27823959708207513,0,0.956664
0.3458492159523855,0,0.995993
0.3165721802299155,0,0.968458
0.33729576144585494,0,0.987205
0.2860051145583881,0,0.980417
0.3031097189509326,0,0.987193
0.3594165840530165,0,0.995808
0.3178332020403799,0,0.992191
0.2626524906234631,0,0.967833
0.30666273016770773,0,0.993039
0.32338292146766,0,0.977423
0.30760586367849263,0,0.994707
0.378701103287567,0,0.993630
0.4149469153850733,0,0.997649
0.42210427991452953,1,0.999541
0.4666705024237675,0,0.993532
0.4938241099384439,0,0.992816
0.5154186639954389,0,0.978028
0.596385150552615,0,0.975712
0.5645905371079861,0,0.997734
0.5348360732067708,0,0.989075
0.5983590609906021,0,0.995913
0.41121166196493514,0,0.958515
0.406512210284398,0,0.975733
0.42764504500429534,0,0.994966
0.42273582470277465,0,0.998957
0.4402893304939901,0,0.992272
0.4474066327018559,0,0.988608
0.43613000913980116,0,0.995620
0.411802671883968,0,0.997930
0.6016956889187269,0,0.993176
0.45696312569539105,0,0.982014
0.20450177000626946,0,0.980834
0.35478174501750326,0,0.997590
0.7006435789793043,0,0.993750
0.6488209408664907,0,0.990328
0.7419157736604212,1,0.999847
0.6976205212165856,0,0.992513
0.6333766336285475,1,0.999702
0.724452549418588,0,0.995982
0.7182121158394514,0,0.998871
0.7678400311597372,0,0.997485
0.7128283081512533,1,0.999442
0.7500918705065329,1,0.999767
0.7295547825317437,0,0.995782
0.7370777632424397,0,0.995797
0.5864575047000707,0,0.978063
0.3994454427186258,0,0.989371
0.4280062518610188,0,0.996361
0.4165504777924172,0,0.996186
0.42162000736564664,0,0.992148
0.06840968347125566,0,0.974592
0.0708405872065158,0,0.977587
0.09457415955688062,0,0.986101
0.0982084743192614,0,0.972319
0.1100827218596321,0,0.975907
0.15167596526882085,0,0.990823
0.12760075376773825,0,0.996612
0.19657680544682174,0,0.987518
0.14956914776015073,0,0.985032
0.14065612661910307,0,0.987124
0.19968812603951994,0,0.969669
0.20222241721077788,0,0.990040
0.19111367396644732,0,0.993427
0.16215519964098857,0,0.996810
0.17392996029866842,0,0.991342
0.1983417068889547,0,0.976126
0.22688946712378405,0,0.973377
0.21447995257793434,0,0.993817
0.21060354142269738,0,0.970716
0.244635508666013,0,0.994008
0.28398682044685253,0,0.998626
0.33759922203170284,0,0.996822
0.41933443955566024,1,0.999360
0.5316017123467532,1,0.999220
0.5767814757198272,0,0.996582
0.5576998424656999,0,0.997142
0.592697592126478,0,0.999181
0.61301218477803,0,0.997718
0.6901756025839307,1,0.999228
0.4541068408341303,0,0.986018
0.452540017932911,0,0.992330
0.4401608113327569,0,0.968163
0.4673150851747312,0,0.993325
0.4489505521321884,0,0.986305
0.48988580802729986,0,0.997102
0.46210285626555386,0,0.962448
0.44672347568251397,0,0.975388
0.3906688292199446,0,0.998931
0.4919089908714533,0,0.996996
0.4717208273062856,0,0.992810
0.49951665400411793,0,0.998915
0.4426445856727615,0,0.970905
0.45212318998430717,1,0.999553
0.4351066613482676,0,0.970946
0.4085814190746646,0,0.967493
0.3905627480853696,0,0.992096
0.4425276455697378,0,0.992733
0.4148035842774385,0,0.981924
0.34454097184626725,0,0.972922
0.387992229066884,0,0.990242
0.4278600198642249,0,0.983619
0.37268602675217904,0,0.988797
0.4160576565556632,0,0.996627
0.4369674443070189,0,0.981047
0.43440112968141803,0,0.974363
0.31538493214365204,0,0.965751
0.3591118378942045,0,0.988479
0.3808029570738222,0,0.990097
0.3661629198050887,0,0.982469
0.4424256988589148,0,0.977847
0.5502472303634426,1,0.999440
0.6632009150816349,1,0.999708
0.709650013180051,0,0.984082
0.697899375461799,0,0.998967
0.6741519418080997,0,0.984633
0.5288065963874704,0,0.987231
0.5924061805254373,0,0.978696
0.5524680907402316,0,0.989385
0.6358390216245184,0,0.984088
0.6907833675521384,0,0.989207
0.6670992793665698,0,0.995285
0.648004320207604,0,0.999128
0.6943764862013743,0,0.996095
0.7991655223239226,1,0.999772
0.541057203619317,0,0.994665
0.5481398770231262,0,0.998539
0.6072914483296872,0,0.976754
0.6356096990418035,1,0.999536
0.4895038915423918,0,0.996458
0.4794320742786956,0,0.998694
0.49158872489720845,1,0.999695
0.5238677380578396,0,0.998376
0.504767125070732,0,0.990489
0.4786080751530875,0,0.996901
0.45596292008428596,0,0.998046
0.46927358320177287,0,0.988842
0.40604857144046064,0,0.990845
0.4764224432152695,0,0.994323
0.4884597312998546,0,0.987571
0.4717372812029981,0,0.995535
0.5419262275594225,0,0.991706
0.4926092358105662,0,0.999083
0.369825771074248,0,0.966015
0.4057945667357242,0,0.992607
0.17742067512301687,0,0.999137
0.14966330516042528,0,0.992785
0.303372800218896,0,0.991125
0.24126229293382492,0,0.981651
0.2762534988835396,0,0.995582
0.21414412897854937,0,0.990655
0.23132329067197757,0,0.994241
0.20065840506990917,0,0.987642
0.2842183928117766,0,0.997210
0.31213871696114676,0,0.996265
0.31135025348242173,0,0.982144
0.15173146801056087,0,0.991602
0.15563695931663812,0,0.981487
0.17921622149735025,0,0.993097
0.20431623170032076,0,0.995158
0.20605450339421247,0,0.997547
0.21406940505474792,0,0.998903
0.24585453450390257,0,0.995045
0.23559174918749398,0,0.999160
0.27571287745682316,0,0.990276
0.2196601017507987,0,0.980471
0.3071148734342561,0,0.991628
0.3053587590282184,0,0.977970
0.28185361250475965,0,0.991229
0.24758904159510609,0,0.994963
0.3893759076267079,0,0.998471
0.43845055191529,0,0.998951
0.35208019730277595,0,0.993725
0.41058462004480145,0,0.997964
0.4944768017606344,0,0.998312
0.44703713530481853,0,0.996814
0.3142956721533299,0,0.997783
0.31148874365933293,0,0.983681
0.31522088175578045,0,0.998624
0.33841608182232136,0,0.979956
0.3329976396242923,0,0.987375
0.41666211903132894,0,0.991333
0.4044967820623646,1,0.999853
0.3462744218749107,0,0.998988
0.4091803269395558,0,0.981489
0.4877068746063772,0,0.980519
0.5636050640668269,0,0.960954
0.5904920215751018,0,0.998307
0.5052804077231355,0,0.989655
0.6427942129651348,0,0.998311
0.6148391444085902,0,0.998567
0.6014610796374924,1,0.999376
0.5465020062029894,0,0.971559
0.6394543779475415,0,0.976539
0.5643141168502726,0,0.993443
0.6007418020867625,0,0.998433
0.5862657460792203,0,0.996552
0.6406386805720421,0,0.998531
0.42814540817648283,0,0.982196
0.5010233980355093,0,0.993762
0.5593618654939003,0,0.998000
0.6126524110827303,0,0.998414
0.5510716992685761,0,0.989469
0.539486609160183,0,0.990128
0.6409543240773748,1,0.999339
0.6148238486281276,0,0.987932
0.6847100801422388,1,0.999710
0.6451903682804158,0,0.998326
0.6396159535128856,0,0.997511
0.36858013005238704,0,0.998411
0.4548479943589341,1,0.999783
0.450802429262366,0,0.998396
0.4872018246935179,0,0.993545
0.5373339535424022,1,0.999927
0.5514006516847817,0,0.958488
0.414265864374612,0,0.998493
0.4880382375053696,1,0.999926
0.4743073538743097,1,0.999850
0.16051571456164043,0,0.988205
0.1410991583932794,0,0.981223
0.18094794643788947,0,0.994528
0.18917358272823956,0,0.989714
0.2100565183641511,0,0.995195
0.2487876073194007,0,0.987420
0.24151621651765362,0,0.993740
0.1904747782275389,0,0.964576
0.2222361113722337,0,0.994638
0.18754587067460793,0,0.998466
0.1955408388014924,0,0.993248
0.2579002165690669,0,0.986749
0.13191828181763712,0,0.986036
0.19180728142015963,0,0.966056
0.12627436372867382,0,0.988685
0.16691736911518187,0,0.967836
0.2357118867571735,0,0.986123
0.20651327770961198,0,0.985477
0.18180362807551953,0,0.981148
0.21831961847341624,0,0.998684
0.2101029532104393,0,0.993841
0.22081093659761827,0,0.973266
0.1936583029747091,0,0.983437
0.19782488915859936,0,0.974448
0.22776828903005966,0,0.992225
0.23023502350122538,0,0.978351
0.21683289744087936,0,0.996076
0.2714522193020049,0,0.993399
0.2764290384495867,0,0.987572
0.3110618314906598,0,0.997789
0.330878103281393,0,0.997394
0.36161360244310076,0,0.969833
0.3900923305187101,0,0.978174
0.43913025167226777,1,0.999352
0.49253190328483404,0,0.995126
0.5531737291538341,0,0.998869
0.587773644604373,0,0.999074
0.6150631187472899,1,0.999689
0.6832646623913541,0,0.995245
0.5931292500818237,0,0.998859
0.6411812947550319,0,0.998961
0.618213996660795,0,0.991218
0.3702574839774696,0,0.991951
0.33201097253565126,0,0.986988
0.36618655791954735,0,0.980609
0.42115112138072996,1,0.999708
0.4072783291523771,0,0.998942
0.4205978526218965,0,0.972250
0.21954536906038827,0,0.997605
0.23048357155055355,0,0.973199
0.2688633834867171,0,0.988289
0.27312003729067247,0,0.996831
0.3374788717066567,0,0.990007
0.4157982935958418,0,0.972645
0.4284420063572143,0,0.993440
0.5006391554399592,0,0.996117
0.4071343480671569,0,0.968502
0.5712870517665631,0,0.994827
0.441244995665253,0,0.996855
0.6510271140776819,0,0.997249
0.6925318353529113,1,0.999423
0.48216515271854815,0,0.998383
0.5349893153129567,0,0.993375
0.44900463136632657,0,0.985063
0.5057922360853594,0,0.987917
0.4805778179153391,0,0.992682
0.6165717256066451,0,0.987367
0.6337831929910698,0,0.997737
0.7049937418757726,0,0.998265
0.743254847367547,0,0.996250
0.6248761409537427,0,0.996402
0.6244064490771439,0,0.990794
0.6376358261838508,0,0.999165
0.6487028345133126,0,0.998560
0.6134229739670018,1,0.999555
0.7252435744156877,0,0.993611
0.3596336583408963,0,0.978331
0.37943424479915566,0,0.988769
0.3183887427465886,0,0.971416
0.3639706588901955,0,0.979262
0.40593392909208564,0,0.978337
0.2805124780124475,0,0.986651
0.15113918181251904,0,0.993015
0.27709289004514803,0,0.996481
0.4584441722934551,0,0.979707
0.24945189127324857,0,0.968829
0.2832932461044585,0,0.993029
0.28883433238829637,0,0.981245
0.16708143962009173,0,0.984739
0.184179951048954,0,0.971939
0.17333120046950756,0,0.968938
0.21786993941917893,0,0.979119
0.15030537426217655,0,0.995825
0.23060306466674857,1,0.999634
0.20220237042925654,1,0.999736
0.22580131068006243,0,0.977002
0.18434817554777658,0,0.983033
0.2104193711799649,0,0.964804
0.2283315081781049,0,0.997503
0.24210097772319902,0,0.988917
0.23990772331134644,0,0.984239
0.2700632099960942,0,0.992649
0.2480966761995504,0,0.980020
0.29558592510027687,0,0.991923
0.3309519567341172,0,0.996284
0.39426243902579444,0,0.991642
0.12627990603221764,0,0.971277
0.17093293877012758,0,0.991401
0.1762011375400725,0,0.969991
0.13039741523606466,0,0.986329
0.12587197082383184,0,0.998555
0.13050579089695322,0,0.983207
0.11530327633679,0,0.969816
0.13524634293624008,0,0.973711
0.11506359466743558,0,0.973612
0.12050639568776839,0,0.991064
0.09945021418733453,0,0.971435
0.12328380443539226,0,0.990552
0.2646587508813279,0,0.973149
0.3000853630334022,0,0.991247
0.292534157398396,0,0.983579
0.3684938029833915,0,0.980311
0.2762287849306793,0,0.994527
0.316826261461068,0,0.988981
0.21549245353019747,0,0.991497
0.2841362252802545,0,0.983614
0.23413726792716455,0,0.995330
0.26493303840621774,0,0.995908
0.22817515144381945,1,0.999379
0.26780083473818916,0,0.992892
0.3249506340116216,0,0.993634
0.25895800716071815,0,0.998211
0.25995358611704295,0,0.996390
0.32834014707320675,0,0.995174
0.27307979786576764,0,0.997807
0.2940520806392438,0,0.995046
0.2342965467999355,0,0.985662
0.3301662071235735,0,0.987305
0.4482390069536382,0,0.995154
0.7006598247936833,1,0.999834
0.6912428304191056,1,0.999849
0.8438203247145897,1,0.999926
0.44193158268313554,0,0.988306
0.4557361236359519,0,0.997391
0.5104788884578048,0,0.974562
0.3695309592171599,0,0.998129
0.6160189203369291,0,0.996667
0.19652597160140184,0,0.978931
0.24242229656232125,0,0.979492
0.26230299695290865,0,0.990376
0.18991989254757108,0,0.993126
0.319164348625213,0,0.981715
0.35055217457156335,0,0.996333
0.3414882998337754,0,0.992828
0.3975039767314077,0,0.996790
0.3737306758519992,0,0.974283
0.3724321289367763,0,0.978244
0.4532853153847662,0,0.994884
0.5107986931920971,0,0.976920
0.5101630385351917,0,0.967204
0.5107624546526531,1,0.999699
0.4093699106579704,0,0.991981
0.5202949340629043,0,0.989495
0.5704628896370861,0,0.990248
0.6053075929269776,0,0.993137
0.6137020172786212,0,0.998272
0.6868825973272652,0,0.998090
0.47427202500771876,0,0.998230
0.5497295792898836,0,0.987060
0.48108516510018773,0,0.976927
0.47307475288032463,0,0.977600
0.5554760981480725,0,0.998818
0.46950888186190465,0,0.990992
0.5411021435539595,0,0.997318
0.4597899278502349,1,0.999421
0.5326478004483554,0,0.987963
0.4729576939518771,0,0.970684
0.5888173231509363,0,0.986402
0.5452401822591156,0,0.991008
0.5414111233959997,0,0.981274
0.5891756919141211,0,0.998243
0.6165802255753149,0,0.998715
0.5830498272907856,1,0.999630
0.5590803509711925,0,0.996790
0.5400869291194706,1,0.999388
0.5958408502830455,0,0.993193
0.5831272661524448,0,0.997592
0.4904408073880512,1,0.999538
0.6116813975283049,0,0.993529
0.5486494285369725,0,0.986737
0.622195398590596,0,0.996371
0.5346848360364032,1,0.999212
0.655309673929224,0,0.997172
0.5860061145134172,1,0.999691
0.6083089889253773,0,0.993796
0.6452737989161802,0,0.997464
0.6922157721310763,1,0.999846
0.6949772581684686,0,0.998766
0.4196500924672028,0,0.997027
0.4451960006062035,0,0.996667
0.48357860689021825,0,0.995288
0.5094782517056424,0,0.998848
0.5408282472947623,0,0.995145
0.5281201858329123,1,0.999522
0.5105641728214056,0,0.989922
0.5154380372727898,0,0.996813
0.5536424596979675,1,0.999927
0.3106785381166826,0,0.980657
0.18802592208697735,0,0.995047
0.12470241690916002,0,0.975339
0.12133250236411487,1,0.999387
0.12467554070928237,0,0.964143
0.17985520715180625,0,0.997432
0.13006272752525788,0,0.981237
0.15979816352194584,0,0.992273
0.16188935144220196,0,0.988289
0.1034986605844541,1,0.999316
0.12170938175220673,0,0.992354
0.1076555756663813,1,0.999613
0.09033203577584567,0,0.978062
0.10466057406785714,0,0.950176
0.12523540656587365,0,0.986553
0.15827012572930368,0,0.985649
0.3069719590303293,0,0.966350
0.34985262330981504,0,0.976178
0.5590812283163352,0,0.992799
0.6792441719343821,0,0.995041
0.6943647969823843,0,0.980950
0.606255405639069,0,0.992570
0.6681832039002511,0,0.990314
0.46138553182824327,0,0.992458
0.40318036477772246,0,0.988977
0.5948633125227516,0,0.995410
0.5572909585372244,1,0.999709
0.5079499635805478,0,0.965371
0.5644746710582415,0,0.990729
0.5422869797505367,0,0.980892
0.5391305781822491,1,0.999694
0.5661336133101877,0,0.988656
0.553762007732292,0,0.994106
0.5569204940231061,0,0.997343
0.6822987122835866,0,0.995836
0.6474024403360413,0,0.996464
0.656513259353812,0,0.996868
0.6966902401866713,0,0.998954
0.7038735224086985,1,0.999503
0.6305186524982942,0,0.996816
0.3351826404609404,0,0.971133
0.381763618910729,0,0.971063
0.3232112782656851,0,0.994301
0.3723575414785921,0,0.978250
0.3558026553849189,0,0.995665
0.29587649593556575,0,0.989255
0.262319747637823,0,0.996256
0.270586925324375,0,0.993568
0.48265811171090833,0,0.998446
0.4680823539679559,0,0.998354
0.3262052398491429,0,0.990837
0.5308598362070188,1,0.999690
0.4041880239815916,0,0.995788
0.49956357923056016,0,0.981140
0.6254845869701808,1,0.999401
0.6273962037944318,0,0.994313
0.45120694129276684,0,0.996679
0.4626602369611742,0,0.989649
0.5642573734477326,0,0.994260
0.5531258555145091,0,0.995105
0.5712758948224618,0,0.993085
0.6072012373428562,0,0.996893
0.6022690120583295,1,0.999542
0.6580623431727958,0,0.982528
0.6941026545166433,0,0.992463
0.6711423403546096,0,0.985172
0.5860337609918059,0,0.999045
0.6398218775832978,0,0.983893
0.6889965753344572,0,0.993556
0.530196598653014,0,0.995760
0.5027159318993282,0,0.994302
0.5672844503518922,0,0.995322
0.6195901679417731,0,0.996262
0.6372228225693929,1,0.999927
0.5418583000807203,0,0.996878
0.5558950818891839,1,0.999925
0.6071192580128366,1,0.999926
0.6462093305908496,0,0.997255
0.6361423281957361,1,0.999395
0.6696348415565374,1,0.999436
0.6596127563904407,0,0.996620
0.6779774850235786,0,0.997261
0.6930950381188372,1,0.999921
0.4352676424416153,1,0.999363
0.4771181068294528,1,0.999765
0.4806760630058786,0,0.981095
0.47375095243215004,0,0.982395
0.6824870306006582,0,0.996577
0.5406797395875771,1,0.999791
0.5782991680067866,1,0.999493
0.3249131329160983,0,0.975245
0.15992734633976505,0,0.975571
0.12184433424263535,0,0.965820
0.22252040272675191,0,0.946510
0.34533065247742906,0,0.958840
0.3196074084829482,0,0.996457
0.34370271324039026,0,0.998147
0.3948546615346456,0,0.985671
0.3222406668343776,0,0.975566
0.32202509494916176,0,0.990815
0.3391076085696729,0,0.976982
0.3617298487017579,0,0.996304
0.41894457069202534,0,0.984260
0.34420190997469097,0,0.996415
0.40714393144432354,0,0.994025
0.5491763597418023,0,0.996348
0.6755726905988599,0,0.995010
0.7045256455068613,0,0.989090
0.7388955955655738,0,0.990268
0.7321556339668035,0,0.995924
0.7123085542430896,1,0.999337
0.5407326454469117,0,0.960962
0.46176158359856423,0,0.998214
0.3597630139147999,0,0.986931
0.37709108279191894,0,0.974739
0.22755821294514708,0,0.982164
0.18142126908746986,0,0.979266
0.1348723945090281,0,0.981112
0.22034792843352838,0,0.988047
0.18054117938859165,0,0.985007
0.26474933278420615,0,0.998289
0.33823794873572816,0,0.996689
0.3194936855021255,0,0.975825
0.289442905357206,0,0.983197
0.4258444340658362,0,0.997249
0.49489487274688604,0,0.998245
0.40442984047798086,0,0.990091
0.3192856859527592,0,0.979088
0.3585789075639671,0,0.998608
0.4576445895997323,0,0.988969
0.4974797008982631,0,0.998378
0.5000660768806467,0,0.994633
0.29870647083710633,0,0.996532
0.3024710303128124,0,0.995379
0.3624891998181259,0,0.995417
0.36865720789610096,1,0.999579
0.4619174710772345,0,0.990784
0.4242543982793081,0,0.995604
0.33505880974490754,0,0.993543
0.3957235137268654,0,0.998075
0.43119308844981075,0,0.996166
0.5157325135726732,0,0.995779
0.5767752170922166,0,0.995771
0.5211738477685383,0,0.992878
0.5474317572719903,0,0.993295
0.5714498471102104,0,0.997660
0.6718493099326447,0,0.997947
0.6777013492741284,0,0.998970
0.7015778340308558,0,0.996386
0.6670960856207474,0,0.994386
0.35350721167057775,0,0.963567
0.4278490745413661,0,0.993592
0.36791404948495265,0,0.991930
0.3434431164045331,0,0.991817
0.35297073825729275,0,0.991360
0.2966713907609466,0,0.992526
0.40190095137427007,0,0.971152
0.48455904173859454,0,0.986713
0.42641851233524675,0,0.983436
0.5233695674085999,0,0.986541
0.5281505015190545,0,0.987301
0.4917599910414728,0,0.998557
0.3622900584441618,0,0.990454
0.3994104363991738,0,0.991629
0.43218293478629816,0,0.997650
0.5035345225708575,1,0.999609
0.5148726899641491,0,0.975444
0.42022186298441294,0,0.990128
0.4431016137579419,0,0.993609
0.45303384636867705,0,0.990275
0.42624415511878216,1,0.999687
0.45396852941884813,0,0.998763
0.47101016309476407,0,0.999145
0.4528433465829389,0,0.977854
0.49694699287004385,1,0.999522
0.5224875339740765,1,0.999318
0.4668212953738453,0,0.968602
0.4973307407564262,0,0.983176
0.40649307481382857,0,0.975552
0.4569060580622672,0,0.994313
0.4936410833686006,0,0.990355
0.406938978500169,0,0.998503
0.42624238137140974,0,0.989462
0.5078402770131782,0,0.979741
0.46699328636955884,0,0.998925
0.5032432209838991,0,0.996847
0.47163128595735665,0,0.996210
0.5387659532807215,0,0.989966
0.4594451827818376,0,0.999147
0.4975539063596992,0,0.996741
0.5268806980176006,1,0.999477
0.49052942613250405,0,0.975869
0.519355370783282,0,0.960597
0.5026628878186914,1,0.999579
0.3075978882222086,0,0.967533
0.40337529976291653,0,0.989293
0.5618617479639525,0,0.959086
0.6293228147478278,0,0.985960
0.6133724559618339,0,0.995534
0.5344450885771174,0,0.941663
