0.5023759872506474,1,0.999128
0.5590839815094905,0,0.998237
0.7405130353904333,0,0.943376
0.6977930898741894,0,0.994218
0.6834636017964706,0,0.996447
0.5356159739636773,0,0.994723
0.6202847151256021,0,0.979778
0.7187738041692714,0,0.994581
0.7817372859702627,0,0.991033
0.6476669052207116,0,0.997545
0.6642090443860544,0,0.995763
0.6891862414484741,1,0.999323
0.7287759805681403,1,0.999740
0.6292126353420909,0,0.996635
0.6925567687180126,0,0.987508
0.5894772012653783,0,0.994558
0.686080666918826,0,0.998522
0.5823290778660893,0,0.995924
0.5941445559412737,0,0.992978
0.6303679842856746,0,0.970272
0.5906745894415598,0,0.996624
0.7563410110027848,0,0.997731
0.46233586439185015,0,0.993694
0.5609700029879036,0,0.996841
0.6013778575693912,0,0.985549
0.6446592704386611,1,0.998881
0.6784584387732597,0,0.994269
0.7054322060639144,0,0.991347
0.7026883633045702,0,0.979026
0.6632045956689097,0,0.995828
0.747151712928492,0,0.996195
0.7279500047805554,0,0.997947
0.7214600085547117,1,0.999315
0.49403873861708353,0,0.996736
0.5384930351332382,0,0.998037
0.4881791528492922,0,0.973308
0.5448097889962719,1,0.998958
0.6101577711419572,1,0.999719
0.5859101662253516,0,0.984480
0.5791537866660899,0,0.991083
0.5581048971503093,0,0.994545
0.5866273299544413,1,0.999377
0.6219425907223926,1,0.999626
0.6486628615168286,0,0.994419
0.537398442202399,0,0.995205
0.38956074734405777,0,0.995128
0.49877028654228206,0,0.998133
0.5041360202262972,0,0.996255
0.532218032758791,0,0.968207
0.5937937932962173,0,0.981593
0.5730073515900029,0,0.982849
0.5194167896891635,1,0.999872
0.4751436546190851,1,0.999232
0.49441751782229454,0,0.994768
0.5567983060296494,1,0.999864
0.5369545253978678,0,0.998119
0.5219363367707821,0,0.986239
0.5431576570030264,0,0.935252
0.6561252250643176,0,0.998416
0.5537916554990564,0,0.993435
0.5844819769976466,0,0.989604
0.5434088081200098,0,0.998267
0.5758514566667722,0,0.994090
0.6476921137374796,0,0.995188
0.6144692446292841,0,0.995201
0.6400959768090569,0,0.994609
0.49394820197992445,0,0.991635
0.46922944480291023,0,0.989284
0.5250525372756605,1,0.999772
0.58870103148829,1,0.999882
0.5247032363663062,0,0.985361
0.5426548237889538,0,0.995633
0.483797186590356,1,0.999596
0.5516703544415343,1,0.999548
0.5047663490894785,0,0.981802
0.5098675809146282,1,0.998968
0.5754886738689341,1,0.999011
0.5508404324042878,0,0.991244
0.5923832486705081,1,0.999607
0.6239263703085149,0,0.997516
0.5052362253682919,0,0.992491
0.5279586309157039,0,0.997767
0.5847833986353,0,0.997278
0.47142578677377445,0,0.987408
0.523518538975628,1,0.999020
0.5167392055067207,0,0.992389
0.515919228860994,0,0.962462
0.5417449713861884,0,0.997101
0.2317650235505281,0,0.915645
0.23212853106221443,0,0.944495
0.28526580709635413,0,0.972252
0.37130791859213247,0,0.988013
0.3439446585896873,0,0.993924
0.3471727938755707,0,0.989852
0.36071287521977224,0,0.983294
0.42525122301684504,0,0.995744
0.37243097184531365,0,0.964553
0.23926421116814592,0,0.955673
0.220146631698119,0,0.986667
0.3061277368824714,0,0.998046
0.3641561504384068,0,0.979271
0.3251971358131322,0,0.989112
0.36616477957642696,0,0.971095
0.4362768685698841,0,0.971220
0.49066856754577665,0,0.997262
0.5112838198420728,1,0.999646
0.44558372814296066,0,0.994344
0.3773817013870837,0,0.990290
0.4359918342842054,1,0.998932
0.5275294299068406,0,0.994433
0.5277107206311956,1,0.999559
0.4555081080118821,0,0.909197
0.49189229216832575,0,0.959361
0.5194059283460338,0,0.982772
0.5611451685015832,0,0.989734
0.6066432855640701,0,0.996470
0.4809387843398511,0,0.997061
0.4913329461981721,0,0.963714
0.6006428301918835,0,0.992135
0.5555917096351387,0,0.988234
0.5815608792134712,0,0.998286
0.5295410224634922,0,0.984755
0.5394785501425129,1,0.999870
0.5682080805733066,0,0.994759
0.4146454673128917,0,0.993547
0.4888596026482042,0,0.989518
0.6251346827512616,0,0.990296
0.5511035863952242,0,0.990934
0.5894502691775435,0,0.992071
0.5683096972593344,0,0.998649
0.6275083550710548,0,0.997748
0.680073959382294,0,0.997302
0.6646178937209412,0,0.975450
0.5343758585188233,0,0.973654
0.5542512108470478,0,0.994960
0.6406159196609094,1,0.998999
0.41223145601733435,0,0.993262
0.46370509564267604,1,0.999365
0.5108982289723036,1,0.999146
0.5352096638069541,0,0.990033
0.533731371228548,0,0.962890
0.46680204962541866,0,0.970585
0.47356375195686634,1,0.998912
0.553430433817171,0,0.997072
0.6372796528240765,1,0.999877
0.5499339769222639,0,0.998570
0.39207529345538755,0,0.996562
0.44908998858659216,1,0.999298
0.4885512535910855,0,0.991702
0.5088285129145373,0,0.997908
0.5214969860650568,0,0.991829
0.5724161447920001,0,0.984186
0.6600385402055977,1,0.998863
0.5760738761105644,0,0.985200
0.6605146896457299,1,0.999620
0.6212281980872968,1,0.999732
0.6611630618757632,1,0.999764
0.7223270794302025,1,0.999747
0.7138180725783672,1,0.999280
0.7446915140887392,1,0.999730
0.6192690732259643,0,0.995443
0.25973896804638735,0,0.996264
0.2660091684379208,0,0.975810
0.32837839610562,0,0.997836
0.25594155488720965,0,0.986708
0.29277258256515704,0,0.969079
0.31711523127850505,0,0.979749
0.31209229971774105,0,0.994903
0.3799876076021823,0,0.991381
0.3766053267395492,1,0.998808
0.3762746254199759,0,0.986087
0.36396827651189223,0,0.995518
0.31442421166738815,0,0.998042
0.2507278442017932,0,0.962247
0.21468781983323038,0,0.960166
0.22220958651669007,0,0.985617
0.29736358333743307,0,0.982805
0.3995762024586534,0,0.997295
0.37318328053290734,0,0.995940
0.4445511794683,0,0.997169
0.3327575529612658,0,0.981539
0.3776980778870717,0,0.979527
0.40900016179012927,0,0.989514
0.4179212758154448,0,0.987236
0.4537702249663738,0,0.982814
0.4863083279843147,0,0.958066
0.5320687699931071,0,0.962180
0.4788614988518346,0,0.994274
0.490134683996391,0,0.993395
0.5408623790146772,0,0.991552
0.552770201256347,0,0.993047
0.564704658834156,0,0.988769
0.5275899168093738,0,0.996937
0.6307600003433763,0,0.984337
0.60741825260019,0,0.977676
0.6541037940144406,0,0.970638
0.6928121728010648,0,0.991447
0.5615328048144166,0,0.997751
0.6181399420556365,0,0.960958
0.4137943054841074,0,0.984921
0.3918337642766323,0,0.984460
0.4524249649247219,0,0.988846
0.4788822566154447,0,0.997212
0.46109789602120554,0,0.977565
0.5031413144746332,0,0.995937
0.4901629158232307,0,0.995638
0.3242187114081938,0,0.977316
0.35538952046542593,0,0.986458
0.38685516398929265,0,0.976032
0.4664353937612797,0,0.985938
0.5333642280466763,0,0.995012
0.5639489836077382,0,0.998331
0.564669944610225,0,0.997048
0.5841436203575925,0,0.984812
0.3995735987118595,0,0.985386
0.4730649694133435,0,0.997490
0.4025328263937468,0,0.987973
0.38698528622268263,0,0.995268
0.4218975443268138,0,0.995806
0.4900283960896441,0,0.977014
0.2623847332414775,0,0.977210
0.3389614739855604,0,0.974536
0.2959236669168924,0,0.982376
0.4185283835131022,1,0.999769
0.31416731640991186,0,0.978676
0.38246148903300786,0,0.990505
0.4311943924767474,0,0.994925
0.3873905708189223,0,0.967582
0.3820578636851536,0,0.983670
0.4867622614490539,0,0.978544
0.5038513015153272,0,0.980068
0.5404638800648222,0,0.992675
0.553291600769344,0,0.997814
0.5230605313098302,1,0.999733
0.5787094700564579,0,0.966793
0.6426788027566225,0,0.988178
0.6723929953810233,0,0.984792
0.5024367141449118,0,0.992500
0.242754200566834,0,0.975704
0.38140358628734006,0,0.996208
0.35835140614267713,0,0.997314
0.4063263508619938,0,0.992545
0.3376227765213459,0,0.997271
0.3969842886625892,0,0.988952
0.41067104202690136,0,0.961501
0.46866061471841614,0,0.998511
0.5162331925306517,0,0.993317
0.538700566533544,0,0.984697
0.5287916778545521,0,0.972886
0.5821049379260743,1,0.998938
0.6170197790788597,0,0.983527
0.3798217741762764,0,0.963833
0.504265088431612,0,0.998398
0.599439858831951,0,0.985935
0.5396009866902589,0,0.976929
0.5672004295718274,0,0.977621
0.5171777708272739,1,0.999353
0.4728905727592234,0,0.995112
0.47999828522663845,0,0.998394
0.5759923188122331,0,0.998161
0.5668558724892312,1,0.999351
0.5460010979178169,1,0.999858
0.5436156616439419,0,0.979158
0.6344363875986411,0,0.966117
0.592243825463227,0,0.982589
0.5994119944814507,1,0.999741
0.632455582795063,1,0.999372
0.6758769663735974,1,0.999865
0.5885371023774452,0,0.971191
0.6770070264797889,0,0.994884
0.5642313568208263,0,0.996794
0.6267450665171429,0,0.972271
0.3608053504518344,0,0.982316
0.46837122554686433,1,0.999624
0.5245483811843576,0,0.977261
0.5271974620837436,0,0.995731
0.550640842473692,1,0.999744
0.5139102559873153,0,0.981281
0.5987452762006061,0,0.981775
0.5372039828369746,0,0.998151
0.5443453489529888,0,0.969004
0.5495097630861909,0,0.997475
0.47081266349483597,0,0.997655
0.6439213920449448,0,0.989523
0.5657748225680613,0,0.984771
0.3996538993356982,0,0.984394
0.4628046239172071,0,0.961742
0.46431573345141863,0,0.970847
0.5243687153110109,0,0.987915
0.5657333810037506,0,0.964494
0.5859503381423842,0,0.947425
0.6140120366987963,0,0.990870
0.42233341800262575,0,0.979655
0.48600399012151096,0,0.992971
0.5599248479000806,0,0.982481
0.5481763617358081,0,0.984341
0.633217422312252,0,0.996242
0.5875716316288812,0,0.985576
0.6354969701898016,0,0.990941
0.44275297908135197,0,0.979284
0.4435671377152147,0,0.998134
0.5163786745966066,0,0.990443
0.47022590030429307,0,0.984456
0.5065512968083852,0,0.982067
0.5289735519438337,0,0.998253
0.4965850732029081,0,0.994255
0.6096441795938801,1,0.999889
0.5241714631746528,0,0.992555
0.5496861300183145,0,0.989964
0.33069901372629035,0,0.998279
0.45962355796136434,0,0.978266
0.39716337415734515,0,0.996622
0.44400773968836166,0,0.958061
0.5182053178496837,1,0.999875
0.6138793027584014,1,0.999753
0.4542265395280607,0,0.988798
0.4660418919500045,0,0.997775
0.4814743824043257,0,0.994448
0.4898128317184416,0,0.975312
0.5891569615405655,1,0.999281
0.5529493402727856,0,0.994739
0.5558897319895023,0,0.995144
0.6240547763180363,0,0.977081
0.4973895256694931,0,0.984811
0.5705827912362218,0,0.994723
0.5668475761860001,0,0.993136
0.6279498174930557,0,0.995055
0.29769347097435717,0,0.973367
0.3530885349214638,0,0.991402
0.4431572603575245,1,0.999561
0.41987316099336885,0,0.996529
0.47474912711497796,0,0.995742
0.47582518371472304,0,0.969044
0.47737989683931537,0,0.975316
0.5533571382952621,0,0.947186
0.492323364699711,0,0.987591
0.4137391749740778,0,0.985696
0.3948571981720557,0,0.997374
0.4123265584681876,0,0.996216
0.4030702122085778,0,0.990026
0.42772392357922656,0,0.992414
0.49378356831495424,1,0.999885
0.5457409142144105,0,0.988952
0.5653098605889257,1,0.999516
0.4492110668477589,0,0.982740
0.4537621758300062,0,0.994821
0.41319477860397946,0,0.997014
0.4184686689514484,0,0.997725
0.2797549286071739,0,0.993469
0.34673492261283,1,0.999705
0.43377745896840314,0,0.994734
0.37902317984725575,0,0.988601
0.49956130030858137,1,0.999495
0.475520984644336,0,0.997340
0.6232753277452947,0,0.984193
0.6681425827596528,0,0.997195
0.6209713051907946,0,0.991850
0.455064975864786,0,0.985024
0.5434561926754278,1,0.999540
0.5441540795141435,0,0.973790
0.5340691473411084,0,0.987762
0.5176200334571484,0,0.978425
0.6130516006897749,0,0.987135
0.5881122430780199,1,0.999101
0.5635872243888546,0,0.997144
0.5631274293536092,0,0.997843
0.5343669819266833,0,0.989804
0.6005684640797291,0,0.988934
0.33137655518229664,0,0.994981
0.2157073516347502,0,0.977582
0.24762341610796162,0,0.966776
0.2670226449451436,0,0.994575
0.3770170139169105,0,0.998126
0.4384603208364603,0,0.967790
0.4199353282677129,0,0.996184
0.45236280310284155,0,0.960900
0.37878881567468586,0,0.994457
0.3835167812765847,0,0.991558
0.3227776998826694,0,0.975459
0.3866008424613574,0,0.982433
0.32316664433092046,0,0.989364
0.4293689542594797,1,0.999447
0.434910475322871,1,0.999873
0.4323122623831043,0,0.972758
0.35067398014888873,0,0.994785
0.3675668253596893,0,0.981101
0.43688589608479267,0,0.971033
0.46560293285681625,0,0.971842
0.4528575965575849,0,0.989155
0.243239353143964,0,0.980333
0.39712622050901336,1,0.999147
0.3303397045493057,0,0.977808
0.42943335077418743,0,0.994292
0.3990915201115258,0,0.997073
0.5361474700360955,0,0.997195
0.48749973426128956,0,0.988043
0.49725369522955554,0,0.996921
0.5430992028652996,1,0.999850
0.5380837052059397,0,0.994235
0.5240896363780178,0,0.986868
0.5839927653894249,0,0.993399
0.6000890816916477,1,0.999845
0.6337177216013105,0,0.996295
0.5519551847067872,0,0.996139
0.5579763607765226,0,0.974057
0.41185152185622254,0,0.998485
0.40248587149053583,0,0.994391
0.5083328551454022,0,0.990997
0.4640748008567703,0,0.996487
0.47977597678267364,0,0.991510
0.5229585571484926,0,0.980549
0.5525088184591584,0,0.996749
0.5345164536539987,0,0.993301
0.5337124994694031,0,0.984175
0.563367170470358,1,0.999532
0.5952125779359103,0,0.990514
0.5681184541520916,1,0.999647
0.6308268388333873,0,0.989211
0.5767588098219575,0,0.991304
0.500464868807855,0,0.967779
0.5700827131528996,0,0.996449
0.21247278627390045,0,0.987790
0.2132309890276628,1,0.999536
0.24418040033786118,0,0.997272
0.2545507799774899,0,0.993149
0.30861036749172643,0,0.996865
0.22866702680616718,0,0.963606
0.22057237284996728,0,0.988899
0.28022770968714195,0,0.984319
0.36599627700717235,0,0.978016
0.3114108676842969,0,0.966385
0.323632617431776,0,0.985427
0.2766181140428515,0,0.979858
0.25266600798221756,0,0.982400
0.34621874856686574,0,0.970050
0.38218200651102757,0,0.978017
0.41629215243596657,0,0.974122
0.49380204339763034,0,0.997755
0.45608712546262,0,0.990816
0.5284371419136445,0,0.988539
0.5593698723817654,1,0.999890
0.4943216679578042,0,0.997041
0.41446241947513784,0,0.976179
0.4471974805844819,1,0.998917
0.45254400188405486,0,0.980764
0.546252925462823,0,0.968649
0.5217158570114301,0,0.994213
0.5260915428412511,0,0.995074
0.49607663049658723,0,0.960437
0.5079480152811175,0,0.996086
0.5658314127741347,1,0.999499
0.6202517497161297,0,0.994992
0.6229210663943319,0,0.968439
0.6359011540973942,1,0.999670
0.6440389818946989,0,0.993556
0.5086548987545026,0,0.971877
0.3792594845506851,1,0.999635
0.4315998088787116,0,0.993745
0.38148588910594644,0,0.988039
0.5478196538354614,1,0.999748
0.5755711025106204,0,0.968151
0.31138794210589366,0,0.987310
0.5567323437671875,1,0.999415
0.3111566829235661,0,0.966418
0.36847650914037733,0,0.988044
0.4683968021922776,0,0.987637
0.3578456662351391,0,0.968588
0.36259014537201095,1,0.999766
0.34770094868453827,0,0.961761
0.3487409066380218,0,0.976642
0.3403831127708442,0,0.980837
0.3600911036261176,0,0.993125
0.42507816299513784,0,0.997260
0.45089252623488246,0,0.997609
0.35785786617200566,0,0.956823
0.258774898478194,0,0.968282
0.26802492499129194,0,0.953006
0.29785339371912617,0,0.995421
0.3585417221096663,0,0.977293
0.3449251170119442,0,0.959687
0.4021741028900412,0,0.973568
0.456566869194977,0,0.977734
0.525198613184744,0,0.997122
0.44675499220875103,0,0.966432
0.49572547389755584,0,0.965119
0.5064384037096346,1,0.999717
0.5516177410741063,0,0.985330
0.4569015641022792,0,0.968846
0.34842692385147095,0,0.990256
0.2665440226128534,1,0.999707
0.33015017921504036,0,0.985205
0.3632303656710923,0,0.989934
0.43154683586195086,0,0.992398
0.42240887250809345,0,0.989113
0.4473864082610603,0,0.991769
0.4231036505224008,0,0.998451
0.4562770521414169,0,0.998463
0.3715043062798757,0,0.962373
0.45693764238508505,0,0.996481
0.5087642273834312,0,0.979693
0.580127654369794,0,0.987209
0.402749605323511,0,0.973446
0.4146496030982234,0,0.992689
0.4651636820325587,1,0.999839
0.47725140808243544,0,0.995758
0.5134574337575883,0,0.972702
0.5233599474494313,0,0.990187
0.4693452672606041,0,0.993351
0.5110153655469484,0,0.981587
0.47818019872325274,0,0.996519
0.5113714730396008,0,0.969067
0.5537928492422237,0,0.997534
0.5744055176551502,0,0.995736
0.6489197723963626,0,0.990607
0.6435902843718038,0,0.977866
0.5491197356172937,0,0.965201
0.52294128118162,0,0.981680
0.5658821432125695,0,0.996464
0.5594793301825823,0,0.994643
0.5960145798678461,0,0.994990
0.5982032641752904,0,0.997470
0.5454316353456906,1,0.999756
0.5735969713703778,0,0.980692
0.4711392947574905,0,0.960131
0.526732720023313,0,0.985658
0.5482398327732875,0,0.991792
0.3865229649958702,0,0.969515
0.4702228982017613,1,0.998809
0.5307049587229364,0,0.995881
0.546526844355579,0,0.996073
0.5221357787961027,0,0.964796
0.445179154217697,0,0.986596
0.38743471340983765,1,0.999749
0.45541527313762936,0,0.988208
0.44384961951757695,0,0.980175
0.520516910658883,0,0.988303
0.5540034888737685,0,0.996887
0.47020624574768866,0,0.965491
0.4679675161608042,0,0.998449
0.3945989753878067,0,0.973300
0.34263199865241406,0,0.986045
0.3720990323206605,0,0.980026
0.41116825809061014,0,0.979002
0.48166744471159917,0,0.979873
0.5667275600180276,1,0.999531
0.4337712841750108,0,0.988079
0.4739499298841309,1,0.999281
0.4869983167639992,0,0.982315
0.5034688660306194,0,0.997304
0.5108166370541853,0,0.993951
0.41005547692672667,0,0.991087
0.4228189893392488,1,0.999732
0.6193867168612865,1,0.999623
0.424959872286397,0,0.997292
0.44490067196071836,1,0.999171
0.4751229144529364,0,0.997460
0.4392735437625218,0,0.962064
0.51685168447285,0,0.971570
0.5132571017149635,0,0.975945
0.5640518864376922,0,0.992131
0.5217190529379053,0,0.972714
0.5321195864938251,0,0.996501
0.49833221629485785,0,0.990960
0.5447509652482755,0,0.953893
0.521630427294524,0,0.994087
0.5840307933291506,1,0.999459
0.5140312389136346,1,0.999109
0.5564912598794828,1,0.999748
0.5628062906098359,0,0.978350
0.5956665655899063,1,0.999699
0.563250359711167,0,0.953423
0.570444880011119,0,0.991609
0.5290830587111073,0,0.980947
0.48960970292671285,0,0.990339
0.5853953774899788,0,0.995290
0.3259157093743597,0,0.993707
0.4933056088973924,0,0.963114
0.49334108238952173,0,0.992294
0.5295909745460566,0,0.978612
0.5063030494503072,0,0.989759
0.525556110405021,0,0.973315
0.6391055307446821,1,0.999337
0.5953326722148665,0,0.973183
0.6325269750915178,0,0.948056
0.6486194488726188,0,0.991384
0.7114596165289172,0,0.996890
0.6554258967246995,0,0.997994
0.6482578481366371,0,0.979161
0.562948237371772,0,0.996185
0.4497162232446458,0,0.995929
0.5884938587541089,1,0.998559
0.4593885563065933,0,0.979149
0.4908221554668265,0,0.963942
0.5663173957992744,0,0.991570
0.6009222315624152,0,0.986642
0.6955480880567381,0,0.987039
0.6782496855012055,0,0.988028
0.5483295448280292,0,0.974692
0.5110803483731503,0,0.974232
0.6101320268731983,0,0.947853
0.5757252717118876,0,0.994298
0.3991943941937181,0,0.992289
0.3165469005285598,0,0.993720
0.4422912606719527,0,0.969833
0.5874985448320834,0,0.994132
0.42201131709900214,0,0.990530
0.39142075004894483,0,0.991253
0.4306893939460599,0,0.975121
0.4590064361737336,0,0.985265
0.5222294613858539,1,0.999757
0.4267268186941867,0,0.986433
0.4861246772214658,0,0.992483
0.43846340126793876,0,0.963935
0.4192652106451314,0,0.979194
0.483362313418251,0,0.987839
0.4856114417384544,0,0.990378
0.48693542341882545,0,0.996681
0.45290844280745207,1,0.999724
0.4915567204680105,1,0.999487
0.5940318031949487,0,0.987880
0.4316212746788636,0,0.982828
0.592041830369685,0,0.994190
0.6132492039572276,0,0.983712
0.5948508985539619,0,0.966426
0.567841564541165,0,0.994202
0.593398853731908,0,0.963898
0.6507673950367526,0,0.995939
0.4742111845862117,0,0.996823
0.48796022656919186,1,0.999294
0.5676089920619019,0,0.998014
0.5197991750263835,0,0.988652
0.614007151346254,0,0.982061
0.6492354856295943,0,0.996314
0.5543658905548603,0,0.978911
0.5975370486719507,0,0.997587
0.533685985932571,0,0.994860
0.5855093265794952,0,0.996310
0.5801172286892228,0,0.977925
0.5374669848464442,0,0.983297
0.5772674163540412,0,0.990841
0.6782862588295873,0,0.988853
0.6260052989813276,0,0.969922
0.6862530753145923,0,0.986225
0.6508616670894228,0,0.992190
0.6349078887329349,0,0.998565
0.7285269931614995,1,0.998982
0.6116117281670235,0,0.967163
0.6222927384719851,0,0.974576
0.4252363434775532,0,0.991550
0.39921688946085515,0,0.979132
0.4613817504403093,0,0.994604
0.5345390942387743,0,0.979955
0.42674661402913416,0,0.983550
0.49898019573382474,0,0.990994
0.5525624055238679,0,0.986871
0.5503201601434189,0,0.992982
0.551664167439248,0,0.990197
0.5104747448052408,0,0.980985
0.580751499531901,1,0.999692
0.5803703720093762,1,0.998752
0.5826919574188313,0,0.994652
0.6005950870757703,1,0.999875
0.3360038363197103,0,0.945859
0.2566720814684229,0,0.943398
0.2783156109111169,0,0.940549
0.30867817953767585,0,0.977486
0.3521280061804164,1,0.998818
0.3289395147984287,0,0.996307
0.3751209335984588,0,0.996014
0.3325852046515655,0,0.991561
0.31782924096087134,0,0.979002
0.4042964550706351,0,0.995864
0.47431247672355864,1,0.999321
0.6328206750255092,0,0.970092
0.34662121924144984,0,0.995199
0.40301174749942303,0,0.952369
0.43335866724718275,0,0.986329
0.43645516258178824,1,0.998667
0.4995510477352961,0,0.975606
0.49971631493507346,0,0.992936
0.5761799770008207,0,0.993778
0.3787428766351944,0,0.962221
0.44400787913559775,0,0.986995
0.4976586408080676,0,0.978586
0.5086632226465646,0,0.987514
0.5162489483129896,0,0.964021
0.5410482525231332,0,0.966756
0.528973808201575,0,0.979169
0.4482553685456287,0,0.972116
0.4238151547360064,0,0.968882
0.4649952151857626,0,0.989328
0.323657641516747,0,0.984591
0.327571876103476,0,0.971527
0.3917784070447225,0,0.996076
0.5794102028513978,0,0.977341
0.4729132959068976,0,0.989706
0.5316797997986572,0,0.994125
0.5811114557281164,0,0.995854
0.5393487568670539,0,0.998111
0.44705641539410956,0,0.963831
0.5442827176656476,1,0.998836
0.5981162941645728,0,0.994347
0.6580251792672164,1,0.999877
0.6127868566887039,0,0.973581
0.6693158178358973,0,0.993907
0.5658352165910054,0,0.985761
0.32863389795336395,0,0.996490
0.3397894915465517,0,0.994806
0.38029035020646834,0,0.963127
0.5890958096024246,0,0.988360
0.3215999465659927,0,0.991993
0.37107001224154934,1,0.999056
0.4683963125388459,0,0.995051
0.4729125085165425,1,0.999881
0.4398835452757517,1,0.999874
0.5816834879929671,0,0.985977
0.49891747032633244,0,0.993507
0.60084518705489,0,0.993562
0.5290608620136233,0,0.997993
0.5017185758326219,0,0.993028
0.5093985692294445,0,0.981917
0.4417897472850821,0,0.996748
0.44017514126944757,0,0.990564
0.43362969440499666,0,0.987500
0.5000997095665126,0,0.973869
0.4509680279385408,0,0.971443
0.4861120399213431,0,0.984881
0.5349700293034417,0,0.998569
0.2109118867365315,0,0.998426
0.2386698118600438,0,0.997453
0.21934720266700092,0,0.982941
0.2773154401878867,0,0.997120
0.2760325000346611,0,0.995766
0.3338462636329249,1,0.999054
0.3160607276698632,0,0.997858
0.32902891329519807,1,0.999369
0.33586489511351114,0,0.970161
0.3162760939579712,0,0.984643
0.28277108781902327,0,0.977986
0.3080787717411724,0,0.996953
0.3640570974706154,0,0.985502
0.3916769008824074,0,0.995822
0.3659441984996879,0,0.993656
0.4322199670677079,0,0.996188
0.4663842705301184,0,0.995510
0.535266100832186,0,0.995080
0.5428779114761088,0,0.979694
0.5626596234789277,0,0.991672
0.5884708739272686,0,0.988018
0.6141458380882426,0,0.996506
0.6171064296482196,1,0.998980
0.6412731231354597,1,0.999361
0.6129203590397042,0,0.994184
0.5005977862324316,1,0.998702
0.4839054250512807,0,0.993770
0.5681132662756904,0,0.995963
0.5909562900486355,0,0.997771
0.607124808350475,0,0.995382
0.6071207291763691,1,0.998967
0.5758813435226319,0,0.984630
0.6201104274878365,0,0.993144
0.616860648617686,0,0.994495
0.6194790737963183,0,0.978783
0.564483484160586,0,0.990782
0.5034021750628007,0,0.996242
0.5445208174270046,0,0.988856
0.578880166730176,0,0.983405
0.6359517641105444,1,0.999669
0.5618295325754418,1,0.998608
0.6608915921814917,0,0.990035
0.6624382988350984,0,0.991565
0.681350328197462,0,0.991882
0.5412521773923118,1,0.999886
0.49009705694376293,0,0.988977
0.5186417051807551,0,0.993911
0.4186767118083866,0,0.987189
0.4615340666073583,0,0.987490
0.5031320637348093,0,0.980745
0.45369563025817816,0,0.988513
0.6036821868166726,1,0.999736
0.5237797138550823,0,0.995440
0.440654257476219,0,0.989483
0.44764021538634235,0,0.993694
0.4518156188350648,0,0.991656
0.4732088492546796,0,0.991806
0.47662577431065234,0,0.982603
0.39945795946502577,0,0.967185
0.45139467366637337,0,0.973271
0.38031798899899455,0,0.994582
0.4577298653038919,0,0.990661
0.3995450190247943,0,0.977344
0.49092846685387453,0,0.948236
0.3883958523975908,0,0.995953
0.42160406444504295,1,0.999607
0.22687871809757088,0,0.995515
0.2305122402467728,0,0.994939
0.24291738683453845,0,0.996662
0.3261607000424346,0,0.965486
0.3731630238252971,0,0.952266
0.42105567868597166,0,0.990036
0.39285894024127344,0,0.984698
0.4198159482283565,0,0.985561
0.4904066632121774,0,0.951397
0.4580269997129069,0,0.998526
0.4954170923805225,0,0.975602
0.409365263377133,0,0.992661
0.44809250969078496,0,0.994032
0.4922793601111203,1,0.999360
0.48275892029936296,0,0.998319
0.558800558319508,0,0.991811
0.6084300756329546,1,0.999740
0.3678085384378343,0,0.962095
0.36847283869551206,0,0.989220
0.38674798270859895,0,0.986025
0.4685123151043143,0,0.993446
0.4006175840074119,0,0.963538
0.3964846276683232,0,0.987003
0.47563564661932256,0,0.977919
0.5229680405348603,0,0.996301
0.5665320303363821,0,0.979677
0.3859949855735179,0,0.975268
0.3325777287337627,0,0.977295
0.33334760446946127,0,0.984939
0.4573137958674711,0,0.996652
0.4476389913032637,0,0.996892
0.48930641206099557,0,0.990364
0.509426947017256,0,0.996547
0.5374221489772667,0,0.994448
0.509340303636459,0,0.991542
0.3926484490961617,0,0.995986
0.3272847343372728,0,0.981159
0.3267158252795702,0,0.979038
0.3725350450063402,0,0.982541
0.3809762356078199,0,0.969814
0.346293543091831,1,0.999617
0.38601532180900655,0,0.992001
0.4252122871036756,0,0.965308
0.43956678592973475,0,0.989262
0.520470632795006,0,0.992290
0.4445023844396553,0,0.995057
0.47020738008954344,0,0.953791
0.3709779007280086,0,0.976979
0.38983187441614553,0,0.980682
0.47915976669634697,0,0.982845
0.501305320219007,0,0.966769
0.47513326134544753,0,0.989840
0.4684717561002272,0,0.990664
0.5203830749234974,0,0.967194
0.4982136561870957,0,0.996247
0.5191622270134753,0,0.954623
0.5142464696246359,0,0.994992
0.47846714670504076,0,0.992811
0.5233707775248096,1,0.999332
0.5546200114239814,1,0.999867
0.5978011813844473,0,0.998331
0.5393608851446353,0,0.972156
0.5602994734984147,0,0.993053
0.4446482831206238,0,0.991406
0.45945697440050937,1,0.999774
0.5499464256842097,0,0.989439
0.38529570663661916,0,0.959628
0.4364289380073821,0,0.987249
0.4554800808929893,0,0.968765
0.5310287968202865,0,0.996454
0.4938295730036264,0,0.988799
0.5589137017245763,0,0.958089
0.5372911419184931,0,0.975287
0.47283244389715035,0,0.960397
0.4211239701754336,0,0.994513
0.4004652717352052,0,0.996126
0.46642157909623105,0,0.986614
0.4271625461382375,0,0.998367
0.26691872997153004,0,0.985355
0.2850881780071137,0,0.988350
0.2709857244129043,0,0.993207
0.32643656021091233,0,0.979143
0.20197703246162904,0,0.977322
0.28375045503843216,0,0.978147
0.40482533751614747,1,0.998569
0.2894443060135733,1,0.999062
0.3052100572312465,1,0.998619
0.274956179529709,0,0.935166
0.3922214709083027,0,0.980559
0.5073790223815962,0,0.994753
0.29360258995345856,0,0.997682
0.2735579630276307,0,0.997353
0.31470763099779897,0,0.977678
0.284954352055251,0,0.996216
0.356622488213391,1,0.998991
0.3472205854934773,0,0.967417
0.3793276504719568,0,0.997096
0.38110760197952365,0,0.972305
0.38135630349122895,1,0.999847
0.35611007842367054,0,0.967709
0.2719800068981191,0,0.965148
0.37493598688005486,0,0.969913
0.31569119489353353,0,0.968654
0.34647729243075764,0,0.985302
0.3752048519588353,0,0.995827
0.4363297081357162,1,0.999360
0.39520978184622707,0,0.961914
0.4415977321401391,0,0.974114
0.42452756226506255,0,0.982528
0.4885903739724193,0,0.974573
0.4797087639058025,0,0.990910
0.423366711081783,0,0.994028
0.45975173821740806,0,0.984995
0.39140942542865476,0,0.996720
0.3754881655054241,0,0.993748
0.3445176835021845,0,0.985666
0.41130128811109984,0,0.993535
0.3588657037723214,1,0.998785
0.23351437578902945,0,0.957284
0.258861396507888,0,0.970056
0.28693888259392436,0,0.983156
0.3156345926449218,0,0.998377
0.362349262992383,0,0.994029
0.32171638128062174,0,0.994727
0.33663438892129705,0,0.998389
0.32632167145667645,0,0.987347
0.4333065442871949,0,0.990339
0.5105890802918821,0,0.997827
0.507289193282544,0,0.995195
0.5312409475234708,0,0.995708
0.5523715833745725,0,0.997815
0.5799223438086702,0,0.996333
0.5272752292066933,0,0.952186
0.5107764761498325,1,0.998765
0.5272692718979137,0,0.994785
0.5667135119986474,0,0.998353
0.5869496625674759,0,0.988635
0.5357379793452084,0,0.998598
0.5104184613441609,1,0.999876
0.54732419850422,0,0.991367
0.2697803340844285,0,0.978507
0.2707920311257087,0,0.977190
0.28775798541452513,0,0.984780
0.3574275908147308,0,0.968953
0.3378680585633666,0,0.991388
0.36148908084827175,0,0.994158
0.32566179846492177,0,0.968022
0.38811150399600974,0,0.975045
0.36796334106436557,0,0.988610
0.4975604613201706,0,0.984119
0.4827948078522056,0,0.994975
0.4679449812083613,1,0.998619
0.3485737816677064,0,0.990027
0.2942647873153829,0,0.998203
0.3659483821705501,0,0.998274
0.35972559167089035,0,0.990698
0.3595489805251421,0,0.985037
0.40812439527943917,0,0.996811
0.3970146930817856,0,0.983105
0.43844901628725025,0,0.970175
0.4821623562830455,0,0.991350
0.4497268281611687,0,0.985528
0.5837289496460882,1,0.999724
0.49229476762548235,0,0.966891
0.517407130435238,1,0.999445
0.5357409692487843,1,0.999381
0.5085526236471382,0,0.994930
0.480914485387903,0,0.995149
0.5131345046166448,0,0.996453
0.5634889677396699,0,0.994628
0.5602221823156442,0,0.997271
0.5909690783274815,0,0.998342
0.5843318639145543,1,0.999876
0.6052082031075956,0,0.998141
0.5507104084968194,0,0.996117
0.5499656000382563,0,0.993637
0.5653480412527364,0,0.957701
0.5851433466959418,0,0.993040
0.5142104499803826,0,0.995544
0.5090125847432475,0,0.990206
0.6621454396061179,1,0.999339
0.5357485796592786,0,0.995683
0.5455716640275083,0,0.976001
0.5121679988185869,0,0.985857
0.5591170912435846,0,0.981927
0.5713420329443004,1,0.998814
0.6122782340986098,0,0.990994
0.549830549502062,0,0.996154
0.5626030290519078,0,0.997880
0.6284668298244401,0,0.994583
0.39502585096676246,0,0.982514
0.3921523468193323,0,0.998452
0.4283051225677287,0,0.992527
0.4731651573824466,0,0.981859
0.4878520904848519,0,0.947918
0.49963987236939783,0,0.979477
0.5863235932410076,0,0.985958
0.6424275799660333,0,0.992120
0.6492020037212125,0,0.986114
0.6676510862394651,1,0.999875
0.6076509250560583,0,0.992649
0.616251554646336,0,0.998127
0.6940791135728133,0,0.993901
0.7225073205184487,0,0.990879
0.4165062097436028,0,0.998215
0.4785799993865865,0,0.986098
0.5326441146588947,0,0.977878
0.4865630370903406,0,0.985918
0.5544517864604497,0,0.993552
0.37980566903686735,0,0.990924
0.4006356361971465,0,0.987743
0.5280880802111092,0,0.997839
0.46988023682214947,0,0.980788
0.48268786772554567,0,0.988350
0.5188924069963127,0,0.996389
0.5219089332188986,0,0.994095
0.48920524335488663,0,0.994024
0.46317880081806356,0,0.976971
0.5271048997174005,1,0.999720
0.4324308607752849,0,0.994524
0.40441917338263467,0,0.993015
0.3902338090471674,1,0.999477
0.41965917488956794,0,0.995962
0.39689804374652776,0,0.998587
0.43149796073909574,0,0.970488
0.4377935202562169,0,0.988881
0.445211036711217,0,0.979477
0.48025377908092526,0,0.977017
0.6086150777075909,0,0.998120
0.38190163027852947,0,0.979103
0.39344612104310595,0,0.975054
0.45209841015976326,0,0.949567
0.5748692449859488,0,0.991811
0.48145815864304714,1,0.998879
0.48606371839317114,0,0.966064
0.38741108053658574,0,0.984324
0.4509405652878751,0,0.954119
0.4965410036392701,1,0.999859
0.4784193239079325,0,0.997602
0.47828705273081734,0,0.985756
0.5468993555773823,1,0.999832
0.5573870745808029,1,0.999416
0.5344788788752126,0,0.977930
0.5576713858995931,0,0.992751
0.6179189039189203,0,0.995127
0.5052267447058394,0,0.998299
0.6902003400408016,0,0.997077
0.6787166305663105,0,0.992439
0.6526689206398283,0,0.964978
0.7370718478428497,0,0.993825
0.5800897544554043,0,0.998613
0.5610684954092235,0,0.988128
0.5384338904971246,0,0.981978
0.5894214770553534,0,0.998275
0.5571231133772583,0,0.996230
0.5951335355224566,0,0.990322
0.6110946656729671,0,0.986245
0.3394807055876475,0,0.972426
0.4035011837772143,0,0.960200
0.42317601867013993,1,0.999271
0.49025556544356796,0,0.963504
0.5329108256501033,0,0.998103
0.4264431744307793,0,0.987008
0.5083937454600869,0,0.965172
0.4641498318582318,0,0.993305
0.5269870365791294,0,0.998465
0.5070800822060235,0,0.972165
0.2703345375810152,0,0.967215
0.3034290861533228,0,0.968434
0.35938473376375274,0,0.991377
0.461276000913225,0,0.970203
0.49818992839130494,0,0.983869
0.42358452855118695,0,0.988529
0.3364492339208973,0,0.983161
0.3674714184462763,0,0.992677
0.37060106372224,0,0.957601
0.459769680962508,0,0.989575
0.40255631841503775,0,0.946317
0.4872392167286798,0,0.998223
0.5400345808995856,0,0.984373
0.5047989130855858,0,0.973441
0.533972476972356,0,0.993613
0.4942304125685109,0,0.981820
0.5361199851905284,0,0.997332
0.619244356707471,0,0.991891
0.5437457471223015,0,0.949203
0.528358243856056,0,0.995459
0.5288913699825643,0,0.982583
0.3785641976996643,0,0.943132
0.34839323072875233,0,0.989877
0.4289186606559695,0,0.964601
0.391272036777977,0,0.994985
0.40741814302224494,0,0.991408
0.3804469751297181,0,0.988263
0.4155650201146253,0,0.988109
0.5215147196861284,0,0.995410
0.5361726504417069,0,0.995929
0.5086208737933126,0,0.968609
0.5456490179590919,0,0.989800
0.590848401714606,0,0.970700
0.5830989847950268,0,0.993263
0.4289692556642241,0,0.987063
0.2706372380984957,0,0.962968
0.31840163443012237,0,0.993430
0.3567759901922726,0,0.971855
0.3776174192372249,0,0.974185
0.3781599861127918,0,0.994203
0.3064256562371248,0,0.975868
0.3339277178646269,0,0.968387
0.41056062061236787,0,0.977863
0.290737660946249,0,0.981512
0.32780055907373784,0,0.982045
0.3576679237537105,0,0.967524
0.42366019212025796,1,0.999863
0.3697562651844338,0,0.997546
0.3482389972084508,0,0.972206
0.38675794182387296,0,0.978113
0.4042813086921235,0,0.979113
0.4392829258476501,0,0.985118
0.44014229624517637,0,0.967692
0.3764974553030632,0,0.998246
0.41165900123594923,0,0.988725
0.42362791621118373,0,0.963193
0.4380165497977115,0,0.997667
0.4162230471212769,0,0.983143
0.45205114704705096,0,0.993765
0.3560696663386287,0,0.997526
0.3811855355894766,0,0.958425
0.4177685507934084,0,0.990912
0.43158813683126973,0,0.988560
0.476837972257562,0,0.981865
0.44518750863713247,0,0.986762
0.47774176505508387,0,0.988714
0.4915537493340497,0,0.965004
0.48871930396564633,0,0.967375
0.4915605605683035,0,0.996306
0.5532790806238819,0,0.946256
0.5678956542505308,0,0.985452
0.5305414156202947,0,0.989280
0.49387230992070524,0,0.996009
0.4996097768517245,0,0.984154
0.6122851027236682,0,0.974555
0.5645756209259862,1,0.999531
0.5273073316777723,1,0.998889
0.5556701335382035,1,0.998731
0.4814286737249172,0,0.973850
0.579088947277575,0,0.996683
0.6837502801271754,0,0.984445
0.6577234189691298,0,0.996820
0.6388627381176512,0,0.998488
0.5685803857086568,0,0.993739
0.663278160750073,0,0.998361
0.5518861057039273,0,0.997798
0.605665220664328,1,0.999419
0.5391649866801081,0,0.998263
0.5728860251719619,0,0.983664
0.5394401803603136,0,0.991245
0.6208977950326946,0,0.996544
0.5386525795307272,0,0.988858
0.5046151861675391,0,0.993208
0.6187060100934035,0,0.975810
0.6345437705289447,0,0.995069
0.5139756750915563,0,0.996328
0.5921873561936195,1,0.999247
0.6140089441943526,1,0.999626
0.5829539875528831,0,0.964545
0.5770001029712297,0,0.990714
0.548161572099332,0,0.966600
0.6619052102536698,1,0.999875
0.6541707897356778,0,0.998814
0.5826534540726289,0,0.995223
0.6080512586151191,0,0.991283
0.5754572487175962,0,0.980978
0.5973234730909256,1,0.998960
0.607452864294169,0,0.974071
0.5544263060807745,0,0.972871
0.5733813486913028,0,0.984772
0.6758655023822223,0,0.981812
0.6858326771338449,1,0.999532
0.6753515279842455,0,0.997090
0.5877448307294689,0,0.948357
0.5706136534396522,1,0.999684
0.5702414298138325,0,0.996402
0.6678067298757833,0,0.992937
0.5461654296614001,0,0.990357
0.5400467394302298,0,0.984549
0.5837036658124408,0,0.983632
0.6190210965006199,0,0.961110
0.6270263702294133,0,0.996794
0.6012316436854683,0,0.996284
0.6345479283321809,0,0.998336
0.658911579272978,0,0.998343
0.5500426766349177,0,0.993138
0.5485054703400231,0,0.993100
0.5750083260189058,0,0.986158
0.6011877352728051,0,0.995481
0.31125547468418896,0,0.981237
0.2855795191034417,0,0.979197
0.3379239393301662,0,0.981656
0.3289823372205636,0,0.977483
0.4556642916254137,0,0.996410
0.49954856075515836,0,0.975315
0.5199691574018097,0,0.975671
0.5544712303340326,0,0.989633
0.48317716246050924,0,0.977488
0.4833106646188261,1,0.999051
0.5552011502418676,0,0.997668
0.5259469864593805,0,0.973215
0.572795889337622,0,0.970974
0.49032025213408836,0,0.992905
0.4389560943604366,0,0.994764
0.4764040442385688,0,0.993356
0.4607843524237318,0,0.982619
0.4538500694402837,0,0.993427
0.5507558421743548,0,0.989406
0.6183527055753459,1,0.998999
0.4677586148028581,0,0.997009
0.5251346810111297,0,0.992802
0.3807427564834946,0,0.961332
0.41847273306697663,0,0.997367
0.3992883342509947,0,0.989593
0.5938929884328223,0,0.988687
0.38754883114712274,1,0.998780
0.5643250126615245,0,0.981729
0.3868887827894766,0,0.996242
0.45904700600053683,0,0.983441
0.4632518377619662,0,0.996852
0.3617108547140364,0,0.997814
0.26862578902877515,0,0.974700
0.31443798281131136,0,0.990344
0.2827260671730954,0,0.990743
0.2907553915877026,0,0.971614
0.26481079904592847,0,0.991325
0.31138668269086095,1,0.999634
0.2885844451357493,0,0.969534
0.5201437218783497,0,0.986344
0.3316315756446793,0,0.969036
0.348015904524209,0,0.996316
0.37787531414914105,0,0.976038
0.35688055901945337,0,0.994286
0.3988170131227172,0,0.995197
0.4317839402369682,1,0.998753
0.4930044333121685,0,0.961658
0.5083202689140831,0,0.992430
0.4187562594600234,0,0.971213
0.495035650040598,0,0.995118
0.4964689169452462,0,0.995225
0.558917116882971,0,0.995786
0.4956360139627194,0,0.994603
0.46625086490513556,0,0.966496
0.5556812329463356,1,0.999625
0.39253568412224027,0,0.998029
0.43935286205391866,1,0.999863
0.4009774458079351,1,0.999513
0.4511858742826594,1,0.999567
0.4902177621127919,0,0.990949
0.48935064198603184,1,0.999352
0.489243642998513,0,0.982893
0.5423698554737524,0,0.992861
0.5097156538633756,0,0.969327
0.5524249202445519,0,0.978243
0.34107521457240203,0,0.969946
0.28351089092361015,0,0.976493
0.28793122177438174,1,0.999194
0.3247474420540353,0,0.975122
0.29843685223291816,0,0.973692
0.35482546788148434,0,0.992480
0.444387507174463,0,0.996277
0.3926433862024553,0,0.988807
0.40514211200475525,0,0.996386
0.49173865301662284,1,0.998642
0.3164168765817382,0,0.986594
0.3836281576219299,1,0.999718
0.36741673576470046,0,0.996338
0.39925705093738356,0,0.975944
0.4649131705464235,0,0.984631
0.4355307599158806,0,0.995383
0.4947655437269339,0,0.994341
0.5189013812636598,0,0.992699
0.5594832718850052,0,0.996301
0.5063512280507332,1,0.998247
0.4448816215262461,0,0.990297
0.5576345421696309,0,0.998291
0.5837165042684676,0,0.997572
0.5938820098054205,0,0.997572
0.6295259510179712,1,0.998970
0.6851207168730202,0,0.996245
0.5899882405451663,0,0.990269
0.5501310418772514,0,0.997484
0.5781672452680646,0,0.978643
0.5929636522822277,1,0.999888
0.3904874034170362,0,0.997269
0.36100867370784884,0,0.993407
0.3108089511285374,0,0.996779
0.3972253620046994,0,0.977253
0.3432774764413037,0,0.979350
0.3149349755717557,0,0.983745
0.44107949195289464,1,0.999268
0.35776852901829365,0,0.989360
0.3305560018754998,0,0.981971
0.41386957868837576,0,0.973622
0.40669676007702266,0,0.996609
0.46300465508882216,0,0.986844
0.4970841216761969,0,0.990313
0.46291155398646017,1,0.999755
0.5355268367553343,0,0.979197
0.5233667836783161,0,0.995372
0.5679624484202221,0,0.993282
0.5607837148691623,0,0.984160
0.5438355676660637,0,0.985184
0.552481896534923,0,0.995026
0.45282348709658343,0,0.987520
0.4053958307183804,0,0.978133
0.41303238679452925,0,0.990283
0.47591196861570617,0,0.980827
0.433228585749684,0,0.960869
0.46929046173810834,0,0.977883
0.43255115079204454,0,0.992902
0.46422304159311323,0,0.987813
0.47614923872904824,1,0.998593
0.48690211226208663,1,0.998761
0.5391216365178653,0,0.973265
0.5211519840136184,0,0.995815
0.5174969826978113,0,0.989528
0.5251505480180259,0,0.981051
0.48059044022660885,0,0.982583
0.44433630443651995,0,0.998215
0.5549784791335016,0,0.980262
0.4957857159318487,0,0.993593
0.5827445247048075,0,0.986997
0.44380371823406906,0,0.962759
0.5302021096677517,0,0.997141
0.543294884652033,0,0.980888
0.5343764184414872,0,0.994871
0.5349470921564569,0,0.992422
0.5762106688087139,0,0.989521
0.5935914882672098,0,0.986463
0.6264040497104373,0,0.988499
0.5912463947323807,0,0.996247
0.6454406610233103,0,0.997640
0.5706470406650069,0,0.978845
0.5720160506794297,0,0.992669
0.6085095919309174,1,0.999874
0.6129596467224878,0,0.990997
0.4848101713258808,0,0.989721
0.37832579643187253,0,0.987025
0.3777257889326523,0,0.996893
0.418676844297427,0,0.987982
0.4118395599203955,0,0.951655
0.4465482360534065,0,0.964510
0.4785516448972647,0,0.998199
0.5434243712624086,0,0.989819
0.5401188431183819,0,0.996127
0.5539639801520297,0,0.997334
0.5704989241275,0,0.998393
0.5819386901240633,0,0.966167
0.5796529949798268,0,0.988787
0.6428906299651912,0,0.997371
0.37198812245479107,0,0.998508
0.4343608123342607,0,0.969960
0.4151256435975857,0,0.993187
0.4167455203906423,0,0.990460
0.4629264573141792,1,0.999743
0.5060385876456034,0,0.980158
0.5102642108361002,0,0.987169
0.5737991578194437,1,0.998485
0.5113482508198581,0,0.974560
0.5576712302513388,0,0.996729
0.5247991218953965,0,0.966776
0.5636904750473297,0,0.965494
0.5610836578071101,0,0.996430
0.6364109427047608,0,0.998487
0.6522314976853902,0,0.984258
0.6853121038799624,0,0.983549
0.6822186399890312,1,0.999732
0.701773219590899,0,0.990030
0.7157487638100971,0,0.961413
0.37950574880955545,0,0.961719
0.4772819064148449,0,0.966675
0.5074572146808863,0,0.997085
0.5029576778345837,0,0.951088
0.5079633093568444,1,0.999862
0.5138885171698366,0,0.977801
0.4497729645188275,0,0.992480
0.47117918215928245,0,0.990340
0.4361320712700909,0,0.973770
0.529214037745441,0,0.997216
0.5865716552550854,0,0.995392
0.5332993013362696,1,0.999530
0.5600390823215968,0,0.967609
0.5420985564465426,0,0.996695
0.5186023279410524,0,0.989997
0.501672793835576,1,0.999870
0.4951666369978046,0,0.993146
0.5266640617751327,1,0.999744
0.5613416190542803,1,0.998882
0.562996812351566,1,0.999555
0.5098560020238629,0,0.995459
0.5462382776407173,0,0.997836
0.49891805500417064,0,0.987367
0.40619225406857645,0,0.969609
0.4888773047752279,0,0.995283
0.546632473213011,1,0.998995
0.5126697978778796,0,0.988884
0.4783305694321893,0,0.973223
0.5330807752978923,1,0.999849
0.46109164861838586,0,0.993531
0.5050707547441629,0,0.986104
0.5263864210680647,1,0.999845
0.5485841692750153,0,0.991779
0.4621562920653531,0,0.997377
0.5931607961151085,0,0.982332
0.5974582386827763,0,0.997665
0.5791415771281176,1,0.998793
0.5789630377402534,0,0.993970
0.5366335810415138,0,0.997982
0.6168939305277168,1,0.999873
0.4535231670317312,0,0.972860
0.5693845933463444,0,0.998081
0.5057438136622661,0,0.983778
0.5579475222760943,0,0.994775
0.5239082993529655,0,0.995706
0.5126494408134744,0,0.977208
0.6273776259769627,0,0.988492
0.3725216885110225,0,0.991621
0.42892892326331916,0,0.997184
0.49769595354511903,1,0.999641
0.4552853657061622,0,0.995567
0.4232496122592758,0,0.995722
0.41945534142077634,0,0.992641
0.43358175726867143,0,0.995367
0.461733007663805,0,0.992994
0.4309299932064904,0,0.991599
0.49016008853482734,0,0.992376
0.4207345689127027,0,0.996478
0.30318634416650925,0,0.980913
0.3023239957665719,0,0.970217
0.3695197500188517,0,0.980132
0.40187801756737596,0,0.972215
0.39694412158290426,0,0.973563
0.34356023197717467,0,0.973674
0.38962252018342636,0,0.985388
0.44930694782851377,0,0.997710
0.333933721448178,0,0.989732
0.3434286520263634,0,0.993522
0.39229724036996744,0,0.991202
0.3497233269267632,0,0.994838
0.457860743477423,1,0.998903
0.3807283984397624,0,0.962877
0.3605917054714118,1,0.999364
0.37946175726520204,1,0.999857
0.3950836915171632,0,0.979455
0.3775188923442775,0,0.963311
0.34049247987142317,0,0.996914
0.3916827457465264,0,0.998323
0.368405061314955,0,0.994296
0.4548256659411094,0,0.978315
0.41474942614807875,0,0.958232
0.4259673969982297,0,0.968492
0.4320867590674409,0,0.979575
0.4744480394098594,0,0.986973
0.5316003356949905,0,0.980143
0.48366616350390285,0,0.996089
0.44137401003183024,0,0.979527
0.4530422138305668,0,0.975867
0.30935766131185793,0,0.974256
0.3018766354232271,0,0.993971
0.3462643013388415,0,0.983804
0.2716063438653426,0,0.994807
0.2139255157102032,0,0.985792
0.24789253866246408,0,0.985481
0.21744906886558893,0,0.976116
0.2906054704068592,0,0.973164
0.36010699223030457,0,0.953809
0.3846569931532113,1,0.999151
0.4017214103458607,0,0.991218
0.36431405250866294,0,0.981061
0.41122885458044844,0,0.971213
0.4715025626258856,0,0.969087
0.4764423207318072,0,0.972047
0.3842827409248715,0,0.980233
0.3905928443142749,0,0.992240
0.4532656809057198,0,0.997771
0.4829008072129385,0,0.983559
0.3489238195672615,0,0.988051
0.3362363069481421,0,0.979226
0.4194828451592217,0,0.981445
0.46295719733391966,0,0.998182
0.4371928641270181,0,0.997510
0.39397504864396393,0,0.989173
0.43219381211239005,1,0.999050
0.30603964449459425,0,0.972347
0.20112805313577775,0,0.998346
0.23207421220754051,0,0.975003
0.2604147339953641,0,0.983336
0.28124002861181285,0,0.995478
0.27412977195169513,0,0.985557
0.24738553388104856,0,0.992037
0.28632429082134336,0,0.987629
0.30088150521982365,0,0.989965
0.3147293704930731,0,0.961288
0.22363675567887606,1,0.999770
0.29594527389169556,0,0.985021
0.31572462865737627,1,0.999873
0.2934653626863487,0,0.995681
0.3447913102397315,0,0.995022
0.35989602258904096,1,0.999289
0.43522180515652553,0,0.995980
0.43037635985919975,0,0.992341
0.49633294737887435,1,0.999537
0.49547450769469653,0,0.993462
0.4680727197679517,0,0.966310
0.49826092999335597,0,0.982854
0.4655371789108008,0,0.988547
0.5081717407050608,0,0.981186
0.5337974615220893,0,0.957854
0.5500661968093921,0,0.997316
0.45180048645529003,0,0.984076
0.5499869756173037,0,0.965844
0.6368193796523001,0,0.992773
0.5090449318833277,0,0.982103
0.5598167953803861,1,0.998693
0.595106527284477,1,0.999632
0.5296838514239967,1,0.999850
0.4824939671825363,1,0.999220
0.5238598909536313,0,0.991409
0.5016796575537926,0,0.996614
0.5589050849097629,0,0.991423
0.5877742841200513,0,0.992335
0.5921653682998654,0,0.994968
0.5517379680081634,1,0.998783
0.5421462473286895,0,0.989883
0.5509469949338579,0,0.974853
0.5945030504998045,0,0.996316
0.49783902959391096,0,0.994876
0.5795247404984436,0,0.997643
0.5386155096831216,0,0.957950
0.45885491611040974,0,0.995621
0.5660028541360415,0,0.995840
0.5516917292362032,0,0.997050
0.5962240488788939,0,0.998180
0.6287116740082559,0,0.996638
0.5484452469815194,1,0.999525
0.4727607268617063,0,0.973112
0.2750549075690874,1,0.998985
0.31993707081285916,0,0.995097
0.32265564243933265,0,0.995959
0.28742079953209543,1,0.999692
0.3043418053970387,0,0.995267
0.3475427971378004,0,0.981989
0.30417927237357106,0,0.994685
0.2636601174822455,0,0.971302
0.27380683651254345,0,0.980392
0.19588474062345487,0,0.971657
0.17947454369333538,0,0.995324
0.22329327349763306,0,0.997129
0.28253912727508895,1,0.999355
0.27885685036252766,0,0.943324
0.3232111797705577,0,0.995570
0.2548214966929357,0,0.968988
0.25822101449646817,0,0.988255
0.3182615359381162,0,0.994364
0.33333843152745446,0,0.994394
0.3199081885844166,0,0.993889
0.26449145717823797,0,0.994212
0.28757275536411775,0,0.997815
0.33862060844706554,0,0.995447
0.32381341778788897,0,0.984084
0.37099658408093905,0,0.995644
0.3715026207600968,0,0.959398
0.33859218470995683,1,0.999608
0.3255941152910372,0,0.985334
0.4055364432942413,0,0.993500
0.39652755831614944,0,0.992103
0.3507157953865195,0,0.969098
0.3878442777074785,0,0.991238
0.33265874102236653,0,0.986663
0.19641318501506996,0,0.984197
0.22027448101177077,0,0.985349
0.38291512350485035,0,0.973472
0.383275880201521,0,0.981856
0.45276719615552596,0,0.993291
0.4165659471291576,0,0.995862
0.4264848975103352,1,0.999754
0.376290344304107,0,0.958129
0.2825615105481771,0,0.979304
0.3040691122337903,0,0.994271
0.3747031961653225,0,0.998342
0.40348910105489694,0,0.989274
0.48543538924632573,0,0.971842
0.49134893036892613,1,0.999750
0.46242122182015344,0,0.973999
0.42597856088580127,0,0.952242
0.5030396053588344,1,0.999027
0.42015762260454476,0,0.987781
0.3748400930211162,0,0.965163
0.4139800778588322,0,0.965973
0.43925952376288613,0,0.995303
0.5146728180066128,0,0.998305
0.5014096209939702,0,0.995073
0.4751779973768405,1,0.999751
0.5180070072512106,1,0.999757
0.3090354368452667,0,0.971386
0.4636134509476335,0,0.991895
0.41773007580194477,0,0.994724
0.47390950209891547,0,0.977765
0.4656718132011177,0,0.997617
0.376985048647659,0,0.997353
0.4029900037889587,1,0.999877
0.4850178560052953,1,0.999765
0.44246559622046067,0,0.995135
0.4779033344880157,1,0.998883
0.4710193499399117,0,0.996932
0.49216971251424596,0,0.994627
0.5483523405695405,0,0.994966
0.49367899031702833,0,0.994374
0.5247464995290252,1,0.999099
0.4012994627724857,0,0.983428
0.5517372208161064,0,0.954048
0.5904412802584132,1,0.999827
0.5039609462317196,0,0.992257
0.569823120913387,0,0.997948
0.47974174627020266,0,0.959492
0.5387989792114779,0,0.996833
0.5863304271074503,0,0.974207
0.5858402457347985,0,0.997121
0.5107804240087656,1,0.999872
0.5199507547811222,0,0.992539
0.5693689664133494,0,0.985603
0.5322230456269897,1,0.999869
0.5730076610840132,0,0.997616
0.6154946022217074,0,0.995000
0.6372004480019753,0,0.996216
0.563482376741271,0,0.995644
0.5948676804169861,0,0.993672
0.5624063869318872,0,0.981768
0.609103074961516,0,0.985093
0.5929075370157986,0,0.997513
0.6766707714162988,1,0.999255
0.5406148547108182,0,0.992130
0.6122052103928509,0,0.997263
0.5404339257671925,1,0.998890
0.5814274183380848,0,0.994871
0.6695409155031345,1,0.998877
0.6647381725023442,1,0.999119
0.6735936609602926,1,0.998683
0.5841722690513673,0,0.996178
0.6128699346955782,1,0.998878
0.5619146587643377,1,0.999464
0.5722002862613781,0,0.991985
0.5699703123934035,0,0.984143
0.6637243320961664,1,0.999471
0.6474775198567352,0,0.979613
0.5871993437445436,1,0.999483
0.6425314429689957,1,0.999496
0.6451174901666437,0,0.993872
0.6011646037462978,0,0.992990
0.5578918506539106,0,0.986643
0.6431046034645379,0,0.987944
0.4214116414788856,0,0.996361
0.30622972685774424,0,0.987916
0.26499129932487986,0,0.980563
0.32283236802811877,0,0.972906
0.2351256135787509,1,0.999246
0.23871334828707214,0,0.977293
0.22547874074218577,0,0.974107
0.24594274226019383,0,0.989734
0.27447533069584695,0,0.994826
0.27859850996167146,0,0.998644
0.3386394061657955,0,0.995774
0.3825496329500719,0,0.998079
0.3221395909421182,0,0.968735
0.4548092875222025,0,0.997021
0.49949855680533106,1,0.998544
0.4546149203764053,0,0.995228
0.46982838749465483,1,0.999879
0.4500065572909071,0,0.993022
0.46764185298240935,0,0.957950
0.548778301204502,0,0.994907
0.4737899489319294,0,0.976324
0.5815960151120166,0,0.979287
0.4951796901198078,0,0.991309
0.5356574000494969,0,0.995723
0.402466331285155,1,0.999137
0.5180013936913388,0,0.980746
0.472350128006774,0,0.963987
0.4811387242769909,1,0.999421
0.5824931833590998,0,0.990404
0.5954359140100305,0,0.984020
0.5933806393701936,0,0.996249
0.6004926324090514,0,0.995220
0.5660930958389659,0,0.990197
0.6744715988104044,0,0.996831
0.6687573117123162,0,0.992816
0.6529700443430817,0,0.983207
0.636225374349234,0,0.997138
0.634953180817449,0,0.969441
0.6496481603555324,0,0.997800
0.45151171255022776,1,0.999876
0.5238011483426538,0,0.981512
0.5039223648608652,0,0.970830
0.5672687494416635,0,0.998204
0.5502657746679409,0,0.998091
0.6771466113934013,0,0.993392
0.6680757474872452,0,0.997043
0.4812786260709097,1,0.999751
0.4880909569880157,0,0.965316
0.6658769170227835,0,0.981000
0.5456123733696813,0,0.990957
0.5685947986115769,0,0.991001
0.5241802645426967,0,0.997504
0.5427579807213626,1,0.998690
0.4915556398504613,0,0.987695
0.5705901846432199,0,0.991907
0.45156714962025124,0,0.994293
0.43996957586896146,0,0.991791
0.4732714180569419,0,0.982145
0.370660347154863,0,0.972983
0.310457021133918,0,0.987384
0.33693813353974394,0,0.995765
0.3174063348928697,0,0.994407
0.335033457375446,0,0.970490
0.35476615634472053,0,0.978670
0.373262627186761,0,0.951517
0.33709398529987,0,0.957384
0.24893553592367895,0,0.983544
0.24288750750892357,0,0.993182
0.2707326423831365,0,0.994558
0.1526980308455674,0,0.984626
0.21522055048978778,0,0.980213
0.18884840323635158,0,0.933446
0.3009669904831367,0,0.984902
0.2955090973876909,0,0.996609
0.25247825211662783,0,0.989883
0.29044186841104597,0,0.986202
0.2895925441832503,0,0.964855
0.2948933811812258,0,0.998174
0.24922337925688556,0,0.975516
0.2504331236948747,0,0.964677
0.2993064079416538,0,0.986792
0.24872277419073982,0,0.983123
0.25326979247987713,1,0.999229
0.22344286051290557,0,0.997518
0.24746932774110666,0,0.993471
0.2754666940121125,0,0.997562
0.25643166062346195,0,0.998649
0.2718236482882519,0,0.971451
0.19740219071697465,0,0.992412
0.21096999857812584,0,0.961855
0.24388047822623124,0,0.971552
0.3364912749559174,0,0.996525
0.24612646267549199,0,0.988954
0.24462754266971914,0,0.998708
0.26941976608072,0,0.973214
0.28523719870729963,0,0.981402
0.28718903329331535,0,0.943183
0.257016073385701,0,0.975613
0.3380129455315719,0,0.970884
0.413028427040215,0,0.987377
0.37355743736494107,0,0.996826
0.4107075666944917,0,0.993866
0.4148662361033681,1,0.999359
0.4521607469647552,0,0.995684
0.3690328801631738,0,0.958609
0.3721549463481152,0,0.972947
0.49865937392954374,0,0.983808
0.4328050980688287,0,0.994756
0.3790866264859844,0,0.980627
0.4615135085339634,0,0.993354
0.40974336532158057,0,0.993206
0.4799652939832126,0,0.969513
0.4871605350042621,0,0.994624
0.5466198200947995,0,0.997825
0.5480016937974912,1,0.999244
0.5029721561826251,0,0.976751
0.5798539015963232,0,0.983609
0.6414945974388933,0,0.982188
0.6010216011124166,0,0.997609
0.5949651067616023,0,0.989109
0.3629629435068576,0,0.993743
0.39582067190757814,1,0.998971
0.40960212572499977,0,0.992329
0.40910412215396685,0,0.990059
0.4499766839067844,0,0.981001
0.5109770571695071,0,0.996244
0.48278711394493784,0,0.990213
0.4682336529969638,0,0.997847
0.4379560017097526,0,0.998313
0.5014900895889233,0,0.994322
0.5392299059588639,0,0.987873
0.5244273740877401,0,0.967486
0.5415741955651748,0,0.973968
0.5230292842937532,0,0.993394
0.49974613690386954,0,0.969418
0.35803747706645517,0,0.990910
0.356865285248512,0,0.983592
0.31505784054182173,1,0.999044
0.3380512596130796,1,0.999088
0.3087807685661419,0,0.972474
0.31865495925549475,0,0.968858
0.3011662087655499,0,0.988612
0.36977293432679126,0,0.979997
0.3464506036921422,0,0.995900
0.3264103750904907,0,0.994234
0.29520416805902505,0,0.987365
0.36675102660070336,0,0.967473
0.3709525874097184,0,0.992009
0.3753960675395702,0,0.997228
0.34539113342741445,0,0.978066
0.3368638795865926,0,0.996115
0.37877864678967044,1,0.999745
0.3981449596012863,0,0.992677
0.37873392508481524,0,0.981132
0.4112337245453542,0,0.993943
0.4405537687656844,1,0.999562
0.4486809767902133,0,0.975769
0.45847809127118294,0,0.988013
0.4934080349394406,0,0.983254
0.4944420493952026,1,0.998928
0.46536142455690316,0,0.982547
0.42809847231612336,0,0.956409
0.4199246983137941,0,0.974008
0.43414010519709384,0,0.996884
0.4881959524107784,0,0.971546
0.497700197667966,0,0.997527
0.3412420894615893,0,0.997440
0.38089805290116896,0,0.980402
0.4222240863949865,0,0.963319
0.42117433358741585,0,0.991515
0.4117855323407316,0,0.982415
0.4146633937714463,0,0.987375
0.5000978567745104,0,0.988863
0.39952432428936924,0,0.994974
0.3926482302708853,0,0.997446
0.40235887318864083,0,0.986615
0.4112985938880792,0,0.975346
0.4327592945944145,1,0.999629
0.43459548275513976,0,0.993862
0.5315043332224818,0,0.975818
0.55558572386911,0,0.991469
0.5634671119976108,0,0.996668
0.27874385169896937,1,0.999252
0.20019189448377517,0,0.969329
0.3440717430321076,0,0.995129
0.2532801376005899,0,0.996038
0.3041225843527494,0,0.995295
0.4066087485911116,0,0.985010
0.43529172457194326,0,0.989834
0.4169250929553295,0,0.992343
0.4262211905717604,0,0.990143
0.4572025584222686,0,0.980560
0.5010101608888207,1,0.999882
0.46935988654640015,0,0.994404
0.46111592625396214,0,0.995090
0.49639924063512897,0,0.991162
0.46321903073626175,0,0.987470
0.5328620061050461,0,0.983826
0.4439463170292434,0,0.995030
0.5378827272934875,0,0.970227
0.5417467163265792,0,0.971512
0.5569775113258992,0,0.990131
0.5436030339374947,0,0.973789
0.5482165340681233,0,0.997100
0.5823201300225092,1,0.998690
0.3242674937535356,0,0.992807
0.3556108066851817,0,0.980203
0.4285814993554007,0,0.961057
0.29101067737271286,0,0.948866
0.2445678850117791,0,0.985249
0.45369946369077746,0,0.995939
0.3991750938742652,0,0.997781
0.43417595635198264,0,0.990541
0.4829295212153666,0,0.942878
0.3498620394794418,0,0.994717
0.30787455238559486,1,0.999053
0.3181631117721603,1,0.999539
0.34750763463985496,0,0.987554
0.24983534535969767,0,0.984390
0.319043398060229,0,0.997709
0.32476780100593744,0,0.990040
0.36789972936356896,0,0.975616
0.32662263987259416,0,0.997738
0.3286142044050167,0,0.980399
0.3691915465243629,0,0.983143
0.4108680109213771,1,0.999263
0.3916640130846252,1,0.998967
0.30592666110687794,0,0.973193
0.24502888958509034,0,0.994661
0.27118165427841395,0,0.962780
0.31418376623723393,0,0.979338
0.37351922849535524,0,0.974959
0.3077016875430576,0,0.964456
0.3458394194007958,0,0.995896
0.35676041505603034,0,0.968814
0.3881647697413511,0,0.997636
0.3421502269654275,0,0.966390
0.3066087824072143,0,0.998238
0.29862483268338513,1,0.998747
0.31787218168735054,0,0.991033
0.32322632809894036,0,0.975753
0.3684250287141742,0,0.994547
0.41545597430182185,0,0.998512
0.43747212507125127,1,0.999260
0.41857296497358065,0,0.998336
0.39884239078634676,0,0.994396
0.42673893472894153,0,0.982441
0.3849248220405985,0,0.975927
0.4710564145001003,0,0.970256
0.4281756435570933,0,0.997696
0.4924551834191562,0,0.965271
0.44500844640843973,0,0.968363
0.41599364794860066,0,0.983317
0.526012584352422,1,0.998772
0.44820306783549235,0,0.992021
0.47638733398878286,1,0.998705
0.5274719598761942,0,0.997026
0.5262037188624052,0,0.996273
0.419032055145855,0,0.998414
0.3810711060322614,0,0.957416
0.3819747749032339,0,0.990028
0.30930447796797345,0,0.998113
0.37821308740012816,0,0.996020
0.36677924307717424,0,0.991037
0.37534543433315704,0,0.990174
0.39853788384309285,0,0.976768
0.46363215743577113,0,0.971224
0.48182238611449824,1,0.999877
0.5036371753176865,0,0.997164
0.5777496091961282,0,0.992181
0.3658501868299462,0,0.947040
0.4122638751303655,0,0.977546
0.5022375510879695,0,0.971075
0.5344037560934701,0,0.970794
0.5309827929922046,0,0.995885
0.35398081095256256,0,0.977387
0.393477556174102,0,0.991706
0.4210966443542646,0,0.970677
0.4793787079311368,0,0.993309
0.49598338377310386,0,0.997486
0.5751140038840665,1,0.998686
0.4109001892674044,0,0.989384
0.45963848688251946,0,0.994301
0.4639053152124708,0,0.988221
0.4790604867818091,1,0.999172
0.48244473482846706,0,0.994013
0.5798195133507879,0,0.986794
0.5806278847056939,0,0.992521
0.6048771956030671,0,0.997550
0.4623274643231281,0,0.987545
0.5498299069508599,0,0.978783
0.41732522782282233,1,0.998806
0.5197705077899639,0,0.994088
0.4844445908994251,0,0.992983
0.5004746016462907,0,0.995044
0.6189086630393228,0,0.989916
0.5831129645465865,0,0.986670
0.37412254500606495,0,0.975856
0.3741120748016032,0,0.975159
0.43883586274129716,0,0.987347
0.4856654625111648,0,0.990717
0.4946616314983668,0,0.997726
0.5054687943941143,0,0.997037
0.44583013445662933,0,0.983264
0.4268097962673599,0,0.996107
0.4840869133565608,0,0.997002
0.5506124830295847,0,0.994370
0.5859470380240884,1,0.999223
0.6135640491869558,0,0.987592
0.44615640629906556,0,0.989196
0.3608707170062818,0,0.987148
0.22484416480268993,0,0.969384
0.28584655239963586,0,0.979772
0.2528931240022834,0,0.974253
0.2724245684280201,0,0.982831
0.26437940440809193,0,0.997046
0.2656058630157245,0,0.995880
0.2796234203351765,0,0.986309
0.3117150432846011,0,0.995649
0.3434737472277712,0,0.981034
0.36489326895798396,0,0.997652
0.4067160860665512,0,0.976890
0.394454316205122,0,0.997353
0.40066469845167657,0,0.993403
0.4553697348457579,0,0.997639
0.4419215700057716,0,0.980246
0.3764265952267142,0,0.993628
0.44744306131994016,0,0.994465
0.4402861653507596,0,0.989144
0.4003270064287367,1,0.999240
0.3956481037596127,0,0.978675
0.3741786080375219,0,0.979798
0.39271509825505463,0,0.972535
0.396401632929426,0,0.997424
0.3518974709495466,0,0.990366
0.33246687047141427,0,0.990836
0.3932285389097693,0,0.968738
0.3634318808703479,0,0.972914
0.5000763928077542,0,0.997341
0.5293918871747325,1,0.999875
0.48848090123185844,0,0.996481
0.45660043537477907,0,0.985082
0.48407506887889173,0,0.944128
0.4007849527076355,1,0.999369
0.43254799644158104,0,0.985569
0.4228867231918629,0,0.983771
0.4308657622800566,0,0.976786
0.48805641310676057,0,0.991155
0.4557755950528832,0,0.993225
0.344690489570567,1,0.998708
0.39949884485783216,0,0.996624
0.43526755686095137,1,0.999722
0.4070232287746844,1,0.999201
0.381011002017383,0,0.983092
0.3591546988324445,0,0.982510
0.3848421185692544,0,0.966312
0.4845151010113232,0,0.993566
0.4844265796247045,0,0.990420
0.46234802060401176,0,0.976722
0.4888850319862839,0,0.998392
0.5241703919924832,0,0.978326
0.4684849214995145,0,0.961434
0.44922962701085145,0,0.982072
0.47555999520695985,0,0.981577
0.4911356451194981,1,0.998644
0.4784588934198542,0,0.982414
0.47866071391461673,0,0.980510
0.37218549268483925,0,0.975231
0.39645314255011654,0,0.986241
0.5057961089104422,0,0.969897
0.4336142809232668,0,0.994673
0.46614625135604737,0,0.997807
0.4898393187019702,0,0.995559
0.5411887800193814,1,0.999869
0.5814965379651276,0,0.995911
0.4510839199460136,0,0.988157
0.5950481871757608,0,0.994577
0.5907636149234998,0,0.980931
0.6207827745966316,0,0.979404
0.6420734116719574,0,0.969190
0.575402048170179,0,0.992365
0.6135782125254893,0,0.998089
0.5990459667356229,0,0.979217
0.5809395402368058,1,0.999401
0.551290511311328,0,0.991780
0.6460030344215911,0,0.976638
0.6724556944286788,1,0.999885
0.6730301654847107,0,0.993093
0.6787264382210988,1,0.999533
0.72853474150086,0,0.996375
0.7211971175384356,0,0.997178
0.5841367978614803,0,0.975870
0.42745988493334575,0,0.997713
0.47460699956691915,0,0.970401
0.518103001816597,0,0.998202
0.4706331319827355,0,0.988011
0.4811856983265068,0,0.978737
0.47867344582431326,0,0.970659
0.514874900575961,0,0.953768
0.5857912658871675,1,0.999872
0.48681086485251374,0,0.983783
0.3096320220050708,0,0.989461
0.31753997621879865,0,0.991341
0.23944185716395175,1,0.999440
0.2517917531806584,0,0.987063
0.2884550978822597,1,0.999180
0.31693817888292586,0,0.984108
0.31884588001758274,1,0.999198
0.3415278639808176,0,0.992087
0.3220505496914234,0,0.991584
0.32607632751565324,1,0.999167
0.3374535043034773,0,0.983853
0.3724868210073052,0,0.992199
0.39333810519702145,0,0.968909
0.3245424289070138,0,0.998341
0.2994959236057062,0,0.970730
0.3746244162607832,0,0.995254
0.266343071267568,0,0.994362
0.3330622929533762,0,0.966594
0.2504144438089919,0,0.994532
0.2983954537971141,0,0.977079
0.30455919778637597,0,0.992937
0.3176777456411052,0,0.998016
0.29955853017482503,0,0.947653
0.3200255477363807,0,0.979018
0.2655759624076611,0,0.993969
0.29324899522095,1,0.999149
0.2098157005993991,0,0.998723
0.17543474717757876,0,0.967093
0.24059151752931165,0,0.990008
0.25964328160566513,0,0.981339
0.26230689130163476,0,0.998098
0.3130090005396229,0,0.998387
0.295005101352122,0,0.982517
0.3245162015011924,0,0.970362
0.34335419936684325,0,0.997536
0.3392851674419277,0,0.970717
0.36432176529331095,0,0.993531
0.22664998798571465,0,0.985669
0.2506747134556083,0,0.953575
0.28362367940677446,0,0.997558
0.27667182772916143,0,0.974790
0.25217809114492173,1,0.999599
0.226122089910942,0,0.978479
0.2669814740126922,0,0.993299
0.28743076494147174,0,0.988892
0.25647305651318897,0,0.994407
0.27818903300695014,0,0.991870
0.3235280850128527,0,0.991707
0.26055664427616415,0,0.995930
0.236942592410154,0,0.979456
0.27555478762323926,0,0.989198
0.29987509213856794,0,0.996612
0.38189117299030134,1,0.998622
0.4348991842514536,0,0.997114
0.2842835948717517,0,0.973899
0.2803411409015862,0,0.988796
0.2659847248572992,0,0.990721
0.306021471422246,0,0.997583
0.305053085193188,1,0.998922
0.3229732165918379,0,0.997307
0.3607642773809378,0,0.985511
0.4026733666811233,0,0.970420
0.43440016440954204,0,0.984895
0.4991074977692695,0,0.995663
0.4481227832517215,0,0.998416
0.48658083043858896,0,0.987583
0.5391815915753082,1,0.998707
0.5570636963092424,0,0.993822
0.5226383073524402,0,0.975479
0.5605290599182146,0,0.995921
0.5691067330491764,0,0.988556
0.5383930387866517,0,0.996371
0.5271805508184965,0,0.974837
0.4359343326512327,0,0.983507
0.4815035707789231,0,0.989394
0.4424705163437249,0,0.998002
0.44500683766210636,0,0.983078
0.4346426729774906,0,0.967787
0.45242689458577945,0,0.995582
0.40162136013893107,0,0.977973
0.45701098078792934,0,0.992439
0.46736236893319066,0,0.988463
0.4759444249078144,0,0.984383
0.3675439929629497,0,0.997642
0.42000039061492933,1,0.999625
0.41176298128126376,0,0.994982
0.4812759911735572,0,0.965222
0.5184479791843378,0,0.997551
0.4608383060639505,0,0.966784
0.4573722583566612,0,0.989177
0.49826949226373374,0,0.986976
0.4787567320011367,0,0.994094
0.5391552435090423,0,0.998319
0.5452507060008681,0,0.959382
0.5878685067345294,0,0.965045
0.5646457322958921,1,0.999728
0.29618664348335305,0,0.993727
0.3350348753461337,0,0.996980
0.2995790485644475,0,0.986165
0.33197096841875323,0,0.994018
0.32217950913861226,0,0.987611
0.3605709185103514,1,0.999234
0.34730694521244077,0,0.994503
0.3820565669698328,0,0.992480
0.42051936699459763,0,0.985470
0.36262547676372464,1,0.999276
0.46375935020322967,0,0.970246
0.461112778338959,0,0.995420
0.5026136665947599,0,0.962500
0.3785528312976236,0,0.987512
0.45182298139021604,0,0.992424
0.46091535136271283,0,0.966506
0.40418078701942484,0,0.972564
0.5064467897799273,0,0.975662
0.37423075905080244,0,0.995988
0.44264071851149744,0,0.974392
0.3593669072776138,0,0.985611
0.4167685362418329,0,0.987585
0.49675904394902703,0,0.989336
0.5878913655306642,0,0.995547
0.3850325749013312,0,0.957216
0.5645655804572121,0,0.990545
0.4230452943061146,0,0.991617
0.6375179581599064,0,0.978718
0.6591268369723471,0,0.996857
0.5371866250494539,0,0.960750
0.4835766154270584,0,0.993019
0.5879089589513364,0,0.991091
0.5602837286016485,0,0.985879
0.6061985631768043,0,0.993373
0.6075885801409467,0,0.972807
0.5024586903065199,0,0.987998
0.5291602118470321,0,0.987688
0.4613296960429169,0,0.982832
0.493995811195661,0,0.988776
0.5493060559313024,0,0.992645
0.48194467618200776,0,0.980909
0.43959724307615644,0,0.997077
0.4827634233115634,0,0.968802
0.35503149175522886,0,0.984131
0.4689165138875501,0,0.981677
0.4097418469064995,0,0.997122
0.2936847812704145,0,0.994707
0.3516567119716349,0,0.984213
0.34338275832732645,1,0.999866
0.3739291634561598,0,0.939083
0.30431096908083405,0,0.987617
0.37280683091102107,0,0.969303
0.3863925000380696,0,0.970744
0.3904669184720342,0,0.966254
0.4082275180899501,0,0.967213
0.397683371796524,0,0.977431
0.29820491278317335,0,0.983873
0.34600912286358826,0,0.993457
0.3394831500668419,0,0.972804
0.33126966627407506,1,0.998768
0.3835485247025525,0,0.982925
0.312535999631515,0,0.995438
0.4242617761114338,0,0.975762
0.43177511541700947,0,0.946238
0.418146772353126,0,0.987444
0.49956677347903733,0,0.970308
0.4210969658643854,1,0.999751
0.46021711275769445,0,0.990326
0.46392616329384895,0,0.988911
0.5368344053731835,0,0.990859
0.45857311846099946,1,0.999063
0.3939665996478821,0,0.991425
0.364551132069169,0,0.981842
0.3872146099365497,0,0.987810
0.3570923613781919,0,0.994932
0.3676552729834783,0,0.979116
0.37483989734510503,0,0.994213
0.38333029021013,0,0.974974
0.41532335873546505,0,0.995610
0.4209946682213509,0,0.984603
0.43754882801848116,0,0.994081
0.37429420789520457,0,0.994738
0.4335583535271449,0,0.998236
0.34832748166701194,0,0.977722
0.40106064573464895,0,0.990376
0.4373172808559857,0,0.997566
0.45679492894170126,0,0.988835
0.5706555368534826,0,0.991506
0.46746171398394104,0,0.986812
0.4680017662399404,0,0.994558
0.49847724830669976,0,0.981419
0.5235590095875562,0,0.995674
0.4938355555558762,0,0.994503
0.49523384280839033,0,0.996463
0.5459246363378428,0,0.996743
0.5509888325591371,1,0.999528
0.433697160485258,0,0.997500
0.5844112030108106,0,0.994720
0.5563008488422905,0,0.951397
0.5489443078433247,0,0.993336
0.49738196660025397,1,0.999343
0.5150400271982896,0,0.992612
0.5077685600276464,0,0.988532
0.534301416833743,1,0.999645
0.6030032679229425,0,0.997028
0.5740145813841703,0,0.995153
0.5717026311845309,0,0.988398
0.5249102503765155,0,0.986620
0.6007716037666123,1,0.999632
0.5753645841086426,0,0.995563
0.5688953310591941,0,0.979144
0.5747322371569284,0,0.992473
0.5695493504430369,0,0.963142
0.5454663580991025,0,0.941748
0.6121023807463695,0,0.957021
0.5435158398592528,0,0.955150
0.5896435890693835,0,0.998356
0.5745751987939414,0,0.996282
0.5609299542369602,0,0.996494
0.5762281065336374,0,0.994180
0.5755778613015315,1,0.998975
0.49688566130049044,0,0.992421
0.47410103174689283,0,0.997459
0.48681979704536643,1,0.998988
0.5326502884856161,0,0.993000
0.22455230379340752,0,0.977528
0.22900053345349303,0,0.984996
0.33431303373378357,0,0.988347
0.34299076930905154,1,0.999345
0.23930993918527393,0,0.992932
0.29577091363562147,0,0.967281
0.27600415892758223,0,0.998342
0.3246124866698864,0,0.955499
0.3184713173963753,0,0.991220
0.255331877152375,0,0.988102
0.3346580682720006,0,0.988506
0.21336045775589257,0,0.996850
0.25440813855603056,0,0.974504
0.24028575323909362,0,0.979487
0.2669185154968208,0,0.997336
0.258552245023543,0,0.983435
0.3070297175801389,1,0.999140
0.269987682565781,1,0.998360
0.3159292623384611,0,0.994205
0.26860446463307763,0,0.973723
0.28566749920862783,0,0.965253
0.29428771681196547,0,0.993935
0.3060801689307624,0,0.982715
0.2901944533679227,0,0.981228
0.2700536319559468,0,0.984659
0.3365094649749079,0,0.986337
0.3167247781652272,0,0.990101
0.34265863273422187,0,0.998568
0.3476506122327787,0,0.986098
0.35566274614260945,0,0.973541
0.3682535232094274,0,0.980620
0.4081399310067021,0,0.982031
0.3656771331163164,1,0.998780
0.33427242107748445,0,0.997502
0.3380542122577121,0,0.989256
0.34801561769321926,0,0.994318
0.2956799457659714,0,0.978595
0.31690199192581747,0,0.945342
0.4045530477309758,0,0.964521
0.42952865858062733,0,0.994724
0.4793803098287596,0,0.996750
0.4226767666884987,1,0.999320
0.46466183700373814,0,0.982817
0.4790977441808676,1,0.999104
0.4268282290648691,0,0.994046
0.36718635118828463,0,0.972186
0.4006414365924574,0,0.981747
0.4764844980274617,0,0.990779
0.5005976647891016,0,0.966764
0.5852261065311458,1,0.999506
0.583400291273598,0,0.979103
0.5260733316275737,0,0.986118
0.6231676854152142,0,0.979595
0.6247160569751438,1,0.999871
0.6548134499832057,0,0.995731
0.6499726015803904,0,0.988001
0.6900246821861182,0,0.996449
0.4020845387782336,0,0.996101
0.4145594389056066,0,0.985609
0.3957801897660101,0,0.997617
0.4073015825119167,0,0.997217
0.4080690983271588,0,0.995088
0.40405229027242884,0,0.996207
0.40582746944174747,0,0.995996
0.4769814996607898,1,0.998839
0.440099262000401,0,0.997121
0.29351719279239674,0,0.984070
0.260318322581786,0,0.998329
0.26816495766239046,0,0.959062
0.34298656474429284,0,0.968781
0.35082455485211045,0,0.998336
0.513560196769856,0,0.995686
0.36887338152660387,0,0.980240
0.39876421757641956,1,0.999370
0.530076180605819,0,0.981927
0.35378867358311733,0,0.997407
0.35465275988926365,0,0.955867
0.3556881627261381,0,0.993653
0.45458367490709756,0,0.997630
0.4440791739026548,0,0.985381
0.5095082593390023,0,0.972454
0.5700495173435756,0,0.985238
0.45685352934387513,0,0.988805
0.47239355378309816,0,0.981182
0.4967791098202568,0,0.987027
0.4009249326273957,0,0.993608
0.4411679913809414,0,0.993725
0.5261201011252215,0,0.974246
0.49237384037191,1,0.999128
0.48006723867685586,0,0.998538
0.42472050084979424,0,0.998145
0.40858960524816884,0,0.991443
0.33702166075326895,0,0.951326
0.2850518043358808,0,0.998609
0.34488971346528396,0,0.996660
0.32728820089711874,0,0.982480
0.36135203816594486,0,0.980163
0.3853752959803418,0,0.973833
0.38766912442130985,0,0.973816
0.4379526584438016,0,0.992418
0.44201788641056716,1,0.998930
0.4314865682338518,1,0.999709
0.30264816931390737,0,0.966808
0.4435584832025045,0,0.995321
0.28539962735007834,0,0.987636
0.2972322273943741,0,0.995383
0.29598333125072274,0,0.987889
0.3159155431955892,0,0.990339
0.31069885817597787,0,0.977608
0.38381807340341595,0,0.990054
0.47624986544768716,0,0.983765
0.4089876787515795,0,0.981024
0.3478990223114305,0,0.976796
0.3615369377213373,0,0.976605
0.33337910752238453,0,0.981164
0.38727206506616496,1,0.999125
0.3277198845532663,1,0.999268
0.37338461923191407,0,0.998125
0.37321349207306437,0,0.991787
0.33434449678040196,0,0.968642
0.3723624157429954,0,0.996896
0.42904931754218195,0,0.992130
0.4673860711933007,0,0.979902
0.40418064992817726,0,0.983074
0.4199848766939797,0,0.973551
0.4470350412028726,0,0.983586
0.3486128757075411,0,0.996820
0.31636369090271016,0,0.997809
0.3919247025113683,0,0.991133
0.4032012130328442,0,0.996730
0.4201397859661273,0,0.995687
0.36730412340876417,0,0.971069
0.3825457255664232,0,0.966435
0.44633819544129927,1,0.999194
0.4113369430967675,0,0.987827
0.43242450840739827,0,0.988015
0.4497989364107326,1,0.999009
0.3183068533493175,0,0.981288
0.36399735595717003,0,0.982834
0.3720829226959722,0,0.978953
0.36409078370442155,0,0.978205
0.3540942963282614,0,0.990748
0.4398061811204482,0,0.973924
0.4763915500497458,0,0.994767
0.4429281911178589,0,0.979114
0.448824914491907,0,0.979772
0.5340756272109874,0,0.995141
0.5007459664029797,0,0.974863
0.5685844960040392,0,0.994019
0.6122774078247235,0,0.988755
0.6045646737129091,1,0.998859
0.5893101296928396,0,0.995114
0.5682947755338681,0,0.986885
0.5972501603919989,0,0.976587
0.610859114774238,0,0.993826
0.5786299126136211,0,0.994257
0.5767924919315558,0,0.963915
0.5936171172245299,0,0.998450
0.6711351990596891,0,0.983352
0.6430329084854651,0,0.997352
0.6126855298012459,0,0.958177
0.6284215440645681,0,0.997831
0.4677949100585266,0,0.995837
0.45797470317498756,0,0.997097
0.40547655376356395,1,0.998697
0.4455836227076584,0,0.996183
0.45673058029933694,0,0.985347
0.46823206205622114,0,0.992256
0.4967615144243643,0,0.967885
0.5622686849000741,0,0.969944
0.5446355109257711,0,0.992384
0.5988958348420003,0,0.971578
0.5890215279094897,0,0.990366
0.5745338151156492,0,0.983049
0.5253083769930749,0,0.986868
0.520762088687242,1,0.999346
0.5268871006855693,0,0.960920
0.260264703785145,0,0.988818
0.34799338595603696,0,0.972168
0.34904670906912094,0,0.989013
0.3657329401733229,0,0.998237
0.4150763103743722,0,0.988483
0.3894032464175978,0,0.961234
0.463789626422797,1,0.999290
0.3754348832959154,0,0.995759
0.3943853703978901,0,0.960085
0.3735033885896708,0,0.979281
0.44526588759437796,0,0.994811
0.43330454969107973,0,0.988693
0.571575266474882,0,0.986218
0.600372124257115,0,0.993591
0.4715756854430035,0,0.996309
0.4901602838213835,0,0.996043
0.4573389466092105,0,0.989400
0.5555252759108441,0,0.993226
0.4346654589197893,0,0.972323
0.4067871741243621,0,0.980649
0.4431459529558289,0,0.975443
0.4868265101281089,0,0.995094
0.5075028324481958,0,0.987893
0.5083439145032997,0,0.972726
0.2657592215143863,0,0.991600
0.281845949948616,0,0.947216
0.33791501635021587,1,0.999872
0.3071576829157507,0,0.986073
0.281950101210895,0,0.991308
0.30001582561016027,0,0.972275
0.30079149910283515,0,0.988697
0.2891675503206752,0,0.986411
0.3128653608472535,1,0.999646
0.40065945739617825,0,0.988887
0.30129363936855136,0,0.973058
0.3790523784840278,0,0.978094
0.3996784703158607,0,0.994895
0.3465994901839775,0,0.997380
0.3929824751928604,0,0.953748
0.39208312569339066,0,0.983479
0.39006611711232586,0,0.990382
0.4332025675266905,0,0.997242
0.36200524196899814,1,0.999041
0.3864539649623954,1,0.999361
0.2830928244301058,0,0.994166
0.2977905542431948,0,0.994560
0.38863304209620203,0,0.991068
0.25853587036269166,0,0.920534
0.19882892276106834,1,0.999137
0.2713829676128329,1,0.999144
0.23711163586225015,0,0.984961
0.24196432002113774,0,0.997533
0.2763821082373702,0,0.975033
0.2868377747005494,0,0.995606
0.3063533157293319,0,0.971587
0.277417327435231,1,0.999885
0.3072945727582404,0,0.983854
0.3193948654280077,0,0.991820
0.3484049608259426,0,0.982856
0.32078436955353967,0,0.993721
0.32385468321313826,0,0.976455
0.2779448444058192,0,0.938696
0.3333801969289103,0,0.975734
0.30085505090980197,0,0.985091
0.3677069503698495,0,0.996478
0.409750320010899,0,0.990605
0.33921835913870824,0,0.993076
0.38790340130480516,0,0.985175
0.43510047453316836,0,0.957466
0.49158531726526494,0,0.965244
0.5242328855225165,0,0.988333
0.554457035903509,0,0.995634
0.4894056427811499,0,0.981612
0.47583276730275803,1,0.999733
0.5459191972220563,1,0.998953
0.5854449991172568,0,0.987830
0.4509136417744103,0,0.998095
0.4792492460251547,0,0.993492
0.5122569714362122,0,0.997630
0.4844645968564099,1,0.999489
0.4341320793110358,0,0.996270
0.37956831882204184,0,0.990933
0.4251303820200491,0,0.990629
0.3657045500927519,0,0.986758
0.4341143611172368,0,0.985473
0.42459103555217487,0,0.977623
0.45862636909898596,0,0.973130
0.404281755915658,0,0.984430
0.36882750981057344,0,0.987996
0.40312700099852866,0,0.990654
0.483816020517958,0,0.984609
0.5172452747268095,0,0.988791
0.30495663206210233,0,0.974067
0.4314550750411564,0,0.993031
0.46871674696934423,0,0.983016
0.4956221595577107,0,0.992683
0.5184416419387826,0,0.989625
0.38981706688634615,0,0.997445
0.39440534881097755,0,0.964308
0.40837170566490405,0,0.976324
0.3847954952519305,0,0.971721
0.4139039987589121,0,0.992219
0.3319163707640289,0,0.997952
0.3771802727855074,0,0.971120
0.3220181197890326,0,0.979272
0.40612553569199045,0,0.990404
0.3928928360622602,0,0.994239
0.349294628980001,0,0.984760
0.37272334964532483,1,0.998635
0.3879025059836816,0,0.990083
0.434450932922775,0,0.988620
0.4065938644383606,0,0.989311
0.39130599340890915,0,0.990313
0.4210110930561828,0,0.990150
0.42366831609765143,0,0.991884
0.45360748280180263,0,0.989790
0.4666198375195077,0,0.991408
0.40587716195361995,1,0.999724
0.47871481934492943,0,0.985394
0.4568535239395297,0,0.994260
0.42473042842833125,0,0.983271
0.5028873501116877,0,0.986429
0.5143980239216907,0,0.983152
0.5333366448350765,0,0.986458
0.5044654203915016,0,0.996140
0.5254605100010141,0,0.985902
0.4795558638692575,0,0.985065
0.47901374023277815,0,0.982644
0.4882981704743619,0,0.993445
0.5371641063386752,0,0.994068
0.5225206116967628,0,0.972927
0.5605604546557336,0,0.997082
0.459013199468793,0,0.939273
0.5176605266681673,0,0.987047
0.5165995999364268,0,0.989733
0.41276428576672736,0,0.995730
0.3126643745664912,1,0.999166
0.42522029494179064,0,0.971516
0.4423995487677126,0,0.989016
0.39642563590641067,0,0.973566
0.34978148420885335,0,0.990728
0.47640707722347236,0,0.963156
0.3172692016945514,0,0.973358
0.30038897095268824,1,0.999129
0.29580575215987553,0,0.980005
0.42357866056428056,1,0.999762
0.33640898566254224,0,0.965965
0.3918146168326763,0,0.964491
0.4746140806734978,1,0.999613
0.5105831313148921,0,0.996581
0.4748676662729888,0,0.994458
0.2558895092596274,0,0.997383
0.24296330569656205,0,0.956323
0.244121201418088,0,0.942209
0.267986787816569,0,0.982301
0.23698012540988153,0,0.932663
0.2929113452016358,0,0.961901
0.300569369739303,0,0.979404
0.31612474530055584,0,0.980202
0.31166470767753385,0,0.972152
0.3146772793896947,0,0.995044
0.2790362523209353,0,0.997918
0.3166192855091534,0,0.988876
0.28838150004284346,0,0.993652
0.33980762424343863,0,0.991654
0.31984786109671043,0,0.988021
0.3496644853307851,1,0.998979
0.3385183268606255,0,0.982100
0.373944333309101,0,0.995178
0.31896062630874084,0,0.962269
0.32788954786074725,0,0.986322
0.4020901491322648,0,0.988129
0.3911047480562586,0,0.967506
0.39656415187576133,0,0.995427
0.47996165799825363,0,0.997758
0.42338442833043005,0,0.985331
0.47855394869359147,0,0.988250
0.5019652201463747,0,0.995070
0.4883993213263723,1,0.999883
0.48323453828693763,0,0.992283
0.4818830361462566,1,0.999029
0.5394853238025609,0,0.974968
0.4657443453937559,0,0.995398
0.5039381695861077,0,0.964264
0.41106293282769635,0,0.959559
0.46570974520414427,0,0.962214
0.5770466670213314,0,0.965130
0.5238274728580143,0,0.989535
0.5361273887364214,1,0.998880
0.5482279802444376,0,0.995441
0.5843851054006229,0,0.994488
0.5995263185981509,0,0.987609
0.5554586651901285,0,0.973765
0.6230435957847269,0,0.940610
0.5807899214971575,0,0.982585
0.5400358869204616,0,0.956553
0.6356807055560696,0,0.983318
0.5876061112542877,0,0.977146
0.4004865484618242,0,0.978471
0.4380829623260784,0,0.994599
0.542102549334199,0,0.957667
0.414045212461893,0,0.977685
0.37613488944630186,0,0.971572
0.4128326143182426,0,0.988247
0.42469120007569533,0,0.993140
0.4915569258236779,0,0.994319
0.4472253276647651,1,0.999353
0.5641345528357483,0,0.996431
0.5170507952596076,1,0.999319
0.4916579240532317,0,0.961368
0.48781816038946996,0,0.992402
0.4939867637866333,0,0.979893
0.4731207038957485,0,0.995816
0.5266727176397619,0,0.997429
0.5350199280330533,0,0.979399
0.5353860737987618,0,0.997744
0.6535609669627186,1,0.999885
0.6544700961035842,0,0.997963
0.6053616632851597,0,0.985876
0.6466449661594507,0,0.975558
0.447456132882607,0,0.989014
0.49254733434857034,0,0.986839
0.413169292905383,0,0.970966
0.2884300737591263,0,0.995730
0.27373200348998206,1,0.999261
0.21892985988754307,0,0.959929
0.21817683115078096,0,0.982279
0.21865897414738392,1,0.999029
0.3121875211975036,1,0.999867
0.2750215324170588,0,0.986205
0.22619466940163324,0,0.985938
0.31526550115188406,0,0.967782
0.3699322959565652,0,0.992215
0.3708799273967572,1,0.999382
0.3285961023566098,0,0.986686
0.340671090934935,0,0.990582
0.3107388454851079,0,0.975381
0.24737992524859137,0,0.995774
0.28823752422981436,0,0.991776
0.28284085710409407,0,0.986952
0.34351300510153027,0,0.998084
0.2815986937437623,0,0.986378
0.28458188719137345,0,0.978703
0.33068410575649315,0,0.992015
0.2971889804757242,0,0.990597
0.33474361164104194,0,0.997158
0.38484582150277946,0,0.996569
0.37969652428061135,0,0.997903
0.3990287839636506,0,0.997383
0.40408829703808635,0,0.982786
0.3303967923466181,0,0.971263
0.3231196040510537,0,0.995019
0.3400296332142066,0,0.975610
0.3751741834249704,0,0.974293
0.35737865784779316,0,0.993499
0.33721326433755183,0,0.984194
0.33350157252493534,0,0.996668
0.33233250904340095,0,0.986447
0.34716133604808463,0,0.989429
0.40385385222338865,0,0.955166
0.3561574961166551,1,0.999621
0.4432193682450957,1,0.999148
0.41723328910345636,0,0.969405
0.5099815933088987,0,0.986536
0.39762528314589574,1,0.998902
0.4081930117090243,0,0.971500
0.4212887140798224,0,0.995028
0.40718606344949293,0,0.998547
0.48991226633996715,0,0.990609
0.37799492713396815,0,0.988990
0.2767765127560813,0,0.987530
0.2465614424151908,0,0.983767
0.3038598713704912,1,0.999711
0.35079924609473795,0,0.989885
0.3515824543309743,0,0.976621
0.3505111014288819,1,0.999309
0.38732019007362484,1,0.999224
0.41017047845108645,1,0.999863
0.43760108867753433,1,0.998727
0.4554821763407126,0,0.995100
0.48309632264502594,0,0.989573
0.4144846631193362,0,0.987331
0.47457198143085605,0,0.997639
0.5136820024916366,0,0.995273
0.5421232965988018,0,0.980556
0.5481267162333061,0,0.989204
0.5189444068012363,0,0.995679
0.5781524324687415,0,0.981099
0.6214791663343808,0,0.998158
0.6123816337033852,0,0.995257
0.5797044465756539,0,0.985147
0.6148011337829123,0,0.968888
0.5076888685423532,0,0.997073
0.49094756370602455,0,0.991254
0.4978439092603737,0,0.996379
0.5498087110218223,0,0.992267
0.6386323652432705,0,0.998483
0.5454451694660213,0,0.989423
0.7004932785855308,0,0.995707
0.5443905165450555,1,0.998929
0.5280113929299423,1,0.999876
0.5225633833335969,0,0.998035
0.5576242619221293,0,0.972566
0.571742956144785,0,0.977017
0.5507818539347455,0,0.979945
0.5577133418415252,0,0.995642
0.5916953238166756,1,0.999125
0.5904799499926006,1,0.999264
0.5700610006013874,0,0.992409
0.6122238375716966,0,0.969332
0.523398702523537,0,0.996289
0.598011421286995,0,0.988218
0.5760630884434461,0,0.994842
0.5403496677471671,0,0.983901
0.6009062968111492,0,0.991387
0.5349535081570133,0,0.982262
0.5402824891526079,0,0.992504
0.5442146888118652,0,0.994562
0.3693486716256405,0,0.964895
0.30062183388261815,0,0.985025
0.3105722777790718,1,0.999277
0.232018992533768,1,0.999216
0.3161766958042927,0,0.996930
0.33546342216672936,0,0.976715
0.31481081542427564,0,0.996037
0.3326829569947917,0,0.996385
0.4095893669176716,1,0.999281
0.5119416026637924,0,0.964617
0.546896489754332,0,0.998701
0.32851155912099045,0,0.971629
0.3289903597174559,0,0.995448
0.3580175280147592,1,0.999847
0.3670416382872161,0,0.958450
0.3103034192586298,0,0.985802
0.3434910831577089,0,0.993072
0.4067224278803138,0,0.987930
0.3834499227962159,0,0.994931
0.37308288140857365,0,0.997209
0.4011198393410001,0,0.996665
0.38143912221303194,0,0.996298
0.3803539089065033,0,0.981766
0.3641070440588589,0,0.973738
0.3227365004033054,0,0.979116
0.3405480582004517,1,0.998717
0.40695497109524637,0,0.994533
0.3830320381189382,0,0.990115
0.3992596503304201,0,0.979926
0.40001571923229534,0,0.991429
0.4174449843352115,0,0.994381
0.5216100093166829,0,0.996302
0.4092116958184767,0,0.991574
0.37868499285303747,0,0.977072
0.2700735052856331,1,0.999872
0.256560814762454,0,0.977340
0.4369360004936844,0,0.954024
0.36977840412757057,0,0.972673
0.3796733907599649,0,0.998261
0.31333421707680775,0,0.985151
0.24867986811031942,0,0.993029
0.2791199618682802,0,0.952116
0.24356397710578956,0,0.952725
0.21520955816440404,0,0.973741
0.2794388174058539,0,0.940476
0.22111672166734123,0,0.996643
0.3154221941207523,0,0.990589
0.2305508899087241,0,0.987169
0.3084943089072098,0,0.996426
0.25780678053000095,0,0.981894
0.30024618599691755,0,0.991759
0.32011842099857346,0,0.997913
0.2911805691113593,0,0.995566
0.30204449351474505,0,0.985345
0.2250809901869645,0,0.982134
0.3129242564102457,0,0.986431
0.2973635089622417,0,0.976750
0.3515707391734574,0,0.975433
0.323264108387514,0,0.979194
0.2819858232351085,0,0.967050
0.29397373848765374,0,0.972849
0.3188607655150847,0,0.991431
0.3718112107742704,0,0.993149
0.37408803685726166,0,0.957256
