0.06254829149296116,0,0.036394
0.9546660978491429,0,0.025936
0.9683145330917231,0,0.025343
0.9474404925942163,0,0.994792
0.9381999611329638,1,0.999350
0.9445299832507343,0,0.866817
0.9486830368338801,0,0.962474
0.9656704268963952,1,0.999571
0.9683228837844632,1,0.999198
0.953557038368889,1,0.999562
0.9464714978087797,0,0.491093
0.95060696156253,1,0.997134
0.9492900104664385,1,0.999582
0.9115713602824796,1,0.999675
0.9132095939080443,1,0.998834
0.9128894942455221,1,0.997499
0.9681067934181369,1,0.998639
0.936628223522591,0,0.919716
0.9396837296064627,1,0.997630
0.927217648121906,1,0.999682
0.923692007972273,1,0.996390
0.9316422052220293,0,0.303371
0.9708278754927862,1,0.997833
0.9681045292779741,1,0.999653
0.9641165269792199,1,0.999520
0.9440428596478012,0,0.479609
0.940796997546977,1,0.998676
0.908354963384416,1,0.999484
0.9412702286760604,0,0.996963
0.9555671423833374,1,0.996930
0.9534544471854658,0,0.995056
0.938474552929051,0,0.996243
0.9472069215645311,0,0.435334
0.9357055081214993,1,0.998647
0.9601596695698533,1,0.997666
0.9583509294023169,1,0.999607
0.9542918752119894,1,0.997016
0.9431172686156776,1,0.999514
0.9424220859068873,1,0.999548
0.92710898628971,0,0.795558
0.9398712242310008,1,0.996886
0.9433283110352262,1,0.997310
0.9402049435440887,1,0.997234
0.9398629289387345,1,0.999051
0.9643870695689135,0,0.995975
0.9335533818483339,1,0.997370
0.9405978575190946,1,0.998957
0.9263627937238694,0,0.988689
0.9345237608018508,0,0.989002
0.9553262759319506,1,0.996284
0.9570396532946345,1,0.999665
0.9449299136819171,1,0.996573
0.9353502349601632,1,0.997761
0.9299949923930215,1,0.999613
0.9464386293786634,0,0.161450
0.8968332939968997,0,0.666277
0.9353276950457227,1,0.999515
0.9263126332422265,0,0.992924
0.9562376136376133,1,0.998559
0.9580227445978586,1,0.997799
0.9545660956764032,0,0.994899
0.9293103101827584,1,0.999347
0.934851999286021,1,0.997579
0.9393934084982211,1,0.999714
0.926409186417073,0,0.911959
0.9361799194163778,0,0.790118
0.9006945377620187,1,0.997664
0.9270691004921925,1,0.998287
0.9367951618128924,1,0.998673
0.9513002626559914,1,0.999239
0.9452004121165419,1,0.996983
0.9313142357658154,1,0.998702
0.9241404249008836,1,0.997239
0.9552589294424159,1,0.998873
0.93165332887703,1,0.999639
0.9385868957680986,1,0.999334
0.9391330289527048,0,0.615994
0.9505665143163401,0,0.990860
0.9501524272065053,0,0.607396
0.9050346558007691,1,0.998585
0.9293141591735394,0,0.990465
0.9336679434217358,1,0.999676
0.9507561279130832,1,0.999632
0.929434377966316,0,0.608381
0.9615099548385873,0,0.987899
0.9550971045730665,0,0.995388
0.9508508729415079,0,0.996080
0.9587822576723951,0,0.956699
0.9328557944482876,1,0.996727
0.9525006773712476,1,0.998000
0.9563801450133046,1,0.999262
0.8797733985248222,1,0.999569
0.929851758056321,1,0.999657
0.9405518028034099,1,0.998907
0.9371028262525741,1,0.996427
0.9385862177716043,1,0.999629
0.9568795239148904,1,0.999293
0.9247561210967439,0,0.912837
0.9592825302180057,1,0.997465
0.9371210542704711,0,0.880193
0.9485656500740443,1,0.998791
0.9217070705859018,1,0.999541
0.9356776877682135,1,0.998254
0.9547247481357893,0,0.994767
0.9252177509361718,1,0.999563
0.9495527891717145,1,0.999366
0.9664669091541083,1,0.999652
0.9414922735378698,1,0.999630
0.934996638434247,0,0.736614
0.8935225377789908,1,0.999519
0.9657975579973331,1,0.998487
0.9486019855251324,0,0.646857
0.9531799776671386,0,0.741220
0.932136987571441,1,0.999696
0.9209983623289616,1,0.997931
0.9405185424084302,0,0.741131
0.943608712714082,1,0.997102
0.9288550778748011,1,0.998552
0.9451165379494821,0,0.987194
0.9125447532985056,0,0.980349
0.9392963953041356,1,0.998834
0.944520868967371,1,0.999330
0.9636878046081339,1,0.999663
0.9474855691228569,0,0.686206
0.9405246028139167,1,0.999044
0.9373720309216267,1,0.998236
0.961138976414348,0,0.993481
0.9546366240940944,1,0.999592
0.9195656042112335,0,0.995380
0.9482927847653936,1,0.999002
0.9417397672975778,1,0.996334
0.9502274906071736,0,0.991712
0.9594891966596886,1,0.996603
0.9318462061913736,0,0.703006
0.9568589397848343,1,0.999618
0.9491882781845836,0,0.720779
0.9484284582614123,1,0.998562
0.9404090057711386,1,0.998787
0.9535891602792782,1,0.997306
0.9317224731484242,1,0.997739
0.9464129778478224,1,0.999623
0.9574394691371378,1,0.999668
0.9332763548213041,1,0.999662
0.9311860601855194,1,0.999550
0.9340059013425265,1,0.996759
0.9520115319603569,1,0.997922
0.9185157041226962,1,0.996757
0.9293124741202885,1,0.998972
0.9583664443767022,1,0.999294
0.9238237703779293,1,0.999616
0.9358699533810582,1,0.998812
0.944292485757121,1,0.999205
0.9275118863163022,0,0.688459
0.9193221204546678,0,0.979346
0.9454615344332868,1,0.998853
0.9554926417173252,1,0.999585
0.9473897718318225,1,0.997510
0.9421664494123262,1,0.998827
0.9606247670447327,1,0.999327
0.9439885533691045,1,0.996462
0.9592801589811184,1,0.999264
0.9399325601376401,0,0.659125
0.9195624873140277,1,0.996802
0.927262796994166,1,0.997625
0.9469961281599745,0,0.994296
0.9042983529362038,1,0.998437
0.9452810106181646,0,0.706029
0.9251780936789342,1,0.999644
0.919518166011522,1,0.999669
0.9263905830009458,1,0.999652
0.9299381682427361,1,0.999676
0.9440643915379605,1,0.999244
0.9448778870494725,1,0.999454
0.9435863236642847,1,0.999282
0.943412847246085,1,0.999612
0.9333620465446681,1,0.996221
0.9617425489373215,1,0.999686
0.9452677160738777,0,0.996015
0.9493427305568595,1,0.999613
0.8957430188500604,0,0.995085
0.9263034084138828,1,0.999676
0.9364200984384404,1,0.999353
0.9242919646946183,1,0.999593
0.9525218107778572,1,0.998844
0.9429898127325911,1,0.990109
0.9636892786511095,1,0.999042
0.9458268037207203,0,0.418651
0.949845482533436,1,0.999243
0.9634264045111207,1,0.999616
0.947684549069521,1,0.999600
0.9280020471657382,1,0.999648
0.9360283019031925,1,0.999609
0.9271692642669188,1,0.999266
0.9382972300279236,1,0.999556
0.9328151283277473,0,0.991010
0.939287875587758,1,0.999519
0.9285161081349701,1,0.996639
0.9202982253599072,1,0.999423
0.9522040799654176,1,0.998779
0.9304060508295375,1,0.998533
0.9593487669963299,1,0.998242
0.9213506999874611,1,0.999487
0.9332602719257607,1,0.998595
0.9580519855506802,1,0.999712
0.9475515627693335,0,0.597692
0.9464329777677398,1,0.999703
0.9367730578768698,1,0.998477
0.9389389269601122,0,0.663592
0.9279927995355933,1,0.999449
0.9257630512043407,0,0.990490
0.9450800785609429,0,0.823426
0.9074517442213256,1,0.996877
0.9535578270812269,1,0.997616
0.9470841462653319,0,0.995305
0.9212781615354694,1,0.995975
0.9385269684742419,1,0.999644
0.9600558051547728,0,0.989011
0.9351492102548502,1,0.998792
0.9331190111900615,0,0.486556
0.9612526099569063,1,0.999685
0.930128154783848,0,0.992860
0.9302506149296687,1,0.999666
0.9541946935646399,1,0.995567
0.9320045450880045,1,0.996245
0.9341418509775871,1,0.998983
0.9556224375242912,0,0.992913
0.9364698017344484,1,0.998336
0.92564891259922,1,0.996790
0.9456712928220504,0,0.992657
0.9092677625638763,1,0.998340
0.8871556546746071,1,0.998947
0.9543500023654985,0,0.993170
0.9540801764786845,1,0.999526
0.9190214100682399,0,0.991949
0.9125345407387729,1,0.999233
0.9430376353953572,0,0.992178
0.9376016806644168,1,0.999577
0.9445174944249459,1,0.999701
0.94104516172081,1,0.999084
0.9441873864316439,1,0.999587
0.9563692127764972,1,0.999689
0.9571963739747762,1,0.998232
0.9569151926321223,1,0.998851
0.9388795633125666,1,0.997877
0.9308944730548482,0,0.864702
0.9537663823329481,0,0.993090
0.9219500202343706,0,0.980846
0.9580989992785708,1,0.999672
0.9483361760497174,1,0.998395
0.9417026999557814,0,0.996031
0.9405466583759019,0,0.993272
0.9527356564011629,1,0.997031
0.9379240984571943,1,0.997947
0.9331626726648656,1,0.999673
0.9323630276058631,0,0.934957
0.9311840842518989,0,0.498381
0.9356732332050675,1,0.999245
0.9547602174348874,1,0.997843
0.9272608776732896,1,0.998038
0.9333672887605935,1,0.998941
0.953337121140546,0,0.493636
0.9500215212893007,0,0.995829
0.9442227539297385,0,0.565029
0.9349873700469976,0,0.855965
0.9362515590457714,1,0.999552
0.9367336524380985,0,0.992667
0.9375416292763714,0,0.929172
0.9377905941529763,0,0.992330
0.9554095970086001,1,0.999599
0.9457477953114327,1,0.999654
0.9306230101670138,1,0.999596
0.9325158517544737,1,0.999427
0.9138160912217106,1,0.998484
0.9406698274504908,1,0.998359
0.9539250462242753,1,0.998534
0.9331079194916466,1,0.999648
0.9491654131674649,0,0.995446
0.9205602938179951,1,0.999651
0.9451396085393301,1,0.999643
0.9482275511758159,1,0.997830
0.9581205182047918,1,0.998228
0.967082434899218,1,0.999591
0.9582872131700695,0,0.996314
0.9109382233905751,1,0.998489
0.950132550523544,0,0.781288
0.9582036951278198,0,0.984305
0.9329631194212806,0,0.989182
0.9498245033926063,1,0.994845
0.9324023115601552,1,0.998545
0.9493951236341944,1,0.997363
0.9463388178103842,1,0.995973
0.9340662042126922,1,0.994719
0.9318621133316577,1,0.997087
0.940419933124022,1,0.996411
0.9494757576222946,0,0.781009
0.9291081491177712,1,0.998638
0.9503049454034871,1,0.997660
0.930059963575937,1,0.999539
0.9631504770206402,1,0.998803
0.9450465604919123,1,0.999676
0.9452445576521507,1,0.999293
0.9117546192229805,0,0.983333
0.944138064858695,1,0.999265
0.9212572375218359,1,0.998416
0.9084316278332466,0,0.879433
0.9272278555517153,0,0.995018
0.9675466362458133,0,0.920099
0.9339092246388793,1,0.997740
0.9247720408820745,1,0.999612
0.9373361725921083,1,0.998636
0.9324529395995357,1,0.999651
0.9392003639792046,1,0.999225
0.9595511027137332,0,0.995837
0.9539620088295018,1,0.997795
0.9448823883981353,1,0.999658
0.9328597802258728,0,0.868227
0.9372839533978998,1,0.997794
0.9261823570015733,1,0.996986
0.9319503359628872,1,0.999645
0.9414925106946586,1,0.999539
0.9331818415755869,1,0.998920
0.9606215271898155,1,0.996855
0.9480574708988361,1,0.999646
0.9461395164265018,1,0.999650
0.9084245488759237,1,0.999077
0.9644128611778676,1,0.997832
0.9584033218640778,0,0.994997
0.9423715072153936,1,0.998662
0.9089920270147853,1,0.999644
0.9381740965024152,1,0.999623
0.9339378529240767,1,0.999670
0.9484738332397661,1,0.999255
0.9307325587116441,1,0.998075
0.9287636040200067,1,0.999631
0.9461703030780215,0,0.889458
0.9421013280190055,1,0.999542
0.922392097178733,0,0.616647
0.9531757255992629,0,0.993054
0.9349908946065059,1,0.999621
0.9372713916999417,1,0.998985
0.9425613618120562,0,0.985512
0.9536237120293966,0,0.989594
0.954401624154355,1,0.997450
0.9581103324388196,0,0.995756
0.9581520549770102,1,0.999723
0.9347000283273699,1,0.999010
0.9426725878582051,0,0.994284
0.966183095358306,1,0.999650
0.9220844965752636,1,0.997499
0.9538820676459737,1,0.999324
0.9319057680180668,1,0.998830
0.9476617142163695,1,0.996315
0.9565738053183984,0,0.995144
0.9190357172436637,1,0.998993
0.9447803240375474,1,0.996758
0.9253915129533328,1,0.999218
0.9297529592469487,1,0.996691
0.9566042877880648,0,0.828753
0.9469753526635892,0,0.994316
0.9291892703672964,1,0.999367
0.9355361127637022,1,0.999617
0.9457481965240436,1,0.999570
0.9294924702258618,1,0.999178
0.9438148636987246,1,0.998795
0.9498136278766982,1,0.999622
0.9322860634132785,1,0.998724
0.852618752490263,1,0.999563
0.9066124266300934,1,0.999162
0.9153455610569887,0,0.546653
0.9451031955916809,1,0.999338
0.9366000928916157,1,0.996766
0.9280591402774633,1,0.999178
0.9396102270783911,1,0.997262
0.9017817912120382,0,0.990979
0.9373425052425345,0,0.958805
0.9320645524168186,1,0.999300
0.9410096157976272,1,0.999613
0.9381074266212052,0,0.955074
0.9109533536076224,1,0.999541
0.9533899507912246,1,0.999605
0.9373919168621898,1,0.999589
0.9381782968424904,1,0.997744
0.9324193883332648,1,0.999130
0.9453558182497772,1,0.999698
0.8818229266935442,1,0.999653
0.9495539554640214,0,0.984871
0.9402599271848309,1,0.998837
0.9298267529556946,0,0.988809
0.9216119066915656,1,0.999649
0.9500791033619437,1,0.999309
0.9483479710245213,0,0.995616
0.9240116505446865,1,0.999634
0.9500951514293566,1,0.996377
0.9492624384979921,0,0.889371
0.9521366048298325,1,0.996350
0.9144153150096554,0,0.770329
0.9332583145201362,1,0.999664
0.9649322304854788,0,0.980880
0.9383809240474621,0,0.505134
0.9309353981513299,1,0.999593
0.9349566399877108,0,0.993926
0.9225606352325156,1,0.999404
0.9407857616628682,1,0.997426
0.9349343777197611,1,0.999658
0.938820575050009,0,0.984324
0.9189759638496668,1,0.998448
0.9376064821360874,1,0.999562
0.9501194325392326,1,0.999416
0.9576279590400762,1,0.998625
0.9066365403002498,0,0.978759
0.9155709173314651,0,0.991079
0.9354150341262752,1,0.999240
0.9560450281372818,0,0.730347
0.9225133555482621,0,0.994467
0.9450466490931201,1,0.997806
0.9232863528985623,0,0.645075
0.9167983749776376,0,0.530357
0.9145782941679399,0,0.995893
0.9526309550378151,1,0.999572
0.946852830547466,0,0.993815
0.9358604730379632,1,0.998390
0.9216403754884533,0,0.994452
0.9260662397427443,0,0.949699
0.9384699282220453,1,0.999640
0.9321323720972753,1,0.996627
0.9459119493132957,1,0.999133
0.9406401762257338,1,0.987480
0.9328982287565538,1,0.993704
0.9277875656667347,1,0.997712
0.9510499346587791,1,0.997788
0.9681103783096651,1,0.994286
0.9731135905407655,0,0.957873
0.9681185392759073,1,0.999344
0.9409524862549608,1,0.995883
0.9125663561406981,1,0.999634
0.9556927256097083,1,0.997946
0.9620273287658677,1,0.999342
0.9078404175829465,1,0.999714
0.9218696950320662,0,0.861555
0.959662451029266,1,0.997733
0.9423119271374351,1,0.998909
0.9314741197030401,1,0.999534
0.9327339290885305,1,0.999157
0.9572539441986847,1,0.999606
0.9385951090624128,0,0.995920
0.9471252411842465,0,0.719442
0.9500178467769779,1,0.999596
0.9404267776106431,1,0.999600
0.9550116514990291,1,0.999557
0.9320681639414767,1,0.999634
0.944323375440128,1,0.999584
0.9291208689619909,1,0.999649
0.9522437846681366,1,0.999274
0.9074361623674805,1,0.999619
0.9480201574962447,1,0.999553
0.929220020851155,0,0.670278
0.9304955344528946,1,0.998781
0.9515782526093141,1,0.998388
0.9536654386363883,1,0.999639
0.9428721526822392,1,0.999676
0.9331315869540674,1,0.999007
0.9243956199615226,1,0.998436
0.909411402169908,1,0.998922
0.9407834689568485,1,0.999583
0.924094693627515,1,0.999657
0.9526088350914884,1,0.998516
0.9404546912094722,1,0.999268
0.9292416865581812,0,0.994926
0.9200208992082418,0,0.990689
0.9158226087057149,0,0.737948
0.965754060627854,0,0.830262
0.9345724938929939,1,0.998025
0.9396474528653425,1,0.997957
0.9254697740477901,1,0.999650
0.9578147947199505,1,0.996399
0.9370879890287589,1,0.999177
0.9480528746000826,0,0.793374
0.9596133176657337,1,0.999623
0.9256651322821198,0,0.784942
0.9148763539088041,0,0.992046
0.943734576832151,1,0.998816
0.9616179169709085,0,0.996149
0.9326448219260244,1,0.999637
0.9337632548100195,0,0.994998
0.9399462599544375,1,0.999548
0.9598836415951923,0,0.993781
0.9465165779697032,1,0.998247
0.9198220606866383,1,0.999681
0.9483869182983047,1,0.999648
0.9101858638375265,1,0.997870
0.9245111605313531,1,0.999632
0.9250329665433579,0,0.996003
0.9303342122603266,0,0.992078
0.9552825105554211,1,0.998696
0.9423205130985457,1,0.999128
0.9381331188406948,0,0.672636
0.9401962369566159,1,0.999620
0.8938678508195084,0,0.590190
0.9486298632815585,1,0.999527
0.9205623759448028,1,0.999482
0.9023978642231356,1,0.997478
0.874813794957366,0,0.498292
0.9322386655853573,0,0.512533
0.9334773233602166,1,0.999643
0.949295177824345,1,0.999535
0.954970934449576,1,0.995902
0.898501136860813,1,0.997696
0.9390387281524686,1,0.998744
0.9247286607642282,1,0.999645
0.9204371361073161,1,0.999199
0.9276675250506795,1,0.997840
0.962641453321261,1,0.999711
0.9046019009851385,1,0.999688
0.9355607706554876,1,0.999671
0.9501963208587526,1,0.998926
0.9343248092532777,1,0.998980
0.9493383182172426,1,0.995455
0.9407524754606131,1,0.999176
0.9479619354497094,1,0.999540
0.9367052241152258,1,0.999615
0.8701314869247146,1,0.999524
0.9411175454750071,1,0.999640
0.9238426072704716,1,0.999487
0.9358326774771941,1,0.998222
0.9171253216134717,1,0.998860
0.9510583854418271,0,0.995406
0.9474369629352463,0,0.403501
0.9617147698300106,0,0.995849
0.9458304260162081,0,0.988306
0.9495415221104779,1,0.999569
0.9290623444304892,1,0.997160
0.9531027947312143,0,0.401015
0.9659367712212475,1,0.999208
0.9466140611161177,1,0.997715
0.9464954682883867,1,0.998318
0.9215834902932077,1,0.999559
0.9311132591372463,1,0.999192
0.9424672162252227,1,0.999662
0.9411562503414519,1,0.999538
0.9653603844395386,1,0.997664
0.9501652313382652,0,0.984157
0.9292611061880607,1,0.999626
0.9197987064624844,1,0.999309
0.9500394437416695,1,0.998307
0.9273630593925077,0,0.986268
0.9153457916450414,0,0.393819
0.9550899780267854,1,0.997875
0.9193081276301125,1,0.995590
0.9353759713538077,0,0.904545
0.8979716229107836,1,0.998751
0.9215273073752188,1,0.999030
0.9103311742832781,0,0.414666
0.9533488474189631,1,0.998811
0.9427497051602485,1,0.998889
0.9547258035322734,1,0.998937
0.9606813299625998,1,0.998829
0.9596679686232079,1,0.999494
0.9280876143283552,1,0.999495
0.9157418540669969,0,0.994931
0.9329033833382604,1,0.999626
0.947162407364611,0,0.993612
0.9477280351630686,1,0.999498
0.9473554864897822,1,0.999457
0.9580435767799327,0,0.996456
0.9579458364314776,1,0.999305
0.9560732623061029,1,0.997540
0.9176024053826812,0,0.993879
0.9508559878250599,1,0.999049
0.9268848320319633,1,0.999615
0.9433526672232038,0,0.217920
0.9410423590313237,1,0.998771
0.9489608713679218,0,0.992486
0.9519676188322499,1,0.999516
0.9518802061039395,1,0.999499
0.9522402182075603,1,0.999605
0.9399638248866274,0,0.992502
0.9336147641309924,1,0.995669
0.9395101796927092,1,0.999629
0.9353316929730578,0,0.979230
0.9504480932783609,1,0.999552
0.9625111254309122,0,0.989655
0.9588273597168552,0,0.994385
0.9464372424570381,0,0.995665
0.9313493936906229,1,0.999307
0.9468480315037415,0,0.521393
0.9319473807560904,1,0.997075
0.937522709864465,1,0.998668
0.9449131132562004,1,0.999621
0.9423831949040902,0,0.996333
0.9445377411154868,1,0.997405
0.9299124690143351,1,0.999528
0.9438429858236812,1,0.999542
0.9540911832644101,1,0.999667
0.9637971634753423,1,0.998979
0.9475510090073793,1,0.997010
0.9636414946063329,1,0.997718
0.9358055283149397,1,0.996795
0.9546115540066099,0,0.909935
0.9434338821183375,1,0.999379
0.9353586203694283,1,0.998359
0.945938581379196,1,0.999049
0.948758582684997,0,0.977525
0.9552679313835329,1,0.997947
0.9388726333587116,0,0.880294
0.9002896401149086,1,0.999321
0.967298823434315,1,0.998229
0.9544005384653669,1,0.999461
0.9374736047966543,1,0.998619
0.9382460454937336,1,0.999482
0.9310625528749333,1,0.999272
0.9630395217744178,1,0.999709
0.9532825895959179,0,0.994450
0.9420092919320529,1,0.999695
0.9445588880241995,1,0.999227
0.9532401325977795,1,0.998987
0.9216849643160107,1,0.999309
0.9481921667394829,1,0.999560
0.9299890660931425,1,0.996665
0.9552715995904189,1,0.999213
0.9035641704539749,1,0.998023
0.8814976695949349,0,0.986478
0.9511008386506624,0,0.996715
0.9347573631816836,0,0.983924
0.8982789367059996,1,0.999567
0.9299314538197573,1,0.999644
0.9539685366043016,1,0.998104
0.9437362400723457,1,0.998334
0.92677420975211,1,0.998305
0.9552280568147876,1,0.996898
0.9482472436797025,1,0.999189
0.9418091457142789,0,0.956026
0.8905886499586592,1,0.999586
0.9140045687309623,1,0.999530
0.9442586106679484,0,0.974501
0.9389009026396455,1,0.997061
0.930941966295666,0,0.970088
0.9322321278338909,1,0.999545
0.9283267942489939,1,0.999517
0.9363939347115356,1,0.995998
0.951905374497008,1,0.996253
0.9353285333648662,1,0.998844
0.9390783474909004,0,0.825688
0.9211251393405987,1,0.999061
0.9296574500694793,1,0.999530
0.9506571390466069,1,0.999570
0.9167529783469598,1,0.997620
0.9391236247887582,1,0.999451
0.9454471491402139,1,0.995962
0.9563886911496552,0,0.692134
0.9243004375582013,1,0.999154
0.9510462419318337,1,0.999688
0.9392793088610075,0,0.981658
0.9358746981660465,1,0.999205
0.914160189207434,1,0.999368
0.9452576796824467,1,0.999519
0.9250052134545593,1,0.998003
0.9121002061615461,1,0.998592
0.9186289378299447,1,0.997204
0.922645650541359,1,0.999557
0.9387033723905117,1,0.998765
0.8990929526728011,0,0.988011
0.9321578479111093,1,0.998509
0.9350399808667251,1,0.999522
0.9293456823506498,0,0.770370
0.9319389392117856,0,0.981357
0.9600682264810402,0,0.921613
0.9700344470793025,1,0.998195
0.9355689144862225,0,0.985869
0.9569462513749633,1,0.998949
0.940075883304304,1,0.999056
0.9398749732136608,0,0.818713
0.9551795034630333,1,0.999608
0.9359838171926099,1,0.999537
0.9380370936027832,1,0.998193
0.9538049816309254,1,0.999664
0.9387657724267264,1,0.999515
0.9339949614134309,1,0.999515
0.9597790707272355,0,0.996025
0.9323286947648362,1,0.992609
0.9568936092044836,1,0.997685
0.9086378097295011,1,0.998734
0.9289286982630384,1,0.999171
0.9724415326917387,0,0.984451
0.9620473090673224,1,0.997238
0.9639836675660578,1,0.996534
0.9591934263214764,1,0.990977
0.9656178260978523,0,0.973282
0.9695463225866775,0,0.991304
0.9545206039612649,0,0.988277
0.949895304424098,1,0.999628
0.944646720779462,1,0.997842
0.9285124447789087,1,0.998592
0.9556782405773739,1,0.999660
0.9220238751680286,1,0.999580
0.9347621420936563,1,0.997445
0.9515461352055372,1,0.999001
0.9354106546198917,0,0.994329
0.950177317532064,1,0.999660
0.9472358392924612,1,0.999532
0.9404247806914197,1,0.998430
0.9488618593488521,1,0.998929
0.9500400269282638,1,0.996289
0.9412119444084588,0,0.682657
0.9311198555115945,0,0.691208
0.8909847917278615,1,0.999188
0.9603745926860141,0,0.893878
0.9453686645004605,1,0.999650
0.9240528094477857,0,0.648026
0.97130854934958,0,0.988382
0.9504265639104633,0,0.539115
0.929979612894122,0,0.990171
0.9363030921094716,1,0.999546
0.95212966728988,1,0.999652
0.8947960011610245,0,0.884207
0.931080972708444,1,0.999125
0.9435717684764552,0,0.996547
0.9431556213892675,0,0.988968
0.9500136606796933,1,0.999666
0.9529588187661793,1,0.998962
0.9537289551529544,1,0.999632
0.928875786453885,1,0.999598
0.9456709203027953,1,0.999438
0.9065592451920883,1,0.996821
0.935872090722013,1,0.996906
0.903978104608609,1,0.997898
0.9343759023264321,1,0.998802
0.9350120973172804,1,0.995034
0.9313178843223933,1,0.999465
0.924417782417637,1,0.999665
0.9457478174356925,1,0.999305
0.9560655609045494,1,0.999699
0.9308825795020138,1,0.999216
0.9243984042814244,0,0.986014
0.9153770255933312,1,0.997767
0.9438372262923878,0,0.970571
0.9555520947124619,1,0.998342
0.9537548952026832,1,0.999278
0.9425725072919211,1,0.996431
0.9265945108947558,1,0.999463
0.9578987502407676,0,0.992763
0.9415295697144691,1,0.998825
0.9492889791477591,0,0.624600
0.9349499619785417,0,0.990902
0.9046233448553644,0,0.973384
0.9371314674409952,1,0.999618
0.9318569471021336,1,0.999592
0.9315612692323958,1,0.999564
0.9428356960510146,1,0.997843
0.9520208466020473,0,0.849299
0.9057154433609631,0,0.990319
0.9297247695693801,1,0.998788
0.9425465679685066,1,0.998812
0.9268507963117522,0,0.523237
0.9361328098281074,0,0.994677
0.9372122465244132,1,0.999664
0.9271688331644092,0,0.516221
0.9620303472750584,1,0.998943
0.9075999110646097,1,0.999345
0.9303093693956308,1,0.999623
0.9224612176689845,1,0.997548
0.9202355424012524,1,0.999284
0.9555290586552265,1,0.999592
0.9525868951844482,1,0.998857
0.9573129289277021,1,0.999723
0.9540737761904043,1,0.999659
0.9335185541361086,1,0.999548
0.9482742527331692,1,0.999522
0.9347099831179605,0,0.361991
0.9232640307761475,1,0.999671
0.9098097349075264,1,0.999572
0.9395926750756204,0,0.995098
0.9485605007847936,1,0.999422
0.9382967118808679,1,0.999354
0.9336572266164429,1,0.998978
0.9597158937892272,1,0.999582
0.944095414868148,0,0.995886
0.9273209958277625,0,0.981695
0.9411375147052325,1,0.999052
0.9610238270206103,0,0.994354
0.9025823533445674,0,0.992650
0.9497401630361628,1,0.998444
0.9474780213894595,1,0.996556
0.9365835575523488,0,0.994043
0.9644855176450273,1,0.999317
0.9540329028020956,1,0.999603
0.9523759204617224,1,0.999593
0.9399722339570497,1,0.999499
0.9353659044035194,0,0.955940
0.9410536026000261,1,0.997817
0.9484071928258188,1,0.998977
0.9202118406582335,0,0.813543
0.8948030667925165,0,0.803232
0.9436511654992108,0,0.992019
0.9449858470645762,0,0.743068
0.9335681143671487,1,0.999644
0.942211002147193,1,0.996183
0.9582401737452181,0,0.720911
0.9509971824519836,1,0.999600
0.9423905686623333,1,0.997691
0.9496860359827752,1,0.999716
0.9315062647105709,1,0.999633
0.9493412749322249,1,0.999150
0.9415673472556477,0,0.350699
0.9211045851198036,1,0.998270
0.9467709194971557,1,0.999550
0.9251503181126831,0,0.990764
0.9459092449260977,0,0.991661
0.9260854843146327,0,0.627955
0.9490834530510878,1,0.998965
0.9368502195508229,1,0.998611
0.95344446076028,1,0.999677
0.8985931901510438,1,0.999632
0.9266512445023418,0,0.984913
0.9432556147077701,0,0.512135
0.9275318129259268,0,0.937120
0.9385877254749097,1,0.998799
0.9473345459470714,0,0.995355
0.9274544509620232,1,0.999124
0.9397113100059599,1,0.999719
0.950339494303904,1,0.999530
0.9233060635055319,1,0.997234
0.9357338889688799,1,0.995765
0.9353525472802258,0,0.992109
0.9518946771460012,1,0.996844
0.9430594709054109,1,0.998521
0.9230724383400639,0,0.995255
0.9355338359046733,1,0.999526
0.9436857362542562,1,0.998914
0.9635574495655957,1,0.999063
0.9439850724968878,1,0.998710
0.9183751706628263,1,0.999273
0.9350275200071444,0,0.986164
0.9253728632997509,1,0.997595
0.9575792432097701,1,0.999636
0.9499322127581379,0,0.996307
0.9382974890888868,1,0.999537
0.8908130972733969,1,0.999487
0.9556328338543365,1,0.996073
0.9168358662104525,1,0.997343
0.930922667194154,0,0.809026
0.9339907270283386,1,0.997428
0.9121315650472658,1,0.997772
0.9589791155036168,1,0.998644
0.9459611440062535,1,0.997588
0.9275938005837773,0,0.994323
0.9261293513846871,1,0.999043
0.9474045052179008,0,0.994241
0.9499503631235513,1,0.998640
0.9472011544618567,1,0.998588
0.9050189652642465,0,0.976879
0.9615634887841413,0,0.313225
0.9341929299132093,1,0.999200
0.9618207505869456,0,0.983062
0.9272678838577916,0,0.954044
0.964946240642656,0,0.859873
0.9535747891769637,1,0.999263
0.9547670415335247,1,0.996032
0.9474453987384515,1,0.999203
0.9629856308098397,1,0.996637
0.9359763967690391,1,0.999266
0.9387911157023119,1,0.999332
0.9456104568979075,1,0.999159
0.9238542066533604,1,0.998842
0.9488950931634786,1,0.996616
0.9590880685498716,0,0.992412
0.95646399684135,1,0.994914
0.9462270777270776,1,0.999319
0.944309942247175,0,0.992639
0.9400539629963955,0,0.915864
0.9371903799268991,1,0.999440
0.950175510827546,1,0.999612
0.9375987490810409,0,0.992326
0.9435869925584288,0,0.355589
0.9561355591694667,1,0.999657
0.9480849920972558,0,0.993056
0.9324263269399455,1,0.998925
0.9491943436089962,1,0.997791
0.9416827320257861,0,0.994248
0.9252925024028754,0,0.833515
0.939066459369974,0,0.440184
0.9458878176853619,1,0.999437
0.9148393032318961,0,0.592897
0.933139566353713,1,0.999402
0.9183783155112689,1,0.999637
0.9534240951269916,1,0.998159
0.9142672352405037,0,0.941894
0.9550039678837301,1,0.999223
0.9309881558431925,1,0.996767
0.950260851938224,1,0.996695
0.9072790097367901,0,0.992149
0.9594263512262934,1,0.997792
0.9574846742648543,1,0.999409
0.9407415219764369,0,0.996576
0.9412496948990771,1,0.998465
0.9166625472164627,1,0.998286
0.9405935376368788,1,0.999600
0.9324824916520033,1,0.999611
0.9522848514134262,1,0.998440
0.8734984908816866,0,0.990787
0.9629308473553646,1,0.998802
0.9456376180622885,1,0.992832
0.9311060173145984,1,0.999248
0.9361058191493055,1,0.999654
0.9610439977163754,0,0.995341
0.9412185089184129,1,0.999326
0.9362565213599362,1,0.998926
0.9286125406619363,0,0.885449
0.927568189774944,1,0.999607
0.9425756003860936,1,0.999687
0.9329811262124172,0,0.930403
0.9224012347836296,1,0.997848
0.9501209175754928,1,0.998525
0.9584666842543317,0,0.370510
0.9550859808201775,1,0.999384
0.9460130932992631,0,0.990858
0.9172734908400432,0,0.989912
0.932381811382151,0,0.984472
0.9272268207618884,0,0.987570
0.8999512010166484,1,0.999620
0.9035234309539913,1,0.999545
0.9036036074550523,0,0.320120
0.9474272573862652,1,0.999511
0.9346690015614507,0,0.994683
0.9260877562670449,0,0.387872
0.933138802657675,1,0.999294
0.9421983242994033,1,0.999673
0.9156030061118282,0,0.432887
0.9437546881753659,0,0.988582
0.9378090552391213,1,0.998524
0.9214555562966431,1,0.996687
0.9405276828148489,0,0.338188
0.9083697586204307,0,0.984744
0.9319234730298861,1,0.999286
0.9373586834385369,1,0.999607
0.89721444908955,0,0.944885
0.9368565552522546,1,0.998141
0.9675146027380433,1,0.997908
0.9576245205915394,1,0.998582
0.942589165459471,1,0.998647
0.970693083306351,1,0.990268
0.9722338002187298,1,0.998168
0.9640476096016996,1,0.995925
0.947611642751317,1,0.999670
0.9484645212144258,1,0.999497
0.9479592880975155,1,0.999627
0.952046262796847,1,0.997395
0.9401142600820036,1,0.999635
0.9132901375200805,1,0.998860
0.9553289267198424,1,0.999214
0.9338581161634955,1,0.994825
0.9291305475659183,0,0.772233
0.9250824981656154,0,0.991262
0.9232123693943344,0,0.991593
0.956070302804519,1,0.999522
0.9423918434261102,1,0.999590
0.9218629362171633,1,0.998508
0.9274388412195045,0,0.982312
0.9179589201994149,0,0.542328
0.9515743534616424,1,0.999653
0.9355869538956648,0,0.496561
0.9225083879448968,1,0.999603
0.9001546550085048,1,0.997526
0.941025463089932,1,0.997681
0.9168184408741772,1,0.995556
0.9153136754368166,1,0.999427
0.9422792767041436,0,0.983012
0.9342414573797773,1,0.998711
0.9648909982907758,1,0.989691
0.9545952604776405,1,0.997037
0.9337018351335244,0,0.992570
0.9397186489019637,0,0.884805
0.97301753238321,1,0.997455
0.9315124810130823,0,0.974292
0.9305127559866385,1,0.999634
0.953896161764406,0,0.507692
0.9088664097971451,0,0.991688
0.9151660279471159,1,0.998213
0.9345531246336569,0,0.430159
0.9373135565420292,1,0.998746
0.9550630712930561,1,0.998834
0.9320230293997818,0,0.311088
0.9492151076771542,0,0.995491
0.944070238754814,1,0.998320
0.9406829876607357,1,0.999385
0.9347201989291409,0,0.307459
0.9392635426868523,0,0.876809
0.8969648718554799,0,0.912585
0.9328803036603676,1,0.999531
0.921671902281412,1,0.997755
0.9523625074779499,1,0.999703
0.9538113926043146,1,0.999582
0.9424570538237875,1,0.999632
0.9542497538069846,1,0.999505
0.9190925980611772,1,0.996398
0.9344505270797233,1,0.999536
0.941951622189549,0,0.690566
0.9136528711451749,0,0.994782
0.9632237106433633,1,0.999162
0.9461962844973434,0,0.994307
0.9304911158331255,1,0.999289
0.9429927814485316,1,0.999659
0.9347660039741803,0,0.993959
0.9641583691107641,0,0.976327
0.9477497763224398,0,0.992786
0.9683785610080862,1,0.998268
0.9519274084743956,1,0.999399
0.9400575828680541,1,0.999515
0.9365997026812347,1,0.999614
0.926832791198682,0,0.966844
0.9433798444574071,1,0.998301
0.9473742018235223,0,0.542615
0.9526117080034942,1,0.999622
0.9178003196606652,0,0.471004
0.9388703677071026,0,0.995115
0.9597925197333833,1,0.998122
0.9511951557764456,1,0.995791
0.9689573537151484,0,0.972452
0.9678174231871867,1,0.999646
0.9516527582123322,0,0.992130
0.9258235135982439,1,0.999230
0.9333405302033217,0,0.983432
0.9171364758556808,1,0.999516
0.9235789407045243,1,0.997446
0.9387706586275401,1,0.999400
0.9428637020759284,1,0.992832
0.9588052635612726,0,0.990291
0.9542225412174139,1,0.998131
0.9452402855265857,1,0.999425
0.9414285014715859,1,0.998241
0.9505108141686295,1,0.998770
0.9341716853871044,1,0.996875
0.9119672958328127,1,0.999554
0.9300349715874131,1,0.997243
0.9517434713574625,0,0.986698
0.9271076906036315,1,0.999484
0.9513127791665553,0,0.994140
0.9406668871392058,1,0.997406
0.934525197292164,1,0.999572
0.9556991504527947,1,0.998767
0.9315951693660403,1,0.999628
0.9301406198850292,0,0.986540
0.9357357117358973,0,0.170438
0.9579080857640772,1,0.997211
0.9202975723975725,0,0.991966
0.9523692640365198,1,0.999475
0.9389583471734038,1,0.998981
0.9244283260189272,0,0.981804
0.9264775908384806,1,0.999516
0.9485115681514973,1,0.999686
0.9366229856053507,0,0.985577
0.9255464550233893,0,0.829668
0.9346884120485321,1,0.997674
0.9605951355154265,1,0.999353
0.9399178658073621,1,0.995232
0.9388795761412179,1,0.999219
0.9469191103055503,1,0.999369
0.9033956782995464,1,0.996375
0.9531669544642324,0,0.995628
0.9261762061999648,0,0.804746
0.928344509324703,0,0.945216
0.9394221763567733,0,0.985803
0.9609877136026804,1,0.996581
0.9475706527490773,0,0.942387
0.9498336995273834,1,0.998586
0.9559585557837916,1,0.997347
0.9499985959144706,1,0.993258
0.9656853920478837,1,0.999673
0.9306965612285253,1,0.998660
0.9274855706400777,1,0.998620
0.943599423711014,1,0.998508
0.9256645473785281,1,0.998017
0.9392056429891887,0,0.984442
0.9503064231079005,1,0.996922
0.9029176878720835,0,0.979925
0.950949049009355,0,0.363483
0.955862805706515,1,0.998099
0.9290964756318364,0,0.516461
0.910487263374024,1,0.997172
0.9180016030791088,1,0.999542
0.9221018143988902,1,0.999419
0.962684712103774,1,0.999689
0.9236720182445566,1,0.997671
0.9480909226106283,1,0.999523
0.9579831676102767,1,0.992009
0.9218003712299466,0,0.992588
0.9374722455162225,1,0.999629
0.9328343922976607,1,0.995431
0.9439084349579555,0,0.980083
0.9365896850848628,1,0.999541
0.9569810548185412,0,0.988489
0.9380161806721756,1,0.997166
0.9437363375780871,1,0.998481
0.9278048536563315,1,0.999646
0.9217126932306244,1,0.998963
0.9567491431809881,1,0.998071
0.9185284003396966,1,0.997749
0.9542172181733358,1,0.996214
0.9549783849781661,1,0.999535
0.9256588845553687,0,0.262399
0.9411364406790174,1,0.999335
0.9534390705038303,1,0.995467
0.9516893652112961,0,0.973867
0.9208949428096702,1,0.999274
0.9677239699651231,1,0.999653
0.9241451139273081,1,0.999665
0.953431507980637,1,0.999722
0.9444100054169412,0,0.405895
0.9672344557119714,0,0.991770
0.9286128401686983,0,0.484066
0.9545600415870518,0,0.800826
0.9040889015096939,1,0.995818
0.9010412324432953,0,0.992936
0.9500747572468552,1,0.999081
0.9507139651630692,0,0.996154
0.9541130686561932,0,0.763397
0.9248517878026218,1,0.997166
0.9382595034877659,1,0.999484
0.9435353658164143,1,0.997169
0.9663358869672976,1,0.999387
0.956634412210264,0,0.972362
0.9534812057878814,1,0.996988
0.9411209803419663,1,0.997240
0.9499531029652624,1,0.997810
0.9375987539629441,0,0.992751
0.9444074764847789,1,0.999518
0.9671982256558046,1,0.999106
0.936372462050395,1,0.997151
0.9203748365890829,1,0.997004
0.9452744813414768,0,0.989922
0.9378301569475663,1,0.995569
0.926992765267855,1,0.998981
0.9381461717595504,0,0.922749
0.9157505359508952,1,0.998030
0.9420777115399687,0,0.964687
0.9348365152538217,1,0.999545
0.9480919613219115,1,0.997754
0.9339559885766637,0,0.990721
0.9524451137601374,1,0.999259
0.9436013339499272,0,0.976671
0.9416882670139817,1,0.999692
0.930418403435065,1,0.997872
0.9257442030537156,1,0.999616
0.9396664226376916,1,0.999612
0.9526159061717308,1,0.997648
0.9565248470535336,1,0.998313
0.9571049677723892,1,0.999717
0.9624257882007475,0,0.979769
0.961735028374079,0,0.861921
0.8959446991782047,1,0.996456
0.9628378656378832,1,0.997725
0.941259357626904,1,0.999292
0.943958105587012,0,0.991287
0.9321304702411431,1,0.998481
0.9459024796404922,0,0.989295
0.9513783962001271,1,0.996601
0.9381167721342073,1,0.997426
0.9226873864941366,0,0.992369
0.9259241449068265,1,0.997056
0.9577646217682484,1,0.997828
0.947347991477912,0,0.959596
0.9630225050494168,0,0.974697
0.9522168481308032,1,0.999510
0.935892855677274,1,0.999216
0.9452503199961912,0,0.984639
0.9449714369330329,0,0.988287
0.9573771594952634,0,0.995892
0.9345212839094613,0,0.992815
0.9252140169091443,0,0.984736
0.9573144899516712,1,0.998769
0.9176325146239286,0,0.993963
0.9515227224150868,1,0.999632
0.9296356180197081,0,0.314353
0.9549947753366638,1,0.999705
0.9208368635489955,1,0.995390
0.9442696388395418,0,0.981622
0.9487734476772438,1,0.998919
0.9500186588560005,1,0.998710
0.9683930654260703,1,0.997211
0.9592056029573506,1,0.993307
0.9668690379981941,1,0.996885
0.9620715934994193,1,0.998745
0.9581550167510998,0,0.796407
0.9324883790869869,0,0.426445
0.9359642298464637,1,0.993179
0.9320467929013343,1,0.998337
0.9274627862143583,0,0.969869
0.949725640111918,1,0.998039
0.8910280435599245,1,0.999104
0.9237928596403752,1,0.999571
0.9348222125515092,1,0.995065
0.9540962505910368,1,0.998753
0.9667523172616553,1,0.997541
0.9500278747752825,1,0.998670
0.943101868422175,1,0.998137
0.9328398577115634,1,0.997299
0.9296787850942176,0,0.991481
0.9334023548144461,0,0.498308
0.9509623195308231,0,0.974929
0.9290621810041273,0,0.463294
0.9451689116286687,1,0.999621
0.9448463198037451,0,0.993495
0.9391655525282097,1,0.993778
0.9193385546916444,0,0.708186
0.8820776958113047,0,0.993127
0.84956773616672,1,0.999505
0.9421910583393551,0,0.876712
0.9394479139378871,1,0.998438
0.9181703579523373,1,0.998789
0.9363074187337843,1,0.998904
0.9625283589010143,0,0.992000
0.9514465160679919,0,0.544638
0.9438321513815975,1,0.997973
0.9550744928242653,1,0.998171
0.9201024508466323,0,0.755129
0.9128696042528354,1,0.999237
0.9275350276647684,1,0.997514
0.9576909003075857,0,0.900277
0.9323788133340974,1,0.999584
0.9260233020374649,1,0.999481
0.9239940567846476,0,0.990431
0.9371866180718573,1,0.999249
0.9625981253090875,1,0.990180
0.9523690882051492,0,0.993876
0.9355729481321996,1,0.996449
0.9066690278993947,1,0.997534
0.9360205434085307,1,0.999621
0.9461082383625276,1,0.999553
0.9238058181235481,1,0.999064
0.9527057235889953,1,0.999712
0.9560377546970841,1,0.999181
0.9477699801794971,1,0.998049
0.8995175368502719,1,0.999448
0.9550300375334697,0,0.990524
0.9332884614568957,0,0.995650
0.9091059372450467,1,0.997154
0.9499985581568817,0,0.995691
0.9296770023609707,0,0.981538
0.9271712990019775,1,0.999379
0.9600924412764517,1,0.997832
0.9199862717898594,1,0.995526
0.8975652171390632,0,0.803922
0.9247905892024353,0,0.992442
0.9526248048223871,1,0.999451
0.9353861969631388,0,0.898585
0.9495273736397816,1,0.999683
0.939235365351306,1,0.997537
0.9515987193582838,0,0.863049
0.9583127371692087,1,0.993037
0.9415988531464029,1,0.997191
0.9558027719122848,0,0.994522
0.9285298787680708,1,0.999580
0.9238010062618967,0,0.599488
0.9414661983594804,1,0.999578
0.9272845005007342,0,0.983289
0.9496436416501258,1,0.999519
0.9577071119869681,0,0.308515
0.9393225814892074,0,0.987920
0.9325454845086316,1,0.999431
0.9131969504269214,0,0.989701
0.9123823145728044,0,0.990909
0.9590319151517517,1,0.999096
0.9123639222241059,1,0.996354
0.9233576963359409,1,0.999341
0.9298028966204095,0,0.984925
0.932758848368162,0,0.964549
0.9192461315086321,1,0.999595
0.9585995691587695,1,0.998521
0.9566468263298473,1,0.998162
0.9536107307727414,1,0.984018
0.9402217042407566,1,0.998791
0.9474173097326288,0,0.980706
0.9632925931044986,0,0.903398
0.9222359434500697,0,0.990019
0.9503922341860926,1,0.999226
0.9208610837846131,0,0.991361
0.9241621924398211,0,0.538961
0.9086028574351255,1,0.998694
0.9644015975137521,1,0.999243
0.9475272871683482,1,0.997897
0.93956139367857,1,0.999250
0.9623458151087846,1,0.999250
0.8980362253741475,1,0.999627
0.9396801555326252,1,0.995783
0.9264829610265524,1,0.999082
0.9411916079107355,1,0.997578
0.9443390937545846,1,0.998707
0.9500334702901067,0,0.994986
0.9440807680468383,1,0.999567
0.9204938721637246,1,0.999506
0.9603601867127639,1,0.999112
0.9284735687482248,0,0.922697
0.93701589634712,1,0.999566
0.9405711641041462,1,0.998181
0.9619555657608236,1,0.999572
0.9300607409909342,1,0.999311
0.9733454952276109,0,0.969338
0.9695302693734275,0,0.538462
0.9511981868737013,0,0.960067
0.9203354033761443,1,0.998433
0.9394186322598403,1,0.998295
0.9527456064012474,0,0.991912
0.920539655027344,0,0.962273
0.906538289211827,1,0.998987
0.937490474189853,1,0.997701
0.9295911563378095,1,0.996647
0.9349020266561282,1,0.997323
0.9351907977559515,1,0.999426
0.9579300415388751,1,0.999627
0.9206380595603297,1,0.999575
0.9396983873634394,0,0.961236
0.8980807395335989,1,0.997240
0.9247159627502303,0,0.986370
0.9230317363119418,1,0.999446
0.9227625896965883,0,0.966576
0.8939829320301315,1,0.998188
0.9261587739580802,0,0.927609
0.9302537281504192,0,0.984436
0.9296917875555826,1,0.999275
0.9377226122804663,0,0.687885
0.9412102379138174,1,0.998948
0.9174272558282252,1,0.995354
0.9694850718157974,1,0.999684
0.9449383520212048,1,0.996853
0.937438848962858,0,0.985802
0.9389352617027823,1,0.990826
0.9428301502872454,1,0.999431
0.8373773584108954,0,0.893805
0.9343170859118769,0,0.987421
0.9366202044120747,0,0.723320
0.9630998920309783,1,0.999689
0.9412773332711095,0,0.660222
0.9066644862347438,0,0.977343
0.9353149265993648,0,0.939394
0.8792023495590026,0,0.984564
0.8900639233422172,1,0.999597
0.930900757893742,0,0.756368
0.9340297665309366,0,0.743873
0.9325113485027482,0,0.721550
0.9336639957058588,0,0.681631
0.9335518842596564,1,0.999636
0.9375508662723238,0,0.994646
0.9656697402022265,1,0.998624
0.9411599914324691,0,0.993965
0.9556926139908055,0,0.958216
0.9312930465628392,1,0.997567
0.9363065108196571,0,0.976357
0.9315023018449765,1,0.999376
0.9461882804896098,1,0.995868
0.9745093356140665,1,0.998047
0.9602362056440632,0,0.991249
0.9653981337723304,1,0.995804
0.9667153222419845,0,0.966874
0.9501469402942674,1,0.997872
0.968350148046706,0,0.987013
0.9001166157449791,1,0.998567
0.9313115426428024,1,0.999484
0.9146927815764151,1,0.998789
0.9284869397191071,0,0.992366
0.9433867344780932,0,0.991279
0.923740099909038,0,0.985314
0.9601911478306024,1,0.997428
0.9392501074674635,1,0.999496
0.931399335151595,1,0.998340
0.9352450348592523,0,0.990590
0.9169444465323688,1,0.999636
0.9353675611009459,0,0.815500
0.934200090726253,0,0.877912
0.913382464948586,1,0.999282
0.9524128027979446,1,0.999002
0.9105297535183317,1,0.999430
0.9491647863666396,1,0.999413
0.9045446554989952,1,0.999380
0.9386657673885656,1,0.999595
0.9608828086332931,1,0.998331
0.9320801367069582,0,0.362390
0.9218815583151155,1,0.997520
0.9504104773055974,1,0.997034
0.9232931886240593,1,0.999161
0.9416452920203607,1,0.998759
0.9269314024038013,1,0.999498
0.9414169858929384,1,0.998919
0.9664973934880161,1,0.999572
0.9435677955286318,1,0.998987
0.9552611469679646,1,0.999416
0.9456858816296266,0,0.978634
0.9162994502193627,0,0.942918
0.9282087776314556,0,0.765770
0.9566729743458043,1,0.999607
0.9309260966181325,0,0.983768
0.954642756228457,0,0.921446
0.9371325399917211,0,0.985324
0.9320664036194183,0,0.968680
0.917246147956947,0,0.992806
0.9573386694871582,1,0.999670
0.9544547068499222,0,0.994131
0.9010407693800029,0,0.992584
0.9391192822991152,1,0.999211
0.9462266175229673,1,0.998849
0.9605764903431602,1,0.996135
0.9534304376674321,1,0.995676
0.94632694016301,1,0.996805
0.9500805857915787,0,0.976137
0.9146857347484579,1,0.999256
0.9449631850055613,0,0.682171
0.9310231014749882,1,0.999316
0.936857247212212,0,0.986617
0.9414197099625423,1,0.996426
0.9335140359083768,0,0.750312
0.9336216457131362,1,0.999388
0.9538248898305457,1,0.999481
0.9100124831647192,1,0.999505
0.9380282189701281,0,0.954451
0.9126120327972304,1,0.999509
0.9623045715274168,1,0.999042
0.9390984519126669,1,0.998912
0.9278263769407243,1,0.999403
0.9253204169124183,1,0.998980
0.94702846982484,0,0.961447
0.9479088947305745,0,0.807869
0.8945153635444537,0,0.928495
0.9399878746694773,0,0.243254
0.8925396099229688,0,0.731134
0.8430866712622659,1,0.999643
0.9218327486685978,1,0.999671
0.9339377008551148,0,0.459835
0.9065111207205493,0,0.362290
0.9318499985424898,1,0.998874
0.9478465734190521,0,0.974937
0.9659087898706318,1,0.996063
0.9584411081378924,1,0.996661
0.969051944342308,1,0.995338
0.9533346349341546,1,0.986517
0.9625191844231823,1,0.998177
0.9636082689387296,1,0.994655
0.9497435332458308,0,0.349147
0.9301184515228752,1,0.999476
0.9363568240743558,1,0.998605
0.9301366861630139,0,0.207497
0.9583091096717585,1,0.991556
0.9652473117038166,1,0.999622
0.943282768362115,1,0.999635
0.9303490659062393,1,0.999558
0.9467154342931133,1,0.999208
0.9374549386657542,0,0.287081
0.9260487108938388,1,0.999128
0.9292443072186634,0,0.555491
0.917345485189648,1,0.999630
0.9291541508683782,0,0.325409
0.9489773668776855,1,0.999310
0.9299023826552896,0,0.993569
0.9313150726331495,0,0.305027
0.9503474973162213,1,0.999546
0.9192574044336469,0,0.994186
0.95678732127505,1,0.999484
0.9267560355192411,1,0.999031
0.934689405005144,1,0.999344
0.9330816508727311,1,0.992288
0.9679713683174178,0,0.995460
0.9236996782579544,0,0.136880
0.9212259274912005,0,0.741405
0.9486084480852566,1,0.999601
0.9297456163024561,1,0.999001
0.9070321955654765,0,0.549972
0.9643195942974424,1,0.999250
0.9613469803586522,1,0.998632
0.9531839654183831,1,0.998453
0.94160112030782,0,0.779841
0.9573401469173183,0,0.989280
0.9027859775355146,1,0.997846
0.953171990137478,1,0.999615
0.9328147603986653,0,0.300174
0.9827706451135343,1,0.999229
0.9307078230531346,0,0.995372
0.9411829858601103,0,0.673783
0.9335935762203799,1,0.999637
0.9353658978572593,0,0.114395
0.9510590718833482,0,0.992822
0.9348370495857595,1,0.999577
0.9501172917008424,1,0.999413
0.92661734837324,1,0.997045
0.9223205755662978,1,0.995579
0.962769173958684,1,0.998302
0.9558311616933544,1,0.999347
0.9556498766710426,0,0.969441
0.9446678917517541,1,0.998291
0.9067961121160368,1,0.998032
0.9250240455113462,0,0.995578
0.9520214631484056,1,0.999660
0.9423697327415435,1,0.995490
0.9247626095449359,1,0.998782
0.9309949843187997,0,0.770751
0.9498562486561271,0,0.985798
0.9382003453980579,0,0.954019
0.9376392847377892,0,0.522411
0.9564835882469128,1,0.999652
0.955137089767776,0,0.992405
0.9418060588234998,0,0.971915
0.9579797685719661,1,0.999595
0.9593153168655297,1,0.998217
0.9470987166358936,1,0.999414
0.9612965399265626,1,0.998857
0.9483707553596048,0,0.405904
0.9194834623480947,0,0.988544
0.9521461021487844,1,0.995313
0.9415414034805294,1,0.999611
0.9635937965845573,1,0.999280
0.9595674651505975,1,0.998683
0.9416173302083728,0,0.993946
0.8724273639814755,1,0.999625
0.9236416333066133,1,0.995878
0.9489457343698942,1,0.996705
0.9219637488174957,0,0.230544
0.965472854964005,1,0.997828
0.949230245516671,1,0.997509
0.9617641568471239,1,0.998120
0.9593119105313419,1,0.996226
0.9561951398689215,1,0.998756
0.943080704387464,1,0.999215
0.9420853142889177,0,0.497912
0.9324478924728722,0,0.523747
0.9455738811611483,1,0.998876
0.9251491580400969,0,0.516096
0.9640650045808834,1,0.999062
0.9681617568924796,1,0.999018
0.9514856732539957,0,0.996037
0.9720847114240156,1,0.998890
0.9553156313975626,0,0.964972
0.9504664676802349,1,0.995290
0.9514626421496132,1,0.999544
0.9283451945499479,1,0.998510
0.9512962864016596,0,0.855124
0.9612628299853452,1,0.999177
0.9253122471461949,1,0.996534
0.917711754106162,1,0.997245
0.944411527382531,0,0.818745
0.9284965817790688,0,0.534200
0.9293007690721317,0,0.976488
0.9151338974218579,0,0.979508
0.8570497758583852,0,0.903147
0.9335378002439254,0,0.945176
0.9272583072062203,0,0.912995
0.9491605777216563,0,0.911392
0.9590185652794805,0,0.567578
0.9259468771298124,1,0.999582
0.9267218974984773,0,0.286989
0.9356704347132997,1,0.998216
0.9433558553216794,1,0.996617
0.9561884991847959,0,0.995303
0.9271359760510289,1,0.997732
0.9228011062571155,1,0.999654
0.9055937262299075,1,0.999623
0.9281109481730939,1,0.999613
0.9552995891148757,1,0.999220
0.9280308246136706,1,0.998708
0.92983321232013,1,0.997444
0.9427593666620958,1,0.999642
0.9541219105154788,1,0.999601
0.9422554403061113,0,0.977281
0.9265367475194171,1,0.998749
0.9066288808813351,0,0.474188
0.9465406535365882,1,0.999572
0.9432662240115758,1,0.993448
0.9261087387779601,1,0.998343
0.9332933643664401,0,0.994917
0.9643839500876221,0,0.906985
0.9422910541960895,1,0.989990
0.9568547628259934,1,0.998858
0.9427636784607022,1,0.996678
0.9460022034260335,1,0.995658
0.9317363933715527,1,0.999325
0.9358533515237742,0,0.819648
0.9636202337973601,0,0.994229
0.9761520184717504,1,0.999624
0.926833401184662,0,0.286438
0.9294810556747855,1,0.998217
0.9679333559179382,1,0.999210
0.9161264885418642,0,0.995905
0.9561036354724936,1,0.998597
0.9253425690828813,0,0.990092
0.9391050267868155,1,0.999264
0.9579011249100392,1,0.988649
0.9484861427522893,0,0.961207
0.9519105091885415,1,0.998489
0.9577401033004282,1,0.998331
0.9680303099834449,1,0.995516
0.9052759715250466,1,0.997892
0.9030545994743628,1,0.998067
0.9440721879252237,1,0.998704
0.9548015911932239,1,0.998815
0.9471068232890099,1,0.996881
0.9504678847463022,1,0.998250
0.9491252921818838,0,0.982780
0.9530594537423255,0,0.980901
0.9449806299982759,1,0.999310
0.9318559249382536,1,0.999303
0.8984903017589563,0,0.993885
0.9413593395365679,0,0.908015
0.912284811940506,0,0.981567
0.9617269358332536,0,0.993729
0.9604686542572318,1,0.998525
0.9603024358491855,0,0.993486
0.8975648165844862,1,0.996744
0.9542567850234723,0,0.975560
0.9579331044719442,1,0.999591
0.9292928981431036,0,0.941611
0.8623407172959588,0,0.695072
0.8763083923205136,1,0.998202
0.9453513859206898,0,0.989961
0.9728987321984168,1,0.999117
0.9539005698225784,0,0.968097
0.9459033596145853,1,0.999617
0.9636871640397578,1,0.998681
0.9700228025330863,1,0.999374
0.9634859568299086,1,0.999531
0.942349787737038,1,0.996069
0.9040857977353034,0,0.929387
0.9451845843165742,0,0.972562
0.8851786987061824,1,0.999689
0.9121923618455433,0,0.671746
0.942904797865619,1,0.999686
0.9479099933331914,0,0.992851
0.9550460696367157,1,0.999700
0.9244960859019002,1,0.999393
0.9550770893871618,1,0.996891
0.9633332728166893,1,0.997680
0.9239033955044587,1,0.997209
0.9036034329750922,0,0.984527
0.9549254987256323,1,0.998855
0.9346478009997441,1,0.997278
0.9518307071253442,1,0.997274
0.943428300806872,1,0.999209
0.9074381958090152,0,0.914463
0.9195001801139092,0,0.991301
0.953545296618299,1,0.997879
0.9461785146757842,0,0.937149
0.9418401834730157,0,0.994431
0.9670476967691063,1,0.998378
0.9471731180745172,0,0.958446
0.9430249332554222,0,0.977954
0.9397367479748497,1,0.999495
0.8516572364221416,0,0.246179
0.9436336274250614,1,0.996511
0.9401183925067458,1,0.999028
0.9508024988336242,1,0.998704
0.9489964004108421,1,0.999639
0.9347384565379375,1,0.997472
0.9655466370858281,1,0.986985
0.9785608423016388,0,0.995383
0.960043391454471,0,0.925041
0.9208469888916563,0,0.961955
0.9437710450448483,0,0.991075
0.9289888399977296,1,0.998530
0.8729784811257092,0,0.967648
0.9199913264003132,1,0.999682
0.9518604895486232,1,0.999606
0.9428492389780522,0,0.322996
0.9343426831892541,1,0.999511
0.9417915469369138,1,0.999272
0.9320009328941289,0,0.987138
0.9241928365079638,0,0.992315
0.940169492008038,0,0.989880
0.9647340614874663,1,0.999440
0.9603771943082074,0,0.981326
0.9494824051420879,1,0.999388
0.9476961196888561,1,0.999503
0.9381403422566277,0,0.992188
0.9060730230982814,1,0.996212
0.9593860532806713,1,0.999640
0.9430762802494657,1,0.993793
0.9359160227695145,0,0.892196
0.9535169826137223,1,0.999043
0.9573641801305474,1,0.996508
0.9657323205388478,1,0.999438
0.9633290129739557,1,0.999389
0.9494569815778579,1,0.999298
0.9311452442612326,0,0.972136
0.9397071920312308,0,0.994833
0.9555128985973993,1,0.999433
0.9290487714173539,1,0.999560
0.9375263654860548,1,0.997698
0.9475057503795433,1,0.997795
0.9397244335549574,1,0.998830
0.9505940610906751,1,0.997455
0.966558681620645,1,0.999449
0.9632289712836707,1,0.999532
0.9349000574632372,1,0.999587
0.9451969469693118,1,0.999540
0.9706335947500568,1,0.994962
0.9594571438351666,1,0.999646
0.9515986220736262,0,0.994855
0.9377884692290636,1,0.999582
0.9223488613932793,1,0.999524
0.9350093135446371,1,0.999568
0.9262120025955868,0,0.994924
0.961056902668849,1,0.999112
0.9325905507274187,1,0.997532
0.9221309586494097,0,0.448942
0.9698220798267553,1,0.999626
0.9329928922615598,1,0.999344
0.9756742909702433,0,0.984405
0.945269352463373,0,0.994177
0.929472426320677,1,0.997698
0.9406588176095412,1,0.999259
0.9373266182048142,1,0.999612
0.8957931868414063,0,0.991298
0.9316396627978344,0,0.996265
0.9477193185188693,0,0.995199
0.9552862495047943,1,0.998089
0.951428745014708,0,0.995918
0.9523455163394422,1,0.999502
0.9414983661775186,1,0.999402
0.9531353084497379,1,0.999595
0.9603676766596227,1,0.999666
0.9445104035488425,1,0.995204
0.9793999260435146,1,0.999623
0.9682945504610186,0,0.996366
0.9454807609993454,1,0.995646
0.9464742280140207,1,0.998762
0.971209584944872,0,0.253337
0.9632611189524766,1,0.998399
0.9482836319846683,1,0.998859
0.9556001820669248,0,0.991982
0.9415382642290067,1,0.997040
0.9061233948892731,1,0.999167
0.8754664348470956,1,0.997807
0.9711409916159949,1,0.999032
0.9506274276811345,1,0.995759
0.9164464849125374,1,0.998040
0.941883312175911,1,0.999323
0.9086713266312232,1,0.998433
0.8819522081658145,1,0.995524
0.9317946429527694,0,0.990167
0.9286115480000556,1,0.999132
0.9018841572120204,0,0.962638
0.9285100466613185,1,0.999663
0.9419332309251114,1,0.999426
0.9459156781620716,1,0.998753
0.9403335599744782,0,0.897334
0.9295002001463275,0,0.459694
0.943084137572316,1,0.998266
0.9481354589740925,0,0.989542
0.9358562568457593,1,0.995117
0.9466918659199914,0,0.992744
0.9590267452741219,1,0.999626
0.9481550566748412,1,0.999276
0.9050758848525542,1,0.998750
0.9072555596376135,0,0.945169
0.9311668542768818,1,0.996007
0.9038203336050517,1,0.993333
0.9320617768124916,1,0.997472
0.9429763945833078,0,0.984056
0.9672356539078738,1,0.998812
0.9348962713879657,0,0.995527
0.9429274589803729,0,0.911111
0.9478879024536089,1,0.998695
0.9612312102419038,1,0.999356
0.9575074381134717,1,0.999031
0.9444298802904543,0,0.990614
0.9594911161215122,0,0.978758
0.9420355842776555,1,0.998580
0.9207924393296957,1,0.998844
0.9402892253441854,0,0.990499
0.9443908117779898,0,0.270052
0.9497987699986271,0,0.257221
0.9079701515350184,0,0.754140
0.9600244699923215,1,0.998264
0.9485063696520634,1,0.989293
0.9692071134676027,1,0.992982
0.9754739406746655,1,0.997845
0.9295604078586095,0,0.430473
0.925151258438163,1,0.997797
0.9202671682184772,1,0.996888
0.966301896534888,0,0.275434
0.9425513583725077,1,0.992390
0.9433516311657775,1,0.998647
0.9243300406135792,1,0.991206
0.9291183586095887,0,0.962401
0.9482613702672806,0,0.991446
0.9205167012349603,1,0.998797
0.9485268806770727,0,0.994168
0.9588344393381711,1,0.999442
0.9437589340261093,1,0.996403
0.9491865619283593,0,0.989200
0.9426678080191782,1,0.996977
0.943092825306347,1,0.999375
0.9270061383201411,0,0.427726
0.948689108207764,0,0.992958
0.9523071503009528,1,0.999146
0.9435180337203465,0,0.993510
0.9394926780052566,1,0.999067
0.9193802900355409,0,0.975682
0.9537675977216784,0,0.138916
0.9453488913923355,0,0.988428
0.941148054015931,0,0.880240
0.9267746553982311,0,0.815469
0.94656182348181,1,0.995501
0.9177359910405405,0,0.988071
0.9058253139781142,0,0.509868
0.9515269268042452,1,0.999606
0.9493122959140373,1,0.995749
0.9437269073332332,1,0.999327
0.9574318698213157,0,0.991509
0.958193327073493,1,0.999675
0.9624161383405464,1,0.998513
0.9542147140462309,1,0.999321
0.9389376006586264,1,0.999654
0.9242186012814047,1,0.999650
0.8857542482987533,1,0.997889
0.9491230138914777,1,0.997897
0.9475331338880397,0,0.987681
0.9579171959702099,1,0.997768
0.9304961219368103,1,0.999675
0.9448105228080508,1,0.996689
0.9296206978773454,0,0.798153
0.9155360658280087,1,0.997071
0.9206928228223664,1,0.997290
0.9365563600190571,1,0.999366
0.9315182273427691,0,0.986231
0.944079989852997,1,0.999303
0.959472079474583,0,0.992981
0.9576541421676031,1,0.999664
0.9397978036590087,1,0.999354
0.9531927665568354,1,0.999090
0.9645997267653794,1,0.999539
0.917158780701064,1,0.999377
0.9321130752024598,1,0.999448
0.9521476766754204,1,0.998860
0.9399729577661464,1,0.999550
0.9417351576498058,1,0.997099
0.9274578015740157,1,0.999366
0.905434427394916,0,0.996730
0.925368860961174,1,0.999549
0.9378689578915372,1,0.999586
0.949270254284665,1,0.999157
0.9202190614349435,1,0.997308
0.9477689491123896,1,0.998113
0.9553903771876855,1,0.999518
0.9379464200472512,0,0.502564
0.9586724315030333,0,0.986948
0.9480042904713507,0,0.992134
0.9263279872210375,0,0.984705
0.9392229214784383,1,0.999224
0.9626209150998102,1,0.995731
0.9576808633035327,1,0.999670
0.9350519853292782,1,0.999573
0.9353706883743902,1,0.997513
0.9386448071261695,1,0.999621
0.939160485944464,1,0.999620
0.865048804095232,0,0.209953
0.971802564566083,0,0.224462
0.9687712970179574,1,0.999703
0.9396239409860049,0,0.147683
0.950637913929637,0,0.810737
0.9415252173338832,1,0.999525
0.9463219285934125,1,0.999300
0.9583152995219373,1,0.993925
0.9502281123904418,0,0.979083
0.9695692533816382,0,0.989735
0.9656924811065121,1,0.997582
0.9543110578308057,1,0.999277
0.9168644267423869,0,0.988592
0.9420346760450062,0,0.965411
0.9450732188246057,1,0.999670
0.9203202698950739,1,0.999088
0.9391070606830677,1,0.999320
0.924083647591243,0,0.991730
0.95134615796059,0,0.989767
0.9343880618990241,0,0.992736
0.9581813046278146,1,0.999688
0.9343516046471483,0,0.986095
0.9397713837836197,1,0.996183
0.9232107856518285,1,0.997492
0.9326769474555527,0,0.564441
0.9146549466809815,1,0.997429
0.9272531201196602,1,0.999151
0.9686154441767689,1,0.997463
0.9255214254296436,1,0.997715
0.9489368074856024,1,0.998251
0.9287762790918042,1,0.998283
0.9251527181817424,0,0.451327
0.9557279646475532,1,0.999671
0.936361523904539,1,0.999477
0.9189842906298384,1,0.996479
0.9539383481553346,1,0.998854
0.9230847977892506,0,0.972438
0.9603079636721908,0,0.958049
0.9348009866194811,0,0.980769
0.9184169128572494,1,0.996270
0.9204044419928381,0,0.996671
0.9322775646191279,1,0.999578
0.9507639123327819,0,0.989369
0.9265885590898005,1,0.999599
0.9471417414147606,0,0.992259
0.9314682021930782,0,0.990484
0.9471262732666477,1,0.999451
0.9499610168055351,1,0.999561
0.9570757323432572,1,0.999686
0.9603929888798532,0,0.982149
0.9272189196032974,0,0.483012
0.9309471232507124,1,0.999010
0.9326088426972813,1,0.999660
0.9312093726327574,1,0.999427
0.961250636648245,1,0.999318
0.9328582395825913,1,0.996224
0.9205870061277528,0,0.989685
0.9703389339159004,0,0.746164
0.9295891577850501,0,0.995141
0.9588899804379106,1,0.999660
0.9692800944953838,1,0.998661
0.9656596349650125,1,0.997608
0.954644822766369,0,0.980437
0.9650391228047599,0,0.975000
0.9546285111934157,0,0.991186
0.9049735444231614,1,0.992945
0.910115069068223,0,0.401974
0.9335303311492761,1,0.997236
0.9111697397697817,0,0.985038
0.9448097323934227,0,0.988348
0.9320117564514927,1,0.998915
0.9122023057191554,0,0.551948
0.974722753244805,0,0.978618
0.9686801297505512,0,0.958880
0.9583650022407731,1,0.995614
0.9418172016817088,1,0.999327
0.9244379933792267,0,0.987941
0.9250397220218836,0,0.989782
0.9458758383516416,0,0.976065
0.9244476144786209,1,0.994895
0.9381977332031719,0,0.995460
0.9728767451470376,1,0.999626
0.9531673891363676,1,0.997903
0.9155677498585265,1,0.999400
0.9567407345139635,1,0.997082
0.9601817393616543,1,0.995485
0.9422155981895459,1,0.997329
0.9221954596350511,0,0.977022
0.9511092012367512,1,0.998866
0.9419939397528133,1,0.998373
0.9279039128064536,0,0.980507
0.9488059314310685,0,0.927885
0.9594273349851322,1,0.999582
0.940252869115904,1,0.998260
0.9501296327637362,1,0.999626
0.9523569514962953,1,0.999586
0.9364611319546289,0,0.995052
0.9248441552402055,0,0.109589
0.9171106467877572,1,0.999402
0.9416948663812456,1,0.998499
0.9377174049180351,1,0.998367
0.951663107060373,0,0.903545
0.9610895134028407,0,0.993714
0.9622218227412241,0,0.974631
0.9164836447087408,1,0.999260
0.9605856012715065,1,0.999696
0.8813458048967855,0,0.996181
0.9422820962973217,0,0.336810
0.9748642308298726,1,0.999640
0.9616990174235571,1,0.998985
0.9285172808656648,1,0.999042
0.9429910724684805,0,0.979600
0.944179004729437,1,0.997394
0.9559756413752126,0,0.981458
0.9560623691457335,1,0.999539
0.9447718171533372,0,0.987226
0.9633176003579519,1,0.999492
0.9123704595712488,0,0.964934
0.9344173856632589,0,0.994750
0.9558559503264407,1,0.999634
0.9260380591297722,0,0.987194
0.9248130320731078,1,0.999579
0.9620794627245639,1,0.998259
0.9649583999284513,1,0.998955
0.9500569944460049,0,0.980565
0.9306897510491882,0,0.992491
0.9654065515542638,1,0.999672
0.9488138995065974,0,0.963037
0.938039191148882,1,0.999539
0.9315736318108641,1,0.995276
0.9437835358875174,0,0.990519
0.9195226250625919,1,0.999245
0.954503942391452,1,0.999579
0.9523679561727423,0,0.849558
0.9594479861257298,0,0.993792
0.9550676772248018,1,0.999637
0.9541966126534274,0,0.958918
0.9679358955102121,0,0.996555
0.9099973326239266,1,0.999322
0.8985484804402271,1,0.999554
0.9605882790768259,1,0.998505
0.9463472110581871,0,0.996288
0.9376658444827684,0,0.733141
0.9351774667015007,1,0.999369
0.9528104997997279,1,0.998325
0.9540609517240657,1,0.997187
0.9743409459020416,1,0.995720
0.9629385405424542,1,0.999011
0.9573597857266057,0,0.994188
0.9552823575117219,0,0.985002
0.9248337524081679,1,0.998201
0.9683124304875207,1,0.998369
0.9576900757577884,1,0.999416
0.9551975319947913,0,0.968344
0.9513058224460691,0,0.295720
0.9500396724603312,1,0.997145
0.9143474822473221,1,0.999146
0.9391627310599495,0,0.982869
0.9248427914386972,1,0.999685
0.9340539188359203,0,0.256548
0.9577016788588343,1,0.999071
0.9220571001350549,1,0.998672
0.9380192303897689,1,0.992456
0.9222958603122959,0,0.996167
0.924663083908391,1,0.999537
0.9574229417916479,1,0.997074
0.9466766249404842,0,0.987179
0.916268699302254,0,0.981118
0.919823765522578,0,0.921645
0.9494040924812426,1,0.997878
0.958163931237723,1,0.987928
0.9657353779552806,0,0.991908
0.9591477072674705,1,0.999086
0.923259787396696,1,0.999583
0.9102152470494398,1,0.999571
0.9118843261943387,1,0.997877
0.9336470496705696,1,0.997508
0.9609381797396629,0,0.727382
0.9188266405710706,0,0.471687
0.9356208125166335,1,0.998085
0.8650956744429747,0,0.547521
0.9406635841684267,1,0.999105
0.9467633580880626,0,0.980682
0.941465040764229,1,0.999173
0.951665879495029,1,0.996802
0.9418311562932045,0,0.954696
0.9469985046809944,0,0.971490
0.9492336055188353,0,0.977918
0.9247858556516663,0,0.847362
0.9675794538397318,1,0.998819
0.9275993041854609,1,0.998622
0.9411079108322798,0,0.979737
0.9557381182794435,1,0.998031
0.953127777763832,1,0.996935
0.9258451571741313,1,0.998150
0.9475384210224265,1,0.999532
0.9620417400269343,0,0.993084
0.9393346388915759,1,0.999423
0.9339889110900135,1,0.999271
0.9202295732468923,1,0.998711
0.952025757736806,1,0.993610
0.9540302615589559,0,0.978723
0.9258328459679305,1,0.998793
0.9589256273303312,1,0.999225
0.9481573351673886,1,0.997273
0.9379784776882576,1,0.998856
0.9183835924713086,1,0.999015
0.9357884305175068,0,0.984441
0.936824222691822,1,0.998965
0.9607732768659364,0,0.990927
0.9517933801411043,1,0.999618
0.9545472559225235,1,0.998740
0.9664579194180601,1,0.999169
0.9546534230117909,1,0.999553
0.961371276114807,1,0.997099
0.9521162497236694,1,0.999671
0.9417238536476068,0,0.990047
0.9427105166528548,1,0.998384
0.9634084056397392,0,0.971831
0.9377071751620397,0,0.980341
0.9425062568294408,1,0.999496
0.9243177708893998,1,0.999548
0.9407976355227488,1,0.999657
0.9665839927010612,1,0.997459
0.9466795808758558,0,0.436861
0.9171000719322816,0,0.964486
0.9636941201445,1,0.994854
0.9467224188997275,1,0.998843
0.9182284627664584,0,0.894521
0.9517144582419048,0,0.453326
0.9588829420350456,1,0.998015
0.9066465504797829,0,0.900306
0.9611511174570293,0,0.992987
0.9415113024923487,0,0.469949
0.9557649977118762,0,0.994338
0.9659239543324342,1,0.998689
0.91118608107744,1,0.996556
0.9418172251842899,0,0.991046
0.9554841772936514,1,0.996571
0.9290029228582486,1,0.999549
0.9242560077992791,1,0.996231
0.9381044920613918,0,0.995687
0.9520828386583173,1,0.999074
0.9505891362040759,1,0.996137
0.958648839068814,0,0.972204
0.9395255108350691,1,0.999579
0.9694731667172696,0,0.996407
0.9552754256193798,1,0.999442
0.9422167067876613,0,0.985151
0.9189668788021843,1,0.999324
0.9318605541228129,0,0.917582
0.9552838763487883,1,0.991908
0.9668241874844599,0,0.986982
0.9687859014565983,0,0.994752
0.9220764387181836,0,0.915502
0.9502895804779995,1,0.999655
0.9331400558083868,1,0.999295
0.9227668115271266,0,0.981199
0.9494645631418672,1,0.999481
0.9251939267943357,1,0.994505
0.9386630124136454,0,0.993103
0.933937499158504,0,0.940229
0.9501183372514026,1,0.997651
0.923594768509106,1,0.999113
0.9417997991998349,1,0.997790
0.9579370597278132,0,0.991969
0.957368850164971,0,0.114923
0.9475785532568629,1,0.997199
0.958202891538663,1,0.999634
0.9458534942638125,1,0.999124
0.9555539723219644,1,0.998100
0.9307984575372742,1,0.997834
0.924313424403868,0,0.996835
0.9359256047682648,1,0.999484
0.9066773944580276,1,0.992872
0.9488465455307722,0,0.978843
0.9474438080204494,1,0.996759
0.9381797739667388,1,0.999550
0.9089041882072147,1,0.999509
0.937600155759532,0,0.370884
0.9465871234426766,0,0.992351
0.9395880090208697,0,0.969130
0.9406154805166145,0,0.991416
0.93530814474746,1,0.999243
0.9451492569092395,1,0.999620
0.9415277623943888,1,0.997164
0.9500944562668304,1,0.997165
0.9331007782640462,1,0.999616
0.9273907670640786,0,0.721969
0.9626400602343664,0,0.995354
0.9464619834289277,1,0.997997
0.9405381979601284,1,0.999624
0.9420067240994552,0,0.991453
0.9486274128212848,0,0.995779
0.9470352134865432,0,0.976852
0.9211457783084963,1,0.998378
0.9600107549386807,1,0.999587
0.8906341883068638,1,0.999704
0.9281457430097415,1,0.997255
0.9289183575671378,0,0.953698
0.9111529442169966,0,0.574359
0.9359628203482019,1,0.995333
0.9460345874315476,1,0.998322
0.9456278452326438,0,0.231475
0.9322937344257054,0,0.974837
0.9388729655277117,0,0.743985
0.9437733211074788,0,0.991491
0.9279490227687457,1,0.999503
0.9446551321169434,1,0.997824
0.9462262753440778,0,0.991310
0.9491402725767918,1,0.999061
0.9566032250293778,0,0.988391
0.9418734375563605,1,0.999059
0.9524181225953035,1,0.998654
0.9680791930293425,1,0.997549
0.9287246179259038,0,0.991277
0.9667997489573824,1,0.999525
0.9425357910739778,1,0.998768
0.9699006034122422,0,0.953083
0.9219989667361522,0,0.994416
0.972250102977909,0,0.995128
0.9574657300491215,1,0.999468
0.9186907975220003,1,0.999222
0.9687118555639389,0,0.972973
0.948647100452128,1,0.998397
0.9457334059826022,1,0.999639
0.9331577469102753,1,0.999474
0.9639660287793643,0,0.993464
0.9248386142178662,1,0.998205
0.9144306342180559,0,0.669456
0.9334003762540554,0,0.957983
0.9249616564920988,1,0.999532
0.9681152683704671,1,0.996521
0.9311514697600933,0,0.599060
0.9529719759202223,1,0.999624
0.9361537145283189,0,0.980349
0.9721555305933245,1,0.984536
0.9766402387831113,1,0.989381
0.9654444980861759,0,0.917112
0.9597192127642743,1,0.995935
0.9491379829578485,0,0.982983
0.9283419458808568,1,0.999448
0.9354261698600425,0,0.832391
0.9404438598162705,1,0.994577
0.9377921393241322,0,0.992500
0.947157987924876,1,0.999641
0.9633813022294029,1,0.997925
0.9597057828540423,0,0.299861
0.9265870241637183,1,0.991660
0.9274093382440984,0,0.992925
0.9576458310263247,1,0.997426
0.9416096297538312,1,0.999251
0.925146540079385,1,0.999497
0.9352875989341155,1,0.997267
0.955666478120181,1,0.999604
0.9513810053983707,1,0.999608
0.9235074752057032,1,0.995949
0.9309016036030201,0,0.988350
0.9518176556214453,0,0.988912
0.925373377459034,0,0.973795
0.9436012055257542,0,0.909197
0.9552293880541032,1,0.999108
0.9354439939707934,0,0.994398
0.9441604609277727,0,0.372896
0.9407261018264295,1,0.999596
0.9342416736311026,1,0.999608
0.9037130550855865,1,0.999594
0.9558104649106552,0,0.228210
0.9384385841898577,1,0.998182
0.9690468923437023,1,0.998214
0.9570750453583742,1,0.999538
0.9352185191353266,1,0.999101
0.9741023651721165,1,0.998259
0.9392912050033705,1,0.997942
0.9405134568216516,0,0.992254
0.9415771607346128,1,0.998436
0.9474043846193924,1,0.999643
0.9678823296482124,0,0.399394
0.9266090873069643,0,0.177628
0.93102429354216,1,0.998821
0.9592935908618474,0,0.965583
0.967121746859597,1,0.994881
0.9693815611960608,1,0.997758
0.9728986203840393,1,0.999725
0.9725950651412275,0,0.327630
0.9559715535146334,0,0.995661
0.9436680301400993,0,0.308211
0.9093695256724723,0,0.888395
0.9340284334340198,1,0.997497
0.9271566282826316,1,0.998268
0.9402620306318126,1,0.999049
0.9509653164248817,1,0.999435
0.9842904495810016,1,0.996962
0.9499187737482286,0,0.771678
0.9555618433145452,1,0.999457
0.9359723891854971,0,0.923137
0.9408747200301514,1,0.997140
0.9547935189753196,1,0.998542
0.9491011975407959,0,0.912174
0.9554317477390655,1,0.999580
0.9422188122618124,0,0.986409
0.944168295178581,0,0.622699
0.9372585897285993,1,0.999558
0.9528652437995222,1,0.998588
0.9372856635141394,1,0.997727
0.9608832373286451,1,0.999654
0.9455057911390805,0,0.959215
0.9140855438131603,1,0.998159
0.9612673203357847,1,0.999621
0.9375142127100086,1,0.999221
0.9283400168552599,1,0.995365
0.959184750366247,0,0.979895
0.9446908816509434,0,0.992527
0.9357398367812608,1,0.999670
0.8925060686221465,1,0.998555
0.9709459657628982,1,0.995970
0.9841144755370115,0,0.986670
0.9426002230509493,0,0.994836
0.9308728148648602,0,0.983529
0.9199840646405076,0,0.289648
0.9304338309879406,1,0.998183
0.9510598139428583,0,0.986813
0.9446965947582499,1,0.999542
0.9268986182522436,1,0.998357
0.8688883596791818,1,0.998927
0.9211624138032507,0,0.994368
0.948565714133924,0,0.993868
0.9245977807764476,1,0.997736
0.9237434227946612,1,0.999626
0.9365712670835254,1,0.998525
0.918443962599309,1,0.997168
0.9449892205656326,0,0.218035
0.9453473165971299,0,0.274070
0.9576531608166204,0,0.988658
0.9544600927511598,0,0.975809
0.9240283899626236,0,0.957746
0.9613234552256423,1,0.997862
0.9475376381365856,0,0.722104
0.9550994579359512,1,0.999352
0.9295067985386524,1,0.998888
0.9290813349075152,0,0.292567
0.9783637545915209,0,0.985310
0.9816114100871781,1,0.988994
0.9510173101844482,1,0.989051
0.9646457617004492,1,0.997828
0.9503343026611251,0,0.178891
0.935155437863426,1,0.999125
0.9324333603822731,1,0.995625
0.9433178143035141,0,0.855356
0.9467020995673264,1,0.999352
0.9524922448706435,1,0.999509
0.9321947004504331,1,0.997351
0.9603586151816093,1,0.997443
0.9099711645814244,1,0.999283
0.9116284287744589,0,0.971243
0.9549205800805725,1,0.999676
0.8952159634970154,1,0.996085
0.9219373133107378,0,0.233522
0.9457311618408992,1,0.999679
0.9581479548974746,1,0.997661
0.922565574308036,0,0.924686
0.9368535732675998,0,0.994542
0.9473376468227375,0,0.484788
0.9724862109592821,0,0.927061
0.9554925401284267,0,0.992406
0.9613736690574585,1,0.999362
0.95587830420626,1,0.999190
0.9509627807090631,1,0.995961
0.9077016716970593,1,0.998730
0.9270916150956743,1,0.999488
0.9244384847490795,1,0.998672
0.9726270412007603,0,0.755308
0.9558485038408254,1,0.999598
0.93070497599199,1,0.996350
0.9238804086231067,0,0.657842
0.965732959314349,1,0.999608
0.9513608127389279,0,0.567594
0.9529221323123627,1,0.996724
0.9541913289640732,1,0.997571
0.9174093086797146,0,0.973718
0.9264393825290264,1,0.997052
0.9415595816491013,0,0.994324
0.931136426749831,1,0.998748
0.9485411307418723,1,0.999316
0.9384075374085264,0,0.994439
0.9156650451211857,1,0.999357
0.9457948911748116,1,0.998501
0.9361224688346682,1,0.999627
0.9239234722623243,0,0.985104
0.9613431261571045,0,0.892840
0.9438315932511897,1,0.998913
0.950458658319136,0,0.993563
0.9542066452466634,0,0.992015
0.9321725308248607,0,0.983244
0.9357450052114804,1,0.996397
0.955531809778675,1,0.999665
0.9459532858108521,1,0.999516
0.9309594212876083,0,0.933966
0.9541538661741233,0,0.837076
0.9238118477060028,0,0.989079
0.9645066728484785,0,0.991582
0.947199747250821,0,0.794312
0.9601003827390194,1,0.999155
0.9067789150396606,1,0.998075
0.9367707760590915,0,0.981651
0.9472344842175795,0,0.958009
0.9762393653830255,0,0.991341
0.9554484116799762,1,0.999130
0.9362081507121003,1,0.999220
0.9272345623113039,1,0.994516
0.9285569560748829,1,0.991763
0.9304445271589403,0,0.521561
0.9315303367956433,1,0.998153
0.9519007397738811,1,0.999545
0.9324561503971163,0,0.987764
0.9561659977194436,0,0.990732
0.9022766316965201,0,0.843640
0.9474953352494233,1,0.996566
0.9577414584991207,1,0.999551
0.9371250803444082,1,0.999633
0.8963726003121079,0,0.765910
0.9333295054140406,1,0.999547
0.9254005678532266,1,0.999238
0.9464808966628591,1,0.999369
0.9149587969860461,0,0.987947
0.892680887911953,0,0.995259
0.9396401172171638,1,0.998473
0.916493760803885,1,0.998589
0.9271869322786819,1,0.997597
0.9247722294584245,1,0.999000
0.9686074792855215,1,0.998449
0.9336823193266437,1,0.999425
0.9181413218000356,1,0.999038
0.952123139008118,0,0.988249
0.9309858651294546,0,0.237982
0.9181329751224588,0,0.975000
0.9585621486709077,1,0.997943
0.9269489570000499,1,0.999097
0.9093598687704827,1,0.999466
0.9327534957000515,1,0.996328
0.958826667950939,1,0.998917
0.9479554278825226,1,0.999590
0.9542730999805075,0,0.206927
0.9496918796930071,1,0.998475
0.920957355263966,0,0.866142
0.9249976947687295,1,0.999205
0.9385427434861586,1,0.999509
0.9743745994727128,1,0.999663
0.9133420074827484,1,0.999638
0.9367328169264731,1,0.998493
0.9475742285335172,0,0.989873
0.9523678420928955,1,0.998516
0.9357884241191355,0,0.103791
0.9319785105507442,1,0.999566
0.966800367925994,0,0.848315
0.9712463786655638,1,0.999398
0.9597112134282468,1,0.996951
0.9209072103174188,0,0.988477
0.9439113998263845,1,0.996501
0.91805487931285,1,0.999014
0.9182768377337807,0,0.990408
0.957934584433325,1,0.996988
0.9645224913228846,1,0.999638
0.9699505170351623,0,0.874936
0.9538418695396412,1,0.989390
0.962481169474359,1,0.998800
0.9528354532380267,0,0.979540
0.958357327960945,1,0.999455
0.9026740274866278,0,0.359452
0.9164927791013048,0,0.992847
0.9512107033586175,0,0.983266
0.9460992714462645,1,0.994307
0.940633270723729,1,0.996283
0.9482473147030087,1,0.999367
0.9517280688528797,1,0.999569
0.9155079641495246,1,0.993898
0.9525931899525238,0,0.991195
0.9583434775433789,0,0.987697
0.9552905430427091,0,0.901141
0.9127494841238731,1,0.996204
0.9608393929549395,1,0.999416
0.9376450739988444,1,0.999532
0.9320584803039536,1,0.995255
0.9419931444243556,1,0.999559
0.927184943372151,0,0.688793
0.9387749476481962,0,0.984919
0.9457113420505816,0,0.985135
0.9620596022265405,1,0.998261
0.955435570888137,0,0.984977
0.9326128686017799,1,0.996844
0.9454777133815947,1,0.998102
0.9586470220729485,1,0.995466
0.9606601677377042,0,0.994141
0.943325225119241,1,0.997996
0.9231314335544692,1,0.999070
0.9616721216114718,0,0.992238
0.9636107817554513,1,0.999362
0.9511390944562381,1,0.999673
0.9465387688602257,1,0.999268
0.9832690231870114,1,0.997264
0.9363845289668388,1,0.997701
0.9726915034211182,0,0.981619
0.9232333299379507,1,0.999620
0.9428986934015141,1,0.995283
0.9469225227611239,1,0.992218
0.9500876960134017,1,0.999250
0.9522465731806059,1,0.997097
0.9113512649545573,1,0.999361
0.9028264823103578,0,0.994592
0.9601398795101115,0,0.422781
0.9545476518955999,0,0.989426
0.9488905090054716,0,0.987843
0.9614467637302435,0,0.991311
0.9488368906143398,1,0.999031
0.9154912845457351,1,0.999123
0.9754538247084052,1,0.999645
0.9551859454256427,1,0.998839
0.9445546668997165,0,0.994456
0.9337829607292699,1,0.998473
0.93830314939592,0,0.117472
0.9380143313753537,1,0.998942
0.9271433861313595,1,0.998594
0.9470214418540025,0,0.418407
0.9385302735403857,0,0.678571
0.9243793310655027,0,0.986326
0.8974972642480925,0,0.985060
0.9394139595352429,1,0.998307
0.9479697124298151,1,0.999529
0.9480083271801839,1,0.997881
0.9192289576837048,1,0.999300
0.9257281638871375,1,0.990934
0.968164530003322,1,0.993895
0.9575748987830608,1,0.999441
0.9047239555588389,0,0.840232
0.9221020579841317,1,0.995826
0.95933211900541,0,0.990081
0.9521161222533796,1,0.999627
0.9239098620114818,1,0.998943
0.9573408437553562,0,0.963332
0.9426538685695433,0,0.126053
0.9138491800105726,0,0.900587
0.9416918318326553,1,0.997107
0.9660831782162972,1,0.998097
0.9499159787784113,1,0.999267
0.9395528037196257,1,0.997771
0.9616899967069292,1,0.999724
0.9505238721241317,0,0.703601
0.9508019005927945,1,0.997758
0.9587131754496385,1,0.998294
0.9598753421491598,0,0.987434
0.9470009860459199,0,0.989927
0.9626572605791263,0,0.980128
0.9461248666286943,0,0.728938
0.9345718756710726,0,0.993020
0.9288777121737795,1,0.999012
0.9183287059310629,0,0.653913
0.9442837759887135,1,0.998079
0.9442799726247563,0,0.992145
0.9246300713259105,1,0.998896
0.9539871685871947,0,0.978394
0.9528060386493895,0,0.991516
0.9559720918469822,0,0.996403
0.9513815537089426,0,0.996331
0.8954314899172423,1,0.999340
0.9334696113210479,0,0.990027
0.9345336518335878,1,0.994131
0.965680230041463,1,0.999712
0.9590013989673996,1,0.999298
0.9249516994807413,0,0.977121
0.9084328766861562,1,0.999270
0.9396197033389341,0,0.993872
0.9472339984916778,1,0.999622
0.9405737413218909,1,0.999406
0.9345515702483276,0,0.992773
0.9496430552793736,0,0.996482
0.9418988776945393,1,0.998751
0.9414902353544607,0,0.995021
0.9585492870297367,0,0.995202
0.9449987592944469,0,0.996128
0.9558724214625186,1,0.998451
0.9503818185203304,1,0.999541
0.9423100108722686,1,0.999590
0.9499333319988029,0,0.991385
0.9229277503391098,1,0.999505
0.9499928234074987,1,0.999582
0.9388691815313699,1,0.999160
0.9554194974810788,0,0.991304
0.9477860888563532,1,0.998898
0.9322005644374013,1,0.999485
0.9505675612688419,0,0.694698
0.9650508548196308,0,0.202457
0.9562366028896799,1,0.998314
0.9512250444002734,0,0.970501
0.9683671522656775,0,0.992116
0.9422198949375232,0,0.252297
0.9099534768221997,0,0.983784
0.9511928343796536,1,0.998423
0.9259795613827934,0,0.990976
0.9492653627261345,1,0.998866
0.9382871858443315,1,0.998671
0.9512386211610272,0,0.979015
0.9567248960855892,1,0.999692
0.9346936773272078,0,0.991356
0.9341411976720871,1,0.997370
0.946525135645833,1,0.998821
0.9436884493373466,1,0.997976
0.9759413184029322,1,0.994036
0.9751527260470986,1,0.998668
0.9500125989334722,0,0.834934
0.9456838463297348,0,0.988026
0.9125053531760514,1,0.999560
0.9302007096677015,0,0.426778
0.9349908922291715,0,0.991042
0.9450177816547015,1,0.997461
0.9356247843366252,0,0.298786
0.9297644029390582,1,0.999377
0.9664234807334207,0,0.216897
0.9512951169329539,0,0.986308
0.9492514645794154,0,0.411824
0.9482942814564007,0,0.995414
0.9699017403824935,0,0.837799
0.963661539635983,1,0.998054
0.9469146765228381,1,0.989474
0.9676687299326509,1,0.999331
0.905824138462645,1,0.999093
0.9480399691060403,1,0.996183
0.9567534131127182,0,0.993796
0.944770584882375,1,0.999197
0.9470994473238655,0,0.977621
0.9537763668163983,0,0.990471
0.9205019251994161,1,0.998863
0.9526798840021607,0,0.991617
0.9708858112945794,1,0.997426
0.9642842853204939,0,0.961681
0.9401508787336609,0,0.989374
0.9161052932098153,1,0.999655
0.9205016830962177,0,0.983536
0.9395729020416139,1,0.999554
0.9408975672021208,1,0.999365
0.949645683809386,0,0.967702
0.9491757224902148,1,0.996427
0.9514504109389518,0,0.983454
0.9549914663387801,1,0.996647
0.9526301367539194,1,0.997423
0.9131054681296505,1,0.999548
0.9469909636064588,1,0.999541
0.9459852952206853,1,0.999372
0.9467037424953112,1,0.998556
0.9507279341474769,0,0.994420
0.9028742280295838,1,0.998392
0.9749637098674933,1,0.999692
0.9175845556451211,0,0.994683
0.9556457147002599,1,0.996401
0.9382144709958081,0,0.971106
0.9636879239814264,1,0.997468
0.9688950812071798,0,0.985951
0.953212758817542,0,0.977601
0.9409719208195779,1,0.998367
0.9098602047196681,0,0.996572
0.923672425073511,1,0.996073
0.9602221508308993,1,0.992489
0.95442442740564,1,0.994167
0.9383374315638455,1,0.997669
0.9730498235778199,1,0.997099
0.9390555003630822,1,0.999686
0.9421957687622614,1,0.997031
0.9599283019779901,1,0.999204
0.9516314859677815,1,0.999502
0.9438919179075013,1,0.997957
0.9331475450265536,1,0.999310
0.9434248568610362,1,0.999459
0.9469316976244609,0,0.995887
0.9071943248005336,1,0.999352
0.9488323970453411,0,0.965994
0.9332458384823288,1,0.992716
0.9533536682385996,1,0.999445
0.9629775639562962,1,0.998563
0.9400537514224414,0,0.987773
0.9206689575977836,0,0.985629
0.9410618828243039,0,0.991911
0.9242002991102328,1,0.999404
0.9262229618928324,0,0.971238
0.9092765344640996,1,0.999271
0.9462418958110622,1,0.999270
0.9182206951151525,0,0.979967
0.9468568401230721,1,0.998841
0.9206557365937836,1,0.999367
0.958858609934714,0,0.978301
0.9676139381619315,0,0.994290
0.9579121418605999,1,0.998179
0.9520265319167757,1,0.991247
0.9544513950910617,1,0.999477
0.9319409169472209,0,0.250159
0.9306445349505529,1,0.999251
0.9585572404009012,1,0.999610
0.935760128173706,0,0.513139
0.9261803226713976,0,0.969767
0.9363661388469706,0,0.770070
0.957759969538601,0,0.983488
0.9581037433667635,1,0.999658
0.9346200045414336,1,0.998292
0.9245911977979477,1,0.999171
0.9371909596860473,1,0.998864
0.9679171103076017,1,0.998957
0.9421661392556641,1,0.998141
0.9654719011055982,1,0.998620
0.9266596457223931,1,0.998914
0.9608669176199047,1,0.999492
0.9368888488677312,0,0.982558
0.9521712108592062,1,0.999543
0.9171740132362023,1,0.999280
0.8961547491110124,1,0.997416
0.9382067705237225,1,0.999606
0.9002298358399868,0,0.442893
0.9471660387213887,1,0.994166
0.9679391940077519,0,0.981033
0.9373190909152899,0,0.970414
0.9338111674209666,1,0.998654
0.9438529042896535,0,0.273282
0.9465237685076394,1,0.998890
0.940893285352195,1,0.999284
0.9263464490610136,0,0.699605
0.90452738012328,1,0.996303
0.8617405178605672,0,0.760996
0.9699339663426279,1,0.999557
0.9089373754687381,0,0.994444
0.9541586162795159,1,0.999370
0.9262675158201115,0,0.482470
0.946749502196625,0,0.993081
0.9138297238790651,1,0.998301
0.9517175363327376,1,0.999318
0.9614582351318745,0,0.276166
0.9590603350007233,1,0.997716
0.9500829164333335,1,0.999679
0.9548398912120122,1,0.999635
0.9504833304610888,1,0.997917
0.9356330169084656,1,0.991713
0.9601286165105385,1,0.997151
0.9559733286105128,1,0.999502
0.8967276451426754,0,0.969224
0.9353605456696714,0,0.995532
0.9426843607331409,0,0.981355
0.9242042676581206,1,0.999719
0.9545857851598212,1,0.999016
0.9399546770640176,0,0.167915
0.9579690494268535,1,0.999686
0.9546976492060978,1,0.997604
0.9607725553287803,0,0.996117
0.9643293876478531,1,0.999488
0.9330112476077298,1,0.996557
0.9263012592753621,1,0.998785
0.9227829069822739,1,0.995847
0.9558657248298402,0,0.339235
0.9218542019725704,0,0.995337
0.9441822867929097,1,0.999622
0.9508492336925984,1,0.999634
0.8740051404839769,0,0.786354
0.9482576044605967,1,0.995098
0.9442436723008222,1,0.998711
0.9580790193231055,1,0.999627
0.9329253608024058,1,0.998607
0.9420549224276277,1,0.998700
0.9666997192390759,1,0.998899
0.9187270927358283,1,0.999453
0.9525502326951347,0,0.268812
0.942218508901841,0,0.990192
0.9321211843439798,1,0.999224
0.9491480846374115,1,0.987421
0.9425873663967774,1,0.988489
0.9628600290506472,1,0.981221
0.9578700100921044,0,0.964835
0.9539108340174383,0,0.858415
0.9359148993253946,1,0.999483
0.954200760492558,1,0.999230
0.9694393227000966,1,0.997151
0.9641723662335604,0,0.994834
0.9431411337386405,0,0.939541
0.9336537613050934,0,0.990298
0.9304344920115587,1,0.999367
0.952771166349651,0,0.986403
0.8987337146683834,0,0.706631
0.9312221154976879,0,0.977429
0.9296231421551495,1,0.997288
0.8867106883997573,0,0.679397
0.9434863098524985,1,0.998905
0.9656672292970443,0,0.545681
0.9572049099390438,1,0.999299
0.9325335059889212,1,0.997468
0.957443882566577,1,0.996359
0.9164109111728582,1,0.999031
0.9206048111288411,1,0.999133
0.9178434191902417,1,0.999175
0.9420545431215586,0,0.988171
0.9524823274268976,1,0.996632
0.9523315049322802,1,0.999527
0.9267649205073704,1,0.996909
0.9408900621616931,1,0.999692
0.953486994299759,0,0.994997
0.9382701402171585,1,0.999503
0.9495496053785665,1,0.999235
0.9262103999294129,0,0.903766
0.9608032344059528,1,0.998133
0.9450272213453963,0,0.200113
0.9715025647543178,0,0.995782
0.9208347216474025,0,0.994512
0.9459789604616482,1,0.995046
0.948550059209274,1,0.999604
0.9345155260192229,0,0.991704
0.9645857763849793,0,0.974706
0.9555368888011343,1,0.999270
0.9486118595768988,0,0.954771
0.9377012659117018,1,0.995900
0.9492867119525275,0,0.733111
0.8974640599972099,1,0.998003
0.9423489558325154,1,0.999099
0.9028550219813358,0,0.995882
0.9353268466260691,1,0.998842
0.9446836248009712,1,0.996939
0.961159123962122,1,0.998885
0.928825414949984,1,0.998227
0.9381683785023154,1,0.997847
0.9501506432105965,1,0.997005
0.9431900937548674,1,0.999365
0.9620111544900005,1,0.999709
0.9381536932738779,1,0.998373
0.9570001487548613,1,0.999667
0.9197474898662713,0,0.981784
0.9298812946019253,1,0.999081
0.9555888439124438,1,0.998267
0.9568898951246989,1,0.999020
0.9443048694598165,1,0.998254
0.9257669761671118,0,0.984823
0.9188272275651697,1,0.997592
0.9445130246856334,0,0.860347
0.9654335009015091,0,0.935226
0.9385133492176791,0,0.980538
0.9379532939865473,0,0.995614
0.9091946980676494,0,0.966220
0.9578615690413218,0,0.991578
0.9394752356486095,1,0.999203
0.9316616608390356,1,0.992525
0.9453418888732288,1,0.999344
0.9414475946414351,0,0.986118
0.9607451804734478,1,0.998898
0.9199919425100982,1,0.998546
0.9081494726090407,0,0.127221
0.9640787042564651,1,0.996970
0.9668248380846597,1,0.998008
0.9471355219718832,1,0.994377
0.9327704031612046,0,0.970020
0.9487536342316092,1,0.999011
0.960361787606543,1,0.999637
0.8932942046093124,0,0.735537
0.9158878349334728,0,0.454102
0.9458663047998029,1,0.996241
0.9484716608417537,1,0.998507
0.9588144941282508,0,0.994387
0.9612130803714354,1,0.999016
0.940305255765133,0,0.374517
0.9555400976397463,1,0.999676
0.9543763572970024,1,0.999150
0.9561783211972904,1,0.999381
0.9261585995901592,0,0.969023
0.9698928155290671,0,0.974894
0.9082545728531087,0,0.971725
0.9255003264553203,1,0.999531
0.9569966349399894,1,0.994824
0.9652405644718942,1,0.998884
0.9515882151933275,1,0.999249
0.9487336240629773,1,0.997516
0.9531821374858408,1,0.999549
0.9571945057592685,1,0.998775
0.9510576480259829,1,0.999587
0.943556666017134,0,0.992827
0.9624721539217433,0,0.995449
0.9527493947538866,1,0.999122
0.9492679237751465,1,0.999639
0.9401884198638528,0,0.990306
0.8914135008761928,0,0.990938
0.9483114570913516,1,0.997375
0.962728072369107,0,0.242005
0.9436241405815551,1,0.999432
0.9208167759948127,1,0.998758
0.9328259592810975,0,0.228171
0.9467187379906056,1,0.999611
0.9607563127155373,1,0.999329
0.9505622263751893,1,0.999341
0.9533318725207921,1,0.999696
0.9428639684344983,1,0.999450
0.9573323838954476,1,0.998656
0.9524699760748442,0,0.980583
0.9320024844154101,0,0.807951
0.9510212701507638,0,0.964072
0.9132484926617447,0,0.963615
0.9288285946985001,0,0.991053
0.9265009538863085,0,0.388053
0.9450944191887408,1,0.999024
0.9350315322391654,1,0.998261
0.9489814354247952,1,0.999186
0.9369956549208157,1,0.999663
0.9472763773692728,1,0.999392
0.9643800902586701,0,0.933333
0.9675042087005842,0,0.988981
0.9232540325329189,1,0.998817
0.9319403749844554,0,0.992772
0.9419077979427972,1,0.999647
0.9711129006155048,1,0.998755
0.9406983762397695,0,0.203169
0.8988586469047887,1,0.999317
0.9413438217481163,0,0.980971
0.9598538626515393,0,0.961054
0.9204446283347825,1,0.995327
0.9662582596212824,1,0.995305
0.9405734217447822,1,0.998395
0.8987515706488058,0,0.988235
0.943191689495005,0,0.989272
0.9496762301284403,1,0.999723
0.9408980243182952,0,0.985294
0.9460030906149043,0,0.977778
0.9589811329473302,0,0.977049
0.949438072074764,1,0.998102
0.9612261411785021,0,0.990590
0.9628662517168979,1,0.997312
0.9510285650501313,1,0.997589
0.9300445529713709,1,0.999194
0.9493557300621958,1,0.999712
0.9286443263755886,0,0.980804
0.9524363162668371,1,0.998577
0.9614911892812509,1,0.996709
0.9263178572353727,1,0.998816
0.9543204873837045,1,0.998250
0.9355946530474267,1,0.998745
0.9615259562898107,0,0.978198
0.9320900668573963,1,0.999080
0.9430806738762398,0,0.972652
0.9493598571636649,0,0.984980
0.9383642073556305,1,0.996885
0.9292117594548563,0,0.844393
0.9580910183749187,0,0.995649
0.953915406391215,0,0.559159
0.9372311013005199,0,0.990369
0.9386914339990338,0,0.381111
0.9451747403576093,1,0.999650
0.9311399001194055,0,0.990614
0.9496737269350145,1,0.999614
0.9516691644760774,1,0.998559
0.9375661678269186,1,0.999708
0.9594796793627989,1,0.999578
0.9556220925227255,1,0.999685
0.9616703317855888,0,0.993813
0.9626991253506545,1,0.999670
0.9322894685396277,1,0.999320
0.9559764541670986,1,0.999581
0.9370220267909152,0,0.342618
0.8939307243833716,1,0.996488
0.9453147079385306,1,0.998165
0.9563480022472052,0,0.996074
0.9369165561227522,1,0.998822
0.9447875488627513,1,0.997636
0.9649502926516272,1,0.989817
0.9721781954022153,1,0.999320
0.9467023491413099,1,0.999287
0.9587170339738686,1,0.998405
0.9333745384448785,1,0.999718
0.9594031157813351,0,0.993627
0.9416754369662256,0,0.415139
0.9325242240296308,0,0.991244
0.9276728018048962,0,0.943563
0.968993145812855,0,0.996128
0.9166162030398229,1,0.999394
0.921765038503874,0,0.988717
0.9320848261975851,0,0.259719
0.9584599562596877,1,0.999671
