0.41731969709726485,0,0.910979
0.586070316446128,1,0.997333
0.7068801893148404,0,0.982577
0.7696721499178766,1,0.998222
0.8230440851820353,1,0.998948
0.888389397555483,1,0.999466
0.9300441057127594,1,0.999461
0.9485010580114495,1,0.999419
0.9575236396103057,1,0.999510
0.9668677793617602,1,0.998301
0.9722562213633942,1,0.999491
0.9766074342655136,1,0.999462
0.9277229815336325,1,0.999472
0.9473872557119652,1,0.999463
0.9586977849804561,1,0.999166
0.962693041749801,0,0.972293
0.9652859759498161,0,0.995365
0.9660922754595643,0,0.982930
0.9666711232106588,0,0.985270
0.9668537285424231,1,0.999730
0.9662138987580554,0,0.996600
0.9652485708170617,0,0.978966
0.9638673937705409,1,0.999215
0.9626859693536517,1,0.999232
0.961943391712992,1,0.999213
0.9617191340243352,1,0.999234
0.9627464530976023,1,0.999233
0.9647310418737606,1,0.998484
0.9671507354237373,0,0.989845
0.9681020558873227,1,0.997014
0.9654252926381335,1,0.998932
0.955760502815018,1,0.999230
0.9410922953300979,1,0.995219
0.919977164879549,1,0.996407
0.8940734966212073,1,0.999437
0.8822113729925294,0,0.985030
0.8802662347281076,1,0.999429
0.8820631391459229,0,0.994150
0.8830895390700619,0,0.945088
0.8875890867571068,1,0.999726
0.8858870601605188,0,0.994099
0.8866252425027117,1,0.996411
0.8902602552639788,1,0.994382
0.897718439077707,0,0.969765
0.9055038166127779,0,0.966831
0.9095878369144804,0,0.968099
0.914162034418131,0,0.962550
0.9175756176238569,0,0.944024
0.7466016409274238,0,0.937382
0.7555739014669641,0,0.994149
0.7658836515791241,1,0.998381
0.7821477160864929,1,0.999161
0.7930823433199956,1,0.998215
0.8084143410423512,0,0.953419
0.8225905217742264,1,0.991909
0.8440246814722697,1,0.998283
0.8647126250739989,0,0.958749
0.8817442557083152,1,0.998772
0.8960268138172645,0,0.990023
0.9124188120382288,0,0.959090
0.924320072059382,1,0.999380
0.9333189843480681,1,0.997249
0.9421939737617278,0,0.987374
0.9496862468128925,0,0.967742
0.9544761778762361,1,0.998713
0.9585418633769504,0,0.980585
0.9627271356743435,1,0.999438
0.9654731889565282,1,0.998884
0.9676461741605039,0,0.975345
0.9693936723787402,1,0.999427
0.9710323037655846,0,0.980952
0.9726583587083317,0,0.974061
0.9735792152220567,0,0.972987
0.9746044885143575,1,0.999393
0.9751494952847017,1,0.997630
0.9755190923724523,1,0.997568
0.975806493214005,0,0.993056
0.9762628522805177,0,0.992892
0.9765427789131121,0,0.983806
0.9765954515468012,0,0.991430
0.9766601460225224,0,0.995857
0.9767711148836979,0,0.984229
0.9768395298380593,1,0.997801
0.9768996504309727,1,0.998153
0.9769589427658458,0,0.994857
0.9768898305633398,0,0.991971
0.9767785577256076,1,0.999187
0.9767648416433171,1,0.999502
0.9766668122433304,1,0.999421
0.9766303870225101,1,0.997271
0.9766386628457165,0,0.996709
0.9765352761732089,0,0.990502
0.976374377394721,1,0.997574
0.9762181662684064,1,0.998392
0.9761118705777622,1,0.998932
0.9759374387193619,1,0.998938
0.9758090835851788,0,0.984566
0.9756302253591171,0,0.994160
0.8810526969041764,0,0.993182
0.9065132239988223,1,0.995978
0.927374087445337,1,0.999463
0.9431402543238367,1,0.999422
0.9542824225218248,1,0.995442
0.9636219212419553,1,0.995441
0.9726571859645494,0,0.983180
0.9772428308996669,1,0.999468
0.9796917417589363,1,0.998851
0.9811976865055039,1,0.999413
0.9819155265023035,1,0.996929
0.9825695492064752,1,0.999403
0.9830493822960862,1,0.998247
0.9833279188590587,1,0.999427
0.9832129886721451,0,0.992747
0.9831669113756887,0,0.981267
0.982839446784656,0,0.988256
0.9826288416566938,0,0.995345
0.982153191442852,1,0.999181
0.9817487943097577,1,0.998092
0.9818812416388665,1,0.999729
0.9817309236526918,1,0.998932
0.9817945657523549,1,0.999751
0.981747281702239,1,0.999049
0.9817684048320837,1,0.998105
0.9815774750858122,1,0.999552
0.9815378856022905,0,0.990418
0.9813755456743837,1,0.997283
0.9811887599190701,1,0.997295
0.9809251485095992,1,0.997303
0.9806156338586377,1,0.998923
0.9805017123791636,1,0.999466
0.9804281772502355,0,0.991779
0.9803076580644947,1,0.998788
0.9801388483321654,1,0.998270
0.979949935981427,1,0.999410
0.9798079403317194,1,0.998828
0.9795541884418015,1,0.999330
0.9792995479907934,1,0.999466
0.97919657527573,1,0.998313
0.9790915544546356,1,0.999396
0.978958554413592,1,0.998932
0.9787712519076429,1,0.999485
0.9786052393231601,1,0.999430
0.9784558035504366,0,0.994120
0.9782034837335714,0,0.994276
0.9779119961505328,1,0.997242
0.9775485496795934,1,0.999346
0.977390921384949,1,0.998323
0.9772657818770496,0,0.988268
0.9772013649392378,0,0.994655
0.9613860444300771,0,0.973362
0.9651448163749627,1,0.997562
0.9686596471613971,0,0.992798
0.9715057149928159,1,0.999443
0.973477135734887,1,0.999442
0.9747314312613421,1,0.998748
0.9758685703945306,0,0.967446
0.9764812044680975,1,0.999122
0.9770504915115803,1,0.999183
0.977548925975525,0,0.995980
0.9778902090374335,1,0.995376
0.9780943935828432,1,0.995376
0.9781602641345514,0,0.988669
0.9782034019283969,0,0.961009
0.9781889086114904,0,0.993438
0.9783284932989033,1,0.999181
0.9783676207142085,1,0.997293
0.9783778599337274,0,0.989558
0.978457088355403,0,0.989663
0.9784439366960341,1,0.999751
0.9782154912325551,1,0.995923
0.9779372967212087,1,0.999728
0.978041419000307,1,0.999367
0.9780287370964571,1,0.998789
0.9780393617356332,1,0.999417
0.9784017805779853,1,0.999361
0.9783207300074489,0,0.993605
0.9781836015790478,1,0.998810
0.9783153899910839,1,0.999409
0.9785010150404264,1,0.999429
0.9786864024168241,0,0.989894
0.9788473299717868,0,0.990675
0.9787535416843115,1,0.998081
0.9788812828284323,0,0.989517
0.9788780635577047,1,0.995968
0.9789560669543643,0,0.989362
0.9789889173345241,0,0.996123
0.9788945125493576,1,0.999184
0.978955274385863,1,0.999412
0.9789771595980421,1,0.999434
0.9789203966098701,0,0.982877
0.9788221317388806,1,0.999406
0.9788490424657974,0,0.996132
0.9788025314875036,1,0.999461
0.9788064271810457,1,0.998149
0.9788548517798135,0,0.980324
0.9788409584558152,0,0.996957
0.9788453665970623,1,0.999466
0.9788331125073373,0,0.973326
0.9788132851809277,0,0.985655
0.9788032239844514,0,0.987157
0.9788280757683373,0,0.978816
0.9788691784446928,1,0.999449
