0.940483636007113,1,0.992736
0.9158354810972563,1,0.999133
0.939589296468282,1,0.996788
0.9040403733308782,1,0.997708
0.9284608926746839,1,0.999235
0.9415249752552663,1,0.999341
0.9346464475600805,1,0.998146
0.932594157061319,1,0.996652
0.9361067913820957,1,0.999206
0.9034372784830825,0,0.986714
0.9171817008518431,1,0.997776
0.911446045352701,1,0.999200
0.909707136657641,1,0.998295
0.8690111522655195,1,0.999174
0.9197140331610576,1,0.997114
0.9077846972616386,1,0.999188
0.9255593206823649,1,0.999330
0.9017374452799163,0,0.988444
0.9140972704366925,0,0.986879
0.9298900319263597,1,0.998148
0.9229600342907025,1,0.997851
0.900745549302046,1,0.999089
0.9467093495580974,1,0.998982
0.9144195623967795,1,0.999127
0.894086985564445,1,0.999283
0.9045472475066729,1,0.997955
0.9027858028134537,1,0.995647
0.9445319285505552,1,0.998998
0.9029877274185452,1,0.999150
0.9249835547898926,1,0.993455
0.9196866595560108,1,0.999147
0.9243460716289245,0,0.986471
0.893374272154986,1,0.999308
0.9108946057985552,1,0.999124
0.9380037089614239,1,0.999254
0.9326786372367829,1,0.999359
0.9247461186670329,1,0.997586
0.9347580558413677,1,0.999149
0.9395083914579437,1,0.999251
0.9158858838202123,1,0.994657
0.9124283269339953,0,0.966190
0.9418386680040601,1,0.999230
0.9226636920716126,1,0.999159
0.9158998229093744,1,0.999038
0.8834210995790489,1,0.997541
0.9132345698084029,1,0.995439
0.9287098599071507,1,0.998201
0.9230542802398471,1,0.997248
0.8761671870005041,1,0.998711
0.8730008009324941,1,0.999190
0.8957224336860392,1,0.993048
0.8992533843082011,1,0.999172
0.9305514984133475,1,0.988413
0.9028397366232376,1,0.998909
0.8827800596673279,1,0.998720
0.9245998558733832,1,0.999165
0.8784022099789958,1,0.999314
0.9045419852541223,1,0.999212
0.9081396463467668,1,0.998807
0.8572617196136211,1,0.999294
0.9022211421442912,1,0.997630
0.9232527147092694,1,0.999339
0.8928785004890487,1,0.999220
0.9006161811658466,0,0.985112
0.9358839654539459,0,0.984496
0.9193144813932608,1,0.999120
0.8623487069909899,1,0.999270
0.9225828558953838,1,0.993548
0.9234843579448304,1,0.997451
0.8973881017915871,1,0.999268
0.9245468276025859,1,0.994329
0.903514359963833,1,0.998648
0.9398053239151348,1,0.999062
0.9231635355230257,1,0.999356
0.9100051990165711,1,0.999268
0.9277313836673144,0,0.985854
0.891543463981804,1,0.991823
0.9091538154009968,1,0.997243
0.9144455447925566,1,0.991461
0.9058425230618493,1,0.999166
0.9086892348303764,1,0.999321
0.8953100694170854,1,0.999288
0.9290089633824538,1,0.999072
0.8958596754773888,1,0.999203
0.8606437112292503,1,0.997451
0.9019512866308508,1,0.999329
0.9442796549041583,1,0.997321
0.921853150750385,1,0.999128
0.9434130242330079,1,0.999192
0.9067182551259454,1,0.999196
0.931345286945503,1,0.999283
0.9344145876876248,1,0.999363
0.9509611791334481,1,0.999250
0.9192206949647075,1,0.998391
0.8999833718802773,1,0.999359
0.9276639855818041,1,0.996008
0.9299703480897173,1,0.997346
0.90443728187159,1,0.999126
0.9362112153858916,1,0.994259
0.8903334382025453,1,0.999188
0.9058525559087497,1,0.999312
0.9195470605927656,1,0.997447
0.9205990348940726,0,0.977823
0.8991994743433736,1,0.999320
0.8745142388187391,1,0.998994
0.8961819839828303,1,0.997185
0.8950525887953229,1,0.999110
0.8948051035606454,1,0.999318
0.8998739979235253,1,0.999108
0.9234634406474699,0,0.918249
0.8876620411718444,1,0.999303
0.9203543374486,0,0.991994
0.9229368285377444,1,0.998521
0.9152824872293192,0,0.934635
0.9335670304113541,1,0.999368
0.8987539043421782,0,0.959746
0.9242917628462577,1,0.999266
0.9188708673703063,1,0.999226
0.9253479136183237,1,0.997807
0.9355919231218296,1,0.999328
0.919324301836479,1,0.998780
0.9393326970761672,1,0.999180
0.9235639937127539,1,0.998652
0.9199720271371193,1,0.997239
0.9439669487125283,0,0.972015
0.9402906456940907,1,0.999148
0.9455501416115845,1,0.998021
0.9534234278363823,1,0.999196
0.9446627716119754,1,0.998401
0.9448122901311985,1,0.999257
0.9401882774954845,1,0.998440
0.9439201045546445,1,0.999356
0.9249800296090022,1,0.999304
0.9193626808662776,1,0.998287
0.940971288795163,1,0.998646
0.9406129277698959,1,0.998347
0.9395371615431868,1,0.998542
0.925023299105361,1,0.999227
0.9149085238848588,1,0.998257
0.9264612157476494,1,0.999246
0.9546470058734184,1,0.999155
0.9372884043497666,1,0.999232
0.9262825899160738,1,0.999347
0.9453572788335277,1,0.995234
0.9383593244579906,1,0.999292
0.9282291564582511,1,0.999344
0.9211128300286648,1,0.997942
0.9379639798847553,1,0.999313
0.9542419770224002,1,0.999338
0.9297791703019505,1,0.998866
0.9315619757561445,1,0.999371
0.9288781307723174,1,0.999171
0.9154153378306493,1,0.999403
0.9484698433849444,1,0.999356
0.9246849417939534,1,0.998717
0.9222352674516467,1,0.999214
0.9296732165192079,1,0.999132
0.9288318258238492,1,0.999395
0.9296852435779976,1,0.998521
0.9246004959946637,1,0.999388
0.9207788721481713,1,0.997802
0.9070268281541645,0,0.988354
0.926818410689448,1,0.999227
0.9549537739351255,1,0.999224
0.9284464307802269,1,0.999412
0.9453087469341137,1,0.999241
0.9538178652124599,1,0.999255
0.9153096945840327,1,0.999361
0.9015772487441973,1,0.998445
0.8983140087745747,1,0.992574
0.9420597975682248,1,0.999229
0.9139038269146066,1,0.999341
0.9147980033801835,1,0.999186
0.9244291227383605,1,0.999057
0.9454671531821137,1,0.999299
0.9369667547437474,1,0.998925
0.9275785472306176,1,0.999305
0.9303409611323016,1,0.998573
0.9217555197271624,1,0.998162
0.9380095245725293,1,0.999234
0.9403901661616829,0,0.991144
0.9205561920621164,1,0.998843
0.8843069459306879,1,0.999408
0.9199017307857656,1,0.999405
0.9006252049790155,1,0.999245
0.936655235314075,1,0.997746
0.9123221555433405,1,0.999328
0.9330527128469277,1,0.998709
0.9172579217823812,1,0.999400
0.9192175019885463,1,0.999353
0.947177208283442,1,0.998612
0.9128641563097942,1,0.999308
0.9184588732247208,1,0.999297
0.9344218808870065,1,0.998517
0.9233971766623894,1,0.997131
0.9363897806422754,1,0.999341
0.9306237935586454,1,0.998077
0.9455168785072713,1,0.993464
0.9191135263256163,1,0.999347
0.9314739412581556,1,0.998968
0.9318231573303714,1,0.998649
0.9201809912261995,1,0.998365
0.9555215885772828,1,0.999352
0.9039066193180572,0,0.972667
0.933430592325361,1,0.998538
0.9284645661684255,1,0.999374
0.9465122589836673,1,0.999326
0.8930325171815999,1,0.992446
0.933438279813514,1,0.998807
0.9145654262905322,1,0.999274
0.9431160711538834,1,0.999034
0.9562208199528254,1,0.998401
0.9393269920377447,1,0.999279
0.9090348662000953,1,0.998824
0.9240886398658685,0,0.986280
0.9499273546739514,1,0.999138
0.9267538100611755,1,0.999255
0.9170120839056247,1,0.998650
0.9370026226594595,1,0.999020
0.9133304842855835,1,0.999203
0.9493951537315853,1,0.998012
0.9115995902297909,1,0.998656
0.9304715052047942,1,0.999032
0.9012789150000723,0,0.984451
0.9290804197233586,1,0.998702
0.9379704192299164,1,0.998739
0.9344509631366488,1,0.999107
0.8936542955067026,1,0.999392
0.937120671777857,1,0.999211
0.9416531932340839,0,0.972084
0.9227478104138186,1,0.999214
0.9270641669985452,1,0.999295
0.9538203817103622,1,0.999288
0.9404670354355329,1,0.998558
0.9182153563952504,1,0.999317
0.927602211654054,1,0.997807
0.9254199815202,1,0.999225
0.9314029519468692,1,0.999375
0.9299597043460921,1,0.992613
0.9481135012936668,1,0.998793
0.9062810254951372,1,0.996561
0.9275581385354709,1,0.999356
0.9060176235701337,1,0.998238
0.9237821410459908,0,0.985022
0.8961275524789812,1,0.999327
0.9128974317220155,1,0.999275
0.9275246825679858,1,0.990530
0.9288047987660908,1,0.999417
0.938956679526772,1,0.998507
0.9367115176820454,1,0.998145
0.9152467914411465,1,0.999300
0.9026215930596102,1,0.999413
0.936759609394541,1,0.998096
0.9456162677928179,1,0.998650
0.9492012975487563,1,0.997508
0.9350770509530969,1,0.998333
0.9389674724351345,1,0.996808
0.9168533987446822,1,0.999189
0.928789784340517,1,0.999139
0.9386774455647873,1,0.998589
0.92184003900115,1,0.993103
0.8966058192809337,1,0.999358
0.9362785540189442,1,0.998096
0.9417461771705313,1,0.997744
0.8985594428752128,1,0.999377
0.9417306657773428,1,0.998452
0.9169311800185875,1,0.999280
0.9437354576399082,1,0.999319
0.9351020371217549,1,0.999377
0.9433264428061281,1,0.999013
0.9485765567138918,1,0.997462
0.9175104834897042,1,0.998474
0.901037323989983,1,0.994562
0.887845764816846,1,0.999238
0.934538725529741,1,0.999362
0.9116451749527973,1,0.999391
0.8705225991960858,1,0.997027
0.9206167335096264,1,0.998099
0.901362798962956,1,0.999325
0.8966400252969379,1,0.999279
0.9274745860767265,0,0.976496
0.940994896474163,1,0.998826
0.941900902823296,1,0.997110
0.9424680914950706,1,0.998656
0.9252969805764824,1,0.999400
0.9364755142098142,1,0.999276
0.901856467864529,1,0.999227
0.9188423402469057,1,0.999241
0.9374222055761091,1,0.999375
0.9234213408947687,1,0.999261
0.9243993156323026,1,0.999272
0.9029097188274936,1,0.999425
0.9156436431393729,1,0.997481
0.912908896749786,1,0.999332
0.898329888826553,1,0.998056
0.8947741077065714,1,0.997476
0.9150499717507709,0,0.988994
0.9004285447182148,1,0.999258
0.9083650919644296,1,0.998434
0.9128295580779348,1,0.998051
0.9183477243306724,1,0.999339
0.9193502544859354,1,0.999302
0.9117621706106349,1,0.999313
0.9191348604092648,1,0.999351
0.9187175816919955,1,0.997784
0.8832724774590864,1,0.999370
0.9164385896319053,1,0.999370
0.9296741433341413,1,0.998807
0.9000223266544694,1,0.999332
0.9231204685360074,1,0.999271
0.8840583845973482,1,0.999327
0.9318591185531625,1,0.998515
0.9369663072157781,1,0.999258
0.9341224218790087,0,0.988121
0.9083715656546253,1,0.998948
0.9577345679333644,1,0.997541
0.9319834816841387,1,0.999321
0.9243594793206117,1,0.999222
0.9390312579124075,1,0.999062
0.9008999338975707,1,0.999324
0.9389156547987331,1,0.995268
0.9404442410531721,1,0.999147
0.9169185484907425,1,0.997958
0.9291795230817603,1,0.999149
0.9373919044034776,1,0.992624
0.9428862523919715,1,0.999238
0.9525950482755475,1,0.997114
0.9332237276906215,1,0.998785
0.9442372783368542,1,0.995378
0.8892632025579279,1,0.999186
0.9130950275616505,1,0.998776
0.9353981357161442,1,0.998966
0.9138307556161457,0,0.991538
0.935197998354933,1,0.999156
0.8896039831465475,1,0.999400
0.9282382243398308,1,0.998086
0.9016657608772848,1,0.998344
0.9230325667213365,1,0.999362
0.9327932509024567,1,0.997050
0.919392007272215,1,0.999320
0.9402935069539687,1,0.995074
0.9329982137838289,1,0.996154
0.9268920752973516,1,0.999227
0.9397103658740776,1,0.999309
0.9259312600572872,1,0.993350
0.9027594349289186,1,0.999228
0.9597611043153392,1,0.997167
0.9268858668896569,1,0.999249
0.9232976305336075,1,0.997195
0.9208370035362204,1,0.998510
0.910209193135574,1,0.999257
0.9095703302431232,1,0.999368
0.884227373062311,1,0.999208
0.9292633713053914,1,0.997918
0.8921323329876376,1,0.999406
0.917541757694701,1,0.998813
0.9363275796245669,1,0.999274
0.932784930667761,1,0.997126
0.8911111486860765,1,0.995671
0.9076732986680203,1,0.999087
0.9241183974286465,1,0.997399
0.9187382922462926,1,0.998558
0.9213407937403996,1,0.998586
0.9364951141480442,1,0.999293
0.9054291675057453,1,0.998808
0.9214475129589063,1,0.999313
0.8948428934457462,0,0.987635
0.8930240226862056,1,0.998589
0.9565218130606485,1,0.997726
0.9340907308439527,1,0.999261
0.9322422869847912,1,0.996354
0.9228329492805054,1,0.999432
0.9233789800931193,1,0.999142
0.9045164970834382,1,0.999254
0.9383889146281333,1,0.999420
0.9039853474779571,1,0.998587
0.9210454259313345,0,0.974662
0.9165927864014827,1,0.999295
0.9384237700395985,1,0.999104
0.9331062426519989,1,0.999284
0.9372685218110228,1,0.995916
0.9324955792900534,1,0.999320
0.9245384957133859,1,0.999320
0.9285075878543242,1,0.998302
0.9302132781661534,1,0.999184
0.9308596462146311,1,0.999143
0.8924460483802723,1,0.997807
0.9160862406271095,1,0.999015
0.9420284519523663,1,0.999234
0.9303652949113103,0,0.960460
0.9160994647281019,0,0.963653
0.9063854495500844,1,0.998648
0.9188024951614789,1,0.998343
0.9122599873360593,1,0.998737
0.9085023705174646,1,0.999295
0.8618936418290538,1,0.998792
0.9108980709045402,1,0.999165
0.8955183946449295,1,0.999201
0.8860039440087599,1,0.999304
0.9341149602198995,1,0.999357
0.939678329178059,1,0.998452
0.9031717476320462,1,0.999285
0.9125900994817607,1,0.998117
0.9271172606065529,1,0.997391
0.904821005216857,1,0.997557
0.9224979428532945,1,0.998847
0.934764601927399,0,0.992086
0.9371371904035647,1,0.999208
0.9505750231024637,1,0.996963
0.9230950245211504,0,0.977401
0.9463571219327023,1,0.997009
0.9134941113759879,1,0.999297
0.9305468613826485,1,0.999248
0.9444091355253019,0,0.964185
0.9324477613560646,1,0.999091
0.9111552528749344,0,0.981270
0.9102347656295511,1,0.998064
0.923162912743542,1,0.997630
0.9219111884030144,1,0.996226
0.9173073036912963,1,0.999386
0.8807043573404093,1,0.998609
0.9207250703125214,1,0.999208
0.9074202565207661,1,0.998860
0.9201078273227666,1,0.998504
0.9278071576548057,1,0.999305
0.8963413169694966,1,0.998706
0.8581902656995185,0,0.974147
0.9499098138874419,1,0.996873
0.9232746961017192,1,0.999274
0.9042673407250478,1,0.998591
0.9390735462456679,1,0.999216
0.9041322627554362,1,0.999176
0.9258261409244614,1,0.997766
0.9324206828230932,1,0.999130
0.923932144691426,1,0.993596
0.9234958768901822,1,0.999118
0.9218465332670566,1,0.991168
0.9070499041946969,1,0.997720
0.8967753485203338,1,0.999219
0.9375393186268424,1,0.994368
0.9146799633649575,1,0.998585
0.9274303172207803,1,0.998720
0.9076441928238989,1,0.999249
0.9145760916206661,0,0.980806
0.9222901528097127,1,0.999313
0.9340826784746747,1,0.999201
0.918982831468036,1,0.998706
0.93072768084312,1,0.998011
0.9297252743308834,1,0.999057
0.9352740188675979,1,0.998087
0.927224666649762,1,0.998474
0.9106370285821352,0,0.981897
0.9143016134206398,1,0.998214
0.8798706653858932,0,0.982272
0.9227415353349534,1,0.999382
0.9342666538955141,1,0.998775
0.922769532316502,1,0.998031
0.915721062950798,1,0.995323
0.9138741445594117,1,0.998357
0.9268086712731787,1,0.998570
0.9123092358503949,1,0.999267
0.9288753136228091,1,0.998194
0.9408587703767111,1,0.997976
0.8940171483666401,1,0.999291
0.9054608192527198,1,0.997115
0.9421093066592984,1,0.999110
0.8967750356733442,1,0.999347
0.9183443488068528,1,0.999169
0.8933814078460325,1,0.996035
0.9163983332723572,0,0.983527
0.9342091888437009,1,0.999347
0.8932747227763771,1,0.996078
0.9130207256687533,1,0.999205
0.9072369326690758,1,0.999377
0.9227713545828172,1,0.991788
0.9080284796689205,1,0.998220
0.9134739254010715,1,0.999235
0.891138580773365,1,0.999249
0.9528156261738626,1,0.993822
0.9297827409417789,1,0.997019
0.9195297697553414,1,0.999345
0.916014346969314,1,0.998177
0.9038108656818932,0,0.989066
0.8798394202496126,1,0.998794
0.9106709241030074,1,0.993681
0.9216875285141617,1,0.997285
0.9111153960626395,1,0.999389
0.9219421366501481,1,0.997403
0.9018859051137768,1,0.999304
0.9042749328661316,1,0.999285
0.8931942413563189,1,0.999190
0.9089745392864494,1,0.999382
0.898493682772533,1,0.999170
0.9178871277980252,1,0.998158
0.9143101172906678,1,0.998180
0.919701791549062,1,0.999240
0.8774813757267086,1,0.999246
0.8947040248014188,1,0.998933
0.8792519418439112,1,0.998966
0.8747451124719126,1,0.999273
0.9222286802182781,1,0.999300
0.9333986264943989,1,0.999172
0.9241097213026884,1,0.998343
0.9052518809771596,1,0.998444
0.9167778113118671,1,0.998068
0.9034014785791994,1,0.999164
0.8902989767010409,1,0.998052
0.8996525314371387,1,0.999153
0.894839100159019,1,0.998160
0.8617663385095117,1,0.999259
0.9019470644026515,1,0.998718
0.8908069820571627,1,0.999353
0.9140141952286006,1,0.999276
0.8668575484709914,1,0.997418
0.922087858276493,1,0.999246
0.9250369869161615,0,0.979878
0.9553978701255368,1,0.998480
0.9729538355288738,1,0.999195
0.9367853025551587,1,0.999205
0.9504037732304483,1,0.997654
0.9527380432179886,1,0.999342
0.9538078802866602,1,0.997805
0.9415151399765087,1,0.999293
0.9409406952780649,0,0.973321
0.943227132459416,1,0.998998
0.9414494363361365,1,0.999297
0.9452658269090255,1,0.998554
0.9439244095471813,1,0.998351
0.9448885172605915,1,0.998991
0.947648376536973,1,0.999302
0.9426606263751283,1,0.995090
0.9502762841026096,1,0.997292
0.9310804340738241,1,0.999306
0.9483481499984879,1,0.999333
0.9544921607213845,1,0.999120
0.9504838742865441,1,0.999248
0.9499718631924484,1,0.998348
0.942402439068052,1,0.999331
0.9458796811890877,1,0.994422
0.958385721007169,1,0.997059
0.9175055380889419,1,0.996176
0.93347574195966,1,0.999324
0.930620733612187,1,0.999020
0.9387568285529267,1,0.999248
0.9410970503195336,1,0.999082
0.9369038938969552,1,0.999252
0.9339481436353206,1,0.997854
0.9300920965761373,1,0.999338
0.9415376154799832,1,0.995602
0.9294528751898122,1,0.994881
0.9223870823643242,1,0.999264
0.9370316238206878,1,0.999174
0.9549908714382537,1,0.999274
0.9378036676660808,1,0.998733
0.94031384339511,1,0.993559
0.9288246861834202,1,0.999348
0.9393288310458651,1,0.999432
0.924115387748688,1,0.997508
0.950414629422405,1,0.999224
0.946981974052906,0,0.986829
0.9491467229949271,1,0.997232
0.9376631631490701,0,0.969091
0.9360114766613333,0,0.978682
0.9521203516662153,1,0.998437
0.9400898835423157,1,0.999273
0.9521458653391782,1,0.999234
0.9382858253888579,1,0.998559
0.9284529039228568,1,0.999305
0.9529843924906976,1,0.999216
0.9585351936017025,1,0.999402
0.9482352547365989,1,0.999406
0.9515917127884181,1,0.999531
0.9240116095987434,0,0.981658
0.9365766338846868,1,0.998557
0.9486638937184335,1,0.994536
0.9219353465469077,1,0.999350
0.9464809960113093,1,0.999296
0.9197030184691466,1,0.998095
0.9403984322464725,0,0.982143
0.9453467792663052,1,0.999430
0.9299973670337724,1,0.999286
0.9335125795049342,1,0.995885
0.9313347940414863,1,0.999264
0.9502771674022705,1,0.992268
0.9539378924310976,1,0.998265
0.9506236625878516,1,0.998397
0.9396522985237059,1,0.999149
0.9411984108600625,1,0.999280
0.9185223828632749,1,0.999365
0.9544807832541521,1,0.997924
0.9520668220943141,1,0.999266
0.9366074646058987,1,0.999196
0.9271035750782342,1,0.998175
0.9576138452323089,1,0.998528
0.9286096660305503,1,0.999235
0.9454751274744946,1,0.998447
0.943786897775881,1,0.998812
0.9489262580589588,1,0.999263
0.9399469837527779,1,0.998621
0.941016208805419,1,0.999297
0.9438510271559132,1,0.999319
0.9366382435573664,1,0.999345
0.949851459691886,1,0.998544
0.93878843189382,1,0.998198
0.9214612899775744,1,0.999250
0.9246578595733236,1,0.998593
0.9261263498889798,1,0.999246
0.9053004822882372,1,0.999397
0.9585095170074137,1,0.999279
0.9247903299975236,1,0.997705
0.9231176292763792,1,0.993480
0.9340857058088932,1,0.998753
0.9376832571463849,1,0.999165
0.9342547885247219,1,0.999435
0.9431754953954236,1,0.997396
0.9361578488475865,1,0.998777
0.9233802405940246,1,0.999318
0.9421238460771642,1,0.999387
0.9223120746523975,1,0.998800
0.9263756354040522,1,0.998262
0.959420264016429,1,0.998880
0.9428770645385888,1,0.998150
0.9399338453450292,1,0.998641
0.9332805607577266,1,0.993396
0.9365858102482252,1,0.999421
0.938969985453404,1,0.999327
0.9330616458020058,1,0.998533
0.9413190635515752,1,0.999127
0.9340400102562172,1,0.998227
0.9416399283629004,1,0.998524
0.9479508645367684,1,0.999278
0.9446107626185981,1,0.999293
0.9380293349059052,1,0.999313
0.956863598018833,1,0.999291
0.9211190489548368,1,0.998890
0.9091343682558588,1,0.990760
0.9252496316442888,1,0.999349
0.9099534654646315,1,0.998756
0.9388518469223934,1,0.999311
0.9249381970325795,0,0.988496
0.9293935023333759,1,0.999351
0.9330203509080334,1,0.999303
0.9154395313064486,1,0.998766
0.9612910792880863,1,0.999202
0.9237328539295273,1,0.996927
0.9213212415774225,1,0.999325
0.9434336767086483,1,0.998680
0.9561701275875335,1,0.999292
0.9436263003380354,1,0.999339
0.9306727216649966,1,0.999225
0.9403096271068493,1,0.999378
0.9632811150142873,1,0.999330
0.9435737398135323,1,0.999304
0.9393209731996717,1,0.995345
0.9365342896538026,1,0.999292
0.8830386302313,1,0.999382
0.9320718118836598,1,0.998595
0.948633357826338,1,0.992403
0.9278549367090196,1,0.999206
0.9552452085570539,1,0.999344
0.9505347443987069,1,0.999306
0.9110902445873454,1,0.998556
0.9428366146472553,1,0.999013
0.9174272233318012,1,0.998521
0.9407191503511492,1,0.999327
0.9351579533823735,1,0.999283
0.9369876100991973,1,0.998611
0.9515304409888871,1,0.998624
0.9640695761691453,1,0.999182
0.933704328765962,1,0.999318
0.9234402172748745,1,0.999380
0.9260170405181816,1,0.999311
0.9207329058100405,1,0.999300
0.9175918119218621,1,0.997473
0.9252408724670323,1,0.995500
0.904649085677842,1,0.997364
0.9286961303492768,1,0.994070
0.9155851166675842,1,0.999324
0.9105994610278567,1,0.999393
0.9458602422317328,1,0.998126
0.9192731599507662,1,0.999266
0.9331704026228996,1,0.999364
0.9364739407553265,1,0.999264
0.9242235469570601,1,0.998918
0.9103395221304792,1,0.999379
0.88360347741236,1,0.997761
0.9176938215093015,1,0.998715
0.9392371381042621,1,0.998641
0.9186736458085533,1,0.995908
0.9492885276209718,1,0.999213
0.9484664063245982,1,0.999230
0.9292316769450598,1,0.993433
0.9432063801155564,1,0.999321
0.9230018327790595,1,0.999311
0.934754392907833,1,0.997671
0.9546074741426666,1,0.997813
0.9275121779902538,1,0.997810
0.9404104929806633,1,0.999234
0.9411035234008527,1,0.997802
0.9492043560287201,1,0.996456
0.9486937234591926,1,0.999333
0.9194315552857498,1,0.997609
0.9493044864082746,1,0.996118
0.9302601321932867,1,0.998853
0.9358453922570747,1,0.999385
0.8997537019694656,1,0.997748
0.8962543607596327,1,0.999412
0.9391658505792859,1,0.999142
0.9420854518760488,1,0.999342
0.9455913316096325,1,0.999139
0.8651799978461256,1,0.999258
0.9435813076683476,1,0.999162
0.9348158401295367,0,0.985989
0.9412377190006118,1,0.998369
0.9276115867273187,1,0.992089
0.9526506453099771,1,0.999241
0.9488807852318017,1,0.999338
0.9298230462458545,1,0.996656
0.932187747665421,1,0.999087
0.9367327738694594,1,0.999341
0.944259063173125,1,0.998798
0.9273423180383206,1,0.997517
0.9312936793943206,1,0.998667
0.9289636180947177,0,0.982869
0.9240452626852288,1,0.999241
0.9159208367621752,1,0.999258
0.9038152342028568,1,0.999335
0.9475752212174878,1,0.999335
0.9432823287897706,1,0.999349
0.941743864993797,1,0.999316
0.9286570913362323,1,0.998675
0.9377104214667313,1,0.998289
0.9309700118468766,1,0.998700
0.9496065456095334,1,0.999417
0.9496574079302459,1,0.998670
0.9317386530586454,1,0.999227
0.9411393743281655,1,0.997861
0.9417490207495032,1,0.999177
0.9153599201230586,1,0.999200
0.9313788375210266,0,0.982873
0.9322844216694761,1,0.998714
0.9199774520665951,1,0.998020
0.8946622603327256,1,0.997487
0.9205606445750653,1,0.999363
0.926596790368674,1,0.997324
0.9247016752812751,1,0.999391
0.9396372782320991,1,0.999136
0.9345535007561309,1,0.996828
0.928330449997522,1,0.998462
0.9442202372090144,1,0.998198
0.9323568141949747,1,0.999180
0.9099660077022924,1,0.999377
0.908506358198231,1,0.999249
0.9164577728531944,1,0.998478
0.916460383559895,1,0.998689
0.9370656780310497,1,0.998414
0.9383330533146481,1,0.999318
0.9421126576061659,1,0.997074
0.9301562210505595,1,0.999142
0.9236636856602873,1,0.998179
0.9410327697453449,1,0.997504
0.9427322053444797,1,0.999407
0.9164769929816221,1,0.999267
0.9054623375941784,1,0.999344
0.9205451432958889,1,0.999120
0.9498691781514159,1,0.999068
0.9197847362863296,1,0.999321
0.9250622265249915,1,0.999351
0.9263047378461583,1,0.999410
0.9018981488732956,1,0.997991
0.9523554521098199,1,0.997549
0.9414158573595243,1,0.999163
0.9261009950218672,1,0.999219
0.9399069027393628,1,0.999189
0.9346820683089674,1,0.996444
0.9368930906658304,1,0.999325
0.9041691443153294,1,0.998375
0.9332789741371799,1,0.998355
0.9186263256398652,1,0.999336
0.8924891901760106,0,0.983037
0.9380143964127259,1,0.999222
0.9280636521301038,1,0.998539
0.9218513246938249,1,0.998383
0.9156281740604668,1,0.998216
0.9183554363089461,1,0.999285
0.9239859206928794,1,0.998816
0.8992504964582555,1,0.999312
0.9278240091855082,1,0.999279
0.9332132275352717,1,0.993255
0.9060969708120952,1,0.998705
0.8635586448942757,1,0.999224
0.9267998865371466,1,0.999380
0.9190400333989108,1,0.998826
0.9106515646079585,1,0.999339
0.9135331620383775,1,0.999300
0.9180043354029128,1,0.999227
0.8960514407222603,1,0.999106
0.930311332473388,1,0.992647
0.9031941488472085,0,0.985839
0.887649663223115,1,0.999222
0.8951882246557392,1,0.999247
0.9364184720732923,1,0.991254
0.9110936299230645,1,0.998209
0.9444980538212807,1,0.998978
0.9236752312030518,1,0.992689
0.9231866691817449,1,0.999281
0.9080590258183723,1,0.999180
0.9309321480106592,1,0.998778
0.9215307506203599,1,0.999264
0.8929351895038066,1,0.999100
0.9207066829215969,1,0.998514
0.9258119720036164,1,0.997963
0.908399239059645,0,0.937729
0.9135650891592334,0,0.984574
0.9030531144955283,1,0.999244
0.9258802485028952,1,0.999243
0.9282208964173913,1,0.999041
0.9176573256253922,1,0.999136
0.909450733643342,1,0.997951
0.9112386705905543,1,0.998668
0.9154592446644035,1,0.998552
0.9151328814447406,1,0.997685
0.9439075299614883,1,0.999294
0.9254849535262157,1,0.998182
0.9223947902413406,1,0.999289
0.948473402289911,1,0.999258
0.9132791417219582,1,0.999277
0.9400036660225547,1,0.997625
0.9425263244117753,1,0.999363
0.9366341882650213,1,0.999415
0.95414484070238,1,0.999390
0.9137610394724185,1,0.999336
0.9307255581852746,1,0.999318
0.9216740353210198,1,0.993218
0.9328467986355159,1,0.997674
0.9324384499016745,1,0.996923
0.9332923337523654,1,0.999248
0.9352947078221933,1,0.999321
0.9360562507294762,1,0.998599
0.888526865276592,1,0.999372
0.9068906607159368,1,0.999342
0.9320942617716227,1,0.999189
0.9212028521630435,1,0.999306
0.9312825482323527,1,0.999258
0.9388235105523492,1,0.999291
0.9374192443812658,1,0.994518
0.9254467324467001,1,0.999240
0.9139992022690774,1,0.998533
0.9179710677612947,1,0.999371
0.9104743045261078,1,0.999274
0.9183192239911823,1,0.997314
0.9110060457093914,1,0.999310
0.9603513934248404,1,0.999294
0.9350005590347932,1,0.998267
0.9323018931873837,1,0.999287
0.917249535702152,1,0.999270
0.9267852070758319,1,0.999297
0.9356982470141418,1,0.997887
0.9242368881889661,1,0.998084
0.9453235318761527,1,0.998117
0.9235396329408191,1,0.999344
0.9328489907030719,1,0.999349
0.9039690177288736,1,0.999240
0.8952776231762006,1,0.999389
0.9325377636489681,1,0.997706
0.9353592254554528,1,0.999284
0.9224223503196356,1,0.992403
0.9072959872903968,1,0.999181
0.9213434999085518,1,0.999225
0.9303074865182187,1,0.999213
0.9155315857377829,1,0.997967
0.9146738343449132,1,0.999254
0.9287806995227899,1,0.999193
0.9023215034948955,1,0.999257
0.9016184167699293,1,0.999339
0.8996954857121973,1,0.999244
0.8820908529454706,1,0.999310
0.8880917006359283,1,0.999317
0.9373974736820673,1,0.998709
0.9397922209073185,1,0.997531
0.9473906651850162,1,0.993989
0.9122805469824945,1,0.998867
0.9079293525274001,1,0.999299
0.9187677549336546,1,0.998598
0.9260538166230714,1,0.998265
0.8984840737601855,1,0.998562
0.8887165502207948,1,0.996241
0.9256657954999858,1,0.998689
0.8834680138905401,1,0.999440
0.9449617125681742,1,0.998686
0.9348167147252726,1,0.996678
0.9387871935279908,1,0.999327
0.9241164975167255,1,0.998592
0.9299960944501503,1,0.997976
0.9343161679786068,1,0.998780
0.9253489002071617,1,0.998208
0.9273767716914764,1,0.998388
0.9529321096263786,1,0.998329
0.9382756118757675,1,0.999266
0.9027390416607076,1,0.999185
0.9173719097527935,1,0.999222
0.9046155217572217,1,0.999264
0.9317504651576444,1,0.999206
0.9467043419970155,1,0.999158
0.9335776393053797,1,0.999311
0.9130176742532543,1,0.998688
0.9228462800856765,1,0.999228
0.9190728569547107,1,0.999194
0.8871217991033126,1,0.999329
0.9296590169052066,1,0.999332
0.8768003802678214,1,0.997963
0.9313854415211906,1,0.999283
0.9025357317793435,1,0.998316
0.9180311675217685,1,0.999214
0.9251751273742613,1,0.999266
0.9296921781895121,1,0.996897
0.9328872251033933,1,0.999153
0.9169341302953623,0,0.951858
0.9044646683993766,1,0.998786
0.8969365874553631,1,0.998597
0.9404174229393006,1,0.998659
0.853721084744513,1,0.999150
0.8684155856917507,1,0.998649
0.9424883034683473,1,0.999359
0.93606925380662,0,0.988057
0.902758043608308,1,0.999252
0.8995918639963824,1,0.998720
0.9336696994891865,1,0.999192
0.9239758918245651,1,0.999310
0.9237971600675667,1,0.999340
0.9590179894790116,1,0.998436
0.9339723183503216,1,0.999274
0.9090593695890699,1,0.995215
0.9010148610347172,1,0.999339
0.9150737363072672,1,0.998635
0.9181429306390009,1,0.997804
0.8966404410882235,0,0.962751
0.8827317865662038,1,0.999269
0.9306706342996603,1,0.998852
0.918930141693088,1,0.999324
0.894120971086396,1,0.999136
0.9297447094768901,1,0.999229
0.8892259840184287,1,0.997967
0.9132996142825206,1,0.998256
0.9116665153076524,1,0.999364
0.8972113193060665,1,0.998534
0.8937235108315261,1,0.998775
0.8803546998289346,1,0.999255
0.9190211431197772,1,0.998463
0.8960744088147882,1,0.998053
0.8783701431192975,1,0.994248
0.9212381519061856,1,0.999327
0.9123877006035931,1,0.999272
0.9079319493467588,1,0.998451
0.9415068304365432,1,0.999263
0.9157124889731989,1,0.999162
0.9090459205334758,1,0.999072
0.8964912337510931,0,0.993189
0.9260323066900329,1,0.990863
0.9415250810662438,1,0.997612
0.9131888521637341,1,0.999403
0.9016851404190589,1,0.997748
0.9188614515518058,1,0.999315
0.9201553387758967,1,0.998995
0.9083623035540684,1,0.999299
0.8956572001186001,1,0.998628
0.9112698580616663,1,0.997987
0.9089086664092032,1,0.997569
0.9192698151810328,1,0.997445
0.9320885524467882,1,0.999328
0.8982715614741654,0,0.966273
0.8692222157839936,1,0.999219
0.9184595522634912,1,0.998968
0.8975118087245335,1,0.998366
0.9546201700684962,1,0.998580
0.9314786170753659,1,0.998506
0.9255378214229475,1,0.998301
0.9346492433705916,1,0.999283
0.9445514876734665,1,0.999252
0.9406378935259212,1,0.998762
0.9438838617891382,1,0.999403
0.9122512624337705,1,0.995921
0.9347277425491693,1,0.998953
0.9283487398143373,1,0.999291
0.9164439341139597,1,0.999341
0.9263482954746686,1,0.999304
0.9252092614623117,1,0.998619
0.9400775144406883,1,0.998674
0.9557694397227252,1,0.999073
0.9337761350134638,1,0.999211
0.9234639445794118,1,0.999306
0.9540602941058833,1,0.997396
0.9101383147151646,1,0.999418
0.9285076227113039,1,0.999371
0.9544010826179279,1,0.998981
0.9235544322634651,1,0.998280
0.946223710521545,1,0.999270
0.9153867329504455,1,0.999183
0.9338422186145022,1,0.996748
0.9113759434481462,1,0.997391
0.9251966538063209,0,0.983261
0.9392593672538878,1,0.998709
0.9514464660017116,1,0.999291
0.9494846227381772,1,0.998505
0.9326511117348301,1,0.998214
0.9114015066942467,0,0.919936
0.9331569344843285,1,0.999177
0.9222779054771879,1,0.998589
0.9418061515704121,1,0.999241
0.9054461697595991,1,0.996942
0.9482002170100251,1,0.999231
0.9376745702529216,1,0.999322
0.9144989626961703,1,0.998124
0.9359725826181156,1,0.998920
0.9499481154509213,1,0.997479
0.9533844635154771,0,0.979147
0.9439906427084161,1,0.999065
0.9314038092746852,1,0.999396
0.9305154177062002,0,0.990552
0.9195816908699558,0,0.962742
0.9164988150061827,1,0.999245
0.9034680022481628,1,0.998627
0.9018407085583048,1,0.996326
0.9025486543393879,1,0.999230
0.9363670603986414,1,0.998271
0.9154602572400649,1,0.999113
0.9242347032514219,1,0.999340
0.922764406796194,1,0.999443
0.952204727677133,1,0.997465
0.9535939473925685,1,0.999359
0.9472689256356104,1,0.998328
0.9196352620696169,1,0.999403
0.9307448037867432,1,0.999197
0.9520928304500993,1,0.999236
0.947935937335565,1,0.999163
0.9490375201904445,1,0.999419
0.9333738789571172,0,0.986474
0.9471031866105659,1,0.996525
0.9504623510567978,1,0.999213
0.9494958226024715,1,0.999373
0.9510025116931499,1,0.999318
0.9566810347974534,1,0.999300
0.948522518691853,1,0.999316
0.9000697910731404,1,0.999199
0.9348467260900695,1,0.998517
0.9432328040895906,1,0.999209
0.9460395308083754,0,0.991020
0.9231616004327414,1,0.999299
0.9166688334928953,1,0.999228
0.9456716111009931,1,0.999404
0.9425922342944046,1,0.999042
0.940119958639779,0,0.932122
0.9380853662010015,1,0.999330
0.9333354890446408,1,0.999295
0.941416175565754,1,0.999317
0.928519357290518,1,0.999272
0.9405463797092296,0,0.987654
0.9208782619723309,1,0.999242
0.9361426468839418,1,0.998006
0.9340842848748361,1,0.998698
0.9551148742150777,1,0.998472
0.9094203680394642,1,0.997930
0.9141749651377759,1,0.998227
0.9432951837155639,1,0.999366
0.9451552749122853,1,0.995630
0.914712908842129,1,0.997086
0.9434733791366735,1,0.999307
0.9456725728121537,1,0.996745
0.9151843965465448,1,0.999445
0.9362610722818402,1,0.992945
0.9216581142517931,1,0.999274
0.9077525005006248,1,0.997955
0.96066750771404,1,0.997030
0.9334835945650942,1,0.997260
0.9605919251070243,1,0.999337
0.9449296353246427,1,0.999233
0.9400688773276827,1,0.999150
0.9183198059435453,1,0.999226
0.9241724345087207,1,0.998161
0.9533593042810056,1,0.999190
0.9664910815774813,1,0.995248
0.9506504412214454,1,0.998066
0.9533162794555999,1,0.998729
0.9676566319722512,1,0.999266
0.9274692603375541,1,0.998619
0.9595671602088303,1,0.998526
0.9444920859450923,1,0.998171
0.9598557594646394,1,0.998219
0.9461104271503278,1,0.999332
0.9630082416439716,1,0.998381
0.9266244181501521,1,0.999315
0.9546823196946688,1,0.999237
0.9329558603596958,1,0.999376
0.924317021476247,1,0.996599
0.9642113280007324,1,0.999241
0.9376377105693016,0,0.975275
0.9166760320658133,1,0.998650
0.9424607012836388,1,0.999303
0.9386452652653771,1,0.999160
0.9223776562058665,1,0.999374
0.9530938036053619,1,0.998471
0.9153600066491893,1,0.999311
0.940468737595791,1,0.999254
0.9326579781390733,1,0.999138
0.9415123039073742,1,0.999304
0.9333546431988469,1,0.998379
0.9317009994799219,1,0.999333
0.9198711341304504,1,0.999249
0.929041630998408,1,0.997634
0.9175317295601816,1,0.996540
0.955160333237791,1,0.999201
0.9246647669885115,1,0.997470
0.9383914183802035,1,0.999187
0.9314169343919093,1,0.999324
0.9341601797989393,1,0.999274
0.924441604554557,1,0.999250
0.9525488835859115,0,0.990008
0.897693868676636,1,0.995888
0.9485519565973424,1,0.999249
0.9316059506292451,1,0.999095
0.9344768181120012,1,0.998540
0.9436366664665352,1,0.998669
0.956819329588364,1,0.999313
0.9234363805624884,1,0.997745
0.9314420963313031,1,0.999240
0.9337526113163594,1,0.999408
0.943635108575176,0,0.959965
0.9410681118164002,1,0.998191
0.9551089418043537,1,0.998162
0.9201928604228138,1,0.997813
0.9179903558161794,1,0.999153
0.9108628242373863,1,0.999301
0.92845858413417,1,0.998447
0.9299726081394716,1,0.997829
0.9371142140062034,1,0.996370
0.928199317182348,1,0.999425
0.96150915671416,1,0.998084
0.9124978640773631,1,0.996409
0.9206871055051424,1,0.999311
0.9326565032196177,1,0.999222
0.941133849023727,1,0.999365
0.9247120612811484,1,0.998391
0.9523049265652741,1,0.998255
0.9300424268254588,1,0.991916
0.9161925097896121,0,0.962302
0.9246651518364785,1,0.996798
0.9274871014298298,1,0.999289
0.9388856003705647,1,0.999249
0.9001602949815665,1,0.999231
0.9373980896960195,1,0.999364
0.9389336482552043,1,0.999192
0.9423211939278412,1,0.998337
0.9504647193388287,1,0.999326
0.9174627654790533,1,0.999227
0.9036273701184948,1,0.999194
0.9342318456900988,1,0.998686
0.8985672841689221,0,0.986152
0.9297526972519367,1,0.998644
0.9051605443780713,1,0.992933
0.9277330240018316,1,0.998630
0.9068930237649845,1,0.998478
0.9301359299958243,1,0.997625
0.9342239889635864,1,0.997354
0.9377475030779591,1,0.998351
0.9257291585813209,1,0.999423
0.9334178041342096,1,0.999330
0.9324560457807677,1,0.999267
0.9568323672179291,1,0.999276
0.9013713638028107,1,0.999253
0.9134560336830998,1,0.994413
0.8978993403331785,1,0.999142
0.9206718854191608,1,0.998051
0.9312671398384256,1,0.999141
0.939781277978312,1,0.996124
0.9016781794870065,1,0.998878
0.9440727515584244,0,0.988082
0.924126082271657,1,0.999417
0.8970863851316445,1,0.998679
0.9378102514730088,1,0.998705
0.9304128827520382,1,0.998100
0.9214129351162554,0,0.991840
0.90945752843308,1,0.998597
0.9524414548492133,1,0.999383
0.9372105764508789,1,0.998771
0.916670923180304,1,0.997983
0.9336698309622675,1,0.998548
0.9399216945488826,1,0.998626
0.9341166187307404,0,0.986744
0.9143656730910255,1,0.999040
0.90487726563273,1,0.999189
0.9416248904019745,1,0.998702
0.8928223157686701,1,0.999318
0.9300198800581536,1,0.999142
0.903823160831163,1,0.999371
0.9220105815670188,1,0.999163
0.9387935896879775,1,0.999040
0.9334920613912714,1,0.994345
0.9293418782069379,1,0.999302
0.9065909048238845,1,0.998636
0.8965605981581978,1,0.996141
0.9149735964483201,1,0.995961
0.8989945662531582,1,0.999322
0.9060925074209621,1,0.999392
0.8749363154899198,1,0.999213
0.9359282723386375,1,0.999201
0.9160683775394751,1,0.999306
0.9286979632622494,1,0.999240
0.896771508495165,1,0.999341
0.8989982613412334,0,0.956460
0.9306563393753944,1,0.999328
0.901664896822665,1,0.999125
0.9044126800304799,1,0.997505
0.9306502257567956,0,0.984144
0.9258001448044605,0,0.987065
0.939899264963079,1,0.999261
0.9040781741102871,1,0.999430
0.9302709399140531,1,0.999294
0.8997639028223301,1,0.999192
0.9288988192114191,1,0.999316
0.9352945428556027,0,0.982063
0.9099329845944006,1,0.997445
0.9119901533539876,1,0.999290
0.9176917675649238,1,0.999180
0.9172802936500057,1,0.999289
0.9252929080443475,1,0.999339
0.8840096598036487,1,0.999270
0.9020076782738765,1,0.999265
0.9376845801478136,1,0.999162
0.9418032686832665,1,0.999337
0.8983943739897705,1,0.998629
0.9251975978499465,1,0.999310
0.9263080266704785,1,0.999327
0.920835057161297,1,0.994197
0.9024728424193438,1,0.999267
0.892607199512532,1,0.998335
0.9166483335225724,1,0.997758
0.902910358382905,1,0.999387
0.9002414115531235,0,0.973249
0.8859060336323377,1,0.999339
0.8927973375340651,1,0.999321
0.9385331370462687,1,0.999127
0.9408699495548487,1,0.998516
0.9355753665536403,1,0.999227
0.9444189039033181,1,0.998747
0.9316492993557886,1,0.998492
0.9405333343242811,1,0.999187
0.936329414336527,1,0.999354
0.8945300417007763,1,0.998730
0.9346175019061633,1,0.999386
0.9357995273305171,1,0.999274
0.92724786465674,1,0.995645
0.9190650269488314,1,0.998519
0.9495830910159054,1,0.996374
0.9363214948599057,1,0.998045
0.9031000992760123,1,0.998755
0.9021641837249555,1,0.999391
0.9376210762889782,1,0.999286
0.9589964862388799,1,0.994510
0.9469936091624529,1,0.998734
0.9219326876970158,1,0.998853
0.9318880395402882,1,0.996482
0.9460421727911841,1,0.998481
0.9056393311329813,1,0.999379
0.903675553996791,1,0.998897
0.9377624135472676,1,0.999255
0.9200078549357894,1,0.999206
0.9466515205649774,1,0.999326
0.9057769097774413,1,0.999219
0.9302968296746384,1,0.998532
0.9444930914515483,1,0.999313
0.9155771475190966,1,0.999328
0.954733386025816,1,0.999255
0.9506977571856225,1,0.998783
0.9425027905324757,1,0.998701
0.9185752028154384,1,0.998735
0.9510423642519769,1,0.999228
0.9557217427183784,1,0.999280
0.9399721990164898,1,0.998812
0.9441792319463894,1,0.999341
0.9516699706042799,1,0.998411
0.939815168454065,1,0.999209
0.9448729243440155,1,0.999273
0.9396712420353662,1,0.999267
0.9595216801685196,1,0.999194
0.9009868033025777,1,0.999365
0.9384954077181558,1,0.998024
0.9448831261907003,1,0.999357
0.9244031672920969,1,0.998781
0.948968267767878,1,0.999236
0.9536796636311828,1,0.999351
0.9430776673460858,1,0.999396
0.9222496899037671,1,0.998514
0.9273047512616647,1,0.999272
0.952939594084389,1,0.999313
0.953473541856503,1,0.997638
0.949035974473124,1,0.994717
0.9597766124216442,1,0.999222
0.9413210659141741,1,0.998069
0.9481551663587875,1,0.999184
0.9102337316121774,1,0.998088
0.9467265592520199,1,0.998936
0.9499892177763913,1,0.999397
0.9363001152648713,1,0.999265
0.9482281580663164,1,0.999218
0.9413135848351831,1,0.999358
0.956526601483859,1,0.999175
0.9490246411561196,1,0.999263
0.9394832369578263,1,0.999213
0.9575162259712205,1,0.999305
0.9387135798305803,1,0.999206
0.9223327758536164,1,0.998585
0.939345878139788,1,0.999350
0.9347111055040512,1,0.999224
0.9355174739325746,1,0.998511
0.9444658856345687,1,0.999265
0.9244002484395035,1,0.997387
0.9340932013012325,1,0.999261
0.928430834340962,1,0.999330
0.9173032145306681,1,0.998500
0.9369290756373458,1,0.999248
0.9380285305483229,1,0.997889
0.9563786786028832,1,0.999169
0.9489643862087389,1,0.999340
0.934959425022136,1,0.999339
0.9255604713518142,1,0.999289
0.9247249289599081,1,0.999188
0.9319819973879163,1,0.998817
0.927234887142924,1,0.999387
0.9414561953462854,1,0.997863
0.9600848421038898,1,0.999322
0.9430312254713593,1,0.999400
0.9413272393376882,1,0.999280
0.9380082320376228,1,0.998653
0.9268022980689093,1,0.998700
0.941872624268333,1,0.997212
0.9131762809461473,1,0.998738
0.9492890905724217,1,0.996743
0.9252427059645184,0,0.950549
0.9413886524196035,1,0.998701
0.9546072423321694,1,0.999176
0.8967079384805422,1,0.993108
0.9066466991683394,1,0.998681
0.9268873042824498,1,0.999280
0.9359852005339994,1,0.997483
0.9406819579755376,1,0.999145
0.956680271803004,1,0.996372
0.9349221420181153,1,0.999407
0.9424588141527347,1,0.998504
0.9101518540870238,1,0.997602
0.9063890003921562,1,0.996719
0.9183350908072081,1,0.997901
0.9358437282377947,1,0.999246
0.8916225121677448,1,0.999396
0.9557560614556507,0,0.952800
0.9603753501424083,0,0.983119
0.9447830958551113,1,0.999249
0.922929591888895,1,0.998636
0.9430215189929682,1,0.999402
0.9313773208933508,1,0.999397
0.9241060678079377,0,0.984060
0.9453693314143354,1,0.999214
0.9418937661125831,1,0.998294
0.921357828131284,0,0.986373
0.92968102293091,1,0.999358
0.9449050004199149,1,0.997451
0.9294903139008656,1,0.999266
0.9368087973946249,1,0.999367
0.9297555043683396,1,0.997279
0.894895088123397,1,0.999372
0.9639441980428148,1,0.998980
0.925153321088346,1,0.998607
0.9148975863394058,1,0.998819
0.9433348883207938,1,0.999268
0.9188321182137139,1,0.999435
0.9459519607621517,0,0.982420
0.9465867930624862,1,0.999260
0.9231140833585071,1,0.999205
0.9154952513274702,1,0.999242
0.9507593613671725,1,0.999403
0.9387520530962737,1,0.999336
0.9426918140834445,1,0.998743
0.937145899428043,1,0.999380
0.9672065893940536,1,0.999286
0.9349774605544825,1,0.998724
0.9380015455919156,1,0.999204
0.9294480508488483,1,0.998729
0.9345007139960095,1,0.998486
0.9382772512297894,1,0.998590
0.9487965050177939,1,0.999016
0.9350114468707177,1,0.999165
0.9350343527244211,1,0.999376
0.9343686883531195,1,0.998124
0.9294144765217386,1,0.999230
0.9235166963865552,1,0.998567
0.9437048290998683,0,0.990678
0.9350572322070518,1,0.999134
0.9531904592192426,1,0.999304
0.9445881903055263,1,0.998213
0.9308250485123719,1,0.996206
0.9044498386686737,1,0.999289
0.9332182780274244,1,0.998559
0.9201341497316536,1,0.999103
0.9355921112892419,1,0.998998
0.913587539948982,1,0.999317
0.9293699115988641,1,0.997991
0.90455873803954,1,0.999313
0.9259993354623716,1,0.991363
0.9294682052324884,1,0.999390
0.9283930274991171,1,0.998000
0.9256542458250179,1,0.999186
0.9282717176082044,1,0.999185
0.907877029752731,1,0.999281
0.9374889628533364,1,0.998276
0.9040673531968711,1,0.999285
0.9087705140811299,1,0.999347
0.9363160346477982,1,0.999206
0.9205474136842753,1,0.999348
0.898390956539916,1,0.993725
0.925599480545296,1,0.999281
0.9079273694062155,0,0.986551
0.8955472773468904,1,0.999300
0.8960558666524127,1,0.998668
0.8888251467883711,1,0.998749
0.9470277477103145,1,0.995687
0.9452874851276573,1,0.997935
0.9379959120015579,1,0.998667
0.9425507490192273,1,0.997310
0.9370011029963642,1,0.999359
0.9187584445646086,1,0.997121
0.9433232990715898,1,0.999259
0.944722984575003,1,0.999377
0.9357241593849571,1,0.999302
0.9330917208076132,1,0.999289
0.9394258857761307,1,0.999202
0.9386262004307052,1,0.999272
0.9445784115494956,1,0.999263
0.9046892065000098,1,0.999030
0.930693691753037,1,0.998675
0.9423082973049444,1,0.998426
0.9315388519458762,1,0.999350
0.9345498883156286,1,0.999213
0.9429384812449465,1,0.999139
0.9312748411943991,1,0.998670
0.9186849123315608,1,0.999250
0.9408052463515221,1,0.999305
0.9371722181606522,1,0.999177
0.9290141395723485,1,0.999142
0.9276452551308955,1,0.998505
0.9419523071700502,1,0.998399
0.9083755720680086,1,0.999348
0.9112452339549243,1,0.999282
0.9026548862122064,1,0.999340
0.9230054308476181,1,0.999254
0.9222560967021609,1,0.999253
0.9384516762079264,1,0.999275
0.9041832680785398,1,0.998123
0.9353796207768302,1,0.996377
0.9170185252510907,1,0.999191
0.9359929665832137,1,0.999326
0.9135041850592827,1,0.998267
0.9393137127351847,1,0.999321
0.9404660062680665,1,0.999307
0.9358122662916373,1,0.998569
0.9260029413798591,1,0.992687
0.9360544375995001,1,0.998485
0.955329343179114,1,0.999203
0.9383061353822507,1,0.998484
0.9490460604022942,1,0.999273
0.9574038159625813,1,0.999280
0.9443533973067069,1,0.999197
0.9254577550532509,1,0.999291
0.894441242724145,1,0.999326
0.9431916983272539,1,0.998656
0.9530312974954924,1,0.999326
0.918463571237048,1,0.999140
0.9258803245773283,1,0.998562
0.9195210847008046,1,0.999333
0.9381613206053351,1,0.999273
0.9298583472543357,1,0.999306
0.9337281715008627,1,0.997336
0.9189318492820414,1,0.992492
0.9245457348307744,1,0.999358
0.9203564356458498,1,0.999370
0.9031931782405068,1,0.998066
0.9144306298362704,1,0.999250
0.9304782035430172,0,0.987241
0.9389643833721822,1,0.992640
0.9083169525362415,1,0.999261
0.899673125455611,1,0.999395
0.9159989387341382,1,0.992481
0.8959136191830962,1,0.999201
0.9010893015115414,1,0.998722
0.9036834381716528,1,0.999319
0.8994359515838601,1,0.995327
0.9520577133126706,1,0.996460
0.9188422228605433,1,0.999299
0.9150130747800799,1,0.998760
0.9480255052840957,1,0.999141
0.9251188065492223,1,0.999334
0.9261122205863546,1,0.999285
0.9146578363263922,1,0.999323
0.9412497999695126,1,0.999304
0.9292496641831307,1,0.997460
0.936192178712849,1,0.993774
0.9204894376384237,1,0.999097
0.9576364312393929,1,0.999332
0.9369120542533387,1,0.997460
0.9249570250756588,1,0.998216
0.9060451423765085,1,0.998434
0.9379687390690336,1,0.994783
0.9245002757804893,1,0.999314
0.9207104801203739,1,0.999202
0.9361562212081226,1,0.999218
0.9189956570047809,1,0.998501
0.9110327631388867,1,0.999272
0.9104708347453171,1,0.999230
0.9370528027842676,1,0.999385
0.9260281641504228,1,0.998678
0.8958024683149544,1,0.991623
0.9077223406614504,1,0.998702
0.9045121034126269,1,0.999303
0.9284094908103078,1,0.999326
0.9162580944362476,1,0.996564
0.9260522778667701,1,0.999284
0.9581426003741291,1,0.998705
0.9526476955810296,1,0.998725
0.9286505430612801,1,0.990926
0.9356496208674401,1,0.993475
0.9581195765599098,1,0.999236
0.917353405241016,1,0.998650
0.9340297352829984,1,0.997984
0.9253704939643975,1,0.998660
0.9259528639104224,1,0.999245
0.9311662146034946,1,0.997352
0.9207655083695848,1,0.999288
0.8939931665095494,0,0.977904
0.9037068411001967,1,0.998536
0.9340080837367478,1,0.999165
0.9364270626472092,1,0.999330
0.9490359983883403,1,0.999172
0.9209037961402642,1,0.999321
0.9063016146356779,1,0.998839
0.9267377352388038,1,0.999372
0.9037638809158449,1,0.999356
0.9400572403953661,1,0.999197
0.9212598835840129,1,0.999330
0.9282597480325638,1,0.999339
0.8866683162171153,1,0.999211
0.9205538797809382,1,0.999087
0.9035690543509436,1,0.996841
0.8748249170451589,1,0.998869
0.9296344019829137,1,0.999372
0.9296810418091893,1,0.999435
0.919639149935545,1,0.995766
0.9248087070223401,1,0.999266
0.9145093539997462,1,0.999228
0.9201457353525345,1,0.999252
0.9145081224477699,1,0.996249
0.934071002547281,1,0.999241
0.9092756856139033,1,0.997275
0.9318546966446173,1,0.998605
0.9065211521854498,1,0.999316
0.927569325959744,1,0.999266
0.9029254715402449,1,0.999200
0.8858874311637833,1,0.998596
0.9058205424238985,1,0.999258
0.9334775306646049,1,0.997674
0.9078553044213648,1,0.999301
0.8838730354403468,1,0.998715
0.8572050976012106,1,0.997900
0.9563296082642359,1,0.999375
0.9363489379966834,1,0.998374
0.9523095731901122,1,0.999398
0.952275887008531,1,0.999234
0.9335959563314519,1,0.998285
0.928410842941305,1,0.996501
0.9311844392680034,1,0.999367
0.9315681023185425,1,0.999303
0.9096040973468679,1,0.999444
0.8954649446546654,1,0.991568
0.9197904441379943,1,0.999421
0.9271547944504368,1,0.999316
0.9106464558342139,1,0.999325
0.9425699694534276,1,0.999286
0.9357301449794098,1,0.997935
0.9185022610254283,1,0.999383
0.9394884175779757,1,0.999296
0.9353438579370992,1,0.997922
0.9137829521756762,1,0.997132
0.9078584630701504,1,0.997573
0.9493659994765615,1,0.999317
0.9194362724555866,1,0.998328
0.9285527804022294,1,0.998155
0.9187969343780718,1,0.999271
0.9314755798047221,0,0.983019
0.8907639381015584,1,0.999345
0.9132995975973657,1,0.998171
0.9439702129534085,1,0.997366
0.9261049376910826,1,0.999311
0.902838781467875,1,0.999129
0.9296940324508918,1,0.999112
0.9006280052023842,1,0.997403
0.9126010738435436,1,0.996224
0.9091692740574582,1,0.999479
0.9385805890499089,1,0.999258
0.9358390058369586,1,0.999293
0.9404271291756036,1,0.999217
0.9101887847432114,1,0.998465
0.9160384893624752,1,0.999289
0.9282747196404126,1,0.999242
0.8937710191653797,1,0.999354
0.9116498535116468,1,0.999145
0.9008613561766625,1,0.995475
0.9256264819438226,1,0.998534
0.903987643339808,1,0.999199
0.9140321107499693,1,0.998577
0.8985829503811437,1,0.999407
0.8793423386361888,1,0.999279
0.8942510720087469,1,0.999106
0.8833150602368669,1,0.999290
0.9384513146281205,1,0.999162
0.9263706206208001,1,0.998646
0.9339444176159024,1,0.999424
0.9360182871315352,1,0.999309
0.9336281360873362,1,0.998571
0.9432933950789226,1,0.998262
0.93978909533496,1,0.999295
0.9520523004100456,1,0.998831
0.9363311519885255,1,0.998235
0.927637427354155,1,0.999309
0.9237042316540639,1,0.992701
0.942426449456855,1,0.989449
0.9556875582625948,1,0.987294
0.9364913248252005,1,0.999337
0.9141118513675484,1,0.998869
0.9522872302513408,1,0.999339
0.9424392368199491,1,0.999238
0.9518337863664722,1,0.998558
0.947005693857052,1,0.999171
0.9238764198310339,1,0.997694
0.9454911300879494,1,0.999283
0.9188010652202558,1,0.999356
0.9306125545603657,1,0.999249
0.9076920338415457,1,0.999184
0.9146826185904899,1,0.993238
0.9079622526430221,1,0.998879
0.9209807276985963,1,0.999304
0.9388868327480683,1,0.999398
0.9487006684115277,1,0.999339
0.9206970967775028,1,0.998733
0.9058203482363352,1,0.999101
0.9079595694545722,1,0.999261
0.9305889737849089,1,0.998571
0.9090739211016935,1,0.998794
0.9448878142147746,0,0.990023
0.9190047698108786,1,0.998718
0.944542209274371,1,0.996689
0.9476308238040531,1,0.998276
0.9230135035719472,1,0.999442
0.9236405116955443,1,0.998119
0.927244352968626,1,0.999379
0.9192641459702839,1,0.998008
0.9288021608547479,1,0.999380
0.9160320430956357,1,0.999310
0.9474227169196464,1,0.999194
0.9215771645416853,1,0.999307
0.9477936392608953,1,0.999287
0.9411863314431124,1,0.999203
0.9371275540079743,1,0.999308
0.925438184070368,1,0.998773
0.9293536513798349,1,0.996163
0.9539764072744972,1,0.998544
0.937385495874855,1,0.998450
0.9301882714962132,1,0.999307
0.9444482062697398,1,0.998456
0.9226434686752611,1,0.998888
0.9403344345651433,1,0.999224
0.9365003616069503,1,0.999160
0.92071864344089,1,0.997440
0.954616523665134,1,0.999185
0.9287514965518076,1,0.999282
0.941751934064997,1,0.998060
0.9441444240809034,1,0.998357
0.9436050342646366,1,0.999244
0.91079041764559,1,0.988750
0.9080544938957521,1,0.998862
0.9624283071156121,1,0.999531
0.9654342104756641,1,0.999146
0.9362769507158529,1,0.997008
0.9473362856278746,1,0.999319
0.9343282755962253,1,0.999402
0.9652893212442464,1,0.999282
0.9512709204785744,1,0.997985
0.9478976208202636,1,0.999128
0.9659278112877329,1,0.999306
0.9509270586434903,1,0.997637
0.9431115202457129,1,0.999351
0.9291569555377547,1,0.999307
0.9315712945846958,1,0.998644
0.952875063278385,1,0.999277
0.9455108855511808,1,0.998420
0.9429720652093492,1,0.995788
0.9654642611486949,1,0.998530
0.9167993432265885,1,0.999285
0.9374535295191445,1,0.999183
0.9374237888475507,1,0.999265
0.9440192280785759,1,0.993971
0.9581261909781473,1,0.998540
0.9377589502824701,1,0.999351
0.9373659054611726,1,0.998845
0.9309438119792407,1,0.999162
0.9389882546543348,1,0.999340
0.9193051965252879,1,0.995885
0.9649849270834445,1,0.998747
0.9550433462002641,1,0.998669
0.9306835033010689,1,0.997789
0.9358814197709284,0,0.986413
0.9327960330524987,1,0.999238
0.95102992654059,1,0.999325
0.946682845139832,1,0.999350
0.9536651071400353,1,0.999189
0.9479521721647607,1,0.998639
0.9569387796673602,1,0.998431
0.934480956034369,0,0.984252
0.9337753540826764,1,0.999220
0.9400538630410447,1,0.998158
0.9354986742905514,1,0.998353
0.9457102424468264,1,0.999332
0.9254862124028146,1,0.999363
0.9424508378779204,1,0.999127
0.9261913573696371,1,0.999313
0.9582001710014796,1,0.999213
0.929945085617742,1,0.999338
0.9348236340050287,1,0.999150
0.9443827713036571,1,0.999336
0.9415309290609262,1,0.999374
0.9163603282587184,1,0.998690
0.9170507888802775,1,0.999124
0.931733007526188,1,0.999189
0.9312232417914633,1,0.999277
0.9224806245228766,1,0.999340
0.9475220263136835,1,0.998404
0.9341669701923186,1,0.999281
0.9230954590150063,1,0.998843
0.9374864028835639,1,0.998425
0.959266685440965,1,0.999274
0.9057830443497569,1,0.997253
0.9387499804376708,1,0.997703
0.9328404042643077,1,0.999087
0.9416174800512381,1,0.999384
0.9175364276927219,1,0.999251
0.9350254864723013,1,0.997329
0.9227770065701032,1,0.995314
0.9386824864791492,1,0.998933
0.8933428995048655,1,0.999166
0.9329585080160364,1,0.998331
0.9257046615922414,1,0.999339
0.9202227969678316,1,0.998225
0.9022455660654762,1,0.999392
0.9122407165936661,1,0.998757
0.9036185123997218,0,0.984962
0.9495781775319387,1,0.998537
0.9534366149135906,1,0.999252
0.9328519889345073,1,0.999328
0.9563965739140989,1,0.999254
0.9455653544002289,1,0.999293
0.9385077318729987,1,0.996187
0.9358333297469154,1,0.999206
0.9500659230137984,1,0.999267
0.949891149620816,1,0.998088
0.948332437786498,1,0.995972
0.9598878627704991,1,0.993779
0.9548920647464699,1,0.999233
0.9035949792953001,1,0.999378
0.9480864749270578,1,0.999056
0.9291874007899728,1,0.996756
0.9483864469220474,1,0.999250
0.9264588260782614,1,0.999309
0.9421719592781745,1,0.999316
0.9055581573857517,1,0.999071
0.9377170639790969,1,0.999088
0.9370873572838474,1,0.998810
0.9397894211009877,1,0.998809
0.9457825087384193,1,0.999203
0.9454218925434258,1,0.999192
0.9068528919075165,1,0.999112
0.945390778444763,1,0.999303
0.9495517235895735,1,0.999214
0.9506641489717388,1,0.999382
0.9413213945019208,1,0.999237
0.9296543414892641,1,0.999370
0.9235820602412305,1,0.999361
0.8870198592743732,1,0.998720
0.9388354717506056,1,0.999181
0.9340014294851264,1,0.998734
0.9378521720673265,1,0.997678
0.9349041767288377,1,0.999145
0.943426729194257,1,0.999213
0.9399603194222197,1,0.999263
0.9289702687745379,1,0.999286
0.9104484018619766,1,0.999402
0.9378137750519416,1,0.999436
0.9395386623889795,1,0.999359
0.952441221826952,1,0.995508
0.9587586884430137,1,0.999136
0.9517605328904297,1,0.998431
0.933643933809518,1,0.998283
0.9459492296613145,1,0.999144
0.9224478421110761,1,0.997218
0.9403583316789978,1,0.996902
0.9367035830599861,1,0.998221
0.9256629640229228,1,0.999402
0.9447130455878702,1,0.998286
0.9215087127737761,1,0.999203
0.9236776879132124,1,0.997602
0.9234287290531841,1,0.999088
0.9230923204566892,1,0.998663
0.9174633624920625,0,0.970504
0.9491202963609031,1,0.999244
0.9273067209292287,1,0.999336
0.9432584481871844,1,0.999268
0.9334044492326824,1,0.995844
0.9460944187800073,1,0.999239
0.9437805842256539,1,0.998450
0.9594489145600955,1,0.999253
0.9713669230423136,1,0.998489
0.9515799134581855,1,0.999311
0.9254145499156071,1,0.999284
0.9583359436934196,1,0.998721
0.9440186808761873,1,0.997225
0.9428990248661622,1,0.999206
0.9489422274879012,1,0.999214
0.9331366353030152,1,0.999213
0.9204607165237431,1,0.998717
0.9231518097441161,1,0.999205
0.9427932022213393,1,0.998737
0.9473780561615603,1,0.998993
0.9475127368276158,1,0.999238
0.9500156619766406,1,0.995935
0.932850232654752,1,0.998249
0.9543662635252372,1,0.997633
0.9289627709231486,1,0.993950
0.9232527992601592,1,0.999339
0.9102827878370278,1,0.998638
0.9274551170520543,1,0.997875
0.945788051126892,1,0.998160
0.9407709308092,1,0.999282
0.9400082796469463,1,0.999231
0.948795762245553,1,0.999315
0.9284107196126186,1,0.998826
0.9428620703741494,1,0.997973
0.9306293091569635,1,0.998711
0.9181026231049051,1,0.999300
0.9372954786606426,1,0.997655
0.9223032256868965,1,0.998707
0.9471939549829393,1,0.999389
0.916250970592533,1,0.996555
0.9279589675854113,0,0.988330
0.9349881114495917,1,0.999194
0.9330921252503825,1,0.999320
0.912997414990125,1,0.999317
0.9224901263474914,1,0.997611
0.9385114596471009,1,0.999213
0.9189205366393391,1,0.999251
0.9535598521843698,1,0.999319
0.9386176850158297,1,0.998777
0.9399275706671646,1,0.999424
0.9302495552060537,1,0.999422
0.9093594713393012,1,0.998451
0.92971705927457,1,0.999301
0.9274590358230451,1,0.999134
0.9269151124416289,1,0.999282
0.9449385591603202,1,0.998459
0.9295712701569796,1,0.999240
0.9285417902517219,1,0.999289
0.9463863276827372,1,0.999299
0.9363755001368798,1,0.997153
0.9332915510000428,1,0.996464
0.9503010612962083,1,0.999270
0.9380004008333904,1,0.995396
0.9031948832177509,1,0.998847
0.9342685936465871,1,0.999284
0.9600053991258225,0,0.978925
0.9302584421495208,1,0.999281
0.9445116846879784,1,0.995192
0.93424727110892,1,0.999143
0.9323548585057219,1,0.999316
0.9274036097084101,1,0.998386
0.9146588437476721,1,0.999325
0.9352564635230767,1,0.999320
0.9288580405322021,1,0.994693
0.9129126924224966,1,0.999192
0.9168134112386848,1,0.999268
0.9299615065216805,1,0.998390
0.9068625137500534,1,0.999213
0.9412831191662918,1,0.999235
0.9025627080222467,1,0.996506
0.952358895339509,1,0.997141
0.9292179832573562,1,0.999292
0.8996720867924666,1,0.998044
0.9109297691518113,1,0.998538
0.9102209969477724,1,0.998862
0.9562055952820315,1,0.998426
0.9310438340021454,1,0.999266
0.9258955258419436,1,0.999266
0.9368227909999547,1,0.999419
0.9329594841511996,1,0.998394
0.9360085364047112,1,0.999331
0.9230849152971862,1,0.999261
0.9457951341282642,1,0.999144
0.9296669842903238,1,0.999352
0.9436118181796138,1,0.999435
0.9375361957198868,1,0.999337
0.9339629968072579,1,0.998505
0.9281835910905115,1,0.998009
0.9322772010196239,0,0.990647
0.9172261765213543,1,0.999341
0.931490243421341,1,0.999243
0.9244319127267795,1,0.997692
0.9152739791196067,1,0.999315
0.9390328072868618,1,0.994024
0.9351834903609935,1,0.999148
0.9327334614303057,1,0.999402
0.9200666761271326,1,0.999389
0.9597401339626561,0,0.963687
0.9043293050108182,1,0.998701
0.9002804482654466,1,0.999225
0.9464754283326873,1,0.998066
0.9242524750424553,1,0.999353
0.945306459711803,1,0.998630
0.9448150962770067,1,0.998496
0.9225049461346487,1,0.999258
0.9288787701387415,1,0.998420
0.9375552575649897,1,0.999240
0.9351496922748966,1,0.999249
0.9370520487197296,1,0.999239
0.9249778546458038,1,0.999324
0.9284356301695209,1,0.998884
0.9349506152946733,1,0.998620
0.9339812912177488,1,0.998092
0.9205902621220858,1,0.999332
0.9230493455621388,1,0.999378
0.9139476294108545,1,0.995641
0.911451467056967,0,0.975904
0.9475415438841356,1,0.998308
0.9155648875779144,1,0.998450
0.9109251615684131,1,0.999337
0.9103283826733107,1,0.998996
0.9193490279312935,1,0.999354
0.9260070283152014,1,0.999191
0.9376932840377575,1,0.999270
0.9248067651876215,1,0.999245
0.9214874344097836,0,0.990705
0.9068030039846736,1,0.999197
0.9071473931684304,1,0.998682
0.905278407873011,1,0.995268
0.9258280284182696,1,0.995699
0.9292224364889754,1,0.996805
0.9388381863710387,1,0.999375
0.9280709498827455,1,0.998204
0.9023632827226519,1,0.998006
0.9102085391447233,1,0.992165
0.9274367569171398,1,0.999331
0.9221893373623022,1,0.999167
0.9292129591804801,1,0.999269
0.9433120254804265,1,0.999293
0.9242329400281787,1,0.992120
0.9224811915905775,1,0.999366
0.8830889320373939,1,0.994774
0.9302926744400756,1,0.999234
0.9226642281596186,1,0.993569
0.9066070004296193,1,0.997563
0.9218453389338089,1,0.999265
0.9370135519142291,1,0.999271
0.9315644713911616,0,0.978755
0.924424120446816,1,0.999294
0.9318174262907095,1,0.997505
0.9105103188773606,0,0.973422
0.8925147904455738,1,0.998539
0.9069372846048152,1,0.999350
0.9069749110565948,1,0.999224
0.9210448115564615,1,0.994934
0.9356417755764318,1,0.999283
0.9381244958728906,1,0.998564
0.9389243686276036,1,0.999372
0.9258695159689286,1,0.998132
0.907911782876192,1,0.995932
0.928464874603204,1,0.999235
0.9417185857228434,1,0.997974
0.9398093449110165,1,0.999268
0.9362856694780838,1,0.998357
0.9253650486928828,1,0.997458
0.9595712737022157,1,0.990099
0.9593381379613144,1,0.999228
0.9472130381714281,1,0.998633
0.9242589269830718,1,0.999346
0.9508697268080403,1,0.997801
0.9422945997883038,1,0.999325
0.9360836049638832,1,0.999363
0.953160590306342,1,0.999146
0.9265459469018621,1,0.999040
0.9032677758171265,1,0.999198
0.9326196568060388,1,0.998920
0.9047130101239459,1,0.998236
0.9349916377429516,1,0.998056
0.9292354866680814,1,0.998886
0.9390983494539825,1,0.999337
0.9262820001575439,1,0.999258
0.946738955677513,1,0.999236
0.91304574071613,1,0.999130
0.915192866882002,1,0.999033
0.9436055860717573,1,0.999288
0.944514826692189,1,0.998567
0.9224411569748676,1,0.997553
0.9200147242975746,1,0.999287
0.9337178639694502,1,0.999397
0.9151766754093016,1,0.998353
0.9068146237958221,1,0.998074
0.9399933345894012,1,0.999370
0.9382237422921217,1,0.997585
0.9352948962572697,1,0.994662
0.9081211760035685,0,0.990709
0.882078158806805,1,0.996103
0.9355198343654886,1,0.999187
0.9173893192749121,1,0.995732
0.9547349079748295,1,0.999305
0.9218571454171285,0,0.972122
0.9176752688868312,0,0.936458
0.9275794055226524,1,0.999304
0.9511806148011142,1,0.999197
0.9385730884773549,1,0.998697
0.9367096633837456,1,0.999281
0.9394165929637143,1,0.998265
0.9305065136396755,1,0.999090
0.9513287656631342,0,0.963415
0.9243382650094888,1,0.999233
0.9494473990763901,1,0.999244
0.933810024429164,1,0.999248
0.921875683413086,1,0.998878
0.9436594149067001,1,0.999286
0.9337923495571204,0,0.972265
0.9393876579456534,1,0.998868
0.9216075829732241,1,0.999342
0.9428854905258353,1,0.999181
0.942028905014796,1,0.999261
0.9365476352833729,1,0.999292
0.9290988559256463,1,0.999302
0.928910093051262,1,0.999355
0.9377194719000704,1,0.999361
0.8974486207139852,1,0.998572
0.9255330248917534,1,0.999201
0.9090354540057518,0,0.982358
0.944505556838898,1,0.998140
0.9063708736781774,1,0.999310
0.920404375211582,1,0.999107
0.9280253888281776,1,0.999380
0.9085810406879524,1,0.999315
0.942342954736264,1,0.999305
0.912704249802257,1,0.998880
0.9202866310571178,1,0.999362
0.9306279601614913,1,0.998656
0.9355193662378037,1,0.999284
0.9164717210419782,1,0.996051
0.9416982480807917,1,0.998666
0.9313014074317442,1,0.995585
0.9326950223089358,1,0.998789
0.9239535620787409,1,0.999337
0.9268753698253784,1,0.999071
0.9113315179564961,1,0.999426
0.91559024004396,1,0.999288
0.9389524661382292,1,0.999402
0.9455507934615881,1,0.999317
0.9366466297618932,1,0.999169
0.9448269939958742,1,0.999133
0.9358016676581008,1,0.998327
0.904693774158211,1,0.999373
0.9412694086729434,1,0.998789
0.9302234283682888,1,0.999202
0.9156473191047771,1,0.999321
0.9260394574142996,1,0.999231
0.9153906632911881,1,0.999073
0.9346399816850111,1,0.999246
0.9146653060387843,1,0.999289
0.9388138190138948,1,0.999299
0.9143548098383847,1,0.999296
0.9359829067479689,1,0.998522
0.9187894077633337,1,0.999297
0.9067459746995856,1,0.999325
0.9032957900288575,1,0.999298
0.9464055138237912,1,0.999197
0.9277298718872423,1,0.999252
0.9170036169053919,1,0.999295
0.9204512401894095,1,0.998369
0.924419514353701,1,0.998775
0.9180651263600079,1,0.998618
0.9300512377604463,1,0.999252
0.8959990730740792,1,0.997904
0.9295455077819905,1,0.998105
0.8748167991472704,1,0.999239
0.9422150301293531,1,0.999341
0.9295669024303944,1,0.999266
0.9505011591286532,0,0.986373
0.9529986519561984,1,0.998782
0.9378788444830014,1,0.998591
0.9454774495423939,1,0.999255
0.9492878500348848,1,0.997729
0.9284831300725567,1,0.999321
0.9366889091489661,1,0.999221
0.9177350229142511,1,0.999193
0.9499309551383006,1,0.999190
0.9187656436183408,1,0.999388
0.9277725256446586,1,0.999200
0.9334043790565941,1,0.999126
0.9296373913397288,1,0.999167
0.9195071547984712,1,0.999376
0.9434654760485826,1,0.998420
0.9348328386125009,1,0.999169
0.931098600265871,1,0.996626
0.924674403656141,1,0.999345
0.9253442272564469,1,0.998728
0.944612468183598,1,0.998618
0.9184381231484617,1,0.999267
0.9280516476770868,1,0.999133
0.9166523590689033,1,0.999271
0.9474489188986831,1,0.998599
0.9237167102495576,1,0.998478
0.9092947837528415,1,0.999333
0.9095452430656397,1,0.999297
0.9440533896868617,1,0.998500
0.9232155555258743,1,0.998655
0.9325305326151113,1,0.999201
0.9423894029693367,1,0.998834
0.9039873246722628,1,0.999162
0.9304432178223927,1,0.999322
0.9090908332244718,1,0.999053
0.9071837299278911,1,0.998046
0.9214780218265564,1,0.999359
0.930182899570615,1,0.998650
0.9188071738717359,1,0.999157
0.9022452411405409,1,0.999319
0.8889177388386479,0,0.980769
0.9052143258314267,1,0.998778
0.9425529582582285,1,0.999189
0.94479828947997,1,0.999410
0.9534755085276805,1,0.999251
0.9331183354857797,1,0.999365
0.9189867455611526,1,0.998702
0.9173613137393598,1,0.999153
0.937489154615303,1,0.998285
0.9385366714436978,1,0.999151
0.9159516831073264,1,0.999251
0.9382655063148744,1,0.999309
0.9359017118704587,1,0.999361
0.9234021580045515,1,0.999288
0.909392171989408,1,0.996812
0.9319139904541289,1,0.999299
0.9248909391129357,1,0.999281
0.9399425920320005,1,0.998665
0.9063445599274234,1,0.999361
0.9032109260643282,1,0.998513
0.9026903147855252,1,0.999259
0.8757123080593705,1,0.998267
0.9138563661635477,1,0.999337
0.9015830189415523,1,0.998653
0.9179297915589792,1,0.999373
0.9445185712039752,1,0.998742
0.9207685812860912,1,0.999395
0.9283759134228203,1,0.998607
0.9054000554809309,1,0.999306
0.9244970941910996,1,0.999283
0.932113955860856,1,0.999092
0.948966111126511,1,0.999374
0.9200681878396333,1,0.999405
0.9237952935523709,1,0.998466
0.9201158439267774,1,0.999268
0.9040285519131303,1,0.998762
0.9293993046026077,1,0.998586
0.9416316552468749,1,0.999324
0.9268246164767489,1,0.999174
0.9080695556374365,1,0.999257
0.9155601355294166,1,0.998739
0.9346261844250824,1,0.999230
0.9164666743931638,1,0.996966
0.902634875925839,1,0.999277
0.9258157601175949,1,0.997573
0.9128615733441268,1,0.998294
0.9345319833897883,1,0.998450
0.9385839034743186,1,0.999217
0.9008335681295302,1,0.999308
0.8910311800092485,1,0.998529
0.9523460431678502,1,0.999341
0.9475453632128337,1,0.998694
0.9532155105842982,1,0.999288
0.9443216654270464,0,0.987981
0.9264618855711533,1,0.999394
0.9504810817080223,1,0.999327
0.9312579205705678,1,0.999359
0.940329132604249,1,0.999287
0.9078796506589114,1,0.998835
0.9304990854664645,0,0.953425
0.9440735598372251,1,0.999248
0.9368046590238119,0,0.990670
0.9366504776900837,1,0.998431
0.9353578933606688,1,0.998205
0.9652392211720515,0,0.990661
0.920291926491974,1,0.998146
0.9516357324506188,1,0.999185
0.949021626580545,1,0.999245
0.9017238962252687,1,0.999139
0.9120158635947445,1,0.999261
0.9488909090665536,1,0.999136
0.9377000906184648,1,0.999192
0.9279135675690698,1,0.997559
0.9538618485648465,1,0.996772
0.919498019920439,1,0.999249
0.9410475486288542,1,0.998053
0.9413825767058726,1,0.999394
0.9334375517887399,1,0.999338
0.9102888370041637,1,0.999102
0.9023271419745286,1,0.997948
0.9386766849887828,1,0.991150
0.9451101638455123,1,0.999208
0.933072412719763,1,0.998560
0.9319595725500558,1,0.999329
0.905979696480904,1,0.999325
0.9486206727437029,1,0.998405
0.9262277364239223,1,0.999359
0.9456507814577376,1,0.998606
0.9335940594337931,1,0.999376
0.9364965902982223,1,0.997283
0.9620913534468962,1,0.999384
0.9362035222421972,1,0.999400
0.9503193575529264,1,0.999291
0.946350678832761,1,0.992730
0.9588057515116853,1,0.999141
0.9408145369325044,1,0.993482
0.9337447096801886,1,0.998712
0.9372727591098275,1,0.998895
0.9405946503102396,1,0.998601
0.9506842275879763,1,0.998396
0.9478607346336287,1,0.999376
0.9429335103114547,1,0.999211
0.9458435464842196,1,0.999288
0.9372402228295127,1,0.995693
0.9581517100472507,1,0.999261
0.9283636601716584,1,0.999281
0.9043057854968487,1,0.997797
0.9282531491262904,1,0.998733
0.929363394932457,1,0.999419
0.9228328547483776,1,0.999211
0.8894342434613695,1,0.999479
0.9440982198880467,1,0.999404
0.9320248675502982,1,0.999197
0.9527337290354306,1,0.999307
0.9283638758704202,1,0.999195
0.9489511892501126,1,0.999310
0.9408130374268361,1,0.998005
0.92158406241238,1,0.999448
0.9358129163823212,0,0.960069
0.9201572236920323,1,0.999185
0.9300711399520982,1,0.998160
0.9262507445130584,1,0.998160
0.9437109781049863,1,0.999132
0.928442634149159,1,0.999377
0.930388932224397,1,0.999261
0.9311731639549334,1,0.999331
0.9361427764157779,1,0.999272
0.9300152764140285,1,0.999304
0.8984408428074594,1,0.997189
0.9403688045621733,0,0.957130
0.9401697134635982,1,0.999363
0.9173447053786326,1,0.997938
0.9352386159126673,1,0.997708
0.9261773961346456,1,0.999326
0.9387477738900077,1,0.998409
0.9191028107642044,1,0.998621
0.9240332779619064,1,0.997786
0.9327486880909158,1,0.999300
0.9260348921421622,1,0.999438
0.924347791140334,1,0.999152
0.9228982261568038,1,0.999416
