0.511208674906046,0,0.984055
0.6579811583703445,0,0.888104
0.7367532875041478,1,0.995321
0.8536224498793171,1,0.996476
0.7762209955500105,1,0.999381
0.8778504941295091,0,0.734031
0.8701084316001219,1,0.999385
0.9023178464110875,1,0.999336
0.8834774131913232,0,0.991497
0.8621259896614971,0,0.912147
0.8764046697873431,1,0.994438
0.7712453094465354,1,0.994448
0.8615665366802234,1,0.995730
0.8971998771843631,0,0.964835
0.8378455482263282,0,0.919486
0.9205986939080061,0,0.972569
0.9152523926581987,1,0.998358
0.9366243842521851,1,0.998580
0.9351925859756343,1,0.998528
0.9200841002806807,1,0.995465
0.9338337376111158,1,0.999044
0.9199147248412132,1,0.997687
0.950991236875493,1,0.997167
0.8371707271565003,1,0.995018
0.8745227717048848,1,0.997151
0.9086437438546358,1,0.999282
0.9148461541365936,1,0.999411
0.9183800646325527,1,0.998336
0.9145287464800422,1,0.999058
0.9350123669531675,1,0.995512
0.8805313359974154,0,0.733909
0.9106218401273173,1,0.995184
0.9397226964658157,0,0.972973
0.9577247468306005,1,0.995825
0.9355472342097334,0,0.955224
0.9067175405025001,1,0.999372
0.8906479341508432,0,0.797880
0.930196481175168,1,0.996554
0.9131590313946366,1,0.995987
0.9328012550271562,1,0.999186
0.9288899862477245,1,0.999129
0.9037239934315886,1,0.994935
0.9158779180494763,1,0.996573
0.9510375125528651,1,0.996205
0.924430109477615,1,0.994872
0.9347913667627696,1,0.999357
0.9454274554312617,1,0.999199
0.9404386880267835,0,0.962264
0.9518329687964986,1,0.999324
0.9241461511613539,1,0.997279
0.9458687131817838,1,0.993939
0.929760164653216,1,0.992748
0.9470875148065364,1,0.995627
0.9295724311539114,1,0.997980
0.9516369094903894,1,0.999064
0.8567936614616634,1,0.995682
0.9256142432955645,1,0.997804
0.9320448806157274,1,0.997818
0.9184153868995987,0,0.975361
0.9280099612645846,1,0.998456
0.9486177840458044,1,0.998753
0.9065188790783748,1,0.998060
0.9248487594452798,1,0.996127
0.9403846602949767,0,0.869814
0.9148537853045665,0,0.859696
0.949033187345223,1,0.999212
0.95547574551941,1,0.999238
0.9238489670766542,1,0.999191
0.952628553952869,1,0.999376
0.9608889448088924,1,0.999355
0.9467480493052454,1,0.999286
0.959367134864564,1,0.998748
0.9371855640950227,1,0.997175
0.8551068567067702,0,0.975923
0.8815198379185303,1,0.998350
0.9267687393820221,1,0.999218
0.9224387770285201,1,0.998268
0.9344049623414198,1,0.998577
0.9082487661041457,1,0.995205
0.8846062592881138,1,0.994953
0.9217910644144538,0,0.991995
0.9147455940858842,0,0.968329
0.9167953158343484,0,0.950609
0.9200221374407561,1,0.997335
0.9193873331953926,1,0.997433
0.927478813572576,1,0.996133
0.9183558631583422,1,0.999278
0.9008259169948454,1,0.994129
0.9460364156279809,1,0.998897
0.9281025428174559,1,0.998602
0.8983342179931117,1,0.997406
0.9073135065596163,1,0.994448
0.9008105120939425,1,0.997137
0.9069623334350622,1,0.997222
0.8760272338541959,0,0.893617
0.8535213740944172,0,0.908230
0.901479787291383,1,0.995611
0.89900498118001,1,0.999317
0.9402601397297079,1,0.997262
0.9310534041463134,1,0.998997
0.9372843189272122,1,0.998629
0.9556399439530646,0,0.961727
0.9377050358497747,1,0.997490
0.9429612813472299,1,0.998145
0.9248080470338115,1,0.997234
0.9421113382535778,0,0.983168
0.9531960224029913,1,0.998662
0.9370096623446965,1,0.995395
0.9398907417895978,1,0.994382
0.8753997387343355,0,0.898649
0.9528134485196722,1,0.999011
0.9294644394258786,1,0.998086
0.8982121322346753,1,0.999253
0.8692802598041963,1,0.996556
0.8706520668756362,1,0.993338
0.9098163206007113,1,0.998690
0.8932177873386464,0,0.928323
0.8299166658751421,1,0.995283
0.8493090813141341,0,0.838990
0.9075815292995885,0,0.888987
0.9163150922574562,0,0.877301
0.8794003929395596,1,0.996761
0.8588121557510571,1,0.999386
0.8930646908731273,1,0.998951
0.8924365608855844,1,0.997030
0.9007869860228432,1,0.996766
0.9056877626275562,0,0.992926
0.9191494347622673,0,0.934385
0.9288210270982193,0,0.991930
0.9115755739419008,1,0.996845
0.9224229634722858,1,0.999274
0.9308292221817588,0,0.989544
0.9109636622005594,0,0.973207
0.9443932077860221,1,0.993007
0.9304011753773767,1,0.999308
0.9279852881008829,1,0.990062
0.9056599862268683,1,0.998641
0.9049208185084071,0,0.989848
0.9409697274353781,1,0.998397
0.9031374640357307,0,0.907430
0.9409176568787176,0,0.941094
0.9436243171328262,1,0.999305
0.9178018624887014,0,0.981481
0.8095955920516233,0,0.948540
0.8586153614206393,1,0.998344
0.8841207202013561,1,0.998996
0.9128886955915321,0,0.910951
0.8974841969962525,1,0.997776
0.8700141580891345,0,0.951020
0.9145649395507941,0,0.983275
0.9125083480689582,0,0.986486
0.9147962646557478,1,0.990950
0.889963645067208,0,0.885734
0.8841964240170235,1,0.993358
0.8893782987545497,1,0.996717
0.8844541520969548,1,0.997928
0.9040855109309799,1,0.993157
0.92431724056154,0,0.985577
0.8996330369888232,1,0.996718
0.9329230194264686,0,0.982188
0.930502466083375,1,0.998378
0.9304376537260646,1,0.999361
0.9311134402387895,0,0.942605
0.8717564292796738,1,0.992776
0.9174419080663413,1,0.997157
0.9113406254186412,1,0.999309
0.8659939605505437,0,0.982456
0.9137788021494563,1,0.997708
0.9210109882616532,1,0.992877
0.9023316534891174,1,0.997519
0.8625955867945513,0,0.988070
0.8423746050970152,1,0.992674
0.8453043058290105,1,0.994868
0.83529622255475,0,0.982278
0.8721038855168431,1,0.999356
0.9028935380131934,1,0.995034
0.9038581498970176,0,0.982737
0.9091753809010245,1,0.998657
0.9332344294462631,0,0.988131
0.9229652443772803,0,0.957993
0.9233300010354791,1,0.993060
0.9355538640526555,1,0.999203
0.9371328377295082,1,0.999346
0.924505880877996,1,0.998113
0.9263682759948564,1,0.999369
0.9115776328896118,1,0.998581
0.9301996248239567,0,0.937632
0.9026785587684608,1,0.995641
0.9114785631221834,1,0.993802
0.9367226869372051,1,0.998497
0.9251754486882098,0,0.979751
0.9073816519126032,1,0.996426
0.9025051128210503,1,0.996599
0.9484093766431042,1,0.996642
0.8508852111226459,1,0.997734
0.936675765361151,0,0.988619
0.9416650739322875,1,0.996669
0.9152377519735482,1,0.995567
0.8974464647129757,0,0.928358
0.8762973086340159,1,0.990779
0.8865505206899063,0,0.974038
0.877240124247539,1,0.997378
0.887558839162872,1,0.996568
0.9042685327819573,1,0.998597
0.9081058918351417,0,0.980222
0.9187780769631663,1,0.994088
0.9311418038281688,1,0.999224
0.9202597066792174,1,0.999270
0.8896721210715048,1,0.999321
0.9208328976225172,1,0.996025
0.9166069808330966,1,0.993284
0.9094018914924855,1,0.999271
0.9283787358040618,1,0.997884
0.9111521243036897,0,0.986025
0.9229332177031144,1,0.999058
0.9376553861583226,1,0.996554
0.9448454722202357,0,0.986034
0.9429712509534832,0,0.936901
0.913070372871837,1,0.999319
0.8914509084277029,1,0.996914
0.9098611598942399,1,0.997467
0.9342498256812921,0,0.979310
0.9410080626188873,0,0.984916
0.9443805687249346,1,0.999138
0.8937580810181307,1,0.995138
0.9232405937559578,1,0.998594
0.9217095638783696,1,0.996715
0.9440160139961434,0,0.955626
0.9392725617566712,1,0.998594
0.9237265893875407,1,0.993725
0.8516395117357185,1,0.995091
0.878435595991428,1,0.998706
0.8905591001935753,0,0.971045
0.9002115663059858,1,0.999245
0.9204010360332943,0,0.931891
0.9264276397347376,0,0.892505
0.9266142449013101,0,0.989650
0.9126011498281917,1,0.998378
0.9365501753813015,1,0.998667
0.9349287166197121,1,0.999251
0.9220850128324423,0,0.964544
0.9366970442971697,0,0.841516
0.9340676229418108,1,0.997328
0.9374709871924702,0,0.980730
0.9261203053531684,0,0.952026
0.9321141918816639,1,0.999364
0.9233229531348007,0,0.981176
0.9146681891878328,0,0.932471
0.922321688496554,1,0.998452
0.915420206698634,1,0.995416
0.8844755952976252,1,0.997265
0.9342037649770664,1,0.999322
0.9207997631005239,1,0.998555
0.9126125592711769,0,0.961268
0.906248193359737,0,0.970281
0.9046705690840307,0,0.919313
0.9116743359148062,1,0.998277
0.8772247234617707,1,0.995164
0.8878504774124862,1,0.998526
0.9021324566913513,1,0.999339
0.8942959462235816,0,0.958423
0.9025872463048686,1,0.997879
0.8888014546393497,1,0.998532
0.8139294756960666,0,0.905383
0.8514984275576498,0,0.936670
0.8442386371798494,1,0.998045
0.8790652785402212,1,0.997275
0.8935062708967295,1,0.996986
0.9011910795394698,1,0.995747
0.8883200992793634,1,0.992218
0.9135806947684961,1,0.998641
0.9086193429310655,0,0.992486
0.8701232483620445,0,0.938924
0.9255223538550507,1,0.999324
0.9197898951036046,1,0.998826
0.8741552138532366,1,0.996940
0.9237979682357426,1,0.995563
0.9149881508564669,0,0.992053
0.940483169811622,0,0.940823
0.914091715700329,1,0.997028
0.9356307786665609,0,0.962162
0.9213572621470874,1,0.997271
0.9326583359883346,1,0.999327
0.929646896636806,1,0.997623
0.9376619646155027,1,0.997377
0.9316667835365586,1,0.993857
0.9361279674323936,0,0.989872
0.9435275386655918,1,0.996055
0.9504256341211333,1,0.995499
0.9510300116479092,1,0.999077
0.947960692738113,1,0.996925
0.9250021274150303,1,0.999174
0.9402964854029695,1,0.996086
0.9414887049885075,0,0.945101
0.9014907117070328,0,0.964379
0.936428452530018,0,0.986121
0.9268474550244558,1,0.998871
0.9384189567175372,0,0.909974
0.9032785444222174,1,0.995516
0.8540615755017115,1,0.999365
0.8556448841259923,0,0.992297
0.8752530754609803,1,0.996766
0.8900470488517402,0,0.985637
0.871330381056867,1,0.999402
0.9137054675808663,1,0.993307
0.8972270218150479,0,0.964123
0.9108809736876191,1,0.999079
0.9322669026899464,1,0.999341
0.9246366451561385,1,0.999303
0.9294427846218228,1,0.999348
0.9338752265737618,1,0.998752
0.8956185056932847,1,0.998283
0.9115106553474696,0,0.979666
0.8997746443228346,1,0.998548
0.9397397035223837,1,0.999213
0.9428109231729049,1,0.999250
0.8900039690302622,1,0.999380
0.910153791056191,1,0.997180
0.9406475429103454,1,0.998215
0.9406909107433717,1,0.999342
0.912119422324845,0,0.944360
0.891126525643542,1,0.998907
0.9328630617517161,0,0.990164
0.9426641745297867,1,0.991387
0.9337326616268621,0,0.850722
0.923286842067831,1,0.997912
0.9114851864178016,0,0.969072
0.9179470047324186,1,0.994413
0.9294990792916439,0,0.909574
0.9434431621220908,1,0.996624
0.9318702591848105,1,0.996464
0.9267935254626948,1,0.995608
0.9243132642686476,1,0.999376
0.9366025196452696,0,0.990392
0.938193758913478,0,0.986994
0.9538237137604011,1,0.999339
0.9456881964264925,0,0.827031
0.84207256832264,1,0.993610
0.8845068750322999,1,0.995994
0.8677034775749055,1,0.999339
0.896030369270566,1,0.999299
0.9251299311636657,0,0.990810
0.9069486766018156,0,0.929032
0.9313053796869005,1,0.999337
0.9325144233542956,1,0.999383
0.9347345519942271,1,0.997204
0.9414961126709177,0,0.976487
0.9346879263501643,1,0.998549
0.9276514870031592,0,0.976172
0.9291142330210176,1,0.999307
0.9346942123798744,1,0.996488
0.9281133666066669,1,0.999356
0.9407793275057188,1,0.993902
0.9376990411508942,1,0.999135
0.949548797629472,1,0.997477
0.9258082186784923,1,0.998039
0.9450050096854079,1,0.995401
0.9395883147982129,1,0.998608
0.9388346851425081,1,0.999265
0.9494711140594699,1,0.994554
0.9412731694405135,0,0.926337
0.9336913484825486,0,0.965950
0.9039772940966765,1,0.998752
0.9273788376394595,1,0.997965
0.9252542020610662,0,0.816101
0.9482289959625466,1,0.999390
0.9449664183090416,0,0.991881
0.9390167311154246,1,0.994106
0.9564326672946547,1,0.996716
0.94385864360275,0,0.860215
0.9453542800695859,1,0.995161
0.9130630037092422,1,0.997571
0.9324859173329212,0,0.979508
0.9511084678922304,1,0.999268
0.9354313672147713,1,0.992823
0.8343370330090223,0,0.792527
0.8720197884483402,1,0.998686
0.8490620021156847,0,0.988462
0.8868229915369253,1,0.998086
0.887295497210177,1,0.998528
0.9098350962417787,1,0.997365
0.9201998059052341,1,0.997423
0.9316196444740135,1,0.999317
0.9241156557656829,1,0.995313
0.8976325311168446,1,0.998359
0.943956757693654,0,0.962709
0.8953566971152996,1,0.996673
0.9136190686758128,1,0.993599
0.9306021917083027,1,0.998382
0.9427280445390339,0,0.978933
0.9364316968028801,1,0.998425
0.9316754294709633,1,0.997372
0.9217558404768773,1,0.995104
0.9213241102589271,1,0.999293
0.9312309606525884,1,0.993767
0.9479457619561505,1,0.998579
0.9360464098399582,0,0.846747
0.9170641430130627,1,0.994329
0.9280774045302003,1,0.998775
0.9430414158912171,1,0.998394
0.9140672853573929,0,0.969247
0.936582070259333,1,0.997423
0.9405718675438772,1,0.998127
0.9556363474526328,1,0.998654
0.9506943206932627,1,0.991909
0.9501593789662873,1,0.999304
0.9287743307205166,0,0.992466
0.9379504749223238,1,0.999252
0.9459615124272904,1,0.998278
0.9158797423994719,0,0.989684
0.9411925105565552,1,0.999311
0.9514502640394322,0,0.987864
0.9194155482895604,0,0.913534
0.9440173570848217,1,0.998560
0.9374425025594968,1,0.997940
0.9243805931270646,1,0.998658
0.9333877886320693,1,0.999389
0.9457642323950866,1,0.998252
0.8697232937340943,1,0.997143
0.8713668298266621,0,0.943426
0.8817485408801382,0,0.848674
0.8783224755513332,1,0.998339
0.8685056658414377,1,0.999125
0.8859635266600767,1,0.999266
0.9347541377135148,0,0.987879
0.8948860870126996,1,0.997630
0.9252173726598057,1,0.999179
0.9256706042298974,0,0.989501
0.9330205495499315,1,0.998563
0.9425028182566291,1,0.996488
0.9442999310951992,0,0.840244
0.9324266070813374,1,0.997565
0.9309768800877927,1,0.998237
0.9134700646287482,1,0.997901
0.9089692825001677,1,0.996449
0.9055262063420096,1,0.997429
0.8926124045560155,0,0.985836
0.8885144932476574,1,0.993338
0.9069049373707677,1,0.994583
0.9146478671922023,1,0.998247
0.8879639888780988,0,0.991239
0.8852786805183477,0,0.980096
0.9063233331517958,1,0.996392
0.911772257470716,1,0.999295
0.9217634628754812,0,0.955975
0.9101618189881296,1,0.999339
0.9305425718214937,0,0.989239
0.9217067959502578,1,0.995740
0.9238881304111266,1,0.993208
0.9078862118820908,0,0.967140
0.9371946918993852,1,0.992862
0.9393482818227493,1,0.999150
0.9050757383097738,1,0.997553
0.9197549542549487,1,0.995074
0.9154546229910772,0,0.991950
0.9127273886607155,1,0.996203
0.9241128536956749,1,0.999260
0.9378796115640309,1,0.999298
0.938265580097447,1,0.999275
0.9330054468907952,1,0.996813
0.917200436121768,0,0.982985
0.8501456320658022,1,0.998579
0.8349113281603747,1,0.998262
0.8990571607738627,0,0.992471
0.9167114174475325,1,0.998066
0.894013343169704,1,0.998436
0.9122358552521589,0,0.928934
0.8963388142720062,1,0.996764
0.9080000628305452,1,0.998571
0.9302234362299232,1,0.997275
0.9039801854645868,0,0.893130
0.8985157584993647,1,0.992663
0.9137792431297252,0,0.986450
0.8867852496942767,1,0.999139
0.9136176444715739,0,0.976996
0.8757699873041952,1,0.988423
0.9125385231657961,1,0.991150
0.8914503741185756,1,0.999383
0.9427656195117811,1,0.999340
0.9364804499591539,1,0.998244
0.9142044405250862,1,0.998239
0.9292392209629833,0,0.974674
0.9345714768700473,1,0.996970
0.9197038544813696,1,0.997756
0.8909538145722062,1,0.996250
0.8811253960587542,1,0.993680
0.9148240991746971,1,0.999244
0.9027990478201842,1,0.993603
0.9161229402558457,1,0.999193
0.9193437871555717,1,0.996571
0.9182464408436497,1,0.998498
0.9211147385695788,1,0.999224
0.8782627815481515,1,0.990610
0.9030451501077665,0,0.974446
0.896053157549036,1,0.997712
0.909309218578906,1,0.997829
0.9070172787477533,1,0.999419
0.8934963315665692,1,0.999278
0.9304066465677283,0,0.992270
0.9150362342035449,1,0.995246
0.9002063970932246,0,0.953590
0.9163352756857812,1,0.999294
0.9086604717489143,1,0.994449
0.9094466824728795,1,0.997817
0.9227842364100278,0,0.808761
0.9093420382681799,1,0.994959
0.9244577058728404,1,0.999311
0.8645808472384012,1,0.994493
0.8467045422574807,1,0.998627
0.9001732512346651,1,0.999312
0.8867262570311276,1,0.999308
0.906857120241551,0,0.723275
0.9188817242446806,1,0.992133
0.9397421938130199,1,0.997460
0.9189268770698246,0,0.970699
0.9272220295825125,1,0.992938
0.9313246296499714,1,0.999342
0.900044693939354,0,0.936508
0.9491237005178313,1,0.999123
0.89913414714011,0,0.707780
0.8812922546008052,1,0.999361
0.89722444346515,1,0.993898
0.9154107262252146,1,0.997262
0.9015860593615533,0,0.990265
0.9094740219534173,1,0.998569
0.9393927586462982,1,0.993459
0.9193249696138599,0,0.903125
0.9137770252799728,0,0.990349
0.9413643094989467,0,0.981742
0.9222388141480167,1,0.997528
0.9357313171610956,1,0.999203
0.9350379429205977,0,0.989752
0.9306727164384073,1,0.998043
0.8807642352326068,1,0.995690
0.9285078803470362,1,0.997139
0.9464621887495951,1,0.998088
0.923460033541181,0,0.832184
0.9158661151819771,1,0.999342
0.9399207641111785,1,0.998233
0.9455520597275262,1,0.994100
0.9274443171262876,1,0.999251
0.8949337971583838,1,0.998634
0.9385722790170161,0,0.954955
0.912899832537865,1,0.999277
0.9266890694677534,1,0.998602
0.9366380415124349,1,0.995041
0.9368173704820326,1,0.998636
0.9356674175672006,0,0.926773
0.9490300945046846,1,0.995416
0.9075986959334887,1,0.997895
0.9310158544438457,1,0.992492
0.9492002735943411,1,0.998527
0.9236521168022274,1,0.997898
0.904561326817696,1,0.996870
0.922531563045589,1,0.997710
0.8761186638990222,0,0.802281
0.8878515480945358,0,0.987069
0.8768912841564608,1,0.998608
0.8790405666697969,0,0.923474
0.8786422984429195,1,0.999357
0.9091746444838792,0,0.989085
0.8774309687105611,0,0.916192
0.8965623483886594,1,0.999034
0.9035825964243124,1,0.997227
0.9268261814044975,1,0.999249
0.9380212437036111,1,0.997738
0.9161480880809267,1,0.998566
0.9365366984346599,1,0.999294
0.9333203119768514,0,0.989907
0.9338721816754068,0,0.988320
0.9439529967660516,1,0.997363
0.928405810336399,1,0.997449
0.9471180702174642,1,0.997319
0.8975158287585921,1,0.999021
0.928539622082862,1,0.997364
0.9024248518752125,1,0.995200
0.9201118330806306,1,0.992806
0.9241141451791332,1,0.997962
0.9461909204307181,1,0.999290
0.9198072251461995,0,0.986920
0.9368015573737907,1,0.992114
0.9384510352393063,0,0.969198
0.9309491028959572,1,0.997207
0.9320950320211332,0,0.987191
0.9141412887854542,0,0.991820
0.9468804536579534,0,0.991241
0.9459533648989163,1,0.998660
0.9052855006911116,0,0.881399
0.9246171768240137,1,0.999265
0.9133646234086598,0,0.972371
0.9167926382803423,1,0.998645
0.9241616947356505,1,0.998539
0.8927771361407107,1,0.994987
0.8822019149243735,1,0.998675
0.8829227365539174,1,0.994816
0.8898478316542631,1,0.994147
0.9151886732102578,1,0.998279
0.8765066329954041,1,0.998098
0.9230420859773264,1,0.999240
0.893655854922695,1,0.994422
0.886185959905698,1,0.999216
0.8877166977520838,1,0.996513
0.8886270264417101,1,0.996967
0.8890575374572987,1,0.995413
0.9103301528074367,1,0.995957
0.9006890390732022,1,0.993640
0.9175715950264539,1,0.998337
0.9096494987338207,1,0.994749
0.8664477276260284,0,0.944785
0.9003181768377392,0,0.983122
0.8817765145623561,1,0.994178
0.9272124846510703,1,0.993371
0.92630747237572,0,0.992318
0.9269265257642114,1,0.992851
0.9222687020503504,1,0.999379
0.9139088140058985,0,0.841406
0.900857515780591,0,0.989429
0.9284538664808362,0,0.981758
0.9153039864808411,1,0.998123
0.9269668256201454,0,0.859664
0.8929093623490393,1,0.998221
0.9012403281167163,1,0.993865
0.897413814109832,1,0.997299
0.949077525901514,1,0.993888
0.9100686066978538,1,0.999163
0.9111866926403323,0,0.984490
0.8973436035956844,1,0.996045
0.9069209877823508,1,0.992717
0.841971191672417,1,0.999237
0.908714753962041,1,0.997508
0.9291343816938121,1,0.998291
0.8855990800658361,0,0.981959
0.8532857254601399,0,0.988881
0.9066296771978184,0,0.991870
0.9055226450749188,1,0.995904
0.9236845876774067,1,0.995697
0.8230223533669456,1,0.991863
0.8025904748364769,0,0.875108
0.7962107978110546,0,0.990476
0.8536930526422969,1,0.997831
0.8406711072419675,0,0.549261
0.806594203053841,0,0.944694
0.8604497247777606,1,0.994786
0.9068557862845426,1,0.992562
0.8661581559300168,1,0.997809
0.8906151469964891,1,0.996873
0.8939113906132762,0,0.989937
0.8961516206828972,1,0.999238
0.8605373117348716,0,0.412041
0.7921158994332195,0,0.840047
0.7768017333811916,1,0.993919
0.792657005874961,0,0.988410
0.7544016741930686,0,0.981308
0.7600293264948261,0,0.534048
0.7705837143920639,1,0.999158
0.7569583282799706,0,0.980545
0.7340947211619581,0,0.860978
0.6677000690858328,0,0.934979
0.7548765780011903,0,0.646465
0.7478414991647093,1,0.999300
0.8163261977158478,0,0.981848
0.8280406541061059,1,0.993355
0.804224127394675,0,0.966307
0.7883031153029446,1,0.999308
0.8113746526542177,0,0.990020
0.8397249351538146,1,0.999431
0.8812725312798715,1,0.999365
0.8817329132959392,1,0.998072
0.888821370208111,0,0.973796
0.9035320382815191,1,0.998677
0.9172005187321617,0,0.818462
0.9331289549738918,0,0.780766
0.9249109675714328,1,0.999325
0.9027020775672582,0,0.972409
0.9247580362419763,1,0.997896
0.8921439236139668,1,0.999171
0.9135022905471599,1,0.995997
0.9233558567246871,1,0.998016
0.9254662606028143,0,0.992016
0.862940331155874,1,0.997561
0.8830323134763799,1,0.995887
0.8877856829453517,1,0.994652
0.9119309877566727,1,0.993687
0.9240723271647885,0,0.992424
0.932746121116596,1,0.999234
0.8952631269978955,1,0.998710
0.9190983027202687,1,0.994920
0.9271948835072873,0,0.893076
0.9230253622195188,0,0.838133
0.9228100433970976,1,0.998720
0.9155422031069238,1,0.998650
0.8830813476916225,1,0.998738
0.9038846773276674,0,0.974790
0.9025575877689207,1,0.994304
0.9241555072006972,1,0.999367
0.9209831669268325,1,0.997664
0.9353224756555357,1,0.999237
0.910479796745747,1,0.996925
0.8974857284719047,0,0.821705
0.9093451313984107,1,0.996628
0.8876152555459456,1,0.999329
0.9184840836325643,1,0.994041
0.9092393771502005,0,0.992597
0.91523354399009,0,0.992560
0.9051381319457804,1,0.999334
0.8975219657694342,1,0.999358
0.9090988566611565,1,0.998185
0.867194793912569,1,0.997099
0.8944977563080085,1,0.998814
0.8711674958004246,0,0.970073
0.8961736025356197,0,0.830933
0.6773323651294205,0,0.593649
0.7289704110212027,0,0.988658
0.7482197529168166,0,0.761676
0.7917353478748786,0,0.911713
0.8175299462694877,1,0.998457
0.8539466983906782,1,0.998232
0.8556820945477813,1,0.993746
0.8776873720077608,1,0.999378
0.8981479375555489,1,0.998863
0.9100927970148647,1,0.996680
0.9197694020032814,0,0.991925
0.8731639193471439,1,0.994371
0.9068668315701329,1,0.996908
0.909797670289545,1,0.998714
0.9128990493913127,1,0.993758
0.9304751203116259,0,0.991441
0.9396288647699402,1,0.999382
0.9309875592893734,1,0.997920
0.9332391045358788,1,0.999311
0.924020739875076,0,0.992167
0.9155744086497816,1,0.992026
0.9511236235655929,0,0.816225
0.9433596141912967,1,0.998607
0.9429360012758337,1,0.999251
0.9420095439082585,1,0.999397
0.9448633590476021,1,0.993646
0.9468802306232607,1,0.999295
0.92089740023835,1,0.998727
0.9279943111261435,1,0.998219
0.9340454321104731,1,0.996638
0.9332953606312847,1,0.997954
0.9402558788730916,0,0.978896
0.9362460017895037,1,0.997935
0.933786728114745,1,0.999224
0.9536198427170084,1,0.998810
0.9498225479301764,1,0.998824
0.930321387397965,1,0.999326
0.9287217572531341,1,0.997358
0.9245416321266539,1,0.998273
0.9385762434672731,1,0.998217
0.8971977178243854,1,0.998672
0.8859355243182574,1,0.995410
0.9116436231370942,0,0.827553
0.9063783540582129,0,0.991373
0.8930526250083287,0,0.992556
0.9065761559461678,1,0.996186
0.8843903712582755,1,0.997523
0.8719552808904925,1,0.998718
0.9046392321607386,1,0.998005
0.9005932841282537,1,0.995218
0.8712162983802856,1,0.998827
0.923443268849383,0,0.964912
0.9079776207182229,1,0.998649
0.908626100503268,1,0.996898
0.9289696548969917,1,0.998841
0.9428854103287712,1,0.998720
0.6935807657572283,1,0.997681
0.7427110806902125,0,0.965577
0.7858555661414304,0,0.989676
0.7960939230467232,0,0.966773
0.81797788740591,0,0.968341
0.8490093111761509,0,0.662791
0.8790515285446729,1,0.996555
0.872862393828339,1,0.998777
0.8761111027510115,1,0.999397
0.8948357881719146,1,0.998815
0.8795656156130215,1,0.996518
0.911878627432533,1,0.999388
0.9248897702195684,1,0.999420
0.9209719848134439,0,0.991571
0.9409872538542947,1,0.999415
0.8924839124113649,1,0.999424
0.8887379954643525,0,0.990578
0.9077674341632564,1,0.993017
0.8988341998691285,0,0.988038
0.8763093674427999,0,0.992832
0.9025733090533392,1,0.997151
0.9109128938999862,1,0.993438
0.892706413307017,1,0.993188
0.9250517519155298,1,0.999270
0.90833769074063,0,0.943294
0.9122093468011464,1,0.992235
0.9069373813511014,1,0.998619
0.8976430230073938,0,0.990831
0.8983072351935973,1,0.998689
0.9311974975258034,0,0.991269
0.9411467611888936,1,0.998312
0.9435024026116545,1,0.999401
0.9052154977968426,0,0.935724
0.9106671423904085,1,0.995703
0.9365569355893607,0,0.992762
0.9376267767438955,0,0.990747
0.9318668236769156,1,0.995775
0.9438891453682368,1,0.999341
0.9439647333708052,1,0.996869
0.9115037824810729,1,0.998261
0.9057458782051273,1,0.999273
0.8671748452439936,0,0.831296
0.8767630383172784,1,0.998831
0.902340092111142,1,0.997033
0.9249655305284875,0,0.965040
0.9021898320654697,0,0.987101
0.9019528757694625,0,0.979317
0.9044798661670933,1,0.999415
0.9311605626336751,1,0.997438
0.9248551611085624,1,0.997406
0.9098328239294398,0,0.987966
0.9230162982448474,1,0.997812
0.9107546734424589,1,0.998614
0.9112152724286564,0,0.916523
0.9495483381938636,1,0.997892
0.9399921781781295,1,0.998530
0.9216050920628093,0,0.887717
0.9303484810911842,1,0.992571
0.7285194169323789,0,0.772487
0.7422448540960617,0,0.843278
0.7754970674084333,1,0.998113
0.8080048169922961,0,0.990521
0.8344403362963834,0,0.835964
0.8428066199576607,1,0.997801
0.8421695692716628,1,0.998715
0.8539378352562591,0,0.985075
0.8808969639558839,0,0.991775
0.8831697711491183,1,0.998730
0.894883957532206,1,0.999328
0.8666464328905208,1,0.999387
0.9016380233659431,1,0.999385
0.9149271330379135,1,0.994670
0.9021680302995584,1,0.999363
0.890448744232506,1,0.996164
0.8976297204386413,1,0.998800
0.929725260445599,1,0.996161
0.9323921590268159,1,0.999441
0.9186120346705255,1,0.998733
0.930901754835763,0,0.984491
0.9121228975985705,1,0.998472
0.9109409898078266,1,0.996953
0.9559559717115735,1,0.999378
0.9419882378360785,1,0.999398
0.9166107445587026,0,0.956482
0.9329761579299886,1,0.998172
0.9249676788450202,0,0.847743
0.9386720034906646,0,0.988567
0.946545885712661,1,0.997860
0.9274705625572383,1,0.998700
0.9381945430320874,1,0.995861
0.9116029074681555,1,0.997981
0.9318174134341727,0,0.986875
0.9438814826456683,1,0.999416
0.937249338668846,1,0.994946
0.9176696647646977,1,0.996617
0.9114052876001646,1,0.996622
0.932524815796322,1,0.997328
0.919312106220931,1,0.998000
0.9199562328460897,1,0.997585
0.9376713236127242,1,0.999283
0.9020150227087255,1,0.998566
0.9395034420196076,1,0.999451
0.9242021363868509,1,0.998629
0.9398138080329302,1,0.995655
0.9322371450921311,1,0.998702
0.8702913844857268,1,0.998717
0.8919229992634774,0,0.988112
0.8978857036310128,0,0.988087
0.8804532191120891,0,0.985915
0.8886660060245187,1,0.998586
0.888068915176066,1,0.999360
0.8760923190964646,1,0.998853
0.8942672695112256,1,0.997937
0.8826214438333767,0,0.924020
0.9160121775414662,1,0.995962
0.8981048312116706,0,0.925926
0.9125515206957615,1,0.999392
0.7682900290563164,1,0.993846
0.793302989365003,0,0.933549
0.7892066374620341,1,0.995913
0.8180871731378314,0,0.987445
0.8519356929409394,0,0.975669
0.8479024302008781,1,0.999399
0.8534769385103158,1,0.999393
0.8865062500564498,0,0.949447
0.8741962461192966,1,0.999379
0.8838124655404124,1,0.994959
0.902803280383005,1,0.995946
0.9018009926222205,0,0.965041
0.8915430572113922,0,0.959972
0.9099758886561483,1,0.995166
0.9070979639629192,0,0.991356
0.8824833883939028,1,0.994502
0.8971625990369053,1,0.999318
0.9186167843237774,1,0.998748
0.9303489836496628,1,0.997299
0.9096665292432765,1,0.997108
0.9025232184808849,1,0.999333
0.9026424216850337,1,0.998520
0.9142661006057156,0,0.991008
0.9307887250020449,0,0.991597
0.9273654621945278,1,0.997959
0.9186649305689462,1,0.999380
0.9153849623107208,1,0.998756
0.9239448944219716,1,0.995074
0.9176538077203917,1,0.996508
0.9283229304595486,0,0.983333
0.9311273269543191,1,0.999214
0.9458756843886391,1,0.999408
0.9337264934253927,1,0.993225
0.9393909614809753,1,0.998935
0.9112660290588631,1,0.998788
0.9106014369667798,1,0.999405
0.9092925102496314,1,0.997683
0.9129004616220868,1,0.996564
0.9142690728366625,1,0.996342
0.9366700223535894,1,0.998733
0.9181722939010696,1,0.999249
0.9414279906933557,1,0.999308
0.9314513411254647,0,0.968135
0.9099866540013903,1,0.995647
0.9341826476056759,1,0.998771
0.9328022288955695,0,0.992866
0.911481425244091,1,0.998034
0.9523939148609517,1,0.999371
0.9220261057210662,1,0.997366
0.9318557564546341,1,0.999291
0.9300689802908454,1,0.999336
0.9218527573226288,1,0.994879
0.9351805142796752,1,0.998918
0.934813530264939,1,0.998914
0.9463663806560613,1,0.998739
0.9350330043540417,1,0.996238
0.9365375049458201,1,0.998371
0.9388502094838789,1,0.997503
0.948668866608163,1,0.998072
0.9529021651590264,0,0.984572
0.9447199239501527,1,0.999364
0.9182823535673811,0,0.971256
0.7784173500998615,0,0.959143
0.8158981732499686,1,0.998243
0.8250663269686966,1,0.999036
0.8236571657210143,0,0.991908
0.8349025405887697,0,0.985123
0.8655147931240869,1,0.997033
0.8893709377984963,1,0.994966
0.8702970391580988,1,0.996204
0.9086913094041328,1,0.999244
0.8999602500037935,0,0.988947
0.9145986671456464,1,0.997548
0.9108761163401836,1,0.998177
0.9168941068614106,1,0.997055
0.8856858632156727,1,0.994932
0.918012010936009,1,0.997846
0.9110777504227977,0,0.839346
0.9320504329896955,1,0.999251
0.9282348733692417,1,0.998671
0.9291199760032739,1,0.996446
0.932671724887498,1,0.997323
0.9482556580425395,0,0.594474
0.9226128272627565,1,0.998560
0.9534165918951228,1,0.998120
0.9063850184261086,1,0.999386
0.9408087914783094,0,0.928571
0.9518039177900749,1,0.997726
0.9223994051536575,1,0.999312
0.9374715513707429,0,0.992678
0.9247183595590865,1,0.998794
0.9488424294880612,1,0.998197
0.9458867365928223,0,0.992339
0.940873746166565,0,0.992720
0.9453226435680944,1,0.999174
0.9364615756541483,1,0.998113
0.9523602657832964,1,0.999116
0.9248197685436775,1,0.999264
0.9410713221495409,1,0.997729
0.926413009852802,1,0.996016
0.9375499737797772,1,0.999272
0.9488288976939739,1,0.999181
0.948483825812607,1,0.999106
0.9527011615191041,0,0.987377
0.9549478300998586,1,0.999369
0.9348902378744471,1,0.998725
0.9441009773780065,1,0.999436
0.9518586024467198,1,0.999347
0.9375545198581609,1,0.996701
0.958615931562389,1,0.999354
0.9469908419151408,1,0.995984
0.9496908212821372,1,0.999209
0.9045233072303037,1,0.999303
0.9253276761464215,1,0.999325
0.9394334248619286,1,0.999161
0.9572741998943981,1,0.996935
0.9442520877009877,0,0.990587
0.9262035111684906,0,0.980242
0.9295121321030312,1,0.998566
0.9370551692176725,1,0.999357
0.9288991090473351,1,0.999416
0.9577188650963374,0,0.937951
0.9504319798728997,1,0.999184
0.938835462238215,1,0.999384
0.9455090932975521,0,0.899237
0.7545212901190329,0,0.883236
0.7884826546208905,1,0.997586
0.7824856051293064,0,0.990418
0.8565428711283519,0,0.993003
0.8633882054353192,1,0.993780
0.8775423324757069,1,0.999380
0.9032894688249024,1,0.993707
0.9079076104310047,1,0.998558
0.8995639045151471,1,0.998778
0.9073113716841404,1,0.998741
0.8991091378324036,1,0.999350
0.9396926177477587,0,0.883272
0.9200988433026929,1,0.996390
0.8923983695097981,1,0.996081
0.9228915997323688,0,0.926948
0.9360572988664747,1,0.998718
0.9217065376540732,1,0.998358
0.9098547694808419,0,0.986794
0.9075162963815104,1,0.999377
0.8793852121456238,0,0.989493
0.893234967616989,1,0.996680
0.9164263097656308,0,0.883077
0.9324132353613374,1,0.995977
0.9358672537133963,1,0.999450
0.9047324802163942,1,0.999381
0.9243420795102171,1,0.998755
0.9155344345348624,1,0.998489
0.9275383005243101,1,0.999351
0.9388856264300116,0,0.858805
0.9340588100491849,1,0.993042
0.935018631900704,1,0.998051
0.9206893056361694,1,0.997744
0.928005157409855,1,0.999373
0.9500830769410283,1,0.997323
0.950810492523709,0,0.956596
0.9282015274502468,1,0.999376
0.9181340035250269,1,0.998820
0.9205834394669534,1,0.999320
0.9178951113448199,1,0.997938
0.9233390779398781,1,0.999345
0.9344926123152927,1,0.998692
0.9497117146893405,1,0.998191
0.9316465918837649,0,0.764753
0.9030964222384482,0,0.988827
0.9097279639025135,0,0.991088
0.909159282453137,1,0.998786
0.9065725729375409,0,0.987013
0.9367237883557533,1,0.998391
0.9200416883704553,0,0.969897
0.9138649458742157,1,0.993750
0.9050213392817983,1,0.994314
0.916579296918719,1,0.998743
0.8971569114185427,1,0.995816
0.9100288337320359,0,0.991512
0.928583292810995,1,0.997739
0.9278549789601422,1,0.997997
0.9115029112138464,1,0.997872
0.9096456492744885,0,0.991183
0.9001566238138866,1,0.999361
0.9182920534986707,1,0.996766
0.9096824720639193,1,0.996296
0.9099644768869122,1,0.994366
0.9086403940854716,1,0.999231
0.910409988306338,0,0.984007
0.9085656229820575,1,0.997541
0.9300146061517152,1,0.996770
0.7699378353722516,0,0.970607
0.8120013028740932,1,0.999432
0.8438774977946726,0,0.845893
0.7541242868607896,1,0.998854
0.8812115420216946,1,0.996183
0.9014279469231193,1,0.996422
0.8863480072927807,1,0.999403
0.8783823982120376,0,0.981599
0.9154771264349376,1,0.999277
0.8920773641214327,1,0.997917
0.9154973270676477,1,0.996264
0.9234264824588104,0,0.980637
0.8865910052761578,1,0.996734
0.9052185622568436,1,0.997290
0.935577974310312,1,0.997177
0.9215267565844325,1,0.996476
0.9149338514899023,0,0.983842
0.9271720842845272,1,0.994458
0.9246617394950988,0,0.988485
0.9543927971024125,1,0.999433
0.9312652423313483,1,0.999314
0.9204804685497405,0,0.990078
0.9413315051258525,1,0.992642
0.9143078970583702,1,0.997527
0.9180498561083829,1,0.998786
0.9096028290552595,1,0.999337
0.9156760765727554,1,0.999308
0.9021121597255141,1,0.998621
0.9132974023952337,1,0.992995
0.9170699940229091,1,0.996684
0.9257364804473367,1,0.999362
0.938897008229622,0,0.981055
0.9366404722175079,1,0.998042
0.9342353040344487,0,0.962025
0.8995548984349029,1,0.998700
0.9080618979361771,0,0.926123
0.9060131381631206,0,0.992141
0.9129485624517809,1,0.998084
0.9252465039273472,0,0.953739
0.9244733011292119,1,0.995842
0.9214068476642158,1,0.996431
0.9158732564731404,1,0.998491
0.9209727434779621,1,0.998047
0.9316411545168708,1,0.997230
0.9312645336164915,1,0.999367
0.8861527908029816,0,0.881643
0.914351759177046,1,0.999227
0.9061865682683082,0,0.992730
0.9426396379200779,0,0.759367
0.9119993677159692,1,0.998781
0.9072647157455137,1,0.998817
0.9171342671110748,1,0.997520
0.9254147666444387,1,0.994179
0.9231182919235038,1,0.998116
0.9283023202078718,1,0.998693
0.9123365576481824,0,0.991794
0.8998824624124042,1,0.998715
0.9313904797500207,1,0.999147
0.9029498030268482,0,0.917418
0.917476269445624,1,0.997877
0.9116475160770984,1,0.998564
0.9177544328320412,1,0.997085
0.9239063772692272,1,0.999356
0.9328876266275841,1,0.999296
0.9456273801039892,1,0.997582
0.9467629533417261,1,0.997647
0.9478103989630225,0,0.986534
0.9366016237021538,1,0.994733
0.8119258980924077,1,0.999266
0.8622537043558962,0,0.966765
0.877724259055676,0,0.930104
0.8976151495279663,1,0.997232
0.8810178511705555,1,0.997062
0.8820897519069381,1,0.997126
0.9134119545116294,1,0.998020
0.897154547449303,0,0.860922
0.9114827795570329,1,0.999363
0.910887087041163,1,0.994517
0.9371445569771657,1,0.999251
0.9380215952216948,0,0.941176
0.931667138516249,1,0.998712
0.940856382212738,1,0.996768
0.9648973440763073,1,0.997705
0.9130147159490046,0,0.882890
0.91914425195786,0,0.989600
0.9095282246352778,1,0.997558
0.9374620764672923,1,0.996823
0.9178498772482463,1,0.997976
0.922253499306494,0,0.969196
0.9375475196201002,1,0.997649
0.9473745466050186,1,0.992908
0.9190558073098234,0,0.967848
0.9306487116943989,1,0.994032
0.9538436458558693,0,0.932814
0.9492513537211659,1,0.998760
0.8956056287211589,0,0.982143
0.9403895316149575,1,0.998713
0.926691417772751,1,0.998860
0.9397304625075966,0,0.932760
0.9312826536932203,0,0.990741
0.9514823415576862,1,0.998770
0.9472294490964888,1,0.998130
0.9598741890848732,1,0.999311
0.9269105882378279,0,0.955385
0.9446961501658967,1,0.998241
0.9473273491042106,1,0.998116
0.9399627985671942,0,0.956275
0.9241521439481345,1,0.999299
0.939091852649587,1,0.998726
0.9023616097583707,1,0.996186
0.9244959325089587,1,0.995958
0.919942587626416,1,0.998656
0.9029944362295321,1,0.992665
0.913605146818155,0,0.977326
0.936763693058946,1,0.995910
0.9297717920842554,1,0.996680
0.931902878473143,1,0.996486
0.9318989594232693,0,0.982732
0.927416293281015,1,0.996682
0.9377783603378098,0,0.987578
0.9485751635715987,0,0.950806
0.95155125737669,1,0.999414
0.9387566292559811,1,0.999120
0.934576353734244,1,0.994143
0.9439355297269574,1,0.996761
0.9328511689898111,1,0.996569
0.9526532935884604,0,0.961774
0.948931209367262,1,0.997487
0.953625935169873,1,0.997956
0.9476486605266838,1,0.999367
0.9501901308839411,1,0.997299
0.9556016961897121,1,0.999270
0.947186447791216,0,0.795748
0.9596399701636213,0,0.924879
0.9424885598060434,1,0.998571
0.9346488480428639,0,0.978831
0.9435634236631196,1,0.996379
0.8372023376059534,1,0.996879
0.8531381049443358,0,0.741475
0.8530553953409583,1,0.997442
0.8688599311987896,1,0.999377
0.8604516715503145,1,0.996374
0.9061140558811988,1,0.994197
0.9245249563916588,1,0.998440
0.8980536475514477,1,0.997398
0.9157816656971746,1,0.997874
0.9275149032196827,1,0.998325
0.9148201447139124,1,0.997565
0.9166554670018403,1,0.997177
0.9209786558623413,0,0.992322
0.9198305410125055,1,0.999385
0.9242688864778837,1,0.999314
0.9320175080679759,1,0.998711
0.9404512683140377,1,0.993238
0.939366004729641,0,0.989875
0.9472677632898536,0,0.983728
0.9475278711766458,1,0.996501
0.9368212198667069,1,0.999230
0.9386101569232633,0,0.981508
0.9491078661553017,1,0.999237
0.9447120753102649,1,0.997902
0.9298990684904143,0,0.945131
0.9201244206200887,0,0.987208
0.9211921778265532,1,0.995533
0.9358339561012833,0,0.989660
0.9522860866268559,1,0.997706
0.9353334546763505,1,0.999356
0.9539348042941305,1,0.999373
0.9292636425302668,1,0.998084
0.915260970021871,1,0.999319
0.8898694456640145,1,0.996619
0.926932536498876,1,0.999276
0.9054478521465081,1,0.999361
0.9018597532317416,1,0.993590
0.8807392804726325,1,0.998083
0.9347602433441481,0,0.752115
0.9157373491338039,0,0.923018
0.9359552877649749,1,0.998510
0.9040955237408101,1,0.993293
0.9204930297998359,1,0.997380
0.9334616198099847,1,0.992948
0.9405876150999589,1,0.999388
0.9355093857171465,1,0.999371
0.9183711553359256,1,0.998513
0.9408472440152922,1,0.999245
0.9288207454918215,1,0.998897
0.9540281884107636,1,0.998665
0.9015725172942759,1,0.998022
0.9000410507113472,1,0.996592
0.8644206821134828,1,0.997349
0.8941127983302889,1,0.999329
0.9065921807213188,1,0.996951
0.8570295387931421,0,0.976581
0.926950110944113,1,0.995318
0.9139678339431626,1,0.995160
0.905443136799149,1,0.996819
0.9094059103708387,0,0.967268
0.9090639874814103,0,0.988827
0.9201402839226921,0,0.966281
0.9022507256024701,0,0.988544
0.9138990488456893,1,0.996933
0.919368681937749,1,0.995822
0.9223098678509067,1,0.999361
0.937804562729941,1,0.995042
0.9307832396258728,0,0.983230
0.9064050391513331,1,0.995526
0.913057025164903,1,0.995012
0.9165056856235754,1,0.994211
0.9165790879647299,0,0.889807
0.7984382442493748,1,0.994975
0.817503883170032,1,0.996787
0.8004934442853551,1,0.995892
0.8416056143262796,1,0.998033
0.8852915011467086,1,0.996835
0.8896254760888663,0,0.931548
0.8993778153171313,0,0.988334
0.9061185523999671,0,0.967910
0.9081255601201731,1,0.997070
0.9310111258285022,0,0.934800
0.9386419419548433,1,0.999304
0.9394003080725318,1,0.998241
0.9375409547531951,1,0.999222
0.9366874297533826,1,0.993675
0.9174663512920627,1,0.999400
0.928979164101919,1,0.999400
0.9425119559685761,1,0.999438
0.9286482308107181,1,0.997927
0.9128868527652577,1,0.999322
0.8839668729710006,0,0.987316
0.8888975389886041,1,0.995575
0.9131684356541508,1,0.996833
0.9281588652134529,0,0.963774
0.9046470912215305,1,0.996207
0.8703385636661592,0,0.957819
0.8997223945754608,0,0.879699
0.9086391640556499,1,0.995212
0.9073082335714937,1,0.998628
0.921900116046497,0,0.985834
0.9223138032292376,1,0.998832
0.9222719120693972,1,0.999323
0.9315982947480842,0,0.940348
0.9181316579065416,0,0.831782
0.9116382155946585,0,0.915609
0.9087768156881948,0,0.984746
0.911240441587611,1,0.998680
0.9015654798498005,0,0.905281
0.8945341644352046,1,0.998558
0.912124159956479,0,0.988048
0.9193360558833804,1,0.998263
0.9303248568739553,1,0.998506
0.9291462168562934,1,0.998643
0.9380982233533739,1,0.998262
0.9417017797085991,1,0.993294
0.9423622399206085,0,0.989524
0.946687927233175,1,0.999335
0.9456553054948734,1,0.992308
0.9435568270855355,1,0.999344
0.9497359841918065,1,0.999353
0.9365150151110349,1,0.999425
0.9507952072173174,0,0.981229
0.914249865738202,1,0.998571
0.8965283520504775,1,0.998520
0.9335624413695183,1,0.993358
0.9168373437278305,1,0.999220
0.8812525661401401,1,0.998708
0.9075247612534365,0,0.990877
0.9141721931990577,1,0.997921
0.9061744707779157,0,0.985806
0.9343968099301111,0,0.991667
0.8948336346352084,1,0.996935
0.9388515832328597,1,0.998411
0.9202166591176077,0,0.978277
0.9237716659597035,1,0.996724
0.9162546094468046,1,0.997564
0.9031327679536589,0,0.981198
0.9259031923843497,0,0.992243
0.9337359390138023,1,0.998261
0.9428054805511917,1,0.997569
0.9343387560447954,1,0.996949
0.9363086391924808,1,0.999224
0.9368894056494701,0,0.992318
0.942367407747665,1,0.999330
0.9316868965893531,0,0.985075
0.8610454795356237,1,0.997305
0.8546812624737008,1,0.998622
0.8847312080825929,1,0.998715
0.9067334694245864,1,0.996835
0.8886975782020576,1,0.999276
0.8919853761983938,0,0.990392
0.8838917717351392,0,0.962115
0.9016973167566941,0,0.961214
0.9176678618990796,1,0.998597
0.9297667700197579,1,0.996719
0.9047083309760526,0,0.794621
0.9056714054515463,0,0.694761
0.8870351093170195,1,0.997108
0.899286108138479,1,0.993220
0.896490534229479,1,0.998743
0.920642578762543,1,0.998108
0.8980307706265944,1,0.995305
0.9174331526700537,1,0.997467
0.9283002171338605,1,0.995209
0.9129094365927699,1,0.998113
0.9059878687606195,1,0.998675
0.9244317288996394,1,0.993822
0.9258345312402009,1,0.999316
0.9346390356710816,1,0.997967
0.9106306001946844,0,0.931612
0.9331315522013934,1,0.998564
0.9202663202629738,0,0.949823
0.9198129112907014,1,0.999147
0.9403888883153523,0,0.988424
0.8818878112273558,1,0.996741
0.9227604024169141,0,0.992376
0.9293246006670647,1,0.996933
0.9099893670447521,1,0.997220
0.9252119134629798,0,0.868889
0.9058308917778066,0,0.909462
0.9287133454630325,1,0.994949
0.9378009310851059,1,0.998069
0.9353981676690212,1,0.998333
0.9342284635709707,1,0.994483
0.9283941157467602,1,0.994441
0.9256143806052035,1,0.999258
0.9291965504557612,1,0.998201
0.9142828362200475,0,0.898167
0.9275394541997114,1,0.994613
0.9255715743898896,1,0.995264
0.9078803404147481,0,0.988152
0.9205107889265408,0,0.991532
0.9440916724010249,1,0.996795
0.9192536430004694,0,0.902721
0.9067121508692447,0,0.982287
0.9054046675345971,0,0.982327
0.9267122959809172,1,0.997934
0.9381780306349834,0,0.987147
0.944413930546107,1,0.993161
0.9229258936616862,1,0.998545
0.9339969381788102,1,0.998730
0.9444411950771349,1,0.998783
0.9298815818604701,1,0.995116
0.930518533426234,1,0.999273
0.9539709018090677,1,0.999160
0.9366806254604907,1,0.996713
0.9432125107014979,1,0.999299
0.9320762623237347,0,0.900763
0.9052200033520794,1,0.995392
0.894232029157985,0,0.991545
0.9322596697559112,1,0.999322
0.9318154557006089,1,0.998038
0.9077273804167513,0,0.965967
0.9158042418150046,1,0.996431
0.9461830981968137,1,0.997813
0.9450894888726957,1,0.999363
0.9366587106002071,1,0.997967
0.9157497596549093,1,0.999366
0.9483068475744186,1,0.998210
0.9154716013325751,0,0.988968
0.9067384320514015,1,0.998575
0.8453513522867946,0,0.518166
0.858451427899513,1,0.993257
0.8778956320905562,0,0.762166
0.8530440114176373,1,0.997557
0.894920777025455,1,0.999381
0.905585950544345,1,0.996825
0.9019241709792969,0,0.983244
0.8992802017711414,1,0.999164
0.9120765179888222,1,0.994744
0.9182449133316367,1,0.998043
0.9310154415924912,0,0.991831
0.8886515496873217,1,0.994242
0.924461461021636,1,0.998673
0.9233267961392851,1,0.999380
0.9183949511901642,0,0.772861
0.9355787195304811,0,0.986152
0.9271904235834544,1,0.998003
0.9277987581490602,1,0.999244
0.9430030687131693,1,0.995759
0.927049392066007,1,0.993706
0.92818236691531,1,0.991718
0.9353324155985757,1,0.993305
0.9325499828076359,1,0.998279
0.9488649120256354,1,0.999322
0.9343097574651358,1,0.999377
0.932620340385477,1,0.998599
0.9495160912903564,1,0.998593
0.9244130906043188,1,0.998737
0.9189944572540155,1,0.996973
0.9420971487786712,1,0.999329
0.9564694411907082,1,0.999337
0.9506100657854328,0,0.986538
0.9550289098352005,1,0.994322
0.9481470482620475,1,0.998717
0.9364436202256334,0,0.985804
0.932353879940771,1,0.999372
0.9484918342113435,1,0.995199
0.9495886844488641,1,0.996274
0.9475569213292845,1,0.999375
0.9470456939176605,1,0.999363
0.9379043142409862,1,0.998720
0.9499824124201485,1,0.998780
0.9478315029306046,1,0.999365
0.9507967108875954,1,0.999275
0.9514399465895905,1,0.998526
0.93259524051134,1,0.999323
0.9425632929093356,1,0.993450
0.9438178968077566,1,0.997149
0.9373877418052996,0,0.950549
0.9232843364338896,1,0.999357
0.9264322829757178,1,0.999184
0.9394898668499485,1,0.996238
0.9231068706069746,0,0.989542
0.91773745040095,0,0.989370
0.9183392633647512,0,0.918243
0.9414245272736357,0,0.967200
0.9286634585945817,0,0.992079
0.9212529291678835,0,0.976393
0.9223302259175736,0,0.991174
0.9320564297752937,0,0.989935
0.9368096243451794,1,0.997008
0.9295285601559582,1,0.998093
0.9291593134059707,0,0.582486
0.9267446640135891,1,0.998098
0.9138734100210619,1,0.994253
0.9369478228185331,1,0.993425
0.9215066086432081,0,0.987603
0.9086761733807347,0,0.992079
0.9155880310901763,1,0.993972
0.9487569934569324,1,0.999407
0.9049420332901577,1,0.999235
0.9164208934516537,0,0.992687
0.9386783269077436,1,0.997319
0.9406317794312046,0,0.991242
0.9381911752925334,1,0.997956
0.9324473079890387,1,0.999319
0.9425934352268941,1,0.999304
0.9353639460969067,1,0.999283
0.8325813289173682,0,0.992880
0.8250899662938798,0,0.983592
0.8292912196084344,0,0.674629
0.8642209829766847,0,0.936377
0.8823665924508802,0,0.991846
0.8937796725582453,0,0.991173
0.8871310406383709,0,0.990864
0.9259562611983392,1,0.999281
0.935900476446471,1,0.996416
0.9053433900704914,0,0.943846
0.9078564495874307,1,0.998095
0.9249987302872942,1,0.998521
0.9268406105998662,1,0.999348
0.9468645821778969,1,0.999380
0.9544990615290376,1,0.998541
0.9033634944421297,0,0.989088
0.9142698747041224,0,0.964730
0.9154453401320427,1,0.998654
0.9330203247358331,1,0.992126
0.9397289850772732,1,0.993924
0.940484890437585,0,0.988016
0.9378490033566734,1,0.999330
0.9415517966516731,1,0.999330
0.945078800344544,1,0.995224
0.9287321661080444,1,0.997801
0.9634152965980897,1,0.999422
0.9527664446372751,1,0.999324
0.9140875954029878,1,0.994182
0.911076590057177,1,0.999355
0.925847122612003,1,0.994768
0.9353370632674459,0,0.990868
0.933926588927382,1,0.999344
0.9482373124348159,0,0.948575
0.9269900191802276,0,0.608618
0.9325922483167715,0,0.707853
0.9587434373101227,1,0.999360
0.9122572675136515,1,0.998015
0.8665341547276231,0,0.983685
0.9031361204266593,1,0.997220
0.9106474749825728,1,0.996289
0.8985795313260773,1,0.997063
0.9206895252561648,1,0.998805
0.9218298883695633,0,0.922920
0.9222642586772234,1,0.999396
0.9183686921968272,1,0.999351
0.9195640455974986,1,0.999405
0.8953907875070611,0,0.992157
0.9211123919935479,0,0.991634
0.9269425204843166,1,0.997778
0.9327833715199203,1,0.998700
0.9334561432635533,1,0.993703
0.9309546628125637,1,0.997961
0.9371696140911289,1,0.999333
0.958805271500592,0,0.987790
0.9294488332907024,1,0.999143
0.9348356143612125,1,0.999351
0.9346963303641851,1,0.999382
0.9035163385617061,1,0.997172
0.9088037583441579,1,0.997886
0.9174769136225658,1,0.999370
0.9130993997745026,0,0.991279
0.936339368649067,1,0.999351
0.9450105729330466,0,0.992461
0.9146445575649731,1,0.999389
0.9170284860097171,0,0.991879
0.9112750276202294,1,0.999365
0.9419695660162921,1,0.998037
0.895004540473338,1,0.998694
0.9268155239076172,0,0.990856
0.9235750308607441,1,0.999369
0.906220927948117,0,0.977762
0.9300792049970811,0,0.965800
0.9033421390607301,1,0.994717
0.9088517614194076,1,0.998817
0.923620483630364,1,0.999262
0.9272767896811522,0,0.988521
0.925830317108612,1,0.992525
0.9172083019361515,1,0.998562
0.9129646816737238,1,0.997326
0.9196264031499654,0,0.705882
0.8199283728235348,1,0.999418
0.8162288493314008,0,0.922134
0.8513136839381693,1,0.994182
0.8196146796877753,1,0.999126
0.8325998007644518,0,0.988104
0.8758773035897003,1,0.999244
0.8772101398966458,1,0.994991
0.9014978004824797,1,0.995404
0.9039697063284373,1,0.998146
0.9053203450821234,0,0.984718
0.8936399029841088,1,0.999274
0.912228424118421,1,0.998299
0.92952751271638,1,0.999286
0.895093492535691,0,0.920658
0.9039814457612901,1,0.995838
0.9181097633126564,1,0.993706
0.9119565319748857,1,0.997699
0.9099096054593728,1,0.998390
0.9068730972472876,1,0.997889
0.9161541531171367,1,0.998012
0.8993937763721439,0,0.936573
0.9331620619466497,1,0.995853
0.9021089599155215,1,0.997682
0.9031017870720657,0,0.933057
0.9295671559526122,1,0.995763
0.9264406201643958,1,0.994371
0.9281670314656054,1,0.999385
0.9182010462170483,0,0.904040
0.9436977687978868,1,0.993141
0.9393878481799931,1,0.997805
0.9327397825578938,0,0.950107
0.9371242263133381,1,0.999330
0.9447685339162641,1,0.993642
0.9356801169097949,1,0.999387
0.9324563546109899,1,0.995199
0.9452149619003767,1,0.996641
0.9401391867344892,0,0.991085
0.9190408930655912,0,0.940719
0.9343802846372765,1,0.996937
0.9166140415767778,1,0.999425
0.9364894798204292,1,0.994257
0.9178368701546221,1,0.997899
0.9438274208547714,1,0.997203
0.9460967409230853,1,0.999294
0.9336881428336042,1,0.995606
0.92857562042614,0,0.990299
0.915719475330014,0,0.874142
0.9172924602167337,1,0.998790
0.9191373600865937,0,0.990909
0.937165311257182,1,0.996426
0.9291292301419406,1,0.998304
0.9325427315717095,0,0.990527
0.9391368593100705,0,0.989172
0.9176664978724233,1,0.994265
0.9172548755505693,1,0.997890
0.9302250184113006,1,0.998674
0.9334426847011082,1,0.995851
0.9313176864788727,1,0.999347
0.9325480349784504,0,0.988550
0.9088401514517824,1,0.997937
0.9261445670662921,1,0.999373
0.9175205084279436,0,0.975290
0.9008430302079256,1,0.996706
0.9329680583287036,1,0.997406
0.9264968596071754,0,0.993125
0.9365217470385914,1,0.997076
0.908688610997021,1,0.999327
0.9153857926315297,1,0.996474
0.9157162330750048,1,0.998245
0.9347570909491536,1,0.995741
0.9277751996741599,0,0.990814
0.9059388193378973,1,0.996337
0.9144894484492156,1,0.998775
0.9125992041408967,1,0.992943
0.9275663386504486,1,0.998052
0.9065840883243329,1,0.996774
0.921753015139446,0,0.991292
0.922948539716388,0,0.990211
0.9328562377142141,1,0.998755
0.9313471117671877,0,0.922830
0.9273111220316264,1,0.998519
0.8861810349350777,1,0.996946
0.9367616651541361,1,0.992366
0.8526831572250565,1,0.995873
0.8606131106099262,1,0.999328
0.8635550526394242,1,0.995918
0.8362681863474166,1,0.997750
0.8604410681935987,0,0.987568
0.8534306796383185,1,0.996578
0.8963570160150889,1,0.996045
0.8929178610049119,0,0.987342
0.8972328571121374,1,0.998660
0.9299383053541137,0,0.878648
0.914176909764848,1,0.999349
0.9250655570109001,0,0.958924
0.8989771348510047,1,0.998913
0.9226529191810426,1,0.998420
0.9305517004462094,1,0.998806
0.9207776607361993,1,0.998685
0.9314686257728182,0,0.946841
0.93077360052809,1,0.995581
0.9369899590123201,1,0.994529
0.9477188951992553,1,0.996008
0.9284016605657252,0,0.978411
0.9370745874272404,1,0.998641
0.9284406652261123,1,0.998754
0.9460796440155537,0,0.982295
0.920685239701416,0,0.940432
0.9501800851937904,1,0.997895
0.9216866623609643,1,0.996912
0.9132370379753778,1,0.995801
0.9293222877195276,1,0.999344
0.9395100609387073,1,0.998561
0.9291953503325553,1,0.999328
0.928477438740077,0,0.989608
0.937591329852279,1,0.993916
0.9502293503095965,1,0.998685
0.949132256403408,0,0.952931
0.9294810331611537,1,0.999389
0.9213870935747906,1,0.991749
0.9372444435293127,0,0.991760
0.9231183156921932,0,0.967662
0.9243685040907802,1,0.996449
0.9407821410431774,1,0.998225
0.9341617173806008,0,0.991756
0.9509414109884273,1,0.996413
0.9162182074530889,0,0.990718
0.9203014198742933,0,0.976682
0.9402566247138949,1,0.999408
0.9219694017074911,0,0.992271
0.943885852662054,1,0.999435
0.9411482170362332,0,0.934783
0.9433418400301383,1,0.995539
0.9292630562771483,1,0.995088
0.9313296114610808,1,0.999421
0.9086846038751186,1,0.994067
0.9233594454856768,1,0.996587
0.9190307071291339,1,0.991475
0.9521345135186507,1,0.995126
0.9263305408155201,1,0.999412
0.9440963170159643,1,0.999287
0.9116892246469401,1,0.995595
0.9421737085810279,1,0.999283
0.9499342374995977,1,0.998635
0.9331779627740381,1,0.996181
0.928901874851359,1,0.997851
0.9121907452565644,1,0.999439
0.9313250299860873,1,0.999339
0.922854183624179,1,0.998492
0.9499201394551269,0,0.991304
0.9482420268669621,1,0.999339
0.9322109292401809,0,0.809153
0.9518324157999998,1,0.996446
0.9406532216263873,1,0.998102
0.9257588279118593,1,0.996960
0.9188452103563636,0,0.987211
0.9159001329070924,0,0.991124
0.9245748313048078,1,0.998808
0.9236273152886837,1,0.999286
0.934305183681381,0,0.993189
0.8944124107466759,1,0.997506
0.9336364658810925,1,0.992469
0.9029283212387009,1,0.997871
0.8791984474678831,0,0.990998
0.893990000859806,0,0.959641
0.933173617046517,1,0.997963
0.9344762118831809,1,0.996610
0.8628714337577851,1,0.992747
0.8794477628235832,1,0.997921
0.8730403652405848,0,0.776586
0.8983216313474228,0,0.889020
0.901057139173983,0,0.961458
0.8946340624825895,1,0.997789
0.9098047067310202,1,0.998581
0.9254822302658682,1,0.999213
0.9008736113378613,0,0.990469
0.933421289067792,0,0.947327
0.9110200633452192,1,0.998705
0.9099672694568465,0,0.951432
0.9091556851687258,0,0.927987
0.9349696766662723,1,0.999238
0.924167872256554,1,0.997321
0.9401723537707076,1,0.999423
0.9367705779469152,1,0.995512
0.9373018831003311,0,0.891034
0.9408467684170168,1,0.999370
0.927832618444431,1,0.998668
0.9446400164982762,0,0.987433
0.8979585007410376,1,0.999249
0.9097210841286678,1,0.999301
0.9116669863522893,0,0.990712
0.9293312400098186,0,0.985161
0.9300525253925852,1,0.998720
0.9414620191940282,0,0.984502
0.937142961284748,1,0.996530
0.9398105353900089,0,0.978345
0.9444063769110049,1,0.998713
0.9323082436004091,0,0.985988
0.9412710064393592,1,0.998582
0.9467563306713934,1,0.999321
0.9363847231401791,1,0.999307
0.9208263240959003,1,0.998804
0.9319247979421403,0,0.854074
0.9276725919240913,0,0.867635
0.928983495084738,1,0.997869
0.8929234468525636,1,0.994502
0.934430955095258,1,0.997942
0.952627474936039,1,0.998648
0.957865789778929,1,0.995349
0.934844874514452,0,0.977151
0.9300614914314167,1,0.998587
0.9268666897858739,1,0.999167
0.9137748948848617,0,0.990753
0.9465597995906707,0,0.992218
0.9417782194005568,1,0.992620
0.9514195068733761,1,0.999409
0.9281631931898343,0,0.985007
0.9473249559543276,1,0.999116
0.9483113621997065,1,0.997153
0.946796369740213,1,0.997715
0.94083105302446,0,0.981844
0.946810140679063,1,0.999365
0.9500996494098883,1,0.998777
0.9467196954923475,1,0.999392
0.951644902593566,0,0.987823
0.9266281388561712,1,0.999317
0.9386551864549079,1,0.999359
0.918585759524146,0,0.989255
0.9215347543472946,1,0.997671
0.9346859308121142,1,0.998144
0.9394486626123035,1,0.995690
0.9192241100180076,0,0.731928
0.929352044076229,1,0.994194
0.9189655975231363,1,0.998771
0.953589273338,1,0.995949
0.9361432762992966,1,0.994290
0.9516926848927066,1,0.997500
0.9286735006029498,1,0.997622
0.9276266256255608,1,0.999334
0.9046922268393424,1,0.993391
0.9243831788971857,1,0.998316
0.9110510281593164,1,0.999240
0.9432337567320855,0,0.860427
0.9413845106513142,1,0.999321
0.9479821223974368,1,0.997743
0.9085601048695122,1,0.996287
0.9461909081036345,0,0.897821
0.9391915284690228,1,0.997207
0.935764851606651,1,0.999141
0.9048905474029553,1,0.994358
0.9383680875086927,0,0.984268
0.9310274182277336,1,0.998087
0.9477207020070744,0,0.982332
0.8117381926513975,1,0.998687
0.8855255029439761,1,0.999368
0.9044156340886189,0,0.975432
0.8863684260899863,1,0.998186
0.9000537531933822,1,0.992952
0.9005746393913555,1,0.998545
0.8997104720225286,1,0.997216
0.9031486444864093,1,0.999402
0.9239182746918334,1,0.998871
0.9151160249293605,0,0.991667
0.8946690208852753,1,0.997568
0.9089218480165258,1,0.998644
0.9237680813329014,1,0.998674
0.915938355998727,1,0.999270
0.9276430334437521,0,0.986781
0.9149325422625413,1,0.998166
0.907442228405579,1,0.999342
0.9210791131210398,1,0.998526
0.9117134002719705,1,0.998810
0.9081757733693678,1,0.998117
0.9383565238675383,1,0.996361
0.9137437910657953,1,0.994939
0.9241819916075061,1,0.999358
0.9212433462688255,1,0.999396
0.9101701545432432,0,0.921687
0.902631325990034,1,0.996296
0.9249215512447755,1,0.998348
0.8819914057820099,0,0.989697
0.9162642570474846,1,0.998728
0.9276806342087955,1,0.995157
0.9235979007222824,1,0.997326
0.9356014523904067,1,0.997143
0.9428391880149422,1,0.995946
0.925217333579336,0,0.989474
0.9219680041817572,1,0.999145
0.9383583689015335,1,0.998493
0.9162043511433832,1,0.997628
0.9238731020205848,1,0.999356
0.9326391932649285,1,0.998081
0.9334541432190997,1,0.999344
0.9522855074584164,0,0.989461
0.9375874713590225,1,0.996361
0.9001465550207891,1,0.994141
0.916287970545512,0,0.978836
0.9313895341418625,1,0.999326
0.9361293581704458,0,0.888976
0.9131125409118159,1,0.993675
0.91253971495042,0,0.948520
0.9232758037188346,1,0.993716
0.9259285573705717,1,0.996849
0.9369477106494859,0,0.843318
0.9094455827359115,1,0.993109
0.9191803853921421,0,0.992238
0.9443646540405001,1,0.999300
0.9525419520927737,1,0.999420
0.9353318028117147,1,0.998015
0.9209132885551525,1,0.999389
0.9356238022890299,1,0.999396
0.9360743215713161,0,0.973519
0.949683059763579,0,0.987482
0.9517973933839632,1,0.998282
0.9099891129175836,0,0.910644
0.9425449467323944,1,0.999358
0.9320032312727113,0,0.975391
0.9386755655045785,1,0.996662
0.9334846567859788,1,0.997275
0.9445566400408076,1,0.999311
0.9394760485386574,1,0.998189
0.9409161828986284,1,0.997897
0.9319983742568294,1,0.995142
0.9281863655932812,1,0.997893
0.9244387161544746,0,0.972771
0.9098348518604925,1,0.997729
0.9428027294499266,1,0.996053
0.9045191351713907,1,0.999287
0.9150405671381011,1,0.998026
0.8687275181175776,1,0.998100
0.9211952637532855,1,0.994972
0.9384165695282444,1,0.994860
0.915563045808058,1,0.999397
0.947279571731094,1,0.999299
0.9258824083160233,0,0.784203
0.9175402192178975,0,0.904943
0.9510488880439019,1,0.992360
0.9451460251324824,0,0.993121
0.9265281275849546,1,0.997801
0.9382909583929034,0,0.990719
0.9241883950906516,1,0.994825
0.8391636242722381,1,0.992918
0.8459712192549023,0,0.972033
0.8537476797814404,1,0.993579
0.8480448406171766,1,0.999218
0.8720203300261994,1,0.996809
0.8962962412729437,1,0.993475
0.8994753607507595,0,0.967421
0.8895610393185812,0,0.985437
0.876057314512805,1,0.998285
0.9122515339513609,1,0.996089
0.924249883879172,1,0.997426
0.9197370021971636,1,0.999294
0.929591469464913,1,0.996727
0.9146451703058576,0,0.923006
0.9205829178473184,1,0.999318
0.9321443985259565,0,0.863055
0.928506753519298,1,0.999409
0.9212514713954644,1,0.998222
0.9109987788118219,1,0.998252
0.9186567215265864,0,0.943345
0.9467638644380765,1,0.999339
0.9185877885881529,1,0.996094
0.9238211285615554,1,0.999320
0.921336077272725,1,0.995468
0.92426529962469,1,0.999358
0.9089854433205471,1,0.996237
0.9075164874297551,1,0.999336
0.9090776601044245,1,0.998880
0.9277828207840619,0,0.993016
0.9131666736477475,1,0.997814
0.9331037511082854,1,0.999389
0.9148038875544554,1,0.998831
0.9007517494208664,1,0.996445
0.9237532860772324,1,0.999399
0.9259783467224263,1,0.996572
0.9246479459437019,0,0.990984
0.9029348476824076,1,0.999338
0.9009092254760939,0,0.979439
0.9287463180075639,0,0.982042
0.9104979164709454,0,0.992691
0.9337469241682057,0,0.990654
0.9129307166140768,1,0.996283
0.9288250905185699,1,0.995105
0.9256797510136373,0,0.928332
0.9520341738289986,1,0.999395
0.9174681193367008,1,0.998809
0.9340251131719765,1,0.995419
0.9422775597642388,1,0.998640
0.9254599520051029,1,0.993392
0.9297691024354788,0,0.991144
0.8808871520710984,1,0.993506
0.9334547886098247,0,0.954474
0.9146775076009244,1,0.998695
0.9482894609096447,1,0.998160
0.9351912700164273,1,0.999305
0.9257505365251391,1,0.997008
0.9178692792669094,1,0.998359
0.9387538705341826,0,0.990803
0.9072597389363921,1,0.999195
0.9117169738760272,1,0.999380
0.9292038891328125,0,0.960818
0.9311923269116539,0,0.990038
0.9262957659715091,1,0.998843
0.9404600459074184,1,0.996673
0.9249592581119046,1,0.995422
0.8956126445454294,1,0.999315
0.9191177678478368,1,0.998779
0.9209139419092437,1,0.999276
0.9001940688507886,1,0.999292
0.9161831913944569,1,0.993232
0.9467325674295846,0,0.974796
0.9323580288639074,1,0.994705
0.9173094694295963,1,0.993373
0.9259694030130051,1,0.999367
0.9161448854684995,1,0.996497
0.9267033004119619,0,0.977889
0.911562329301635,1,0.999307
0.9357852994049746,1,0.998762
0.9238117383056836,1,0.998715
0.9038849422050219,1,0.996990
0.921371043327481,1,0.999371
0.9327555803064791,1,0.992938
0.9223153732140797,0,0.989837
0.9438082801628281,1,0.994968
0.9331299442691057,1,0.999409
0.9425817382062134,1,0.999413
0.9345857649406375,1,0.997811
0.9308125027035523,1,0.996626
0.9099814124964524,1,0.999328
0.9164634020677938,1,0.994737
0.936324657767279,0,0.987879
0.8305084632351,0,0.928525
0.8543047497750849,1,0.996305
0.8203852524302981,1,0.999367
0.8604974129782499,1,0.998575
0.8844849385287604,0,0.946975
0.8741674060239685,1,0.995666
0.8567331311278495,1,0.998768
0.8689992508605988,0,0.901217
0.8792092806492321,1,0.999331
0.916020810467566,1,0.998849
0.9070228288067114,0,0.948553
0.9025445047201345,0,0.985816
0.8921465187926129,1,0.999323
0.8851717517431513,1,0.999253
0.9105653241633461,1,0.999313
0.9365535364556233,1,0.998724
0.916471352522393,0,0.992292
0.9336174160622144,1,0.998210
0.9186270737543052,1,0.995643
0.9295260620678555,1,0.999407
0.9230033801191505,1,0.996561
0.9424458193866689,1,0.994825
0.9197908313018215,1,0.996360
0.8732349444122399,1,0.999401
0.9341128302183594,1,0.999207
0.8994101443417505,1,0.999248
0.8965467797708963,1,0.999346
0.89604041517807,1,0.998669
0.9007001824258547,1,0.994996
0.8903325277251116,1,0.995848
0.9020296068887561,0,0.923567
0.9161453073051159,1,0.996977
0.9139349959157294,1,0.999382
0.9120819331233749,1,0.998867
0.9204025183502731,1,0.997632
0.9211730887710178,0,0.985702
0.8835132236188733,1,0.998639
0.8949958162054034,1,0.999203
0.9122921464350076,0,0.945259
0.9095235062439345,1,0.999375
0.9074821196161506,1,0.999339
0.9102744987758946,0,0.991362
0.9094592731550742,0,0.986473
0.9298160347079456,0,0.990038
0.9435116653019403,1,0.993805
0.9054661150832853,0,0.990438
0.9371378256191448,1,0.997683
0.9305573792383645,1,0.999400
0.8846036543719596,1,0.999400
0.9314511161508117,0,0.991362
0.9221236267750754,1,0.998912
0.9009788522002685,1,0.999369
0.899423131627058,1,0.999205
0.9248299851275963,1,0.998214
0.9380179496870179,1,0.998140
0.9358455903067686,1,0.999325
0.9101218311921643,0,0.990506
0.9232692000389059,1,0.996963
0.9373449232742752,0,0.990832
0.9194743373368817,0,0.984203
0.9187907458220342,1,0.995708
0.9151529969241612,1,0.992201
0.9082567049630532,0,0.971777
0.9379412425558054,1,0.999300
0.9339021600970265,1,0.997512
0.9251785340016816,0,0.965409
0.9403864548837029,1,0.999393
0.9303218509532123,1,0.999308
0.9331872474496787,1,0.999393
0.9446346195734648,1,0.999216
0.9239662635770122,0,0.849238
0.9396363770780336,1,0.999491
0.9408786034557888,1,0.992799
0.926417793189061,1,0.992521
0.940311090864499,1,0.997898
0.9120884863448661,1,0.998924
0.9022021469666667,1,0.998548
0.9399271012872195,0,0.916000
0.9220034812943252,0,0.863086
0.9140195989932366,1,0.998154
0.922612497432225,1,0.998745
0.9264498805368437,1,0.997374
0.9119850753954644,1,0.999310
0.9309063532390888,1,0.997559
0.9335419310836418,0,0.990318
0.8994644741677383,1,0.994398
0.9063395376897737,0,0.902979
0.9094370676122135,1,0.999357
0.9055150410017205,1,0.995856
0.8993822390074857,1,0.999420
0.8968918917484574,1,0.999227
0.9020498348932611,1,0.997638
0.8747458937969084,1,0.995238
0.8324524685022135,1,0.995264
0.8647459397077369,1,0.998812
0.8651950629929975,1,0.999250
0.8856636781617228,0,0.968643
0.8585737703522744,0,0.990789
0.8810972807729537,1,0.994562
0.912352312999996,1,0.993525
0.9158469365720816,1,0.999308
0.9026765397338133,0,0.985341
0.92828031672385,0,0.988925
0.9185457771897165,1,0.997431
0.9306771046039246,1,0.999239
0.9123604758774764,1,0.997751
0.9157443422161295,1,0.999034
0.9186597491448809,1,0.998450
0.8985057108731914,0,0.988610
0.932945874994876,1,0.997400
0.8905942817679904,1,0.997549
0.9049523160432275,0,0.988757
0.9353406706647047,1,0.997260
0.9494908446471045,1,0.998342
0.916290984794644,0,0.973159
0.9213040257628433,1,0.998474
0.9244252016585363,1,0.995370
0.9161937591160496,1,0.997423
0.932921615335228,1,0.999290
0.9285468674074132,0,0.992157
0.9337945080413286,0,0.987024
0.92980435525933,1,0.994096
0.9255581550767803,1,0.995468
0.9245392352300761,1,0.999373
0.8937169965144863,0,0.963773
0.9180676221570504,1,0.999303
0.9182744584933461,1,0.999392
0.922464032000258,1,0.998749
0.9107436491709674,0,0.820044
0.9201278169059577,0,0.992145
0.9157891337669832,0,0.993159
0.927729376776642,1,0.998712
0.9199426379346723,1,0.995434
0.9296794944136475,1,0.997600
0.9243459192967524,1,0.998612
0.9233014937043414,1,0.999367
0.9261734125684652,0,0.935762
0.9224561641136849,1,0.998701
0.9336975354843458,0,0.989198
0.938596170639117,0,0.956147
0.9324858845864121,1,0.998627
0.914640849923688,1,0.998460
0.9416568400597911,1,0.999361
0.9251819154985659,1,0.997955
0.9391073459060802,1,0.999280
0.9157071032571331,1,0.998158
0.9136297266657953,1,0.999365
0.9268639364746374,0,0.989327
0.9468624397738525,1,0.997905
0.895120870657401,0,0.991410
0.9284663762739032,1,0.998602
0.9099173451840762,1,0.999399
0.9244630802637755,0,0.947413
0.932030236217301,1,0.995389
0.9346725095432912,1,0.998634
0.9201748907226438,1,0.997904
0.8966020346795589,0,0.991772
0.930600314520766,1,0.999389
0.8944799490267623,1,0.996379
0.9197050772861227,1,0.998559
0.8996219615912908,1,0.999292
0.9401147003286597,1,0.998230
0.9323642928266005,1,0.995434
0.924561552261756,1,0.999424
0.9134111598634768,1,0.994278
0.9481500167402519,1,0.998462
0.9024069097774274,0,0.945073
0.9217166284174506,1,0.996774
0.9275383753780769,1,0.998708
0.9363702528624762,1,0.999311
0.9148466478793236,0,0.979279
0.9376284877355583,1,0.999432
0.941868587162496,0,0.946918
0.9203738133211187,1,0.996161
0.9258466017499365,1,0.999424
0.9277370133820982,1,0.999333
0.9264571220189909,1,0.996743
0.9347781626742857,0,0.947833
0.9314209619296105,0,0.972016
0.9416802801945178,1,0.997886
0.9211159407250945,0,0.984091
0.93023305538831,1,0.998088
0.9343482269516034,1,0.999322
0.9199998496863894,1,0.996626
0.9099444399734847,1,0.997330
0.9104687162410996,1,0.998668
0.9187617512920169,1,0.997480
0.8767878419030688,1,0.997423
0.8725995164317294,1,0.999328
0.8395541611694572,1,0.998253
0.8917614122966514,1,0.998513
0.8773962717223889,1,0.998830
0.9006684703424006,1,0.999367
0.8805957079332638,0,0.679671
0.9106469596740666,0,0.858386
0.8740878443658975,0,0.986760
0.911874817710248,0,0.887732
0.8798512392886934,0,0.983133
0.9051163461287959,0,0.797048
0.927926208004239,1,0.999316
0.9062794318091286,1,0.992659
0.9068960875343312,1,0.994709
0.9392342617785393,1,0.997455
0.8888593764079482,0,0.989038
0.8910819552726649,0,0.991767
0.9246966791423209,0,0.964419
0.9199333087931071,1,0.999361
0.9300402073146966,0,0.970902
0.88498808218087,1,0.998772
0.9107198366131017,0,0.982109
0.9133637122916437,1,0.994996
0.931942644512833,1,0.999316
0.9253476454234559,0,0.874895
0.928108744210317,1,0.997328
0.9291127000777861,1,0.996885
0.9085004301947479,1,0.999363
0.9253439905323657,1,0.999344
0.9318834968814689,1,0.999228
0.93325350552087,1,0.999377
0.9317251673714938,1,0.995286
0.9344962645558963,1,0.995251
0.9272852400741152,1,0.997339
0.9153760996704906,1,0.999322
0.9107705963727452,1,0.998650
0.9381468787370933,1,0.997955
0.923421537000535,1,0.998088
0.9223647180956851,1,0.994815
0.9282733625749139,1,0.998799
0.8911516985481689,0,0.990798
0.9217305221263985,1,0.998586
0.9193838606019633,1,0.998791
0.9277599764327918,1,0.998724
0.9248147955116663,1,0.996753
0.9250676686460922,1,0.997337
0.9173075462534922,1,0.996713
0.9332174047720415,0,0.924107
0.91355114480082,0,0.986603
0.8921670321226115,1,0.996016
0.9088636031900404,1,0.998682
0.9065111739128385,1,0.998279
0.9325151267343169,1,0.997727
0.9175055826404399,1,0.998788
0.9390221814436587,0,0.989985
0.9409143299759319,0,0.980000
0.9339682628334319,1,0.996821
0.9225624415488295,1,0.998893
0.9338482652916203,1,0.999321
0.9239111942456047,1,0.995848
0.9207334963275153,1,0.997071
0.9298710237665386,1,0.998706
0.9328260196261426,1,0.999309
0.9193674323504962,1,0.999376
0.907129679721907,1,0.996000
0.907490452827992,1,0.999422
0.9143373181141061,1,0.999371
0.9143512961477948,0,0.983493
0.9221816771561446,1,0.995693
0.9082916635401307,0,0.992348
0.8893875868302474,1,0.998845
0.9228031671066298,0,0.991741
0.931669349838019,1,0.998539
0.9198466813607569,1,0.995114
0.898922245368827,0,0.990164
0.9112237642127964,1,0.999443
0.9367293493991211,1,0.999313
0.9030210684518833,1,0.997738
0.9218394157006505,1,0.995711
0.9195413741273972,1,0.998082
0.9048404640500153,1,0.999290
0.9349195307386483,0,0.989425
0.9201303131136175,1,0.999418
0.9079863277648197,0,0.939759
0.93028500427666,1,0.996034
0.9010620026641928,0,0.981615
0.8692653026604454,1,0.995548
0.8723899146598781,0,0.986310
0.8489745667780861,1,0.993220
0.8638810654100957,1,0.995818
0.8556442701628932,0,0.908104
0.91410125700338,0,0.983607
0.8954821124271743,1,0.999377
0.8591096748575344,0,0.992516
0.8946424979233472,1,0.999261
0.8617870863042923,0,0.979388
0.8404648526138153,1,0.994687
0.8632128326718189,0,0.975146
0.8563234359509314,0,0.862898
0.8547481900111459,1,0.998507
0.8476719347565724,1,0.997029
0.8645632962201039,1,0.998071
0.8901555258321181,1,0.999366
0.851421181606642,1,0.997349
0.8966441180811169,1,0.999314
0.8933268108699203,1,0.997545
0.8857372937627352,1,0.999400
0.8957897004138476,1,0.997286
0.8778347419614423,1,0.999356
0.8749182921878957,1,0.998162
0.8864058901573462,1,0.996917
0.8543988150709496,0,0.821844
0.8995352755844803,0,0.934534
0.9194351877373168,1,0.995775
0.9072272144680213,1,0.999347
0.8884251321466655,1,0.995908
0.8765158208021706,1,0.995655
0.9203547647209178,1,0.997799
0.9265882862622327,1,0.993572
0.8804720308504207,0,0.982687
0.9153367080104536,1,0.996624
0.9005184365958032,1,0.993873
0.926055503472658,1,0.996708
0.9091776211383227,1,0.996691
0.9013708480104221,1,0.995666
0.9302281953034545,1,0.998661
0.9211126005179586,1,0.999187
0.9254475247305737,1,0.998596
0.8821670072227211,1,0.994775
0.9136527555089118,1,0.996341
0.9049725310095467,0,0.989145
0.9213084219427282,0,0.979519
0.8828970564252366,0,0.941032
0.885785389750837,1,0.997977
0.8995027913750754,1,0.997407
0.8856934493374448,1,0.997937
0.9279886166169383,1,0.998504
0.9251269078562186,1,0.998243
0.9140209891862378,0,0.957689
0.9077544456002181,0,0.988246
0.8781787228461163,1,0.996172
0.8896216355142343,1,0.997565
0.8893344295830393,1,0.996914
0.9079545434990564,0,0.989121
0.9162707430968623,1,0.999240
0.9158918086499708,1,0.995340
0.8900790303639684,1,0.993643
0.8916622806178885,1,0.997942
0.8680281663196985,1,0.991986
0.9088367265856059,1,0.996774
0.8948203992797324,1,0.997145
0.9116277960810674,1,0.994758
0.883721544384698,0,0.989550
0.9177113955672102,0,0.966872
0.9049844148532461,1,0.999283
0.8422878742078708,0,0.978878
0.8592183672599124,1,0.998046
0.8696490280029676,0,0.989924
0.8747254187243797,1,0.998110
0.8801020926878871,1,0.995772
0.8907567371595198,1,0.998644
0.8920006802972668,1,0.996544
0.8892689251440886,0,0.992676
0.8985433262605295,1,0.993865
0.8888585455250739,1,0.994987
0.8950998392361719,1,0.994510
0.9008640542355284,1,0.996122
0.8991793880046228,1,0.996411
0.8843670137806184,1,0.998016
0.9155306097721932,0,0.940909
0.8948092044966063,1,0.999417
0.9051260818003073,1,0.998105
0.8823578229325221,1,0.999385
0.9067084513307506,0,0.982107
0.9064322959370326,1,0.997101
0.89680884323864,1,0.998845
0.8936668944309663,1,0.998715
0.8985102692430567,1,0.997260
0.8918492029801849,1,0.999323
0.8961491031178813,1,0.997070
0.9088890928270267,0,0.952049
0.9036384459334047,0,0.965108
0.8881503413947819,1,0.993667
0.9340321401901578,1,0.998462
0.9042861264627173,1,0.996633
0.886525629186415,1,0.998706
0.8924801911827944,0,0.992841
0.8654761584989925,1,0.995452
0.8704508857870378,1,0.996997
0.9070811828493919,0,0.982026
0.9069086108326707,1,0.995807
0.9171270169672724,1,0.998628
0.9175835376708266,1,0.999399
0.8958711304521401,1,0.999395
0.864316721440797,0,0.988024
0.8131449780151744,0,0.940213
0.8869554445169343,1,0.995189
0.863024364863354,1,0.999399
0.893784832629254,1,0.995238
0.8769521608084592,1,0.998608
0.9058367873942449,1,0.996124
0.9264299277330963,0,0.984114
0.8936980739581439,0,0.986690
0.8883586520256901,1,0.999368
0.9055769744934288,1,0.995918
0.9114875296802645,1,0.998133
0.9023698326017953,1,0.998708
0.8951341023266004,0,0.960469
0.9154003023571226,0,0.986190
0.8882303679619312,1,0.996183
0.9020075905621059,0,0.970826
0.8988979124736685,0,0.987541
0.886390818002335,0,0.799556
0.8920675890268575,1,0.998132
0.915323677255711,1,0.994215
0.8874887492043424,0,0.845304
0.9000412577605046,1,0.996833
0.9064265061029946,0,0.989213
0.9254418007016063,1,0.998544
0.8831611820605497,1,0.999368
0.8937962976432613,1,0.995882
0.9045688224217947,1,0.997124
0.9011783690957967,0,0.987936
0.8909849308503399,0,0.986196
0.9342560626017601,0,0.991781
0.9130010722032605,0,0.989848
0.8915586515998433,1,0.997951
0.9084524614391434,1,0.999364
0.918479422294111,1,0.996831
0.8916636041504313,1,0.996151
0.8888783219929729,0,0.820092
0.8611064803030286,1,0.993329
0.8842015778531673,1,0.998294
0.8958088356580179,0,0.988296
0.8869759947747808,1,0.997013
0.9062081105732191,1,0.996537
0.890451136935274,1,0.995238
0.8843958867807854,0,0.990120
0.911126851733236,0,0.990007
0.9017510334574541,1,0.996997
0.88893494657044,0,0.983696
0.8796455900992759,1,0.994493
0.8793697233134615,1,0.999233
0.9310540401453204,0,0.984640
0.9190305913810962,1,0.998728
0.9059547294862734,1,0.996711
0.9044838116110048,0,0.992069
0.9269644099438754,1,0.999094
0.92259373087474,0,0.984880
0.9341542084143304,0,0.991564
0.9330335011171833,1,0.998261
0.9400616134009794,1,0.999363
0.9332639539935252,1,0.999332
0.9214365832340179,0,0.992466
0.9345303467588706,1,0.998074
0.8802320843995558,1,0.999337
0.8958222681355452,0,0.988817
0.9192899517528216,1,0.999395
0.9341814101554177,1,0.997925
0.9085032227252177,1,0.993364
0.9323490450153984,0,0.991983
0.927572440228823,0,0.988996
0.927662466228716,1,0.999437
0.9171330676940457,1,0.997404
0.9073024045930139,1,0.996129
0.9238591437493127,1,0.996106
0.9176238572634071,0,0.979849
0.9218139504622841,1,0.998237
0.8970661104349611,0,0.989673
0.9276667952357398,1,0.994471
0.9161462880014553,0,0.991486
0.9401034922624978,1,0.994857
0.9100501340003911,1,0.998624
0.9196819063747088,1,0.995131
0.9178140165871528,1,0.995742
0.8860672688706901,1,0.994927
0.9177329363173491,0,0.911811
0.9292423091893157,1,0.999305
0.9181517656417563,0,0.984288
0.9133957911787239,1,0.996359
0.9288553704513723,1,0.998721
0.9386797730841331,1,0.999386
0.9359463517683998,1,0.999033
0.9155002001299879,1,0.995583
0.9423253478264393,1,0.998003
0.9296820084815807,0,0.958553
0.8794764126335911,0,0.976966
0.8900093040283107,1,0.996122
0.8924370484171125,1,0.997620
0.8980496684723426,1,0.995620
0.9229810441155775,1,0.993831
0.8891327100059045,1,0.999317
0.9203820843517294,1,0.998620
0.9170286090913616,1,0.999323
0.9227073367846544,1,0.997033
0.8765387750326042,0,0.973885
0.8640241863430351,1,0.998720
0.8822008347091775,0,0.987805
0.8432123995915479,0,0.941097
0.850440051522446,0,0.984556
0.8796419715781488,0,0.898539
0.8866440335258382,1,0.998161
0.8773040360168448,1,0.995763
0.881297995711965,1,0.998685
0.8687713328047056,1,0.998338
0.871831987474556,1,0.997306
0.8821201631209775,1,0.997175
0.8979963720449087,1,0.999369
0.8955012400266275,1,0.997148
0.8998633410529384,0,0.987952
0.9008183353920062,0,0.883984
0.9138403879849164,1,0.994246
0.8961037475111799,1,0.996151
0.8691573340170037,1,0.995777
0.9136100796407458,1,0.999407
0.892163155681172,1,0.999270
0.8785500652354897,1,0.994780
0.9103377169001308,0,0.988730
0.8991439892942753,1,0.999357
0.8859123290228765,1,0.992026
0.9010920120424509,1,0.999388
0.8885557342985606,1,0.999213
0.9085960142992322,1,0.993919
0.9174257668671907,1,0.994460
0.910602333364575,1,0.998741
0.9099139598538637,0,0.981949
0.9051791448998938,1,0.997008
0.92070548689543,1,0.998016
0.9259636035698334,1,0.998656
0.9357601710238848,1,0.998714
0.9256565010708052,1,0.993076
0.9490634871737686,1,0.999340
0.9255235408913695,1,0.995595
0.8956150821812461,0,0.811245
0.922745833627779,1,0.997920
0.9289001633319536,1,0.998005
0.9257228783968069,1,0.996723
0.9193495820359587,1,0.996353
0.8963848172197285,0,0.986186
0.9335478106130078,1,0.998021
0.9301162624755872,1,0.998565
0.9277502935205351,0,0.988484
0.9325088960734641,0,0.978411
0.915377388144539,1,0.998609
0.8983940827363469,0,0.922892
0.9223511199421147,1,0.994792
0.94039346733257,1,0.999394
0.9360161506601603,1,0.999357
0.8949297388759198,0,0.985108
0.9035005158769829,1,0.999362
0.9122398266005329,1,0.999297
0.9337687920121834,1,0.998039
0.9035539146878852,1,0.995345
0.9157080797028584,0,0.993425
0.9240047366923594,0,0.908458
0.8781156060956615,1,0.993002
0.905468245817838,0,0.989349
0.8920969571998804,1,0.999179
0.8999586426412006,1,0.997353
0.9234380000202896,1,0.999346
0.9122984753678649,1,0.999274
0.906731872078674,1,0.998705
0.9263261505058836,1,0.993902
0.9081613723759805,1,0.995742
0.9258304656616645,1,0.999337
0.9198490322122878,0,0.988470
0.922743680382018,1,0.998409
0.9274324644462206,1,0.999299
0.9283117194922896,0,0.985586
0.8986801360905935,1,0.995088
0.8921403945682627,1,0.999445
0.9080213003859967,0,0.983421
0.8877766608928742,1,0.995819
0.9230798153582196,1,0.999346
0.9109070084741687,1,0.999345
0.9259950207568386,1,0.995234
0.9070665505856582,1,0.999398
0.9315676716613267,1,0.996195
0.8981551814574136,1,0.996619
0.939807485868191,1,0.995363
0.9165373344605722,1,0.995238
0.9374334964718974,1,0.998753
0.8994661116689314,0,0.916800
0.9369596431737686,1,0.998555
0.9289407971424023,1,0.997487
0.9312400135922154,1,0.999328
0.9288391733132199,1,0.994216
0.9434272250443542,1,0.999327
0.9036487479078784,1,0.996038
0.92312894950041,1,0.998729
0.910284458761005,1,0.999326
0.934811957960053,1,0.999402
0.9177465701987311,0,0.949717
0.9123703970252012,1,0.994769
0.9370343792236482,1,0.999364
0.8775544043221235,1,0.997831
0.9034980318941986,0,0.932039
0.9085456270913636,0,0.953652
0.8449948664203449,1,0.996559
0.8318120706485628,1,0.998729
0.8724057394362267,1,0.998011
0.8673436129513373,0,0.988576
0.8807318603809525,1,0.997743
0.8956331746171798,1,0.999286
0.8890483340353748,0,0.991914
0.8701407461961853,1,0.998814
0.8618580568554852,1,0.993135
0.8637202664547879,1,0.995550
0.8893850178431637,0,0.990325
0.8828465411230699,1,0.993202
0.8967306880133542,0,0.987795
0.8862231582877885,1,0.999364
0.9012348495736229,1,0.999333
0.8965539867470859,1,0.999339
0.8861864668976792,1,0.999360
0.8898218049000866,1,0.997085
0.9109357490060359,0,0.839774
0.8925635033319774,1,0.997073
0.9280435372295931,1,0.995212
0.8984140140560108,0,0.950796
0.8927662934350552,0,0.989971
0.9114891194325947,0,0.988772
0.884489988318377,1,0.999385
0.8957622321317519,1,0.992995
0.898188171768573,1,0.998029
0.9086687516890605,1,0.995199
0.9214386532831393,0,0.989301
0.9077654318571109,1,0.997699
0.8983063291808183,1,0.998821
0.9154619163968103,0,0.990539
0.8699095642833036,1,0.999354
0.9015617120066508,1,0.998820
0.8940038758210658,0,0.992507
0.9170590363046471,1,0.998681
0.9210871241725747,1,0.995078
0.908390017842885,0,0.986399
0.903105695336418,1,0.998717
0.90677797424534,1,0.993840
0.9187755526548735,1,0.997436
0.9320624585335646,1,0.994466
0.8937947258340103,1,0.998507
0.900313545957456,0,0.978407
0.9094617931776802,1,0.998794
0.8664098069547265,1,0.997429
0.8924521459870438,0,0.865917
0.8874964398691993,1,0.994975
0.8803764819108044,1,0.998749
0.8899037403251088,1,0.993225
0.9123230785497419,1,0.998631
0.9057426446508201,1,0.993943
0.8730338081805366,1,0.997133
0.9052216282892945,1,0.999369
0.903808345116437,1,0.999377
0.9146127517080975,1,0.998724
0.8776994594617998,1,0.994946
0.8886154774015458,1,0.998867
0.8917337412919436,1,0.995763
0.8841317200364288,1,0.993907
0.8919798272438731,1,0.996518
0.9090572938744644,0,0.927548
0.8976518543956308,0,0.969784
0.9036735570415193,1,0.996212
0.9169669037471359,0,0.986973
0.9264322331759745,0,0.981675
0.9179701718281433,1,0.999248
0.9192908176097123,1,0.995478
0.8915529753600249,1,0.999399
0.9301869965836813,1,0.996647
0.9232797170232568,1,0.999374
0.9476330445945995,1,0.999316
0.9231140954185355,0,0.992725
0.9017972211105186,1,0.999313
0.9174365829763643,1,0.998783
0.9238886813207726,0,0.969030
0.9008330190216638,1,0.994420
0.9264828870568966,0,0.977094
0.9345211812050676,0,0.990099
0.9402018967679755,0,0.977238
0.908056524814336,1,0.999415
0.919679963387106,1,0.997802
0.9075429671484777,0,0.979592
0.9058095395089936,1,0.997835
0.8960471965274935,1,0.995611
0.8840051576906732,1,0.996543
0.8770708476264792,1,0.995308
0.8925776275274604,1,0.999138
0.9120459134555333,1,0.997932
0.906062551335758,0,0.988424
0.9015860909771141,0,0.990172
0.8880123839023293,0,0.992523
0.897399792945052,1,0.999199
0.9326229750858694,1,0.999388
0.9045147805916809,0,0.987448
0.9192787947505598,0,0.987536
0.8806737587353768,1,0.996821
0.8771361284444745,1,0.993612
0.9250629242738818,0,0.953488
0.9405130463072704,0,0.988922
0.9159958546394432,0,0.988571
0.9092260787908975,1,0.998735
0.9262093084593158,1,0.995655
0.9235408279049155,1,0.997678
0.9041235473477185,1,0.999354
0.8220383354773593,0,0.979267
0.8633791714759032,1,0.999360
0.8816657779810996,0,0.988764
0.8654627218109755,1,0.996103
0.8585045607842091,1,0.998365
0.8725565765112321,1,0.998087
0.8752450710518793,1,0.996122
0.8402438609685834,0,0.989937
0.8581279496392588,0,0.977323
0.8865269591604832,1,0.998648
0.8901940798061418,1,0.997958
0.8967982073838437,1,0.997283
0.871859220151653,1,0.997459
0.8859685631463862,1,0.995313
0.8495551722943369,1,0.995924
0.864229858435262,1,0.998650
0.9011213528271442,1,0.995541
0.873165280293243,0,0.907040
0.8803817352047091,0,0.988764
0.8979430684425902,1,0.996638
0.9300483960308045,0,0.953249
0.9008307896036813,1,0.995104
0.8937461202489956,1,0.999249
0.9349875024253531,1,0.995971
0.9128018466554263,1,0.997966
0.918755292872326,1,0.999435
0.9222999856022908,1,0.997931
0.9057437610291887,1,0.996396
0.9164539789661983,0,0.985369
0.9192101076895249,1,0.998682
0.9235557889001129,0,0.948789
0.9132566101604177,1,0.996040
0.8826281009568339,1,0.996942
0.914641838663596,1,0.995189
0.9029240755110073,1,0.999400
0.915078383844468,0,0.983834
0.8839676025913642,1,0.996658
0.9087576782975604,0,0.905721
0.9002356257934652,1,0.995984
0.9252085791115149,1,0.999359
0.9273541685082143,1,0.994257
0.92295042378799,0,0.985163
0.8960755311424922,1,0.995668
0.9160281823566289,1,0.996762
0.9036644491797425,1,0.996137
0.8927598325739508,0,0.991840
0.9286493788577966,1,0.999365
0.9031939087325938,0,0.991331
0.9193070541079127,1,0.999353
0.9430059972205518,1,0.997754
0.9315649063895199,1,0.997799
0.921250558392715,1,0.999249
0.9058404513813075,0,0.969242
0.9100796528452563,1,0.999186
0.9119774915161125,0,0.987996
0.898084756415958,1,0.994236
0.8910777900953432,0,0.989612
0.9402906576732027,0,0.992109
0.9223004198578096,1,0.997167
0.9340510682989694,1,0.999354
0.9163631129174696,0,0.985935
0.9401878963270798,1,0.997741
0.9255803473737599,1,0.999147
0.9108469739752642,0,0.988408
0.9120890388173784,1,0.998526
0.9257390619249081,1,0.993886
0.9151203590327608,0,0.985694
0.9102654875748263,1,0.999232
0.9052702318039945,1,0.997141
0.9167419609645887,0,0.649436
0.9025304876251192,1,0.998798
0.9155430508338568,0,0.989524
0.930108596749783,0,0.922414
0.9332649318843531,1,0.999378
0.9177776956113354,1,0.999374
0.9353925318893315,1,0.997756
0.9183044610855329,0,0.988561
0.9142898312502141,1,0.999362
0.9001124199372454,1,0.998404
0.9069213846619828,1,0.999318
0.8998024279811593,0,0.989268
0.9092703062489749,0,0.992486
0.9094542830526303,1,0.998768
0.9196619802159661,1,0.996639
0.9099972030042967,0,0.992069
0.9110420195937707,1,0.997937
0.9295358654198016,1,0.996173
0.9285567840401244,1,0.996129
0.8990040203862107,1,0.996841
0.8477179377614456,0,0.983287
0.9001214656854287,1,0.999412
0.9210165277619355,1,0.998725
0.9210525845771588,1,0.996749
0.8930775837888133,1,0.998814
0.9147846777199312,1,0.998756
0.9314134001787908,1,0.994462
0.9221299570345254,1,0.999389
0.9193763201961728,1,0.995119
0.9083076939472522,1,0.998133
0.8740047919634248,0,0.906306
0.9029616969430788,0,0.990771
0.8938312635566551,1,0.998780
0.896018063610269,1,0.999396
0.8946052296249287,1,0.995665
0.8994945466122868,1,0.994201
0.8887856534272912,0,0.956268
0.9117328042909232,1,0.999362
0.8462639845175297,0,0.988062
0.8106406058683359,1,0.999167
0.8745204232405446,0,0.991632
0.8436232198646875,1,0.995671
0.797463610936167,1,0.996997
0.8439147230172392,1,0.994595
0.8531889029104672,1,0.998629
0.8607298238511385,1,0.995896
0.8381950769379599,0,0.988211
0.8652834002603306,0,0.987398
0.8649668167563147,1,0.996965
0.8615098994592063,1,0.999396
0.8710305611768434,1,0.999267
0.8755739586108119,1,0.996915
0.8628166310925767,1,0.998480
0.8483812241778801,1,0.998379
0.87599001969477,1,0.996181
0.8877360578363432,1,0.995272
0.8609388198238731,1,0.997257
0.8618477696046479,1,0.994981
0.8893713036642729,1,0.996238
0.8997632952693876,1,0.997266
0.891672856799129,0,0.925685
0.9084851180807535,1,0.998706
0.9159834745117509,1,0.998386
0.8979444087587345,1,0.999431
0.92664261136372,1,0.995742
0.9031634942802134,0,0.899834
0.911921991293548,1,0.998248
0.9020777258326029,0,0.804401
0.9169414209328948,1,0.999344
0.9253394976613873,1,0.995757
0.9277838272344018,1,0.999361
0.9336308629059351,1,0.998666
0.9165021007328247,0,0.978308
0.9022765544060458,1,0.999387
0.9171045806410593,1,0.997940
0.8961503870627595,1,0.997924
0.9175916489470816,0,0.926667
0.9345028983429599,1,0.999375
0.9311626260042459,1,0.996016
0.9290852509331143,0,0.982036
0.9054879089468189,0,0.984690
0.8978017188511213,1,0.995469
0.9274274972024634,1,0.999407
0.9197477820614124,0,0.991239
0.9175452072694861,1,0.999249
0.9295837092353951,1,0.996264
0.9327532356263486,0,0.986572
0.9277487341326568,1,0.999339
0.906157619842732,0,0.979760
0.9393462451608834,1,0.998741
0.888857488056998,1,0.999223
0.9024123558224634,1,0.993936
0.9480133561284331,1,0.998802
0.9301690164607314,1,0.998846
0.9158626754175054,1,0.999378
0.9029223022674315,1,0.994599
0.898386866539013,1,0.997938
0.9274592242343154,1,0.999391
0.8949996859472763,1,0.997992
0.932132922299543,0,0.978707
0.890791416108918,1,0.999380
0.919699914941252,0,0.991962
0.9187631623407536,0,0.914663
0.9009455596276087,0,0.977051
0.892909012497509,1,0.997449
0.9065231261322569,1,0.995499
0.9142362336646699,0,0.831746
0.9092316545053333,1,0.998733
0.9044883194128707,0,0.987190
0.9176358776947023,1,0.999338
0.9295570340286875,1,0.997659
0.9304257181108799,0,0.963524
0.9317330794622574,0,0.980421
0.899849841710149,1,0.996207
0.9013192224333046,1,0.997636
0.8939403411107072,1,0.996664
0.9116333808903169,1,0.997622
0.9083660005393948,0,0.980519
0.9219735144885233,1,0.999445
0.9190133922252173,1,0.998595
0.8896545777324945,0,0.982219
0.9192166969470005,1,0.999405
0.9226281321849742,1,0.998712
0.8904203006563074,0,0.983965
0.9064095900322681,1,0.995392
0.9062601947953746,1,0.997452
0.910923461533707,1,0.999426
0.9052172969044995,1,0.998213
0.9079620609774083,0,0.960768
0.9229383663574514,1,0.997249
0.9360429225939746,1,0.998161
0.8985081865079169,1,0.996912
0.9213217133023387,1,0.998296
0.909639622040148,1,0.998595
0.9519320074298897,1,0.998065
0.9279138704594568,1,0.999434
0.9341210554299347,1,0.997914
0.9347904303322705,1,0.996715
0.8806002667416146,1,0.998847
0.9268367168020727,0,0.991117
0.9272038223369117,0,0.989255
0.9278832672683481,1,0.996736
0.9395714642420963,1,0.999421
0.9513104432350172,1,0.995064
0.9299564799388277,1,0.995921
0.935008183477973,1,0.998183
0.8777851415927496,1,0.998479
0.8772442013613941,0,0.976060
0.8564735828139545,1,0.996066
0.8679209640115317,1,0.996013
0.8766185027101131,1,0.997096
0.8536268918429398,1,0.995714
0.8806334515251862,1,0.998357
0.8691113465723679,1,0.998233
0.8935221285869807,1,0.999390
0.8982923795666878,1,0.999417
0.9106367178495329,0,0.962884
0.89750828845799,1,0.998714
0.8857832382693147,1,0.999348
0.9312429243768777,0,0.987944
0.8809065585793304,1,0.996927
0.9127303589235503,1,0.999379
0.9027650270286658,0,0.992073
0.9091114348421082,1,0.999352
0.9088003597060436,1,0.999182
0.8969476019440153,1,0.999319
0.8968319906160264,0,0.984848
0.9270742591949566,1,0.995625
0.9283722332768946,1,0.995003
0.885005563336635,1,0.996870
0.9311233037693519,1,0.998556
0.914968243270891,0,0.992533
0.9282474464347124,1,0.997013
0.8722414548258948,1,0.997788
0.9251611838183409,1,0.998802
0.9318391000114938,1,0.999441
0.8837081042283812,1,0.999412
0.8745701276585215,1,0.996593
0.9154620775788567,1,0.999365
0.8928924510691935,1,0.995331
0.9273784689065526,1,0.999415
0.9174487085690148,1,0.998610
0.9085047726959428,0,0.985284
0.8960082464506489,1,0.997732
0.8738074677011182,1,0.996180
0.9071536310183579,1,0.993408
0.8847825950327792,1,0.996203
0.9029636170066956,1,0.997076
0.9110165778962789,1,0.995822
0.8911149314825434,1,0.999411
0.9213023748518542,1,0.995684
0.920909003108437,0,0.987143
0.9164506720733795,0,0.827358
0.9259796756683135,1,0.999391
0.8999623043560893,1,0.994167
0.9111585483761881,1,0.995560
0.9314832046861459,0,0.982857
0.9151663694385889,0,0.908014
0.9298661230095101,1,0.999369
0.9037730036098774,1,0.999427
0.9238373449913687,1,0.999259
0.9310837248971601,1,0.999342
0.9170073975753366,0,0.982386
0.9184827376937756,1,0.992278
0.9055943956801192,1,0.999414
0.9241371573431781,1,0.996851
0.9188635539801117,1,0.998712
0.9387276977772091,1,0.999348
0.9331652553866209,0,0.988390
0.9154691880706348,1,0.996326
0.9161508356796958,0,0.899860
0.9262630264812571,1,0.997551
0.9507958016847099,1,0.998820
0.9411180185906258,1,0.997251
0.9368772965624009,1,0.996032
0.9395672605312277,0,0.959431
0.9225832998708846,0,0.983199
0.9325070903205177,1,0.997561
0.9231673859464857,1,0.999380
0.8881623045350805,1,0.995813
0.9298121853735171,0,0.992588
0.9349194426477708,1,0.998388
0.9386766016258441,0,0.978503
0.8984057958728036,0,0.992141
0.8845360820110312,1,0.992722
0.9098020796389304,1,0.993960
0.927904252281183,1,0.998569
0.9555024079395542,1,0.997886
0.9362586566809171,0,0.985636
0.932949831227073,0,0.863854
0.9215236599966057,0,0.936310
0.9192762176708068,1,0.995012
0.912162385730868,0,0.982399
0.9231685102538001,1,0.999329
0.947149756428701,1,0.999354
0.9367257291648236,1,0.999398
0.9295985164917258,0,0.991263
0.9247521767908509,0,0.990145
0.8914021202614084,1,0.998164
0.9254193598924579,0,0.936333
0.9483852499679831,0,0.979689
0.9074183902587442,0,0.954050
0.9308959815571755,0,0.952344
0.9430529576331607,0,0.977872
0.9409751261936758,1,0.996896
0.9328524204023176,1,0.998431
0.9141098633877345,1,0.998046
0.9224025684281295,1,0.995132
0.9228149786098839,0,0.988539
0.9303749739455572,1,0.998243
0.9221482347587973,0,0.952607
0.9219068789698291,1,0.993373
0.9503510915377977,1,0.994780
0.9469262426086259,1,0.996997
0.9058843685392446,1,0.998089
0.8951584998293942,1,0.998536
0.9399847986392782,0,0.982947
0.8385699990907104,1,0.999280
0.7841999965535874,1,0.996564
0.8544741563365772,0,0.992674
0.8683720803962202,1,0.997922
0.8612744777038411,1,0.998104
0.8890362355096053,0,0.977143
0.8512733370011492,1,0.996277
0.8615788537482751,1,0.998845
0.8679163051371963,1,0.997153
0.8827823243315147,1,0.994665
0.881716350103781,0,0.985915
0.9067069716795,0,0.892210
0.8518656446198223,1,0.995711
0.8668966329354963,0,0.991558
0.897207692026991,1,0.999225
0.8666067438720221,1,0.998682
0.897274577871157,1,0.997917
0.9138834445755502,0,0.946829
0.9030826085091632,1,0.997814
0.8896069543334882,0,0.988657
0.8928872144039014,1,0.995437
0.8519977587180382,0,0.959959
0.8889810249735693,1,0.997349
0.8880023190039866,0,0.989144
0.9024849030834246,1,0.999380
0.8973084374943665,1,0.997906
0.8788672397073876,0,0.991983
0.8589026886696821,1,0.996868
0.8731411056854353,1,0.997442
0.8418653379280495,0,0.989576
0.9017398850320686,1,0.994393
0.8456931380614515,1,0.999403
0.8749432834914098,1,0.997497
0.9089647669650196,0,0.953925
0.919103425563007,0,0.991756
0.9277024937197826,1,0.999330
0.8953163665187988,0,0.992137
0.869805054560066,0,0.925101
0.9150863919890494,1,0.999368
0.8969893679654709,0,0.974080
0.9032701629518483,1,0.998810
0.8722277639799603,1,0.999387
0.8867815747709503,0,0.667894
0.8601090207582028,0,0.986730
0.8909706187459924,1,0.998778
0.8970369950435103,1,0.994370
0.867230952062648,1,0.999298
0.9133544251346036,1,0.999322
0.8574299956536885,1,0.996594
0.9107183002836391,1,0.992658
0.9181624265796796,1,0.997063
0.9148751194044108,0,0.783195
0.9229863358801915,0,0.983728
0.9100520491116323,1,0.996238
0.9195924724146994,0,0.564145
0.8926194357152343,0,0.982927
0.8849172978242389,1,0.999431
0.9311171263971634,0,0.663495
0.8951188068730491,1,0.998565
0.9216924071342316,1,0.998661
0.9104546694755192,1,0.999389
0.9308507944114124,1,0.998741
0.9169862722509211,0,0.989018
0.8829700925967842,1,0.995993
0.9089375627077702,1,0.998757
0.8446390862215909,0,0.991983
0.8661023782692862,1,0.997922
0.8774869789214007,1,0.995392
0.8548887516754108,1,0.995745
0.8910358249252217,1,0.996569
0.8982269656525428,1,0.994706
0.9056479237773847,0,0.975138
0.8913050218234746,1,0.992707
0.8947966887526801,1,0.998616
0.9007267686438148,1,0.999391
0.9152399933540547,0,0.937343
0.9025012487375546,1,0.997693
0.8970852802200587,1,0.998735
0.9017865560271293,0,0.973432
0.8695621957332408,1,0.997925
