0.4288342925093856,0,0.942742
0.6697946697931288,1,0.999237
0.8663743590512698,1,0.995478
0.945416288112701,1,0.994032
0.9743183749900102,1,0.999399
0.9857018825823602,1,0.998571
0.9907750444957949,1,0.997066
0.9935048395381961,1,0.998316
0.9951480352135468,1,0.994937
0.9961600191778588,1,0.999431
0.9968891243525406,1,0.998689
0.973685121479872,1,0.997234
0.9836776980951872,1,0.999126
0.9885655401239336,1,0.994495
0.9912996278853882,1,0.999217
0.9933132247440339,1,0.999270
0.9946651068196395,1,0.999332
0.99562208697784,1,0.999309
0.9961860523579662,1,0.998756
0.9965903465323873,1,0.999336
0.9969578564172104,1,0.999284
0.9972276283550341,1,0.994536
0.997374881935189,1,0.999237
0.9828420077310676,1,0.999329
0.9879173814214627,1,0.999321
0.9907529779754597,1,0.999340
0.9926848241714341,1,0.999275
0.9938664115110354,1,0.999345
0.994789536948343,1,0.998533
0.9953930943842199,1,0.999337
0.9958063117536886,1,0.999278
0.9961176180325714,1,0.998763
0.9963571304920918,1,0.995219
0.9965375055963861,1,0.999354
0.996663127312439,1,0.999243
0.9968556326856293,1,0.999342
0.9970093590904402,1,0.999266
0.9828704005097608,1,0.998607
0.9870540953494908,1,0.997209
0.9894671470013466,1,0.999346
0.9912054131427696,1,0.999131
0.9927329481932207,1,0.998009
0.993780314963146,1,0.998379
0.9945707670207826,1,0.999308
0.9951858882295392,1,0.999369
0.9955644526400482,1,0.999214
0.9958560065905161,1,0.999275
0.9960837448941532,1,0.995178
0.9962874204879466,1,0.999332
0.9963817057922447,1,0.999267
0.996598298627678,1,0.999261
0.9966678142051028,1,0.997209
0.9967243540005167,1,0.999345
0.9783861636708533,1,0.999300
0.9827968264954433,1,0.998539
0.9861283060424028,1,0.998720
0.9882291160026958,1,0.998588
0.9895161783465822,1,0.998575
0.9907990551897676,1,0.999338
0.9918062952953877,1,0.996265
0.9926366117703708,1,0.999154
0.9930135563515834,1,0.999363
0.9935359195569751,1,0.999308
0.9939766104493827,1,0.999292
0.9942415266015221,1,0.999362
0.9946237053971847,1,0.998241
0.994762642358797,1,0.999384
0.995042995174279,1,0.999306
0.9955163415923906,1,0.999263
0.9959795809946009,1,0.999232
0.9961752107731258,1,0.999265
0.9705039237771749,1,0.999377
0.9767709700754732,1,0.999382
0.9806464628486844,1,0.993664
0.983121057431146,1,0.998018
0.9853837258420404,1,0.999297
0.9871111824639694,1,0.998560
0.9886978739682442,1,0.998686
0.9895938380978034,1,0.999237
0.9902900287745866,1,0.999351
0.991039710696812,1,0.999213
0.991591459963308,1,0.999303
0.992267158451316,1,0.999260
0.9928185137096246,1,0.999349
0.993110774412732,1,0.995686
0.9932028043351095,1,0.999300
0.9933534859907408,1,0.999241
0.9935968413514394,1,0.999339
0.9938818390456775,1,0.999218
0.9940190866490137,1,0.999213
0.9942836634819056,1,0.999183
0.967733728927739,1,0.997981
0.9753413579125987,1,0.997555
0.979702399959097,1,0.998689
0.9826628078296497,1,0.999248
0.9850012558807405,1,0.998453
0.9868221132919216,1,0.999246
0.9883964918936919,1,0.999280
0.9896841695355043,1,0.999279
0.9902281857625709,1,0.999208
0.9906801719093841,1,0.999294
0.9911452351987872,1,0.999257
0.9914106828767751,1,0.998229
0.9915266673073501,1,0.999370
0.992260144191428,1,0.998584
0.9927017341040661,1,0.999302
0.9930658018549163,1,0.999308
0.9933312009620833,1,0.998682
0.9936687218800138,1,0.999265
0.9942166805577638,1,0.999328
0.9946572659141183,1,0.999272
0.9949824683546166,1,0.999316
0.9952720389535326,1,0.998857
0.9954220674437013,1,0.999337
0.9593044314329474,1,0.999329
0.9682204063369042,1,0.999328
0.9741286915798567,1,0.999391
0.9784562183970876,1,0.996855
0.9822540711250477,1,0.999360
0.9848501703204994,1,0.996691
0.9869712924794604,1,0.999307
0.9887148659978399,1,0.999365
0.9901007636640105,1,0.999146
0.9910277599520153,1,0.999209
0.9919021773201885,1,0.999202
0.9925766347273983,1,0.999257
0.9932107778287985,1,0.999351
0.9937420191592428,1,0.999066
0.9943313760013114,1,0.999313
0.9947841481813333,1,0.999371
0.9951063838311646,1,0.999337
0.9954055669532281,1,0.999014
0.995852894044093,1,0.999294
0.9962182748870129,1,0.999342
0.9965380335799576,1,0.999228
0.9968021314911157,1,0.999186
0.9969973364230141,1,0.999312
0.9971295750841221,1,0.999367
0.9454412919734175,1,0.998028
0.9562067441232672,1,0.995586
0.9644701890542354,1,0.997925
0.969867594005772,1,0.998970
0.9744891302036054,1,0.997654
0.9783799483058043,1,0.999274
0.9814341236897683,1,0.996885
0.98385230172905,1,0.999274
0.9853557970864333,1,0.998511
0.9867456080753556,1,0.999117
0.9877996788804085,1,0.997851
0.9886776582276332,1,0.999300
0.9892954793004203,1,0.998560
0.9898281164692818,1,0.999335
0.9903297866655179,1,0.999288
0.9907837584385362,1,0.999283
0.9911889853661634,1,0.999355
0.9915081055343244,1,0.999275
0.9918207178796693,1,0.998554
0.9920049890869884,1,0.998526
0.9921391464554438,1,0.999174
0.9922048440498181,1,0.999334
0.9923240830012152,1,0.999275
0.9926458101469628,1,0.999396
0.9929314694279215,1,0.999331
0.9931935697370216,1,0.999219
0.9295698936538439,1,0.997496
0.9440317096821073,1,0.999265
0.9538743076448811,1,0.999299
0.9621505954824512,1,0.999266
0.9686751653023248,1,0.999284
0.9740095105346734,1,0.999301
0.9771450033759873,1,0.998321
0.9795867119200667,1,0.998587
0.9817628295469849,1,0.999237
0.9839226146620568,1,0.999386
0.9853826157457634,1,0.998513
0.9865982759227625,1,0.999305
0.987665819960619,1,0.999296
0.988381724830829,1,0.999260
0.9889021124930765,1,0.999295
0.9894242792291554,1,0.999165
0.9900562372864161,1,0.999203
0.9907043765843051,1,0.999305
0.991224443215,1,0.999147
0.9916269079534162,1,0.999102
0.9919690288818989,1,0.999178
0.9923327509233733,1,0.999230
0.9925396906313031,1,0.999347
0.9927167571134861,1,0.999362
0.9928541870460281,1,0.999332
0.9929737047787565,1,0.999287
0.9930703749680342,1,0.999176
0.9931635353622278,1,0.999147
0.9932304496648301,1,0.999313
0.9394820588820972,1,0.999354
0.9522455869327775,1,0.999375
0.9622629219856423,1,0.999310
0.9699724058368734,1,0.999329
0.9749357358946029,1,0.998469
0.9777982885445134,1,0.999252
0.9802711322520228,1,0.998662
0.9820358828458224,1,0.999022
0.9837101764017364,1,0.998621
0.9852715320894099,1,0.999296
0.9864414153458736,1,0.999177
0.9872942795822939,1,0.999305
0.987982968991345,1,0.999301
0.988435096366032,1,0.998705
0.9889693986395283,1,0.998979
0.9894185423153766,1,0.999319
0.9896512442440873,1,0.998828
0.9898320577008306,1,0.998463
0.9900232655197302,1,0.999263
0.990332190070869,1,0.999314
0.9905503589002964,1,0.998621
0.9906328699924123,1,0.996610
0.9908757491580957,1,0.999292
0.9909692107216678,1,0.999355
0.9911747764628015,1,0.999336
0.9912927792527583,1,0.998173
0.9914099806346492,1,0.998917
0.9915186043047326,1,0.999354
0.9916239125210637,1,0.998146
0.9917332769233257,1,0.998617
0.9226121449001918,1,0.998607
0.9339412966143746,1,0.999325
0.9445285974097591,1,0.999240
0.9529432142622533,1,0.999316
0.9590818595698104,1,0.998609
0.9639380379410332,1,0.998668
0.9680302625111674,1,0.999373
0.971725805730061,1,0.997490
0.9747070781816416,1,0.999307
0.9771486009792505,1,0.998363
0.9789916340960093,1,0.999222
0.9803363557720769,1,0.998610
0.9814782492932985,1,0.998638
0.9824634985294718,1,0.999311
0.98330569273067,1,0.999230
0.9840747399863973,1,0.999278
0.9848331131981403,1,0.999361
0.9853632381321032,1,0.999352
0.9857035177256742,1,0.999321
0.9865069125011454,1,0.999233
0.9872816954803809,1,0.999254
0.9880161597143018,1,0.997658
0.9887805022419343,1,0.999166
0.9894601986351248,1,0.998144
0.990009777110323,1,0.999372
0.9904128027874705,1,0.999368
0.9908206048063487,1,0.999281
0.9911464591666462,1,0.999298
0.9914857427889217,1,0.999373
0.9917845591553688,1,0.999278
0.9919742212482239,1,0.999309
0.9921315672829943,1,0.999320
0.9168579979472007,1,0.999295
0.9305559784080722,1,0.998534
0.9428531150850383,1,0.999248
0.9517331494302581,1,0.999219
0.9589969084446129,1,0.999352
0.9643035382349595,1,0.997696
0.9695477644566419,1,0.998548
0.9736148347673748,1,0.998606
0.9767605332048976,1,0.999246
0.979259238932072,1,0.999328
0.9813777996108903,1,0.999002
0.9829640015755838,1,0.998132
0.984518888466366,1,0.999291
0.9858533222617961,1,0.999036
0.986884068518167,1,0.999396
0.9877896086969512,1,0.997739
0.9886224037372543,1,0.999271
0.9893005943886823,1,0.999303
0.9898574458932782,1,0.999349
0.9902769813108541,1,0.999346
0.9905945293707537,1,0.999289
0.9908223215494073,1,0.999320
0.9909666039076287,1,0.999343
0.991058469886971,1,0.999198
0.9911603152752227,1,0.999331
0.9911925368821287,1,0.999211
0.9912182732178791,1,0.999131
0.9912949607382722,1,0.998509
0.9913460763835629,1,0.999331
0.991399909487677,1,0.999336
0.9913679411434768,1,0.999260
0.9913278129917533,1,0.999331
0.9914284094779806,1,0.999299
0.9918737095617874,1,0.999304
0.99226642486117,1,0.998689
0.9210613819922532,1,0.997658
0.9348420006327494,1,0.998522
0.9457654006656978,1,0.999290
0.9545436255880945,1,0.995223
0.9607861890842223,1,0.997621
0.9659646429378181,1,0.999266
0.9697962892651684,1,0.997710
0.972625900156482,1,0.999243
0.9751366322011038,1,0.998379
0.9772928200935407,1,0.999278
0.9793126224314125,1,0.998395
0.9809161400950557,1,0.999321
0.9824245922347848,1,0.999371
0.9836138113561977,1,0.994751
0.9846789475376054,1,0.999381
0.9855641372480104,1,0.999265
0.9862079790963986,1,0.999273
0.9867530396983872,1,0.999182
0.9871664167204235,1,0.999272
0.9875567072289478,1,0.999255
0.9877455884110586,1,0.999246
0.987878785215962,1,0.999297
0.9880622573540263,1,0.999300
0.9884488827648977,1,0.999290
0.9887310086321309,1,0.997677
0.9889388354850095,1,0.999224
0.9890844592619588,1,0.999200
0.989243670052431,1,0.999341
0.98938108144231,1,0.999140
0.9894761317762013,1,0.999328
0.9896269152788746,1,0.999255
0.9897600002707556,1,0.999230
0.9898812857775635,1,0.999304
0.9899781305894805,1,0.999133
0.9900609704691254,1,0.999320
0.9901622923855579,1,0.999250
0.9902221703139584,1,0.998650
0.9215567339680382,1,0.999320
0.9360976563906196,1,0.999249
0.9471684934346963,1,0.999250
0.9560027378768757,1,0.999311
0.9627400440290661,1,0.999259
0.9675718116430314,1,0.998602
0.9722658007992564,1,0.999335
0.9754893665844914,1,0.998550
0.9782801549832173,1,0.999348
0.980581649782895,1,0.999113
0.9825190903683937,1,0.999165
0.9843611733660854,1,0.998636
0.9859246578247318,1,0.999372
0.9872055492525614,1,0.999333
0.9885166956091361,1,0.999316
0.9892102480327791,1,0.999258
0.9899074480472562,1,0.999292
0.99047746991019,1,0.999294
0.9909433825343074,1,0.999258
0.9912987836852007,1,0.998156
0.9915739928283588,1,0.999154
0.9917873373903829,1,0.999307
0.992008763532718,1,0.999266
0.9922553905779232,1,0.999348
0.9924746448206008,1,0.998037
0.9926505417869804,1,0.999312
0.9927633998288693,1,0.999256
0.992825905769333,1,0.999253
0.9928962466706018,1,0.999370
0.9929220921759339,1,0.999211
0.9929425872409898,1,0.999255
0.992913892866072,1,0.999192
0.9933454709212314,1,0.999395
0.9937603883854427,1,0.999273
0.9941293016172987,1,0.998552
0.9945375774538188,1,0.999048
0.9948074761278914,1,0.999240
0.9950732169259797,1,0.998662
0.9128432841060794,1,0.999316
0.924900082086546,1,0.999291
0.9340720213950076,1,0.999209
0.9424852631528956,1,0.999212
0.9489528670428794,1,0.999307
0.9545401424411182,1,0.999348
0.9589405388021042,1,0.999340
0.9623900551721309,1,0.997713
0.9656557477065498,1,0.999334
0.9687389623838858,1,0.999321
0.9714404166547338,1,0.999203
0.9736571044944484,1,0.999301
0.9756533564109368,1,0.999308
0.9769758615443693,1,0.999353
0.9782777590880529,1,0.999315
0.9793991903374305,1,0.999224
0.980457064872355,1,0.999308
0.9813071425386009,1,0.998158
0.9819671934925992,1,0.999249
0.9826654099765888,1,0.998544
0.9833109412483295,1,0.998631
0.9839805722890899,1,0.998784
0.9845102323731686,1,0.999256
0.9848726902030401,1,0.999225
0.9851492321628345,1,0.999367
0.985422421623163,1,0.999302
0.9857733540458735,1,0.999323
0.9861060087576964,1,0.999046
0.9864320769031948,1,0.999345
0.9867200364782635,1,0.998592
0.9870340401058112,1,0.999221
0.9872494239609826,1,0.999325
0.987417550216702,1,0.999297
0.9875323893361422,1,0.998516
0.9876055030562787,1,0.999353
0.9876926926002932,1,0.999174
0.9877767683819658,1,0.999307
0.9880652757217451,1,0.999267
0.9883277589211693,1,0.999375
0.9885746470130183,1,0.999205
0.9887725098816065,1,0.999389
0.9059750380274132,1,0.999315
0.9199462090231341,1,0.999295
0.9319337825836629,1,0.999343
0.941278511495775,1,0.999206
0.9490848396111398,1,0.999214
0.9550094518806567,1,0.999215
0.9602750224403233,1,0.999296
0.9641859519712268,1,0.999231
0.9675417042423035,1,0.999291
0.9705170098181822,1,0.999399
0.9731197150013822,1,0.999270
0.9755909335136267,0,0.988381
0.9774020350772427,1,0.999339
0.9790790813266115,1,0.999277
0.9804096543304192,1,0.998428
0.9815586919249206,1,0.999353
0.9826254489863173,1,0.999209
0.9835099382777395,1,0.999344
0.9842817157570006,1,0.999245
0.9847973584882866,1,0.999296
0.9853225337787871,1,0.994536
0.9857580798582612,1,0.999337
0.9861936749073377,1,0.999362
0.986650370681741,1,0.999201
0.987010533269695,1,0.999268
0.9873347513892936,1,0.998504
0.9876470387402088,1,0.999298
0.9879142444307395,1,0.999344
0.9881207053293577,1,0.998183
0.9882453869067362,1,0.999402
0.9884055135773032,1,0.999207
0.98851267150077,1,0.999322
0.9886286295941479,1,0.999268
0.9887640115392948,1,0.998643
0.9888418708996424,1,0.998771
0.9889766959975889,1,0.997545
0.9891264965395533,1,0.999289
0.9892298135985654,1,0.997984
0.9893075600339425,1,0.999289
0.989399521570231,1,0.998517
0.9894587223880628,1,0.999344
0.9894998636425474,1,0.998604
0.902675722281478,1,0.999324
0.917814355269829,1,0.998477
0.9305159201652322,1,0.999121
0.9409261115850367,1,0.996908
0.9501283279446552,1,0.999225
0.9571030515347965,1,0.999268
0.9627598375950434,1,0.999324
0.9677353232057387,1,0.999260
0.971442947852158,1,0.998509
0.9748203195321179,1,0.999286
0.9773205540809198,1,0.999336
0.9794937093285155,1,0.999278
0.9810574079958411,1,0.999199
0.9824223196833843,1,0.999300
0.9834142126398365,1,0.998142
0.9844557406112336,1,0.999284
0.9852943631676697,1,0.999127
0.9859715976634427,1,0.998225
0.986579563777102,1,0.999349
0.9871835470752288,1,0.999184
0.9877611708356534,1,0.998867
0.9883572732746966,1,0.998129
0.9888013485967928,1,0.999254
0.9891531487641284,1,0.999292
0.9894236409319388,1,0.999335
0.9896416209205818,1,0.998861
0.9898292944917908,1,0.999367
0.9899681978113436,1,0.999323
0.9900745865379652,1,0.999255
0.9901795303236801,1,0.999309
0.9903013455130565,1,0.999343
0.9903885982824937,1,0.999187
0.990467536768279,1,0.999281
0.9905225058782443,1,0.994786
0.9905499145790231,1,0.999340
0.99059219143642,1,0.999330
0.9905892931611878,1,0.999364
0.9905987986485846,1,0.999305
0.9905851434538603,1,0.999273
0.9905732202243038,1,0.999291
0.9905316725549096,1,0.999316
0.99051139375728,1,0.999258
0.9905726311409522,1,0.999104
0.9906105101798266,1,0.999211
0.9906542767581619,1,0.999322
0.9078737260324352,1,0.999238
0.9212029711662676,1,0.999265
0.9327566730124428,1,0.999264
0.9428818794077879,1,0.999318
0.9502061529595605,1,0.999308
0.9567244619226984,1,0.999276
0.9621703898410859,1,0.999305
0.9666355157375186,1,0.999331
0.9703961376165793,1,0.999257
0.9735751149621928,1,0.999351
0.9761665949339234,1,0.999273
0.9781729312476517,1,0.997004
0.9799582525089572,1,0.999365
0.9815060792113077,1,0.999281
0.9827824333878961,1,0.998771
0.9838100891299552,1,0.999297
0.9848420431074858,1,0.997651
0.9858393667460451,1,0.997559
0.9865876016312931,1,0.999305
0.9873008042893396,1,0.999263
0.9879973464195325,1,0.999026
0.9885165213255622,1,0.999277
0.9889969038319373,1,0.998239
0.9894685861258564,1,0.999370
0.9898315151900546,1,0.999280
0.9901132836755779,1,0.999287
0.9903759059509403,1,0.999295
0.9905970051713018,1,0.999330
0.9908208225297367,1,0.999348
0.9910425743245252,1,0.999251
0.9912117962800364,1,0.999271
0.9913228148465986,1,0.999349
0.9914235906006211,1,0.999295
0.991505046597577,1,0.999199
0.9915775907779704,1,0.999363
0.991698637696726,1,0.999346
0.9918113953179196,1,0.999404
0.9918876732603162,1,0.999259
0.9919087276164226,1,0.999226
0.9919520497519423,1,0.999265
0.9919551957522005,1,0.999254
0.9919637020512411,1,0.999309
0.9919422485211821,1,0.999241
0.9918853250979102,1,0.999322
0.9918462887075953,1,0.998795
0.9917577559567291,1,0.999408
0.9916823401081788,1,0.999354
0.9118821478525942,1,0.999214
0.9250739988771204,1,0.999347
0.9354718000727547,1,0.999340
0.9439367124876105,1,0.999295
0.9512191206201269,1,0.999301
0.9572495675002389,1,0.999330
0.9622140853017118,1,0.999321
0.9665620307459795,1,0.999272
0.9700066771456486,1,0.999336
0.9731327016815388,1,0.999286
0.9757347269251365,1,0.999307
0.9778084088660803,1,0.999361
0.979432211664861,1,0.997108
0.9809170870189342,1,0.998824
0.9821897766897322,1,0.999287
0.9833060148166787,1,0.999203
0.9843654962835913,1,0.999353
0.9852128187655425,1,0.999245
0.9860177487176817,1,0.999332
0.9866219794951575,1,0.997677
0.9872028392050003,1,0.999184
0.9877214709105631,1,0.999352
0.9881541735225159,1,0.999281
0.9885213789931702,1,0.999264
0.9888467525594116,1,0.999325
0.9890860096223795,1,0.999293
0.9892171291961708,1,0.999346
0.9893648904415391,1,0.999296
0.9895395097786348,1,0.999289
0.9903842474214887,1,0.999281
0.9911427436176429,1,0.999311
0.991866922863071,1,0.999230
0.9924776740260892,1,0.999335
0.993070279277979,1,0.999336
0.9936175790733054,1,0.999271
0.9940554792088458,1,0.999299
0.994472019186564,1,0.999325
0.9948516364448183,1,0.999324
0.9951797966464264,1,0.999313
0.9954721636958839,1,0.999273
0.9957212797175184,1,0.999238
0.9959489114238247,1,0.999330
0.9961548051996869,1,0.999115
0.9963224369988193,1,0.999343
0.9964692808515375,1,0.999287
0.9966191206886293,1,0.999164
0.9967797955342766,1,0.999225
0.9969132894352839,1,0.999383
0.8949379115404499,1,0.998698
0.9091164330148349,1,0.998473
0.9210159657056446,1,0.998654
0.931654561950067,1,0.999336
0.9396920649826875,1,0.999274
0.9468121380749788,1,0.999288
0.9528529686238415,1,0.999285
0.9578299576141,1,0.999261
0.9620336985980723,1,0.999307
0.9658885218321257,1,0.999336
0.969201154124603,1,0.999349
0.9716937838369846,1,0.999292
0.973771603604586,1,0.999127
0.9754479739400417,1,0.999209
0.976823090296795,1,0.997427
0.9781262639048748,1,0.999266
0.9791125397736552,1,0.999245
0.9800823612298105,1,0.999346
0.9808590375246282,0,0.987578
0.981611430349408,1,0.998247
0.9822287814880213,1,0.999370
0.9827212023218437,1,0.999359
0.9831474543494669,1,0.997329
0.9835404262055767,1,0.999351
0.9838665751774469,1,0.999354
0.984166155962039,1,0.999361
0.9844378775556617,1,0.999297
0.9846450385186365,1,0.999348
0.9849660616917527,1,0.999275
0.9852253723585251,1,0.998799
0.9854732725359912,1,0.999283
0.9856821315879589,1,0.998779
0.9858838862713784,1,0.999290
0.9860649832448771,1,0.999353
0.9861960779732784,1,0.999285
0.9863005186717119,1,0.999305
0.9863601813722203,1,0.999308
0.986452606816367,1,0.999290
0.9865075281845358,1,0.999331
0.9865525723945203,1,0.999343
0.9865780877370903,1,0.999289
0.9865893760124875,1,0.999316
0.9865663114434808,1,0.999270
0.986543719774193,1,0.999364
0.9865721884918708,1,0.999356
0.9868336197456443,1,0.999318
0.9870742042949643,1,0.999371
0.9872854319518745,1,0.999331
0.9874604282401247,1,0.999155
0.9876313743690246,1,0.994123
0.987788526294529,1,0.998775
0.8997063779218962,1,0.999215
0.913338147592606,1,0.998647
0.9247657721254707,1,0.996672
0.934415219185307,1,0.999345
0.943003092815277,1,0.999356
0.9496120807950423,1,0.994832
0.9557463846874995,1,0.999341
0.9607665169744337,1,0.999276
0.9648026502683282,1,0.999339
0.9681464806289055,1,0.999266
0.9709654298227973,1,0.999335
0.9731949709295905,1,0.999360
0.9753115158495829,1,0.999299
0.9771130726599714,1,0.999225
0.9786177693326638,1,0.999363
0.9800311072945708,1,0.999365
0.9811583325793296,1,0.999307
0.9821314961151556,1,0.999305
0.9830745345623959,1,0.999335
0.9838490657351562,1,0.999157
0.9844366259267514,1,0.996584
0.9849222456992822,1,0.999363
0.9854180309707359,1,0.999342
0.9857386930164567,1,0.999296
0.9860785611200954,1,0.999316
0.9863786234942028,1,0.998753
0.9866446553468389,1,0.999274
0.9868247201451115,1,0.998780
0.9869887686258881,1,0.999297
0.9871417456032213,1,0.999291
0.987237623389735,1,0.998752
0.987331858125486,1,0.999282
0.9873921267521881,1,0.999346
0.9874812567716877,1,0.999345
0.9875056242128366,1,0.997879
0.9875591399363963,1,0.999354
0.9876591156181939,1,0.999309
0.9877500493823427,1,0.999300
0.9878321550162961,1,0.999317
0.9878811717441175,1,0.996082
0.987913231660658,1,0.999292
0.987953866918129,1,0.999347
0.9879693392506439,1,0.999325
0.9879812261046997,1,0.999285
0.9879566906504842,1,0.999301
0.9879512956898221,1,0.999285
0.9879554340782679,1,0.999202
0.9879146074531474,1,0.999338
0.9878802267403728,1,0.995392
0.9878573836186092,1,0.999255
0.9881535537320761,1,0.999341
0.9884290473417721,1,0.999229
0.9886730021299497,1,0.999356
0.9031173350463696,1,0.999299
0.9145612635938989,1,0.997865
0.9243031743506126,1,0.999196
0.9329986033173292,1,0.998456
0.9395397488255574,1,0.999316
0.9453000081895913,1,0.999305
0.9499064912231359,1,0.999351
0.9539189070859013,1,0.997687
0.9574651723407138,1,0.998817
0.9606038290370698,1,0.998133
0.9632338324277959,1,0.999106
0.9656119598908823,1,0.999293
0.9676197397655032,1,0.999272
0.96943923647172,1,0.997665
0.9710040356564051,1,0.998967
0.9725937202760339,1,0.999250
0.9740845432975942,1,0.999260
0.9754733814465635,1,0.998573
0.9766361787936594,1,0.999284
0.9776566826136286,1,0.998777
0.978445719898696,1,0.998775
0.9791750522777216,1,0.999363
0.9798684425180292,1,0.996215
0.9803631284005592,1,0.998183
0.9808643489529131,1,0.999250
0.9812953900512302,1,0.998979
0.9816477868469493,1,0.998697
0.9819245027441299,1,0.999221
0.9821478691398904,1,0.999331
0.9822916592275465,1,0.998516
0.9825187467517025,1,0.999017
0.9827098899288723,1,0.999364
0.9829321146852367,1,0.999284
0.9830779070564857,1,0.999231
0.9831756571074671,1,0.999144
0.983254333113332,1,0.999313
0.983399870178552,1,0.999328
0.9836794355231323,1,0.999284
0.9839205497403789,1,0.999334
0.9841153470323849,1,0.999307
0.9842689557955476,1,0.999318
0.9844171088961613,1,0.999284
0.9845588100576236,1,0.999336
0.9846856587015815,1,0.999243
0.9848007214591029,1,0.999277
0.9848831113769817,1,0.999315
0.9849487145122434,1,0.998782
0.9850311005599504,1,0.997574
0.9851336031017465,1,0.999265
0.9852283688096205,1,0.999324
0.985270786186202,1,0.999294
0.9853592512863617,1,0.999292
0.9854258508579037,1,0.999248
0.9854840107291345,1,0.999203
0.9855267267413942,1,0.999330
0.9074561825048542,1,0.998335
0.9191521143076842,1,0.999348
0.9287055488398213,1,0.999326
0.9373182525778895,1,0.999135
0.9449697065062065,1,0.999332
0.95115543110965,1,0.999292
0.9561808530637049,1,0.999168
0.9601099896104405,1,0.999279
0.963571545287408,1,0.999333
0.9666722747248111,1,0.999300
0.9693136602409907,1,0.999284
0.9718086075755529,1,0.999343
0.9741281569317569,1,0.999258
0.9757331688653732,1,0.999354
0.9771043550099618,1,0.999306
0.978250797685269,1,0.999374
0.9792678882103033,1,0.999352
0.9801383638440084,1,0.999320
0.9810656470977214,1,0.999375
0.9816732523006633,1,0.999316
0.9822609483351236,1,0.999341
0.9828413941421494,1,0.999311
0.9834384073254312,1,0.999277
0.9839423628165226,1,0.999255
0.9844011013559872,1,0.999365
0.9848133453037679,1,0.999249
0.9852447135920434,1,0.999323
0.9856017239664058,1,0.999204
0.9859037564756151,1,0.999356
0.9861506569389644,1,0.999329
0.9863920529434895,1,0.999330
0.9865648870543793,1,0.999379
0.9867271698895383,1,0.999290
0.986855432706342,1,0.999378
0.9869609543397211,1,0.999320
0.9869833823764056,1,0.998779
0.986988819844302,1,0.999310
0.9870346463624775,1,0.999222
0.9870443480193898,1,0.999333
0.9870306916614595,1,0.999281
0.9870425238744812,1,0.999338
0.9870290593643143,1,0.999259
0.9871432620180468,1,0.998820
0.9872199557782315,1,0.997541
0.9873337006937077,1,0.999304
0.9873742880763141,1,0.999378
0.9874191523596949,1,0.999293
0.9874624782418913,1,0.999266
0.9874875045940756,1,0.999363
0.9874887961818501,1,0.999301
0.9875106014088979,1,0.999350
0.9874906675966366,1,0.997172
0.9875117758139768,1,0.999356
0.987510575827333,1,0.998560
0.9875121857744703,1,0.999202
0.9874730907415135,1,0.999289
0.8983489357894844,1,0.999280
0.9114443568670519,1,0.999292
0.9223434384423832,1,0.999244
0.9314074838207119,1,0.999305
0.9393015518577227,1,0.999312
0.9457358389213026,1,0.999337
0.9512008184305589,1,0.999347
0.9567213590597119,1,0.999262
0.9612041444143473,1,0.999300
0.9646251557099632,1,0.999335
0.9675621311898192,1,0.999301
0.9704964331813536,1,0.999276
0.9730712060101223,1,0.999290
0.9748403924752652,1,0.998149
0.9764573287318485,1,0.999329
0.977874070691655,1,0.999257
0.9791574042854793,1,0.999300
0.9801734666183325,1,0.999317
0.9810751026154915,1,0.999102
0.981846006958518,1,0.999275
0.9824962624014363,1,0.999342
0.9831765659275167,1,0.999351
0.9836920182275963,1,0.999357
0.9842176641335729,1,0.999366
0.9853194216840443,1,0.999300
0.9863119583127892,1,0.999253
0.9871352840601622,1,0.997628
0.9879590931108995,1,0.999349
0.9887581733690018,1,0.999279
0.9894990890463371,1,0.999270
0.9900788050268204,1,0.999255
0.9906284968764361,1,0.999309
0.9910618847743069,1,0.999218
0.9914363891434472,1,0.999210
0.9918354821407752,1,0.999351
0.9921421980661804,1,0.999232
0.9924420547253753,1,0.999260
0.9927621838831541,1,0.999327
0.9929976696694912,1,0.999348
0.9932107215298702,1,0.999306
0.9933789993853733,1,0.999282
0.9935470503510282,1,0.999363
0.9937295899205671,1,0.998350
0.9939000377327735,1,0.999321
0.9940289288730776,1,0.999303
0.9941138805357731,1,0.999358
0.9942071501408559,1,0.999301
0.9942955309614404,1,0.999264
0.9943631305962481,1,0.999291
0.9943902815652343,1,0.999347
0.9943948267161894,1,0.999307
0.9943892499679532,1,0.999251
0.9943784448690864,1,0.999297
0.9943831357031143,1,0.998503
0.9943928193955961,1,0.999234
0.9943649466223854,1,0.998726
0.9943366502351559,1,0.999212
0.994282272531118,1,0.999296
0.9942258047180421,1,0.999132
0.9003684755869696,1,0.999249
0.9127079011052696,1,0.999275
0.9222273124610137,1,0.999287
0.9310040157675503,1,0.999267
0.9390508763157218,1,0.999300
0.944897709626709,1,0.999329
0.9502259422367559,1,0.999293
0.9548241719249697,1,0.999360
0.9584124021727465,0,0.985271
0.9619584865139401,1,0.999377
0.9652591651080761,1,0.997862
0.9679372075083718,1,0.999353
0.9701400184846805,1,0.999302
0.9723258999989876,1,0.999349
0.9739129384776241,1,0.999264
0.9752585841668635,1,0.999315
0.9763577809417114,1,0.999311
0.9774585395399179,1,0.998769
0.9784543369487855,1,0.998812
0.9793270971652683,1,0.999369
0.9800257036275752,1,0.999367
0.9807951533157947,1,0.998394
0.9815995115889825,1,0.999330
0.9822838054287086,1,0.999254
0.9829004314468804,1,0.999321
0.9834884447170036,1,0.996500
0.9839761264631693,1,0.999371
0.9844688355106389,1,0.999188
0.9848259149070424,1,0.999288
0.98511907042402,1,0.999304
0.9853720400854483,1,0.999293
0.9855695760524203,1,0.999278
0.9858385165592155,1,0.999319
0.9860458221589012,1,0.999320
0.9862158071488522,1,0.999262
0.9866030626407357,1,0.997451
0.9869960993684836,1,0.999369
0.9873561574797628,1,0.999332
0.987675086979183,1,0.999385
0.9879519321267412,1,0.999289
0.98822205696135,1,0.999352
0.9884562768156602,1,0.999297
0.988703954774821,1,0.999302
0.9888624225425109,1,0.999193
0.9890052411653568,1,0.998722
0.9891303178408737,1,0.999345
0.9892539675800324,1,0.999214
0.9893677590301885,1,0.999363
0.9894661354462704,1,0.999351
0.9895816897059357,1,0.999343
0.9897250970329411,1,0.999300
0.9898493629698427,1,0.999384
0.9899557882871235,1,0.999341
0.990046677561219,1,0.999216
0.9901493911888163,1,0.997743
0.9902299896241901,1,0.999287
0.9902884556427031,1,0.999307
0.9903504528717165,1,0.999285
0.9903925530077635,1,0.999366
0.9904371941415259,1,0.999361
0.9904658270680763,1,0.999269
0.9000062114637343,1,0.994838
0.9111161458484152,1,0.999315
0.9199679082830126,1,0.999297
0.9276039632087973,1,0.998693
0.9353820332094245,1,0.998645
0.9418823011394895,1,0.999219
0.9471314982756206,1,0.999227
0.9523640534127671,1,0.999186
0.9563083130046991,1,0.992565
0.9602509976823982,1,0.999294
0.9633833946820225,1,0.999354
0.9658471603759001,1,0.998828
0.9681848787278734,1,0.999328
0.9701745673683974,1,0.999363
0.9720155701465225,1,0.999287
0.9737543743060582,1,0.996118
0.9750897371091684,1,0.999298
0.9761059078318182,1,0.999309
0.9772553511031339,1,0.999273
0.9781712120559207,1,0.996599
0.9790300708266646,1,0.999343
0.9798637039144453,1,0.999380
0.9804683045373811,1,0.999373
0.9809067387413424,1,0.999284
0.9814009260605862,1,0.999192
0.9818559218603025,1,0.999292
0.9823550981520551,1,0.999216
0.9827764103921087,1,0.999290
0.9832636872910178,1,0.999306
0.983727181126613,1,0.999240
0.9841070446328468,1,0.999300
0.98442492522792,1,0.999298
0.984655048659022,1,0.999309
0.9848665650751381,1,0.999330
0.9851091288157214,1,0.999308
0.9853111684187197,1,0.999296
0.9854909874715072,1,0.999266
0.9856652933741133,1,0.999346
0.9858223951908174,1,0.999373
0.9859397735085479,1,0.999335
0.9860701455481272,1,0.999265
0.9861605355080882,1,0.999377
0.9864954062821378,1,0.999351
0.9869457202105697,1,0.999328
0.987396515032223,1,0.999294
0.9878393843734925,1,0.999312
0.9882369780444995,1,0.999350
0.9885588151119326,1,0.999357
0.9887848939300682,1,0.998944
0.9890693233771273,1,0.999211
0.9893338737526247,1,0.999389
0.9895605028561479,1,0.999352
0.9897762180390952,1,0.998365
0.9900089702788721,1,0.998579
0.9902424340694355,1,0.999314
0.9904652324542459,1,0.998519
0.990657091693169,1,0.999254
0.9908154858297122,1,0.999323
0.9909828783738774,1,0.999326
0.9911170864270178,1,0.999370
0.991246946303053,1,0.999315
0.9912955691263229,1,0.999199
0.8845850083683705,1,0.999356
0.8970241546016793,1,0.999362
0.9072829436929152,1,0.999217
0.9167334072625941,1,0.999325
0.9251319847860604,1,0.999235
0.9325859172705669,1,0.998705
0.9383669174092508,1,0.999304
0.9439852515825446,1,0.999359
0.9489797409589051,1,0.999270
0.9536371466162885,1,0.999291
0.9570234908677129,1,0.999369
0.9604577273045634,1,0.999346
0.963308879375207,1,0.996510
0.9660002770233176,1,0.999276
0.9684988519668379,1,0.999333
0.970661136524232,1,0.997608
0.9729524518979732,1,0.999323
0.9748484041885414,1,0.999348
0.9766229864000803,1,0.999322
0.9781966259610471,1,0.999213
0.9793933702790814,1,0.999298
0.9805852406459764,1,0.999335
0.9816598506616452,1,0.999270
0.9827401095575813,1,0.999279
0.9834566329911684,1,0.999307
0.9841916011910775,1,0.999339
0.9847358547580626,1,0.999361
0.9853607116856803,1,0.999186
0.985874569545028,1,0.999295
0.9863598411773582,1,0.999307
0.986826824614662,1,0.999353
0.987196714926229,1,0.999308
0.9875602296560236,1,0.999309
0.9878471721322191,1,0.999344
0.988062941410187,1,0.999297
0.9883043696575655,1,0.999321
0.9884425817053797,1,0.999271
0.9885833590941155,1,0.999359
0.9887018275015028,1,0.999370
0.9887585108073472,1,0.999302
0.9888335659949973,1,0.999339
0.9888855980259996,1,0.999291
0.9889020402076155,1,0.999265
0.988888027009175,1,0.999237
0.9889018660454111,1,0.999167
0.9888738913472317,1,0.998798
0.9888817974723807,1,0.999165
0.9888892453730528,1,0.999360
0.9888856326162913,1,0.998807
0.9888605828329734,1,0.999360
0.9888094643886464,1,0.999325
0.988759454325348,1,0.998486
0.9886983812218348,1,0.999214
0.9886477164804158,1,0.999307
0.9886031669472711,1,0.999371
0.9885493644588427,1,0.999186
0.9884579666549633,1,0.999155
0.9883691493924102,1,0.999372
0.9882509950408228,1,0.999274
0.9883128117467535,1,0.999361
0.988525890731627,1,0.996157
0.9887084519529858,1,0.998382
0.9888695623074202,1,0.999275
0.9890299929164741,1,0.998796
0.9891605603360858,1,0.999322
0.8853749792263145,1,0.994448
0.8980361023555903,1,0.999331
0.9090588811276036,1,0.998716
0.9186848118742673,1,0.999295
0.9257639820085193,1,0.999373
0.9332121227585527,1,0.998689
0.9392919843383299,1,0.999373
0.9451480164278481,1,0.999283
0.9506850222340159,1,0.999336
0.9549534640806598,1,0.999248
0.9585257498617163,1,0.994774
0.9622110981800479,1,0.999287
0.9653482141766059,1,0.999257
0.967809944124967,1,0.999321
0.9701642201236277,1,0.999360
0.9722293803723294,1,0.998532
0.9741672571215729,1,0.999323
0.9755392477501715,1,0.999280
0.9765940833109632,1,0.999314
0.9775911872183126,1,0.999360
0.9786051666352503,1,0.999370
0.9794342973240386,1,0.999277
0.9801723619607746,1,0.999358
0.980860841975807,1,0.999328
0.9813965124876659,1,0.999240
0.9817876035506152,1,0.999341
0.9823556371167383,1,0.999332
0.9828334653484383,1,0.999275
0.983273393034116,1,0.999332
0.983643364053084,1,0.999306
0.9840094599806307,1,0.999325
0.9842787444980734,1,0.999309
0.984544017760896,1,0.999355
0.9847300951471889,1,0.999141
0.9848948491305757,1,0.999359
0.985046319762736,1,0.999295
0.9852085566103758,1,0.999314
0.9853227214067435,1,0.999343
0.9854095380174427,1,0.999345
0.9854780422230254,1,0.999222
0.9855309668934833,1,0.999298
0.985619378372663,1,0.999349
0.9856543092500303,1,0.998805
0.9856606596319921,1,0.999367
0.9857003962560162,1,0.999365
0.9857398481785353,1,0.999375
0.9857623839469798,1,0.999292
0.9857344536408407,1,0.999344
0.9856713483935242,1,0.998308
0.9856113662959101,1,0.999312
0.9857544800883191,1,0.997729
0.9859009963837595,1,0.999219
0.9860142812306943,1,0.999327
0.9861459644315725,1,0.999297
0.9862863330227508,1,0.999225
0.9864016332497545,1,0.999213
0.9864662616806951,1,0.999284
0.9865343144724306,1,0.999206
0.9866115119117971,1,0.999347
0.9866424826989437,1,0.998161
0.9866944193397752,1,0.999359
0.9867539115816336,1,0.999341
0.9867790901516142,1,0.999338
0.986803760284074,1,0.999324
0.9868497662152227,1,0.999338
0.986859608990963,1,0.997817
0.9868685290155615,1,0.999317
0.8877972995224309,1,0.999362
0.899534650030496,1,0.999362
0.9097622678493227,1,0.999300
0.9195698972384535,1,0.995092
0.9278672666907275,1,0.999252
0.9352091987100819,1,0.999353
0.9418673815381551,1,0.999034
0.9480440120297404,1,0.999360
0.9531200754788445,1,0.999362
0.9570020505856068,1,0.999275
0.9607739481991181,1,0.999238
0.9641173558425666,1,0.998185
0.9670773404140843,1,0.999319
0.9699838943470721,1,0.999328
0.9725129483839602,1,0.999270
0.9745233548017834,1,0.998009
0.9763717238193924,1,0.999366
0.9778423329714162,1,0.999292
0.9790959261467161,1,0.998528
0.9802145570147147,1,0.999304
0.981300601916031,1,0.999239
0.9823731164987684,1,0.999334
0.9830741249851582,1,0.996347
0.9837760249198093,1,0.999287
0.9843732315079409,1,0.999306
0.9852799123488919,1,0.999308
0.986300950473954,1,0.999267
0.987243328091641,1,0.999352
0.9880707566918397,1,0.999327
0.9887477236261565,1,0.999282
0.9894569058388415,1,0.999363
0.9902392029632812,1,0.999261
0.9908343535002714,1,0.999367
0.9912573040557114,1,0.998744
0.991769901059856,1,0.999249
0.9921741013350623,1,0.998315
0.9925760387583101,1,0.999290
0.993003474364283,1,0.999266
0.9932616702900067,1,0.999284
0.9934753058735698,1,0.997694
0.9937101794954531,1,0.999281
0.9939448448312134,1,0.999349
0.9941302292664213,1,0.999296
0.9942700695090558,1,0.999272
0.9944186384036652,1,0.999254
0.9945684933050035,1,0.999347
0.9946567999585803,1,0.999278
0.9947094323077825,1,0.999358
0.9948121271206585,1,0.999222
0.9948919841330472,1,0.999308
0.994954766269407,1,0.999335
0.9949830546872203,1,0.998768
0.9949832411809808,1,0.999305
0.9950095758921489,1,0.999307
0.9950591013004831,1,0.999315
0.9950781068951765,1,0.999270
0.9950525200936248,1,0.999287
0.9949937509177936,1,0.999369
0.9949385749214773,1,0.999265
0.9948814596684941,1,0.999131
0.9948221654400456,1,0.999261
0.9947595832914836,1,0.999241
0.9946804510325007,1,0.999235
0.9945854529711766,1,0.999263
0.9945038599348114,1,0.999337
0.9944230140157352,1,0.999323
0.9943032367266624,1,0.999256
0.9942085047841476,1,0.996260
0.9941444607989935,1,0.999302
0.8890994025006786,1,0.994888
0.8986913189301733,1,0.999380
0.907256300867843,1,0.998628
0.9152325779142646,1,0.999361
0.9219377448105082,1,0.999213
0.9277388675091814,1,0.998581
0.9328867791694155,1,0.999281
0.9379315907875587,1,0.998657
0.9422130327426506,1,0.993671
0.9458256449861102,0,0.978210
0.9493607829263836,1,0.996780
0.9524140149983984,1,0.999302
0.9553480681807334,1,0.999346
0.9581756631533703,1,0.999318
0.9604621337144067,1,0.999365
0.9622155248909632,1,0.998117
0.9640610874654751,1,0.999222
0.9657953723933683,1,0.999354
0.9672098155972634,1,0.999280
0.9686722808674185,1,0.999310
0.969963098081726,1,0.999288
0.9711485110014357,1,0.999357
0.9722236571474857,1,0.999353
0.9729614038932496,1,0.999301
0.9738297012828788,1,0.999185
0.9746201177315003,1,0.999327
0.9754164682886822,1,0.999351
0.9760694400034018,1,0.999373
0.9765341346475355,1,0.999277
0.9770565190951708,1,0.997691
0.9774748702805993,1,0.999371
0.9778839750823015,1,0.999325
0.9782634885787063,1,0.999339
0.9786599703788273,1,0.995420
0.9790674858889102,1,0.997555
0.9793634056876119,1,0.999296
0.9796835841263463,1,0.999342
0.9799451945614522,1,0.995587
0.9801693189393688,1,0.999208
0.9803455106114022,1,0.999315
0.9805878755902929,1,0.999336
0.9808032528670506,1,0.999298
0.9809640172208005,1,0.999204
0.9811017890468671,1,0.999339
0.9812507559615817,1,0.999305
0.9813672074839538,1,0.999331
0.9814519260307629,1,0.999367
0.9815326158982555,1,0.999367
0.9816001859868481,1,0.999365
0.9816911616141302,1,0.999263
0.9818052496742774,1,0.999390
0.9818895073094122,1,0.999323
0.9819668478922435,1,0.998703
0.9820284315244115,1,0.999319
0.9820674108730569,1,0.999371
0.9821177787582703,1,0.999293
0.9821574709450916,1,0.999307
0.9821854786938797,1,0.999306
0.9822182003627026,1,0.999327
0.9822458839259197,1,0.999265
0.9822761857408652,1,0.999398
0.9822972470836175,1,0.999285
0.9823236863255566,1,0.999294
0.9823769116181912,1,0.999328
0.9823967109886487,1,0.999304
0.9824267173005029,1,0.999093
0.9824520093097955,1,0.998737
0.9824381406766709,1,0.999382
0.9824357391274798,1,0.999366
0.9824292271719738,1,0.999309
0.982428145129581,1,0.999257
0.8916749919667937,1,0.999376
0.9019581015153297,1,0.999310
0.9105477669163455,1,0.999293
0.918084282515175,1,0.999315
0.9247401452295118,1,0.999290
0.9309125886683254,1,0.999312
0.9367895019047647,1,0.999343
0.942087954702266,1,0.998146
0.9466729686454547,1,0.999346
0.9504024378123075,1,0.996782
0.9535030372724316,1,0.999355
0.9566548375386617,1,0.999320
0.9594384469292292,1,0.999366
0.9617767747908066,1,0.999331
0.9639727569331673,1,0.999287
0.9657795110872256,1,0.999354
0.967332583457581,1,0.999132
0.9688290883638178,1,0.999354
0.9700512693919929,1,0.999348
0.9711445898400749,1,0.996054
0.9721509273384065,1,0.998205
0.9731572593593616,1,0.999326
0.9739747660350082,1,0.998020
0.9747733674951746,1,0.999361
0.9755021817976541,1,0.999308
0.9761614526572865,1,0.999300
0.9768547237199485,1,0.999371
0.9774350352118067,1,0.998106
0.9779429884470784,1,0.999273
0.9784564740481365,1,0.999279
0.9788357679048012,1,0.999310
0.9792631413630658,1,0.999331
0.9795975572294958,1,0.999263
0.9798430448476309,1,0.999334
0.9801351703237948,1,0.997662
0.9803482955663125,1,0.999343
0.9805600434707405,1,0.999371
0.980778863562772,1,0.999316
0.9809651333516936,1,0.999310
0.9811722970645383,1,0.999356
0.9813148587085867,1,0.999178
0.9814600876759628,1,0.999336
0.9816232112477592,1,0.998675
0.9817923511469873,1,0.999320
0.9819376304898711,1,0.999342
0.9820591591073232,1,0.999328
0.9821530402396959,1,0.999259
0.9822513407011869,1,0.999332
0.9823580552508693,1,0.999304
0.9824431901566074,1,0.999328
0.9825197886621139,1,0.999331
0.9825986970763718,1,0.999356
0.9827078457412316,1,0.999350
0.9827875912918608,1,0.999318
0.982841816891144,1,0.999354
0.9829198988802376,1,0.999298
0.9829964247408056,1,0.999324
0.9830509172314074,1,0.999340
0.9831517739923876,1,0.999066
0.9832704634114945,1,0.999350
0.9833807567792306,1,0.999350
0.98348356949637,1,0.999376
0.98356569198334,1,0.998833
0.9836547055652526,1,0.999292
0.9837434094511873,1,0.999369
0.9838216757360051,1,0.999290
0.9838983198992788,1,0.999382
0.9839754847459733,1,0.999351
0.9840702855201809,1,0.999271
0.9841549493361204,1,0.999271
0.984229493795002,1,0.999213
0.9842917329078558,1,0.999211
0.9843620104746278,1,0.999337
0.8916641999462429,1,0.998318
0.9018704643922993,1,0.999283
0.9113078918257081,1,0.998544
0.9184999588323384,1,0.999211
0.9259992573162824,1,0.999340
0.9330072441370543,1,0.998646
0.9385078919551147,1,0.999294
0.9436680556141301,1,0.999351
0.9478914086824283,1,0.997872
0.9519938039521137,1,0.999343
0.955631436498469,1,0.999373
0.9588498058909986,1,0.999326
0.9614037885470341,1,0.999363
0.9640127986550088,1,0.999333
0.9664725982346686,1,0.999370
0.9684376659076155,1,0.999342
0.9702611060428648,1,0.999261
0.9720193149147609,1,0.999302
0.9732766866096991,1,0.998247
0.9743767065642961,1,0.999334
0.975428916777059,1,0.999365
0.9763746351394065,1,0.998108
0.977209917715651,1,0.999358
0.9779587759581735,1,0.999359
0.9785609426720876,1,0.999285
0.9791495603697661,1,0.999320
0.9796533551501088,1,0.999356
0.9801111691962043,1,0.999358
0.9804623054805346,1,0.997856
0.98074788206019,1,0.999204
0.9809924857713699,1,0.999334
0.9812279427881737,1,0.999303
0.9813981154101498,1,0.998147
0.9817220962253915,1,0.999290
0.9819751047239611,1,0.997792
0.9821922419996306,1,0.999314
0.9823883686627685,1,0.999246
0.982504482063834,1,0.999311
0.9826211756168751,1,0.999203
0.9826372076280826,1,0.999364
0.9826427986741204,1,0.999252
0.9825990056286441,1,0.999276
0.9825771203120545,1,0.998745
0.9825414037054,1,0.999235
0.9825106391172427,1,0.999186
0.9825200819098701,1,0.999291
0.9825556836166337,1,0.999338
0.982511644913058,1,0.998539
0.9824756989166857,1,0.995385
0.982440088912223,1,0.999316
0.9824022123317436,1,0.998707
0.9823554334045477,1,0.999302
0.9823418559423899,1,0.999344
0.9822794470101456,1,0.999227
0.9821744088283553,1,0.999378
0.9820514726026274,1,0.999241
0.9819050092435647,1,0.999288
0.9818771552453333,1,0.999336
0.9823435964225337,1,0.999356
0.9827815667872236,1,0.999246
0.9831958861722276,1,0.999361
0.983614011382131,1,0.999240
0.9840254537292329,1,0.999284
0.984389008000844,1,0.999376
0.9847169024336493,1,0.999238
0.9850274930402094,1,0.999365
0.985331049599633,1,0.999301
0.9856421313296878,1,0.999272
0.9859293928100173,1,0.998791
0.9861905927881702,1,0.999365
0.9864369771759016,1,0.999245
0.9866408485028684,1,0.997412
0.9868113260916712,1,0.999339
0.9869812388407594,1,0.999369
0.987150624649576,1,0.999316
0.8928519763878654,1,0.999320
0.9023476516657271,1,0.999187
0.91068932299391,1,0.998699
0.9175264484051353,1,0.999377
0.9242583227871003,1,0.998604
0.930366646888745,1,0.999311
0.9357496562319328,1,0.999372
0.940627554259577,1,0.999362
0.9451903999443074,1,0.999327
0.949205316268846,1,0.999356
0.9522712158258316,1,0.999320
0.9553125846554831,1,0.999364
0.9580578451739584,1,0.999376
0.9600859437398265,1,0.999352
0.9622243406195373,1,0.998098
0.9640936980782367,1,0.999358
0.965767780665826,1,0.999331
0.9672170147804644,1,0.999233
0.9685556910172047,1,0.999326
0.9697248386217273,1,0.999184
0.9707898320364657,1,0.999232
0.9716922830649114,1,0.999229
0.972475555918756,1,0.999365
0.9732314896714593,1,0.999335
0.9739425042629793,1,0.999282
0.9745118388771907,1,0.999245
0.9750710643079405,1,0.999363
0.9755664191624175,1,0.997702
0.9759836689493567,1,0.999284
0.9764358081116109,1,0.999348
0.9767267848883973,1,0.999292
0.9770768441740454,1,0.999394
0.9773328570576485,1,0.998699
0.9776987474909774,1,0.999351
0.978052032984349,1,0.998419
0.9784084782756017,1,0.998813
0.9786731132606175,1,0.999343
0.978895798713257,1,0.999326
0.9791969577353854,1,0.999354
0.9794560395045209,1,0.998442
0.9796899387013359,1,0.999364
0.9798603263293061,1,0.999349
0.9800984320620264,1,0.998711
0.9802904520371326,1,0.999359
0.9804442210947816,1,0.999371
0.9806498460671376,1,0.999333
0.9808414156405935,1,0.998780
0.9809899236759391,1,0.999140
0.9811413094291511,1,0.999368
0.9812844959351522,1,0.999224
0.9813934696137493,1,0.999318
0.9815039613453458,1,0.999300
0.9815972195525609,1,0.999325
0.9817165980611359,1,0.999313
0.9818473829769457,1,0.999359
0.9819549434058413,1,0.999329
0.9820727014778627,1,0.999182
0.9821871513606953,1,0.999310
0.9823165623794312,1,0.999287
0.9824427642175204,1,0.999271
0.9825404544867261,1,0.999272
0.9826149015692316,1,0.999282
0.9826917841157792,1,0.999258
0.9827804816249546,1,0.999278
0.9828439582176519,1,0.999261
0.9828882242806808,1,0.999324
0.9829215041085547,1,0.999264
0.9829300130338048,1,0.999364
0.98291166654421,1,0.999323
0.9829110536942947,1,0.999362
0.9829078564074023,1,0.999322
0.982913819945013,1,0.998819
0.9829069130406946,1,0.999262
0.9829027801959263,1,0.999318
0.9829123834228326,1,0.999358
0.9829008790387161,1,0.999332
0.9828965835421013,1,0.999275
0.8943736885100506,1,0.995163
0.904458418644594,1,0.999364
0.9126642788883916,1,0.998628
0.9209823678349321,1,0.999375
0.9272235455701425,1,0.999345
0.9326347979390494,1,0.998690
0.9374848625791995,1,0.996933
0.94211548251194,1,0.999335
0.945875791839384,1,0.999235
0.949960602311781,1,0.998671
0.9534218691179384,1,0.999251
0.9567881391571671,1,0.999233
0.9594855875548974,1,0.999329
0.9618140829752944,1,0.999307
0.963589197004607,1,0.998077
0.9655308487473102,1,0.999324
0.9671743997065638,1,0.999273
0.9688431513007131,1,0.999410
0.9701828706128522,1,0.999321
0.9713954024340615,1,0.999394
0.9723910669020686,1,0.999295
0.9733840189192011,1,0.999309
0.9744077169490084,1,0.998792
0.9752163206922385,1,0.998624
0.9759184493700079,1,0.999351
0.9766341697279144,1,0.999301
0.9771779039979828,1,0.999307
0.9778963677731891,1,0.999370
0.9785189394779367,1,0.998524
0.9790883490832734,1,0.998679
0.9796155649521934,1,0.998683
0.9801336689907202,1,0.998525
0.9806482847529174,1,0.999348
0.9811696917354898,1,0.998307
0.9816041750455803,1,0.999370
0.9820162594451851,1,0.999267
0.982357772632268,1,0.994830
0.9825745779995864,1,0.999336
0.9828073041052606,1,0.999301
0.9829903033523381,1,0.995102
0.983238132580986,1,0.995385
0.983437192133716,1,0.999305
0.9835869143415606,1,0.999358
0.9836671919514417,1,0.999350
0.9837235566777636,1,0.999372
0.983830449139194,1,0.999302
0.9839345977609351,1,0.999368
0.9840037957482926,1,0.999245
0.9841828781601012,1,0.999366
0.984351965426308,1,0.999332
0.9845358719166042,1,0.999336
0.9846695683924083,1,0.999316
0.9848040331124392,1,0.999365
0.9849565147866941,1,0.999290
0.9850947687972849,1,0.996865
0.9851800417629181,1,0.999355
0.9852285257569963,1,0.999262
0.9853021805942679,1,0.999262
0.9853681878344117,1,0.999192
0.98542521439095,1,0.997095
0.9854513303180495,1,0.999405
0.9854658673328898,1,0.996979
0.9854996547357158,1,0.996899
0.9855493844106936,1,0.999344
0.9856191554027838,1,0.999320
0.9856814872414122,1,0.999344
0.9857394088239065,1,0.998403
0.9857819976194295,1,0.999331
0.9858244164635735,1,0.999301
0.9858674157176045,1,0.999335
0.9859189866240278,1,0.999287
0.9859550426738448,1,0.999353
0.9859805417651145,1,0.999322
0.9859858097459546,1,0.999349
0.9859993429910158,1,0.999192
0.9860105198489628,1,0.999302
0.9860349077363065,1,0.997687
0.9860377503466417,1,0.999328
0.9860416574545868,1,0.999295
0.8900562492653328,1,0.995859
0.8986496312670933,1,0.999302
0.906385888247098,1,0.999187
0.9144283393642507,1,0.998672
0.9218435951258583,1,0.999306
0.9284547058091246,1,0.999087
0.9350497373373678,1,0.999289
0.9407273364473895,1,0.999352
0.9457422044565679,1,0.999314
0.9503888168998618,1,0.999280
0.954406965245379,1,0.999371
0.9580930612192443,1,0.999234
0.9613139508831609,0,0.990977
0.9642107724517286,1,0.999349
0.9663492824189613,1,0.999383
0.9686559200938757,1,0.998104
0.9704366447992232,1,0.999377
0.9720731415524977,1,0.999310
0.9736081296085038,1,0.998691
0.9750459355339288,1,0.999300
0.9762689427823382,1,0.998124
0.9772497177556321,1,0.999307
0.978171830052641,1,0.999323
0.9790623104470261,1,0.998633
0.9799297066950332,1,0.999341
0.9806405576964256,1,0.998727
0.9811249957254461,1,0.999393
0.9816241238890303,1,0.999303
0.9820954541921169,1,0.999288
0.9825215510061862,1,0.998585
0.9829793908240417,1,0.999330
0.9833542626676511,1,0.998779
0.9836704360211015,1,0.999337
0.9839660220782741,1,0.999280
0.9842963343811977,1,0.999245
0.9846423268500173,1,0.999335
0.9849929618493133,1,0.998765
0.9853548129253674,1,0.999170
0.9856224148049865,1,0.999288
0.9858933772194922,1,0.999329
0.9861570218336616,1,0.998700
0.9864576910684789,1,0.994462
0.9866913567024164,1,0.999361
0.98689994916219,1,0.999328
0.9870045100558585,1,0.999219
0.9870840422291051,1,0.999071
0.9871680295520923,1,0.999255
0.9871987265422291,1,0.996025
0.9872512983640478,1,0.999363
0.9873015365519623,1,0.999320
0.9873452096269119,1,0.999261
0.9873844014399034,1,0.999372
0.9875002384825594,1,0.998729
0.9875952177686896,1,0.999371
0.987714406446406,1,0.999275
0.9878064419733203,1,0.999246
0.9878771334370211,1,0.998507
0.9879706756619087,1,0.999264
0.9880291262239552,1,0.999328
0.9881033971073261,1,0.998238
0.9881690466793936,1,0.999280
0.9882141391394959,1,0.999313
0.9882410444417534,1,0.999316
0.9882687578331293,1,0.999311
0.9882791674077174,1,0.999300
0.9882866776624276,1,0.999349
0.9882825383533969,1,0.999272
0.9882791322569331,1,0.999287
0.9882525552613689,1,0.999358
0.9882429889449503,1,0.999369
0.9882341214064164,1,0.999337
0.9882096304402529,1,0.999332
0.9881812898774381,1,0.999378
0.9881348488203926,1,0.998359
0.9881528397547364,1,0.999324
0.9881949113635391,1,0.999382
0.9882074000402175,1,0.999322
0.9882282733805183,1,0.999268
0.988237656167304,1,0.999317
0.988235731969606,1,0.999286
0.9882400506190725,1,0.999136
0.8879288644340061,1,0.995104
0.8978311036724422,1,0.999178
0.9070790978847346,1,0.995755
0.9155386682393685,1,0.998785
0.9223637132686672,1,0.999300
0.9291034302403305,1,0.998674
0.9354031320838684,1,0.999265
0.9405305726885665,1,0.999336
0.9448204776323009,1,0.999368
0.948645537746662,1,0.999262
0.9520005131790094,1,0.999273
0.955098956034143,1,0.999295
0.9580311869419752,1,0.998194
0.9605398256500338,1,0.999349
0.9628913349352162,1,0.999350
0.965053774326205,1,0.999322
0.9669450417024731,1,0.999365
0.9687351055173002,1,0.999327
0.9705587218877856,1,0.999283
0.9720475110437161,1,0.998769
0.9734916109266044,1,0.999171
0.9745921263024605,1,0.999296
0.97576795093581,1,0.999391
0.9768409605300812,1,0.992174
0.9778657767778273,1,0.995819
0.9786301562209201,1,0.998692
0.9794411140313587,1,0.998685
0.9801067328703493,1,0.998789
0.9807663238485324,1,0.999323
0.9812884409114113,1,0.999308
0.981796665532341,1,0.998648
0.9822187680807383,1,0.999065
0.9825994842685496,1,0.999327
0.9829866728316597,1,0.998772
0.9833169141245325,1,0.999209
0.9837051667809222,1,0.994759
0.9840072765089356,1,0.996774
0.9843153529203956,1,0.999251
0.984583191274807,1,0.999287
0.9848462662210312,1,0.999257
0.9850946051535328,1,0.999361
0.9853328085968536,1,0.999292
0.9855282813392462,1,0.999317
0.9856204564811623,1,0.999364
0.9857360837188197,1,0.999269
0.9858254703552329,1,0.999325
0.9858924165479527,1,0.999275
0.9859592128513682,1,0.999276
0.98600102386786,1,0.999306
0.9860650384748022,1,0.999241
0.9860973011614864,1,0.999279
0.9861645582039842,1,0.999250
0.9862790856044497,1,0.999304
0.9863802985035091,1,0.999244
0.9864940214894714,1,0.999277
0.9865843160280797,1,0.999327
0.9866543142670371,1,0.999300
0.9867318438236378,1,0.999246
0.9868154363840279,1,0.999307
0.9868559213040694,1,0.999057
0.9869031601220434,1,0.999261
0.9869370974506129,1,0.999338
0.9869890177633106,1,0.999318
0.9870389055054809,1,0.999310
0.9870489405913836,1,0.999249
0.987068715175554,1,0.999335
0.9870849110912044,1,0.999354
0.9870992047269731,1,0.999361
0.9871194072483686,1,0.999319
0.9871137207134322,1,0.999297
0.9871029393928442,1,0.999403
0.9871033723068438,1,0.999392
0.9870868112464315,1,0.999194
0.987062127177,1,0.999354
0.9870493692761495,1,0.999389
0.9870289288221119,1,0.999315
0.9870195816600728,1,0.999274
0.9870016003004268,1,0.999275
0.9869838796144971,1,0.999274
0.9869542256518761,1,0.999320
0.9869068528652095,1,0.999356
0.9868420866225691,1,0.999332
0.9867878933689787,1,0.999355
0.8812563303128056,1,0.999302
0.8912576033039668,1,0.999238
0.8995153194810103,1,0.999330
0.9080166350230443,1,0.999274
0.9160016408294064,1,0.999312
0.9232592895659292,1,0.999266
0.9300783080345177,1,0.999405
0.9364365061769911,1,0.999044
0.9419694544468841,1,0.998670
0.9467160958735515,1,0.999287
0.9514122909095658,1,0.998640
0.9553939959466532,1,0.999329
0.9587428638187556,1,0.998672
0.9618001644815166,1,0.998120
0.9642028143654087,1,0.998578
0.9663972422953094,1,0.999294
0.968793845708176,1,0.998745
0.9708662716746751,1,0.999322
0.9725583669558003,1,0.999230
0.9741928129505492,1,0.999405
0.97568496208223,1,0.999197
0.9769144003071218,1,0.999376
0.9779298946684793,1,0.999341
0.9787550781703148,1,0.999161
0.9796886209472141,1,0.998794
0.9804558524775067,1,0.999273
0.981232756471142,1,0.999316
0.9818631267925478,1,0.999349
0.9824529906326896,1,0.999024
0.9829663866677489,1,0.998752
0.9833505774990338,1,0.999280
0.9838329896493936,1,0.999281
0.9843273072223186,1,0.999377
0.9847085132152043,1,0.999359
0.9850398274902008,1,0.998241
0.9853560176786142,1,0.999305
0.9855944141022804,1,0.999340
0.985847544277906,1,0.999241
0.9860957243697478,1,0.999388
0.9863240830983971,1,0.999293
0.9865256952192182,1,0.999328
0.9866826003917136,1,0.999346
0.9867909495498449,1,0.998752
0.9869034779479967,1,0.999275
0.9869693533499994,1,0.999345
0.987005779692251,1,0.999251
0.9870464728061065,1,0.998698
0.9871116907069675,1,0.999400
0.9871478276833053,1,0.999349
0.9871751500144961,1,0.999293
0.9871801976317724,1,0.999369
0.9871547670646723,1,0.996463
0.9870742957078432,1,0.999339
0.9871721887472176,1,0.999287
0.9872772246615856,1,0.999372
0.9873527907362588,1,0.999233
0.9874648600193185,1,0.999346
0.9875382316689366,1,0.998679
0.9876272827170991,1,0.999306
0.9876791023093294,1,0.999120
0.9876928964205393,1,0.999315
0.9876971535209041,1,0.999182
0.9877272893679466,1,0.996172
0.9877656043407672,1,0.999334
0.9877966232419727,1,0.999317
0.987788000643963,1,0.999239
0.9877517107337154,1,0.999155
0.9877090558067751,1,0.999362
0.9876563535937843,1,0.999354
0.9876378334345773,1,0.999247
0.9876562176735568,1,0.999340
0.9876492207393226,1,0.996999
0.9876470222691315,1,0.999318
0.9876094803298188,1,0.999308
0.9875948254018134,1,0.999346
0.9875872535638882,1,0.999316
0.9876022522519636,1,0.999295
0.9875920494013833,1,0.999333
0.9875531465222385,1,0.999396
0.9875093779861307,1,0.999316
0.9874490034814818,1,0.999242
0.9874419589023432,1,0.999288
0.9874440924415314,1,0.999328
0.9874456862778098,1,0.999305
0.987429722529485,1,0.999038
0.8823421371992621,1,0.999327
0.8922088995176877,1,0.998624
0.9017704054852467,1,0.999361
0.9105605652959073,1,0.999241
0.9179490166142094,1,0.998558
0.9252378655343306,1,0.999286
0.9307349483445703,1,0.999321
0.9352323251186366,1,0.999295
0.9393816550910516,1,0.998631
0.9431652752881793,1,0.999363
0.9473298673351129,1,0.998463
0.9515267141798002,1,0.998150
0.9553249739356471,1,0.999155
0.9583268105568676,1,0.998602
0.9610509310718465,1,0.999134
0.9637639996038944,1,0.999228
0.9660523505893726,1,0.998487
0.9680358221315764,1,0.999356
0.969553138827776,1,0.999289
0.9713638606253386,1,0.998485
0.9728123759500361,1,0.998670
0.9741705661650063,1,0.999344
0.9754327310410785,1,0.999285
0.9766441840033512,1,0.998729
0.9776775571231573,1,0.998741
0.9787409310337578,1,0.997718
0.9797652876915961,1,0.999359
0.9805517390368562,1,0.999351
0.981330957325097,1,0.999355
0.9820537565792338,1,0.999312
0.9826906717113896,1,0.999310
0.9832050691055076,1,0.999356
0.9836603879052963,1,0.999283
0.9841503925963409,1,0.998750
0.9845899642126544,1,0.999199
0.984973487774734,1,0.999265
0.9852436927527882,1,0.999304
0.9854727441061065,1,0.999307
0.9856546059843203,1,0.999297
0.9857869349695738,1,0.999298
0.9858900528392487,1,0.999311
0.9860091670750945,1,0.999404
0.9860730715659025,1,0.999408
0.9861993478782006,1,0.999172
0.986357605741671,1,0.999300
0.9865299686075487,1,0.999352
0.9867098505190289,1,0.999314
0.98686621856241,1,0.999285
0.9870185389229001,1,0.999309
0.9871452599391786,1,0.999248
0.9872846774134081,1,0.999311
0.9873907588350108,1,0.999337
0.9874960395444948,1,0.999359
0.9875735735434166,1,0.999354
0.9876206383881564,1,0.999285
0.987654185387758,1,0.999268
0.9876842245478169,1,0.999235
0.9876919969052391,1,0.999327
0.9876724446644661,1,0.999313
0.9876593883294931,1,0.999267
0.9876744436119717,1,0.999391
0.9876822893710856,1,0.999305
0.9876650620111879,1,0.999378
0.9876406146807625,1,0.999378
0.9876005075072374,1,0.999334
0.9875753706406469,1,0.999296
0.9875357681822189,1,0.999398
0.9874862465876347,1,0.999372
0.9874029767102817,1,0.999217
0.987339841806494,1,0.999215
0.9873363552846526,1,0.999391
0.987309347071181,1,0.999296
0.987274317170056,1,0.999376
0.9872585319158439,1,0.997636
0.9872422806995198,1,0.999208
0.9872061455896388,1,0.999343
0.9871618615937452,1,0.999260
0.9871290587340357,1,0.999312
0.9870771485403894,1,0.999322
0.9870354174385452,1,0.999315
0.9870174577698793,1,0.999317
0.9869813671228143,1,0.999319
0.9868994713797109,1,0.999324
0.986828086455563,1,0.999265
0.9867333609415299,1,0.999300
0.9866486538757706,1,0.999297
0.986570120868451,1,0.999319
0.8849887669033589,1,0.998786
0.894947012802301,1,0.999370
0.90408458159999,1,0.999256
0.9119566458648349,1,0.999186
0.9188813867487293,1,0.999319
0.9256794851008718,1,0.998408
0.9318055531078202,1,0.996650
0.9374298444139328,1,0.997492
0.9428448611956501,1,0.999372
0.9482627228686253,1,0.999365
0.9527851345631884,1,0.996879
0.9565697873347679,1,0.999285
0.9597701080020283,1,0.997484
0.9626950534022252,1,0.999337
0.965405147584399,1,0.999324
0.9681027559464458,1,0.999316
0.9705646785821603,1,0.999038
0.9727416246172502,1,0.998146
0.9745493405894975,1,0.999342
0.9763952833120607,1,0.996038
0.9781422761300519,1,0.998132
0.9795525026735403,1,0.999259
0.9807166806433986,1,0.999074
0.9817535133145325,1,0.995652
0.9827556843466199,1,0.999340
0.9837533475105321,1,0.999240
0.9843745110235699,1,0.999307
0.9851348494307725,1,0.999164
0.9858952259069954,1,0.999292
0.9864989547032733,1,0.999365
0.9870637477840478,1,0.999277
0.9875031564080572,1,0.999207
0.9879669438083694,1,0.999304
0.9883447051103394,1,0.999388
0.9887384453755492,1,0.998694
0.9891029319624036,1,0.998758
0.9894155503616042,1,0.996823
0.9897625354952404,1,0.998769
0.990061709641561,1,0.999345
0.9903364527650574,1,0.999359
0.990626133898456,1,0.999311
0.9908751667685793,1,0.999312
0.9911011349316181,1,0.999285
0.9913253929742907,1,0.999206
0.9915299648525376,1,0.999205
0.9917410220858821,1,0.999325
0.9919186600381403,1,0.996647
0.9920624825235204,1,0.999261
0.9921880599033607,1,0.999273
0.9923588979430342,1,0.998745
0.9925553275218841,1,0.999265
