0.7240758199766141,1,0.999903
0.45988474209678387,0,0.998803
0.543901772828974,1,0.999850
0.48518530324647824,0,0.939298
0.4848502133494387,1,0.999964
0.466230660577036,1,0.999964
0.4764095147099302,0,0.995916
0.43835050305288187,0,0.936189
0.4962167993864985,0,0.889887
0.4594650899260249,0,0.896574
0.4757740388105976,1,0.999892
0.6622484374240096,1,0.999965
0.38036059528832983,0,0.998860
0.3551597989080961,1,0.999923
0.5323575311965745,0,0.973905
0.5025710684850504,0,0.975393
0.46474454489065353,0,0.930947
0.5995330713136899,1,0.999965
0.5357938848113785,1,0.999692
0.43392851075699146,1,0.999964
0.3834545277864145,0,0.916040
0.41308049971555627,1,0.999893
0.45798268941118014,1,0.999965
0.45621619649819595,1,0.999935
0.46566128896862347,1,0.999962
0.4718038014353924,1,0.999964
0.4114202295821008,1,0.999896
0.365681626563207,0,0.998484
0.47378880134588436,0,0.993158
0.40639186880010075,0,0.993029
0.48278569221967016,0,0.997974
0.42495988448048794,0,0.976615
0.4802190739761381,0,0.998287
0.4388484402260408,1,0.999890
0.4048500283763647,0,0.997705
0.3664150159668476,1,0.999826
0.4360652069262597,0,0.997737
0.3576607246413449,0,0.970722
0.3904012295904716,1,0.999964
0.4543491037560136,1,0.999964
0.3956478087688446,0,0.999232
0.4501718584625875,0,0.998209
0.40627964659119026,1,0.999820
0.39667428888385664,0,0.965166
0.3533793250105233,0,0.999032
0.3731203861576303,1,0.999892
0.4039292462861658,0,0.998872
0.5498234093237282,1,0.999927
0.4063943082740659,1,0.999858
0.4657920869532976,1,0.999962
0.400382522837908,1,0.999966
0.4236203923013663,1,0.999962
0.3855250520768895,1,0.999923
0.5377703431247022,0,0.929704
0.4721415992703529,0,0.981923
0.600460473200348,1,0.999964
0.49756310447800217,1,0.999964
0.3967432837862473,1,0.999963
0.5709481337172831,1,0.999861
0.5400387126506738,1,0.999891
0.5338576393324775,0,0.979459
0.43738869185348556,0,0.957028
0.5611284967999018,0,0.968625
0.49841320960248736,0,0.983786
0.4804130095200329,0,0.888409
0.4587024368812382,0,0.984835
0.46312185861645594,0,0.974093
0.5217385555797045,0,0.984045
0.41414336233455123,0,0.981548
0.4117673326868659,1,0.999962
0.4914364744646516,0,0.987309
0.5278152245875571,0,0.975238
0.40276881105082996,0,0.955714
0.4097661744699156,1,0.999964
0.4461392569038065,0,0.998705
0.6553616528592547,1,0.999929
0.5718712772920236,1,0.999929
0.6233901057278809,1,0.999964
0.5506862245476191,1,0.999929
0.5361928322797397,0,0.955322
0.5968213732531017,0,0.913503
0.6782831386693832,0,0.999285
0.5379247917858071,0,0.939548
0.5217014205131669,1,0.999895
0.48743754671150796,1,0.999964
0.43187158860622227,1,0.999814
0.4117635865150995,1,0.999965
0.4575197891129332,0,0.982129
0.4989989040431272,0,0.998854
0.4468652638811249,1,0.999778
0.5439364134929274,0,0.967632
0.47513553910658357,1,0.999927
0.4784404053151988,0,0.987093
0.5762787216259233,1,0.999964
0.4572874181693451,0,0.999552
0.5753512240877061,0,0.979246
0.5342420227997011,0,0.985604
0.5474999678488838,0,0.921851
0.49719831761251715,0,0.939815
0.5564795482254199,1,0.999867
0.5147562791371293,1,0.999964
0.4027281943645256,1,0.999964
0.577971781332135,0,0.998906
0.5736472291790952,0,0.911626
0.46830503363724063,0,0.892888
0.5488961214893916,0,0.892986
0.503093780323251,1,0.999958
0.6038144689153784,1,0.999888
0.4827515489974416,1,0.999891
0.4940993976026023,0,0.997336
0.5025514941255814,1,0.999964
0.48873081596846424,1,0.999924
0.43383848135896297,0,0.998719
0.5356201704353781,1,0.999892
0.5532258240940507,0,0.954135
0.44407747174244855,1,0.999813
0.4520724461200761,0,0.957233
0.5901156889032367,1,0.999963
0.5494206420704967,0,0.969390
0.6589452466652245,1,0.999827
0.571442673059661,0,0.998250
0.5435361349406044,1,0.999887
0.497728427176856,0,0.982380
0.6137288383919208,1,0.999929
0.5692958141169054,1,0.999963
0.5831923978487167,1,0.999963
0.6344435582824827,1,0.999964
0.5237754273433493,0,0.951953
0.431739624798072,0,0.945663
0.4974907772173303,0,0.958661
0.5900826513270758,1,0.999963
0.5096550097267711,1,0.999963
0.5401040204301483,1,0.999928
0.44174047574686187,0,0.936940
0.6476912382733567,1,0.999608
0.4685655545769699,1,0.999931
0.5170759491954551,1,0.999828
0.5698116391910392,1,0.999892
0.5675852759866161,1,0.999964
0.47373227885362795,0,0.985630
0.41336349448700915,1,0.999961
0.44550857758099216,1,0.999963
0.5202957845643501,1,0.999744
0.5037778312817198,0,0.999543
0.42649155780139053,0,0.990695
0.6010046002102916,1,0.999963
0.6091740491756195,0,0.991308
0.613003284576425,1,0.999964
0.5733726741064887,0,0.998246
0.5216680281085245,1,0.999927
0.44310910630887834,0,0.925908
0.5513941299287533,0,0.997953
0.45237146535314904,1,0.999930
0.4776734853013032,0,0.988230
0.433751445396349,1,0.999928
0.4707533231336834,1,0.999963
0.48093087316937017,0,0.999120
0.3770411217405118,0,0.925256
0.5054066437651761,0,0.997966
0.5856101058853629,0,0.985332
0.47075173509104484,1,0.999962
0.5743995259501122,1,0.999921
0.3511916885985363,1,0.999848
0.539933018507165,1,0.999965
0.4817487193833027,1,0.999889
0.38123329147558005,1,0.999917
0.48145489761483445,0,0.999343
0.5477411681757891,0,0.924639
0.46728456611007985,0,0.989237
0.4075062206567525,1,0.999919
0.5835627377284883,0,0.956276
0.568094013399959,0,0.995290
0.5171399941556178,0,0.989115
0.592220306805758,0,0.997348
0.5365759140900378,0,0.924005
0.43554211329447234,1,0.999965
0.528569286001933,1,0.999929
0.43868834053310374,0,0.981813
0.44025588155424356,1,0.999926
0.6926216141994859,1,0.999887
0.4858591077655923,0,0.999503
0.4131288094251365,1,0.999891
0.41884785909772215,1,0.999770
0.4212750325395258,0,0.996058
0.47748805855927445,1,0.999856
0.6450080165472183,1,0.999934
0.43289435556743167,1,0.999930
0.4637013809440792,0,0.965416
0.473079330722812,0,0.908576
0.534896207854279,1,0.999890
0.494518310694455,0,0.970645
0.4931374471397787,1,0.999931
0.4359468717735707,1,0.999962
0.4540329649353026,1,0.999834
0.4133778574322081,0,0.909902
0.48567997467578494,1,0.999928
0.5121542001409688,0,0.994768
0.4901830891738303,1,0.999964
0.5645609350926275,0,0.999294
0.49369566571799045,1,0.999743
0.46896319994375163,1,0.999927
0.46266867855806576,1,0.999965
0.4457322403529407,0,0.998261
0.442150610316709,1,0.999964
0.5728861866404773,0,0.996906
0.4200401117164906,1,0.999892
0.4787655247907147,0,0.979182
0.5001542474749595,1,0.999922
0.4942072322197685,1,0.999889
0.43486482798443715,1,0.999846
0.4617945492443249,1,0.999853
0.4828105046375548,0,0.935941
0.4564576849578005,1,0.999918
0.5117369755457701,0,0.996941
0.5316149594289182,0,0.930433
0.5651994628004541,0,0.992158
0.45195050027872297,0,0.970166
0.5251017335312235,1,0.999893
0.4973905981664145,1,0.999885
0.5552449911947178,0,0.999559
0.4828530805518534,1,0.999688
0.4425108431337883,0,0.953612
0.42404046056012495,0,0.988356
0.5371785789156271,1,0.999964
0.490403871900425,1,0.999964
0.5698453736800693,0,0.999054
0.5862538695982182,1,0.999893
0.5323924232375619,1,0.999964
0.47433405254369226,1,0.999924
0.49654632947799354,0,0.996211
0.6600250142623095,1,0.999964
0.48023081414517876,0,0.927971
0.562983583249106,1,0.999927
0.4105595828449834,0,0.909034
0.4512862414975552,0,0.987614
0.4362757583887112,0,0.931358
0.5500006499968482,1,0.999963
0.5113172621004674,0,0.926398
0.4887744721852692,1,0.999965
0.4701051533285119,1,0.999960
0.4887108090540015,0,0.920710
0.37176573575157473,0,0.909600
0.4491940510760056,1,0.999894
0.4526396639198316,1,0.999964
0.4774624728896701,0,0.991276
0.5323872558224159,1,0.999789
0.41965256960741787,0,0.997053
0.48801622388692395,0,0.946351
0.48772375054482425,1,0.999964
0.46240972619441534,0,0.999495
0.39996795427579085,1,0.999925
0.4448844056968206,1,0.999923
0.42710131334148244,1,0.999963
0.393028865754466,1,0.999964
0.5559176593903778,1,0.999964
0.5121909760955095,1,0.999959
0.5864757190633614,0,0.988708
0.44865144292356746,1,0.999918
0.4276573950987134,0,0.969744
0.4532966593335346,1,0.999890
0.5131183671147395,0,0.897871
0.38056239053359847,0,0.899018
0.4564147468006954,1,0.999963
0.4674400289781901,0,0.999411
0.531532052303459,1,0.999795
0.43126450833103364,0,0.992789
0.4316483063982404,0,0.943732
0.5190052901134599,0,0.958223
0.4879825996932189,1,0.999964
0.5123778540432846,1,0.999827
0.4845532319406947,0,0.994088
0.5398938440242133,1,0.999923
0.4624238583269366,1,0.999961
0.48925716629766364,0,0.949536
0.43088646624449367,1,0.999963
0.5888906349564159,1,0.999963
0.5757275940974858,0,0.998521
0.5642782477121205,0,0.988795
0.4722788887583062,1,0.999965
0.4715742103192048,1,0.999851
0.426794945621162,1,0.999928
0.3946213828014023,0,0.992342
0.4024651802524226,1,0.999961
0.4199244259751274,0,0.974748
0.5455897226346567,0,0.983708
0.41739256790561596,0,0.968202
0.4620770189910329,1,0.999924
0.4100277810620651,1,0.999964
0.5235362263364269,0,0.951262
0.577116681477441,1,0.999963
0.4563858369342933,1,0.999964
0.5471344702281542,1,0.999923
0.4359995789984297,1,0.999845
0.5443931906248044,0,0.916021
0.39731398292085063,0,0.991074
0.39370593638599566,0,0.981677
0.3958655381273136,0,0.917965
0.4026176729154688,1,0.999728
0.3855576219946874,1,0.999961
0.49640622066027174,0,0.961117
0.45688305524408657,1,0.999603
0.43541566079449023,1,0.999928
0.4272102523509264,1,0.999963
0.36994963603425607,0,0.914902
0.4352294511199823,0,0.989599
0.4611241739892879,1,0.999923
0.4513773846439884,0,0.904686
0.4661137837038492,0,0.981953
0.48124605210014076,0,0.965482
0.4985306834761589,1,0.999964
0.5441934317751976,1,0.999665
0.4824651486720691,1,0.999793
0.531201358408324,0,0.998912
0.5639759900571502,1,0.999964
0.41545718903260875,0,0.997986
0.48416205815111385,0,0.984180
0.487847864328869,1,0.999769
0.37958093906814894,0,0.998878
0.499339981317481,0,0.992941
0.5365478144564054,1,0.999963
0.38321191844270286,0,0.999418
0.44337922532771246,1,0.999926
0.5135818251642523,1,0.999964
0.3985166272208972,1,0.999926
0.5173755785629301,1,0.999959
0.4435496777258304,1,0.999962
0.43942891431805103,1,0.999917
0.5002880243406297,1,0.999923
0.5384802363774078,0,0.997865
0.4684263833174492,0,0.908304
0.43900380315040893,1,0.999886
0.5398169270733074,1,0.999964
0.4344596959741797,1,0.999960
0.5853330078016826,1,0.999926
0.5968079020275155,0,0.992313
0.4798004770742786,1,0.999926
0.434798457165679,1,0.999964
0.383028804162361,1,0.999962
0.396060528902085,1,0.999963
0.45862533519614923,1,0.999927
0.40882387803778014,1,0.999857
0.3431887939373702,1,0.999963
0.3820026021591664,0,0.997260
0.35100339280887805,1,0.999928
0.47830713547648923,0,0.948485
0.3979553503445333,1,0.999962
0.4206012863713664,0,0.996815
0.3977058969070319,0,0.997684
0.6660709405605257,1,0.999856
0.548179246151214,1,0.999965
0.5123907097450886,1,0.999931
0.4850235111270686,1,0.999918
0.32733543263604026,1,0.999964
0.4447689271106841,1,0.999925
0.5184210944372173,0,0.911657
0.5499867178281391,1,0.999927
0.4282994072374097,1,0.999964
0.42128379203355537,0,0.946429
0.7194298843315312,0,0.988755
0.4546344521611429,0,0.963944
0.47277659336917516,0,0.999554
0.483416402874773,0,0.999331
0.4273329638188149,1,0.999819
0.36510961650110024,1,0.999962
0.5606964444916426,0,0.971082
0.4994778088416993,1,0.999963
0.45456899713150295,1,0.999963
0.43883289359202016,0,0.997546
0.4582230853053642,0,0.970124
0.4467608685168343,0,0.956367
0.4508462097640371,0,0.990935
0.4200339478633278,0,0.955692
0.3839501990419098,0,0.977557
0.41731608521734154,0,0.968939
0.3950343280211305,0,0.992577
0.408446952250385,1,0.999963
0.45028409092365373,0,0.989517
0.4937222071289569,1,0.999963
0.45329155132723714,1,0.999963
0.4440463119102142,0,0.972872
0.39314664348801565,0,0.997204
0.4019660153749421,0,0.987799
0.37466003185513186,1,0.999892
0.4964268855788727,0,0.999313
0.3798796955919168,0,0.926941
0.478711738735213,1,0.999660
0.47877803497492294,1,0.999928
0.4741214860503765,0,0.978889
0.542330964854242,1,0.999926
0.49217955680403314,1,0.999962
0.5584908236597909,0,0.946534
0.45657785818927027,1,0.999963
0.4676856446534349,1,0.999958
0.4177497666799273,0,0.946895
0.5485262293172962,1,0.999884
0.46905820032033996,0,0.994075
0.4134891803347588,0,0.979625
0.6898174520890586,1,0.999964
0.4408857736240344,1,0.999850
0.4736081324942172,0,0.891672
0.3984871333855169,1,0.999962
0.6184337224697715,0,0.999357
0.505636642894103,0,0.998376
0.4688911605422354,0,0.924347
0.5703525930353371,0,0.970343
0.49045018303346005,1,0.999925
0.47490361338898157,1,0.999959
0.4371556217921583,0,0.909553
0.47541292928003287,0,0.987970
0.49981661899433977,0,0.998937
0.45847141030363003,1,0.999961
0.3379316806306765,1,0.999859
0.4750489621760863,1,0.999962
0.5531470184689862,1,0.999882
0.4882116221704545,1,0.999963
0.4284022197162955,0,0.974073
0.3733802404392252,0,0.914212
0.5220681990148571,1,0.999964
0.40223693489150564,0,0.963334
0.6033160147834071,1,0.999892
0.44866612840452874,0,0.899908
0.3806518807720551,1,0.999963
0.42315079124514277,1,0.999958
0.3905050120424995,0,0.930590
0.38815278424788063,0,0.939192
0.3589736208455537,1,0.999963
0.4380418375591704,1,0.999962
0.4071748938761335,1,0.999924
0.3849005575815153,1,0.999962
0.40238315056399054,1,0.999963
0.4117456796267446,1,0.999877
0.527349363364292,0,0.999566
0.49782947792378884,0,0.963707
0.4343821964527329,0,0.999398
0.4824587330477117,1,0.999834
