0.718020192440382,1,0.999927
0.2635045533879445,1,0.999963
0.16043601808270525,0,0.999194
0.13489184293069675,1,0.999926
0.11201382470081325,1,0.999964
0.15115142244156546,1,0.999724
0.1352127004458088,1,0.999849
0.13464126242131147,0,0.999007
0.1335852858988893,1,0.999929
0.131487842168827,1,0.999809
0.13650609372139128,0,0.998883
0.12493981177141807,1,0.999926
0.13080051372094736,1,0.999966
0.09683446786509693,1,0.999965
0.13745370846349583,0,0.999390
0.13445103141143727,1,0.999962
0.12692269379771176,1,0.999893
0.13820170699002784,1,0.999893
0.1290550714819914,1,0.999892
0.13453349444863077,1,0.999931
0.1387740273191908,1,0.999825
0.13321664653587967,1,0.999965
0.1415871867000614,0,0.999383
0.11542010831396955,1,0.999965
0.13823896156813636,1,0.999963
0.1382811113982218,1,0.999965
0.1313862744318496,1,0.999754
0.1261360953593772,1,0.999851
0.1345170551783282,1,0.999963
0.14012599680323834,1,0.999963
0.13632353835784355,1,0.999724
0.12550153259747798,1,0.999731
0.12601947299814864,0,0.998207
0.13343060665055273,0,0.998873
0.13196607961997847,1,0.999864
0.1452031105156835,0,0.996813
0.13356647487805215,1,0.999897
0.14393284206390214,1,0.999896
0.14551747961160072,1,0.999628
0.14177688288159102,1,0.999893
0.15436631439353088,0,0.999194
0.1411706160347186,1,0.999926
0.14872328971496812,1,0.999962
0.15691717689790932,1,0.999963
0.1431128901846284,1,0.999792
0.13880445158603022,1,0.999963
0.14391604308997127,0,0.998839
0.14794527570131633,1,0.999965
0.1397129145480251,1,0.999963
0.1421416635117255,1,0.999959
0.14539892168880383,1,0.999926
0.147088512643126,1,0.999965
0.14494638794437997,1,0.999963
0.1274033188798789,0,0.999360
0.147260095763956,1,0.999858
0.1241757872681176,0,0.995386
0.15156830775704297,1,0.999930
0.1506873369805624,1,0.999965
0.14651006181963436,1,0.999964
0.15124646976863157,1,0.999827
0.14494912545741695,1,0.999965
0.15244305212108003,1,0.999964
0.14541783472493727,1,0.999964
0.1527504174970783,1,0.999964
0.15037001218601595,1,0.999654
0.14282976320765908,0,0.999055
0.14084786605492525,0,0.996906
0.117588266959665,1,0.999965
0.1598360275787328,1,0.999966
0.13723602183903946,0,0.999197
0.14755486811714977,0,0.999363
0.1568146250370261,1,0.999859
0.15395676281216267,1,0.999964
0.14828250967842688,1,0.999894
0.1468432650775548,1,0.999966
0.1547512280750258,1,0.999929
0.13536797648829596,1,0.999750
0.1292737686822063,1,0.999859
0.163444445094367,1,0.999960
0.15593633833991424,1,0.999863
0.10960862887226129,0,0.996203
0.14835066700237126,1,0.999965
0.13685717347828255,0,0.999015
0.1570501855697358,0,0.995677
0.15523834531578531,1,0.999897
0.1352525702681493,0,0.995520
0.16020251791100956,1,0.999862
0.15129707904150547,1,0.999930
0.1489302471199871,1,0.999763
0.16746193767788314,0,0.999574
0.15848011462227382,1,0.999928
0.1600309225092309,1,0.999821
0.16944278795548776,0,0.995436
0.13991138575833323,1,0.999963
0.14801527392963462,1,0.999966
0.16292429575340375,0,0.996469
0.1581516905134902,1,0.999891
0.17066565144178839,1,0.999930
0.15076685065042503,1,0.999930
0.16995886827862686,1,0.999930
0.1655060223840613,0,0.995971
0.15467965767182668,1,0.999960
0.15992051728719403,0,0.998443
0.15955174589229865,1,0.999859
0.17297910345678041,0,0.998082
0.15937815024500154,1,0.999930
0.14334624254652667,1,0.999823
0.16459369866398857,0,0.998104
0.16310734025628287,1,0.999965
0.16329115706361727,1,0.999960
0.16116403910481228,1,0.999884
0.16220635444626938,1,0.999657
0.14906734793757925,1,0.999822
0.16883241307385666,1,0.999965
0.16559205922042294,1,0.999965
0.16044196063830163,1,0.999930
0.1579051177188763,1,0.999679
0.1506554073636415,1,0.999801
0.15830247519940702,0,0.998174
0.16523037966497828,1,0.999965
0.17692264553600442,0,0.997684
0.15676136026786447,1,0.999965
0.17340194885587298,1,0.999876
0.16366262699358958,1,0.999965
0.14473626111720675,1,0.999965
0.16584047900806603,1,0.999695
0.15728044317607506,0,0.994776
0.15388072378439951,1,0.999965
0.17040411436241712,0,0.999564
0.17043198593387895,1,0.999713
0.1670450822756142,1,0.999965
0.16468683824000707,0,0.999607
0.1691386571502552,0,0.999513
0.1691263576145572,1,0.999964
0.15829798141408546,1,0.999965
0.1611856865546938,0,0.998826
0.1700405592601237,1,0.999965
0.1561395246119031,1,0.999894
0.17122980278723918,0,0.998615
0.16884826053000068,1,0.999894
0.171062977901563,1,0.999965
0.17120312497228557,0,0.997814
0.16596398949914165,1,0.999826
0.16014396365905828,0,0.998403
0.16795181539024584,1,0.999930
0.17657548248003663,1,0.999725
0.170853101725768,0,0.995928
0.16983662669004757,1,0.999965
0.17040267833312842,1,0.999931
0.17121791434239653,1,0.999928
0.16882858016540817,0,0.999471
0.16533810830105766,1,0.999966
0.16752018266061608,1,0.999964
0.17580029514774712,1,0.999931
0.1725447924835961,1,0.999964
0.16694863224770656,1,0.999920
0.17303191968260864,0,0.999246
0.16956561779188856,1,0.999965
0.17292176518037536,1,0.999714
0.16244737677589496,1,0.999964
0.15722202141253253,0,0.997661
0.16352228859736145,0,0.997386
0.16608756549003684,1,0.999960
0.1738721939281635,1,0.999965
0.17262623625933027,0,0.998863
0.17297486735438716,1,0.999962
0.17403331772205777,1,0.999964
0.17442138838329702,1,0.999966
0.15859149702975545,1,0.999829
0.16592513070091397,0,0.995448
0.16388355985688524,1,0.999929
0.16795103399083158,1,0.999962
0.17376656199227117,0,0.994628
0.16560177919655447,1,0.999964
0.17647502719748803,0,0.998751
0.15412882552498858,0,0.997062
0.17693858408484134,1,0.999962
0.16258356027128182,1,0.999836
0.16885973650596653,0,0.995339
0.17426659419222126,1,0.999826
0.1732886466787929,1,0.999930
0.17579258349865687,0,0.993313
0.16826062368376832,1,0.999963
0.16815164836784097,1,0.999723
0.17521062314471716,1,0.999961
0.1696294949963365,1,0.999965
0.1674394678847862,1,0.999965
0.15890527490144218,1,0.999827
0.16772463105882945,1,0.999965
0.17263637372925825,1,0.999961
0.16647410144834074,0,0.999577
0.16825686056828323,1,0.999965
0.15002684439370725,1,0.999929
0.16150995702459958,1,0.999758
0.16752753524270925,1,0.999963
0.16911902260411238,1,0.999965
0.17037845682350336,1,0.999965
0.16534260015085733,1,0.999964
0.1596418999896993,1,0.999716
0.17111875612427166,1,0.999965
0.1683049769276364,1,0.999860
0.15203732993812047,1,0.999965
0.17335103358290976,1,0.999964
0.16578920332155697,1,0.999887
0.16887412604944915,0,0.999392
0.1643045120630665,0,0.997708
0.17088643429257513,1,0.999788
0.16462411701170326,1,0.999965
0.17776940263787852,1,0.999965
0.16513712483644813,1,0.999965
0.17185260545018174,1,0.999931
0.16384296628582634,1,0.999859
0.16368918448160313,1,0.999965
0.1585571211439595,1,0.999599
0.1658400266979996,1,0.999965
0.17308712669821838,1,0.999894
0.16162702909277404,1,0.999861
0.16101018098542758,1,0.999965
0.16110175917607159,1,0.999962
0.15465521873708568,1,0.999965
0.16996247733081155,0,0.999611
0.17447803389127794,0,0.998693
0.16029134382352345,1,0.999930
0.17304917771979642,1,0.999893
0.1477809600884039,0,0.998685
0.16865127740256816,1,0.999894
0.1369435560365485,0,0.998969
0.15821042148121867,1,0.999828
0.1477059831166769,0,0.999449
0.1651271584904113,1,0.999961
0.15683791140386488,1,0.999880
0.16892659502419935,1,0.999965
0.17444711571954402,0,0.999270
0.1539329943172232,0,0.999098
0.16443044597231668,1,0.999964
0.16631497962830932,1,0.999962
0.14759294230079398,1,0.999930
0.1677702858293461,1,0.999930
0.16334488434194802,1,0.999965
0.16347800297099732,1,0.999964
0.1781297699541888,1,0.999878
0.1635907639632643,1,0.999965
0.16759181410212062,1,0.999891
0.1596517237844534,1,0.999965
0.16055438541312655,1,0.999965
0.15440102654867982,0,0.998618
0.15753500093859513,0,0.999130
0.16553127331327847,1,0.999963
0.16070209202645228,1,0.999964
0.1713200825090187,1,0.999755
0.1532749780261708,1,0.999650
0.16452232060811137,1,0.999741
0.16751168379677273,1,0.999929
0.1563514346031508,1,0.999839
0.17166165061106525,0,0.999121
0.16252045955547625,1,0.999927
0.16540995180616294,1,0.999960
0.16020144253867943,0,0.999279
0.15622241225689595,0,0.999194
0.1586383671213872,1,0.999964
0.1684378582699342,1,0.999965
0.15963378270718906,1,0.999964
0.17290650093729976,1,0.999861
0.16937705997615823,0,0.998220
0.16151974958786072,1,0.999964
0.158471456415157,0,0.998040
0.15999661088118688,1,0.999892
0.15154526559944473,0,0.999348
0.15750697224002586,0,0.998754
0.1617470616689607,1,0.999647
0.14730240010362453,0,0.998752
0.16463845507628708,0,0.998789
0.1472586244121714,1,0.999965
0.1567868741495543,1,0.999930
0.1551405785787935,0,0.999506
0.14974138770270284,0,0.998519
0.1461115369715578,1,0.999965
0.15305853486612578,1,0.999602
0.15770813753775442,1,0.999687
0.15963643269025718,1,0.999854
0.1627463926245831,1,0.999965
0.14377661425624924,1,0.999688
0.16747581558831523,1,0.999964
0.16776709323545208,1,0.999960
0.16105928296827932,0,0.998658
0.16107202961336883,0,0.999555
0.16063928570302916,1,0.999964
0.16358374392042763,1,0.999795
0.1674041217682117,1,0.999894
0.15576855247823673,1,0.999928
0.15500980103610554,1,0.999961
0.15595684555336467,1,0.999930
0.16644247691745553,1,0.999965
0.16193771694434855,1,0.999960
0.16365395143838132,1,0.999796
0.1594673406685275,1,0.999966
0.16047563120535352,1,0.999858
0.17230398657195056,1,0.999857
0.1708399195617547,1,0.999966
0.16413400101375636,1,0.999966
0.16125566029173155,1,0.999965
0.15746294442465242,1,0.999965
0.15867475303010595,1,0.999965
0.1590397723374391,0,0.998937
0.16578509883412063,1,0.999883
0.166177022792888,1,0.999963
0.1649411982137381,1,0.999929
0.15618235568650027,0,0.999076
0.1602309320126232,1,0.999925
0.15487592149982735,1,0.999966
0.15443940175294568,1,0.999890
0.16553722648750563,1,0.999961
0.16183214716008443,1,0.999929
0.16125241237576826,0,0.999354
0.16423684925115356,1,0.999823
0.15303473932535164,1,0.999850
0.158932384397901,1,0.999965
0.1541894521791874,0,0.999323
0.15476167569323837,0,0.999155
0.16121829493095002,0,0.998829
0.15259006003612668,1,0.999965
0.15424731299688063,1,0.999965
0.14926147805820503,1,0.999796
0.1476039105402245,1,0.999619
0.1508419132217834,0,0.996443
0.15402512007333224,1,0.999962
0.1453855417953081,1,0.999716
0.15937874577948732,1,0.999965
0.1445161451502945,1,0.999965
0.15571162058239385,1,0.999965
0.15503912866982864,1,0.999748
0.15845490292788678,0,0.999143
0.15751682812336099,1,0.999965
0.15408248515265874,0,0.997801
0.16272183298470103,1,0.999959
0.15903462422275297,1,0.999964
0.1637684297111112,1,0.999961
0.14935012148808147,1,0.999931
0.14349964474431676,1,0.999966
0.1464464945911549,1,0.999833
0.15342386401238103,1,0.999929
0.14326807069432604,0,0.999008
0.16187509973241845,1,0.999965
0.15506815150190204,1,0.999965
0.1504344471236657,1,0.999964
0.15460878091356203,1,0.999965
0.15364629285593176,1,0.999881
0.15459943574333687,1,0.999964
0.1489172531917368,0,0.999552
0.15908912651449256,1,0.999962
0.16197020541157747,1,0.999963
0.15663906660244786,1,0.999965
0.1448692464006347,1,0.999965
0.15598735527980268,1,0.999965
0.14240005948138923,1,0.999961
0.1478702733397663,1,0.999722
0.14010205822362343,1,0.999877
0.14757684392491663,1,0.999965
0.14935520268337407,1,0.999960
0.15114906777221707,1,0.999964
0.15189125248438543,1,0.999829
0.14765526781477561,1,0.999965
0.15234047110870613,1,0.999922
0.1525801677331594,0,0.999545
0.16251626833869964,1,0.999918
0.1518494073068923,1,0.999964
0.15409609220366027,1,0.999964
0.15565285638918938,1,0.999964
0.14812900508161966,1,0.999966
0.1593220263531213,1,0.999965
0.15036219353186644,1,0.999857
0.15133865107292316,0,0.994570
0.1524434381760901,0,0.999209
0.14302151896165266,1,0.999730
0.13333831351984357,1,0.999678
0.14624355169586795,1,0.999966
0.14768264399502404,1,0.999930
0.15117466628919657,1,0.999861
0.15238018830717712,1,0.999928
0.14739136110013976,0,0.997105
0.1521867484712425,1,0.999964
0.1517063863964682,1,0.999965
0.15699057811639658,1,0.999965
0.14339655014443092,1,0.999932
0.15593109844242392,1,0.999721
0.15299827482819037,1,0.999930
0.15593276908923018,0,0.999153
0.1465756426534932,1,0.999965
0.15048227101159745,1,0.999929
0.1489907462635344,0,0.997688
0.14153962050817506,0,0.999372
0.14614016801103136,1,0.999964
0.14696219087071632,0,0.999427
0.14088769686497563,1,0.999964
0.14796353202546128,0,0.999388
0.13262224705154246,0,0.999255
0.1462740970960099,1,0.999966
0.140566858195293,0,0.998782
0.15091322724657302,1,0.999962
0.14621664263160597,1,0.999598
0.14792852024749983,0,0.998296
0.15490501895762687,1,0.999895
0.1516612051104163,0,0.998002
0.15636062992409958,0,0.997534
0.15762399874915103,0,0.999555
0.15548312863127867,1,0.999963
0.1580474538960166,1,0.999964
0.1511678090030198,0,0.998543
0.14323470911433794,1,0.999966
0.14816386844313678,1,0.999965
0.14315161623009895,1,0.999965
0.13481423795033837,1,0.999929
0.1211049062460854,1,0.999792
0.15202501158612192,0,0.997015
0.14927537906375932,1,0.999931
0.15126931444023914,1,0.999965
0.14473538843691103,1,0.999931
0.1508591471132742,1,0.999931
0.13999012618918272,0,0.999453
0.15223705662835307,1,0.999963
0.15015827386259797,1,0.999963
0.14255604736532493,0,0.999092
0.14541251830396956,1,0.999964
0.14411540880833418,1,0.999965
0.13811419469900915,1,0.999741
0.1379381590837012,1,0.999965
0.14366946905488623,1,0.999965
0.14905201936073564,0,0.999536
0.14133788115165932,1,0.999889
0.15355159632006207,0,0.998907
0.14098272816113785,1,0.999965
0.1430939182682786,1,0.999964
0.14436267882117212,1,0.999965
0.15200746925712083,1,0.999710
0.15430008914173393,1,0.999857
0.1459341739187569,1,0.999796
0.1453258519680281,1,0.999890
0.14602457211508454,1,0.999963
0.13536291827373897,1,0.999822
0.1387760433773652,0,0.999477
0.14802490610216265,1,0.999965
0.14723792363687938,1,0.999962
0.13805570782812346,1,0.999964
0.14027104060144518,1,0.999964
0.14981440176440475,1,0.999922
0.1437764362110148,1,0.999964
0.14060037253090063,1,0.999965
0.15089422214646686,1,0.999963
0.14316243500174808,1,0.999964
0.1465458231548348,1,0.999964
0.12753603347166056,1,0.999964
0.12212367673001212,1,0.999965
0.14425805667421907,1,0.999891
0.13649944371496212,0,0.999535
0.14436883874601855,0,0.999318
0.14512451279902217,1,0.999930
0.1537059654054246,1,0.999894
0.14467838150705473,1,0.999810
0.15332489184152376,1,0.999962
0.14347336836906907,0,0.998098
0.14555097178415394,1,0.999758
0.14998235950897984,1,0.999740
0.13513715303607368,1,0.999930
0.1501446411202349,1,0.999788
0.14616848629474524,1,0.999963
0.14316960902995374,1,0.999858
0.13839812097827298,1,0.999966
0.12800903089545096,1,0.999964
0.13379810973305303,1,0.999965
0.12242240647777368,1,0.999929
0.14752384752148887,0,0.999155
0.138970030128095,1,0.999863
0.14311422424578918,1,0.999927
0.1353440917763308,1,0.999719
0.1360032401402893,1,0.999964
0.13748396884003217,1,0.999639
0.1400840199749677,0,0.999389
0.14407984508305152,0,0.999526
0.13410269785806522,0,0.999190
0.1484707582607124,1,0.999842
0.1358805614539928,1,0.999964
0.14974949544015526,1,0.999959
0.13404836372426088,1,0.999927
0.141092877697675,1,0.999962
0.13800746695019034,1,0.999858
0.1271130437395375,1,0.999894
0.13877515838239088,1,0.999965
0.14382232262684885,1,0.999965
0.1432037983085125,1,0.999961
0.1409350864185508,1,0.999963
0.14295153685290768,1,0.999961
0.14195353593367468,1,0.999927
0.13885022964570415,1,0.999699
0.13925142855979117,1,0.999960
0.14163713711245918,0,0.997557
0.14400092271496917,1,0.999964
0.11903201451192166,1,0.999779
0.1443012535746503,1,0.999962
0.13573654384703418,1,0.999965
0.1384350976859897,1,0.999965
0.139889004900178,1,0.999965
0.14430357659631116,1,0.999964
0.13486239528341673,1,0.999798
0.13503302213572735,1,0.999931
0.14303317516036337,1,0.999966
0.14199214051993625,1,0.999928
0.12881743011393124,0,0.999425
0.12986358148389027,1,0.999898
0.13195741659131371,1,0.999804
0.12715910961422872,0,0.998890
0.14520985730443006,1,0.999965
0.1461707258066512,1,0.999730
0.13950063527154982,0,0.998742
0.1545094225143524,1,0.999963
0.14434303423262732,1,0.999930
0.14478509115074076,0,0.999516
0.14165022759792076,1,0.999864
0.14706548123344718,1,0.999926
0.14415683148323996,1,0.999965
0.14791755483293098,0,0.998336
0.13754347201428377,1,0.999965
0.14720989279498684,0,0.999365
0.13951412988569495,1,0.999932
0.1442475892047581,1,0.999962
0.1411599237945435,1,0.999966
0.14045773749958892,1,0.999965
0.1442250152975197,1,0.999863
0.11834102820030355,1,0.999893
0.1435107971109985,0,0.996629
0.13918825973962126,1,0.999919
0.13288702635296756,1,0.999964
0.13505877193678592,1,0.999686
0.1469112599769088,0,0.999321
0.14149626493646636,1,0.999963
0.1391545301387408,1,0.999925
0.13696870689874724,1,0.999683
0.14591432734185578,1,0.999799
0.14256130865154998,1,0.999927
0.13643425777472418,1,0.999966
0.1453778619702369,1,0.999930
0.14299570453292182,1,0.999930
0.14297551895873317,1,0.999599
0.14262361890527636,1,0.999692
0.14395869424173974,1,0.999805
0.14260258351223554,0,0.998680
0.13083533669860828,1,0.999965
0.1440714675709834,1,0.999857
0.1394482888613179,1,0.999966
0.12991876103438346,1,0.999929
0.14461677162399397,1,0.999964
0.1413425120636166,0,0.999539
0.1405996093059017,1,0.999932
0.14193056534567042,1,0.999965
0.1321060986503316,0,0.999183
0.14349820720615789,1,0.999963
0.14669329460251232,1,0.999964
0.14446998034980502,0,0.999167
0.1419792664795858,0,0.999453
0.1392607540554607,1,0.999894
0.1356681436441974,1,0.999959
0.13812424979670565,1,0.999965
0.1376641860786591,1,0.999930
0.14169274178151098,1,0.999689
0.13657484260731984,1,0.999964
0.13847729118280538,1,0.999965
0.1399886315142175,1,0.999964
0.12984375488018252,1,0.999895
0.1370477834757608,0,0.999095
0.12356498317322914,1,0.999714
0.1354229598838352,1,0.999965
0.14143768313180505,1,0.999896
0.15092650925619283,1,0.999964
0.12048512694149613,1,0.999965
0.13702441049231465,1,0.999930
0.1426306170894857,0,0.999207
0.14809116388451307,1,0.999827
0.14399122845990947,0,0.998086
0.13656570538034452,1,0.999931
0.13852508623729293,1,0.999964
0.1373088282932986,1,0.999965
0.1388186180390748,0,0.999293
0.14306729544614138,1,0.999960
0.13762775938923985,1,0.999965
0.14009890839078157,1,0.999965
0.13845678531897546,1,0.999964
0.14005509309645647,0,0.994097
0.13712687574970214,0,0.999524
0.14006935124185302,1,0.999898
0.14612145389384976,1,0.999965
0.14688071942609077,1,0.999927
0.14440968002670038,0,0.999113
0.13315005585326348,0,0.999415
0.12220792660073096,0,0.998929
0.15400806174268378,1,0.999877
0.14138857490065404,1,0.999796
0.13954755041724257,1,0.999922
0.13822424647925083,1,0.999896
0.14054244402640678,1,0.999930
0.14025799482791212,1,0.999876
0.1369603571363566,1,0.999965
0.14754616016392325,1,0.999964
0.14061496490540112,1,0.999932
0.1397784941550133,0,0.998994
0.13842157509090067,1,0.999928
0.14304413388221168,1,0.999644
0.14574913050508292,1,0.999964
0.13900777993951116,1,0.999887
0.13235819710295538,1,0.999963
0.14351443889899,1,0.999965
0.14319110863878245,1,0.999964
0.15133119599526187,1,0.999608
0.12977708931525753,1,0.999962
0.13725041498724425,1,0.999960
0.12682652611504192,1,0.999878
0.12879225994937465,1,0.999960
0.14066129685330778,0,0.999053
0.14077356321340986,1,0.999893
0.13900769087389173,1,0.999930
0.14041281574045356,1,0.999925
0.13333306459419098,1,0.999928
0.1320517802370523,1,0.999959
0.13288207870649096,1,0.999965
0.13588231285051602,1,0.999931
0.14476321446169432,0,0.999317
0.1289002982588376,1,0.999714
0.13250738764462372,1,0.999962
0.1335532331173788,1,0.999898
0.13004217664010312,1,0.999814
0.12745842019273002,1,0.999888
0.13471484534073755,1,0.999892
0.1374293559385875,0,0.999315
0.13778048360306963,0,0.999391
0.1448626388691693,1,0.999930
0.1405074200971783,1,0.999929
0.14437444815298947,1,0.999964
0.1530774411023752,1,0.999878
0.14714604970019385,1,0.999960
0.1400370282459367,1,0.999964
0.1416670957244015,1,0.999873
0.1494668030493378,0,0.999401
0.1356766599617216,1,0.999926
0.13423841470920955,1,0.999965
0.13265616910163983,1,0.999861
0.1406625441224504,1,0.999895
0.1310227425499474,1,0.999816
0.14890689302066792,1,0.999965
0.1330374265766098,1,0.999894
0.1398092286966271,1,0.999920
0.13873478941613934,1,0.999965
0.12415755830644917,0,0.998742
0.13046009233498107,1,0.999964
0.13823336526448118,0,0.999319
0.1323530555770311,0,0.999280
0.13660966955216533,1,0.999931
0.12798783493545574,1,0.999965
0.13573542090313537,1,0.999963
0.13598666848355706,1,0.999893
0.1358682006270986,1,0.999892
0.14128416609088645,1,0.999965
0.1335088852679044,1,0.999930
0.13249329114802355,1,0.999930
0.14682787943291445,1,0.999964
0.13596901119086874,1,0.999858
0.14867505227776395,1,0.999964
0.13807923218610818,1,0.999958
0.14325863851134749,1,0.999895
0.1381958117819003,1,0.999960
0.13203032633839695,1,0.999965
0.12443504353504392,1,0.999964
0.1332332287021934,1,0.999964
0.12289294667158993,0,0.998116
0.13244464096053601,1,0.999964
0.13248325680457873,1,0.999921
0.13621497678483108,1,0.999928
0.14342889455414404,1,0.999963
0.13776472692160746,1,0.999959
0.13437841829465938,1,0.999965
0.133050443202864,1,0.999963
0.13403996126175083,1,0.999965
0.1252013367112807,1,0.999965
0.14281080114317254,1,0.999883
0.13957708860520993,1,0.999964
0.13736966996066988,1,0.999964
0.13218882408985205,0,0.997896
0.13266098474636392,1,0.999860
0.13610108891298858,0,0.998451
0.12625490200810435,1,0.999931
0.13705907692881095,1,0.999965
0.13866845782660753,0,0.998649
0.13702616745908738,1,0.999964
0.14757066043849623,0,0.997880
0.1365929117807514,1,0.999732
0.1375958371209341,1,0.999965
0.1280832825193689,1,0.999931
0.14358862599998407,1,0.999805
0.13177613244010916,1,0.999930
0.14121747310086397,1,0.999964
0.15125379605326322,1,0.999963
0.13161851908375966,1,0.999858
0.13379977110060245,1,0.999786
0.13411321666842554,1,0.999964
0.1303607341396005,0,0.998373
0.11814177219958909,1,0.999965
0.14088108733155918,1,0.999965
0.13860717973133208,0,0.998845
0.13196856225014592,1,0.999930
0.12896247041878178,1,0.999965
0.11985962766931738,1,0.999820
0.14985296571516424,1,0.999959
0.1284885189212267,1,0.999893
0.13661863515623135,1,0.999965
0.13650198393790974,1,0.999780
0.13582751343817775,1,0.999965
0.13614068004031568,1,0.999964
0.12533564884573262,1,0.999930
0.13661537236026566,1,0.999965
0.12396008715537259,1,0.999926
0.14400810734009165,1,0.999964
0.1368198257434421,1,0.999963
0.13103179209122007,1,0.999964
0.1328363112804767,1,0.999964
0.12437626823764152,1,0.999965
0.1381270984474922,1,0.999965
0.13520027250034433,1,0.999964
0.1424578803073403,0,0.996906
0.14499906118911707,1,0.999919
0.1309766658956288,1,0.999924
0.11770225799665443,1,0.999781
0.13376529137971033,0,0.998510
0.13942283098756741,1,0.999965
0.13189875606425566,0,0.999006
0.13696086637367197,1,0.999965
0.13243332098904825,1,0.999963
0.14102864293024084,1,0.999958
0.1361243583823537,1,0.999605
0.13479817711030875,1,0.999930
0.13499165337531693,1,0.999930
0.13045971266073103,0,0.999469
0.1259212417733007,0,0.999114
0.12830828465328484,1,0.999964
0.13460414377134816,0,0.999216
0.13517776425085562,1,0.999930
0.12854213742375772,1,0.999860
0.12145967751015622,1,0.999896
0.13795083090135513,1,0.999924
0.13542968266172775,1,0.999965
0.13940801657586868,1,0.999965
0.1298874043212446,1,0.999961
0.12868728922272674,1,0.999794
0.13166642728576908,1,0.999965
0.13889047520168685,1,0.999804
0.13760616267974596,1,0.999891
0.13839331033833174,1,0.999964
0.13485770480672865,1,0.999850
0.14011829077814014,1,0.999960
0.12618654897491768,1,0.999965
0.12855952521778066,1,0.999965
0.14310123290561438,1,0.999965
0.13786908861584612,1,0.999965
0.13288422549704831,1,0.999893
0.13679347004109974,1,0.999964
0.12803173614911395,0,0.999128
0.12412607129942747,1,0.999837
0.1263133626462506,0,0.995954
0.14219976476766427,1,0.999965
0.13078690570967652,1,0.999964
0.12644858957292776,1,0.999964
0.13194495552254712,0,0.999497
0.13454544430458684,1,0.999927
0.12376995360427344,1,0.999964
0.13031846104746905,1,0.999863
0.13807204496092487,1,0.999965
0.14396517843687606,0,0.999430
0.13286778368513363,1,0.999965
0.1301919321872535,1,0.999613
0.13093916068607736,1,0.999963
0.13041409141069277,1,0.999959
0.1409155137364977,0,0.999438
0.13591230803345652,1,0.999964
0.1318464492242928,1,0.999919
0.13015018917702936,1,0.999929
0.1284646264090215,1,0.999963
0.12683045061723547,0,0.998996
0.13543695886687043,0,0.998849
0.12552206546419717,1,0.999965
0.12374383186594523,1,0.999681
0.12970836511727837,1,0.999965
0.12229899932892052,1,0.999964
0.12180447043573635,1,0.999929
0.1286755256449732,1,0.999964
0.12314218713634163,1,0.999964
0.12300833830048664,1,0.999761
0.12858172223867798,1,0.999965
0.1294180474522573,1,0.999674
0.13276858341559677,1,0.999964
0.1284419566809442,1,0.999964
0.11480490650650063,0,0.999498
0.11603677525143642,0,0.998913
0.11596161216483912,1,0.999964
0.13181933794930917,0,0.999487
0.1353917156160351,1,0.999678
0.1513326563761948,1,0.999593
0.13374516508017883,1,0.999929
0.12702926440228943,1,0.999959
0.14132341408480154,1,0.999837
0.13912863659862765,0,0.999102
0.13507254359364945,1,0.999965
0.13546879281135205,1,0.999856
0.1342950406243075,0,0.999433
0.11508963595145807,1,0.999965
0.1344733063371727,1,0.999748
0.13816993682120024,0,0.999555
0.13606337043855574,1,0.999966
0.1328529432866272,1,0.999965
0.14324085957627425,1,0.999895
0.1336804623959208,1,0.999895
0.13704235848346877,1,0.999854
0.13550281804322023,1,0.999965
0.1365761567850019,0,0.999546
0.13268277607728762,1,0.999960
0.12542715267216137,1,0.999960
0.12351584890135402,1,0.999747
0.15190634385435994,1,0.999959
0.1395786445662546,1,0.999893
0.1403255510782295,0,0.999498
0.13797510390576093,1,0.999965
0.11750267026490385,1,0.999931
0.1332166993772736,1,0.999965
0.13015745072670934,1,0.999929
0.1350697870868031,1,0.999646
0.12953963596176385,0,0.999174
0.14202603841034234,1,0.999964
0.1322197631119102,1,0.999792
0.1352902864099304,1,0.999782
0.13090152143562325,1,0.999958
0.1312075378345446,1,0.999965
0.12575562563497492,1,0.999965
0.13297954587874547,1,0.999602
0.14015785214301665,1,0.999964
0.13426763303211509,1,0.999966
0.14298923291369048,1,0.999965
0.14284083396689132,0,0.998871
0.13508281579643797,1,0.999965
0.13746482790239617,1,0.999701
0.1323716599703759,0,0.996116
0.1305127614020318,1,0.999965
0.12889521161085146,1,0.999920
0.14094406615603214,1,0.999965
0.13425276920061363,1,0.999964
0.12332926846214498,1,0.999644
0.129619353749209,0,0.999580
0.13796202268638438,1,0.999963
0.13528742470670302,1,0.999965
0.13247951401330332,1,0.999965
0.12532721904054905,0,0.998978
