-0.13868091267482552,0,0.006289
-0.11132719066912726,0,0.003342
-0.061198097800824885,0,0.002734
0.034429955939365105,0,0.048362
0.1496385158733522,0,0.086643
0.18014169162014007,0,0.958288
0.17600562870388495,0,0.003500
0.25137221591528347,0,0.578999
0.25471802004704447,0,0.713827
0.24549836078058984,0,0.697194
0.23674575054413935,0,0.472881
0.26985871858606714,0,0.332526
0.29279402765803153,0,0.950569
0.3154659700783414,0,0.426148
0.32258797498670955,0,0.005464
0.32358921554641484,0,0.387155
0.369012203882617,0,0.699355
0.38371759314029813,0,0.294316
0.3893371016031058,0,0.388571
0.3962914770862657,0,0.615787
0.401186674932369,0,0.404315
0.40488513434075857,0,0.735883
0.4114160733725087,0,0.554048
0.4092554356483573,0,0.990210
0.4172666141020905,0,0.503023
0.417904623574337,0,0.746553
0.4228246420822746,0,0.752181
0.4338490658981478,0,0.307591
0.4351234567005336,0,0.940867
0.4244280271082382,0,0.929129
0.41905963413513747,0,0.698328
0.41531441756577114,0,0.685008
0.4098563163053506,0,0.778405
0.4044112491907406,0,0.968737
0.41136424538253785,0,0.333694
0.4182501124508261,0,0.511996
0.42089386922867567,0,0.899358
0.41123875939942534,0,0.434450
0.4289362575714809,0,0.593085
0.4319032904530857,0,0.739433
0.43013037584580505,0,0.404376
0.4299177842766459,0,0.944592
0.430913102392958,0,0.769536
0.4330716884002949,0,0.878004
0.4412644992758285,0,0.370609
0.4440260661159053,0,0.901426
0.46629614924140594,0,0.335204
0.4784289561471802,0,0.831380
0.4803278080902807,0,0.229127
0.48866364520810923,0,0.220238
0.49134547595241895,0,0.963295
0.49059533692878315,0,0.134499
0.4904570038988564,0,0.954194
0.4849862136972553,0,0.828905
0.4819117634733835,0,0.968867
0.47967718109980406,0,0.962089
0.5004023039576794,0,0.896977
0.4955151328206744,0,0.232035
0.4940446606749971,0,0.905964
0.4934172563294569,0,0.896818
0.5096313228308401,0,0.136185
0.5346340469057874,0,0.970442
0.543688754408806,0,0.679065
0.5479826892174771,1,0.999217
0.5557432582198304,1,0.998469
0.5734339938002226,0,0.908949
0.5993835254229553,0,0.974818
0.6002518333419745,0,0.968738
0.6056582445813374,0,0.993106
0.6102399371523133,0,0.864968
0.610057957540634,0,0.524797
0.610022973642959,0,0.597114
0.6108468676867227,1,0.999128
0.6119346084940551,0,0.147897
0.6154290300525356,0,0.835979
0.6217250309941319,0,0.273731
0.6231460868144408,0,0.988554
0.630185928151624,0,0.877480
0.6378211011650614,0,0.470339
0.6407062163932875,0,0.776084
0.6439708844067634,0,0.704681
0.6470895992993119,0,0.405544
0.6564120936638974,0,0.839557
0.657702275812682,0,0.272895
0.689169234123539,0,0.416395
0.686319399474005,1,0.996416
0.7091112380631929,0,0.830827
0.7228881250106414,0,0.487133
0.7270327269447181,0,0.547235
0.7329349709935989,0,0.444987
0.7482199442652131,0,0.664692
0.7586215847843746,0,0.591656
0.7658602368591999,0,0.757623
0.7674249846067687,0,0.872600
0.7796577624023647,0,0.693898
0.7834012302633154,0,0.928063
0.7855157939686535,0,0.850118
0.785091947051016,0,0.937530
0.7957844948155696,0,0.961655
0.8006795658886359,0,0.756018
0.8030204322788044,0,0.704673
0.8100965100537645,0,0.771998
0.8123157613830118,0,0.988967
0.8131252118792511,0,0.791529
0.8167564406321035,0,0.977866
0.8290945797424116,0,0.987495
0.846263836651005,1,0.998854
0.849297247950995,0,0.735879
0.8553740309912722,0,0.981498
0.8576567679970863,0,0.439132
0.8584867440347765,0,0.692810
0.8596974347930533,0,0.966917
0.8627011062747794,0,0.789422
0.8633076127269192,0,0.929603
0.8668492890629425,1,0.999244
0.8711477506143755,0,0.761926
0.8768126605033635,0,0.922820
0.8775191467220197,0,0.918919
0.8777007386104829,0,0.976694
0.8814013135329629,0,0.993435
0.8835232932687951,0,0.981100
0.883976145189283,0,0.942754
0.8846232968811264,0,0.521904
0.8854664813663995,0,0.861328
0.8857056527788509,0,0.424955
0.8848562242707321,0,0.874763
0.8843038176614573,0,0.421053
0.883584798553962,0,0.426418
0.8810891516184935,0,0.875969
0.8766828017856055,0,0.971796
0.8736697778796875,0,0.866951
0.8674306434742659,0,0.989515
0.862066398280054,0,0.960285
0.859460293169842,0,0.857143
0.8560934246972931,0,0.989179
0.8575023313153357,0,0.699821
0.8581454292560682,0,0.981960
0.8693602204943526,0,0.853642
0.8767192747731205,0,0.935731
0.8862436124079597,0,0.776042
0.889882947300853,0,0.863407
0.8910450083129248,1,0.998175
0.8929019345978321,0,0.884672
0.8979593527090344,0,0.993548
0.9002082724064031,0,0.992344
0.9005745043291071,0,0.828110
0.9016844820407668,0,0.686068
0.9026600348088731,0,0.770083
0.9035837253839867,0,0.992842
0.9048639077993814,0,0.854717
0.9053171233012284,0,0.956750
0.9094618487939936,0,0.854462
0.9146975937674138,1,0.998206
0.9201256363027697,0,0.983359
0.9239980743476537,0,0.992240
0.9243734933612575,0,0.986154
0.9247480961541894,0,0.977122
0.9236004129365002,0,0.956332
0.5414895199162503,0,0.926332
0.5431823267086884,0,0.966912
0.5555678150550144,0,0.966839
0.5550132631116952,0,0.335535
0.5302308108427067,1,0.996700
0.5202814715039973,0,0.376279
0.584725524740737,0,0.930307
0.6126750777321632,0,0.204594
0.6258534787595479,0,0.950355
0.6380333590780249,0,0.849398
0.680219569155143,0,0.969846
0.6992542830658007,0,0.864700
0.7516625375452737,0,0.938511
0.7646869002120479,0,0.523872
0.8137121141721941,0,0.836264
0.8371379107301898,1,0.998720
0.8528149770275634,0,0.960227
0.8781306528564906,0,0.983668
0.8936332400464859,0,0.989194
0.895019637025152,0,0.906559
0.8975365658945641,0,0.983983
0.8982675658690426,0,0.882883
0.8970818263594504,0,0.969330
0.8913834881361626,1,0.998374
0.8920030988092947,0,0.952096
0.9040806313587922,0,0.968089
0.9010920759365499,0,0.972059
0.8962661042320761,0,0.858637
0.9084130658947884,0,0.929287
0.9163413181244549,0,0.976923
0.9161913038779901,1,0.998778
0.9194322007321728,0,0.712519
0.9201729598104492,1,0.998968
0.9218918580864942,0,0.952868
0.9239830749383634,0,0.987158
0.9341525734691627,1,0.997531
0.9398117812903483,0,0.940333
0.94368574441027,0,0.949792
0.9484281263616829,0,0.971831
0.9489757422813007,0,0.972603
0.954483368987282,1,0.995925
0.9637269310190812,1,0.997580
0.9652492313768836,0,0.977106
0.9699832108684078,1,0.998713
0.9710379379724108,0,0.968214
0.9699456877582255,0,0.959599
0.9689992477766516,0,0.991097
0.9700844869808962,0,0.973279
0.9714422382564197,1,0.996937
0.9723365422296187,0,0.969957
0.9727467015514604,1,0.996988
0.9728713561049999,0,0.988755
0.9723685208477054,0,0.994269
0.9714724371374488,0,0.973754
0.970091779288365,0,0.987732
0.9705317475075954,0,0.992252
0.9713492746786426,1,0.999482
0.9715962733798233,1,0.998937
0.9721458808764661,0,0.993728
0.9725551476963396,1,0.998332
0.974059815291342,0,0.976314
0.9742197026559842,1,0.990722
0.9745163281207058,1,0.997152
0.9737521211898967,1,0.999106
0.9748141108078716,0,0.995152
0.9751848548223777,0,0.942699
0.9757373385006177,1,0.999633
0.9766363174624775,0,0.994920
0.9769282374656238,0,0.987406
0.9772906909613442,1,0.993661
0.9777787764195055,1,0.997658
0.978061575032713,0,0.992775
0.9781946694565341,1,0.999009
0.9784284059525722,0,0.974771
0.9786960943501,0,0.977241
0.9789644819810854,1,0.999135
0.9791189176083818,1,0.999408
0.9791289075805464,0,0.985637
0.9790606142902574,1,0.997107
0.9786892971114496,0,0.993388
0.9780712469534282,1,0.999473
0.9778279245037312,0,0.989940
0.9773504726183031,1,0.997146
0.9771965914000312,0,0.995351
0.9770192051387537,1,0.998428
0.9769438315560818,0,0.992772
0.9768061286525263,0,0.992320
0.976726447645931,1,0.997407
0.9766652405991619,1,0.995438
0.9765486143031195,1,0.999505
0.9764269782545155,1,0.996721
0.608039838259642,0,0.939854
0.6469956875580227,0,0.554040
0.6481636544676631,0,0.875403
0.6553256515938184,0,0.597453
0.6686871444145042,0,0.519630
0.676637661231712,0,0.835165
0.6857125156485758,0,0.342072
0.6860549693562052,0,0.319036
0.6753866110911622,0,0.483752
0.6678964488108077,0,0.407074
0.6698039681097793,0,0.437863
0.6970098629561238,0,0.509662
0.681845967649098,0,0.291501
0.675537035419059,0,0.990635
0.6897248182992786,0,0.870170
0.6911116116898528,0,0.539503
0.7006525247972261,0,0.913292
0.7258860078072885,0,0.569055
0.7271758711109855,0,0.759940
0.7381623681301673,0,0.777932
0.7441927695819471,0,0.986979
0.7485507586911562,0,0.946319
0.7509957067017475,0,0.220764
0.7534604896147585,0,0.375538
0.7589716156994051,0,0.620362
0.7645385361940348,0,0.773959
0.7662922174879251,0,0.987080
0.7714613286993538,0,0.802379
0.7767895044128568,0,0.868077
0.7876795594819468,0,0.849951
0.7896000959597118,0,0.841629
0.7944698065067736,0,0.955037
0.8004667541646411,0,0.883420
0.8048498577672268,0,0.876125
0.8154391234113875,0,0.956028
0.820511204191739,1,0.996630
0.822731883147215,0,0.685756
0.8234603942334116,0,0.912195
0.8258535763514541,0,0.244248
0.8271064096994973,0,0.530695
0.8288097428384203,0,0.907903
0.8288695705817042,0,0.343489
0.8327694699959839,0,0.257079
0.8347979454164284,0,0.376410
0.8373908871713499,0,0.681134
0.8403054291080916,0,0.996548
0.8451612885188513,0,0.987620
0.8458829064676527,0,0.581140
0.8487532118309218,0,0.986932
0.8521222804433923,0,0.827647
0.8542486310874967,0,0.977835
0.85843437687532,0,0.823986
0.8660693065706069,0,0.972407
0.8729314408356947,0,0.943510
0.8790497936132011,0,0.961362
0.881805499001764,0,0.948479
0.8837326678041258,0,0.990563
0.8869378047074054,0,0.976729
0.8896857477902403,0,0.990333
0.8937021153403585,0,0.838493
0.8946862050432612,0,0.770315
0.896820224917245,0,0.963232
0.8987668295478793,0,0.809921
0.8987991539361504,0,0.509165
0.8995858247419746,0,0.795936
0.9002363578853887,0,0.495944
0.9003134875212865,0,0.881849
0.9004378648786748,0,0.945170
0.9009578463959442,0,0.439797
0.9018198591080978,0,0.970207
0.9020165239284055,0,0.815476
0.902518212334496,0,0.375000
0.90281694210072,0,0.444762
0.903582266555906,0,0.555495
0.9037950245197495,0,0.733002
0.9049577698954635,0,0.514080
0.9054793288856744,0,0.749795
0.9058388630473105,0,0.987470
0.9068362103878153,1,0.997516
0.908100495057441,0,0.372047
0.9101803342166843,0,0.953286
0.9104037481316494,0,0.990808
0.9118149926427854,0,0.700829
0.9131063388040453,0,0.974157
0.9132500579384839,0,0.766894
0.9136323074376588,0,0.939877
0.9145007786506623,0,0.955665
0.9165902127462994,0,0.980195
0.9182323294797478,1,0.997403
0.9191221427108801,0,0.815442
0.9191773628698656,0,0.790805
0.9204037259232017,0,0.991709
0.9209201668661333,0,0.680954
0.9229833283771925,0,0.806419
0.9239244478922204,0,0.863162
0.9253529200818653,0,0.969426
0.9260271716828414,0,0.795724
0.925386601714873,0,0.928870
0.9233664674353895,0,0.279592
0.9170701805142265,0,0.779503
0.9046283657154713,0,0.961715
0.8994235405653093,0,0.978292
0.9028713379729916,0,0.995720
0.588959037861906,0,0.976661
0.6104348217969038,0,0.937500
0.6116004471168431,0,0.666780
0.6058595873224548,0,0.857143
0.6013001252350029,0,0.941688
0.5995686270943338,0,0.524520
0.5979919558838059,0,0.880536
0.6078690421765705,0,0.964048
0.6118690371717195,0,0.993598
0.6182985168466508,0,0.567756
0.626071367143196,0,0.959079
0.6313296295665392,1,0.986239
0.6399585409543794,0,0.481097
0.647683525615061,0,0.949478
0.6577623681986536,0,0.399499
0.6671843743340282,1,0.995683
0.6709737438342924,1,0.997882
0.6773802294412804,0,0.782814
0.683459684731969,0,0.956748
0.6867055246252219,0,0.492722
0.691201721534036,1,0.999598
0.6978013855200992,0,0.990761
0.7016005191221172,0,0.947965
0.7043921574468692,0,0.991761
0.7050466049243247,0,0.951368
0.708248313095237,0,0.845367
0.7120235491069333,1,0.993735
0.7164177281506819,0,0.981711
0.7186604752334705,0,0.770840
0.723267652071332,1,0.992593
0.7266428525921961,0,0.746338
0.7297619647690325,1,0.997913
0.7344429409239916,0,0.964484
0.7390884920897774,0,0.890018
0.743389183560777,1,0.992788
0.7479871421072746,0,0.738781
0.7501397994492123,0,0.732301
0.7520653235522757,0,0.979633
0.7532811347585253,0,0.981535
0.7569397927223873,0,0.833395
0.760300772932806,0,0.714403
0.7643104592627022,0,0.799140
0.7684366465279441,1,0.993617
0.7720766414274273,0,0.833277
0.7737465431195003,0,0.946054
0.7752367148509923,0,0.780878
0.7778482228226764,0,0.974083
0.7822303775444354,0,0.992849
0.7869621083275986,0,0.839133
0.7885127898282688,0,0.980793
0.7907823157564754,0,0.908734
0.7928533253736787,1,0.995270
0.7948162858778696,1,0.994712
0.7993777723959306,0,0.975159
0.8012218095851553,0,0.883189
0.8047336591832591,0,0.841977
0.8099753281882027,1,0.995383
0.81232517460259,1,0.995422
0.8182513956225096,1,0.997568
0.8198136018272059,0,0.989123
0.8230215050078324,0,0.992371
0.8249157286063568,0,0.642815
0.8285019332909259,0,0.982148
0.8327702460672602,0,0.987821
0.8360957765230151,0,0.994220
0.8403762517743288,0,0.903433
0.8445797196522994,0,0.895748
0.846599206262998,1,0.999452
0.8495327239514129,0,0.830210
0.8530082264265602,0,0.971624
0.856369505613394,1,0.995513
0.8596992729089422,1,0.998842
0.8645995748302033,0,0.994064
0.8706010567396764,0,0.974786
0.8740406873164132,1,0.998544
0.8772217530350777,0,0.880236
0.8784261856089798,1,0.997118
0.8796492777943278,0,0.991351
0.8830405187223684,1,0.997906
0.8854954940309179,0,0.830303
0.8916971271189892,0,0.978491
0.8945665421027933,0,0.924833
0.8978112534128331,0,0.986048
0.9019110194970597,1,0.999566
0.9050574782387318,1,0.998654
0.9115117088179305,1,0.997447
0.9177649047411582,0,0.984486
0.9230681472907544,0,0.936469
0.9285943249572682,1,0.995091
0.9322366908382828,0,0.985541
0.9342484928001611,1,0.993215
0.9360053276994061,0,0.920502
0.9364702560068132,0,0.970939
0.9388447395743725,0,0.943653
0.9402947310016235,0,0.974199
0.9412136059509202,0,0.992136
0.9432132972313886,0,0.974036
0.9429935450320045,0,0.904412
0.9433937936533954,1,0.999474
0.9449122706586244,0,0.973304
0.9461924414084455,1,0.997250
0.9464305118297968,1,0.996390
0.9477060076122376,0,0.914462
0.9471554473145661,1,0.997988
0.9463749493127592,0,0.980221
0.9494242402608769,0,0.986568
0.9507401447502302,0,0.982149
0.9520880357210939,0,0.976511
0.9525767985079173,0,0.943004
0.9533124640875864,1,0.996727
0.9549144899721117,1,0.996395
0.9553612842212412,0,0.969971
0.5575729843949,0,0.496310
0.5957678663153504,0,0.950203
0.6145365609763033,0,0.157107
0.6389955177453933,0,0.534022
0.6933618628209244,0,0.988916
0.719492938850526,0,0.593994
0.7368864323269715,0,0.578183
0.7433009308321984,0,0.762701
0.7286413734066367,0,0.977127
0.7168583186980347,0,0.982326
0.720644497560914,0,0.136946
0.7283416766180371,0,0.766441
0.7359146814269102,0,0.878453
0.741105410710735,0,0.576646
0.7513623223829631,0,0.349328
0.7562309226409621,0,0.748419
0.7596407330090895,0,0.873563
0.761737115594791,0,0.818247
0.7650639704863197,1,0.999578
0.7705255608952352,1,0.997593
0.7802676341771826,0,0.792518
0.7811450827225968,0,0.736864
0.7822290715498407,0,0.102941
0.7828411526986344,0,0.962315
0.7859362315514515,0,0.987350
0.794385936325455,0,0.670745
0.799073290987541,0,0.923858
0.8017028472499568,0,0.449515
0.8053937531835414,0,0.374573
0.8120554094650794,0,0.791367
0.8137492374690437,0,0.553333
0.8151529175660596,0,0.465971
0.8180121076477646,0,0.741470
0.8191452310129286,0,0.651533
0.820644438969438,0,0.908100
0.8244394880667547,0,0.378471
0.8274721488236053,0,0.950565
0.8296346731694728,0,0.996052
0.8318770591119193,0,0.975509
0.8345805269210127,0,0.937159
0.8371427069602885,0,0.917211
0.8373039905689085,0,0.595641
0.8385000356186157,0,0.979006
0.8412061731738095,0,0.416667
0.8430566344774952,0,0.919555
0.8438895682774389,0,0.946702
0.844360915954419,0,0.592847
0.8458794735668469,0,0.802653
0.8458883481478064,1,0.999398
0.8467185540572683,0,0.386288
0.8480882460445749,1,0.994059
0.8486321864017426,0,0.878419
0.8493857303776097,0,0.719285
0.8501481565306525,0,0.721030
0.8512557405493106,0,0.966408
0.8518173082397056,0,0.945742
0.853905258869876,0,0.704104
0.853947419295469,0,0.738451
0.8544983354240027,0,0.896175
0.8558435144350282,0,0.982434
0.856965452365095,0,0.811118
0.8577805207376558,0,0.838951
0.8617704639839605,0,0.578529
0.8692765969236299,0,0.933333
0.8807279693643173,1,0.992844
0.9018561648818577,1,0.994286
0.9191690351641191,1,0.995717
0.9239873782280297,1,0.997963
0.9263237203333263,0,0.774944
0.9097340445039177,1,0.999666
0.8939529366538957,0,0.964906
0.8838545329041362,1,0.998239
0.8749852527775175,0,0.991986
0.8830022123959136,0,0.808974
0.884517925319721,0,0.823364
0.8900657750886347,0,0.924164
0.8978757727876074,0,0.985684
0.9032571836443674,0,0.984793
0.9080338518520038,0,0.969710
0.9160998080991553,0,0.975354
0.921071198864738,0,0.913800
0.9271237489683801,0,0.938547
0.9310508643275306,0,0.919963
0.9326573786922353,0,0.882251
0.9345732703036232,0,0.988430
0.9347168101896636,0,0.973618
0.9337951345321458,0,0.842697
0.9338829483919076,0,0.969286
0.9345399029149019,0,0.947368
0.9355548241844804,0,0.973585
0.9354862830933101,0,0.983544
0.9320416035043034,1,0.999170
0.9300917627713814,0,0.910455
0.9262326041070817,0,0.993130
0.9227830228400672,0,0.993631
0.9198675040558668,0,0.985431
0.9164451716790329,0,0.995957
0.9123121192696895,1,0.999620
0.9064522016738874,0,0.957866
0.9019110960061093,0,0.968220
0.9002651451807628,1,0.995420
0.899160268980301,0,0.990559
0.6122484126036822,0,0.691790
0.6465615790129868,1,0.996038
0.6698411367594879,0,0.563818
0.6799406406660669,0,0.229177
0.6885989367371917,0,0.929742
0.6174388522825898,0,0.769231
0.622823461522678,0,0.380708
0.6572276495420498,0,0.736395
0.6857953667869893,0,0.956658
0.6888708346246714,0,0.333576
0.6029324759937941,0,0.297130
0.4869387087201148,0,0.701439
0.45531535642389553,0,0.109987
0.43418362588851467,0,0.707470
0.4536753122282467,0,0.620511
0.4637435045050475,0,0.825835
0.47194362880935165,0,0.988459
0.5032189856146411,0,0.676075
0.5413917495385502,0,0.703436
0.5687398057045564,0,0.577527
0.58611906614393,0,0.775201
0.6371721140440179,0,0.904864
0.6666423507805306,0,0.713923
0.7119618209770081,0,0.955739
0.7450471735682166,1,0.997344
0.7632052474526622,0,0.985928
0.7757886372643348,0,0.963846
0.7784128263871857,0,0.516374
0.782672930973029,0,0.341339
0.7838043327808786,0,0.645465
