0.03502218936390695,0,0.006331
0.2657618830860853,0,0.677096
0.8646879251469219,0,0.684974
0.9860278599089595,0,0.874470
0.9996757125539215,0,0.874867
0.999934342059011,0,0.008197
0.9999857446258978,1,0.999634
0.9999940228404419,0,0.009901
0.9999999753641297,1,0.999660
0.9999999958428696,0,0.863189
0.9999999996047747,1,0.999665
0.9999999999495304,1,0.999138
0.999999999982234,1,0.999600
0.9999999999872697,1,0.999190
0.9999999999961741,1,0.999689
0.9999999999983764,0,0.013079
0.9999999999994342,1,0.999599
0.999999999999887,1,0.999461
0.9999999999999463,1,0.999573
0.9999279507865514,1,0.998963
0.9999820324937991,1,0.998842
0.9999970275759088,1,0.999342
0.9999988345739502,1,0.998511
0.9999995080195617,1,0.999576
0.9999999413803222,1,0.999496
0.9999999937116824,1,0.999243
0.9999999981568225,0,0.010116
0.9999999997326995,1,0.999643
0.999999999796064,1,0.999403
0.9999999999443264,1,0.999608
0.99999999998264,1,0.999455
0.9999999999937839,1,0.999637
0.9999999999968595,1,0.999510
0.9999999999993738,1,0.999282
0.9999999999999674,1,0.999452
0.9999999999999921,1,0.998501
0.9999999999999987,1,0.999422
1.0,1,0.999550
1.0,1,0.999565
1.0,1,0.999670
1.0,1,0.999523
1.0,1,0.999689
1.0,1,0.998786
0.9999999999999972,1,0.999373
1.0,1,0.999437
0.9999999999999976,1,0.999541
0.9999999999999977,1,0.999580
1.0,1,0.999479
1.0,1,0.999686
1.0,1,0.999569
0.9999999999999998,1,0.999241
0.9997566761234377,1,0.999681
0.9997449312938426,1,0.999585
0.9998858094281711,1,0.999422
0.9997878933092276,1,0.999648
0.9999041392857779,1,0.998336
0.9999411540035236,1,0.999198
0.9999880626384978,1,0.999441
0.9999946623131541,1,0.999328
0.9999964291595708,1,0.998757
0.9999995419288229,1,0.999590
0.9999998196128925,1,0.999434
0.9999999740951351,1,0.999437
0.9999756708563025,1,0.999672
0.999769455055797,1,0.997950
0.9999277717071295,1,0.999582
0.999945130718789,1,0.999616
0.9999827519299609,1,0.999605
0.9999857423875622,1,0.999454
0.9999940403853672,1,0.999628
0.9999945840873874,1,0.999615
0.9996901149219758,1,0.999589
0.9999496448168079,1,0.999577
0.9999847161470744,1,0.999643
0.9999968996888543,1,0.999417
0.9999998963584334,1,0.999540
0.9999999856925398,1,0.999541
0.9999999990619517,1,0.999464
0.9999999998619765,1,0.999451
0.9999999999889384,1,0.999523
0.9999999999961813,1,0.999527
0.9999999999990239,1,0.999514
0.9999999999996545,1,0.998488
0.9999999999999772,1,0.999696
0.9999999999999892,1,0.999641
0.9999999999999964,1,0.999667
0.9999999999999999,1,0.999307
0.9999999999999994,1,0.999428
1.0,1,0.999438
0.9999999999999994,1,0.999497
1.0,1,0.999583
0.9999999999999978,1,0.999328
0.9998973255289212,1,0.999598
0.9998320700644103,1,0.999529
0.9999871425155299,1,0.999341
0.9999958197709979,1,0.999394
0.9999998761531388,1,0.999686
0.9999999237851601,1,0.999467
0.9999999932741368,1,0.999655
0.9999999981191499,1,0.999453
0.9999999998584886,1,0.999532
0.9999999999395395,1,0.999451
0.9999999999906237,1,0.999418
0.9999999999964114,1,0.999447
0.9999999999968511,1,0.999219
0.9998476242947663,1,0.999133
0.9999964187811493,1,0.999133
0.9999983279146581,1,0.999638
0.9999988214439214,1,0.999680
0.9999998921189212,1,0.999339
0.9999999342641932,1,0.999590
0.9999999953752823,1,0.999461
0.9999999999793432,1,0.999548
0.9999999999998304,1,0.999652
0.99999999999995,1,0.999547
0.9999999999999827,1,0.999560
0.9999999999999931,1,0.999392
0.9999999999999969,1,0.999621
1.0,1,0.999495
1.0,1,0.999413
0.9999999999999971,1,0.999666
1.0,1,0.999632
1.0,1,0.999572
0.9999999999999968,1,0.999357
0.9999999999999982,1,0.999072
0.9999999999999971,1,0.999633
1.0,1,0.999603
1.0,1,0.999285
1.0,1,0.999305
1.0,1,0.998929
0.999999999999999,1,0.998889
1.0,1,0.999611
1.0,1,0.999461
0.9999999999999989,1,0.999522
0.9999999999999982,1,0.999448
1.0,1,0.999580
0.9999999999999989,1,0.999461
0.9999999999999986,1,0.999590
0.9999999999999996,1,0.999683
1.0,1,0.999439
0.9999999999999981,1,0.999445
0.999999999999997,1,0.999260
0.9999999999999999,1,0.999234
1.0,1,0.999541
1.0,1,0.999298
1.0,1,0.999561
1.0,1,0.999694
0.9999999999999969,1,0.999687
0.9999999999999989,1,0.999606
0.9999999999999962,1,0.999566
0.9999999999999994,1,0.999573
1.0,1,0.999540
1.0,1,0.999447
0.9999999999999991,1,0.999452
1.0,1,0.999586
1.0,1,0.999598
0.9999999999999987,1,0.999587
0.999999999999999,1,0.999674
0.9999999999999989,1,0.999598
0.9999999999999999,1,0.999524
1.0,1,0.999644
0.9999999999999988,1,0.999640
0.9999999999999976,1,0.999466
1.0,1,0.999481
0.9999999999999979,1,0.999482
1.0,1,0.999470
0.999999999999999,1,0.999267
1.0,1,0.999466
0.9999999999999986,1,0.999590
1.0,1,0.999599
0.9999478054857512,1,0.999665
0.9999150245038931,1,0.999633
0.9999603662154183,1,0.999567
0.9999996032287692,1,0.999641
0.9999997422952585,1,0.999673
0.999999861644865,1,0.999588
0.9999999959178206,1,0.999395
0.9999999989816722,1,0.999535
0.9999999999844308,1,0.999461
0.9999999999994817,1,0.999328
0.9999999999999254,1,0.999326
1.0,1,0.999373
1.0,1,0.999670
0.9999999999999979,1,0.999658
0.9999999999999991,1,0.999614
1.0,1,0.999625
1.0,1,0.999685
1.0,1,0.999522
1.0,1,0.999556
0.9999999999999968,1,0.999556
0.9999999999999987,1,0.999542
1.0,1,0.999578
0.9999999999999991,1,0.999254
0.999999999999999,1,0.999579
1.0,1,0.999628
1.0,1,0.999509
0.9999999999999986,1,0.999369
0.9999999999999983,1,0.999375
0.9999999999999997,1,0.999177
1.0,1,0.999182
1.0,1,0.998776
0.9999999999999974,1,0.999528
0.9999999999999961,1,0.999622
1.0,1,0.999597
1.0,1,0.999498
1.0,1,0.999602
1.0,1,0.999584
0.9999999999999963,1,0.998905
1.0,1,0.999636
0.9999999999999997,1,0.999448
1.0,1,0.999531
1.0,1,0.999535
1.0,1,0.999454
1.0,1,0.999576
1.0,1,0.999604
0.9999999999999976,1,0.999646
0.9999999999999994,1,0.999399
0.9999999999999994,1,0.999637
0.9999999999999991,1,0.999589
0.999999999999998,1,0.999590
1.0,1,0.999689
0.9999999999999993,1,0.999632
1.0,1,0.999666
1.0,1,0.999671
0.9999999999999991,1,0.999356
1.0,1,0.999409
1.0,1,0.999632
0.9999999999999994,1,0.999352
1.0,1,0.999458
0.9999999999999984,1,0.999570
0.9999999999999988,1,0.999290
0.9999999999999998,1,0.999546
0.9999999999999996,1,0.999576
0.9999999999999997,1,0.999634
0.9999999999999991,1,0.999595
1.0,1,0.999621
1.0,1,0.999639
1.0,1,0.999594
0.9999999999999987,1,0.999524
0.9999999999999973,1,0.999483
0.9999999999999997,1,0.999663
0.9999999999999991,1,0.999640
1.0,1,0.999504
1.0,1,0.999623
1.0,1,0.999474
0.9999999999999971,1,0.999564
1.0,1,0.999623
0.9999999999999987,1,0.999637
1.0,1,0.999497
0.9999999999999959,1,0.999671
0.9999999999999994,1,0.999379
0.9999999999999994,1,0.999470
0.9999999999999994,1,0.999483
0.9999999999999983,1,0.999617
1.0,1,0.999181
1.0,1,0.999647
0.9999999999999978,1,0.999559
0.9999999999999979,1,0.999532
1.0,1,0.999578
0.999999999999996,1,0.999629
1.0,1,0.999653
1.0,1,0.999375
0.9999999999999997,1,0.999311
1.0,1,0.999054
1.0,1,0.999162
0.9999999999999999,1,0.999609
0.9999999999999989,1,0.999653
1.0,1,0.999449
1.0,1,0.999560
1.0,1,0.999374
1.0,1,0.999348
0.9999999999999984,1,0.999533
0.9999999999999971,1,0.999467
1.0,1,0.999573
0.9999999999999992,1,0.999554
0.9999999999999973,1,0.999537
1.0,1,0.999474
1.0,1,0.999502
1.0,1,0.999369
0.9999999999999961,1,0.999304
0.9999999999999989,1,0.999563
1.0,1,0.999582
0.9999999999999989,1,0.999499
0.9999999999999958,1,0.999552
0.9999999999999992,1,0.999669
1.0,1,0.999654
1.0,1,0.999557
1.0,1,0.999676
1.0,1,0.999639
0.9999999999999987,1,0.999604
0.999999999999996,1,0.999650
1.0,1,0.999576
1.0,1,0.999512
0.9999999999999949,1,0.999645
1.0,1,0.999617
0.9999999999999988,1,0.999531
1.0,1,0.999533
1.0,1,0.999184
1.0,1,0.999600
1.0,1,0.999603
1.0,1,0.999585
1.0,1,0.999541
1.0,1,0.999632
0.9999999999999952,1,0.999548
1.0,1,0.999607
0.999999999999998,1,0.999651
0.9999999999999989,1,0.999480
1.0,1,0.999650
0.999999999999998,1,0.999654
1.0,1,0.999675
0.9999999999999998,1,0.999561
0.9999999999999983,1,0.999605
1.0,1,0.999453
1.0,1,0.999554
1.0,1,0.999612
0.9999999999999998,1,0.999585
1.0,1,0.999567
1.0,1,0.999585
0.9999999999999999,1,0.999629
0.999798400403567,1,0.999562
0.9999951422698959,1,0.999629
0.999999923214093,1,0.999680
0.9999999870858589,1,0.999506
0.9999999999834639,1,0.999635
0.9999999999995408,1,0.999678
0.9997489658972623,1,0.999579
0.9999998825679888,1,0.999614
0.9999999961670927,1,0.999600
0.9999999999804848,1,0.999615
0.999999999999799,1,0.999674
0.9999999999999956,1,0.999683
1.0,1,0.999625
0.9999999999999998,1,0.999626
0.9999999999999999,1,0.999441
0.9999999999999979,1,0.999375
0.9999999999999979,1,0.999444
0.999999999999999,1,0.998700
0.9999999999999989,1,0.999146
1.0,1,0.999466
1.0,1,0.999553
1.0,1,0.999377
1.0,1,0.999549
1.0,1,0.999492
0.9999999999999956,1,0.999622
0.9999999999999988,1,0.999622
0.9999999999999998,1,0.999563
1.0,1,0.999639
1.0,1,0.999450
0.9999999999999972,1,0.999413
1.0,1,0.999528
1.0,1,0.999685
0.9999999999999968,1,0.999664
0.9999999999999998,1,0.999671
0.9999999999999968,1,0.999623
0.9999999999999983,1,0.999681
1.0,1,0.999599
1.0,1,0.999435
0.999999999999997,1,0.999348
1.0,1,0.999391
0.9999999999999999,1,0.999468
0.999999999999996,1,0.999539
1.0,1,0.999661
1.0,1,0.999563
1.0,1,0.999501
1.0,1,0.999589
0.9999999999999971,1,0.999467
0.9999999999999967,1,0.999507
0.9999999999999979,1,0.999545
0.9999999999999999,1,0.999591
0.9999999999999956,1,0.999391
0.9999999999999986,1,0.999673
0.9999262113225398,1,0.999548
0.999999611675643,1,0.999557
0.9999999920241013,1,0.999606
0.9999999999873006,1,0.999662
0.9999999999963508,1,0.999630
0.99999999999995,1,0.999626
0.9999999999999974,1,0.999550
0.9999999999999981,1,0.999578
0.9999999999999991,1,0.999527
1.0,1,0.999483
1.0,1,0.999164
1.0,1,0.999471
1.0,1,0.999566
1.0,1,0.999544
1.0,1,0.999551
1.0,1,0.999517
0.9999999999999993,1,0.999592
0.9999999999999981,1,0.999619
0.9999999999999989,1,0.999563
1.0,1,0.999607
1.0,1,0.999644
1.0,1,0.999650
0.9999999999999977,1,0.999527
1.0,1,0.999662
1.0,1,0.999619
0.9999999999999996,1,0.999692
1.0,1,0.999594
0.999999999999996,1,0.999652
1.0,1,0.999546
1.0,1,0.999672
0.9999999999999943,1,0.999656
0.9999999999999974,1,0.999657
1.0,1,0.999628
1.0,1,0.999583
0.9999999999999986,1,0.999548
0.9999999999999984,1,0.999459
1.0,1,0.999543
0.9999999999999987,1,0.999624
0.9999999999999963,1,0.999648
0.9999999999999966,1,0.999663
0.9999999999999983,1,0.999632
0.9999999999999972,1,0.999631
0.9999999999999997,1,0.999664
1.0,1,0.999639
1.0,1,0.999584
1.0,1,0.999552
0.9999999999999986,1,0.999473
1.0,1,0.999679
1.0,1,0.999580
1.0,1,0.999577
0.9999999999999974,1,0.999632
1.0,1,0.999569
1.0,1,0.999615
1.0,1,0.999628
0.9999999999999996,1,0.999446
1.0,1,0.999620
0.9999999999999983,1,0.999659
0.9999999999999981,1,0.999606
1.0,1,0.999602
0.9999999999999978,1,0.999571
0.9999999999999999,1,0.999541
0.9999999999999988,1,0.999493
0.9999999999999983,1,0.999627
0.9999999999999981,1,0.999682
1.0,1,0.999670
0.9999999999999994,1,0.999620
0.9999999999999998,1,0.999688
1.0,1,0.999645
1.0,1,0.999650
1.0,1,0.999647
0.9999999999999997,1,0.999517
1.0,1,0.999643
0.9999999999999976,1,0.999578
0.999999999999999,1,0.999468
0.9999999999999997,1,0.999490
0.9999999999999993,1,0.999522
0.9999999999999977,1,0.999622
0.9999999999999983,1,0.999588
1.0,1,0.999544
1.0,1,0.999540
1.0,1,0.999495
1.0,1,0.999573
0.9999999999999999,1,0.999688
1.0,1,0.999562
1.0,1,0.999470
1.0,1,0.999438
0.9999999999999977,1,0.999486
1.0,1,0.999530
1.0,1,0.999559
1.0,1,0.999626
0.999999999999999,1,0.999573
1.0,1,0.999692
0.9999999999999977,1,0.999624
0.9999999999999994,1,0.999644
0.9999999999999969,1,0.999588
0.9999999999999999,1,0.999500
1.0,1,0.999603
1.0,1,0.999472
0.9999999999999998,1,0.999591
1.0,1,0.999681
1.0,1,0.999598
0.9999999999999989,1,0.999652
1.0,1,0.999599
1.0,1,0.999612
0.999999999999996,1,0.999626
0.9999999999999969,1,0.999402
1.0,1,0.999624
0.9999999999999969,1,0.999637
1.0,1,0.999696
1.0,1,0.999644
1.0,1,0.999679
0.9999999999999962,1,0.999641
0.9999999999999992,1,0.999569
0.999999999999998,1,0.999630
0.9999999999999988,1,0.999651
1.0,1,0.999635
0.9999999999999969,1,0.999580
0.9999999999999982,1,0.999582
0.9999999999999993,1,0.999674
0.999999999999998,1,0.999666
0.9999999999999991,1,0.999547
1.0,1,0.999592
0.9999999999999998,1,0.999520
1.0,1,0.999530
0.9999999999999999,1,0.999511
1.0,1,0.999629
0.9999999999999992,1,0.999597
1.0,1,0.999582
1.0,1,0.999611
1.0,1,0.999606
1.0,1,0.999634
1.0,1,0.999665
1.0,1,0.999590
1.0,1,0.999639
1.0,1,0.999558
1.0,1,0.999663
0.9999999999999997,1,0.999619
0.9999999999999983,1,0.999300
0.9999999999999997,1,0.999695
0.9999999999999982,1,0.999511
1.0,1,0.999593
0.999999999999999,1,0.999644
0.9999999999999948,1,0.999615
0.9999999999999956,1,0.999557
0.9999999999999958,1,0.999542
1.0,1,0.999492
0.9999999999999968,1,0.999623
0.9999999999999974,1,0.999673
0.9999999999999983,1,0.999627
1.0,1,0.999527
0.9999999999999987,1,0.999378
1.0,1,0.999676
1.0,1,0.999503
1.0,1,0.999636
1.0,1,0.999609
1.0,1,0.999602
1.0,1,0.999520
1.0,1,0.999642
0.9999999999999967,1,0.999600
1.0,1,0.999578
1.0,1,0.999552
0.9999999999999992,1,0.999520
0.9999999999999989,1,0.999510
1.0,1,0.999323
0.9999999999999974,1,0.999667
0.9999999999999997,1,0.999386
0.9999999999999986,1,0.999171
0.9999999999999996,1,0.999615
0.9999999999999986,1,0.999392
1.0,1,0.999640
1.0,1,0.999595
1.0,1,0.999525
0.9999999999999999,1,0.999571
0.9999999999999991,1,0.999627
0.9999999999999951,1,0.999635
1.0,1,0.999489
0.9999999999999996,1,0.999604
1.0,1,0.999567
0.9999999999999982,1,0.999463
1.0,1,0.999253
0.9999999999999982,1,0.999394
1.0,1,0.999381
1.0,1,0.999524
0.9999999999999953,1,0.999562
0.9998270078759007,1,0.999618
0.9998578314175305,1,0.999569
0.9999935233226106,1,0.999509
0.9999997667074322,1,0.999466
0.99999997441774,1,0.999470
0.9999999999930241,1,0.999642
0.9999999999987373,1,0.999497
0.999999999999965,1,0.999507
0.9999999999999944,1,0.999648
0.9999999999999987,1,0.999691
1.0,1,0.999620
0.9999999999999973,1,0.999576
1.0,1,0.999637
1.0,1,0.999602
0.9999999999999956,1,0.999599
0.9999999999999971,1,0.999588
0.9999999999999987,1,0.999597
1.0,1,0.999654
1.0,1,0.999543
1.0,1,0.999523
0.9999999999999958,1,0.999657
0.9999999999999972,1,0.999585
1.0,1,0.999479
1.0,1,0.999150
0.9999999999999968,1,0.998759
0.999999999999996,1,0.999203
0.9999999999999962,1,0.999587
0.9999999999999978,1,0.999636
0.9999999999999987,1,0.999617
1.0,1,0.999644
0.9999999999999993,1,0.999439
1.0,1,0.999426
0.9999999999999964,1,0.999515
1.0,1,0.999579
0.999999999999998,1,0.999619
1.0,1,0.999674
0.9999999999999989,1,0.999546
0.9999999999999969,1,0.999543
0.999999999999998,1,0.999624
1.0,1,0.999465
0.9999999999999961,1,0.999620
0.9999999999999972,1,0.999652
1.0,1,0.999591
1.0,1,0.999671
0.9999999999999982,1,0.999607
0.9999999999999973,1,0.999520
1.0,1,0.999567
0.9999999999999968,1,0.999491
1.0,1,0.999610
1.0,1,0.999555
1.0,1,0.999625
0.9999999999999971,1,0.999680
0.9999999999999999,1,0.999558
0.9999999999999962,1,0.999631
0.9999999999999959,1,0.999655
1.0,1,0.999640
1.0,1,0.999600
0.9999999999999993,1,0.999636
0.9999999999999974,1,0.999535
1.0,1,0.999133
0.9999999999999988,1,0.999685
0.9999999999999996,1,0.999547
1.0,1,0.999679
0.9999999999999984,1,0.999643
0.9999999999999982,1,0.999620
0.9999999999999962,1,0.999592
1.0,1,0.999482
1.0,1,0.999662
1.0,1,0.999638
1.0,1,0.999599
0.9999999999999967,1,0.999512
0.9999999999999993,1,0.999626
1.0,1,0.999658
0.9999999999999983,1,0.999590
0.9999999999999988,1,0.999625
0.9999999999999994,1,0.999581
0.9999999999999979,1,0.999583
0.9999999999999991,1,0.999568
0.9999999999999989,1,0.999650
1.0,1,0.999658
1.0,1,0.999583
0.9999999999999993,1,0.999625
0.9999999999999988,1,0.999623
1.0,1,0.999633
1.0,1,0.999499
0.9999999999999982,1,0.999663
0.9999999999999999,1,0.999626
0.9999999999999974,1,0.999654
1.0,1,0.999520
1.0,1,0.999535
0.9999999999999969,1,0.999568
1.0,1,0.999696
1.0,1,0.999575
1.0,1,0.999535
0.999999999999995,1,0.999631
0.9999999999999988,1,0.999574
0.9999999999999978,1,0.999402
1.0,1,0.999522
1.0,1,0.999050
0.9999999999999979,1,0.999559
0.9999999999999969,1,0.999589
0.9999999999999968,1,0.999563
0.999999999999998,1,0.999463
0.9999999999999996,1,0.999638
0.9999999999999977,1,0.999660
1.0,1,0.999523
0.9999999999999999,1,0.999611
0.9999999999999976,1,0.999600
1.0,1,0.999433
1.0,1,0.999429
1.0,1,0.999552
1.0,1,0.999496
0.9999999999999974,1,0.999540
1.0,1,0.999589
0.9999999999999977,1,0.999167
1.0,1,0.999120
0.9999999999999984,1,0.999024
1.0,1,0.998689
1.0,1,0.998853
1.0,1,0.999177
1.0,1,0.998929
0.9999999999999917,1,0.998597
1.0,1,0.999111
0.9999999999999989,1,0.999113
0.9999999999999982,1,0.999110
0.9999999999999993,1,0.999392
1.0,1,0.999592
1.0,1,0.999635
1.0,1,0.999548
1.0,1,0.999335
0.9999999999999982,1,0.999389
1.0,1,0.999411
1.0,1,0.999499
1.0,1,0.999575
1.0,1,0.999574
1.0,1,0.999585
1.0,1,0.999646
1.0,1,0.999612
1.0,1,0.999575
1.0,1,0.999577
0.9999921908279709,1,0.999636
0.9999997698826629,1,0.999538
0.9999999595303515,1,0.999557
0.9999999998127717,1,0.999552
0.9999999999946243,1,0.999560
0.9999999999999796,1,0.999551
1.0,1,0.999451
0.9999999999999996,1,0.999601
1.0,1,0.999615
0.9999999999999972,1,0.999578
1.0,1,0.999552
0.9999999999999979,1,0.999605
0.9999999999999961,1,0.999578
0.9999999999999984,1,0.999657
0.9999999999999974,1,0.999616
1.0,1,0.999620
1.0,1,0.999589
1.0,1,0.999684
1.0,1,0.999627
1.0,1,0.999615
1.0,1,0.999538
1.0,1,0.998903
0.9999999999999994,1,0.999218
0.9999999999999986,1,0.999589
1.0,1,0.999616
0.999999999999998,1,0.999618
1.0,1,0.999485
1.0,1,0.999273
1.0,1,0.999674
0.999999999999999,1,0.999607
1.0,1,0.999550
0.9999999999999992,1,0.999612
0.9999999999999942,1,0.999499
0.9999999999999994,1,0.999342
1.0,1,0.999656
1.0,1,0.999651
1.0,1,0.999605
1.0,1,0.999568
0.9999999999999977,1,0.999562
1.0,1,0.999427
1.0,1,0.999473
0.9999999999999998,1,0.999623
1.0,1,0.999527
1.0,1,0.999283
0.9999999999999968,1,0.999480
1.0,1,0.999035
1.0,1,0.999549
0.9999999999999999,1,0.999439
0.9999999999999959,1,0.999228
1.0,1,0.999361
1.0,1,0.999550
1.0,1,0.999460
0.9999999999999958,1,0.999667
1.0,1,0.999558
1.0,1,0.999466
1.0,1,0.999509
1.0,1,0.999682
0.9999999999999994,1,0.999696
0.9999999999999989,1,0.999600
0.9999999999999986,1,0.999572
1.0,1,0.999487
0.9999999999999979,1,0.999550
1.0,1,0.999548
0.9999999999999991,1,0.999237
1.0,1,0.999148
1.0,1,0.998764
1.0,1,0.999050
0.9999999999999979,1,0.999695
1.0,1,0.999565
0.9999999999999981,1,0.999511
1.0,1,0.999563
0.9999999999999972,1,0.999548
0.9999999999999957,1,0.999646
1.0,1,0.999579
0.9999999999999989,1,0.999545
1.0,1,0.999627
0.999999999999998,1,0.999622
1.0,1,0.999645
1.0,1,0.999542
1.0,1,0.999611
0.999999999999998,1,0.999621
1.0,1,0.999625
0.9999999999999998,1,0.999591
0.999999999999999,1,0.999390
0.9999999999999999,1,0.999525
1.0,1,0.999530
1.0,1,0.999650
1.0,1,0.999621
0.999999999999999,1,0.999474
0.9999999999999988,1,0.999623
1.0,1,0.999551
0.9999999999999991,1,0.999692
1.0,1,0.999529
1.0,1,0.999660
1.0,1,0.999349
1.0,1,0.999672
1.0,1,0.999638
1.0,1,0.999524
0.9999999999999987,1,0.999451
0.9999999999999968,1,0.999497
0.9999999999999989,1,0.999572
0.9999999999999969,1,0.999590
1.0,1,0.999603
1.0,1,0.999662
1.0,1,0.999482
1.0,1,0.999632
0.9999999999999949,1,0.999602
0.9999999999999992,1,0.999489
0.9999999999999986,1,0.999533
0.9999999999999984,1,0.999478
1.0,1,0.999600
1.0,1,0.999580
1.0,1,0.999517
1.0,1,0.999451
1.0,1,0.999605
0.9999999999999963,1,0.999684
1.0,1,0.999581
1.0,1,0.999547
1.0,1,0.999573
0.999999999999997,1,0.999537
1.0,1,0.999551
0.9999999999999986,1,0.999628
1.0,1,0.999552
0.999999999999996,1,0.999358
0.9999999999999964,1,0.999260
1.0,1,0.999517
0.9999999999999981,1,0.999617
0.9999999999999979,1,0.999592
1.0,1,0.999588
1.0,1,0.999601
0.9999999999999998,1,0.999496
0.9999999999999974,1,0.999681
1.0,1,0.999607
1.0,1,0.999472
0.999999999999999,1,0.999587
1.0,1,0.999661
1.0,1,0.999616
1.0,1,0.999655
0.9999999999999956,1,0.999613
1.0,1,0.999655
1.0,1,0.999451
1.0,1,0.999329
1.0,1,0.999444
1.0,1,0.999666
1.0,1,0.999667
0.999999999999998,1,0.999394
1.0,1,0.999409
1.0,1,0.999505
1.0,1,0.999431
0.9999999999999966,1,0.999511
0.9999999999999972,1,0.999495
0.9999999999999994,1,0.999495
0.9999999999999993,1,0.999672
0.9999999999999988,1,0.999560
0.9999999999999954,1,0.999539
1.0,1,0.999373
0.9999999999999974,1,0.999472
0.9999999999999978,1,0.999510
0.9999999999999977,1,0.999545
1.0,1,0.999599
0.9999999999999958,1,0.999600
1.0,1,0.999611
0.9999999999999989,1,0.999492
0.9999999999999989,1,0.999488
1.0,1,0.999565
0.9999999999999997,1,0.999678
1.0,1,0.999531
1.0,1,0.999646
0.9999999999999966,1,0.999554
0.9999999999999981,1,0.999597
0.9999999999999977,1,0.999666
0.9999999999999996,1,0.999634
1.0,1,0.999537
1.0,1,0.999398
1.0,1,0.999607
0.999999999999999,1,0.999546
0.9999999999999998,1,0.999064
1.0,1,0.999488
1.0,1,0.999559
1.0,1,0.999569
0.9999999999999964,1,0.999622
0.9999999999999988,1,0.999477
1.0,1,0.999642
1.0,1,0.999511
1.0,1,0.999326
0.9999999999999953,1,0.999632
0.9999999999999988,1,0.999294
1.0,1,0.999606
1.0,1,0.999613
1.0,1,0.999495
1.0,1,0.999648
0.9999999999999999,1,0.999666
0.9999999999999996,1,0.999654
1.0,1,0.999388
1.0,1,0.999684
0.999999999999999,1,0.999667
0.9999999999999964,1,0.999680
1.0,1,0.999624
1.0,1,0.999227
1.0,1,0.999526
0.9999999999999959,1,0.999603
1.0,1,0.999604
0.9999999999999973,1,0.999590
0.9999999999999997,1,0.999633
1.0,1,0.999057
1.0,1,0.999522
0.9999999999999963,1,0.999517
1.0,1,0.999636
0.9999999999999986,1,0.999667
1.0,1,0.999473
1.0,1,0.999543
0.9999999999999959,1,0.999550
1.0,1,0.999587
1.0,1,0.999676
1.0,1,0.999617
1.0,1,0.999493
1.0,1,0.999592
0.9999999999999941,1,0.999670
1.0,1,0.999360
1.0,1,0.999346
1.0,1,0.999450
0.9999999999999939,1,0.999448
0.9999999999999993,1,0.999510
0.9999999999999973,1,0.999572
1.0,1,0.999588
0.9999999999999979,1,0.999674
0.9999999999999989,1,0.999593
0.9999999999999991,1,0.999575
1.0,1,0.999529
0.999999999999998,1,0.999675
1.0,1,0.999628
1.0,1,0.999505
0.9999999999999968,1,0.999577
0.9999999999999942,1,0.999633
0.9999999999999994,1,0.999462
0.999999999999998,1,0.999647
0.9999999999999974,1,0.999471
1.0,1,0.999418
1.0,1,0.999260
0.9999999999999971,1,0.998951
1.0,1,0.999225
0.9999999999999966,1,0.998350
1.0,1,0.999218
1.0,1,0.998328
0.9999999999999984,1,0.999597
1.0,1,0.999571
0.9999999999999986,1,0.999543
0.9999999999999971,1,0.999449
1.0,1,0.999558
1.0,1,0.999469
1.0,1,0.999478
0.9999999999999984,1,0.999621
1.0,1,0.999652
0.9999999999999962,1,0.999392
1.0,1,0.999253
0.9999999999999984,1,0.999614
0.9999999999999987,1,0.999658
1.0,1,0.999616
1.0,1,0.999618
1.0,1,0.999600
0.9999999999999977,1,0.999664
0.9999999999999992,1,0.999625
1.0,1,0.999618
0.9999999999999993,1,0.999649
0.9999999999999983,1,0.999637
1.0,1,0.999481
0.9999999999999968,1,0.999501
0.9999999999999981,1,0.999476
1.0,1,0.999459
0.9999999999999973,1,0.999368
0.9999999999999972,1,0.999382
0.9999999999999984,1,0.998932
0.9999999999999989,1,0.998943
1.0,1,0.997783
1.0,1,0.999454
0.9999999999999993,1,0.999683
0.9999999999999979,1,0.999331
0.999999999999996,1,0.999256
0.9999999999999993,1,0.999180
0.9999528363842248,1,0.999657
0.9999195523411326,1,0.999534
0.999999999465415,1,0.999640
0.9999999999866432,1,0.999410
0.9999999999991459,1,0.998818
0.9999999999999959,1,0.999476
1.0,1,0.999260
1.0,1,0.999424
1.0,1,0.999560
1.0,1,0.999263
0.9999999999999992,1,0.999532
0.9999999999999999,1,0.999416
0.9999999999999996,1,0.999394
0.9999999999999996,1,0.999687
1.0,1,0.999624
1.0,1,0.998880
0.999999999999996,1,0.999456
0.9999999999999973,1,0.999258
0.9999999999999974,1,0.999431
0.9999999999999998,1,0.999574
0.9999999999999983,1,0.999592
0.9999999999999971,1,0.999562
0.9999999999999964,1,0.999619
1.0,1,0.999543
0.9999999999999974,1,0.999349
0.9999999999999956,1,0.999620
1.0,1,0.999581
1.0,1,0.999606
0.9999999999999993,1,0.999409
0.9999999999999982,1,0.999595
0.9999999999999946,1,0.999437
0.9999999999999994,1,0.999287
1.0,1,0.999415
1.0,1,0.999316
0.9999999999999984,1,0.999607
0.9999999999999971,1,0.999613
0.9999999999999981,1,0.999642
1.0,1,0.999304
0.9999999999999979,1,0.999407
1.0,1,0.999468
1.0,1,0.999511
1.0,1,0.999595
0.9999999999999983,1,0.999440
1.0,1,0.999466
1.0,1,0.999357
1.0,1,0.999557
1.0,1,0.999616
1.0,1,0.999641
1.0,1,0.999555
1.0,1,0.999661
1.0,1,0.999560
0.9999999999999949,1,0.999652
1.0,1,0.999461
0.9999999999999997,1,0.999567
1.0,1,0.999525
0.9999999999999968,1,0.999607
0.9999999999999998,1,0.999558
1.0,1,0.999544
0.9999999999999967,1,0.999531
1.0,1,0.999556
0.999999999999999,1,0.999376
1.0,1,0.998967
0.9999999999999991,1,0.999441
1.0,1,0.999668
0.9999999999999983,1,0.999536
1.0,1,0.999638
1.0,1,0.999439
0.9999999999999969,1,0.999325
0.9999999999999997,1,0.999582
0.9999999999999956,1,0.999594
1.0,1,0.999292
1.0,1,0.999295
1.0,1,0.999575
1.0,1,0.999494
0.9999999999999987,1,0.999390
1.0,1,0.999296
0.9999999999999976,1,0.999302
1.0,1,0.999361
1.0,1,0.999209
0.9999999999999991,1,0.999501
1.0,1,0.999509
0.9999999999999988,1,0.999619
0.9999999999999978,1,0.999553
1.0,1,0.999438
0.9999999999999989,1,0.999433
1.0,1,0.999353
0.9999999999999981,1,0.999598
1.0,1,0.999584
1.0,1,0.999589
0.999999999999997,1,0.999566
0.9999999999999966,1,0.999537
1.0,1,0.999560
0.999999999999996,1,0.999629
0.9999999999999971,1,0.999307
1.0,1,0.999549
0.9999999999999996,1,0.999408
0.9999999999999986,1,0.999689
0.9999999999999998,1,0.999562
0.9999999999999986,1,0.999431
1.0,1,0.999514
0.9999999999999984,1,0.999340
0.999999999999997,1,0.999588
0.999999999999997,1,0.999508
1.0,1,0.999441
1.0,1,0.999572
1.0,1,0.999523
1.0,1,0.999546
1.0,1,0.999122
0.9999999999999966,1,0.998693
1.0,1,0.999521
0.9999999999999999,1,0.999677
0.9999999999999977,1,0.999648
0.9999999999999998,1,0.999647
0.9999999999999983,1,0.999349
0.9999999999999984,1,0.999497
0.9999999999999994,1,0.999476
1.0,1,0.999594
1.0,1,0.999620
0.9999999999999962,1,0.999512
0.9999999999999981,1,0.999602
1.0,1,0.999621
0.9999999999999976,1,0.999643
1.0,1,0.999573
0.9999999999999997,1,0.999550
0.9999999999999982,1,0.999535
1.0,1,0.999589
1.0,1,0.999620
0.9999999999999946,1,0.999627
1.0,1,0.999418
1.0,1,0.999605
0.9999999999999986,1,0.999673
0.9999999999999991,1,0.999522
0.9999999999999993,1,0.999550
1.0,1,0.999588
0.9999999999999982,1,0.999558
1.0,1,0.999613
0.9999999999999973,1,0.999421
0.9999999999999974,1,0.999456
0.9999999999999974,1,0.999411
1.0,1,0.999478
0.9999999999999986,1,0.999386
1.0,1,0.999619
1.0,1,0.999635
1.0,1,0.999591
1.0,1,0.999432
1.0,1,0.999678
0.9999999999999991,1,0.999632
0.9999999999999979,1,0.999581
1.0,1,0.999652
0.9999999999999984,1,0.999639
1.0,1,0.999619
1.0,1,0.999491
0.9999999999999996,1,0.999387
0.9999999999999998,1,0.999627
1.0,1,0.999649
0.9999999999999957,1,0.999631
1.0,1,0.999299
1.0,1,0.999501
0.9999999999999984,1,0.999479
1.0,1,0.999584
0.9999999999999999,1,0.999498
1.0,1,0.999495
1.0,1,0.999525
1.0,1,0.999413
0.9999999999999988,1,0.999426
0.9999999999999987,1,0.999533
0.9999999999999991,1,0.999613
1.0,1,0.999603
1.0,1,0.999592
0.9999999999999963,1,0.999575
1.0,1,0.999617
1.0,1,0.999627
1.0,1,0.999629
0.9999999999999963,1,0.999510
1.0,1,0.999485
1.0,1,0.999654
0.9999999999999983,1,0.999611
0.9999999999999984,1,0.999614
0.9999999999999928,1,0.999556
1.0,1,0.999631
0.9999999999999979,1,0.999654
1.0,1,0.999447
0.9999999999999983,1,0.999508
1.0,1,0.999473
0.9999999999999969,1,0.999349
1.0,1,0.999490
0.9999999999999982,1,0.999552
0.9999999999999977,1,0.999511
0.9999999999999989,1,0.999576
1.0,1,0.999380
1.0,1,0.999485
1.0,1,0.999640
0.9999999999999991,1,0.999597
1.0,1,0.999677
0.9999999999999997,1,0.999573
1.0,1,0.999455
0.9999999999999989,1,0.999524
1.0,1,0.999652
1.0,1,0.999509
0.9999999999999988,1,0.999631
1.0,1,0.999522
0.9999999999999998,1,0.999533
1.0,1,0.999607
1.0,1,0.999567
1.0,1,0.999573
0.9999999999999991,1,0.999586
0.9999999999999964,1,0.999561
1.0,1,0.999587
0.9999999999999984,1,0.999558
1.0,1,0.999637
1.0,1,0.999567
0.9999999999999939,1,0.999569
1.0,1,0.999429
0.9999999999999992,1,0.999682
0.9999999999999982,1,0.999592
1.0,1,0.999653
1.0,1,0.999592
1.0,1,0.999603
1.0,1,0.999622
1.0,1,0.999123
1.0,1,0.999444
1.0,1,0.999666
1.0,1,0.999489
1.0,1,0.999578
1.0,1,0.999551
0.9999999999999982,1,0.999390
1.0,1,0.999615
1.0,1,0.999588
1.0,1,0.999686
0.9999999999999941,1,0.999638
0.999999999999997,1,0.999615
1.0,1,0.999598
1.0,1,0.999635
1.0,1,0.999678
0.9999999999999982,1,0.999586
0.9999999999999968,1,0.999592
1.0,1,0.999620
1.0,1,0.999593
0.9999999999999987,1,0.999414
0.9999999999999996,1,0.999227
1.0,1,0.999607
1.0,1,0.999567
0.9999999999999992,1,0.999637
1.0,1,0.999641
0.9999999999999996,1,0.999545
0.9999999999999979,1,0.999584
0.9999999999999959,1,0.999519
1.0,1,0.999556
0.9999999999999968,1,0.999523
1.0,1,0.999608
1.0,1,0.999603
0.9999999999999996,1,0.999580
0.9999999999999986,1,0.999484
0.9999999999999988,1,0.999545
1.0,1,0.999559
0.9999999999999942,1,0.999556
0.9999999999999983,1,0.999560
1.0,1,0.999643
0.9999999999999984,1,0.999596
0.9999999999999952,1,0.999524
1.0,1,0.999517
1.0,1,0.999638
0.9999999999999968,1,0.999532
0.9999999999999976,1,0.999519
0.9999999999999981,1,0.998857
1.0,1,0.999635
0.9999999999999962,1,0.999694
0.9999999999999976,1,0.999597
0.9997299529799746,1,0.999649
0.9999214096743057,1,0.999587
0.9999995272754268,1,0.999438
0.9999999819354539,1,0.999597
0.9999999989819734,1,0.999613
0.9999999999882203,1,0.999075
0.999999999999575,1,0.999403
0.9999999999999979,1,0.999512
1.0,1,0.999688
0.9999999999999987,1,0.999636
1.0,1,0.999623
1.0,1,0.999489
0.9999999999999993,1,0.999639
1.0,1,0.999543
0.9999999999999974,1,0.999608
1.0,1,0.999508
1.0,1,0.999564
1.0,1,0.999594
1.0,1,0.999645
0.9999999999999984,1,0.999172
1.0,1,0.998344
0.9999999999999971,1,0.999182
0.9999999999999986,1,0.998626
1.0,1,0.999393
1.0,1,0.999589
1.0,1,0.999482
0.9999999999999967,1,0.999526
0.9999999999999988,1,0.998840
1.0,1,0.999476
1.0,1,0.999206
0.9999999999999957,1,0.999490
0.9999999999999987,1,0.999460
0.9999999999999997,1,0.999394
0.9999999999999972,1,0.999470
0.9998524426463821,1,0.999624
0.999996678660477,1,0.999677
0.9999996507705868,1,0.999523
0.9999999695692932,1,0.999661
0.9999999947931841,1,0.999502
0.9999999999138882,1,0.999511
0.9999999999824863,1,0.999438
0.99999999999625,1,0.999494
0.9999999999999408,1,0.999605
0.9999999999999959,1,0.999496
1.0,1,0.999674
0.999999999999999,1,0.999696
1.0,1,0.999556
0.9999999999999996,1,0.999637
0.9999999999999959,1,0.999430
0.9999999999999959,1,0.999517
0.9999999999999997,1,0.999314
0.9999999999999991,1,0.999577
1.0,1,0.999003
1.0,1,0.999249
0.9999999999999969,1,0.999213
0.9999999999999996,1,0.998829
0.9999999999999998,1,0.999101
0.9999999999999988,1,0.998912
1.0,1,0.999593
0.9999999999999951,1,0.999343
0.9999999999999984,1,0.999378
0.9999999999999968,1,0.999389
0.9999999999999991,1,0.999593
1.0,1,0.999339
0.9999999999999997,1,0.999161
1.0,1,0.998934
0.9999999999999977,1,0.998962
1.0,1,0.999542
0.9999999999999984,1,0.999636
1.0,1,0.999565
0.9999999999999972,1,0.999604
0.9999999999999999,1,0.999519
0.9999999999999983,1,0.999541
0.9999999999999988,1,0.999565
1.0,1,0.999321
1.0,1,0.999284
0.9999999999999962,1,0.999689
1.0,1,0.999566
0.9999999999999981,1,0.999529
1.0,1,0.999542
0.9999999999999978,1,0.999672
1.0,1,0.999663
0.9999999999999992,1,0.999519
0.9999999999999978,1,0.999618
0.9999999999999991,1,0.999591
1.0,1,0.999633
1.0,1,0.999565
0.9999999999999996,1,0.999473
1.0,1,0.999438
1.0,1,0.999688
0.9999999999999987,1,0.999603
1.0,1,0.999549
0.9999999999999993,1,0.999599
0.9999999999999984,1,0.999537
1.0,1,0.999512
1.0,1,0.999522
1.0,1,0.999465
0.9999999999999966,1,0.999593
0.9999999999999982,1,0.999555
0.999999999999999,1,0.999563
1.0,1,0.999638
0.9999999999999979,1,0.999636
1.0,1,0.999506
1.0,1,0.999377
0.9999999999999986,1,0.999448
0.9999999999999978,1,0.999617
0.9999999999999978,1,0.999561
1.0,1,0.999541
1.0,1,0.999482
1.0,1,0.999519
1.0,1,0.999622
1.0,1,0.999629
0.9999999999999996,1,0.999622
0.9999999999999998,1,0.999624
1.0,1,0.999627
1.0,1,0.999639
0.9999999999999951,1,0.999615
1.0,1,0.999521
1.0,1,0.999615
0.9999999999999997,1,0.999413
1.0,1,0.999176
1.0,1,0.999532
0.9999999999999991,1,0.999536
0.9999999999999964,1,0.999685
1.0,1,0.999540
1.0,1,0.999583
0.999999999999998,1,0.999651
0.9999999999999954,1,0.999575
1.0,1,0.999562
0.9999999999999996,1,0.999618
0.9999999999999994,1,0.999526
0.9999999999999971,1,0.999599
1.0,1,0.999566
1.0,1,0.999656
0.9999999999999999,1,0.999677
0.9999999999999971,1,0.999639
0.9999999999999981,1,0.999586
1.0,1,0.999538
1.0,1,0.999272
1.0,1,0.998483
0.9999999999999977,1,0.999539
0.9999999999999993,1,0.999451
0.9999999999999998,1,0.999472
1.0,1,0.999487
1.0,1,0.999357
1.0,1,0.999490
0.9999999999999963,1,0.999560
0.9999999999999997,1,0.999614
1.0,1,0.999568
1.0,1,0.999552
0.9999999999999982,1,0.999593
1.0,1,0.999576
1.0,1,0.999613
1.0,1,0.999506
1.0,1,0.999615
1.0,1,0.999566
0.9999999999999997,1,0.999464
0.9999999999999997,1,0.999630
1.0,1,0.999515
0.9999999999999976,1,0.999614
0.9999999999999972,1,0.999408
1.0,1,0.999692
0.9999999999999982,1,0.999593
0.9999999999999989,1,0.999611
1.0,1,0.999498
1.0,1,0.999275
1.0,1,0.999463
1.0,1,0.999605
1.0,1,0.999673
1.0,1,0.999562
1.0,1,0.999593
0.9999999999999963,1,0.999510
1.0,1,0.999635
1.0,1,0.999458
0.999999999999997,1,0.999559
1.0,1,0.999668
1.0,1,0.999421
0.9999999999999972,1,0.999678
1.0,1,0.999613
1.0,1,0.999680
1.0,1,0.998830
1.0,1,0.999080
0.9999999999999997,1,0.999587
1.0,1,0.999475
1.0,1,0.999017
1.0,1,0.999399
0.9999999999999984,1,0.999654
0.9999999999999994,1,0.999564
1.0,1,0.999674
0.9999999999999991,1,0.999430
0.9999999999999997,1,0.999508
0.9999999999999983,1,0.999594
0.9999999999999959,1,0.999664
1.0,1,0.999431
1.0,1,0.999351
1.0,1,0.999660
0.9999999999999989,1,0.999478
1.0,1,0.999364
0.9999999999999928,1,0.999630
1.0,1,0.999553
1.0,1,0.999489
1.0,1,0.999628
1.0,1,0.999646
1.0,1,0.999608
0.9999999999999996,1,0.999580
0.9999999999999992,1,0.999651
1.0,1,0.999670
1.0,1,0.999612
1.0,1,0.999569
0.9999999999999996,1,0.999563
1.0,1,0.999525
1.0,1,0.999306
0.999999999999998,1,0.998935
0.999999999999999,1,0.999206
1.0,1,0.999203
1.0,1,0.998837
0.9999999999999951,1,0.999002
0.9999999999999988,1,0.999571
0.9999999999999989,1,0.999481
0.9999999999999996,1,0.999200
0.9999999999999992,1,0.999464
1.0,1,0.999615
0.9999999999999958,1,0.999639
0.9999999999999981,1,0.999583
1.0,1,0.999538
0.9999999999999953,1,0.999614
0.9999999999999959,1,0.999464
0.9999999999999964,1,0.999692
0.9999999999999979,1,0.999504
1.0,1,0.997792
1.0,1,0.997743
0.9999999999999989,1,0.998466
1.0,1,0.998311
0.9999999999999954,1,0.999021
0.9999999999999987,1,0.998285
0.9999999999999987,1,0.999197
1.0,1,0.999589
0.9999999999999993,1,0.999567
0.9999999999999991,1,0.999504
0.9999999999999982,1,0.999600
1.0,1,0.999681
0.9999999999999994,1,0.999600
1.0,1,0.999660
0.9999999999999978,1,0.999557
1.0,1,0.999620
0.9999999999999988,1,0.999600
0.9999999999999973,1,0.999294
1.0,1,0.999559
0.9999999999999979,1,0.999656
1.0,1,0.999619
0.9999999999999994,1,0.999614
1.0,1,0.999672
1.0,1,0.999623
0.9999999999999994,1,0.999545
1.0,1,0.999562
0.9999999999999974,1,0.999518
0.9999999999999958,1,0.999320
1.0,1,0.999266
0.9999999999999976,1,0.998998
0.9999999999999999,1,0.998999
1.0,1,0.999342
0.9999999999999981,1,0.999613
1.0,1,0.998880
1.0,1,0.999191
1.0,1,0.999548
0.9999999999999994,1,0.999555
0.9999999999999911,1,0.999071
0.9999999999999969,1,0.999691
1.0,1,0.999603
0.9999999999999964,1,0.999572
0.9999999999999986,1,0.999528
1.0,1,0.999417
0.9999999999999994,1,0.999549
0.9999999999999982,1,0.999656
0.9999999999999973,1,0.999576
1.0,1,0.999468
1.0,1,0.999653
0.9999999999999987,1,0.999524
0.9999999999999986,1,0.999362
1.0,1,0.999250
0.9999999999999993,1,0.998974
0.9999999999999971,1,0.999411
0.9999999999999968,1,0.999590
1.0,1,0.999322
0.9999999999999981,1,0.999358
1.0,1,0.999635
1.0,1,0.999693
0.9999999999999996,1,0.999610
0.9999999999999973,1,0.999566
1.0,1,0.999593
1.0,1,0.999376
1.0,1,0.999681
1.0,1,0.999580
1.0,1,0.999593
0.9999999999999993,1,0.999522
0.9999999999999994,1,0.999136
0.9999999999999998,1,0.999539
0.9999999999999946,1,0.999529
1.0,1,0.999518
0.9999999999999986,1,0.999581
1.0,1,0.999568
1.0,1,0.999666
0.9999999999999997,1,0.999613
0.9999999999999973,1,0.999641
1.0,1,0.999356
1.0,1,0.999476
0.9999999999999999,1,0.998911
0.9999999999999973,1,0.999683
1.0,1,0.999290
1.0,1,0.999168
0.9999999999999996,1,0.999586
0.9999999999999998,1,0.999546
0.9999999999999992,1,0.999623
0.9999999999999999,1,0.999187
1.0,1,0.999604
1.0,1,0.999584
0.9999999999999971,1,0.999256
1.0,1,0.999266
0.9999999999999988,1,0.999517
0.9999999999999948,1,0.999559
1.0,1,0.999580
1.0,1,0.999421
0.9999999999999993,1,0.999301
0.999999999999999,1,0.999608
1.0,1,0.999445
0.9999999999999972,1,0.999545
1.0,1,0.999571
1.0,1,0.999473
0.999999999999999,1,0.999612
1.0,1,0.999455
1.0,1,0.999554
1.0,1,0.999394
1.0,1,0.999538
1.0,1,0.999681
0.9999999999999988,1,0.999594
0.9999999999999969,1,0.999657
1.0,1,0.999601
1.0,1,0.999595
1.0,1,0.999603
0.9999999999999998,1,0.999510
1.0,1,0.999534
0.9999999999999979,1,0.999498
0.9999999999999967,1,0.999422
1.0,1,0.999513
0.9999999999999976,1,0.999249
1.0,1,0.999059
1.0,1,0.999439
0.9999999999999958,1,0.999585
0.9999999999999979,1,0.999578
0.9999999999999973,1,0.999644
0.999999999999998,1,0.999570
1.0,1,0.999475
1.0,1,0.999667
0.9999999999999983,1,0.999684
1.0,1,0.999531
1.0,1,0.999663
0.9999999999999977,1,0.999653
0.9999999999999977,1,0.999621
1.0,1,0.999489
1.0,1,0.999469
0.9999999999999968,1,0.999493
1.0,1,0.999299
0.999999999999999,1,0.999422
1.0,1,0.999544
0.9999999999999996,1,0.999516
1.0,1,0.999509
0.9999999999999972,1,0.999624
1.0,1,0.999550
0.9999999999999942,1,0.999587
0.9999999999999972,1,0.999622
1.0,1,0.999531
1.0,1,0.999475
1.0,1,0.999274
1.0,1,0.998684
1.0,1,0.999585
1.0,1,0.999570
0.999999999999999,1,0.999433
0.9999999999999968,1,0.999429
1.0,1,0.999528
0.9999999999999983,1,0.999293
0.9999999999999978,1,0.999578
0.9999999999999967,1,0.999423
1.0,1,0.999588
1.0,1,0.999582
0.9999999999999991,1,0.999632
1.0,1,0.999421
1.0,1,0.999575
0.9999999999999987,1,0.999588
0.9999999999999967,1,0.999626
0.9999999999999997,1,0.999448
1.0,1,0.999688
1.0,1,0.999548
0.9999999999999983,1,0.999611
0.9999999999999977,1,0.999573
0.999999999999999,1,0.999576
1.0,1,0.999413
0.9999999999999993,1,0.999560
1.0,1,0.999560
1.0,1,0.999547
0.9999999999999991,1,0.999435
1.0,1,0.999596
1.0,1,0.999328
0.9999999999999979,1,0.998641
0.9999999999999987,1,0.999187
1.0,1,0.999156
0.9999999999999992,1,0.998924
1.0,1,0.998873
1.0,1,0.998810
0.9999999999999984,1,0.999106
1.0,1,0.999190
0.9999999999999991,1,0.999627
0.9999999999999989,1,0.999555
0.9999999999999972,1,0.999479
0.9999999999999991,1,0.999621
0.9999999999999976,1,0.999572
0.9999999999999998,1,0.998964
1.0,1,0.999167
0.9999999999999997,1,0.999594
1.0,1,0.999344
0.9999999999999981,1,0.999176
1.0,1,0.999077
0.9999999999999989,1,0.999168
1.0,1,0.999421
0.9999999999999978,1,0.999593
0.999999999999995,1,0.999613
1.0,1,0.999491
1.0,1,0.999529
1.0,1,0.999490
0.9999999999999977,1,0.999439
0.999999999999998,1,0.999537
0.999999999999997,1,0.999575
1.0,1,0.999124
0.9999999999999983,1,0.999581
0.999999999999997,1,0.999504
0.9999999999999964,1,0.999414
1.0,1,0.999625
1.0,1,0.999224
0.9999999999999982,1,0.999531
1.0,1,0.999672
1.0,1,0.999456
0.9999999999999998,1,0.999608
0.9999999999999984,1,0.999564
1.0,1,0.999446
1.0,1,0.999245
1.0,1,0.999656
1.0,1,0.999684
1.0,1,0.999660
1.0,1,0.999576
0.9999999999999998,1,0.999695
1.0,1,0.999594
0.9999999999999964,1,0.999578
0.9999999999999997,1,0.999494
1.0,1,0.998897
1.0,1,0.999471
1.0,1,0.999596
1.0,1,0.999514
1.0,1,0.999490
1.0,1,0.999537
1.0,1,0.999577
0.9999999999999994,1,0.999522
1.0,1,0.999546
1.0,1,0.999251
1.0,1,0.999183
1.0,1,0.999632
1.0,1,0.999529
0.9999999999999963,1,0.999623
0.9999999999999984,1,0.999408
0.9999999999999984,1,0.999631
0.9999999999999977,1,0.999586
1.0,1,0.999522
0.9999999999999989,1,0.999577
0.9999999999999968,1,0.999659
0.9999999999999999,1,0.999585
0.9999999999999953,1,0.999682
1.0,1,0.999467
1.0,1,0.999434
0.9999999999999978,1,0.999336
0.9999999999999964,1,0.999356
1.0,1,0.999632
1.0,1,0.999637
0.9999999999999998,1,0.999583
0.9999999999999972,1,0.999629
0.9999999999999964,1,0.999523
0.9999999999999984,1,0.999570
0.9999999999999953,1,0.999255
1.0,1,0.999424
0.9999999999999968,1,0.999631
1.0,1,0.999588
1.0,1,0.999653
1.0,1,0.999641
1.0,1,0.999643
0.9999999999999984,1,0.999510
1.0,1,0.999374
0.9999999999999959,1,0.999581
1.0,1,0.999691
0.9999999999999982,1,0.999616
0.9999999999999994,1,0.999563
1.0,1,0.999295
1.0,1,0.998938
0.999999999999998,1,0.999439
1.0,1,0.999466
1.0,1,0.999184
1.0,1,0.998865
1.0,1,0.999622
0.999999999999997,1,0.999585
0.9999999999999999,1,0.999583
1.0,1,0.999224
1.0,1,0.999620
0.9999999999999959,1,0.999494
0.9999999999999999,1,0.999689
0.9999999999999946,1,0.999689
0.9999999999999986,1,0.999417
0.9999999999999998,1,0.999411
0.9999999999999978,1,0.999212
0.9999999999999996,1,0.999418
0.9999999999999996,1,0.999622
0.9999999999999988,1,0.999558
0.9999999999999972,1,0.999548
0.9999999999999967,1,0.999635
1.0,1,0.999481
1.0,1,0.999387
1.0,1,0.999540
0.9999999999999989,1,0.999314
0.9999999999999977,1,0.999599
1.0,1,0.999669
0.9999999999999968,1,0.999581
1.0,1,0.999568
1.0,1,0.999558
1.0,1,0.999617
0.9999999999999993,1,0.999572
1.0,1,0.999528
0.9999999999999984,1,0.999453
1.0,1,0.999424
0.9999999999999988,1,0.999568
1.0,1,0.999599
0.999999999999995,1,0.999679
1.0,1,0.999498
1.0,1,0.999614
1.0,1,0.999622
1.0,1,0.999466
0.9999999999999988,1,0.999590
1.0,1,0.999395
0.9999999999999974,1,0.999533
1.0,1,0.999593
1.0,1,0.999602
0.9999999999999997,1,0.999258
0.9999999999999984,1,0.999020
1.0,1,0.999534
0.9999999999999974,1,0.999511
0.9999999999999986,1,0.999461
0.9999999999999947,1,0.999407
1.0,1,0.999415
1.0,1,0.999559
1.0,1,0.999250
1.0,1,0.999445
0.9999999999999974,1,0.999634
1.0,1,0.999493
0.999999999999999,1,0.999377
0.9999999999999954,1,0.999633
0.9999999999999993,1,0.999452
1.0,1,0.999379
1.0,1,0.999604
1.0,1,0.999601
0.9999999999999974,1,0.999629
0.9999999999999984,1,0.999297
0.9999999999999973,1,0.999252
0.9999999999999978,1,0.999509
0.9999999999999997,1,0.999532
1.0,1,0.999540
1.0,1,0.999574
0.9999999999999989,1,0.999576
1.0,1,0.998571
1.0,1,0.998990
1.0,1,0.999689
0.9999999999999971,1,0.998544
1.0,1,0.999365
0.9999999999999972,1,0.999639
0.9999999999999954,1,0.999645
1.0,1,0.999560
0.9999999999999998,1,0.999145
1.0,1,0.999534
1.0,1,0.999451
1.0,1,0.999281
1.0,1,0.999436
0.9999999999999951,1,0.998997
1.0,1,0.999196
0.9999999999999962,1,0.999243
0.9999999999999983,1,0.998425
1.0,1,0.999654
1.0,1,0.999535
0.999999999999998,1,0.999206
1.0,1,0.999550
1.0,1,0.999118
1.0,1,0.998768
0.9999999999999979,1,0.999415
0.9999999999999962,1,0.999583
0.9999999999999973,1,0.999494
1.0,1,0.999493
0.9999999999999989,1,0.999690
0.9999999999999957,1,0.999615
0.9999999999999989,1,0.999460
0.9999999999999976,1,0.999663
0.9999999999999983,1,0.999384
0.9999999999999974,1,0.999291
0.9999999999999993,1,0.999568
1.0,1,0.999680
1.0,1,0.999655
0.9999999999999989,1,0.999598
0.999999999999998,1,0.999434
1.0,1,0.999165
1.0,1,0.999291
0.9999999999999979,1,0.999571
0.9999999999999996,1,0.999506
1.0,1,0.999578
1.0,1,0.999503
0.9999999999999986,1,0.999539
0.9999999999999998,1,0.999631
0.9999999999999987,1,0.999339
1.0,1,0.999650
0.9999999999999982,1,0.999585
1.0,1,0.999244
1.0,1,0.999469
1.0,1,0.999678
0.9999999999999992,1,0.999377
1.0,1,0.999344
0.9999999999999964,1,0.999630
0.9999999999999999,1,0.999650
1.0,1,0.999569
1.0,1,0.999624
1.0,1,0.999563
1.0,1,0.999659
0.9999999999999991,1,0.999626
1.0,1,0.999422
1.0,1,0.999680
1.0,1,0.999501
0.9999999999999983,1,0.999513
1.0,1,0.999658
1.0,1,0.999515
0.9999999999999928,1,0.999493
0.9999999999999959,1,0.999544
1.0,1,0.999548
0.9999999999999989,1,0.999499
1.0,1,0.999681
0.9999999999999964,1,0.999644
1.0,1,0.999652
0.9999999999999996,1,0.999483
1.0,1,0.999629
0.9999999999999987,1,0.999678
1.0,1,0.999563
0.9999999999999998,1,0.999634
0.9999999999999978,1,0.999577
1.0,1,0.999616
0.9999999999999964,1,0.999620
0.9999999999999954,1,0.999534
0.9999999999999991,1,0.999582
1.0,1,0.999477
0.9999999999999998,1,0.999612
0.9999999999999946,1,0.999608
0.9999999999999986,1,0.999558
0.9999999999999986,1,0.999371
1.0,1,0.999484
1.0,1,0.999486
1.0,1,0.999645
1.0,1,0.999567
1.0,1,0.999587
0.9999999999999984,1,0.999566
0.9999999999999999,1,0.999599
0.999999999999998,1,0.999611
1.0,1,0.999624
1.0,1,0.999572
0.9999999999999982,1,0.999400
1.0,1,0.999542
0.9999999999999948,1,0.999632
0.999999999999998,1,0.999586
0.9999999999999979,1,0.999606
1.0,1,0.999684
1.0,1,0.999345
0.9999999999999944,1,0.999516
0.9999999999999999,1,0.999224
0.9999999999999941,1,0.998505
1.0,1,0.998992
1.0,1,0.997416
0.9999999999999977,1,0.998469
0.9999999999999977,1,0.997494
1.0,1,0.998084
1.0,1,0.999265
1.0,1,0.999442
0.9999999999999974,1,0.999456
1.0,1,0.999648
1.0,1,0.999382
1.0,1,0.999601
0.9999999999999942,1,0.999442
1.0,1,0.999565
1.0,1,0.999615
1.0,1,0.999605
0.9999999999999952,1,0.999466
0.9999999999999982,1,0.999691
1.0,1,0.999588
0.9999999999999958,1,0.999338
0.9999999999999999,1,0.998571
0.9999999999999996,1,0.999000
1.0,1,0.999689
1.0,1,0.999510
1.0,1,0.999515
0.9999999999999982,1,0.999625
0.9999999999999996,1,0.999676
0.9999999999999983,1,0.999603
0.9999999999999988,1,0.999527
1.0,1,0.998776
1.0,1,0.999562
0.9999999999999987,1,0.999286
0.9999999999999992,1,0.999363
1.0,1,0.998794
1.0,1,0.999682
1.0,1,0.999474
0.9999999999999959,1,0.999331
1.0,1,0.999400
0.9999999999999988,1,0.999094
1.0,1,0.999282
1.0,1,0.999584
0.9999999999999983,1,0.999484
0.999999999999997,1,0.999457
0.9999999999999997,1,0.999575
1.0,1,0.999495
0.9999999999999989,1,0.999515
0.9999999999999991,1,0.999443
1.0,1,0.999556
1.0,1,0.999549
0.9999999999999961,1,0.999450
0.9999999999999993,1,0.999367
0.9999999999999989,1,0.999678
1.0,1,0.999455
0.9999999999999989,1,0.999517
1.0,1,0.999506
0.9999999999999992,1,0.999566
0.9999999999999979,1,0.999492
1.0,1,0.999655
1.0,1,0.999433
0.9999999999999962,1,0.999610
0.9999999999999996,1,0.999568
1.0,1,0.999593
0.9999999999999976,1,0.999516
0.9999999999999973,1,0.999673
0.9999999999999974,1,0.999619
1.0,1,0.999520
1.0,1,0.999655
0.9999999999999964,1,0.999693
1.0,1,0.999486
1.0,1,0.999678
0.9999999999999984,1,0.999570
0.9999999999999987,1,0.999545
0.9999999999999988,1,0.999632
0.9999999999999997,1,0.999681
1.0,1,0.999198
0.999999999999997,1,0.999598
0.9999999999999993,1,0.999638
1.0,1,0.999541
1.0,1,0.999599
1.0,1,0.999544
1.0,1,0.999580
1.0,1,0.999487
0.9999999999999964,1,0.999535
0.9999999999999958,1,0.999356
0.9999999999999969,1,0.998134
1.0,1,0.999369
1.0,1,0.999395
1.0,1,0.999630
0.9999999999999966,1,0.999511
1.0,1,0.999543
1.0,1,0.999351
1.0,1,0.999422
0.9999999999999973,1,0.999228
1.0,1,0.998762
1.0,1,0.999664
0.9999999999999982,1,0.999476
0.9999999999999988,1,0.999449
0.9999999999999987,1,0.999632
1.0,1,0.999600
1.0,1,0.999650
1.0,1,0.999577
0.9999999999999976,1,0.999692
0.9999999999999963,1,0.999520
1.0,1,0.999664
1.0,1,0.999638
0.9999999999999979,1,0.999306
0.9999999999999991,1,0.998969
1.0,1,0.999312
1.0,1,0.999669
0.9999999999999987,1,0.999378
0.9999999999999989,1,0.999180
0.9999999999999994,1,0.999357
1.0,1,0.999312
1.0,1,0.999683
1.0,1,0.999566
1.0,1,0.999557
1.0,1,0.999585
0.9999999999999977,1,0.999559
1.0,1,0.999573
0.9999999999999987,1,0.999506
0.9999999999999962,1,0.999030
0.9999999999999987,1,0.999572
0.9999999999999988,1,0.999677
0.9999999999999988,1,0.999586
0.9999999999999999,1,0.999645
1.0,1,0.999452
0.999999999999998,1,0.999374
0.999999999999998,1,0.999671
1.0,1,0.999457
0.9999999999999991,1,0.998786
0.9999999999999986,1,0.999431
1.0,1,0.999464
1.0,1,0.999354
1.0,1,0.999440
0.9999999999999959,1,0.999601
0.9999999999999993,1,0.999537
0.9999999999999993,1,0.999514
0.9999999999999989,1,0.999385
1.0,1,0.999617
1.0,1,0.999235
1.0,1,0.998789
1.0,1,0.999540
0.999999999999998,1,0.996599
1.0,1,0.998363
1.0,1,0.997840
0.9999999999999991,1,0.998066
0.9999999999999969,1,0.999132
1.0,1,0.998715
1.0,1,0.997555
1.0,1,0.999629
1.0,1,0.999579
1.0,1,0.999521
0.9999999999999971,1,0.999523
0.9999999999999997,1,0.999511
1.0,1,0.999337
1.0,1,0.999640
0.9999999999999993,1,0.999473
0.9999999999999993,1,0.999654
1.0,1,0.999612
0.9999999999999988,1,0.999478
1.0,1,0.999466
0.9999999999999977,1,0.999651
0.9999999999999977,1,0.999537
0.9999999999999976,1,0.999654
1.0,1,0.999660
1.0,1,0.999584
0.9999999999999937,1,0.999663
1.0,1,0.999593
0.9999999999999991,1,0.999476
0.9999999999999993,1,0.999024
0.9999999999999991,1,0.999656
1.0,1,0.999503
1.0,1,0.999361
0.9999999999999996,1,0.999623
0.9999999999999974,1,0.999625
1.0,1,0.999499
1.0,1,0.999537
0.9999999999999983,1,0.999321
0.9999999999999972,1,0.997151
1.0,1,0.998689
0.9999999999999971,1,0.999361
0.9999999999999984,1,0.999679
1.0,1,0.999338
1.0,1,0.999430
0.999999999999996,1,0.999552
1.0,1,0.999694
0.9999999999999981,1,0.999607
0.9999999999999963,1,0.999513
0.9999999999999996,1,0.998926
0.9999999999999964,1,0.999552
0.9999999999999989,1,0.999461
1.0,1,0.999641
1.0,1,0.999495
0.9999999999999966,1,0.999384
0.9999999999999954,1,0.999500
0.9999999999999977,1,0.999330
0.9999999999999974,1,0.999544
0.9999999999999987,1,0.999670
0.9999999999999993,1,0.999666
0.9999999999999994,1,0.999465
1.0,1,0.999589
1.0,1,0.999668
1.0,1,0.999475
1.0,1,0.999213
0.9999999999999943,1,0.999610
1.0,1,0.999332
0.9999999999999978,1,0.999492
1.0,1,0.999520
1.0,1,0.999618
0.9999999999999991,1,0.999631
1.0,1,0.999602
1.0,1,0.999549
1.0,1,0.999416
1.0,1,0.999602
1.0,1,0.999440
0.9999999999999968,1,0.999336
1.0,1,0.999591
0.9999999999999991,1,0.999336
0.9999999999999993,1,0.999336
0.9999999999999997,1,0.999133
1.0,1,0.999445
0.9999999999999961,1,0.999645
0.9999999999999983,1,0.999537
1.0,1,0.999672
0.9999999999999978,1,0.999292
1.0,1,0.999640
1.0,1,0.999433
1.0,1,0.999638
0.9999999999999994,1,0.999503
1.0,1,0.999376
1.0,1,0.999328
0.9999999999999993,1,0.999514
0.9999999999999987,1,0.999560
1.0,1,0.999624
0.9999999999999988,1,0.999607
0.9999999999999972,1,0.999566
0.9999999999999987,1,0.998961
1.0,1,0.999219
0.9999999999999996,1,0.998953
0.9999999999999981,1,0.999497
0.9999999999999981,1,0.999685
0.9999999999999992,1,0.999550
0.999999999999997,1,0.999612
1.0,1,0.999573
1.0,1,0.999264
0.9999999999999971,1,0.999681
0.9999999999999988,1,0.999086
1.0,1,0.999297
1.0,1,0.999420
1.0,1,0.999560
1.0,1,0.999533
1.0,1,0.999383
1.0,1,0.999614
1.0,1,0.999520
1.0,1,0.999589
0.9999999999999984,1,0.999509
0.9999999999999987,1,0.999592
1.0,1,0.999136
0.9999999999999966,1,0.998430
0.9999999999999994,1,0.999566
1.0,1,0.999544
0.999999999999997,1,0.999509
0.9999999999999986,1,0.999504
0.9999999999999987,1,0.999431
1.0,1,0.999004
0.9999999999999993,1,0.999304
0.9999999999999942,1,0.999586
0.9999999999999966,1,0.999414
0.9999999999999993,1,0.999327
1.0,1,0.999219
1.0,1,0.999623
1.0,1,0.999587
0.9999999999999976,1,0.999228
1.0,1,0.998815
1.0,1,0.999246
0.999999999999997,1,0.999563
1.0,1,0.999564
1.0,1,0.999447
0.999999999999999,1,0.999635
1.0,1,0.999350
1.0,1,0.999606
1.0,1,0.999512
1.0,1,0.999650
0.9999999999999987,1,0.999602
0.9999999999999998,1,0.999296
0.9999999999999978,1,0.999559
0.9999999999999993,1,0.999588
0.9999999999999977,1,0.999572
0.9999999999999992,1,0.999624
1.0,1,0.999537
1.0,1,0.999678
1.0,1,0.999603
1.0,1,0.999623
1.0,1,0.999692
0.9999999999999973,1,0.999664
1.0,1,0.999652
0.9999999999999986,1,0.999346
0.9999999999999989,1,0.999671
1.0,1,0.999563
0.9999999999999989,1,0.999519
0.9999999999999997,1,0.999045
0.9999999999999928,1,0.999125
1.0,1,0.998811
0.9999999999999937,1,0.997768
1.0,1,0.999685
1.0,1,0.999577
1.0,1,0.999274
1.0,1,0.999640
1.0,1,0.999682
1.0,1,0.999638
0.9999999999999969,1,0.999551
1.0,1,0.999389
0.9999999999999999,1,0.999643
0.999999999999996,1,0.999487
0.9999999999999992,1,0.999385
0.9999999999999996,1,0.999476
1.0,1,0.999421
0.9999999999999958,1,0.999546
0.9999999999999998,1,0.999600
1.0,1,0.999453
1.0,1,0.999530
1.0,1,0.999572
0.9999999999999994,1,0.999539
1.0,1,0.999537
0.9999999999999982,1,0.999563
1.0,1,0.999502
0.9999999999999978,1,0.999244
1.0,1,0.999573
0.9999999999999982,1,0.999531
0.9999999999999964,1,0.999664
0.9999999999999962,1,0.999336
0.9999999999999971,1,0.999596
0.9999999999999991,1,0.999550
1.0,1,0.999598
0.9999999999999988,1,0.999061
0.9999999999999982,1,0.998900
0.9999999999999992,1,0.998716
1.0,1,0.998462
0.9999999999999973,1,0.998423
0.9999999999999981,1,0.999158
0.9999999999999933,1,0.999583
1.0,1,0.999580
1.0,1,0.999672
0.9999999999999983,1,0.998670
1.0,1,0.998294
0.9999999999999977,1,0.997727
0.9999999999999993,1,0.999592
1.0,1,0.999355
1.0,1,0.999259
1.0,1,0.998987
0.9999999999999969,1,0.998984
1.0,1,0.999495
1.0,1,0.999272
1.0,1,0.999501
0.9999999999999988,1,0.999160
1.0,1,0.999627
0.9999999999999977,1,0.999481
0.9999999999999986,1,0.999636
0.9999999999999974,1,0.999557
0.9999999999999983,1,0.999472
1.0,1,0.999608
1.0,1,0.999506
0.9999999999999986,1,0.999090
0.999999999999998,1,0.999675
1.0,1,0.999531
0.9999999999999987,1,0.999665
1.0,1,0.999661
0.9999999999999963,1,0.999576
0.9999999999999996,1,0.999404
1.0,1,0.999382
0.9999999999999992,1,0.999695
0.9999999999999997,1,0.999570
0.9999999999999968,1,0.999610
0.9999999999999999,1,0.999570
0.9999999999999987,1,0.999595
1.0,1,0.999531
1.0,1,0.999566
0.9999999999999989,1,0.999610
0.999999999999997,1,0.999603
0.9999999999999993,1,0.999568
0.9999999999999983,1,0.999641
1.0,1,0.999517
1.0,1,0.999674
0.9999999999999972,1,0.999564
0.9999999999999966,1,0.999556
1.0,1,0.999484
0.9999999999999984,1,0.999570
0.9999999999999973,1,0.999313
0.9999999999999976,1,0.999369
0.999999999999996,1,0.997494
0.9999999999999984,1,0.999692
0.9999999999999984,1,0.999501
0.9999999999999972,1,0.999568
0.9999999999999973,1,0.999597
1.0,1,0.999520
1.0,1,0.999576
1.0,1,0.999596
0.9999999999999967,1,0.999611
1.0,1,0.999498
1.0,1,0.999039
1.0,1,0.998069
1.0,1,0.999668
1.0,1,0.999579
1.0,1,0.999454
0.9999999999999984,1,0.999289
1.0,1,0.997727
1.0,1,0.998299
1.0,1,0.999587
0.9999999999999944,1,0.999421
1.0,1,0.999579
1.0,1,0.999597
0.9999999999999988,1,0.999181
1.0,1,0.999416
0.9999999999999999,1,0.999414
1.0,1,0.999576
0.9999999999999982,1,0.999556
1.0,1,0.999556
0.9999999999999971,1,0.999652
1.0,1,0.999668
0.9999999999999957,1,0.999581
1.0,1,0.999529
1.0,1,0.999497
0.999999999999999,1,0.999695
1.0,1,0.999497
1.0,1,0.999638
0.9999999999999971,1,0.999568
1.0,1,0.999540
0.9999999999999953,1,0.999548
1.0,1,0.999322
1.0,1,0.999126
0.9999999999999998,1,0.999429
0.9999999999999996,1,0.999366
1.0,1,0.999535
0.9999999999999984,1,0.999321
1.0,1,0.999529
1.0,1,0.999612
0.9999999999999978,1,0.999634
0.9999999999999971,1,0.999578
1.0,1,0.999591
0.9999999999999977,1,0.999629
1.0,1,0.999520
1.0,1,0.999398
0.9999999999999987,1,0.999525
0.9999999999999984,1,0.999674
0.999999999999997,1,0.999586
1.0,1,0.999321
0.9999999999999954,1,0.999655
0.9999999999999979,1,0.999597
0.999999999999998,1,0.999383
1.0,1,0.999618
1.0,1,0.999553
1.0,1,0.999222
1.0,1,0.999462
1.0,1,0.999644
0.999999999999996,1,0.999557
0.999999999999996,1,0.999576
1.0,1,0.999384
0.9999999999999966,1,0.999499
0.9999999999999991,1,0.999195
1.0,1,0.998860
1.0,1,0.999320
1.0,1,0.999322
1.0,1,0.999378
0.9999999999999959,1,0.999531
1.0,1,0.999570
0.999999999999999,1,0.999481
1.0,1,0.999669
1.0,1,0.999592
1.0,1,0.999418
0.9999999999999988,1,0.999291
1.0,1,0.999562
1.0,1,0.998821
1.0,1,0.999546
1.0,1,0.999312
1.0,1,0.999640
0.9999999999999992,1,0.999563
1.0,1,0.999617
1.0,1,0.999594
0.9999999999999998,1,0.999596
0.9999999999999998,1,0.999476
0.9999999999999964,1,0.999350
1.0,1,0.999641
0.9999999999999989,1,0.999672
1.0,1,0.999500
1.0,1,0.999380
1.0,1,0.998108
1.0,1,0.999331
1.0,1,0.999254
0.9999999999999971,1,0.999481
0.9999999999999953,1,0.999422
0.9999999999999996,1,0.999594
0.9999999999999988,1,0.999371
0.9999999999999991,1,0.998979
1.0,1,0.997436
0.9999999999999963,1,0.999567
1.0,1,0.999629
1.0,1,0.999380
0.9999999999999946,1,0.999548
1.0,1,0.999617
1.0,1,0.999681
1.0,1,0.999508
1.0,1,0.999301
1.0,1,0.999214
1.0,1,0.999221
1.0,1,0.998744
1.0,1,0.999105
1.0,1,0.999063
1.0,1,0.998464
0.999999999999999,1,0.999073
0.9999999999999992,1,0.999363
0.999999999999997,1,0.999647
1.0,1,0.999521
1.0,1,0.999206
0.9999999999999996,1,0.999049
1.0,1,0.999588
0.9999999999999961,1,0.999574
1.0,1,0.999518
1.0,1,0.999511
1.0,1,0.999637
0.9999999999999946,1,0.999557
0.9999999999999996,1,0.999523
1.0,1,0.999273
1.0,1,0.999380
1.0,1,0.999444
0.9999999999999992,1,0.999569
0.999999999999999,1,0.999592
1.0,1,0.999424
0.9999999999999984,1,0.999695
1.0,1,0.999419
1.0,1,0.999476
1.0,1,0.999662
1.0,1,0.999617
0.9999999999999983,1,0.999490
0.9999999999999943,1,0.999585
0.999999999999999,1,0.999555
0.999999999999997,1,0.999265
0.9999999999999991,1,0.999500
0.9999999999999988,1,0.998563
0.9999999999999979,1,0.999332
1.0,1,0.999634
0.9999999999999984,1,0.999437
0.9999999999999999,1,0.999571
0.9999999999999987,1,0.999388
1.0,1,0.999231
1.0,1,0.998706
0.9999999999999998,1,0.998791
0.9999999999999992,1,0.998377
1.0,1,0.998148
0.9999999999999963,1,0.997680
1.0,1,0.999596
0.9999999999999987,1,0.999621
1.0,1,0.999544
1.0,1,0.999395
0.9999999999999993,1,0.999618
0.9999999999999964,1,0.999508
1.0,1,0.999681
1.0,1,0.999599
0.9999999999999978,1,0.999606
0.9999999999999982,1,0.999310
1.0,1,0.999591
1.0,1,0.999513
1.0,1,0.998947
1.0,1,0.999647
1.0,1,0.999434
0.9999999999999997,1,0.999566
1.0,1,0.998908
1.0,1,0.999516
1.0,1,0.999507
0.9999999999999992,1,0.999231
0.9999999999999993,1,0.999670
0.999999999999999,1,0.999588
1.0,1,0.999221
1.0,1,0.999570
1.0,1,0.999568
1.0,1,0.999199
1.0,1,0.999641
0.9999999999999991,1,0.999523
0.9999999999999989,1,0.999591
0.9999999999999984,1,0.999685
0.9999999999999991,1,0.999572
1.0,1,0.999577
0.9999999999999984,1,0.999458
1.0,1,0.998971
1.0,1,0.998937
0.999999999999998,1,0.999603
1.0,1,0.999673
1.0,1,0.999538
1.0,1,0.999561
1.0,1,0.999635
1.0,1,0.999231
0.999999999999999,1,0.999693
1.0,1,0.999607
0.9999999999999991,1,0.999119
0.9999999999999983,1,0.999542
0.9999999999999996,1,0.998510
1.0,1,0.999570
1.0,1,0.999510
0.9999999999999969,1,0.999611
1.0,1,0.999190
0.9999999999999971,1,0.999589
0.9999999999999956,1,0.999399
1.0,1,0.999570
0.9999999999999991,1,0.999302
0.9999999999999992,1,0.999689
0.9999999999999983,1,0.999453
0.9999999999999998,1,0.999578
0.9999999999999964,1,0.999673
0.9999999999999958,1,0.999527
0.9999999999999983,1,0.999221
1.0,1,0.999550
0.9999999999999969,1,0.999633
0.9999999999999996,1,0.999620
0.9999999999999976,1,0.999585
1.0,1,0.999695
1.0,1,0.999601
1.0,1,0.999129
0.9999999999999991,1,0.997788
1.0,1,0.999406
1.0,1,0.999435
0.9999999999999968,1,0.999451
0.999999999999999,1,0.999417
0.9999999999999997,1,0.999378
0.9999999999999997,1,0.999526
0.9999999999999993,1,0.999557
1.0,1,0.999404
1.0,1,0.999622
0.9999999999999994,1,0.999593
0.9999999999999979,1,0.999588
0.9999999999999976,1,0.999563
1.0,1,0.999424
1.0,1,0.999106
1.0,1,0.998762
0.9999999999999997,1,0.998797
1.0,1,0.998841
0.9999999999999969,1,0.999455
0.9999999999999991,1,0.999671
0.9999999999999993,1,0.999610
1.0,1,0.999510
0.9999999999999963,1,0.999663
1.0,1,0.999460
0.9999999999999972,1,0.999671
0.9999999999999987,1,0.999620
1.0,1,0.999535
0.9999999999999988,1,0.998519
1.0,1,0.998925
0.9999999999999991,1,0.999560
1.0,1,0.999443
0.9999999999999991,1,0.999445
1.0,1,0.999434
0.9999999999999979,1,0.999630
1.0,1,0.999404
0.999999999999998,1,0.999625
0.9999999999999994,1,0.999571
1.0,1,0.999432
0.9999999999999991,1,0.999574
0.9999999999999989,1,0.999649
0.999999999999997,1,0.999586
0.9999999999999988,1,0.999557
1.0,1,0.999611
1.0,1,0.999367
0.9999999999999993,1,0.999534
1.0,1,0.999490
0.9999999999999946,1,0.999601
0.9999999999999991,1,0.999168
0.9999999999999958,1,0.999477
1.0,1,0.999551
0.9999999999999983,1,0.999610
0.9999999999999991,1,0.999643
1.0,1,0.999507
1.0,1,0.999382
1.0,1,0.999038
0.9999999999999971,1,0.999693
1.0,1,0.998964
1.0,1,0.999332
1.0,1,0.999627
1.0,1,0.999609
0.9999999999999982,1,0.999663
0.9999999999999957,1,0.998851
1.0,1,0.999195
0.9999999999999989,1,0.999227
0.9999999999999999,1,0.999117
1.0,1,0.999571
0.9999999999999988,1,0.999325
0.9999999999999992,1,0.999616
0.9999999999999986,1,0.999167
0.9999999999999979,1,0.999026
1.0,1,0.999488
0.9999999999999991,1,0.999414
0.9999999999999983,1,0.999637
1.0,1,0.999431
0.999999999999997,1,0.999577
0.9999999999999981,1,0.999567
0.9999999999999979,1,0.999568
0.9999999999999968,1,0.999622
1.0,1,0.999446
0.9999999999999998,1,0.999061
1.0,1,0.998936
0.999999999999996,1,0.999495
1.0,1,0.998280
0.9999999999999996,1,0.999407
1.0,1,0.999690
0.9999999999999993,1,0.999020
1.0,1,0.998974
1.0,1,0.999561
1.0,1,0.999323
1.0,1,0.999124
1.0,1,0.999523
1.0,1,0.998940
0.9999999999999986,1,0.999583
1.0,1,0.999570
0.9999999999999991,1,0.999222
1.0,1,0.998613
1.0,1,0.999300
0.9999999999999997,1,0.999686
1.0,1,0.999400
1.0,1,0.999352
1.0,1,0.999227
0.9999999999999973,1,0.998985
0.9999999999999984,1,0.997863
0.9999999999999984,1,0.998377
0.9999999999999986,1,0.996094
1.0,1,0.999485
0.9999999999999992,1,0.999467
0.9999999999999961,1,0.999457
0.9999999999999991,1,0.999309
1.0,1,0.999545
0.9999999999999994,1,0.999663
1.0,1,0.999451
1.0,1,0.999614
1.0,1,0.999639
0.9999999999999977,1,0.999511
1.0,1,0.999591
1.0,1,0.999443
1.0,1,0.999487
1.0,1,0.999620
0.999999999999994,1,0.999577
1.0,1,0.999651
0.9999999999999996,1,0.999556
0.9999999999999966,1,0.999013
0.9999999999999969,1,0.999439
0.9999999999999998,1,0.999517
0.9999999999999989,1,0.999568
1.0,1,0.999589
0.9999999999999966,1,0.999574
0.9999999999999977,1,0.999454
0.9999999999999953,1,0.999673
1.0,1,0.999628
1.0,1,0.999646
1.0,1,0.999606
1.0,1,0.999681
1.0,1,0.999476
0.9999999999999983,1,0.999625
0.9999999999999978,1,0.999585
0.999999999999999,1,0.999571
1.0,1,0.999565
0.999999999999994,1,0.999508
0.9999999999999962,1,0.999477
0.9999999999999973,1,0.999347
0.9999999999999986,1,0.998990
1.0,1,0.999597
1.0,1,0.999610
1.0,1,0.999588
0.9999999999999976,1,0.999573
1.0,1,0.999576
1.0,1,0.999600
0.9999999999999972,1,0.999554
0.9999999999999999,1,0.999690
1.0,1,0.999688
0.9999999999999957,1,0.999448
1.0,1,0.999090
1.0,1,0.999582
1.0,1,0.999547
0.999999999999999,1,0.999570
1.0,1,0.998861
1.0,1,0.999330
0.9999999999999973,1,0.999625
1.0,1,0.999476
1.0,1,0.999487
0.9999999999999951,1,0.999581
0.9999999999999971,1,0.998951
0.9999999999999988,1,0.999482
1.0,1,0.999438
0.9999999999999981,1,0.999508
1.0,1,0.998459
0.9999999999999993,1,0.999247
0.9999999999999992,1,0.999530
0.9999999999999968,1,0.999555
0.9999999999999994,1,0.999335
0.9999999999999986,1,0.999592
0.9999999999999992,1,0.999592
1.0,1,0.999443
0.9999999999999958,1,0.998353
1.0,1,0.998447
0.999999999999993,1,0.999542
0.9999999999999993,1,0.999590
1.0,1,0.999446
1.0,1,0.999551
0.9999999999999982,1,0.999359
0.9999999999999998,1,0.999511
1.0,1,0.999473
1.0,1,0.999561
0.9999999999999971,1,0.999496
0.9999999999999994,1,0.999291
0.9999999999999977,1,0.999486
0.9999999999999976,1,0.999612
1.0,1,0.999608
1.0,1,0.999602
1.0,1,0.999691
1.0,1,0.999609
0.9999999999999979,1,0.999516
0.9999999999999994,1,0.999622
0.9999999999999957,1,0.999403
1.0,1,0.999370
1.0,1,0.999407
1.0,1,0.999078
0.9999999999999976,1,0.999389
0.9999999999999972,1,0.999301
1.0,1,0.999064
1.0,1,0.998454
0.9999999999999999,1,0.998895
0.9999999999999991,1,0.998946
1.0,1,0.997934
0.9999999999999988,1,0.997701
1.0,1,0.999030
1.0,1,0.999657
1.0,1,0.999599
1.0,1,0.999224
0.9999999999999993,1,0.999560
0.9999999999999968,1,0.999617
0.9999999999999999,1,0.999660
1.0,1,0.999600
0.9999999999999991,1,0.999546
1.0,1,0.999393
0.9999999999999993,1,0.999399
0.9999999999999991,1,0.999510
1.0,1,0.999590
0.9999999999999994,1,0.999537
0.9999999999999976,1,0.999491
0.9999999999999991,1,0.999612
1.0,1,0.999484
1.0,1,0.998861
0.9999999999999996,1,0.999490
1.0,1,0.999365
1.0,1,0.999663
1.0,1,0.999406
1.0,1,0.999549
0.999999999999997,1,0.999558
1.0,1,0.999655
1.0,1,0.999574
0.9999999999999983,1,0.999553
0.9999999999999981,1,0.999459
0.9999999999999987,1,0.999575
0.9999999999999991,1,0.999514
1.0,1,0.999591
1.0,1,0.999490
1.0,1,0.999569
0.9999999999999996,1,0.999603
0.9999999999999932,1,0.999512
1.0,1,0.999502
0.9999999999999986,1,0.999311
1.0,1,0.999647
0.9999999999999987,1,0.999570
1.0,1,0.999365
0.9999999999999991,1,0.999521
1.0,1,0.998605
0.9999999999999973,1,0.999307
0.9999999999999976,1,0.999675
0.9999999999999956,1,0.999609
0.9999999999999993,1,0.999539
1.0,1,0.999552
1.0,1,0.999563
1.0,1,0.999533
1.0,1,0.999568
1.0,1,0.999462
0.999999999999999,1,0.996835
0.9999999999999964,1,0.999628
1.0,1,0.999507
1.0,1,0.999615
0.999999999999998,1,0.999536
0.9999999999999963,1,0.999310
0.9999999999999988,1,0.999090
0.9999999999999969,1,0.998172
1.0,1,0.999679
1.0,1,0.999645
0.9999999999999929,1,0.999611
0.9999999999999998,1,0.999660
0.9999999999999964,1,0.999491
0.9999999999999982,1,0.998440
0.9999999999999981,1,0.999081
1.0,1,0.999536
0.9999999999999982,1,0.999491
1.0,1,0.999621
0.9999999999999989,1,0.999619
1.0,1,0.999582
0.9999999999999982,1,0.999157
0.9999999999999993,1,0.999091
1.0,1,0.998342
1.0,1,0.999616
1.0,1,0.998718
1.0,1,0.999527
0.9999999999999979,1,0.999307
0.9999999999999974,1,0.999638
0.9999999999999987,1,0.999582
0.9999999999999972,1,0.999472
0.9999999999999966,1,0.999052
0.9999999999999987,1,0.999529
0.9999999999999981,1,0.999542
0.9999999999999976,1,0.999658
0.999999999999999,1,0.999494
1.0,1,0.998565
1.0,1,0.999644
1.0,1,0.999590
1.0,1,0.999567
1.0,1,0.999630
1.0,1,0.999616
0.9999999999999991,1,0.999590
0.9999999999999973,1,0.999573
1.0,1,0.999473
1.0,1,0.999668
0.9999999999999989,1,0.999535
1.0,1,0.999506
1.0,1,0.999161
1.0,1,0.998569
1.0,1,0.998322
1.0,1,0.998978
0.9999999999999994,1,0.999270
1.0,1,0.999565
1.0,1,0.999408
0.9999999999999984,1,0.999218
1.0,1,0.999487
0.9999999999999959,1,0.999539
1.0,1,0.999128
1.0,1,0.999592
1.0,1,0.999516
0.9999999999999968,1,0.999589
0.9999999999999977,1,0.999519
1.0,1,0.998761
0.999999999999999,1,0.999122
1.0,1,0.999340
0.9999999999999989,1,0.999651
0.9999999999999993,1,0.999606
0.9999999999999996,1,0.998248
0.9999999999999998,1,0.999584
0.9999999999999994,1,0.999531
0.9999999999999984,1,0.999555
1.0,1,0.999645
0.9999999999999997,1,0.997859
1.0,1,0.998590
0.9999999999999999,1,0.999555
0.9999999999999997,1,0.999540
1.0,1,0.999585
1.0,1,0.999479
0.9999999999999979,1,0.999299
1.0,1,0.999522
1.0,1,0.999392
1.0,1,0.999508
1.0,1,0.999524
1.0,1,0.999690
0.9999999999999992,1,0.999346
1.0,1,0.999174
1.0,1,0.999258
0.9999999999999971,1,0.999549
1.0,1,0.999566
0.9999999999999991,1,0.999482
1.0,1,0.999572
1.0,1,0.999085
0.9999999999999993,1,0.998547
0.9999999999999997,1,0.999675
1.0,1,0.999369
1.0,1,0.999500
1.0,1,0.999595
1.0,1,0.999404
1.0,1,0.999487
0.9999999999999949,1,0.999650
1.0,1,0.999677
1.0,1,0.999639
1.0,1,0.999340
0.9999999999999964,1,0.999477
1.0,1,0.999551
0.9999999999999969,1,0.999301
1.0,1,0.999521
1.0,1,0.998828
0.9999999999999981,1,0.999482
1.0,1,0.999574
1.0,1,0.999369
1.0,1,0.999540
0.9999999999999972,1,0.999524
1.0,1,0.999567
1.0,1,0.999430
0.9999999999999997,1,0.999590
0.9999999999999996,1,0.999547
0.999999999999999,1,0.999461
0.9999999999999979,1,0.999563
1.0,1,0.998062
1.0,1,0.998723
1.0,1,0.999557
1.0,1,0.999497
1.0,1,0.999421
1.0,1,0.999543
0.9999999999999989,1,0.999268
0.999999999999997,1,0.997619
1.0,1,0.997738
1.0,1,0.998382
0.9999999999999999,1,0.999241
0.9999999999999967,1,0.999573
0.999999999999995,1,0.999616
1.0,1,0.999211
0.9999999999999986,1,0.998979
1.0,1,0.999664
1.0,1,0.999182
0.9999999999999996,1,0.998862
0.9999999999999959,1,0.998764
0.9999999999999984,1,0.999199
0.9999999999999984,1,0.999268
0.9999999999999974,1,0.999656
1.0,1,0.999545
0.9999999999999968,1,0.999610
1.0,1,0.999567
0.9999999999999963,1,0.999282
1.0,1,0.999418
0.9999999999999984,1,0.998677
0.9999999999999974,1,0.999566
0.9999999999999962,1,0.999441
1.0,1,0.999528
1.0,1,0.999385
0.9999999999999996,1,0.999555
0.9999999999999996,1,0.999011
0.9999999999999984,1,0.999572
0.9999999999999996,1,0.999679
0.9999999999999963,1,0.999367
0.9999999999999992,1,0.998538
1.0,1,0.999591
0.999999999999997,1,0.999592
0.999999999999998,1,0.999549
0.9999999999999983,1,0.999211
0.9999999999999983,1,0.999410
0.9999999999999999,1,0.999674
0.9999999999999983,1,0.999603
0.9999999999999999,1,0.999500
1.0,1,0.999475
0.999999999999999,1,0.999182
1.0,1,0.999026
1.0,1,0.997917
0.9999999999999976,1,0.999693
1.0,1,0.999683
0.9999999999999988,1,0.999601
1.0,1,0.999483
1.0,1,0.999491
0.9999999999999939,1,0.999655
0.9999999999999987,1,0.999688
1.0,1,0.999430
1.0,1,0.999616
1.0,1,0.999560
1.0,1,0.999587
1.0,1,0.998661
1.0,1,0.999477
0.9999999999999946,1,0.999623
0.9999999999999983,1,0.999142
0.9999999999999956,1,0.999437
0.9999999999999964,1,0.999634
0.9999999999999992,1,0.999629
0.9999999999999979,1,0.999595
0.9999999999999998,1,0.999468
1.0,1,0.999598
0.9999999999999989,1,0.999232
0.9999999999999989,1,0.999199
0.9999999999999986,1,0.999250
1.0,1,0.999596
0.9999999999999988,1,0.999574
1.0,1,0.999617
0.9999999999999992,1,0.999518
0.9999999999999998,1,0.999513
1.0,1,0.998571
1.0,1,0.999462
0.999999999999999,1,0.999537
1.0,1,0.999002
0.9999999999999994,1,0.999654
1.0,1,0.999662
0.999999999999999,1,0.999688
0.9999999999999982,1,0.999243
0.9999999999999986,1,0.999526
0.9999999999999999,1,0.999330
0.9999999999999981,1,0.999479
0.9999999999999986,1,0.999250
0.9999999999999937,1,0.999559
1.0,1,0.999656
0.9999999999999982,1,0.999623
1.0,1,0.999407
0.9999999999999963,1,0.999654
1.0,1,0.999662
0.9999999999999976,1,0.999391
1.0,1,0.998652
0.9999999999999994,1,0.999545
1.0,1,0.998933
0.9999999999999974,1,0.999586
1.0,1,0.999636
1.0,1,0.999596
1.0,1,0.999503
0.9999999999999987,1,0.999306
0.9999999999999994,1,0.999568
1.0,1,0.999673
1.0,1,0.999504
0.9999999999999981,1,0.999635
1.0,1,0.999417
0.9999999999999999,1,0.998410
0.9999999999999989,1,0.999224
0.9999999999999981,1,0.999240
1.0,1,0.999430
0.9999999999999968,1,0.999351
1.0,1,0.999375
0.9999999999999954,1,0.999246
0.9999999999999973,1,0.999608
1.0,1,0.999696
1.0,1,0.999462
0.9999999999999993,1,0.999435
1.0,1,0.999047
0.9999999999999998,1,0.999445
1.0,1,0.999596
1.0,1,0.999606
0.9999999999999991,1,0.999615
1.0,1,0.999603
0.9999999999999952,1,0.999568
0.9999999999999983,1,0.999617
1.0,1,0.999475
1.0,1,0.999561
1.0,1,0.999461
1.0,1,0.999544
0.9999999999999978,1,0.998328
1.0,1,0.999598
0.999999999999995,1,0.999438
1.0,1,0.999246
0.9999999999999963,1,0.999126
0.9999999999999992,1,0.999656
0.9999999999999986,1,0.999454
1.0,1,0.999685
0.9999999999999992,1,0.999613
1.0,1,0.999441
1.0,1,0.999218
1.0,1,0.999398
0.9999999999999956,1,0.999441
0.9999999999999957,1,0.999331
0.999999999999998,1,0.997126
0.9999999999999973,1,0.998802
1.0,1,0.999582
1.0,1,0.999049
1.0,1,0.999538
1.0,1,0.999242
1.0,1,0.999062
1.0,1,0.998152
0.9999999999999953,1,0.997788
1.0,1,0.998519
0.9999999999999974,1,0.999601
0.9999999999999962,1,0.999371
1.0,1,0.999532
1.0,1,0.999349
1.0,1,0.998395
0.9999999999999993,1,0.998951
1.0,1,0.999349
1.0,1,0.999484
0.9999999999999948,1,0.999496
1.0,1,0.998974
1.0,1,0.999524
0.9999999999999988,1,0.999595
1.0,1,0.999619
1.0,1,0.996224
0.9999999999999987,1,0.999182
0.999999999999997,1,0.999186
1.0,1,0.999503
0.9999999999999972,1,0.999586
0.9999999999999999,1,0.999227
1.0,1,0.999516
1.0,1,0.999346
1.0,1,0.999408
1.0,1,0.999100
1.0,1,0.999423
0.9999999999999968,1,0.999690
0.9999999999999999,1,0.999504
1.0,1,0.999545
0.9999999999999999,1,0.999355
0.9999999999999973,1,0.999431
0.9999999999999977,1,0.999537
0.9999999999999999,1,0.999480
1.0,1,0.999482
0.9999999999999973,1,0.999447
1.0,1,0.999147
1.0,1,0.999639
0.9999999999999988,1,0.999459
1.0,1,0.999638
1.0,1,0.999670
1.0,1,0.999475
1.0,1,0.999096
0.9999999999999982,1,0.999577
1.0,1,0.999652
1.0,1,0.999621
1.0,1,0.999454
1.0,1,0.998609
1.0,1,0.999651
1.0,1,0.999669
0.9999999999999977,1,0.999477
0.9999999999999967,1,0.999502
1.0,1,0.999372
0.9999999999999997,1,0.999555
0.9999999999999993,1,0.999385
0.9999999999999968,1,0.999637
1.0,1,0.999574
0.9999999999999988,1,0.999569
0.9999999999999967,1,0.998996
0.9999999999999993,1,0.999456
1.0,1,0.999414
0.9999999999999993,1,0.999624
1.0,1,0.999623
0.9999999999999986,1,0.999607
0.9999999999999984,1,0.999281
0.9999999999999973,1,0.999173
1.0,1,0.999390
0.9999999999999994,1,0.999690
0.9999999999999991,1,0.999549
0.999999999999995,1,0.999296
1.0,1,0.999137
0.9999999999999981,1,0.999473
0.9999999999999976,1,0.999525
1.0,1,0.999040
0.9999999999999969,1,0.999356
1.0,1,0.999606
0.9999999999999974,1,0.999693
1.0,1,0.999622
0.9999999999999982,1,0.998957
0.9999999999999981,1,0.999541
1.0,1,0.999579
1.0,1,0.999638
1.0,1,0.999278
0.9999999999999954,1,0.999682
0.9999999999999989,1,0.999692
0.999999999999999,1,0.999495
0.9999999999999996,1,0.999598
1.0,1,0.998708
0.9999999999999998,1,0.999679
0.9999999999999992,1,0.999546
1.0,1,0.999572
0.999999999999999,1,0.999657
0.9999999999999986,1,0.999659
1.0,1,0.999340
1.0,1,0.998911
0.9999999999999996,1,0.999195
0.9999999999999979,1,0.999401
0.9999999999999989,1,0.999601
0.9999999999999966,1,0.999394
1.0,1,0.999648
0.9999999999999988,1,0.999610
1.0,1,0.999638
0.9999999999999989,1,0.999646
1.0,1,0.999431
0.9999999999999998,1,0.999171
0.9999999999999971,1,0.999251
1.0,1,0.999287
1.0,1,0.999504
0.9999999999999993,1,0.999449
0.9999999999999973,1,0.999679
1.0,1,0.999351
0.9999999999999978,1,0.999466
1.0,1,0.998739
0.9999999999999983,1,0.999353
1.0,1,0.999678
0.9999999999999961,1,0.999486
1.0,1,0.999443
0.9999999999999974,1,0.999542
0.9999999999999943,1,0.999521
1.0,1,0.999468
0.9999999999999997,1,0.999654
0.9999999999999983,1,0.999545
0.9999999999999981,1,0.999330
0.9999999999999982,1,0.999322
0.9999999999999939,1,0.999541
1.0,1,0.999331
1.0,1,0.999524
1.0,1,0.999153
1.0,1,0.999515
1.0,1,0.999115
1.0,1,0.997685
1.0,1,0.999588
1.0,1,0.999406
0.9999999999999994,1,0.999587
1.0,1,0.999395
0.9999999999999999,1,0.999665
0.999999999999998,1,0.999486
0.999999999999996,1,0.999603
1.0,1,0.999499
1.0,1,0.999595
1.0,1,0.999660
1.0,1,0.999471
1.0,1,0.999442
0.9999999999999981,1,0.999556
0.9999999999999984,1,0.998540
0.9999999999999957,1,0.998817
1.0,1,0.998689
1.0,1,0.999246
0.9999999999999997,1,0.998891
1.0,1,0.999231
0.9999999999999988,1,0.999495
0.9999999999999986,1,0.999601
1.0,1,0.998822
1.0,1,0.999496
0.9999999999999974,1,0.999572
0.9999999999999984,1,0.998941
0.9999999999999963,1,0.997462
0.9999999999999993,1,0.999506
0.999999999999998,1,0.998668
1.0,1,0.999604
0.9999999999999991,1,0.999597
1.0,1,0.999506
1.0,1,0.999334
0.9999999999999976,1,0.999565
0.9999999999999998,1,0.999554
0.9999999999999988,1,0.999045
0.9999999999999976,1,0.999468
1.0,1,0.999637
1.0,1,0.999680
0.9999999999999963,1,0.999623
1.0,1,0.999541
0.9999999999999972,1,0.999689
1.0,1,0.999597
1.0,1,0.999450
1.0,1,0.999278
1.0,1,0.999351
0.9999999999999988,1,0.999510
1.0,1,0.999565
1.0,1,0.999540
0.9999999999999971,1,0.999016
1.0,1,0.998507
1.0,1,0.998934
1.0,1,0.999485
1.0,1,0.999645
0.9999999999999999,1,0.999626
1.0,1,0.999648
0.9999999999999979,1,0.999339
1.0,1,0.999524
0.9999999999999988,1,0.999646
1.0,1,0.999083
0.999999999999997,1,0.999568
1.0,1,0.999460
0.9999999999999953,1,0.999646
1.0,1,0.999285
0.9999999999999994,1,0.999348
0.9999999999999989,1,0.999517
1.0,1,0.998605
1.0,1,0.999385
1.0,1,0.999660
0.9999999999999982,1,0.999215
0.9999999999999993,1,0.999613
0.9999999999999994,1,0.999136
0.9999999999999943,1,0.999486
0.9999999999999996,1,0.999384
1.0,1,0.999300
1.0,1,0.999565
0.9999999999999962,1,0.999469
0.9999999999999994,1,0.999410
0.9999999999999996,1,0.999669
0.9999999999999999,1,0.999658
1.0,1,0.999655
0.999999999999995,1,0.999167
1.0,1,0.999505
1.0,1,0.999388
1.0,1,0.999278
0.9999999999999991,1,0.999580
0.9999999999999987,1,0.999191
1.0,1,0.999368
0.9999999999999994,1,0.999637
0.9999999999999989,1,0.999581
1.0,1,0.999563
0.9999999999999977,1,0.999516
0.999999999999997,1,0.999402
1.0,1,0.999442
0.9999999999999998,1,0.999479
0.9999999999999934,1,0.999053
0.9999999999999969,1,0.999687
1.0,1,0.999455
1.0,1,0.999589
0.9999999999999981,1,0.999675
1.0,1,0.999592
1.0,1,0.999605
0.9999999999999971,1,0.999678
0.999999999999997,1,0.999505
0.9999999999999978,1,0.998891
1.0,1,0.999567
1.0,1,0.999686
0.9999999999999984,1,0.999516
1.0,1,0.999536
0.9999999999999974,1,0.999442
0.9999999999999982,1,0.999082
1.0,1,0.998665
0.9999999999999961,1,0.998043
0.9999999999999999,1,0.999435
1.0,1,0.999492
1.0,1,0.999609
1.0,1,0.999616
1.0,1,0.999515
0.9999999999999982,1,0.999664
1.0,1,0.999590
1.0,1,0.999511
1.0,1,0.999062
1.0,1,0.999441
0.9999999999999993,1,0.999454
0.9999999999999962,1,0.999681
1.0,1,0.999644
0.9999999999999978,1,0.999589
0.9999999999999957,1,0.999339
0.9999999999999941,1,0.999547
0.9999999999999967,1,0.999640
1.0,1,0.999266
0.9999999999999979,1,0.999626
0.9999999999999988,1,0.999466
0.9999999999999998,1,0.999539
1.0,1,0.999489
0.9999999999999994,1,0.998925
1.0,1,0.998938
0.9999999999999968,1,0.999503
0.9999999999999996,1,0.999480
0.9999999999999971,1,0.999459
0.9999999999999986,1,0.999534
0.9999999999999973,1,0.999598
0.9999999999999974,1,0.999556
1.0,1,0.999671
1.0,1,0.997812
0.999999999999997,1,0.998634
0.9999999999999999,1,0.999661
1.0,1,0.999539
1.0,1,0.999159
1.0,1,0.999603
0.9999999999999979,1,0.999289
0.9999999999999938,1,0.998423
0.9999999999999956,1,0.999645
0.9999999999999983,1,0.999425
0.9999999999999989,1,0.999263
0.9999999999999968,1,0.999616
0.9999999999999997,1,0.999549
0.9999999999999964,1,0.999463
1.0,1,0.999640
0.9999999999999993,1,0.999486
1.0,1,0.999605
0.9999999999999978,1,0.999533
1.0,1,0.999078
0.9999999999999984,1,0.998999
0.9999999999999969,1,0.998878
1.0,1,0.998296
0.9999999999999963,1,0.999533
1.0,1,0.999075
0.9999999999999982,1,0.999598
1.0,1,0.999613
1.0,1,0.999488
1.0,1,0.999000
0.9999999999999968,1,0.999679
1.0,1,0.999244
1.0,1,0.999551
0.9999999999999993,1,0.999441
1.0,1,0.999438
0.9999999999999963,1,0.999167
1.0,1,0.999601
0.9999999999999978,1,0.999666
1.0,1,0.999474
1.0,1,0.999600
0.9999999999999972,1,0.999598
1.0,1,0.999231
1.0,1,0.999442
1.0,1,0.999695
1.0,1,0.999453
1.0,1,0.999373
0.9999999999999982,1,0.998840
0.9999999999999983,1,0.998880
1.0,1,0.999636
1.0,1,0.999550
0.9999999999999994,1,0.999597
0.9999999999999982,1,0.999496
0.9999999999999971,1,0.999178
1.0,1,0.999585
0.9999999999999969,1,0.999493
1.0,1,0.999683
0.9999999999999997,1,0.999515
0.9999999999999997,1,0.999310
1.0,1,0.999623
1.0,1,0.999392
1.0,1,0.998510
0.9999999999999952,1,0.999612
0.9999999999999983,1,0.999605
0.9999999999999954,1,0.999617
0.9999999999999956,1,0.999532
1.0,1,0.999506
0.999999999999999,1,0.999570
1.0,1,0.999531
1.0,1,0.999572
1.0,1,0.998913
0.9999999999999992,1,0.998542
1.0,1,0.999350
0.9999999999999991,1,0.999068
0.9999999999999959,1,0.999431
1.0,1,0.999654
1.0,1,0.999449
0.9999999999999992,1,0.999350
0.9999999999999956,1,0.999477
0.999999999999996,1,0.998776
0.9999999999999967,1,0.999637
0.9999999999999974,1,0.999574
0.9999999999999993,1,0.999533
0.999999999999997,1,0.999563
1.0,1,0.999466
0.9999999999999993,1,0.998973
1.0,1,0.998802
1.0,1,0.998905
0.9999999999999996,1,0.999546
0.9999999999999952,1,0.999515
0.9999999999999994,1,0.999393
0.9999999999999982,1,0.999521
1.0,1,0.999346
1.0,1,0.999180
1.0,1,0.999081
1.0,1,0.999433
0.9999999999999993,1,0.999195
0.9999999999999949,1,0.999576
1.0,1,0.999549
1.0,1,0.999355
0.9999999999999969,1,0.999598
0.9999999999999957,1,0.999466
0.9999999999999997,1,0.998155
0.9999999999999988,1,0.998913
0.999999999999999,1,0.998420
0.9999999999999977,1,0.999398
1.0,1,0.998420
1.0,1,0.999618
0.9999999999999992,1,0.999474
0.999999999999999,1,0.999692
0.9999999999999962,1,0.999629
0.999999999999999,1,0.999013
0.9999999999999992,1,0.999641
0.9999999999999994,1,0.999423
0.9999999999999939,1,0.998759
0.9999999999999982,1,0.999136
0.9999999999999973,1,0.999468
1.0,1,0.999503
1.0,1,0.999570
1.0,1,0.999457
0.9999999999999997,1,0.999608
1.0,1,0.999381
1.0,1,0.999460
0.9999999999999977,1,0.999518
0.9999999999999954,1,0.998594
0.9999999999999992,1,0.999409
1.0,1,0.999606
1.0,1,0.999378
0.9999999999999984,1,0.999616
0.9999999999999971,1,0.999559
0.9999999999999987,1,0.999428
1.0,1,0.999623
1.0,1,0.999527
1.0,1,0.999334
1.0,1,0.999523
1.0,1,0.999438
0.999999999999999,1,0.999616
1.0,1,0.999608
0.9999999999999983,1,0.999517
1.0,1,0.999195
0.9999999999999996,1,0.999615
0.9999999999999983,1,0.999385
1.0,1,0.999368
1.0,1,0.999692
0.9999999999999969,1,0.999407
1.0,1,0.999669
0.9999999999999973,1,0.999139
1.0,1,0.999458
1.0,1,0.999601
0.999999999999997,1,0.999674
1.0,1,0.999619
1.0,1,0.999454
0.9999999999999953,1,0.998951
1.0,1,0.999488
0.9999999999999974,1,0.999542
0.999999999999996,1,0.999321
0.9999999999999976,1,0.999624
1.0,1,0.999514
1.0,1,0.999520
1.0,1,0.999285
0.9999999999999972,1,0.999518
0.9999999999999998,1,0.999422
1.0,1,0.999098
1.0,1,0.999332
1.0,1,0.998092
0.9999999999999991,1,0.998138
0.9999999999999994,1,0.999573
1.0,1,0.999661
1.0,1,0.999478
1.0,1,0.999505
1.0,1,0.997512
1.0,1,0.998844
1.0,1,0.999255
1.0,1,0.998919
1.0,1,0.999500
0.9999999999999989,1,0.999568
1.0,1,0.999294
0.9999999999999983,1,0.999405
1.0,1,0.998734
1.0,1,0.998843
1.0,1,0.999298
0.9999999999999989,1,0.999428
1.0,1,0.999570
0.999999999999999,1,0.999497
1.0,1,0.999541
0.9999999999999964,1,0.999086
0.9999999999999982,1,0.998476
0.9999999999999956,1,0.999634
1.0,1,0.999345
0.9999999999999999,1,0.999440
0.9999999999999982,1,0.999109
1.0,1,0.998607
1.0,1,0.997602
0.9999999999999982,1,0.999517
1.0,1,0.999325
1.0,1,0.998922
0.9999999999999993,1,0.999476
1.0,1,0.999622
1.0,1,0.999631
0.9999999999999991,1,0.999613
0.9999999999999988,1,0.999344
1.0,1,0.998829
0.9999999999999992,1,0.999676
1.0,1,0.999625
1.0,1,0.999129
0.999999999999997,1,0.999254
0.9999999999999987,1,0.999659
0.9999999999999979,1,0.999598
1.0,1,0.999392
0.9999999999999987,1,0.999573
0.9999999999999971,1,0.999555
1.0,1,0.999444
1.0,1,0.999257
1.0,1,0.999003
0.9999999999999966,1,0.999586
1.0,1,0.999681
1.0,1,0.999467
0.9999999999999978,1,0.999617
1.0,1,0.999606
1.0,1,0.999551
0.9999999999999993,1,0.999400
1.0,1,0.999238
1.0,1,0.999624
1.0,1,0.999540
0.9999999999999989,1,0.999471
0.9999999999999999,1,0.999231
0.9999999999999991,1,0.999566
1.0,1,0.999544
0.9999999999999962,1,0.999669
1.0,1,0.999583
0.9999999999999992,1,0.999298
0.9999999999999967,1,0.998870
0.999999999999999,1,0.999544
0.9999999999999987,1,0.999653
1.0,1,0.999613
1.0,1,0.999614
1.0,1,0.999614
0.9999999999999998,1,0.999490
1.0,1,0.998844
1.0,1,0.999422
0.9999999999999989,1,0.999399
0.9999999999999991,1,0.999559
0.9999999999999971,1,0.999503
0.999999999999999,1,0.999662
1.0,1,0.999228
0.9999999999999966,1,0.998141
0.9999999999999991,1,0.999491
0.9999999999999988,1,0.999532
1.0,1,0.999591
1.0,1,0.999483
1.0,1,0.999618
1.0,1,0.999599
1.0,1,0.999502
0.9999999999999977,1,0.999467
1.0,1,0.998911
1.0,1,0.999241
1.0,1,0.999438
1.0,1,0.999162
1.0,1,0.999659
0.9999999999999981,1,0.999572
1.0,1,0.999561
1.0,1,0.999327
1.0,1,0.999525
0.9999999999999998,1,0.999390
1.0,1,0.999588
0.9999999999999987,1,0.999145
1.0,1,0.999078
0.9999999999999998,1,0.996951
1.0,1,0.995968
0.9999999999999973,1,0.999043
1.0,1,0.999661
0.9999999999999984,1,0.999136
0.9999999999999977,1,0.999539
1.0,1,0.999409
1.0,1,0.998912
0.9999999999999967,1,0.999659
0.9999999999999984,1,0.999579
0.9999999999999991,1,0.999650
1.0,1,0.999653
0.9999999999999993,1,0.999505
0.9999999999999913,1,0.999687
1.0,1,0.999468
1.0,1,0.999546
0.9999999999999999,1,0.999557
1.0,1,0.999651
1.0,1,0.999621
1.0,1,0.999692
0.9999999999999997,1,0.999529
0.9999999999999986,1,0.999338
1.0,1,0.999596
1.0,1,0.999504
1.0,1,0.999568
1.0,1,0.999554
0.9999999999999984,1,0.999351
1.0,1,0.999550
0.999999999999999,1,0.999654
1.0,1,0.999610
0.9999999999999973,1,0.999483
1.0,1,0.997726
0.9999999999999984,1,0.999375
0.9999999999999968,1,0.999552
1.0,1,0.999377
1.0,1,0.999515
1.0,1,0.999518
1.0,1,0.999634
0.999999999999999,1,0.999530
0.9999999999999996,1,0.999388
0.9999999999999969,1,0.998875
1.0,1,0.999121
0.9999999999999981,1,0.997996
1.0,1,0.999668
1.0,1,0.999652
0.999999999999999,1,0.999363
1.0,1,0.999032
1.0,1,0.999633
0.9999999999999999,1,0.999501
0.9999999999999991,1,0.995192
1.0,1,0.996283
0.9999999999999973,1,0.997636
1.0,1,0.999284
0.9999999999999986,1,0.999437
0.999999999999995,1,0.999636
1.0,1,0.999605
0.9999999999999968,1,0.999582
0.9999999999999976,1,0.999588
0.9999999999999999,1,0.998871
1.0,1,0.999683
0.9999999999999986,1,0.999117
1.0,1,0.999692
0.9999999999999962,1,0.999599
0.9999999999999981,1,0.999462
1.0,1,0.997899
0.9999999999999994,1,0.999451
0.9999999999999976,1,0.999524
1.0,1,0.999600
0.9999999999999999,1,0.999457
0.9999999999999977,1,0.999679
0.9999999999999963,1,0.999581
1.0,1,0.999220
1.0,1,0.999319
0.9999999999999976,1,0.998387
0.9999999999999982,1,0.999576
1.0,1,0.999379
0.9999999999999999,1,0.998661
1.0,1,0.999457
1.0,1,0.999647
1.0,1,0.999496
0.9999999999999943,1,0.999214
1.0,1,0.999394
1.0,1,0.999459
0.9999999999999977,1,0.999388
1.0,1,0.999686
0.9999999999999992,1,0.999210
0.9999999999999977,1,0.999190
1.0,1,0.998557
0.9999999999999994,1,0.998807
1.0,1,0.999692
1.0,1,0.999636
1.0,1,0.999546
0.9999999999999974,1,0.999604
1.0,1,0.999411
1.0,1,0.999570
1.0,1,0.998051
1.0,1,0.999565
1.0,1,0.999636
1.0,1,0.999647
0.9999999999999982,1,0.998755
0.9999999999999987,1,0.999441
0.9999999999999991,1,0.999445
1.0,1,0.999675
0.9999999999999993,1,0.999556
0.9999999999999971,1,0.999406
1.0,1,0.999647
1.0,1,0.999597
1.0,1,0.999421
1.0,1,0.999410
0.9999999999999998,1,0.999223
0.9999999999999963,1,0.999543
0.9999999999999999,1,0.999408
1.0,1,0.999471
0.9999999999999967,1,0.999383
1.0,1,0.999361
1.0,1,0.999661
1.0,1,0.999298
1.0,1,0.998876
1.0,1,0.999522
1.0,1,0.999689
1.0,1,0.999405
1.0,1,0.999628
1.0,1,0.999057
1.0,1,0.999602
1.0,1,0.999679
0.9999999999999981,1,0.999486
1.0,1,0.999228
0.9999999999999996,1,0.998565
1.0,1,0.999386
0.9999999999999991,1,0.999576
0.9999999999999997,1,0.999373
1.0,1,0.999433
1.0,1,0.996310
0.9999999999999988,1,0.998505
0.999999999999999,1,0.999497
1.0,1,0.999503
1.0,1,0.999102
0.9999999999999969,1,0.999371
1.0,1,0.999594
1.0,1,0.999647
1.0,1,0.999593
0.9999999999999992,1,0.999458
1.0,1,0.999388
1.0,1,0.999293
1.0,1,0.998897
1.0,1,0.999666
0.9999999999999983,1,0.999344
1.0,1,0.999632
0.9999999999999976,1,0.999593
1.0,1,0.999252
0.999999999999996,1,0.999241
1.0,1,0.999102
0.9999999999999989,1,0.999416
0.999999999999997,1,0.999559
1.0,1,0.999696
1.0,1,0.999521
0.9999999999999986,1,0.999593
1.0,1,0.999296
0.9999999999999972,1,0.999617
1.0,1,0.999507
0.9999999999999971,1,0.998815
1.0,1,0.998343
0.9999999999999977,1,0.999646
0.9999999999999987,1,0.999583
0.9999999999999983,1,0.998973
1.0,1,0.999212
0.999999999999997,1,0.998158
1.0,1,0.999696
0.9999999999999934,1,0.999436
1.0,1,0.999014
0.9999999999999977,1,0.999444
1.0,1,0.999479
0.9999999999999983,1,0.999166
1.0,1,0.999446
1.0,1,0.999572
0.9999999999999986,1,0.999549
1.0,1,0.999616
0.999999999999999,1,0.999546
0.9999999999999983,1,0.999545
1.0,1,0.999405
0.9999999999999961,1,0.999503
0.9999999999999984,1,0.999506
1.0,1,0.999612
0.9999999999999977,1,0.999672
1.0,1,0.999184
1.0,1,0.999659
1.0,1,0.999538
1.0,1,0.999410
0.9999999999999969,1,0.999013
1.0,1,0.998710
1.0,1,0.999547
1.0,1,0.999668
0.9999999999999969,1,0.999506
1.0,1,0.999539
1.0,1,0.999653
1.0,1,0.998358
0.9999999999999954,1,0.999401
0.999999999999996,1,0.999480
0.9999999999999991,1,0.999362
0.9999999999999976,1,0.999235
0.9999999999999997,1,0.999651
0.9999999999999984,1,0.999194
1.0,1,0.999412
1.0,1,0.999382
1.0,1,0.999544
1.0,1,0.999523
1.0,1,0.998672
0.9999999999999987,1,0.998826
0.9999999999999996,1,0.999685
1.0,1,0.999516
0.9999999999999963,1,0.999282
0.9999999999999957,1,0.999488
1.0,1,0.999389
0.9999999999999988,1,0.999517
1.0,1,0.999251
0.9999999999999968,1,0.999345
1.0,1,0.999431
0.999999999999999,1,0.999535
0.9999999999999979,1,0.999680
1.0,1,0.999513
0.9999999999999963,1,0.999500
1.0,1,0.998798
1.0,1,0.999550
1.0,1,0.999339
1.0,1,0.999457
1.0,1,0.999077
1.0,1,0.999250
1.0,1,0.999339
0.9999999999999988,1,0.998575
1.0,1,0.998400
0.9999999999999956,1,0.999653
0.999999999999999,1,0.999555
1.0,1,0.999644
1.0,1,0.999693
1.0,1,0.999650
1.0,1,0.997191
0.9999999999999981,1,0.998339
1.0,1,0.999518
0.9999999999999982,1,0.998804
1.0,1,0.999644
1.0,1,0.998981
0.999999999999998,1,0.999412
1.0,1,0.999678
0.9999999999999982,1,0.999429
1.0,1,0.999641
1.0,1,0.999671
0.9999999999999982,1,0.999570
1.0,1,0.999399
1.0,1,0.999335
0.9999999999999998,1,0.999603
0.9999999999999994,1,0.999608
1.0,1,0.999476
0.999999999999998,1,0.999550
0.9999999999999981,1,0.999494
1.0,1,0.999577
0.9999999999999966,1,0.999418
0.9999999999999989,1,0.999608
1.0,1,0.999593
0.9999999999999974,1,0.999333
1.0,1,0.999447
0.999999999999997,1,0.999363
0.9999999999999993,1,0.999522
0.9999999999999993,1,0.999566
1.0,1,0.999572
1.0,1,0.999346
0.9999999999999963,1,0.999397
0.9999999999999972,1,0.998927
0.9999999999999976,1,0.997763
1.0,1,0.999332
0.9999999999999976,1,0.999397
0.9999999999999988,1,0.999369
0.9999999999999977,1,0.999307
0.9999999999999982,1,0.999139
1.0,1,0.999140
0.9999999999999973,1,0.999473
1.0,1,0.999661
0.9999999999999982,1,0.999128
1.0,1,0.999230
0.9999999999999986,1,0.998950
0.9999999999999989,1,0.999528
1.0,1,0.999680
0.9999999999999962,1,0.999476
0.9999999999999974,1,0.999574
1.0,1,0.999125
1.0,1,0.999375
1.0,1,0.999298
1.0,1,0.998771
0.9999999999999979,1,0.999554
1.0,1,0.999505
1.0,1,0.999612
1.0,1,0.999416
0.9999999999999974,1,0.998836
0.9999999999999976,1,0.999057
0.9999999999999998,1,0.996644
1.0,1,0.999510
1.0,1,0.999665
0.9999999999999999,1,0.999547
0.9999999999999963,1,0.998775
0.9999999999999963,1,0.999663
1.0,1,0.999477
0.9999999999999992,1,0.998848
1.0,1,0.998578
1.0,1,0.999065
1.0,1,0.998925
1.0,1,0.999164
1.0,1,0.999622
1.0,1,0.999475
1.0,1,0.999522
0.9999999999999999,1,0.999452
1.0,1,0.998972
1.0,1,0.999647
0.9999999999999936,1,0.999556
1.0,1,0.999498
1.0,1,0.998983
0.9999999999999994,1,0.998619
0.9999999999999968,1,0.999605
1.0,1,0.999436
1.0,1,0.999605
0.9999999999999987,1,0.999342
0.9999999999999984,1,0.998549
1.0,1,0.999558
0.9999999999999983,1,0.999234
0.9999999999999992,1,0.998586
0.9999999999999996,1,0.999543
0.9999999999999989,1,0.999537
1.0,1,0.999385
0.9999999999999999,1,0.998233
1.0,1,0.999648
1.0,1,0.999476
0.9999999999999912,1,0.999501
1.0,1,0.999658
1.0,1,0.999674
1.0,1,0.999548
0.9999999999999996,1,0.999098
0.9999999999999997,1,0.999319
0.999999999999995,1,0.999620
0.9999999999999987,1,0.999575
1.0,1,0.999692
1.0,1,0.999525
0.9999999999999994,1,0.999476
1.0,1,0.999594
1.0,1,0.999402
1.0,1,0.999665
1.0,1,0.999329
0.9999999999999969,1,0.999518
1.0,1,0.999138
1.0,1,0.999548
0.9999999999999974,1,0.999331
0.9999999999999978,1,0.999602
0.999999999999995,1,0.999677
0.9999999999999929,1,0.999481
0.9999999999999972,1,0.999304
1.0,1,0.999438
1.0,1,0.999317
0.9999999999999969,1,0.999587
0.999999999999999,1,0.999536
0.9999999999999977,1,0.999344
0.9999999999999986,1,0.999553
1.0,1,0.999459
1.0,1,0.998544
1.0,1,0.999658
1.0,1,0.999668
1.0,1,0.999662
0.9999999999999974,1,0.999255
1.0,1,0.999523
1.0,1,0.999389
0.999999999999998,1,0.999555
1.0,1,0.999331
1.0,1,0.998997
0.9999999999999967,1,0.999536
1.0,1,0.999686
1.0,1,0.999463
0.9999999999999998,1,0.999590
1.0,1,0.999574
1.0,1,0.999136
0.9999999999999954,1,0.999532
0.9999999999999963,1,0.999308
1.0,1,0.999197
1.0,1,0.998542
1.0,1,0.999619
1.0,1,0.999264
1.0,1,0.999651
0.9999999999999987,1,0.999116
1.0,1,0.998148
1.0,1,0.999683
0.9999999999999993,1,0.999597
0.9999999999999994,1,0.999517
0.9999999999999981,1,0.999033
0.9999999999999979,1,0.999688
1.0,1,0.999476
1.0,1,0.999547
1.0,1,0.999581
0.9999999999999992,1,0.999598
1.0,1,0.999650
1.0,1,0.999192
0.9999999999999968,1,0.999012
0.9999999999999964,1,0.997788
0.9999999999999987,1,0.997549
0.9999999999999998,1,0.999285
0.9999999999999994,1,0.998279
1.0,1,0.999658
1.0,1,0.999522
1.0,1,0.999367
0.9999999999999979,1,0.999602
1.0,1,0.998390
1.0,1,0.999586
0.9999999999999999,1,0.999471
0.999999999999999,1,0.999403
0.9999999999999989,1,0.998016
1.0,1,0.999534
0.9999999999999957,1,0.999562
1.0,1,0.999485
0.9999999999999989,1,0.999079
0.9999999999999993,1,0.999649
1.0,1,0.999503
1.0,1,0.999249
0.9999999999999996,1,0.999400
0.9999999999999967,1,0.998996
1.0,1,0.999530
0.9999999999999977,1,0.999466
0.9999999999999983,1,0.999609
1.0,1,0.999419
1.0,1,0.999513
1.0,1,0.999695
1.0,1,0.999576
0.9999999999999983,1,0.999548
0.9999999999999992,1,0.999688
1.0,1,0.999569
1.0,1,0.999296
0.9999999999999973,1,0.999491
0.9999999999999994,1,0.999653
0.9999999999999982,1,0.999249
0.9999999999999956,1,0.999629
1.0,1,0.999627
0.9999999999999941,1,0.999497
1.0,1,0.999254
0.9999999999999967,1,0.999430
0.9999999999999977,1,0.999501
0.9999999999999983,1,0.999614
0.999999999999999,1,0.999693
1.0,1,0.999491
1.0,1,0.999559
1.0,1,0.999030
0.9999999999999997,1,0.999116
1.0,1,0.999048
1.0,1,0.999065
0.9999999999999956,1,0.999532
0.9999999999999989,1,0.999611
0.9999999999999988,1,0.999585
0.9999999999999999,1,0.999564
1.0,1,0.999336
1.0,1,0.999249
0.9999999999999998,1,0.999220
0.9999999999999987,1,0.999470
0.9999999999999959,1,0.999226
1.0,1,0.999491
1.0,1,0.999619
0.999999999999996,1,0.999411
0.999999999999994,1,0.999315
0.9999999999999968,1,0.999505
1.0,1,0.999457
1.0,1,0.999504
1.0,1,0.999685
0.9999999999999973,1,0.999500
0.9999999999999962,1,0.999538
1.0,1,0.999507
1.0,1,0.999474
0.999999999999998,1,0.999367
0.9999999999999969,1,0.999575
1.0,1,0.999467
1.0,1,0.999529
1.0,1,0.999671
1.0,1,0.999150
0.9999999999999962,1,0.999471
1.0,1,0.999582
0.9999999999999973,1,0.999373
1.0,1,0.998435
1.0,1,0.998350
0.999999999999999,1,0.999621
0.9999999999999984,1,0.998919
1.0,1,0.999651
1.0,1,0.999654
0.9999999999999991,1,0.999453
1.0,1,0.996997
1.0,1,0.999115
0.9999999999999983,1,0.999680
0.9999999999999987,1,0.999556
0.9999999999999967,1,0.999655
1.0,1,0.999688
0.9999999999999987,1,0.999499
1.0,1,0.998971
1.0,1,0.999565
0.9999999999999988,1,0.999666
1.0,1,0.999679
0.9999999999999967,1,0.999073
0.9999999999999997,1,0.998450
1.0,1,0.999600
0.9999999999999982,1,0.999302
0.9999999999999963,1,0.999349
0.9999999999999991,1,0.999504
0.999999999999999,1,0.999505
1.0,1,0.999625
1.0,1,0.999677
