-0.09419185735847924,0,0.005827
0.25780719326270146,0,0.912371
0.10323503535968742,0,0.798125
0.17801727521158028,0,0.814507
0.1716639906821333,0,0.008765
0.1786825341932188,0,0.265891
0.12406919653906784,0,0.928410
0.14188248516009208,1,0.999556
0.42051974243219425,0,0.895360
0.42236373647616055,0,0.395707
0.25069882352727196,0,0.938130
0.28524693538478096,0,0.487354
0.34447019801294165,0,0.855148
0.12365851152502168,0,0.405766
0.12007132209801981,0,0.115954
0.11786390964191458,0,0.099688
0.12070520330115851,0,0.132733
0.1895911598672272,0,0.666812
0.10692770792728565,0,0.084790
0.08444948444479468,0,0.090132
0.06440357808071061,0,0.014620
0.16579157718476764,0,0.709816
0.06865253742549594,0,0.798828
0.06584825979338825,0,0.988739
0.2695476348783726,0,0.800895
0.28841607386852014,0,0.820644
0.21314144792839212,1,0.998294
0.2561812273740959,0,0.860700
0.24575227408889325,0,0.796161
0.09143018264431123,1,0.994652
0.034652678303644976,0,0.576012
0.33171944155230204,1,0.997826
0.0671726517301728,0,0.948507
0.07503118347541296,0,0.834981
0.0508551410340879,0,0.549239
0.13609663824535312,0,0.915942
0.12093444860164551,0,0.931818
0.13245812241374286,0,0.974474
0.24002766395463027,0,0.942971
0.3321211752634797,0,0.970313
0.34159594844397634,0,0.986287
0.33854115259421363,0,0.979321
0.15849673610150306,0,0.861408
0.17111981928577533,0,0.935339
0.07281879422602294,0,0.879507
0.16998659491721668,0,0.879973
0.1425904821695574,0,0.922004
0.0907159181209457,0,0.970200
0.11550905874199552,0,0.993421
0.12447392394657214,0,0.985040
0.20329884043274415,0,0.933381
0.06911433246132635,0,0.940675
0.1361147157409915,0,0.991200
0.1444299119290412,0,0.992276
0.1043812024410588,0,0.940395
0.15197875428456992,0,0.970263
0.11008488988428301,1,0.998462
0.13907749120857035,1,0.997101
0.07527713056231397,0,0.903010
0.11453093759883874,0,0.903808
0.1996898055319767,0,0.887755
0.23805060492015548,0,0.930197
0.4572727328824102,0,0.774851
0.3125679800644386,0,0.795427
0.4289270521362296,1,0.998528
0.587299348788027,0,0.989386
0.33754192398968463,0,0.928782
0.22951445304496823,0,0.970695
0.389515918577259,0,0.991278
0.3492362825609869,0,0.970754
0.26388562621301676,0,0.989495
0.3619743590863385,0,0.850589
0.08573936795268743,0,0.889276
0.11626827888805617,0,0.953085
0.11361824578480191,1,0.998573
0.11531663808769248,0,0.987512
0.09603336734474016,0,0.982008
0.03328881546115924,0,0.956089
0.12457807819921123,0,0.994241
0.27428589598404307,0,0.882331
0.3730769274184317,0,0.984252
0.0968651557302594,0,0.958818
0.28327993890301567,0,0.967788
0.305291787095964,1,0.998564
0.07479705241715176,0,0.985813
0.20485314203144986,0,0.945336
0.3734842569921023,0,0.924089
0.4873097064751749,1,0.998483
0.212691323051683,0,0.982079
0.20955213929147143,0,0.915816
0.03784050661193293,0,0.965757
0.09049609746349153,0,0.944502
0.0015222418799812909,0,0.969422
0.0855916167093696,0,0.930287
0.02715738213615482,0,0.962692
0.047003255999022296,1,0.992948
-0.010004182229578428,1,0.994455
0.06269417043062314,0,0.940165
0.1295701810657071,0,0.619197
0.2313516272347367,0,0.945549
0.04577261071943813,0,0.863388
0.11695108490862473,0,0.987673
0.23983455546374724,0,0.961399
0.024218030362800704,0,0.952381
0.07263145703002809,0,0.757599
0.10023048340375217,0,0.565972
0.11753585109746363,0,0.896774
0.07424589135881111,0,0.631115
0.29069051100619986,0,0.969309
0.3986463294844912,0,0.357165
0.3023389172373021,0,0.543678
0.5471830669055885,0,0.918421
0.41485819032395,0,0.985708
0.23862089383990231,0,0.830523
0.43781096290346266,1,0.995005
0.4299804069899292,0,0.991005
0.5082005924934624,0,0.776936
0.43122387551393526,0,0.859228
0.4603465893659321,0,0.769925
0.5818080711465426,1,0.999531
0.2082326000648951,0,0.877583
0.24560120421758422,0,0.869345
0.39058552190691365,0,0.940683
0.1111804245084009,0,0.892538
0.2844271688848396,0,0.866159
0.19082114395630104,0,0.904275
0.23564678258110172,1,0.997551
0.2943830139113481,0,0.930686
0.4530935594022072,0,0.951196
0.5576287955493889,0,0.962018
0.2096498799085814,0,0.989316
0.6671855686703205,1,0.998701
0.7484219552236675,0,0.901329
0.7423333110852444,0,0.865717
0.7326853176766233,0,0.879792
0.1330910596393972,0,0.900788
0.23675754602731072,0,0.714973
0.38474735484005557,0,0.816104
0.3662961837276348,0,0.724917
0.3519327530603446,0,0.665720
0.26174241690792965,0,0.814319
0.16323179082863715,0,0.922855
0.25419929980367795,0,0.912288
0.4189286978053857,0,0.932271
0.32711356278063236,0,0.961039
0.658316474720515,0,0.663375
0.6871576554164206,0,0.934074
0.6357188054573712,1,0.998972
0.49767292495303367,0,0.993444
0.4669464861466922,0,0.961065
0.39516565380619595,0,0.923561
0.3547469708363202,0,0.907940
0.3327089005390258,0,0.991332
0.3996540262443058,0,0.955603
0.21245319433006665,0,0.870266
0.3903708785927785,0,0.765009
0.6311726674156205,0,0.729896
0.23761095480555666,0,0.699854
0.21607383907572558,0,0.967763
0.6434098850991443,0,0.952848
0.6246735655654617,0,0.767442
0.7866486569552346,0,0.937716
0.7916447396679755,0,0.814987
0.16151720169040154,0,0.910448
0.3621706112330578,0,0.985867
0.23970705494993022,0,0.989265
0.46505146109018364,0,0.986938
0.7604099123456354,0,0.972880
0.7134553183625523,0,0.869345
0.6965629734198981,0,0.898882
0.8042251927908344,1,0.997504
0.8312241014674142,0,0.961661
0.8523556628021102,0,0.962241
0.22547380796899866,0,0.900065
0.3638355973237214,0,0.735195
0.1827969491567236,0,0.966825
0.2112710535923584,1,0.998460
0.16819423395810656,0,0.706132
0.16053736100327518,0,0.693720
0.2594217741828886,0,0.947037
0.30219835366327147,0,0.808144
0.3045951507178916,0,0.989905
0.3600202913964023,0,0.906363
0.41599838186666954,0,0.921559
0.28984830181367527,0,0.951860
0.24506389244253335,0,0.980059
0.6317561166480619,0,0.964503
0.20541304745599903,0,0.981313
0.18773879434300556,0,0.513043
0.14873863123351647,0,0.958355
0.23846425165169763,0,0.909669
0.04529702800931538,0,0.823963
0.03472693974371545,0,0.854167
-0.010233260202113166,0,0.579044
0.06923327002605918,0,0.700599
0.08887508364780493,0,0.955090
0.11460585090300902,0,0.272940
0.182289538641994,0,0.820976
0.07964140548265876,0,0.827013
0.17694261376915527,1,0.999483
0.31732995774740896,0,0.958298
0.31659944561560793,0,0.503729
0.4883998998910326,0,0.907621
0.5596278673435617,0,0.911894
0.5707163351062529,0,0.979672
0.10243248227124857,0,0.812539
0.16166689219500982,0,0.873773
0.29053736548636844,0,0.359715
0.46401471220371326,1,0.992285
0.6266157603767902,0,0.978759
0.5751323054720746,0,0.980537
0.4820490519207336,0,0.973051
0.1880447075752286,1,0.997389
0.3226358979234537,0,0.620614
0.2782194447155656,0,0.633527
0.3749173155214932,0,0.621134
0.7978778553286798,0,0.944687
0.45813785858414835,0,0.963688
0.6738436418705025,1,0.997667
0.279248532649053,0,0.918959
0.3906707601775241,0,0.739721
0.569829551891453,0,0.944671
0.4062093828723333,1,0.996145
0.4973794919891897,0,0.917193
0.5740485738882488,0,0.817061
0.6296730265674969,0,0.890045
0.6412013327719859,0,0.804878
0.5896330390722266,0,0.823638
0.6502506947359165,0,0.957594
0.4251509861852042,0,0.837790
0.5502543993511699,0,0.751752
0.47804595377201897,0,0.766260
0.5312755763720671,0,0.978534
0.5452777167888133,1,0.998184
0.5560133101593407,0,0.927605
0.5355303729814341,0,0.848780
0.6239641428896344,0,0.911273
0.6620614349771611,0,0.784542
0.7119409395041835,0,0.653923
0.620069125459917,0,0.806818
0.6694650737472264,0,0.926928
0.6856174511479833,0,0.888649
0.765347040248003,0,0.690856
0.6547990437712093,0,0.961977
0.5964212861230093,0,0.940954
0.5984172524256055,0,0.774809
0.5821880965041759,1,0.999269
0.40845980502700846,0,0.832447
0.5606931741594753,0,0.857783
0.6435138128174576,0,0.899885
0.19460754815220346,0,0.908852
0.2668077742083264,0,0.895577
0.2625620775065493,0,0.787779
0.329736812799461,0,0.861190
0.31460312116151706,0,0.885883
0.359104022252892,0,0.989856
0.3109572345894042,0,0.869312
0.3774832609317578,0,0.799251
0.4087546265708674,0,0.763516
0.42992872897514295,0,0.904762
0.46881013240286384,0,0.956044
0.4686668284010796,0,0.941075
0.2494360186459457,0,0.955638
0.3695146641564221,0,0.980884
0.39639448350827416,0,0.589697
0.38265880543071057,0,0.678334
0.46265773761495715,0,0.677938
0.5762117856007772,0,0.931656
0.4838952073355088,0,0.824070
0.7184028386690713,0,0.994353
0.6316624422600545,0,0.896461
0.5400277574969511,1,0.999642
0.46648465190863025,0,0.764436
0.5934413950171243,0,0.924945
0.5878610334086797,0,0.688232
0.5024425447173866,0,0.957576
0.49679586185481495,1,0.994224
0.5922948733753871,0,0.843738
0.6829053783478403,0,0.765799
0.6605312887838954,0,0.799876
0.45847183602385627,0,0.925464
0.41472916357514167,0,0.854364
0.5329382867972752,0,0.970533
0.5508323284993932,0,0.974448
0.6698218470345303,0,0.879029
0.6682901158622319,0,0.963245
0.3129724661945577,0,0.791473
0.4281972140324263,0,0.984627
0.3418602285519909,0,0.890776
0.4915730119207281,0,0.849118
0.48639747498039115,0,0.976566
0.5398577009495219,0,0.911464
0.567547123181033,0,0.971114
0.34759065030643493,0,0.971160
0.40188156990752544,0,0.988705
0.5231431735649138,0,0.921166
0.47328296439430434,0,0.952123
0.4058529243370861,0,0.761059
0.48632957828248236,0,0.755844
0.5492249871504976,0,0.980352
0.5225191374278794,0,0.967752
0.3473781761054509,0,0.955307
0.40932974064694166,0,0.972258
0.4651603968128687,0,0.889599
0.5990993743612495,0,0.905750
0.49793231152713635,0,0.846862
0.5778491405674631,0,0.980631
0.41547881012859555,0,0.811060
0.43312524730072827,1,0.997580
0.43632527307972674,0,0.689189
0.492044261140661,0,0.990472
0.4338339849035563,0,0.878443
0.5368804240283843,0,0.692045
0.532670745298696,0,0.813488
0.4846198808497122,0,0.837209
0.45941021169091667,0,0.945946
0.4552424163333083,0,0.756166
0.4957453113236001,0,0.909548
0.4962300209806021,0,0.896956
0.5397434176212621,0,0.508047
0.5140812165973427,0,0.652051
0.5432109127583401,0,0.976581
0.5189877959503562,0,0.830286
0.5443808106710919,0,0.801605
0.4840063300791854,0,0.903489
0.4697371314571396,0,0.522388
0.47339673398146453,0,0.802997
0.23512363686421345,0,0.841908
0.4922170676228256,0,0.879857
0.32115140933990727,0,0.836690
0.5038318085965082,0,0.770338
0.5378423886752483,0,0.808905
0.5694733308354278,0,0.985935
0.2432654875043566,0,0.631816
0.4904486799202633,0,0.986786
0.2897020096027663,1,0.996577
0.6108241742416105,1,0.995141
0.5600091578826221,0,0.639123
0.5732323919251268,1,0.998511
0.636614425669636,0,0.948870
0.6093342329489237,0,0.810036
0.616219417607214,0,0.970871
0.6538592759946247,1,0.997436
0.6494851634513575,0,0.916502
0.6979556804101796,0,0.612065
0.7240822475213456,0,0.657222
0.7104495037604532,0,0.710705
0.6918033415978271,0,0.924538
0.5817053895041704,0,0.981858
0.1481036438184359,0,0.984171
0.6613125395237185,0,0.984524
0.6471057633175645,0,0.903014
0.7281598651467948,0,0.790530
0.796286637583978,0,0.950756
0.7519889491542943,0,0.979791
0.4733525101779442,0,0.956600
0.782915144845386,0,0.869231
0.7711738245151669,0,0.934620
0.8068607272693942,0,0.972397
0.8140761250819009,0,0.985834
0.6774023167439914,0,0.856290
0.567262122527241,0,0.905762
0.8067269831796314,0,0.821807
0.8147403477409376,0,0.874357
0.7840659105668505,0,0.982538
0.8208631825754664,0,0.993654
0.8219639688040503,0,0.991731
0.10266839728479552,0,0.919977
0.8336010735684422,0,0.964824
0.8169493067615602,0,0.849156
0.21605378621790747,0,0.951827
0.7901996466928763,0,0.992777
0.8046615600992731,0,0.955994
0.6806335226772936,0,0.766221
0.593401911644488,0,0.846050
0.8292386908191249,0,0.976576
0.6615781460590697,0,0.960924
0.656453652300514,0,0.760596
0.8399374456223138,0,0.680875
0.7181532179250447,0,0.968964
0.6567408789177251,0,0.821309
0.7893052997926819,0,0.858367
0.8014067469232251,0,0.954930
0.737086303263139,0,0.966536
0.8491997660366095,1,0.996675
0.8296944893244936,1,0.996705
0.7181568334379216,0,0.951693
0.8217609800404946,0,0.659195
0.8077292587718478,0,0.760760
0.845174601678701,0,0.945435
0.8467571500652722,0,0.756772
0.6233589752907108,0,0.795312
0.2862082220157047,0,0.764108
0.8515709955114592,0,0.961168
0.4311548480847607,0,0.934816
0.8678673841632177,0,0.848276
0.8715039909583618,0,0.740724
0.8702297755951236,0,0.991923
0.46309724173254496,0,0.760221
0.46153053254541304,0,0.881369
0.2165163455515227,0,0.802755
0.869679720716249,0,0.965151
0.8835586322410287,0,0.977248
0.8860116751850508,0,0.985689
0.7686574932784468,0,0.961632
0.866699674948611,0,0.985051
0.8907111416531313,1,0.999291
0.8717369868443459,0,0.692270
0.8811022960363272,1,0.999646
0.8656687687343892,0,0.926106
0.6974543176735751,0,0.921167
0.3480849225635744,0,0.853731
0.6062659046885941,0,0.903155
0.25104238288759817,0,0.881466
0.17262294968783964,0,0.958919
0.883197417578189,0,0.990424
0.8517101554203153,0,0.984876
0.8208989584915503,0,0.987966
0.7823251812841491,0,0.822967
0.6294353018153108,0,0.710390
0.7209429004229714,0,0.943299
0.6522513924138198,0,0.756970
0.8319981529650488,0,0.762104
0.861791734460193,0,0.743772
0.8626663687406869,0,0.981299
0.8428614752059731,0,0.965591
0.8363406042758577,0,0.701166
0.8361207160043632,0,0.843434
0.6888353489193921,0,0.855448
0.6749718766780024,0,0.652280
0.8312443474485403,0,0.963332
0.7986251616174174,0,0.889405
0.8136381882994158,0,0.952899
0.8751271945275245,0,0.749513
0.8887952926003846,0,0.918788
0.8480142503111653,0,0.855726
0.8563288783335115,0,0.965842
0.8296064651157016,0,0.985407
0.7081267432294935,0,0.989740
0.8775824918498419,0,0.868365
0.9094116454454755,0,0.980944
0.846810148961531,0,0.985934
0.8830753169471823,0,0.823454
0.6281442041058336,0,0.981308
0.8265021473603219,0,0.990150
0.8568050399632932,0,0.744807
0.8814554320518978,0,0.722807
0.7815550626337722,0,0.755671
0.8987699562708822,0,0.964819
0.9054103907957533,0,0.986531
0.7735995650438989,0,0.973440
0.9104194004701744,0,0.993855
0.9294860011623183,0,0.970332
0.9071552575526259,0,0.994529
0.7850461897380004,1,0.997545
0.8834942519192719,0,0.939891
0.8875558818439614,0,0.743191
0.9238788980064305,0,0.991972
0.9219696549464643,0,0.747837
0.92934048388834,0,0.993972
0.4681387711906495,0,0.876567
0.8975198088307996,1,0.999194
0.9038266186916837,0,0.947197
0.9074827834731539,0,0.947695
0.8744917144054419,0,0.994545
0.7697978081872504,0,0.858974
0.8220994042891582,0,0.956364
0.8477263545367207,0,0.951730
0.8457404696458082,0,0.985544
0.8241098325303857,0,0.993318
0.8471016008688377,0,0.964918
0.832847346500159,0,0.965080
0.8365398830663489,0,0.950511
0.8358451151961538,0,0.989510
0.8390796442107319,1,0.997982
0.8431975250011637,1,0.998423
0.8491870358112045,0,0.885367
0.8017054321638788,0,0.464323
0.8274665444392043,1,0.996660
0.8503606932085387,0,0.943464
0.8779925661603514,0,0.965389
0.5061523639707834,0,0.542940
0.8323269971488,0,0.899640
0.8769471257639586,0,0.946313
0.8731536669697987,0,0.927237
0.5613525388699472,0,0.957794
0.9084750784916689,1,0.999686
0.9116921959122753,0,0.989979
0.9021640196138722,0,0.976858
0.887535485285617,1,0.999190
0.9035758001591779,0,0.981993
0.8654636221787949,0,0.760168
0.8549375608869667,0,0.881975
0.9089530590055284,0,0.857295
0.8865383445327674,0,0.663636
0.8871398701566424,0,0.994322
0.9038467676135871,0,0.991291
0.5972620085104247,0,0.971064
0.21336607202304372,0,0.933333
0.1820035282479077,0,0.967581
0.16223742703583022,0,0.949421
0.15460111238822574,0,0.775401
0.22705594280273012,0,0.800322
0.21998452687834047,0,0.981921
0.22709124090006863,0,0.957466
0.9050127681843401,0,0.983100
0.8911367022241904,1,0.997451
0.8894633299084008,0,0.975803
0.8796409966205929,0,0.952356
0.8471023677808648,0,0.950119
0.9129154922156075,0,0.967427
0.9186318447075721,0,0.995737
0.53552597734617,0,0.892325
0.22135555608222943,0,0.881587
0.1167502022912287,0,0.942672
0.33931042500334785,0,0.898978
0.09114883230329107,0,0.824018
0.20842544438730098,0,0.910569
0.07123391041088165,0,0.895349
0.15902342917280118,0,0.959484
0.21165703170900374,0,0.921053
0.4242410743690855,0,0.846739
0.07306470912057635,0,0.870412
0.18318123359580712,0,0.862385
0.27051112636352004,0,0.892157
0.8878935603876665,0,0.876589
0.19167713007712825,0,0.921039
0.8377619870045105,0,0.752558
0.9005773436718664,0,0.954027
0.9134326162452799,1,0.996244
0.8905968706947406,0,0.982519
0.9170266993231259,0,0.967152
0.9315829239820871,1,0.998434
0.9081817425483204,0,0.956882
0.8275662367276306,0,0.919237
0.17563505609808275,0,0.989480
0.16655897557033056,0,0.931955
0.15176682731244726,0,0.956594
0.08676943290594692,0,0.814180
0.1667202627295868,0,0.738191
0.09586861555832149,0,0.918057
0.05520576890893558,0,0.908046
0.05080247071420087,0,0.817555
0.0163254014477191,0,0.981781
0.11283748720580983,0,0.969066
0.0687714161162094,0,0.877722
0.12546262574960007,0,0.869215
0.07686786633224893,0,0.985666
0.1089016430459399,0,0.959412
0.12112942606246908,0,0.947220
0.1512395935078624,1,0.999102
0.1623616806060804,0,0.961379
0.16768194709611187,0,0.979016
0.09487750301380479,0,0.903808
0.031573120424730886,1,0.990228
0.1681473268567079,1,0.991398
0.13504751044608024,0,0.831276
0.28864121826613626,0,0.915200
0.1973773151537643,0,0.921801
0.20623558210715906,1,0.997475
0.2592114458453637,1,0.991513
0.30644086332879644,0,0.972348
0.17780143533671458,0,0.979550
0.25585112763224505,0,0.959315
0.1810542552630395,0,0.958134
0.16119056840419355,0,0.968858
0.2953947171333491,0,0.964509
0.3140707407547426,1,0.988042
0.3145745127131803,0,0.470974
0.3344164487994804,0,0.893507
0.22250607609787426,0,0.895522
0.27797549186977727,0,0.900538
0.3824756330536215,0,0.912142
0.42929920395357857,0,0.439864
0.30473559172380266,0,0.984198
0.3481172799428461,0,0.903236
0.4347664796112836,0,0.922481
0.45069210363041473,0,0.492722
0.44419539849358625,0,0.729433
0.44156100024558825,0,0.871845
0.47883937573691526,1,0.991830
0.517781973754653,0,0.945946
0.45922722917340564,0,0.716667
0.3096256032551265,0,0.955716
0.20348992912609076,0,0.862642
0.23659240503209292,0,0.864504
0.43949305609992845,0,0.672897
0.3579455826936537,0,0.904483
0.34376080914569124,0,0.841419
0.3919468457972253,0,0.599189
0.34533510132122797,0,0.891382
0.36774613590877986,0,0.390492
0.41827612327419683,1,0.988889
0.5085753419069503,0,0.972574
0.588383644658799,0,0.986301
0.5936380770587273,0,0.532107
0.3466660835044604,0,0.897683
0.5066750719757936,0,0.890786
0.49804507022341526,0,0.985089
0.5527721298022255,0,0.432551
0.6068029932182427,0,0.985054
0.49936786964770535,0,0.556399
0.2576482816781504,0,0.821696
0.6395220274648195,0,0.975204
0.6108615855178826,0,0.908331
0.5715676377462543,0,0.941935
0.4444123259221595,0,0.942234
0.7947537626602864,0,0.963499
0.6264044194674406,0,0.903412
0.6560603398957725,0,0.877295
0.7461842716924347,0,0.975424
0.5659408475016152,0,0.888401
0.5874172675778162,0,0.871804
0.5254508747719825,0,0.988058
0.49597716898675137,0,0.957507
0.5365172714260966,0,0.659424
0.5606896327075579,1,0.996207
0.46051084720415025,0,0.852204
0.469206739830083,0,0.880146
0.6201749957197372,0,0.927774
0.6521319728141367,0,0.726217
0.5573888256809945,0,0.700459
0.6033806569957932,0,0.939504
0.5999999776625062,0,0.964990
0.48579119964821504,0,0.734888
0.5626057502544133,0,0.927182
0.5880434635624685,0,0.935738
0.5593651127274277,0,0.972944
0.7404777447579456,0,0.986926
0.7931115750037647,0,0.933833
0.6161868694908643,0,0.919588
0.5243394785760833,0,0.903943
0.5976822975839365,0,0.954029
0.6212931046506955,0,0.858844
0.6796364310991895,0,0.851118
0.573240413050978,0,0.973966
0.53913879746151,0,0.754265
0.8451692666904489,0,0.927905
0.6526813241460847,0,0.989731
0.6041523103743921,0,0.786824
0.5585013834761442,0,0.879664
0.5991583894144311,0,0.763137
0.4030494947749503,0,0.964740
0.4921984726913334,0,0.860969
0.669586563061437,0,0.910769
0.5723340610790876,1,0.997409
0.6318034489595998,1,0.998427
0.7380072912539876,0,0.854405
0.6360731097009337,0,0.981893
0.6148323011804544,0,0.800505
0.7578099092002796,0,0.972707
0.716888574017365,1,0.994800
0.7037860031395755,0,0.961292
0.6967192737435398,0,0.755125
0.7289772991253495,0,0.879051
0.7558848951588447,0,0.824710
0.754886843512604,0,0.980755
0.7802008449208043,0,0.762116
0.7553647308967738,0,0.994811
0.7750896047952146,1,0.999559
0.7478875791711334,0,0.977011
0.769887517947228,0,0.976628
0.8168474221999834,0,0.869822
0.7355015038189391,1,0.996085
0.7307727940556742,0,0.991237
0.7674930749699845,0,0.866270
0.8048830443598715,0,0.713228
0.5041383751774059,0,0.945921
0.8327715069919138,0,0.968613
0.7617299615072874,0,0.690955
0.3513224822677863,0,0.970248
0.4448649735327244,1,0.999300
0.822587617992731,0,0.886321
0.8155566806960165,0,0.966063
0.8375570841042531,0,0.976510
0.8424532537137528,0,0.926016
0.41512283619498797,0,0.968691
0.8364242055622186,1,0.998513
0.3220933370658763,0,0.962571
0.8510291517826735,0,0.987931
0.380478247938978,0,0.951100
0.44948045649817686,1,0.990228
0.3869775148827278,0,0.958199
0.46402999476422296,1,0.987749
0.42647286374193794,1,0.989247
0.5214040921251683,1,0.997059
0.5486810601622975,0,0.969361
0.5953658817625818,1,0.993620
0.5309104341304166,0,0.933952
0.4631030741479035,0,0.835165
0.31598858286338705,1,0.994109
0.340174176129009,1,0.977064
0.3445644649303542,1,0.975000
0.3957026680967127,0,0.861635
0.47025989997104006,0,0.970976
0.5690844104493082,0,0.963087
0.581280882650655,1,0.997497
0.622022311678546,0,0.786010
0.6565923103173309,0,0.949025
0.7095767648758011,0,0.920518
0.6338903356905927,0,0.917464
0.6477855754032469,0,0.790500
0.6941936347668607,0,0.934354
0.6822037131005603,0,0.991403
0.6339208884483135,0,0.877163
0.5965550995129915,0,0.912072
0.534493288559184,0,0.961538
0.6702522419132195,0,0.872564
0.7415225408627545,0,0.880038
0.7558509415853557,0,0.708068
0.6761902195250549,0,0.901319
0.7103712674811729,0,0.892801
0.700882518404914,0,0.964751
0.6882271014389884,0,0.987835
0.6317457757552841,0,0.760348
0.6599377146608381,0,0.950808
0.6770162591785407,0,0.983130
0.6491824143938413,0,0.787234
0.6192416195733109,0,0.465579
0.6923172937117462,0,0.874289
0.7356538317222624,0,0.888711
0.4872532818356151,0,0.630366
0.4506016109110258,0,0.678497
0.4808678426072239,0,0.485908
0.5676734439550333,0,0.690846
0.5501590756043289,0,0.526849
0.5450172613649912,0,0.915194
0.5838191349774453,0,0.878482
0.6269830248168496,0,0.748242
0.536127210995624,0,0.654940
0.5427529204693712,0,0.863616
0.5162537705563133,0,0.987564
0.5084171707995672,0,0.996178
0.5812423488908984,0,0.444057
0.5751256254578616,0,0.717391
0.5639443140333024,0,0.981013
0.5574624468557281,0,0.989247
0.5862007934222406,0,0.857994
0.5777289585876144,0,0.802558
0.6438702308753291,0,0.465882
0.5865360900143508,0,0.860226
0.5530767150058526,0,0.721264
0.5875424080234141,0,0.675651
0.5634297280876073,0,0.729517
0.6080267251936026,0,0.660298
0.6171067293867046,0,0.971743
0.5750237699081809,1,0.999365
0.5645561358297373,0,0.901286
0.5913313939886818,0,0.708599
0.6096045106398327,0,0.829422
0.6176289756552136,0,0.933824
0.5891172135518863,0,0.667531
0.6836869396265421,0,0.814299
0.6501095911303789,0,0.931400
0.6693349512685483,0,0.506024
0.6529220748927947,0,0.450493
0.6507403146755638,0,0.989292
0.6496666552293799,0,0.949525
0.6953274428432189,0,0.971831
0.6964657178557684,0,0.761997
0.6411994092452167,0,0.609558
0.681998583678608,0,0.814815
0.6502449877042076,0,0.607544
0.669034259364376,0,0.694923
0.6998599188696132,0,0.807607
0.7243585062213033,0,0.995009
0.7237069734465114,0,0.918250
0.7193405932983138,0,0.958091
0.7046749136453822,0,0.813250
0.5739133646687677,0,0.919783
0.6532692426352609,0,0.766577
0.6751638603830219,0,0.912362
0.6911080346736244,0,0.862731
0.6709639080908338,0,0.827110
0.6450506464672042,0,0.953883
0.7048965765036619,0,0.761109
0.6830830997634822,0,0.846111
0.7261800430589591,0,0.816675
0.7441673044962127,0,0.950297
0.6983758468066554,0,0.696926
0.700436280022153,0,0.974146
0.7228639466559298,0,0.924168
0.6854665576933093,0,0.964174
0.7108807491046526,0,0.867142
0.7105744238287222,0,0.981090
0.654751712631768,0,0.824000
0.6578591235412765,0,0.966834
0.6832539668561582,1,0.999517
0.7089047605269485,0,0.761738
0.7121431193174755,0,0.862916
0.7378153356102276,0,0.766934
0.700549609383813,1,0.999295
0.7312192057197207,0,0.966179
0.6597874194313604,0,0.996033
0.6524838940320298,0,0.987374
0.6792099194862706,0,0.978639
0.6687680144996869,0,0.854831
0.7113023541789899,0,0.865045
0.7047696347408124,0,0.770960
0.7358885299666864,0,0.923549
0.7314562438068569,0,0.989305
0.7714613033443402,0,0.828079
0.74975436704899,0,0.897959
0.7271712143483317,0,0.910839
0.7444634544912164,0,0.820151
0.7632682287799821,0,0.753678
0.7632395718899639,0,0.887993
0.7213775240442348,0,0.750453
0.7320092469192269,0,0.890244
0.7518155881192381,0,0.865251
0.7526379244829934,0,0.780734
0.7341578228876311,0,0.984994
0.7326540437776201,0,0.984496
0.7714386856784285,0,0.934502
0.777781192091128,0,0.707270
0.7606354574320356,0,0.837633
0.7705191861139438,0,0.763883
0.7595402161925967,0,0.973301
0.7681803237049804,0,0.977949
0.7672174784952204,0,0.725188
0.789367062142189,0,0.979205
0.8182412170989432,0,0.825238
0.6824110473678217,0,0.920821
0.6662334180910636,0,0.984173
0.6403021648580324,0,0.825070
0.7669289406027646,0,0.795317
0.7576954925490742,1,0.998049
0.7390898445830889,0,0.986902
0.7881598321723818,0,0.795857
0.790879412140153,0,0.805787
0.7235697738714592,0,0.902663
0.7935331625740232,0,0.782770
0.7955198336530964,0,0.797245
0.8040803339417145,0,0.951327
0.8105493811470846,0,0.751541
0.812926870072502,0,0.769292
0.8043843229024852,0,0.828866
0.7965853592818075,1,0.999323
0.8120271494461923,0,0.852050
0.8146860907401587,0,0.769079
0.8267069701519346,0,0.775758
0.8136541922336702,0,0.857755
0.8229673733663351,0,0.986683
0.8255884813798556,1,0.999676
0.8045309903467093,1,0.999574
0.8023130433470061,0,0.818264
0.8122331870566416,0,0.896655
0.8068365432891397,0,0.850739
0.8014626282335168,0,0.957460
0.11503845396575887,0,0.964264
0.5416548882616696,0,0.880531
0.8361612103051703,0,0.974644
0.8341711235822282,0,0.950090
0.11896137904441316,0,0.978657
0.8289528791907433,0,0.993587
0.8128242871846351,0,0.942029
0.15523268761401568,0,0.855357
0.8231707287773072,0,0.605939
0.8258176931739651,0,0.996124
0.8241660740717269,0,0.991302
