-0.08682561547181036,0,0.007331
0.032649957207843666,0,0.217536
0.12199113664387587,0,0.366330
0.18173002261464788,0,0.018720
0.2567235824202005,0,0.665712
0.06630768446133557,0,0.279675
0.1258248850244687,0,0.056276
0.17906362517252356,0,0.398206
0.08267547479855729,0,0.865082
-0.01596602324868627,0,0.962108
-0.01781345870265487,0,0.640417
0.12233915361296527,0,0.837135
0.011194173185203224,0,0.344789
0.02854446450234595,0,0.022648
0.15126684697132745,0,0.995630
0.09248485053489962,0,0.958466
0.06873355620187725,0,0.798355
0.19038725381861327,0,0.541471
0.14773260213681932,0,0.970289
-0.023785501175703837,0,0.213965
0.07753626087444106,0,0.700758
0.015788857487302348,0,0.940937
0.062183793994506374,0,0.020048
0.024987830468301813,0,0.857311
0.11492596317826596,0,0.230769
0.10778151797672204,0,0.346963
0.10093643303719858,0,0.855500
0.14768190529212655,0,0.238932
0.03978613719059803,0,0.887353
-0.007288385197858837,0,0.644434
0.18226414209919276,0,0.909555
0.11122825322238178,0,0.284157
0.13554815704960058,0,0.119357
0.14459622212978776,0,0.834345
0.10657925791524728,0,0.750475
0.09019124525136607,0,0.261749
0.04856482739607163,0,0.543808
0.0892364188499269,0,0.068130
0.044973094763389405,0,0.494439
0.12631771707460918,0,0.964384
0.11399922716456226,0,0.045436
0.084941514781779,0,0.965532
0.15507096935506343,0,0.951851
0.0818094375739493,0,0.928277
0.18879360910879878,0,0.917675
0.06442637217135583,0,0.163257
0.01434321279986559,0,0.918909
0.05371559843442395,0,0.792434
0.03809541455308023,0,0.372721
0.15599038378308241,0,0.617486
0.18889716480485472,0,0.808293
0.1516870200870261,0,0.963713
0.16145747890686923,0,0.892857
0.08994914093303444,1,0.999588
0.11737887690506472,0,0.717161
0.06745572218884621,0,0.896699
0.11233345465741076,0,0.970959
0.17733308092505704,0,0.162441
0.06963195027945086,0,0.992409
0.008340523606019721,0,0.709677
0.16337613361750972,0,0.357727
0.1037334814245731,0,0.877187
0.11822312974825161,0,0.754019
0.08579595631734853,0,0.353741
0.20482625576377145,0,0.316916
0.12730526147424598,1,0.998760
0.14336251369572856,0,0.784065
0.09353552915167444,0,0.337487
0.08729992803196326,0,0.977964
0.1127503631528824,0,0.642232
0.07737682803256561,0,0.637842
0.02935882387799421,0,0.556723
0.12782156796674188,0,0.497420
0.21273494896442244,0,0.531234
0.15381743011636018,0,0.403945
0.12795146694112589,0,0.340517
0.06699195460996825,0,0.958166
-0.02104725656743005,0,0.318576
-0.03703240198633307,0,0.272506
0.09998229536543185,0,0.765024
0.13980708386661522,0,0.264490
0.06040687347371092,0,0.795143
0.13807157121931873,0,0.386111
0.13035604871161913,0,0.601461
0.2749142414066588,0,0.958318
0.16328371622204071,0,0.168933
0.33786352720753304,0,0.412262
0.12248014800107182,0,0.840326
0.14767577208659777,0,0.772462
0.10663599163941266,0,0.906951
0.276803689916651,0,0.659366
0.25447133163953534,0,0.937647
0.22665773060107097,0,0.825887
0.15064447948410267,0,0.948825
0.284686937225086,1,0.997274
0.1759434968219762,0,0.728612
0.31504850416145425,0,0.929443
0.1713616635119037,0,0.751622
0.1787286381253954,0,0.758511
0.2511777073801193,0,0.877841
0.2264560314862714,1,0.998948
0.2090624817409133,0,0.765103
0.34420739245529464,0,0.941050
0.18462054635341385,0,0.986704
0.2789286764948515,0,0.374791
0.22439703266646388,0,0.759311
0.2383477613645003,0,0.877193
-0.032588968608790445,0,0.896670
-0.013477367939342386,0,0.362464
0.00338671656292987,0,0.324324
0.021686538758046377,0,0.530519
0.03973334742637142,0,0.119338
0.07349434445074919,0,0.360057
0.0791848613861467,0,0.208581
0.043975178860919055,0,0.718230
0.022095733143691385,0,0.463837
0.008775451401314216,0,0.583687
0.10233865284896068,0,0.245420
0.2709128185736517,0,0.813070
0.06556165722426366,0,0.402212
0.08198661848802292,0,0.366379
0.1890626035629147,0,0.701696
0.19672435798231647,0,0.224738
0.16745456055058364,0,0.331474
0.2743650745054027,0,0.163900
0.15947253085301946,0,0.626106
0.2371042461140477,0,0.702154
0.16914362348435863,0,0.566990
0.14059347933602287,0,0.969800
0.22779955571373794,0,0.559048
0.25546197778719526,0,0.340244
0.24182168308545032,0,0.935565
0.21905388535398426,0,0.862768
0.2421641705617936,0,0.759918
0.15443354170075643,0,0.287228
0.07563781181133505,0,0.360413
0.272341865204906,0,0.652812
0.15129077684410852,0,0.338793
0.09017239776912699,0,0.306927
0.158237498505009,0,0.728600
0.10296279716679313,0,0.615004
0.16219191511971814,0,0.933136
0.12996669152391738,0,0.949855
0.21321786017193375,0,0.674256
0.21343081711956513,0,0.989764
0.1855860128085727,0,0.604536
0.1570483835592904,1,0.996752
0.19586037444411364,0,0.587715
0.14372911642909791,0,0.199474
0.24337939561890115,0,0.663062
0.3112470445328597,0,0.935305
0.09663140658153169,0,0.824572
0.14772743320275572,0,0.550841
0.07382292377164808,0,0.923113
0.18223629905451272,0,0.553226
0.2024219585997303,0,0.983668
0.2788094998563888,1,0.995978
0.292668577334448,0,0.243875
0.2384338678108735,0,0.877896
0.26951971595258845,1,0.998987
0.13787186046798966,0,0.917320
0.05089340314960845,0,0.751133
0.25817574012950384,0,0.935088
0.2553914784325325,0,0.092806
0.22217429511573314,0,0.906264
0.2455204559292151,0,0.931113
0.29995914913048505,1,0.999589
0.30062003876222315,0,0.753502
0.2143906078022658,0,0.920591
0.14221245269106228,0,0.808224
0.20959622776425235,0,0.993282
0.25742006145378266,0,0.633610
0.32362546303634887,0,0.983464
0.20525370699180862,0,0.487867
0.3333405220061483,0,0.797968
0.2814028053697503,0,0.196360
0.27510690289640943,0,0.984450
0.3198532776013678,0,0.985167
0.2819147594057565,0,0.491437
0.16447189581663163,0,0.986686
0.26259510257211344,0,0.895589
0.2643933661572257,0,0.994641
0.3377225454962542,0,0.937731
0.17566696881235386,0,0.946746
0.20429309300004264,0,0.993837
0.2634213138979413,0,0.990569
0.27679939366047746,0,0.946303
0.38727910731819487,0,0.978680
0.21356235771632937,0,0.677826
0.18738159511339997,0,0.897804
0.21992358531430198,0,0.324074
0.1916599386504355,0,0.328630
0.3106188660856891,0,0.194703
0.2864149877132003,0,0.258105
0.05155000753457942,0,0.878237
0.06698305268008521,0,0.687206
0.13794666761720895,0,0.985867
0.2568956261654517,0,0.984848
0.27896178262154264,0,0.916937
0.14385355152938933,0,0.979924
0.09555391772192308,0,0.288681
0.013389995549977378,0,0.382056
0.4034293837577941,0,0.955209
0.11377059306245842,0,0.065010
0.3172230400642564,1,0.998591
0.23333848737831556,0,0.953549
0.27476973330464854,0,0.697319
0.2203504241355517,0,0.985670
0.263192683855203,0,0.794031
0.18639254417017942,0,0.787585
0.2730045952653524,0,0.974017
0.2221979211635482,0,0.460405
0.13359964929121826,0,0.209253
0.3540863302619163,0,0.529435
0.267357130884454,0,0.501199
0.08404683824814874,0,0.835622
0.22858992096728029,0,0.966499
0.34855897992815865,0,0.811295
0.2629715919675676,0,0.614398
0.3249995249923077,0,0.646237
0.2577983285914034,0,0.452482
0.1535656931453823,0,0.950952
0.06803464897483785,0,0.793548
0.060219485613223024,0,0.871725
0.0763093138819473,0,0.950834
0.28414836299692997,0,0.947742
0.35078812505478013,0,0.417266
0.2638794399020668,0,0.914062
0.3235510423692307,0,0.803227
0.27688895394283963,0,0.909626
0.22773302646374138,0,0.702413
0.24477660003928414,0,0.765651
0.1892471531678451,0,0.934223
0.3003388681758513,0,0.312342
0.2623678039863884,0,0.849180
0.2182851559493927,0,0.626426
0.3510605526597077,0,0.684260
0.3208504820219721,0,0.553159
0.3411364695877744,0,0.940265
0.2824134268465046,0,0.901645
0.22959291219988812,0,0.433454
0.38063263374414474,0,0.939518
0.23152163493573844,0,0.858795
0.12000560966839098,0,0.665247
0.1902320022683164,0,0.553200
0.34902348004781963,0,0.684258
0.39419449969166986,0,0.920915
0.13090899943326123,0,0.877403
0.3134446345347721,0,0.862150
0.23256150002200213,0,0.942083
0.35778712106268135,0,0.982342
0.3132878143178818,0,0.720000
0.3149666875662396,0,0.965241
0.18873477938624675,0,0.743103
0.2785572319944088,0,0.773001
0.36594771339435744,0,0.980961
0.34266939954504544,0,0.933215
0.20881560633947133,0,0.962076
0.2886238323252407,0,0.574732
0.4096461273445886,0,0.397172
0.3100859021883681,0,0.930621
0.2817218603414565,0,0.987069
0.33543532776462165,0,0.713503
0.36688569935702353,0,0.747648
0.3468439419071212,0,0.823346
0.25787394838387334,0,0.902491
0.23094703830609006,0,0.989786
0.29484215744310444,0,0.893634
0.2917907674690441,0,0.418312
0.32444772979055087,0,0.619275
0.1560025888952718,0,0.917139
0.06204729462904508,0,0.663296
0.22563846980576552,0,0.988769
0.2004829493306927,0,0.834119
0.3926808944867752,0,0.776739
0.2188148939076251,0,0.706101
0.22702769739156933,1,0.995905
0.14683356670643571,0,0.962176
0.21846197447630492,0,0.661421
0.3562627826080101,0,0.814050
0.17270243726551016,0,0.967511
0.2717021753154963,0,0.830267
0.2449240402846069,0,0.236504
0.27236454384232767,0,0.928924
0.250113692636868,0,0.631975
0.3784179300334546,0,0.917907
0.3124748379807423,0,0.599877
0.149472319007263,0,0.568797
0.23726007045781117,0,0.868757
0.19660787370401048,0,0.785103
0.050276323983793815,0,0.341429
0.06391960116225436,0,0.579075
0.14793643711633392,0,0.932136
0.3449220734932328,0,0.160259
0.25734104519357903,0,0.658190
0.32099096211926204,0,0.900519
0.2450383322064061,0,0.542071
0.16513142335575162,0,0.896700
0.1135174856610702,0,0.929685
0.08752113775044244,0,0.943599
0.2063188388557288,0,0.926053
0.3468377276890487,0,0.903292
0.40988061343075427,0,0.585692
0.33115121118354146,0,0.985513
0.3089575698496999,0,0.559350
0.23051975511202868,0,0.778509
0.20804935587048434,0,0.899608
0.3409948081840699,0,0.979955
0.18949496170762672,0,0.421053
0.2903802152808787,0,0.863083
0.3414732134402887,0,0.830448
0.195775870399496,0,0.973540
0.2311034008423456,0,0.929109
0.21724330088635616,0,0.243415
0.22666876630114424,0,0.842276
0.27150657469177786,0,0.938441
0.275346390253773,0,0.948820
0.29904732255040145,0,0.986287
0.2728415949423042,0,0.725413
0.13460071132506501,0,0.430547
0.12490305296665827,0,0.836333
0.38268148367541216,0,0.925536
0.3172098143185292,0,0.513670
0.28861558638624923,0,0.902322
0.2493367797185443,0,0.973346
0.3054204430867923,0,0.769628
0.4321779869024538,0,0.964653
0.32575211191668413,0,0.167255
0.1722041037606863,0,0.053169
0.1875379977364102,0,0.871287
0.3003096702241901,0,0.782133
0.15024449148766322,0,0.894231
0.36207053439019965,0,0.835961
0.1292057458243006,0,0.830317
0.36885560205893214,0,0.901938
0.2749941548013142,0,0.977241
0.23065454798747806,0,0.566540
0.26088986145894977,0,0.987698
0.24656251536202597,0,0.554897
0.324098951230509,0,0.987306
0.20312431128712582,0,0.970050
0.3305808095103555,0,0.692168
0.30461763532625746,0,0.267144
0.22284312185471294,0,0.820994
0.18743135322215437,0,0.712175
0.13200982130363526,0,0.979599
0.2978314881349528,0,0.603791
0.41661750023545063,0,0.345050
0.3080679928859813,0,0.848461
0.2917049212701637,0,0.946281
0.3093683624731088,0,0.990432
0.24651432902193537,0,0.992052
0.2458970250683617,0,0.913493
0.26326488239606055,0,0.981450
0.23597320614335074,0,0.818966
0.2064041702614491,0,0.651574
0.19027151497464584,0,0.926622
0.3025080824528017,0,0.759582
0.1496058866599971,0,0.729642
-0.05439960828019593,0,0.756044
0.031665184816903,0,0.832311
0.14956365124493554,0,0.935818
0.18438674390694967,0,0.632173
0.21135981807609489,0,0.958291
0.028327105793851396,0,0.194579
0.050221038958450044,0,0.764291
0.10528851501300106,0,0.904150
0.10714826136745145,0,0.692272
0.1010777878962104,0,0.980989
0.14046013575229446,0,0.404562
0.1325592211012425,0,0.625619
0.13363078807086481,0,0.347538
0.01615921229673853,0,0.252402
0.18813658455065754,0,0.969165
0.11065379270529195,0,0.189712
0.19954890636570638,0,0.906605
0.20667693158640713,0,0.988769
0.30028183621707827,0,0.362155
0.2364310361183298,0,0.311975
0.21199493908493364,0,0.282950
0.17178880358103185,0,0.813912
0.2645529463278299,0,0.726602
0.06573781985505274,0,0.816948
0.30062699746475113,0,0.198401
0.16984916446553897,0,0.914151
0.2678268442986664,0,0.960546
0.21740254841439297,0,0.509140
0.274835082259609,0,0.346788
0.372220935735251,0,0.946367
0.32021272697386943,0,0.938704
0.2645134755679916,0,0.858593
0.24330736300403655,0,0.747688
0.1765701660119757,0,0.780168
0.08731974926566947,0,0.197368
0.28697891289045663,0,0.845531
0.21496137110489016,0,0.497143
0.20938946531960106,0,0.710874
0.18186445786080768,0,0.655510
0.193448191784743,0,0.668499
0.25674555638589625,0,0.191115
0.23496231795222233,0,0.973280
0.24530094954150697,0,0.881564
0.3363739087308414,0,0.912427
0.24004632418424243,0,0.989201
0.2894723271412174,0,0.949214
0.3288604963969032,0,0.890278
0.26498573422200766,0,0.407533
0.14664073538591735,0,0.838696
0.32421697405321026,0,0.670367
0.2260261595193982,0,0.960078
0.22732698197234383,0,0.970946
0.10534149828977575,0,0.838710
0.1473600880496527,0,0.728088
0.17713527198314225,0,0.705097
0.2971082662875556,0,0.807010
0.1739755655651262,0,0.990605
0.36097979240489675,0,0.949262
0.3232410243990703,0,0.823997
0.307333517023403,0,0.939454
0.35112141566105337,0,0.957525
0.09375722745159978,0,0.829609
0.3059817113056086,0,0.947232
0.3484034235490422,0,0.896925
0.35751071500762843,0,0.799445
0.41220829431711054,1,0.998556
0.20183473009567982,0,0.706475
0.3041031284280099,0,0.828025
0.2726832323423977,1,0.997933
0.30088213514612966,0,0.159384
0.19055340602215343,0,0.792411
0.21909973653316034,0,0.990947
0.1639075409003136,0,0.880235
0.21083674365412303,0,0.991005
0.17305165764367875,0,0.988397
0.17430942118990095,0,0.774551
0.2011738281267794,0,0.738793
0.15046337587188116,0,0.850504
0.16511437436153523,0,0.415640
0.41203089616667893,0,0.940699
0.21379820997573876,0,0.924528
0.05567064515582133,0,0.748894
0.12172490720712756,0,0.617668
0.1091705605205309,0,0.675152
0.0026683695664840874,0,0.134423
-0.0014025576466142364,0,0.678937
0.02362006873251271,0,0.977411
0.06930122537502134,0,0.935542
-0.06095870127590148,0,0.574756
0.027861744690866656,0,0.688123
0.06115250531258475,0,0.413417
0.1456662412567676,0,0.990516
0.05885482624692617,0,0.954141
0.07479694012739745,0,0.330423
0.14161574182074924,0,0.491964
0.12947128823444878,0,0.183960
0.03743770082491973,0,0.751797
0.13084125957404566,0,0.884959
0.05137664782462092,0,0.672166
0.07870615924046423,0,0.729819
0.0822422139494351,0,0.442681
0.16517668467520258,0,0.403751
0.09815715034787208,0,0.635482
0.15255080189132705,0,0.167680
0.12995249106086715,0,0.594962
0.10665361978201762,0,0.532855
0.11865423500446769,0,0.206685
0.17198119307709314,0,0.088798
0.09280983884590902,0,0.387582
0.08929417737567409,0,0.838746
0.18552646274049006,0,0.639583
-0.030381036235400408,0,0.625389
0.032938549507960505,0,0.949839
0.2583830003346307,0,0.967213
0.21184621694855266,0,0.741036
0.24046584944206154,0,0.328884
0.10429497616586622,0,0.699723
0.1962564983083908,0,0.544110
0.1714410607445155,0,0.389980
0.1682221608751544,0,0.675525
0.22609791887325215,0,0.763133
0.16475536767949733,0,0.986420
0.22916171301945987,0,0.592834
0.27988581562391973,0,0.652313
0.36941284150537823,0,0.957020
0.24335649842869647,0,0.654582
0.31890579290714954,0,0.779307
0.2644066936572445,0,0.299259
0.3591627185709764,0,0.383867
0.3199656771627756,0,0.837848
0.34032832858391227,0,0.952402
0.3496577404822556,0,0.978947
0.2699454342418501,0,0.936269
0.3805699746039043,0,0.530396
0.26909720246921875,1,0.999342
0.2511246205403744,0,0.958704
0.1583799040159347,0,0.848893
0.2514323731653937,0,0.857226
0.28021080866678977,0,0.284165
0.21890134259846009,0,0.761955
0.1415138875597589,0,0.597303
0.12229732715196627,0,0.709565
0.12941093752658372,0,0.371553
0.25775422878288573,0,0.963348
0.19796010923689267,0,0.444481
0.17211066542876252,0,0.881536
0.22709067495313257,0,0.993942
0.3043620087381956,0,0.972998
0.1951466123690235,0,0.788240
0.3336714521909267,0,0.922852
0.3158101956240682,0,0.882250
0.30372928657512177,0,0.894834
0.28187128079250845,0,0.975410
0.3358890741761711,0,0.951364
0.40086934853067374,0,0.962772
0.3303321061332985,0,0.883471
0.3336449273793681,0,0.896774
0.29940085603586625,1,0.999109
0.1428609206662038,0,0.987524
0.3075422105245244,0,0.773074
0.3783469359813968,0,0.989152
0.4224008206030219,1,0.997458
0.3225076656046059,0,0.918391
0.20312789144029209,0,0.945573
0.2654292137450423,0,0.990349
0.2466060800528563,0,0.797676
0.3048175015896296,0,0.806469
0.2597599899724462,0,0.993631
0.19863135990267497,0,0.279227
0.3526448798490108,0,0.821662
0.3270554576932297,0,0.991877
0.3964512655962249,0,0.726675
0.4175137950519285,0,0.636977
0.48208098583591075,0,0.991758
0.31844912718230495,0,0.794237
0.29631217936799154,0,0.893353
0.41987052685618964,1,0.999494
0.31637627755716946,0,0.980132
0.39935481981878024,0,0.988646
0.38685756056236104,0,0.640830
0.19452831806578721,0,0.955896
0.06516037669331672,0,0.187178
0.22009247895866546,0,0.924013
0.2662559883208969,0,0.225258
0.13106259783997282,0,0.578264
0.4033928280102559,0,0.937500
0.23088567874487492,0,0.884648
0.1562719661800172,0,0.967846
0.22277673846062726,0,0.367264
0.3223780479673689,0,0.918177
0.26931830239874327,0,0.551994
0.27268607631426395,0,0.617798
0.2623492869593049,0,0.727617
0.24584091764488883,0,0.932626
0.2951703625471211,0,0.966302
0.32164164650705607,0,0.964642
0.3422035537794772,0,0.966229
0.20299222679921136,0,0.993911
0.45591485513565944,0,0.887764
0.2275942079841735,1,0.999553
0.10704042215034838,0,0.923588
0.4481829766010835,0,0.959340
0.40273095457844654,0,0.623731
0.18058740064068451,0,0.706846
0.1317051219590067,1,0.996119
0.07092056184629042,0,0.846518
0.13427709610077904,0,0.318870
0.18094359436983654,0,0.875899
0.20014643151253927,0,0.776829
0.14944051300320615,0,0.713936
0.08892970542284784,0,0.319847
0.36968789120155937,0,0.586950
0.3478245079098361,0,0.718679
0.18867641491460738,0,0.918892
0.11006373658402205,0,0.238514
0.1340413851121265,0,0.742739
0.35906391303777946,1,0.991736
0.6606147100028819,1,0.995298
0.3702885364023588,0,0.291469
0.7072387166858529,0,0.943472
0.3909145701516031,0,0.712098
0.30450593748185156,1,0.989630
0.38231618788029775,0,0.164852
0.5746335434418762,0,0.922914
0.4703242839988724,0,0.892202
0.41358551134479454,0,0.868280
0.513284122763601,1,0.995171
0.27681409327552375,0,0.625139
0.3869075759086731,0,0.857004
0.23525447418663506,0,0.569856
0.21406886821740723,0,0.707584
0.2798443156785023,0,0.965693
0.24157865577457155,0,0.929187
0.3333353043574622,0,0.829279
0.22944674300728088,0,0.556860
0.23582020555052763,0,0.943336
0.3813064323701324,0,0.830979
0.1894853876961439,0,0.850104
0.3449797701599127,0,0.565934
0.37971872031765924,0,0.978695
0.20331903598387507,0,0.978584
0.3187691409990025,0,0.977263
0.2594964458897227,0,0.952609
0.1268443171622513,0,0.763545
0.1832236571017874,0,0.993171
0.2015547242948781,0,0.744647
0.3836476154192633,0,0.985028
0.18391586276746733,0,0.347089
0.20613690764013595,0,0.689476
0.3048400858278785,0,0.914409
0.35568385693845617,0,0.568693
0.17408904795725588,0,0.819933
0.2353041408789568,0,0.968035
0.22312341389464005,0,0.860352
0.2594240713450171,0,0.887221
0.23992997848982428,0,0.982510
0.26685811131972453,0,0.911514
0.20292354044633232,0,0.693997
0.19395855885529933,0,0.809119
0.15948904497484068,0,0.901263
0.20312725215204708,0,0.944754
0.06757841233392001,0,0.710923
0.30093583321576994,0,0.929016
0.08878903162163106,0,0.318464
0.21029637697606893,0,0.811958
0.17600813634527995,0,0.608644
0.16615497213486233,0,0.442656
0.19339387765818594,0,0.717634
0.036464967596504576,0,0.781238
0.0018436353803774552,0,0.151333
0.18187761483159368,0,0.291413
0.13205015674074036,0,0.974328
0.07464749324366107,0,0.584010
-0.02314166993990162,0,0.632543
-0.036996996105237184,0,0.939728
0.13694809919969894,1,0.999134
0.4131254332061041,0,0.358234
0.2122447170681824,0,0.931007
0.14403560546565117,0,0.900342
0.21247474354333373,0,0.941592
0.059820261996927346,0,0.294400
0.19518273795770644,0,0.709802
0.17643853607578772,0,0.890235
0.1511302729013671,0,0.818932
0.21181250524571296,0,0.344015
0.30480464191337253,0,0.353535
0.03775319796183514,0,0.113911
0.03639212230605948,0,0.888672
0.048879986361726156,0,0.706450
0.03466394241219052,0,0.946416
0.0020044401055554204,0,0.482574
0.05826280279349188,0,0.493531
0.04754692889085885,0,0.833251
-0.07064036316481982,0,0.410218
-0.015149692784248181,0,0.940622
0.17530727310250116,0,0.847568
-0.036590909368212104,0,0.958298
-0.01906496183246061,0,0.692308
-0.041664263109880875,0,0.093529
-0.0030769163286964627,0,0.358692
-0.040481245175232945,0,0.778672
-0.06281076752148014,0,0.156988
-0.07138413439300588,0,0.502474
-0.09997159197578333,0,0.175904
-0.07298816239109891,0,0.420998
-0.09520389774051058,0,0.523519
-0.0826046891686955,0,0.248914
-0.03872451500281259,0,0.811584
0.06488246116644078,0,0.218040
0.040686919995834854,0,0.902597
0.012027269915202888,0,0.696133
-0.020515062560950162,0,0.783356
0.04529422282500031,0,0.550802
-0.031053912005269784,0,0.111985
-0.07291848677233141,0,0.159686
-0.051023914648884776,0,0.289091
-0.06767868842282282,0,0.310739
-0.06386417624473288,0,0.317197
-0.06259954703875929,0,0.873443
-0.0742190978129284,0,0.651327
-0.062132006184314,0,0.758109
0.41051079198976187,0,0.608095
0.33425522334546187,0,0.914122
0.5720260332343339,0,0.960000
0.3126334449846071,0,0.872920
0.4629403533245,0,0.548742
0.5739071699571859,0,0.973265
0.41816511569543113,0,0.773751
0.2557228724847637,0,0.754706
0.21961162614531976,0,0.940815
0.08121131848435029,0,0.746859
0.04926182388620944,0,0.370086
0.12837645962071872,0,0.658029
0.09776495729098601,0,0.818262
0.1732012577781357,0,0.990167
0.2012223148005148,0,0.784324
0.09811961840100643,0,0.190100
0.12390485541061437,0,0.825627
0.15880506742422248,0,0.186333
0.1461222619182116,0,0.391271
0.19807548442016878,0,0.514783
0.2364081636557194,0,0.349788
0.13558978949656025,0,0.062646
0.20204037742647105,0,0.504613
0.2654016411725382,0,0.688623
0.13136513823895551,0,0.299588
0.3257365883276401,0,0.654446
0.30283440746469503,0,0.690909
0.31928419468534824,0,0.982620
0.24218471663683389,0,0.844180
0.3012276262021941,0,0.572170
0.2823628418228221,0,0.705947
0.3473918048811322,0,0.228582
0.19674280286926205,0,0.683634
0.07841369874952701,0,0.858667
0.27662870432679015,0,0.423651
0.24189668952415944,0,0.958073
0.10781090640978049,0,0.781073
0.24682889619464327,0,0.507982
0.27106624246182764,0,0.495547
0.29994032063632314,0,0.555054
0.20389032885499336,0,0.575989
0.23055630990484946,0,0.838405
0.3033390043817455,0,0.681985
0.2890553085074505,0,0.987419
0.21148768842244772,0,0.981422
0.192378864640253,0,0.718796
0.26571028863489315,0,0.263033
0.3010846845031628,0,0.973325
0.16988899051412532,0,0.876980
0.24038258240629667,1,0.999347
0.3024727568538775,0,0.944899
0.3729438118229578,0,0.964044
0.29518283811322016,0,0.751310
0.2513274996301458,0,0.572825
0.2375978928936704,0,0.854393
0.2872421071788103,0,0.805092
0.3671292810841379,0,0.803140
0.1758689968478253,0,0.983871
0.3529679020645675,0,0.959465
0.294159691270225,0,0.777264
0.30312694114018834,0,0.783086
0.382226823693395,0,0.383384
0.31110407009023394,0,0.836433
0.292803891359137,0,0.154397
0.21902380621254966,0,0.863421
0.35445784035695116,0,0.816444
0.301632875501899,0,0.715596
0.22760375637754146,0,0.963165
0.3292344258039959,0,0.633650
0.16403777190759453,0,0.189157
0.3268775344507769,0,0.965697
0.2193860144328452,0,0.843773
0.31054715696095453,0,0.529189
0.26095730890240243,0,0.967679
0.12916979169012127,0,0.408307
0.46297673206121037,0,0.993206
0.34020438358714744,0,0.824113
0.3114758693815335,0,0.961069
0.22578177777618855,0,0.983907
0.2324269198395837,0,0.599286
0.36689165918139083,0,0.994926
0.3632482134903079,0,0.580871
0.27187871510855693,0,0.983821
0.23565662457604314,0,0.699437
0.3670275311607879,0,0.965311
0.33737192502151986,0,0.214480
0.07122879997213862,0,0.502602
-5.356088364731263E-4,0,0.881653
0.06777478587014865,0,0.160428
0.465828736850288,0,0.973154
0.35165455805001006,0,0.083174
0.15721470013318345,0,0.406731
0.013786711237891928,0,0.578782
0.11525180229901201,0,0.961428
0.11620327618975863,0,0.443625
0.24581759591111343,0,0.751008
-0.018430228147826983,0,0.524133
0.09577160609526288,0,0.697992
-0.03850550528275054,0,0.789579
-0.010790688860213539,0,0.958759
-0.06233420450822962,0,0.289907
-0.057170900683815494,0,0.830455
-0.05453649388366036,0,0.341118
0.019536770716400084,0,0.729866
0.04332938281481333,0,0.318210
0.16362610167677002,0,0.460799
0.17829748039464688,0,0.635597
-0.039397461901141004,0,0.873890
-0.06786210516315846,0,0.113944
0.1044784198403236,0,0.186793
-0.01494416557713898,0,0.388953
0.14484854337940797,0,0.929060
0.04774066889869176,0,0.922393
0.013178636526750689,0,0.214517
0.015311920869849251,0,0.405858
0.09303517491084973,0,0.674148
0.16805852680479177,0,0.033218
0.006012074369578363,0,0.462576
-0.0805656250000426,0,0.171289
-0.08793927893484804,0,0.934879
0.012222484052916363,0,0.321839
-0.02614717120416677,0,0.910536
0.08514087994358065,0,0.930567
0.09754976747665862,0,0.266517
0.09028046533341316,0,0.125095
0.08559270279147246,0,0.289117
0.12590569895330747,0,0.700791
0.04724481721993136,0,0.808016
0.0281203399517293,0,0.057965
-0.01584864213954619,0,0.896813
0.13051154824297262,0,0.256333
0.10359270294206228,0,0.771341
0.1258038581484297,0,0.330194
0.01906270585496688,0,0.655123
0.13998894095392983,0,0.464179
-0.00882600214992645,0,0.877045
0.11540348071155151,0,0.942990
0.12406383056004802,0,0.148477
0.03177212166575485,0,0.272130
-0.02226287655908299,0,0.445738
-0.05854244969740753,0,0.859990
0.23439601678767685,0,0.185659
0.09967559973551572,1,0.998955
0.1678376122519624,0,0.698887
0.2704366633063909,0,0.325609
0.22887198308629264,0,0.914850
0.07921573875968183,0,0.378729
3.8592388423058777E-4,0,0.826914
0.15277390274331962,0,0.171730
0.08723912330632884,0,0.232080
0.16929611744369508,0,0.453215
0.1915479269368793,0,0.321282
0.043714500557306316,0,0.738667
0.03363662289910989,0,0.694695
0.10257354163122963,0,0.848586
-0.03350643870512888,0,0.152501
0.017614740074643854,0,0.474901
0.11898821378633914,0,0.218643
0.05822512961346429,0,0.955270
0.3737400979825497,0,0.651459
0.024641074446558404,0,0.288184
0.23019505723046613,0,0.400134
-5.227464092277234E-4,0,0.240218
-0.029829877940934182,0,0.502063
0.03321200564867184,0,0.580389
-0.03016998808497067,0,0.025022
0.15474179840755484,0,0.960686
0.16152790901402708,0,0.704088
0.22555664436134004,0,0.961094
0.09876600955658059,0,0.468151
-0.0471835752003512,0,0.239596
0.10561112470315472,0,0.404562
0.09994236667303907,0,0.184271
0.01796783002396937,0,0.741873
0.15041989444939746,0,0.120989
0.15960816290352892,0,0.573468
0.2559494032116099,0,0.160595
0.30320242053733204,0,0.017905
0.10449815613597403,0,0.236567
0.09981523909823047,0,0.128179
0.36146677571430036,0,0.393883
0.16813808940884659,0,0.960500
0.25657108636963527,0,0.683678
0.33103359309722635,1,0.998799
0.28263458403415403,0,0.298729
0.4215965740289253,0,0.701781
0.0599054470999763,0,0.342149
0.04308337496108267,0,0.459308
0.015459181912659256,0,0.462748
-0.005832538226505499,0,0.842632
0.028464914852491693,0,0.404613
0.10853239418789733,0,0.346415
0.03312995395422465,0,0.556131
0.011562433539465346,0,0.431940
0.07281698000493463,0,0.215416
0.04920939706252561,0,0.136933
0.12297318577751214,0,0.732558
0.16616931878713861,0,0.282833
0.041303553681130416,0,0.849820
0.1706972807442297,0,0.460293
0.03311273983489167,0,0.687747
0.1470452561679624,0,0.985053
0.055697681382682857,0,0.281159
0.14849335557281146,0,0.948393
0.1899316564525888,0,0.760646
0.05100003828385796,0,0.448157
0.17340393426226647,0,0.920243
0.13729318631290777,1,0.999122
0.17722856693239702,0,0.549941
0.19461915526914156,0,0.833111
0.01317448639341382,0,0.823889
0.21593246835856975,0,0.797534
0.189336594464973,0,0.582472
0.18860667512437967,0,0.534664
0.16526211443140496,0,0.251815
0.296211224864667,0,0.113758
0.3199550519688439,0,0.741806
0.1643718799759729,0,0.892823
0.22357901049459528,0,0.601062
0.2888464400435623,0,0.973019
0.15500472677528812,0,0.685226
0.2036233560121218,0,0.255341
0.2990530390833382,1,0.999199
0.32726110791721164,0,0.806776
0.20976467559395623,0,0.674860
0.3739587675567143,0,0.991838
0.3331707827724495,1,0.998657
0.18607334040573495,0,0.513456
0.3157102057555354,0,0.691014
0.3042929972291041,0,0.988138
0.17650407107178193,0,0.309611
0.3310285431190367,0,0.988444
0.2472435979179759,0,0.966155
0.2989029475105226,0,0.990919
0.30677606911958333,0,0.955078
0.1364130733650233,0,0.408096
0.3230691999695807,0,0.771812
0.23544953120088,0,0.413902
0.18892963980525954,0,0.555777
0.22670719152353822,0,0.288174
0.37913816679135587,0,0.650262
0.41342380639469056,0,0.429358
0.2609321130550359,0,0.764706
0.2943137295440636,0,0.440514
0.49942909685056774,0,0.401445
0.266966265188175,0,0.988985
0.2474793664815611,0,0.983333
0.2873733509798818,0,0.252807
0.2783006902680329,0,0.923160
0.29731080789407893,0,0.462015
0.3678104848146935,0,0.227171
0.3255909692970362,0,0.994020
0.436215009878171,0,0.987910
0.3566472016466207,0,0.895386
0.11326934317581497,0,0.625094
0.13365407600666737,0,0.877723
0.26093476252502135,0,0.556087
0.10323383321610541,0,0.459459
0.051751096507271735,0,0.710114
0.3127081590381359,0,0.640459
0.21182130382492437,0,0.986367
0.027087207953964666,0,0.681343
0.1791942380159854,0,0.956522
0.22736550544385484,0,0.636877
0.10855033685838052,0,0.228143
0.032451233646895845,0,0.822335
0.13365879616260037,0,0.734956
0.2357080951375277,0,0.848006
0.16027011433863,0,0.289323
0.052932956447811194,1,0.998316
0.08741004941846164,1,0.996205
0.3040448496884917,0,0.510545
0.2720935516074108,0,0.543720
0.2260705440968721,0,0.760284
0.13972100704802168,0,0.761175
0.3104682930551346,0,0.936123
0.19106475423082006,0,0.826741
0.24604577529868982,0,0.031868
0.11337785931316606,0,0.551737
0.061306367764297126,0,0.092759
0.16672579460715992,0,0.259327
0.17182511915292947,0,0.327412
0.0901033624746206,0,0.848152
0.11044876389944933,0,0.838216
0.16299060926052433,0,0.723058
0.26812788393114906,0,0.964384
0.09460999460622124,0,0.666148
0.07016484417694553,0,0.812388
-0.001560093827466129,0,0.988169
0.005105338506358724,0,0.620922
0.010945641726189705,1,0.996949
0.08001938491894066,0,0.477839
-0.018049484444231698,0,0.570264
0.012061327280065282,0,0.497829
0.08869945538419735,0,0.972702
0.2806961380962781,0,0.861158
0.5113647468376031,0,0.950000
0.6800132168289225,1,0.993019
0.2387376737461834,0,0.717763
0.5230548253437508,0,0.795141
0.3525308580773653,0,0.895405
0.36544943601480834,0,0.918858
0.4040846092385708,0,0.972519
0.3475788884950088,0,0.975610
0.3077480247491499,0,0.975320
0.3962724926908394,0,0.820393
0.3364998718623606,0,0.359903
0.22408549716961143,0,0.839922
0.14193737059587452,0,0.544603
0.33966101883119937,0,0.984303
0.4144933246584521,0,0.673356
0.3660025708614802,0,0.483244
0.17626883836696247,0,0.259839
0.25554032042187125,0,0.878919
0.062416655036813165,0,0.849959
0.039884722288668,0,0.469688
0.02249242540841407,0,0.445281
0.07897018517069329,0,0.941935
0.019943324563142188,0,0.671937
0.48079972154284656,0,0.974087
0.5434748485881438,0,0.873130
0.4279791736622824,0,0.804243
0.32301747277940374,0,0.175379
0.2021278163608055,0,0.740287
0.12941843638217937,0,0.704038
0.028433804293589552,0,0.739057
-0.02533780717616072,0,0.153030
0.012747407686115207,0,0.008925
-0.04911105479274577,0,0.211356
-0.0921854084015683,0,0.331475
-8.336908772833913E-4,0,0.408496
-0.06677569409465192,0,0.129115
-0.09856107723404278,0,0.055420
-0.05170317832548434,0,0.265683
0.2570145962791718,0,0.853914
0.33737479713915663,0,0.830626
0.5997733300076539,0,0.946143
0.7995757833357653,0,0.955453
0.8172882597402278,0,0.837696
0.8516981568358803,0,0.991701
0.4404178186109379,0,0.913279
0.14297215230661858,0,0.932212
0.2704513320871498,0,0.784728
0.11146873484417921,0,0.166485
0.1363005308154159,0,0.827445
0.26531897813309435,0,0.550810
0.19576646404054238,0,0.273636
0.18922640553036488,0,0.917596
0.2234676820382865,0,0.436491
0.39617016214998935,0,0.760823
0.37005859635898314,0,0.863946
0.22658114221970843,0,0.661511
0.10775964607945229,0,0.767317
-0.009077756712483459,0,0.119380
-0.05198006633461842,0,0.578248
0.3156883916657927,0,0.778689
0.24773003451310077,0,0.922283
0.320442429993131,0,0.539586
0.30291358184095385,0,0.328615
0.3636223712644216,0,0.267662
0.1575835959572777,0,0.335878
0.31928322438175655,0,0.694389
0.2071221817889046,0,0.891758
0.2892963007718809,0,0.994337
0.2416283547615835,0,0.759122
0.3401772822122669,0,0.235645
0.40331444196088545,0,0.428030
0.39352842612530053,0,0.950909
0.35535461124215195,0,0.348567
0.28424781404835003,0,0.851278
0.3831943187986993,0,0.988388
0.2656795793609033,0,0.165068
0.3205848518605246,0,0.989535
0.2245447587882999,0,0.258491
0.3167733477794124,0,0.739796
0.3705464876600139,0,0.887506
0.199420940914874,0,0.942130
0.371280626475902,1,0.998444
0.15804159359456887,0,0.898089
0.23973101653022982,1,0.987593
0.06696265217388539,0,0.367382
0.3344088698725979,0,0.420194
0.21720010076529656,0,0.906409
0.22849943065982453,0,0.703394
0.2588376289323412,0,0.596730
0.1922524045362333,0,0.585965
0.2682687740726004,0,0.540303
0.18394456446742183,0,0.759567
0.27178817593562277,0,0.772348
0.18474979192267607,0,0.484235
0.22147412584197107,0,0.273748
0.3421902540339611,0,0.543439
0.3178101434074771,0,0.952991
0.40542010859248845,0,0.283712
0.20962611254077496,0,0.812157
0.3418762655185386,0,0.899074
0.39404221239869636,0,0.936232
0.25400705560909914,0,0.839286
0.4569488282265157,0,0.845673
0.20195851524609448,0,0.721665
0.14145453561785057,0,0.973023
0.1627465322400972,0,0.837599
0.3020111849376446,0,0.966274
0.2108910546346042,0,0.994683
0.22539315898510395,0,0.512624
0.18853334787592665,0,0.364344
0.01920906804790523,0,0.889734
0.10627441744239317,0,0.607373
0.1579196079729137,0,0.907710
0.3459311568819763,0,0.889252
0.32432959288696406,0,0.369076
0.32820675303872415,0,0.896710
0.40941202903447216,0,0.931965
0.20841817861508855,0,0.879699
0.3658293907700956,0,0.876112
0.2910150646871363,0,0.758700
0.3994802945300832,0,0.956259
0.28242127222873104,0,0.620242
0.3626830575091909,0,0.970482
0.3632295625163283,0,0.964635
0.21635300805157154,0,0.491949
0.16800061118604076,0,0.620192
0.07085509609091516,0,0.552963
0.32336708446563595,0,0.634509
0.2929158024455556,0,0.628735
0.35638042010913723,1,0.998690
0.3522596982966525,0,0.976547
0.19687740590145245,0,0.152977
0.3570130135894421,0,0.994364
0.34652801188695237,1,0.997644
0.2397241463729623,0,0.634058
0.12120729065473632,0,0.848976
0.36103012509244453,1,0.996316
0.251772135371874,0,0.876496
0.34121893850753815,0,0.630489
0.3677188350906671,0,0.820483
0.27865911463489595,0,0.837667
0.38106487862323,0,0.763025
0.19899545294987897,0,0.991501
0.2182661773752019,1,0.995342
0.14998571380607764,0,0.969897
0.3792819844622412,0,0.894122
0.3073370415671215,0,0.660540
0.2708363822862589,0,0.903887
0.2901650970619792,0,0.726033
0.27163144932222344,0,0.181902
0.2315990636256166,0,0.641751
0.2852524384087955,1,0.996873
0.04982160448854462,0,0.850236
0.06884389396954405,0,0.458915
0.4319142729606391,0,0.625195
0.15777718606474206,0,0.641579
0.20764707546419897,0,0.696441
0.34786597973632877,0,0.721065
0.34217638480655155,0,0.659311
0.27461617190093773,0,0.742011
0.2528016317787679,0,0.771218
0.30698429860217813,0,0.812938
0.28719250252344103,1,0.997533
0.3842993144758625,0,0.990178
0.2198697689827491,0,0.749352
0.3018403681058146,0,0.687179
0.27275174795175566,0,0.911984
0.1980781544582458,0,0.523307
0.2703707233816231,0,0.987897
0.21479192552733226,0,0.645700
0.448947296641861,0,0.712753
0.23762947015633276,0,0.811693
0.23400594863340232,0,0.863787
0.40322210384554125,1,0.998085
0.46938097501838083,0,0.932984
0.46013512140857915,0,0.994528
0.42389411053124787,1,0.996091
0.4045427233017868,0,0.738510
0.24502979615238762,0,0.915113
0.31372028683768827,0,0.661629
0.218493648299004,0,0.888226
0.3626804139391318,0,0.393066
0.18810555029133397,0,0.588486
0.0789148249038702,0,0.914193
0.025666258904365833,0,0.506447
0.12354115087126086,0,0.097514
0.3448132237593684,0,0.991818
0.3627539897217416,0,0.634283
0.26212879384851,0,0.287335
0.16714822821947187,0,0.625305
0.1863589987980111,0,0.749620
0.2073239415272167,0,0.496245
-0.032255240781119646,0,0.642349
-0.056675274879925464,0,0.880079
0.35824396459646474,0,0.824242
-0.002130248338887197,0,0.227151
0.22734001670863027,0,0.664480
0.09787198393698199,0,0.990385
0.318643935527962,0,0.946528
0.20436545201301407,0,0.128462
0.14477848338126795,0,0.991619
0.16940031368919234,0,0.510556
0.2007176789770339,0,0.850643
0.2654514248229588,0,0.542741
0.19860655848465733,0,0.429403
0.3059538524621629,0,0.974277
0.3261772592789517,0,0.753846
0.3032730187346342,0,0.978997
0.4345426665323778,0,0.935723
0.45749674756442665,0,0.195465
0.12254951376253972,0,0.878210
0.09948051229251613,0,0.779160
0.0663865378556491,0,0.757164
0.14163473070898583,0,0.574319
0.355359689327376,0,0.938233
0.41081382200844746,0,0.213488
0.2891172662726739,0,0.336639
0.31273698064523164,0,0.778102
0.4529370039364928,0,0.927377
0.3867973228773212,0,0.993048
0.28375354498750405,0,0.283745
-0.050652574333358256,0,0.836215
0.3340280105535586,1,0.999515
0.2879830889789301,0,0.730693
0.20286632056991286,1,0.998434
0.2614404024609637,0,0.433333
0.1233793837113471,0,0.323977
-0.051011569016324955,0,0.284704
-0.014488819952693585,0,0.495971
-0.026625184819818393,0,0.070824
-0.06435907062455919,0,0.619169
-0.03016895017204317,0,0.361970
-0.0020036490329351916,0,0.637689
0.0201176864469969,0,0.263566
-0.023621116241231234,0,0.628722
0.0918305179847176,0,0.489069
0.05608808327682789,0,0.185238
-5.250506178354821E-4,0,0.353530
-0.04919468362107407,0,0.586932
0.028194502163750197,0,0.274510
-0.07500546245010975,0,0.886352
-0.03597029248799195,0,0.102181
-0.06554586255496744,0,0.246777
-0.05874622771426815,0,0.350302
-0.08673341245769445,0,0.144091
-0.09565151878441117,0,0.555215
-0.11034659251084192,0,0.041628
-0.05554182559108534,0,0.103966
-0.0030454284443820704,0,0.324191
-9.743590691803641E-4,0,0.153719
0.048079740922799145,0,0.343327
-0.0161686877185546,0,0.381772
-0.007350855865233795,0,0.487719
-0.05020187537279516,0,0.624440
-0.039169936193344905,0,0.331352
0.02316231596982348,0,0.568336
0.07485028065882209,0,0.489236
0.06259469252979595,0,0.558214
0.17505772501873684,0,0.821226
-0.07021706574321138,0,0.210762
-0.05869782428975796,0,0.430877
4.5368426845367E-4,0,0.980852
0.028665625347725016,0,0.414526
0.06094179194158598,0,0.672040
-0.003309588096537126,0,0.583784
0.12738589754259877,0,0.961385
0.10099545092224234,0,0.930617
0.2235347825249273,0,0.928098
0.21366644260767773,0,0.933578
0.26509492398063195,0,0.176629
0.2519137553861587,0,0.938265
0.33293044777937847,0,0.978323
0.05493394584141688,0,0.744931
0.06693195465969533,0,0.316721
0.030139956273912652,0,0.248175
0.07055326234878229,0,0.796490
0.0208374540306521,0,0.405981
0.07731761141427948,0,0.115991
0.003667208842268187,0,0.379814
0.17405794087097698,0,0.378419
0.2040435711186635,0,0.727987
0.13846024158788303,0,0.530081
0.16812278491327903,0,0.440542
0.09058004538600571,0,0.381535
0.1488602103795501,0,0.679847
0.2344132984262978,0,0.460486
0.2845266222549888,0,0.985997
0.21256927649462465,0,0.974308
0.18898660050958999,0,0.640676
0.3363328225234007,0,0.851384
0.21699214930080093,0,0.775798
0.14996502533323203,0,0.846037
0.24663721627565108,0,0.969822
0.21397795473814887,0,0.981913
0.3501384494683269,0,0.919671
0.30405280320936184,0,0.015129
0.30182062161075535,0,0.241497
0.31888165662090096,0,0.502817
0.4046942034648837,0,0.813541
0.11456710164671739,0,0.905778
0.21446586189784925,0,0.234319
0.24762819221461732,1,0.998834
0.26157806715047094,0,0.951909
0.17373834502561428,0,0.969115
0.06867591815884272,0,0.420140
0.08080476878232207,0,0.603625
0.27900145034238555,0,0.083739
0.3909315072163623,0,0.898967
0.26075984708845434,0,0.422316
0.25019189317349255,0,0.821822
0.20391394873014235,1,0.998094
0.21142384370838443,0,0.497701
0.3134884586287023,0,0.276803
0.2481904169170775,0,0.979355
0.22038496292545892,0,0.908800
0.3806153689474846,0,0.710672
0.3506255015664082,0,0.916303
0.345160498254668,0,0.756839
0.3290666590408624,0,0.437568
-0.01550676133787654,0,0.076714
0.11394684483560646,0,0.169157
0.239005290760627,0,0.650374
0.3288793968544396,0,0.151319
0.16053435661113422,0,0.700000
0.2637086995537265,0,0.776254
0.21834144119168328,0,0.472471
0.30279294465627316,0,0.736025
0.25658440389634,0,0.765583
0.2858951525866423,0,0.558050
0.21304384912589627,0,0.885222
0.1603737046993375,0,0.802098
0.19215936770568387,0,0.234665
0.2779260927427949,0,0.945671
0.1697498664676682,0,0.053528
0.022420720632732476,0,0.899371
0.16262849675765856,0,0.819043
0.14640214265033397,0,0.606500
0.0537403054526331,0,0.681646
0.012674250666306654,0,0.435862
0.03314844135107463,0,0.597191
0.07911242227353574,0,0.227040
0.26011578584868467,0,0.920708
0.11716003949895105,0,0.776808
0.30618093937679175,0,0.845930
0.2673798875334565,0,0.827763
0.3119817595152966,0,0.962877
0.336317453355213,0,0.896145
0.17573401649762346,0,0.955504
0.09746358207518924,0,0.684073
0.18472904807923982,0,0.157651
0.13656162130599725,0,0.816264
0.13784792774949936,0,0.430397
0.01577352932486204,0,0.301035
0.17306165308955418,0,0.205664
0.005468433313434911,0,0.711248
0.08864087402243553,0,0.511399
0.260831696339242,1,0.994797
0.239993903820757,0,0.398380
0.30102957522063944,0,0.914237
0.36285375714685514,0,0.991485
0.22385410330113878,0,0.754013
0.333346390187594,0,0.675998
0.3059124941492567,0,0.933058
0.24181906263078412,0,0.639570
0.2496949088373638,0,0.941343
0.18071765504468057,0,0.634029
0.3251774894074637,0,0.686876
0.31423042168497173,0,0.452391
0.10150937964637265,0,0.464058
0.1650362880339911,0,0.152750
0.34388505536457364,0,0.769616
0.26745463871298797,0,0.970520
0.23102464554560542,0,0.324895
0.228154085037135,0,0.319109
0.10206226051995185,0,0.159844
0.051520471449168936,0,0.813287
0.19468931116612873,0,0.172433
0.0894061271839112,0,0.127745
0.011926315178426442,0,0.402132
-0.035674274030606544,0,0.867089
0.03626025374291739,0,0.529301
0.0269922342724541,0,0.562374
0.19266770582612433,0,0.724467
0.3871369438484479,0,0.211688
0.46515731338068844,0,0.980609
0.3676256332694047,0,0.873950
0.367533662941957,0,0.825524
0.17948245446789954,0,0.057258
0.15011123907418839,0,0.247391
0.39629311946456913,0,0.561695
0.35730857693363155,1,0.998030
0.3254608447116966,1,0.997480
0.2952684447370291,0,0.810726
0.3374804189121223,1,0.997291
0.1919075909063181,0,0.664368
0.35243487178440175,0,0.980901
0.24028625792774458,1,0.991742
0.1139595242325847,0,0.607809
0.2521938227103165,0,0.839177
0.2246266751788402,0,0.781533
0.27929898863161157,0,0.568164
0.14582655705940367,0,0.522116
0.33121874285592484,0,0.449536
0.14867209347903038,0,0.503362
0.011618444733571247,0,0.324501
0.0813417287851444,0,0.713220
0.14335056927760084,1,0.989873
0.3807467962747917,0,0.855956
0.6713226068551804,1,0.998214
0.7181994303012494,0,0.988122
0.5263483659430761,0,0.991162
0.3318747341824314,0,0.956824
0.28550009109294705,0,0.989958
0.37862510813714634,0,0.926074
0.3424836418675608,0,0.839011
0.027432332075899277,0,0.422451
0.22426120971208596,0,0.235262
0.08618066614881469,0,0.354358
0.16695844775337448,0,0.981010
0.10605457490664708,0,0.891147
0.2196141241244222,0,0.423698
0.1304379501149381,0,0.735109
0.15430404825775984,0,0.323426
0.12683996129287198,0,0.174757
0.22891010904339398,0,0.705596
0.1313918093075384,0,0.512552
0.07799143613599704,0,0.257750
0.09079255114675869,0,0.118848
0.08396388717121414,0,0.851722
0.3546328804360507,0,0.713336
0.07635246784443007,0,0.292467
0.034170291488284675,0,0.833070
0.07610903239101878,0,0.102083
0.07792944468215152,0,0.804497
0.14452421421104383,0,0.800849
0.058213625403617256,0,0.505693
0.08396436072543155,0,0.292675
0.01136865977881984,0,0.580720
-0.04520664799383315,0,0.525657
-0.06829412893550492,0,0.721504
-0.08530544644119546,0,0.409473
-0.08105608025830006,0,0.392252
-0.05223552192894357,0,0.254622
-0.05979474946381388,0,0.321757
0.45334615750916907,0,0.963810
0.36055384377317123,1,0.997875
0.20764085781343802,0,0.943545
0.292345398150637,1,0.999381
0.32720761031401036,0,0.994529
0.12561993170313382,0,0.428680
0.17149463578367727,0,0.774031
0.216250301282794,0,0.742154
0.14088624045733586,0,0.419664
0.17893426837235846,0,0.813747
0.16803877361707553,0,0.293317
-0.0157333654385633,0,0.733282
-0.1096777431411176,0,0.061413
-0.09515307555982672,0,0.509868
0.2686755062686672,0,0.764557
0.25333435165022056,0,0.777548
0.25527083147650775,1,0.997471
0.3454588666876508,0,0.995462
0.3837463033900312,0,0.754301
0.2756262936386503,0,0.940789
0.305246617388765,0,0.706737
0.14406136580814233,0,0.821693
0.23870543019403698,0,0.317622
0.30261739685122724,0,0.655679
0.19103672648524359,0,0.763797
0.06733759849787016,0,0.542169
0.14764895679617623,0,0.989435
0.14910515792217888,0,0.462062
0.14734630464986795,0,0.989529
0.14756082729939868,0,0.947641
0.2490768697309277,0,0.975358
0.32140983050359134,0,0.950049
0.18746825304209835,0,0.784884
0.2713098977191444,0,0.984237
0.28196471786251276,0,0.991114
0.09825032270265802,0,0.685714
0.19954316714667947,0,0.446823
0.3062931361747237,0,0.977518
0.1732270656573062,0,0.663793
0.2342168402820752,0,0.935177
0.20349862829058168,0,0.715066
0.15165834198832054,0,0.743280
0.21954239906503006,0,0.734660
0.1954342535452579,0,0.969424
0.21401286935019462,0,0.771310
0.6934228144022118,0,0.969643
0.7743353102248522,1,0.998028
0.7262787475964979,1,0.998069
0.7881957292180787,0,0.995428
0.757914382066431,0,0.956755
0.29968790764644154,0,0.961770
0.16856399381479223,0,0.655855
0.21137471090735885,0,0.864548
0.3278686217390586,0,0.914058
0.2241585277266864,0,0.860652
0.3399250642930243,0,0.855866
0.24467622945266634,0,0.939672
0.13567958686353718,0,0.095009
0.09055917631257361,0,0.878891
0.144744562432636,0,0.889675
0.20159093633970418,0,0.837634
0.17522863128217275,0,0.548929
0.18336482773613522,0,0.977522
0.12114838522575719,0,0.909005
0.254904647070151,0,0.846379
0.287973923923765,0,0.805855
0.17836099034921807,0,0.841929
0.16003050810752384,0,0.552259
0.08464549612536958,0,0.545995
0.016998640958313826,0,0.580257
0.13077279976635472,0,0.126233
0.12500165383603754,0,0.293824
0.007415522568277188,0,0.338697
0.08731672247054428,0,0.342022
0.06862006701157361,0,0.185076
-0.006258299687095116,0,0.256549
-0.04013646823955604,0,0.261465
-0.026986254283037282,0,0.277522
-0.002966973427251126,0,0.906271
0.21364186361099394,0,0.873786
0.027806995405601387,0,0.133652
0.0351328853508004,0,0.796678
-0.008693728946656298,0,0.094173
0.04001046103500434,0,0.722977
-0.05245286557101035,0,0.359159
0.007550224461432257,0,0.240699
0.35830439125736613,0,0.840566
0.38551989033841993,0,0.845408
0.34320122120637503,0,0.833333
0.13655330376294836,0,0.420091
0.0821315648530905,0,0.674027
0.17699118953332157,0,0.442076
-0.0023203897888872285,0,0.034692
0.066344695884989,0,0.848774
-0.030214980684177915,0,0.320784
-0.02574961084384358,0,0.841287
-0.04580930366548022,0,0.134243
-0.06138537195113116,0,0.340400
0.024188273559269963,0,0.697517
0.04218011184866247,0,0.367065
-0.0661920398712104,0,0.678161
-0.045150121400741865,0,0.094719
-0.02537511738594029,0,0.882989
0.0964685921314664,0,0.542877
0.03881780917239828,0,0.440379
-0.06146209017962201,0,0.088750
-0.06536941522698429,0,0.480825
-0.03541628311449836,0,0.254194
-0.01289869931150711,0,0.265261
-0.040201464596212856,0,0.249847
-0.04499046996898053,0,0.595628
0.37448248936980333,0,0.425949
0.13539136379964808,0,0.315020
8.453042354871108E-4,0,0.677806
-0.06080570676782601,0,0.159358
-0.08320206123477442,0,0.136878
0.07808630050904176,0,0.662949
0.03525343355117861,0,0.400976
-0.04507200930503702,0,0.180158
-0.047225434974748966,0,0.727395
-0.07634453489541358,0,0.578790
-0.060803147633927995,0,0.036356
-0.04360986320693238,0,0.641267
-0.040413758558887965,0,0.632911
0.43323997360090843,0,0.840749
0.551233836595527,0,0.949772
0.46403750007819156,0,0.544471
0.38983591711357,0,0.627726
0.3082935521966314,1,0.996344
0.31658392999501056,0,0.882038
0.07040366359299494,0,0.756044
0.07782416097682453,0,0.986802
0.07668047663761965,0,0.953508
0.11724459441156321,0,0.531820
0.08542893914870647,0,0.561273
0.09762084463794848,0,0.692807
0.03216386695191788,0,0.573028
-0.006434597009740406,0,0.716749
0.014961918022548632,0,0.595458
-0.048786824014633974,0,0.486242
-0.05297954917926431,0,0.586586
-0.08201824543373037,0,0.163406
-0.11309327908651731,0,0.402743
0.003224261616641341,0,0.194470
-0.08464569845485816,0,0.154445
0.4091519715033429,0,0.490400
0.3080023802524777,0,0.616114
0.4028226102520665,0,0.537975
-0.08057022699181957,0,0.914563
-0.06035124166125119,0,0.944408
-0.09054276342726628,0,0.278625
-0.08606767285250862,0,0.318853
-0.06785822623080898,0,0.128440
0.13364130408734065,0,0.900366
0.21716306406720481,0,0.995183
0.2443419788540666,0,0.399543
0.2394618008182984,0,0.174472
-0.05020477833109315,0,0.216119
-0.05647688729170703,0,0.096868
0.18788575762470375,0,0.983977
0.1801869247288774,0,0.100356
0.24328791275410272,0,0.589260
0.28229850893239594,0,0.935438
0.19246371187222208,0,0.418251
0.08342381425475158,0,0.701887
-0.011732137300082851,0,0.310924
-0.06733045447126951,0,0.930216
-0.023602341259580502,0,0.163746
-0.04957008683082919,0,0.261773
0.11482979560898153,0,0.589041
0.13309129351822038,0,0.824870
-0.05233071591651443,0,0.189929
0.13756868779166495,0,0.731123
0.009592770045386256,0,0.248316
-0.07299399072744485,0,0.767967
0.21982605042837342,0,0.216649
9.591785445626179E-4,0,0.359288
0.015488378514832089,0,0.634095
-0.05456768903152021,0,0.166840
0.018885164957613828,0,0.945990
-0.02880564676840506,0,0.748497
-0.07506428654381811,0,0.441465
-0.05612521891780901,0,0.478679
-0.08760255303615819,0,0.465726
0.11027995173473461,0,0.366438
0.3178188872743029,0,0.517797
0.11336491405462316,0,0.927063
