0.9856357167381655,1,0.999936
0.9999359445459388,1,0.999965
1.0,1,0.999962
0.9999999999998913,1,0.999968
1.0,1,0.999964
0.9999999999999964,1,0.999964
0.9999999999999986,1,0.999965
1.0,1,0.999966
0.9999999999999998,1,0.999960
0.999999999999998,1,0.999966
1.0,1,0.999966
1.0,1,0.999959
0.9999999999270468,1,0.999965
0.9999998793695661,1,0.999964
1.0,1,0.999967
1.0,1,0.999965
1.0,1,0.999964
1.0,1,0.999965
0.9999999999999986,1,0.999966
1.0,1,0.999966
1.0,1,0.999966
1.0,1,0.999964
1.0,1,0.999963
0.9999999957275665,1,0.999965
0.9999999999999967,1,0.999964
1.0,1,0.999961
0.9999999881002561,1,0.999964
0.9999999999999983,1,0.999964
0.9999824137284242,1,0.999965
0.9999999999999983,1,0.999965
0.999999999999995,1,0.999965
1.0,1,0.999966
1.0,1,0.999962
0.9999999999999984,1,0.999966
0.9999999999999976,1,0.999964
0.9999999999999943,1,0.999964
0.9999999816624452,1,0.999965
1.0,1,0.999963
1.0,1,0.999962
0.9999999853082113,1,0.999964
1.0,1,0.999964
1.0,1,0.999965
0.9999999977803947,1,0.999964
0.9999999999999982,1,0.999962
0.9999999999999961,1,0.999965
0.9999999999999997,1,0.999962
0.9999999999999925,1,0.999965
0.9999999999999987,1,0.999964
0.9999999999999978,1,0.999963
1.0,1,0.999967
0.9999999993507148,1,0.999965
0.9999999999999977,1,0.999960
0.9999999999999953,1,0.999965
1.0,1,0.999964
0.9999999999999984,1,0.999965
1.0,1,0.999965
0.9999999999999968,1,0.999965
1.0,1,0.999964
0.999999999999997,1,0.999962
1.0,1,0.999960
0.9999999999974833,1,0.999965
1.0,1,0.999965
1.0,1,0.999961
1.0,1,0.999960
0.9999999999999989,1,0.999965
0.999999999999992,1,0.999962
0.9999999999999972,1,0.999960
1.0,1,0.999965
0.9999999999999968,1,0.999961
1.0,1,0.999965
0.9999999999999998,1,0.999964
0.9999999999999948,1,0.999966
0.999999999999999,1,0.999965
1.0,1,0.999962
0.9999999999999949,1,0.999965
1.0,1,0.999966
1.0,1,0.999966
1.0,1,0.999964
1.0,1,0.999962
1.0,1,0.999965
0.9999999999838685,1,0.999965
1.0,1,0.999959
1.0,1,0.999964
1.0,1,0.999962
1.0,1,0.999964
0.9999999999867172,1,0.999966
0.9999999999999963,1,0.999963
1.0,1,0.999960
1.0,1,0.999965
0.9999614373940219,1,0.999965
0.9999999999999997,1,0.999965
0.9999999999999992,1,0.999964
0.9999999999999963,1,0.999963
0.999999999999998,1,0.999964
0.9999999999999988,1,0.999965
1.0,1,0.999964
1.0,1,0.999965
0.9999999999999946,1,0.999964
0.9999999999999943,1,0.999965
1.0,1,0.999964
1.0,1,0.999965
1.0,1,0.999964
0.999851787467346,1,0.999965
1.0,1,0.999964
0.9999999999999996,1,0.999965
1.0,1,0.999965
0.9999999999999937,1,0.999960
0.9999999999999972,1,0.999963
0.999999999999993,1,0.999963
0.9999999999999969,1,0.999960
0.9999999999999976,1,0.999959
0.9999999999999956,1,0.999963
0.9999999999999978,1,0.999963
0.9999999999999973,1,0.999965
1.0,1,0.999960
0.9999999999999946,1,0.999965
1.0,1,0.999964
1.0,1,0.999966
1.0,1,0.999965
1.0,1,0.999965
0.9999999999999976,1,0.999964
0.9999999999999931,1,0.999963
0.9999999999999988,1,0.999962
0.9999999999999984,1,0.999965
1.0,1,0.999966
0.9999999999999971,1,0.999964
0.9999999999999953,1,0.999965
0.9999999992666228,1,0.999964
1.0,1,0.999965
0.9999999999999933,1,0.999963
0.9999999999999964,1,0.999964
1.0,1,0.999965
0.9999999999999927,1,0.999965
1.0,1,0.999965
1.0,1,0.999965
0.9999999999999964,1,0.999966
0.9999999999999992,1,0.999965
1.0,1,0.999965
1.0,1,0.999964
1.0,1,0.999964
0.9999999999999987,1,0.999965
0.999999999999994,1,0.999959
1.0,1,0.999962
1.0,1,0.999964
0.9999999999999986,1,0.999960
1.0,1,0.999965
1.0,1,0.999960
1.0,1,0.999961
0.9999999999999966,1,0.999964
0.9999999999999978,1,0.999965
1.0,1,0.999964
1.0,1,0.999964
0.9999999999999966,1,0.999962
1.0,1,0.999964
0.9999999999997109,1,0.999965
1.0,1,0.999964
0.9999999999999982,1,0.999964
0.9999999999999994,1,0.999965
0.9999999999999967,1,0.999963
1.0,1,0.999966
1.0,1,0.999964
0.9999999999999929,1,0.999965
1.0,1,0.999965
0.9999999999999896,1,0.999965
0.999999999999992,1,0.999964
0.9999999999999903,1,0.999965
0.9999999999999977,1,0.999965
0.9999999999999964,1,0.999965
1.0,1,0.999964
1.0,1,0.999965
1.0,1,0.999965
0.9999999999999983,1,0.999963
1.0,1,0.999961
0.9999999999999998,1,0.999963
1.0,1,0.999964
0.9999999999999963,1,0.999961
0.9999999999999983,1,0.999965
0.9999999999999923,1,0.999963
0.9999999999999967,1,0.999965
0.9999999999999974,1,0.999964
0.9999999999999981,1,0.999965
1.0,1,0.999964
0.9999999999999951,1,0.999962
0.9999999999999951,1,0.999965
1.0,1,0.999960
0.9999999999999958,1,0.999964
1.0,1,0.999964
1.0,1,0.999961
1.0,1,0.999965
1.0,1,0.999965
0.9999999999999999,1,0.999964
0.999999999999997,1,0.999965
1.0,1,0.999964
1.0,1,0.999964
0.9999999999999958,1,0.999964
1.0,1,0.999962
1.0,1,0.999965
0.9999999999999989,1,0.999964
1.0,1,0.999965
0.999999999999998,1,0.999965
1.0,1,0.999964
0.9999999999999897,1,0.999964
1.0,1,0.999961
0.9999999999999978,1,0.999965
1.0,1,0.999963
1.0,1,0.999964
0.9999999999999983,1,0.999960
1.0,1,0.999965
1.0,1,0.999962
0.9999999999999986,1,0.999966
0.9999999999999971,1,0.999963
1.0,1,0.999960
0.987921046750015,1,0.999923
0.9999999999999987,1,0.999965
0.9999999999999996,1,0.999964
0.9999999999999991,1,0.999965
1.0,1,0.999963
1.0,1,0.999964
0.999999999999998,1,0.999963
1.0,1,0.999964
1.0,1,0.999962
0.999999999999997,1,0.999961
1.0,1,0.999964
1.0,1,0.999965
1.0,1,0.999966
1.0,1,0.999964
1.0,1,0.999965
1.0,1,0.999961
1.0,1,0.999962
1.0,1,0.999965
0.9999999999999957,1,0.999963
1.0,1,0.999965
0.999999999999994,1,0.999966
0.9999999999999987,1,0.999965
0.9999999999999934,1,0.999964
0.9999999999999999,1,0.999963
1.0,1,0.999965
1.0,1,0.999962
1.0,1,0.999964
0.9999999999999946,1,0.999964
1.0,1,0.999965
1.0,1,0.999965
0.9999999999999997,1,0.999965
0.9999999999999993,1,0.999964
1.0,1,0.999966
1.0,1,0.999963
0.9999999999999871,1,0.999960
1.0,1,0.999965
0.9999999999999931,1,0.999965
1.0,1,0.999964
0.9999999999999996,1,0.999961
0.9999999999999976,1,0.999965
1.0,1,0.999965
1.0,1,0.999965
0.9999999999999951,1,0.999962
1.0,1,0.999964
0.9999999999999998,1,0.999965
0.9999999999999891,1,0.999965
1.0,1,0.999957
0.9999999999999948,1,0.999958
1.0,1,0.999966
1.0,1,0.999959
1.0,1,0.999960
1.0,1,0.999962
0.9999999999999993,1,0.999964
1.0,1,0.999965
0.9999999999999977,1,0.999964
0.9999999999999903,1,0.999965
1.0,1,0.999964
1.0,1,0.999964
0.9999999999999999,1,0.999965
1.0,1,0.999965
0.9999999999999981,1,0.999960
1.0,1,0.999964
0.9999999999999974,1,0.999964
1.0,1,0.999964
1.0,1,0.999958
1.0,1,0.999964
0.9999999999999951,1,0.999963
1.0,1,0.999965
0.9999999999999951,1,0.999965
0.9999983075982006,1,0.999959
1.0,1,0.999965
0.9999999999999978,1,0.999960
0.9999999999999981,1,0.999958
1.0,1,0.999965
0.9999999999999999,1,0.999964
0.999999999999994,1,0.999966
0.999999999999997,1,0.999965
1.0,1,0.999961
0.9999999999999959,1,0.999964
0.999999999999998,1,0.999963
0.9999999999999979,1,0.999957
0.999999999999999,1,0.999965
1.0,1,0.999966
1.0,1,0.999957
0.9999999999999982,1,0.999965
1.0,1,0.999963
0.9999999999999953,1,0.999963
0.9999999999999968,1,0.999957
0.9999999999999949,1,0.999965
1.0,1,0.999965
0.9999999999999946,1,0.999965
0.9999999999999905,1,0.999965
0.999999999999997,1,0.999964
1.0,1,0.999964
1.0,1,0.999965
1.0,1,0.999965
1.0,1,0.999966
0.9999999999999982,1,0.999956
0.9999999999999905,1,0.999959
1.0,1,0.999965
1.0,1,0.999965
1.0,1,0.999966
1.0,1,0.999965
1.0,1,0.999965
1.0,1,0.999965
1.0,1,0.999963
0.9999747959196176,1,0.999957
1.0,1,0.999965
1.0,1,0.999965
0.9999999999999987,1,0.999959
0.9999999999999994,1,0.999966
0.9999999999999957,1,0.999965
1.0,1,0.999965
1.0,1,0.999960
1.0,1,0.999959
0.999999999999996,1,0.999965
0.9999999999999991,1,0.999962
1.0,1,0.999964
0.9999999999999946,1,0.999964
1.0,1,0.999962
1.0,1,0.999961
0.9999999999999983,1,0.999966
0.9999999999999981,1,0.999965
0.9999999999999971,1,0.999965
0.9999999999999977,1,0.999964
1.0,1,0.999958
1.0,1,0.999960
0.9999999999999984,1,0.999964
1.0,1,0.999964
1.0,1,0.999964
0.9999999999999926,1,0.999957
0.9999999999999993,1,0.999966
0.9999999999999974,1,0.999964
0.9999999999999958,1,0.999965
0.9999999999999971,1,0.999959
1.0,1,0.999964
1.0,1,0.999965
0.999999999999996,1,0.999964
1.0,1,0.999962
1.0,1,0.999965
1.0,1,0.999966
1.0,1,0.999965
1.0,1,0.999963
0.9999999999999949,1,0.999962
1.0,1,0.999965
0.999999999735022,1,0.999963
1.0,1,0.999964
1.0,1,0.999959
0.9999999999999961,1,0.999964
0.999999999999999,1,0.999965
0.9999999999999923,1,0.999966
1.0,1,0.999960
1.0,1,0.999964
1.0,1,0.999962
0.9999999999999982,1,0.999965
1.0,1,0.999960
0.9999999999999963,1,0.999964
1.0,1,0.999965
0.9999999999999951,1,0.999964
1.0,1,0.999965
0.9999999999999952,1,0.999965
0.9999999999999974,1,0.999963
0.999999999999998,1,0.999964
0.9999999999999998,1,0.999961
1.0,1,0.999964
0.9999999999999997,1,0.999966
0.999999999999996,1,0.999964
0.9999999999999989,1,0.999964
1.0,1,0.999965
0.9999999999999956,1,0.999958
0.9999999999999972,1,0.999964
1.0,1,0.999964
1.0,1,0.999966
0.9999999999999986,1,0.999960
1.0,1,0.999965
0.9999999999999971,1,0.999961
1.0,1,0.999965
1.0,1,0.999965
1.0,1,0.999964
0.9999999999999961,1,0.999966
1.0,1,0.999965
0.9999999999999994,1,0.999959
0.9999999999999933,1,0.999963
0.9999999999999997,1,0.999966
1.0,1,0.999959
0.9999999999999994,1,0.999964
0.9999999999999974,1,0.999964
0.9999999999999954,1,0.999964
0.9999999999999963,1,0.999961
1.0,1,0.999963
0.9999999999999961,1,0.999962
1.0,1,0.999964
1.0,1,0.999957
1.0,1,0.999965
0.99999999999999,1,0.999957
0.9999999999999969,1,0.999966
1.0,1,0.999966
1.0,1,0.999959
0.9999999999999942,1,0.999961
1.0,1,0.999965
1.0,1,0.999965
0.999999999999997,1,0.999964
1.0,1,0.999963
1.0,1,0.999965
1.0,1,0.999965
1.0,1,0.999964
1.0,1,0.999963
0.9999999999999972,1,0.999963
0.9999999999999981,1,0.999964
1.0,1,0.999965
1.0,1,0.999959
1.0,1,0.999964
0.9999999999999972,1,0.999965
0.9999999999999991,1,0.999967
1.0,1,0.999965
0.9999999999999972,1,0.999964
0.9999999999999996,1,0.999965
1.0,1,0.999964
1.0,1,0.999965
1.0,1,0.999965
1.0,1,0.999964
1.0,1,0.999965
1.0,1,0.999965
0.9999999999999943,1,0.999966
1.0,1,0.999964
0.9999999999999956,1,0.999965
1.0,1,0.999962
1.0,1,0.999965
1.0,1,0.999965
0.9999999999999994,1,0.999964
1.0,1,0.999965
1.0,1,0.999961
0.9999999999999991,1,0.999964
0.9999999999999976,1,0.999962
0.9999999999999983,1,0.999964
1.0,1,0.999960
0.9999999999999992,1,0.999965
0.9999999999999978,1,0.999965
0.9999999999999969,1,0.999965
1.0,1,0.999964
0.9999999999999993,1,0.999965
0.9999999999999993,1,0.999966
0.9999999999999998,1,0.999964
1.0,1,0.999965
0.9999999999999973,1,0.999965
0.9999999999999961,1,0.999964
0.9999999999999974,1,0.999964
1.0,1,0.999963
1.0,1,0.999963
0.9999999999999963,1,0.999965
1.0,1,0.999959
0.9999999999999976,1,0.999964
0.9999999999999998,1,0.999965
0.9999999999999968,1,0.999965
0.9999999999999984,1,0.999958
1.0,1,0.999963
0.999999999999994,1,0.999962
0.9999999999999991,1,0.999964
0.9999999999999956,1,0.999959
1.0,1,0.999964
1.0,1,0.999959
1.0,1,0.999965
1.0,1,0.999963
0.9999999999999987,1,0.999961
0.9999999999999949,1,0.999963
1.0,1,0.999964
1.0,1,0.999965
0.9999999999999983,1,0.999964
0.9999999999999973,1,0.999956
1.0,1,0.999962
0.9999999999999982,1,0.999959
0.9999999999999994,1,0.999961
0.9999999999999996,1,0.999966
0.9999999999999996,1,0.999964
0.9999999999999993,1,0.999963
0.9999999999999996,1,0.999965
1.0,1,0.999965
0.9999999941673872,1,0.999962
1.0,1,0.999964
1.0,1,0.999964
0.9999999999999925,1,0.999965
1.0,1,0.999960
1.0,1,0.999965
0.9999999999999967,1,0.999963
1.0,1,0.999958
0.9999999999999938,1,0.999960
1.0,1,0.999965
0.9999999999999986,1,0.999964
0.9999999999999984,1,0.999965
1.0,1,0.999964
1.0,1,0.999963
0.9999999999999939,1,0.999966
0.9999999999999978,1,0.999965
0.9999999999999974,1,0.999959
0.9999999999999977,1,0.999960
1.0,1,0.999965
0.9999999999999988,1,0.999964
0.9999999999999986,1,0.999963
1.0,1,0.999965
0.9999999999999981,1,0.999964
0.999999999999998,1,0.999966
0.9999999999999982,1,0.999965
1.0,1,0.999961
1.0,1,0.999965
0.9999999999999919,1,0.999957
1.0,1,0.999963
0.9999999999999963,1,0.999965
1.0,1,0.999964
1.0,1,0.999966
0.9999999999999983,1,0.999965
1.0,1,0.999960
1.0,1,0.999966
1.0,1,0.999957
0.9999999999999959,1,0.999963
0.9999999999999994,1,0.999960
1.0,1,0.999965
0.9999999999999988,1,0.999965
0.9999999999999972,1,0.999966
0.999999999999997,1,0.999965
0.9999999999999996,1,0.999964
0.9999999999999991,1,0.999965
1.0,1,0.999964
1.0,1,0.999964
1.0,1,0.999961
0.9999999999999994,1,0.999964
0.9740494817842507,1,0.999962
0.9999999999999988,1,0.999963
0.9999999999999987,1,0.999965
0.9999999999999948,1,0.999964
1.0,1,0.999964
0.9999999999999952,1,0.999965
1.0,1,0.999966
0.9999999999999974,1,0.999963
1.0,1,0.999965
0.9999999999999989,1,0.999961
1.0,1,0.999960
0.9999999999999961,1,0.999963
1.0,1,0.999965
1.0,1,0.999963
0.9999999999999992,1,0.999965
1.0,1,0.999962
1.0,1,0.999965
0.9999999999999996,1,0.999965
0.9999999999999931,1,0.999964
1.0,1,0.999963
1.0,1,0.999964
1.0,1,0.999965
0.999999999999999,1,0.999965
1.0,1,0.999961
0.999999999999997,1,0.999963
1.0,1,0.999957
0.9999999999999979,1,0.999964
0.9999999999999961,1,0.999964
1.0,1,0.999965
0.9999999999999986,1,0.999963
1.0,1,0.999963
0.9999999999999943,1,0.999966
1.0,1,0.999963
0.9999999999999937,1,0.999964
1.0,1,0.999965
0.9999999999999954,1,0.999964
1.0,1,0.999964
1.0,1,0.999964
0.9999999999999998,1,0.999964
1.0,1,0.999964
1.0,1,0.999965
1.0,1,0.999965
0.9999999999999976,1,0.999964
1.0,1,0.999963
0.9999999999999951,1,0.999963
0.9999999999999951,1,0.999965
1.0,1,0.999965
0.9999999999999979,1,0.999962
1.0,1,0.999960
1.0,1,0.999963
1.0,1,0.999964
1.0,1,0.999965
1.0,1,0.999965
1.0,1,0.999964
0.9999999999999951,1,0.999962
0.9999999999999944,1,0.999959
1.0,1,0.999963
1.0,1,0.999965
1.0,1,0.999965
1.0,1,0.999965
0.9999999999999953,1,0.999965
0.9999999999999929,1,0.999964
1.0,1,0.999964
0.9999999999999999,1,0.999965
0.9999999999999912,1,0.999965
1.0,1,0.999957
0.9999999999999956,1,0.999956
1.0,1,0.999963
1.0,1,0.999965
1.0,1,0.999963
0.9999999999999961,1,0.999965
0.9999999999999997,1,0.999964
0.9999999999999999,1,0.999964
0.9999999999999999,1,0.999966
1.0,1,0.999964
0.9999999999999978,1,0.999965
1.0,1,0.999959
1.0,1,0.999963
1.0,1,0.999966
0.9999999999999942,1,0.999963
1.0,1,0.999965
1.0,1,0.999965
1.0,1,0.999958
0.999999999999995,1,0.999964
0.9999999999999986,1,0.999959
0.9999999999999957,1,0.999964
1.0,1,0.999965
0.9999999999999984,1,0.999961
0.9999999999999852,1,0.999963
0.9999999999999946,1,0.999964
0.9999999999999938,1,0.999965
0.9999999999999978,1,0.999964
1.0,1,0.999964
1.0,1,0.999959
0.9999999999999989,1,0.999965
1.0,1,0.999961
0.9999999999999998,1,0.999964
1.0,1,0.999961
0.9999999999999943,1,0.999962
1.0,1,0.999956
0.9999999999999981,1,0.999963
1.0,1,0.999963
0.9999999999999966,1,0.999964
1.0,1,0.999964
1.0,1,0.999962
0.9999999999999973,1,0.999965
0.9999999999999986,1,0.999964
0.999999999999995,1,0.999964
0.9999999999999987,1,0.999965
0.9999999999999987,1,0.999964
0.999999999999999,1,0.999963
1.0,1,0.999965
1.0,1,0.999963
0.9999999999999984,1,0.999965
0.9999999999999984,1,0.999959
0.9999999999999951,1,0.999964
0.9999999999999988,1,0.999959
0.9999999999999987,1,0.999964
0.9999999999999981,1,0.999965
0.9999999999999994,1,0.999958
0.999999999999999,1,0.999964
1.0,1,0.999963
0.9999999999999987,1,0.999964
0.9999999999999944,1,0.999965
0.9999999999999977,1,0.999964
0.9999999999999977,1,0.999964
0.9999999999999979,1,0.999965
0.9999999999999952,1,0.999964
0.9999999999999947,1,0.999964
0.9999999999999982,1,0.999964
0.9999999999999987,1,0.999964
1.0,1,0.999966
1.0,1,0.999965
0.9999999999999926,1,0.999965
0.9999999999999999,1,0.999965
1.0,1,0.999965
0.9999999999999963,1,0.999965
0.9999999999999996,1,0.999964
1.0,1,0.999965
0.999999999999996,1,0.999960
0.9999999999999982,1,0.999964
0.999999999999993,1,0.999965
0.9999999999999987,1,0.999960
0.9999999999999986,1,0.999965
0.9999999999999971,1,0.999963
1.0,1,0.999965
1.0,1,0.999965
1.0,1,0.999965
1.0,1,0.999965
1.0,1,0.999964
1.0,1,0.999964
1.0,1,0.999959
0.9999999999999969,1,0.999959
1.0,1,0.999964
1.0,1,0.999964
1.0,1,0.999965
1.0,1,0.999965
0.9999999999999997,1,0.999965
0.9999999999999948,1,0.999965
0.9999999999999933,1,0.999964
1.0,1,0.999966
1.0,1,0.999960
1.0,1,0.999959
1.0,1,0.999959
0.9999999999999946,1,0.999960
1.0,1,0.999960
1.0,1,0.999963
1.0,1,0.999965
0.9999999999999992,1,0.999965
0.9999999999999977,1,0.999964
1.0,1,0.999963
0.999999999999999,1,0.999963
1.0,1,0.999960
0.9999999999999983,1,0.999963
0.9999999999999921,1,0.999962
1.0,1,0.999965
1.0,1,0.999964
1.0,1,0.999965
0.9999999999999925,1,0.999965
1.0,1,0.999965
0.9999999999999968,1,0.999964
0.9999999999999997,1,0.999965
0.9999999999999942,1,0.999965
0.9999999999999991,1,0.999964
0.9999999999999984,1,0.999963
1.0,1,0.999965
0.9999999999999936,1,0.999965
0.9999999999999959,1,0.999965
1.0,1,0.999963
0.9999999999999971,1,0.999965
1.0,1,0.999963
1.0,1,0.999965
1.0,1,0.999964
1.0,1,0.999965
1.0,1,0.999963
0.9999999999999999,1,0.999962
0.9999999999999958,1,0.999964
0.9999999999999941,1,0.999964
1.0,1,0.999965
0.9999999999999973,1,0.999965
1.0,1,0.999965
0.9999999999999982,1,0.999965
1.0,1,0.999965
1.0,1,0.999964
0.9999999999999991,1,0.999965
0.9999999999999959,1,0.999964
1.0,1,0.999965
0.9999999999999983,1,0.999964
1.0,1,0.999963
1.0,1,0.999959
1.0,1,0.999958
1.0,1,0.999964
1.0,1,0.999964
0.9999999999999959,1,0.999964
0.9999999999999976,1,0.999963
0.9999999999999997,1,0.999965
0.9999999999999908,1,0.999964
1.0,1,0.999965
0.9999999999999984,1,0.999965
0.9999999999999907,1,0.999965
1.0,1,0.999964
1.0,1,0.999965
0.999999999999998,1,0.999964
1.0,1,0.999965
0.9999999999999981,1,0.999962
1.0,1,0.999964
0.9999999999999992,1,0.999963
0.9999999999999983,1,0.999965
1.0,1,0.999964
1.0,1,0.999964
0.9999999999999927,1,0.999965
0.9999999999999952,1,0.999964
1.0,1,0.999965
1.0,1,0.999965
1.0,1,0.999965
0.9999999999999911,1,0.999963
0.9999999999999987,1,0.999965
1.0,1,0.999965
1.0,1,0.999964
0.9999999999999976,1,0.999964
0.9999999999999959,1,0.999963
1.0,1,0.999966
1.0,1,0.999964
1.0,1,0.999963
1.0,1,0.999965
0.999999999999995,1,0.999965
1.0,1,0.999965
1.0,1,0.999964
0.9999999999999928,1,0.999965
0.9999999999999946,1,0.999966
1.0,1,0.999964
1.0,1,0.999964
1.0,1,0.999963
1.0,1,0.999965
1.0,1,0.999963
1.0,1,0.999959
1.0,1,0.999964
0.9999999999999996,1,0.999965
0.9999999999999978,1,0.999965
0.9999999999999987,1,0.999963
0.9999999999999974,1,0.999963
0.9999999999999987,1,0.999964
0.9999999999999982,1,0.999965
1.0,1,0.999965
1.0,1,0.999964
1.0,1,0.999964
1.0,1,0.999964
0.9999999999999961,1,0.999964
1.0,1,0.999958
0.9999999999999987,1,0.999965
0.9999999999999978,1,0.999959
0.9999999999999984,1,0.999964
1.0,1,0.999963
1.0,1,0.999964
1.0,1,0.999964
1.0,1,0.999965
1.0,1,0.999962
0.9999999999999981,1,0.999964
1.0,1,0.999958
0.9999999999999962,1,0.999964
0.9999999999999939,1,0.999964
1.0,1,0.999966
0.9999999999999998,1,0.999965
1.0,1,0.999965
0.999999999999997,1,0.999965
1.0,1,0.999959
0.9999999999999956,1,0.999965
0.9999999999999958,1,0.999962
1.0,1,0.999956
1.0,1,0.999965
0.9999999999999941,1,0.999958
0.9999999999999952,1,0.999965
1.0,1,0.999958
0.999999999999998,1,0.999966
0.9999999999999974,1,0.999964
0.9999999999999949,1,0.999964
1.0,1,0.999965
1.0,1,0.999957
1.0,1,0.999963
0.9999999999999968,1,0.999960
1.0,1,0.999964
1.0,1,0.999958
0.9999999999999947,1,0.999965
0.9999999999999968,1,0.999964
1.0,1,0.999966
0.9999999999999959,1,0.999964
1.0,1,0.999965
0.9999999999999988,1,0.999964
1.0,1,0.999965
1.0,1,0.999965
1.0,1,0.999965
0.9999999999999976,1,0.999964
0.9999999999999979,1,0.999957
0.999999999999998,1,0.999962
0.9999999999999958,1,0.999965
1.0,1,0.999964
0.9999999999999987,1,0.999962
0.9999999999999959,1,0.999965
0.9999999999999916,1,0.999962
1.0,1,0.999964
0.9999999999999938,1,0.999964
1.0,1,0.999964
1.0,1,0.999965
1.0,1,0.999959
0.9999999999999979,1,0.999966
0.9999999999999979,1,0.999965
0.9999997640664146,1,0.999961
1.0,1,0.999965
0.9999999999999949,1,0.999964
1.0,1,0.999965
1.0,1,0.999964
0.9999999999999943,1,0.999963
1.0,1,0.999964
1.0,1,0.999966
0.9999999999999994,1,0.999965
0.999999999999996,1,0.999959
0.9999999999999969,1,0.999966
1.0,1,0.999964
0.9999999999999983,1,0.999964
1.0,1,0.999965
0.9999999999999891,1,0.999964
0.9999999999999977,1,0.999965
1.0,1,0.999965
1.0,1,0.999965
0.9999999999999944,1,0.999965
1.0,1,0.999965
0.9999999999999973,1,0.999958
1.0,1,0.999960
0.9999999999999968,1,0.999963
1.0,1,0.999965
1.0,1,0.999960
1.0,1,0.999964
0.9999999999999998,1,0.999962
1.0,1,0.999965
1.0,1,0.999963
0.999999999999999,1,0.999965
1.0,1,0.999964
0.9999999999999973,1,0.999965
1.0,1,0.999965
0.9999999999999996,1,0.999965
1.0,1,0.999964
1.0,1,0.999964
1.0,1,0.999965
0.9999999999999968,1,0.999959
0.9999999999999991,1,0.999964
1.0,1,0.999966
1.0,1,0.999958
1.0,1,0.999962
0.9999999999999982,1,0.999964
0.9999999999999999,1,0.999965
0.9999999999999991,1,0.999965
1.0,1,0.999962
1.0,1,0.999964
0.9999999999999999,1,0.999965
0.9999999999999972,1,0.999965
1.0,1,0.999957
1.0,1,0.999964
1.0,1,0.999965
1.0,1,0.999959
1.0,1,0.999965
0.9999999999999974,1,0.999965
0.9999999999999982,1,0.999965
1.0,1,0.999960
1.0,1,0.999965
0.9999999999999947,1,0.999964
1.0,1,0.999965
1.0,1,0.999963
0.9999999999999993,1,0.999965
0.9999999999999994,1,0.999959
0.999999999897242,1,0.999964
0.9999999999999944,1,0.999964
0.9999999999999994,1,0.999965
0.9999999999999987,1,0.999962
1.0,1,0.999959
0.9999999999999947,1,0.999965
0.9999999999999932,1,0.999963
0.9999999999999992,1,0.999965
0.9999999999999944,1,0.999962
0.999999999999998,1,0.999965
0.999999999999997,1,0.999965
0.999999999999999,1,0.999965
1.0,1,0.999964
1.0,1,0.999965
1.0,1,0.999960
1.0,1,0.999964
1.0,1,0.999965
1.0,1,0.999965
0.9999999999999987,1,0.999963
0.999999999999997,1,0.999964
0.9999999999999958,1,0.999965
0.9999999999999974,1,0.999965
1.0,1,0.999965
1.0,1,0.999963
0.9999999999999983,1,0.999965
0.9999999999999911,1,0.999964
0.9999999999999925,1,0.999959
1.0,1,0.999965
0.9999999999999946,1,0.999964
0.9999999999999971,1,0.999963
0.9999999999999982,1,0.999965
1.0,1,0.999965
0.9999999999999991,1,0.999963
1.0,1,0.999965
0.999999999999995,1,0.999965
1.0,1,0.999963
0.9999999999999994,1,0.999965
1.0,1,0.999965
0.9999999999999951,1,0.999964
1.0,1,0.999965
1.0,1,0.999964
1.0,1,0.999964
1.0,1,0.999964
0.9999999999999986,1,0.999965
0.9999999999999997,1,0.999963
0.9999999999999983,1,0.999965
1.0,1,0.999965
1.0,1,0.999965
1.0,1,0.999964
0.9999999999999987,1,0.999964
0.9999999999999977,1,0.999964
1.0,1,0.999964
0.9999999999999964,1,0.999963
1.0,1,0.999963
1.0,1,0.999963
1.0,1,0.999965
1.0,1,0.999964
1.0,1,0.999965
1.0,1,0.999964
0.9999999999999979,1,0.999964
1.0,1,0.999964
1.0,1,0.999965
1.0,1,0.999963
1.0,1,0.999964
0.9999999999999941,1,0.999965
0.9999999999999978,1,0.999964
0.9999999999999886,1,0.999966
0.9999999999999992,1,0.999964
0.9999999999999912,1,0.999964
1.0,1,0.999965
0.9999999999999981,1,0.999964
1.0,1,0.999957
0.999999999999999,1,0.999959
0.9999999999999994,1,0.999965
0.999999999999999,1,0.999965
0.9999999999999987,1,0.999965
1.0,1,0.999965
1.0,1,0.999959
0.9999999999999932,1,0.999965
0.9999999999999997,1,0.999962
1.0,1,0.999965
0.9999999999999992,1,0.999964
1.0,1,0.999958
1.0,1,0.999962
1.0,1,0.999965
1.0,1,0.999966
1.0,1,0.999965
0.999999999999998,1,0.999965
1.0,1,0.999960
0.9999999999999951,1,0.999965
0.9999999999999997,1,0.999960
1.0,1,0.999964
0.9999999999999977,1,0.999957
1.0,1,0.999965
0.9999999999999997,1,0.999964
0.9999999999999949,1,0.999965
0.9999999999999951,1,0.999963
1.0,1,0.999964
0.9999999999999978,1,0.999964
0.9999999999999968,1,0.999964
1.0,1,0.999963
1.0,1,0.999965
0.9999999999999998,1,0.999961
1.0,1,0.999965
0.9999999999999998,1,0.999962
0.999999999999996,1,0.999958
0.9999999999999999,1,0.999965
1.0,1,0.999964
1.0,1,0.999964
1.0,1,0.999963
1.0,1,0.999965
1.0,1,0.999964
0.9999999999999993,1,0.999964
0.9999999999999987,1,0.999957
1.0,1,0.999959
0.9999999999999941,1,0.999961
1.0,1,0.999964
1.0,1,0.999964
0.9999999999999978,1,0.999964
0.999999999999991,1,0.999965
0.999999999999996,1,0.999963
0.9999999999999983,1,0.999964
0.9999999999999979,1,0.999959
1.0,1,0.999964
1.0,1,0.999964
1.0,1,0.999962
1.0,1,0.999964
1.0,1,0.999965
0.9999999999999977,1,0.999962
0.9999999999999967,1,0.999964
1.0,1,0.999964
1.0,1,0.999960
0.9999999999999983,1,0.999965
1.0,1,0.999964
0.9999993506331192,1,0.999963
1.0,1,0.999964
0.9999999999999946,1,0.999965
1.0,1,0.999965
0.9999999999999987,1,0.999964
0.9999999999999979,1,0.999965
1.0,1,0.999965
1.0,1,0.999965
0.9999999999999958,1,0.999963
1.0,1,0.999964
1.0,1,0.999963
1.0,1,0.999965
1.0,1,0.999965
0.9999999999999994,1,0.999963
0.9999999999999962,1,0.999964
0.9999999999999968,1,0.999964
0.9999999999999967,1,0.999965
1.0,1,0.999965
1.0,1,0.999963
1.0,1,0.999965
0.9999999999999958,1,0.999963
1.0,1,0.999966
1.0,1,0.999959
0.9999999999999981,1,0.999965
0.9999999999999964,1,0.999959
1.0,1,0.999965
0.9999999999999991,1,0.999965
0.9999999999999991,1,0.999964
1.0,1,0.999965
0.9999999999999994,1,0.999964
1.0,1,0.999965
0.999999999999996,1,0.999965
0.9999999999999992,1,0.999957
1.0,1,0.999963
0.9999999999999987,1,0.999965
0.9999999999999892,1,0.999965
0.9999999999999978,1,0.999961
1.0,1,0.999959
1.0,1,0.999959
1.0,1,0.999965
0.9999999999999996,1,0.999965
0.9999999999999989,1,0.999963
1.0,1,0.999965
0.9999999999999947,1,0.999964
0.9999999999999961,1,0.999965
1.0,1,0.999964
0.9999999999999944,1,0.999964
1.0,1,0.999956
1.0,1,0.999964
1.0,1,0.999964
0.9999999999999977,1,0.999965
0.9999999999999954,1,0.999964
0.9999999999999997,1,0.999965
0.9999999999999999,1,0.999964
1.0,1,0.999963
0.9999999999999968,1,0.999964
1.0,1,0.999965
0.9999999999999983,1,0.999963
1.0,1,0.999965
1.0,1,0.999965
1.0,1,0.999965
1.0,1,0.999966
0.9999999999999952,1,0.999965
1.0,1,0.999965
1.0,1,0.999966
1.0,1,0.999964
0.9999999999999993,1,0.999966
1.0,1,0.999965
0.9999999999999981,1,0.999965
0.9999999999999988,1,0.999965
0.9999999999999981,1,0.999965
1.0,1,0.999965
0.9999999999999983,1,0.999964
0.9999999999999972,1,0.999965
1.0,1,0.999965
0.9999999999999971,1,0.999965
0.9999999999999994,1,0.999964
1.0,1,0.999965
0.9999999999999938,1,0.999965
1.0,1,0.999965
0.9999999999999939,1,0.999965
1.0,1,0.999965
1.0,1,0.999966
1.0,1,0.999964
1.0,1,0.999964
1.0,1,0.999964
0.9999999999999973,1,0.999959
0.9999999999999987,1,0.999965
0.9999999999999948,1,0.999965
1.0,1,0.999965
1.0,1,0.999964
1.0,1,0.999965
0.9999999999999987,1,0.999966
1.0,1,0.999957
1.0,1,0.999965
1.0,1,0.999965
0.9999999999999979,1,0.999964
1.0,1,0.999964
1.0,1,0.999964
1.0,1,0.999963
1.0,1,0.999964
0.9999999999999999,1,0.999965
0.9999999999999987,1,0.999964
1.0,1,0.999963
1.0,1,0.999965
1.0,1,0.999963
1.0,1,0.999963
1.0,1,0.999964
1.0,1,0.999964
1.0,1,0.999964
0.999999999999998,1,0.999964
1.0,1,0.999961
0.9999999999999957,1,0.999957
0.9999999999999998,1,0.999964
0.9999999999999971,1,0.999963
1.0,1,0.999964
1.0,1,0.999964
1.0,1,0.999966
0.9999999999999986,1,0.999965
1.0,1,0.999966
0.9999999999999997,1,0.999961
1.0,1,0.999966
0.9999999999999987,1,0.999965
0.9999999999999987,1,0.999963
1.0,1,0.999965
0.9999999999999957,1,0.999965
0.9999999999999957,1,0.999957
1.0,1,0.999965
0.9999999999999996,1,0.999957
0.9999999999999983,1,0.999964
1.0,1,0.999960
1.0,1,0.999964
1.0,1,0.999964
1.0,1,0.999959
1.0,1,0.999965
1.0,1,0.999964
0.999999999999994,1,0.999963
1.0,1,0.999959
0.9999999999999993,1,0.999963
0.9999999999999922,1,0.999964
0.9999999999982915,1,0.999963
1.0,1,0.999965
0.9999999999999949,1,0.999965
1.0,1,0.999963
0.9999999999999997,1,0.999964
0.9999999999999992,1,0.999964
1.0,1,0.999962
1.0,1,0.999964
1.0,1,0.999962
0.9999999999999998,1,0.999964
0.9999999999999956,1,0.999965
1.0,1,0.999964
1.0,1,0.999964
0.9999999999999996,1,0.999960
1.0,1,0.999957
0.9999999999999925,1,0.999965
0.999999999999999,1,0.999964
1.0,1,0.999958
0.9999999999999984,1,0.999962
1.0,1,0.999965
0.9999999999999941,1,0.999964
1.0,1,0.999965
1.0,1,0.999965
0.9999999999999978,1,0.999964
1.0,1,0.999965
1.0,1,0.999965
1.0,1,0.999959
1.0,1,0.999956
0.9999999999999944,1,0.999965
0.9999999999999996,1,0.999965
0.9999999999999977,1,0.999965
0.9999999999999962,1,0.999965
0.9999999999999976,1,0.999964
0.9999999999999968,1,0.999960
0.9999999999999977,1,0.999964
0.9999999999999984,1,0.999963
1.0,1,0.999964
0.9999999999999982,1,0.999964
1.0,1,0.999965
1.0,1,0.999964
0.9999999999999986,1,0.999966
1.0,1,0.999960
1.0,1,0.999964
1.0,1,0.999964
0.9999999999999982,1,0.999965
1.0,1,0.999964
1.0,1,0.999963
1.0,1,0.999964
1.0,1,0.999964
1.0,1,0.999966
0.999999999999998,1,0.999964
1.0,1,0.999964
0.9999999999999951,1,0.999966
0.9999999999999943,1,0.999964
1.0,1,0.999963
1.0,1,0.999963
1.0,1,0.999965
1.0,1,0.999966
0.999999999999997,1,0.999964
1.0,1,0.999966
1.0,1,0.999961
0.9999999999999964,1,0.999966
1.0,1,0.999966
0.9999999999999917,1,0.999957
1.0,1,0.999957
0.9999999999999962,1,0.999965
0.9999999999999963,1,0.999965
0.9999999999999978,1,0.999965
1.0,1,0.999964
1.0,1,0.999964
0.9999999999999994,1,0.999965
0.9999999999999994,1,0.999965
0.9999999999999993,1,0.999965
0.9999999925679552,1,0.999965
0.9999999999999981,1,0.999965
0.999999999999996,1,0.999965
1.0,1,0.999965
0.9999999999999947,1,0.999966
0.9999999999999954,1,0.999963
1.0,1,0.999964
0.999999999999999,1,0.999964
0.9999999999999984,1,0.999966
0.9999999999999991,1,0.999960
0.9999999999999952,1,0.999965
0.9999999999999997,1,0.999965
1.0,1,0.999965
0.9999999999999925,1,0.999965
0.999999999999995,1,0.999965
1.0,1,0.999964
1.0,1,0.999965
0.9999999999999968,1,0.999962
1.0,1,0.999965
1.0,1,0.999964
1.0,1,0.999966
0.9999999999999982,1,0.999961
1.0,1,0.999966
0.999999999999996,1,0.999957
1.0,1,0.999964
0.9999999999999964,1,0.999965
1.0,1,0.999961
1.0,1,0.999959
0.9999999999999986,1,0.999966
1.0,1,0.999966
0.9999999999999976,1,0.999964
1.0,1,0.999965
0.9999999999999973,1,0.999965
0.9999999999999963,1,0.999965
1.0,1,0.999964
0.9999999999999979,1,0.999965
1.0,1,0.999964
0.9999999999999961,1,0.999965
1.0,1,0.999959
0.9999999999999916,1,0.999965
0.9999999999999993,1,0.999965
1.0,1,0.999964
1.0,1,0.999964
0.9999999999999974,1,0.999964
1.0,1,0.999964
1.0,1,0.999965
1.0,1,0.999963
0.9999999999999969,1,0.999959
0.9999999999999983,1,0.999960
0.9999999999999997,1,0.999965
0.9999999999999993,1,0.999964
1.0,1,0.999965
1.0,1,0.999965
0.9999999999999981,1,0.999965
0.9999999999999943,1,0.999965
0.999999999999996,1,0.999961
1.0,1,0.999961
1.0,1,0.999964
0.9999999999999983,1,0.999963
1.0,1,0.999961
1.0,1,0.999965
0.9999999999999926,1,0.999957
1.0,1,0.999964
0.999999999999999,1,0.999960
0.9999999999999988,1,0.999963
0.9999999999999993,1,0.999962
1.0,1,0.999959
0.9999999999999931,1,0.999959
0.9999999999999993,1,0.999965
0.9999999999999998,1,0.999964
1.0,1,0.999965
1.0,1,0.999965
0.9999999999999923,1,0.999965
0.9999999999999993,1,0.999964
0.9999999999999982,1,0.999965
0.9796825211558523,1,0.999856
1.0,1,0.999965
0.9999999999999999,1,0.999964
0.9999999999999999,1,0.999963
0.9999999999999999,1,0.999964
1.0,1,0.999964
1.0,1,0.999965
0.9999999999999997,1,0.999964
1.0,1,0.999965
1.0,1,0.999966
1.0,1,0.999964
1.0,1,0.999962
0.9999999999999946,1,0.999965
0.9999999999999988,1,0.999963
1.0,1,0.999964
1.0,1,0.999965
1.0,1,0.999964
0.9999999999999996,1,0.999965
1.0,1,0.999965
1.0,1,0.999966
0.9999999999999994,1,0.999965
0.9999999999999954,1,0.999962
0.9999999999999982,1,0.999965
0.9999999999999951,1,0.999964
1.0,1,0.999964
0.9999999999999961,1,0.999965
0.9999999999999966,1,0.999963
1.0,1,0.999964
1.0,1,0.999963
1.0,1,0.999963
1.0,1,0.999964
1.0,1,0.999963
1.0,1,0.999965
1.0,1,0.999964
0.9999999999999953,1,0.999964
1.0,1,0.999963
1.0,1,0.999964
1.0,1,0.999964
1.0,1,0.999965
0.9999999999999962,1,0.999965
0.9999999999999928,1,0.999964
1.0,1,0.999965
0.9999999999999942,1,0.999965
1.0,1,0.999963
0.9999999999999947,1,0.999964
0.9999999999999962,1,0.999965
1.0,1,0.999965
1.0,1,0.999963
0.9999999999999979,1,0.999964
0.999999999999994,1,0.999964
0.9999999999999974,1,0.999965
1.0,1,0.999964
1.0,1,0.999964
0.9999999999999997,1,0.999964
0.9999999999999941,1,0.999964
0.9999999999999953,1,0.999965
0.9999999999999897,1,0.999964
0.9999999999999969,1,0.999965
0.9999999999999964,1,0.999964
1.0,1,0.999964
0.9999999999999986,1,0.999964
0.9999999999999925,1,0.999963
1.0,1,0.999962
1.0,1,0.999965
1.0,1,0.999964
0.9999999999999944,1,0.999964
0.9999999999999961,1,0.999964
1.0,1,0.999964
1.0,1,0.999963
0.9999999999999972,1,0.999965
0.999999999999994,1,0.999964
1.0,1,0.999963
1.0,1,0.999965
0.9999999999999977,1,0.999964
1.0,1,0.999963
0.999999999999901,1,0.999964
0.9999999999999993,1,0.999965
0.9999999999999983,1,0.999965
1.0,1,0.999964
0.9999999999999962,1,0.999965
0.9999999999999986,1,0.999965
1.0,1,0.999963
1.0,1,0.999964
0.9999999999999979,1,0.999964
1.0,1,0.999963
0.9999999999999974,1,0.999964
1.0,1,0.999963
1.0,1,0.999963
0.9999999999999979,1,0.999964
0.9999999999999966,1,0.999966
1.0,1,0.999965
1.0,1,0.999964
1.0,1,0.999964
0.9999999999999941,1,0.999963
0.9999999999999971,1,0.999963
0.9999999999999971,1,0.999962
0.9999999999999991,1,0.999965
1.0,1,0.999961
1.0,1,0.999964
1.0,1,0.999964
1.0,1,0.999962
0.9999999999999983,1,0.999965
0.9999999999999991,1,0.999965
1.0,1,0.999965
1.0,1,0.999963
1.0,1,0.999964
0.9999999999999972,1,0.999964
1.0,1,0.999965
0.9999999999999956,1,0.999965
1.0,1,0.999965
0.9999999999999954,1,0.999963
0.9999999999999919,1,0.999964
0.9999999999999959,1,0.999963
0.9999999999999939,1,0.999965
1.0,1,0.999965
1.0,1,0.999965
0.9999999999999949,1,0.999964
0.9999999999999982,1,0.999965
0.9999999999999983,1,0.999964
0.9999999999999984,1,0.999963
1.0,1,0.999960
1.0,1,0.999961
0.9999999999999913,1,0.999965
0.9999999999999865,1,0.999964
1.0,1,0.999965
0.999999999999998,1,0.999964
0.9999999999999993,1,0.999963
0.9999999999999993,1,0.999965
0.9999999999999953,1,0.999964
0.999999999999995,1,0.999965
1.0,1,0.999964
1.0,1,0.999965
1.0,1,0.999964
0.9999999999999936,1,0.999965
1.0,1,0.999964
0.9999999999999977,1,0.999964
0.9999999999999997,1,0.999964
0.9999999999999974,1,0.999965
0.999999999999995,1,0.999962
0.9999999999999976,1,0.999963
0.9999999999999979,1,0.999965
0.9999999999999993,1,0.999964
0.9999999999999997,1,0.999964
0.9999999999999986,1,0.999964
1.0,1,0.999965
0.9999999999999926,1,0.999964
0.9999999999999981,1,0.999965
0.9999999999999934,1,0.999960
0.9999999999999969,1,0.999964
0.9999999999999967,1,0.999964
0.9862285124376372,1,0.999928
0.9999999999999972,1,0.999963
1.0,1,0.999964
0.9999999999999992,1,0.999965
1.0,1,0.999964
1.0,1,0.999961
0.9999999999999974,1,0.999964
0.9999999999999998,1,0.999964
0.9999999999999981,1,0.999965
1.0,1,0.999965
1.0,1,0.999965
0.9999999999999994,1,0.999961
1.0,1,0.999965
1.0,1,0.999964
0.9999999999999973,1,0.999965
1.0,1,0.999964
0.9999999999999982,1,0.999959
1.0,1,0.999963
1.0,1,0.999965
0.9999999999999999,1,0.999964
1.0,1,0.999965
1.0,1,0.999965
1.0,1,0.999964
1.0,1,0.999964
1.0,1,0.999965
0.9999999999999962,1,0.999965
1.0,1,0.999964
1.0,1,0.999964
1.0,1,0.999963
0.9999999999999987,1,0.999964
1.0,1,0.999963
1.0,1,0.999964
1.0,1,0.999964
1.0,1,0.999964
1.0,1,0.999965
1.0,1,0.999965
1.0,1,0.999964
1.0,1,0.999964
1.0,1,0.999965
1.0,1,0.999965
0.9999999999999954,1,0.999965
1.0,1,0.999961
1.0,1,0.999963
0.9999999999999972,1,0.999965
1.0,1,0.999965
0.9999999999999993,1,0.999965
1.0,1,0.999965
0.9999999999999905,1,0.999965
0.999999999999995,1,0.999964
0.9999999999999918,1,0.999965
0.9999999999999967,1,0.999964
0.9999999999999962,1,0.999965
0.9999999999999969,1,0.999958
0.999999999999996,1,0.999964
1.0,1,0.999960
1.0,1,0.999964
1.0,1,0.999965
1.0,1,0.999965
1.0,1,0.999964
0.999999999999998,1,0.999958
0.9999999999999982,1,0.999965
1.0,1,0.999962
1.0,1,0.999960
1.0,1,0.999965
1.0,1,0.999964
0.9999999999999993,1,0.999958
1.0,1,0.999964
1.0,1,0.999964
1.0,1,0.999965
1.0,1,0.999964
0.9999999999999989,1,0.999965
1.0,1,0.999965
0.9999999999999983,1,0.999965
0.9999999999999942,1,0.999964
1.0,1,0.999965
1.0,1,0.999965
0.9999999999999983,1,0.999965
1.0,1,0.999965
0.999999999999998,1,0.999961
1.0,1,0.999965
0.9999999999999956,1,0.999965
0.9999999999999993,1,0.999963
0.9999999999999868,1,0.999965
1.0,1,0.999965
0.9999999999999961,1,0.999965
0.9999999999999959,1,0.999963
1.0,1,0.999964
0.9999999999999993,1,0.999964
1.0,1,0.999966
0.9999999999999963,1,0.999963
0.9999999999999998,1,0.999965
1.0,1,0.999963
0.9999999999999956,1,0.999963
0.999999999999997,1,0.999966
0.9999999999999986,1,0.999965
0.9999999999999976,1,0.999964
1.0,1,0.999956
0.9999999999999836,1,0.999965
0.9999999999999996,1,0.999965
0.9999999999999957,1,0.999958
1.0,1,0.999965
1.0,1,0.999960
1.0,1,0.999965
0.9999999999999976,1,0.999963
1.0,1,0.999961
1.0,1,0.999965
0.9999999999999969,1,0.999964
1.0,1,0.999965
0.9999999999999981,1,0.999965
1.0,1,0.999964
0.9999999999999964,1,0.999965
1.0,1,0.999965
0.9999999999999989,1,0.999964
1.0,1,0.999964
1.0,1,0.999965
0.9999999999999983,1,0.999965
0.9999999999999977,1,0.999964
0.9999999999999974,1,0.999965
0.9999999999999987,1,0.999965
1.0,1,0.999965
0.9999999999999988,1,0.999965
1.0,1,0.999964
1.0,1,0.999965
1.0,1,0.999963
0.9999999999999981,1,0.999962
0.9999999999999991,1,0.999965
0.9999999999999937,1,0.999965
0.9999999999999893,1,0.999964
0.9999999999999934,1,0.999963
1.0,1,0.999961
1.0,1,0.999965
1.0,1,0.999958
1.0,1,0.999964
1.0,1,0.999965
1.0,1,0.999965
0.999999999999999,1,0.999965
0.9999999999999957,1,0.999959
1.0,1,0.999965
1.0,1,0.999965
0.9999999999999933,1,0.999959
1.0,1,0.999965
0.9999999999999971,1,0.999964
0.9999999999999938,1,0.999965
0.9999999999999992,1,0.999964
1.0,1,0.999964
0.9999999999999993,1,0.999960
1.0,1,0.999965
0.9999999999999989,1,0.999963
0.9999999999999976,1,0.999963
1.0,1,0.999958
1.0,1,0.999964
1.0,1,0.999964
0.9999999999999993,1,0.999960
0.9999999999999994,1,0.999964
1.0,1,0.999964
0.9999999999999984,1,0.999964
0.9999999999999954,1,0.999965
0.9999999999999974,1,0.999965
1.0,1,0.999965
1.0,1,0.999964
0.999999999999995,1,0.999965
1.0,1,0.999961
1.0,1,0.999959
1.0,1,0.999964
0.9999999999999988,1,0.999964
1.0,1,0.999965
1.0,1,0.999965
0.9999999999999988,1,0.999963
1.0,1,0.999965
0.9999999999999946,1,0.999964
1.0,1,0.999960
1.0,1,0.999963
1.0,1,0.999964
1.0,1,0.999965
0.9999999999999956,1,0.999965
1.0,1,0.999965
1.0,1,0.999957
0.9999999999999981,1,0.999965
0.9999999999999992,1,0.999958
0.9999999999999981,1,0.999964
1.0,1,0.999964
0.9999999999999909,1,0.999965
1.0,1,0.999964
0.9999999999999989,1,0.999964
0.9999999999999983,1,0.999963
0.9999999999999967,1,0.999964
0.9999999999999954,1,0.999965
0.9999999999999963,1,0.999966
1.0,1,0.999958
1.0,1,0.999965
1.0,1,0.999965
0.9999999999999986,1,0.999961
0.999999999999997,1,0.999965
0.9999999999999919,1,0.999965
0.999999999999999,1,0.999965
1.0,1,0.999964
1.0,1,0.999963
1.0,1,0.999965
1.0,1,0.999963
1.0,1,0.999962
1.0,1,0.999965
1.0,1,0.999964
1.0,1,0.999964
1.0,1,0.999964
1.0,1,0.999965
0.9999999999999964,1,0.999963
1.0,1,0.999964
0.9999999999999957,1,0.999964
1.0,1,0.999962
1.0,1,0.999964
1.0,1,0.999964
0.9999999999999937,1,0.999959
1.0,1,0.999960
1.0,1,0.999964
1.0,1,0.999961
1.0,1,0.999964
0.9999999999999909,1,0.999962
1.0,1,0.999965
0.999999999999995,1,0.999965
0.9999999999999947,1,0.999964
0.9999999999999956,1,0.999964
1.0,1,0.999964
0.9999999999999987,1,0.999964
1.0,1,0.999964
0.9999999999999992,1,0.999964
0.9999999999999958,1,0.999960
0.9999999999999973,1,0.999965
0.9999999999999939,1,0.999964
0.999999999999996,1,0.999959
1.0,1,0.999963
1.0,1,0.999965
0.999999999999991,1,0.999964
1.0,1,0.999965
0.9999999999999963,1,0.999963
1.0,1,0.999965
1.0,1,0.999963
0.999999999999999,1,0.999964
1.0,1,0.999961
0.999999999999994,1,0.999965
1.0,1,0.999963
1.0,1,0.999963
1.0,1,0.999962
0.9999999999999984,1,0.999960
1.0,1,0.999964
1.0,1,0.999963
0.9999999999999851,1,0.999965
0.9999999999999913,1,0.999964
0.9999999999999916,1,0.999965
1.0,1,0.999963
1.0,1,0.999964
0.9999999999999966,1,0.999965
0.999999999999996,1,0.999964
0.9999999999999986,1,0.999964
0.9999999999999986,1,0.999963
1.0,1,0.999965
1.0,1,0.999964
0.9999999999999968,1,0.999963
0.9999999999999969,1,0.999964
0.9999999999999978,1,0.999962
0.9999999999999998,1,0.999964
0.9999999999999987,1,0.999964
1.0,1,0.999964
1.0,1,0.999964
1.0,1,0.999965
1.0,1,0.999964
0.9999999999999976,1,0.999965
1.0,1,0.999963
1.0,1,0.999965
0.9999999999999958,1,0.999966
0.9999999999999997,1,0.999965
0.9999999999999974,1,0.999960
0.9999999999999973,1,0.999966
1.0,1,0.999965
0.9999999999999983,1,0.999964
1.0,1,0.999961
1.0,1,0.999963
0.9999999999999977,1,0.999965
0.9999999999999973,1,0.999962
0.999999999999998,1,0.999959
1.0,1,0.999961
1.0,1,0.999962
1.0,1,0.999966
1.0,1,0.999965
1.0,1,0.999965
0.9999999999999979,1,0.999964
0.9999999999999948,1,0.999967
0.9999999999999939,1,0.999963
1.0,1,0.999959
1.0,1,0.999961
0.9999999999999959,1,0.999964
1.0,1,0.999964
1.0,1,0.999963
0.9999999999999981,1,0.999964
0.9999999999999991,1,0.999957
0.9999999999999976,1,0.999963
0.9999999999999963,1,0.999965
0.9999999999999926,1,0.999965
1.0,1,0.999959
0.9999999999999987,1,0.999963
1.0,1,0.999958
1.0,1,0.999966
0.9999999999999946,1,0.999963
0.9999999999999974,1,0.999965
0.9999999999999958,1,0.999961
1.0,1,0.999965
0.9999999999999994,1,0.999965
0.9999999999999972,1,0.999964
1.0,1,0.999964
1.0,1,0.999965
1.0,1,0.999965
0.9999999999999944,1,0.999963
0.9999999999999898,1,0.999964
1.0,1,0.999965
0.9999999999999958,1,0.999962
1.0,1,0.999962
0.9999999999999984,1,0.999956
1.0,1,0.999964
0.9999999999999932,1,0.999959
1.0,1,0.999965
1.0,1,0.999965
0.9999999999999989,1,0.999963
1.0,1,0.999966
0.9999999999999937,1,0.999963
0.999999999999993,1,0.999963
0.9999999999999983,1,0.999961
0.999999999999993,1,0.999958
1.0,1,0.999963
1.0,1,0.999964
0.9999999999999956,1,0.999965
0.9991676590481158,1,0.999965
1.0,1,0.999964
1.0,1,0.999965
1.0,1,0.999965
0.9999999999999997,1,0.999964
0.9999999999999941,1,0.999965
0.9999999999999928,1,0.999964
0.9999999999999977,1,0.999957
1.0,1,0.999960
0.9999999999999993,1,0.999966
0.999999999999999,1,0.999965
1.0,1,0.999964
0.9999999999999927,1,0.999964
1.0,1,0.999964
1.0,1,0.999963
0.9999999999999989,1,0.999963
0.9999999999999974,1,0.999965
1.0,1,0.999964
1.0,1,0.999963
1.0,1,0.999958
1.0,1,0.999959
0.9999999999999915,1,0.999964
1.0,1,0.999965
1.0,1,0.999964
1.0,1,0.999957
1.0,1,0.999963
0.999999999999997,1,0.999965
0.9999999999999978,1,0.999965
0.9999999999999929,1,0.999965
1.0,1,0.999965
1.0,1,0.999964
1.0,1,0.999965
0.9999999999999992,1,0.999965
0.9999999999999936,1,0.999958
0.9999999999999996,1,0.999957
0.9999999999999981,1,0.999959
1.0,1,0.999965
0.9999999999999982,1,0.999965
0.9999999999999963,1,0.999964
1.0,1,0.999965
0.9999999999999988,1,0.999964
0.999999999999997,1,0.999965
0.9999999999999974,1,0.999965
0.9999999999999963,1,0.999964
1.0,1,0.999965
1.0,1,0.999964
0.9999999999999956,1,0.999963
1.0,1,0.999964
1.0,1,0.999964
0.9999999999999968,1,0.999964
0.9999999999999961,1,0.999965
0.9999999999999986,1,0.999964
1.0,1,0.999964
1.0,1,0.999964
1.0,1,0.999964
0.9999999999999969,1,0.999965
1.0,1,0.999964
0.9999999999999992,1,0.999965
0.9999999999999992,1,0.999962
1.0,1,0.999963
0.9999999999999896,1,0.999962
0.9999999999999949,1,0.999965
0.9999999999999974,1,0.999965
0.9999999999999997,1,0.999964
1.0,1,0.999965
1.0,1,0.999966
1.0,1,0.999961
0.9999999999999969,1,0.999959
1.0,1,0.999965
0.9999999999999986,1,0.999966
0.9999999999999937,1,0.999964
1.0,1,0.999965
1.0,1,0.999965
0.9999999999999939,1,0.999965
1.0,1,0.999963
0.9999999999999952,1,0.999963
0.9999999999999963,1,0.999964
1.0,1,0.999964
0.999999999999989,1,0.999965
0.9999999999999954,1,0.999966
0.9999999999999969,1,0.999964
1.0,1,0.999965
0.9999999999999962,1,0.999965
1.0,1,0.999964
1.0,1,0.999964
0.9999999999999961,1,0.999964
1.0,1,0.999965
0.9999999999999994,1,0.999965
0.9999999999999994,1,0.999966
0.9999999999999997,1,0.999965
1.0,1,0.999965
1.0,1,0.999965
1.0,1,0.999959
1.0,1,0.999965
1.0,1,0.999964
1.0,1,0.999965
1.0,1,0.999958
1.0,1,0.999965
0.999999999999998,1,0.999964
1.0,1,0.999965
1.0,1,0.999965
0.9999999999999963,1,0.999966
0.9999999999999959,1,0.999956
1.0,1,0.999965
1.0,1,0.999964
1.0,1,0.999964
0.9999999999999951,1,0.999963
1.0,1,0.999965
0.9999999999999974,1,0.999964
0.9999999999999984,1,0.999965
0.999999999999995,1,0.999965
0.9999999999999974,1,0.999964
1.0,1,0.999959
0.9999999999999967,1,0.999964
1.0,1,0.999965
0.9999999999999964,1,0.999965
0.9999999999999953,1,0.999960
1.0,1,0.999965
1.0,1,0.999964
1.0,1,0.999965
1.0,1,0.999965
1.0,1,0.999964
0.9999999999999959,1,0.999965
1.0,1,0.999959
0.9999999999999981,1,0.999965
1.0,1,0.999965
1.0,1,0.999965
0.9999999999999963,1,0.999965
0.9999999999999997,1,0.999965
1.0,1,0.999966
1.0,1,0.999964
0.9999999999999977,1,0.999961
1.0,1,0.999964
0.9999999999999959,1,0.999966
1.0,1,0.999963
1.0,1,0.999962
0.999999999999995,1,0.999966
1.0,1,0.999964
0.9999999999999979,1,0.999964
