0.009316435626877175,0,0.006604
-0.011824863774700541,0,0.353188
-0.011882473326968991,0,0.006669
-0.012003007779561873,0,0.006641
-0.012130249738986987,0,0.006625
-0.012263478445157985,0,0.006968
-0.012401608615669527,0,0.007255
-0.01254311991156679,0,0.007139
-0.0126859896960841,0,0.351911
-0.012827638353200785,0,0.372051
-0.012897038342470444,0,0.006693
-0.013030737753583556,0,0.006668
-0.013154243583813141,0,0.006661
-0.013263109077460577,0,0.006626
-0.013352631944672275,0,0.007193
-0.01341812310717168,0,0.007269
-0.013455245662346519,0,0.007186
-0.013460392030060412,0,0.781627
-0.013431049138512027,0,0.353847
-0.013366091516909415,0,0.368687
-0.013320328802723366,0,0.006709
-0.013203240258712263,0,0.006680
-0.013054472142318979,0,0.006665
0.1568346955717045,0,0.726839
0.14348402555458808,0,0.679190
0.14141060768951963,0,0.864700
0.13928204231799352,0,0.725207
0.13551655065493112,0,0.531811
0.13183911354284716,0,0.697053
0.1273018234786625,0,0.007501
0.11977161908958038,0,0.692741
-0.00537724292628946,0,0.482222
-0.006992706180179811,0,0.003094
-0.0070174086695507735,0,0.003123
-0.00703898471338836,0,0.003117
-0.007056059435149991,0,0.003114
-0.007067021757726514,0,0.003111
-0.00707003965863464,0,0.003108
-0.007063101916695106,0,0.003089
-0.007044093111050618,0,0.003085
-0.007010905911667355,0,0.003087
-0.006961589332700505,0,0.003086
-0.006894523695477568,0,0.003089
-0.0068086037915811495,0,0.003093
-0.006703403683657975,0,0.003093
-0.005686017665662309,0,0.003057
-0.0031535406021863067,0,0.375830
0.5671341586732482,0,0.397666
0.5455693961259934,0,0.481974
0.5266145115702754,0,0.399703
0.5014267177304866,0,0.003069
0.310618335625279,0,0.003078
0.38186326580164653,0,0.780121
0.41561964707104715,0,0.973488
0.4459054097877651,0,0.999607
0.3624345153986337,0,0.973604
0.20882292065229444,0,0.003167
0.5220133453188903,0,0.003278
0.6935384638661023,0,0.548564
0.5499766675438438,0,0.516092
0.5403356892308705,0,0.011323
0.5229432627192795,0,0.471411
0.5110653811977723,0,0.011077
0.5054200176066359,0,0.011524
0.5164127634855513,0,0.010988
0.14027644988742247,0,0.011307
0.1383391419605598,0,0.010977
0.17687765360764557,0,0.011307
0.1894105904484958,0,0.565686
0.2754756373645099,0,0.011509
0.1931341223286182,0,0.435746
0.19525505975126417,0,0.011674
0.20118074866261418,0,0.543100
0.2156376935096102,0,0.012135
0.22709115661093643,0,0.012138
0.20457300328079953,0,0.013229
0.23986524900851453,0,0.012734
0.2007053591785283,0,0.013970
0.20859720792613323,0,0.588208
0.2607647154457746,0,0.013944
0.229188805300477,0,0.014698
0.22156852209260272,0,0.594224
0.2756143279276423,0,0.014506
0.24847605513602883,0,0.015558
0.2809357722653905,0,0.016198
0.2660362919759596,0,0.452621
0.23907704593347462,0,0.015744
0.2722897927332113,0,0.015912
0.24457032663369277,0,0.016447
0.2503969632858448,0,0.557460
0.2828773511896676,0,0.016017
0.27984667767785876,0,0.015907
0.3220498504844116,0,0.016699
0.22037513651887639,0,0.016951
0.20451889218981978,0,0.017224
0.23014202709816747,0,0.017595
0.4392910057128227,0,0.018476
0.41864097765000513,0,0.018715
0.6695537359103805,0,0.844689
0.666589009543294,0,0.019963
0.6642390265262225,0,0.020956
0.6606889745613181,0,0.021004
0.6578817480051153,0,0.021613
0.6503184018840312,0,0.849378
0.6453117801178704,0,0.019855
0.6413771961505219,0,0.020825
0.6354920864559996,0,0.020790
0.6308853363216138,0,0.021393
0.6238680775530725,0,0.712865
0.22025247161364034,0,0.019208
0.12773223899866618,0,0.020284
0.1630493052904182,0,0.020934
0.13735760716023665,0,0.021290
0.1754734168548318,0,0.022079
0.18800185669246525,0,0.100069
0.15778303864613502,0,0.020158
0.20045843612283124,0,0.021302
0.16788770204512954,0,0.022044
0.21266179295879176,0,0.022476
0.17772380290207954,0,0.023359
0.18715053557760875,0,0.978723
0.2356142094800621,0,0.219586
0.19604370445216904,0,0.022642
0.24606564584471663,0,0.024825
0.20430352511743302,0,0.024748
0.2556869304610795,0,0.025860
0.25675122846970266,0,0.024050
0.3545425840235959,0,0.023853
0.23594513678622486,0,0.987229
0.1505315224458468,0,0.020950
0.20021054653542547,0,0.023393
0.7657249629191505,1,0.999982
0.6783626548690912,0,0.035092
0.6696851561686119,0,0.975580
0.6639070797674435,0,0.032847
0.6576757216425707,0,0.034137
0.6509714333208284,0,0.035790
0.6469801952562613,0,0.036422
0.5819441831874572,0,0.993880
0.5819441831874572,0,0.035887
0.5807525137029533,0,0.520489
0.5807525137029533,0,0.036532
0.5790327939561696,0,0.032991
0.5790327939561696,0,0.037758
0.5771446475821176,0,0.034124
0.5771446475821176,0,0.037097
0.5758328906860171,0,0.517598
0.37821739356631223,0,0.036685
0.5504699910779981,0,0.049905
0.5432536396871063,0,0.050158
0.5371623722080882,0,0.050321
0.5808816398487581,0,0.827496
0.5410281851498859,0,0.055737
0.4915799090631233,0,0.056392
0.8076474292361929,0,0.075599
0.843564997336023,0,0.344979
0.9185192012424421,1,0.999991
0.9163193199274305,0,0.157971
0.8520587062353454,0,0.878434
0.8150006698234432,0,0.780257
0.8063708452193372,0,0.167983
0.765122347597185,0,0.780293
0.765122347597185,0,0.173795
0.6455608911878,0,0.502061
0.6389670192236319,0,0.193551
0.3353977949960348,1,0.999972
0.6398167903463404,0,0.146318
0.5723270198295414,0,0.222616
0.4780831750268957,1,0.999924
0.4780831750268957,0,0.231327
0.47682730247226185,0,0.986264
0.47682730247226185,0,0.229731
0.47682730247226185,0,0.099301
0.47500951783271445,0,0.223837
0.47500951783271445,0,0.244698
0.47301900821010323,0,0.447687
0.47301900821010323,0,0.233261
0.470265803215132,0,0.232958
0.470265803215132,0,0.073376
0.4672700947509225,0,0.235157
0.4672700947509225,0,0.054424
0.42731616080703466,0,0.099404
0.5693873076972086,0,0.404126
0.4782041816810363,0,0.908328
0.9339094881651656,0,0.827303
0.8564639354477215,0,0.243864
0.8417025305491957,0,0.468363
0.8387004952618249,0,0.240594
0.8312416613570287,0,0.469738
0.8312416613570287,0,0.275572
0.8312416613570287,0,0.072441
0.8312416613570287,0,0.063381
0.8048318777415594,0,0.235474
0.8048318777415594,0,0.061307
0.8048318777415594,0,0.060574
0.7991602089280552,0,0.250637
0.7991602089280552,0,0.057721
0.7945375478714687,0,0.805189
0.7830513755677128,0,0.243611
0.7830513755677128,0,0.124426
0.7830513755677128,0,0.064960
0.7499279564097374,0,0.843845
0.7446278200314499,0,0.825135
0.6778292033624331,0,0.222657
0.6719283722523333,0,0.257367
0.6719283722523333,0,0.120839
0.6655657299825152,0,0.807033
0.6655657299825152,0,0.266219
0.6573805620383489,0,0.282821
0.6573805620383489,0,0.066142
0.6573805620383489,0,0.070204
0.6399846467114519,0,0.992044
0.6242874733672563,0,0.814876
0.6138477148072807,0,0.255484
0.39280455568617517,0,0.999683
0.4754237280311366,0,0.719010
0.4754237280311366,0,0.336807
0.4654842233581894,0,0.294113
0.45521432591576083,0,0.347466
0.45521432591576083,0,0.129009
0.45521432591576083,0,0.083722
0.4193326411937456,0,0.064164
0.4193326411937456,0,0.135744
0.26534858096864367,0,0.350826
0.26534858096864367,0,0.088596
0.26534858096864367,0,0.081045
0.26534858096864367,0,0.085731
0.26534858096864367,0,0.226257
0.2283902780757053,0,0.157584
0.2283902780757053,0,0.080104
0.2283902780757053,0,0.063313
0.2283902780757053,0,0.114516
0.3648616852251019,0,0.337514
0.3335128708759236,0,0.356299
0.3335128708759236,0,0.103032
0.3335128708759236,0,0.084365
0.3335128708759236,0,0.074685
0.3335128708759236,0,0.184268
0.3240505072239658,0,0.168039
0.25947099484012276,0,0.325458
0.25947099484012276,0,0.358589
0.25947099484012276,0,0.089071
0.25947099484012276,0,0.085244
0.25947099484012276,0,0.099704
0.25947099484012276,0,0.255442
0.25326009307095126,0,0.284763
0.24485445352311364,0,0.243931
0.25069820129635306,0,0.266597
0.25069820129635306,0,0.222512
0.23283498338658523,0,0.223834
0.23283498338658523,0,0.301090
0.25539762575812075,0,0.217420
0.25539762575812075,0,0.220049
0.25539762575812075,0,0.280248
0.25539762575812075,0,0.368804
0.25539762575812075,0,0.120080
0.21412151837471258,0,0.550187
0.21412151837471258,0,0.159393
0.21412151837471258,0,0.149846
0.21412151837471258,0,0.163265
0.21412151837471258,0,0.195416
0.21412151837471258,0,0.148412
