0.9999217107779508,1,0.999990
0.9836416617931516,1,0.999980
0.4757407014043778,0,0.970021
0.3972852909730523,0,0.999886
0.3422055856295738,1,0.999979
0.7836359982200182,0,0.958390
0.8082182853743958,1,0.999984
0.8098045107908081,1,0.999987
0.7681369034714428,1,0.999967
0.7670287904169183,1,0.999982
0.7631697530219438,1,0.999979
0.7203237588648271,1,0.999979
0.570898186964134,1,0.999979
0.3795893671365022,0,0.980459
0.3162704536186771,1,0.999887
0.32312660570266016,1,0.999978
0.31516853926507893,0,0.645281
0.31516853926507893,1,0.999934
0.30239881856326,1,0.999797
0.2899119618187924,1,0.999911
0.2777301509548284,1,0.999933
0.2777301509548284,1,0.999970
0.2658718264996367,1,0.999979
0.2543518490576128,0,0.999907
0.2543518490576128,1,0.999936
0.24318170631728311,1,0.999976
0.2323697529848563,1,0.999985
0.2219214721979748,0,0.980986
0.2219214721979748,1,0.999972
0.2118397484058869,1,0.999980
0.2021251432584691,0,0.999083
0.2021251432584691,1,0.999968
0.1927761676144145,1,0.999978
0.18378954427652197,0,0.998214
0.17516045743136288,0,0.601360
0.17516045743136288,1,0.999793
0.1668827859780479,1,0.999982
0.15894931896292608,0,0.999733
0.15894931896292608,1,0.999970
0.1513519521894261,1,0.999979
0.14408186575797438,0,0.999907
0.14408186575797438,1,0.999935
0.13712968282092183,1,0.999976
0.1304856102335992,1,0.999988
0.12413956206267816,1,0.999928
0.12413956206267816,1,0.999973
0.11808126709796919,0,0.965472
0.112300361620833,1,0.999928
0.112300361620833,1,0.999970
0.106786468729546,1,0.999979
0.10152926552159644,0,0.999907
0.10152926552159644,1,0.999967
0.09651853939962927,1,0.999781
0.09174423470904652,1,0.999985
0.08719649084185446,0,0.980549
0.08719649084185446,1,0.999946
0.08286567285716842,1,0.999925
0.07874239558093361,0,0.999901
0.07874239558093361,1,0.999970
0.07481754205808629,1,0.999979
0.07108227714302455,0,0.624911
0.07108227714302455,1,0.999935
0.06752805693059011,1,0.999977
0.0641466346509907,1,0.999988
0.06093006357891093,0,0.601339
0.06093006357891093,1,0.999818
0.057870697440057454,1,0.999984
0.05496118873732367,0,0.600315
0.05496118873732367,1,0.999972
0.05219448536383446,0,0.942468
0.04956382582090349,0,0.997110
0.04956382582090349,1,0.999970
0.04706273331513147,1,0.999979
0.044685008970161706,0,0.999907
0.044685008970161706,1,0.999967
0.04242472435437244,1,0.999977
0.040276213495921025,0,0.997838
0.0382340645303574,0,0.601622
0.0382340645303574,1,0.999794
0.03629311110318718,1,0.999984
0.03444842363010179,0,0.980830
0.03444842363010179,1,0.999972
0.0326953005003766,1,0.999904
0.031029259294268263,0,0.999816
0.031029259294268263,1,0.999970
0.02944602807257599,1,0.999979
0.027941536785573984,1,0.999933
0.027941536785573984,1,0.999936
0.02651190883938452,1,0.999978
0.025153452849790224,1,0.999991
0.025153452849790224,1,0.999966
0.02386265460691016,1,0.999976
0.022636169268394967,0,0.991539
0.021470813794041806,0,0.999659
0.021470813794041806,1,0.999817
0.020363559630693272,1,0.999984
0.019311525652948934,0,0.600258
0.019311525652948934,1,0.999972
0.018311971362396727,1,0.999981
0.017362290345785927,0,0.598716
0.017362290345785927,1,0.999971
0.016460003990666116,1,0.999980
0.0156027554554747,0,0.797347
0.0156027554554747,1,0.999970
0.014788303889823586,1,0.999979
0.014014530438810747,0,0.792964
0.014014530438810747,1,0.999936
0.7579459442288106,0,0.976589
0.7909574578026838,0,0.998471
0.9050824397349003,0,0.991881
0.9299686393002137,0,0.999262
0.9299686393002137,0,0.999276
0.7699383697682772,1,0.999959
0.7696562891837592,0,0.950609
0.7696562891837592,0,0.998018
0.7696562891837592,0,0.996797
0.7691562450808813,1,0.999974
0.7691562450808813,1,0.999943
0.768603236631659,1,0.999975
0.768603236631659,0,0.999310
0.7679917908801058,1,0.999980
0.7679917908801058,1,0.999952
0.7656499703130879,1,0.999964
0.7656499703130879,1,0.999905
0.7629133531227643,1,0.999980
0.7629133531227643,1,0.999951
0.7629133531227643,1,0.999857
0.7629133531227643,1,0.999548
0.7629133531227643,1,0.998239
