0.9545514260776444,0,0.997715
0.9719631435919089,1,0.999869
0.977314576102219,0,0.992120
0.9880379082668772,0,0.987694
0.8213955999982799,0,0.884254
0.9683446023576048,0,0.994314
0.9742994251110754,1,0.999951
0.985011412373916,1,0.999929
0.9363826243379288,1,0.999930
0.9716451840600803,1,0.999933
0.978653458976792,0,0.998546
0.9812889168859766,1,0.999592
0.9718101632278857,1,0.999786
0.9358099420447639,0,0.999282
0.8285134723494527,1,0.999768
0.8751636610747762,1,0.999936
0.9654389871159585,1,0.999739
0.9679009597567089,0,0.993443
0.8676496232480047,1,0.999940
0.9617205979500771,1,0.999936
0.9530504602680258,1,0.999543
0.968745914164484,0,0.988159
0.958250325608895,1,0.999934
0.9425245316505323,1,0.999941
0.9008457974784181,1,0.999443
0.9316958173097857,1,0.999915
0.9657293234538968,0,0.981076
0.9419815845218644,1,0.999929
0.9495233251816412,1,0.999802
0.9616091394879485,1,0.999948
0.7600361685100417,1,0.999809
0.9397604140151378,1,0.999933
0.9604216015821967,1,0.999926
0.9536831104694917,1,0.999950
0.8901473366256016,0,0.993740
0.922424648964134,1,0.999880
0.9435994822588205,0,0.998859
0.9676734754721447,1,0.999893
0.951326633884513,1,0.999927
0.9526280233187067,1,0.999378
0.8641751664336077,1,0.999875
0.9147901429297869,0,0.994522
0.8949258478296933,0,0.997003
0.941249645425705,1,0.999938
0.9306726205025516,0,0.998216
0.9329008094614073,1,0.999939
0.8965787900646655,0,0.999340
0.9513131748606282,1,0.999945
0.9017955638327242,1,0.999946
0.9499297955464941,0,0.997221
0.9385917462018646,1,0.999931
0.9352402364628072,0,0.978829
0.9683691783782806,1,0.999464
0.9815504331748739,1,0.999897
0.824486595993187,0,0.998902
0.9333089021010111,1,0.999918
0.9337994458220026,1,0.999838
0.9620158466455027,1,0.999868
0.9471721570886221,1,0.999406
0.9536557368766533,1,0.999563
0.9512448067853432,1,0.999929
0.9309257459203811,1,0.999787
0.9065394147113084,1,0.999933
0.8985788562837945,1,0.999941
0.8256517640593647,0,0.981113
0.9403844761998987,1,0.999941
0.9539739017896794,1,0.999898
0.9460199138346429,1,0.999946
0.9691453348914364,1,0.999940
0.8438454025819344,0,0.999219
0.9065298735060833,1,0.999934
0.9093358565325517,0,0.999112
0.9306524052833979,0,0.996941
0.9239084103678777,1,0.999940
0.9297514098611934,0,0.995800
0.8879447088890139,1,0.999938
0.8372460260964586,1,0.999649
0.8187681854096619,1,0.999458
0.9102712372432648,1,0.999938
0.9443232731179408,1,0.999710
0.8924605013700027,1,0.999920
0.9410301984768575,1,0.999429
0.9455458482825929,1,0.999924
0.8153197779289738,0,0.988878
0.9405576210334137,0,0.924478
0.9302216389982615,0,0.995739
0.7641871002390992,1,0.999391
0.9494315263514703,1,0.999582
0.9604287534350213,1,0.999935
0.8655374740222164,0,0.999357
0.8804278489786093,0,0.999312
0.9169770116728595,1,0.999888
0.9622004809638753,1,0.999941
0.9235757730455519,1,0.999940
0.8520305499613904,0,0.986529
0.8689647362494741,1,0.999820
0.9531263922921874,0,0.988551
0.9424984724181671,1,0.999942
0.9696185010844346,1,0.999949
0.9352934916552644,0,0.999261
0.9461165190615662,0,0.999311
0.9662905113125124,1,0.999938
0.9495763854346168,0,0.997106
0.7753407809155078,1,0.999940
0.9491168703656615,1,0.999951
0.9521190986095953,1,0.999917
0.9252387186187911,0,0.977500
0.9167865793916982,1,0.999885
0.9709604314001864,1,0.999341
0.9525228460682068,1,0.999904
0.9561411275970125,1,0.999910
0.9444648173276198,0,0.996075
0.9736283196589317,1,0.999732
0.9415983409270626,1,0.999829
0.9613752533557365,1,0.999921
0.9588066362300068,0,0.997240
0.9282922002697068,1,0.999895
0.9500827247494876,1,0.999788
0.9591289616832228,1,0.999947
0.9701322521220088,1,0.999832
0.9571319999228526,1,0.999951
0.941142028894035,1,0.999951
0.9204626391730217,1,0.999948
0.9479454025277222,1,0.999908
0.9553342688801266,0,0.998572
0.9656241836907468,0,0.970715
0.9541657993772515,0,0.997746
0.9519443462047246,1,0.999938
0.9436278635357106,0,0.996717
0.9539320828823418,0,0.992267
0.9640285403111675,1,0.999944
0.8832684245232246,1,0.999882
0.9161615445606517,1,0.999943
0.8196657786322491,0,0.998895
0.8903795038521377,1,0.999944
0.9042543906679312,0,0.992382
0.6627676299312236,0,0.997683
0.8668769186204743,1,0.999938
0.8959091126776678,1,0.999816
0.9281297179472928,0,0.943849
0.9215944841280599,1,0.999652
0.933133678744968,1,0.999944
0.9394778559418301,1,0.999942
0.8883909949434932,0,0.996774
0.9418603739812736,1,0.999433
0.8524922672262353,1,0.999944
0.772383257081748,1,0.999549
0.8965870731581778,0,0.980858
0.9381216928048332,1,0.999780
0.9064295586829376,0,0.997699
0.9304098288732954,1,0.999947
0.9789401842446653,0,0.998911
0.9554379725716894,1,0.999945
0.9182666001157385,1,0.999941
0.9401016992831976,1,0.999943
0.9012855533358789,1,0.999946
0.8952213212103541,1,0.999929
0.9451686740888391,1,0.999945
0.9437165745809843,0,0.973759
0.933489785152595,1,0.999938
0.9373455241313889,1,0.999937
0.885544728696113,1,0.999806
0.9228985064482473,1,0.999951
0.9409059087208406,0,0.998557
0.9504388231896754,0,0.995274
0.8946731372536155,0,0.998816
0.8924884467712297,1,0.999717
0.9110476172332166,0,0.997970
0.8914038142048071,1,0.999946
0.9601258271768859,1,0.999948
0.9621218377746467,0,0.999384
0.9485229773214406,1,0.999898
0.9104132507831051,0,0.978660
0.9230009722969613,1,0.999889
0.9697513079534708,1,0.999783
0.973825972499004,0,0.998391
0.9745349602891186,1,0.999781
0.968885750839987,1,0.999699
0.8682692837214713,1,0.999942
0.9260846531394459,1,0.999670
0.8788233125988334,1,0.999644
0.9263880070758979,0,0.998628
0.9598084062010949,1,0.999942
0.9355192151944592,1,0.999934
0.8704956084633484,1,0.999944
0.8180577530421238,0,0.998394
0.8847504432031794,1,0.999944
0.8824252117916525,1,0.999833
0.947963073660892,1,0.999444
0.8568104783310104,1,0.999698
0.9308921410553725,0,0.995861
0.9741722340464383,1,0.999901
0.9035337040050618,0,0.996894
0.8938539555614394,1,0.999948
0.9114851643829599,1,0.999949
0.9372713390955026,1,0.999947
0.9165218490207568,0,0.968631
0.92311341486987,1,0.999943
0.9233894220264077,0,0.960095
0.9428484185815194,1,0.999947
0.911029014128114,1,0.999950
0.8383346483492536,0,0.999287
0.9176709100554322,0,0.999204
0.9391471985310087,1,0.999945
0.8154624775601264,1,0.999945
0.9512587731959112,0,0.998527
0.9471663220580451,0,0.997967
0.9265970296827608,1,0.999946
0.9406559447442832,0,0.997822
0.948240389819728,1,0.999824
0.8109685570914851,1,0.999820
0.9477188114056192,1,0.999605
0.9311359056466031,1,0.999950
0.966238456531789,0,0.988196
0.8999805873397093,0,0.995718
0.8530642291095712,1,0.999791
0.946210112077769,1,0.999719
0.9687298434739096,1,0.999889
0.9434432522776643,0,0.997485
0.8795904835052524,1,0.999897
0.892402293655517,0,0.991259
0.9560249493972762,1,0.999944
0.8821285861148096,1,0.999939
0.8943736540532714,1,0.999947
0.9696094581713225,1,0.999948
0.9342796867107783,0,0.999066
0.9638971730580003,0,0.972525
0.9523122300527281,0,0.999229
0.945037571803521,1,0.999944
0.9320115579658824,1,0.999926
0.952825975062479,0,0.998078
0.9404572704707493,0,0.999201
0.9536651027527285,0,0.998657
0.9140956155251712,1,0.999951
0.915007333030308,1,0.999946
0.906413795396152,1,0.999888
0.9291334841696632,0,0.999303
0.8845399363604406,1,0.999944
0.9157013640654567,1,0.999946
0.8910170828449814,0,0.998836
0.9299611284926248,1,0.999721
0.9103244714485419,0,0.977427
0.9308068901837636,1,0.999886
0.8976864996062475,1,0.999781
0.9583819363498857,1,0.999788
0.8487180080730097,0,0.994641
0.9301770238446516,1,0.999640
0.9570455822055851,1,0.999947
0.9760664482344111,1,0.999785
0.9312749156154458,0,0.999100
0.9376635960868708,1,0.999940
0.8822760542369364,0,0.998712
0.9150113852965921,1,0.999718
0.9073657700066629,0,0.958703
0.9120278358797612,1,0.999901
0.9370318031421189,1,0.999943
0.8407170365736079,1,0.999880
0.949159053674612,1,0.999825
0.9058749638320311,1,0.999940
0.9047025806811592,1,0.999944
0.946750273479351,1,0.999888
0.9363269229003711,1,0.999887
0.9501198160158738,1,0.999943
0.9357875276261529,1,0.999942
0.948693369840212,1,0.999891
0.822610543205336,1,0.999713
0.8876980355961813,1,0.999890
0.9563749917251864,1,0.999901
0.9328734680791011,1,0.999946
0.8807199343004884,1,0.999949
0.9544789212935183,0,0.998420
0.9153276665930697,1,0.999727
0.9321652943181765,0,0.980251
0.905411286785062,0,0.972285
0.9176043830185746,1,0.999673
0.9834152039781275,1,0.999945
0.9599803690510321,1,0.999946
0.9465747186977788,1,0.999827
0.9455045089895032,1,0.999944
0.9532140376603045,0,0.990924
0.9291846702800516,0,0.998219
0.9497568570739069,1,0.999431
0.9142156626161875,1,0.999951
0.9514910536476333,1,0.999951
0.9659003935174191,0,0.999112
0.9613915439204987,0,0.977018
0.9230630183368147,0,0.998695
0.9102320587456818,1,0.999893
0.9464887973611432,1,0.999943
0.900708242960003,1,0.999941
0.8928822849353041,1,0.999696
0.8636633563707454,1,0.999884
0.9658931839260595,0,0.967219
0.9805257710912715,0,0.998573
0.9678491115725456,1,0.999504
0.9516488841231409,0,0.967346
0.9393096764780607,0,0.999428
0.9267341782194509,0,0.995656
0.9034821264281396,1,0.999888
0.9127632947216652,1,0.999881
0.9373117853250457,1,0.999943
0.9323197146703719,1,0.999945
0.9549816637827858,1,0.999691
0.9256230318395062,0,0.999306
0.8943444191475592,0,0.999007
0.924270338586069,1,0.999506
0.9619074565007717,1,0.999944
0.8947132124750848,1,0.999606
0.9556824448481652,1,0.999946
0.9598196508906198,1,0.999780
0.9675073238118452,1,0.999946
0.980374467718715,1,0.999890
0.9826613917382573,1,0.999947
0.9735170544083457,0,0.999285
0.977953166990333,1,0.999595
0.7909677806826307,1,0.999951
0.8918772196347622,0,0.999161
0.8822577771785887,1,0.999942
0.9436604678128552,1,0.999945
0.9651328187626066,1,0.999887
0.8917649924417513,0,0.999373
0.9303529779899756,0,0.999410
0.8506048925014102,1,0.999717
0.914545677259123,1,0.999943
0.9383052934788996,1,0.999951
0.9382925403393176,0,0.999166
0.9379578847452783,0,0.999228
0.9662467779628958,1,0.999890
0.9367896891653398,0,0.999021
0.9294785256408538,1,0.999942
0.8295071802794008,1,0.999891
0.8689533087761343,1,0.999944
0.9520455211036808,1,0.999944
0.9316169165087368,0,0.999052
0.9183970820462543,1,0.999946
0.8703670632666614,0,0.994682
0.9320919772078564,0,0.999227
0.9362426036187674,1,0.999881
0.8924140550983387,1,0.999832
0.9482486788854785,1,0.999942
0.9216367578031964,0,0.976214
0.9003673622566243,1,0.999819
0.9343244193714565,1,0.999882
0.9569847344654313,1,0.999942
0.9029830342091817,0,0.997533
0.9511964128366808,1,0.999941
0.9445683705077927,1,0.999843
0.9784590946607941,0,0.998763
0.9508109903894237,1,0.999561
0.9727251591405401,1,0.999945
0.9708601772953372,1,0.999944
0.9536317393553424,1,0.999945
0.9706817932603875,1,0.999949
0.9842776467788383,1,0.999946
0.9525617848691397,1,0.999951
0.9338646436086148,1,0.999943
0.9754978619352225,1,0.999942
0.9301810251004468,1,0.999950
0.9245750197887602,1,0.999886
0.9671435076244054,1,0.999945
0.9635554905802868,1,0.999943
0.9183266599205815,1,0.999943
0.9130456116964771,0,0.999352
0.9606552659101955,0,0.999416
0.9297390643358352,0,0.998279
0.9253332871494283,1,0.999596
0.9451880715819998,1,0.999663
0.9295199021331136,1,0.999941
0.9547513986196843,1,0.999945
0.9019555396774521,0,0.998465
0.8831881056162284,1,0.999943
0.8949616043293727,1,0.999943
0.8837474894333082,1,0.999945
0.8630229057726981,1,0.999946
0.9413636606139376,1,0.999950
0.9251856407986364,1,0.999941
0.9405848640373692,1,0.999826
0.9524649338907493,0,0.992707
0.9177728355079621,0,0.999403
0.8943979030060322,1,0.999944
0.9106338840950686,0,0.987010
0.8835090587976964,1,0.999943
0.9075683949084238,1,0.999951
0.927699252635173,1,0.999943
0.8781385237869467,1,0.999945
0.9420042764718403,0,0.998681
0.9447898846626264,1,0.999840
0.9460721491611218,1,0.999538
0.941861453691417,1,0.999946
0.9274317524204455,0,0.999304
0.9027057676101274,0,0.978058
0.933061995473695,1,0.999498
0.9543701265298771,1,0.999945
0.9292062208615504,1,0.999945
0.9404668891816279,1,0.999946
0.89035948005997,0,0.998673
0.8821925344969443,1,0.999945
0.899163699538556,1,0.999894
0.8905988945550298,1,0.999834
0.9378611419836468,0,0.977358
0.9327095765757621,1,0.999843
0.9077648935597777,1,0.999951
0.9514736679856267,1,0.999948
0.9509975642968007,1,0.999496
0.9781673084395923,1,0.999895
0.9603576889603425,1,0.999893
0.9536605244468572,1,0.999945
0.950985471111017,1,0.999947
0.8911444570583488,1,0.999892
0.9027385171764294,1,0.999888
0.8895818884914686,1,0.999652
0.9124461426661847,0,0.995161
0.9436316175210399,0,0.999269
0.890620213731434,1,0.999945
0.8755428323518346,1,0.999942
0.9352014189660377,0,0.998716
0.9601248555585002,1,0.999946
0.9226702467511668,1,0.999945
0.9473750641007916,1,0.999945
0.9564872263954145,1,0.999845
0.9465696850251057,1,0.999894
0.9752107089906594,1,0.999946
0.9462531393882305,1,0.999946
0.9219452053129928,0,0.998844
0.8740961141727973,1,0.999946
0.9313584725452256,1,0.999940
0.9153176161790968,1,0.999945
0.9252237343596507,1,0.999902
0.9545925148978711,1,0.999657
0.8743514086826805,1,0.999670
0.928161975289217,1,0.999902
0.9570679925608134,0,0.998101
0.9352263445298123,1,0.999884
0.7781985959755898,0,0.986796
0.9627888997598073,1,0.999895
0.9488228297732896,1,0.999946
0.9569454651852318,1,0.999573
0.9043366806903007,1,0.999849
0.8539721652990994,1,0.999944
0.9109124354874327,1,0.999610
0.8731881327178457,1,0.999446
0.9097786678792975,1,0.999831
0.9038943980085902,0,0.960987
0.9346476736795559,1,0.999789
0.9329652197440287,1,0.999949
0.9537425374693869,1,0.999473
0.9057565595176023,0,0.998151
0.9324108399024993,1,0.999508
0.9299219068173753,0,0.999420
0.934429867804511,1,0.999724
0.9570516806270716,1,0.999950
0.9312035277063424,0,0.998709
0.9513770236952693,0,0.994999
0.8904923019369783,1,0.999946
0.9233036024327288,1,0.999801
0.9336143307209522,1,0.999755
0.9011137866776959,1,0.999542
0.9057429235881383,1,0.999786
0.891452488795329,0,0.997921
0.8676572524114762,1,0.999581
0.9494058512205423,1,0.999940
0.9191085017232549,1,0.999947
0.9244805016309557,1,0.999673
0.9224575661500651,0,0.993131
0.9281110471085701,1,0.999507
0.7946148302447175,1,0.999945
0.9300009287761061,1,0.999943
0.922264913116862,1,0.999890
0.9120036638818895,1,0.999942
0.9271996153226865,1,0.999772
0.9258749622437521,1,0.999495
0.9326290095800185,1,0.999945
0.9383205844026253,1,0.999943
0.9391968848411495,1,0.999888
0.9122692822625525,1,0.999433
0.9296050741721673,1,0.999943
0.8660094437481226,0,0.999401
0.8801924702572457,1,0.999944
0.9130659271506125,0,0.998977
0.9413175373521214,1,0.999540
0.9229691921702867,0,0.999291
0.9405469567225322,1,0.999827
0.9502565193160255,0,0.998632
0.9652293439065947,0,0.999340
0.947519520260283,1,0.999829
0.9286015587327718,0,0.998524
0.909912313385421,1,0.999946
0.9082120854767962,1,0.999948
0.9233307700679587,0,0.999352
0.914867676799207,0,0.979223
0.946019592643027,1,0.999946
0.9298210634563027,1,0.999844
0.958086094991149,0,0.944541
0.9047080352012479,0,0.999005
0.9329469880232709,1,0.999893
0.9292991917018653,1,0.999945
0.9334890812527503,1,0.999946
0.9369086407744323,1,0.999944
0.9367265847043157,1,0.999948
0.8489659828958659,1,0.999947
0.9295950461688481,1,0.999840
0.8952489316695558,0,0.944953
0.898553541748769,1,0.999898
0.9494802949890635,1,0.999945
0.9000944460799428,1,0.999837
0.968608560703816,1,0.999653
0.9492025567782588,1,0.999716
0.9665925062912314,0,0.998872
0.9509668569466232,0,0.998931
0.9079098759724336,1,0.999944
0.9480120254420004,1,0.999942
0.9414403398273676,1,0.999486
0.9177679695065272,0,0.997178
0.9328172905239575,1,0.999947
0.8777558663409211,0,0.999407
0.9439121345162144,0,0.999304
0.9320257132744885,1,0.999838
0.9652773578389595,1,0.999948
0.8927148119672893,1,0.999946
0.9192671658667074,0,0.999334
0.8999222727780553,0,0.997105
0.9163479626775626,1,0.999593
0.9616839041585659,1,0.999826
0.9672406721074155,1,0.999951
0.9751427026269885,0,0.998866
0.9900146838567538,1,0.999943
0.9805554975634837,0,0.999007
0.9821542185630121,1,0.999944
0.9774910110967707,0,0.999382
0.9138903161438018,1,0.999881
0.9137680162050679,1,0.999636
0.9130667162962907,0,0.998138
0.8912645057827502,1,0.999888
0.9529513692046945,1,0.999944
0.964537886509847,1,0.999948
0.9488752122197778,1,0.999890
0.9567899252862757,0,0.997823
0.9317109677997271,1,0.999945
0.925080952534627,0,0.998094
0.9624096211287897,1,0.999662
0.9470844968003721,1,0.999946
0.9367548053146232,1,0.999945
0.925009376001169,1,0.999942
0.9461443695068935,0,0.978727
0.9558861711161235,0,0.998891
0.9125157681931525,1,0.999947
0.9495770892933842,1,0.999947
0.8947503022560569,1,0.999889
0.9569426499274657,1,0.999944
0.9268035234642719,1,0.999837
0.9186718066378463,0,0.999158
0.9438999729667473,1,0.999944
0.9645575511843464,1,0.999946
0.9305219271752907,0,0.998969
0.9451110746486547,1,0.999942
0.9273308103887394,1,0.999944
0.9096619440610199,0,0.998708
0.8620441926274853,1,0.999946
0.9034579437757917,1,0.999890
0.931046667766295,1,0.999944
0.9317954856671405,0,0.999005
0.9108430397359517,1,0.999942
0.917156164422893,0,0.998451
0.9001723538283549,1,0.999844
0.8813591914656567,1,0.999942
0.926547594065668,0,0.999116
0.8873917337650808,1,0.999944
0.891220862182108,1,0.999437
0.9341027684994809,1,0.999946
0.8752904393827519,0,0.997490
0.9101065305572761,0,0.994952
0.96821030676698,1,0.999841
0.8769407620410236,0,0.999402
0.9113587541248532,1,0.999773
0.931257308901514,1,0.999946
0.9231818833698224,1,0.999945
0.9454866641857079,1,0.999944
0.8631879145954182,1,0.999945
0.9278429387238908,0,0.966437
0.9683538112916218,0,0.998671
0.9648197119403975,1,0.999942
0.9038682422829596,1,0.999487
0.9199309826758455,0,0.968407
0.8936729575303254,1,0.999779
0.8857301205086198,1,0.999943
0.9598444961204529,1,0.999951
0.9398213870563148,0,0.998307
0.9404158072096699,1,0.999834
0.9256954640296626,0,0.997949
0.9232877390404102,1,0.999775
0.9529888489326193,1,0.999944
0.9355815778853582,1,0.999951
0.9203454605811174,1,0.999946
0.956041549543405,1,0.999502
0.8614083389671816,0,0.998474
0.9147368617536064,1,0.999889
0.9117417955004226,1,0.999941
0.91920778787501,0,0.999134
0.9251960041214574,1,0.999946
0.8639034342617475,1,0.999946
0.8791451919051423,0,0.997424
0.9120849531726745,1,0.999944
0.9311030834765472,0,0.999222
0.8438559171228179,1,0.999947
0.9114023991459692,1,0.999947
0.8720272839521305,1,0.999628
0.9025772986627747,0,0.998869
0.9271532088217522,1,0.999944
0.9594524506382087,0,0.999252
0.9258807578801145,1,0.999951
0.9856099355502069,1,0.999609
0.9589847925108502,1,0.999945
0.9381592605843087,1,0.999951
0.9270299828286133,0,0.995380
0.9284130765417112,1,0.999892
0.9377599008211828,1,0.999560
0.9050763511475252,1,0.999943
0.9106841769257302,0,0.995534
0.8770211919669907,1,0.999839
0.9217505061383302,0,0.990238
0.8987807889443086,1,0.999945
0.9169613159781494,1,0.999944
0.8802870626240082,1,0.999942
0.9045786398128963,0,0.998806
0.9144313380053386,1,0.999441
0.9489034729872589,1,0.999890
0.9213910033438233,1,0.999945
0.9093681196112803,0,0.998578
0.8878899775262303,0,0.989796
0.8346967102534177,1,0.999776
0.8552980243896761,0,0.999412
0.9292452389954926,1,0.999946
0.8456531531726901,1,0.999779
0.9106585529408023,1,0.999890
0.9392994190973888,1,0.999665
0.8654628154274823,0,0.981447
0.8728544606907315,1,0.999946
0.8616275079457949,0,0.996265
0.8775602887634235,0,0.996874
0.8694589038808446,1,0.999945
0.8786192211788066,0,0.998547
0.9473711989911701,1,0.999617
0.9183172260868262,1,0.999681
0.9289472334275207,1,0.999946
0.9315794245377591,0,0.998572
0.9241078274683939,1,0.999947
0.810039758060306,1,0.999889
0.8338338630218033,1,0.999945
0.8071669918408666,1,0.999565
0.8379324629679606,1,0.999722
0.8855153707732742,1,0.999947
0.946455818211387,1,0.999898
0.9542313001078717,0,0.998550
0.9028240824766728,0,0.999369
0.8992936515291098,1,0.999836
0.8959648822715763,1,0.999784
0.9396560095470908,1,0.999947
0.8831707409292341,0,0.968434
0.8762476845692876,1,0.999945
0.8375505483181542,1,0.999795
0.9301242750452837,0,0.973656
0.8617265649675286,0,0.996837
0.9261106902686418,1,0.999946
0.9017468614290091,1,0.999888
0.905348528422221,1,0.999945
0.8865762755206574,1,0.999944
0.8945635032132527,0,0.998620
0.929848416152037,1,0.999945
0.9254506483269833,1,0.999783
0.901984212422462,1,0.999948
0.8544276260071171,1,0.999894
0.9432146603811077,1,0.999842
0.9138237073565498,1,0.999946
0.9425313696190625,1,0.999944
0.9586717639616784,0,0.999357
0.9332581432834413,1,0.999948
0.8820950952600248,1,0.999774
0.9003294558222652,1,0.999944
0.8896066025577541,0,0.999351
0.8743226068486682,1,0.999517
0.8886586572496843,1,0.999890
0.8694576731535706,1,0.999677
0.8877207215585765,1,0.999944
0.9280192011616631,1,0.999769
0.8522041970390506,1,0.999889
0.9281399952998405,0,0.996902
0.9071294158638852,1,0.999946
0.9257681145589363,1,0.999884
0.9425567896504026,1,0.999943
0.8526390261909933,1,0.999944
0.896073803641978,1,0.999785
0.9200821406830605,0,0.999127
0.935975362731753,1,0.999946
0.9585783595726691,0,0.997316
0.9031957670025806,1,0.999942
0.935546337350329,1,0.999835
0.9581635181909105,0,0.991998
0.9021015819436525,0,0.999198
0.9454694725015086,0,0.997625
0.8810452307700877,1,0.999890
0.8913131131674942,1,0.999829
0.9006725543555516,1,0.999943
0.7845064741933743,0,0.990435
0.8225454793925936,0,0.999315
0.9251073739109213,1,0.999947
0.9419927737458277,1,0.999948
0.9199977447085222,1,0.999582
0.8646568534381267,1,0.999946
0.9043494287828282,1,0.999789
0.9489963783029526,1,0.999944
0.9122435281728298,0,0.999269
0.9329947268128747,1,0.999947
0.9527875348818734,1,0.999894
0.8945432405033656,1,0.999890
0.9157699845660454,1,0.999882
0.9254304424053404,1,0.999888
0.9410595194253399,0,0.998701
0.9090384808310223,1,0.999775
0.912352582557816,0,0.999340
0.9261010465807031,1,0.999944
0.9103666034347505,1,0.999947
0.9512281862278528,1,0.999941
0.9239733827073511,1,0.999733
0.9301768545069202,0,0.999444
0.9512597631749966,1,0.999947
0.8898519678287207,0,0.997705
0.9417655670141106,1,0.999945
0.9657734393091683,1,0.999946
0.9256360381945092,1,0.999944
0.919748513784718,1,0.999899
0.9504471214751223,1,0.999951
0.9482835393684611,1,0.999947
0.9070088919063559,1,0.999841
0.9614938392819946,1,0.999946
0.9397504180216097,1,0.999944
0.956027940260415,1,0.999844
0.9715846138630855,1,0.999899
0.9045305738933489,0,0.998285
0.9580925793911745,1,0.999947
0.9566230509991348,1,0.999528
0.9269968264424888,1,0.999947
0.9326162667192652,1,0.999899
0.9520106923885722,1,0.999775
0.9181718752352693,1,0.999943
0.9041217086940607,1,0.999887
0.9434882877055705,1,0.999943
0.8990739501556899,1,0.999671
0.9147254658671105,1,0.999656
0.9270110127672265,1,0.999944
0.913147982323876,0,0.992859
0.941998703965747,1,0.999899
0.8066525425159942,0,0.958132
0.909852039045223,0,0.997952
0.8563282233180659,0,0.999124
0.8869950907104559,0,0.990927
0.9295317848797807,1,0.999436
0.9274777447006421,1,0.999849
0.8737040192950577,1,0.999947
0.9634693604889836,1,0.999949
0.8680448716912748,0,0.994914
0.9319908729207342,0,0.994161
0.9171308393602693,1,0.999886
0.9441972025460279,0,0.997978
0.9224050878931728,1,0.999945
0.9168918377490267,1,0.999941
0.9088016476350478,1,0.999483
0.9222999239921432,1,0.999884
0.9601305260483318,1,0.999586
0.9035756953167314,0,0.998561
0.9530787867224174,1,0.999830
0.9370327754537818,1,0.999829
0.9580846921131503,1,0.999943
0.9400275632790008,1,0.999945
0.9369409346131876,1,0.999943
0.8828089621771905,0,0.998737
0.9056936234705519,1,0.999942
0.8675826593932293,1,0.999944
0.9343756014030568,1,0.999879
0.9020797197711574,1,0.999824
0.9407075872643734,0,0.997410
0.9277060372936761,1,0.999941
0.939562733248985,1,0.999941
0.9506885515120299,0,0.989678
0.9311463133976279,1,0.999941
0.917412439461824,0,0.992666
0.9128817449424097,1,0.999950
0.8985339916723324,0,0.992754
0.9389259364091299,1,0.999945
0.9481513050546458,1,0.999893
0.957151327051167,1,0.999701
0.9004047268133075,0,0.998500
0.7937054873252587,0,0.998485
0.7730974053546387,1,0.999607
0.9032011087521729,1,0.999888
0.8912088536829212,1,0.999780
0.8940174142420537,1,0.999828
0.903820927439437,1,0.999835
0.9389733870224668,1,0.999829
0.9238231870703737,1,0.999942
0.8967245417646353,1,0.999832
0.8924506877242715,0,0.998888
0.874960257063545,0,0.996086
0.959197941819181,1,0.999942
0.9300089473010567,1,0.999890
0.8962246231493087,1,0.999945
0.840686266555103,0,0.999264
0.9323861539772145,1,0.999889
0.9487737392253937,1,0.999882
0.9207679417196514,1,0.999946
0.918259948593387,1,0.999887
0.8681731487368605,1,0.999895
0.9113501437010251,0,0.997831
0.942279914424415,1,0.999940
0.929935637268404,1,0.999947
0.9490517820068158,1,0.999614
0.8959381982390455,1,0.999835
0.844397252500326,1,0.999726
0.9325078480992629,1,0.999943
0.9492795084535075,0,0.999051
0.9653732534632374,0,0.999213
0.9036649101778457,1,0.999944
0.7097040354601084,0,0.998916
0.9078554653542472,1,0.999943
0.9309315253585605,0,0.993204
0.9263384236341099,0,0.999180
0.8899349168433628,1,0.999888
0.8984544890819465,0,0.998032
0.9404566229889992,1,0.999508
0.9342438074640347,1,0.999884
0.9186588203897313,1,0.999458
0.8977911989170999,1,0.999945
0.9245124824233464,0,0.996352
0.9293293725458529,1,0.999890
0.8617570272603724,1,0.999830
0.8449124601030233,1,0.999945
0.8782381757445515,1,0.999887
0.9156691661344962,1,0.999882
0.9179233282841252,1,0.999892
0.89746051834288,1,0.999948
0.9102117594071014,1,0.999947
0.9093844189009409,1,0.999891
0.8863438038533514,0,0.997153
0.9050866000333069,1,0.999894
0.8439442129167365,0,0.998553
0.9088619348703969,0,0.998111
0.9316784696811995,1,0.999728
0.8878640148775341,1,0.999836
0.9394195061613746,1,0.999541
0.8659762928910694,0,0.998946
0.7552183301838895,1,0.999724
0.9410300067406926,1,0.999469
0.921458560500273,1,0.999828
0.9056776767351439,1,0.999887
0.9255573886148671,1,0.999948
0.9233565942568241,1,0.999945
0.8633656428972789,1,0.999945
0.926134957799548,1,0.999945
0.9413564508332017,1,0.999944
0.9046259443906197,0,0.999377
0.9656841430336682,1,0.999582
0.927531930510986,1,0.999944
0.93403056935888,0,0.998605
0.9390483639426668,0,0.998826
0.917835069324646,1,0.999945
0.9303447615860274,1,0.999945
0.9240755497155821,1,0.999945
0.9200644664099573,0,0.994613
0.9404726947626915,1,0.999945
0.8977112551271619,1,0.999945
0.9309979904015854,0,0.997760
0.9577340896844468,0,0.998819
0.934789400754478,1,0.999781
0.9206659298941616,1,0.999950
0.9482606673322002,0,0.998711
0.9604917556209223,1,0.999523
0.9556706974127022,0,0.998994
0.9585083903696369,1,0.999429
0.960255123217073,1,0.999898
0.9560565895147692,1,0.999516
0.897692241899734,1,0.999947
0.923239127197347,1,0.999900
0.9232093590731241,0,0.983337
0.8832097184978241,1,0.999618
0.8955770319913092,1,0.999556
0.8931625533866102,1,0.999887
0.9223269042763325,0,0.998242
0.9495327450489327,1,0.999852
0.9397517826249956,0,0.999249
0.9018698481654198,1,0.999942
0.9260526371670745,0,0.998525
0.923035731908719,1,0.999946
0.8800405434023154,1,0.999948
0.9496303212210498,1,0.999943
0.9333241003338246,0,0.997317
0.9007549833457029,0,0.998365
0.9006669443655957,1,0.999942
0.9209584186087895,1,0.999885
0.9343099745019557,1,0.999943
0.9301692628114936,1,0.999943
0.9285523928803678,1,0.999944
0.9142688915461673,0,0.979752
0.914599776075664,1,0.999638
0.9164593440452325,1,0.999890
0.9138686435405924,1,0.999834
0.929258495892196,1,0.999950
0.9541399270494656,1,0.999946
0.9746746654373821,1,0.999797
0.9582486125740046,1,0.999753
0.9514029733492095,1,0.999944
0.873090048079684,1,0.999941
0.9339001268376744,1,0.999951
0.9335930376676705,0,0.998648
0.9230609260326772,1,0.999945
0.9375711073086836,1,0.999556
0.9399036521623738,1,0.999946
0.9452676271744247,1,0.999949
0.9534875539918845,0,0.998328
0.9603463100511517,1,0.999948
0.976378411466481,1,0.999949
0.9459105471733464,1,0.999890
0.9573061924973486,1,0.999951
0.9499901788436899,1,0.999738
0.9177237871464643,1,0.999663
0.8293126831275909,1,0.999734
0.8639727934723204,0,0.996552
0.9126542167113693,1,0.999946
0.9372295013296407,1,0.999944
0.9028436612273608,1,0.999840
0.8849177840016214,1,0.999427
0.8797586750176216,1,0.999889
0.9207324139257455,1,0.999945
0.9187278195614863,1,0.999945
0.8902618687927198,0,0.999239
0.9088016904470616,0,0.999387
0.8988402159421313,1,0.999893
0.9336357363511627,0,0.997514
0.9174759954058698,1,0.999945
0.9097752454589588,0,0.999104
0.9425516555640872,0,0.997478
0.9234995255855885,1,0.999834
0.8071175577245812,1,0.999886
0.9003752318395313,1,0.999947
0.9500755072958958,1,0.999894
0.861940949276832,1,0.999945
0.9474778724218447,1,0.999948
0.922485216637108,1,0.999946
0.9430383751606753,1,0.999947
0.9459739827554723,1,0.999831
0.9516155695191962,1,0.999891
0.9222878145159437,1,0.999947
0.9516693892626906,1,0.999948
0.9284781399777337,1,0.999948
0.9277737143971996,1,0.999942
0.9420617357582984,1,0.999752
0.9030066478396499,0,0.998116
0.8699793147682324,1,0.999512
0.8654830962965339,1,0.999944
0.8821826916787674,1,0.999946
0.8922541989141224,1,0.999945
0.8961080738538886,1,0.999787
0.8918272735493006,0,0.997623
0.8944953500445076,1,0.999837
0.9148177155919431,1,0.999948
0.915998524376358,1,0.999895
0.7968888450201418,1,0.999890
0.9111532912565751,1,0.999902
0.9020365948017377,0,0.963423
0.9361748629141627,0,0.999085
0.9419625952166853,1,0.999944
0.9152000581742147,1,0.999945
0.9381210403763032,1,0.999946
0.9227883389308978,1,0.999897
0.9073214490018809,0,0.995843
0.8896472750916866,1,0.999832
0.8901039565457424,1,0.999718
0.8688032710585921,0,0.997666
0.9003020204281157,1,0.999947
0.9084178517615185,1,0.999790
0.9078456638331039,1,0.999890
0.9326786594242502,1,0.999947
0.9527459149230123,1,0.999945
0.9656747576972168,1,0.999949
0.9424190335209549,1,0.999946
0.9395428818183282,1,0.999732
0.9599984970587482,1,0.999795
0.9394278395385083,1,0.999944
0.9362658578087526,1,0.999943
0.9078722615892008,1,0.999515
0.9318629103459419,0,0.996135
0.9273165350049116,0,0.995618
0.9271288220057119,0,0.994612
0.9706767137406513,1,0.999539
0.948268067275678,1,0.999947
0.9231488314749527,1,0.999948
0.9232081957966802,0,0.997511
0.9587420806167543,1,0.999947
0.9603635450181481,1,0.999727
0.958902309590717,1,0.999946
0.9375755728468238,1,0.999945
0.9505100777537233,1,0.999744
0.9457557904697801,1,0.999893
0.9065228166878367,0,0.999297
0.969207958431388,1,0.999794
0.9728465100696839,1,0.999892
0.9496902804367601,0,0.998785
0.9440142865670376,1,0.999951
0.9455968416167183,0,0.994365
0.9192981122705846,0,0.991374
0.9509469143590462,1,0.999945
0.9361672358729323,0,0.998185
0.9541812701030467,0,0.999260
0.9364111450302746,1,0.999570
0.9710615408046575,1,0.999673
0.9615057042131628,1,0.999829
0.9459978862228511,0,0.999282
0.9661363717401215,1,0.999946
0.9524145525150434,0,0.998976
0.9692849485947179,1,0.999946
0.9149488863723256,0,0.998728
0.9451988350242079,1,0.999777
0.927728731356029,1,0.999943
0.9428590918055417,1,0.999945
0.8428255167556655,0,0.997784
0.913177577063286,1,0.999718
0.9082208699073036,0,0.998061
0.9314352379811804,1,0.999944
0.9309748362329519,1,0.999944
0.9189429317315743,1,0.999838
0.9360113571816957,1,0.999948
0.9099937843787214,0,0.977331
0.9108924158780114,1,0.999735
0.9196137119854951,0,0.986212
0.9787520050223177,1,0.999893
0.8674723926993012,0,0.987138
0.9121543693919153,0,0.997221
0.907491307810996,0,0.998928
0.8970058550823332,1,0.999714
0.9042423799014415,1,0.999892
0.9115689057759065,1,0.999945
0.9377323644213834,1,0.999947
0.9333739677086367,0,0.989517
0.916242720291743,0,0.997648
0.9140327083433822,1,0.999944
0.9271572719834462,1,0.999947
0.908562915871677,1,0.999948
0.9269665941152864,1,0.999945
0.9323236843180067,0,0.999035
0.9123143438480674,0,0.997402
0.9484817910475544,1,0.999946
0.8975213655861143,1,0.999554
0.9289372094408676,1,0.999943
0.9707016107899692,1,0.999839
0.9539003409129125,0,0.972039
0.8890761617109006,1,0.999581
0.9555844281095842,0,0.991880
0.9369836454833667,1,0.999947
0.9356917635426931,1,0.999944
0.8554930759504472,1,0.999946
0.9491160567793738,0,0.999179
0.9562520257169238,1,0.999945
0.941176201572754,0,0.999015
0.951392448552137,1,0.999892
0.8999025054858819,1,0.999947
0.9033341435712386,0,0.998309
0.924811268667102,1,0.999944
0.9428569491986362,1,0.999882
0.8972892615375366,0,0.993614
0.8997371358403786,1,0.999942
0.9343869182538316,1,0.999562
0.8835955495712756,0,0.998735
0.8914860837952295,0,0.998443
0.9324996145033446,1,0.999834
0.8942280073768233,1,0.999946
0.9407356707263143,1,0.999940
0.8662531229752666,1,0.999941
0.9445827241354668,1,0.999945
0.9233464380980817,1,0.999461
0.915557199590831,0,0.998261
0.9512971297986191,1,0.999825
0.9401539148890147,1,0.999942
0.8542848255084238,1,0.999883
0.9310358015168191,1,0.999944
0.9474522048326401,1,0.999892
0.9015926880441554,1,0.999670
0.8927963568234092,1,0.999501
0.945566784251111,1,0.999944
0.8771266074910772,0,0.998196
0.9065213826823759,1,0.999941
0.8574747179401423,0,0.994304
0.930134189624138,1,0.999951
0.8606306550495781,1,0.999895
0.9081855793515321,1,0.999943
0.9124229712746669,1,0.999944
0.9230207823657627,0,0.996836
0.900874160043981,1,0.999944
0.9160617259717458,1,0.999897
0.9027575017983102,1,0.999897
0.9117689857733374,0,0.996166
0.9368664325918253,1,0.999580
0.914205747870209,1,0.999946
0.9481890488592185,0,0.969478
0.8941729102907481,1,0.999686
0.9098353202961319,0,0.970254
0.8735776583906443,0,0.985621
0.9292223291897151,1,0.999944
0.9480833875327481,0,0.997275
0.9098723516155811,1,0.999944
0.9212690001980322,0,0.997880
0.927193098582148,1,0.999947
0.8816487488301936,1,0.999944
0.8594433904805396,1,0.999942
0.9104853615336637,1,0.999721
0.8180946428247883,1,0.999833
0.8371107187881459,1,0.999946
0.8329480936604191,1,0.999613
0.9288020586180653,1,0.999890
0.9245292931191079,1,0.999890
0.9059454746100961,1,0.999945
0.9032318136316626,1,0.999613
0.8491813440657117,0,0.999184
0.8622671257295444,1,0.999944
0.8809833117681366,1,0.999944
0.9591426682133685,1,0.999884
0.9341740434430177,1,0.999538
0.9108779780206917,1,0.999944
0.9567497422079198,1,0.999943
0.9255270691085986,1,0.999944
0.9126983743095555,1,0.999943
0.9475498586058089,0,0.995452
0.9624192631991871,1,0.999943
0.9473306574425131,1,0.999553
0.8424311088514796,1,0.999891
0.8999066048417629,1,0.999674
0.9599271020372699,1,0.999833
0.9133578315082787,1,0.999944
0.9061793367973515,0,0.997928
0.9192276625147706,1,0.999882
0.8682819538961242,1,0.999942
0.9472876580664558,1,0.999945
0.9141776961554837,1,0.999888
0.9336433341619131,1,0.999687
0.878574367759231,1,0.999556
0.8929688720865266,1,0.999537
0.904358114034885,0,0.990012
0.9259294851071075,1,0.999946
0.898007622997426,0,0.999410
0.8318974303265895,1,0.999946
0.8837018936052176,1,0.999678
0.9300748261144416,1,0.999944
0.9287569285041253,1,0.999943
0.9460372084173643,0,0.999393
0.8975785379154231,0,0.994581
0.9554543639308518,0,0.999310
0.9027639227753358,1,0.999634
0.9278509888942902,0,0.998750
0.9454068882577127,1,0.999483
0.9408111823845111,1,0.999943
0.9282489289328275,1,0.999946
0.9315485181463083,1,0.999946
0.9380919095745811,1,0.999838
0.9446878553638708,1,0.999946
0.9613422825872524,1,0.999946
0.9309521511262085,0,0.998883
0.9442320039174636,0,0.984584
0.9366346868014485,1,0.999947
0.9033384514513909,1,0.999944
0.9331213390453457,0,0.970759
0.9190208718071091,1,0.999476
0.916253658312451,1,0.999432
0.9182973148732625,0,0.997662
0.9439263685924848,1,0.999946
0.9268123774557898,1,0.999947
0.8773451193361802,1,0.999947
0.9049419533500319,1,0.999823
0.9211287381076737,0,0.976689
0.9364339117592045,1,0.999946
0.9516033402414656,1,0.999850
0.9158504029308817,1,0.999894
0.9159686560828728,0,0.999415
0.8881812359364599,0,0.998810
0.9026302005929348,1,0.999662
0.9053205546818996,0,0.998707
0.9474458513149864,1,0.999889
0.9373800418066695,0,0.998709
0.9383734440540701,1,0.999947
0.9439469943880124,1,0.999828
0.9304657621349245,1,0.999837
0.9380710309535462,1,0.999888
0.9552981542776718,0,0.999138
0.9359169738109648,1,0.999647
0.9351253631918224,1,0.999942
0.9303371906924192,1,0.999943
0.9423455115121787,0,0.998089
0.9082918147724098,1,0.999943
0.9050125883880517,1,0.999886
0.87880509033141,0,0.997918
0.8925346941078428,1,0.999567
0.9520355340008817,1,0.999943
0.9240879715369239,0,0.969615
0.8626624452272698,0,0.991551
0.8688790493485347,1,0.999887
0.9214064706566829,1,0.999832
0.8922104319382029,0,0.999173
0.9010350642914874,1,0.999497
0.9255164467778416,1,0.999944
0.8889944417745351,1,0.999832
0.9334449146573487,1,0.999943
0.9269099855142738,1,0.999832
0.9101395858730733,0,0.998629
0.920947291666067,1,0.999890
0.9489034341752884,1,0.999944
0.9555734293635603,1,0.999721
0.9436064254802506,1,0.999951
0.9244440822367027,1,0.999945
0.894154934949149,1,0.999887
0.9372951363642118,1,0.999945
0.923304767352759,1,0.999941
0.9342630177773421,1,0.999941
0.8816777584315442,0,0.974288
0.9585651122404617,0,0.998717
0.9558411926558871,1,0.999839
0.9443378977979452,0,0.998885
0.9225854551759363,1,0.999833
0.9199153623268843,0,0.999367
0.9324308524906075,1,0.999947
0.9398318000454878,1,0.999942
0.9021482115701842,1,0.999943
0.9490887438771183,1,0.999946
0.9450988291667607,1,0.999942
0.9035780434688728,0,0.996727
0.9484176733547428,1,0.999942
0.9057464718530431,1,0.999892
0.8358330869307001,1,0.999728
0.9000792271322531,0,0.989443
0.9339228636548451,1,0.999945
0.9255873991990574,1,0.999485
0.926886641994858,0,0.991813
0.9078677499653054,1,0.999943
0.856384070960181,1,0.999942
0.8650461502776082,1,0.999943
0.9004848654312833,0,0.996195
0.9211722325421466,1,0.999944
0.8831635346829989,1,0.999946
0.8823298430019227,0,0.983998
0.920050499046758,1,0.999945
0.9159410791838537,1,0.999945
0.8364032576138437,1,0.999947
0.9031472021479039,1,0.999670
0.8969724765215932,1,0.999502
0.8933913045926803,1,0.999943
0.929272182237367,1,0.999891
0.9096879869315155,0,0.998860
0.915929316374064,1,0.999941
0.8867163005441403,1,0.999944
0.8872123833459722,0,0.996427
0.9376582078262203,0,0.999090
0.931547191861015,1,0.999947
0.9163862685340952,1,0.999887
0.9321436019822004,1,0.999946
0.9269750950605177,0,0.998858
0.9017296086766828,1,0.999945
0.9510157106747231,1,0.999944
0.9326423832765667,1,0.999946
0.9378438341661912,1,0.999783
0.9301648573462903,1,0.999852
0.91349257545207,1,0.999674
0.8743122233916253,0,0.997343
0.9288159980640632,1,0.999947
0.9411188612971175,1,0.999849
0.9569733914037207,1,0.999506
0.9616918936441028,1,0.999721
0.9615858347614844,1,0.999946
0.9482100341495918,1,0.999884
0.9388851153430519,1,0.999840
0.9294370017079031,1,0.999946
0.9172788070731306,1,0.999898
0.9239613235577357,1,0.999616
0.9132563260237815,0,0.998305
0.9299279043689185,1,0.999607
0.9291150238233935,1,0.999945
0.9491107601087356,1,0.999944
0.9258705684318669,1,0.999943
0.9260069492656003,1,0.999675
0.9333792825433233,1,0.999946
0.9278806205036848,0,0.999167
0.90276387799892,1,0.999946
0.9154790668402899,1,0.999943
0.917744808003882,1,0.999945
0.8821736339853706,1,0.999945
0.9117129303244118,1,0.999893
0.8953153288848804,1,0.999788
0.9166536858311746,1,0.999893
0.9268535978792801,1,0.999459
0.9237239252590389,1,0.999946
0.9406492877851678,0,0.996467
0.9364564851725596,1,0.999947
0.9260606325329599,1,0.999942
0.9278236596202054,1,0.999946
0.9242803565824932,1,0.999946
0.9202432282176204,1,0.999627
0.9320198253044965,1,0.999948
0.9447176977419011,1,0.999838
0.9421622876301088,1,0.999839
0.9145274633007011,1,0.999948
0.9241265212212902,1,0.999946
0.9191215239401428,0,0.995027
0.8778300291928555,1,0.999896
0.9138889890169751,1,0.999732
0.917425060690972,1,0.999511
0.8974062576961179,1,0.999523
0.9018834125612288,1,0.999840
0.9225080902353625,1,0.999894
0.9130044468030456,0,0.998112
0.8998849466509045,1,0.999666
0.9160826177158335,1,0.999892
0.9195430845760829,1,0.999944
0.9370808384319163,0,0.998491
0.913134587719928,0,0.995014
0.9178911132064125,1,0.999945
0.8661818346738227,1,0.999950
0.845975255454876,1,0.999472
0.8427147080034347,1,0.999842
0.8646004046655291,1,0.999948
0.8556246382557996,1,0.999472
0.9079874526468492,1,0.999947
0.897273832030355,1,0.999672
0.8461820131206474,1,0.999945
0.926040054779739,0,0.997284
0.9254823351771144,1,0.999888
0.9312537071212735,1,0.999948
0.9117363268603884,1,0.999946
0.9147525793700287,1,0.999947
0.9348304894666302,1,0.999944
0.9233009270725624,0,0.997221
0.9048540463428802,1,0.999946
0.9391499888619859,1,0.999893
0.9408516611099523,0,0.999258
0.9465436951087518,0,0.999389
0.9056803424449292,1,0.999947
0.8829273678936909,1,0.999947
0.9350215116593935,1,0.999946
0.9119062923524993,1,0.999894
0.9020483088422835,1,0.999843
0.9182585910431458,1,0.999893
0.9074893709292753,1,0.999947
0.9286569726644388,1,0.999894
0.9282974402715165,1,0.999948
0.9112886533466521,1,0.999947
0.9287041351090526,0,0.996786
0.8670757936782835,0,0.998897
0.9463805302132952,0,0.998842
0.9102679232284735,1,0.999946
0.9473174094765949,1,0.999944
0.8820620709960307,1,0.999945
0.8979226941560469,1,0.999624
0.9396900016351546,1,0.999518
0.9453746332656928,1,0.999944
0.9346550245675653,1,0.999943
0.9400104545392359,0,0.999328
0.9369534312009465,1,0.999830
0.9108810883213344,1,0.999889
0.893065812526042,1,0.999945
0.9428595372208668,1,0.999945
0.8777120688868416,0,0.996895
0.8760894597060973,1,0.999946
0.9310790138526538,1,0.999890
0.9167252536183025,1,0.999946
0.9376544397323661,1,0.999837
0.9008187943791924,0,0.988628
0.9061102181136581,0,0.996830
0.9054196401550957,0,0.998928
0.9496598375916937,1,0.999948
0.8718210732987463,1,0.999946
0.9183510924556365,1,0.999946
0.9230444296648022,1,0.999947
0.9191294405304189,1,0.999944
0.9197861273934087,1,0.999946
0.9013263727492976,1,0.999729
0.9355006256396695,1,0.999944
0.9441293527422611,0,0.998503
0.929707303749798,1,0.999786
0.9365780895445645,1,0.999946
0.9623750140569022,1,0.999947
0.9262896064835546,1,0.999894
0.9616577333655353,1,0.999944
0.93796826090869,1,0.999588
0.9330607610706501,0,0.999089
0.9366487137000369,0,0.998797
0.9301479920348438,1,0.999948
0.885608471275292,1,0.999893
0.9017821202196618,0,0.998599
0.9302192690092717,1,0.999944
0.8833301850948971,1,0.999946
0.8885740279497577,1,0.999946
0.8867006259883637,1,0.999841
0.9411000732773876,1,0.999947
0.9255458404463542,1,0.999892
0.9289106044745421,1,0.999946
0.9274068924270361,1,0.999894
0.9058735378826481,1,0.999947
0.9452144376109645,1,0.999839
0.9155160811360443,0,0.999308
0.9390990254687096,1,0.999945
0.9188672134213458,1,0.999945
0.9129240663659309,1,0.999896
0.9045221222012384,1,0.999947
0.9321519966841596,0,0.999185
0.9193263823174296,1,0.999947
0.9578753127897383,0,0.998254
0.935425956812101,1,0.999947
0.9533660259206149,1,0.999948
0.9370818607249515,1,0.999948
0.9542488725882033,1,0.999946
0.924206222720406,0,0.999199
0.9546869089412342,1,0.999948
0.9560123472751383,0,0.999158
0.9407433825377882,0,0.999386
0.9240066170068979,0,0.978014
0.9181053488606316,1,0.999736
0.9209323480085411,1,0.999947
0.9281725438311588,1,0.999789
0.937023134700069,0,0.995315
0.9222883187842837,1,0.999944
0.9441694647630496,0,0.999148
0.8823573781981259,1,0.999946
0.9148871577690881,1,0.999946
0.9273695385127511,1,0.999946
0.9484421499593371,1,0.999946
0.8811914211256661,1,0.999947
0.8618461033555234,1,0.999897
0.9437953065904009,1,0.999943
0.95512065616413,1,0.999607
0.928657500424025,1,0.999947
0.9079137051218503,1,0.999948
0.9115282731343894,1,0.999947
0.8969672497116962,1,0.999893
0.9263327117302735,0,0.998607
0.937660672982054,1,0.999892
0.94184035318666,1,0.999946
0.9384761854495631,1,0.999947
0.9078929135141502,1,0.999841
0.9110515096000212,1,0.999831
0.9370883418186807,1,0.999732
0.913095313761879,1,0.999895
0.9146940955735565,0,0.994507
0.9009520114234976,1,0.999731
0.9254978443330977,1,0.999843
0.9547909258007914,1,0.999732
0.948441940494578,0,0.998880
0.9367565534420728,1,0.999731
0.9139351171590228,1,0.999787
0.9470883502217758,1,0.999948
0.9388180204007883,1,0.999947
0.8686095918867484,1,0.999947
0.921978786969409,1,0.999893
0.9024187745447714,1,0.999947
0.9264368586180389,1,0.999946
0.915021735798943,1,0.999468
0.9126375414830132,0,0.999295
0.9501300440109521,1,0.999949
0.882489549852283,1,0.999678
0.9077566542713725,0,0.998661
0.9176156153794782,1,0.999947
0.9342962211436157,1,0.999946
0.9354929126841259,1,0.999948
0.9134872519765975,1,0.999948
0.9120371748461857,1,0.999833
0.9344645319121712,1,0.999559
0.8862625091461602,1,0.999947
0.9138916746517434,0,0.998990
0.9020488918263995,1,0.999948
0.8944906759208763,1,0.999947
0.9217094088821799,1,0.999947
0.9436689185658662,1,0.999946
0.9427538610201103,0,0.999362
0.9584942032749403,1,0.999946
0.9121524920813567,1,0.999944
0.9593948013268634,1,0.999944
0.9192716479537016,0,0.997343
0.9397647326689501,1,0.999946
0.9544767507446558,1,0.999842
0.9080436064192997,1,0.999890
0.9067871439954954,1,0.999842
0.9399891441028853,1,0.999469
0.9222328733917403,1,0.999947
0.9492456980844461,1,0.999947
0.9604166005949812,1,0.999947
0.9334325407516438,1,0.999838
0.9578842964887934,1,0.999894
0.969082069619653,1,0.999803
0.9416288222304899,1,0.999947
0.9586928516956942,1,0.999946
0.9514190123766538,1,0.999948
0.9456771724682693,0,0.995905
0.8985014253933257,0,0.999070
0.9225158715058673,1,0.999944
0.9219953839127492,1,0.999943
0.8958177628083683,1,0.999947
0.9053427070874769,0,0.996870
0.9102892347119363,1,0.999942
0.9153830927801142,1,0.999660
0.8344734041903819,1,0.999940
0.9122878266073248,1,0.999945
0.8605987132729268,1,0.999784
0.9119004667236998,1,0.999942
0.8643072972260516,0,0.997363
0.875966748248174,1,0.999610
0.9064878559536775,1,0.999943
0.9028970396773974,0,0.998991
0.8082029442258772,1,0.999949
0.9214750503138552,1,0.999945
0.9268953761818294,1,0.999945
0.860104364135018,1,0.999896
0.8754594121744435,1,0.999887
0.855804976023887,0,0.999230
0.9298678072140093,0,0.998272
0.9461818194450652,1,0.999446
0.9449217205681935,1,0.999946
0.9525630038020131,1,0.999949
