0.2559957221297569,0,0.918419
0.679403416150795,0,0.997083
0.8726120138971273,0,0.996944
0.5015714453598716,0,0.997119
0.7441889917981543,0,0.999110
0.5248586443473616,0,0.987910
0.3452624023317378,0,0.998736
0.7379362019644127,1,0.999681
0.7585676411729894,0,0.997537
0.09461502918067685,0,0.988574
0.0653504083698589,0,0.848537
0.5655264177347097,0,0.998061
0.12436887854080379,0,0.987505
0.6234582252788777,0,0.998311
0.06636559364268088,0,0.982809
0.6194443447868997,0,0.988077
0.25247385306960396,0,0.991990
0.5324024518521305,0,0.995847
0.6370030446526601,0,0.996305
0.5970590809096291,0,0.949819
0.05932445470155661,0,0.928904
0.49772392046089975,0,0.992043
0.34464345955802017,0,0.996623
0.02187306165756627,0,0.831853
0.5959847122616138,0,0.988218
0.0035440577908236468,0,0.915031
0.7643598504421671,0,0.997627
-3.7507721188809255E-4,0,0.963307
0.8209990596766925,0,0.998956
0.8310906814304996,1,0.999216
0.8138099065188361,0,0.993969
0.6933119628922495,0,0.994658
0.6932297658807984,0,0.995295
0.013583636279599364,0,0.947829
0.008714559893427818,0,0.992309
0.649753761157596,1,0.999826
0.03125898302178551,0,0.933391
0.595565913709674,0,0.988605
0.5570513811169907,0,0.992179
0.3856622266932181,0,0.996297
0.30506101058651364,0,0.965112
0.46446513290461156,0,0.999360
0.49189183028661876,0,0.992288
0.716798437841778,0,0.998369
0.46882076789991933,1,0.999418
0.5113618664533561,0,0.987997
0.2520103209882596,0,0.996467
0.016970014125963884,0,0.994950
0.701743798681181,1,0.999594
0.764229981187698,0,0.997976
0.7258776670414826,1,0.999539
0.09386308269920274,0,0.951166
0.5058091218705969,0,0.997603
0.12894045331207585,0,0.993630
0.13785961440158978,0,0.997430
0.17721583103771024,0,0.979865
0.49606423862389676,0,0.978448
0.6313825621775916,0,0.996782
0.2442917790487562,0,0.985839
0.35435092838968585,0,0.996867
0.23073730519775046,0,0.976966
0.28713610117112587,0,0.987686
0.4075835094326485,0,0.998995
0.7141717222892092,1,0.999507
0.5117314020976228,0,0.990540
0.16300771188146912,0,0.995292
0.5279610069913419,0,0.996226
0.5344469905678867,0,0.967172
0.5570934107129478,0,0.995572
0.6554589836785504,0,0.999130
0.4797628020521309,0,0.944202
0.41582329890993885,0,0.999290
0.1499694111757401,0,0.980027
0.5722971989879995,0,0.970345
0.5613153036390078,0,0.973934
0.5205640697872211,0,0.954606
0.56432819635352,0,0.983551
0.210908754788457,0,0.972371
0.7226007783331273,1,0.999951
0.6455991561163078,0,0.998663
0.39175134101718884,0,0.997598
0.6138759233209821,0,0.998832
0.39658255442405965,0,0.998378
0.39116315874036695,0,0.985379
0.6618327138049974,0,0.994836
0.29195319055752017,0,0.958544
0.7432634053363655,0,0.991325
0.5533367097102557,0,0.996304
0.2856118055236885,0,0.962925
0.37072228740923896,0,0.997119
0.5364046125992169,1,0.999829
0.6795303348140259,0,0.999376
0.7022725008351072,0,0.991342
0.766000715831044,0,0.998583
0.4141975914705379,0,0.970821
0.4748407389323851,1,0.999634
0.6168751314033356,0,0.996984
0.6297703921967075,1,0.999936
0.23666395763659248,0,0.998890
0.6697431569415676,0,0.999036
0.13005538044783532,0,0.998135
0.6420030480733031,1,0.999938
0.3509921299127747,0,0.983641
0.045746075217642575,0,0.996883
0.106883764300831,0,0.998928
0.5832900189195587,0,0.995428
0.8287700451650173,0,0.984093
0.49008905301474687,0,0.989104
0.5308587620093057,0,0.997156
0.6362896286034038,0,0.988203
0.6509536629209322,0,0.998728
0.3676050795895916,0,0.995016
0.5390590564958995,0,0.995040
0.46753039056342244,0,0.987562
0.6769723337223007,0,0.983394
0.35348269522889403,0,0.989818
0.6010795534272311,0,0.996987
0.6962217710831081,0,0.978700
0.7524521734493479,0,0.996413
0.5809355549338239,0,0.988803
0.5914988704297209,0,0.969491
0.5601682576872177,0,0.934903
0.4821657862728402,1,0.999529
0.44297440287512935,0,0.999001
0.4936583829002205,0,0.985396
0.4572206583664334,0,0.986713
0.49938197056781436,0,0.994831
0.5540833278082475,0,0.997704
0.6773965382402035,0,0.999204
0.5735591500387158,0,0.994363
0.5901607970850412,1,0.999531
0.5774859351780992,0,0.998377
0.668218110306398,0,0.992745
0.5762831046438035,0,0.998960
0.6498281988099407,0,0.994082
0.6978389916097568,0,0.990785
0.2981090558613998,0,0.994974
0.48164551825936147,0,0.990855
0.5889852440735418,0,0.980140
0.6392549179210135,0,0.998178
0.607616157977931,0,0.986019
0.5315367905576408,0,0.981237
0.5892917449857231,0,0.993711
0.336286378900682,0,0.980487
0.6263729091780296,0,0.996423
0.28802345198924834,0,0.994261
0.5756351651406185,1,0.999753
0.6303057153298347,0,0.994103
0.5433480647199337,1,0.999625
0.6507961532328471,0,0.999263
0.7759266466930951,0,0.995203
0.7705602016303091,0,0.999291
0.5077849412843899,0,0.977686
0.4989142700137565,0,0.993540
0.5834292358651572,0,0.998347
0.26116965904112194,0,0.997566
0.08308399380680587,0,0.992335
0.09010974968997999,0,0.997483
0.0891750231525359,0,0.996236
0.447243323925464,1,0.999944
0.5210091074031774,1,0.999714
0.3394499071215111,0,0.995169
0.3983571629438998,0,0.988962
0.26162173023085955,0,0.997560
0.29891544587684277,0,0.982604
0.39577289807485283,0,0.997654
0.6646596494005745,1,0.999481
0.6197283827798875,1,0.999776
0.7515064916052131,1,0.999429
0.17222095989431413,0,0.999231
0.3156152277829091,0,0.976113
0.6133677388167189,0,0.982526
0.6627328122031305,0,0.997422
0.6229715660895029,0,0.999326
0.5861131633381784,0,0.998260
0.6941588735387024,1,0.999701
0.6875326299065727,1,0.999817
0.4075800740116558,0,0.968948
0.6621385615954488,0,0.992175
0.5667135704681506,0,0.997826
0.6062050036379001,0,0.996558
0.7116012557509732,1,0.999881
0.20335075184374576,0,0.990311
0.7655948626033228,0,0.998688
0.5103644823459493,0,0.989320
0.5527658012296918,0,0.993561
0.6083938131272106,0,0.993783
0.42229856510174824,0,0.996326
0.7055582500735315,0,0.995939
0.3087217909306359,0,0.997513
0.7682752089041378,0,0.998687
0.27570691131050096,0,0.997123
0.5698027917777619,0,0.977361
0.7188836467511266,1,0.999878
0.5934145227966114,1,0.999836
0.6020572901423568,1,0.999444
0.6255235639995756,0,0.998379
0.621613070016281,0,0.992639
0.5181201897344268,0,0.992777
0.6631438399489578,0,0.995758
0.5146141373932782,0,0.996548
0.34180557101433445,0,0.973597
0.2741204069221435,0,0.973043
0.009389390572267052,0,0.954313
0.5886018293112344,0,0.998987
0.6249712608686562,0,0.990267
0.6788672627644924,0,0.993450
0.7990946534105228,0,0.995859
0.7821046483326705,1,0.999945
0.6441788030017999,0,0.995100
0.635333037172841,0,0.992691
0.09275979491236058,0,0.971788
0.3767146617360637,0,0.992434
0.6626724793115465,1,0.999944
0.39439975691478363,0,0.996675
0.3797926558551396,0,0.993938
0.4672757523838377,0,0.987086
0.42574864307327465,0,0.959165
0.572640574116153,0,0.989686
0.29373978738531054,0,0.999049
0.5855795451275819,0,0.997775
0.592387494364531,0,0.996049
0.6335518629701689,0,0.994341
0.6520573835287776,0,0.999355
0.3129218387118997,0,0.992837
0.5414182441981976,0,0.995953
0.6831443977592105,0,0.968228
0.5041508858758844,0,0.999329
0.6447142880943038,0,0.992927
0.6014300103058628,0,0.996887
0.4164976954382941,0,0.998332
0.6304492268992482,0,0.998255
0.6893660289164146,0,0.994075
0.7066893945976315,0,0.997414
0.3194536657506408,0,0.991234
0.6636743021287983,0,0.994610
0.4016771386883397,0,0.998008
0.5009345768948332,0,0.989344
0.48645285310407443,0,0.994676
0.7295148788105579,0,0.998903
0.6678617491683213,0,0.998632
0.6680848568929669,0,0.973794
0.584125069168539,1,0.999441
0.6309311589794455,0,0.997304
0.18339111198847693,0,0.986644
0.5546001658644526,0,0.997234
0.6376279271035517,0,0.997996
0.7317303633443432,1,0.999938
0.8032620970561949,0,0.990003
0.8634531116756592,0,0.996935
0.7784846774273416,0,0.993504
0.775126570092665,0,0.993069
0.8071929345638423,1,0.999606
0.8882601994859852,0,0.998392
0.6642427598524624,0,0.990636
0.7161823111246411,1,0.999670
0.7678866586085417,0,0.999182
0.8392307944715579,0,0.998397
0.7104665066194734,0,0.995751
0.7897691730848886,0,0.997896
0.65916290255643,1,0.999652
0.7981281676540285,0,0.997925
0.6078142382023096,1,0.999621
0.3731943968127342,1,0.999602
0.49065510369377263,0,0.991353
0.3817528093306,0,0.991783
0.46033221278199915,0,0.997586
0.3416428142358848,0,0.995187
0.5454648336104873,0,0.990874
0.5502480307236144,0,0.950221
0.5743790088326977,1,0.999569
0.5700162923415637,0,0.992986
0.5990351403476192,0,0.991248
0.32555725393754603,0,0.990772
0.6716896814175178,0,0.999379
0.5062432398903421,0,0.988745
0.5899697388286317,1,0.999614
0.5455711103250395,0,0.982061
0.5429400974769055,0,0.996743
0.4923539519228999,0,0.990683
0.4730626841618129,0,0.997512
0.5574652824544882,0,0.988849
0.6277510974783449,0,0.976440
0.6183892033059493,0,0.997297
0.5598131392050609,0,0.983572
0.7166267048554762,1,0.999886
0.7607094196221552,0,0.988500
0.8394247358701162,1,0.999458
0.805838085607763,1,0.999947
0.7708356251947135,1,0.999888
0.7356747887561249,1,0.999825
0.7683612036670383,1,0.999944
0.7317321088259893,1,0.999945
0.7549731877558787,1,0.999779
0.8192098586233639,0,0.998357
0.8624692075659827,1,0.999500
0.8262718790124478,1,0.999657
0.8538082159643549,1,0.999946
0.8463866073285345,0,0.997604
0.7234516735365273,0,0.971954
0.5842518234395353,0,0.980824
0.5269056387595645,0,0.999414
0.34761883957211603,0,0.997017
0.41055377369357005,0,0.978443
0.5970981333455155,1,0.999895
0.5131386308701389,0,0.999347
0.4801768185785119,0,0.981064
0.4211503455492113,0,0.996274
0.36069371598326727,1,0.999894
0.5329231429955326,1,0.999836
0.39987139012078066,0,0.991882
0.5078969572049705,0,0.969811
0.6185881896069265,0,0.997583
0.6005518162253503,0,0.998918
0.6941450769810465,0,0.989875
0.7054057378677433,0,0.996698
0.64725748334937,1,0.999945
0.6757317427996067,1,0.999888
0.5230638094793486,0,0.998371
0.5645475838836125,0,0.998546
0.6686858485156579,1,0.999720
0.6628694136210507,0,0.997281
0.7190980924720538,1,0.999889
0.7557005377542131,0,0.999047
0.6755546370308576,0,0.989909
0.6276444230425146,0,0.989005
0.40982971119312445,0,0.973362
0.39015945510604827,1,0.999384
0.6567901043867854,0,0.999322
0.6569640234427587,0,0.995739
0.5683116198092673,0,0.989590
0.44017375047628415,0,0.948361
0.555742198624489,1,0.999948
0.6244062782323122,0,0.997110
0.5829625284648764,0,0.990265
0.459068963476272,1,0.999467
0.5544581821309009,1,0.999781
0.6299992416669258,0,0.997845
0.4723488282153511,0,0.999394
0.5539311824487296,0,0.998962
0.498689155050312,1,0.999432
0.6194799345410186,0,0.998844
0.5915479605727653,1,0.999447
0.644735094404508,0,0.983453
0.577559220959002,0,0.997430
0.5124596852380755,0,0.999242
0.5157679428795215,0,0.998803
0.5806621636554811,0,0.988573
0.5767904683953147,0,0.994646
0.503145450909168,0,0.994171
0.5236459336057712,0,0.997096
0.5604066267473183,0,0.986194
0.5999162881846731,0,0.967057
0.6498874152100579,0,0.976453
0.659479086745582,0,0.998715
0.5306761055056778,0,0.998924
0.5288468239952446,0,0.980218
0.4015711956661624,0,0.999149
0.5728265416282461,0,0.992795
0.6034532515037847,0,0.993656
0.5704057270622622,0,0.944642
0.5558582018899765,0,0.998222
0.6377453198014992,1,0.999731
0.5993266857852242,0,0.987137
0.6076469160552763,0,0.997586
0.5831670236541636,1,0.999704
0.6026680136431112,1,0.999833
0.6633004469812049,0,0.995171
0.6873079191814806,0,0.996964
0.45488011793683575,0,0.997599
0.44645601225883463,0,0.992921
0.43155314724991767,0,0.988287
0.5754936100983412,0,0.992819
0.5862705494438163,0,0.995649
0.6359019568470002,0,0.995940
0.6479466942419632,0,0.951402
0.6376884611288463,0,0.992541
0.5951796377087076,0,0.991104
0.6845022150245922,0,0.935059
0.6913674625198676,0,0.999143
0.4972246458828837,0,0.998964
0.48335393605535676,0,0.983356
0.715175419496865,0,0.997928
0.6281092585186204,0,0.983106
0.6273681754628935,0,0.998334
0.7218883654358722,0,0.997972
0.7659115375728168,0,0.970964
0.5180035741563601,0,0.992618
0.59203991130226,0,0.998291
0.6020983049002642,0,0.977979
0.59942564410581,0,0.981426
0.5835213800653213,0,0.984491
0.5917261651831183,0,0.993399
0.4884701332392753,0,0.997578
0.43299635811730525,0,0.963753
0.5387821698175503,0,0.997210
0.603396595895713,0,0.995681
0.613427660966825,0,0.993878
0.5835546234424577,0,0.997864
0.6886501661640125,0,0.997047
0.6870327757121191,0,0.993536
0.6652876723079634,0,0.998931
0.7412926254635286,0,0.998641
0.7142474332947326,0,0.988419
0.7434694152838859,1,0.999604
0.7142847058946391,0,0.995092
0.6940242055799042,0,0.976580
0.7407891457928756,0,0.968380
0.6981310146483699,0,0.958482
0.77165387216071,0,0.995973
0.7764556891136292,0,0.987786
0.6543622924198776,0,0.995119
0.6979213807763894,0,0.994777
0.7507846049634979,1,0.999778
0.5490359440752567,0,0.984812
0.6389068762827895,0,0.981927
0.6435547358110133,0,0.997174
0.6253594041327231,0,0.998138
0.17940095906308662,0,0.993209
0.32871768240835325,0,0.995127
0.43034304853156247,0,0.975242
0.5658353167646456,0,0.995567
0.6888708886247357,0,0.997400
0.744575077291302,0,0.981207
0.8062021079834317,1,0.999713
0.7939090412886138,0,0.990703
0.7024582146661629,0,0.990924
0.828229568332595,0,0.994720
0.6909507583279827,1,0.999728
0.47262972770716005,0,0.991129
0.6862552807913902,0,0.998115
0.688240839143999,0,0.997864
0.5073727601132532,0,0.997865
0.7284203335465702,0,0.993512
0.7289023906229114,0,0.983777
0.6154485812872414,1,0.999593
0.5474221518703232,0,0.998920
0.584619696748526,0,0.995215
0.6686665962638653,1,0.999772
0.750541043594306,1,0.999563
0.7654129362389827,1,0.999717
0.7144406965682696,0,0.993756
0.25782731500325407,0,0.981697
0.42105298618350334,0,0.996318
0.5151701875395659,0,0.998688
0.5290644723322037,0,0.997204
0.5407825181095541,1,0.999487
0.4625478601401535,0,0.997791
0.30237813799607194,0,0.995789
0.5390470797730215,0,0.992329
0.5187195515741566,1,0.999944
0.5322497954969883,0,0.993984
0.5711828264840907,1,0.999552
0.5956712072616418,0,0.997679
0.5547627847295482,0,0.981327
0.5171469052407213,1,0.999436
0.574663586897744,1,0.999777
0.5279028835795976,0,0.980953
0.41048050987874596,0,0.998122
0.4259533599913241,0,0.998919
0.485429775984177,0,0.997556
0.37971119627172634,0,0.994080
0.39306679132461997,0,0.998943
0.5479560701474655,0,0.998975
0.629312998018631,0,0.999004
0.5700071503956307,0,0.998974
0.6538742332942838,1,0.999728
0.5478615487110388,0,0.998402
0.6699759285902654,0,0.999146
0.6907154099159647,0,0.998054
0.6266160316808062,0,0.970692
0.6637116423317312,0,0.998547
0.6115744419380849,0,0.993020
0.6562209958998979,0,0.998250
0.6370715227247687,0,0.998996
0.5860833359300975,1,0.999674
0.5001662225340763,0,0.999064
0.5108942008647561,0,0.998537
0.3365192357031991,0,0.999169
0.42668178355711256,0,0.982306
0.3974770976446552,0,0.984108
0.45599003055452764,0,0.995833
0.4283863347642838,0,0.996907
0.5114928728800354,0,0.997596
0.62550045040307,0,0.998855
0.591307401569705,0,0.998299
0.6520692684551544,0,0.998874
0.6904245695668776,0,0.996686
0.7186093600627854,0,0.999152
0.7082422566236928,0,0.980796
0.6686085721976812,0,0.999416
0.6778237796572801,0,0.985654
0.6967511898161807,0,0.999148
0.4852158431425295,0,0.998328
0.49414760315937234,0,0.994217
0.4652585537000701,0,0.980772
0.4077148435643439,0,0.982686
0.5028040741250583,0,0.998022
0.5840152986863989,0,0.998769
0.5306386918442553,0,0.997969
0.4930058154331689,0,0.993180
0.554234072315687,0,0.998526
0.5590048616598468,0,0.987316
0.6041888359755027,0,0.981477
0.5964550316745164,0,0.988298
0.4862362359552781,0,0.992055
0.6530903657561816,0,0.997582
0.6446648227098353,0,0.998591
0.6792096625245592,1,0.999714
0.5418824258401704,0,0.991007
0.6131471380007102,0,0.981375
0.7500729699833548,0,0.998718
0.7369267784800446,0,0.988924
0.6009588839568906,1,0.999945
0.5788538996806517,0,0.973537
0.6614387265650565,1,0.999524
0.6209529544274306,0,0.995331
0.36244992042769203,0,0.953969
0.6947862122259912,1,0.999780
0.5984931137671585,0,0.989637
0.6263141849722851,0,0.942177
0.7386698951168162,0,0.996921
0.6397015130811027,0,0.981636
0.6150158653179794,1,0.999556
0.5688760079605077,0,0.998381
0.5568117248079961,1,0.999604
0.6533434208197016,0,0.999392
0.7302060783943832,0,0.999287
0.6572445203208851,0,0.989053
0.7484043192522347,0,0.999275
0.7743467091024684,0,0.996706
0.7943147089749153,0,0.997777
0.7456596639319429,1,0.999889
0.7790180893170384,0,0.997061
0.4634303536773303,0,0.996764
0.616221151022528,0,0.983696
0.6078286988386746,0,0.997784
0.5252418849942305,0,0.998423
0.24304973889635412,0,0.987947
0.2338559680861959,0,0.951820
0.36062694130430306,0,0.991800
0.44913110637831244,0,0.966470
0.42081825157173125,0,0.996373
0.4805229804930883,0,0.996870
0.5014308304915842,0,0.999189
0.41673703802213063,0,0.999142
0.34352997629488635,0,0.996667
0.41691679988573654,1,0.999949
0.42002132616151777,0,0.999299
0.4199947932241551,0,0.997955
0.38343243521378945,0,0.987499
0.4094673324425606,0,0.988986
0.5169503910137263,0,0.976519
0.5559653167305716,0,0.972828
0.5113733732799647,0,0.998627
0.5058738216237904,0,0.998768
0.5250541535169293,0,0.997692
0.5027236051776479,0,0.982002
0.3934981654889297,0,0.998462
0.48718255277349853,0,0.997086
0.36748133530566757,0,0.998666
0.38377057821465876,0,0.997995
0.47563283937812423,1,0.999547
0.5048202466384619,0,0.978569
0.5234733878435254,0,0.997333
0.49339604888192456,0,0.992055
0.5403937191893206,0,0.996705
0.5277165678600031,1,0.999451
0.41924520313137437,0,0.984248
0.49863432575138666,0,0.989746
0.5168909201022084,0,0.962900
0.47477709851580163,0,0.967086
0.45674205164541354,0,0.985716
0.5944105366202709,0,0.999385
0.6316216653916326,0,0.998512
0.6289122028677047,0,0.996033
0.5096824918174321,0,0.994018
0.4930735317794837,1,0.999945
0.6648703930594363,1,0.999838
0.7575207151477594,0,0.955423
0.7520823697120823,0,0.999283
0.7512172408544725,0,0.997011
0.7616743921428509,0,0.978444
0.7826750175650828,0,0.999262
0.7372072471016534,0,0.987224
0.7109962795077558,0,0.988628
0.827451856918681,1,0.999725
0.7270413656114473,0,0.998294
0.7913102804575437,1,0.999890
0.7205786397770478,0,0.996085
0.6182076768534108,0,0.998645
0.7786392131894203,0,0.990192
0.7861372238573534,1,0.999885
0.742208378038176,0,0.994605
0.7654850382572314,0,0.991911
0.7598297810540408,0,0.977810
0.548065862914634,0,0.996266
0.533207286904299,0,0.997253
0.6122901522015065,0,0.968291
0.5819805513713816,0,0.982985
0.6281477440527452,0,0.989023
0.6009768547950259,0,0.957741
0.49771882009038976,0,0.991199
0.48184237612160297,0,0.998134
0.5004259830647311,0,0.996642
0.4806757702042644,0,0.990185
0.46041166166458697,0,0.997187
0.4768125822383857,0,0.993908
0.4454440824730265,0,0.997726
0.5298240386153444,0,0.996510
0.43418567147078324,0,0.999054
0.5070694568976525,0,0.998766
0.48230482555523824,0,0.982464
0.6024427260038729,0,0.986041
0.5744209279532604,1,0.999771
0.5339861082903142,1,0.999551
0.5615556742412742,0,0.988695
0.586589038437037,0,0.997433
0.5149513474301004,0,0.991561
0.6213515882281272,0,0.985651
0.6393607014633192,1,0.999797
0.6094445881887217,1,0.999719
0.5503567413978004,0,0.998957
0.5776501476290906,0,0.997253
0.545179124856297,0,0.999291
0.5858808972792824,0,0.982279
0.5683958826027755,0,0.997948
0.6085965752642665,0,0.984116
0.6039649121949606,0,0.997661
0.6710804782614593,0,0.999181
0.6739907917235326,1,0.999837
0.2814152545321865,0,0.988720
0.3900321713969165,0,0.991631
0.6187449519534975,0,0.997740
0.7003458640034433,1,0.999946
0.8292082734469532,1,0.999785
0.7981838013449407,0,0.998961
0.8023228454433665,0,0.998749
0.8281435377794547,1,0.999839
0.8277948326590677,0,0.989549
0.7892618208140236,1,0.999942
0.8048306332248429,1,0.999944
0.6292166418176888,1,0.999789
0.5275555448138481,0,0.996824
0.5818878319645048,0,0.997213
0.41984432944319805,0,0.993666
0.3463781415066156,0,0.995568
0.4795428684598031,1,0.999682
0.4390197355509407,0,0.971907
0.4602083489547068,0,0.992396
0.4366697892341878,0,0.995416
0.4306454692292413,0,0.969161
0.49822998430911825,0,0.996219
0.6204409598061159,1,0.999946
0.671794016343655,0,0.997956
0.633370614891657,0,0.999407
0.5683223104895155,0,0.971803
0.6113755017380488,0,0.993612
0.678247642007089,1,0.999891
0.6393391872215176,1,0.999945
0.6424178857458508,0,0.998752
0.5502305391292315,0,0.994381
0.4661431544557121,0,0.981169
0.6139434432746173,0,0.998367
0.5341367606440589,0,0.996852
0.6538318437235565,0,0.999257
0.5186562102126346,0,0.994109
0.5430937796746242,1,0.999782
0.4590380666155382,0,0.998555
0.5219240973535878,0,0.998597
0.5673269003712355,0,0.977705
0.5919188732823053,0,0.993315
0.5290215129950926,0,0.992565
0.5499749580988842,0,0.998374
0.6129549347763826,0,0.995492
0.4336831153927585,0,0.985383
0.5592745478100819,0,0.999123
0.5308974202072638,0,0.979462
0.4322390836915215,0,0.991593
0.47569503567967697,0,0.989699
0.5936735613114142,0,0.998722
0.5853852498787459,0,0.986602
0.6037788431675293,1,0.999622
0.5500719552659238,0,0.994191
0.626088415038218,0,0.988533
0.6640765569328488,0,0.992870
0.582564949020697,0,0.994800
0.5817117106044942,0,0.995348
0.4529760877719749,0,0.995313
0.5171694901798941,0,0.996875
0.5638862703981273,0,0.964671
0.34944179929435826,0,0.998270
0.5044035856145727,0,0.980292
0.6456770004960036,0,0.994293
0.7143481704065643,0,0.999453
0.6460572427732261,0,0.971847
0.4090168229730292,0,0.988175
0.6275191257761523,1,0.999779
0.7223280009456701,0,0.997908
0.6631561282697535,0,0.994566
0.675231591351072,0,0.994285
0.7107943637595076,1,0.999734
0.6317746104540393,0,0.995418
0.6842045494597758,0,0.989685
0.642967241521353,0,0.998321
0.5824601376334119,1,0.999495
0.5077799123433203,0,0.994895
0.527022181609531,0,0.989234
0.5461455031748659,0,0.997409
0.5708962583969804,0,0.991362
0.5620810349943808,0,0.987630
0.5069192061368091,0,0.999027
0.638078075803793,0,0.975941
0.6511177362344983,0,0.990426
0.7031051272359187,1,0.999945
0.582769049202862,0,0.988677
0.6660665655464301,1,0.999510
0.7645517892509832,0,0.987374
0.7315767539740822,0,0.999227
0.7160199675540891,1,0.999942
0.7494229880609927,0,0.982163
0.8039805862541546,1,0.999672
0.6975168088379394,0,0.992663
0.7125206727950028,1,0.999777
0.6992071731128809,0,0.997032
0.6948659640113476,1,0.999653
0.5504123863046155,0,0.996183
0.5940957969644135,0,0.997931
0.5670977625219208,0,0.998441
0.6211624472171814,0,0.996208
0.6495535030078718,1,0.999712
0.6217417069587275,0,0.998213
0.6756934371106368,0,0.998355
0.6258694224906158,0,0.998045
0.6948522355318687,0,0.999353
0.7372727174722399,0,0.996559
0.7287524868289265,0,0.996706
0.6296298957670612,0,0.999163
0.7762177640296728,0,0.999020
0.6721480532055719,1,0.999890
0.7447637988829534,1,0.999670
0.7888310071217111,1,0.999946
0.5979940764174395,0,0.995063
0.4529132492029692,0,0.995081
0.5885912525363389,0,0.995091
0.5142531509855517,0,0.999141
0.47046446123331287,0,0.998072
0.5698129502357825,0,0.998093
0.47650869937501084,0,0.974876
0.5354741349146611,0,0.986696
0.6450484057848406,0,0.998340
0.5988048334791307,0,0.997512
0.5556650958808262,1,0.999802
0.5260164728924479,0,0.997683
0.45587441949387375,0,0.996466
0.5733262595713174,1,0.999804
0.6997334095810088,0,0.995728
0.7045986342173717,0,0.978937
0.6822267873492267,0,0.993812
0.6365533083804247,0,0.999095
0.7263545013076372,1,0.999733
0.6885218878108722,0,0.986629
0.6190192028566401,0,0.985725
0.6131811554763583,0,0.993859
0.6928750319178103,0,0.992746
0.673093644371267,0,0.991980
0.6803824812271208,0,0.999282
0.7301851478212549,1,0.999779
0.7375871519700289,1,0.999555
0.708804548485119,0,0.993700
0.7670119246315223,0,0.992679
0.8014758215718633,0,0.986139
0.8117610057696889,0,0.998173
0.7710963267888089,1,0.999579
0.8027479419124008,0,0.995354
0.7395660334203565,0,0.998638
0.6922533048979385,1,0.999891
0.7753202488848632,0,0.999254
0.7645240599679392,0,0.996916
0.7475246501727326,0,0.997404
0.6509677792481962,1,0.999946
0.6371276220785903,0,0.989645
0.6850379644640833,0,0.994446
0.6495506216099299,0,0.983727
0.6066752618911984,0,0.966438
0.6072932747839654,1,0.999834
0.43144293694440194,0,0.979623
0.5458774030796082,1,0.999727
0.6392813179855925,1,0.999946
0.6837150459555367,0,0.998739
0.5416658721828577,0,0.998395
0.4961892897085958,0,0.999181
0.5200195495910509,1,0.999507
0.5124883826979384,0,0.954755
0.5974882656946016,0,0.994963
0.6188735934118105,0,0.997144
0.5856912895003311,0,0.988311
0.5874818729103233,1,0.999667
0.5802006565743011,0,0.999048
0.5347976562073283,0,0.989473
0.5909234748132971,1,0.999726
0.6185066982124645,0,0.997219
0.6593700822023476,0,0.997498
0.5696486887961656,1,0.999667
0.6122123290464266,0,0.985440
0.6572373433707612,1,0.999530
0.5445711962558976,1,0.999841
0.6320893231587492,0,0.967523
0.6627688549675287,0,0.998993
0.5834742580568119,0,0.986269
0.6075680307599856,0,0.998877
0.5049281934403317,0,0.993010
0.5897575435536482,0,0.995559
0.6545809715984217,0,0.998871
0.702526132680454,0,0.982315
0.791473406012518,0,0.999344
0.7014538189689348,1,0.999948
0.7527463362728327,0,0.999214
0.7035881742929992,0,0.981918
0.7099641558871449,0,0.998982
0.724058715182047,0,0.989790
0.7402826680732479,1,0.999842
0.7475999711007901,0,0.984239
0.5951741360591544,0,0.987788
0.5406889533828084,0,0.996236
0.5231109371804327,0,0.999264
0.6649864472231257,0,0.998211
0.5750192357884961,0,0.996154
0.6289386241187761,0,0.999297
0.460423316847369,0,0.994571
0.42680504625828575,0,0.998025
0.5278963573058262,0,0.982906
0.5657809405726076,1,0.999727
0.6021845371430851,0,0.998569
0.5243887002578622,0,0.988477
0.5351370524417524,0,0.997472
0.555398959137841,0,0.991286
0.5484764803962721,0,0.998811
0.5645789003506878,0,0.996951
0.5714557703870743,0,0.998878
0.6263274743029624,0,0.996920
0.6739121837991466,1,0.999575
0.6384707900713946,1,0.999620
0.594471372892563,0,0.994415
0.6991299568574632,0,0.983993
0.6694135890233085,0,0.999004
0.6362701723654332,0,0.997566
0.7161449942735013,1,0.999664
0.6262480299594688,0,0.997613
0.6700314229756619,0,0.997879
0.7043181161678864,0,0.964025
0.6733051176597268,0,0.958779
0.7146978157255001,0,0.975558
0.7387889825491701,0,0.998895
0.6472697834330727,0,0.996115
0.6513403288825235,0,0.991328
0.6174065342552395,0,0.999361
0.5151752942431483,0,0.991873
0.5487090654454294,0,0.993977
0.6626028232925796,0,0.991253
0.5719950671916756,0,0.997327
0.574215364511861,0,0.999104
0.7014421950812169,1,0.999688
0.6753449434294958,0,0.989966
0.7579638901837742,1,0.999782
0.7425444651296366,1,0.999688
0.6983265606423059,0,0.996450
0.6924729692365115,0,0.969170
0.7547682016506925,1,0.999844
0.769947290756802,1,0.999842
0.7610810503003906,0,0.988405
0.7596231259448507,0,0.995405
0.7742532843968118,0,0.988119
0.7649469302902442,1,0.999616
0.7310368210349467,0,0.999361
0.7260556032853138,0,0.995730
0.7773666685433712,0,0.995104
0.53792480142328,0,0.990947
0.5229342844178689,0,0.995615
0.6377472535595321,0,0.997883
0.735355995905421,1,0.999950
0.6996404109373876,0,0.999024
0.5345568969678889,0,0.991106
0.6074574182058613,0,0.975371
0.6665571825597872,0,0.999149
0.6975507300772196,0,0.999273
0.646917431346221,0,0.970563
0.6370338296152281,1,0.999659
0.6995263892129965,1,0.999946
0.6752445969920376,0,0.998863
0.740512279032577,0,0.999035
0.7539419674224664,0,0.996039
0.7280383604881876,0,0.996120
0.7888769942884093,0,0.999365
0.7401465808606809,0,0.998741
0.708526044210857,1,0.999889
0.731173824615698,1,0.999579
0.78385427785682,1,0.999893
0.7512866897788273,1,0.999784
0.7377677115989932,1,0.999662
0.6762339105951379,0,0.997262
0.6970938695022363,0,0.997808
0.7021212145968989,0,0.998713
0.6298811931662599,0,0.997662
0.6971863253859152,0,0.998935
0.5488592894006967,0,0.996992
0.6245432314145442,0,0.998863
0.5572816500139659,0,0.971576
0.585352241602119,0,0.999107
0.5919561192070686,0,0.999425
0.6551253225645511,0,0.995954
0.5836017232089635,0,0.998850
0.7098415035197803,1,0.999618
0.7085058696607129,0,0.994724
0.7046607609090292,0,0.995310
0.7345757341094983,0,0.992182
0.7289494131137084,0,0.996090
0.7102036826777265,0,0.985481
