0.9422038491719467,1,0.999979
0.7267839690209049,0,0.997715
0.910550280865332,1,0.999941
0.9894518759975164,1,0.999979
0.9705392963528129,1,0.999982
0.9587954471869646,0,0.999674
0.8746711073595121,1,0.999847
0.6987734240097371,1,0.999807
0.8856430410400444,1,0.999975
0.9775396280664489,1,0.999975
0.8680427419336879,1,0.999975
0.9018646855309571,0,0.999439
0.924969362550161,0,0.999148
0.9705997270133978,1,0.999947
0.9562025752734544,1,0.999962
0.940445803394859,1,0.999950
0.9391461811974993,1,0.999918
0.9648624904044771,1,0.999758
0.951790571380024,1,0.999969
0.934787640211425,1,0.999972
0.9132186118060724,1,0.999963
0.9458621074051933,1,0.999960
0.9397832571882611,1,0.999967
0.9214927558274384,1,0.999857
0.957771030087299,1,0.999912
0.9270611718003899,1,0.999964
0.8980051310053956,1,0.999972
0.9265695276311626,1,0.999971
0.9547566010465857,1,0.999917
0.9528764863693945,0,0.999276
0.8859564767550656,1,0.999970
0.931687604746943,1,0.999943
0.9626478134221392,1,0.999817
0.9579691777292095,1,0.999909
0.9452778835048772,1,0.999909
0.9636494159339735,1,0.999819
0.9646376909655059,1,0.999966
0.9597009585091435,1,0.999970
0.9544999861894454,1,0.999970
0.9591855192574084,1,0.999961
0.9062001664628387,1,0.999981
0.9243452041847914,1,0.999981
0.8881851109031131,0,0.999688
0.8498177155513148,1,0.999900
0.9484651734211038,1,0.999979
0.9552195545300047,1,0.999923
0.9747351067235327,0,0.999475
0.8617643031273752,1,0.999979
0.9595190733725986,1,0.999843
0.8695504032042524,0,0.998397
0.9443441393297456,1,0.999860
0.944192696316699,1,0.999875
0.9666410424264615,1,0.999947
0.9076805435256564,1,0.999982
0.9354869713679665,1,0.999981
0.8695339790641404,1,0.999981
0.9183072932700567,0,0.999495
0.9471403248554339,0,0.999522
0.8939231775641597,0,0.999579
0.9629833302442816,1,0.999803
0.9730335306089197,0,0.998355
0.8177482413464909,0,0.992453
0.90255423315229,1,0.999642
0.9877992595535254,1,0.999961
0.9742461493156386,1,0.999922
0.9704015911180177,1,0.999949
0.9746282748775082,1,0.999926
0.8690777179391094,0,0.999314
0.9030402722473686,0,0.997807
0.8107179076761852,1,0.999947
0.9829966627998786,1,0.999965
0.906816346866167,1,0.999952
0.9529194927988114,1,0.999978
0.9682429095243474,1,0.999979
0.9635083354965018,1,0.999902
0.9175619294619913,1,0.999848
0.9532309664961635,0,0.999395
0.9805795821066327,1,0.999979
0.8939888188820025,0,0.999714
0.869145875533144,0,0.999675
0.9885733040431017,1,0.999974
0.9712166708893076,1,0.999867
0.948815637955015,0,0.999513
0.9156857896166611,0,0.982394
0.9373068898797087,1,0.999978
0.9711993458904304,1,0.999977
0.9421569582973743,1,0.999976
0.8935162260806394,1,0.999971
0.9291819265472988,1,0.999975
0.9387009489296017,1,0.999974
0.9073683769919205,1,0.999973
0.5853912376310869,0,0.998539
0.948566408571534,1,0.999273
0.9295082248722092,1,0.999059
0.9461071875129817,1,0.999724
0.9612947137030114,1,0.999866
0.929438735646204,1,0.999982
