0.9402585702557007,1,0.999979
0.9787903445733417,1,0.999980
0.9781313305264048,1,0.999918
0.9776310026544952,1,0.999979
0.9493181777516918,1,0.999981
0.9273337238943171,0,0.999743
0.9201014104444014,1,0.999980
0.9197977664469608,1,0.999942
0.9080017080928154,1,0.999978
0.9626339518628269,1,0.999978
0.9434539881781668,1,0.999908
0.964259934458298,1,0.999978
0.9435579997179497,1,0.999978
0.9269621779944541,1,0.999956
0.9396477609007516,1,0.999978
0.9592136232026354,0,0.999342
0.9629179654775192,1,0.999979
0.9750985135078102,1,0.999982
0.9389280800974242,1,0.999979
0.9343386588252272,1,0.999980
0.9716640182067194,1,0.999980
0.9127578737892513,0,0.984522
0.9454788719979302,1,0.999954
0.9372818252545841,1,0.999980
0.9509940334476134,1,0.999976
0.9594412392348912,1,0.999977
0.8168797163342763,0,0.996194
0.9322603703816065,1,0.999982
0.9291977835364714,0,0.998765
0.9219140859324354,0,0.998830
0.9763960410397501,1,0.999966
0.9756582124145129,1,0.999922
0.9869185989390238,1,0.999871
0.9886782160937982,1,0.999973
0.9924700979653531,1,0.999973
0.99234510360625,1,0.999942
0.9480989485290002,1,0.999982
0.9630010031869608,1,0.999943
0.9495254640953642,1,0.999948
0.952978742762775,0,0.999204
0.9314757217752583,1,0.999959
0.9469126368473504,1,0.999972
0.9429091805310598,1,0.999971
0.8609584810128088,1,0.999978
0.9770573712472821,1,0.999979
0.9261676380072531,1,0.999964
0.9322899820873568,1,0.999693
0.9551830250797841,1,0.999966
0.9699400694568628,1,0.999980
0.9330530127717361,1,0.999851
0.9260479572243389,0,0.999493
0.8218186796736594,1,0.999975
0.9581151794559144,1,0.999946
0.9101999533337239,1,0.999960
0.9902980253698349,1,0.999982
0.9324846385187192,1,0.999951
0.940519105135238,0,0.999567
0.9627731099000114,1,0.999954
0.8693451822511585,0,0.999617
0.8670694881932027,1,0.999867
0.890110182367328,1,0.999960
0.854229824860014,1,0.999980
0.8261378110879962,0,0.999673
0.8735104403788706,0,0.998167
0.8709048426104712,0,0.999077
0.8446266302283018,1,0.999981
0.9307786674982977,1,0.999908
0.8846837487334083,0,0.994900
0.9449898322720091,1,0.999977
0.9502298549756921,1,0.999963
0.9338948840237159,1,0.999975
0.9627231656590071,1,0.999976
0.9422774813452213,1,0.999982
0.9653685951997345,1,0.999980
0.9514724803321934,1,0.999980
0.9615355473288445,1,0.999980
0.901482824382913,1,0.999976
0.9264175017664227,1,0.999982
0.9511025736960378,1,0.999982
0.8919356197078634,1,0.999980
0.8917441021907543,1,0.999979
0.8935539228478608,1,0.999959
0.9528776285879539,1,0.999799
0.9745110385011665,1,0.999959
0.9360055399284155,1,0.999978
0.9234684392182432,0,0.979588
0.9669238050455511,1,0.999976
0.9786788200399857,1,0.999977
0.963083776707624,1,0.999961
0.8900676932511573,1,0.999942
0.9229332376449395,0,0.999718
0.9353995057649152,1,0.999972
0.9512857529490206,1,0.999977
0.962699697586589,1,0.999961
0.9643830783763045,1,0.999978
0.8857369145806007,1,0.999950
0.955684088909075,1,0.999949
0.9343826854558013,1,0.999976
0.9500602919262342,1,0.999942
0.9560813796783454,1,0.999975
0.9315230854156878,0,0.999502
0.9388426258552204,1,0.999974
0.9524985672393508,1,0.999978
0.9498401096562511,1,0.999982
0.9175493866662365,1,0.999978
0.9693037063003238,1,0.999977
0.9413856874418363,1,0.999979
0.940157399217936,1,0.999955
0.9416890675081708,1,0.999980
0.9124715021955634,1,0.999943
0.9481926401550149,1,0.999980
0.9113682788379357,1,0.999929
0.9606883099410268,1,0.999959
0.9114850430180202,1,0.999979
0.9281712946921092,1,0.999967
0.9604223720092755,0,0.999499
0.9364514172761685,1,0.999956
0.9712616986174926,0,0.999709
0.9447082314018984,1,0.999953
0.9617570587590054,1,0.999977
0.9788349646869268,1,0.999952
0.9359572799762217,1,0.999974
0.9755544994673526,1,0.999971
0.9543523440340155,1,0.999953
0.9390594016591127,1,0.999963
0.948309899977438,1,0.999975
0.8787887003310123,0,0.999747
0.8966894492759678,1,0.999977
0.92702326893937,1,0.999978
0.9670969280252643,1,0.999891
0.9485734043123875,1,0.999980
0.9208095558735957,1,0.999976
0.9334996753765049,1,0.999857
0.9600471326794198,1,0.999982
0.7880642044464939,1,0.999972
0.8384526620606474,1,0.999920
0.9506826669125106,1,0.999978
0.8891336383837531,0,0.976512
0.9622115051923322,1,0.999980
0.9627874837346202,1,0.999960
0.9358303164691364,1,0.999977
0.943830453830673,1,0.999980
0.946707761420307,1,0.999887
0.9629304634325349,1,0.999880
0.9494705195640852,1,0.999980
0.9443983259997594,1,0.999981
0.9765420348299814,1,0.999976
0.9640817445175216,0,0.990559
0.9623987660936053,1,0.999876
0.8414991452646045,1,0.999980
0.8894910901286459,1,0.999979
0.9531824895534736,1,0.999980
0.9361059104485214,1,0.999978
0.9583168284522101,1,0.999908
0.9516388822447306,1,0.999925
0.8588416068877075,1,0.999949
0.9285407173193762,1,0.999976
0.9551755052566084,1,0.999953
0.9041416676193218,1,0.999980
0.8875084594175336,1,0.999981
0.791907259474045,1,0.999980
0.8146482936553355,1,0.999960
0.9014576854278666,1,0.999981
0.8531808608203393,1,0.999981
0.9142859238066888,1,0.999981
0.8193305571751165,1,0.999962
0.8446814116969034,1,0.999981
0.8358503556611779,1,0.999981
0.8459550704638495,1,0.999981
0.8658691396234217,1,0.999981
0.818891391180573,1,0.999981
0.9573790675203154,1,0.999956
0.8902846507991998,1,0.999980
0.9168511900294146,1,0.999961
0.8853895322282633,1,0.999981
0.956258550678302,1,0.999977
0.9506660619116903,1,0.999981
0.9779037786601902,1,0.999982
0.9588903953371585,1,0.999975
0.9930008177768552,1,0.999981
0.9860241224733097,1,0.999980
0.9148673755120036,0,0.998792
0.8439353518692966,1,0.999934
0.9552154303273099,1,0.999966
0.9645939091130386,1,0.999965
0.9506441852424506,1,0.999632
0.9400239727670859,1,0.999938
0.9616118272312855,1,0.999981
0.9532363784058571,1,0.999755
0.9827872950003512,1,0.999964
0.9675345134302736,1,0.999610
0.9679856942587576,1,0.999965
0.9491814551374005,1,0.999966
0.9777419994471338,1,0.999972
0.9556045579817137,1,0.999809
0.9427833643442489,1,0.999980
0.9401950376670092,0,0.978981
0.9382134990111785,1,0.999979
0.86584965827432,1,0.999975
0.9772732101616461,1,0.999979
0.9289294065089889,0,0.987917
0.9856571575004853,1,0.999925
0.9800539468603346,1,0.999814
0.9713526381688166,1,0.999974
0.9701675673266295,1,0.999919
0.9553575650802707,1,0.999981
0.9416955408859639,1,0.999980
0.9307783230837755,1,0.999935
0.8810097991970196,1,0.999970
0.9753454432692295,1,0.999862
0.9570596326758967,1,0.999856
0.9259896783217554,1,0.999980
0.9571806757485013,1,0.999936
0.9047398701905083,0,0.996804
0.9560881032392164,1,0.999955
0.9313109413633739,0,0.999649
0.9588444257792474,1,0.999880
0.9428626710685076,0,0.999285
0.9432567711734691,1,0.999857
0.9208176203457239,1,0.999921
0.9375184530010682,1,0.999803
0.939542854363876,1,0.999981
0.9725393128755628,1,0.999982
0.9199673307031722,1,0.999980
0.9250034935656591,1,0.999982
0.9436872046432802,1,0.999982
0.9348324564553931,1,0.999978
0.8428977012402558,1,0.999976
0.8162643819305037,1,0.999932
0.8347197332093977,1,0.999954
0.784674732612397,1,0.999977
0.7419939147076899,1,0.999979
0.910738481583307,1,0.999982
0.9458589469396048,1,0.999947
0.933713016062711,1,0.999931
0.9655969540776034,1,0.999962
0.9788657017128173,1,0.999968
0.968977262795523,1,0.999813
0.9730682879835055,1,0.999810
0.9698798825731357,1,0.999969
0.9715504169986919,1,0.999970
0.9364708826519413,1,0.999958
0.9647115632015413,1,0.999982
0.9735687636722503,1,0.999981
0.9345035482375009,1,0.999909
0.9754492992895771,1,0.999982
0.96266882129998,1,0.999907
0.9494155509508048,1,0.999976
0.9520657045686434,1,0.999926
0.9259403125408097,0,0.999498
0.9787457046650454,0,0.999746
0.9558304496295805,1,0.999979
0.9275436385362317,0,0.998883
0.9270670691297002,1,0.999977
0.9265851399961532,1,0.999982
0.9370851016012233,0,0.999601
0.9423826078272991,0,0.970714
0.8956746876879416,1,0.999961
0.9314294553979624,1,0.999915
0.9246889377135344,1,0.999982
0.9246712207672821,1,0.999974
0.9395711979783934,1,0.999975
0.8924841918219015,1,0.999953
0.9235026325926109,1,0.999953
0.84804928290335,0,0.971793
0.8953319817045539,0,0.976271
0.9529113652381017,1,0.999978
0.9506365396610531,1,0.999979
0.9690649384632328,1,0.999982
0.9349670636547073,1,0.999981
0.9777530763255545,0,0.999379
0.9768990416928001,1,0.999938
0.9773047815503975,1,0.999957
0.9838510116621152,1,0.999979
0.9831292000270863,1,0.999981
0.969924398132075,1,0.999981
0.9523618367544713,1,0.999977
0.9377011348577963,1,0.999959
0.9802353236461502,1,0.999957
0.9518071611000606,1,0.999695
0.9791473433147196,1,0.999937
0.98839019120827,1,0.999962
0.9852429532106337,1,0.999981
0.9624845503514553,1,0.999925
0.9271387122033382,0,0.965932
0.9438309222113067,1,0.999981
0.8990027559219973,1,0.999808
0.9770764396618095,1,0.999922
0.9668449045390547,1,0.999979
0.93525404873631,1,0.999886
0.8222466063693034,0,0.999547
0.9148526931873657,1,0.999841
0.8855639856900009,1,0.999969
0.9143051415803541,1,0.999912
0.9163100735042209,1,0.999876
0.9460957710811749,1,0.999971
0.931161532116304,1,0.999970
0.8925831910155579,1,0.999971
0.9041270139992819,1,0.999970
0.9082715901214047,1,0.999970
0.9418718891562924,1,0.999792
0.8653268789159185,1,0.999971
0.9459814126157652,1,0.999979
0.9514311702392996,1,0.999927
0.974732547076161,1,0.999935
0.9674549038715408,1,0.999976
0.9763132200705761,1,0.999981
0.9891299099095319,1,0.999980
0.9592609833765412,1,0.999956
0.9758485461270239,1,0.999982
0.9655941976675094,1,0.999978
0.9565631255025355,1,0.999857
0.8799211495299759,1,0.999961
0.921549460680173,1,0.999970
0.9561659937089294,1,0.999980
0.953593729605847,1,0.999982
0.9375088037992817,1,0.999943
0.9837739348946525,1,0.999900
0.9214524211564796,0,0.997782
0.9418556216841113,1,0.999979
0.9643319583120578,0,0.999195
0.9098269993874039,1,0.999981
0.9425128898778564,1,0.999976
0.9032720639304425,1,0.999875
0.9100467814017605,1,0.999964
0.9339791141505002,1,0.999929
0.9366020080951959,1,0.999982
0.9564667304492176,1,0.999957
0.9833499949782325,1,0.999980
0.94967614429309,1,0.999982
0.9804891806392255,0,0.998771
0.9737337138259013,1,0.999975
0.8133775832944714,1,0.999973
0.9677752976972913,1,0.999964
0.9310633649286605,1,0.999978
0.9536720513525078,1,0.999980
0.9111553913823147,1,0.999981
0.9449916044217923,1,0.999982
0.9242033697696742,1,0.999980
0.9579420243128325,1,0.999982
0.9091673316153194,1,0.999981
0.840181313385234,1,0.999903
0.9420975255494238,1,0.999980
0.9750215488397059,1,0.999919
0.9593472440707845,1,0.999982
0.9501295989688262,1,0.999982
0.8442526523802882,0,0.993450
0.8862459170736668,1,0.999979
0.9694333352371155,1,0.999978
0.9870624369085754,0,0.999686
0.9845141852349989,0,0.999678
0.9473198542805316,0,0.991439
0.9618861359548903,0,0.970392
0.9412522029392089,1,0.999976
0.9511133198778864,1,0.999977
0.9627516531485651,1,0.999947
0.9394897518616633,1,0.999978
0.957795046168352,1,0.999978
0.9317920602471681,1,0.999979
0.9487277597020721,1,0.999978
0.9065206754673133,1,0.999904
0.9773517097504717,1,0.999968
0.9047650596049653,1,0.999982
0.8343588375164726,0,0.999171
0.9457872752370923,1,0.999939
0.9577958299329,1,0.999887
0.9907727992562333,1,0.999967
0.9706331074612667,1,0.999980
0.9537665791626931,1,0.999975
0.863654808298488,1,0.999980
0.909772208935254,1,0.999813
0.9363883198178227,1,0.999974
0.920619411422419,1,0.999840
0.9642550517702375,1,0.999974
0.9596065576975693,1,0.999947
0.9607470575806238,1,0.999982
0.9569056941027608,1,0.999982
0.9463862919097406,1,0.999949
0.9792987114919558,1,0.999979
0.9279487807419186,1,0.999913
0.9529622891143708,1,0.999979
0.9406100797399566,1,0.999958
0.9179933038112231,0,0.999705
0.9442022240518078,0,0.999708
0.9332894587597512,1,0.999981
0.9490632315573106,1,0.999804
0.9202193280771902,1,0.999982
0.9489203189481629,1,0.999978
0.9168704318918334,1,0.999981
0.970277078841631,1,0.999931
0.9083096681441584,1,0.999978
0.9410888709345129,1,0.999957
0.9631046234970049,1,0.999966
0.8509987592874142,1,0.999964
0.969953653100567,1,0.999976
0.9579242860980289,1,0.999929
0.9479791496681194,1,0.999791
0.954899828921963,0,0.999223
0.9492748394822367,0,0.998402
0.9620910956386393,0,0.989090
0.8198686484531374,1,0.999900
0.8993439334079678,1,0.999982
0.9694168345618681,1,0.999975
0.92799504858416,0,0.996702
0.9471377663087623,1,0.999980
0.9080923947478278,1,0.999867
0.9211242860443764,1,0.999960
0.9518083836286937,1,0.999826
0.9597377136078025,1,0.999981
0.9069276589779787,1,0.999924
0.9780265776548043,1,0.999907
0.9738847405264194,1,0.999832
0.9693200410884777,1,0.999982
0.9630583079391574,1,0.999976
0.939181672223644,1,0.999978
0.9635657801181998,1,0.999980
0.9370707096734351,1,0.999958
0.9587325945407719,0,0.999431
0.9590664842208627,1,0.999981
0.9321895839727031,1,0.999925
0.8589788372580117,1,0.999919
0.9627118570869101,1,0.999978
0.9566575864598725,0,0.999730
0.8540916184954661,1,0.999980
0.8816365126613724,1,0.999882
0.9134268367162783,1,0.999950
0.9638742848532631,1,0.999981
0.8522682670454895,1,0.999981
0.9219797249634359,1,0.999978
0.9485058000696837,1,0.999982
0.9120736443573189,1,0.999971
0.8647354492362636,1,0.999974
0.9491642012285317,0,0.992369
0.8639555300875341,0,0.999628
0.9232356438047697,1,0.999975
0.8854008681973521,1,0.999974
0.838870967955092,1,0.999845
0.9362173622760035,1,0.999920
0.9809225659827545,1,0.999979
0.9666287550067791,1,0.999979
0.9309476131036695,1,0.999978
0.9173522749429082,0,0.998780
0.9610413240848024,1,0.999977
0.9560178787556427,1,0.999977
0.955663686970848,0,0.998803
0.9528911953522142,1,0.999977
0.8911450563676108,1,0.999971
0.8997007456043387,1,0.999876
0.9090414894491737,1,0.999962
0.9595491593461831,1,0.999855
0.9764575023141219,1,0.999973
0.9193742328427666,1,0.999935
0.9007123940465402,1,0.999891
0.6884810023758762,0,0.970944
0.9362263988285136,1,0.999969
0.9565031717508542,1,0.999973
0.9538581152519425,1,0.999968
0.7947448223853039,1,0.999882
0.9730040255076408,1,0.999889
0.9745859668638114,1,0.999982
0.9546169242342742,1,0.999981
0.9513411452711931,1,0.999981
0.9715807102275709,1,0.999977
0.9717390716964575,1,0.999980
0.9589424534449346,1,0.999979
0.9490911879418574,1,0.999971
0.940607468518391,1,0.999976
0.9156585810451771,1,0.999936
0.9573257478202859,1,0.999979
0.9337922036516034,1,0.999979
0.9389769687067319,1,0.999957
0.9357941281173662,1,0.999839
0.8134882330367038,1,0.999878
0.7573897868264731,1,0.999972
0.9211049436765811,1,0.999888
0.9849527383052321,1,0.999981
0.8949423445612724,1,0.999931
0.9137061021157714,0,0.988900
0.9168230180794035,1,0.999605
0.9128710378738774,1,0.999982
0.9785286558542686,1,0.999953
0.9647962415343863,1,0.999928
0.9555181954870721,1,0.999980
0.9416760623769441,1,0.999864
0.9411977384085137,1,0.999978
0.9306997724519659,0,0.972989
0.9552145171186276,1,0.999979
0.8604738321648667,1,0.999981
0.9517927955305934,1,0.999945
0.8488438235721935,1,0.999980
0.8669028751097669,1,0.999870
0.9171124839447555,1,0.999960
0.8273784055286014,1,0.999982
0.9439648790250534,0,0.998440
0.9053399330597712,0,0.999762
0.9510477806604744,1,0.999978
0.9579904055099775,1,0.999981
0.9440872397923343,0,0.999533
0.8991799703410387,1,0.999943
0.9126227592255954,0,0.998646
0.9377915211240015,1,0.999974
0.9520834257106733,0,0.999002
0.9684172981783057,1,0.999979
0.9549119735638883,1,0.999976
0.9726864085705996,1,0.999973
0.9650640053487441,1,0.999979
0.9542635403315789,0,0.999158
0.9597789592089614,1,0.999982
0.9277907361888285,1,0.999981
0.8925305766167733,1,0.999982
0.9481348259112417,1,0.999939
0.9578313510131876,1,0.999957
0.9275185651476883,1,0.999982
0.9550769345183875,1,0.999951
0.9492115369168956,1,0.999966
0.9406369107657107,1,0.999982
0.9770064016942729,1,0.999980
0.8642710786377317,1,0.999980
0.9689979721556623,1,0.999949
0.9497491822730327,1,0.999975
0.9240346503987157,1,0.999971
0.9550571595147159,1,0.999907
0.9275645113902861,1,0.999969
0.9772860842117854,1,0.999903
0.9237839831037973,1,0.999977
0.971445160955657,1,0.999976
0.9454966880217123,1,0.999978
0.9403217292859825,1,0.999842
0.9128467164103775,1,0.999980
0.9290617729910298,0,0.999430
0.927527300378682,1,0.999945
0.9400933032064744,1,0.999982
0.9467773240298328,0,0.999755
0.9324870287036462,0,0.999793
0.8721487703461254,1,0.999837
0.953147260463213,1,0.999982
0.9102802486073608,1,0.999982
0.9467284421505252,1,0.999980
0.9434459414047075,1,0.999978
0.8682794890730936,0,0.998956
0.9383649227098982,1,0.999962
0.8543587845415916,0,0.996492
0.8149359301314417,1,0.999975
0.8674052815446042,1,0.999975
0.8168713064581397,1,0.999974
0.8551586878551894,1,0.999975
0.8634876995177955,1,0.999959
0.8863522877789387,1,0.999969
0.8326037834670019,1,0.999970
0.8375525627355855,1,0.999970
0.8353016198640685,1,0.999906
0.8713131587527908,1,0.999972
0.9147083955372438,1,0.999979
0.9137331395612903,1,0.999896
0.9146793322062264,1,0.999977
0.9189152162846744,1,0.999973
0.8821286781955708,0,0.999563
0.8304530841420602,1,0.999979
0.928822356679532,1,0.999980
0.9691918619155481,1,0.999978
0.87237418415428,0,0.994047
0.9197921980937745,1,0.999980
0.8514926793778508,1,0.999969
0.8812999989893057,1,0.999862
0.9229781594260055,1,0.999720
0.9917866682477325,1,0.999904
0.9756528088952666,0,0.999297
0.968769972855705,1,0.999510
0.9756118745985775,1,0.999982
0.9812694605517758,1,0.999974
0.9867279287973073,1,0.999949
0.9743620547737628,0,0.999381
0.966647044588848,0,0.964766
0.9681675880901676,1,0.999897
0.9454407935330904,1,0.999978
0.9669563079387961,0,0.999721
0.9329714412860888,1,0.999937
0.8837654703801318,0,0.996651
0.8496624204315856,1,0.999789
0.9359625470866388,0,0.999471
0.8959265918293919,1,0.999813
0.9317146899968589,1,0.999944
0.9095853066777567,1,0.999982
0.9055280213402708,1,0.999978
0.934170059409734,0,0.999726
0.9331330007904658,1,0.999950
0.9216832299322898,1,0.999954
0.9389684841271433,1,0.999889
0.9456005098484448,0,0.999411
0.9573109556958963,1,0.999978
0.9636755072985191,1,0.999953
0.9703136286968754,1,0.999980
0.9537244800268067,1,0.999979
0.9641369700050532,1,0.999960
0.9514139296318982,1,0.999969
0.9602819042500803,1,0.999865
0.9620801698126765,1,0.999705
0.9355401128357573,1,0.999954
0.9403362283319718,1,0.999978
0.9435811173358853,0,0.999586
0.9477002893536657,0,0.998992
0.8847337594814456,1,0.999982
0.9709500620812443,0,0.999474
0.977430696254759,1,0.999980
0.9775006906947069,1,0.999982
0.9343723822956079,1,0.999919
0.8918802592891492,1,0.999943
0.9219140720766594,1,0.999981
0.9194172023266582,0,0.999428
0.8956631446978436,1,0.999980
0.8689584354120713,1,0.999980
0.9560008634350465,0,0.997871
0.9783909540548216,1,0.999885
0.9866050790092528,1,0.999962
0.9841260762630897,0,0.999707
0.9760103847545356,1,0.999981
0.937064630703851,0,0.999740
0.9535225536399962,1,0.999982
0.9671111815506221,1,0.999979
0.9163207429766927,1,0.999981
0.9369640853361163,1,0.999982
0.8877625211382045,1,0.999982
0.8229663931811614,0,0.999342
0.9585960109052968,1,0.999950
0.9460764217211179,1,0.999964
0.9514979745812553,1,0.999978
0.9378159245954144,1,0.999977
0.9087240102830226,1,0.999982
0.9846140598515207,1,0.999964
0.9582635691708792,1,0.999946
0.9118400251301754,1,0.999979
0.9333943175929915,0,0.999748
0.9647846639222728,1,0.999978
0.9472902572102563,1,0.999932
0.8911904755828282,1,0.999977
0.9607962718632737,1,0.999979
0.960293820509465,1,0.999982
0.8439617921662531,0,0.999155
0.9734837466888141,1,0.999981
0.9170834585967977,0,0.967103
0.878204778879763,1,0.999878
0.9049557172649713,1,0.999973
0.8377921996812676,1,0.999955
0.9351154387538102,1,0.999955
0.927838920703201,1,0.999977
0.9351940849341829,1,0.999977
0.9403456104746031,1,0.999933
0.9730132960569902,1,0.999977
0.9666786165736253,1,0.999967
0.9695000282995396,1,0.999971
0.9609450734682473,1,0.999982
0.9460116330359136,1,0.999947
0.933722630079983,0,0.999699
0.9596400439930425,1,0.999981
0.9335054839854188,0,0.999688
0.9579438378622214,1,0.999949
0.969372159445464,0,0.999701
0.9771809211176661,1,0.999923
0.9748984133254578,1,0.999976
0.9689096885657742,1,0.999930
0.9539749093671187,0,0.998744
0.9777154273095395,1,0.999981
0.9516201590972052,1,0.999840
0.9595692800356858,1,0.999942
0.9383686146787618,1,0.999955
0.9447167324484121,1,0.999978
0.8164935316336205,0,0.996387
0.9437965387975608,1,0.999932
0.9090100614664338,1,0.999972
0.95274233830277,1,0.999971
0.9384252393442761,1,0.999971
0.9010262223233346,1,0.999971
0.9196966907847772,1,0.999971
0.9354342929206242,1,0.999940
0.9279429360339243,0,0.999617
0.9288640536839394,1,0.999978
0.919613668679222,1,0.999969
0.969995436868369,1,0.999982
0.8713769021580465,1,0.999979
0.959373770646987,1,0.999980
0.8338801304090396,0,0.972413
0.9772124912231305,0,0.982126
0.9868045048870931,1,0.999975
0.9206248598800212,1,0.999953
0.9379738412730854,1,0.999979
0.9110189257635589,1,0.999982
0.9752002719377365,1,0.999978
0.9301142747182007,0,0.897205
0.9771466013423835,1,0.999867
0.9789394647768419,1,0.999982
0.972033571963268,0,0.971855
0.9693587332112051,1,0.999982
0.946757036093183,1,0.999892
0.9017856239775364,1,0.999941
0.9300682698821376,0,0.983233
0.9450775130332205,1,0.999979
0.9262977977109846,1,0.999954
0.94268012953904,1,0.999979
0.9815457052756357,1,0.999974
0.9242476530614084,1,0.999978
0.9534457438881382,1,0.999860
0.891932526879809,1,0.999980
0.8955694534370372,1,0.999943
0.9486615426638094,1,0.999980
0.872413393434363,0,0.999625
0.9091446375519657,1,0.999950
0.9493307443671138,1,0.999872
0.954323745427002,1,0.999892
0.9440827954173835,1,0.999975
0.9798923964961458,1,0.999815
0.9426565599038921,1,0.999980
0.9602747384976396,1,0.999885
0.9409156857352489,1,0.999982
0.9430773341386325,1,0.999922
0.9811767769478162,1,0.999959
0.9012648679948869,0,0.999672
0.933498108941558,1,0.999982
0.8934979898190848,1,0.999979
0.9605141092525139,1,0.999979
0.9516452329997425,1,0.999967
0.8986201244113993,0,0.999450
0.881548000518724,1,0.999980
0.9478908064495897,1,0.999970
0.9576245788238873,1,0.999793
0.9449645543062155,1,0.999961
0.9233216004584818,1,0.999929
0.9658147488687033,1,0.999976
0.9089457451349994,1,0.999958
0.9696216504822612,1,0.999943
0.8832058309264086,1,0.999955
0.9544031703459719,1,0.999977
0.9188152210081614,1,0.999982
0.9012911782530004,1,0.999925
0.8900579003184488,0,0.999629
0.9635561121575057,1,0.999909
0.9624098546352479,1,0.999920
0.9309556588460243,1,0.999897
0.9296774722800344,1,0.999964
0.8398492444034353,1,0.999942
0.880187485991135,1,0.999981
0.907463921313743,1,0.999955
0.9282975296175452,1,0.999945
0.89025286487486,1,0.999918
0.8962880645480481,1,0.999969
0.9438489777988096,0,0.998410
0.9430404759476503,1,0.999860
0.9707305552422246,1,0.999947
0.9875271430144,1,0.999970
0.9738661648332088,1,0.999978
0.7739798853976527,1,0.999788
0.8049878270525531,0,0.999635
0.9401112015869195,1,0.999981
0.9597542048225235,1,0.999955
0.9642895167021241,1,0.999891
0.9870983732046748,1,0.999908
0.9703696232392315,1,0.999982
0.9698199775921406,1,0.999981
0.9169500978510122,0,0.970469
0.9772534548728584,1,0.999982
0.965749239181418,1,0.999761
0.9728576177744169,1,0.999820
0.9658447916870955,1,0.999980
0.9135048682617414,1,0.999965
0.9229910666877365,1,0.999973
0.9680603905769075,1,0.999982
0.967010912452989,1,0.999973
0.9851944333174468,1,0.999919
0.9506017384175752,1,0.999940
0.9443625019934843,1,0.999963
0.9189786570412518,1,0.999857
0.8805081705781076,1,0.999869
0.9230232471575697,1,0.999979
0.9639167553574517,0,0.999331
0.9216520346149208,1,0.999918
0.9786315218055378,1,0.999949
0.9886930260642196,1,0.999928
0.9860675943621425,1,0.999906
0.9805571288011382,1,0.999963
0.9601301517096256,1,0.999962
0.8981256275922014,0,0.999398
