0.3494982085360577,0,0.959798
0.2876576653807004,0,0.976476
0.3717358774150265,0,0.987668
0.5529488663287111,0,0.962308
0.5426040262843889,0,0.956438
0.670730370208214,0,0.999651
0.35314139852742993,0,0.999002
0.6856888257856323,0,0.995294
0.7569263138433047,0,0.999508
0.7075640164505536,0,0.997813
0.6516018482419462,0,0.997283
0.7438890331702389,0,0.990657
0.6618966426213888,0,0.925083
0.5448253510815919,0,0.936087
0.5323303416656932,0,0.951045
0.5346129640818583,0,0.999592
0.7388247017410138,0,0.998130
0.7168064408332615,0,0.999238
0.7090409665793068,0,0.980540
0.7289609444915205,0,0.984711
0.6022126804728855,0,0.999063
0.7830860953142915,0,0.991115
0.5157760895447735,0,0.998959
0.5724916421867488,0,0.998151
0.5804283806825304,0,0.999469
0.5106203405814932,0,0.971038
0.3462018171888403,0,0.993931
0.24947812747895762,0,0.961692
0.2521500929842891,0,0.952230
0.22146594311354187,0,0.927930
0.24358551602653578,0,0.942992
0.48376836386473115,0,0.996107
0.4649297189754114,0,0.993868
0.326410702057118,0,0.910071
0.3782118931946955,0,0.952354
0.5308978568670419,0,0.961572
0.4404235439670837,0,0.983596
0.42108376087626553,0,0.998169
0.4193776076719572,0,0.997261
0.42488053623494404,0,0.965569
0.5596215219419778,0,0.996931
0.6094698009844068,0,0.988281
0.5382084910223813,0,0.989658
0.4472343308434114,1,0.999748
0.36094653582242564,0,0.994177
0.3553370866252743,0,0.976013
0.4490769861852901,0,0.989908
0.5907353029055138,0,0.997215
0.5351089846234344,0,0.987576
0.22486996046404245,0,0.991872
0.2037954362281911,0,0.993683
0.21937560938553527,0,0.955260
0.3033462772854039,0,0.979410
0.2843330185723172,0,0.940472
0.31637916134416944,0,0.983843
0.41328714277420486,0,0.963787
0.35774164657401686,0,0.994623
0.4598217511104278,0,0.965580
0.36048572091907605,0,0.937708
0.5178907441778896,0,0.997553
0.4233709857151427,0,0.979428
0.3886243268534632,0,0.961879
0.38413446013420854,0,0.991907
0.45313762491605863,0,0.997312
0.3426228786564143,0,0.993795
0.45690402307579714,0,0.996632
0.5316635218669458,0,0.992528
0.504673467908512,0,0.996242
0.4896850937779817,0,0.995581
0.5814449103736998,0,0.988220
0.5122348390738893,1,0.999870
0.32076560460335496,0,0.990883
0.3235797167345447,0,0.987014
0.4003159543189861,0,0.994241
0.43711962943707516,0,0.984415
0.4507090052894713,0,0.970707
0.5073475710498555,0,0.999465
0.47597075982832926,0,0.962038
0.5669875300234235,1,0.999828
0.46775585842085143,0,0.984883
0.47097413281871453,0,0.997557
0.4170442501337789,0,0.980873
0.31808264360078703,0,0.995448
0.4123346269928185,0,0.933956
0.3530423873283728,0,0.994533
0.4551043632132882,0,0.994372
0.4422565548980958,0,0.959610
0.5265083287704683,0,0.982111
0.6597698848983362,1,0.999920
0.622479614002413,0,0.988269
0.7266544087511209,0,0.999791
0.7437646620939544,0,0.971749
0.6783076532481199,0,0.979396
0.6285628774360155,0,0.946081
0.5559570601399119,0,0.994312
0.6193837085959499,0,0.998013
0.5760152600554718,0,0.998162
0.5339553538085111,0,0.996296
0.6312881932990182,0,0.985801
0.6283557423260941,0,0.999230
0.38559079766584836,0,0.976205
0.5789785186199521,0,0.993900
0.5331831123575005,0,0.981877
0.5365023652082676,0,0.998406
0.5615845314454483,0,0.960570
0.44924755225525953,0,0.934652
0.38921900341485854,0,0.992298
0.39856772866664963,0,0.980788
0.41820517134224644,0,0.999737
0.4037001413390888,0,0.997126
0.34433643564480704,0,0.997033
0.38383856274321954,0,0.994962
0.29539527579933444,0,0.952734
0.20655482063183989,0,0.994044
0.2705544664493204,0,0.999171
0.3898450100092116,0,0.995675
0.3102225278281235,0,0.996934
0.35290711314758005,0,0.988800
0.34249508827830805,0,0.999281
0.3950336406889213,0,0.972253
0.5083103600020176,0,0.996926
0.4435014430151756,0,0.997765
0.5410078817597721,0,0.998047
0.4635033963736311,0,0.999548
0.29280461651489476,0,0.967029
0.37072488749682286,0,0.924222
0.39981259085399523,0,0.965482
0.4474171042758018,0,0.993945
0.49316385736486684,0,0.996992
0.47069726165105663,0,0.991221
0.5712250625066784,0,0.998148
0.5579402555689137,1,0.999805
0.6241890275138928,0,0.999755
0.36393265287543536,0,0.982292
0.4455297307495962,0,0.999398
0.44039323082912596,0,0.999530
0.5098122202185367,0,0.991181
0.5943524600730788,0,0.992642
0.5477406360825988,0,0.993395
0.5767832839581433,0,0.991902
0.562505427662444,0,0.986419
0.5675532125967364,0,0.992044
0.43218270367431333,0,0.992533
0.476405570085678,0,0.999631
0.4948256932922252,0,0.997392
0.4929711608101233,0,0.999721
0.6089244014900759,0,0.997489
0.5394916899872882,0,0.992584
0.6024798508188377,0,0.986611
0.6179281221513574,0,0.985163
0.4706384908287591,0,0.944217
0.48293333043547976,0,0.999633
0.319245708219216,0,0.942548
0.3512438192960698,0,0.933862
0.7898986183384632,0,0.955061
0.8581227753230037,0,0.996762
0.8950289858954222,0,0.995706
0.2969452673252837,0,0.995629
0.33694776517844865,0,0.999654
0.40264542962003436,0,0.932040
0.6255384547834838,1,0.999835
0.7715158888648941,0,0.990108
0.8126458316755389,0,0.999173
0.8615196037412018,0,0.992143
0.8354198066675675,0,0.971433
0.8956389381828201,1,0.999865
0.5361968522553441,0,0.998333
0.46579151988474327,0,0.997056
0.47216801226787536,0,0.983032
0.5754341564891665,0,0.999711
0.6201752890894998,1,0.999884
0.6206921963728302,0,0.998714
0.6150787115159979,0,0.993099
0.6102552095277162,0,0.999493
0.6707337461527214,0,0.998345
0.6623633619025281,0,0.992860
0.6751966618156208,0,0.998852
0.7366981920026789,0,0.996767
0.8318037997500217,0,0.999522
0.8158390618690434,0,0.998892
0.8086497472885705,0,0.971248
0.8512694273373561,1,0.999771
0.8583647079747536,1,0.999953
0.8170046687136233,0,0.999647
0.8615739107890813,1,0.999977
0.865003510474879,0,0.999394
0.9102635126217904,0,0.992442
0.9189933431324703,0,0.965689
0.9271254829426957,0,0.999391
0.9199280447741046,0,0.998761
0.9495571394568941,1,0.999953
0.9071822445326599,0,0.961070
0.4043518771886892,0,0.995581
0.6357205334784671,0,0.982764
0.7216462153716361,0,0.997557
0.781314356742845,1,0.999912
0.8246868144814873,0,0.940131
0.9431764554485204,0,0.999581
0.8880632524234344,0,0.999444
0.9310586683919605,0,0.997034
0.8794033178179572,1,0.999793
0.3248207647113975,0,0.905472
0.20487504735997572,0,0.988291
0.24313398156525817,0,0.989444
0.21551219414045272,0,0.982586
0.16571078839622427,0,0.975414
0.18248146909968682,0,0.977599
0.3389090429734211,1,0.999980
0.27839038506227826,0,0.932027
0.4693613803739153,0,0.970825
0.5025371608063134,0,0.988769
0.3027294707231441,0,0.986541
0.3262022306965843,0,0.996116
0.39577679528426424,1,0.999940
0.43135313343116727,0,0.999389
0.36913429453184377,0,0.936050
0.4471254015873343,0,0.999767
0.6278569176143504,0,0.998093
0.5211478426556035,0,0.979188
0.548838387590773,0,0.999724
0.5307547695298299,0,0.994787
0.4486626087523044,0,0.943545
0.5088475119564574,1,0.999888
0.3834163677259681,0,0.982253
0.48051115828223556,0,0.977298
0.4360216551393489,0,0.995919
0.4489457301738959,0,0.999395
0.4488124098201709,0,0.996014
0.408669388449285,0,0.982323
0.37988046098428013,0,0.994758
0.4157069820369248,0,0.988018
0.34723454977098794,0,0.965467
0.44974300986496,0,0.993641
0.45515551970121987,0,0.997612
0.3893711303488303,0,0.998015
0.3917727066077904,0,0.981527
0.24820716588498834,0,0.993810
0.20709527085911744,0,0.961553
0.22342922633460813,0,0.941546
0.26895826937914924,0,0.905599
0.25563549951719616,1,0.999839
0.3191574287798209,0,0.998429
0.308191533340813,0,0.983194
0.33870006381368045,0,0.997401
0.32899306670930073,0,0.990322
0.245612390760015,0,0.994670
0.4218193828387315,0,0.985561
0.34761162973174164,0,0.958268
0.5454364895265117,0,0.983941
0.39019864746461824,0,0.996794
0.46329868617008785,1,0.999820
