0.2835472302945453,0,0.969168
0.35148592277058543,0,0.962891
0.448664526174485,0,0.989155
0.5148276209293663,0,0.988707
0.7161809578668302,0,0.999333
0.8216604746719814,0,0.993371
0.8647953777504861,1,0.999868
0.9087350660006188,1,0.999882
0.9380543081474448,1,0.999892
0.9507556048411495,1,0.999980
0.955147679988081,0,0.943995
0.9617682919434444,0,0.953760
0.96919384897429,0,0.999456
0.9711086747917934,0,0.974212
0.9725160325454127,1,0.999958
0.9755130445181787,0,0.999698
0.9802699875453251,1,0.999982
0.9814618288441398,0,0.993904
0.9841167816228414,1,0.999982
0.9852255727311728,1,0.999884
0.9867472240432004,1,0.999932
0.9879042151839257,1,0.999982
0.9887367778467289,1,0.999927
0.9888068431528682,0,0.992839
0.9899083277313842,1,0.999982
0.9905358084535064,1,0.999955
0.9911358833006005,1,0.999982
0.9916475279182705,1,0.999982
0.9924708929287396,1,0.999906
0.9926997223904988,0,0.999677
0.9933338724903108,0,0.999431
0.9935905103934406,1,0.999873
0.993819576264047,1,0.999951
0.9943095234330476,1,0.999980
0.9944292208256721,1,0.999862
0.9948122880598363,1,0.999955
0.9950999282645866,1,0.999905
0.9954481487394312,1,0.999964
0.9956386873432889,1,0.999982
0.9958218037141987,1,0.999979
0.9961020428546644,1,0.999982
0.9962645979283236,1,0.999909
0.9965759616052737,1,0.999978
0.9967039201553243,1,0.999868
0.9970013907378447,1,0.999963
0.9972172687335764,1,0.999982
0.9974048399620036,1,0.999979
0.9974911328704849,1,0.999981
0.9976709572329139,1,0.999926
0.9978417287966763,1,0.999982
0.9980082423149271,1,0.999982
0.9981338419476831,1,0.999982
0.9982116363103203,1,0.999981
0.9982956876884735,0,0.999728
0.998344220033119,1,0.999981
0.9984249363025129,1,0.999960
0.9984840725532497,1,0.999982
0.890644804986728,0,0.999547
0.903476052644536,0,0.994403
0.9182254157355995,0,0.998739
0.9251252285013765,0,0.999494
0.9325617066076815,0,0.996167
0.9406180735265581,0,0.999475
0.9433040847686636,0,0.996952
0.9464131877088265,1,0.999978
0.9505510676551024,1,0.999861
0.954956367307202,0,0.999801
0.9571941080209989,0,0.997753
0.9587992931268516,0,0.999607
0.9618137050433848,0,0.997927
0.9642484476011718,0,0.999685
0.9665022249257673,1,0.999918
0.9676541875402237,1,0.999910
0.9692688669529914,0,0.997787
0.970062395077995,0,0.998691
0.9707800968910664,1,0.999981
0.9718595452430061,0,0.999374
0.9729563923733686,1,0.999939
0.9741138638084429,0,0.999281
0.9749529305874024,0,0.999414
0.9760749945743588,0,0.998063
0.9767977483040932,1,0.999980
0.9780060022828013,0,0.999014
0.9788422116831258,0,0.999581
0.979924690285814,0,0.999728
0.9809734102511543,0,0.999352
0.9819348065227872,1,0.999839
0.9826507118752629,0,0.998646
0.9833892242219644,0,0.999092
0.9841019014046624,1,0.999927
0.9848554428473009,0,0.999136
0.9855717619414996,1,0.999980
0.9863629953501593,1,0.999980
0.9869125634191751,1,0.999980
0.9876097235286909,1,0.999958
0.9880689486379206,0,0.999616
0.9884928026984691,0,0.998754
0.9208045304246764,0,0.999463
0.9372692486542554,1,0.999957
0.9515209618429478,1,0.999904
0.9592735103034824,0,0.999695
0.9621771543065811,1,0.999980
0.9667900717149391,0,0.998403
0.9724959859720881,1,0.999873
0.9746867605325418,1,0.999861
0.9767658839446978,1,0.999878
0.9784035881408174,0,0.998966
0.9801691479989888,1,0.999980
0.9817042299786691,1,0.999904
0.9825555233346034,1,0.999842
0.9833967080786004,1,0.999980
0.9843818886382815,1,0.999841
0.9849733947298397,1,0.999958
0.9854149514102376,0,0.997603
0.9855912397064792,1,0.999816
