0.9729316985816306,1,0.999958
0.9595344826711403,1,0.999854
0.9811448015198083,0,0.981555
0.9843108561851884,1,0.999847
0.9640239019458519,1,0.999979
0.9770922606032617,0,0.386900
0.9901585547866276,1,0.999962
0.9739184105652139,1,0.999971
0.9783820590517393,1,0.999962
0.9867110272987898,1,0.999906
0.9394169334179513,0,0.998735
0.9925128038384259,0,0.998887
0.9823143810676817,1,0.999977
0.9396901838255723,0,0.978256
0.9895601183641302,1,0.999901
0.9949828668319167,1,0.999968
0.9972293380035975,1,0.999936
0.9948981512637041,1,0.999969
0.9883482278675074,1,0.999975
0.9792320835905709,0,0.999165
0.9729852651529446,0,0.999600
0.9881848561858891,0,0.999641
0.970561106865225,1,0.999977
0.9624599709392823,1,0.999981
0.9558905492870402,1,0.999978
0.9574436520389161,1,0.999964
0.9812069049322781,0,0.999522
0.9859739284672684,0,0.961943
0.9710359034476211,1,0.999930
0.9438094320768663,1,0.999899
0.971510185316414,1,0.999957
0.9759539570666041,1,0.999981
0.9123197426357834,1,0.999975
0.933832815515648,1,0.999974
0.9869883016377156,1,0.999948
0.9689992592993941,1,0.999974
0.9701826047861084,0,0.994961
0.9575393726669332,0,0.999330
0.8470106729508282,1,0.999819
0.8367633902130652,1,0.999924
0.8651153150505246,1,0.999873
0.973878902745475,1,0.999878
0.9595465354431489,1,0.999934
0.9373932707358786,0,0.960110
0.9858025939266004,1,0.999963
0.9237659010902579,0,0.998860
0.9750054442888156,1,0.999942
0.9726957342478079,0,0.999682
0.984562577611128,1,0.999979
0.9748292480235355,1,0.999977
0.9572415659167985,1,0.999981
0.9525900385140074,1,0.999980
0.9746193535666547,1,0.999981
0.9665243637074188,1,0.999979
0.9576722601953174,1,0.999946
0.9769168473197296,1,0.999972
0.9848665074628132,1,0.999973
0.9742234965635026,1,0.999973
0.9603010601793055,1,0.999972
0.9356206007313007,1,0.999973
0.967197600166513,1,0.999974
0.967694766252653,1,0.999973
0.9644993974589705,0,0.999701
0.9373364546804744,1,0.999976
0.9556489915847257,1,0.999976
0.9876847342506169,1,0.999861
0.9777694389388442,1,0.999978
0.9657706657787826,1,0.999979
0.983043676646004,1,0.999963
0.9438276217552609,1,0.999961
0.9565581049649622,1,0.999980
0.809117985056276,1,0.999972
0.9739220207284162,1,0.999981
0.9749254751414572,1,0.999920
0.9913867680236014,1,0.999972
0.9861824523996917,0,0.999717
0.9853605896789742,1,0.999978
0.9846726567130887,0,0.999236
0.8953024944555091,1,0.999964
0.9673418454976532,1,0.999965
0.9717646823498779,1,0.999930
0.9849429849091976,0,0.999613
0.9790903332279275,0,0.994673
0.9637858800311175,1,0.999977
0.9715739427776808,1,0.999978
0.9497870861632329,0,0.997832
0.9411864292315656,1,0.999865
0.9759543691000814,1,0.999981
0.9557476517961582,0,0.999150
0.9842559484893435,1,0.999915
0.9691235364812151,1,0.999851
0.9861086546685324,1,0.999868
0.9457565891487341,0,0.949828
0.9796715849922057,1,0.999562
0.9773607579289346,1,0.999951
0.9558914210379301,1,0.999953
0.9732184662305238,1,0.999953
0.9756275400659883,0,0.999131
0.9534181213279738,1,0.999814
0.9063825820166796,0,0.997730
0.9868979302773929,0,0.999585
0.9829290782382051,1,0.999971
0.9817355609323835,1,0.999943
0.9652770740533155,0,0.999679
0.986593327864552,0,0.997941
0.9791737199553083,1,0.999968
0.9494096712289952,1,0.999975
0.9855337575134792,0,0.999653
0.9454713362252217,0,0.999685
0.9613511420224486,0,0.997049
0.9849386117423469,1,0.999885
0.974639336468191,0,0.999548
0.9840403209385803,1,0.999974
0.9860884065956046,0,0.998290
0.9733805789631009,1,0.999830
0.9783351463104843,1,0.999979
0.9146026021250195,1,0.999977
0.973532718266239,1,0.999960
0.9898207417963536,1,0.999922
0.9836465807400301,1,0.999959
0.9673540138348885,1,0.999941
0.9889946209347761,1,0.999941
0.9787289516977429,0,0.994880
0.967008182952479,0,0.981894
0.9568022065642492,1,0.999948
0.9768961776081679,0,0.999628
0.9576082576262448,1,0.999873
0.9734529495604106,1,0.999981
0.984388537602195,0,0.997133
0.9825267862965025,1,0.999784
0.9274776725891052,1,0.999976
0.962949172095574,0,0.999578
0.9505560041950851,1,0.999956
0.9526210741962018,1,0.999978
0.9688424135108191,1,0.999978
0.9884898482227764,1,0.999975
0.9707532555579779,1,0.999964
0.9765256834633289,0,0.999350
0.9627713101371775,1,0.999967
0.9762532830929345,0,0.999523
0.9647494283037643,0,0.999218
0.9894712600876907,0,0.999263
0.9073589539676565,0,0.999663
0.9801716729053794,1,0.999973
0.9633216233124177,1,0.999976
0.9439785853670732,1,0.999918
0.9796579439331824,0,0.999621
0.9647952441027107,1,0.999973
0.9662714517388912,0,0.999414
0.9669704001746564,1,0.999980
0.9713351225193232,1,0.999819
0.9769059632396303,0,0.998426
0.9564834006141347,1,0.999977
0.9641896086094476,1,0.999975
0.981926576757262,1,0.999952
0.9807213942021458,1,0.999943
0.7301497958454747,0,0.961798
0.9901059267294252,1,0.999962
0.9758413507909401,1,0.999980
0.9948897580549282,0,0.999602
0.993340949808751,0,0.967578
0.9902793334006342,0,0.999393
0.9936621738411979,0,0.999782
0.9875383977779031,1,0.999980
0.9933796922800294,1,0.999884
0.9896157847730667,1,0.999981
0.990231768229791,1,0.999981
0.9954874926016013,1,0.999981
0.9913860577922804,1,0.999981
0.9944556758940065,1,0.999981
0.9816207861669011,0,0.999290
0.9908530275986313,1,0.999978
0.9918113219803321,1,0.999956
0.9882240116125567,1,0.999979
0.9915766522929782,0,0.999696
0.9917676130548726,1,0.999978
0.9928231999836166,0,0.999737
0.9863100523190308,1,0.999935
0.9891047469011346,1,0.999979
0.9843330647803595,1,0.999977
0.9836206700884618,1,0.999978
0.9808187519378028,0,0.998377
0.9865373001384686,1,0.999980
0.9854155689100511,1,0.999942
0.9811385030352056,1,0.999978
0.986977151774383,1,0.999980
0.9932751811637263,1,0.999980
0.9854531597880781,0,0.999619
0.9930319671714726,1,0.999981
0.9934436760385971,1,0.999981
0.9743429392221564,0,0.999709
0.9914986983598629,1,0.999934
0.9928590903655027,1,0.999978
0.9906831563140148,1,0.999979
0.9910414043264886,0,0.998903
0.9904432531338184,1,0.999978
0.9903405952789839,0,0.999381
