0.024491766464751413,0,0.924675
0.038826628753791455,0,0.929367
0.06074635603995628,0,0.927616
0.975561017457828,0,0.283981
0.9989189885687638,1,0.999987
0.9992334941765468,0,0.971465
0.9999235283575453,1,0.999972
0.9999974695248264,1,0.999984
0.9999992025088472,1,0.999962
0.999999445190672,1,0.999988
0.9999997583950628,1,0.999974
0.9999998372378627,1,0.999956
0.9999999157944531,1,0.999969
0.9999999698143445,0,0.958422
0.9999999807761449,1,0.999978
0.9999999976967356,0,0.999863
0.9999999995565639,1,0.999990
0.9999999997339502,0,0.999814
0.9999999998372896,1,0.999962
0.9999999998443767,1,0.999951
0.9999999999567749,1,0.999980
0.999999999989624,1,0.999987
0.9999999999995905,0,0.999624
0.9999999999999927,1,0.999976
1.0,1,0.999984
1.0,1,0.999985
0.999999999999997,1,0.999980
1.0,1,0.999979
1.0,1,0.999962
1.0,1,0.999961
0.9999999999999929,1,0.999986
1.0,1,0.999864
1.0,1,0.999987
1.0,1,0.999989
1.0,1,0.999990
0.9999999999999913,1,0.999967
1.0,1,0.999985
1.0,1,0.999985
1.0,1,0.999991
0.9999999999999889,1,0.999941
0.9999999999999792,0,0.999810
1.0,1,0.999989
1.0,1,0.999968
1.0,1,0.999961
1.0,1,0.999989
1.0,1,0.999989
0.9999999999999888,1,0.999986
0.9999999999999982,1,0.999965
0.9999999999999902,1,0.999965
1.0,1,0.999988
1.0,1,0.999988
0.9999999999999876,1,0.999991
0.9999999999999771,1,0.999988
0.9999999999999939,1,0.999988
1.0,1,0.999990
1.0,1,0.999969
1.0,1,0.999987
1.0,1,0.999991
1.0,1,0.999987
0.9999999999999758,1,0.999989
0.9999999999999707,1,0.999986
1.0,1,0.999991
1.0,1,0.999987
1.0,1,0.999986
0.9999999999999553,1,0.999991
0.9999999999999695,1,0.999984
0.9999999999999827,1,0.999990
1.0,1,0.999979
0.999999999999976,1,0.999990
1.0,1,0.999987
0.999999999999988,1,0.999987
0.999999999999995,1,0.999987
1.0,1,0.999991
1.0,1,0.999986
0.9999999999999828,1,0.999991
1.0,1,0.999985
0.9999999999999936,1,0.999983
1.0,1,0.999987
1.0,1,0.999939
1.0,1,0.999987
1.0,1,0.999988
0.9999999999999849,1,0.999989
1.0,1,0.999991
1.0,1,0.999984
1.0,1,0.999991
1.0,1,0.999983
0.9999999999999936,1,0.999988
0.9999999999999994,1,0.999989
1.0,1,0.999989
0.9999999999999754,1,0.999991
1.0,1,0.999987
0.999999999999994,1,0.999986
1.0,1,0.999990
1.0,1,0.999990
0.999999999999988,1,0.999989
0.9999999999999754,1,0.999989
1.0,1,0.999989
1.0,1,0.999987
1.0,1,0.999974
1.0,1,0.999943
0.9999999999999994,1,0.999987
1.0,1,0.999989
0.9999999999999846,1,0.999989
0.9999999999999852,1,0.999955
1.0,1,0.999982
0.9999999999999979,1,0.999980
1.0,1,0.999986
0.9999999999999903,1,0.999987
1.0,1,0.999989
0.9999999999999932,1,0.999985
1.0,1,0.999987
1.0,1,0.999990
1.0,1,0.999988
0.9999999999999727,1,0.999986
1.0,1,0.999988
0.999999999999969,1,0.999989
1.0,1,0.999990
1.0,1,0.999990
0.9999999999999698,1,0.999992
0.9999999999999997,1,0.999987
1.0,1,0.999987
1.0,1,0.999989
1.0,1,0.999990
1.0,1,0.999989
1.0,1,0.999989
0.999999999999985,1,0.999989
0.9999999999999997,1,0.999988
1.0,1,0.999988
1.0,1,0.999987
1.0,1,0.999988
1.0,1,0.999988
1.0,1,0.999986
1.0,1,0.999986
0.9999999999999954,1,0.999983
0.9999999999999989,1,0.999986
0.999999999999987,1,0.999987
1.0,1,0.999986
0.9999999999999911,1,0.999987
0.9999999999999831,1,0.999983
0.9999999999999859,1,0.999991
0.9999999999999907,1,0.999986
1.0,1,0.999990
0.9999999999999962,1,0.999991
0.9999999999999944,1,0.999984
0.9999999999999902,1,0.999970
1.0,1,0.999942
1.0,1,0.999992
0.9999999999999971,1,0.999986
0.9999999999999936,1,0.999991
0.9999999999999925,1,0.999989
0.9999999999999766,1,0.999987
0.9999999999999812,1,0.999989
0.999999999999971,1,0.999988
1.0,1,0.999989
1.0,1,0.999987
1.0,1,0.999988
1.0,1,0.999988
0.9999999999999996,1,0.999988
0.9999999999999915,1,0.999989
1.0,1,0.999986
1.0,1,0.999989
0.9999999999999916,1,0.999987
0.9999999999999756,1,0.999990
0.9999999999999899,1,0.999989
1.0,1,0.999989
1.0,1,0.999989
1.0,1,0.999991
0.9999999999999837,1,0.999986
0.9999999999999768,1,0.999984
0.999999999999997,1,0.999980
0.9999999999999913,1,0.999972
1.0,1,0.999904
1.0,1,0.999990
0.9999999999999925,1,0.999989
1.0,1,0.999984
0.9999999999999922,1,0.999986
0.9999999999999933,1,0.999990
0.9999999999999776,1,0.999986
1.0,1,0.999989
1.0,1,0.999984
1.0,1,0.999989
1.0,1,0.999988
1.0,1,0.999988
0.9999999999999997,1,0.999990
0.9999999999999806,1,0.999987
0.9999999999999883,1,0.999983
0.9999999999999754,1,0.999986
1.0,1,0.999986
1.0,1,0.999990
1.0,1,0.999985
0.9999999999999931,1,0.999986
1.0,1,0.999987
0.9999999999999896,1,0.999986
0.9999999999999971,1,0.999988
0.9999999999999956,1,0.999977
0.9999999999999974,1,0.999988
1.0,1,0.999985
0.9999999999999801,1,0.999971
0.9999999999999983,1,0.999988
0.9999999999999949,1,0.999982
0.9999999999999956,1,0.999988
1.0,1,0.999989
1.0,1,0.999985
0.9999999999999948,1,0.999984
1.0,1,0.999991
1.0,1,0.999990
0.9999999999999982,1,0.999989
1.0,1,0.999984
1.0,1,0.999991
1.0,1,0.999982
0.9999999999999889,1,0.999990
1.0,1,0.999989
0.9999999999999625,1,0.999990
1.0,1,0.999990
0.9999999999999949,1,0.999989
1.0,1,0.999988
1.0,1,0.999990
0.9999999999999891,1,0.999988
1.0,1,0.999988
0.9999999999999891,1,0.999989
1.0,1,0.999991
1.0,1,0.999990
1.0,1,0.999988
0.9999999999999812,1,0.999988
0.9999999999999988,1,0.999990
1.0,1,0.999988
1.0,1,0.999988
0.9999999999999815,1,0.999988
1.0,1,0.999991
1.0,1,0.999989
0.9999999999999951,1,0.999988
1.0,1,0.999989
1.0,1,0.999989
1.0,1,0.999989
0.9999999999999697,1,0.999987
1.0,1,0.999985
0.9999999999999785,1,0.999990
1.0,1,0.999988
1.0,1,0.999991
0.9999999999999953,1,0.999978
1.0,1,0.999989
1.0,1,0.999990
1.0,1,0.999986
1.0,1,0.999991
0.999999999999999,1,0.999988
0.9999999999999947,1,0.999989
0.9999999999999938,1,0.999985
1.0,1,0.999988
0.9999999999999923,1,0.999989
0.999999999999996,1,0.999991
0.9999999999999974,1,0.999989
0.9999999999999862,1,0.999989
0.9999999999999744,1,0.999987
1.0,1,0.999990
0.9999999999999992,1,0.999987
1.0,1,0.999992
0.9999999999999875,1,0.999985
1.0,1,0.999985
0.9999999999999735,1,0.999989
1.0,1,0.999990
1.0,1,0.999986
0.9999999999999869,1,0.999983
0.9999999999999897,1,0.999970
0.999999999999975,1,0.999990
0.9999999999999974,1,0.999987
1.0,1,0.999980
1.0,1,0.999987
0.9999999999999508,1,0.999988
1.0,1,0.999988
0.9999999999999953,1,0.999989
0.9999999999999987,1,0.999991
0.9999999999999888,1,0.999988
0.9999999999999887,1,0.999986
1.0,1,0.999984
1.0,1,0.999989
0.999999999999996,1,0.999988
1.0,1,0.999989
0.9999999999999865,1,0.999987
1.0,1,0.999988
1.0,1,0.999990
0.9999999999999992,1,0.999988
1.0,1,0.999986
0.9999999999999852,1,0.999991
1.0,1,0.999990
1.0,1,0.999944
1.0,1,0.999991
1.0,1,0.999987
1.0,1,0.999989
0.9999999999999974,1,0.999986
0.9999999999999911,1,0.999990
0.9999999999999778,1,0.999989
0.9999999999999936,1,0.999990
0.9999999999999936,1,0.999990
1.0,1,0.999991
0.9999999999999944,1,0.999988
1.0,1,0.999987
0.9999999999999883,1,0.999991
1.0,1,0.999990
1.0,1,0.999990
1.0,1,0.999990
1.0,1,0.999990
1.0,1,0.999991
0.9999999999999916,1,0.999990
1.0,1,0.999990
1.0,1,0.999986
0.9999999999999958,1,0.999985
0.9999999999999956,1,0.999973
0.9999999999999928,1,0.999989
1.0,1,0.999989
1.0,1,0.999915
1.0,1,0.999970
0.9999999999999991,1,0.999984
0.9999999999999898,1,0.999985
0.99999999999999,1,0.999985
0.9999999999999958,1,0.999985
0.9999999999999692,1,0.999983
0.9999999999999752,1,0.999984
0.9999999999999927,1,0.999988
0.9999999999999756,1,0.999991
1.0,1,0.999989
1.0,1,0.999991
1.0,1,0.999961
1.0,1,0.999989
0.9999999999999981,1,0.999991
1.0,1,0.999986
0.999999999999986,1,0.999984
1.0,1,0.999985
0.9999999999999882,1,0.999985
1.0,1,0.999991
1.0,1,0.999989
1.0,1,0.999988
1.0,1,0.999990
0.9999999999999899,1,0.999988
0.999999999999985,1,0.999989
1.0,1,0.999986
0.9999999999999888,1,0.999989
0.9999999999999799,1,0.999989
0.9999999999999842,1,0.999990
1.0,1,0.999973
0.9999999999999933,1,0.999988
0.9999999999999898,1,0.999988
1.0,1,0.999987
1.0,1,0.999987
0.9999999999999841,1,0.999989
0.9999999999999847,1,0.999987
0.9999999999999895,1,0.999988
0.9999999999999907,1,0.999991
1.0,1,0.999988
0.9999999999999885,1,0.999987
1.0,1,0.999987
1.0,1,0.999987
1.0,1,0.999976
0.999999999999987,1,0.999986
0.9999999999999939,1,0.999990
0.9999999999999954,1,0.999989
1.0,1,0.999988
0.9999999999999806,1,0.999985
0.9999999999999764,1,0.999978
1.0,1,0.999988
0.9999999999999936,1,0.999989
0.9999999999999901,1,0.999974
0.9999999999999956,1,0.999991
0.9999999999999923,1,0.999972
1.0,1,0.999990
0.9999999999999835,1,0.999990
1.0,1,0.999989
0.9999999999999758,1,0.999990
1.0,1,0.999989
0.9999999999999785,1,0.999987
0.9999999999999865,1,0.999986
1.0,1,0.999991
1.0,1,0.999991
0.9999999999999996,1,0.999986
1.0,1,0.999985
0.9999999999999857,1,0.999986
0.9999999999999908,1,0.999986
1.0,1,0.999985
1.0,1,0.999986
0.9999999999999821,1,0.999986
1.0,1,0.999986
0.9999999999999857,1,0.999986
1.0,1,0.999986
1.0,1,0.999986
0.9999999999999896,1,0.999986
0.9999999999999901,1,0.999991
0.9999999999999917,1,0.999991
0.9999999999999918,1,0.999990
0.9999999999999959,1,0.999991
1.0,1,0.999988
1.0,1,0.999990
0.9999999999999764,1,0.999987
0.9999999999999896,1,0.999989
1.0,1,0.999987
0.9999999999999789,1,0.999989
0.9999999999999983,1,0.999989
0.9999999999999792,1,0.999989
1.0,1,0.999979
1.0,1,0.999989
0.9999999999999866,1,0.999990
1.0,1,0.999990
1.0,1,0.999991
1.0,1,0.999988
1.0,1,0.999990
1.0,1,0.999984
1.0,1,0.999982
1.0,1,0.999986
0.999999999999995,1,0.999991
0.9999999999999982,1,0.999990
0.9999999999999792,1,0.999989
0.9999999999999813,1,0.999986
1.0,1,0.999986
1.0,1,0.999985
1.0,1,0.999984
0.9999999999999974,1,0.999990
0.9999999999999905,1,0.999991
1.0,1,0.999990
1.0,1,0.999990
1.0,1,0.999983
0.9999999999999717,1,0.999983
0.9999999999999872,1,0.999981
1.0,1,0.999977
1.0,1,0.999982
1.0,1,0.999982
0.9999999999999785,1,0.999981
0.9999999999999845,1,0.999979
1.0,1,0.999978
0.9999999999999879,1,0.999991
0.9999999999999885,1,0.999988
0.9999999999999892,1,0.999983
0.999999999999994,1,0.999982
0.999999999999997,1,0.999983
0.9999999999999909,1,0.999983
1.0,1,0.999983
0.9999999999999932,1,0.999985
0.9999999999999974,1,0.999991
1.0,1,0.999989
1.0,1,0.999982
1.0,1,0.999983
1.0,1,0.999982
0.9999999999999821,1,0.999987
1.0,1,0.999987
0.9999999999999911,1,0.999987
0.9999999999999657,1,0.999987
1.0,1,0.999987
0.9999999999999843,1,0.999987
0.9999999999999909,1,0.999987
0.9999999999999966,1,0.999987
0.9999999999999928,1,0.999988
0.9999999999999833,1,0.999991
0.9999999999999933,1,0.999991
1.0,1,0.999987
0.9999999999999982,1,0.999987
1.0,1,0.999991
1.0,1,0.999974
1.0,1,0.999991
0.9999999999999781,1,0.999990
1.0,1,0.999990
1.0,1,0.999990
0.9999999999999841,1,0.999988
0.9999999999999688,1,0.999985
0.9999999999999988,1,0.999988
0.9999999999999876,1,0.999988
0.9999999999999816,1,0.999992
0.9999999999999962,1,0.999988
0.9999999999999899,1,0.999989
0.9999999999999969,1,0.999991
0.999999999999984,1,0.999989
1.0,1,0.999991
1.0,1,0.999990
1.0,1,0.999987
1.0,1,0.999991
1.0,1,0.999990
1.0,1,0.999990
0.9999999999999931,1,0.999990
1.0,1,0.999989
0.9999999999999747,1,0.999991
1.0,1,0.999992
1.0,1,0.999991
0.9999999999999908,1,0.999989
0.9999999999999809,1,0.999983
0.9999999999999979,1,0.999983
0.9999999999999756,1,0.999982
1.0,1,0.999982
1.0,1,0.999991
1.0,1,0.999991
0.9999999999999966,1,0.999989
1.0,1,0.999964
1.0,1,0.999989
1.0,1,0.999988
0.9999999999999927,1,0.999987
1.0,1,0.999989
1.0,1,0.999991
0.9999999999999972,1,0.999990
0.999999999999997,1,0.999988
0.9999999999999881,1,0.999990
0.9999999999999554,1,0.999989
0.9999999999999837,1,0.999986
1.0,1,0.999987
0.99999999999996,1,0.999988
1.0,1,0.999988
1.0,1,0.999987
0.9999999999999645,1,0.999987
1.0,1,0.999989
0.9999999999999907,1,0.999988
1.0,1,0.999991
0.9999999999999943,0,0.999773
0.9999999999999838,1,0.999987
1.0,1,0.999989
0.9999999999999957,1,0.999986
0.9999999999999833,1,0.999988
1.0,1,0.999991
0.9999999999999686,1,0.999988
1.0,1,0.999984
1.0,1,0.999988
1.0,1,0.999988
0.9999999999999776,1,0.999988
1.0,1,0.999987
0.9999999999999885,1,0.999987
1.0,1,0.999991
0.9999999999999947,1,0.999991
1.0,1,0.999988
1.0,1,0.999987
1.0,1,0.999988
1.0,1,0.999944
1.0,1,0.999989
0.9999999999999927,1,0.999984
0.9999999999999838,1,0.999984
0.9999999999999934,1,0.999991
1.0,1,0.999988
0.9999999999999967,1,0.999990
1.0,1,0.999985
0.9999999999999939,1,0.999975
0.9999999999999817,1,0.999989
1.0,1,0.999988
0.9999999999999964,1,0.999990
0.999999999999998,1,0.999985
1.0,1,0.999990
1.0,1,0.999990
0.9999999999999852,1,0.999989
1.0,1,0.999989
0.9999999999999888,1,0.999990
0.9999999999999876,1,0.999989
1.0,1,0.999988
1.0,1,0.999989
0.9999999999999829,1,0.999989
0.9999999999999722,1,0.999989
0.9999999999999946,1,0.999989
1.0,1,0.999991
0.9999999999999778,1,0.999990
0.9999999999999808,1,0.999990
0.9999999999999734,1,0.999989
0.9999999999999771,1,0.999989
0.999999999999975,1,0.999986
1.0,1,0.999990
0.9999999999999715,1,0.999990
0.9999999999999734,1,0.999988
1.0,1,0.999988
1.0,1,0.999985
1.0,1,0.999990
0.9999999999999916,1,0.999988
0.9999999999999971,1,0.999990
0.9999999999999982,1,0.999989
1.0,1,0.999989
1.0,1,0.999991
0.9999999999999907,1,0.999990
1.0,1,0.999990
0.9999999999999802,1,0.999986
1.0,1,0.999985
1.0,1,0.999986
0.9999999999999887,1,0.999991
0.9999999999999993,1,0.999991
0.9999999999999957,1,0.999991
0.9999999999999958,1,0.999991
1.0,1,0.999992
1.0,1,0.999991
0.999999999999981,1,0.999991
1.0,1,0.999991
1.0,1,0.999991
0.999999999999999,1,0.999991
0.9999999999999996,1,0.999991
0.9999999999999808,1,0.999991
1.0,1,0.999991
1.0,1,0.999991
1.0,1,0.999991
0.9999999999999841,1,0.999991
0.9999999999999866,1,0.999991
0.999999999999998,1,0.999991
1.0,1,0.999991
0.9999999999999953,1,0.999991
1.0,1,0.999986
0.9999999999999867,1,0.999985
0.9999999999999942,1,0.999984
0.9999999999999978,1,0.999982
0.9999999999999759,1,0.999981
1.0,1,0.999982
0.9999999999999949,1,0.999981
1.0,1,0.999981
0.9999999999999832,1,0.999982
1.0,1,0.999982
0.9999999999999826,1,0.999981
0.9999999999999923,1,0.999982
0.9999999999999934,1,0.999983
0.9999999999999856,1,0.999983
1.0,1,0.999978
0.999999999999992,1,0.999979
1.0,1,0.999978
1.0,1,0.999978
0.9999999999999972,1,0.999965
1.0,1,0.999991
0.9999999999999992,0,0.999877
0.9999999999999929,1,0.999991
0.9999999999999917,1,0.999988
1.0,1,0.999991
0.9999999999999856,1,0.999988
1.0,1,0.999989
0.9999999999999915,1,0.999988
0.9999999999999744,1,0.999985
1.0,1,0.999987
1.0,1,0.999987
0.9999999999999873,1,0.999985
1.0,1,0.999985
1.0,1,0.999964
1.0,1,0.999982
0.9999999999999976,1,0.999982
0.9999999999999991,1,0.999982
1.0,1,0.999965
1.0,1,0.999991
0.9999999999999851,1,0.999989
0.9999999999999908,1,0.999984
1.0,1,0.999985
1.0,1,0.999985
1.0,1,0.999984
0.9999999999999858,1,0.999985
0.9999999999999566,1,0.999985
0.9999999999999996,1,0.999989
0.9999999999999677,1,0.999987
1.0,1,0.999989
0.9999999999999969,1,0.999991
0.9999999999999963,1,0.999989
1.0,1,0.999989
1.0,1,0.999958
1.0,1,0.999988
0.9999999999999966,1,0.999988
0.999999999999991,1,0.999986
0.9999999999999891,1,0.999991
1.0,1,0.999989
0.9999999999999967,1,0.999991
0.9999999999999836,1,0.999988
1.0,1,0.999991
0.9999999999999977,1,0.999990
1.0,1,0.999986
1.0,1,0.999990
1.0,1,0.999989
1.0,1,0.999987
1.0,1,0.999989
0.9999999999999866,1,0.999988
1.0,1,0.999985
0.9999999999999897,1,0.999986
0.9999999999999678,1,0.999986
0.99999999999998,1,0.999991
0.9999999999999921,1,0.999991
0.9999999999999831,1,0.999988
0.9999999999999963,1,0.999991
1.0,1,0.999990
1.0,1,0.999990
0.9999999999999923,1,0.999991
1.0,1,0.999990
0.9999999999999917,1,0.999960
0.9999999999999962,1,0.999991
0.9999999999999871,1,0.999986
1.0,1,0.999985
0.9999999999999889,1,0.999984
1.0,1,0.999991
0.9999999999999911,1,0.999988
1.0,1,0.999988
1.0,1,0.999990
0.9999999999999879,1,0.999960
0.9999999999999848,1,0.999989
0.9999999999999931,1,0.999989
0.9999999999999851,1,0.999990
1.0,1,0.999990
1.0,1,0.999989
0.9999999999999916,1,0.999990
0.9999999999999825,1,0.999989
0.9999999999999828,1,0.999991
0.9999999999999887,1,0.999988
0.9999999999999876,1,0.999986
1.0,1,0.999983
1.0,1,0.999981
0.9999999999999997,1,0.999980
0.9999999999999961,1,0.999982
1.0,1,0.999991
1.0,1,0.999991
1.0,1,0.999991
1.0,1,0.999991
1.0,1,0.999991
0.9999999999999888,1,0.999988
0.9999999999999925,1,0.999988
0.9999999999999872,1,0.999990
1.0,1,0.999986
1.0,1,0.999983
0.9999999999999883,1,0.999982
1.0,1,0.999991
0.999999999999992,1,0.999982
1.0,1,0.999980
0.99999999999999,1,0.999989
1.0,1,0.999991
0.9999999999999892,1,0.999991
0.9999999999999852,1,0.999987
1.0,1,0.999988
0.9999999999999877,1,0.999982
0.9999999999999989,1,0.999987
0.9999999999999739,1,0.999988
1.0,1,0.999988
1.0,1,0.999991
0.9999999999999917,1,0.999991
0.9999999999999809,1,0.999992
1.0,1,0.999992
1.0,1,0.999990
1.0,1,0.999989
1.0,1,0.999990
0.9999999999999937,1,0.999990
1.0,1,0.999983
0.9999999999999905,1,0.999980
0.9999999999999808,1,0.999983
0.9999999999999771,1,0.999982
0.9999999999999971,1,0.999991
1.0,1,0.999991
0.9999999999999969,1,0.999987
1.0,1,0.999980
0.9999999999999781,1,0.999979
0.9999999999999832,1,0.999980
1.0,1,0.999990
1.0,1,0.999979
1.0,1,0.999990
1.0,1,0.999988
0.9999999999999976,1,0.999964
1.0,1,0.999980
0.999999999999995,1,0.999984
0.9999999999999852,1,0.999989
0.9999999999999896,1,0.999988
1.0,1,0.999990
0.9999999999999994,1,0.999989
0.999999999999979,1,0.999988
0.999999999999993,1,0.999981
1.0,1,0.999989
1.0,1,0.999988
0.9999999999999873,1,0.999988
1.0,1,0.999990
1.0,1,0.999989
0.9999999999999857,1,0.999989
0.9999999999999946,1,0.999991
0.9999999999999849,1,0.999989
0.9999999999999888,1,0.999986
0.9999999999999877,1,0.999989
0.9999999999999961,1,0.999978
1.0,1,0.999988
0.9999999999999964,1,0.999989
1.0,1,0.999989
1.0,1,0.999985
1.0,1,0.999987
0.9999999999999933,1,0.999987
1.0,1,0.999989
1.0,1,0.999988
0.9999999999999961,1,0.999988
0.9999999999999776,1,0.999987
0.9999999999999883,1,0.999987
1.0,1,0.999988
1.0,1,0.999987
1.0,1,0.999988
0.9999999999999937,1,0.999987
0.9999999999999929,1,0.999988
1.0,1,0.999988
0.9999999999999996,1,0.999991
0.9999999999999772,1,0.999985
1.0,1,0.999985
1.0,1,0.999988
1.0,1,0.999985
1.0,1,0.999988
0.9999999999999828,1,0.999988
1.0,1,0.999991
0.9999999999999997,1,0.999990
0.9999999999999929,1,0.999990
1.0,1,0.999991
0.9999999999999996,1,0.999986
0.999999999999979,1,0.999986
0.9999999999999835,1,0.999989
1.0,1,0.999992
0.999999999999993,1,0.999988
1.0,1,0.999973
0.9999999999999847,1,0.999987
0.9999999999999909,1,0.999988
0.9999999999999791,1,0.999987
1.0,1,0.999989
1.0,1,0.999988
0.9999999999999988,1,0.999990
1.0,1,0.999990
