0.011150168805366328,0,0.010016
0.27341289541954794,0,0.217200
0.5986350387131625,0,0.579906
0.5964512706028845,0,0.967864
0.5776302743070822,0,0.838735
0.5731327481811396,0,0.233852
0.3864395804397219,0,0.982226
0.007448466474426864,0,0.785711
0.0014027838175992662,0,0.846604
0.05260289250573106,0,0.924133
0.9187205512302562,0,0.999836
0.7056178803970333,0,0.801372
0.6152351664706348,0,0.867358
-0.0038315313958633933,0,0.916047
0.8683329292227173,0,0.999813
0.7361246172546946,0,0.826288
0.002102499563718963,0,0.513648
0.041245699639534346,0,0.832310
0.07544591703299815,0,0.999721
0.43659567119305287,0,0.999355
0.2609224048370391,0,0.998331
0.14343260408708983,0,0.538810
0.37596481655182235,0,0.567412
0.15853521814077132,0,0.602313
0.0019149936790331733,0,0.733240
0.3551939853687349,0,0.998120
0.05588626826776804,0,0.610508
0.0046970454005933054,0,0.611498
-0.003129125820084514,0,0.616027
0.2523999841277651,0,0.996404
0.002357912145298576,0,0.611744
-0.004741656641670233,0,0.551865
0.2603941385436839,0,0.987291
0.5575458815421496,1,0.999919
0.7869717671897409,0,0.996708
0.7489590032263217,0,0.996478
0.1671542387271837,0,0.849771
0.04691621465423193,0,0.953026
0.40260671836685746,0,0.997457
0.3236067053067938,0,0.998845
0.061465393321785494,0,0.949081
0.026078659242046016,0,0.276920
0.3036023520693491,0,0.999107
0.5007464975306947,0,0.310202
0.03470560764906387,0,0.858068
-0.0037954553392933904,0,0.759078
-0.004611459689680348,0,0.966695
-0.004162538928950211,0,0.670632
-0.004599703858191157,0,0.781403
0.5638200508601626,0,0.999426
0.583789923602082,0,0.985587
0.6082018157072817,0,0.991180
0.37108045703321696,0,0.515456
0.2930544030881105,0,0.997288
0.4500007955194399,0,0.987949
0.3345454722745527,1,0.999980
0.012342476062372053,0,0.874327
0.015710120895728142,0,0.921013
0.0036819756938806774,0,0.976372
-0.0025570739549670286,0,0.585611
0.38801811046822066,0,0.996687
0.3753298239193276,0,0.994384
0.023799355940986446,0,0.921369
0.9254835824938227,0,0.999749
0.921802203769443,0,0.596493
0.20858235491907126,0,0.402021
0.29997833018715425,0,0.999680
0.5478347505164557,0,0.999622
0.42926016040994686,0,0.996111
0.13662892887411981,0,0.999054
0.07718188482693923,0,0.954973
0.05817467023966819,0,0.880059
0.0981860504608552,0,0.974502
0.1011595964416647,0,0.988783
0.24849802168397536,0,0.988450
0.22953206173324692,0,0.996793
0.13315583747633455,0,0.991448
0.025853889494948174,0,0.843803
0.035498716858111436,0,0.983060
0.24151080643977837,0,0.982383
0.23357699303503032,0,0.993403
0.16926796600688612,0,0.983148
0.10684314641943812,0,0.994994
0.09632996456401016,0,0.989343
0.15486234871614532,0,0.994266
0.6639284459017278,0,0.996930
0.8444873352766533,0,0.988781
0.4103402140930942,0,0.609162
0.014259786288170243,0,0.886942
-0.0017638476562975064,0,0.651689
-0.0012802770395837207,0,0.896146
-0.0011167776089820605,0,0.669123
0.004410409204721899,0,0.493813
0.0811800318494619,0,0.904482
0.05160967658319997,0,0.981428
0.3280611959340716,0,0.998869
0.21309080828913105,0,0.992121
0.3730891889716017,0,0.982362
0.25865937878993583,0,0.990763
0.2182502355239444,0,0.980844
0.37970223061184755,0,0.999506
0.11509680097885149,0,0.994648
0.2778699142341464,0,0.996468
0.41635390793168214,0,0.994312
0.35156057712766897,0,0.998138
0.017634294833948416,0,0.887176
0.05612966898269583,0,0.972799
0.21728355299046542,0,0.976475
0.33721373993426673,0,0.986949
0.37595841476395275,0,0.979297
0.6706337088414634,0,0.989141
0.8870350961548511,0,0.999419
0.6409979553618175,0,0.999031
0.38486885783611996,0,0.998193
0.13395722171222124,0,0.996189
0.017410449652317413,0,0.900385
0.3177162501080275,0,0.993818
0.13582416867259445,0,0.966369
0.027346826287104855,0,0.976283
0.010523291337024928,0,0.969325
-0.005886323847486981,0,0.670550
-0.006091875360511037,0,0.653661
0.6670926086804206,1,0.999990
0.5182667285438629,0,0.999242
0.18193731561212725,0,0.999271
-0.004815774063936961,0,0.837001
-0.0031553132011940092,0,0.929070
0.5829483610023398,0,0.881750
0.6093668343273201,0,0.996846
0.38223066063422956,0,0.999814
0.28495636219449144,0,0.993717
0.5421319449622976,0,0.828157
0.6182604042695803,0,0.997532
0.3996899963366211,0,0.999778
0.4633052771613004,0,0.999563
0.5556259673270717,0,0.916236
0.6341191087617419,0,0.998279
0.9124657075195293,0,0.999278
0.08669306303490366,0,0.347175
0.02431753941253201,0,0.670653
0.043498842269814576,0,0.475436
0.08816974320471525,0,0.988541
0.395940589854945,0,0.999153
0.6730484145865642,1,0.999980
0.1787628015473721,0,0.997356
0.3266437477524234,0,0.999148
0.3259027830197836,0,0.878448
0.2126039058513605,0,0.992707
0.27967597913701214,0,0.990524
0.48811926045667403,0,0.956687
0.06316491740544629,0,0.891509
0.05094272353820651,0,0.811860
0.2746266013657711,0,0.995125
0.9221893910953841,1,0.999981
0.9501290938083894,1,0.999982
0.8990660258362648,0,0.996320
0.9397847764570679,0,0.998600
