0.9586353400156302,1,0.999975
0.9619613646196825,1,0.999985
0.8430980336745861,1,0.999899
0.887288452436377,0,0.999748
0.9879814030574694,1,0.999986
0.9864365269700233,0,0.999244
0.9695503755296886,1,0.999984
0.9388902942972881,0,0.998895
0.5984352127217931,0,0.999687
0.9276692645891159,1,0.999983
0.8180021836795267,1,0.999986
0.9688995084929317,0,0.998995
0.928398404858164,0,0.998255
0.9639254050899719,1,0.999944
0.5678169418442239,0,0.997447
0.3604175352385528,0,0.745088
0.6451156199532724,0,0.999362
0.43877674818790263,0,0.991932
0.51839352932184,0,0.997061
0.7531209594079108,1,0.999985
0.831487119457813,0,0.990228
0.7023285722912087,0,0.999651
0.9299923539351499,1,0.999982
0.94339265889866,1,0.999981
0.4806799134167917,0,0.978690
0.9007216648436515,1,0.999983
0.8953103878222713,0,0.999592
0.8982033442165245,1,0.999990
0.7998400770868351,0,0.999019
0.366084491732226,1,0.999970
0.49928221500189734,1,0.999871
0.5335879702131369,0,0.988271
0.8488168543418291,1,0.999918
0.9341685857016061,1,0.999981
0.9655740837506822,1,0.999988
0.9808961677771102,1,0.999991
0.8488867087384577,1,0.999919
0.6931305634169939,0,0.963959
0.7078364338033958,0,0.994502
0.9638968053122708,0,0.999204
0.5791606794794109,1,0.999987
0.8603922251294059,0,0.997748
0.9564535896023492,1,0.999981
0.9775655053834393,1,0.999981
0.9631867998773618,0,0.940895
0.7397836783152241,0,0.998729
0.9896449140819965,1,0.999978
0.9945194925048044,1,0.999977
0.9962633488391315,1,0.999991
0.99543004914945,1,0.999990
0.973734253932444,0,0.993980
0.7893919347581293,0,0.986124
0.8108450985110492,0,0.991448
0.8072780693832962,0,0.994759
0.604716198441755,0,0.999874
0.49205723066146095,0,0.997205
0.48766037165946274,0,0.999383
0.665324937279231,1,0.999974
0.9673001144968092,0,0.989861
0.9631191038173,0,0.999080
0.873380894513729,0,0.999291
0.7232418154034163,0,0.992530
0.42346489953887034,0,0.998970
0.7533300758433187,1,0.999947
0.9889100702323337,1,0.999982
0.42882042384585667,0,0.996770
0.7336064156677938,0,0.994780
0.6638822213600925,1,0.999990
0.6019412720029754,1,0.999990
0.6988572749476903,0,0.998289
0.9516364710075702,1,0.999939
0.9367608225556232,1,0.999990
0.5584056119975868,0,0.999150
0.9110331788874633,1,0.999971
0.7935317436072062,0,0.986195
0.952620591946804,1,0.999973
0.9768433469913218,1,0.999986
0.9834243594997943,1,0.999987
0.9606850352411184,1,0.999987
0.9859394354595767,1,0.999989
0.9367264573994915,1,0.999989
0.9303547183222441,1,0.999989
0.9442732297982349,1,0.999989
0.976880192753978,0,0.996286
0.9702299069972761,0,0.990389
0.9491487250591009,0,0.999730
0.9906081069771319,1,0.999780
0.9811406267377126,1,0.999963
0.9623811944585329,1,0.999950
0.6355905739637147,0,0.981057
0.9040167500677556,1,0.999989
0.9290741524911044,0,0.999821
0.7829222839783431,1,0.999978
0.9371946508798453,1,0.999981
0.9897850959303243,1,0.999991
0.7616480144512787,0,0.999805
0.865683875096759,0,0.999707
0.891907318442677,1,0.999885
0.8875025631907963,0,0.990664
0.9773931076706317,1,0.999930
0.9801002967821496,1,0.999915
0.9827454615148342,1,0.999977
0.9690336465689874,1,0.999978
0.9787848561013763,1,0.999978
0.9841266312441533,0,0.999273
0.9887344381413337,1,0.999950
0.9632540270028278,0,0.999761
0.9913883905815106,1,0.999979
0.9962090290567716,1,0.999980
0.9928324506480073,1,0.999939
0.9912495660066094,1,0.999979
0.9927609250828446,1,0.999979
0.9886792705724373,0,0.999650
0.9678849044361756,1,0.999992
0.9435526769426802,0,0.999835
0.9193838532695343,0,0.998438
0.8586531128975896,1,0.999989
0.9690479788742097,1,0.999981
0.9492982165355806,1,0.999987
0.8593456393560969,1,0.999988
0.9761602671383056,1,0.999983
0.9789550358039926,1,0.999982
0.9806260640026051,1,0.999852
0.9923152451550102,1,0.999953
0.9909591357692741,1,0.999987
0.9678782928108969,0,0.995973
0.9958290322008192,0,0.991822
0.9927840442239649,0,0.997524
0.9922700093389115,1,0.999988
0.9964377918588263,1,0.999978
0.9081732988563466,0,0.987578
0.9512498697604193,1,0.999985
0.8254911153457173,0,0.999492
0.9908850480510399,1,0.999988
0.9661332921015403,1,0.999989
0.9907819314093436,0,0.986347
0.9271958343510738,1,0.999969
0.9460112359589613,1,0.999878
0.9475436632761074,1,0.999990
0.9714588110198973,1,0.999980
0.885587971162329,1,0.999985
0.8944827932853825,1,0.999986
0.9599197292082209,1,0.999991
0.4582009327935243,0,0.996061
0.9442124943809858,1,0.999983
0.9638581563840304,0,0.999353
0.8041637253103536,0,0.999606
0.8857191393695114,1,0.999991
0.6642101305923056,0,0.999372
0.9115647389577223,1,0.999990
0.8857332939421656,1,0.999917
0.7830747137396072,1,0.999990
0.7054929670185407,0,0.992719
0.7869535642842015,0,0.999697
0.9668997330208788,1,0.999956
0.9764312030913257,1,0.999979
0.9705778531079894,1,0.999979
0.9542486494344536,1,0.999979
0.979241779384071,1,0.999957
0.9642738355126599,1,0.999895
0.9822860066887559,0,0.999316
0.973100250667599,1,0.999812
0.9774494516495437,1,0.999974
0.7794392321067904,1,0.999972
0.9897108829332041,1,0.999958
0.9851870821614296,1,0.999961
0.9697263970640693,1,0.999989
0.8070194493906933,1,0.999937
0.9165837835257352,1,0.999975
0.9441842317818943,1,0.999975
0.9672591544907465,1,0.999930
0.9820225722474214,1,0.999991
0.9155767083442453,0,0.976767
0.9149571211290579,1,0.999952
-0.0011760923208516461,0,0.979096
0.9118645187732427,0,0.997860
0.8807665240158215,0,0.981997
0.6590147688774421,0,0.968776
0.9016135849619031,1,0.999966
0.9836912997034643,1,0.999987
0.9535084300172183,1,0.999973
0.981582039209631,0,0.996376
0.87434675544688,1,0.999980
0.963258677424491,0,0.999840
0.9622731238057024,0,0.987618
0.991487478148919,1,0.999966
0.9713376208034131,1,0.999940
0.9609909223461267,0,0.959191
0.9165600025875421,0,0.999653
0.9895548522257539,1,0.999899
0.8018010199167105,1,0.999961
0.904842564136909,0,0.983661
0.8749153722298477,1,0.999971
0.8883106465266281,0,0.947613
0.933475531323161,1,0.999992
0.9131495682225313,0,0.999747
0.9223709813023976,1,0.999963
0.56396676100729,1,0.999990
0.6406425772499175,1,0.999913
0.751532831827775,0,0.999795
0.9119303818716524,1,0.999981
0.896534421957453,0,0.999843
0.9180622847623362,0,0.999747
0.9903815910570463,1,0.999966
0.7973424836510276,1,0.999988
0.2875157221539961,0,0.984491
0.8795159898197471,1,0.999965
0.8934068272456368,1,0.999980
0.9267485390061018,0,0.997895
0.4722916808351197,1,0.999982
0.6090745608135223,0,0.995730
0.9860816947243122,0,0.999665
0.7686890692894204,0,0.988490
0.8553687166436948,0,0.986523
0.9263493791362507,0,0.999585
0.9743189290640595,0,0.999625
0.8330812495603259,1,0.999968
0.9634351560340377,1,0.999915
0.9295504331159485,1,0.999980
0.6988275769989818,0,0.998162
0.9549663861668941,0,0.999721
0.9304147148336688,0,0.985852
0.7713365641237353,0,0.999391
0.9537253345133871,0,0.969781
0.5839691481057405,0,0.996441
0.9600595978829631,1,0.999978
0.859950354706768,1,0.999989
0.8921764107795219,1,0.999950
0.7607742926166745,1,0.999982
0.7755708755606211,0,0.999676
0.8284956431841244,1,0.999918
0.8615221279217801,0,0.997092
0.9334839358674243,1,0.999991
0.9458805987301265,1,0.999983
0.9760672721664871,1,0.999991
0.8449637517542729,0,0.982479
0.7918415125917875,1,0.999984
0.9575073041099568,1,0.999904
0.9048556887208962,0,0.999196
0.7507503668295554,0,0.975556
0.9666930063770964,1,0.999986
0.7688327116448007,0,0.999198
0.875434314574252,1,0.999986
0.5493806404065181,1,0.999983
0.9578211548050792,1,0.999974
0.935495126980217,0,0.954884
0.8730468675639705,1,0.999938
0.9832484155295156,0,0.999890
0.9420576389744998,1,0.999992
0.9298816918128717,0,0.994097
0.8666566993011192,0,0.999214
0.9361675196130325,0,0.999903
0.7503590646918548,0,0.999713
0.8842364013444676,0,0.947223
0.8129018914706072,0,0.949178
0.9666546993014637,1,0.999981
0.8844436498654463,1,0.999983
0.9844539073609104,1,0.999974
0.9666074979448938,1,0.999983
0.8512818044403454,1,0.999991
0.9277570825272098,1,0.999927
0.8493026911022006,0,0.999830
0.9651421817214302,0,0.999554
0.9775949038824843,1,0.999981
0.9693763632297058,1,0.999961
0.9222975978882376,1,0.999984
0.8453189822830948,1,0.999904
0.9664055630523951,0,0.999561
0.5906755233663277,0,0.999620
0.975806237996768,1,0.999969
0.9806817328507751,1,0.999944
0.9095012900858954,0,0.994975
0.8865515371284971,1,0.999974
0.9625920883744546,0,0.999815
0.9891759367044748,1,0.999987
0.9859770709770785,1,0.999990
0.8730709600375455,0,0.961160
0.9495905994090017,0,0.986448
0.9051142622728876,0,0.999281
0.8993229525345823,1,0.999989
0.8624248222829956,1,0.999991
0.530293970259094,0,0.996307
0.9505417388498183,1,0.999940
0.9213743622796066,1,0.999950
0.936451553224001,1,0.999990
0.9375728264952667,0,0.999026
0.89462144124836,1,0.999989
0.9267864208725577,0,0.999808
0.9741737583456989,1,0.999986
0.9254208313983843,1,0.999991
0.9171747203522522,1,0.999983
0.9546979518560226,1,0.999983
0.9087508289364125,1,0.999983
0.9447481655285535,1,0.999983
0.8725538219761274,1,0.999956
0.6279608384147605,1,0.999969
0.9784940492196039,1,0.999979
0.9906285237104254,1,0.999979
0.9538063323193592,0,0.991625
0.8562304452104261,1,0.999939
0.9160623988479424,0,0.999749
0.6481357012200847,0,0.997261
0.869521628224363,1,0.999933
0.8274991925940459,1,0.999991
0.924565521410762,1,0.999983
0.9535587779926883,1,0.999984
0.7484036600981896,0,0.999634
0.9751750275642638,1,0.999945
0.8158946900234518,0,0.999454
0.9230044277683239,1,0.999982
0.943488879051647,1,0.999892
0.9707857896993154,1,0.999983
0.8815932077750205,0,0.999862
0.6302660445893062,1,0.999935
0.7975460255168758,0,0.994651
0.8321936494349025,0,0.984826
0.8755965266933184,0,0.996073
0.9180812338549587,1,0.999984
0.8774799205050912,1,0.999912
0.9314869748310755,1,0.999982
0.9090241286534904,0,0.993432
0.9739960963658301,1,0.999985
0.9310879008192796,0,0.998690
0.8455179039541086,1,0.999939
0.8605165548949983,1,0.999985
0.9496638332268256,1,0.999985
0.8056135840494346,0,0.999725
0.8231136250334958,1,0.999985
0.952261672397943,0,0.999294
0.9665626534048692,1,0.999882
0.9020282935848999,1,0.999955
0.9783584335218699,1,0.999985
0.9713955868908051,0,0.999813
0.881877877867211,1,0.999985
0.9762492124526669,1,0.999985
0.9892917338771762,1,0.999985
0.9111311364828752,1,0.999985
0.9539492383143385,1,0.999985
0.8995863538057014,1,0.999970
0.9807214090150602,1,0.999985
0.9810124274000274,1,0.999972
0.924190657475795,0,0.997634
0.9510885440306733,1,0.999852
0.9589536082552387,1,0.999986
0.9452753714572223,0,0.999540
0.8843662014776864,0,0.999526
0.8951054328647966,1,0.999987
0.97057596356474,1,0.999992
0.803794051524374,0,0.999230
0.9540457045849425,1,0.999957
0.7676913332091019,0,0.999344
0.8909151176469182,1,0.999905
0.7166787975321648,0,0.975261
0.952716716185533,1,0.999990
0.7569900849664023,0,0.992212
0.9261091072743127,0,0.999708
0.9486748381422124,1,0.999956
0.9069836411825287,0,0.998206
0.8068299444084832,0,0.963020
0.8045905625883015,1,0.999927
0.8649602981100216,1,0.999899
0.9289956788934692,1,0.999987
0.5497988877164705,1,0.999988
0.9424459605413061,1,0.999988
0.8212032979473051,0,0.999086
0.8553979312873494,0,0.977155
0.9893535674961328,1,0.999960
0.9791621344222113,1,0.999992
0.9801567643655055,0,0.999843
0.9436306723019662,1,0.999932
0.9528260124129725,0,0.998741
0.941717667224531,1,0.999952
0.8939325028042799,1,0.999988
0.9438881988899985,0,0.999832
0.441664008963654,1,0.999977
0.9438277588254028,1,0.999991
0.9544261982189169,1,0.999991
0.8848280652357979,0,0.961389
0.9484329999864578,1,0.999991
0.9173885099511768,0,0.991603
0.7738984774256714,1,0.999988
0.8421602854536339,1,0.999989
0.9132858572254726,1,0.999991
0.9472676062727797,1,0.999989
0.9661759219920035,0,0.999783
0.7376068980260558,1,0.999969
0.8089754841266257,0,0.999787
0.9375943858718074,1,0.999957
0.9761796315445951,1,0.999990
0.9197989128268679,0,0.999877
0.9382221221063027,0,0.998588
0.9598700224317496,1,0.999948
0.9789846623348282,1,0.999926
0.9586169087207499,1,0.999926
0.9394102862819514,1,0.999981
0.9493713168831827,1,0.999983
0.9617117068775543,1,0.999982
0.9690250175439914,1,0.999966
0.9497872426732025,1,0.999891
0.9625322185429734,1,0.999991
0.9245304170837635,1,0.999979
0.956563010077725,0,0.999631
0.9767561116159338,1,0.999979
0.9830394417113987,0,0.999322
0.9861678905077137,1,0.999916
0.9267067678337023,1,0.999947
0.9204088186145502,1,0.999988
0.9541299016739098,1,0.999913
0.9750209968134999,1,0.999974
0.9596745749116231,1,0.999882
0.9673715666011479,1,0.999931
0.9808582924945373,1,0.999987
0.8752981035388677,1,0.999973
0.9788204501683329,1,0.999935
0.9722435098658485,0,0.999541
0.983824803570425,1,0.999934
0.8698954919945063,1,0.999989
0.912902157905573,0,0.999455
0.9635137678161306,1,0.999978
0.9066469985249784,0,0.999716
0.9765418721956981,1,0.999889
0.9404868088146323,1,0.999929
0.9626389371784628,1,0.999980
0.8936486020726971,1,0.999990
0.9767087904822065,1,0.999979
0.982170830807446,1,0.999949
0.9813747798448691,0,0.999837
0.9507420740267739,1,0.999989
0.9393816078204377,0,0.999843
0.9486547822941551,1,0.999977
0.9233209490694727,1,0.999786
0.9751234327250746,0,0.999543
0.9390821929385208,1,0.999974
0.9814213074260361,1,0.999947
0.8500863135322202,1,0.999973
0.9920132552943965,1,0.999987
0.9512804457027884,1,0.999973
0.9058596576308968,1,0.999971
0.9560449073613614,0,0.996540
0.801959310926138,0,0.999222
0.9731161073625664,1,0.999966
0.9842534781682335,1,0.999977
0.927504918453052,0,0.996418
0.7448778535231136,0,0.996921
0.9370907031002902,1,0.999861
0.9808628659415737,1,0.999990
0.9663670781284396,1,0.999989
0.9642745397062924,1,0.999991
0.6399104545125835,0,0.998519
0.8781509399548201,0,0.999558
0.8952524242257333,1,0.999967
0.9273338314775422,0,0.992133
0.9716083735793797,1,0.999991
0.9666452257017266,0,0.999852
0.9224274751117447,0,0.998347
0.9064515072362386,0,0.999763
0.7393337038903678,0,0.999811
0.9404941141264572,1,0.999970
0.9201727432115361,0,0.997057
0.9472031776483588,1,0.999952
0.8742654136344579,1,0.999982
0.8996157845856929,1,0.999991
0.8940654775223411,1,0.999980
0.940988650953237,1,0.999987
0.9588876864010542,0,0.999140
0.9794407818131623,1,0.999971
0.9165247789806544,1,0.999946
0.8642934025617078,1,0.999922
0.9924692794123767,0,0.963334
0.9458543961207919,0,0.999792
0.8854429715729869,1,0.999980
0.9724066326937553,1,0.999956
0.83952412694136,0,0.982995
0.9782919686213735,0,0.995881
0.8139197931331442,1,0.999908
0.9420451712986787,1,0.999957
0.7148146199860628,1,0.999990
0.950797283122333,0,0.999368
0.6556230464878844,0,0.997671
0.9724462547273649,1,0.999948
0.9903806875756963,1,0.999855
0.9888706811798319,0,0.999587
0.9928285509973777,1,0.999980
0.9949831956626989,0,0.999674
0.9924064833932034,1,0.999981
0.9871377184439073,1,0.999941
0.9952162590741381,0,0.994332
0.995271442178725,0,0.999785
0.9947631534407226,0,0.999371
