0.9418153617676431,0,0.990625
0.7912107285745078,0,0.990465
0.5935046768897996,0,0.955098
0.6873439450345944,0,0.712485
0.9062079011804937,1,0.999932
0.6609334784797009,0,0.999821
0.7828117302877804,0,0.936104
0.9340113056657204,1,0.999949
0.673515051448899,1,0.999966
0.8962339194020422,0,0.996634
0.638872685371176,0,0.997124
0.582731835197477,0,0.997968
0.7100376769574555,0,0.998803
0.8926233217642903,0,0.998707
0.7607414537205691,0,0.999639
0.8942280549752226,1,0.999982
0.8778754980230563,1,0.999981
0.8508798623201883,1,0.999962
0.9182644146610205,0,0.999798
0.7197550019662707,0,0.993474
0.2938011090482117,0,0.997097
0.7726406037196903,0,0.996982
0.9463432297141912,0,0.983963
0.9276447991652729,0,0.976575
0.9013406912457946,1,0.999991
0.6762605323797704,0,0.998687
0.9365835174681824,1,0.999980
0.9712584168778404,1,0.999991
0.8682148710864269,1,0.999962
0.6482448527419441,0,0.999098
0.6984464273996948,0,0.999414
0.782430423681421,1,0.999967
0.8457526373315978,0,0.986621
0.4427804912487738,0,0.999759
0.8072271168676183,0,0.972704
0.9143223286146653,1,0.999984
0.9397268943634927,1,0.999968
0.6378607657440248,0,0.999673
0.7337548633518799,1,0.999883
0.8496895381872108,0,0.999016
0.9578962629018556,1,0.999990
0.7619424528803529,1,0.999990
0.9649847901033379,1,0.999990
0.8252483056642185,0,0.994458
0.9287002460677884,1,0.999963
0.9381934326234759,1,0.999977
0.6818667614604611,0,0.984138
0.4912514747941305,0,0.996468
0.9610824359228405,0,0.994442
0.9465538165440992,1,0.999970
0.7238809215872666,0,0.999151
0.7337665587187804,0,0.999476
0.973593178626359,0,0.999468
0.9663111164591407,0,0.999724
0.9255890851163407,1,0.999944
0.8963440605956992,0,0.996001
0.6285508042110263,0,0.993450
0.9267728338695912,0,0.999508
0.7743637872776193,0,0.991860
0.8399128251159895,0,0.998922
0.986867341810958,1,0.999991
0.9703522008958927,0,0.990753
0.833724618712289,0,0.989665
0.5808131319035298,0,0.999168
0.9527362093464107,0,0.999667
0.9005909287958338,0,0.976557
0.9069407193675174,0,0.997599
0.7058577977433125,0,0.978389
0.9860595833468662,1,0.999989
0.5540112875267695,1,0.999955
0.9393151498452618,0,0.999869
0.8270954654937616,1,0.999972
0.9029504803717214,1,0.999982
0.9228424006402297,0,0.999249
0.8331625187586362,1,0.999959
0.9400493786481373,1,0.999948
0.9589532760470058,1,0.999936
0.9665589124047615,1,0.999989
0.5604326520687347,0,0.981094
0.9821164297027278,1,0.999982
0.8532264198248891,0,0.989171
0.919572756857955,1,0.999990
0.5590765743882105,0,0.997778
0.9374862941183265,1,0.999885
0.9643468861106104,0,0.998230
0.8802681352524306,0,0.999659
0.9011450218539399,1,0.999962
0.9694049347942293,0,0.999799
0.9223411816981747,0,0.994399
0.7440325032902712,1,0.999991
0.9749788163026458,1,0.999990
0.8320233867010852,1,0.999989
0.9468230860102684,0,0.997669
0.9788720734903178,0,0.963909
0.574952267224329,0,0.999395
0.662865177197641,1,0.999881
0.7316024416072386,0,0.999477
0.7853193495695605,0,0.999796
0.5731288374823802,0,0.991297
0.7100886386553118,0,0.995145
0.9533580542868134,1,0.999991
0.7975075518140402,0,0.995311
0.4568620760937508,1,0.999991
0.951491925628337,1,0.999951
0.815539909077225,0,0.999809
0.7403234404396702,0,0.958837
0.9249319720655246,0,0.999872
0.9188391506495349,1,0.999911
0.8758254448492405,1,0.999984
0.9515107962120647,1,0.999960
0.9360996917026521,0,0.999454
0.5678998572824951,0,0.994920
0.9778747918286896,1,0.999922
0.9177096421049709,0,0.999828
0.706084945833391,1,0.999963
0.49196374012778005,0,0.990449
0.8460289875017102,0,0.961989
0.947484892609075,1,0.999987
0.9583472359636512,1,0.999991
0.6994430846101034,0,0.999866
0.9625772435536337,1,0.999902
0.9368293220271986,1,0.999977
0.8226844609560743,1,0.999877
0.8466720076404818,0,0.999373
0.968946711968377,1,0.999777
0.7607476958374804,0,0.999541
0.97212306406298,0,0.999806
0.5934240663730057,1,0.999921
0.9626756389731393,1,0.999837
0.9878909961256997,1,0.999905
0.9470068043270798,1,0.999964
0.9884792585585768,1,0.999970
0.9417028231703845,1,0.999950
0.9154694062968074,0,0.999458
0.9411660231528789,1,0.999988
0.835427400479503,0,0.997913
0.8433684955550246,1,0.999965
0.8577944650057936,1,0.999840
0.9827295530989483,0,0.999772
0.9696826870304149,1,0.999991
0.9692411985219619,1,0.999980
0.9595651964431611,1,0.999978
0.8949142366586085,0,0.944122
0.9832494117721555,1,0.999958
0.9627899143493646,1,0.999987
0.6148983345764132,0,0.989013
0.5974515061129146,0,0.996763
0.7962144904651336,0,0.981348
0.47660057713192305,0,0.983287
0.9517266708547907,0,0.999887
0.585684487891751,1,0.999987
0.9621226977008663,1,0.999882
0.9575637588031097,1,0.999982
0.8041258799682172,0,0.940802
0.8616383637157935,1,0.999903
0.9829072468080702,0,0.999736
0.8545746840646081,0,0.998864
0.9093904395826494,1,0.999954
0.7762899228800167,1,0.999984
0.8722546796613805,1,0.999948
0.8212808033483501,1,0.999946
0.9312263644336443,1,0.999983
0.9097684243693555,1,0.999912
0.9417332211533713,1,0.999972
0.9599076823743316,1,0.999991
0.9508841408937259,1,0.999991
0.9286198765407913,1,0.999991
0.8936474594840919,1,0.999971
0.792283361611789,1,0.999971
0.8703398198927669,1,0.999991
0.9807351572902171,0,0.999851
0.6982696044036851,1,0.999987
0.5379599456766412,0,0.999628
0.7543451692589234,0,0.999694
0.9208306493620315,0,0.999550
0.9475290600544407,1,0.999972
0.9662925891840237,1,0.999987
0.8681950835037008,1,0.999988
0.9610862783939224,1,0.999976
0.9156717006318823,1,0.999879
0.927468726350931,1,0.999991
0.7272232397419183,1,0.999942
0.6735470108679779,0,0.981289
0.8941186016311562,0,0.999640
0.9632658791752234,1,0.999990
0.7599969441958053,0,0.999023
0.9332674521024091,1,0.999984
0.9355969431710864,1,0.999984
0.9840971632950247,1,0.999973
0.9110701786126787,1,0.999920
0.8273701422178137,1,0.999989
0.9299408186223224,1,0.999984
0.9079680967960432,0,0.999545
0.8780726977677165,1,0.999990
0.7810447467565464,0,0.999791
0.8895059512831063,1,0.999991
0.9374359491603608,0,0.999510
0.9540920564160688,1,0.999982
0.8075228557370528,1,0.999977
0.9379655133055111,1,0.999980
0.8539654193895652,1,0.999963
0.9375853319372037,0,0.999852
0.9865075476358057,1,0.999924
0.98213817937012,1,0.999980
0.9834199981974203,1,0.999961
0.9523412866816505,0,0.999886
0.3964335462129461,0,0.946460
0.8126370375215214,1,0.999893
0.88617797999695,0,0.999785
0.8194543032629207,0,0.999866
0.660827363225406,0,0.986951
0.94000539592877,1,0.999989
0.9822956778163072,0,0.999746
0.6220047286011704,1,0.999985
0.5450174492098688,0,0.998750
0.9322946133686317,0,0.997107
0.7637797281133978,0,0.966647
0.9624042925952551,1,0.999990
0.9590596842382644,1,0.999968
0.8650026668928887,1,0.999991
0.8768235766927065,1,0.999899
0.9721093576369627,1,0.999982
0.9597507896203828,0,0.999858
0.9619644045542409,1,0.999974
0.8682584160938839,0,0.997053
0.9557510400559157,1,0.999863
0.9231710375938947,1,0.999879
0.9374258551682882,1,0.999976
0.9449322271807908,1,0.999972
0.9228623370423453,1,0.999874
0.9674313686485831,1,0.999977
0.9316770343715344,1,0.999964
0.8739581975713341,1,0.999843
0.957535235123036,1,0.999939
0.9573651714377176,1,0.999968
0.9513076480624519,1,0.999986
0.8037272548013776,1,0.999989
0.9704577540132879,0,0.999887
0.6511343845898697,1,0.999867
0.9211297263512275,0,0.999745
0.8234761227628238,0,0.993012
0.8424777431728381,0,0.983144
0.9896403348928404,1,0.999953
0.7534382647336629,1,0.999947
0.8873640787476338,0,0.950738
0.9223276768708637,0,0.999117
0.9641089190771784,1,0.999986
0.7978841709932863,1,0.999906
0.9281597976746124,1,0.999962
0.8980116707925027,0,0.991269
0.8700521701937305,1,0.999990
0.9585190678194814,0,0.999653
0.773309088709089,0,0.999650
0.9785475464274607,0,0.999547
0.9178577558176602,1,0.999962
0.9465640987551751,1,0.999991
0.9862486967961632,1,0.999982
0.9414458303615681,1,0.999981
0.9612009887489936,1,0.999991
0.9263216160158351,1,0.999960
0.9191112049548652,0,0.998527
