0.43840172444807796,0,0.975592
0.8625695053254162,0,0.999711
0.8388507199649883,0,0.995571
0.6933732524365879,0,0.999727
0.6922420764329079,0,0.993339
0.7049213562059592,1,0.999912
0.6978386730107057,0,0.993375
0.6921612531071331,0,0.990474
0.654570852852294,0,0.992275
0.42205382678839476,0,0.999135
0.6548562857172822,0,0.994883
0.6672422154619485,0,0.993995
0.6526759954153394,0,0.998469
0.7326833201257605,0,0.998329
0.7045444932209738,0,0.997057
0.8338534828436376,1,0.999871
0.6589588887549531,0,0.998344
0.6380560345946026,0,0.999174
0.7304654605949746,0,0.999743
0.4695370699353803,1,0.999981
0.5200701344039447,0,0.988195
0.8553669233664294,1,0.999948
0.8564646307981473,1,0.999981
0.8828694229634485,0,0.996568
0.886745189576389,0,0.998925
0.6951588692118518,0,0.988257
0.9276208048099874,0,0.996344
0.9241845544759435,0,0.996108
0.9181523372985783,0,0.999873
0.9353290234134366,0,0.999312
0.9340709155437588,0,0.999218
0.9461583670648027,0,0.999212
0.9394916176009466,0,0.999204
0.9378108040057933,0,0.999326
0.9374463589939775,0,0.999841
0.9425987829345756,0,0.999897
0.9469824272109169,0,0.999130
0.9567023327287466,0,0.999879
0.9511001912790439,0,0.998390
0.9548030621003188,0,0.999064
0.9547898507916748,0,0.999002
0.9594637473547397,0,0.999435
0.9652035122138879,0,0.996228
0.8332221187737671,1,0.999940
0.9240996794694426,0,0.999244
0.9259043756144536,0,0.996971
0.8855689179471864,1,0.999930
0.7176646644481615,1,0.999911
0.702046112233609,0,0.998608
0.714015575397599,1,0.999943
0.46843475648638166,0,0.995478
0.5304631420503673,0,0.998809
0.8831162011189766,0,0.993778
0.6523356751677938,0,0.996806
0.8103163511956913,0,0.991208
0.8877254512470694,1,0.999875
0.8926397800992606,0,0.983478
0.8592137756900713,1,0.999974
0.43168689466253113,1,0.999987
0.6320056985835417,0,0.999840
0.6718952578280158,0,0.993611
0.8600768906591162,0,0.985944
0.800197512110576,1,0.999957
0.7963560416975102,0,0.999589
0.8047069408280849,0,0.999127
0.8797290910488161,1,0.999963
0.8750865335658063,0,0.997585
0.8903231327441636,0,0.999835
0.8779418327451842,0,0.999878
0.8421750029520567,0,0.999213
0.8503499518191334,0,0.999863
0.900182002381924,0,0.998129
0.8968496270058915,0,0.998454
0.8627260936122592,0,0.986824
0.8687813055326977,0,0.999748
0.8766444534824301,0,0.997906
0.8702273644775322,0,0.995261
0.8960213423312935,0,0.998915
0.7799076643460119,0,0.996400
0.865622149651945,0,0.996845
0.8927611581412918,1,0.999923
0.8823798601134397,0,0.999761
0.8923168570433746,0,0.999810
0.9166044271603182,0,0.999682
0.917868953170364,0,0.994182
0.9093371362204765,1,0.999981
