0.9995621571315532,1,0.999988
0.9999999999999986,1,0.999989
1.0,1,0.999989
1.0,1,0.999991
0.9999999999999708,1,0.999991
0.9999999999999755,1,0.999989
0.9999999999999755,1,0.999991
0.9999999999999913,1,0.999989
0.9999999999999812,1,0.999987
1.0,1,0.999990
0.9999999999999789,1,0.999989
1.0,1,0.999990
1.0,1,0.999990
1.0,1,0.999991
0.9999999999999983,1,0.999990
1.0,1,0.999987
0.9999999999999939,1,0.999990
1.0,1,0.999990
1.0,1,0.999986
1.0,1,0.999986
1.0,1,0.999986
1.0,1,0.999991
0.9999999999999998,1,0.999989
1.0,1,0.999989
0.9999999999999966,1,0.999987
1.0,1,0.999947
1.0,1,0.999989
1.0,1,0.999986
0.9999999999999827,1,0.999989
1.0,1,0.999986
1.0,1,0.999984
0.9891100680953717,1,0.999969
0.9999999999960486,1,0.999985
1.0,1,0.999987
0.999999999999986,1,0.999985
1.0,1,0.999987
0.9999999999999951,1,0.999989
1.0,1,0.999989
0.9999999999999961,1,0.999987
1.0,1,0.999989
0.9999999999999659,1,0.999990
0.9999999999999833,1,0.999990
1.0,1,0.999989
1.0,1,0.999990
0.9999999999999891,1,0.999990
0.9999999999999944,1,0.999990
1.0,1,0.999988
1.0,1,0.999990
0.9999999999999883,1,0.999990
0.9999999999999983,1,0.999988
0.9999999999999766,1,0.999989
0.9999999999999846,1,0.999988
1.0,1,0.999990
1.0,1,0.999989
0.999999999999994,1,0.999988
0.999999999999989,1,0.999989
1.0,1,0.999989
1.0,1,0.999989
0.9999999999999944,1,0.999990
0.9999999999999736,1,0.999989
1.0,1,0.999989
0.999999999999998,1,0.999990
1.0,1,0.999990
0.9999999999999957,1,0.999990
0.9999999999999954,1,0.999990
1.0,1,0.999989
0.999999999999982,1,0.999990
1.0,1,0.999989
0.9999998260277664,1,0.999989
1.0,1,0.999990
0.999999999999984,1,0.999978
1.0,1,0.999990
1.0,1,0.999987
0.9999999999999836,1,0.999990
0.9999999999999984,1,0.999989
1.0,1,0.999989
0.9999999999999951,1,0.999990
0.9999999999999665,1,0.999990
0.9999999999999918,1,0.999988
1.0,1,0.999990
0.9999999999999882,1,0.999979
1.0,1,0.999989
1.0,1,0.999990
1.0,1,0.999989
1.0,1,0.999990
1.0,1,0.999990
1.0,1,0.999989
1.0,1,0.999989
0.9999999999999896,1,0.999990
0.9999999999999798,1,0.999990
0.9999999999999901,1,0.999990
1.0,1,0.999990
1.0,1,0.999990
1.0,1,0.999990
0.9999999999999944,1,0.999989
0.9999999999999932,1,0.999990
0.999999999999997,1,0.999990
1.0,1,0.999990
1.0,1,0.999989
1.0,1,0.999990
0.9999999999999798,1,0.999977
1.0,1,0.999988
1.0,1,0.999988
1.0,1,0.999978
1.0,1,0.999962
1.0,1,0.999984
1.0,1,0.999987
0.9999999999999879,1,0.999976
0.9999999999999981,1,0.999988
1.0,1,0.999987
0.999999999999999,1,0.999987
1.0,1,0.999987
0.9999558557558562,1,0.999988
0.999999999427506,1,0.999987
0.9999999999999951,1,0.999950
0.9999999999999905,1,0.999987
1.0,1,0.999987
0.999999999999989,1,0.999987
1.0,1,0.999987
1.0,1,0.999987
0.9999999999999821,1,0.999987
1.0,1,0.999987
0.9999999999999956,1,0.999987
0.9999999999999927,1,0.999988
1.0,1,0.999988
1.0,1,0.999988
1.0,1,0.999987
0.9999999999999979,1,0.999987
0.9999999999999921,1,0.999990
0.9999999999999938,1,0.999990
1.0,1,0.999990
0.9999999999999849,1,0.999989
1.0,1,0.999991
1.0,1,0.999991
0.9999999999999988,1,0.999989
1.0,1,0.999985
0.9999999999999984,1,0.999977
0.9999999999999892,1,0.999983
0.9999999999999867,1,0.999979
0.9999999999999891,1,0.999981
0.9999999999999859,1,0.999981
1.0,1,0.999976
1.0,1,0.999982
1.0,1,0.999982
0.9999999999999809,1,0.999977
0.999999999999983,1,0.999976
0.9999999999999875,1,0.999979
0.9999999999999815,1,0.999981
1.0,1,0.999978
0.9999999999999946,1,0.999982
1.0,1,0.999981
1.0,1,0.999979
1.0,1,0.999991
0.99999999999999,1,0.999989
1.0,1,0.999990
1.0,1,0.999990
0.9999999999999956,1,0.999982
1.0,1,0.999977
1.0,1,0.999975
1.0,1,0.999981
0.9999999999999938,1,0.999981
0.9999999999999751,1,0.999982
0.9999999999999984,1,0.999984
1.0,1,0.999983
0.9999999999999876,1,0.999985
0.9999999999999859,1,0.999990
0.9999999999999926,1,0.999990
1.0,1,0.999978
1.0,1,0.999990
1.0,1,0.999990
0.9999999999999923,1,0.999988
0.9999999999999826,1,0.999987
0.9999999999999897,1,0.999987
0.9999999958484752,1,0.999987
1.0,1,0.999987
0.9999999999999946,1,0.999987
0.9999999999999868,1,0.999987
0.9999999999999938,1,0.999986
1.0,1,0.999988
1.0,1,0.999986
0.9999999999999885,1,0.999991
1.0,1,0.999990
1.0,1,0.999990
0.9999999999999866,1,0.999969
0.9999999999999952,1,0.999971
1.0,1,0.999978
1.0,1,0.999978
1.0,1,0.999975
0.9999999999999873,1,0.999979
0.9999999999999992,1,0.999977
0.9999999999999892,1,0.999978
1.0,1,0.999978
0.9999999999999718,1,0.999977
0.9999999999999853,1,0.999978
1.0,1,0.999977
1.0,1,0.999979
1.0,1,0.999978
1.0,1,0.999979
1.0,1,0.999977
1.0,1,0.999978
0.9999999999999869,1,0.999978
1.0,1,0.999978
1.0,1,0.999978
0.999999999999997,1,0.999977
0.9999999999999936,1,0.999978
0.999999999999974,1,0.999980
1.0,1,0.999980
0.9999999999999911,1,0.999980
0.9999999999999972,1,0.999980
0.9992088270821726,1,0.999978
1.0,1,0.999978
1.0,1,0.999980
1.0,1,0.999979
1.0,1,0.999979
1.0,1,0.999979
1.0,1,0.999979
1.0,1,0.999979
0.9999999999999873,1,0.999978
0.9999999999999905,1,0.999979
1.0,1,0.999980
0.9999999999999803,1,0.999979
0.9999999999999984,1,0.999979
0.9999999999999983,1,0.999979
1.0,1,0.999979
0.9999999999999843,1,0.999979
1.0,1,0.999978
0.9999999999999749,1,0.999978
1.0,1,0.999980
1.0,1,0.999979
1.0,1,0.999980
1.0,1,0.999980
1.0,1,0.999980
0.9999999999999949,1,0.999980
1.0,1,0.999980
1.0,1,0.999979
0.9999999999999991,1,0.999978
0.9999999999999983,1,0.999979
1.0,1,0.999894
1.0,1,0.999979
1.0,1,0.999977
0.999999999999986,1,0.999979
1.0,1,0.999979
0.9999999999999696,1,0.999979
0.9999999999999782,1,0.999979
1.0,1,0.999979
1.0,1,0.999979
0.9999999999999918,1,0.999979
1.0,1,0.999978
0.9999999999999879,1,0.999980
1.0,1,0.999979
0.9999999999999927,1,0.999980
0.9999999999999882,1,0.999979
1.0,1,0.999978
0.999999999999986,1,0.999980
0.999946215592628,1,0.999979
0.9999999999993727,1,0.999980
1.0,1,0.999979
1.0,1,0.999980
1.0,1,0.999979
1.0,1,0.999979
0.9999999999999895,1,0.999979
1.0,1,0.999979
0.9999999999999999,1,0.999980
0.9999999999999855,1,0.999979
0.9999999999999701,1,0.999981
0.99999999999999,1,0.999980
0.9999999999999925,1,0.999979
0.9999999999999979,1,0.999979
0.9999999999999855,1,0.999979
0.999999999999993,1,0.999959
1.0,1,0.999978
1.0,1,0.999959
0.9999999999999852,1,0.999980
1.0,1,0.999979
0.9999999999999893,1,0.999981
1.0,1,0.999979
0.9999999999999797,1,0.999979
1.0,1,0.999978
0.9999999999999903,1,0.999979
1.0,1,0.999979
1.0,1,0.999979
0.9999999999999873,1,0.999980
0.9999999999999971,1,0.999979
0.9999999999999961,1,0.999979
1.0,1,0.999980
1.0,1,0.999979
0.9999999999999859,1,0.999979
0.9999999999999898,1,0.999979
1.0,1,0.999960
0.999999999999971,1,0.999980
0.9999999999999829,1,0.999980
1.0,1,0.999978
0.9999999999999877,1,0.999979
1.0,1,0.999980
0.9999999999999888,1,0.999979
1.0,1,0.999980
0.9999999999999813,1,0.999980
1.0,1,0.999980
0.9999999999999895,1,0.999979
0.9999999999999998,1,0.999980
1.0,1,0.999979
0.9999999999999717,1,0.999979
0.996979193392522,1,0.999978
0.9999999992669215,1,0.999979
1.0,1,0.999960
0.9999999999999978,1,0.999977
0.999999999999994,1,0.999979
1.0,1,0.999980
0.9999999999999988,1,0.999980
1.0,1,0.999980
0.9999999999999866,1,0.999990
0.9999999999999657,1,0.999980
1.0,1,0.999990
1.0,1,0.999990
1.0,1,0.999990
0.9999999999999866,1,0.999950
1.0,1,0.999989
0.9999999999999871,1,0.999990
0.9999999999999977,1,0.999990
1.0,1,0.999990
1.0,1,0.999989
1.0,1,0.999980
1.0,1,0.999975
1.0,1,0.999990
1.0,1,0.999990
0.9999999999999939,1,0.999990
1.0,1,0.999989
0.9999999999999908,1,0.999990
1.0,1,0.999989
0.999999999999998,1,0.999990
1.0,1,0.999988
1.0,1,0.999989
0.9999999999999837,1,0.999989
0.9999999999999832,1,0.999990
0.9999999999999947,1,0.999988
1.0,1,0.999990
0.9999999999999818,1,0.999989
0.999999999999959,1,0.999989
0.999999999999979,1,0.999988
1.0,1,0.999988
0.9999999999999999,1,0.999988
1.0,1,0.999989
1.0,1,0.999990
0.9999999999999906,1,0.999988
0.9999999999999896,1,0.999989
1.0,1,0.999989
0.9999999999999881,1,0.999988
0.9999999999999816,1,0.999986
0.9999999999999855,1,0.999989
1.0,1,0.999988
0.9999999999999798,1,0.999988
0.9999999999999919,1,0.999989
1.0,1,0.999988
0.999999999999995,1,0.999988
1.0,1,0.999989
1.0,1,0.999988
0.9999999999999983,1,0.999988
1.0,1,0.999988
0.9999999999999961,1,0.999988
1.0,1,0.999989
0.9999999999999942,1,0.999988
0.9999999999999956,1,0.999987
0.8896347195512242,1,0.999975
1.0,1,0.999988
0.999999999999997,1,0.999968
1.0,1,0.999987
0.9999999999999941,1,0.999986
1.0,1,0.999990
0.9999999999999807,1,0.999976
1.0,1,0.999988
0.999999999999969,1,0.999989
1.0,1,0.999986
1.0,1,0.999971
0.9999999999999988,1,0.999970
0.9999999999999967,1,0.999977
0.9999999999999912,1,0.999978
0.9999999999999811,1,0.999983
0.9999999999999872,1,0.999981
0.9999999999999967,1,0.999991
0.9999999999999957,1,0.999988
0.9999999999999893,1,0.999990
1.0,1,0.999989
0.999999999999994,1,0.999987
1.0,1,0.999984
1.0,1,0.999985
1.0,1,0.999986
0.9999999999999892,1,0.999986
1.0,1,0.999985
1.0,1,0.999985
1.0,1,0.999986
0.9999999999999849,1,0.999986
0.9999999999999948,1,0.999986
1.0,1,0.999985
0.9999999999999868,1,0.999986
1.0,1,0.999985
0.9999999999999966,1,0.999986
0.99999999999999,1,0.999986
0.9999999999999984,1,0.999985
0.9999999999999972,1,0.999985
0.9999999999999591,1,0.999985
0.9999999999999741,1,0.999986
1.0,1,0.999986
1.0,1,0.999985
0.9999999999999947,1,0.999985
1.0,1,0.999986
0.9999999999999896,1,0.999985
0.9999999999999815,1,0.999986
1.0,1,0.999985
0.9999999999999818,1,0.999985
0.9999999999999948,1,0.999986
0.9999999999999967,1,0.999970
0.9999999999999842,1,0.999986
1.0,1,0.999986
0.9999999999999933,1,0.999986
0.9999999999999805,1,0.999972
1.0,1,0.999986
1.0,1,0.999986
0.9999999999999883,1,0.999985
0.9999999968986076,1,0.999986
0.9999999999999951,1,0.999986
0.9999999999999938,1,0.999987
0.9999999999999982,1,0.999986
1.0,1,0.999990
0.9999999999999786,1,0.999987
1.0,1,0.999988
0.9999999999999889,1,0.999988
1.0,1,0.999977
1.0,1,0.999979
1.0,1,0.999980
1.0,1,0.999980
1.0,1,0.999980
1.0,1,0.999979
0.9999999999999726,1,0.999984
0.999999999999996,1,0.999984
0.9999999999999887,1,0.999990
1.0,1,0.999989
0.9999999999999849,1,0.999989
0.9999999999999908,1,0.999989
0.9999999999999982,1,0.999989
1.0,1,0.999989
0.9999999999999858,1,0.999989
1.0,1,0.999989
1.0,1,0.999990
1.0,1,0.999965
0.9999999999999858,1,0.999990
0.9999999999999865,1,0.999989
0.9999999999999907,1,0.999983
1.0,1,0.999988
1.0,1,0.999988
0.9999999999999959,1,0.999991
1.0,1,0.999990
0.9999999999999939,1,0.999990
1.0,1,0.999990
0.9999999999999712,1,0.999990
0.9999999999999934,1,0.999990
1.0,1,0.999990
1.0,1,0.999990
0.9999999999999922,1,0.999990
0.9999999999999992,1,0.999990
