0.24220524474667007,0,0.920574
0.6885271273516698,0,0.999578
0.43820698188604834,0,0.996524
0.3663107375666019,0,0.999441
0.5294878635720933,0,0.996542
0.534667582488356,0,0.999596
0.5841512068061452,0,0.991605
0.5786487568379606,0,0.994617
0.2533216739233731,0,0.996968
0.1607948011762241,0,0.987479
0.623056513003101,0,0.999244
0.6292979354681976,0,0.995375
0.5947285841034302,0,0.998478
0.5295742397951789,0,0.999181
0.6370996275082568,0,0.995562
0.7838765044618013,0,0.999516
0.2960914241769135,0,0.995912
0.6036280548221525,0,0.999439
0.7219334013370815,0,0.999719
0.4493464477390124,1,0.999981
0.5128529651883647,0,0.988586
0.8411924199745859,1,0.999907
0.8384337957620451,1,0.999981
0.8820566511768305,0,0.996515
0.882313875919673,0,0.998947
0.6379757555827874,0,0.989833
0.910961311663036,0,0.996299
0.921600828526237,0,0.996958
0.9153085978230234,0,0.999862
0.9328750835746894,0,0.999312
0.9321025654539827,0,0.999218
0.9425060868586759,0,0.999212
0.9370152238009278,0,0.999185
0.9353897364419029,0,0.999326
0.9362602305612931,0,0.999860
0.9419568377371579,0,0.999897
0.9462556010863307,0,0.999532
0.9554207992263852,0,0.999897
0.9505943830178787,0,0.998307
0.9535192339253071,0,0.999064
0.9544350524610029,0,0.999038
0.9591350327079793,0,0.999444
0.9638306426850385,0,0.996514
0.7722944904860601,1,0.999899
0.9225802806479901,0,0.999244
0.923839007549615,0,0.996981
0.8436720967513359,1,0.999920
0.6882404336025919,1,0.999911
0.6899569149476167,0,0.998583
0.7145313997895589,1,0.999943
0.36476760263772073,0,0.995569
0.37025033708254074,0,0.998761
0.8549389861491304,0,0.994056
0.6289821774139303,0,0.996977
0.8149130805216233,0,0.991237
0.8899512508210252,0,0.999838
0.8966227176570237,0,0.983590
0.8662340699976945,1,0.999974
0.3192660347395597,0,0.999408
