0.21645051391489398,0,0.961918
0.8604286999348975,0,0.998130
0.944260717112039,1,0.999956
0.9427534436583084,1,0.999952
0.9181706972003721,0,0.999563
0.9471697246487298,1,0.999970
0.9364803412949217,1,0.999912
0.9491763702853989,1,0.999935
0.9284895692286035,1,0.999819
0.8748071174981602,0,0.999863
0.9796752269858363,1,0.999987
0.9790025892140011,0,0.999801
0.9691332644055903,1,0.999963
0.9414429365163399,0,0.999002
0.9329324666047955,0,0.998575
0.9258230480944395,1,0.999958
0.985628961793542,0,0.999711
0.9846220613997733,1,0.999985
0.9879873563211794,0,0.999738
0.976207283363225,1,0.999815
0.9704374083175159,0,0.999763
0.9754601122075365,0,0.999522
0.9449215531082708,1,0.999958
0.8998790889466664,0,0.997929
0.9794831358288074,1,0.999981
0.9775890637562994,1,0.999959
0.9702957169837209,0,0.999539
0.984185207128133,0,0.928881
0.9289368842578734,1,0.999978
0.9491172356786648,1,0.999990
0.9337614296992813,1,0.999971
0.9324635279512316,1,0.999964
0.9802252470924498,1,0.999935
0.9533092878560413,1,0.999964
0.9658750830951608,1,0.999979
0.9726385997726712,1,0.999990
0.9650723778083772,0,0.999870
0.9668878060775857,1,0.999975
0.9756084936266602,1,0.999991
0.9760997994501343,1,0.999977
0.9648843245531515,1,0.999967
0.9639740170087897,1,0.999981
0.932240951662554,0,0.999851
0.9268614799377142,0,0.999047
0.9475724628662986,1,0.999964
0.9843959536176045,1,0.999931
0.9837427871744185,0,0.987956
0.9354353187000837,0,0.999674
0.8911985000048105,1,0.999977
0.9518123851349465,0,0.999765
0.9702717648469907,1,0.999924
0.9694383965531294,1,0.999953
0.9391307711287106,1,0.999960
0.9690415558906644,1,0.999990
0.9696285635887966,1,0.999970
0.955585901325427,0,0.999552
0.9342635474372737,0,0.995112
0.9377081964333869,1,0.999981
0.9487494598062228,1,0.999990
0.9744930879669962,1,0.999897
0.9688225989452329,1,0.999972
0.9290858954191421,1,0.999961
0.8864957710183885,0,0.997957
0.9055820566437651,0,0.975304
0.9715598641072247,0,0.999576
0.9684079497670057,1,0.999986
0.923665449541638,0,0.938793
0.9677303628133246,1,0.999976
0.9812560645782302,0,0.938024
0.9847389120554648,1,0.999898
0.9921314286972098,1,0.999990
0.9906653897143652,1,0.999973
0.9598949073496099,1,0.999929
0.9512491197816353,0,0.999725
0.9502508209395244,0,0.999776
0.9498705337966581,1,0.999980
0.933950116820161,1,0.999990
0.9585391999224373,1,0.999991
0.9560322093282163,0,0.941083
0.9714587875128999,1,0.999983
0.9833251510978787,0,0.999749
0.9186003018692502,0,0.999734
0.9036089226075056,0,0.999670
0.9762948701856711,1,0.999943
0.9744693444990202,0,0.999580
0.9445792777592553,1,0.999934
0.9437409475758468,1,0.999816
0.9657784484595666,1,0.999982
0.9301231741436639,1,0.999980
0.9520158180213121,1,0.999830
0.9573781034049265,1,0.999980
0.9594200549046621,1,0.999985
0.9838286833851937,1,0.999932
0.9776678139260069,1,0.999868
0.9808990306731361,1,0.999991
0.9780793774945937,1,0.999942
0.949174701051032,1,0.999981
0.9467855524578833,1,0.999989
0.9442519522492758,0,0.957641
0.9777416074435881,0,0.999149
0.9449121908477348,0,0.999187
0.98282158680881,1,0.999975
0.9870297886371892,1,0.999927
0.9836214178699834,1,0.999975
0.9130838224573524,1,0.999849
0.9692060472310141,0,0.998750
0.9838650677761737,1,0.999989
0.9485814926368029,1,0.999916
0.9731607649496503,1,0.999861
0.9427176694616474,1,0.999951
0.9883781950834349,0,0.999769
0.9269825072469301,0,0.964600
0.9841453718591484,0,0.998956
0.9713786503063062,0,0.999628
0.9712030596997401,0,0.942141
0.9675708317167845,0,0.999647
0.9684796127232286,1,0.999991
0.9376791322854628,1,0.999975
0.9841837818829695,1,0.999989
0.9709841978027557,1,0.999975
0.9823657131769309,1,0.999811
0.9587039814322234,1,0.999974
0.9607794874469283,0,0.969299
0.9684621680071233,0,0.999071
0.9434463982150056,1,0.999952
0.9488980345419592,1,0.999859
0.9422344920744551,1,0.999988
0.9675610203214222,1,0.999986
0.9710766214906323,1,0.999991
0.9575063503149841,1,0.999873
0.9791969927297807,0,0.999488
0.9778832444983282,1,0.999967
0.974993373216499,1,0.999974
0.975617694042977,1,0.999963
0.9866463810901666,0,0.999502
0.9911444400132166,1,0.999706
0.9272367252811163,1,0.999954
0.9673119550974472,1,0.999989
0.9276263612792214,1,0.999969
0.983163406178495,1,0.999975
0.9446505401409816,1,0.999940
0.9198370250305673,1,0.999980
0.967415098171568,1,0.999984
0.9735559294536762,1,0.999984
0.9693582003884086,0,0.999772
0.9075066181836866,0,0.960248
0.9421250224895025,0,0.996509
0.9767259426656276,1,0.999991
0.9734754704583586,1,0.999988
0.9546855498298689,0,0.999679
0.9421023993679774,0,0.999486
0.9659795217832858,1,0.999928
0.9292375581541016,0,0.974675
0.9521804513676064,1,0.999982
0.9721138250800788,0,0.997038
0.9779485521046516,1,0.999990
0.9439910394482874,1,0.999990
0.9211141727778867,0,0.990267
0.9683076202382488,0,0.999596
0.972811586980173,0,0.958429
0.9366019530045131,1,0.999983
0.9714073907544692,1,0.999785
0.9761010814995782,0,0.940486
0.9696766576545778,1,0.999941
0.9284122954541209,1,0.999970
0.9514969225527168,0,0.999450
0.9343073012200613,1,0.999984
0.9731378681816907,0,0.999161
0.9743984831942331,1,0.999968
0.9658326215676097,1,0.999934
0.9729311392449805,1,0.999991
0.973301207246113,1,0.999987
0.9576841808675249,1,0.999916
0.9502399880822257,1,0.999926
0.9638262983062406,1,0.999979
0.9752552315060152,1,0.999981
0.9799605103372229,0,0.984978
0.9758347068426759,1,0.999911
0.97170674454309,1,0.999730
0.9816367523189315,1,0.999968
0.9686892096079713,1,0.999895
0.9294536852182483,1,0.999954
0.9845110841737462,0,0.980967
0.9243045252685785,1,0.999900
0.9965262647035575,0,0.995601
0.9919171359409574,1,0.999984
0.9821506692550928,1,0.999987
0.949897763196516,0,0.999830
0.9782755048788462,1,0.999967
0.9721478581822162,1,0.999971
0.9847256282434902,1,0.999980
0.981331631326621,1,0.999960
0.9898583868144432,1,0.999989
0.9647831558344971,1,0.999919
0.9618848170526684,1,0.999978
0.9433444664697362,0,0.989600
0.9612462249399089,1,0.999979
0.9639509357742341,1,0.999983
0.9674182921608508,0,0.998744
0.9483841284025613,1,0.999990
0.9512099486962204,0,0.999730
0.9650498530632483,0,0.999662
0.9520802687576233,1,0.999983
0.9777939379903762,0,0.999790
0.9801361669796378,1,0.999977
0.9483916890618653,1,0.999965
0.8951536701854871,0,0.968810
0.9590079844733019,0,0.998810
0.9749633715227348,1,0.999919
0.9774480472378227,1,0.999947
0.9801170958433646,1,0.999905
0.9656776998691694,1,0.999976
0.9823542446377368,1,0.999977
0.9577113738872233,0,0.999546
0.94454254880592,1,0.999948
0.9866165709292382,1,0.999855
0.9767953486898399,0,0.999843
0.969004695000954,1,0.999990
0.9624474568539134,0,0.954679
0.9390391795183404,1,0.999969
0.9625008000319274,1,0.999984
0.9339443427946743,1,0.999896
0.9632304117446217,0,0.999142
0.9803671677248287,1,0.999957
0.9638955162650347,1,0.999890
0.9863002584050653,1,0.999912
0.9671348160476013,1,0.999875
0.9806676002183045,0,0.991772
0.987358915891,0,0.999865
0.9341682197974359,0,0.999774
0.9169448457852849,1,0.999917
0.9286809562479298,1,0.999944
0.9678834408777709,0,0.999391
0.9489680284841168,1,0.999991
0.9477744242101982,1,0.999896
0.9707340001290709,1,0.999982
0.9664381707721948,1,0.999987
0.9220368940683704,1,0.999893
0.9542716948846524,1,0.999983
0.9773350694780562,0,0.999436
0.9700260805627487,1,0.999854
0.9846615077886473,0,0.998922
0.9544906611379314,0,0.999836
0.970789054267272,0,0.955098
0.9582755533496085,1,0.999991
0.9560399842062434,0,0.999147
0.9738276216471555,1,0.999988
0.9480185282638286,1,0.999873
0.9718703065664108,0,0.999466
0.9819607293957023,1,0.999966
0.9562730963971237,0,0.999443
0.9738688700453572,0,0.936552
0.9786754276979349,1,0.999989
0.964901227945275,0,0.999798
0.9653311900379175,1,0.999973
0.9316950075595413,0,0.983603
0.9655674063918873,1,0.999944
0.9660426815987047,0,0.998952
0.9599724895180817,0,0.955988
0.9580372144914494,1,0.999990
0.9612790096426355,1,0.999906
0.9519397196789459,1,0.999979
0.9766042102842087,0,0.999108
0.9787638202463587,1,0.999987
0.9768632587794985,0,0.999608
0.9682337740243359,1,0.999898
0.9704230870952185,1,0.999966
0.9541870821719521,1,0.999862
0.9583008443627877,1,0.999955
0.9842158392309837,1,0.999976
0.9783250823353636,0,0.999477
0.9766652936474388,0,0.961469
0.970167188697352,1,0.999959
0.9816292164606111,1,0.999931
0.9643750799410878,1,0.999917
0.948004221953798,1,0.999990
0.9824445930122379,1,0.999602
0.9818587738727882,0,0.999801
0.9798768991544899,1,0.999887
0.9809777476549192,1,0.999981
0.9800112299730475,0,0.977165
0.9707852996883765,0,0.999461
0.8881229310850892,0,0.999735
0.9757204911905628,0,0.999878
0.922496604522016,1,0.999934
0.9765860675701147,1,0.999947
0.9796320149292205,0,0.999863
0.9409292519133936,1,0.999912
0.9798408811422158,1,0.999932
0.9833641926223028,0,0.980742
0.9840745437423996,0,0.987939
0.9775666129561452,0,0.999259
0.9678931419842027,0,0.999200
0.9231638876500832,1,0.999937
