0.42377289880251473,0,0.475596
0.6150443261654751,0,0.883854
0.8718831042519831,0,0.999814
0.919594514620705,0,0.804401
0.7463190136366735,0,0.999389
0.979225004900936,0,0.999788
0.8797244535254867,0,0.895859
0.9969622411826647,1,0.999991
0.9883451633800822,0,0.973925
0.8728151207271418,1,0.999892
0.9569838336977907,1,0.999983
0.9140808451383905,0,0.978121
0.7495970003793692,0,0.996684
0.7978009105803101,0,0.992827
0.8330594527446844,0,0.990652
0.7404775418091445,0,0.999699
0.8431837172189295,1,0.999983
0.9113811520975257,1,0.999982
0.9920635347951013,1,0.999970
0.9969029751245232,0,0.999778
0.7843913092007543,0,0.984779
0.9986394391724949,1,0.999948
0.9857897095276346,1,0.999906
0.9883302882562621,1,0.999991
0.9886095442437004,0,0.999417
0.8470060150464027,0,0.995436
0.8641864047816153,0,0.999669
0.991384788980244,1,0.999991
0.9959264380207224,1,0.999981
0.9978088158187208,1,0.999963
0.9958716867442281,1,0.999980
0.9837589394429351,1,0.999927
0.9650551920573442,1,0.999937
0.9936264174040119,0,0.999433
0.6703341789186226,0,0.999018
0.9348008690167681,0,0.987415
0.8527773885813862,0,0.993984
0.6299676773874963,0,0.984427
0.999520664175089,1,0.999985
0.9969663572115047,1,0.999991
0.9962387414643662,1,0.999990
0.576984187599612,0,0.999828
0.6723932881747176,1,0.999989
0.30003858473267625,0,0.991232
0.3386648347278603,0,0.999723
0.9976463662448242,0,0.999861
0.8592040382089047,1,0.999991
0.7990946752145377,0,0.994036
0.7133653947304677,1,0.999983
0.975209171001542,1,0.999980
0.9981718367431388,1,0.999980
0.9994899781961727,1,0.999979
0.9947198950386887,1,0.999962
0.9999322245042265,1,0.999981
0.9999531566777186,1,0.999981
0.9999874726705925,1,0.999920
0.9894218599581074,0,0.999703
0.9638178686790716,1,0.999977
0.9952331944319766,1,0.999987
0.9988912930123306,0,0.990932
0.9430205647523858,0,0.989155
0.9844257265876077,1,0.999987
0.8185727898541649,0,0.997862
0.9017080134245992,1,0.999978
0.9345994244688499,0,0.994086
0.995594710885651,0,0.999593
0.7871710790073131,1,0.999785
0.46632198044633055,1,0.999864
0.7914611720798704,1,0.999954
0.9923042913535336,1,0.999990
0.9628244637196544,1,0.999894
0.9606897310948547,0,0.999185
0.7691811551202925,0,0.976979
0.820508127210369,0,0.999754
0.39836410223619384,0,0.996728
0.9900373438263087,1,0.999990
0.9709268004972649,0,0.999824
0.9091005285229996,1,0.999983
0.8253437828952227,1,0.999982
0.9989904163147438,1,0.999991
0.7403459278816743,1,0.999956
0.9033683116973267,0,0.999523
0.990577458306284,1,0.999955
0.9987161181761715,1,0.999963
0.9653355687236883,0,0.999703
0.5344621378367724,0,0.999868
0.9883105688673328,0,0.999904
0.9626329781387355,0,0.999857
0.40041018877478146,1,0.999901
0.485511697464491,0,0.997082
0.8692775462471684,0,0.995843
0.5657454676425816,0,0.984707
0.9588319075913694,0,0.997802
0.8242858354958088,0,0.999838
0.7957506023673566,1,0.999937
0.9869924705435464,0,0.998938
0.7018956977205258,0,0.998519
0.9924821621324657,1,0.999977
0.9594085538363979,1,0.999990
0.995404714156254,0,0.999776
0.8445234075394285,0,0.992221
0.6648006706274953,1,0.999915
0.7293899250375588,0,0.999462
0.6521723184352778,0,0.999386
0.9449595090789181,0,0.991330
0.9945340171281065,1,0.999976
0.9743170417499443,0,0.999632
0.9669298347212544,1,0.999914
0.9973154218859743,1,0.999987
0.9941503095331298,1,0.999988
0.9985294133922518,1,0.999949
0.9998169172119832,1,0.999988
0.9970147812686003,1,0.999964
0.9909997206280845,1,0.999966
0.986028430589336,0,0.999904
0.9866465871145939,0,0.992142
0.8490319602100549,0,0.992102
0.7623015308929326,1,0.999974
0.5850741758706669,0,0.998931
0.7969442205852325,0,0.997459
0.5641906610334644,0,0.988862
0.7235388854410194,0,0.999337
0.6649349680440514,0,0.994571
0.5959025532186086,0,0.997247
0.9376777106310632,0,0.999792
0.9947887345572982,1,0.999989
0.9855935877253432,1,0.999991
0.9886026228528291,1,0.999938
0.7482016001914056,0,0.983402
0.9200061877719312,1,0.999973
0.9936588038843006,1,0.999987
0.8381115862156384,1,0.999933
0.9366391865136979,1,0.999959
0.5820521794998464,1,0.999987
0.9179288836460433,0,0.990853
0.9955819250275235,1,0.999964
0.9751174680114058,0,0.998887
0.9999578169291631,1,0.999964
0.9969795214953956,1,0.999976
0.9912607789385977,1,0.999971
0.9947341419659068,1,0.999968
0.9998305871431314,1,0.999991
0.9902256657884868,0,0.999716
0.9893009420021396,1,0.999991
0.98664463004079,1,0.999935
