-0.0023869954799693427,0,0.008079
0.001045121074157817,0,0.008449
0.004333921410716712,0,0.008954
0.007291824113232073,0,0.009645
0.009910600708683577,0,0.007991
0.011522764085621428,0,0.008215
0.012512044193628698,0,0.008929
0.013114777745664491,0,0.011254
0.013523639564801472,0,0.011397
0.013784877087588788,0,0.009308
0.013954095909140367,0,0.009144
0.014053685781957178,0,0.012727
0.014123671247141421,0,0.009313
0.014174688675426176,0,0.010012
0.10803479488950526,0,0.925998
0.856686070035411,0,0.999644
0.8683138729658738,0,0.045126
0.8765384152752804,0,0.101766
0.7616629830729613,0,0.120466
0.7361322524854405,0,0.999015
0.39158258810125296,0,0.886237
0.379427338795105,0,0.126547
0.06596637880683319,0,0.973129
0.07068346372903832,0,0.991321
0.08809064319546007,0,0.990152
0.6208756810894466,0,0.992481
0.7932617532328489,0,0.991482
0.7848192766505352,0,0.998231
0.7488579351088261,0,0.969105
0.47966140049865014,0,0.990657
0.4551973027685288,0,0.942748
0.3087815865201068,0,0.985193
0.2670590529710709,0,0.756047
0.12322638701907383,0,0.969616
0.1395337840887544,0,0.004373
0.049855613862375414,0,0.987423
0.09927160462090799,0,0.999478
0.6966115741887278,1,0.999965
0.7630649779761564,0,0.904460
0.4029426480913317,0,0.896588
0.239213476800958,0,0.929629
0.089660652494432,0,0.996395
0.007202249882129573,0,0.748616
0.0015100821192247167,0,0.971338
0.0010643394086749932,0,0.854704
0.5324978667177227,0,0.999683
0.5718800963432734,0,0.933106
0.039439685707598995,0,0.944471
0.45654287731322396,0,0.999639
0.4588724564341793,0,0.995454
0.3843875570767333,0,0.900538
0.35262171516100194,0,0.936499
0.3352765071558437,0,0.939446
0.22942808260889838,0,0.944628
0.1057308434473812,0,0.957131
0.047011945154388966,0,0.927428
0.023977476675716865,1,0.999976
0.008919656554582878,0,0.933977
7.994917005071156E-4,0,0.960668
6.61989635709647E-4,0,0.854173
-7.18503004726337E-4,0,0.840045
-0.002548874886667759,0,0.997864
-0.003566460837063595,0,0.840767
-5.756810665130057E-4,0,0.965080
-0.0016106869336874922,0,0.117391
-0.0014844909062631285,0,0.969758
0.004548749158204716,0,0.899205
1.4186355782007758E-4,0,0.855172
-1.6032979363045626E-5,0,0.844559
-1.113822207553179E-4,0,0.904849
-0.003016855236700791,0,0.772653
-0.003016855236700791,0,0.721761
0.21554888604132585,0,0.743678
0.45247466913167655,0,0.998322
0.44613271356357914,0,0.793026
0.1950990358383503,0,0.957115
0.08631757223779848,0,0.981278
0.1787417688266489,0,0.989731
0.12654841314006143,0,0.985242
0.05826389952396149,0,0.988646
0.020794702730157124,0,0.853838
0.3079222812213975,0,0.840125
0.11546691102105666,0,0.994302
0.48388115773425155,0,0.999761
0.46675756631903265,0,0.999139
0.1751874115194067,0,0.997990
0.1282570758972333,0,0.830279
0.0017730388623253583,0,0.993437
-8.74393285712924E-4,0,0.991210
0.014714454148615087,0,0.916300
0.019007033260868934,0,0.799402
0.017638788279984215,0,0.952082
0.0038357082735290993,0,0.927385
0.001064561553412557,0,0.985994
-0.0029466904849460946,0,0.853435
0.32373204719545523,0,0.981412
0.3177142423834283,0,0.908371
0.31501845866072037,0,0.927733
0.06711996853989866,0,0.809193
0.06499914113885062,0,0.961165
0.043549664813140196,0,0.793048
0.015886407366054393,0,0.926856
0.004768457069625062,0,0.901995
0.09626062827350411,0,0.988053
0.05281821812251347,0,0.710890
0.04409152008263693,0,0.838651
0.014463980348009112,0,0.871177
0.011693739834546,0,0.820788
0.006236133005685984,0,0.963026
0.010984456177823697,0,0.956610
0.010596370459394013,0,0.993512
0.010237435563677375,0,0.926208
0.0024816712397354493,0,0.803842
-0.0018911195303734948,0,0.467851
-0.0020901834939308513,0,0.822589
-4.529708923770914E-4,0,0.727648
-0.0016326522212147937,0,0.695037
3.761239625020831E-4,0,0.570899
-6.301331590160973E-4,0,0.385342
0.0012036693725927885,0,0.945814
0.0026263874291846895,0,0.903574
0.0016674466709702604,0,0.912738
0.003274053615949369,0,0.884685
0.0025702475832099837,0,0.864926
0.47892616665099547,0,0.966252
0.4189404695452309,0,0.975606
0.6701027853760223,0,0.995703
0.6278483965947339,0,0.993791
0.5405846496500445,0,0.998209
0.5356058099808408,0,0.997942
0.1467326477453685,0,0.990925
0.036730293225532666,0,0.988900
0.0031802580892522875,0,0.990922
0.003245649183146801,0,0.962477
0.005695327366641337,0,0.983387
0.005836811765588343,0,0.976766
0.004657852924558992,0,0.800698
0.003916062980561673,0,0.987077
0.004007608198560257,0,0.937022
0.0026326508669030184,0,0.966393
0.0013852978096329427,0,0.478579
0.0012317879565049016,0,0.849329
0.003903250072090988,0,0.977200
0.0022234681120069377,0,0.925405
0.0031921776301579185,0,0.983014
0.0013497545542015977,0,0.844016
0.002810872550218601,0,0.733901
0.006994981331783593,0,0.908618
0.7688614311749652,0,0.914683
0.534273379211171,0,0.845745
0.19423236495178098,0,0.854013
0.016670284465145166,0,0.969291
