0.19963040490084777,0,0.993794
0.32353294437732655,0,0.979346
0.34690015840350874,0,0.985476
0.41469532508015217,0,0.988052
0.4657056599050584,0,0.999730
0.4820105182983897,0,0.980275
0.5470271509032233,0,0.994054
0.556678076376466,0,0.997120
0.6683060869272995,0,0.999223
0.6921467984137999,0,0.965880
0.7062276484555937,0,0.994856
0.7211995407936148,0,0.996823
0.7498274476225811,0,0.999363
0.754385727933928,0,0.985829
0.7600179716279554,0,0.997803
0.7666948247363519,0,0.998766
0.7751178215406009,0,0.997684
0.7856439553170181,0,0.998968
0.8106959509808669,0,0.998955
0.8269782351780061,0,0.999615
0.8337805889271154,0,0.998482
0.8447820697711067,0,0.987848
0.8455440506667632,0,0.998687
0.851150852751218,0,0.998195
0.8562605064187958,0,0.998485
0.8693263826656668,0,0.999547
0.8852790204300964,0,0.999734
0.8981653310818983,0,0.999481
0.9066917715957109,0,0.999635
0.9130133333168847,0,0.999536
0.9204153119685535,0,0.999616
0.9263288096014991,1,0.999924
0.9309361528865315,0,0.999765
0.9354101884775335,0,0.999581
0.9404559379488939,0,0.999787
0.9471086282207538,0,0.999783
0.9506247449448483,1,0.999907
0.9537991287278256,1,0.999918
0.9558884436063035,1,0.999964
0.9571803765641674,0,0.999735
0.9581474197813019,0,0.999052
0.9591900764951252,0,0.999705
0.9609225722479463,0,0.999864
0.962875141106612,1,0.999972
0.9641794990674282,1,0.999883
0.9664912093175176,1,0.999986
0.9683931052314183,1,0.999988
0.969582396458688,0,0.999847
0.9706265622732293,1,0.999927
0.9718472249059302,1,0.999977
0.9734970336251381,0,0.999753
0.9742016277078147,0,0.999327
0.9748438084371535,1,0.999981
0.9752467972710158,1,0.999891
0.9757360550850693,1,0.999963
0.9760365837490177,0,0.999012
0.975330200426742,1,0.999911
0.9754903093183294,1,0.999962
0.9759100568331784,1,0.999946
0.9759418131835685,1,0.999942
0.9763093942948794,1,0.999988
0.9767237207490127,0,0.998076
0.9769418695617499,1,0.999941
0.9779803664209304,1,0.999956
0.9786006592648346,1,0.999972
0.9791010584475001,1,0.999962
0.9795637766007327,0,0.999893
0.9800434203163911,0,0.999807
0.9805448537880707,0,0.999370
0.9814405912297293,1,0.999988
0.981539921800982,1,0.999970
0.9813171139744226,1,0.999991
0.9811911553019848,0,0.999836
0.9813840922472657,1,0.999985
0.9816672224344342,1,0.999988
0.9819248198204977,1,0.999988
0.9819998385113862,1,0.999974
0.9821883206662684,1,0.999970
0.9824553040120033,1,0.999980
0.9830361048278103,1,0.999954
0.7170831528683014,1,0.999963
0.7607784735439989,0,0.999407
0.7799848405021544,0,0.999673
0.8089137110461451,0,0.999135
0.8118417998538329,1,0.999908
0.8162143386802609,0,0.999872
0.8321705402336264,0,0.999813
0.834333924677341,1,0.999916
0.8480099409640822,0,0.991052
0.8531348410079614,1,0.999981
0.8590356989535255,0,0.996518
0.8697229543984187,0,0.991578
0.8778565314094844,0,0.999447
0.8800935071444577,1,0.999905
0.8848548321454685,0,0.999212
0.886130824789793,0,0.999072
0.8919652062303962,0,0.999338
0.8955680083924786,0,0.999625
0.8989195032367949,0,0.999304
0.9032947022211141,0,0.999676
0.9129212641807752,0,0.997733
0.9135104950674121,1,0.999931
0.9154503059538615,0,0.993924
0.9178853575922886,0,0.999770
0.9202185671659682,0,0.999739
0.919007923352521,1,0.999959
0.9204176546949646,0,0.998915
0.9219511246954223,0,0.999835
0.9252760010446082,0,0.998928
0.9279967899604381,0,0.993742
0.929544492168562,1,0.999990
0.9308613312100616,0,0.981121
