0.24477009165043626,0,0.992900
0.5345606539581949,0,0.990857
0.795753294676741,0,0.990976
0.8711271499597201,0,0.203197
0.9988688564510695,1,0.999975
0.9998397052965471,1,0.999964
0.9998569744902864,1,0.999990
0.9998943357724481,1,0.999984
0.9999906152270469,1,0.999973
0.9999994843067603,1,0.999985
0.9999994843067603,0,0.971378
0.9999997470268656,1,0.999979
0.9999998452089633,0,0.979211
0.9999999761955455,1,0.999951
0.9999999761955455,0,0.999935
0.9999999837653675,0,0.962489
0.9999999900881332,1,0.999962
0.999999994664227,1,0.999970
0.9999999962529279,0,0.992630
0.9999999965926232,1,0.999994
0.9999999969513975,1,0.999975
0.9999999971888722,0,0.999930
0.9999999992119777,1,0.999994
0.9999999993693469,0,0.977614
0.9999999997048212,1,0.999988
0.9999999997187947,0,0.976569
0.9999999999021031,1,0.999964
0.9999999999281675,1,0.999960
0.9999999999576549,1,0.999973
0.9999999999792238,1,0.999987
0.9999999999896653,1,0.999994
0.9999999999982557,1,0.999994
0.9999999999992919,1,0.999992
0.9999999999995626,1,0.999994
0.9999999999998811,1,0.999983
0.9999999999999473,1,0.999991
0.9999999999999771,1,0.999988
1.0,1,0.999986
1.0,1,0.999986
1.0,1,0.999995
0.9999999999999928,1,0.999993
1.0,1,0.999979
1.0,1,0.999993
0.9999999999999791,1,0.999995
0.9999999999999987,1,0.999991
0.9999999999999689,1,0.999990
1.0,1,0.999993
1.0,1,0.999983
1.0,1,0.999966
1.0,1,0.999948
1.0,1,0.999992
0.9999999999999897,1,0.999946
0.9999999999999921,1,0.999965
1.0,1,0.999985
0.9999999999999929,1,0.999929
0.9999999999999764,1,0.999950
1.0,1,0.999977
0.999999999999981,1,0.999985
0.9999999999999998,1,0.999985
1.0,1,0.999988
1.0,1,0.999992
0.9999999999999845,1,0.999930
1.0,1,0.999995
0.9999999999999782,1,0.999989
1.0,1,0.999990
0.9999999999999877,1,0.999989
1.0,1,0.999985
1.0,1,0.999994
1.0,1,0.999986
0.9999999999999857,1,0.999993
1.0,1,0.999984
1.0,1,0.999993
1.0,1,0.999994
0.9999999999999901,1,0.999966
0.9999999999999839,1,0.999972
1.0,1,0.999993
1.0,1,0.999988
1.0,1,0.999995
1.0,1,0.999993
1.0,1,0.999994
1.0,1,0.999993
1.0,1,0.999991
1.0,1,0.999990
1.0,1,0.999993
1.0,1,0.999994
1.0,1,0.999995
1.0,1,0.999989
0.9999999999999836,1,0.999989
0.9999999999999701,1,0.999993
0.999999999999945,1,0.999991
0.9999999999999785,1,0.999985
0.9999999999999905,1,0.999983
1.0,1,0.999990
1.0,1,0.999981
1.0,1,0.999975
1.0,1,0.999989
0.9999999999999903,1,0.999970
1.0,1,0.999980
0.9999999999999774,1,0.999989
1.0,1,0.999983
0.9999999999999949,1,0.999994
1.0,1,0.999993
1.0,1,0.999991
0.9999999999999757,1,0.999992
1.0,1,0.999993
0.9999999999999893,1,0.999977
0.9999999999999605,1,0.999991
1.0,1,0.999991
0.999999999999979,1,0.999985
0.9999999999999982,1,0.999985
0.9999999999999953,1,0.999976
0.9999999999999878,1,0.999976
1.0,1,0.999992
1.0,1,0.999973
1.0,1,0.999980
0.999999999999997,1,0.999995
0.999999999999997,1,0.999989
1.0,1,0.999994
0.9999999999999921,1,0.999990
1.0,1,0.999983
0.9999999999999825,1,0.999992
1.0,1,0.999985
0.9999999999999685,1,0.999982
0.9999999999999994,1,0.999986
1.0,1,0.999952
0.9999999999999815,1,0.999991
0.9999999999999778,1,0.999993
1.0,1,0.999991
1.0,1,0.999993
0.9999999999999867,1,0.999994
0.9999999999999867,1,0.999991
0.9999999999999823,1,0.999993
1.0,1,0.999992
0.9999999999999892,1,0.999991
0.9999999999999932,1,0.999992
1.0,1,0.999990
0.9999999999999702,1,0.999992
1.0,1,0.999991
0.9999999999999776,1,0.999989
1.0,1,0.999988
1.0,1,0.999991
0.9999999999999868,1,0.999993
1.0,1,0.999994
0.9999999999999927,1,0.999992
1.0,1,0.999993
1.0,1,0.999992
1.0,1,0.999993
0.9999999999999991,1,0.999991
1.0,1,0.999995
1.0,1,0.999978
1.0,1,0.999991
1.0,1,0.999989
0.9999999999999977,1,0.999994
1.0,1,0.999995
1.0,1,0.999994
0.9999999999999699,1,0.999993
1.0,1,0.999995
0.9999999999999855,1,0.999971
0.9999999999999974,1,0.999974
0.9999999999999746,1,0.999993
0.9999999999999815,1,0.999987
1.0,1,0.999993
1.0,1,0.999990
0.999999999999975,1,0.999993
1.0,1,0.999991
1.0,1,0.999993
0.9999999999999593,1,0.999990
1.0,1,0.999986
0.9999999999999681,1,0.999984
1.0,1,0.999988
1.0,1,0.999992
0.9999999999999807,1,0.999990
1.0,1,0.999988
1.0,1,0.999991
1.0,1,0.999992
0.9999999999999698,1,0.999991
0.999999999999967,1,0.999982
1.0,1,0.999980
1.0,1,0.999995
0.9999999999999787,1,0.999993
1.0,1,0.999989
0.9999999999999645,1,0.999991
1.0,1,0.999988
1.0,1,0.999990
1.0,1,0.999995
1.0,1,0.999994
0.9999999999999944,1,0.999993
1.0,1,0.999985
0.9999999999999867,1,0.999986
1.0,1,0.999992
0.9999999999999907,1,0.999993
0.9999999999999739,1,0.999977
1.0,1,0.999994
0.9999999999999819,1,0.999990
1.0,1,0.999972
0.9999999999999661,1,0.999991
0.9999999999999667,1,0.999972
0.9999999999999831,1,0.999964
1.0,1,0.999992
1.0,1,0.999992
0.99999999999997,1,0.999994
1.0,1,0.999992
1.0,1,0.999990
1.0,1,0.999975
1.0,1,0.999986
0.9999999999999857,1,0.999994
0.9999999999999853,1,0.999992
0.9999999999999797,1,0.999990
0.9999999999999798,1,0.999989
0.9999999999999967,1,0.999981
1.0,1,0.999994
1.0,1,0.999993
1.0,1,0.999991
0.9999999999999886,1,0.999990
1.0,1,0.999990
1.0,1,0.999993
1.0,1,0.999978
1.0,1,0.999986
0.9999999999999973,1,0.999989
1.0,1,0.999987
0.9999999999999719,1,0.999987
0.9999999999999812,1,0.999991
0.9999999999999544,1,0.999989
0.9999999999999952,1,0.999984
0.9999999999999678,1,0.999977
0.9999999999999505,1,0.999994
0.9999999999999918,1,0.999992
1.0,1,0.999993
0.9999999999999896,1,0.999992
0.9999999999999963,1,0.999959
0.9999999999999821,1,0.999983
0.9999999999999978,1,0.999991
0.9999999999999952,1,0.999990
1.0,1,0.999987
0.9999999999999798,1,0.999989
1.0,1,0.999994
0.9999999999999801,1,0.999991
0.9999999999999918,1,0.999991
1.0,1,0.999992
1.0,1,0.999990
0.999999999999971,1,0.999989
0.99999999999996,1,0.999992
0.9999999999999869,1,0.999992
0.9999999999999956,1,0.999995
0.9999999999999986,1,0.999990
1.0,1,0.999990
1.0,1,0.999991
1.0,1,0.999990
1.0,1,0.999985
1.0,1,0.999977
1.0,1,0.999990
1.0,1,0.999984
1.0,1,0.999989
0.9999999999999782,1,0.999989
1.0,1,0.999992
1.0,1,0.999990
0.9999999999999823,1,0.999987
0.9999999999999738,1,0.999989
1.0,1,0.999991
0.9999999999999913,1,0.999988
1.0,1,0.999992
0.9999999999999656,1,0.999982
0.9999999999999962,1,0.999988
0.9999999999999789,1,0.999987
0.9999999999999876,1,0.999989
0.9999999999999858,1,0.999986
1.0,1,0.999989
1.0,1,0.999977
1.0,1,0.999994
0.9999999999999851,1,0.999989
0.9999999999999916,1,0.999985
0.9999999999999886,1,0.999987
0.9999999999999898,1,0.999979
1.0,1,0.999989
0.9999999999999877,1,0.999993
1.0,1,0.999993
1.0,1,0.999986
1.0,1,0.999985
1.0,1,0.999994
0.9999999999999857,1,0.999993
1.0,1,0.999990
0.9999999999999999,1,0.999995
0.9999999999999999,1,0.999992
1.0,1,0.999991
1.0,1,0.999991
0.9999999999999819,1,0.999991
1.0,1,0.999994
0.9999999999999775,1,0.999993
0.9999999999999889,1,0.999992
1.0,1,0.999978
0.9999999999999832,1,0.999990
0.999999999999987,1,0.999984
0.9999999999999891,1,0.999994
1.0,1,0.999992
1.0,1,0.999992
0.9999999999999893,1,0.999992
0.9999999999999976,1,0.999993
0.999999999999982,1,0.999991
0.9999999999999786,1,0.999946
0.9999999999999927,1,0.999993
0.9999999999999639,1,0.999992
1.0,1,0.999991
1.0,1,0.999991
1.0,1,0.999976
0.9999999999999706,1,0.999989
0.9999999999999928,1,0.999992
0.9999999999999998,1,0.999989
0.9999999999999928,1,0.999992
1.0,1,0.999990
1.0,1,0.999987
0.9999999999999801,1,0.999988
0.9999999999999823,1,0.999992
0.9999999999999664,1,0.999991
0.9999999999999803,1,0.999991
0.999999999999977,1,0.999992
1.0,1,0.999975
1.0,1,0.999986
1.0,1,0.999995
1.0,1,0.999995
1.0,1,0.999991
1.0,1,0.999988
1.0,1,0.999989
1.0,1,0.999989
1.0,1,0.999989
0.9999999999999972,1,0.999990
1.0,1,0.999992
1.0,1,0.999995
1.0,1,0.999992
0.9999999999999645,1,0.999988
1.0,1,0.999993
0.999999999999963,1,0.999989
1.0,1,0.999973
1.0,1,0.999989
1.0,1,0.999995
0.9999999999999991,1,0.999993
1.0,1,0.999993
1.0,1,0.999986
1.0,1,0.999991
0.9999999999999983,1,0.999992
0.9999999999999765,1,0.999989
1.0,1,0.999989
1.0,1,0.999995
1.0,1,0.999992
0.9999999999999857,1,0.999977
0.999999999999995,1,0.999993
0.9999999999999822,1,0.999993
0.9999999999999949,1,0.999994
1.0,1,0.999989
0.9999999999999971,1,0.999989
1.0,1,0.999989
1.0,1,0.999989
0.9999999999999744,1,0.999995
0.9999999999999947,1,0.999986
1.0,1,0.999986
0.9999999999999999,1,0.999993
1.0,1,0.999983
0.9999999999999715,1,0.999991
1.0,1,0.999989
1.0,1,0.999993
1.0,1,0.999994
0.999999999999991,1,0.999986
0.9999999999999715,1,0.999980
1.0,1,0.999948
1.0,1,0.999989
1.0,1,0.999995
1.0,1,0.999992
0.9999999999999818,1,0.999979
1.0,1,0.999986
1.0,1,0.999992
1.0,1,0.999995
0.9999999999999856,1,0.999995
1.0,1,0.999991
1.0,1,0.999993
1.0,1,0.999991
0.9999999999999668,1,0.999994
0.9999999999999971,1,0.999991
0.9999999999999879,1,0.999993
1.0,1,0.999995
1.0,1,0.999991
1.0,1,0.999977
0.9999999999999865,1,0.999994
0.9999999999999797,1,0.999987
0.9999999999999836,1,0.999993
1.0,1,0.999987
0.9999999999999745,1,0.999984
0.999999999999963,1,0.999988
1.0,1,0.999995
1.0,1,0.999993
1.0,1,0.999992
1.0,1,0.999978
0.999999999999964,1,0.999993
0.9999999999999822,1,0.999995
0.9999999999999748,1,0.999992
0.9999999999999755,1,0.999995
1.0,1,0.999991
0.9999999999999936,1,0.999971
0.9999999999999792,1,0.999940
0.9999999999999982,1,0.999985
1.0,1,0.999992
0.9999999999999777,1,0.999994
0.9999999999999988,1,0.999980
1.0,1,0.999989
1.0,1,0.999988
1.0,1,0.999990
1.0,1,0.999990
1.0,1,0.999993
0.9999999999999944,1,0.999969
1.0,1,0.999989
0.9999999999999919,1,0.999986
0.9999999999999917,1,0.999988
1.0,1,0.999995
0.9999999999999851,1,0.999990
0.9999999999999699,1,0.999979
0.9999999999999866,1,0.999993
0.9999999999999918,1,0.999988
1.0,1,0.999987
0.9999999999999545,1,0.999990
1.0,1,0.999988
0.9999999999999932,1,0.999989
1.0,1,0.999984
0.9999999999999797,1,0.999992
0.9999999999999831,1,0.999982
0.9999999999999999,1,0.999987
1.0,1,0.999993
0.999999999999994,1,0.999993
0.9999999999999915,1,0.999977
0.9999999999999839,1,0.999990
0.999999999999991,1,0.999980
1.0,1,0.999992
0.9999999999999568,1,0.999992
0.9999999999999797,1,0.999995
0.9999999999999934,1,0.999988
0.9999999999999721,1,0.999984
0.9999999999999974,1,0.999985
0.9999999999999837,1,0.999995
0.9999999999999999,1,0.999991
0.9999999999999928,1,0.999991
1.0,1,0.999991
0.9999999999999807,1,0.999995
0.9999999999999807,1,0.999991
0.9999999999999989,1,0.999989
1.0,1,0.999995
1.0,1,0.999993
1.0,1,0.999992
0.9999999999999888,1,0.999954
1.0,1,0.999989
1.0,1,0.999989
1.0,1,0.999990
1.0,1,0.999986
0.9999999999999771,1,0.999994
0.9999999999999771,1,0.999982
1.0,1,0.999992
0.9999999999999667,1,0.999993
0.9999999999999987,1,0.999989
1.0,1,0.999990
1.0,1,0.999991
1.0,1,0.999988
1.0,1,0.999995
0.9999999999999837,1,0.999992
0.9999999999999852,1,0.999992
0.9999999999999898,1,0.999990
1.0,1,0.999991
1.0,1,0.999991
0.9999999999999437,1,0.999995
0.9999999999999801,1,0.999993
0.9999999999999608,1,0.999990
1.0,1,0.999975
1.0,1,0.999993
1.0,1,0.999995
1.0,1,0.999989
1.0,1,0.999985
0.9999999999999635,1,0.999985
0.9999999999999888,1,0.999994
0.9999999999999959,1,0.999993
1.0,1,0.999992
1.0,1,0.999994
0.9999999999999882,1,0.999986
0.99999999999996,1,0.999993
0.9999999999999944,1,0.999990
0.9999999999999571,1,0.999992
1.0,1,0.999974
0.9999999999999771,1,0.999985
1.0,1,0.999970
1.0,1,0.999990
0.9999999999999653,1,0.999976
1.0,1,0.999982
1.0,1,0.999983
1.0,1,0.999993
0.9999999999999992,1,0.999994
0.9999999999999992,1,0.999990
1.0,1,0.999991
1.0,1,0.999990
1.0,1,0.999989
0.9999999999999867,1,0.999992
0.9999999999999807,0,0.999940
1.0,1,0.999985
1.0,1,0.999989
1.0,1,0.999992
0.999999999999968,1,0.999995
1.0,1,0.999991
1.0,1,0.999994
1.0,1,0.999992
0.9999999999999805,1,0.999988
1.0,1,0.999992
1.0,1,0.999989
0.9999999999999888,1,0.999993
1.0,1,0.999988
0.9999999999999762,1,0.999994
1.0,1,0.999988
0.9999999999999546,1,0.999993
0.9999999999999913,1,0.999974
1.0,1,0.999993
1.0,1,0.999992
1.0,1,0.999994
1.0,1,0.999984
1.0,1,0.999990
0.9999999999999726,1,0.999982
0.9999999999999983,1,0.999991
0.9999999999999731,1,0.999990
1.0,1,0.999994
1.0,1,0.999990
0.9999999999999519,1,0.999992
1.0,1,0.999993
1.0,1,0.999994
0.9999999999999983,1,0.999994
1.0,1,0.999992
0.9999999999999931,1,0.999990
1.0,1,0.999985
0.9999999999999798,1,0.999985
0.999999999999997,1,0.999989
0.9999999999999659,1,0.999989
1.0,1,0.999983
0.9999999999999939,1,0.999969
0.9999999999999761,1,0.999992
1.0,1,0.999984
1.0,1,0.999992
0.9999999999999659,1,0.999987
1.0,1,0.999986
0.9999999999999959,1,0.999990
0.9999999999999893,1,0.999991
0.9999999999999585,1,0.999972
0.9999999999999958,1,0.999984
0.9999999999999607,1,0.999964
0.9999999999999974,1,0.999991
0.9999999999999805,1,0.999992
0.9999999999999805,1,0.999979
0.9999999999999812,1,0.999994
1.0,1,0.999982
1.0,1,0.999985
0.9999999999999796,1,0.999987
1.0,1,0.999985
1.0,1,0.999983
1.0,1,0.999981
1.0,1,0.999980
1.0,1,0.999978
1.0,1,0.999986
0.9999999999999741,1,0.999989
1.0,1,0.999991
0.9999999999999677,1,0.999992
1.0,1,0.999975
0.9999999999999895,1,0.999970
0.9999999999999895,1,0.999993
0.9999999999999782,1,0.999985
0.9999999999999861,1,0.999986
0.9999999999999923,1,0.999986
1.0,1,0.999986
1.0,1,0.999987
1.0,1,0.999981
1.0,1,0.999994
1.0,1,0.999985
1.0,1,0.999992
0.9999999999999902,1,0.999987
0.9999999999999768,1,0.999993
1.0,1,0.999993
0.9999999999999848,1,0.999995
0.9999999999999929,1,0.999990
1.0,1,0.999988
0.9999999999999752,1,0.999992
0.9999999999999855,1,0.999992
0.9999999999999701,1,0.999988
0.9999999999999826,1,0.999987
1.0,1,0.999892
1.0,1,0.999991
1.0,1,0.999982
1.0,1,0.999991
0.9999999999999943,1,0.999987
1.0,1,0.999991
0.9999999999999875,1,0.999990
0.9999999999999919,1,0.999992
0.999999999999998,1,0.999988
0.9999999999999917,1,0.999986
1.0,1,0.999989
1.0,1,0.999988
1.0,1,0.999979
1.0,1,0.999990
1.0,1,0.999989
1.0,1,0.999916
0.999999999999982,1,0.999990
0.9999999999999881,1,0.999988
0.9999999999999936,1,0.999994
1.0,1,0.999981
0.9999999999999797,1,0.999990
0.9999999999999802,1,0.999987
1.0,1,0.999977
1.0,1,0.999981
1.0,1,0.999986
0.999999999999995,1,0.999988
0.999999999999974,1,0.999988
1.0,1,0.999983
1.0,1,0.999988
0.9999999999999998,1,0.999986
0.9999999999999896,1,0.999974
0.9999999999999777,1,0.999994
1.0,1,0.999993
0.9999999999999826,1,0.999987
1.0,1,0.999983
0.9999999999999986,1,0.999994
1.0,1,0.999993
0.9999999999999933,1,0.999982
1.0,1,0.999991
1.0,1,0.999994
0.9999999999999868,1,0.999990
0.9999999999999897,1,0.999992
1.0,1,0.999991
1.0,1,0.999991
0.9999999999999905,1,0.999994
1.0,1,0.999991
1.0,1,0.999990
1.0,1,0.999968
0.9999999999999528,1,0.999992
1.0,1,0.999991
1.0,1,0.999976
1.0,1,0.999994
1.0,1,0.999993
0.9999999999999968,1,0.999989
0.9999999999999868,1,0.999993
1.0,1,0.999995
0.9999999999999917,1,0.999986
0.9999999999999836,1,0.999991
0.9999999999999999,1,0.999993
1.0,1,0.999990
0.9999999999999807,1,0.999994
0.9999999999999902,1,0.999991
0.9999999999999742,1,0.999994
1.0,1,0.999994
1.0,1,0.999990
0.9999999999999862,1,0.999991
0.9999999999999833,1,0.999993
0.9999999999999961,1,0.999994
1.0,1,0.999992
0.9999999999999931,1,0.999991
0.9999999999999978,1,0.999985
1.0,1,0.999991
0.9999999999999998,1,0.999992
1.0,1,0.999989
0.9999999999999999,1,0.999993
0.9999999999999898,1,0.999988
0.9999999999999949,1,0.999974
0.9999999999999993,1,0.999995
1.0,1,0.999991
1.0,1,0.999987
1.0,1,0.999995
1.0,1,0.999995
0.9999999999999856,1,0.999992
1.0,1,0.999989
0.9999999999999833,1,0.999994
0.9999999999999926,1,0.999984
1.0,1,0.999994
0.9999999999999427,1,0.999990
1.0,1,0.999987
1.0,1,0.999983
1.0,1,0.999994
1.0,1,0.999935
0.9999999999999671,1,0.999986
0.9999999999999583,1,0.999993
1.0,1,0.999987
0.9999999999999933,1,0.999986
0.9999999999999986,1,0.999993
1.0,1,0.999954
1.0,1,0.999993
1.0,1,0.999989
0.9999999999999859,1,0.999994
0.9999999999999792,1,0.999994
0.9999999999999801,1,0.999977
1.0,1,0.999992
1.0,1,0.999991
0.9999999999999847,1,0.999990
1.0,1,0.999994
0.9999999999999891,1,0.999989
1.0,1,0.999965
0.9999999999999803,1,0.999989
0.9999999999999812,1,0.999995
1.0,1,0.999993
0.9999999999999787,1,0.999991
1.0,1,0.999970
1.0,1,0.999992
1.0,1,0.999991
0.9999999999999958,1,0.999950
1.0,1,0.999993
0.9999999999999928,1,0.999989
0.999999999999994,1,0.999988
0.9999999999999686,1,0.999994
1.0,1,0.999989
1.0,1,0.999994
0.999999999999999,1,0.999991
0.9999999999999986,1,0.999976
1.0,1,0.999992
1.0,1,0.999983
0.9999999999999888,1,0.999991
0.9999999999999949,1,0.999991
1.0,1,0.999991
0.9999999999999801,1,0.999989
0.9999999999999916,1,0.999991
1.0,1,0.999995
1.0,1,0.999985
1.0,1,0.999991
0.9999999999999999,1,0.999990
1.0,1,0.999988
0.9999999999999735,1,0.999993
0.9999999999999885,1,0.999991
0.9999999999999835,1,0.999990
0.9999999999999816,1,0.999991
1.0,1,0.999991
0.9999999999999715,1,0.999993
1.0,1,0.999981
1.0,1,0.999987
0.9999999999999963,1,0.999971
1.0,1,0.999989
1.0,1,0.999992
1.0,1,0.999990
1.0,1,0.999993
0.999999999999975,1,0.999991
1.0,1,0.999990
1.0,1,0.999986
0.9999999999999812,1,0.999985
0.9999999999999977,1,0.999987
1.0,1,0.999983
1.0,1,0.999980
0.9999999999999927,1,0.999994
1.0,1,0.999985
0.9999999999999964,1,0.999986
0.9999999999999974,1,0.999994
1.0,1,0.999977
0.9999999999999709,1,0.999993
0.9999999999999992,1,0.999962
1.0,1,0.999993
0.999999999999968,1,0.999993
0.9999999999999761,1,0.999988
0.9999999999999938,1,0.999992
1.0,1,0.999992
0.9999999999999989,1,0.999994
0.9999999999999785,1,0.999993
0.9999999999999962,1,0.999994
0.9999999999999938,1,0.999989
1.0,1,0.999994
0.9999999999999931,1,0.999992
1.0,1,0.999993
0.9999999999999593,1,0.999992
1.0,1,0.999995
0.9999999999999947,1,0.999992
1.0,1,0.999994
0.9999999999999899,1,0.999980
1.0,1,0.999992
1.0,1,0.999970
1.0,1,0.999984
1.0,1,0.999988
0.9999999999999772,1,0.999992
0.9999999999999863,1,0.999993
0.9999999999999768,1,0.999987
1.0,1,0.999969
1.0,1,0.999993
0.9999999999999925,1,0.999988
0.999999999999986,1,0.999993
0.9999999999999749,1,0.999976
0.9999999999999942,1,0.999995
1.0,1,0.999992
0.9999999999999926,1,0.999991
0.9999999999999849,1,0.999994
1.0,1,0.999990
0.9999999999999845,1,0.999987
1.0,1,0.999972
1.0,1,0.999984
0.9999999999999865,1,0.999993
0.9999999999999996,1,0.999990
0.99999999999999,1,0.999988
1.0,1,0.999991
1.0,1,0.999946
0.9999999999999957,1,0.999955
0.9999999999999629,1,0.999994
0.999999999999995,1,0.999995
0.999999999999992,1,0.999993
1.0,1,0.999973
0.9999999999999982,1,0.999981
0.9999999999999689,1,0.999984
1.0,1,0.999981
1.0,1,0.999993
0.9999999999999833,1,0.999975
0.9999999999999982,1,0.999989
0.9999999999999939,1,0.999993
1.0,1,0.999990
0.9999999999999593,1,0.999988
0.9999999999999546,1,0.999989
1.0,1,0.999995
1.0,1,0.999994
1.0,1,0.999995
1.0,1,0.999992
1.0,1,0.999994
0.9999999999999372,1,0.999993
1.0,1,0.999995
0.9999999999999998,1,0.999992
1.0,1,0.999994
0.9999999999999997,1,0.999990
0.9999999999999953,1,0.999992
0.9999999999999929,1,0.999988
1.0,1,0.999993
0.9999999999999999,1,0.999994
0.9999999999999849,1,0.999990
1.0,1,0.999986
0.9999999999999742,1,0.999994
0.9999999999999971,1,0.999993
1.0,1,0.999994
0.9999999999999711,1,0.999991
0.9999999999999851,1,0.999992
0.9999999999999873,1,0.999994
1.0,1,0.999965
1.0,1,0.999987
0.9999999999999981,1,0.999994
0.9999999999999893,1,0.999991
0.9999999999999971,1,0.999957
1.0,1,0.999992
0.9999999999999816,1,0.999991
0.9999999999999966,1,0.999992
1.0,1,0.999988
0.9999999999999815,1,0.999990
1.0,1,0.999989
1.0,1,0.999981
1.0,1,0.999990
1.0,1,0.999993
1.0,1,0.999993
0.9999999999999774,1,0.999988
1.0,1,0.999991
1.0,1,0.999990
1.0,1,0.999991
0.999999999999956,1,0.999987
0.9999999999999849,1,0.999990
0.9999999999999996,1,0.999994
0.9999999999999851,1,0.999990
1.0,1,0.999991
0.999999999999976,1,0.999990
1.0,1,0.999988
0.9999999999999862,1,0.999986
0.9999999999999994,1,0.999990
0.9999999999999925,1,0.999995
1.0,1,0.999992
0.9999999999999984,1,0.999988
1.0,1,0.999992
1.0,1,0.999993
0.9999999999999899,1,0.999967
1.0,1,0.999991
0.9999999999999987,1,0.999990
1.0,1,0.999989
0.9999999999999993,1,0.999992
1.0,1,0.999991
0.9999999999999769,1,0.999993
1.0,1,0.999990
1.0,1,0.999989
0.9999999999999755,1,0.999984
1.0,1,0.999969
1.0,1,0.999983
0.9999999999999983,1,0.999994
0.9999999999999997,1,0.999993
1.0,1,0.999993
0.9999999999999885,1,0.999991
0.9999999999999968,1,0.999987
1.0,1,0.999990
1.0,1,0.999988
0.9999999999999678,1,0.999987
1.0,1,0.999995
1.0,1,0.999990
1.0,1,0.999985
1.0,1,0.999983
0.9999999999999744,1,0.999984
1.0,1,0.999983
0.9999999999999879,1,0.999979
1.0,1,0.999994
1.0,1,0.999986
0.9999999999999986,1,0.999991
1.0,1,0.999988
1.0,1,0.999994
0.9999999999999916,1,0.999991
0.9999999999999861,1,0.999992
1.0,1,0.999990
0.9999999999999863,1,0.999995
1.0,1,0.999992
0.9999999999999992,1,0.999989
0.9999999999999938,1,0.999994
0.9999999999999897,1,0.999995
1.0,1,0.999994
1.0,1,0.999995
1.0,1,0.999992
1.0,1,0.999994
0.9999999999999585,1,0.999990
1.0,1,0.999988
0.9999999999999812,1,0.999991
0.9999999999999578,1,0.999994
1.0,1,0.999991
0.9999999999999951,1,0.999993
0.9999999999999928,1,0.999993
1.0,1,0.999993
1.0,1,0.999992
0.9999999999999848,1,0.999982
0.9999999999999606,1,0.999993
1.0,1,0.999989
1.0,1,0.999988
0.9999999999999806,1,0.999986
0.9999999999999971,1,0.999994
0.9999999999999896,1,0.999990
0.9999999999999981,1,0.999995
0.9999999999999655,1,0.999981
1.0,1,0.999977
0.9999999999999618,1,0.999992
0.9999999999999728,1,0.999991
0.9999999999999698,1,0.999991
1.0,1,0.999992
1.0,1,0.999984
1.0,1,0.999993
1.0,1,0.999991
1.0,1,0.999992
0.999999999999996,1,0.999995
0.999999999999996,1,0.999992
1.0,1,0.999988
0.9999999999999791,1,0.999995
1.0,1,0.999993
0.9999999999999754,1,0.999988
1.0,1,0.999967
0.9999999999999866,1,0.999992
1.0,1,0.999992
0.9999999999999961,1,0.999993
1.0,1,0.999995
1.0,1,0.999995
0.999999999999977,1,0.999993
0.9999999999999994,1,0.999979
0.9999999999999704,1,0.999992
1.0,1,0.999993
1.0,1,0.999988
1.0,1,0.999991
0.9999999999999949,1,0.999994
1.0,1,0.999994
0.9999999999999477,1,0.999992
0.9999999999999964,1,0.999987
1.0,1,0.999987
1.0,1,0.999991
0.9999999999999538,1,0.999994
1.0,1,0.999991
1.0,1,0.999989
0.9999999999999573,1,0.999992
1.0,1,0.999990
1.0,1,0.999990
1.0,1,0.999992
0.9999999999999732,1,0.999988
1.0,1,0.999994
0.9999999999999818,1,0.999975
1.0,1,0.999989
1.0,1,0.999992
1.0,1,0.999992
1.0,1,0.999992
0.9999999999999829,1,0.999992
0.9999999999999861,1,0.999993
0.9999999999999936,1,0.999990
0.9999999999999927,1,0.999986
0.999999999999993,1,0.999991
1.0,1,0.999993
0.999999999999994,1,0.999993
1.0,1,0.999994
1.0,1,0.999993
0.9999999999999989,1,0.999992
0.9999999999999994,1,0.999993
0.9999999999999952,1,0.999992
0.9999999999999912,1,0.999965
1.0,1,0.999952
0.9999999999999912,1,0.999988
1.0,1,0.999986
1.0,1,0.999993
1.0,1,0.999990
1.0,1,0.999981
1.0,1,0.999981
0.9999999999999986,1,0.999976
1.0,1,0.999986
1.0,1,0.999988
0.9999999999999905,1,0.999992
0.9999999999999771,1,0.999972
0.9999999999999791,1,0.999978
0.9999999999999959,1,0.999988
1.0,1,0.999993
1.0,1,0.999993
0.9999999999999811,1,0.999989
1.0,1,0.999989
0.9999999999999798,1,0.999984
0.9999999999999922,1,0.999989
0.9999999999999959,1,0.999987
1.0,1,0.999977
1.0,1,0.999991
1.0,1,0.999987
0.9999999999999988,1,0.999990
1.0,1,0.999987
0.9999999999999872,1,0.999983
0.9999999999999845,1,0.999986
0.9999999999999905,1,0.999984
0.9999999999999972,1,0.999985
1.0,1,0.999983
1.0,1,0.999988
1.0,1,0.999993
0.9999999999999782,1,0.999990
0.9999999999999617,1,0.999982
1.0,1,0.999982
0.9999999999999984,1,0.999986
1.0,1,0.999990
1.0,1,0.999989
1.0,1,0.999994
0.9999999999999851,1,0.999994
1.0,1,0.999992
0.9999999999999752,1,0.999993
0.9999999999999912,1,0.999992
0.9999999999999786,1,0.999993
0.9999999999999923,1,0.999994
1.0,1,0.999983
0.9999999999999769,1,0.999995
1.0,1,0.999992
0.9999999999999856,1,0.999986
1.0,1,0.999995
0.9999999999999988,1,0.999994
0.999999999999973,1,0.999993
1.0,1,0.999993
1.0,1,0.999978
1.0,1,0.999993
1.0,1,0.999991
1.0,1,0.999990
1.0,1,0.999987
1.0,1,0.999993
1.0,1,0.999994
0.9999999999999805,1,0.999987
1.0,1,0.999986
0.9999999999999968,1,0.999991
0.9999999999999925,1,0.999990
0.9999999999999942,1,0.999990
1.0,1,0.999980
1.0,1,0.999990
1.0,1,0.999989
1.0,1,0.999989
0.9999999999999771,1,0.999985
0.999999999999999,1,0.999987
0.9999999999999823,1,0.999987
0.999999999999986,1,0.999993
0.9999999999999599,1,0.999992
1.0,1,0.999993
0.9999999999999801,1,0.999991
1.0,1,0.999993
1.0,1,0.999992
1.0,1,0.999994
1.0,1,0.999978
1.0,1,0.999976
0.9999999999999837,1,0.999991
0.9999999999999977,1,0.999979
0.999999999999982,1,0.999981
1.0,1,0.999989
0.9999999999999789,1,0.999986
0.999999999999997,1,0.999995
0.9999999999999809,1,0.999994
0.9999999999999613,1,0.999989
0.9999999999999938,1,0.999989
0.9999999999999837,1,0.999990
0.9999999999999926,1,0.999993
1.0,1,0.999935
0.9999999999999778,1,0.999946
1.0,1,0.999956
1.0,1,0.999960
0.9999999999999739,1,0.999995
0.9999999999999747,1,0.999990
1.0,1,0.999986
1.0,1,0.999954
1.0,1,0.999984
0.9999999999999917,1,0.999986
0.9999999999999916,1,0.999983
0.9999999999999841,1,0.999985
1.0,1,0.999983
1.0,1,0.999986
1.0,1,0.999989
0.999999999999995,1,0.999988
0.9999999999999909,1,0.999993
1.0,1,0.999975
0.9999999999999849,1,0.999992
1.0,1,0.999991
0.9999999999999785,1,0.999979
1.0,1,0.999990
1.0,1,0.999986
1.0,1,0.999993
0.999999999999997,1,0.999978
0.9999999999999933,1,0.999983
1.0,1,0.999995
1.0,1,0.999995
1.0,1,0.999991
0.9999999999999388,1,0.999992
0.9999999999999984,1,0.999989
0.9999999999999892,1,0.999965
0.9999999999999968,1,0.999992
1.0,1,0.999993
1.0,1,0.999987
0.9999999999999845,1,0.999993
1.0,1,0.999977
0.9999999999999842,1,0.999982
1.0,1,0.999990
0.9999999999999709,1,0.999986
1.0,1,0.999993
0.9999999999999936,1,0.999981
0.9999999999999974,1,0.999989
1.0,1,0.999989
0.9999999999999856,1,0.999994
0.9999999999999958,1,0.999993
1.0,1,0.999988
1.0,1,0.999991
1.0,1,0.999988
1.0,1,0.999990
1.0,1,0.999993
1.0,1,0.999992
1.0,1,0.999991
1.0,1,0.999987
1.0,1,0.999987
