-0.009166623063216134,0,0.047028
-0.010534433693578208,0,0.055724
-0.011275215574634295,0,0.024606
-0.008249016158172237,0,0.018739
0.7468217757725105,0,0.999675
0.5364977035913423,0,0.999383
0.15540009606809502,0,0.962902
0.06746527524856316,0,0.977012
0.051634267339937936,0,0.975871
0.044937375468421456,0,0.972303
0.04881704214725734,0,0.998355
0.06613677826816859,0,0.998915
0.12361582710469503,0,0.994268
0.08853415671933862,0,0.975044
0.3514059441824211,0,0.998779
0.7889140257293512,0,0.999352
0.6121701536540901,0,0.987694
0.15594699911478158,0,0.993876
0.7479736621903079,0,0.998666
0.4510311162532667,0,0.999450
0.5375875276188558,0,0.995350
0.2712971109554736,0,0.995240
0.5954960665650002,0,0.996051
0.5970210650888231,0,0.998501
0.10418509625300158,1,0.999977
0.7689002189424357,0,0.999385
0.6500552023129343,0,0.997927
0.28974160408817423,0,0.999501
0.1642747006729506,0,0.999470
0.22737726313701198,1,0.999995
0.26164974890063203,0,0.994760
0.08091017318802357,0,0.979029
0.7772902977751428,0,0.999252
0.7675058596668868,0,0.951729
0.003870085885993475,0,0.982541
0.00969365509758252,0,0.994840
0.8102225514241294,1,0.999957
0.8857179652275482,0,0.999899
0.7631770067171699,0,0.999855
0.12595353629292189,0,0.979026
0.021504082707658946,0,0.990925
0.28398720551572726,0,0.999334
0.16886277239421407,0,0.998989
0.4224660823534438,0,0.998023
0.5625071395031768,0,0.998479
0.5752835097968753,0,0.999222
0.5410751691228773,0,0.999774
0.5637914781053993,0,0.999492
0.6482004478732397,0,0.996666
0.6532954800946424,0,0.999076
0.4423218662296814,0,0.999088
0.4379377586870774,0,0.999839
0.4711093512713956,0,0.995776
0.40696400534966076,0,0.999252
0.5044706027779974,0,0.998257
0.627198024274964,0,0.999321
0.5262193326561786,0,0.999853
0.5022206794896292,0,0.999016
0.7578666215465218,0,0.999734
0.6553794358879637,0,0.999260
0.4156725016913666,1,0.999994
0.7276913224232886,1,0.999967
0.4074238038638641,0,0.994223
0.3743234929123168,0,0.998027
0.15917184415066934,0,0.998854
0.1732252794789865,0,0.994819
0.4044395015358818,0,0.998225
0.5706212490114624,0,0.997866
0.7816655700615964,0,0.997444
0.8430984061735712,1,0.999989
0.6824777492809523,0,0.994094
0.8214115903166571,0,0.999882
0.5386406401714744,0,0.996022
0.40551813035319006,0,0.999710
0.3719585141470742,0,0.998644
0.5560488468383776,0,0.999007
0.5601250501155374,0,0.996266
0.16586802008457818,0,0.996822
0.5871099808719841,0,0.997615
0.6410581984733421,0,0.999772
0.398276483745713,0,0.999907
0.3229503892498788,0,0.997139
0.37118971654154836,0,0.997046
0.472693479857291,0,0.998590
0.30949097936603304,0,0.991773
0.25995365927985153,0,0.992630
0.05703515348348286,0,0.999540
0.5598304944435183,0,0.999940
0.21412741269587282,0,0.999368
0.8210918978990451,1,0.999979
0.8148459076944182,0,0.996971
0.6720389558672474,0,0.999819
0.20471723535908803,0,0.999534
0.1340775789439654,0,0.996727
0.45187540769114143,1,0.999968
0.21846462774855271,0,0.998354
0.20308548031308057,0,0.997552
0.14174963887628467,0,0.998301
0.13313313479385022,0,0.998396
0.09737869027566425,0,0.997321
0.3677885996894146,0,0.987852
0.4710002350715939,0,0.999830
0.5920993817092248,1,0.999962
0.5729581334695046,0,0.997071
0.5794073314573996,0,0.998967
0.3114955996054941,1,0.999967
0.33459492758052084,0,0.999475
0.34427170971757604,0,0.993856
0.5970664182410312,0,0.999816
0.3390923778738645,0,0.997685
0.24252602682020913,0,0.994808
0.2805609541007834,0,0.991550
0.5826142152668503,0,0.999543
0.5718833561039327,0,0.999825
0.36971914322485716,0,0.999457
0.4254190750955666,0,0.994284
0.3392786811437619,0,0.995128
0.4679781501579313,0,0.999060
0.2498099718616849,0,0.999552
0.27174323913773785,1,0.999952
0.43637790191210124,0,0.998409
0.4155650877121183,0,0.999931
0.4216608740814315,1,0.999957
0.09009583934911249,0,0.999223
0.39717203500653353,0,0.998393
0.170066681610942,0,0.985296
0.529162406975651,0,0.999298
0.788513965579056,0,0.999888
0.7780513757950921,0,0.999822
0.5082243340932712,0,0.999642
0.20815538473946885,0,0.998909
0.7412282992444619,0,0.999940
0.2479868206367371,0,0.998707
0.32804733645203044,0,0.999785
0.38810559181992066,0,0.999572
0.13543191917422068,0,0.995968
0.5359162562054351,0,0.999266
0.719530655541976,0,0.999722
0.5759810531945064,0,0.999242
0.24250673250022117,0,0.995327
0.7867334063124521,1,0.999973
0.8557825277215588,1,0.999958
0.23968191447195583,0,0.999816
0.28538914866461806,0,0.999918
0.20762535600950607,0,0.997424
0.29290894777167076,0,0.999843
0.253311608390902,0,0.998453
0.1626444275817282,0,0.997152
0.18418515759124457,0,0.997601
0.12466757826923505,0,0.998327
0.04787365814365032,0,0.997006
0.11897532241774116,0,0.998821
0.1657053594580877,0,0.994161
0.3006807871486026,0,0.998512
0.4883337706813626,0,0.999281
0.04981943248373365,0,0.973739
0.5763222877235572,0,0.996750
0.8180844729159942,0,0.999325
0.37194552919166646,0,0.999671
0.19265941088077418,0,0.999064
0.12879540443134982,0,0.993380
0.10695718075511457,0,0.997854
0.16353996256049666,0,0.998949
0.22375205293792144,0,0.999040
0.24762141731453732,0,0.998638
0.323895449379907,0,0.998735
0.3038495690758846,0,0.999908
0.265626709740962,0,0.999672
0.16214388412419423,0,0.993781
0.371955662460058,0,0.997650
0.33249245707818514,0,0.999943
0.40048220263891643,1,0.999995
0.3023231751193132,0,0.996166
0.30952463555762516,0,0.999312
0.45881177625244834,0,0.999667
0.49822352289012173,0,0.998273
0.5420048480039441,0,0.999693
0.6195915247105912,0,0.998449
0.6210894993809097,0,0.993331
0.654477112623896,0,0.999905
0.6982325175634269,0,0.999370
0.5801751000727999,0,0.995553
0.16996240667986906,0,0.998100
0.3711513711187234,0,0.999560
0.32715847379994195,0,0.999818
0.35893544687765305,0,0.998401
0.3892457484185737,0,0.997524
0.2559092145037994,0,0.995505
0.290473360285912,0,0.996357
0.28118841227924474,0,0.990183
0.3264707276983536,0,0.999671
0.3368730837226199,0,0.998071
0.3248789004154395,0,0.999446
0.23420653424112856,0,0.998435
0.6203080414644601,0,0.998290
0.35680751643361414,0,0.999926
0.43344156813285695,0,0.999555
0.6466332818959258,0,0.999719
0.24232777667241923,0,0.999515
0.2603856312841693,0,0.994201
0.4212660474215326,0,0.999702
0.49230240563676275,0,0.999310
0.583897616579683,0,0.998290
0.29982116793710795,0,0.999705
0.4706476534620203,0,0.999002
0.5799619255747237,1,0.999946
0.38935140868308094,0,0.999291
0.5048563194794188,0,0.999289
0.30043058874311457,0,0.995331
0.5994285325726639,0,0.999392
0.5712451984640398,0,0.998641
0.5236708018615192,0,0.998070
0.5033597234028676,0,0.999922
0.35203174718425007,0,0.986389
0.17170782690873546,0,0.977805
0.3445431936618983,0,0.992232
0.33543737285621217,0,0.999870
0.1859676404463188,0,0.997946
0.2883994297814408,0,0.982709
0.2091568896285545,0,0.992665
0.2731693333053593,0,0.999324
0.26646392434833666,0,0.996638
0.2614613112057492,0,0.996450
0.39874707129371467,0,0.999897
0.2282989547246114,0,0.998149
0.4854253347531711,0,0.999580
0.36187138997016244,0,0.999386
0.46331836983234503,0,0.999051
0.4055913370088148,0,0.999650
0.21097289547171008,0,0.999052
0.47016891635396646,0,0.999856
0.5370469692651537,0,0.999606
0.6062335951760836,0,0.993677
0.6733787524247203,0,0.996330
0.6433192367033607,1,0.999979
0.6378124425102498,0,0.996332
0.6333704362923491,0,0.997769
0.6428938158367189,1,0.999979
0.06047127455474309,0,0.995290
0.45603361670612985,0,0.998352
0.5498656952225647,0,0.998798
0.6351636461038634,0,0.999794
0.6841748624180408,0,0.989226
0.6383608242144634,1,0.999979
0.5450408822750893,0,0.999906
0.8322642245380567,1,0.999946
0.5851760267434934,0,0.999756
0.40848504885231873,0,0.998207
0.49708854158968696,0,0.997588
0.19035276957474492,0,0.986944
0.21018194403557583,0,0.988575
0.49712662137237235,0,0.997049
0.5269131501182185,0,0.999912
0.5306073737826174,0,0.997414
0.5605811416387545,0,0.998279
0.5400798307638078,1,0.999978
0.2647210282350212,0,0.994185
0.5290059469337911,0,0.995916
0.5296842110019939,0,0.999906
0.5146019321602916,0,0.999612
0.1975792706442165,0,0.998505
0.051891171640119145,0,0.989256
0.1975465488280504,0,0.998136
0.4978975273649398,0,0.999885
0.5772722211789922,0,0.994064
0.6121140782532812,0,0.999646
0.37325565212498274,0,0.998673
0.3282300790337814,0,0.991337
0.2987938076259132,0,0.994444
0.569398457894177,1,0.999968
0.3576530330186292,0,0.998540
0.393282711252018,1,0.999962
0.3672647667687521,0,0.999753
0.3543647598054547,0,0.999409
0.34868028603103757,0,0.997111
0.3813649752965537,0,0.998421
0.33678051990513025,0,0.997807
0.20553608911449772,0,0.998804
0.058030181051732306,0,0.998668
0.014685527618004532,0,0.977098
0.05707495139260578,0,0.997356
0.7432271049477795,0,0.998208
0.4321151654179878,0,0.998603
0.567700089060521,0,0.998672
0.26466029477439196,0,0.998037
0.37763866697388165,0,0.999889
0.4353921924395736,0,0.998731
0.4359366562894366,0,0.997833
0.34002389625758916,0,0.995974
0.34970757583873463,0,0.996382
0.3376964153318513,0,0.983628
0.5623905143103706,0,0.999521
0.5485838556162868,0,0.999635
0.3511896855389849,0,0.997921
0.47571760156573073,0,0.999889
0.4621850488233977,0,0.997675
0.32241641108041896,0,0.997449
0.44632486915495,0,0.999760
0.41657149121612,1,0.999989
0.47741876471584305,0,0.993691
0.48221919192448753,1,0.999952
0.5240225179016103,0,0.999349
0.4060860371118973,0,0.999642
0.5793817063741327,1,0.999968
0.41580567038707233,0,0.997901
0.20704192952259926,0,0.999550
0.33069860586782734,0,0.999407
0.09308908702983609,0,0.996800
0.12998777359225766,0,0.999035
0.2611949684391617,0,0.997535
0.2842001156231209,0,0.999326
0.4815625976584571,0,0.997051
0.658837749724408,0,0.997387
0.5218325930782137,0,0.999827
0.2941712146423679,0,0.999240
