0.19985536311824895,0,0.965078
0.2296741982580159,0,0.865819
0.43381325107675306,0,0.006142
0.6185759796079212,1,0.999982
0.8044635464682961,1,0.999992
0.9245796212336116,0,0.999777
0.6053796053399763,0,0.936593
0.6663837131862225,0,0.998482
0.844043502329941,0,0.998248
0.7993777527979619,0,0.999026
0.9225549330121486,0,0.999703
0.9408715442890617,0,0.999757
0.9145568209757711,0,0.999875
0.790556778817279,0,0.999246
0.9617375993069311,0,0.809870
0.8615078793204212,0,0.988159
0.7972259666595065,1,0.999989
0.9488451835751482,1,0.999994
0.9168161925763589,1,0.999993
0.8908008311643554,0,0.998793
0.9683548400927795,1,0.999978
0.9857521341043669,1,0.999993
0.6478850705483425,0,0.999865
0.9833836622690392,0,0.911374
0.6251202654442021,0,0.975601
0.9580795825281442,0,0.999594
0.9409838853633974,0,0.969459
0.8959288534369303,0,0.968344
0.755213289592268,0,0.999537
0.9813844106516566,0,0.999886
0.9392571850128422,0,0.999911
0.7418865014766611,0,0.993928
0.9427957591763984,1,0.999982
0.9220079150976959,0,0.963738
0.7708267382006389,0,0.996891
0.9662798336186946,1,0.999876
0.6746093100341567,1,0.999984
0.9674885134628701,1,0.999982
0.9841415987373101,1,0.999980
0.9878355971598748,0,0.958414
0.3795133531496761,0,0.971266
0.9699118844820448,1,0.999994
0.9552055171896351,0,0.998004
0.9700011404369127,0,0.999856
0.8370401092014237,0,0.998320
0.9266489311898434,1,0.999987
0.9240944586566722,0,0.993777
0.8046224959449402,0,0.991563
0.5615942777395526,0,0.998464
0.9729742373183248,1,0.999970
0.9803920992660873,0,0.999802
0.9852981544416669,1,0.999926
0.9813267518377867,1,0.999983
0.9862953056166587,1,0.999984
0.9866401974757272,1,0.999986
0.9718209818144343,0,0.997119
0.976446457211809,1,0.999979
0.47609089955762074,0,0.999166
0.9517300400971904,1,0.999939
0.9634410391996092,1,0.999988
0.7744889975750389,0,0.999776
0.9512386053485229,1,0.999957
0.8874110980781125,1,0.999985
0.8987659960293712,0,0.994944
0.9565284323563272,0,0.975934
0.988324053339511,1,0.999994
0.9822458765906732,1,0.999993
0.9260905184193298,1,0.999885
0.9021026015594216,1,0.999968
0.6532750333428134,0,0.999273
0.9143597768890552,1,0.999994
0.8362288250607358,0,0.999206
0.8631230717723684,1,0.999983
0.7904360831224262,0,0.955476
0.9302963300141323,1,0.999907
0.9840931297265648,1,0.999993
0.9682533801545224,0,0.951013
0.9806650701892579,1,0.999992
0.978241999191284,1,0.999993
0.9818768008964267,0,0.987445
0.9757730868441997,0,0.999640
0.8942828219326946,0,0.998863
0.9577423744503566,0,0.999507
0.4218336842356871,0,0.999467
0.9290522798985525,1,0.999991
0.96804863169096,1,0.999991
0.9031387157936155,1,0.999832
0.967420932054864,1,0.999993
0.9456227319204716,1,0.999973
0.9425414961809905,1,0.999981
0.6329489339261389,0,0.998572
0.9400326001109742,0,0.999268
0.9549447850808733,0,0.999796
0.924065979125256,1,0.999973
0.9791411600765949,1,0.999994
0.9790632779504855,0,0.998280
0.9776620944321767,1,0.999764
0.9505018204528297,1,0.999966
0.47185043173242375,0,0.989510
0.9792885228942605,1,0.999994
0.5525458057166782,1,0.999992
0.9743621345054514,0,0.999293
0.987044348580105,1,0.999964
0.9237124351836868,1,0.999979
0.9546729829967324,1,0.999977
0.929037152661431,0,0.981821
0.9814761958097096,0,0.999836
0.9857028312886784,1,0.999994
0.9546946986383792,0,0.986840
0.6814027514279638,1,0.999974
0.9006454041340552,0,0.999852
0.9855997467033304,1,0.999786
0.9808074743259905,1,0.999777
0.9846833381287845,1,0.999991
0.9789378453472684,1,0.999961
0.24541032225454326,0,0.999884
0.9799075517615565,0,0.999780
0.8831835424659129,0,0.937981
0.941577078816589,1,0.999994
0.9079432237356438,0,0.997009
0.8872924944941744,1,0.999954
0.9852985806861775,1,0.999954
0.9315314766439644,0,0.999402
0.9898955934580742,0,0.997741
0.9186111274656493,1,0.999921
0.9861590616557036,1,0.999976
0.9367977771053915,0,0.974676
0.30469981615113195,0,0.997551
0.8060746018281905,1,0.999984
0.40610529539391405,0,0.996423
0.3651529159117324,0,0.952068
0.8539459341465738,0,0.976406
0.9753802256309307,1,0.999896
0.9379374454489047,0,0.999699
0.9773739953394612,0,0.999489
0.9413045862516347,0,0.965715
0.9879536502509908,1,0.999965
0.9775068089638831,1,0.999969
0.8597569259896138,1,0.999970
0.985054353822885,0,0.999216
0.985054353822885,1,0.999937
0.986137045436952,1,0.999952
0.9855822199815957,1,0.999904
0.9585096136256838,1,0.999986
0.9057728132575775,0,0.999845
0.6770857990564512,0,0.999538
0.659940301565802,1,0.999987
0.9504403306003834,0,0.999682
0.8845964516201892,0,0.999626
0.9235368685782163,0,0.960426
0.9708879206451515,0,0.999824
0.9616777967596694,0,0.937349
0.9843911395217309,0,0.999791
0.981153811417052,1,0.999945
0.983388786064532,1,0.999946
0.9872231177844056,1,0.999964
0.9894218395731381,0,0.999159
0.9860934836337654,1,0.999984
0.9838608243202073,0,0.999757
0.9652352061280162,1,0.999988
0.9616992390378637,1,0.999954
0.2534117536581388,0,0.999593
0.4306770603132307,0,0.999123
0.9637351359755532,0,0.999565
0.9568215571663209,1,0.999862
0.9739642992768104,1,0.999994
0.5362134233366502,0,0.996732
0.838783866903032,0,0.999466
0.9784268328887079,1,0.999971
0.9408261582700405,0,0.953296
0.9637696281721714,0,0.994097
0.9316527007123891,1,0.999993
0.9793666572632919,1,0.999992
0.9716386388929792,1,0.999964
0.963077564882302,0,0.999735
0.4880643353429237,0,0.992600
0.9700617220031377,1,0.999978
0.976015408214133,1,0.999989
0.9664900937501545,1,0.999990
0.9735307559270251,1,0.999991
0.9687025526112532,1,0.999979
0.9810454406052459,1,0.999979
0.9835783003448275,1,0.999990
0.9810421676208879,0,0.999902
0.9782753175842096,0,0.930695
0.9541422702220909,0,0.962140
0.9217785291425422,1,0.999978
0.9088394520079325,0,0.998279
0.9800136090773611,1,0.999978
0.5501205555585122,1,0.999974
0.9570998506091255,1,0.999926
0.9026909066457989,0,0.999343
0.9863890942226872,1,0.999974
0.8051567886942732,1,0.999773
0.9621825810693276,0,0.999839
0.8596379645848257,1,0.999992
0.6763901425029459,1,0.999990
0.9717419932950115,1,0.999971
0.970345354669356,1,0.999974
0.9792480252440012,1,0.999974
0.9801669233543326,1,0.999895
0.9720075744092328,1,0.999972
0.9682443397868711,1,0.999977
0.9419706319140845,1,0.999790
0.9864484424929393,0,0.999863
0.3700536333012051,1,0.999984
0.350460202998137,1,0.999991
0.9510213563067922,0,0.977505
0.9733182104161651,1,0.999956
0.8226827976201346,0,0.999648
0.9404501687077317,0,0.965465
0.9586958901657228,0,0.999589
0.9315987107255085,1,0.999992
0.9329823616663303,1,0.999972
0.7636106621666263,0,0.999764
0.7581939130171252,0,0.999828
0.928496981074811,1,0.999980
0.9167059707922706,1,0.999993
0.7399449577695434,1,0.999945
0.9229361351306495,0,0.999540
0.9339596878148388,1,0.999991
0.849279500142121,1,0.999994
0.7104041826034334,0,0.970462
0.3884987149946548,0,0.995903
0.9574208866258965,0,0.987429
0.9884517625809635,1,0.999966
0.9088953560728571,1,0.999975
0.9064438149435997,1,0.999983
0.9654882590693645,1,0.999994
0.9170999668629887,0,0.994734
0.8556512721215439,0,0.999904
0.9025888929230725,1,0.999940
