-0.00502049266884024,0,0.005316
-0.003280412123352171,0,0.005369
-0.008907103167772462,0,0.570805
0.048738197259574886,0,0.005702
0.11885812157015972,0,0.996693
0.24624132921530748,0,0.449070
0.2604200189411825,0,0.008232
0.11074475025116005,0,0.047747
0.10420190147006081,0,0.087350
0.10684044132947926,0,0.032254
0.10037000868153692,0,0.883877
0.18268281653823482,0,0.469237
0.19771697008030645,0,0.988022
0.19673476139691115,0,0.121442
0.2008949575468508,0,0.989036
0.14755078358285464,0,0.990356
0.1525291890155791,0,0.998015
0.21085903287577537,0,0.271259
0.21695692343133247,0,0.881907
0.19989028844634513,0,0.427475
0.20514698532173467,0,0.997159
0.1689844778335449,0,0.978320
0.13765145503511553,0,0.718274
0.11202944875140021,0,0.976779
0.1192369400102322,0,0.986177
0.14145768843179957,0,0.990593
0.15869980720773658,0,0.968952
0.17417673551160714,0,0.976172
0.17091258748113897,0,0.977035
0.16840726282100638,0,0.979596
0.1617535212611642,0,0.987476
0.13069915617195987,0,0.994614
0.1436976917357689,0,0.981786
0.16443043226754908,0,0.996296
0.15361154336819283,0,0.978282
0.041686817617546626,0,0.996517
0.05329932594415117,0,0.987586
0.05585886154827497,0,0.997007
0.11458212342773175,0,0.989644
0.09202541897267119,0,0.758051
0.09558027942706046,0,0.994612
0.1159563705338252,0,0.915448
0.11897940589821089,0,0.154072
0.43613504046374735,0,0.357885
0.43083257115732987,0,0.998684
0.06762398597450778,0,0.768711
0.06713315799664171,0,0.998739
0.06697797506139375,0,0.992931
0.36119325703179256,0,0.989400
0.188839701631876,0,0.813835
0.12144132496479647,0,0.907259
0.1317442080913745,0,0.196151
0.0748843820289266,0,0.430603
0.02135349158155876,0,0.911896
0.05764791239245217,0,0.912505
0.17965309078092007,0,0.991424
0.15507519546058762,0,0.407256
0.20457481948966905,0,0.992244
0.20783674424904944,0,0.995755
0.14291068789884848,0,0.964368
0.637541456450517,0,0.837984
0.6392095380100091,0,0.999303
0.4807180932905108,0,0.310032
0.1105966712973202,0,0.999108
0.10027307211799236,0,0.933827
0.07515693823163713,0,0.677089
0.07423645372355243,0,0.998839
0.06583884893729462,0,0.999568
0.11649027976642917,0,0.763013
0.08817810391948787,0,0.025630
0.06632714136223633,0,0.996715
0.04409684373741721,0,0.337113
0.07912746225371375,0,0.664398
0.10550598573602116,0,0.555759
0.10794340763242935,0,0.933495
0.009464849348948026,0,0.647086
0.19474252265992584,0,0.999627
0.47037915972033306,1,0.999899
0.24862960017687877,0,0.135379
0.09296773264345766,0,0.809492
0.09382590340410463,0,0.741775
0.08153191665732332,0,0.904576
0.036612182029199594,0,0.853616
0.028393194272370078,0,0.248132
0.002222244845916584,0,0.376171
0.21375662065858306,0,0.655680
0.05041005324163536,0,0.840141
0.039368680393518755,0,0.998777
0.027972641589728384,0,0.316360
0.026743416475484023,0,0.607282
0.02900286447572346,0,0.972426
0.02879264635441421,0,0.632238
0.033232957936254456,0,0.998174
0.07196427847802536,0,0.376800
0.0929894854970454,0,0.838548
0.08566518675023868,0,0.993475
0.047161247339429085,0,0.686780
0.046155054625013056,0,0.991692
0.038887866800017545,0,0.913448
0.005948612243840194,0,0.524384
0.02220706617640986,0,0.946867
0.054201337826519834,0,0.528843
1.2241664924270571E-4,0,0.375681
0.08644183198903777,0,0.464258
0.017691216042897983,0,0.566086
0.13629886403783273,0,0.952534
0.13736682785547874,0,0.965216
0.1367682067325642,0,0.578755
0.127097074068479,0,0.862024
0.06083521290423654,0,0.701144
0.052823919086023595,0,0.949612
0.03942014568674071,0,0.284400
0.037779287966150786,0,0.778367
0.028901188333140298,0,0.999335
0.07450804055591026,0,0.998169
0.18675406239229425,0,0.764872
0.10186437573692525,0,0.677199
0.08770169401558008,0,0.833128
0.1062197590986799,0,0.997042
0.05732130668698504,0,0.999358
0.06669350200907588,0,0.730030
0.09761916995146777,0,0.491275
0.04470760816021577,0,0.791735
0.033716914628316885,0,0.737032
0.03208206325878787,0,0.996251
0.1297659524041702,0,0.957550
0.15059131574702092,0,0.998177
0.203514234350611,0,0.995585
0.2157419731583946,0,0.971243
0.2829865117219905,0,0.984996
0.3044290344600591,0,0.998101
0.3204495777986672,0,0.683364
0.3377492918385933,0,0.686151
0.14379510715611507,0,0.707850
0.1288206149319925,0,0.547526
0.12780470202929664,0,0.824850
0.13411942360517323,0,0.964005
0.14917942805921958,0,0.206506
0.09690125089457412,0,0.852197
0.04377183937602959,0,0.708492
0.031147764017151608,0,0.539055
0.05019307081105221,0,0.574684
0.17186861499567627,0,0.811418
0.18620216113739946,0,0.697601
0.09001635421094026,0,0.996020
0.07217753280095134,0,0.159105
0.06233615480089153,0,0.937558
0.05300828040051197,0,0.992806
0.08575270560477452,0,0.991270
0.9425171275032437,0,0.431400
0.917057346918974,0,0.993695
0.288350946093655,0,0.983980
0.15604943965138532,0,0.555264
0.1814889962194186,0,0.504397
0.3099233227131964,0,0.912497
0.06954820287311002,0,0.909031
0.17468899221603604,0,0.905056
0.06694165018973967,0,0.981510
0.02803040585843514,0,0.875077
