-0.010710041689358261,0,0.056941
0.43082501342608925,0,0.254430
0.4245671585291288,0,0.899362
0.4283518991128627,0,0.048665
0.07593680304045924,0,0.963654
0.934320504131067,0,0.999822
0.6146759232420058,0,0.062364
0.6140628693217673,0,0.150384
0.24097520213473483,0,0.996621
0.39660508312966164,0,0.999828
0.27835993668636866,0,0.997204
0.5075307487387526,0,0.041033
0.08621764464946564,0,0.997576
0.027880023767292695,0,0.996166
0.18340926786723039,0,0.988527
0.18809937229888396,0,0.997980
0.18816862497624154,0,0.990072
0.38191771388497503,0,0.999325
0.40545959690861055,0,0.980529
0.606817876276044,1,0.999942
0.22624211172893038,0,0.991143
0.22624211172893038,0,0.987339
0.2489984202750332,0,0.989122
0.08907085190697132,0,0.996458
0.11515548370277912,0,0.999559
0.3143538375483104,0,0.998652
0.2843860880861194,0,0.989874
0.24894279317582108,0,0.998671
0.2865528809442026,0,0.986270
0.2865528809442026,0,0.998590
0.3678908463099707,0,0.987922
0.668360465308748,0,0.995024
0.7282440871464484,0,0.992110
0.04596653880768127,0,0.996383
0.04596653880768127,0,0.986686
0.18666085379177325,1,0.999945
0.8087664089150831,0,0.997925
0.8087664089150831,0,0.997669
0.3740711688846141,0,0.997577
0.40697140542355836,0,0.993838
0.41014092531082513,0,0.996151
0.467075865283365,0,0.996778
0.41585667934124054,0,0.999896
0.055995352690684425,0,0.999733
0.07834577233989845,0,0.998827
0.2644964404897161,0,0.996622
0.4301912358448861,0,0.999832
0.1615370719417201,0,0.995346
0.45344215863987714,0,0.982398
0.5064247781946175,0,0.999749
0.4917274123260608,0,0.985285
0.48459531663158795,0,0.972125
0.48459531663158795,0,0.988688
0.33565373515274477,0,0.989418
0.33565373515274477,0,0.984699
0.5260086041835432,0,0.983887
0.5260086041835432,0,0.986097
0.6520633714369208,0,0.986240
0.6520633714369208,0,0.992885
0.5081194465207133,0,0.990332
0.5081194465207133,0,0.995977
0.8129865028245095,0,0.999463
0.8129865028245095,0,0.998671
0.8539436499897884,0,0.992445
0.8539436499897884,0,0.990489
0.8640426862386591,0,0.998042
0.8282446638941651,0,0.996387
0.8282446638941651,0,0.999038
0.739314920572033,0,0.994997
0.739314920572033,0,0.997339
0.5990544682579109,0,0.999623
0.6846109996230899,0,0.999237
0.6846109996230899,0,0.997830
0.6751352400614477,0,0.995088
0.6751352400614477,0,0.999667
0.6800238091222213,0,0.999462
0.8742237130794293,0,0.993132
0.8742237130794293,0,0.996634
0.8660082959803731,0,0.995173
0.8660082959803731,0,0.999323
0.885952978727124,0,0.998223
0.9211143845000842,0,0.999769
0.909864390960951,0,0.998027
0.9106894178763658,1,0.999956
0.9106894178763658,0,0.998408
0.9012343065345966,0,0.996611
0.9012343065345966,0,0.995306
0.9012343065345966,1,0.999979
0.8913843372196409,0,0.999336
0.8913843372196409,0,0.997904
0.8176167631341669,0,0.995132
0.8176167631341669,0,0.998847
