0.08467178753766616,0,0.971616
0.10474684389902604,0,0.981871
0.09915708598523958,0,0.980742
0.09805634860476929,0,0.214922
0.12517381958018806,0,0.971429
0.13085394745197393,0,0.963412
0.1302565392440667,0,0.983641
0.12795854359277,0,0.982246
0.11843621216335622,0,0.972132
0.10674698514862141,0,0.982220
0.10674698514862141,0,0.971332
0.1151934841871609,0,0.966359
0.1134384062898515,0,0.979224
0.1219762175973567,0,0.951947
0.1219762175973567,0,0.976029
0.12440758918294562,0,0.962463
0.12298162328783152,0,0.969112
0.11392194353881602,0,0.971805
0.11193466114689064,0,0.990288
0.11566079686200918,0,0.072108
0.11879051595992188,0,0.974025
0.11993902095947846,0,0.972968
0.11396341052900397,0,0.969631
0.1207851811040234,0,0.975243
0.12534692393522676,0,0.982630
0.12592839250809315,0,0.976591
0.1450689640511005,0,0.980028
0.14964058064167815,0,0.979099
0.12585342574128505,0,0.988269
0.12121549958888556,0,0.996248
0.11740969685715538,0,0.983283
0.09892838768265116,0,0.957319
0.10019071110433828,0,0.990636
0.1159594715647155,0,0.960823
0.11196557729116834,0,0.980898
0.11407392916339273,0,0.995552
0.1325761871858896,0,0.976648
0.10965464258627214,0,0.996736
0.11505208637973813,0,0.975302
0.11636776360394306,0,0.969750
0.12039002443182484,0,0.953525
0.11788631176446858,0,0.974601
0.12622294831270528,0,0.960025
0.12637932860919654,0,0.967679
0.11852019384786555,0,0.972436
0.11941280395429126,0,0.979805
0.1338927085323829,0,0.961752
0.1407335545603602,0,0.992194
0.1501180298763807,0,0.991938
0.16113659095316674,0,0.967260
0.1716498051861585,0,0.959111
0.1802138501878232,0,0.961765
0.1848752855625772,0,0.985598
0.11666033057128426,0,0.994930
0.13698431178355783,0,0.994895
0.12543060534449696,0,0.964136
0.10727444308598354,0,0.984164
0.10187613759705028,0,0.970087
0.10976038284602554,0,0.963620
0.11319145453350342,0,0.981484
0.12253850186492309,0,0.997074
0.107992211277097,0,0.943123
0.15716967994247552,0,0.992885
0.15925588829745455,0,0.980991
0.16558557467824644,0,0.981020
0.1840997571626512,0,0.996490
0.1788964514329381,0,0.956510
0.14082516482830995,0,0.948944
0.14082516482830995,0,0.957566
0.1419800953645645,0,0.972241
0.1507236778817723,0,0.971079
0.1430735314388603,0,0.988177
0.14275690242673766,0,0.976720
0.14566822722075523,0,0.979598
0.14709276040114733,0,0.981174
0.15086835248167532,0,0.959372
0.15480312179649283,0,0.970637
0.17087207546100605,0,0.996860
0.17087207546100605,0,0.973662
0.13796709678641278,0,0.939985
0.12487673589294503,0,0.946532
0.13913759569894474,0,0.975213
0.13721444423757825,0,0.965372
0.10413764275643204,0,0.972113
0.10751372608299173,0,0.999866
0.10942446736856766,0,0.938677
0.10942446736856766,0,0.965300
0.12195910473792311,0,0.996969
0.14779209042064598,1,0.999943
0.14867948472618459,0,0.989897
0.16040289738836014,0,0.995919
0.1796533324485804,0,0.993303
0.11281526952947282,0,0.955886
0.14023991669023808,0,0.972266
0.1258847164770675,0,0.975879
0.1269208450261618,0,0.963561
0.16577604041701074,0,0.976016
0.17488082751909786,0,0.978346
0.14861109880786225,0,0.962731
0.13695751247791985,0,0.978522
0.12119845217018009,0,0.992239
0.12790211478389843,0,0.987070
0.13840636827102343,0,0.982150
0.15359279168772869,0,0.947940
0.1673463694761819,0,0.991835
0.1801619173124746,0,0.996952
0.16711490469620827,0,0.952626
0.16445116965039833,0,0.965441
0.14692927750613383,0,0.995726
0.15576445022383112,0,0.960809
0.16246419988544877,0,0.957154
0.19135909551948996,0,0.965418
0.14223802385821285,0,0.982016
0.13652772128625634,0,0.929916
0.15417526479347543,0,0.982808
0.18192788468207485,0,0.955048
0.18192788468207485,0,0.958914
0.1383111674479114,0,0.958504
0.19814547005497127,0,0.992490
0.21423278882847238,0,0.975165
0.1262899520846639,0,0.993360
0.14390581347111217,0,0.981480
0.1578890265641631,0,0.996447
0.1281101768696647,0,0.980917
0.13118926194458802,0,0.961452
0.145476408137232,0,0.962040
0.21971182625948993,0,0.952330
0.21667835695478485,0,0.992775
0.22552223812967415,0,0.996613
0.22918647935713413,0,0.954365
0.22918647935713413,0,0.955462
0.1909504403822316,0,0.999334
0.18846751460913863,0,0.964548
0.18640222962504766,0,0.943185
0.15072457036513162,0,0.948898
0.1535503052416166,0,0.992135
0.17036473124383397,0,0.975144
0.17283885106457678,0,0.994271
0.1777188672154663,0,0.988589
0.20953637936298813,0,0.978314
0.1664380050725362,0,0.981660
0.16838987506067135,0,0.992736
0.08978207518234867,0,0.990231
0.09296522014980092,0,0.991901
0.117321208917969,0,0.995041
0.10857430978920511,0,0.981551
0.12961816203577464,0,0.946960
0.24733287402483364,0,0.967926
0.2554198688174434,0,0.987728
0.2628119222752291,0,0.979555
0.27350436961472663,0,0.989035
0.2650273460620836,0,0.991209
0.2384728150846057,0,0.953341
0.20088489495588,0,0.965563
0.2044045201592684,0,0.989501
0.19791995811642987,0,0.940605
0.07727006277277973,0,0.976945
0.08216646167417625,0,0.977250
0.1373236094574975,0,0.976806
0.16149748958812693,0,0.970921
0.17026374466442062,0,0.979709
0.17106089606310962,0,0.955906
0.1720489129559324,0,0.973193
0.19391821305121507,0,0.977729
0.19289291451032595,0,0.983845
0.19062460204273884,0,0.983032
0.19540500357245433,0,0.976707
0.17899889629910576,0,0.977986
0.1985491337516892,0,0.982147
0.1918975332363542,0,0.987089
0.1970520796970853,0,0.996236
0.2100875572246334,0,0.996735
0.20827153178630656,0,0.977712
0.08606777326565747,0,0.988520
0.11416601963952815,0,0.969224
0.16533117439880232,0,0.981605
0.1877515033592791,0,0.983806
0.21083634214717417,0,0.992297
0.158648388520141,0,0.994220
0.16230009880667406,0,0.972882
0.21728451962613132,0,0.978209
0.26222664201430984,0,0.979446
0.2642375680597404,0,0.960857
0.2677685671761948,0,0.950794
0.27874246643458445,0,0.967584
0.2665732954405782,0,0.963184
0.13343537378722045,0,0.982751
0.16019025956944102,0,0.965041
0.1634732554197325,0,0.973884
0.1583083281047351,0,0.971619
0.17407552500598755,0,0.955134
0.20740706294667346,0,0.992189
0.2306667658290168,0,0.965869
0.2509204732775833,0,0.998612
0.1717658013536132,0,0.972596
0.13320874313831227,0,0.976734
0.16201717305355895,0,0.976405
0.17685485345855756,0,0.990135
0.12499722200041297,0,0.969429
0.13348572571167286,0,0.968126
0.15859563183231756,0,0.934215
0.165431731896918,0,0.997119
0.176444231170783,0,0.980481
0.19626651336919848,0,0.991205
0.20303196473440785,0,0.978380
0.1794217441398233,0,0.984665
0.17917538672212546,0,0.955785
0.16758346789133746,0,0.986736
0.16928123238561313,0,0.982592
0.173304410480933,0,0.994589
0.1390503840785399,0,0.193117
0.146648003298687,0,0.953671
0.1542243441775841,0,0.980214
0.17860215400763296,0,0.966932
0.17574806969805554,0,0.994030
0.12581272439244817,0,0.999915
0.148836476021881,0,0.956373
0.1656226568311813,0,0.977250
0.17493390686697124,0,0.955790
0.1853771271311176,0,0.954508
0.18126975247795188,0,0.962352
0.17748208111243613,0,0.958691
0.17833400235884858,0,0.970475
0.13193916843476225,0,0.997390
0.1662910972350719,0,0.993257
0.2132740244193128,0,0.948233
0.2075294779971404,0,0.949808
0.20719486051612923,0,0.957774
0.19392020329492307,0,0.985412
0.21194871878791102,0,0.982734
0.2178113031492973,0,0.990175
0.18732823697735126,0,0.978091
0.18334580976183512,0,0.980353
0.17629411096630565,0,0.990435
0.14493000173542275,0,0.976792
0.16635474788846963,0,0.954145
0.16838503599502913,0,0.974091
0.17374272052378495,0,0.972320
0.13102443798238417,0,0.974816
0.13128771928571287,0,0.953151
0.14365423708192715,0,0.995736
0.15138350615930835,0,0.993984
0.1333533533404475,0,0.971701
0.17843368294267378,0,0.973443
0.177747524062052,0,0.986310
0.17820021450214835,0,0.964059
0.2066802253348117,0,0.962687
0.2078101499053814,0,0.969110
0.22966193273562133,0,0.990964
0.23579717234497263,0,0.994537
0.19278233439097914,0,0.987360
0.18976514886517545,0,0.954471
0.19488702684501738,0,0.975667
0.1837925962502124,0,0.999152
0.13507295506674152,0,0.957143
0.13521585571244873,0,0.965455
0.14759303224653642,0,0.982227
0.11846917706760522,0,0.963530
0.1547988614868714,0,0.962268
0.118754951148008,0,0.970870
0.14125232046075006,0,0.976026
0.12754424157189584,0,0.990338
0.15396132167036086,0,0.994123
0.1654498575042007,0,0.973489
0.1322308748780159,0,0.985505
0.10767250569857734,0,0.977947
0.12393019738262735,0,0.961455
0.1804924151510423,0,0.996586
0.12199206779249067,0,0.952238
0.12472600848586964,0,0.951888
0.14150766188154895,0,0.969706
0.19115725046086868,0,0.983814
0.21844618563938994,0,0.977592
0.15419111573960503,0,0.991089
0.17301538836049488,0,0.999153
0.15799292215675131,0,0.942827
0.16544353762574132,0,0.988429
0.1901758803144532,0,0.988710
0.15133907137693917,0,0.950377
0.15445315936031073,0,0.957179
0.1612035454632886,0,0.993481
0.1539018691972854,0,0.992847
0.1539018691972854,0,0.939762
0.18172984980103862,0,0.983234
0.20444629749490711,0,0.948362
0.16508638320224858,0,0.994140
0.20020256225123664,0,0.979860
0.20526713770429172,0,0.982319
0.1978092095691542,0,0.938432
0.21538137781723224,0,0.987414
0.21544113913543936,0,0.963108
0.2262659927950866,0,0.981889
0.23680017052493563,0,0.930768
0.16171446084710905,0,0.954079
0.17680157958119672,0,0.981996
0.20651928512452464,0,0.961070
0.226612099676755,0,0.951695
0.2236793140016448,0,0.961231
0.12445989370603774,0,0.964408
0.16071756558917938,0,0.949845
0.16937630070667123,0,0.999436
0.17388667944602135,0,0.962441
0.13651073711187608,0,0.983597
0.1305787741339276,0,0.978125
0.10816222256998767,0,0.953386
0.1215474966808647,0,0.993293
0.15715029601695366,0,0.981532
0.1363344744633668,0,0.961513
0.20974886803065612,0,0.985811
0.21243359847547907,0,0.988797
0.24962781393749134,0,0.999858
0.1941108164530888,0,0.964943
0.21444052126364088,0,0.978378
0.1326234458507953,0,0.975532
0.17100825288311738,0,0.961369
0.1693517203546026,0,0.969726
0.21964131114710514,0,0.997709
0.09150332420233194,0,0.953219
0.1547267826074872,0,0.993078
0.15858124592787382,0,0.963765
0.18015165008113468,0,0.993881
0.19421312125032267,0,0.973638
0.21156565481129555,0,0.943470
0.19887102879617338,0,0.954982
0.1433541365342892,0,0.994480
0.102024819375172,0,0.998904
0.15278451160147719,0,0.991650
0.15823057627863507,0,0.981643
0.1609536862023822,0,0.991797
0.12638670050338474,0,0.982643
0.12303522027678553,0,0.968004
0.13711146246499545,0,0.977491
0.13373478465078148,0,0.997167
0.13524805835389814,0,0.973538
0.14313932608984165,0,0.975944
0.10731871563288839,0,0.997641
0.1273709808454187,0,0.967647
0.11200028036372418,0,0.942106
0.13822856842854728,0,0.966640
0.12932288567855818,0,0.989456
0.15885188515016035,0,0.988463
0.16629654515021008,0,0.980158
0.16801970041079764,0,0.966671
0.1976711785494079,0,0.956064
0.19434941826873856,0,0.980660
0.21600083099035006,0,0.994862
0.18363187590733057,0,0.992555
0.13442582844825682,0,0.992456
0.1412617106841765,0,0.954163
0.14180614866957056,0,0.949471
0.1411302089861442,0,0.993196
0.1586695991921546,0,0.993411
0.1692390556172281,0,0.991742
0.17384628386270548,0,0.969861
0.1344364450077023,0,0.996211
0.15397691263295582,0,0.986687
0.15539947669834042,0,0.986734
0.16011435529837695,0,0.978603
0.16690050549659996,0,0.978223
0.16914667406234868,0,0.976428
0.1678431031013,0,0.990559
0.1822465619323444,0,0.975655
0.110805597003054,0,0.998795
0.1563453186941844,0,0.998044
0.18085234577618878,0,0.978320
0.18923750877152615,0,0.956071
0.19951756999928869,0,0.960135
0.12279255644467045,0,0.972913
0.1246709464221076,0,0.996499
0.15925377929897658,0,0.983759
0.14786527774193914,0,0.966488
0.1590603046803669,0,0.980163
0.16381551508433598,0,0.988292
0.16623115418996906,0,0.943771
0.16861898964725766,0,0.983340
0.14331772161504874,0,0.955778
0.16369209151354994,0,0.973046
0.17790998614653025,0,0.980645
0.18076032300566436,0,0.215096
0.1860275071781528,0,0.965819
0.18169869615637246,0,0.961347
0.1645259150229557,0,0.996529
0.1638651577261538,0,0.976764
0.17187406404811575,0,0.990217
0.19013325133874265,0,0.999875
0.1893882408738784,0,0.990597
0.18556481646061992,0,0.971387
0.14592555081631206,0,0.956796
0.20206600010292675,0,0.993372
0.2194011049984706,0,0.961062
0.19566276958425924,0,0.941441
0.09833920298290956,0,0.971445
0.1263124538340808,0,0.972484
0.1356513138968539,0,0.964293
0.13725877439285467,0,0.998473
0.12957295550549,1,0.999977
0.15937759957820766,0,0.965430
0.19208632533275918,0,0.999882
0.19437283633906724,0,0.986019
0.20202378580908426,0,0.991431
0.2593195146820139,0,0.996768
0.25194190584715176,0,0.991093
0.2539026502112675,0,0.961804
0.26196314000028226,0,0.955532
0.2621885747903646,0,0.997532
0.2621885747903646,0,0.996323
0.09161589270153088,0,0.946367
0.1488316746608585,0,0.977182
0.15165892055594074,0,0.959087
0.21093966899199484,0,0.971921
0.21668970093196932,0,0.975714
0.16421182521308986,0,0.969889
0.17916436708602282,0,0.975753
0.34666114936299725,0,0.997011
0.44426297147237154,0,0.978391
0.4170342600978644,0,0.972041
0.3932892082326617,0,0.983636
0.31301999597916014,0,0.992016
0.1543941042287017,0,0.983678
0.1601816451705674,0,0.968199
0.16441257997881153,0,0.993035
0.17012700766323596,0,0.992743
0.07154694602562366,0,0.950188
0.11122734174327252,0,0.990131
0.1182594291362615,0,0.959428
0.1274132283929208,0,0.973249
0.17043359684157156,0,0.999164
0.2052313427849008,0,0.974042
0.20546375643246828,0,0.968613
0.13234254739800116,0,0.981991
0.22243429086846542,0,0.994041
0.2121663024074769,0,0.973506
0.08380140923076831,0,0.999192
0.0961965012646315,0,0.985305
0.18775328762684598,0,0.970419
0.2018769799926444,0,0.967301
0.15232705376443784,0,0.992906
0.18431799423824224,0,0.982518
0.19069194022234975,0,0.977642
0.20323954263626123,0,0.983780
0.13028280358098335,0,0.974971
0.1513337833803956,0,0.994803
0.1558887771948735,0,0.977174
0.17646461098354513,0,0.992608
0.1838244325066029,0,0.996968
0.14005825763871332,0,0.951937
0.16520650849645638,0,0.976579
0.1981201837162026,0,0.982175
0.20567921871045158,0,0.975165
0.205050047528315,0,0.947910
0.251286004517823,0,0.999049
0.16943109114189495,0,0.971357
0.15339815804098728,0,0.991649
0.16021856093296305,0,0.980841
0.14732027340799664,0,0.967073
0.17059501561286422,0,0.985914
0.18473506160513378,0,0.991137
0.1703086534299967,0,0.955418
0.1734595175065544,0,0.998836
0.1716151074075773,0,0.993571
0.20562628600692368,0,0.993863
0.22053805951504352,0,0.975693
0.22407466007934496,0,0.966166
0.2230459736830484,0,0.980957
0.23846758531979717,0,0.966109
0.14940690172035162,0,0.968135
0.11456174695818305,0,0.971266
0.11663450657959892,0,0.988982
0.17468498919828276,0,0.993033
0.14322049307896564,0,0.970977
0.14513788910939224,0,0.940113
0.17209465744647984,0,0.981385
0.14388037861594496,0,0.969934
0.14265109138615115,0,0.984492
0.15042183544196114,0,0.951041
0.13639248417986274,0,0.996828
0.195972053122653,0,0.953520
0.23614706145207642,0,0.968106
0.16775597468583456,0,0.954797
0.15391130500761221,0,0.982612
0.20322558791683767,0,0.950151
0.1602427969230174,0,0.993006
0.08903734249263597,0,0.986267
0.15309458694157355,0,0.985098
0.15384678755914669,0,0.973549
0.16887824786857272,0,0.994316
0.21028493264022458,0,0.946394
0.22349128922981157,0,0.960077
0.1904886101093891,0,0.994667
0.19758790539743631,0,0.981025
0.23373300407089778,0,0.972802
0.20283627216561195,0,0.940871
0.2243654571156392,0,0.971308
0.1835734386833062,0,0.983137
0.1889767771914017,0,0.990210
0.15871002154259997,0,0.961044
0.17078812380296707,0,0.963287
0.1690877957467362,0,0.975368
0.17354509286028255,0,0.994149
0.13854914048973158,0,0.985856
0.161118174815201,0,0.994787
0.17931830506005111,0,0.968545
0.2095425761861586,0,0.976075
0.17279631105903107,0,0.990307
0.1657125308649229,0,0.993975
0.22914724786607088,0,0.972574
0.23514467481961587,0,0.987961
0.2475423775983436,0,0.956196
0.2688106116842349,0,0.986097
0.27851088365611376,0,0.970821
0.27851088365611376,0,0.974374
0.1892230175778,0,0.969286
0.20785724576965145,0,0.988571
0.21382601814420735,0,0.956492
0.24685130363239086,0,0.990972
0.24685130363239086,0,0.953624
0.26832763641690904,0,0.980092
0.16176476472487422,0,0.958891
0.16318355249305924,0,0.984907
0.21310844186648115,0,0.937704
0.22322252193837014,0,0.994958
0.22014189838842468,0,0.987733
0.23202878321740164,0,0.976420
0.26173466270615525,0,0.968254
0.22869895080916502,0,0.956869
0.21269299542982498,0,0.992453
0.22067657487697315,0,0.948419
0.21179527932509276,0,0.992441
0.2299414897403872,0,0.998582
0.24963684936365588,0,0.995736
0.2367435029421887,0,0.939918
0.27230828232971943,0,0.990442
0.20775875205067185,0,0.981674
0.23367406359683582,0,0.983478
0.23225886082290628,0,0.981088
0.24282868440333893,0,0.983222
