0.10992710344364115,0,0.985696
0.17510491339034373,0,0.948000
0.417381065033182,0,0.959539
0.465967968077347,1,0.999958
0.35871230068028104,0,0.999883
0.2922564199569067,0,0.972697
0.5470623333753705,0,0.999380
0.5036448207375501,0,0.997547
0.5205177705830621,0,0.991645
0.6702707325540893,0,0.995321
0.6573662238658343,0,0.997604
0.5914029901685537,0,0.997315
0.5973768440677806,0,0.999567
0.6144585785595902,0,0.999086
0.6225210260852841,0,0.998905
0.6244682513191744,1,0.999950
0.5777505533717883,0,0.996712
0.5001126597531111,0,0.996051
0.5194236589009723,0,0.999181
0.4860227798674514,0,0.998500
0.5136962864419146,0,0.998865
0.5155197651897235,0,0.994711
0.5575444248005164,0,0.991210
0.6128263466896674,0,0.999187
0.7039238858045732,0,0.999658
0.8631053169688477,0,0.999704
0.8706768330368789,0,0.999290
0.815745206994644,0,0.994450
0.5736496555254587,0,0.995473
0.45646692318934684,0,0.999582
0.4445600843119792,0,0.999907
0.38685988054868387,0,0.998261
0.29173645472014625,0,0.996283
0.3070509711862108,0,0.996277
0.36727654858236186,0,0.999463
0.6574243651733777,0,0.995546
0.7696968533301084,0,0.999442
0.7993742749280148,0,0.998727
0.7199480404525758,0,0.996938
0.6649188814944066,0,0.998111
0.7388028470448691,0,0.999254
0.5944165821963812,0,0.994424
0.2559842798918068,0,0.970653
0.24351461209095263,0,0.998542
0.43594869457624574,0,0.997485
0.6691806438046778,0,0.999896
0.8474685037423665,0,0.999662
0.8591073802031806,0,0.999603
0.8703266326636996,0,0.997774
0.8704753594765897,0,0.997505
0.8703375045761069,1,0.999951
0.8771637945621474,1,0.999934
0.893016008127093,0,0.997600
0.9194454623578053,0,0.999723
0.9242884754292987,0,0.998074
0.9179462020139101,0,0.999194
0.8805860750257047,0,0.998315
0.9209772387403004,0,0.997538
0.9226505464511181,0,0.998935
0.9024598228045091,0,0.999801
0.9351594895934411,0,0.999622
0.8988619500507387,1,0.999987
0.9146510870663213,0,0.997157
0.9419644230303972,0,0.999396
0.8745269554626279,0,0.997135
0.8745794066917413,0,0.999377
0.8737867179863715,0,0.999884
0.9359568622599405,0,0.998587
0.9558000887171562,1,0.999993
0.9669046374474961,0,0.999249
0.9351950755700684,0,0.999138
0.9220882938680565,0,0.999545
0.9320528020524087,1,0.999979
0.9590784734929119,0,0.999816
0.9668673776112597,0,0.999890
0.9677238064217774,0,0.999727
0.968111728219736,1,0.999979
0.9635800246464233,0,0.999667
0.9632165995916946,0,0.999286
0.9640503342268202,0,0.999916
0.9557047890315175,0,0.999063
0.9603604492916313,0,0.999869
0.9500992794742057,0,0.999458
0.9338648750556622,0,0.999631
0.8270540188860589,0,0.999460
0.8801469384279852,0,0.999648
0.9654582918229025,0,0.999866
0.9727675264691348,0,0.999860
0.9620140754676063,0,0.999937
0.9247586677746319,0,0.999862
0.9183279934730983,1,0.999941
0.9650964520473349,0,0.997960
0.933902282419274,0,0.999658
0.9114006349257375,0,0.999629
0.9567853275696491,0,0.999758
0.9721480527702621,0,0.999758
0.9222246313843878,0,0.999638
0.958704311753147,0,0.999871
0.8006944244969008,0,0.998694
0.8623437306233643,0,0.999494
0.9401958635052031,1,0.999974
0.9258644844708923,0,0.997749
0.7832705599215642,0,0.998657
0.6107095522984973,1,0.999994
0.5899981916714374,0,0.991372
0.9025212876569801,1,0.999977
0.9265384409032082,0,0.998361
0.9156517064756821,0,0.999936
0.9461404135785069,0,0.999262
0.9623246603278521,0,0.999125
0.9568673806968877,0,0.998902
0.9589833620164875,0,0.999876
0.9368606164785027,1,0.999977
0.8494172348150931,1,0.999948
0.8821832102888622,1,0.999948
0.8741638152157865,0,0.998230
0.772196749787165,0,0.998532
0.8823563254301608,0,0.998248
0.9035407285664011,0,0.997650
0.6370337498828692,0,0.999198
0.7784956875405107,0,0.993121
0.8217012546631665,0,0.998759
0.8227167542043798,1,0.999949
0.8453501818028907,0,0.997155
0.8874120099309253,0,0.997759
0.871323701722031,0,0.994601
0.8933272319880299,0,0.998149
0.9134106382466016,0,0.998968
0.9271000104209696,0,0.999418
0.8630881232929335,0,0.999363
0.9027586795611313,0,0.998923
0.9059586713488534,0,0.998644
0.8315613294516078,0,0.999650
0.797838163980475,0,0.999666
0.9225625265016673,0,0.999876
0.8274175230680182,0,0.992211
0.8432568346760239,0,0.999427
