0.008934631651356191,0,0.943496
0.07628550839804293,0,0.955752
0.10135943853393495,0,0.947732
0.1214980770336574,0,0.975455
0.12633474027926156,0,0.956594
0.14021479443490587,0,0.979152
0.17488363847220909,0,0.982807
0.2470962690532817,0,0.974241
0.2595918651061302,0,0.963582
0.2700973525739731,0,0.976457
0.27527200668088375,0,0.977631
0.27649049734657355,0,0.975276
0.2780984116961795,0,0.971338
0.2780984116961795,0,0.969682
0.28891921764284983,0,0.978880
0.29126185270152966,0,0.978524
0.29890691598410885,0,0.977692
0.30567479030894407,0,0.217032
0.31037022258332414,0,0.214378
0.31240656589363214,0,0.971073
0.31473689536584576,0,0.969724
0.33018707437916456,0,0.969285
0.3448031502879361,0,0.958175
0.362322802496734,0,0.972087
0.37278579032131476,0,0.970258
0.3918816458430318,0,0.987742
0.40517093871056814,0,0.966993
0.4217248313186705,0,0.998675
0.431413711915369,0,0.977503
0.444073268443342,0,0.997337
0.44793444029747115,0,0.976782
0.4534993777125283,0,0.992363
0.4902445896872482,1,0.999984
0.4929768218243206,0,0.998645
0.5299407438498933,0,0.990098
0.539782915563045,0,0.985723
0.5544395435185331,0,0.984425
0.5624566148765134,0,0.982143
0.6059477347539112,0,0.983704
0.610133642952811,0,0.985375
0.6127875322566536,0,0.991130
0.6160114809903877,0,0.997690
0.617843417312127,0,0.983078
0.6245059704640814,0,0.989399
0.6286213300055362,0,0.983706
0.6296575941705048,0,0.998929
0.6537360966617063,0,0.997481
0.6675574885092591,1,0.999983
0.6836048014679754,0,0.984588
0.7168132156630842,0,0.998734
0.7198767319389365,0,0.991077
0.7448859103483865,0,0.999656
0.7472367441549183,0,0.999033
0.7515046254956456,0,0.978007
0.7600605770418052,0,0.993689
0.7655157600574053,0,0.999893
0.7847448208557486,0,0.994444
0.7901873084689365,0,0.999100
0.7991398538370882,0,0.990469
0.8122362800906151,0,0.999079
0.8137556501493187,0,0.997479
0.8180006797104282,0,0.998509
0.8276225541496746,0,0.994001
0.8288443239743074,1,0.999933
0.8341332214790544,0,0.989969
0.8347180859436878,0,0.999314
0.8383665177573705,0,0.999835
0.8402052132555815,1,0.999932
0.8482907085059371,0,0.999477
0.8539439814564378,0,0.999581
0.8565866942430472,1,0.999961
0.8583096207177001,0,0.989206
0.8610865890694551,1,0.999993
0.866557613942207,0,0.998963
0.8674975882008793,0,0.999919
0.8678782214222365,0,0.996715
0.8703513225353348,0,0.997111
0.8751282021427674,0,0.999680
0.8765616849269736,0,0.999811
0.8770869785559751,0,0.998208
0.878230945898245,0,0.993141
0.8810468191693257,0,0.999889
0.8820499912685699,0,0.999723
0.8829074479136633,0,0.999097
0.8861027724430258,0,0.998895
0.8871012592296197,0,0.999690
0.8881224658511784,0,0.991665
0.8915879391619849,0,0.999872
0.8925948517412614,0,0.999787
0.8963095324645456,0,0.999798
0.8983706860245151,0,0.999790
0.9001074621060523,0,0.999263
0.9002380567702145,0,0.999860
0.900506794383527,0,0.998275
0.9007863603189976,0,0.997582
0.9014576315712913,0,0.998043
0.9023904120530452,1,0.999941
0.9028423685730158,0,0.999849
0.903285364598925,0,0.998761
0.9048778568924668,0,0.999236
0.9052107912788918,0,0.997440
0.9056104898484135,0,0.998790
0.9063114255207124,0,0.999252
0.9076842181512349,0,0.996746
0.9083257961779854,0,0.997348
0.9096099229886828,0,0.995212
0.9101263208308126,0,0.998964
0.9116311530776662,0,0.976958
0.9138586088483799,0,0.999362
0.9159608764671685,0,0.988679
0.9188355669859316,0,0.999778
0.9193017905864501,0,0.998990
0.921625538356995,0,0.999665
0.9242994890429724,0,0.999647
0.9269524036364,1,0.999952
0.9295709238353809,1,0.999989
0.9305173959168366,0,0.999282
0.9332630008557284,0,0.999404
0.9343704704814692,0,0.999332
0.9369757145461963,0,0.999787
0.9380106107954677,0,0.995218
0.9404883048132864,1,0.999992
0.9437802822667807,0,0.999527
0.9474818308458787,0,0.999416
0.9510906959407325,1,0.999978
0.9535634644184154,0,0.999842
0.9543364096303953,1,0.999954
0.9579485901545423,0,0.999656
0.958602021839532,0,0.999870
0.960769061330246,0,0.999786
0.9631885455257684,0,0.999930
0.9638498958765669,0,0.999836
0.9658590968207635,1,0.999995
0.966479112294002,0,0.999874
0.9689920055252593,1,0.999994
0.9710622221383516,0,0.999738
0.9730201545828189,1,0.999992
0.973582136122109,0,0.999867
0.9757507182737808,0,0.999758
0.9775889722100096,0,0.999903
0.9779496495912331,1,0.999941
0.9795497542965999,0,0.999885
0.9806145548784494,0,0.999828
0.9808226417821605,1,0.999952
0.9812006606220625,0,0.987842
0.9817133835141102,0,0.999855
0.9821000426859238,1,0.999993
0.9824380628706039,0,0.998934
0.9829672078142565,1,0.999917
0.9831569198802846,1,0.999964
0.9835083570234227,0,0.991890
0.9838460468824517,0,0.987272
0.9845041037106808,1,0.999983
0.9848823404536305,1,0.999973
0.9851555852677245,0,0.999931
0.9857288200987459,1,0.999994
0.9861026593667797,0,0.999886
0.9863125029680142,1,0.999970
0.9869374868152275,0,0.999826
0.9876170619038681,0,0.999903
0.9876893478649044,1,0.999958
0.9881937977303734,1,0.999994
0.9888001785347131,1,0.999994
0.9894067206571261,1,0.999991
0.9894610209099416,1,0.999991
0.9900524357198875,1,0.999981
0.9905426069540381,1,0.999994
0.9910037923976697,1,0.999972
0.991109186872941,1,0.999991
0.9915763824006437,0,0.999799
