0.9925409125088402,1,0.995851
0.9926124905469289,1,0.995536
0.9958139701049267,1,0.995652
0.9921784743628019,1,0.996503
0.9953007665180532,1,0.995984
0.9897521673402168,1,0.999457
0.990379617636758,1,0.999556
0.987394150172825,1,0.998408
0.9920426425130461,1,0.999470
0.9925058260926415,1,0.999538
0.9913905974746166,1,0.999490
0.9805611519765282,1,0.999102
0.9879250657181943,1,0.999533
0.9857386791985151,1,0.999540
0.9882610247100341,1,0.999506
0.9923571362423667,1,0.999529
0.982273238615675,1,0.999510
0.9892646190799255,1,0.999545
0.984801781925929,1,0.998645
0.9935702903473714,1,0.999537
0.976923851239544,1,0.999565
0.9933618329495956,1,0.999018
0.9933843623242906,1,0.999595
0.9738014843891151,1,0.999435
0.9812011524499773,1,0.999530
0.9946563561642306,1,0.996255
0.9900951191037143,1,0.994387
0.9810621136027262,1,0.999253
0.990329310756166,1,0.998689
0.9876531711525098,0,0.994120
0.9439566743237221,0,0.995903
0.9588506484241911,0,0.994359
0.9782039064698987,1,0.999647
0.9835221968804596,0,0.987325
0.965425678932321,0,0.970116
0.9907016950146025,0,0.964964
0.9890105743743306,0,0.986286
0.9910239883836379,1,0.999737
0.9724506964359702,1,0.999720
0.9860362257886723,0,0.994485
