0.5245625207504693,1,0.999762
0.568227191099326,0,0.924521
0.6943125413177409,0,0.951391
0.2077940751048557,0,0.910866
0.5992162773177284,1,0.998480
0.8269835203677052,1,0.999748
0.15971552846759404,0,0.994860
0.16316917978210077,0,0.989968
0.524886519268502,0,0.990821
0.7608899140576281,1,0.999074
0.7978720472456157,0,0.993358
0.8271335014908069,0,0.995211
0.893454882343214,1,0.999772
0.8757567134844739,0,0.989412
0.8515866968108998,1,0.996613
0.8491613492172921,0,0.956595
0.8304603689739726,0,0.941692
0.84553080948739,0,0.996912
0.9432194528137806,0,0.985267
0.951715038193886,0,0.989515
0.9128125804827931,1,0.999405
0.9491310298901515,0,0.990201
0.7892239790227773,0,0.992395
0.8961784298169522,1,0.998779
0.8589613993306049,1,0.997504
0.9375462385738741,0,0.988281
0.9417621039312991,0,0.972087
0.9211820619824133,1,0.999732
0.930814441585468,0,0.976120
0.9548508211434023,1,0.998665
0.9578135305197535,0,0.966194
0.9301476086617123,1,0.999568
0.9511443098044182,0,0.990807
0.959592460249419,1,0.999701
0.9674771799288515,0,0.996747
0.9549335133633285,0,0.992525
0.9609777687103735,0,0.987072
0.966504164652863,0,0.984604
0.9664235796428502,1,0.998179
0.964016406484019,1,0.998775
0.9711086499777094,0,0.991348
0.9723698497140911,0,0.993941
0.9683712373951313,1,0.998987
0.9727873446099746,1,0.998864
0.9653060212096708,0,0.994841
0.9690184957061636,0,0.987776
0.9756779575490163,0,0.990050
0.9643540068501131,1,0.999755
0.9657327538711619,1,0.999509
0.9774306819377594,1,0.999251
0.9586493574501357,0,0.997008
0.9235556761509202,0,0.964550
0.9678269749402808,0,0.973399
0.8328574082694634,1,0.996793
0.9710921040998217,0,0.989377
0.9775670894149348,1,0.998349
0.9669203411048644,1,0.999274
0.9574154381431483,1,0.999517
0.971457164746357,1,0.998149
0.9697846191947485,1,0.999775
0.8279054557041615,1,0.999417
0.974055328228647,0,0.994282
0.971577086791425,0,0.996807
0.9728245030419816,0,0.985022
0.9774477413881785,1,0.999528
0.9782647989922685,1,0.998434
0.9683374375762901,0,0.992042
0.9743350807696334,1,0.997910
0.9713865189829908,1,0.999776
0.9724314859447315,1,0.998582
0.9754078676952707,1,0.999772
0.9749739366688839,0,0.991142
0.9760068162956906,1,0.999515
0.9663404689915521,0,0.989067
0.9817201608987322,0,0.993457
0.9736519227643362,1,0.998179
0.9773283517553691,1,0.999502
0.9779421543935363,0,0.962025
0.9751455956281214,1,0.997590
0.9765000612928875,0,0.992388
0.9729074155778064,0,0.989832
0.97675088101579,1,0.997993
0.981201909903129,0,0.989495
0.9718460614335522,0,0.982578
0.9743238771177256,1,0.997144
0.9810582396774458,0,0.986470
0.958803841030955,1,0.997666
0.969795728953815,0,0.995828
0.9785997104211184,1,0.998822
0.9743295350180018,1,0.997585
0.9838160021427697,1,0.997632
0.9845314266097045,1,0.997920
0.9827274743995058,1,0.998219
0.9848449373980701,1,0.998733
0.982593894655316,1,0.997429
0.9814800643564516,1,0.994467
0.9354901629824012,1,0.999611
0.9827106193724433,1,0.999599
0.9790966409928469,1,0.996998
0.9851988603919472,0,0.992863
0.9847368238169669,1,0.999044
0.9859878615816738,1,0.996785
0.9777091820660266,1,0.998422
0.9876345279704958,1,0.999622
0.978382922859268,0,0.987286
0.9844802822571119,0,0.986089
0.989401003699183,1,0.999490
0.9810881775696063,1,0.999650
0.9777540987712782,1,0.996471
0.9861109858024734,1,0.999651
0.9841074343181433,1,0.998037
0.9837162268165999,1,0.999608
0.9830752971683123,1,0.997463
0.9892432233382674,0,0.994444
0.9713979608299441,1,0.996935
0.9889318302674973,1,0.997487
0.9827825367239008,1,0.999500
0.9441676514364953,1,0.997382
0.9805290276369107,1,0.999599
0.9612988386209098,0,0.982673
0.9566342292223915,1,0.999482
0.9577860680291613,1,0.996720
0.9489723279806224,1,0.998996
0.9352217456153165,0,0.987637
0.9812115510716509,0,0.995402
0.9805173321251217,1,0.999670
0.9816003603518235,1,0.995522
0.9768104735016854,1,0.999600
0.9636125337521395,1,0.999646
0.9824770569229685,1,0.998981
0.9852010176208695,1,0.999491
0.9464559607014139,1,0.997998
0.9799858044080395,1,0.999185
0.9807526141479999,1,0.998440
0.9511097974369188,1,0.998816
0.9787032641771514,1,0.999644
0.9820817901538895,1,0.999298
0.9756716791668008,1,0.996167
0.9725514826260617,1,0.999558
0.9583789333585488,1,0.999281
0.9713168132226995,1,0.996173
0.9566648046141344,1,0.998909
0.9609595157454655,1,0.996638
0.9531453734288193,1,0.997805
0.9386290543682602,1,0.999091
0.9635325147440162,1,0.997924
0.9622943183988559,1,0.997479
0.9522220642275488,1,0.998334
0.9624643661606188,1,0.999143
0.9683958218480626,0,0.994399
0.949247929630407,1,0.999156
0.9509576346670598,1,0.999023
0.9589105235964296,1,0.999561
0.946064933702819,1,0.998122
0.9327239589082214,1,0.999522
0.9587005126694468,1,0.999640
0.9678866730385635,1,0.998270
0.9678146074084587,1,0.999646
0.960298275992481,1,0.999643
0.9518752271406329,0,0.986610
0.9751277681068259,1,0.998288
0.9586521116750372,1,0.997064
0.958131155726121,1,0.998801
0.9686097992091773,1,0.999587
0.9704445901431576,0,0.991746
0.9780798019001985,0,0.986656
0.978736409361233,1,0.996542
0.9775491923424531,1,0.998399
0.9694221979410038,1,0.999636
0.9789362301656188,1,0.999581
0.9813979228664004,0,0.993569
0.9750063625422747,1,0.998222
0.9774782971627372,1,0.997857
0.9806503383099997,1,0.999578
0.9744110862292238,1,0.997143
0.9720785573609095,0,0.993931
0.9774360574334061,0,0.985855
0.9785282070968423,1,0.998051
0.9826234120249373,1,0.997452
0.9636925417734771,1,0.996448
0.9807366482736134,1,0.999447
0.9840649061997543,1,0.998297
0.9837226316643398,1,0.999547
0.9741862861561899,1,0.995522
0.9789578086460957,1,0.997180
0.9437648889937265,1,0.996934
0.9801503946716214,1,0.999597
0.9834311239168381,1,0.998077
0.9801419695975497,1,0.998829
0.9677817314255586,0,0.991430
0.9825521871563654,1,0.999595
0.9800171602697761,1,0.998293
0.9870265942001613,1,0.999171
0.9501886713138309,1,0.997690
0.9864431537488825,1,0.995913
0.9844428558789108,1,0.998845
0.9849779725222442,1,0.998665
0.9728107770532722,1,0.999255
0.9874848339011246,1,0.998943
0.9848833042870502,1,0.998284
0.9847068048361669,1,0.999652
0.9847302337888311,1,0.999647
0.95773743554976,0,0.993123
0.9771266003678689,1,0.999643
0.9747635878214654,1,0.999605
0.9725353153595708,1,0.999600
0.9827732454508905,1,0.999611
0.9864646447206358,1,0.999613
0.9846859442038993,1,0.998966
0.9731215456798067,1,0.998607
0.9508507248112765,1,0.997212
0.9793907351565823,1,0.996604
0.9750711889189632,1,0.999141
0.9718053837463154,1,0.998954
0.9725010220405083,1,0.999642
0.9817932516846262,0,0.994202
0.97649825033961,1,0.999304
0.9839342596539722,1,0.996813
0.9797252036945155,1,0.999642
0.9848727846366853,1,0.999522
0.9821186365246419,1,0.999026
0.9857515283440959,1,0.999559
0.9837922692719787,0,0.993358
0.9772702924550262,1,0.999576
0.9818493864398226,1,0.999212
0.9815323908179383,0,0.985861
0.9807539607982095,0,0.995720
0.9815322977177925,1,0.998935
0.9709197969138582,0,0.992182
0.9775292523231625,1,0.999587
0.975137612342207,1,0.999447
0.9840624123601173,1,0.995050
0.9808892376758791,1,0.999164
0.9803874335933876,1,0.999605
0.9811928770182341,1,0.999593
0.9878803120693607,1,0.996602
0.9815746382453503,1,0.997872
0.9759846626575142,1,0.999571
0.9452722973017956,1,0.998688
0.9721921672446346,0,0.990249
0.9821446305336211,0,0.993080
0.9547095830339166,1,0.998409
0.9729226840772617,0,0.993228
0.9742414572436193,1,0.999615
0.9754082031728877,1,0.999587
0.9603688001275836,1,0.999552
0.9143608953389007,1,0.999615
0.9514769332761809,1,0.999003
0.9104377927344772,1,0.999641
0.9782443210827664,0,0.991494
0.9773169154874878,1,0.997822
0.9596802390478302,1,0.999556
0.9781018714459191,1,0.998566
0.9444934750184846,1,0.999636
0.9747718110671957,1,0.998232
0.9533368785240256,1,0.997485
0.9683569735576327,1,0.999642
0.8862372524237812,1,0.999285
0.9583516380521094,1,0.999643
0.9810558788640557,1,0.998920
0.9654064030788555,1,0.998839
0.9615998370952973,1,0.997664
0.9743451415008962,1,0.999114
0.9473666801035497,1,0.998498
0.9542407503319542,1,0.999643
0.9791635672942907,1,0.997734
0.9838277168564787,1,0.999565
0.9800719719069346,1,0.999643
0.9805755507595573,0,0.992740
0.9840693852836435,1,0.999147
0.986921742862707,0,0.992503
0.9768934006063344,1,0.998930
0.980969623067435,1,0.998720
0.9839088425907598,1,0.997758
0.9659253499488377,1,0.999559
0.9319056098236143,1,0.998793
0.9820551095212587,0,0.988460
0.9895363813675397,1,0.999495
0.9814666410122601,1,0.999592
0.9828784606384929,1,0.995825
0.984936862934827,1,0.999570
0.9829876925108266,1,0.999613
0.9822986165691767,0,0.989678
0.981731963442861,1,0.998826
0.9862616520009683,1,0.999617
0.9804511543499624,1,0.999145
0.9766058187959895,1,0.998844
0.9417206084051616,1,0.999637
0.9720463477073864,1,0.999651
0.9795741117385692,1,0.999645
0.9812815542448459,1,0.999607
0.9758713777966548,1,0.997342
0.9602190411399615,0,0.993877
0.9834619854070952,1,0.999558
0.9728407184851215,1,0.999635
0.9440425714386929,1,0.998089
0.9744655674637581,1,0.998428
0.9602122946737744,1,0.997021
0.9588630480678049,1,0.999232
0.9765271899521057,1,0.997272
0.9559406715051536,1,0.999542
0.9520664223922098,1,0.996824
0.946143508698762,1,0.998703
0.9689527363782559,1,0.999631
0.9723236461264062,1,0.999560
0.9276920035966517,1,0.998584
0.959666662616203,1,0.998034
0.9725714197633496,1,0.996105
0.9731954940263707,1,0.995980
0.9791883801397464,1,0.999643
0.982068701198855,0,0.980696
0.9797411621769763,1,0.999647
0.9414226493244162,0,0.994298
0.9457488903413277,1,0.997588
0.9785262307520153,1,0.999234
0.9832248045276005,1,0.997734
0.9849686173957393,1,0.999563
0.9717269493334387,1,0.999602
0.986936316531482,1,0.999598
0.9866869651103046,0,0.993933
0.9825746800025003,0,0.987760
0.9809882538081809,1,0.999571
0.9829035130602151,0,0.995270
0.9772909957914482,1,0.999602
0.985429581085404,1,0.999616
0.9839661382832076,1,0.999009
0.9804908285408405,0,0.994630
0.9720259129844031,1,0.998224
0.9791614239767489,1,0.999293
0.9783581164005296,1,0.999634
0.9821583335313292,1,0.999554
0.9841289148579353,1,0.999120
0.9869688694023974,1,0.999644
0.9837566240121568,1,0.999648
0.974173631036212,1,0.997536
0.9649810403003491,1,0.999342
0.9481840815431156,1,0.998822
0.9425794486495053,1,0.999340
0.9519609705055312,1,0.999441
0.9649401137187869,1,0.998881
0.9556722731959291,1,0.999217
0.949976203784209,1,0.999167
0.9603394093849952,1,0.999438
0.9646145215775199,1,0.997705
0.9666130125874213,1,0.997188
0.9489550720848705,1,0.999142
0.9678794309517916,1,0.998404
0.9523993423532293,1,0.998476
0.9712266304818917,1,0.999440
0.9702858753111133,1,0.998373
0.9801778330671866,1,0.996189
0.9673396321974742,1,0.999438
0.9552897964561865,1,0.999419
0.9780708805021731,1,0.999440
0.965950197810434,1,0.997759
0.9822496803976658,0,0.994149
0.9544156880320999,1,0.999191
0.9620050101314779,1,0.999233
0.9657334432586684,1,0.999426
0.9397766900379173,1,0.998447
0.9424652008521744,1,0.996460
0.9554570648661213,1,0.996631
0.9752098471938143,1,0.997654
0.9704593467047886,0,0.991940
0.930577185750191,1,0.999195
0.9463253689986951,1,0.996940
0.9794120281197972,0,0.994607
0.9773435962224309,1,0.997405
0.9771914956654751,1,0.999616
0.9666260968955761,1,0.997680
0.9639181580115326,1,0.999273
0.985827624189881,1,0.999558
0.9816499932474562,1,0.996804
0.9640800868990563,1,0.998225
0.9578768538239331,1,0.997461
0.9720260850787443,1,0.998201
0.9493816362591413,0,0.989234
0.9073557817662535,1,0.998886
0.9723070050046776,1,0.999444
0.9628633480804832,1,0.998855
0.9732779634856674,1,0.998410
0.9220579590290209,1,0.999273
0.9032602757960284,1,0.997115
0.9754877696365524,1,0.997762
0.9645277839263136,1,0.996226
0.9784770302395477,1,0.999608
0.974861842668729,1,0.997570
0.9767867105632368,1,0.999226
0.9223328695315408,0,0.994650
0.9699286032898438,1,0.999504
0.9731899845872319,1,0.999114
0.9877178601736741,1,0.998562
0.9807305071098353,1,0.999656
0.9744439778780256,1,0.999646
0.9790867630865553,1,0.998943
0.9393638420196995,1,0.999516
0.9248281700671777,1,0.995484
0.9796538899311197,1,0.998919
0.9572865649927892,1,0.998413
0.956600563096309,1,0.995101
0.9636908189215302,1,0.999180
0.9774425050358305,1,0.998461
0.97677662574616,1,0.999503
0.9808636882829967,1,0.998101
0.9757000972288097,1,0.999549
0.9820166845194374,1,0.996795
0.9862523974171988,1,0.999559
0.9828192656516643,1,0.999550
0.9808145366031058,1,0.999223
0.9133140468849688,1,0.999619
0.9758738160654792,1,0.999556
0.9855188413797324,1,0.999117
0.9813242211035565,1,0.994569
0.9726829397446555,1,0.997818
0.9210336473713707,1,0.997748
0.8900090227566979,1,0.998230
0.923102425039825,1,0.998869
0.9463760137410978,1,0.999425
0.9440463729790226,1,0.997256
0.9533058070390066,1,0.998889
0.9054720595256167,1,0.999219
0.9041789482086955,1,0.999161
0.9038371167620756,1,0.996075
0.8437240402531868,1,0.998840
0.9032671544380944,0,0.990466
0.8548265932456011,0,0.991861
0.8209765375610651,1,0.995231
0.867961416133069,1,0.999442
0.9033593188699535,1,0.999168
0.9442256493536676,1,0.996779
0.9667381433138117,1,0.997813
0.9295933579626282,1,0.998832
0.8438003105961298,0,0.993889
0.9308782682329749,1,0.995389
