0.955815995655217,1,0.993631
0.41792070054064645,1,0.992308
0.7977354609131249,1,0.992714
0.7803051367764717,1,0.993760
0.42614865021275716,1,0.997065
0.41569598484874365,1,0.999165
0.6780895287514991,0,0.941043
0.7826796338400068,0,0.987426
0.8542033460539871,0,0.992084
0.8567325791278064,0,0.973970
0.8709559789364811,1,0.999289
0.9211976252266854,1,0.998189
0.879584262611678,1,0.999271
0.8620742873422642,0,0.978391
0.9081868074237744,1,0.995462
0.9122221793626843,1,0.999096
0.9142768072417494,1,0.996921
0.9195038524108613,0,0.991772
0.913191205433011,1,0.994652
0.8111418282949789,1,0.999339
0.9309594540913939,1,0.998155
0.9260239593531688,0,0.990418
0.9255510701335248,1,0.999091
0.894030437865406,0,0.969870
0.9140220491677596,1,0.998844
0.8815135237542083,0,0.967240
0.9230038055812019,0,0.974601
0.9426862384820657,0,0.985890
0.9337012953078522,1,0.995404
0.9320753165047457,1,0.999326
0.9471556123963492,0,0.986486
0.9151584183045464,1,0.998183
0.9432657864819125,1,0.997201
0.9271683352748478,1,0.996302
0.9309226446895009,1,0.997737
0.9453348355573795,0,0.986260
0.9466578987330793,1,0.999258
0.9434059507701703,1,0.999062
0.9478480168166408,0,0.993207
0.9548219460267867,1,0.998105
0.9566741848541667,1,0.995431
0.9562135221337397,1,0.999332
0.9272150651123672,0,0.980982
0.9265602953837572,1,0.998844
0.9553660755420016,0,0.971253
0.8518978769366998,1,0.993534
0.8897060985354188,1,0.998462
0.8389481823165362,1,0.999054
0.9414337659256081,1,0.998624
0.9475926927525226,0,0.966175
0.9518471011819193,0,0.959021
0.9419309527817651,1,0.999328
0.8925045328413364,0,0.990886
0.8587999052213938,1,0.993475
0.906530463362842,0,0.977199
0.873033879537039,1,0.999228
0.9401304854419021,0,0.913826
0.9530493295349348,1,0.997712
0.9498911426144425,1,0.998650
0.9452587504659796,0,0.984273
0.9449983513169372,1,0.994413
0.9445488139670751,0,0.981627
0.9512946629413763,1,0.999304
0.8909254246612717,0,0.981699
0.9312886542256226,0,0.977286
0.9342782186072751,0,0.923241
0.9326472214414836,1,0.994054
0.9113620669320941,0,0.982996
0.92971016081122,0,0.989705
0.9418640262805377,1,0.999298
0.9355269161318412,1,0.999224
0.9270292813311597,1,0.993677
0.9345287365962572,0,0.976965
0.9205778066111642,0,0.969789
0.8996406331092143,1,0.992395
0.9356729104583965,0,0.975624
0.8994253060746643,1,0.994162
0.9391634721422771,1,0.998822
0.9341155558158523,1,0.998138
0.9257318470240885,1,0.999305
0.936989833067033,0,0.954545
0.9512318798055664,1,0.998804
0.9322000326174754,0,0.970990
0.9442640697048491,1,0.999271
0.9379408449008029,1,0.993338
0.9488456588056126,1,0.994257
0.944200579586905,1,0.999329
0.9379861443603194,1,0.999269
0.9475667261361972,0,0.986885
0.9512450945651739,0,0.978000
0.9640043476712482,1,0.996910
0.9448115638302417,1,0.999385
0.9443068611069797,1,0.999161
0.9578202910378562,1,0.998809
0.9583671273580069,1,0.997104
0.9464053022242658,1,0.999192
0.9553114902558176,1,0.999229
0.9519213989667371,1,0.995126
0.9412114134333304,0,0.990190
0.9330726978506672,0,0.989046
0.9009990001913898,1,0.994805
0.9488905161164659,1,0.997605
0.9566461881039594,1,0.998459
0.9389390483128777,1,0.999404
0.9361153413192411,1,0.999409
0.9552545557509844,1,0.994678
0.9587748699013393,1,0.999230
0.9580969204447161,1,0.999399
0.9504683258788275,1,0.999392
0.9596477656275783,1,0.998775
0.9532598336200351,1,0.999233
0.9435075759306784,1,0.998771
0.9276766000818022,1,0.996034
0.9499221041103078,1,0.999425
0.9426091626996367,1,0.994000
0.9338815975476068,1,0.996429
0.9345283706355998,1,0.998685
0.9394498888025447,1,0.998117
0.9559815784483864,1,0.998319
0.9336125669614959,1,0.999399
0.940993651883246,1,0.998787
0.9312642526643642,1,0.997382
0.9518706347314813,1,0.995772
0.9445687350776428,1,0.997904
0.9461012681688841,1,0.999201
0.9553355374600027,1,0.999405
0.945148888420719,1,0.996174
0.9482231148606965,0,0.980405
0.9615803093692995,1,0.995294
0.9592816450384796,1,0.998222
0.9586754709871482,1,0.996305
0.9379292757118178,1,0.999180
0.9524824428006717,1,0.996124
0.9522846025163467,1,0.999308
0.9631437126542634,1,0.999402
0.9036113010521939,0,0.984080
0.9509670887983032,1,0.999426
0.937433930499515,1,0.999440
0.9548158493405791,0,0.992302
0.9560666156307137,1,0.998835
0.9527835828509812,1,0.999346
0.9568756505884729,1,0.996377
0.9440115379449119,1,0.999321
0.9553550483746419,1,0.999407
0.9498106340215299,1,0.999065
0.9403697699674305,1,0.998272
0.9408487438619041,1,0.996403
0.9515807649931178,1,0.999244
0.9554728584345229,1,0.998264
0.9548271694389497,1,0.998847
0.9534122715268109,1,0.996321
0.953154507764589,0,0.957386
0.9485763748881307,1,0.999259
0.9458454299706827,0,0.983278
0.9442424617762093,0,0.988552
0.9493804783225858,1,0.999133
0.9561344378483415,1,0.999403
0.9625739758684692,1,0.999240
0.9638411284344013,1,0.999388
0.9470010656266581,0,0.975587
0.9458146557472812,0,0.992887
0.9471288303691714,1,0.994114
0.9479563760432345,0,0.992230
0.961786372091579,1,0.998008
0.9430867679299658,1,0.997538
0.9381882035299688,1,0.995291
0.9415313741136525,1,0.997209
0.9519943516431703,1,0.998942
0.9465482244672672,1,0.996990
0.9476571054881041,1,0.999255
0.9015514471060317,0,0.975587
0.9353568473115024,1,0.997288
0.93777285815566,1,0.999276
0.9527189419661026,0,0.990379
0.9346224246425768,0,0.984030
0.9388992785548159,1,0.997966
0.8924071201068388,1,0.997982
0.9598128150763412,0,0.990939
0.9458210739404388,1,0.999357
0.9272279801496791,0,0.959158
0.952984044756924,1,0.999354
0.943326643914181,1,0.999142
0.9520282642227565,1,0.997525
0.9479699390936713,1,0.997169
0.950006193216134,1,0.999077
0.9502610799693079,0,0.991900
0.9459137920984956,0,0.962722
0.9511001913711884,1,0.999427
0.9366707907719052,1,0.999413
0.946722566423467,1,0.999359
0.9572866922682061,0,0.990555
0.9356427479362213,0,0.964595
0.9323090233175793,1,0.999360
0.9602744022979925,1,0.994648
0.9536787791203145,1,0.998785
0.9487614348820329,1,0.992761
0.9459763985442434,1,0.992337
0.9510240885039885,1,0.998258
0.9471771785058624,1,0.998839
0.9720001554085254,1,0.995196
0.9556457148376277,1,0.999402
0.9541009822523807,1,0.998807
0.9440954387848,1,0.995149
0.9487275302092467,1,0.999170
0.911931040960757,0,0.968010
0.9162329915687397,0,0.987342
0.9144720171839787,1,0.997307
0.9200840585698795,1,0.999206
0.9368480563785418,1,0.998514
0.9392364936704242,1,0.998495
0.9578123256179858,0,0.984503
0.9489854831846709,1,0.999247
0.9537749147056811,1,0.996013
0.9483978688797069,1,0.998675
0.955442921646626,1,0.992764
0.9598589529675166,0,0.984768
0.9478159609492648,1,0.999367
0.9465064840186017,1,0.999323
0.9386462630721489,1,0.994823
0.952705141384988,0,0.986755
0.9407071284750631,1,0.998845
0.9218117792383533,1,0.999134
0.9242000030718973,1,0.997632
0.9253754177936805,1,0.999093
0.9393699741866768,1,0.999246
0.9565455655206161,1,0.999353
0.9506432758001142,1,0.997695
0.9392840297101201,1,0.999421
0.9141584459470067,0,0.989802
0.9294906473103053,1,0.999410
0.9415452586737819,1,0.999408
0.9224418212306938,1,0.998623
0.9401982217815217,1,0.995716
0.9658665515613659,1,0.996390
0.9524537010872486,1,0.999363
0.9375871507294369,1,0.998773
0.9538543126944078,0,0.983529
0.93040027128425,1,0.998226
0.915124647036968,1,0.993984
0.9579212540486542,1,0.999397
0.9413957871077395,1,0.996413
0.9547528789900952,1,0.994159
0.9491621445045096,0,0.992908
0.9622312992131036,1,0.998796
0.9548357227773041,1,0.998811
0.9647742911610988,1,0.999046
0.9543391586505835,1,0.996691
0.952027988037947,1,0.999327
0.9290467445101032,0,0.967979
0.9286354324200816,1,0.999343
0.9598222634946606,1,0.997593
0.9439080890986158,1,0.999399
0.9530410164822871,1,0.993814
0.9353874740326378,1,0.999338
0.9495717946275591,1,0.998004
0.9546776584107443,1,0.999326
0.9377862105578171,0,0.990056
0.9452241769865097,0,0.988845
0.9336230885521801,1,0.999412
0.9569296418506774,1,0.998883
0.9569864701638419,1,0.997651
0.9620678305417644,1,0.997475
0.9670353659983437,1,0.996054
0.9620510304639237,1,0.996444
0.9498309786884022,1,0.999388
0.9605987412086402,1,0.999336
0.9480659382291705,1,0.995383
0.9551412175974511,1,0.999261
0.9467581200209884,1,0.997389
0.9515704981290459,1,0.998778
0.944491069276509,1,0.998394
0.9547344106393696,0,0.980855
0.9489881324077359,1,0.998186
0.9456204806465698,1,0.995763
0.8988508433556116,1,0.999108
0.9172842040322776,1,0.999091
0.9309254495074305,0,0.984422
0.9446525079771958,1,0.999393
0.9417746606321605,1,0.999415
0.9114302279941147,1,0.999335
0.9158251751522971,1,0.999286
0.9363950780866819,1,0.999401
0.950766134107524,0,0.977199
0.9656102124135159,1,0.998994
0.9473075893984486,1,0.997065
0.9613110686097446,0,0.988876
0.9582283855185272,0,0.985938
0.9344867333637673,1,0.999312
0.9539514619490613,1,0.999363
0.9369750213212193,1,0.999429
0.9498626477709727,1,0.998526
0.9613292090266388,1,0.999398
0.9668177521109805,1,0.998146
0.9105392018144575,0,0.973044
0.9559148294610603,1,0.996671
0.9606248184725068,1,0.997657
0.9338360556253156,1,0.998268
0.9598455232236704,1,0.999406
0.9673901926540865,1,0.997531
0.9198739551404962,1,0.999037
0.9373617067334612,1,0.999060
0.9632430201541256,1,0.997947
0.9347357739850422,1,0.999088
0.9595863520830632,1,0.999301
0.959004732346308,1,0.993177
0.9657919593677287,1,0.996582
0.9496075229646509,1,0.997909
0.9519068643133836,1,0.997027
0.9637034871897884,1,0.997003
0.9588186621918484,1,0.994332
0.9419942079785609,1,0.995925
0.9445148495949692,1,0.998579
0.9303783926087569,1,0.999321
0.9439289953791717,1,0.999302
0.9316583658019425,1,0.999010
0.9464034629495609,1,0.999049
0.9548056487832569,1,0.999188
0.9532070366982939,1,0.994286
0.9574496987637251,1,0.998348
0.9626398356436823,1,0.998912
0.9631173935746397,0,0.977250
0.9654388957488628,1,0.999029
0.960186095221946,1,0.998163
0.9588393528119471,1,0.998628
0.9448911763417586,1,0.999009
0.9666864117820341,1,0.995392
0.9616549509126563,1,0.999140
0.9626582639084202,0,0.991661
0.9510502236122318,1,0.993935
0.9578263504111606,1,0.998682
0.9571177060077605,1,0.997650
0.9638045528736876,1,0.999322
0.9459148510967474,1,0.993684
0.9410005639458257,1,0.998969
0.9549035563627667,0,0.987179
0.9533803974011787,1,0.999323
0.9713393890930669,1,0.996063
0.9614766552417576,1,0.993470
0.9642173898002532,1,0.999056
0.9344244606119883,1,0.999305
0.9707525689284789,0,0.981318
0.9621111341117208,1,0.999299
0.9591027893545271,1,0.998073
0.9653880386935221,1,0.999069
0.9425633792053661,1,0.999093
0.9381938203227641,1,0.999298
0.9510168480089987,1,0.997918
0.9491778260401939,1,0.999300
0.9387245735426616,1,0.997807
0.9460187402699519,1,0.997963
0.9495484826699211,1,0.998217
0.9591911374893339,1,0.999331
0.9637354596717089,1,0.999246
0.916253674779902,1,0.998122
0.9657409503991722,1,0.998250
0.960666414924702,1,0.996777
0.9285941056444691,1,0.995367
0.945086614048814,1,0.997118
0.9492827523155684,1,0.999315
0.95222794592326,1,0.994784
0.9456151329172233,0,0.982456
0.9394619483109609,1,0.999411
0.9345208486066412,1,0.998227
0.960193274105205,1,0.999060
0.9693961721261586,1,0.999023
0.9645963621498209,1,0.999262
0.9669252034079989,1,0.999319
0.9568001678209206,1,0.992677
0.948561429552794,1,0.999418
0.9250687242120448,1,0.999287
0.9329252957058899,1,0.999408
0.9490072776141804,1,0.999417
0.9506204807159995,1,0.999339
0.9583044138324834,1,0.994453
0.9403060782080972,0,0.975783
0.9665275534338555,1,0.999403
0.9697961723813325,1,0.999259
0.9608881500837954,1,0.999242
0.9684760831907849,1,0.997593
0.9656423640166926,0,0.989026
0.950786435554899,1,0.998157
0.9569106514714509,1,0.998611
0.9673826996615712,0,0.972693
0.9662632989051625,1,0.999281
0.9638366822704126,1,0.999364
0.946501380928897,1,0.993972
0.9571790988124076,1,0.998711
0.9398923690240693,1,0.999365
0.9556923845518976,1,0.999370
0.9623576023995211,0,0.988150
0.9363496086343606,1,0.996906
0.9480824571080962,1,0.997593
0.9640318248452634,1,0.999391
0.9410900453679133,1,0.999416
0.9488228060340304,1,0.996475
0.9578116931340896,1,0.999364
0.9483699790085101,1,0.998168
0.9410770501286699,1,0.999409
0.9625629084026787,1,0.995224
0.9545016306054074,1,0.998559
0.9588244546375914,1,0.995604
0.9663067098502593,1,0.997805
0.9527333536420792,0,0.988475
0.9550705878489077,1,0.999158
0.9585873342381843,1,0.997987
0.9266293037105282,1,0.997892
0.9475878637831937,0,0.970149
0.945036313549906,1,0.997571
0.9375515063679102,1,0.999417
0.9323595161673393,0,0.985357
0.9632853476524935,0,0.991054
0.946709956023707,1,0.995166
0.9298121015967804,0,0.985084
0.9592630689864962,1,0.999130
0.9650832679235757,1,0.998984
0.9505347744501802,1,0.999439
0.9483812114026198,1,0.996946
0.9291349344626282,1,0.999327
0.9389580451300957,1,0.998256
0.8971664999590057,1,0.995360
0.9074878560634745,1,0.996917
0.9304685235263329,1,0.999113
0.9531531922322322,1,0.999416
0.9278673619450469,1,0.999421
0.9438719987912543,0,0.990508
0.9643351578516053,1,0.999412
0.9548240302507554,1,0.999322
0.9472596600509864,1,0.998513
0.9521188813824272,1,0.999298
0.9571015465312015,0,0.973485
0.960678582526107,1,0.997648
0.9644921346816357,1,0.997567
0.9387652971526775,1,0.998702
0.947241633405631,1,0.999290
0.9390696841408007,0,0.977393
0.9507523414725747,1,0.996561
0.9121630608012113,1,0.997253
0.9593166439785172,0,0.987654
0.9471685237640246,1,0.999314
0.9380650945213066,0,0.988862
0.9075855446425137,1,0.998626
0.9464132271447443,0,0.988525
0.9429588254303284,1,0.998625
0.952149261366172,1,0.999259
0.9380739009518463,1,0.995179
0.9531566143835302,1,0.999301
0.9436237915341131,1,0.999323
0.9511567363192616,1,0.995308
0.9499301504369939,1,0.998683
0.9444139785866619,1,0.996491
0.9480401070788327,1,0.999327
0.9301174655478043,1,0.999306
0.9434805533208692,0,0.990514
0.9564234232753532,0,0.983452
0.9523903015574543,1,0.998665
0.9570676286129173,0,0.984694
0.9332568004737287,1,0.998737
0.9347813988870964,1,0.999410
0.9553760446093509,1,0.995181
0.9117605017522383,1,0.999421
0.9276839253041033,1,0.998787
0.9302055473481026,0,0.983516
0.9563474574558771,1,0.998814
0.9501943456594183,1,0.998790
0.9576749883580955,0,0.985482
0.9218106523832759,1,0.995910
0.9389087436313485,1,0.998295
0.9401830053203336,1,0.999415
0.9644387963188863,1,0.993886
0.9595534218945532,0,0.989104
0.9376283576952303,1,0.998847
0.9637341540055663,1,0.999431
0.9609681894440115,1,0.999389
0.959169467236433,0,0.988419
0.9571541292859964,1,0.999411
0.9559228245966055,0,0.988697
0.9416202144236415,1,0.999430
0.955402920212442,1,0.998845
0.964661399475775,0,0.983513
0.9110656434010774,1,0.998834
0.9569837461813863,0,0.993732
0.9552559012643446,1,0.994747
0.9629261581908113,1,0.999438
0.9337463620436468,1,0.998856
0.9386375120078125,1,0.999412
0.9601604545019904,1,0.994295
0.9521340963062717,0,0.987857
0.9479387754657546,0,0.987710
0.9542312860395604,1,0.999399
0.946642019287277,1,0.999404
0.9594496133247561,1,0.995423
0.9345454685095537,1,0.998849
0.9206817713516597,0,0.988386
0.941508526683466,1,0.997148
0.9478570591007224,1,0.994079
0.9482222883878377,1,0.997725
0.9390126611746349,1,0.999369
0.9460862900331865,0,0.992253
0.9490724677517006,1,0.996540
0.9121035165723789,1,0.997699
0.9453563688244622,1,0.995775
0.9381425843375326,1,0.998285
0.9259362755501518,0,0.982981
0.9270390467661758,1,0.999377
0.9249926078373968,1,0.999319
0.933776030007975,1,0.999358
0.944743860653075,1,0.999429
0.9451463508641832,1,0.999414
0.946262924084855,1,0.998859
0.9270088038248223,1,0.998283
0.9599958333273354,1,0.996273
0.9366920052303168,1,0.999426
0.954598664247667,1,0.997635
0.9257125759049981,1,0.996266
0.9387165867066245,1,0.995434
0.956622275902052,1,0.999417
0.9584479454028495,1,0.999411
0.9577411928040768,0,0.986226
0.953128017134322,1,0.999306
0.9312994470483328,1,0.998836
0.9559494075540034,1,0.998309
0.9501352829927796,1,0.996552
0.9451515853561016,1,0.999292
0.9404918049697406,1,0.998729
0.9530782840533293,1,0.998184
0.9408886404455545,0,0.992337
0.9594190643298688,1,0.997162
0.9499724365288577,0,0.970321
0.9665280452252288,1,0.998280
0.9352024309705478,0,0.987057
0.9671841693888861,1,0.998933
0.9593967174205048,1,0.997781
0.9539202224809171,1,0.997116
0.9655406999984659,0,0.989279
0.9460138976117727,1,0.999411
0.9495891969957246,1,0.994063
0.9412031164379571,1,0.998853
0.9653870809623876,1,0.999411
0.9649576773850334,1,0.998864
0.9663463909081341,0,0.985706
0.9553352182081001,1,0.999337
0.9529838075057242,1,0.997118
0.9324735088924865,1,0.999375
0.9657825724584029,1,0.999361
0.9425100276108062,1,0.998812
0.944889022757218,1,0.998972
0.9692325178806137,1,0.995473
0.9459846696453357,1,0.997865
0.9557245884354667,1,0.995586
0.9447552614738912,1,0.999068
0.9425931996135888,1,0.999408
0.9656739338376134,1,0.999428
0.9673960131460165,0,0.979118
0.9547765202442615,1,0.999421
0.9625223463840996,1,0.999267
0.9214807696328959,1,0.998322
0.9245356830226127,0,0.989871
0.9161619371881169,1,0.998880
0.8893911299149785,1,0.998862
0.9379018650228403,1,0.998929
0.9506074975942729,0,0.980488
0.9544367994019112,1,0.997765
0.938844236012516,1,0.999438
0.9338811327265026,1,0.996745
0.9422447875443768,1,0.998804
0.9164437880472504,1,0.999351
0.9524510222975789,1,0.998878
0.9399103295098069,1,0.998858
0.9621235249345115,1,0.993127
0.9200830271341914,1,0.997901
0.9391750925306664,0,0.988837
0.932759818950173,1,0.998820
0.9363172430815432,1,0.999342
0.9127022900262196,1,0.998599
0.908318934420508,0,0.976089
0.9087714410398369,1,0.998771
0.92472431490802,1,0.998890
0.9530249116646875,1,0.998689
0.9280664387294554,0,0.984556
0.9210550876480499,0,0.987748
0.9305452029773268,1,0.998589
0.9509467415450791,1,0.998613
0.9307602365358955,0,0.979109
0.9502771402443996,0,0.959547
0.9423775661366551,1,0.999350
0.9521299425838461,1,0.998741
0.9253713346391936,0,0.956290
0.9511034852803947,0,0.964511
0.9529160001975806,1,0.999447
0.957918497770136,1,0.998294
0.941133291357211,0,0.982991
0.945967980551355,1,0.999343
0.9460124281451935,1,0.997439
0.9470838955684046,0,0.992762
0.9519833542353886,0,0.990991
0.920470601273028,0,0.987236
0.9480052808615123,1,0.999432
0.9406339015093097,0,0.978536
0.9315649814648663,1,0.999447
0.9491202309917317,1,0.997404
0.9521243686490274,1,0.998882
0.9440416389563259,1,0.996372
0.9581057093624458,1,0.996793
0.9376629949300258,1,0.996583
0.9077117059948879,1,0.999153
0.9588285889369649,1,0.997709
0.9624393993338181,1,0.997167
0.9633718723673012,1,0.997189
0.9608499090539753,1,0.999446
0.9355135408216406,1,0.999369
0.9342237538210407,0,0.984148
0.9091441817685838,1,0.999418
0.9396168819534358,1,0.996593
0.9559708773545582,0,0.989905
0.9175792623345261,1,0.999434
0.9284924556413195,1,0.995928
0.9435782869152145,1,0.999333
0.9258965102548916,1,0.999315
0.9273896682007762,1,0.999417
0.9250516887886535,1,0.999184
0.9272853044980902,1,0.994196
0.927581783423536,1,0.999429
0.9269031813515689,1,0.999346
0.9284389185845741,0,0.991652
0.9237812005939411,1,0.994935
0.9096200809163087,1,0.998839
0.8861750714294794,1,0.998586
0.9231501535921209,1,0.998894
0.9247437833967739,1,0.997470
0.9390023719334708,1,0.996220
0.922637091213805,1,0.999386
0.95606011467511,1,0.998877
0.9531614212478475,1,0.998821
0.9314039712481239,1,0.998865
0.942749051334403,1,0.999433
0.9450672433627236,1,0.995649
0.9387988250188238,1,0.999445
0.9344110324891153,1,0.998304
0.9149412995940576,1,0.999331
0.944029603464447,1,0.999411
0.9467614407366456,1,0.999339
0.9258969651205519,1,0.999526
0.9165083843537634,1,0.999438
0.9372289842299043,1,0.994302
0.9351055746611574,0,0.958118
0.914889260639768,1,0.999361
0.8968342384357062,1,0.999418
0.9257580818457154,1,0.998819
0.8832968819065382,1,0.999317
0.932034361051711,1,0.998362
0.9375485853128596,1,0.999448
0.9483462830573325,0,0.973485
0.945731405868665,1,0.998892
0.942316024314418,1,0.999447
0.9537299504753336,0,0.991601
0.9260040942057769,1,0.997555
0.967767808090917,1,0.999405
0.8901319307819435,1,0.999342
0.940544624785101,1,0.999410
0.9587157188850153,1,0.999363
0.9053916211929296,0,0.980666
0.9529357800000602,1,0.998150
0.9252430284530306,1,0.997436
0.9456006287554146,0,0.992072
0.8934351348754391,0,0.991856
0.9214717001827848,1,0.995019
0.9375339998483271,1,0.997706
0.9351185766267005,0,0.979310
0.9417566654412791,1,0.999330
0.916651958705627,1,0.997770
0.957541192192708,1,0.999414
0.9467298339490163,1,0.999282
0.9366724936233392,1,0.998236
0.9504329060651535,1,0.998805
0.9375516663917959,1,0.999448
0.952491151887505,0,0.993872
0.947625408314112,0,0.954879
0.9393139435438644,1,0.999415
0.9409899735044576,1,0.999354
0.9471479380276513,1,0.999421
0.914017914384572,1,0.997760
0.9557668403889424,1,0.998352
0.940893368722923,1,0.999447
0.9168813046051401,0,0.955844
0.9340123812033141,0,0.993963
0.9165601510499504,1,0.997732
0.9272773968213917,0,0.990053
0.9200182029604409,1,0.997222
0.9208466433667816,1,0.999398
0.9416854171760889,0,0.988031
0.9482826427750007,0,0.982917
0.9074183301144398,1,0.998331
0.9166303373879565,1,0.999426
0.9308570476501962,0,0.991223
0.9423805069405427,1,0.996587
0.9248005687654177,1,0.998875
0.9324537693451768,1,0.999446
0.9164772371144908,0,0.992741
0.944179709526359,0,0.977963
0.9104540888914405,1,0.998355
0.949930566895233,1,0.998847
0.9185808286516106,1,0.999389
0.9262704078570962,1,0.998900
0.9073681997313395,1,0.998004
0.9019879054334211,1,0.999550
0.9209849910762019,1,0.998886
0.9307050666369895,1,0.999400
0.9351833391107579,1,0.994424
0.9130010348752176,1,0.996973
0.9359658236192976,1,0.999448
0.9149679740474207,1,0.998956
0.9266704327148856,1,0.997909
0.9411000054243085,0,0.989943
0.9162626205346446,1,0.999547
0.9261111539464405,1,0.994441
0.9426292687352423,1,0.994568
0.8819114745122812,1,0.998170
0.9233273862934617,1,0.999435
0.9182298369780161,1,0.998569
0.950986127530621,0,0.984971
0.9434390142789929,1,0.995036
0.9357588952288708,1,0.999441
0.9355099070997935,1,0.999437
0.9552180680366262,1,0.998873
0.943276312465634,0,0.978507
0.9148256475201195,1,0.998817
0.9439458738004916,1,0.995533
0.9269754096807643,1,0.999424
0.921999867642025,1,0.999463
0.9481469865631725,1,0.999428
0.9411361278362447,1,0.998330
0.9524056003178857,1,0.999443
0.9477259257781352,1,0.998396
0.9408458890936889,1,0.999419
0.9618047705072204,0,0.992563
0.941958853067499,1,0.999421
0.9435705856153784,1,0.999441
0.937914574448744,1,0.997647
0.94710526208484,1,0.999431
0.915536777294324,1,0.999443
0.960517724582312,1,0.998869
0.9457871555078216,1,0.995039
0.9402941502365204,1,0.999397
0.9648214224033931,1,0.995585
0.9598253386334281,1,0.999358
0.9365145621259138,1,0.999294
0.9033352715131815,0,0.987306
0.965150084577723,0,0.965110
0.9651248647944729,1,0.997188
0.936569871931057,1,0.998893
0.9482284228637466,1,0.999403
0.9274172409948668,1,0.997210
0.9609402217410119,1,0.999153
0.9588115358859384,0,0.966572
0.9558553995790361,1,0.997777
0.9264901917290329,1,0.997899
0.959823111963327,1,0.998897
0.9427464806842624,1,0.997235
0.9509242501210808,1,0.998331
0.9388567132342189,0,0.972152
0.9380725419617812,1,0.999441
0.9530816000169778,1,0.998887
0.9530800434601877,1,0.999438
0.9204666164334502,1,0.996532
0.9244426940981221,1,0.999330
0.9197528026459466,1,0.997211
0.9072340966431226,1,0.998707
0.913399253361926,1,0.999436
0.9297892198344312,1,0.996522
0.9436519080407549,1,0.994490
0.9516229447851019,1,0.995565
0.9176307820156603,0,0.993882
0.9560268719236412,1,0.999355
0.9604199086235191,1,0.999343
0.9369451859238703,1,0.994129
0.9574126217157398,1,0.996042
0.9608349523728665,1,0.996787
0.9424710550999509,1,0.998832
0.9640814736148551,1,0.996581
0.953140888699795,1,0.998867
0.9382521822539984,1,0.999440
0.9508671527762844,1,0.999351
0.9422990625201174,1,0.999434
0.9381519070623822,0,0.991581
0.9232367842447475,0,0.991006
0.9042513716423423,1,0.998262
0.9301517103601155,1,0.999411
0.9404076499954602,1,0.997826
0.9411148461269597,1,0.999327
0.9404061766914606,1,0.996081
0.9657804386595286,1,0.998690
0.9428480267146642,1,0.996680
0.923352132128377,1,0.999363
0.9476824120412213,1,0.999437
0.9505630186106062,1,0.994805
0.9378474843222392,1,0.998336
0.9544943718586266,1,0.997938
0.9202624935968942,0,0.974886
0.9489614115298146,1,0.999404
0.8873484649518645,1,0.995439
0.9507849630894494,0,0.976345
0.9566823669879888,0,0.964369
0.9505347158985874,1,0.998807
0.9468272216631453,0,0.953710
0.9333225486958845,1,0.998762
0.9595091070418672,1,0.994478
0.9339006501524009,1,0.998354
0.9512915800025517,1,0.999442
0.9298471290713877,1,0.998162
0.9427024815711946,1,0.998152
0.9634825396696911,1,0.998779
0.9442092396452084,1,0.999450
0.9386755599007939,1,0.999438
0.94401363057465,1,0.998635
0.9469360668144365,1,0.999448
0.9608784010638183,1,0.997722
0.9480655082871224,1,0.998216
0.9581041659680063,1,0.999389
0.9530054895814222,0,0.989565
0.9381927392047757,1,0.999433
0.9365791042676594,1,0.999433
0.9534778070051391,1,0.987908
0.9294163839797231,1,0.999436
0.9399944829244761,0,0.991656
0.9445078722002143,0,0.988189
0.9612110755466337,1,0.999435
0.9469127925913948,1,0.999423
0.9295664983367178,1,0.998887
0.9329676049647955,1,0.999393
0.9156071937357071,1,0.999545
0.9255896208217016,1,0.996599
0.9423003299691223,1,0.999434
0.9566823995987171,0,0.963687
0.9471882823553412,1,0.994932
0.9566202386882223,1,0.999424
0.958338230083016,1,0.999421
0.9583970832767451,0,0.991962
0.9333329984502902,0,0.992025
0.93108930297559,1,0.998262
0.9126050975260452,1,0.999439
0.9419906328465821,1,0.999454
0.9504462398750461,1,0.994098
0.928357907014125,1,0.999303
0.932220988156695,1,0.996100
0.9245680096903908,1,0.994112
0.9200697016463025,0,0.992046
0.8887472941404423,1,0.998841
0.935449828279247,0,0.977220
0.9378060405395016,1,0.994927
0.9384112332801104,1,0.998067
0.9288582551968463,1,0.999441
0.9222451995913007,1,0.998430
0.9067137864360988,0,0.950221
0.9024428390043856,1,0.998605
0.9237687957129147,1,0.999443
0.8953032038268249,1,0.998322
0.9370502964116783,1,0.998008
0.9432220327001966,0,0.959683
0.897583181098211,1,0.996130
0.9086253326609341,1,0.996967
0.910966172005819,0,0.992745
0.9119676260979965,1,0.997764
0.9105290710475349,1,0.999444
0.9137663726188973,1,0.999450
0.9049852438107483,1,0.998880
0.9208044366809373,1,0.998386
0.9015454500840013,1,0.999444
0.9110403898796356,1,0.998153
0.914958147559843,1,0.995152
0.9124747249841889,0,0.986928
0.9291156350875382,1,0.996202
0.9256426027932877,1,0.998188
0.9134344948625849,1,0.998891
0.9130967592342066,1,0.999218
0.9225965213465773,1,0.997274
0.938659487340579,1,0.999005
0.9320513961542818,1,0.999438
0.9420714804829751,1,0.999446
0.9251750193229281,0,0.988439
0.9280042392896665,0,0.981144
0.9562125678640715,0,0.980403
0.9258634158541723,1,0.995079
0.9511377262669504,0,0.984252
0.9479177830348703,1,0.997706
0.9313397774665878,0,0.992796
0.9607345300200205,1,0.999353
0.9242053544900645,1,0.999286
0.9173751998057147,1,0.999359
0.9391095956461332,1,0.999380
0.9328921153576104,1,0.994502
0.896336409236628,1,0.999545
0.9400963988943447,1,0.998885
0.9493548279974654,1,0.995737
0.9529825973548521,1,0.994997
0.9273173506545879,1,0.996657
0.9522741090275818,1,0.999448
0.9309745165539918,1,0.997717
0.9339420171682761,1,0.998897
0.9495543961453023,1,0.997719
0.9537465437596407,1,0.998299
0.9332892146031042,0,0.992201
0.9468610973130356,1,0.997406
0.8944562333850501,1,0.997994
0.938337403340755,1,0.999449
0.9101556441304118,1,0.999349
0.9518990743358574,1,0.997683
0.9259108951912569,1,0.999417
0.9203971329722987,1,0.999361
0.9277359622876347,0,0.930346
0.9362627585218617,0,0.990862
0.9224506143990452,1,0.999395
0.9403264529367938,1,0.997801
0.9548162283758522,1,0.997248
0.9426434808398696,0,0.980080
0.937546977400442,0,0.975958
0.9471312754838833,0,0.988212
0.9019000054740696,0,0.984724
0.9225821746939572,1,0.993964
0.9460478237856482,1,0.999439
0.9500223358923087,1,0.999290
0.9621353175552032,1,0.999438
0.9646704738952551,1,0.999454
0.9488283436837469,1,0.999441
0.9468038502671813,1,0.996663
0.9428385741229927,1,0.998026
0.9249324967544169,1,0.993049
0.914718680345599,1,0.999388
0.9327306209733311,1,0.998792
0.872764481396574,1,0.999529
0.9403344849576357,1,0.998921
0.9192577992513986,1,0.998881
0.9537148605939104,1,0.999368
0.9531211626153101,1,0.999434
0.939719892756498,0,0.993457
0.9441262287796204,1,0.996691
0.9483335095459539,1,0.999444
0.9441171940234783,1,0.997801
0.9317701184625354,1,0.998890
0.9434572939480577,0,0.979935
0.9057801303611344,1,0.999430
0.9438735534393119,1,0.999425
0.9246715780668677,1,0.999428
0.9051651725661676,1,0.999314
0.9398346624015366,1,0.999378
0.9397990514993417,1,0.996326
0.9361614776707364,1,0.998904
0.9228565860665514,0,0.989926
0.949498822818343,1,0.994496
0.9218476429217182,1,0.995682
0.9364415804379727,1,0.999437
0.9405705885810701,0,0.973553
0.9384390028651207,1,0.998795
0.9329622532653584,1,0.996456
0.9385345182794691,1,0.997725
0.9234999385209072,1,0.998258
0.9429388074835143,1,0.999196
0.9169210575789996,0,0.991620
0.8815217728817164,1,0.997835
0.916671562050857,1,0.999440
0.893337858947062,1,0.998123
0.9211141647257785,1,0.995658
0.8910162358064023,1,0.999424
0.9183838841659573,1,0.994547
0.8969890671084275,1,0.999179
0.9229778964948439,1,0.998057
0.9331877758211399,1,0.999345
0.9397148452239839,1,0.998086
0.9143859892748264,1,0.998855
0.9234891121877494,0,0.993919
0.9173928213464012,1,0.998339
0.9188044447986489,1,0.997648
0.9237753613538077,1,0.999186
0.9166540829570144,1,0.995460
0.9084042086174187,1,0.999439
0.9277298010406928,1,0.999335
0.9462669892085724,1,0.998431
0.9432526760146033,0,0.987403
0.9279650934264992,1,0.999325
0.939518934173213,1,0.998905
0.9422088989294689,1,0.999418
0.954308113185676,0,0.978797
0.9480702127793837,1,0.999432
0.9648349360412786,1,0.999438
0.9358533720316529,1,0.999438
0.925786312893893,1,0.998936
0.9208307706340465,1,0.999354
0.9273971066016347,0,0.984840
0.9177962862307516,1,0.999437
0.9354225373404629,1,0.998875
0.9435120052967901,1,0.994561
0.925017316327658,1,0.999414
0.9558883066073885,1,0.999354
0.9583320729322699,1,0.999442
0.9572627042598664,1,0.999350
0.930110000081417,1,0.999448
0.9251679703244405,1,0.998855
0.9347220074490366,0,0.991758
0.9408139611533736,0,0.956669
0.9621396521707027,1,0.998368
0.9605176053240441,1,0.997347
0.9562256775565903,1,0.999195
0.9485969230340415,1,0.994426
0.9578786891889559,1,0.997153
0.9487071279994398,1,0.999438
0.9453530241305013,0,0.992161
0.9509841081028111,1,0.998871
0.9211923766933079,1,0.998707
0.9425552619823621,1,0.997221
0.9431885307342801,0,0.989311
0.9410429218356776,1,0.998400
0.943608638763087,1,0.999426
0.9252416234722495,1,0.999446
0.9263428910135291,1,0.999415
0.9187398743330555,0,0.988393
0.9226611145608882,0,0.992130
0.9459390546712375,1,0.999446
0.9378282666897945,1,0.997278
0.9098290213670056,1,0.999438
0.9306711708321824,1,0.998326
0.9413740832385892,1,0.999304
0.9429110362064614,1,0.994663
0.9388065033445024,1,0.996141
0.9315703256735983,1,0.999349
0.9375518289363178,1,0.999449
0.9429259721724313,1,0.998895
0.9371759932315402,1,0.999445
0.937129059890526,1,0.997799
0.9343751203600582,1,0.999450
0.939943272494601,0,0.945464
0.9519029147795206,1,0.999425
0.9210472956710491,1,0.998907
0.9278139287557486,0,0.927982
0.9506504496648097,1,0.998849
0.9587420164032522,0,0.970640
0.9396673807215653,1,0.998907
0.9570679383378484,1,0.999263
0.9461054477829802,1,0.997706
0.9421855167861044,1,0.996041
0.9347964637082087,1,0.999396
0.9262572485037793,1,0.999432
0.920945438846799,1,0.999439
0.9365307330445652,1,0.999348
0.9542923374658926,1,0.997716
0.9340502761690093,0,0.986794
0.9450713580270967,1,0.997723
0.9449974629027605,1,0.998879
0.9351733604164261,1,0.997593
0.955446096516606,0,0.991458
0.9559235169340575,1,0.999439
0.9330572961303409,1,0.998907
0.9414683045494503,1,0.995638
0.934218714525802,0,0.991713
0.9333219601174773,1,0.999441
0.9384066046952174,1,0.999446
0.9344313529397896,1,0.997790
0.9365628873598859,1,0.999448
0.9353191186948345,0,0.941533
0.9220371879397958,1,0.997024
0.958243569295735,1,0.999431
0.9537915472605154,1,0.999442
0.9340376987863193,1,0.998310
0.9484024731710823,1,0.998213
0.9610336323792695,1,0.998501
0.9599032758044314,1,0.997783
0.9515766502277406,1,0.998864
0.9423228523393969,1,0.998277
0.9481877316090472,1,0.995434
0.9527258365876977,0,0.986651
0.9218549454803113,1,0.998911
0.923147287843861,1,0.999439
0.912139978036595,0,0.988583
0.9342403782086673,1,0.996654
0.9536732779990404,1,0.999456
0.9438619188641271,1,0.999436
0.937197199580364,1,0.999164
0.9245989452273394,1,0.998920
0.9397921807383103,1,0.998369
0.939968760819705,1,0.999287
0.9226856775173722,1,0.998906
0.9301883871662292,1,0.998905
0.9256571200036159,1,0.999410
0.9301792070356274,1,0.999454
0.9154291954954116,1,0.998984
0.9441677136947692,1,0.996029
0.9456023243965682,1,0.996510
0.9388949190703821,1,0.999394
0.9183372610979328,1,0.999441
0.9188080458376867,1,0.999387
0.9208153309104532,1,0.998869
0.9087136498731374,1,0.999458
0.9085045461076844,1,0.999459
0.9349432158127763,1,0.999445
0.9274609642290091,1,0.998821
0.9556672831543116,1,0.998916
0.9417197673340433,1,0.999328
0.9391980775763296,1,0.999441
0.9426190166138376,1,0.998874
0.9491500604099238,1,0.998873
0.937448766226858,1,0.999440
0.9306947164883014,1,0.998885
0.9368737890306974,1,0.997883
0.9425566360180158,1,0.997228
0.9354745619305593,0,0.991559
0.9361233327946121,1,0.999446
0.9401151314261637,1,0.999397
0.9455313751211928,1,0.999433
0.9442673169049699,0,0.986447
0.9063944604598851,1,0.999186
0.9094140672834279,1,0.999323
0.9186464368540312,1,0.999441
0.9190551574814377,0,0.990487
0.9285766839883431,1,0.999404
0.9276737014733062,1,0.999228
0.9250411313191993,1,0.999363
0.9399955422373895,1,0.995536
0.9348055897495865,0,0.948002
0.9274812742383182,1,0.996085
0.9408116090395298,1,0.998701
0.9218486016225684,1,0.997213
0.9070917551261567,1,0.999532
0.9373955322168991,1,0.999403
0.934747016623055,1,0.996851
0.9358966698523582,1,0.999471
0.9178068879592299,1,0.999443
0.9218133092277807,1,0.998367
0.9288067272013167,1,0.999437
0.9376899786615883,0,0.991648
0.9231403524638894,1,0.999454
0.9039438178500087,1,0.997284
0.9359125253966692,1,0.998880
0.9095107364426095,1,0.999544
0.9300823666173953,0,0.991671
0.938452574412319,1,0.997830
0.9193731866859686,1,0.997906
0.9329994814164484,1,0.999333
0.9201891307172898,1,0.998377
0.9294630246127403,1,0.998904
0.9255227134461553,1,0.999463
0.9512246817146945,1,0.995117
0.931584839051043,1,0.995410
0.9024972374957334,0,0.972076
0.9109588029144963,1,0.999443
0.9034219578186861,1,0.999316
0.9279582804511537,0,0.978889
0.921694506297538,1,0.999413
0.9148351637541184,0,0.989350
0.9010189377406399,1,0.999547
0.9172581891031748,1,0.998792
0.9354718483938149,1,0.999455
0.9039311814029133,1,0.998982
0.9186931068534832,1,0.992963
0.920734936496023,1,0.998906
0.9116026083444083,1,0.997767
0.9111339241672707,1,0.999406
0.888746136967801,1,0.997862
0.908234178311514,1,0.998396
0.9110530312201892,0,0.973363
0.9121121532715569,1,0.999253
0.9140992010357523,0,0.990374
0.9197030275460168,1,0.999446
0.9242371593248567,1,0.998794
0.9119039119959134,1,0.999333
0.8911742193143211,1,0.999387
0.9336204562098782,1,0.999454
0.9278233656160529,1,0.999408
0.8941737507863171,0,0.986709
0.9007901520108014,1,0.994706
0.9033678051094561,1,0.998902
0.92451882758774,1,0.999442
0.9230720075698085,1,0.999242
0.9277331710835495,0,0.989738
0.9320311903895803,0,0.975610
0.9232018130633844,1,0.997783
0.8996497455088537,1,0.999446
0.9187843259563088,1,0.998359
0.9244663109275377,1,0.997118
0.9003576406488548,1,0.996914
0.9302899011421282,0,0.991832
0.9149826161404357,1,0.999452
0.9406122951996916,1,0.998890
0.9081245302014536,1,0.999534
0.9282326484132873,1,0.996906
0.9326046926328916,1,0.999444
0.9366208904439283,1,0.998908
0.9217285039643541,1,0.999421
0.9400567143150966,1,0.996173
0.9419997314450516,1,0.993289
0.9418735769947525,1,0.996997
0.95022803145643,1,0.994553
0.9446971222582737,0,0.988170
0.9188787353378964,0,0.987991
0.9131230280622432,1,0.998340
0.9271600242871536,1,0.998340
0.924199511751033,1,0.997030
0.9333907261160393,1,0.999375
0.9327523364700195,1,0.996207
0.9368820708328053,1,0.998335
0.9274807894694624,1,0.999356
0.9214777188786568,1,0.998852
0.9371396101429751,0,0.988877
0.9418775211671979,1,0.998872
0.9413892066363424,1,0.997314
0.9260823484635935,1,0.999444
0.9503721448851843,1,0.999388
0.9190741568984636,0,0.993443
0.917931923191242,1,0.999449
0.9262383342699103,1,0.999389
0.9379303323960582,0,0.988981
0.9284623056700669,1,0.999442
0.9466391678028481,1,0.996827
0.936454031213568,1,0.999348
0.9411916606456413,1,0.997481
0.9480378456967123,1,0.998326
0.9291989954462507,0,0.994060
0.942414867124255,1,0.998331
0.9443098331246977,1,0.999437
0.953209253619132,1,0.998345
0.9402337430450673,1,0.999383
0.9395854047397769,1,0.994615
0.9478958891766719,1,0.995311
0.9241825965689724,1,0.995840
0.9404348982234082,0,0.975964
0.9444893526601726,1,0.999412
0.9383673203937327,1,0.997371
0.9320228756619457,1,0.998821
0.918834216784578,1,0.999263
0.9208956633311858,1,0.997519
0.9360479267883828,1,0.993590
0.9289198262334857,0,0.990751
0.9298818652578027,0,0.990367
0.9289445296036313,1,0.999377
0.932901061751329,0,0.987986
0.9212353232234988,1,0.998496
0.9479411289428762,1,0.997615
0.9350668277068326,1,0.999229
0.944943801213241,0,0.985532
0.9387774262088724,1,0.994620
0.9407248479386023,1,0.999349
0.9428261812780071,0,0.990191
0.9519682020533742,0,0.975072
0.9497884411719375,1,0.997790
0.9517529899023957,1,0.998876
0.9145731548298364,0,0.988846
0.9299083481157255,0,0.983137
0.920869516168659,1,0.997802
0.9262663819182622,1,0.999439
0.9236121978326088,1,0.999407
0.9249295774190992,0,0.991088
0.9371578054418649,0,0.993531
0.9366164729026228,1,0.998366
0.9262554821648366,1,0.999442
0.9349493498994734,1,0.999452
0.9474944903536461,1,0.999445
0.9321223187330177,1,0.999443
0.9430153547593859,0,0.992519
0.9442360619850315,1,0.999446
0.9227572106335881,1,0.998391
0.95203150353008,1,0.998317
0.9312199261157066,1,0.999444
0.9462487831357054,1,0.998242
0.9400752434829697,1,0.999413
0.9326348607652399,1,0.998877
0.9477627473709854,1,0.997895
0.9298072414723008,0,0.981071
0.9508868539719062,1,0.999431
0.9389339706326032,1,0.999446
0.9490128916356189,1,0.998327
0.9574700647938003,1,0.999451
0.9501963417445464,1,0.998866
0.945605479320051,1,0.999429
0.9545163763117248,1,0.995235
0.9426550079621029,1,0.999449
0.9504354290449534,1,0.999431
0.9593310544404529,1,0.999002
0.9375277846231445,1,0.998362
0.9376006553839683,1,0.999349
0.9306144044841368,1,0.997772
0.9339535041740283,1,0.998829
0.9583437733231602,0,0.912000
0.950007286417551,1,0.999307
0.9498508192689763,1,0.998863
0.9500702399748682,1,0.999280
0.9480534952114104,1,0.999443
0.9420780080748892,0,0.972452
0.9469510803139389,1,0.997718
0.9519965487115369,1,0.999136
0.9487441225991923,1,0.999415
0.9502993219667516,1,0.999412
0.9358104744738008,0,0.984190
0.943857249081187,1,0.998359
0.9562768050996626,1,0.999380
0.9335054103316833,1,0.997274
0.904648023921506,1,0.998157
0.9493795018732812,1,0.994812
0.9480918767252123,1,0.999439
0.9464340483643973,1,0.998879
0.9468412077265135,1,0.994376
0.9200463306511255,1,0.999457
0.9287479525203128,1,0.999386
0.9404450642895131,1,0.999453
0.922688848252283,1,0.997774
0.9376831081057091,1,0.998305
0.957237314727969,1,0.998898
0.945348371631664,1,0.999403
0.9590721224747251,0,0.963657
0.9573275254208199,1,0.999406
0.9446068774623835,1,0.999444
0.941478056050793,1,0.997555
0.950627183023437,1,0.998894
0.9462732450410514,1,0.998283
0.9597096176931135,0,0.956644
0.9488490322129284,1,0.998799
0.9446910415316706,1,0.997477
0.9514867728371923,1,0.995058
0.942749302781701,1,0.998185
0.9461486333134691,1,0.997727
0.940515381055923,1,0.999440
0.9542147584416555,0,0.985499
0.9540838676213992,0,0.982103
0.9526633242200983,1,0.997740
0.9517480910080087,1,0.999434
0.9454257545723872,1,0.998203
0.9380910843915228,1,0.999442
0.9494969099500014,1,0.998900
0.9488704552798088,0,0.983951
0.9395351074504549,1,0.997254
0.9162030832831816,0,0.987842
0.9436393881885172,1,0.999440
0.9521154602130928,0,0.955043
0.9489607055692655,0,0.910242
0.917241795192987,1,0.999349
0.9362255243453931,1,0.999239
0.9503033972093597,1,0.999450
0.9584451024389665,1,0.997613
0.9370159666820257,1,0.999296
0.9557138533010796,1,0.997121
0.9300077282593677,0,0.960519
0.9388426157320177,1,0.998893
0.9273738668720748,1,0.999443
0.9431413820265047,1,0.998882
0.9389432162218962,1,0.999447
0.940610840667027,1,0.998892
0.9118113811495651,1,0.997752
0.9049613872860787,1,0.996115
0.9028154710633746,1,0.997213
0.923877393173069,1,0.999465
0.9162547067974697,1,0.998830
0.9109951060067191,1,0.999449
0.8877379724330429,1,0.998883
0.913985189467178,1,0.996639
0.9073101633560691,1,0.999356
0.9386262465616968,1,0.996045
0.9410160789118568,1,0.998236
0.9272659879895664,1,0.999465
0.930802455893995,1,0.998235
0.9527527164171574,1,0.998896
0.960465719784061,1,0.999028
0.9478537683999599,1,0.999453
0.9391380988953225,1,0.998335
0.9512401623141294,1,0.996698
0.9539514460452211,1,0.999415
0.9640413752553212,0,0.974625
0.9558707372983206,1,0.999413
0.957841209847604,1,0.999430
0.9693029477535898,1,0.998299
0.9314754558162496,1,0.999354
0.9344504358279978,1,0.998871
0.9458173254650714,1,0.999446
0.9457129442334483,0,0.881798
0.944380679710928,1,0.998204
0.9307572209104378,1,0.999009
0.9363128473617041,1,0.994502
0.9432421427471562,1,0.998351
0.9149278525355357,1,0.999422
0.9256199200477588,1,0.999453
0.9368503940390326,1,0.996841
0.9390505138255457,1,0.999244
0.8784300017397662,1,0.998776
0.9379734736433363,1,0.999331
0.91510319681668,1,0.999441
0.9128955134898591,1,0.999444
0.930319144317748,1,0.997093
0.9167440846872261,0,0.990953
0.9214049910478015,1,0.998293
0.9416751514412839,1,0.995481
0.9118278925538618,1,0.999171
0.9482407429212063,1,0.999434
0.9378777134400355,1,0.994298
0.9474723814137771,1,0.996005
0.9248451559595571,1,0.998902
0.9409715928860681,0,0.968768
0.9163280942225737,1,0.998888
0.9327890590465918,1,0.995465
0.9410771227819729,1,0.997795
0.9397297250989498,1,0.999449
0.9315478510269295,1,0.998880
0.9512384231434169,0,0.983889
0.9492812162877784,0,0.993478
0.9113639055535371,1,0.998897
0.9232722251025914,1,0.999235
0.9203249752960194,1,0.997163
0.9430275197865201,1,0.999447
0.922530782398579,0,0.869425
0.9479051487743881,1,0.996683
0.9535395509462499,1,0.999444
0.9300083526223848,1,0.997746
0.9562281955454252,1,0.996585
0.9351010614031187,1,0.999437
0.9457827073070615,0,0.969376
0.9577821034685892,1,0.999402
0.9521097900910006,0,0.986674
0.9642253427255089,1,0.999390
0.9301624413684022,1,0.998167
0.9506811509004819,1,0.999436
0.944992926719115,0,0.973209
0.9297735115907899,0,0.993037
0.9567350272553489,1,0.999120
0.9576544158772011,1,0.998821
0.9483292084756891,0,0.978315
0.9477827123073985,1,0.998148
0.9287712447158935,1,0.998092
0.9242647795021198,1,0.998893
0.9214029217676521,1,0.998598
0.956031248232698,1,0.997821
0.912737319527799,1,0.999444
0.9359658539000607,1,0.999356
0.9598930853376091,1,0.997164
0.9394813218723356,1,0.999442
0.941358109148415,1,0.999447
0.9490564877170492,1,0.998325
0.9290626267265081,1,0.998485
0.9393241341627935,1,0.998695
0.9465577439977716,1,0.999343
0.9138449758634248,1,0.999458
0.9147772774144777,1,0.998756
0.9318102022450951,1,0.999394
0.9376788821968117,0,0.988744
0.9188706820356716,1,0.999441
0.9196425202823777,1,0.998662
0.9174616270330782,0,0.992697
0.9470214676686578,0,0.973863
0.9348417557235194,1,0.996599
0.9472941576026307,1,0.999091
0.9308920236962829,1,0.995657
0.9384485073973039,1,0.998661
0.94848813025291,1,0.999444
0.9500132721198118,1,0.999442
0.9682728520104498,1,0.994798
0.9047665145681182,1,0.998906
0.9326796607215231,1,0.999436
0.9226589289352213,1,0.998698
0.9356636938376229,1,0.998370
0.9468256998658644,1,0.998899
0.9346309615662922,1,0.998893
0.9198132804328296,1,0.999443
0.9583613111818942,1,0.998414
0.9561898612479764,1,0.997248
0.9440436894682445,0,0.986547
0.94006853470665,1,0.999310
0.952326432550593,1,0.999451
0.9463220664831142,1,0.997918
0.9333559517412492,1,0.999445
0.9509480371409385,1,0.994889
0.9448732497446162,0,0.986891
0.9409301698832176,1,0.999439
0.9037633804388807,0,0.975439
0.9415363039676048,1,0.994245
0.9134973599798281,1,0.999186
0.9465541740914373,1,0.998888
0.9580906512782796,1,0.999059
0.9487533650390156,1,0.997166
0.9519052445362685,1,0.999347
0.9488073266026029,1,0.998616
0.9450367854286001,1,0.999329
0.9504417320120525,1,0.999303
0.9505169829810011,1,0.998678
0.9312275252252292,1,0.995343
0.9273132260402763,1,0.997915
0.9347088040522099,0,0.978242
0.9261698749754306,1,0.998096
0.9105724310953761,1,0.995440
0.9109977361150705,1,0.998061
0.9431999273182268,1,0.999316
0.9323468907625209,1,0.999332
0.9370400262021125,1,0.998684
0.931026082085805,1,0.999353
0.933036738540725,1,0.995487
0.9529202782325538,1,0.999354
0.9551324178586301,1,0.999241
0.9569780592254769,1,0.993528
0.956213496786183,1,0.999329
0.9418561991851027,1,0.995550
0.9491250314642489,1,0.998679
0.9518740799465686,1,0.999290
0.9469516339085792,1,0.996755
0.9315930148822645,1,0.997398
0.945544934453335,1,0.999352
0.9474350185257754,1,0.998706
0.9468820014741686,1,0.998706
0.955512735909383,1,0.999326
0.9538822543845529,1,0.999367
0.9435321283980296,1,0.998495
0.9550945799819033,1,0.999353
0.9550195963471533,1,0.996129
0.959568161707972,1,0.998759
0.94596273218454,1,0.999346
0.9425016560953463,1,0.999229
0.9369216655057897,1,0.999268
0.941490787907602,1,0.996762
0.9582621403122458,1,0.999340
0.9478781816185095,1,0.999363
0.9197233213430028,1,0.999337
0.9371011942407873,1,0.998665
0.9276258378083504,1,0.999155
0.9432291339886013,1,0.999339
0.9380279528471557,0,0.971447
0.9395193969395105,1,0.998706
0.9316259876971094,1,0.996833
0.9474125717618954,1,0.999349
0.9160995588637719,1,0.999354
0.9263846634219275,1,0.997129
0.9277380566216943,1,0.999363
0.9349532903823682,0,0.992032
0.9391139506248581,1,0.998703
0.9387531290418294,1,0.999156
0.9476379959565175,1,0.993785
0.9133180585781348,1,0.996016
0.9431916313332783,1,0.994663
0.9428338264690547,1,0.999349
0.9529289486447381,1,0.995475
0.9542032588171533,1,0.996837
0.9520831767057456,1,0.999362
0.957360861496862,1,0.999369
0.9453307682175619,1,0.999366
0.9570769718567772,1,0.994452
0.9401823909859506,1,0.998655
0.9437332338815133,1,0.999257
0.9572730909246369,0,0.987030
0.9601099873327563,1,0.996042
0.9678367512400817,1,0.997938
0.9454954479170669,1,0.998622
0.9249633781807881,1,0.997308
0.9603271333216448,1,0.999309
0.9585695680817995,0,0.991256
0.9505931536195615,1,0.998340
0.9504860855546231,1,0.996671
0.9649889158908134,1,0.996544
0.9619452145049263,1,0.998308
0.9637311778055765,1,0.998695
0.954545552767281,1,0.999356
0.9585056557479955,1,0.996644
0.9473304279402426,1,0.999435
0.9393426409979124,1,0.999392
0.9616200774475769,1,0.998696
0.9455395112734172,1,0.999448
0.958683048106686,1,0.998344
0.9450650888844374,1,0.999459
0.9475823075385257,1,0.997860
0.9480455707918058,0,0.992766
0.9425845992468418,1,0.998892
0.9474406033011257,1,0.998735
0.914815503274252,1,0.999442
0.9486349861280303,1,0.999453
0.9332005560656199,1,0.998873
0.9227562541846234,1,0.996089
0.9404741320897099,1,0.999402
0.9434553614432591,1,0.997183
0.9201816648045085,0,0.987581
0.9103765845917868,1,0.997642
0.9094227187732145,0,0.988764
0.9400628380118957,1,0.995550
0.9291823833695454,1,0.998369
0.9302815068875149,1,0.999443
0.9457933637604335,1,0.999469
0.9204482562047618,1,0.999186
0.9511192001799404,1,0.997085
0.9338349292733951,1,0.995756
0.9158158116216923,1,0.999423
0.9386928769508139,0,0.964815
0.9445477087664801,1,0.997654
0.9381355552918501,1,0.999400
0.9463026699980164,1,0.996986
0.9410382650526102,1,0.999374
0.9523677500433603,1,0.999460
0.9542196374899382,1,0.999445
0.9564987887894781,1,0.999452
0.9570874396908948,1,0.995580
0.9343311918668343,1,0.999444
0.945481932816961,1,0.998871
0.9484308571961477,1,0.999449
0.9485922558115288,1,0.999452
0.9485038177626416,1,0.998891
0.9407886492018461,0,0.988597
0.9491556526947504,1,0.996648
0.9588964711868487,1,0.996703
0.9218420672198234,0,0.897290
0.9556316175115881,0,0.936148
0.9633277345072774,1,0.996573
0.9363032988993868,1,0.999088
0.9565574262741877,1,0.999353
0.9604351601094955,1,0.999446
0.9489661181464643,0,0.985327
0.9499585969154031,1,0.998886
0.9490144662496518,1,0.997780
0.9564512316394783,0,0.951322
0.9575508109047636,1,0.998865
0.9652821494230192,1,0.997824
0.9551818069526181,1,0.999342
0.9422249782266349,1,0.994194
0.9400679297613764,1,0.994573
0.9475904921613939,1,0.993992
0.9233822969729113,0,0.982585
0.9377104901836807,1,0.998670
0.9545680336546346,1,0.999349
0.9481842318208612,1,0.999339
0.933112268300815,1,0.997834
0.9411094240003443,1,0.998517
0.9380625306646106,1,0.995979
0.9473098115559925,1,0.996776
0.9532100585398101,1,0.999352
0.9496323716157165,1,0.998015
0.9605160144801911,1,0.998684
0.9599297935328222,1,0.997952
0.9554977087627841,1,0.997406
0.9621910137099993,1,0.998718
0.9539575940457455,1,0.998703
0.9507055652866369,1,0.999355
0.9373693596637319,1,0.999330
0.941887517736431,1,0.996277
0.9441347085514947,1,0.999353
0.953693775437262,1,0.998463
0.950930898750773,1,0.999366
0.943266046420722,1,0.998775
0.9230637278194018,1,0.998879
0.9321725439432447,1,0.999306
0.9385439760227654,1,0.998881
0.9272741060251717,1,0.999332
0.941352396491182,1,0.999437
0.9380458406608483,1,0.996750
0.9416361356641746,0,0.987286
0.9399978484178604,1,0.999362
0.9477391189973068,1,0.997704
0.9421223548551843,1,0.997154
0.9129703995099516,1,0.999443
0.9416161579129821,0,0.991784
0.921609032595477,1,0.999381
0.9129605460373902,1,0.998162
0.9146504601005853,1,0.998862
0.936421019813601,1,0.999439
0.9010274305823451,1,0.999367
0.9334188193207553,1,0.998814
0.9501704711769814,1,0.999462
0.9418450144804958,1,0.997236
0.9607629929101842,1,0.999444
0.9462948090931433,1,0.999331
0.9355739909272905,1,0.997387
0.9471263434634087,1,0.998340
0.9363595326305922,1,0.996723
0.9239139650970302,1,0.999437
0.9141744569442006,0,0.984642
0.9508365914536807,1,0.998347
0.9428178003970109,1,0.999457
0.9386627073973948,1,0.999461
0.9657347624712797,0,0.962096
0.9455548224753547,1,0.997224
0.954263090677974,1,0.998904
0.943744075393196,0,0.988000
0.9617861176133766,1,0.999452
0.9379635645282789,1,0.999450
0.940622613610508,1,0.997764
0.9460484840302269,1,0.997806
0.9619057079569412,1,0.998880
0.9535432136756444,0,0.993979
0.9666981777797073,1,0.997801
0.9523115406312079,1,0.997880
0.9457235351139849,0,0.993348
0.9529680667172393,1,0.998875
0.9489561922375113,0,0.959885
0.9568038644873073,1,0.999451
0.920839693909306,1,0.999380
0.9435043431870189,1,0.998332
0.9548155390712423,1,0.998337
0.9636006326668357,1,0.999311
0.9537636335808293,1,0.997044
0.9675548725116314,1,0.999326
0.9675093549031069,1,0.999328
0.9632674489629535,1,0.999338
0.9647683853813345,1,0.999294
0.9486853240212838,1,0.997945
0.940174280855743,1,0.999172
0.9625060411515604,1,0.996559
0.9532280773638225,1,0.996476
0.9589500986086318,1,0.999335
0.9501064071406776,1,0.999328
0.9593405384809303,1,0.999195
0.949216103651788,1,0.998658
0.9625899009663526,1,0.999414
0.9542309446456411,1,0.997213
0.9665766476194041,1,0.999043
0.96535130006854,1,0.999433
0.9608715608186154,1,0.999435
0.9629794966478776,1,0.998871
0.9406019017525871,1,0.998227
0.9533853110713966,0,0.949233
0.9500436247389554,0,0.930123
0.9512622421643044,1,0.997300
0.952948441890401,1,0.997164
0.9621578953572321,1,0.993239
0.9604253807842678,1,0.999430
0.9524331473828445,1,0.999325
0.9096496011718502,1,0.996575
0.9497110609849935,1,0.999434
0.9515207223742248,1,0.997218
0.9607522238331516,0,0.990233
0.9639485140678771,1,0.999423
0.9592667017993705,1,0.999245
0.9330860118995319,1,0.998496
0.9582526899145667,1,0.998247
0.9664766732706428,1,0.999320
0.9424896712211688,1,0.998851
0.939616726137128,1,0.999421
0.915575499000307,1,0.995400
0.9126150872517758,1,0.996321
0.9635536532816023,1,0.999422
0.9615249429150283,1,0.999427
0.9525283043174981,1,0.999312
0.939131877420986,1,0.999313
0.9585410601102804,1,0.999315
0.9534986050134224,1,0.999354
0.9481224521495781,1,0.999340
0.9423474247519514,1,0.999341
0.931311970583529,1,0.999062
0.9423441318868143,1,0.998701
0.9233752548955968,1,0.998865
0.9025800626972872,1,0.994000
0.9110943348511622,0,0.986957
0.929163940113369,1,0.997801
0.9388315841284612,1,0.999328
0.9311364213817419,1,0.994642
0.9431586980769407,1,0.999233
0.9377993196620998,1,0.998648
0.9529125290335826,1,0.996656
0.942584165306579,1,0.998895
0.9344975320712997,0,0.990299
0.9135245469079529,1,0.999333
0.9324587087946802,1,0.996702
0.9446577465922764,1,0.999162
0.921446080662715,1,0.998680
0.9283565666532037,0,0.987375
0.9543629262580766,1,0.998706
0.9405268537959914,1,0.998890
0.940120347337718,1,0.999441
0.9531891429995093,0,0.968326
0.942541456906882,0,0.967632
0.9657293406189157,1,0.996672
0.9562967565083804,0,0.976251
0.9241908704479993,1,0.999450
0.8871833943786099,0,0.967314
0.9352662122831163,0,0.992135
0.9332895570740549,1,0.998890
0.9372427890361971,1,0.998891
0.9506158270173299,1,0.999462
0.9582858198626996,0,0.989326
0.9366362352215367,1,0.999439
0.9522060037529662,1,0.998244
0.9459046909220367,1,0.999435
0.9136093013925246,0,0.981818
0.9456262087691755,1,0.998875
0.9264332867389077,1,0.998318
0.914383710160316,1,0.997673
0.9469387987093848,1,0.999440
0.9338274425341648,1,0.998899
0.9317999346522495,0,0.992718
0.9292625720035161,1,0.999448
0.9228980847712855,1,0.999434
0.9405121517539036,1,0.999408
0.9474757097220192,1,0.999357
0.9622976870602032,1,0.999127
0.9535282045045135,1,0.997315
0.9387939525966955,1,0.997323
0.9544481906925112,1,0.999448
0.9595690203517496,1,0.998697
0.9521812717912537,1,0.998893
0.9374529698996911,0,0.989753
0.8929730918069154,1,0.998517
0.9420324932601926,1,0.999451
0.9462416052500939,1,0.998316
0.9296167236990363,1,0.998864
0.9378942767807747,1,0.998894
0.9403650103148925,1,0.999447
0.9502350786016566,0,0.927876
0.901456166274621,1,0.997650
0.9246815755565809,1,0.999439
0.9218177431556147,1,0.999023
0.9487212547068685,1,0.999440
0.9454843320681734,1,0.998881
0.9294056930775373,1,0.999409
0.9239224134383833,1,0.996078
0.8701496708158044,1,0.999538
0.9550910562634656,1,0.998930
0.9222526259183741,1,0.997271
0.9158276392101992,0,0.960723
0.9363060431156826,0,0.982906
0.914618696360811,1,0.993902
0.9238688126978597,1,0.999458
0.9143595180170156,1,0.999443
0.8792138739238308,1,0.998888
0.9155517632420765,1,0.998353
0.9222593134028702,1,0.999041
0.9219198763950135,1,0.999399
0.9275384700114808,1,0.997662
0.9405536004207505,1,0.995074
0.9224291367874882,1,0.999442
0.9287811450139073,1,0.999121
0.9201440278137116,1,0.999411
0.93327168841762,1,0.999446
0.9451333041270772,1,0.999349
0.933121029774023,1,0.999437
0.9393447580640637,1,0.998210
0.9370970221819757,0,0.988439
0.9340493265261083,1,0.998886
0.9416948191281242,1,0.999350
0.9341432348995575,1,0.996672
0.9507006873387186,1,0.999452
0.9263465367322918,1,0.998891
0.9585805821161908,1,0.999448
0.925229754442642,1,0.999447
0.9553443973303417,1,0.999427
0.942852485770474,1,0.999155
0.9405368029712691,1,0.999447
0.9448343907409604,1,0.999399
0.9438826390024362,1,0.999445
0.9597368191409772,1,0.999434
0.9597258688698396,0,0.993367
0.960543759839247,1,0.998812
0.9573593319617886,0,0.975201
0.9379964485228103,1,0.998311
0.928958832529949,1,0.998972
0.9528783010647979,1,0.992416
0.9423086169437371,1,0.997052
0.9496303773691752,1,0.998896
0.9630496770099167,0,0.986681
0.9358718348405328,1,0.996669
0.9608713610106506,1,0.998341
0.9191337315220335,1,0.998891
0.9301227969090268,1,0.999441
0.9618004438325376,1,0.997774
0.8908329746183604,1,0.999223
0.9281371035225402,1,0.998666
0.9441263011811042,1,0.995962
0.9289526325750416,1,0.998710
0.9660269097021567,1,0.999387
0.9384880601169594,1,0.999445
0.9512915440851546,1,0.999453
0.9231967763548544,1,0.998353
0.95813729999803,1,0.998900
0.9326727027184,1,0.999445
0.956482366099958,0,0.990460
0.9431778447948747,1,0.999453
0.9577114955576189,1,0.998331
0.947179560426198,1,0.999397
0.9626223634792987,0,0.981908
0.9638645410568902,1,0.999092
0.9708175143586609,1,0.999320
0.9531932539087158,1,0.999312
0.9542898192809989,1,0.999313
0.9607208896020488,1,0.999329
0.9611742366716942,0,0.992982
0.9537326641474038,0,0.943195
0.9625181952290253,1,0.998960
0.971748535062345,1,0.994259
0.9593812318588818,1,0.999332
0.9639228329988447,1,0.998779
0.9388930565450009,0,0.968732
0.9386773630693768,1,0.999435
0.9503906765107192,1,0.998270
0.9502151158192579,1,0.998820
0.9323387589074628,1,0.998624
0.9408929869097182,1,0.999312
0.9480576366635568,1,0.996232
0.960931207236828,1,0.998811
0.9591222355271314,1,0.999453
0.9663613620458137,1,0.999436
0.9138165925006544,1,0.998173
0.9556738023024205,1,0.994912
0.949234633113462,1,0.999449
0.9583661721836647,0,0.974461
0.9207146228917492,0,0.990077
0.9378255221704773,1,0.998356
0.945449699214815,1,0.998380
0.9568232658422613,1,0.998818
0.9504055093536382,0,0.992749
0.9500432706539494,1,0.998904
0.9259565701767758,0,0.985972
0.9260057030391278,1,0.999259
0.9407274673464813,1,0.996481
0.916656343344066,1,0.999354
0.923108253818185,1,0.999313
0.9341720281791891,1,0.999341
0.9174491284500247,1,0.999326
0.908149344871227,1,0.995954
0.9067311969192897,1,0.999342
0.940984614971385,1,0.994835
0.9307286251419196,1,0.996127
0.9295161422503307,1,0.996693
0.9205822264010237,1,0.999351
0.9266277955647797,0,0.987461
0.9484997236474255,0,0.982620
0.9043943624037241,1,0.999348
0.8992574219805677,1,0.999333
0.921317283546942,1,0.996741
0.9180509968746822,1,0.999352
0.9250275546381705,1,0.999334
0.9355780068484196,1,0.999325
0.9239748619974645,1,0.998679
0.9428474941775157,1,0.998881
0.9464026317445866,1,0.999447
0.956778081211265,1,0.997739
0.9601692917131516,1,0.997238
0.949765463759139,1,0.997811
0.9628676581061724,1,0.999355
0.964454103201299,1,0.999470
0.9241700083853815,1,0.997835
0.9430313083532527,1,0.998895
0.9203529176300604,1,0.998315
0.9479929863974829,1,0.999370
0.9697684841282984,1,0.998897
0.945073252102563,1,0.996602
0.9353490213121666,1,0.999446
0.9568871870746491,1,0.997020
0.9552577558717406,1,0.998334
0.9281103455814349,1,0.997750
0.9476345591527464,1,0.999442
0.9207292390745779,1,0.998883
0.9238195489950891,1,0.998367
0.9316618944648561,1,0.999003
0.9383558229978359,1,0.991696
0.904333852828613,1,0.997230
0.940299901346242,1,0.999384
0.927363085065568,1,0.998997
0.944545265291346,1,0.999442
0.9174577302697123,1,0.999179
0.9558856255322651,0,0.986568
0.918441419098507,1,0.998367
0.9438931890985903,1,0.999301
0.9288206009287822,1,0.998296
0.9367430193689332,1,0.999035
0.9283309430402782,1,0.995508
0.9181533234979308,1,0.997286
0.914777272714661,1,0.998357
0.9214694963767723,1,0.999448
0.9481760554876265,1,0.999440
0.9281343621605308,1,0.994478
0.9326466118530473,0,0.992861
0.9211723490767705,1,0.999432
0.9012670080597639,1,0.999193
0.9334878340918085,1,0.998742
0.9302327841371331,1,0.997792
0.9172983118028499,0,0.993989
0.9194233450446624,0,0.993982
0.9395876359938226,0,0.989230
0.9375918016405542,0,0.985876
0.922395853329622,1,0.998909
0.945609831250776,0,0.994035
0.9273041830688206,1,0.998896
0.9455366498215596,0,0.982976
0.9521835514708763,1,0.998883
0.962081089913319,0,0.978947
0.95207465256909,1,0.998303
0.9531229105157969,1,0.998871
0.9384009511128378,1,0.999441
0.9513336929314009,1,0.999448
0.9583020854384121,1,0.998308
0.9536806926873606,1,0.996907
0.9631343973765872,1,0.999438
0.9509045173112503,1,0.999388
0.9591852869169283,1,0.998873
0.9519281917577352,1,0.999442
0.9482619421192063,1,0.999453
0.946511014886501,0,0.984410
0.9658867970249795,1,0.999441
0.8323785213392767,1,0.998430
0.9476192402104936,1,0.998309
0.9547185026705066,1,0.999424
0.9297788365883349,1,0.998327
0.9392896373851234,1,0.999448
0.926564096943193,1,0.998797
0.9390918689979774,1,0.998789
0.9296917843711383,1,0.999437
0.9487733740711647,0,0.981535
0.9579223073690903,1,0.999463
0.9652137479451505,1,0.997196
0.9599039588268061,1,0.999436
0.9530570287401409,1,0.999452
0.9337172591428264,1,0.998914
0.9360801674709275,0,0.992603
0.9199092070915099,1,0.998129
0.9481109934202399,0,0.984331
0.9624092380237084,1,0.997790
0.960177459808619,0,0.987578
0.9602517928631459,1,0.999452
0.9651739840801795,1,0.999238
0.9454358961187584,0,0.990801
0.9444707383083261,1,0.995498
0.9411218110498741,1,0.999460
0.940672789719754,1,0.998360
0.9596834027533607,1,0.999442
0.9477017912525562,0,0.986976
0.9341860928661372,1,0.997272
0.9530346107568366,1,0.999444
0.9320515853617979,1,0.998346
0.9466560314455146,1,0.996141
0.9497596884708419,1,0.998898
0.9525347812025848,1,0.998853
0.9644019904138326,1,0.998320
0.9424975067166103,1,0.999449
0.9395348050241046,1,0.996130
0.9526889221246693,1,0.999440
0.9482214592546647,1,0.998238
0.9408258463620447,1,0.998901
0.9292386754627642,1,0.999448
0.9527576113846837,1,0.999287
0.9207119024202399,1,0.996105
0.9563058458770257,0,0.987000
0.9369817905940714,0,0.984090
0.9263660425197467,1,0.997777
0.9403904571839704,1,0.995255
0.9082647476406547,1,0.999444
0.9195111917349351,1,0.999439
0.9520720132510444,0,0.964808
0.9267730063451173,1,0.998175
0.913291078448024,1,0.997752
0.9487129793516974,1,0.998167
0.924173076558535,1,0.996720
0.9452412552163493,1,0.994444
0.9029541496113813,1,0.999439
0.9363286726969573,1,0.994452
0.9238465269508341,1,0.998364
0.9423218282959257,1,0.999452
0.9455916821237749,0,0.974009
0.9266135994681336,0,0.977311
0.9396507010353411,1,0.998798
0.9477775896019974,1,0.999444
0.9082519879987608,1,0.998253
0.9323052830481887,1,0.997795
0.9121583791882315,1,0.999447
0.9301837273878273,1,0.999454
0.9358157990067174,1,0.999419
0.9377857369146708,1,0.999439
0.9553476560300735,1,0.998876
0.9480246193498836,0,0.944718
0.948395169472226,1,0.999453
0.9525005075259756,1,0.999445
0.9446343340024058,1,0.998329
0.9459315978732772,1,0.997813
0.9557044044680606,1,0.998897
0.9274251760286012,1,0.999443
0.9510645476977394,1,0.999438
0.9503835205326351,1,0.999455
0.9242247994336328,0,0.987215
0.9594044851848988,1,0.999451
0.9588623066917409,0,0.974176
0.9539625584714438,1,0.998907
0.9562015412121113,0,0.992016
0.9403550169422797,1,0.999337
0.9039224619268967,1,0.998020
0.9363389394539832,1,0.997195
0.9146048120008677,1,0.999332
0.9424306446521594,1,0.997636
0.9317475460332811,0,0.960340
0.9280966411818306,1,0.999340
0.9414228234475411,0,0.989610
0.9103107060905147,1,0.998581
0.922095895302486,1,0.998703
0.9539757806743483,1,0.994631
0.9491570019644332,1,0.999227
0.9412231117635088,1,0.998590
0.9463336115307828,1,0.994236
0.9502934007501214,1,0.999356
0.9552117248115763,1,0.999332
0.9661487019551722,1,0.999339
0.9527148820816154,1,0.996034
0.9482302664113894,1,0.994645
0.9598182930886777,0,0.991586
0.9612536346413905,1,0.999407
0.9656715453530166,1,0.995495
0.9544298071569141,1,0.998775
0.904538783244503,1,0.999449
0.9321819919784322,1,0.999449
0.9333861867747564,1,0.999443
0.9451544276385117,1,0.993182
0.9331946262422979,1,0.997788
0.9638537198277244,1,0.999449
0.9543098715869889,1,0.997033
0.9620139978845882,1,0.999430
0.9634765826247832,1,0.999174
0.9669633060719411,1,0.999328
0.9595735856641153,0,0.972471
0.9644725143747546,1,0.999303
0.9689854288292143,1,0.998846
0.9677595181178495,1,0.998875
0.9680934992190597,1,0.996887
0.9532950531498801,0,0.969249
0.9670511970223619,0,0.993092
0.9391431562753233,1,0.999341
0.9306443057874798,1,0.998274
0.9563217607176293,1,0.999425
0.9601432992778941,1,0.999417
0.9626922711510207,1,0.997275
0.9360167667338852,1,0.997249
0.9615986079382527,0,0.983568
0.9604269607332373,0,0.981795
0.9541074784486142,1,0.999152
0.9418547320032145,1,0.998645
0.9600324344231352,1,0.999314
0.9301538408500365,1,0.999101
0.927221029143163,1,0.995899
0.9358016261277395,0,0.924385
0.9038910565931144,0,0.912690
0.8537582845864546,1,0.998051
0.896070929160397,1,0.998445
0.9177936773616309,0,0.894081
0.9234209022956563,0,0.990583
0.9141206572827463,1,0.998375
0.9387665674700384,1,0.999334
0.9188693175367924,0,0.971530
0.9193554614888007,1,0.999305
0.9436973086217745,1,0.999439
0.9584523804686608,1,0.998007
0.947157768274345,1,0.999417
0.9319313456743842,1,0.999005
0.9086502818861432,0,0.901008
0.9385013483787944,1,0.997222
0.9423464958446789,0,0.992345
0.9114491878647792,1,0.999427
0.8879139341960807,1,0.998824
0.9109777285304325,1,0.999257
0.9150567107913523,0,0.906416
0.9408291744021593,0,0.914454
0.9337275526716214,1,0.999425
0.9184136917163102,1,0.999412
0.9347280356007505,1,0.997294
0.9154491821140044,1,0.996587
0.9167784785944316,1,0.999409
0.9232894872326703,1,0.999426
0.9173724271639236,1,0.999424
0.9526962434321483,1,0.999416
0.9486295908301877,1,0.997203
0.9505240133271933,0,0.928404
0.9120394454425865,1,0.999332
0.9111411178784143,1,0.997996
0.9518208713478672,1,0.999412
0.8743729832324197,0,0.981932
0.9175265089593391,1,0.998185
0.9165554441122563,1,0.998117
0.9258533763285043,1,0.993216
0.909050158079292,1,0.999403
0.9242817120297567,1,0.999364
0.9140190935640737,1,0.999433
0.8829613413105043,1,0.998881
0.9053403907188734,1,0.999416
0.8947959349510227,1,0.999414
0.9068660568441957,1,0.999422
0.9058895658672678,1,0.996587
0.9241088010935732,0,0.984539
0.9302077822114271,1,0.999350
0.9100236716546694,1,0.995778
0.8882306356213899,1,0.999391
0.8479494386606793,1,0.999417
0.9085710352401322,0,0.904157
0.9226058648510254,0,0.914522
0.9195919972848842,1,0.999444
0.9164265850671173,1,0.999424
0.9184872177384898,1,0.999413
0.9423855185717008,1,0.998749
0.9135437480776826,1,0.999443
0.8974603291616757,0,0.987835
0.9315829168279335,0,0.992894
0.9133296395305981,1,0.998660
0.9239924898591787,1,0.992308
0.9362408528587637,1,0.998699
0.9366918814098733,1,0.998847
0.8969023619954792,1,0.999430
0.88354159104339,0,0.990196
0.8851094973718712,1,0.998437
0.9138671962604811,1,0.999413
0.9363833844100901,0,0.924201
0.9321365487284441,1,0.999425
0.9335825481951826,1,0.997258
0.9125590467545541,0,0.909460
0.9278544868194843,1,0.998690
0.9372711748251741,1,0.995838
0.8925947206119159,0,0.988669
0.9102771954571267,0,0.988173
0.9281536017337588,1,0.999309
0.9059303085532844,0,0.986897
0.9172882134462162,1,0.999307
0.9256900780486848,1,0.993967
0.9078065941484222,0,0.974500
0.8797478721719292,1,0.998653
0.9151855730749363,1,0.999327
0.9363784564857092,1,0.997984
0.9302220503504961,1,0.999328
0.9479413660964373,0,0.992120
0.932023800561102,1,0.999314
0.9089389531520747,1,0.999250
0.9295551560496401,1,0.999190
0.9302733054809728,1,0.998619
0.9380083616802921,0,0.940443
0.9319731777194831,1,0.999438
0.9199945195863786,0,0.984024
0.941234020143735,0,0.991571
0.9467386465358586,1,0.997704
0.9323502365973718,1,0.998659
0.942671094641796,1,0.999413
0.9181408832827901,0,0.965000
0.9491387610489905,1,0.997108
0.9515187192290678,1,0.998294
0.9545827076685245,1,0.999376
0.9622379838978697,1,0.999370
0.929982562577532,1,0.999380
0.9477027083818805,1,0.999296
0.9586159106150781,0,0.948947
0.9472961830043503,0,0.985824
0.9520884474181067,1,0.995878
0.9259990036074603,0,0.991420
0.9212998443239763,1,0.997185
0.9427667588039825,0,0.979618
0.9328217711318755,1,0.999331
0.953546688081047,0,0.942741
0.9344312701642185,1,0.999434
0.9460869212026916,1,0.997141
0.9118570327791958,0,0.987425
0.9553817652544778,1,0.995951
0.9430007665118398,1,0.996411
0.9508387652844783,1,0.998450
0.9411767453713769,1,0.998973
0.9505356233935338,1,0.997922
0.9413979550278253,0,0.961610
0.9337153222080513,1,0.998526
0.9322827251147553,1,0.997113
0.9425310200025091,1,0.999162
0.939971103371411,1,0.999298
0.9250484919799343,1,0.994805
0.9313623727843279,1,0.996300
0.9306779664092935,1,0.999322
0.9399064196818873,1,0.996724
0.9336525841338662,0,0.991041
0.9248610518140432,0,0.929461
0.922986165498453,1,0.998661
0.9146015119312123,1,0.998421
0.9485785618307327,1,0.997954
0.9197460998638215,1,0.999342
0.9319072675776234,1,0.999321
0.9299194071638026,1,0.999184
0.9511808674430892,1,0.999271
0.9462087334232575,1,0.999324
0.9468252541056003,1,0.999331
0.9494268274083953,1,0.998612
0.9383717388930947,1,0.995264
0.9490863532953672,1,0.998655
0.94931816756935,1,0.995816
0.9453497427453904,1,0.998102
0.9421050574286951,1,0.998671
0.9366873948845492,1,0.999142
0.9443035989902104,1,0.998544
0.9513187142258689,1,0.999181
0.9501525751831734,1,0.999191
0.961518854381393,1,0.998616
0.9231881744187895,1,0.992221
0.9450661141255818,1,0.999326
0.9538518538784418,0,0.936186
0.9355589075280323,1,0.999248
0.9361074793013714,1,0.999332
0.9497729408978314,1,0.999323
0.9363516600104815,1,0.996523
0.9270635685969486,1,0.999342
0.9321889215994756,1,0.999311
0.9422567894250145,1,0.999328
0.9267316370427379,1,0.999325
0.9381001020674331,1,0.999307
0.9507777972218111,1,0.995441
0.9475375491589402,1,0.997498
0.9498518600753095,1,0.999316
0.931102145528341,1,0.999305
0.9281010956541701,1,0.999081
0.947798072094154,1,0.996706
0.9472643667983096,1,0.998657
0.9226160693669886,1,0.997921
0.9551854311506326,0,0.984952
0.9406677189222764,1,0.999170
0.9597145485544355,1,0.994668
0.934752136168538,0,0.970833
0.9322775982493987,0,0.914684
0.9479413823621311,1,0.999160
0.9411042201841201,1,0.999424
0.9384959334655386,1,0.999352
0.9515372749626827,1,0.999436
0.9645069569808761,1,0.995112
0.9621093648491333,1,0.998310
0.9528752483988173,1,0.998861
0.9523876693651971,1,0.996715
0.9387571604103061,1,0.997962
0.9405592989551255,1,0.999409
0.9129207320447766,0,0.988889
0.9546417063742986,1,0.998847
0.9577156962277885,0,0.960671
0.9615181783640069,1,0.998682
0.9426919329355726,1,0.999291
0.9343826931822723,1,0.999348
0.9303179622768446,1,0.997712
0.9519275940901166,1,0.998561
0.9220819958834449,1,0.999435
0.9220033192160598,1,0.995439
0.9378020131342167,1,0.999448
0.9294595846054053,1,0.996587
0.9501542945993627,1,0.998991
0.9528577825399606,1,0.999150
0.9505809380949858,1,0.992991
0.9566714088166482,1,0.998997
0.9564866464929233,1,0.998864
0.9585663108568047,1,0.999448
0.9333368773492464,1,0.998136
0.930911265707705,1,0.998596
0.9163838030668892,1,0.994565
0.9284468019639048,1,0.999385
0.921122114002725,0,0.909262
0.9367865530652418,0,0.910165
0.9165867429572164,1,0.995921
0.9187365596375118,1,0.999151
0.9242227813303454,1,0.994019
0.9197131262380995,1,0.999411
0.9354848441422562,1,0.997928
0.9169217353681467,1,0.996938
0.9145745877013417,1,0.999338
0.9290905009654006,1,0.997045
0.9383813915656061,0,0.962064
0.9391235423047223,1,0.998686
0.9375486781421561,1,0.997996
0.917193420925267,1,0.999417
0.924992525489123,1,0.998682
0.923360013201174,1,0.996473
0.9375120786642005,0,0.912281
0.9210593588752107,1,0.997512
0.929129917537168,0,0.965451
0.9275150120191715,1,0.998709
0.9247533560113558,1,0.996379
0.9309790177778317,1,0.999072
0.9060952713527659,1,0.996520
0.9457442888693215,1,0.998960
0.9507841363766251,1,0.998869
0.9287739404911854,1,0.998880
0.9339193612234037,1,0.998646
0.9316250440296225,1,0.998177
0.9529889676287638,1,0.996452
0.9578105588583683,1,0.999415
0.950952708967636,1,0.998654
0.943892596666494,1,0.997996
0.938372975366846,0,0.942798
0.9246490061660296,1,0.994673
0.9398445277771825,1,0.997340
0.940142601165762,1,0.996757
0.9341076084181575,1,0.997326
0.9284157882600022,0,0.918557
0.9250900021523473,1,0.999337
0.942633446493189,1,0.999434
0.9348757492721846,1,0.999419
0.9284021269199059,1,0.999327
0.9473953960744912,0,0.983040
0.9322511944031152,1,0.997722
0.9116363991715598,1,0.997668
0.9181933697658895,1,0.998979
0.9282620831902629,1,0.996933
0.9452107960392467,1,0.998817
0.9312374751875128,1,0.998837
0.9221186907563181,1,0.999419
0.9288505214696756,1,0.999405
0.9227760856125901,1,0.993157
0.9182961543477878,1,0.994561
0.9228442910587458,0,0.988774
0.9317736092941479,1,0.998037
0.9190981580617293,1,0.999330
0.936767997165371,0,0.980000
0.9239826686272948,1,0.999275
0.9331971036198108,0,0.935858
0.9310393735796189,1,0.999369
0.9110294614096768,1,0.999224
0.9374465639315088,1,0.997175
0.9317170743323435,1,0.999392
0.9309290597278237,1,0.998770
0.9342671189452387,0,0.954874
0.9125692411651486,1,0.996923
0.9219739670673713,1,0.997708
0.9262924487814117,1,0.999111
0.927274428734744,1,0.999250
0.9186245179781779,1,0.997096
0.887033689226545,1,0.999245
0.9144958578364865,1,0.998291
0.924191094638854,1,0.999278
0.9297491581739818,0,0.910329
0.9193919189732185,1,0.999435
0.9318146692343586,1,0.997759
0.9428692094535583,1,0.998268
0.9321460881920758,1,0.999253
0.9284521768271433,1,0.998168
0.9319224594076033,1,0.994279
0.9337307869617121,1,0.998890
0.9289022649527238,1,0.999424
0.9405880848358132,1,0.999411
0.9278897669732119,0,0.992657
0.9580714957057396,1,0.999342
0.9402473255569415,1,0.993515
0.9385160251059427,1,0.996663
0.9391869109923813,1,0.999093
0.9497780114148748,1,0.999412
0.951944503405789,1,0.999336
0.9324803468517648,1,0.999307
0.9355789471390831,1,0.995730
0.9370979306102845,1,0.999293
0.948321504344763,1,0.999279
0.934376648242339,1,0.999301
0.9426927480853808,1,0.999320
0.9288173682642147,1,0.999417
0.9032477208505602,1,0.997612
0.9341808669860868,1,0.999422
0.9057471308397065,1,0.998679
0.9231147700464951,0,0.989517
0.9337420448462581,1,0.998775
0.9411167605372339,1,0.999267
0.9475242998195934,1,0.999321
0.9207340745340701,1,0.998861
0.9457310114897576,1,0.998223
0.9407927544431522,1,0.999435
0.9353933647219081,1,0.999379
0.9361273857830352,1,0.999420
0.9380479561019973,1,0.999422
0.9485280599399962,1,0.997731
0.9550233570492438,1,0.998007
0.955110672907981,1,0.997164
0.9454627196942843,1,0.999348
0.9137707160775037,1,0.997056
0.9530854043190194,1,0.998839
0.9511328259963232,1,0.999333
0.9490162996046559,1,0.998020
0.9323786394074692,1,0.998822
0.8686271953348782,1,0.999034
0.9419581580706722,1,0.999424
0.9250564485411553,1,0.999363
0.9419809269764335,1,0.996137
0.9093098412172412,1,0.995947
0.9314194307400593,1,0.998699
0.8978638447259123,1,0.996568
0.9349045759667116,1,0.999431
0.9242516304601042,1,0.998043
0.9204400030813382,0,0.990852
0.9547171311025946,1,0.998303
0.9566690026521047,1,0.998274
0.9402384667014704,1,0.997398
0.9592674791731712,1,0.999288
0.956347918634871,1,0.994825
0.9528368600312301,1,0.996212
0.9329312976493511,1,0.999238
0.9564141305805905,1,0.998289
0.9555935393083197,1,0.994373
0.9624115914412833,1,0.998842
0.9586487588270367,1,0.997745
0.9602391588339382,0,0.949352
0.9531684445319945,1,0.998309
0.9485620571955071,1,0.996904
0.9618203217865771,1,0.999317
0.9452242221419775,1,0.999359
0.9501915128804769,1,0.998829
0.9393164129701763,1,0.997688
0.9450839126085778,1,0.995370
0.932232870728078,1,0.999036
0.9305989064705812,1,0.999383
0.933879497932364,1,0.998736
0.9267901663124933,1,0.996246
0.9231032558079685,1,0.999368
0.9379118547172054,1,0.998253
0.9256059588673443,1,0.998698
0.9320346518314796,1,0.999418
0.9550669012502685,1,0.999427
0.8906144870286022,1,0.999120
0.9372868323471828,1,0.999382
0.9515919530034544,1,0.993992
0.9591199421251183,1,0.999409
0.9556385307981214,1,0.999308
0.9129623456973162,1,0.996608
0.9437332552086541,1,0.999193
0.9585132544339077,1,0.998263
0.9505494890039566,1,0.997683
0.9426050376833246,1,0.999334
0.9511567057206247,1,0.997688
0.933937100796928,1,0.999298
0.9477233326167648,1,0.998210
0.954681055412161,0,0.944370
0.9382207595603094,1,0.998840
0.9461400627270696,1,0.998847
0.9620695595083301,1,0.999337
0.9373261712012501,1,0.999053
0.9566036284592748,1,0.999424
0.9327725943436018,1,0.996602
0.9508134439984833,0,0.961828
0.9423716134056453,1,0.999241
0.9292557199479715,0,0.987224
0.937542326410095,1,0.996445
0.9379343098130283,1,0.995475
0.9218143815804111,0,0.991016
0.9448245457265473,1,0.999281
0.9510342206020177,0,0.991016
0.9563053196448023,0,0.976139
0.924755048469864,1,0.998260
0.9153465097739194,1,0.999413
0.9265966981383642,1,0.998270
0.9400816350994402,1,0.999063
0.9223458057950796,1,0.997741
0.9393020086594441,0,0.973410
0.9335452493630997,1,0.998667
0.9195960164388928,1,0.999313
0.9380107776994611,1,0.999309
0.9319420643637083,1,0.999158
0.9217190428430775,1,0.997937
0.922781854556339,1,0.998622
0.9478694054283636,1,0.999323
0.9394838443933456,1,0.998086
0.9406387821929346,1,0.998127
0.942107435492199,1,0.999311
0.9309943724246914,1,0.998662
0.9380863736423474,1,0.999437
0.9200732965720938,1,0.999351
0.9291110616796725,1,0.998002
0.9293426838416287,1,0.996660
0.9561287369597187,1,0.997079
0.9289035525267287,1,0.999419
0.9276150992372553,1,0.999410
0.9331620697519701,1,0.998828
0.8468971891552831,1,0.999421
0.928618629189754,1,0.999220
0.9309781356497896,1,0.995961
0.936208694620584,1,0.999422
0.9305602257347716,1,0.996257
0.916656938484525,1,0.999416
0.9333401665062334,1,0.999133
0.9042732383551207,1,0.993711
0.9273846101927219,1,0.991469
0.9227482608552022,1,0.999418
0.9305278855092425,1,0.999431
0.9064455258195306,1,0.998851
0.9129921008513476,1,0.998839
0.9286632024812731,1,0.999235
0.9131984335312431,1,0.997725
0.9149182224186391,1,0.999439
0.9216321252965688,1,0.999431
0.9158725546955422,1,0.997106
0.9445895067905824,1,0.998661
0.942526062623202,1,0.994374
0.9403538283317556,1,0.990577
0.9052200046484261,1,0.996663
0.9360425406625521,1,0.999327
0.9383049376611357,1,0.999425
0.9548419892824989,1,0.999310
0.9491688816567462,1,0.999036
0.9456407662859297,1,0.996439
0.9474935939889718,1,0.999305
0.9537864027939906,1,0.994780
0.9318741713625637,1,0.994619
0.9288401277954922,1,0.999422
0.9353442841929543,1,0.998573
0.9315793385096631,1,0.999097
0.9298908816308636,0,0.991309
0.9325565131369109,1,0.996853
0.9016776219514738,1,0.999412
0.9289172020086788,1,0.997945
0.9163186513622203,0,0.967499
0.9142295366607257,1,0.999420
0.9578721182718086,1,0.999400
0.9174826229881919,1,0.999333
0.9494806261399088,1,0.998259
0.9480216387337417,1,0.999433
0.9631987008751965,1,0.995375
0.9325301857548411,1,0.998442
0.9460558774320309,1,0.997549
0.9142630807653913,1,0.999251
0.9550855090254249,1,0.998847
0.9530467892468053,1,0.999429
0.9625000039977765,0,0.990031
0.955679891814872,1,0.999427
0.9373826279684065,1,0.997744
0.9634658433969591,1,0.996949
0.9496362496723049,0,0.983001
0.9587843196270506,1,0.998870
0.9673253439465083,1,0.999414
0.9611572775683296,1,0.999166
0.9494589996152365,1,0.999171
0.9416627273389162,1,0.998122
0.9523073027326446,1,0.993960
0.8988135070467325,1,0.999312
0.9388044256095004,1,0.998654
0.9464742077374575,0,0.983871
0.9555333406917029,1,0.997925
0.9649441035091065,1,0.998294
0.958567864395857,1,0.999206
0.9623708092893745,1,0.999415
0.9611857653115318,1,0.995039
0.9484522079123016,1,0.999426
0.9652553873715511,0,0.987142
0.9154510804493152,1,0.998361
0.9286828780502698,1,0.994774
0.9122604127640648,0,0.975917
0.8788439849323687,0,0.842459
0.8859028628823314,0,0.975309
0.8677722249565503,1,0.998609
0.9201421318813287,1,0.998308
0.9268525060494522,1,0.998741
0.9204331403649741,1,0.996734
0.9314620272834241,1,0.998881
0.9274757013603568,1,0.999306
0.8619924634953884,0,0.976562
0.8964114800120534,1,0.999404
0.9468197826506305,1,0.997773
0.9119910640296522,0,0.979856
0.9292706492234273,1,0.997784
0.8705133873887512,0,0.951656
0.8740674157362726,1,0.997031
0.8982501827508731,1,0.999044
0.9066107792815209,1,0.997535
0.906631767480914,1,0.998880
0.9001530736289256,1,0.995807
0.8839585207437338,1,0.998845
0.912638550181616,1,0.999160
0.860051314769435,0,0.978452
0.8864555278159532,1,0.999298
0.9103189899448514,1,0.998016
0.9312030216093168,1,0.999431
0.8792500749180306,1,0.998987
0.9169288365941893,1,0.997692
0.9207148525625265,1,0.998828
0.9367094758741964,1,0.998860
0.8876130544769011,1,0.999330
0.9130689582845428,0,0.957256
0.8876752775235905,1,0.999394
0.9026956120681201,1,0.997949
