0.5654018992789244,0,0.903462
0.6868882385482274,0,0.868331
0.8362124037983035,1,0.999158
0.852402669382006,1,0.996212
0.46160824784176274,0,0.975286
0.3582952356936873,0,0.935434
0.37092500646229926,0,0.845467
0.5229986836597184,1,0.997156
0.7925576993524241,1,0.997693
0.462587958903404,1,0.995177
0.36223566080095665,0,0.872212
0.512122426404012,0,0.717949
0.5395716454961343,0,0.988574
0.571764532610415,0,0.945652
0.668654668151192,0,0.897229
0.5696467143830818,1,0.991247
0.489261594062387,0,0.750877
0.5527152054096489,0,0.994166
0.6532619238464051,0,0.988444
0.404961746515175,0,0.876673
0.5568060937648894,1,0.999281
0.36096710215463296,0,0.886886
0.5109773896274968,0,0.993301
0.5399730739749862,0,0.992560
0.4644053119692756,0,0.687398
0.5329540458645028,0,0.623131
0.558224724764132,0,0.812531
0.4443520926472988,0,0.772056
0.6627499684192937,1,0.999476
0.48338948519441277,0,0.941296
0.4847839280291369,0,0.984629
0.47478272265325355,0,0.926819
0.5493086765308313,0,0.935081
0.614759334515085,0,0.984911
0.752825964751391,0,0.964695
0.76368688345766,0,0.892499
0.7452395708850322,0,0.960078
0.7984385225041527,1,0.995153
0.7202930475082925,1,0.992692
0.296411751213108,0,0.875942
0.4069106697911397,0,0.918171
0.5159788889611026,0,0.797421
0.6286234393442305,0,0.989952
0.6894761436139712,1,0.996272
0.7084333515784925,1,0.994325
0.6085781308548035,1,0.996051
0.683553520039614,0,0.992418
0.7200229933757755,0,0.989203
0.7522929683823261,0,0.970921
0.6466983875226175,1,0.999160
0.5832553400862949,0,0.938920
0.473060524985661,0,0.901746
0.5929819047442685,0,0.989846
0.6642138158528074,0,0.995714
0.6295919227321058,0,0.982349
0.8379062605081092,1,0.998604
0.825514110550442,1,0.996708
0.8300568953699496,0,0.990130
0.8450446640138786,1,0.998891
0.719759061454775,1,0.998323
0.5000491823614587,1,0.994627
0.2594069051915147,0,0.628392
0.4364401146494534,0,0.989043
0.6459938971224437,0,0.898084
0.39638439480166426,0,0.944444
0.6079547531571392,0,0.977843
0.5953405765621437,1,0.995264
0.5242894112346806,0,0.991817
0.6862193913965213,0,0.974048
0.5841270866022389,0,0.980478
0.6739109768817185,0,0.931533
0.4003979998090643,0,0.854502
0.5564186787718974,0,0.984712
0.6567838769545138,0,0.989617
0.4993939281619402,1,0.997860
0.5210025464694463,0,0.954823
0.6088507569909271,0,0.722315
0.5974252728131955,0,0.961312
0.7067994976816672,0,0.884094
0.6754005845481456,0,0.983931
0.45415844988148407,0,0.766639
0.7919251235778628,1,0.999177
0.7108467741813222,0,0.970304
0.7419573178384072,0,0.988586
0.7295093021122121,0,0.980306
0.71575459280335,1,0.999607
0.6269668717575441,0,0.857587
0.6755983999651896,0,0.920332
0.8057146043823392,0,0.964613
0.5855974781338299,0,0.994785
0.7554095641385996,0,0.979979
0.7896649239039277,0,0.992097
0.7954296727914257,0,0.989962
0.7839549070357247,0,0.966862
0.7499473443581128,0,0.982604
0.6638431338193402,0,0.992605
0.7836805252708636,1,0.996510
0.8138867187143458,0,0.937586
0.6665232215714982,0,0.925766
0.5883781736496868,1,0.987698
0.7815398394330769,0,0.967711
0.6255326016820394,1,0.997248
0.43191481777191604,0,0.829951
0.6314138694956647,0,0.976744
0.6682740755575494,0,0.981995
0.6421731158662218,0,0.962551
0.611779067013975,0,0.987830
0.4912785383926577,0,0.966851
0.5279813009483979,1,0.996172
0.5024730182610581,0,0.950241
0.5916689497965341,0,0.892327
0.713171649628154,1,0.995047
0.5830014378886533,1,0.998681
0.7175565297138832,0,0.975484
0.637668366910283,0,0.931507
0.7149377075016774,0,0.855453
0.623190980131267,0,0.965941
0.6834528744093036,0,0.902027
0.7520423324842156,0,0.928838
0.5105382972781187,0,0.983003
0.6910978848669589,0,0.895942
0.7203255544141889,0,0.977321
0.6835552276230078,0,0.990894
0.681359761301253,0,0.973515
0.6773717403068787,1,0.996310
0.7059023024908839,0,0.991590
0.5469772084807838,0,0.976559
0.6559302622690363,0,0.839190
0.7413569351154424,0,0.976158
0.7882263329860885,1,0.998218
0.6869173472304868,0,0.983315
0.7478880418180283,0,0.965190
0.5958007793079251,1,0.998401
0.8003154322655497,0,0.982440
0.8221329683692793,0,0.820380
0.8178252398590425,1,0.995178
0.6049839104442628,1,0.999590
0.7565690019279215,0,0.969719
0.641238779898963,0,0.986758
0.7615571270177133,0,0.866317
0.7209026972372217,0,0.966513
0.5908792469928004,0,0.966459
0.6809786966743799,0,0.989015
0.5750942380148718,0,0.969466
0.6901794785761816,1,0.997853
0.6254357172932311,0,0.993955
0.7291421458284086,1,0.996411
0.673735168732149,1,0.997888
0.703018223495872,1,0.996991
0.8054915394323671,0,0.947664
0.811725825565926,0,0.994101
0.8125803801280553,1,0.997190
0.7962527929395036,1,0.998274
0.8181846248010458,1,0.996463
0.7889454311207518,0,0.993034
0.856525710285103,1,0.998797
0.8057814500260037,0,0.990501
0.8107877619445709,1,0.999248
0.8672793168902305,0,0.979027
0.8241354882918185,0,0.994440
0.8117834707592776,1,0.997242
0.8816847781022596,1,0.998942
0.8275815385308058,1,0.997204
0.8942431121315029,1,0.999654
0.8802808994697335,0,0.995534
0.8660767561744211,1,0.999323
0.6484072793834815,0,0.966887
0.5535660391757026,0,0.982536
0.6186401037460202,0,0.882848
0.5820332617503262,0,0.981504
0.8401480068792875,1,0.999534
0.46502504709354675,0,0.946346
0.5582233343246016,0,0.975184
0.7688583447705903,0,0.984171
0.7772800984670075,0,0.963636
0.7657173842197145,0,0.976616
0.8008874114304002,1,0.998892
0.8125970026448149,1,0.998342
0.7159816254107231,1,0.998953
0.8320200311109964,1,0.995643
0.8002190711534969,0,0.908815
0.6750445387354006,0,0.986236
0.7570106441656158,0,0.935569
0.8043909189428788,0,0.932515
0.794236208459877,0,0.880391
0.6352763690243064,0,0.953092
0.8158180158391304,0,0.981069
0.7766967782769846,0,0.984346
0.7731442538581058,1,0.996839
0.752921894797709,0,0.984107
0.7491007819995473,0,0.944938
0.6936104129753805,1,0.992674
0.7925053706590733,1,0.998789
0.7853723515968635,0,0.915099
0.8016537001269004,1,0.997835
0.7140162289694656,1,0.998203
0.7250403430191944,0,0.988842
0.7969557325593191,1,0.999121
0.7608114046847063,1,0.998904
0.870703200309291,1,0.999599
0.7991276221544438,0,0.984337
0.6909673208775999,0,0.980713
0.8766725827310591,1,0.997174
0.6566452807383008,0,0.876049
0.6937690965960442,0,0.939734
0.6515021764853217,1,0.998922
0.7853465800305973,0,0.949270
0.7888091638543351,0,0.945177
0.7227729298436972,0,0.937666
0.5233108754510523,0,0.929005
0.676021169948028,0,0.965997
0.735757719043301,0,0.942446
0.7879636280415993,0,0.978338
0.5999684631798333,0,0.956571
0.7149113140575971,0,0.924235
0.7727551451354425,0,0.985314
0.7320208826072676,1,0.997815
0.6917211590718663,1,0.998294
0.7118685906719151,0,0.989716
0.7106806943629205,0,0.974085
0.6123771629896767,0,0.979354
0.622369676817172,1,0.999633
0.7016578681240446,1,0.998346
0.7328920327787521,1,0.997371
0.6571458843422303,0,0.967140
0.6228088511790194,0,0.980828
0.6277481449765665,0,0.959410
0.7083202501211636,1,0.996947
0.7676559203110438,0,0.995208
0.8259908523421717,0,0.979224
0.7519902916162493,1,0.995238
0.80505741257985,1,0.994146
0.6788968330760433,1,0.995918
0.7400882211888418,0,0.932145
0.695260914122979,0,0.955604
0.7113281189914936,0,0.992366
0.7921791116656601,0,0.987059
0.7204848218779452,0,0.847352
0.7299454225405086,1,0.996680
0.8355251875231873,0,0.886167
0.7226408613701706,0,0.971930
0.7035754756528264,0,0.992716
0.6804705312413125,0,0.924528
0.7945742738582509,0,0.912656
0.7400357473405331,1,0.999593
0.7519423648313487,0,0.993830
0.7343783757193328,0,0.933992
0.8135334194382893,0,0.975378
0.7169057385294034,0,0.967093
0.816947758877501,0,0.937795
0.7434521111079087,0,0.989324
0.6973125300241552,1,0.999071
0.7496160908616175,0,0.960340
0.632947145948392,0,0.976852
0.7793068793609137,0,0.989130
0.6747579255392556,0,0.945861
0.7044640230277123,0,0.990224
0.8300077106014588,0,0.981904
0.6524041889151332,0,0.989907
0.8683761827671099,0,0.964081
0.7976948383422741,0,0.971920
0.7990578179788334,1,0.995768
0.8145246658894697,1,0.997413
0.7858945021752848,0,0.992345
0.7647143438317872,1,0.997752
0.8149809661945113,0,0.941143
0.7626086717144482,1,0.997195
0.8326529866088225,1,0.998432
0.775088970971806,0,0.993963
0.7686675749297504,0,0.903188
0.8138863029758743,0,0.950906
0.7971653003693717,0,0.965517
0.7278666269948361,0,0.719132
0.7940862657125273,0,0.977501
0.6873578505399017,0,0.799337
0.7911272197096433,0,0.957996
0.8493922234665982,1,0.996047
0.7787834344373759,0,0.926070
0.6858562979905999,1,0.993007
0.7463179653012609,0,0.900800
0.6870419676071952,0,0.982429
0.6188735236653732,0,0.968772
0.7140335305345025,0,0.990185
0.7100574730482034,1,0.998285
0.6322451068554185,0,0.992754
0.8510337240648651,0,0.737020
0.8171398194689543,1,0.998924
0.7676162880580403,0,0.991004
0.7197759030089093,0,0.985552
0.7428056423883155,0,0.974026
0.7384541004453221,0,0.957014
0.7006204605307403,0,0.980047
0.7913905807235048,0,0.573801
0.7829727510525522,0,0.956259
0.7411588638977079,0,0.967275
0.7694483484640537,0,0.985507
0.7558630391300036,0,0.990122
0.7119772798808959,0,0.983405
0.6900853366998931,1,0.996487
0.6106740760750043,1,0.998455
0.7949363768667673,0,0.925910
0.758392268810073,1,0.992759
0.7614739063436021,0,0.987645
0.7944394088493578,1,0.995759
0.7155812080825765,0,0.944196
0.7651937923619843,0,0.939860
0.7505667837769003,1,0.990893
0.4710174900307493,0,0.907839
0.8121743524861679,1,0.995726
0.7997412395077259,0,0.992308
0.7886189916876839,0,0.950000
0.6967247011049404,0,0.993328
0.6887243962525653,1,0.998060
0.7922153637218008,0,0.967130
0.7479900659927944,0,0.994516
0.733810937012077,0,0.926462
0.757628249633918,0,0.988545
0.8131507512635545,1,0.999601
0.6999260842122759,1,0.999646
0.7562930601653498,0,0.951322
0.639054789470505,1,0.998827
0.7169593824084055,0,0.970898
0.6026772547243323,0,0.965241
0.6946543527996142,0,0.958747
0.64574949720365,0,0.963228
0.6460173376083747,0,0.978426
0.7584121587080743,0,0.865722
0.6670590163117303,0,0.988882
0.6337148436122826,1,0.993972
0.8167112764103379,0,0.942782
0.7664168643213481,0,0.982857
0.7825654363840865,0,0.979239
0.6591239767494166,1,0.999614
0.8317890311712427,1,0.997200
0.6551790318812152,1,0.996156
0.6548236774588132,0,0.994108
0.7760669863208202,0,0.946173
0.6832817510019169,0,0.962677
0.8047967863603307,0,0.991995
0.7853658776917121,1,0.998283
0.7365935793782145,0,0.953069
0.7565534864922178,0,0.987330
0.8465718097775762,0,0.987703
0.8206062951879647,0,0.983607
0.8374089343832142,0,0.973017
0.8808730944718474,0,0.979592
0.8384688408341467,1,0.999640
0.8121555616039351,0,0.991007
0.7495647535506629,0,0.967967
0.8364525143749028,0,0.965789
0.7603404553163895,0,0.905622
0.7782960173915889,0,0.874165
0.7557541560858839,1,0.999333
0.672838863597181,0,0.574784
0.7809761108439215,1,0.993205
0.817324794665408,0,0.984286
0.8281739772796659,0,0.971049
0.7921317043315275,1,0.988889
0.7301812525610233,1,0.998446
0.7163279549412089,0,0.938010
0.8115661720868393,0,0.966847
0.8498126052739141,1,0.997682
0.6962788681920539,0,0.942415
0.6686181384570141,0,0.913572
0.6180147959209815,0,0.904339
0.8062018062219596,0,0.871028
0.7643792625620387,0,0.948686
0.6865783672187407,0,0.993714
0.7085524957365394,1,0.999328
0.77867069762485,0,0.983756
0.6848855921179359,1,0.998016
0.7171540293483797,0,0.833333
0.8169118668068497,1,0.995485
0.6673959554482392,1,0.994941
0.7950278760687225,0,0.954233
0.7342415492179616,0,0.963795
0.7772707713002835,0,0.961151
0.7292126346069485,1,0.996176
0.8090588622018438,0,0.959198
0.768932921517919,1,0.999009
0.5498472402491673,0,0.733595
0.5814797346548585,0,0.914165
0.6574083258038327,1,0.999203
0.6060510471995642,1,0.999147
0.6754408355600604,0,0.823396
0.7258696884604265,1,0.997582
0.7174536644440209,0,0.939172
0.7059590801092236,0,0.993141
0.6562191241319035,0,0.994141
0.6802899110852634,0,0.921072
0.6852577100807893,0,0.993816
0.6929195107134656,1,0.998144
0.7148914643762209,1,0.998057
0.7558744601569773,1,0.998529
0.6989636201039029,0,0.908472
0.7356979652503216,0,0.942446
0.6915067501784813,0,0.951569
0.7686176528192242,1,0.997191
0.7223353634126255,0,0.905922
0.7473802846661407,0,0.940056
0.5787335311820229,0,0.990881
0.6112350573305855,1,0.998296
0.6207074051747526,0,0.885760
0.5800671992424149,0,0.938160
0.6177666307934364,0,0.970389
0.6234140425711768,0,0.987607
0.7378080603950371,1,0.999549
0.5999825049977623,0,0.924623
0.6927341929765691,0,0.965870
0.6732391040479418,1,0.992620
0.7124417376011332,0,0.944569
0.6829871853736265,0,0.928783
0.4378110922123587,0,0.842907
0.7770563163997058,0,0.993388
0.7099265456590461,1,0.997410
0.7058526406883163,0,0.908738
0.7362629526039522,0,0.977603
0.8073568471447407,0,0.978271
0.6940003994376414,0,0.918762
0.7792762678962243,0,0.977628
0.6277674598248879,1,0.985390
0.74712064612424,0,0.980115
0.6339217091650861,0,0.988433
0.693771462532349,0,0.986006
0.5938493863880755,1,0.990874
0.5190385587921127,0,0.957468
0.6455022961023043,1,0.990305
0.6711332740223026,1,0.984099
0.7631529459065752,1,0.995527
0.7756928772741106,0,0.958534
0.6305843250922579,1,0.996497
0.8250196041405818,0,0.969315
0.7986848252148843,0,0.929504
0.8189945537297433,1,0.997417
0.7545966098410744,0,0.927917
0.7270994792516619,0,0.994705
0.5874931848929095,0,0.963542
0.5803575797285574,0,0.961892
0.7102875324950803,1,0.997243
0.6675417941907082,0,0.968354
0.6546123060724108,1,0.997415
0.6357444964150788,0,0.932170
0.7184301851091676,0,0.980884
0.6804993556145476,1,0.989914
0.8203965267526042,0,0.967686
0.817531812743429,0,0.982759
0.7747813308092331,1,0.996845
0.7115004447581139,1,0.996387
0.8321486000706094,0,0.975015
0.8384940786142417,0,0.965483
0.7177659668077574,0,0.962043
0.8629472123500634,0,0.959037
0.8048831194972922,0,0.963605
0.8462448006187746,0,0.966288
0.7698914633719162,0,0.927746
0.837970666881443,0,0.965909
0.8328525309767579,0,0.983448
0.5294889939029395,1,0.998291
0.6049026135693516,1,0.997276
0.6754796587243164,0,0.783080
0.5823092964455793,0,0.896585
0.6015095197459978,0,0.966382
0.588104751839202,0,0.687654
0.6938037678656084,0,0.977472
0.7775234012537466,0,0.961331
0.7743763675233853,0,0.992258
0.5934068275507298,0,0.949130
0.672021621004608,0,0.976495
0.8081979578760748,0,0.993730
0.7452810965149341,1,0.997201
0.8260618091119234,0,0.981361
0.731777029485797,0,0.995118
0.776829918720971,1,0.997515
0.8031885149053165,1,0.999541
0.7801366496372033,0,0.970254
0.7890985948784981,0,0.972838
0.8159176598944035,1,0.998336
0.8324491319079343,1,0.996577
0.7200469926135781,0,0.889210
0.8098724173568556,1,0.999157
0.7619849721492217,0,0.962560
0.8237253520121959,1,0.998845
0.8589035543512583,1,0.999635
0.8273189213351689,1,0.998103
0.8614470867543075,1,0.996120
0.8270375291184479,1,0.998850
0.8140897270809964,1,0.999256
0.6377137543805196,1,0.996959
0.6748983668184804,0,0.928982
0.6688520231110733,0,0.734109
0.8146241198623284,1,0.997695
0.8214670558257977,1,0.996912
0.8023654999818931,0,0.982632
0.8320484324430812,1,0.997427
0.7897154239891713,0,0.993628
0.835867533960754,1,0.998355
0.8170899400065765,1,0.997777
0.8851187005397647,1,0.999619
0.7815490149649571,1,0.996698
0.8558256305294347,1,0.998895
0.9027676008009028,1,0.999613
0.811857739617193,1,0.999239
0.8254129629662383,0,0.991803
0.7222438730366347,1,0.999633
0.7639193848319652,1,0.997549
0.8319630950767103,0,0.987495
0.5894701883325291,0,0.930398
0.6009358065772504,0,0.769699
0.660420890471963,0,0.950920
0.7264943684325956,0,0.983550
0.7131189937675552,0,0.969619
0.7554431326432453,1,0.998184
0.7461763552094945,1,0.996471
0.8131169710578069,0,0.910904
0.8001732403195391,1,0.998136
0.8655550771198811,1,0.999227
0.7831886251241024,0,0.995298
0.8055164167936055,1,0.998530
0.813287663328532,0,0.992684
0.8214868817147304,1,0.999627
0.814854425779165,1,0.996771
0.7975149837406628,0,0.993998
0.807132831845019,0,0.992451
0.8770437848120896,1,0.998014
0.8273643381121485,0,0.965214
0.8212500829599135,0,0.993010
0.8577551735096104,1,0.998145
0.8286004189519589,1,0.998515
0.8141017605449568,1,0.997048
0.7843430111135872,0,0.986866
0.8016886231191678,0,0.991822
0.7885663683924783,0,0.982007
0.8349566100425644,0,0.995116
0.8560339362555762,0,0.991939
0.8658595196457487,1,0.998761
0.8705104226142705,0,0.976857
0.8423473647528729,0,0.994722
0.8811697841843239,1,0.997870
0.8797358888188223,1,0.998703
0.8435415607257769,1,0.999229
0.8487937380952195,1,0.999208
0.8426921374823161,1,0.998204
0.8274782307069585,0,0.994064
0.7981730784749331,0,0.990538
0.879255817396981,0,0.994788
0.8519925577021311,1,0.996170
0.8789937372781299,1,0.996382
0.8568708852970659,1,0.999072
0.8649905868203237,0,0.986707
0.8452435543370118,1,0.999593
0.8819881316146168,0,0.990159
0.5923472651469741,0,0.857581
0.6199652935575148,1,0.996223
0.7538567341782391,1,0.999608
0.7117313239500133,0,0.974329
0.7481617077868975,1,0.995375
0.7820325556151794,1,0.999196
0.7582009184020457,1,0.996577
0.8313530623089939,1,0.999642
0.8272693805848973,1,0.999189
0.7897469761909055,1,0.997478
0.8137538326551,1,0.998382
0.8202983203741788,1,0.998835
0.7623916476804102,1,0.998808
0.804603717039138,1,0.997099
0.7976147305957927,1,0.996267
0.8393193288917519,0,0.958824
0.7815124130476457,1,0.999266
0.8382570230256762,0,0.965686
0.8483899659179025,1,0.998529
0.8220174699502266,0,0.993883
0.7155390350922742,0,0.594190
0.6973381179990746,0,0.993836
0.8811486618093776,0,0.993984
0.8012346145586222,0,0.984635
0.8171952698888109,1,0.999119
0.8179148267011961,0,0.971249
0.8231933904239132,0,0.980222
0.7754420857555352,0,0.983984
0.7972938976964652,1,0.999223
0.806459403848033,0,0.985778
0.8732067742216824,1,0.999093
0.8548256597894178,0,0.991111
0.7972899782250906,0,0.983095
0.820977778292628,0,0.995029
0.8137659822680952,1,0.997911
0.8295847417635113,1,0.997275
0.821919325117958,0,0.936703
0.8602351012293428,0,0.967970
0.831578069311231,1,0.999501
0.7967590165997952,0,0.991513
0.8587983462054329,0,0.974581
0.80660020733426,0,0.972603
0.8671782054296275,0,0.994832
0.7534471956595932,0,0.994705
0.776029685417026,0,0.994036
0.8496433672612299,1,0.998266
0.839491941992781,1,0.997263
0.886413673953031,0,0.995046
0.6657153889937675,0,0.969669
0.7178855853977064,1,0.996588
0.7209202887880368,0,0.990462
0.7491497863556682,0,0.990242
0.7872293434109562,1,0.997503
0.7588821063320773,0,0.989325
0.833578200893972,0,0.992986
0.8001019395853938,0,0.986602
0.7657194514295577,0,0.903650
0.7914104582137912,1,0.998127
0.8264361499607377,0,0.994553
0.8278862328548556,0,0.977925
0.8519073820845678,1,0.998084
0.7795309222035649,1,0.998993
0.8010221464690485,1,0.999134
0.7624140479598732,0,0.995307
0.8088820364924107,0,0.989962
0.8257468902919888,1,0.998392
0.7970719501523251,1,0.999599
0.8148013757071572,1,0.998679
0.8494818227379163,1,0.997877
0.7883819434192982,1,0.996393
0.8516002135968439,1,0.997563
0.7899226422586627,1,0.999586
0.8427710039816962,0,0.995131
0.7837606080153937,1,0.999126
0.8208863050315586,1,0.999590
0.8627046073840325,1,0.999153
0.8062847125291699,1,0.998791
0.4724196072398433,0,0.763206
0.509326469949194,0,0.967821
0.5672405835854226,0,0.977341
0.5855764580888625,0,0.990117
0.7396775341208484,1,0.998401
0.666229482931216,0,0.980316
0.5426464608383854,0,0.875346
0.5678164052053489,0,0.906977
0.594916660350401,0,0.916256
0.5406021176262137,0,0.928228
0.5801829019130736,1,0.997602
0.47326413807274126,0,0.831964
0.6045678144094224,0,0.944142
0.5811694680721111,0,0.993939
0.4987905605944825,0,0.928305
0.6085168490729035,1,0.999517
0.6119262796404034,0,0.928803
0.6764255191759221,0,0.980551
0.5920084314470572,1,0.999400
0.5448635566115976,0,0.946739
0.6562769511172849,0,0.885728
0.5564387174849917,0,0.993126
0.5127084984842638,0,0.940436
0.5783910149951944,0,0.927140
0.6173736778699431,0,0.962002
0.6847717488160917,0,0.561512
0.5192387343987664,0,0.944640
0.6225366405267935,1,0.996750
0.6682083277384097,1,0.997486
0.8030093339901018,1,0.999467
0.6965846268046201,0,0.938202
0.8120589907578223,1,0.999315
0.7280672774500232,0,0.987581
0.8003893497541397,0,0.953967
0.8317411848122899,0,0.990354
0.8134059536014133,1,0.999290
0.6237768863763309,1,0.999644
0.7347277270148033,0,0.987867
0.6688989731584188,0,0.885135
0.7311831002464353,1,0.997790
0.6702388328381556,0,0.974961
0.731668208782607,0,0.961397
0.6944042533547169,0,0.946298
0.801433701315555,0,0.993878
0.7239562199719627,0,0.989895
0.7086790771373002,0,0.707317
0.7652769984184593,0,0.990672
0.7172881158137072,0,0.991601
0.7263509116653019,1,0.986702
0.7271457050610687,1,0.979210
0.7883586654886994,1,0.998003
0.7328683276454592,0,0.877451
0.7778902517629711,0,0.957611
0.7544233656957713,0,0.990005
0.725820300351136,0,0.910189
0.7346727449532838,0,0.958440
0.7893447502614206,0,0.993682
0.7975868126944577,0,0.993888
0.7013610705701956,0,0.712315
0.743879810535261,0,0.993392
0.728788154447584,1,0.999565
0.7406418496315306,0,0.980116
0.7336858449074488,0,0.981606
0.8182381986448163,1,0.999577
0.7663700268076251,0,0.821839
0.8242156110902646,1,0.995768
0.7234350180864587,1,0.996313
0.7086323725824075,0,0.961143
0.7886502787329734,1,0.999536
0.7778308728965789,0,0.936192
0.7518111597077654,0,0.981569
0.7319056277753041,0,0.981209
0.7771993562404454,1,0.998521
0.7893769592420141,1,0.998876
0.8406725434375497,1,0.997397
0.8089000007408748,0,0.992833
0.6171567514749505,0,0.976945
0.7961127982400666,0,0.925748
0.7286090424903909,0,0.897023
0.6842256230977739,0,0.974834
0.7731014759814372,1,0.998301
0.6531353205900354,1,0.973475
0.7457442222597731,0,0.962821
0.7034300656381239,0,0.976629
0.748087663935915,0,0.992431
0.7864253015403786,0,0.939219
0.659664725012526,0,0.956454
0.7106650354559155,0,0.976351
0.7160792867413142,0,0.963893
0.6509486027715027,0,0.685780
0.7296994880342318,0,0.977520
0.6620508185781887,0,0.953226
0.7845755265092108,1,0.996357
0.7009403334990607,0,0.954253
0.7449482957629627,1,0.997224
0.8233910856174882,0,0.981595
0.7868271627794041,0,0.988722
0.826550625237256,0,0.983516
0.7166780231390903,0,0.894150
0.730804915091338,0,0.847328
0.7574463586517927,1,0.997673
0.7717987723808796,1,0.996723
0.7216375505686522,0,0.944995
0.7144811486403398,0,0.983486
0.7992141236042021,0,0.901235
0.6924527044998904,0,0.980153
0.8535916724584285,0,0.994449
0.8147825888509486,0,0.962002
0.6715867436087198,0,0.959184
0.6470412256190986,0,0.912262
0.695767013012751,1,0.995767
0.7565200960171895,1,0.999583
0.7699036326600573,1,0.996931
0.7560289626248767,0,0.950633
0.7030699769937622,0,0.988563
0.6999143522087621,1,0.996595
0.8706663841030597,0,0.974779
0.7942428142043413,0,0.978482
0.8137160101292682,0,0.931540
0.7697374262098957,1,0.999140
0.7250810936753999,1,0.988024
0.8293888158383009,0,0.956049
0.8446506688295707,1,0.999539
0.7984598856186199,0,0.991214
0.8276023934411003,0,0.956204
0.7793650710860335,1,0.998265
0.8362239165000872,1,0.996491
0.7944294578966538,0,0.965328
0.7472895185535965,1,0.999199
0.7899173778251095,0,0.989930
0.7249571034280208,1,0.998693
0.7035794858699832,1,0.999558
0.8006835893480511,1,0.995993
0.7802936458800711,0,0.979626
0.7418672260467516,0,0.962690
0.7653446432125729,1,0.992834
0.7536285244435442,1,0.996689
0.6897313976973404,1,0.999239
0.6968110130945538,0,0.790816
0.8561548355858084,0,0.974540
0.8090931834878077,0,0.980392
0.8629890864430492,0,0.986530
0.7842211443467219,0,0.991111
0.7780405384382667,0,0.985392
0.7930333397080613,0,0.975845
0.8329973374170422,1,0.997340
0.7273985820724596,0,0.971743
0.7386125421583266,0,0.955481
0.6227086685357964,0,0.888092
0.5762622056374502,1,0.999489
0.56978925572075,0,0.907049
0.5187891471629785,0,0.964245
0.5680994263297415,0,0.723838
0.559997361493426,0,0.953467
0.6566630378835141,0,0.957097
0.6933409045797047,0,0.957996
0.7170178199253217,0,0.985933
0.7480709485778203,1,0.997945
0.7888915287093738,0,0.950166
0.7882150142205818,0,0.992036
0.7416921305304405,1,0.998649
0.7340048049685555,0,0.905443
0.7591563316469332,1,0.998914
0.7531156087045301,1,0.999198
0.7934344794404782,1,0.997433
0.7987136038330894,0,0.946565
0.8247024109488896,0,0.994595
0.8106774304865105,0,0.949327
0.7850296563727317,0,0.995980
0.8136087653502897,1,0.999197
0.7580451901464726,0,0.986328
0.8067852532391724,0,0.921716
0.8440353898338057,0,0.994709
0.8008767407007571,1,0.999133
0.8196257677831443,0,0.994485
0.8629019960084443,0,0.994150
0.8069697968373212,0,0.946832
0.8176579848198315,1,0.998884
0.8440740212321234,0,0.965328
0.8308199453901383,1,0.998985
0.8150059834843888,0,0.987164
0.8297572927159005,1,0.998394
0.8103137672488537,0,0.970060
0.8140368399451953,1,0.999251
0.8684454045815826,1,0.999662
0.8274026426460812,0,0.993223
0.826497687027929,0,0.992578
0.8340702591928154,0,0.970094
0.8502696051846115,1,0.999634
0.7988821817237354,1,0.997438
0.85651029633333,0,0.943652
0.8603573010347088,1,0.997407
0.8494056013058972,1,0.999623
0.7966586219173866,1,0.999140
0.8641716347499131,0,0.988368
0.8282668825614238,0,0.993777
0.8503024030778892,0,0.991182
0.8061653280970892,1,0.999613
0.40156942858676725,0,0.963290
0.6192980618554449,0,0.991513
0.5161604043529133,0,0.992344
0.608910932759632,0,0.949871
0.4828543403576128,0,0.926689
0.4983666007684805,1,0.970260
0.44891324309973635,0,0.928801
0.5228486442987887,0,0.774448
0.5610435822392433,0,0.943662
0.604668349911566,0,0.966877
0.47065582919628024,1,0.995624
0.5505758335892666,0,0.992885
0.6209038451191917,0,0.991534
0.4688246362910348,0,0.988470
0.558925946818451,0,0.945848
0.6010103387272545,0,0.905941
0.5571636720172032,0,0.896023
0.6927470978282888,1,0.998087
0.6951604898540933,0,0.991211
0.7448181602568157,0,0.921146
0.7519110688360147,1,0.996802
0.7009998459553963,0,0.976405
0.6069363342490451,0,0.956667
0.8447225813853041,0,0.933501
0.6150288797248868,0,0.968059
0.6740755498056252,1,0.993411
0.8320444908467803,0,0.976623
0.6893754164405004,1,0.999126
0.7572712353872557,0,0.924848
0.7649017044389348,0,0.940299
0.6684951896087528,0,0.709181
0.8198160063071072,0,0.989672
0.7328529267401394,1,0.998375
0.8298363566597488,0,0.981417
0.8236914582706911,0,0.988113
0.7084841269668802,0,0.961300
0.7341974147885074,0,0.982810
0.8558647569319957,0,0.981533
0.7517355431398706,0,0.977178
0.6649141458012047,1,0.990909
0.6894110269657916,0,0.973134
0.7487872897315268,0,0.930190
0.6265023366328654,1,0.999621
0.6826622590278811,0,0.991568
0.7256413632858895,0,0.983859
0.6599275570436294,1,0.999248
0.6784450229163188,0,0.966654
0.6894200059244301,1,0.998640
0.6748761995778462,1,0.997874
0.7002465837002843,1,0.999625
0.5456052279232433,0,0.808917
0.4620678613850882,0,0.994465
0.6314463959203942,1,0.998759
0.5907524604055249,1,0.991968
0.7834259437897872,0,0.971655
0.7435755201027342,1,0.990960
0.698928415962978,0,0.656983
0.5684390477027846,0,0.961330
0.7434095358799825,0,0.759520
0.7717543312768177,0,0.959454
0.8270797908592772,0,0.979552
0.7712753632435114,0,0.944982
0.7398185912375693,0,0.969852
0.786018058692001,1,0.998195
0.7100693200074834,0,0.915748
0.6633255359479905,0,0.969567
0.5287914852313587,0,0.893016
0.7386314335090752,0,0.904898
0.6741742753585604,1,0.992172
0.6548343712743415,1,0.986867
0.6850008949524002,0,0.952462
0.6640233807078679,0,0.961138
0.7502849069717582,1,0.994987
0.7179022416456715,0,0.932969
0.6825022296148462,0,0.905421
0.7614148173273542,0,0.984894
0.711440586428362,0,0.956818
0.5948763362323336,0,0.875000
0.7635729564051955,0,0.962048
0.6866987715567843,0,0.946050
0.7214485224236441,0,0.956217
0.7819392806696683,0,0.986541
0.5830072952830249,1,0.997857
0.6224005147202718,0,0.927230
0.5624187839901212,0,0.980956
0.7459033417277827,0,0.956441
0.5788267682730279,0,0.931034
0.633638237378787,0,0.898588
0.6498117841876146,0,0.976800
0.722098553940814,0,0.990741
0.7644657567617139,0,0.987038
0.7973129063518927,0,0.985892
0.7744526704144192,1,0.999593
0.748236485683369,0,0.909705
0.7998780040475323,1,0.998069
0.8364746666351344,1,0.998497
0.816931367569733,1,0.998941
0.8339183698704792,0,0.861612
0.831193213152907,1,0.998568
0.7954270460439699,0,0.900652
0.8553574013455125,0,0.991327
0.845091421638326,0,0.988764
0.7446182689879349,0,0.845635
0.8012121443366511,0,0.969400
0.8349873604514154,1,0.996519
0.843520226954956,0,0.993687
0.8781534806063382,0,0.995427
0.8411137555203391,0,0.994213
0.838781253769865,0,0.977113
0.8602390143561283,1,0.999625
0.8744838615523366,0,0.994661
0.8289725093424964,0,0.981805
0.8620386725284921,1,0.998520
0.652209546181446,0,0.808102
0.42505768585056336,0,0.924431
0.7441976765334201,0,0.937325
0.5029695486595974,0,0.985357
0.5205302147914542,0,0.939502
0.5613457781778839,0,0.991506
0.5968073079649069,1,0.981221
0.7042226592129154,1,0.998521
0.6052627346571053,0,0.894569
0.6131088817015642,0,0.977885
0.6565032212377689,1,0.989779
0.7426607169403352,1,0.987903
0.8432854711469022,0,0.975272
0.5861565781759464,1,0.992274
0.5399648583804805,0,0.979140
0.6420325241249812,1,0.997043
0.5624426702260793,1,0.998752
0.5846460514621411,0,0.946975
0.6883031275022274,0,0.980632
0.6713181398956029,0,0.971220
0.7758706990012679,0,0.988235
0.7905966442202167,1,0.999206
0.7624522164155308,0,0.989933
0.72584803956195,0,0.885808
0.7496595469713857,0,0.994525
0.818190426495378,0,0.974596
0.7139597111423747,0,0.947778
0.7339047056588649,0,0.940570
0.6820723946071414,0,0.989984
0.7986420244355247,1,0.999648
0.8465379628147603,1,0.999254
0.733496270156444,0,0.988693
0.7251879271656304,0,0.958698
0.8282352823380712,1,0.997146
0.7790609527071979,0,0.961814
0.8323480911933143,1,0.998243
0.7050761059519324,1,0.998195
0.7501463770798559,1,0.995169
0.8126517165288137,0,0.992500
0.7522416254270216,0,0.972939
0.6570363755031613,0,0.947526
0.7798654971497435,1,0.993808
0.8200933214359148,1,0.997132
0.5293683662406817,0,0.891844
0.7732069382806542,0,0.922261
0.6116669338297271,1,0.999455
0.7038532580843315,0,0.944966
0.782238924659331,1,0.999265
0.7457103773761412,1,0.993534
0.7542205502029103,1,0.997567
0.8391084227454719,0,0.942234
0.7126907177368923,0,0.986498
0.8573671376030634,1,0.996664
0.661260304969386,1,0.998913
0.7575261715595988,0,0.943234
0.6073835522439599,0,0.831125
0.5880894543129576,1,0.999626
0.6337934490770405,1,0.999038
0.6861386126867397,1,0.993031
0.6448327651101831,0,0.940503
0.5976791163341261,0,0.921308
0.6817999251051877,0,0.969286
0.8179879116534193,1,0.996032
0.7954989407155945,0,0.959038
0.7421751217249262,0,0.988220
0.8338364809015781,0,0.984729
0.805540091320115,0,0.961755
0.8464283961699052,0,0.970636
0.8265878186460062,0,0.993726
0.8577301100272376,1,0.998429
0.7569251674815569,0,0.979257
0.6887320158200997,0,0.955676
0.7591768344483208,0,0.990632
0.5728319438528353,0,0.932905
0.8406658130600061,0,0.926154
0.7421168665066196,0,0.973012
0.7418842769205388,1,0.996277
0.8059949636169548,0,0.946942
0.8204770395206984,0,0.977588
0.7067905858602849,0,0.986755
0.8753460920915317,0,0.945776
0.7652273963151234,0,0.940220
0.8064785971711191,0,0.980884
0.6627904604348633,0,0.927632
0.8356687443896499,1,0.998145
0.8858104536860119,0,0.983252
0.772394328492566,0,0.966785
0.8171112967593549,0,0.976271
0.7642643476370786,1,0.999164
0.8295599494369831,0,0.979540
0.846799805837544,0,0.973138
0.768475213760184,0,0.986398
0.7492192249512634,1,0.981308
0.7735825637166628,0,0.990676
0.8087526586781626,0,0.938182
0.8140980558163875,0,0.930807
0.5395291855248703,0,0.958395
0.5435092361041927,0,0.787584
0.44490522327303383,0,0.655208
0.5159370216714361,0,0.939630
0.5196048021787394,0,0.847301
0.4872127196958287,0,0.957633
0.5654237159591985,1,0.999613
0.5967269351867165,0,0.530286
0.47190675522329917,0,0.744110
0.6790278094186409,0,0.973744
0.7279646657520419,1,0.997642
0.6482553990151757,0,0.835331
0.6809460845544653,1,0.999214
0.6570998752646401,1,0.996735
0.6873673710185423,0,0.931264
0.587592040835338,1,0.999117
0.7387085551163726,1,0.993870
0.730715770295668,0,0.927242
0.702289423458331,1,0.999201
0.6979966598559567,0,0.945725
0.7084749398833357,1,0.995551
0.7567340689065158,1,0.998478
0.6684464907599955,1,0.996712
0.7658593811851752,1,0.999143
0.6847393578756169,0,0.935484
0.7183807380592269,0,0.990561
0.7452975172145584,1,0.999201
0.7719709395912131,0,0.986370
0.7368156595791138,0,0.974522
0.7075005445935829,0,0.828642
0.6726030758264873,1,0.998363
0.7429129154854404,1,0.997136
0.6705922374112073,0,0.982322
0.737778366983194,0,0.967066
0.771631546743872,1,0.998476
0.7660794359309195,1,0.994854
0.7024440572213143,0,0.951503
0.6470936039795986,0,0.957239
0.7727392078515067,1,0.999548
0.7378148211458092,0,0.989307
0.82295922466498,1,0.999624
0.6806042692177839,1,0.989909
0.6833749214887891,0,0.927384
0.7333826523587875,0,0.936356
0.685545819039644,0,0.896206
0.7748538641102641,0,0.936709
0.7450060219176557,0,0.979938
0.7372283651386697,0,0.903831
0.7612637300831954,1,0.999641
0.6768544846338483,0,0.920430
0.6115667244678706,0,0.960148
0.8319686566285301,0,0.963722
0.7879917271073635,1,0.992989
0.6513828319544488,0,0.986477
0.7234186400773693,1,0.996581
0.6081899107602134,0,0.962519
0.7080079074857341,0,0.990535
0.5066264613505296,0,0.869403
0.54278946707504,0,0.727772
0.6644729556659505,0,0.962963
0.6837494103220069,0,0.929537
0.7524530667129254,0,0.932099
0.6160808019642688,0,0.979394
0.7110348761426869,1,0.980000
0.689273270719901,0,0.892239
0.7350738892969854,0,0.967658
