0.5420671257807835,0,0.978821
0.564364862749733,0,0.391139
0.43328994327570636,0,0.881057
0.8347757634956973,0,0.994799
0.7949760161867534,0,0.991038
0.9081324875801626,0,0.985057
0.9483865397097749,1,0.999327
0.8975519167104649,1,0.998532
0.8030250216508562,0,0.992400
0.899506191785293,1,0.998337
0.8414960320682534,1,0.997240
0.8668805288177963,1,0.998642
0.8934516618341448,1,0.998163
0.762176557265762,0,0.989362
0.8997824771154612,1,0.999298
0.25390299865462784,0,0.909539
0.16132212596614945,0,0.822998
0.14585038243418103,0,0.991763
0.37165668070653335,0,0.930160
0.23249018351409714,0,0.913293
0.5846814429857808,0,0.982213
0.48530203101532005,0,0.959207
0.5622295616524874,0,0.977383
0.6720807514816158,0,0.976994
0.44424561365589016,0,0.975458
0.6899116040361196,0,0.988336
0.7188891809227209,0,0.986291
0.679129173506436,0,0.989177
0.6735444294153956,0,0.985992
0.6985027242431183,1,0.997945
0.7137274861417716,1,0.996290
0.7034216290502064,1,0.998959
0.7791473155820807,1,0.998620
0.1779969406592342,0,0.752475
0.4378163212169859,0,0.632891
0.6562960197285225,0,0.995363
0.3922072002234281,0,0.924809
0.43424418535698717,1,0.999592
0.46468204558301746,0,0.814505
0.5444893455234681,1,0.999279
0.3144236835407735,0,0.905702
0.7075273448362541,1,0.999433
0.3171480648986023,0,0.826347
0.45500194794265614,0,0.966834
0.7241466537784097,0,0.948783
0.2968662528320878,0,0.887014
0.48622139397837794,0,0.985985
0.5988894956259823,1,0.998601
0.7036613902036171,1,0.999626
0.6494268866223354,1,0.998407
0.7720508928290409,0,0.976271
0.29059139602910294,0,0.878766
0.6550888503856522,0,0.974115
0.4391616008115841,0,0.712401
0.6939499696940947,1,0.995442
0.874923750765757,1,0.996678
0.771871904381268,0,0.979257
0.7653598624029215,0,0.973140
0.7852233636481535,0,0.966326
0.7018826048218224,0,0.993934
0.8252076571248195,1,0.996341
0.7691187374030337,0,0.984629
0.7435566830497788,0,0.974335
0.5860015313307819,0,0.984947
0.7381159967664738,1,0.988235
0.7149863161196616,0,0.908665
0.8271257648667171,0,0.980957
0.8231247377181432,0,0.986612
0.8120268556179202,0,0.950106
0.8754495652711345,1,0.998957
0.8409097705777926,1,0.996009
0.8678281955550744,1,0.996106
0.8729741036362748,1,0.998012
0.8494477906442403,1,0.997428
0.8843632671797723,1,0.999586
0.8049129845685833,1,0.997061
0.8886404537705362,1,0.998021
0.8583480315262164,1,0.999248
0.8313085670765387,1,0.995939
0.8695306611765885,0,0.995877
0.7472607322994388,0,0.977778
0.8397820450478913,1,0.998130
0.7991054439421877,0,0.969793
0.8265566411424395,1,0.995885
0.6573996695174528,1,0.998369
0.7939691577936299,0,0.989844
0.8068723293060573,1,0.991546
0.8394153941610136,0,0.993397
0.7751233367621851,1,0.990794
0.8139380281643366,0,0.979754
0.8405229375191163,0,0.975951
0.718592045056228,0,0.977346
0.8742198732853719,1,0.995946
0.752504086978537,1,0.999558
0.5683135903383201,1,0.998944
0.8636242336301867,1,0.997916
0.5408834691339584,0,0.847843
0.5831304174602364,0,0.958060
0.8469531415577303,1,0.995290
0.8093504102311958,0,0.995370
0.8314826170463895,1,0.999593
0.6843285781972915,0,0.972150
0.8956346421728411,1,0.996855
0.7986215388692033,0,0.980243
0.6813747591275976,0,0.829606
0.6440845503819063,1,0.999544
0.6829274380422529,0,0.947501
0.5380036622382378,0,0.988506
0.7934912240743803,0,0.929730
0.5855075562140073,0,0.895729
0.7360331209774736,0,0.958525
0.8024550486128506,0,0.970291
0.5085869472788528,0,0.909091
0.6389848992273987,0,0.305664
0.5451103356824576,0,0.939039
0.7794610279201145,0,0.993407
0.89988892268963,1,0.997625
0.9266141030984463,1,0.995822
0.9021153352023307,1,0.998792
0.8724513068363957,0,0.960802
0.9259709204637522,0,0.985577
0.8539918471317225,0,0.902878
0.8614573191878582,1,0.999417
0.8413780805791985,1,0.994231
0.8550311129775162,1,0.998511
0.8896926541166988,1,0.996159
0.9472077680659683,1,0.999593
0.6001664707904344,1,0.998922
0.4472720774891882,0,0.892729
0.6954268447706891,1,0.998999
0.6580936665884389,0,0.957330
0.7114235177484917,0,0.537705
0.7210018468773448,1,0.993651
0.7512203750654417,0,0.945919
0.7721945364523177,1,0.994003
0.735679708064439,0,0.917544
0.7957464530364325,0,0.983855
0.8898911237163258,1,0.998894
0.8723458634841985,1,0.999119
0.8668402622010949,1,0.998749
0.815889508314068,0,0.987392
0.8714453873247571,1,0.998263
0.769077711012269,1,0.993294
0.629076519113911,1,0.997586
0.7126459289823643,1,0.997337
0.5897523913290736,1,0.997474
0.7063655987001154,1,0.998280
0.7363961213362319,0,0.964751
0.5814597968232706,0,0.996026
0.4876476403819633,0,0.988860
0.5960498267123198,0,0.978199
0.8318272064329495,0,0.995124
0.8456330773391586,0,0.990981
0.8413065962451421,1,0.998793
0.8503047099656624,0,0.985450
0.8960953728501608,0,0.996101
0.751624882743074,0,0.974775
0.8510417206267307,0,0.992255
0.8772853142071314,1,0.997870
0.8082456317828505,0,0.979725
0.8913924282484444,1,0.998911
0.6524908548435534,0,0.980407
0.5903953446864006,1,0.995687
0.7169887133669642,0,0.934307
0.6069018403298502,1,0.986083
0.8524660800900093,1,0.998748
0.8813426529999322,1,0.999223
0.8960458590322848,1,0.999218
0.7742970542097453,1,0.996218
0.7603364348509825,1,0.999347
0.8620455496252261,1,0.998965
0.8803956498111108,1,0.999343
0.9610321100802695,1,0.999638
0.9315547602068358,1,0.998538
0.8931891822200736,0,0.984755
0.9040600535663118,1,0.999596
0.9483475656246032,1,0.999426
0.8400699401285113,0,0.904290
0.8682815158896691,1,0.998071
0.7462224898472455,0,0.905632
0.9492529776712239,1,0.998971
0.9124715442606164,1,0.999469
0.8056957005144016,1,0.998479
0.8360815482546581,1,0.998316
0.8924380400925556,0,0.993506
0.7144060692874803,0,0.994614
0.9038285687156395,1,0.998988
0.9533953142699876,1,0.997691
0.9689286645678175,1,0.999056
0.8942200115926037,1,0.999349
0.8179608250196326,1,0.997464
0.8521286762992686,1,0.996313
0.8147114931351488,1,0.997949
0.928759983211555,0,0.994326
0.7960704915899719,0,0.995501
0.9175614381105361,1,0.985849
0.933793866363158,1,0.998027
0.9184902550430478,1,0.999672
0.7982206079738022,1,0.999128
0.9449068074120125,1,0.998132
0.8645709272722155,1,0.999625
0.6114998050986051,1,0.997971
0.5733437592520931,0,0.977812
0.6250222369344479,0,0.988007
0.9067217041410929,1,0.998979
0.8842027278490584,1,0.998978
0.8955761159842189,1,0.999075
0.8834614978432859,1,0.995849
0.9268252360332427,1,0.994245
0.903249256722852,1,0.995138
0.8884740606929664,1,0.998054
0.9320435950375731,1,0.998837
0.9760420409872929,1,0.999108
0.9032986307908796,1,0.999558
0.9153050910231254,1,0.994845
0.8650256228742955,1,0.997093
0.9002074573772537,1,0.998905
0.8944867094279307,1,0.998547
0.8936507277536597,0,0.973585
0.9068370030461662,1,0.998054
0.9429247792503351,1,0.996751
0.9220132731458965,0,0.993748
0.96063531301178,1,0.999648
0.7811771220084478,1,0.998937
0.8448876815521423,1,0.995189
0.8956780877897969,1,0.996005
0.8765421545159374,0,0.993158
0.8670550025920386,0,0.981830
0.8107622200743344,0,0.994275
0.8467455933095315,1,0.996936
0.8355301162575443,1,0.991870
0.8046150780576211,0,0.994353
0.7688159018762655,0,0.920781
0.8401247462073186,0,0.982571
0.9614160817107197,1,0.999632
0.9371829489626988,1,0.997442
0.882340402815366,1,0.996602
0.851835788677328,1,0.999323
0.9204658963020796,1,0.996000
0.8913780480089514,1,0.998871
0.8940098409757598,1,0.998674
0.898232071931208,1,0.996166
0.9259990158305145,0,0.991866
0.9162806531766104,1,0.999377
0.9474090562606908,1,0.995779
0.9183085252361883,1,0.997653
0.8761585551057516,1,0.999444
0.9148755434569772,1,0.999634
0.8709138624188713,0,0.971229
0.8978269190765376,1,0.996753
0.9067426279681594,1,0.997981
0.8746374479306639,1,0.997709
0.9129094126608711,0,0.994147
0.9469535228920323,1,0.999273
0.8467552513986876,1,0.996437
0.9000909021793293,1,0.999163
0.9293596627793747,0,0.992687
0.7964511552733493,1,0.990055
0.8720803964937781,1,0.995712
0.9051247187606783,1,0.996365
0.8914271208514001,1,0.999015
0.9178638146291291,0,0.987530
0.8878391887907234,1,0.997442
0.9285380137466356,0,0.962660
0.9485648979196231,1,0.999187
0.9308126685930423,1,0.996443
0.9276691012678969,1,0.997992
0.9607924883624472,1,0.999522
0.9006656814935997,1,0.999062
0.9598370405558929,0,0.995403
0.9624399799080559,0,0.994012
0.7901529496119584,1,0.998129
0.8620729262050529,1,0.997392
0.884299781969423,0,0.988043
0.92868426935909,1,0.998824
0.9250566251294069,0,0.993419
0.8507536512647972,0,0.969057
0.8987583880554634,1,0.994463
0.9086852043195033,0,0.994053
0.8820412539246385,1,0.996447
0.9327404574460364,1,0.999444
0.930656370411085,0,0.994683
0.8849185793491006,0,0.984151
0.8631941436982891,1,0.997871
0.8395502103533733,0,0.991143
0.8813169047547701,1,0.998310
0.861387857477929,1,0.999077
0.8800351349513007,1,0.998955
0.9330131821636222,1,0.997263
0.8815860131828076,1,0.996622
0.8516776250003603,1,0.996384
0.9101843925690715,1,0.998717
0.9204947627243159,0,0.993810
0.911947655413872,0,0.992865
0.9213872350414783,0,0.994263
0.958089941569919,0,0.993222
0.9564142163111896,1,0.997846
0.8944442040189081,1,0.998518
0.903046822756902,1,0.998813
0.8954256080954883,1,0.997035
0.8957252689517788,0,0.992494
0.9201687919047602,1,0.999284
0.9577371600591084,0,0.992533
0.9131395122304957,0,0.990400
0.9194805801400424,1,0.997095
0.8973299702114589,0,0.991310
0.9086158772983423,1,0.995839
0.9448718108685332,1,0.999105
0.8247552412083556,1,0.995904
0.9085140871852732,1,0.999349
0.8694135592370116,1,0.996850
0.903129874333478,1,0.997202
0.9238859648290193,0,0.992996
0.8971527655316911,1,0.998469
0.917608162224781,1,0.998501
0.9272450880210513,1,0.997916
0.9278069570607514,1,0.997192
0.9305010274018366,1,0.998645
0.910437782368647,0,0.993220
0.9147048318403839,1,0.995796
0.9228853536507617,0,0.985574
0.9070648182082477,1,0.998093
0.8993728995549214,1,0.996362
0.887842589694791,1,0.998433
0.8931909554315616,1,0.998191
0.8821711775264728,1,0.996411
0.8987336547995495,1,0.998502
0.916956124790243,1,0.998612
0.8714246852558364,1,0.998236
0.8935097852012516,1,0.999165
0.9171103049314263,1,0.998451
0.9200503032750025,1,0.998392
0.9300745729554971,1,0.998224
0.9139042407218279,1,0.999627
0.8285433400178217,1,0.998054
0.9201050951074057,1,0.998623
0.9020891870611717,1,0.999211
0.8599696550443932,0,0.961538
0.8627830512915902,1,0.999514
0.9313704214612997,0,0.954939
0.8238369792679199,1,0.997088
0.9202350625756798,1,0.999631
0.8982938703803587,1,0.995730
0.9300996762286438,1,0.998503
0.9319469073348614,1,0.996974
0.884629826800701,1,0.996823
0.8447569500175103,1,0.998607
0.9039947557196021,0,0.986318
0.9563392751406407,1,0.998733
0.9221051506658263,1,0.998120
0.9111696569691096,1,0.998862
0.9143169720611167,1,0.996133
0.9236292324622337,1,0.998633
0.9573508115373826,1,0.998468
0.7594805500634771,1,0.997044
0.8635481933311444,0,0.991053
0.8939406459594655,0,0.994589
0.9450255679869165,1,0.998348
0.9349750045829565,1,0.997175
0.9426376669277469,1,0.998639
0.6737088032507939,1,0.989943
0.8755279580683715,1,0.995525
0.8812593960646883,1,0.999115
0.9002756140421466,0,0.994848
0.8204013874203407,1,0.996377
0.8630331335388882,1,0.999548
0.8951709425247469,1,0.999567
0.8309852288455062,1,0.996574
0.8869033057679652,1,0.999199
0.963792750364698,1,0.996633
0.9367539740345086,0,0.986124
0.9021206297205075,1,0.997463
0.906498592684952,1,0.999553
0.9061645883410514,1,0.995977
0.9562578507298939,0,0.982962
0.8835560756155578,0,0.982581
0.9214837438052884,1,0.998638
0.9258844990661236,1,0.998615
0.7523057625427592,0,0.913007
0.8980649111551554,1,0.999580
0.9218369512248032,1,0.998618
0.9094670326113935,0,0.931894
0.8801576248960818,0,0.995148
0.9019791249343543,1,0.995215
0.79396245486716,1,0.997749
0.9365087213934726,0,0.974517
0.8610146699062198,1,0.996657
0.8503277316853789,1,0.998879
0.906779378168061,1,0.996329
0.8585081962762418,0,0.950904
0.8789953689378098,1,0.998498
0.8994512167568411,1,0.998724
0.816393255733004,1,0.994764
0.8514338803920033,1,0.998730
0.8958162379523622,0,0.990928
0.8538780490740632,1,0.996657
0.9246360121968368,1,0.998158
0.9478553034183657,1,0.998606
0.8948090070078837,0,0.856877
0.8530932862564117,1,0.993464
0.9219036227730558,1,0.999257
0.9496073104280932,1,0.998907
0.8527654439630558,1,0.997967
0.9465108383441222,0,0.994702
0.9293028053728729,1,0.999448
0.923174120569256,1,0.998063
