0.9880929225935514,1,0.999986
0.9945852910869836,1,0.999969
0.9925060086189005,1,0.999995
0.9926894629949219,1,0.999996
0.9873872049406334,1,0.999995
0.9098651268761533,1,0.999988
0.9810159078830657,0,0.999603
0.9736560064464922,1,0.999989
0.9527471829312573,0,0.865306
0.9519077163315323,1,0.999988
0.9478975390692511,1,0.999993
0.9607288885118,1,0.999992
0.9607288885118,1,0.999992
0.9609528035572198,1,0.999976
0.9586961119957734,0,0.843921
0.9801186010388172,1,0.999989
0.8979193652605522,1,0.999985
0.9728549454631926,1,0.999996
0.9718484037070335,1,0.999992
0.9714439079534134,1,0.999991
0.9413682115302607,1,0.999991
0.8954780305150353,0,0.958367
0.8896496156097365,0,0.939787
0.9931334751853993,1,0.999996
0.9678817250086895,0,0.420289
0.9346978694484553,1,0.999995
0.8171773332721052,0,0.794112
0.9388539256260473,1,0.999988
0.9605767399108659,1,0.999993
0.9621198577189289,1,0.999985
0.9580561282233369,1,0.999977
0.9562941890244027,1,0.999995
0.9865515037404398,1,0.999986
0.9633433701412663,1,0.999988
0.9784867353190732,1,0.999996
0.9775933712302313,0,0.986463
0.9015635377869649,0,0.873851
0.9084868856910463,0,0.999632
0.9863117776296164,1,0.999992
0.99134176051811,1,0.999992
0.985834664633516,0,0.998808
0.9583733542979918,1,0.999995
0.9619379063167843,0,0.998745
0.962242495045894,0,0.165488
0.9579339643817786,0,0.185033
0.9205213317901991,0,0.772475
0.9199881326577337,1,0.999994
0.7909333834961202,0,0.944931
0.8965739325959934,0,0.999176
0.8996960113889706,0,0.999197
0.9046237368188467,0,0.999477
0.8962538859660305,0,0.999520
0.8929756387277559,0,0.999507
0.88580428068507,0,0.999581
0.8837606283577101,0,0.999602
0.8829722992770994,0,0.999610
0.8789562946869243,0,0.999672
0.8762811057883727,0,0.999767
0.874554222794397,0,0.999925
0.8736122665863634,0,0.999757
0.8898808418057584,1,0.999974
0.9791024641338704,1,0.999994
0.9766881672952947,0,0.999685
0.9768168156336637,1,0.999996
0.9767045631066645,1,0.999996
0.9761659877884875,1,0.999992
0.9759817935557448,1,0.999986
0.9773536094080016,1,0.999985
0.9748012181683451,1,0.999991
0.9655074817472371,1,0.999988
0.9471513760574137,1,0.999996
0.9293446056098086,0,0.971945
0.9705142973618294,1,0.999996
0.97660398874093,1,0.999983
0.9732670513439159,1,0.999989
0.922078505133299,1,0.999992
0.9804625739055305,0,0.957426
0.990786983411619,1,0.999996
0.990786983411619,1,0.999994
0.9864665625250925,1,0.999992
0.9815320712793996,1,0.999994
0.9593104155753172,1,0.999986
0.9556699089012269,1,0.999986
0.9502988674740778,1,0.999992
0.9315805132482844,1,0.999995
0.9237566899586401,1,0.999987
0.8967143436586363,1,0.999995
0.9622635443589368,1,0.999996
0.929105682894608,1,0.999996
0.9076978172773454,1,0.999987
0.9490170541449431,1,0.999992
0.9536007421019038,0,0.999579
0.930689650250344,1,0.999989
0.9499723152182072,1,0.999995
0.940525070339046,1,0.999995
0.9076478677607068,1,0.999993
0.9217654944969655,0,0.999452
0.9180276397227822,0,0.964665
0.9565531821600032,1,0.999968
0.9391695856895024,1,0.999968
0.911991494188365,0,0.999859
0.9113913958650739,1,0.999993
0.9100488889056848,1,0.999993
0.9077055111055373,0,0.999858
0.9048752929683374,1,0.999993
0.902404689799294,0,0.999857
0.900460074791967,0,0.896828
0.9050884173662932,1,0.999992
0.9151124274997527,0,0.906426
0.921980016626745,1,0.999992
0.920337464625672,1,0.999992
0.9178020895394989,0,0.998847
0.7933731171073832,1,0.999994
0.7657504814838951,1,0.999989
0.9646709753505859,1,0.999994
0.9786818806208446,1,0.999735
0.9818625185149226,1,0.999960
0.9793657793914136,1,0.999995
0.9821629663589341,1,0.999992
0.9795325786160981,1,0.999991
0.9795325786160981,1,0.999992
0.9745586104788758,1,0.999988
0.9678087427767506,0,0.999940
0.9678087427767506,1,0.999929
0.9450965308820205,1,0.999996
0.9450965308820205,1,0.999965
0.9450500687102344,0,0.949136
0.9445399966417014,1,0.999991
0.9766148697438581,0,0.934492
0.9130697633007534,1,0.999992
0.9362444663815092,1,0.999925
0.9434565172794729,1,0.999992
0.9763382530702206,1,0.999979
0.976195320820371,1,0.999990
0.9736326505639427,1,0.999989
0.9736326505639427,1,0.999987
0.9600215517782829,1,0.999991
0.94475376831082,1,0.999984
0.9562628336456932,1,0.999996
0.9559628479823644,1,0.999995
