0.9999999999958027,1,0.998198
0.9999999999999999,1,0.998004
1.0,1,0.998450
0.9999999999999981,1,0.998361
1.0,1,0.998099
0.9999999999999988,1,0.998382
1.0,1,0.998088
0.9999999999999982,1,0.998252
1.0,1,0.998397
0.9999999999999991,1,0.998428
1.0,1,0.998400
1.0,1,0.998374
1.0,1,0.998377
0.9999999999999981,1,0.998291
0.9999999999999993,1,0.998270
1.0,1,0.998397
0.9999999999999979,1,0.998282
0.9999999999999997,1,0.998353
1.0,1,0.998464
0.9999999999999999,1,0.998162
1.0,1,0.998246
1.0,1,0.998464
0.9999999999999994,1,0.998353
1.0,1,0.998073
1.0,1,0.998211
0.9999999999999983,1,0.998405
0.9999999999999991,1,0.998198
0.9999999999999996,1,0.998314
1.0,1,0.998258
0.9999999999999997,1,0.998333
1.0,1,0.998377
0.9999999999999993,1,0.998047
1.0,1,0.998113
0.9999999999999977,1,0.998185
1.0,1,0.998382
0.9999999999999982,1,0.998379
1.0,1,0.998214
1.0,1,0.998227
0.9999999999999994,1,0.998384
1.0,1,0.998361
0.9999999999999988,1,0.998418
0.9999999999999987,1,0.998328
1.0,1,0.998296
1.0,1,0.998392
1.0,1,0.997792
1.0,1,0.998333
1.0,1,0.998445
0.9999999999999997,1,0.998452
1.0,1,0.998395
1.0,1,0.998134
0.9999999999999988,1,0.998221
1.0,1,0.998224
0.9999999999999991,1,0.998471
1.0,1,0.998328
0.9999999999999991,1,0.998442
1.0,1,0.998221
0.9999999999999993,1,0.998296
1.0,1,0.998285
1.0,1,0.998366
0.9999999999999994,1,0.997996
0.9999999999999992,1,0.998371
0.9999999999999992,1,0.998395
0.9999999999999979,1,0.998004
0.9999999999999992,1,0.998296
1.0,1,0.998435
0.999999999999999,1,0.998291
1.0,1,0.998361
1.0,1,0.998172
1.0,1,0.998471
0.9999999999999994,1,0.998192
1.0,1,0.998430
0.9999999999999994,1,0.997717
0.9999999999999988,1,0.998440
1.0,1,0.998214
1.0,1,0.997872
1.0,1,0.998445
1.0,1,0.998279
1.0,1,0.998328
1.0,1,0.998291
1.0,1,0.998384
0.9999999999999989,1,0.998377
1.0,1,0.998437
0.9999999999999988,1,0.998418
1.0,1,0.998489
1.0,1,0.998395
0.9999999999999998,1,0.998408
1.0,1,0.998088
1.0,1,0.998134
0.9999999999999996,1,0.998507
1.0,1,0.998392
0.9999999999999989,1,0.998134
0.999999999999999,1,0.998374
0.9999999999999983,1,0.998249
0.9999999999999981,1,0.998221
1.0,1,0.998395
0.9999999999999999,1,0.998403
1.0,1,0.998374
0.9999999999999992,1,0.998471
0.9999999999999987,1,0.998503
0.9999999999999998,1,0.998466
1.0,1,0.998294
0.9999999999999993,1,0.998410
1.0,1,0.998077
0.9999999999999968,1,0.998227
0.9999999999999987,1,0.998264
1.0,1,0.998392
1.0,1,0.998205
0.9999999999999978,1,0.998117
0.9999999999999984,1,0.998440
1.0,1,0.998371
0.9999999999999994,1,0.998418
1.0,1,0.998276
1.0,1,0.998450
0.9999999999999993,1,0.998425
0.9999999999999987,1,0.998395
0.9999999999999994,1,0.998336
0.9999999999999986,1,0.998249
1.0,1,0.998374
1.0,1,0.998233
1.0,1,0.998459
1.0,1,0.998012
0.9999999999999984,1,0.998185
1.0,1,0.998384
1.0,1,0.998390
0.9999999999999999,1,0.998233
1.0,1,0.998201
1.0,1,0.998308
0.9999999999999997,1,0.998395
0.9999999999999998,1,0.998485
1.0,1,0.998483
0.9999999999999994,1,0.998358
0.9999999999999993,1,0.998230
0.9999999999999988,1,0.998512
1.0,1,0.998347
1.0,1,0.998291
0.9999999999999997,1,0.998152
0.9999999999999999,1,0.998532
0.9999999999999989,1,0.998415
0.9999999999999997,1,0.998450
0.9999999999999996,1,0.998088
0.9999999999999983,1,0.998264
1.0,1,0.998400
1.0,1,0.998547
0.9999999999999992,1,0.998182
0.9999999999999996,1,0.998358
1.0,1,0.998452
1.0,1,0.998264
1.0,1,0.998480
1.0,1,0.998382
1.0,1,0.998331
1.0,1,0.998162
0.9999999999999984,1,0.998331
1.0,1,0.998224
0.9999999999999998,1,0.998092
1.0,1,0.998459
0.9999999999999981,1,0.998252
0.999999999999998,1,0.998305
1.0,1,0.998276
0.9999999999999974,1,0.998311
0.9999999999999999,1,0.998440
0.9999999999999986,1,0.998322
0.9999999999999981,1,0.998405
1.0,1,0.998246
0.9999999999999971,1,0.998415
0.999999999999999,1,0.998255
1.0,1,0.998339
1.0,1,0.998221
0.9999999999999999,1,0.998377
0.9999999999999999,1,0.998134
0.9999999999999999,1,0.998264
1.0,1,0.998382
1.0,1,0.998264
1.0,1,0.998322
0.9999999999999991,1,0.998420
0.9999999999999983,1,0.998333
0.9999999999999992,1,0.998440
1.0,1,0.998347
0.9999999999999971,1,0.998258
1.0,1,0.998299
1.0,1,0.998319
1.0,1,0.998192
0.9999999999999997,1,0.998224
0.9999999999999981,1,0.998316
0.9999999999999987,1,0.998276
0.9999999999999998,1,0.998395
1.0,1,0.998413
0.9999999999999971,1,0.998476
1.0,1,0.998314
0.9999999999999994,1,0.998233
0.999999999999997,1,0.998471
1.0,1,0.998418
1.0,1,0.998428
1.0,1,0.998192
1.0,1,0.998462
1.0,1,0.998413
1.0,1,0.998185
1.0,1,0.998507
1.0,1,0.998127
0.9999999999999983,1,0.998542
0.9999999999999992,1,0.997976
1.0,1,0.998366
1.0,1,0.998408
0.9999999999999991,1,0.998342
0.999999999999999,1,0.998322
1.0,1,0.998355
1.0,1,0.998299
0.9999999999999999,1,0.998457
0.9999999999999996,1,0.998366
1.0,1,0.998214
0.9999999999999973,1,0.998492
0.9999999999999996,1,0.998175
0.9999999999999989,1,0.998521
0.9999999999999986,1,0.998311
0.9999999999999994,1,0.998134
0.9999999999999999,1,0.998249
1.0,1,0.998081
1.0,1,0.998371
1.0,1,0.998408
0.9999999999999998,1,0.998440
1.0,1,0.998445
1.0,1,0.998384
1.0,1,0.998392
1.0,1,0.998510
0.9999999999999997,1,0.998224
1.0,1,0.998442
1.0,1,0.998255
0.9999999999999983,1,0.998405
0.9999999999999989,1,0.998447
1.0,1,0.998311
0.9999999999999999,1,0.998249
0.9999999999999981,1,0.998328
1.0,1,0.998408
0.9999999999999993,1,0.998473
1.0,1,0.998410
0.9999999999999997,1,0.998198
1.0,1,0.998437
1.0,1,0.998138
0.9999999999999993,1,0.998258
0.9999999999999983,1,0.998420
1.0,1,0.998331
0.9999999999999996,1,0.998099
0.9999999999999996,1,0.998390
0.9999999999999993,1,0.997930
1.0,1,0.998435
0.9999999999999999,1,0.998282
0.9999999999999991,1,0.998188
0.9999999999999992,1,0.998400
1.0,1,0.998457
0.9999999999999989,1,0.998285
0.9999999999999982,1,0.998430
0.9999999999999996,1,0.998464
1.0,1,0.998205
1.0,1,0.998347
1.0,1,0.998514
1.0,1,0.998384
0.9999999999999994,1,0.998168
1.0,1,0.998102
1.0,1,0.998485
1.0,1,0.998420
1.0,1,0.998344
0.9999999999999984,1,0.998503
0.999999999999999,1,0.998366
0.9999999999999992,1,0.998442
1.0,1,0.998227
1.0,1,0.998462
0.9999999999999998,1,0.998496
1.0,1,0.998131
1.0,1,0.998387
1.0,1,0.998442
0.9999999999999992,1,0.998371
1.0,1,0.998347
1.0,1,0.998267
0.9999999999999989,1,0.998361
0.9999999999999996,1,0.998418
0.9999999999999992,1,0.998489
1.0,1,0.998258
1.0,1,0.998255
1.0,1,0.998047
0.9999999999999996,1,0.998239
1.0,1,0.998374
1.0,1,0.998124
0.9999999999999997,1,0.998347
0.9999999999999994,1,0.998410
0.999999999999999,1,0.998400
1.0,1,0.998322
1.0,1,0.998454
1.0,1,0.998403
0.9999999999999977,1,0.998433
1.0,1,0.998418
0.9999999999999994,1,0.997967
1.0,1,0.998336
1.0,1,0.998382
0.9999999999999987,1,0.998397
0.9999999999999991,1,0.998397
0.9999999999999991,1,0.998127
1.0,1,0.998464
1.0,1,0.998462
1.0,1,0.998392
1.0,1,0.998397
1.0,1,0.998124
1.0,1,0.998410
0.9999999999999999,1,0.998264
0.9999999999999993,1,0.998305
1.0,1,0.998066
0.9999999999999979,1,0.998440
1.0,1,0.998408
1.0,1,0.998521
0.9999999999999992,1,0.998316
1.0,1,0.998459
0.9999999999999961,1,0.998374
0.9999999999999983,1,0.998405
0.9999999999999986,1,0.998369
0.9999999999999996,1,0.998347
1.0,1,0.998433
1.0,1,0.998331
1.0,1,0.998350
0.999999999999999,1,0.998498
1.0,1,0.998336
0.9999999999999987,1,0.998415
0.999999999999999,1,0.998405
1.0,1,0.998279
1.0,1,0.997917
1.0,1,0.998217
0.9999999999999986,1,0.998342
0.9999999999999998,1,0.998397
0.9999999999999994,1,0.998192
0.9999999999999989,1,0.997930
1.0,1,0.998433
0.9999999999999987,1,0.998498
1.0,1,0.998339
0.9999999999999984,1,0.998454
1.0,1,0.998454
1.0,1,0.998355
0.9999999999999988,1,0.998459
1.0,1,0.998382
0.999999999999999,1,0.998308
0.9999999999999997,1,0.998299
0.9999999999999963,1,0.998442
1.0,1,0.998466
0.9999999999999999,1,0.998521
1.0,1,0.998267
0.9999999999999987,1,0.998012
1.0,1,0.998336
1.0,1,0.998369
1.0,1,0.998261
1.0,1,0.998195
0.9999999999999996,1,0.998430
1.0,1,0.998480
0.9999999999999997,1,0.998498
0.9999999999999988,1,0.998549
1.0,1,0.998428
1.0,1,0.998205
0.9999999999999977,1,0.998355
0.9999999999999973,1,0.998095
1.0,1,0.998188
1.0,1,0.998224
1.0,1,0.998418
1.0,1,0.998450
0.9999999999999974,1,0.998088
1.0,1,0.997996
1.0,1,0.998523
1.0,1,0.998551
0.9999999999999988,1,0.998236
0.9999999999999992,1,0.998445
1.0,1,0.998285
1.0,1,0.998221
0.9999999999999994,1,0.998342
0.9999999999999997,1,0.998420
0.9999999999999992,1,0.998077
1.0,1,0.998282
1.0,1,0.998020
1.0,1,0.998198
0.9999999999999972,1,0.997955
0.9999999999999993,1,0.998361
1.0,1,0.998476
0.9999999999999997,1,0.998395
1.0,1,0.998016
0.9999999999999996,1,0.998473
1.0,1,0.998544
1.0,1,0.998425
0.9999999999999988,1,0.998276
1.0,1,0.998165
1.0,1,0.998480
1.0,1,0.998544
0.9999999999999989,1,0.998478
0.9999999999999972,1,0.998366
0.9999999999999959,1,0.998503
0.9999999999999998,1,0.998521
0.9999999999999996,1,0.998435
1.0,1,0.998505
1.0,1,0.998308
0.9999999999999998,1,0.998224
0.9999999999999999,1,0.998519
0.9999999999999991,1,0.998198
1.0,1,0.998221
1.0,1,0.998519
1.0,1,0.998308
1.0,1,0.998084
0.9999999999999997,1,0.998471
1.0,1,0.998291
1.0,1,0.998505
1.0,1,0.998410
1.0,1,0.998182
1.0,1,0.998294
1.0,1,0.998028
0.9999999999999997,1,0.998175
0.9999999999999998,1,0.998450
0.999999999999999,1,0.998113
1.0,1,0.998369
0.9999999999999991,1,0.998403
1.0,1,0.998435
1.0,1,0.998331
0.9999999999999988,1,0.998447
0.9999999999999987,1,0.998408
0.9999999999999989,1,0.998333
1.0,1,0.998188
1.0,1,0.998536
0.9999999999999982,1,0.998374
0.9999999999999996,1,0.998476
0.9999999999999971,1,0.997942
0.9999999999999994,1,0.998440
0.9999999999999982,1,0.998353
1.0,1,0.998158
0.9999999999999982,1,0.998395
0.9999999999999999,1,0.998420
1.0,1,0.998336
1.0,1,0.998425
1.0,1,0.998435
1.0,1,0.998471
1.0,1,0.998224
1.0,1,0.998418
1.0,1,0.998264
1.0,1,0.998384
1.0,1,0.998374
0.9999999999999996,1,0.998387
1.0,1,0.998355
1.0,1,0.998344
1.0,1,0.998294
1.0,1,0.998379
0.9999999999999981,1,0.998454
0.9999999999999999,1,0.998088
0.9999999999999992,1,0.997854
1.0,1,0.998425
0.9999999999999974,1,0.998331
1.0,1,0.998503
1.0,1,0.998423
1.0,1,0.998384
0.9999999999999979,1,0.998366
1.0,1,0.998195
0.9999999999999988,1,0.998476
0.9999999999999994,1,0.998224
0.9999999999999997,1,0.998392
0.9999999999999994,1,0.998480
1.0,1,0.998496
0.9999999999999986,1,0.998510
1.0,1,0.998350
0.9999999999999983,1,0.998276
0.9999999999999979,1,0.998487
0.9999999999999981,1,0.998110
0.9999999999999976,1,0.998296
1.0,1,0.998452
1.0,1,0.998512
1.0,1,0.998363
1.0,1,0.998221
0.9999999999999987,1,0.998397
1.0,1,0.998124
0.9999999999999988,1,0.998314
0.9999999999999997,1,0.998062
0.9999999999999994,1,0.998252
0.999999999999999,1,0.998217
0.9999999999999989,1,0.998172
0.9999999999999997,1,0.998510
0.9999999999999999,1,0.998469
0.9999999999999999,1,0.998261
0.999999999999999,1,0.998165
1.0,1,0.998363
1.0,1,0.998355
0.9999999999999987,1,0.998445
0.9999999999999984,1,0.998279
1.0,1,0.998420
0.9999999999999982,1,0.998342
0.9999999999999992,1,0.998319
0.9999999999999993,1,0.998400
1.0,1,0.998054
0.9999999999999988,1,0.998201
1.0,1,0.998192
1.0,1,0.998377
0.999999999999999,1,0.998214
1.0,1,0.998442
0.9999999999999989,1,0.998447
1.0,1,0.998371
0.9999999999999989,1,0.998221
0.9999999999999993,1,0.998344
1.0,1,0.998208
0.9999999999999994,1,0.998505
0.9999999999999993,1,0.998445
0.9999999999999991,1,0.998311
1.0,1,0.998028
1.0,1,0.998158
0.9999999999999987,1,0.998322
1.0,1,0.998428
1.0,1,0.998363
0.9999999999999988,1,0.998282
1.0,1,0.998485
1.0,1,0.997984
0.9999999999999996,1,0.998258
0.9999999999999998,1,0.998392
1.0,1,0.998282
1.0,1,0.998510
0.9999999999999996,1,0.998418
0.999999999999999,1,0.998514
0.9999999999999994,1,0.998532
1.0,1,0.998534
1.0,1,0.998408
0.9999999999999998,1,0.998489
0.9999999999999993,1,0.998464
0.9999999999999996,1,0.998138
0.9999999999999994,1,0.998374
1.0,1,0.998276
0.9999999999999987,1,0.998363
1.0,1,0.998514
1.0,1,0.998483
0.9999999999999991,1,0.998179
0.9999999999999984,1,0.998442
1.0,1,0.998521
1.0,1,0.998464
1.0,1,0.998473
1.0,1,0.998498
0.999999999999999,1,0.998336
1.0,1,0.998447
1.0,1,0.998353
0.9999999999999994,1,0.997972
1.0,1,0.998507
1.0,1,0.998445
0.9999999999999992,1,0.998471
0.9999999999999983,1,0.998165
0.9999999999999999,1,0.998410
0.9999999999999987,1,0.998408
0.9999999999999994,1,0.998331
0.9999999999999979,1,0.998514
0.999999999999999,1,0.998466
1.0,1,0.998339
0.999999999999999,1,0.998333
0.9999999999999998,1,0.998344
1.0,1,0.998336
0.9999999999999998,1,0.998462
1.0,1,0.998452
1.0,1,0.998501
1.0,1,0.998565
0.999999999999998,1,0.998182
1.0,1,0.998415
0.9999999999999993,1,0.998450
1.0,1,0.998516
0.999999999999999,1,0.998397
0.9999999999999988,1,0.998523
0.9999999999999999,1,0.998413
0.9999999999999989,1,0.998172
0.9999999999999992,1,0.998464
0.9999999999999983,1,0.998322
1.0,1,0.998498
0.9999999999999993,1,0.998333
1.0,1,0.998145
1.0,1,0.998540
1.0,1,0.998261
0.9999999999999992,1,0.998288
1.0,1,0.998258
1.0,1,0.998442
0.9999999999999984,1,0.998371
1.0,1,0.998095
1.0,1,0.998471
0.9999999999999979,1,0.998339
0.9999999999999999,1,0.998353
1.0,1,0.998471
1.0,1,0.998514
0.9999999999999978,1,0.998523
0.9999999999999996,1,0.998279
1.0,1,0.998469
1.0,1,0.998459
1.0,1,0.998425
1.0,1,0.997817
1.0,1,0.998512
0.9999999999999979,1,0.998311
1.0,1,0.998106
0.9999999999999998,1,0.998233
0.9999999999999963,1,0.998507
1.0,1,0.998538
1.0,1,0.998503
0.9999999999999988,1,0.998527
1.0,1,0.998430
1.0,1,0.997792
1.0,1,0.998476
1.0,1,0.997877
1.0,1,0.998466
0.9999999999999993,1,0.998525
0.9999999999999992,1,0.998413
0.9999999999999986,1,0.998361
1.0,1,0.998198
1.0,1,0.998008
1.0,1,0.998117
0.999999999999998,1,0.998430
0.9999999999999998,1,0.998525
1.0,1,0.998423
1.0,1,0.998540
0.9999999999999992,1,0.998138
1.0,1,0.998397
1.0,1,0.997992
0.9999999999999997,1,0.998339
0.9999999999999992,1,0.998016
1.0,1,0.998331
1.0,1,0.998512
1.0,1,0.998062
0.9999999999999992,1,0.998088
1.0,1,0.998445
0.9999999999999976,1,0.998510
1.0,1,0.998102
0.9999999999999997,1,0.998430
0.9999999999999998,1,0.998273
0.9999999999999992,1,0.998501
0.9999999999999966,1,0.998358
0.9999999999999993,1,0.998485
1.0,1,0.998084
0.9999999999999992,1,0.998510
1.0,1,0.998095
0.9999999999999991,1,0.998514
0.9999999999999986,1,0.998503
1.0,1,0.998516
0.9999999999999954,1,0.998387
1.0,1,0.998494
0.9999999999999998,1,0.998433
1.0,1,0.998459
1.0,1,0.998505
0.9999999999999996,1,0.998445
1.0,1,0.998188
1.0,1,0.998540
0.9999999999999999,1,0.998413
0.9999999999999994,1,0.998466
1.0,1,0.998512
0.9999999999999982,1,0.998408
0.9999999999999992,1,0.998233
0.9999999999999996,1,0.998400
1.0,1,0.998084
1.0,1,0.998501
0.9999999999999998,1,0.998230
1.0,1,0.998498
0.9999999999999988,1,0.998175
0.9999999999999996,1,0.998525
0.9999999999999984,1,0.998505
0.9999999999999998,1,0.998428
1.0,1,0.998387
1.0,1,0.998270
0.999999999999997,1,0.998246
1.0,1,0.998428
1.0,1,0.998390
0.9999999999999971,1,0.998496
1.0,1,0.998457
1.0,1,0.998487
0.9999999999999998,1,0.998433
1.0,1,0.998322
1.0,1,0.998336
0.9999999999999994,1,0.998473
1.0,1,0.997930
0.9999999999999996,1,0.998529
1.0,1,0.998420
0.9999999999999987,1,0.998384
1.0,1,0.998501
0.9999999999999991,1,0.998523
1.0,1,0.998267
0.9999999999999984,1,0.998521
1.0,1,0.998469
1.0,1,0.998447
1.0,1,0.998331
0.9999999999999989,1,0.998145
0.9999999999999991,1,0.998450
0.9999999999999994,1,0.998538
1.0,1,0.998473
1.0,1,0.998344
0.9999999999999987,1,0.998418
1.0,1,0.998319
1.0,1,0.998319
1.0,1,0.998496
0.9999999999999998,1,0.998308
0.9999999999999994,1,0.998366
1.0,1,0.998353
0.9999999999999984,1,0.998379
1.0,1,0.998294
0.9999999999999999,1,0.998336
1.0,1,0.998134
0.9999999999999982,1,0.998221
1.0,1,0.998377
0.9999999999999996,1,0.998400
1.0,1,0.998246
0.9999999999999981,1,0.998503
0.9999999999999991,1,0.998489
0.9999999999999979,1,0.998410
0.9999999999999981,1,0.998073
1.0,1,0.998454
0.9999999999999979,1,0.998476
1.0,1,0.998462
0.9999999999999982,1,0.998473
1.0,1,0.998498
0.9999999999999989,1,0.998489
0.9999999999999962,1,0.998205
1.0,1,0.998363
0.9999999999999984,1,0.998457
0.9999999999999994,1,0.998110
0.9999999999999991,1,0.998288
1.0,1,0.998547
0.9999999999999987,1,0.998487
1.0,1,0.998476
0.9999999999999981,1,0.998433
0.999999999999999,1,0.998124
0.9999999999999996,1,0.998208
1.0,1,0.998270
0.9999999999999994,1,0.998415
0.9999999999999997,1,0.998519
1.0,1,0.998489
0.9999999999999974,1,0.998471
1.0,1,0.998473
0.9999999999999991,1,0.998211
1.0,1,0.998480
0.9999999999999983,1,0.998233
1.0,1,0.998054
1.0,1,0.998555
1.0,1,0.998498
1.0,1,0.998521
1.0,1,0.998473
1.0,1,0.998379
1.0,1,0.998521
1.0,1,0.998252
1.0,1,0.998487
1.0,1,0.998347
1.0,1,0.998227
1.0,1,0.998382
1.0,1,0.998205
1.0,1,0.998182
1.0,1,0.998192
0.9999999999999992,1,0.998483
1.0,1,0.998221
0.9999999999999992,1,0.998457
1.0,1,0.998403
1.0,1,0.998519
0.9999999999999987,1,0.998258
0.9999999999999994,1,0.998127
1.0,1,0.998308
1.0,1,0.997831
1.0,1,0.998308
0.9999999999999989,1,0.998532
0.9999999999999988,1,0.998525
0.9999999999999969,1,0.998331
0.9999999999999993,1,0.998459
1.0,1,0.998374
1.0,1,0.998311
1.0,1,0.998536
0.9999999999999988,1,0.998379
1.0,1,0.998168
1.0,1,0.998440
0.9999999999999983,1,0.998296
0.999999999999999,1,0.998505
1.0,1,0.998331
0.9999999999999982,1,0.998514
0.9999999999999989,1,0.998519
1.0,1,0.998420
0.9999999999999974,1,0.998374
0.999999999999998,1,0.997959
1.0,1,0.998299
1.0,1,0.998069
0.999999999999999,1,0.998483
1.0,1,0.998512
0.9999999999999994,1,0.998282
1.0,1,0.998534
0.9999999999999982,1,0.998400
0.9999999999999981,1,0.998542
1.0,1,0.998302
1.0,1,0.998088
1.0,1,0.998492
0.9999999999999989,1,0.998532
1.0,1,0.998483
0.9999999999999998,1,0.998291
1.0,1,0.998369
1.0,1,0.998270
0.9999999999999998,1,0.998390
1.0,1,0.998549
0.9999999999999994,1,0.998420
0.9999999999999971,1,0.998205
0.9999999999999982,1,0.998270
1.0,1,0.998519
0.9999999999999993,1,0.998377
1.0,1,0.998288
0.9999999999999993,1,0.998435
1.0,1,0.998413
0.9999999999999997,1,0.998296
0.9999999999999991,1,0.998471
0.9999999999999959,1,0.998384
0.9999999999999991,1,0.998294
0.9999999999999986,1,0.998264
1.0,1,0.998230
0.9999999999999973,1,0.998512
0.9999999999999994,1,0.998423
0.9999999999999997,1,0.998361
0.9999999999999967,1,0.998355
1.0,1,0.998069
0.999999999999998,1,0.998233
0.999999999999998,1,0.998092
1.0,1,0.998148
0.9999999999999988,1,0.998469
1.0,1,0.998423
0.999999999999999,1,0.998158
1.0,1,0.998447
0.9999999999999997,1,0.998120
1.0,1,0.998255
0.9999999999999987,1,0.998430
0.9999999999999988,1,0.998433
0.9999999999999976,1,0.998447
1.0,1,0.998442
0.9999999999999973,1,0.998527
1.0,1,0.998285
1.0,1,0.998201
0.9999999999999999,1,0.998319
1.0,1,0.998141
1.0,1,0.998236
1.0,1,0.998413
1.0,1,0.998423
1.0,1,0.998182
1.0,1,0.998270
0.999999999999997,1,0.998155
1.0,1,0.998131
0.9999999999999992,1,0.998457
0.9999999999999998,1,0.998255
1.0,1,0.998516
1.0,1,0.998390
0.9999999999999993,1,0.998214
1.0,1,0.998466
1.0,1,0.998505
0.9999999999999983,1,0.998403
1.0,1,0.998536
0.999999999999999,1,0.998344
0.999999999999999,1,0.998138
0.9999999999999973,1,0.998507
1.0,1,0.998252
0.9999999999999951,1,0.998102
0.9999999999999992,1,0.998110
1.0,1,0.998252
1.0,1,0.998276
0.9999999999999991,1,0.998336
1.0,1,0.997835
0.9999999999999997,1,0.998377
0.999999999999998,1,0.998496
1.0,1,0.998496
0.9999999999999994,1,0.998445
0.9999999999999989,1,0.997934
0.9999999999999976,1,0.998205
1.0,1,0.998525
1.0,1,0.998469
0.999999999999999,1,0.998464
0.9999999999999999,1,0.998331
1.0,1,0.998316
1.0,1,0.998377
1.0,1,0.998534
1.0,1,0.998549
0.9999999999999989,1,0.998478
0.9999999999999986,1,0.998395
0.9999999999999991,1,0.998305
1.0,1,0.998217
1.0,1,0.998347
1.0,1,0.998514
1.0,1,0.998469
1.0,1,0.998442
0.9999999999999971,1,0.998498
0.999999999999999,1,0.998519
0.9999999999999973,1,0.998258
0.9999999999999991,1,0.998473
0.9999999999999986,1,0.998452
0.9999999999999993,1,0.998464
1.0,1,0.998510
1.0,1,0.998110
1.0,1,0.998264
1.0,1,0.998395
1.0,1,0.998379
1.0,1,0.998494
0.9999999999999998,1,0.998390
1.0,1,0.998452
0.9999999999999973,1,0.998523
1.0,1,0.998452
1.0,1,0.998503
0.9999999999999977,1,0.998392
0.9999999999999998,1,0.998058
0.9999999999999993,1,0.998377
0.9999999999999993,1,0.998410
0.9999999999999991,1,0.998498
0.9999999999999997,1,0.998347
1.0,1,0.998120
0.9999999999999997,1,0.998487
0.9999999999999976,1,0.998507
0.999999999999999,1,0.998454
0.9999999999999999,1,0.998485
0.9999999999999989,1,0.997877
1.0,1,0.998521
0.999999999999999,1,0.998342
0.9999999999999993,1,0.998305
1.0,1,0.998480
0.9999999999999983,1,0.998494
0.9999999999999968,1,0.998331
1.0,1,0.998534
1.0,1,0.998478
1.0,1,0.998462
1.0,1,0.998227
1.0,1,0.998279
1.0,1,0.998485
0.9999999999999994,1,0.998478
1.0,1,0.998387
0.9999999999999999,1,0.998261
1.0,1,0.998527
1.0,1,0.998294
1.0,1,0.998430
0.9999999999999984,1,0.998573
0.9999999999999993,1,0.998433
1.0,1,0.998249
1.0,1,0.998347
0.9999999999999999,1,0.998540
0.9999999999999994,1,0.998120
0.9999999999999983,1,0.998514
0.9999999999999997,1,0.998437
0.9999999999999999,1,0.998387
1.0,1,0.998450
0.9999999999999982,1,0.998233
0.9999999999999982,1,0.998387
0.9999999999999971,1,0.998473
0.9999999999999997,1,0.998485
1.0,1,0.998319
1.0,1,0.998452
1.0,1,0.998527
1.0,1,0.998454
1.0,1,0.998507
0.9999999999999978,1,0.998489
1.0,1,0.998363
0.9999999999999991,1,0.998516
0.9999999999999973,1,0.998198
1.0,1,0.998141
1.0,1,0.998428
0.9999999999999991,1,0.998106
1.0,1,0.998152
1.0,1,0.998498
1.0,1,0.998532
1.0,1,0.998387
0.9999999999999988,1,0.998462
0.9999999999999989,1,0.998092
1.0,1,0.998264
1.0,1,0.998198
0.9999999999999996,1,0.998435
0.9999999999999998,1,0.998182
1.0,1,0.998413
0.9999999999999991,1,0.998328
1.0,1,0.998542
1.0,1,0.998423
1.0,1,0.998512
1.0,1,0.998188
0.9999999999999992,1,0.998031
1.0,1,0.998384
1.0,1,0.998505
0.9999999999999986,1,0.998462
0.9999999999999974,1,0.998489
0.9999999999999992,1,0.998553
1.0,1,0.998469
1.0,1,0.998471
0.9999999999999992,1,0.998440
1.0,1,0.998308
0.9999999999999994,1,0.998405
1.0,1,0.998473
1.0,1,0.997951
0.9999999999999991,1,0.998382
0.9999999999999997,1,0.998361
0.999999999999999,1,0.998505
1.0,1,0.998457
0.9999999999999998,1,0.998496
1.0,1,0.998498
1.0,1,0.998035
1.0,1,0.998382
1.0,1,0.998047
0.9999999999999964,1,0.998047
0.9999999999999987,1,0.998442
1.0,1,0.998423
0.9999999999999998,1,0.998469
1.0,1,0.998325
1.0,1,0.998510
0.9999999999999971,1,0.998430
1.0,1,0.998471
1.0,1,0.998457
1.0,1,0.998369
1.0,1,0.998282
1.0,1,0.998469
1.0,1,0.998420
1.0,1,0.998413
1.0,1,0.998322
1.0,1,0.998423
1.0,1,0.998487
0.9999999999999987,1,0.998285
0.9999999999999989,1,0.998328
0.9999999999999988,1,0.998217
1.0,1,0.998496
1.0,1,0.998221
0.9999999999999973,1,0.998433
0.9999999999999992,1,0.998134
1.0,1,0.998350
0.9999999999999954,1,0.998413
0.9999999999999998,1,0.998264
1.0,1,0.998255
0.9999999999999994,1,0.997972
1.0,1,0.998547
0.9999999999999986,1,0.997773
1.0,1,0.998538
1.0,1,0.998339
1.0,1,0.998547
1.0,1,0.998485
0.9999999999999993,1,0.998540
1.0,1,0.998514
0.9999999999999994,1,0.998397
0.9999999999999977,1,0.998516
0.9999999999999962,1,0.998227
0.9999999999999986,1,0.998507
1.0,1,0.998208
0.9999999999999993,1,0.998469
0.999999999999997,1,0.998483
1.0,1,0.998403
0.9999999999999996,1,0.998527
1.0,1,0.998415
1.0,1,0.998485
0.9999999999999991,1,0.998387
0.9999999999999994,1,0.998445
0.9999999999999977,1,0.998529
0.9999999999999988,1,0.998440
0.9999999999999997,1,0.998051
1.0,1,0.998476
1.0,1,0.998494
0.9999999999999996,1,0.998369
0.9999999999999977,1,0.998494
1.0,1,0.998476
1.0,1,0.998478
0.9999999999999994,1,0.998459
1.0,1,0.998536
1.0,1,0.998527
0.999999999999999,1,0.998447
1.0,1,0.998471
0.9999999999999968,1,0.998428
0.9999999999999987,1,0.998457
0.9999999999999988,1,0.998485
0.9999999999999991,1,0.997863
0.9999999999999992,1,0.998457
1.0,1,0.998400
1.0,1,0.998233
1.0,1,0.998519
1.0,1,0.998390
1.0,1,0.998452
0.9999999999999988,1,0.998505
1.0,1,0.998478
0.9999999999999996,1,0.998390
0.9999999999999994,1,0.998473
0.9999999999999994,1,0.998291
0.9999999999999992,1,0.998382
1.0,1,0.998523
0.9999999999999996,1,0.998316
0.9999999999999998,1,0.997821
0.9999999999999991,1,0.998267
0.9999999999999983,1,0.998501
1.0,1,0.998507
1.0,1,0.998462
0.9999999999999993,1,0.998420
1.0,1,0.998339
1.0,1,0.998267
0.9999999999999979,1,0.998527
1.0,1,0.998505
1.0,1,0.998516
1.0,1,0.998185
1.0,1,0.998425
0.9999999999999998,1,0.998239
0.9999999999999967,1,0.998205
1.0,1,0.998489
0.9999999999999994,1,0.998457
1.0,1,0.998445
0.9999999999999989,1,0.998397
0.9999999999999982,1,0.998501
1.0,1,0.998198
0.9999999999999989,1,0.998395
1.0,1,0.998464
1.0,1,0.998377
0.9999999999999978,1,0.998534
0.9999999999999997,1,0.998473
0.9999999999999994,1,0.998405
1.0,1,0.998418
1.0,1,0.998489
1.0,1,0.998355
1.0,1,0.997938
1.0,1,0.998457
1.0,1,0.998400
1.0,1,0.998519
1.0,1,0.998512
0.9999999999999994,1,0.998437
1.0,1,0.998387
0.9999999999999982,1,0.998418
0.9999999999999994,1,0.998510
0.9999999999999996,1,0.998540
0.9999999999999999,1,0.998534
1.0,1,0.998152
1.0,1,0.998523
1.0,1,0.998471
1.0,1,0.998473
0.9999999999999986,1,0.998211
0.9999999999999997,1,0.998512
1.0,1,0.998466
1.0,1,0.998447
1.0,1,0.998462
1.0,1,0.998353
1.0,1,0.998523
1.0,1,0.998185
1.0,1,0.998420
1.0,1,0.998413
1.0,1,0.998291
0.9999999999999993,1,0.998498
0.9999999999999989,1,0.998459
0.9999999999999993,1,0.998039
1.0,1,0.998483
0.9999999999999998,1,0.998172
0.9999999999999973,1,0.998371
1.0,1,0.998501
1.0,1,0.998282
0.9999999999999992,1,0.998452
1.0,1,0.998454
0.9999999999999997,1,0.998279
0.9999999999999993,1,0.998547
1.0,1,0.998214
1.0,1,0.998361
0.9999999999999981,1,0.998423
1.0,1,0.998211
1.0,1,0.998395
0.9999999999999986,1,0.998505
0.9999999999999997,1,0.998473
0.9999999999999991,1,0.998485
0.9999999999999964,1,0.997984
1.0,1,0.998358
1.0,1,0.998440
0.9999999999999997,1,0.998442
0.9999999999999978,1,0.998523
1.0,1,0.998496
1.0,1,0.998155
1.0,1,0.998333
0.9999999999999983,1,0.998494
1.0,1,0.998547
0.9999999999999983,1,0.998392
1.0,1,0.998496
1.0,1,0.998134
1.0,1,0.998538
1.0,1,0.997778
0.9999999999999994,1,0.998418
1.0,1,0.998342
0.999999999999999,1,0.998377
0.9999999999999987,1,0.998464
1.0,1,0.998437
1.0,1,0.998403
0.9999999999999991,1,0.998487
1.0,1,0.998525
1.0,1,0.998496
0.9999999999999999,1,0.998188
1.0,1,0.998476
0.9999999999999993,1,0.998270
1.0,1,0.998342
0.9999999999999988,1,0.998505
0.9999999999999984,1,0.998273
1.0,1,0.998466
1.0,1,0.998408
0.9999999999999977,1,0.998347
0.9999999999999998,1,0.998442
1.0,1,0.998478
1.0,1,0.998473
1.0,1,0.998395
1.0,1,0.998051
1.0,1,0.998270
0.9999999999999993,1,0.998347
0.9999999999999989,1,0.998501
0.9999999999999993,1,0.998243
0.9999999999999991,1,0.998487
0.9999999999999986,1,0.998487
0.9999999999999993,1,0.998483
0.9999999999999996,1,0.998492
0.9999999999999986,1,0.998480
0.9999999999999996,1,0.998418
0.9999999999999987,1,0.998012
1.0,1,0.998158
1.0,1,0.998291
0.9999999999999998,1,0.998392
1.0,1,0.998529
0.9999999999999993,1,0.998487
1.0,1,0.998400
0.9999999999999991,1,0.998512
1.0,1,0.998469
1.0,1,0.998527
0.9999999999999972,1,0.998473
1.0,1,0.998464
0.9999999999999986,1,0.998328
0.9999999999999999,1,0.998374
0.9999999999999992,1,0.998442
1.0,1,0.998501
0.9999999999999979,1,0.998478
0.999999999999999,1,0.998296
1.0,1,0.998457
1.0,1,0.998408
0.9999999999999998,1,0.998285
1.0,1,0.998408
0.9999999999999994,1,0.998233
0.9999999999999991,1,0.998525
1.0,1,0.998430
0.9999999999999983,1,0.998483
1.0,1,0.998120
0.9999999999999989,1,0.998476
1.0,1,0.998201
1.0,1,0.998369
1.0,1,0.998498
1.0,1,0.998450
1.0,1,0.998379
0.9999999999999968,1,0.997976
1.0,1,0.998145
1.0,1,0.998496
1.0,1,0.998102
0.9999999999999988,1,0.998473
0.9999999999999963,1,0.998358
1.0,1,0.998510
1.0,1,0.998480
1.0,1,0.998331
0.999999999999999,1,0.998282
1.0,1,0.998519
1.0,1,0.998494
0.9999999999999986,1,0.998525
0.999999999999998,1,0.998379
0.9999999999999999,1,0.998519
0.9999999999999997,1,0.998512
1.0,1,0.998165
0.999999999999999,1,0.998492
0.9999999999999981,1,0.998503
1.0,1,0.998377
1.0,1,0.998459
1.0,1,0.998516
1.0,1,0.997992
0.9999999999999978,1,0.998267
1.0,1,0.997748
1.0,1,0.998459
1.0,1,0.998230
1.0,1,0.998377
0.9999999999999987,1,0.998374
0.9999999999999999,1,0.998457
0.9999999999999988,1,0.998270
0.9999999999999983,1,0.998430
0.9999999999999991,1,0.998316
1.0,1,0.998553
1.0,1,0.998058
1.0,1,0.998035
1.0,1,0.998418
1.0,1,0.998110
1.0,1,0.998397
0.9999999999999996,1,0.998328
0.9999999999999983,1,0.998331
0.9999999999999987,1,0.998440
0.9999999999999984,1,0.997877
1.0,1,0.998239
0.9999999999999993,1,0.998529
1.0,1,0.998501
1.0,1,0.998155
0.9999999999999993,1,0.998198
0.9999999999999982,1,0.998507
0.9999999999999997,1,0.998498
1.0,1,0.998498
1.0,1,0.998155
0.9999999999999974,1,0.997890
1.0,1,0.998294
0.9999999999999987,1,0.998208
1.0,1,0.998408
0.9999999999999979,1,0.998188
1.0,1,0.998450
0.9999999999999993,1,0.998542
0.9999999999999996,1,0.998148
0.9999999999999977,1,0.998369
1.0,1,0.998523
0.9999999999999971,1,0.998062
1.0,1,0.998459
1.0,1,0.998476
1.0,1,0.998291
0.9999999999999984,1,0.998452
0.9999999999999996,1,0.998462
1.0,1,0.998480
0.9999999999999974,1,0.998299
1.0,1,0.998476
0.9999999999999992,1,0.997743
1.0,1,0.998397
0.9999999999999994,1,0.997619
0.9999999999999979,1,0.998503
0.9999999999999983,1,0.998503
1.0,1,0.998425
1.0,1,0.998358
0.9999999999999977,1,0.998418
1.0,1,0.998459
1.0,1,0.998214
1.0,1,0.998507
1.0,1,0.998408
0.9999999999999987,1,0.998519
1.0,1,0.998418
0.9999999999999999,1,0.998387
1.0,1,0.998258
0.9999999999999991,1,0.998478
0.9999999999999993,1,0.998478
0.9999999999999987,1,0.998454
0.9999999999999987,1,0.998420
1.0,1,0.998039
0.9999999999999987,1,0.998466
0.9999999999999994,1,0.998400
0.9999999999999986,1,0.998476
0.9999999999999978,1,0.998302
1.0,1,0.998487
0.9999999999999993,1,0.998395
0.9999999999999999,1,0.998473
0.9999999999999988,1,0.998423
0.9999999999999992,1,0.998379
0.9999999999999979,1,0.998454
0.9999999999999996,1,0.998478
0.9999999999999992,1,0.998459
0.9999999999999989,1,0.998503
1.0,1,0.998442
1.0,1,0.998489
0.9999999999999977,1,0.998195
1.0,1,0.998403
1.0,1,0.998454
0.9999999999999979,1,0.998507
0.9999999999999974,1,0.998397
0.9999999999999997,1,0.998492
1.0,1,0.998325
0.9999999999999998,1,0.998425
0.9999999999999992,1,0.998503
0.9999999999999973,1,0.998435
1.0,1,0.998358
0.9999999999999989,1,0.998464
1.0,1,0.998322
1.0,1,0.998496
0.9999999999999991,1,0.998536
1.0,1,0.998489
1.0,1,0.998205
1.0,1,0.998503
0.9999999999999994,1,0.998249
1.0,1,0.998420
0.9999999999999996,1,0.998168
0.9999999999999992,1,0.998113
1.0,1,0.998179
1.0,1,0.998224
0.9999999999999987,1,0.998371
0.9999999999999986,1,0.998408
1.0,1,0.998413
0.9999999999999996,1,0.998273
0.9999999999999981,1,0.998249
1.0,1,0.998294
1.0,1,0.998095
1.0,1,0.998387
1.0,1,0.998538
0.9999999999999977,1,0.998445
1.0,1,0.998270
0.9999999999999993,1,0.998400
0.9999999999999997,1,0.998316
0.9999999999999992,1,0.998507
1.0,1,0.998390
1.0,1,0.998435
0.999999999999999,1,0.998457
0.9999999999999982,1,0.998428
1.0,1,0.998325
0.9999999999999987,1,0.998316
0.9999999999999997,1,0.998302
1.0,1,0.997895
0.9999999999999984,1,0.998433
1.0,1,0.998525
1.0,1,0.998478
0.999999999999998,1,0.998331
1.0,1,0.998503
1.0,1,0.997872
1.0,1,0.998355
1.0,1,0.998476
1.0,1,0.998382
1.0,1,0.998496
0.9999999999999984,1,0.998516
0.9999999999999993,1,0.998239
1.0,1,0.998099
1.0,1,0.998384
0.9999999999999974,1,0.998498
0.999999999999998,1,0.998299
1.0,1,0.998390
1.0,1,0.998205
1.0,1,0.998377
1.0,1,0.998512
1.0,1,0.998081
0.9999999999999999,1,0.998319
1.0,1,0.998485
0.9999999999999993,1,0.998361
1.0,1,0.998299
1.0,1,0.998113
1.0,1,0.998469
0.9999999999999982,1,0.998454
1.0,1,0.998489
0.9999999999999991,1,0.998384
1.0,1,0.998358
1.0,1,0.998492
0.9999999999999992,1,0.998208
0.9999999999999981,1,0.998507
1.0,1,0.998188
1.0,1,0.998282
1.0,1,0.998457
1.0,1,0.998024
1.0,1,0.998405
0.9999999999999981,1,0.998459
0.9999999999999998,1,0.998179
1.0,1,0.998503
1.0,1,0.998141
0.9999999999999989,1,0.997976
1.0,1,0.998454
1.0,1,0.998291
0.9999999999999994,1,0.998395
0.9999999999999988,1,0.998276
0.9999999999999996,1,0.998410
1.0,1,0.998496
0.9999999999999984,1,0.998476
0.9999999999999998,1,0.998333
1.0,1,0.998350
1.0,1,0.998273
1.0,1,0.998296
0.9999999999999991,1,0.998339
0.9999999999999994,1,0.998538
0.9999999999999993,1,0.998498
0.9999999999999997,1,0.998435
0.9999999999999993,1,0.998523
0.9999999999999992,1,0.998179
0.9999999999999988,1,0.998415
1.0,1,0.998413
0.9999999999999989,1,0.998261
1.0,1,0.998423
1.0,1,0.998110
0.9999999999999986,1,0.998217
1.0,1,0.998350
0.9999999999999987,1,0.998512
1.0,1,0.998413
0.9999999999999992,1,0.998062
1.0,1,0.998408
0.9999999999999998,1,0.998054
1.0,1,0.998294
1.0,1,0.998478
1.0,1,0.998423
1.0,1,0.998505
0.9999999999999992,1,0.998462
0.9999999999999992,1,0.998106
1.0,1,0.998544
0.9999999999999983,1,0.998476
0.9999999999999977,1,0.998000
0.9999999999999988,1,0.998452
1.0,1,0.998058
1.0,1,0.998000
1.0,1,0.998471
1.0,1,0.998377
1.0,1,0.998158
1.0,1,0.998397
0.9999999999999999,1,0.998165
1.0,1,0.998551
1.0,1,0.998538
1.0,1,0.998483
1.0,1,0.998452
1.0,1,0.998314
0.9999999999999977,1,0.998521
0.9999999999999979,1,0.998165
1.0,1,0.998246
0.9999999999999989,1,0.998425
1.0,1,0.998302
1.0,1,0.998507
0.9999999999999992,1,0.998246
1.0,1,0.998255
0.9999999999999987,1,0.998498
1.0,1,0.998459
1.0,1,0.998363
1.0,1,0.998454
1.0,1,0.998501
0.9999999999999994,1,0.998113
1.0,1,0.998435
0.9999999999999976,1,0.998336
0.9999999999999969,1,0.998224
0.9999999999999996,1,0.998466
1.0,1,0.998516
0.9999999999999998,1,0.998538
1.0,1,0.998547
1.0,1,0.998521
0.9999999999999997,1,0.998397
1.0,1,0.998527
0.999999999999999,1,0.998400
0.9999999999999963,1,0.998291
0.9999999999999987,1,0.998487
0.9999999999999998,1,0.998462
1.0,1,0.998466
1.0,1,0.998471
0.9999999999999997,1,0.998069
1.0,1,0.998322
0.9999999999999994,1,0.998505
0.9999999999999986,1,0.998355
1.0,1,0.998521
1.0,1,0.998172
1.0,1,0.998035
0.9999999999999981,1,0.998428
1.0,1,0.998302
1.0,1,0.998536
1.0,1,0.998480
1.0,1,0.998413
0.9999999999999981,1,0.998043
0.9999999999999993,1,0.998498
0.9999999999999999,1,0.998221
0.9999999999999971,1,0.998328
1.0,1,0.998494
0.9999999999999996,1,0.998464
1.0,1,0.998503
1.0,1,0.997959
1.0,1,0.998480
1.0,1,0.998408
1.0,1,0.998322
1.0,1,0.998016
1.0,1,0.998221
0.9999999999999979,1,0.998492
1.0,1,0.998392
0.9999999999999979,1,0.998408
0.9999999999999982,1,0.998514
1.0,1,0.998305
1.0,1,0.998333
0.9999999999999996,1,0.998428
1.0,1,0.998230
0.9999999999999984,1,0.998308
0.9999999999999971,1,0.998503
1.0,1,0.998302
0.9999999999999989,1,0.998211
0.9999999999999982,1,0.998397
0.9999999999999999,1,0.998051
1.0,1,0.998308
0.9999999999999996,1,0.998516
1.0,1,0.998480
1.0,1,0.998514
0.9999999999999998,1,0.998403
0.999999999999998,1,0.998514
0.9999999999999999,1,0.998403
1.0,1,0.998387
0.9999999999999986,1,0.998165
0.9999999999999993,1,0.998485
0.9999999999999972,1,0.998540
1.0,1,0.998141
0.9999999999999999,1,0.998374
1.0,1,0.998459
1.0,1,0.998498
1.0,1,0.998162
0.9999999999999993,1,0.998536
1.0,1,0.998425
1.0,1,0.998162
1.0,1,0.998494
0.9999999999999982,1,0.998445
0.9999999999999998,1,0.998496
0.9999999999999978,1,0.998400
0.9999999999999997,1,0.998516
1.0,1,0.998162
0.9999999999999976,1,0.998532
0.9999999999999984,1,0.998442
0.9999999999999981,1,0.998480
0.9999999999999993,1,0.998162
0.9999999999999989,1,0.998124
1.0,1,0.998447
1.0,1,0.998134
1.0,1,0.998542
0.9999999999999984,1,0.998296
0.9999999999999994,1,0.998464
1.0,1,0.998358
1.0,1,0.998527
1.0,1,0.998464
0.9999999999999976,1,0.998514
0.9999999999999986,1,0.998464
1.0,1,0.998536
0.9999999999999996,1,0.998390
1.0,1,0.998201
0.9999999999999997,1,0.998501
0.9999999999999987,1,0.998437
1.0,1,0.998473
0.9999999999999988,1,0.998084
1.0,1,0.998054
1.0,1,0.998489
0.9999999999999988,1,0.998221
0.9999999999999988,1,0.998538
0.9999999999999991,1,0.998523
0.9999999999999986,1,0.998361
0.9999999999999988,1,0.998466
1.0,1,0.998523
1.0,1,0.998192
1.0,1,0.998016
0.9999999999999979,1,0.998430
0.9999999999999988,1,0.998507
1.0,1,0.998492
0.999999999999995,1,0.998559
0.9999999999999976,1,0.998503
1.0,1,0.998532
0.9999999999999996,1,0.998205
1.0,1,0.998516
1.0,1,0.998521
0.9999999999999992,1,0.998466
0.9999999999999999,1,0.998127
1.0,1,0.998542
1.0,1,0.998466
1.0,1,0.998211
0.999999999999999,1,0.998296
0.9999999999999986,1,0.998092
1.0,1,0.998462
0.9999999999999989,1,0.998480
0.9999999999999993,1,0.998494
1.0,1,0.998339
0.9999999999999992,1,0.998267
1.0,1,0.998534
0.9999999999999988,1,0.998525
1.0,1,0.998319
1.0,1,0.998403
1.0,1,0.998454
1.0,1,0.998505
0.9999999999999986,1,0.998510
0.9999999999999993,1,0.998452
1.0,1,0.998505
0.9999999999999987,1,0.998428
1.0,1,0.998246
1.0,1,0.998503
0.9999999999999993,1,0.998258
0.9999999999999986,1,0.998319
1.0,1,0.998478
1.0,1,0.998469
1.0,1,0.998498
1.0,1,0.998487
0.9999999999999991,1,0.998536
0.9999999999999991,1,0.998350
0.9999999999999992,1,0.998480
0.9999999999999972,1,0.998454
1.0,1,0.998081
1.0,1,0.998592
0.9999999999999984,1,0.998489
0.9999999999999993,1,0.998483
1.0,1,0.998485
1.0,1,0.998501
0.9999999999999994,1,0.998494
0.9999999999999986,1,0.998358
1.0,1,0.998205
1.0,1,0.998483
0.999999999999998,1,0.998081
0.9999999999999996,1,0.998415
0.9999999999999984,1,0.998445
0.9999999999999996,1,0.998480
1.0,1,0.998252
0.9999999999999986,1,0.998459
0.9999999999999989,1,0.998492
0.9999999999999997,1,0.998413
1.0,1,0.998527
1.0,1,0.998507
1.0,1,0.998195
1.0,1,0.998521
1.0,1,0.998205
1.0,1,0.998195
0.9999999999999998,1,0.998246
0.9999999999999999,1,0.998377
1.0,1,0.998457
0.9999999999999992,1,0.998523
1.0,1,0.998553
1.0,1,0.998117
0.999999999999999,1,0.998527
0.9999999999999996,1,0.998267
0.9999999999999994,1,0.998519
1.0,1,0.998099
1.0,1,0.998230
1.0,1,0.998544
1.0,1,0.998162
1.0,1,0.998505
1.0,1,0.998516
0.999999999999997,1,0.998551
0.9999999999999994,1,0.998299
0.999999999999999,1,0.998308
0.9999999999999982,1,0.998514
0.9999999999999998,1,0.998487
1.0,1,0.998127
0.9999999999999999,1,0.998532
1.0,1,0.998285
0.9999999999999989,1,0.998255
0.9999999999999983,1,0.998413
0.9999999999999986,1,0.998405
1.0,1,0.998544
1.0,1,0.998536
0.9999999999999987,1,0.998510
0.9999999999999998,1,0.998551
1.0,1,0.998413
1.0,1,0.998230
1.0,1,0.998246
0.9999999999999999,1,0.998447
0.9999999999999971,1,0.998058
1.0,1,0.998054
0.9999999999999997,1,0.998358
0.9999999999999993,1,0.997976
1.0,1,0.998410
1.0,1,0.998514
0.9999999999999986,1,0.998555
0.9999999999999998,1,0.998437
1.0,1,0.998423
0.9999999999999996,1,0.998000
1.0,1,0.998400
0.9999999999999993,1,0.998454
1.0,1,0.998492
1.0,1,0.998418
1.0,1,0.998454
1.0,1,0.998507
1.0,1,0.998384
1.0,1,0.998400
1.0,1,0.998469
1.0,1,0.998496
0.9999999999999999,1,0.998485
