0.9143925030852463,0,0.972628
0.9231269990037008,1,0.998182
0.9246312390897273,1,0.998020
0.9191818746540568,0,0.919065
0.92252083539529,1,0.998261
0.9113770209763884,1,0.998325
0.9147468072924902,1,0.995842
0.9090734764330778,1,0.996205
0.9312404603052788,1,0.998267
0.9318345840246126,1,0.991749
0.9255641197878939,1,0.998131
0.9448306317663226,1,0.998425
0.9486560118802158,1,0.997001
0.9373980809863193,1,0.995893
0.9240900821747738,1,0.994434
0.931124855856981,1,0.998316
0.9418661345663231,1,0.996269
0.933908761313205,1,0.998106
0.9162373738539564,1,0.998221
0.9432251788773931,1,0.998322
0.9139632628019267,1,0.996101
0.911922308488817,1,0.998342
0.9196275889758385,1,0.994718
0.9518938696499899,1,0.998227
0.9479275167227053,1,0.998084
0.9506274527116068,1,0.998494
0.9342797965096528,1,0.991597
0.9187101609717023,1,0.996644
0.8976659370429955,1,0.998425
0.9272342080417411,1,0.987118
0.9588210668286202,1,0.998270
0.9505308465631898,0,0.980273
0.9206452798140584,1,0.998363
0.9221254595284278,1,0.998314
0.8371478281599849,1,0.998236
0.9077676017448518,1,0.985455
0.9114953858603997,1,0.985740
0.9022092624553305,1,0.998457
0.9072736859217722,1,0.996390
0.9071663232529449,1,0.995363
0.9144498093711841,1,0.996875
0.894753291747776,1,0.998469
0.8960976438487077,1,0.996860
0.9122868484051522,1,0.991511
0.921250748776224,1,0.998418
0.914612663721324,1,0.995327
0.8960076381921589,1,0.998333
0.8980557907752065,1,0.998319
0.9258184397559996,1,0.998239
0.9184464064343738,1,0.998314
0.9230802816508458,1,0.994854
0.9202150151163223,1,0.998331
0.9253480081448726,1,0.998127
0.905926843161463,1,0.998249
0.9358339661568272,1,0.998252
0.8781226990501841,1,0.990758
0.8984332819232876,1,0.998236
0.8925970853944911,1,0.986689
0.8980897395872052,1,0.990310
0.9347687080132971,1,0.997972
0.9266591653489645,0,0.966011
0.9044387790576397,1,0.987633
0.8860059805458066,1,0.995017
0.8941802858082502,1,0.992844
0.9362244262932613,1,0.998363
0.8997704535704065,1,0.998261
0.9105583874165846,1,0.998405
0.9233026666293654,0,0.964724
0.9293730745471114,1,0.994505
0.892050030378471,1,0.998233
0.925933579811642,1,0.998466
0.9005602749945889,1,0.996678
0.9165902560685676,1,0.996810
0.8986202177421078,1,0.998492
0.920001127444111,1,0.996774
0.9316551682921989,1,0.998214
0.867235169936515,1,0.984155
0.8792639849891101,1,0.998464
0.8866293809105257,1,0.998339
0.9094905307565762,1,0.995349
0.8871893060413112,1,0.992767
0.9061628937256629,1,0.997080
0.9457607508045721,1,0.998492
0.8849792575902026,0,0.975395
0.9087008305890758,1,0.998236
0.9240439887909354,1,0.994071
0.912777147504118,1,0.998224
0.9131867137943142,1,0.992780
0.9113987535844621,0,0.975352
0.910386276712534,1,0.994340
0.895385878943242,1,0.998390
0.9139800752730544,0,0.974359
0.901075647686419,1,0.998239
0.9089525762184179,1,0.997845
0.9191919491171413,1,0.982669
0.9403383729434107,1,0.992101
0.922987148305468,1,0.998294
0.9064859980251607,1,0.993902
0.8572943520077393,1,0.998282
0.9140306337149713,1,0.998276
0.913406423149072,1,0.998447
0.8993683815074385,1,0.996894
0.8890404840495055,1,0.994197
0.9001490719807563,1,0.998405
0.9176174518666043,0,0.910839
0.9226542824567538,0,0.979381
0.887018364320912,1,0.998480
0.8969643971658232,1,0.998325
0.9018482453421965,1,0.996317
0.8761803059463392,1,0.986301
0.9371468927667449,0,0.943005
0.8987290273559829,1,0.998131
0.9073356106447692,1,0.998487
0.8860669224887606,1,0.998478
0.91095238677029,1,0.994915
0.9153337375093393,1,0.992647
0.9062184901073991,0,0.979907
0.9123698625322224,0,0.978261
0.8869156172026441,1,0.992870
0.8605989722542555,1,0.990775
0.8758174534738037,1,0.996870
0.9058452476672149,1,0.990991
0.9018636562941367,1,0.998294
0.8855662941447651,1,0.998302
0.867714522390636,1,0.997093
0.9047919902636931,1,0.998542
0.8930631897377606,1,0.992593
0.8700291845358085,1,0.992844
0.8555690904406394,1,0.994662
0.9075032437619065,1,0.994819
0.9156183307836279,1,0.990689
0.909590332638351,1,0.998134
0.8793552789369463,1,0.998418
0.9195232605205419,1,0.996956
0.9037556288826765,1,0.998198
0.8771548016884523,1,0.996403
0.9030974530509456,0,0.963303
0.9057092163637527,1,0.992647
0.9113711438213442,1,0.982143
0.8748286364885459,1,0.997996
0.8941954697409004,1,0.987784
0.8459923317487373,1,0.998538
0.885774475099562,1,0.998363
0.9157373701454453,1,0.998447
0.9160128831914095,1,0.998469
0.92305363826914,1,0.998425
0.9332695334197971,1,0.995298
0.914730945660919,1,0.995665
0.9167310163890342,1,0.998331
0.9039611758868029,1,0.996825
0.930177296721222,1,0.989779
0.9291997784751882,1,0.996226
0.9257973202445277,1,0.998384
0.9295159911106505,1,0.998308
0.9419802208631322,1,0.998285
0.9270702346702236,1,0.989865
0.9345623467450281,1,0.998347
0.9476669884589002,1,0.998211
0.9232427060933404,1,0.997067
0.9279448880225709,1,0.997151
0.93740146592195,1,0.983900
0.916291715909634,0,0.965636
0.917725640186159,1,0.998165
0.9109623045953994,1,0.992063
0.9047199448792049,1,0.996759
0.9058324544526206,0,0.978896
0.9251235830708681,1,0.998379
0.9513273288004152,1,0.998294
0.9121176723922727,1,0.996546
0.9364871135885613,1,0.998353
0.9150630890012931,1,0.998172
0.921052044796203,1,0.998322
0.9147109221058233,1,0.989691
0.9081715720028651,1,0.998379
0.8900158591758802,1,0.998418
0.9374707722530721,1,0.995130
0.9420764928213675,1,0.998428
0.9255305687915415,1,0.998369
0.9408716650161923,1,0.998527
0.9315432036054753,1,0.998363
0.9406186708548148,1,0.998276
0.9321292668500974,0,0.977401
0.946374828821916,1,0.998423
0.9095858405931395,1,0.998221
0.9390822905510906,1,0.998384
0.9252424966441904,1,0.983784
0.9184848869375207,1,0.995529
0.9164859691571674,0,0.938739
0.9296215957879218,1,0.998415
0.9311456414533678,0,0.980000
0.9230216634808155,1,0.998392
0.9504964551525144,1,0.993902
0.9448151447275422,1,0.998221
0.9310047108674324,0,0.876333
0.9347686595483128,1,0.998379
0.9492026065567677,1,0.998516
0.9064361849660177,1,0.998270
0.9274408377113074,1,0.998363
0.9496660561894492,1,0.998331
0.9349366895375699,1,0.998217
0.9483468363784122,1,0.994106
0.9282467795766081,1,0.996933
0.9295100875784679,0,0.979899
0.9443844032541822,1,0.998536
0.9107760914647259,1,0.990596
0.9112539958718343,1,0.993322
0.9119485181179663,1,0.995283
0.9392587578966811,1,0.998185
0.9007656617609119,0,0.963031
0.9350343535523791,1,0.998252
0.9053384084513056,1,0.998510
0.9497053728608733,1,0.997010
0.9371404442913865,1,0.996956
0.9045443407706858,1,0.998374
0.9206664402521127,1,0.996661
0.9348564413588687,1,0.998227
0.9303126574192263,1,0.998182
0.8813193727113096,1,0.998328
0.9337385148882059,1,0.996403
0.9107393718664369,0,0.961089
0.939332528610304,1,0.984733
0.9227351146783742,1,0.996383
0.8912063020404731,1,0.998454
0.9232044831386961,1,0.998158
0.9087266314974388,1,0.996970
0.9190520778590492,1,0.995468
0.931637248074425,1,0.998246
0.9380553096410473,0,0.960254
0.9340255225056152,0,0.906937
0.9153315151859318,1,0.982548
0.9039013202599264,1,0.988588
0.9205374224064735,1,0.998445
0.9044585616863262,1,0.998384
0.8958776764054084,1,0.998379
0.9254601772062911,1,0.998501
0.9339691626529215,1,0.998437
0.9129939715480516,1,0.995509
0.9149945601851917,0,0.952160
0.9131444125429583,1,0.996769
0.9009837566561879,1,0.997001
0.9191824939574118,1,0.992593
0.9018156930221441,1,0.995082
0.9149938142926983,1,0.998514
0.9094527269009474,1,0.992711
0.9288403761984776,1,0.994169
0.9264919873007479,1,0.998459
0.9373521063941229,1,0.998336
0.9060599653572897,1,0.998145
0.9166399561529107,1,0.998358
0.9161000043929787,1,0.998358
0.9079252394486823,1,0.998374
0.9002340176840081,1,0.995208
0.8941039710647438,1,0.998258
0.9099783960170243,1,0.998452
0.93019185993427,0,0.964083
0.9178734263925731,1,0.998221
0.9250051331127296,1,0.998476
0.9209816685459099,1,0.996937
0.9039265763446422,1,0.998433
0.913632997691257,1,0.994595
0.8967724650652559,1,0.998408
0.9137195854097545,1,0.998158
0.9075173258152502,1,0.996330
0.911742928277216,0,0.982026
0.9197443203442198,1,0.996364
0.9179570679203416,1,0.998464
0.8973891420542693,1,0.998314
0.9162851691299507,1,0.998519
0.9120554609929798,0,0.982732
0.8981037270862415,1,0.998400
0.9242183925869384,0,0.946097
0.9041777437683447,1,0.993818
0.9174488151663653,0,0.948819
0.9196151087702025,1,0.998397
0.9146400450063437,1,0.998384
0.9157165085210696,1,0.996835
0.8994817600371775,1,0.997028
0.8917451993215874,1,0.998480
0.9267828692942899,1,0.998270
0.913530966422872,1,0.998435
0.8943225775422204,1,0.998279
0.9279862583526627,0,0.889126
0.9217222994587667,1,0.996885
0.908380360904319,1,0.993421
0.9035680539318145,1,0.996937
0.8740455958338714,1,0.997727
0.9101227882300406,0,0.947748
0.9454501611102741,1,0.998062
0.9392859985959412,1,0.998355
0.929286515956739,1,0.995582
0.9256006180241814,1,0.998392
0.8853376129999657,1,0.998532
0.8953132162300734,1,0.998205
0.8933133010407123,1,0.998230
0.8915397876088681,1,0.998473
0.8911074144862652,1,0.985714
0.8858724090206018,0,0.979266
0.9203801690366923,1,0.996528
0.8977584725996308,1,0.998478
0.946285027783199,1,0.988889
0.911484696107807,1,0.998273
0.9238647037016945,1,0.994186
0.9289697871892393,1,0.995951
0.9158012549509839,1,0.993902
0.8924752500087703,1,0.998120
0.9274529955017137,1,0.998205
0.9157707841306473,1,0.998336
0.9241542845641002,1,0.996516
0.913689202226142,1,0.998331
0.9204049638534633,1,0.998390
0.9215385278902968,1,0.998405
0.9168512235763463,1,0.998179
0.9292354370446201,1,0.998195
0.9199452317516175,1,0.991409
0.9156124831744371,1,0.996071
0.9289314813957048,1,0.994178
0.8993938269638536,1,0.998428
0.9300883620870181,1,0.990842
0.9214943237167478,1,0.996416
0.9341239940706135,1,0.990584
0.9244905337927934,1,0.998505
0.9215490341377693,1,0.995420
0.9194104946508665,1,0.998549
0.9303233467378285,1,0.995058
0.9194504801064439,1,0.998466
0.9211821659938264,1,0.998201
0.9273137838233932,1,0.995261
0.8967716044599153,0,0.937190
0.9182646321072359,1,0.998413
0.9001036904420691,1,0.985270
0.9074154263331476,1,0.996678
0.9354436924497973,1,0.998519
0.9391596299540577,1,0.996324
0.9014173490616849,1,0.993949
0.9207329365526962,0,0.962567
0.9187528922436695,1,0.998435
0.9097190108083785,1,0.998092
0.8996539627336669,1,0.993915
0.8845465179093543,1,0.998308
0.8911829254649811,1,0.994681
0.9346122609777884,0,0.968701
0.9077543950242986,1,0.998408
0.9273263432329722,1,0.998342
0.911543434165219,1,0.998507
0.9208125018067236,1,0.998442
0.8893065831745441,1,0.998384
0.9295117671931645,1,0.997033
0.9185306170864284,1,0.991007
0.9050206556547039,1,0.998403
0.9082790801494367,1,0.993912
0.932448383073051,1,0.996890
0.9266250338440346,1,0.983577
0.9031314397769996,1,0.994434
0.8974994738629438,1,0.996840
0.8427023853296735,1,0.998347
0.9044036541962585,1,0.998308
0.8974668379895748,1,0.998400
0.9341922273342027,1,0.988006
0.9153090373483659,1,0.998454
0.9501642813986392,1,0.998505
0.9009357155800609,1,0.998485
0.9051909236164156,1,0.988468
0.9199792975627852,1,0.998403
0.9136562680435973,1,0.992658
0.898519031193266,0,0.920810
0.9015508218401512,1,0.998387
0.9462925968182884,1,0.996269
0.9244743861792536,1,0.984645
0.9008118939444137,1,0.993019
0.9161730578924502,1,0.998403
0.9299698002387345,1,0.998138
0.9342475497777214,0,0.895551
0.9131600650992288,1,0.998205
0.9265086247023013,0,0.970276
0.8856978035934425,1,0.996800
0.9244960229245135,1,0.994575
0.9127984043736912,1,0.998473
0.9062597809173244,1,0.996956
0.8942279203666248,0,0.975610
0.9046278291197851,1,0.998445
0.9042809805957297,1,0.998459
0.9218161450507347,1,0.992467
0.9105429843829153,1,0.989813
0.9132935742442453,1,0.985240
0.8788374046112414,1,0.994094
0.9102893661037192,1,0.993475
0.9165391643054878,1,0.996860
0.9294982828646107,1,0.996759
0.9198445478205762,1,0.998322
0.9221484724207625,1,0.998405
0.9159086190182492,1,0.998440
0.8908684499854332,1,0.997059
0.9009624378898075,1,0.995185
0.8928751831817203,1,0.995406
0.9099737193478679,1,0.985321
0.9155583041189727,1,0.994810
0.896741745308058,1,0.998433
0.9065671675363453,0,0.935662
0.9011162881096608,0,0.978495
0.9088070531576355,1,0.996683
0.9089391761564346,1,0.997732
0.8679208944531762,1,0.995177
0.8620748603253924,1,0.993162
0.9342620878914737,1,0.994662
0.9055213501880178,1,0.998413
0.9030782220155424,1,0.993750
0.8978893323042595,1,0.998371
0.8952925284678847,1,0.998514
0.9129823016918365,1,0.994854
0.9216600270946701,1,0.998503
0.905843187533095,1,0.998494
0.9048306660483395,1,0.998542
0.9138153940995772,1,0.998420
0.8665913276316123,1,0.994109
0.9143733396785539,1,0.998476
0.9179312489806392,1,0.996769
0.9091235213767933,1,0.998440
0.8986772414358792,1,0.994074
0.8850893379873703,1,0.998344
0.8915216613348977,1,0.996870
0.9020141289850226,1,0.998415
0.8887181584641878,1,0.992537
0.9054751168787147,1,0.992714
0.9140073972420951,0,0.974684
0.9128058437091974,1,0.996132
0.9283510383358601,1,0.994774
0.9087459099658839,1,0.998379
0.9232294265974026,1,0.998425
0.9136863533538726,1,0.995208
0.8770485697148213,1,0.998447
0.9183936065318955,1,0.996825
0.8928690129887963,0,0.949287
0.904142982865986,1,0.998217
0.8704035941749825,1,0.983108
0.8879391000965985,1,0.996622
0.8852639592221236,1,0.997019
0.8730776482722828,1,0.996737
0.8768032914713416,1,0.992857
0.8974410018736944,1,0.988782
0.8732551420631587,1,0.997080
0.9040906298148442,1,0.991103
0.9398309195089019,1,0.992754
0.9013319534426575,1,0.998255
0.9248054664804031,1,0.996894
0.9056382167964891,1,0.998457
0.9041513575381863,1,0.998510
0.9286811648172751,1,0.983299
0.8807428072070205,1,0.998457
0.8952259111327289,1,0.996992
0.9086814911016713,1,0.998195
0.8973136445781243,1,0.981132
0.9292924832566252,1,0.996748
0.9145824598397437,1,0.996923
0.9021681871218606,1,0.998369
0.8516569550122538,1,0.998485
0.883719563438844,1,0.998450
0.8927514770000109,1,0.983957
0.8846577849796956,1,0.996875
0.8845309347251742,1,0.996865
0.8880356903995863,1,0.988571
0.9065708505082816,1,0.994100
0.8914685416527116,1,0.996396
0.9061972132148495,1,0.998452
0.8929206364119459,1,0.998529
0.8619911021465656,1,0.992248
0.9029814004054234,1,0.998410
0.9038369653713592,1,0.998182
0.8747301463157293,1,0.998185
0.8842323000213234,1,0.991909
0.9063265016549836,1,0.993776
0.9409861611920511,1,0.994801
0.912383126846192,1,0.996689
0.9027822877688302,1,0.986733
0.9300131176569235,1,0.996845
0.924167682687063,0,0.970370
0.9117634534987396,1,0.992331
0.9006586679003183,1,0.995238
0.8947763734360165,1,0.995509
0.9081950288782753,1,0.996711
0.9076673153896446,1,0.998316
0.9077103622462146,1,0.998457
0.8995594957394191,1,0.998296
0.9039743319447574,1,0.995984
0.861002284921724,1,0.998302
0.9252048377206517,1,0.996983
0.8914721880614145,1,0.998308
0.8923512764824182,1,0.998415
0.9371043038062596,1,0.992740
0.9412024239793831,1,0.996870
0.9105543992802232,1,0.998282
0.910572603703354,1,0.998267
0.9235065233257155,1,0.996933
0.9219640993759531,0,0.975530
0.9130579883075798,1,0.998308
0.9052671100344476,1,0.996644
0.9164932548312098,1,0.991349
0.9432724740427639,1,0.998302
0.9249353355051468,1,0.986254
0.8963349943541725,1,0.995575
0.8931140662503497,0,0.901153
0.9002023868556057,1,0.998316
0.8989365401246557,1,0.990400
0.8644312007238525,0,0.922570
0.9026511452643111,1,0.998464
0.9153225537928421,1,0.995268
0.9161133472127974,1,0.993197
0.9222987407377777,1,0.993976
0.8777753787644053,1,0.998258
0.9174037234060547,1,0.994881
0.9257805171588739,1,0.995327
0.9075976744016482,1,0.998255
0.9061300818000176,0,0.964151
0.9149804202089218,1,0.996721
0.9032278266866056,1,0.998480
0.942790615381897,1,0.998201
0.9107660642556851,1,0.998355
0.9000343936510767,1,0.985586
0.926272609004413,1,0.991857
0.8991277618257153,0,0.902214
0.8665952864499595,1,0.985019
0.9201669332905225,1,0.998397
0.9034937583678818,1,0.998308
0.9086783565546065,0,0.976661
0.9333223455659169,1,0.998185
0.8909396515017831,1,0.996830
0.9032842427533037,1,0.993355
0.9331357630224917,1,0.998246
0.9286635140926192,1,0.991334
0.9285015355273516,1,0.998221
0.9160832768796674,1,0.998296
0.907069318606076,1,0.995261
0.9263543792656006,1,0.997872
0.9103119585669487,1,0.998353
0.9328072389183544,1,0.998073
0.919879420505239,1,0.998081
0.8879244990254298,1,0.998282
0.9225736219270788,1,0.998538
0.8699902435312186,0,0.965630
0.9155574621316315,1,0.998344
0.9148420275828616,1,0.998371
0.9195210791129504,0,0.933579
0.905259675650271,1,0.994242
0.9069603338875685,1,0.998366
0.9201339087330037,1,0.998358
0.8661870998845925,1,0.998512
0.9126004966151517,1,0.996661
0.9216785590209535,1,0.991304
0.9377109002492904,1,0.994819
0.9056076294415434,1,0.993644
0.9230472627061791,1,0.995448
0.8806320332984329,0,0.979779
0.9256493974181524,1,0.990548
0.8827640993352848,1,0.996942
0.9000596963446686,1,0.998442
0.8854251421267837,1,0.998501
0.9072331102529858,0,0.889655
0.9044195260775931,1,0.996534
0.8867965653310628,1,0.994836
0.8802202035502993,1,0.998447
0.8692267699450498,1,0.996894
0.8857737656854336,1,0.998418
0.9020978755380684,1,0.998384
0.896276564757548,1,0.996880
0.8756155063608223,1,0.998355
0.8962120069762205,1,0.998363
0.9165546046044316,0,0.964083
0.8910625207430546,1,0.992126
0.8965717030898888,1,0.996923
0.9112018529581571,1,0.989280
0.9012080999637433,1,0.985149
0.8680610833486077,1,0.996667
0.8723178931288521,1,0.989062
0.8780936742411923,1,0.987421
0.9031838092455572,1,0.992248
0.8852598248077916,1,0.998519
0.9110420173628213,1,0.998201
0.8728577045226147,1,0.998325
0.8877051591161266,1,0.998405
0.8983067476796893,1,0.998501
0.906423800009873,1,0.998264
0.9134804283623703,1,0.998331
0.9068898948131859,0,0.974729
0.9368508352010283,1,0.998400
0.9041900307701028,0,0.977597
0.8867095806166527,1,0.997041
0.9037939184774271,0,0.980870
0.9347714191822108,1,0.998267
0.8983346079975744,1,0.988353
0.8995402391178592,1,0.994915
0.9009618412138743,1,0.998410
0.9136765249053149,1,0.998489
0.9120487808760659,1,0.983957
0.8976444265042999,1,0.987037
0.92453239634259,1,0.998363
0.917837950368001,0,0.979705
0.9140232399973247,1,0.998457
0.9078547070926081,1,0.998077
0.9122361027115911,1,0.997059
0.9106730121684511,1,0.995106
0.8977219861347885,0,0.942470
0.9200172561569394,1,0.998418
0.9115122066874481,1,0.998227
0.9065092248437168,0,0.974093
0.8816267084888094,1,0.998347
0.8961194333998099,1,0.996534
0.9288553689937096,1,0.984238
0.8794132719293272,1,0.998319
0.9242750424101885,1,0.998442
0.9174451007426127,1,0.996923
0.9354861153058973,1,0.995334
0.8836842183037116,1,0.998328
0.9104266690598651,1,0.998353
0.8996102525168614,1,0.998496
0.8866910498369449,1,0.998540
0.9276208683779764,1,0.998519
0.9008153547297628,1,0.996810
0.9206430820884297,1,0.998208
0.9169437222315115,1,0.998054
0.8971430130591787,1,0.998425
0.9150976217945458,1,0.998487
0.907434581935119,1,0.998243
0.9136179865961062,1,0.998471
0.8751497266383789,1,0.998473
0.909715583834869,1,0.998442
0.8923056860585811,1,0.998459
0.9031230501023777,1,0.998328
0.8866272024489734,1,0.996992
0.8993175599704178,1,0.996947
0.9158620390736933,1,0.996416
0.8840261517119883,1,0.990000
0.8708395920127429,1,0.998361
0.8903773104362896,1,0.998433
0.871290418123713,1,0.998425
0.888202629363263,1,0.996117
0.8282506260465821,1,0.998507
0.8981440649406004,1,0.998302
0.8937368798418693,1,0.998405
0.8812977187876659,1,0.998311
0.892692616283331,1,0.989474
0.897912569348923,1,0.994764
0.9015564674789016,1,0.991554
0.8843569066325134,1,0.998485
0.868496348868389,1,0.995305
0.8828021024702684,1,0.996705
0.8721083687700104,1,0.998296
0.8971949257162889,0,0.980132
0.8900534758557208,1,0.997019
0.935562704495175,1,0.992038
0.8736273968145378,0,0.973498
0.899763413773409,1,0.998435
0.8998469552687214,0,0.976364
0.8742101543335864,1,0.996779
0.8912626977148501,1,0.997080
0.9011043261729381,1,0.998379
0.8671828569682571,1,0.998514
0.9311794520126375,1,0.996795
0.9030298919139818,1,0.998440
0.8996725560958084,1,0.991597
0.8749334712647127,1,0.998403
0.8838897424320941,1,0.996694
0.8990989966607961,1,0.984772
0.918414313143549,1,0.998230
0.8865067250670364,1,0.998384
0.8764272984312956,1,0.994924
0.8969700080919174,1,0.993019
0.901840412973743,0,0.966102
0.8719158507849748,1,0.996132
0.8922805639504146,1,0.998239
0.8509242602619113,1,0.996737
0.8796448300966117,1,0.998420
0.8689414313196041,1,0.998285
0.8513353644048002,1,0.996377
0.8666569422307137,0,0.976950
0.874344143347271,1,0.996850
0.8810489311548192,1,0.997951
0.8741161772114829,1,0.984252
0.8625333294952666,1,0.996800
0.9136541158450151,1,0.996769
0.8641966876864846,1,0.998519
0.8576398600374412,1,0.996795
0.8538864129832706,1,0.998379
0.8621230961682615,1,0.996324
0.8932783897759088,1,0.996960
0.8317086987837837,1,0.998478
0.9245184476718734,1,0.996622
0.8907902196318591,0,0.976898
0.9112936381979465,1,0.982609
0.9510891633080947,1,0.998410
0.9198602217831566,1,0.989181
0.9234186569703772,1,0.998462
0.8878082075551327,1,0.998454
0.9215319267605614,1,0.987342
0.9289991692964634,1,0.984402
0.8989799018417448,1,0.992625
0.8605450977377789,1,0.998405
0.8967713044667818,1,0.998437
0.9371634221978412,1,0.998246
0.8944036971479628,1,0.998366
0.8715941954242291,1,0.997037
0.894212867367732,1,0.998435
0.880715021278097,1,0.998165
0.9054086269942513,0,0.969055
0.8883181261679001,1,0.998462
0.8784293999752488,1,0.998435
0.8832935758540308,1,0.998358
0.8988057174332182,1,0.996830
0.8963627280009441,1,0.998440
0.9031012826551321,1,0.995253
0.9139373957922626,1,0.998270
0.8914399839806764,0,0.954990
0.911091331192664,1,0.998350
0.8911603503761316,1,0.985169
0.8922081101439626,1,0.998369
0.9232022493947397,1,0.998369
0.8832979146905684,1,0.995298
0.8861767739327938,1,0.995223
0.8712294770322415,1,0.998379
0.8821556865251475,1,0.998428
0.9266457501073521,1,0.998512
0.8756086081086148,1,0.998392
0.8740015394157463,1,0.996890
0.8989031862551069,1,0.993080
0.8848623100071592,1,0.997054
0.8652960975525837,0,0.967187
0.8986887248153695,1,0.998415
0.8685534059063587,1,0.986254
0.8638463667362503,1,0.998276
0.8676470432392026,1,0.987132
0.8614552256865338,1,0.998328
0.8952830317686988,1,0.996785
0.9191343266871654,1,0.998485
0.9203106877590835,1,0.984586
0.9219006314055888,1,0.998423
0.8964008986636863,1,0.992424
0.9311533783096876,1,0.998450
0.8950820594088715,1,0.993410
0.8994788037938874,1,0.998264
0.8981831946351204,1,0.995058
0.8990443394197205,1,0.988196
0.8864597682824853,1,0.991694
0.9047934013786665,1,0.988746
0.9020872183015841,1,0.998325
0.8905460140995529,1,0.998507
0.8978397889998068,1,0.998350
0.908882241787292,1,0.994958
0.9171473640663932,1,0.998239
0.8941914457691812,0,0.976452
0.8929446571193216,0,0.981073
0.908207758583472,1,0.998501
0.9111116443632715,1,0.998534
0.8985053012760678,1,0.998516
0.8672915891324186,1,0.996330
0.8860547603345201,1,0.988971
0.9159135243319495,1,0.998519
0.8876046071343178,1,0.983725
0.9122748553465224,1,0.998440
0.9203534930021149,0,0.982595
0.8855880173188595,1,0.983633
0.8396518608465199,1,0.996894
0.8587460600914525,1,0.998413
0.8901739512571354,1,0.996705
0.9027484344727864,1,0.996694
0.8908395572847129,1,0.996790
0.8910941687534991,1,0.998505
0.8684517531501615,1,0.996965
0.8700644380258694,1,0.998371
0.874217625721749,1,0.998217
0.8730787330543053,1,0.998452
0.8916079398778547,1,0.992647
0.8437518628789613,1,0.998305
0.8598060988157844,1,0.994495
0.8983419831595899,1,0.995356
0.8594179935554526,1,0.998410
0.9032938801339518,1,0.998512
0.9019718600695319,1,0.996753
0.8906562018696043,1,0.994949
0.8978702649195706,1,0.996992
0.8965545930158213,1,0.998392
0.860227044312546,1,0.998450
0.9361030575481329,1,0.991166
0.9174482713857804,0,0.965974
0.8922333049202824,1,0.988818
0.8926228730574949,1,0.998425
0.9180168258270802,1,0.996639
0.9067089106523195,1,0.998483
0.8683902253295545,1,0.996627
0.869621196360959,1,0.992920
0.8559496243739896,1,0.996815
0.8902999030204207,1,0.998454
0.8771953683641063,1,0.993798
0.8960251371541013,1,0.995200
0.87218432933593,1,0.998420
0.8583477760785911,1,0.998382
0.8576169712893021,1,0.996894
0.9000309788511941,1,0.997054
0.8906632803819473,1,0.997001
0.9207982209389857,1,0.998457
0.9116490660190211,1,0.998459
0.8961121230936838,1,0.996705
0.8976640935383152,1,0.993068
0.9036797596210171,1,0.998384
0.9209836363268882,1,0.998503
0.8870548848701695,1,0.998428
0.9182601332515866,1,0.998069
0.8761564828511906,0,0.971619
0.8770445543053061,1,0.998435
0.9077515266198256,1,0.996979
0.8915110632157391,0,0.962264
0.8896764355192245,1,0.998487
0.8992420523525577,1,0.993808
0.8954798566390995,1,0.998462
0.8535093847661777,1,0.998473
0.9025269846389297,1,0.998302
0.904665128751371,1,0.998423
0.8618867496044081,1,0.998447
0.8798521593286861,1,0.995320
0.8878654807799008,1,0.998120
0.8842357248514358,1,0.996825
0.8630679233143663,1,0.992322
0.8649691380393039,1,0.996860
0.8973351683004318,1,0.995420
0.9095326153669022,1,0.996667
0.9146003373433129,1,0.995385
0.8762780753135462,1,0.998347
0.886703331699249,1,0.996779
0.8842394661049033,1,0.997080
0.879091050300408,1,0.997046
0.8845650595793708,1,0.998276
0.877583145925234,0,0.972835
0.8916868374553167,1,0.991763
0.8858972135804463,1,0.998483
0.8907491554025311,1,0.993453
0.8992556898843648,1,0.993538
0.9122723889296731,1,0.998264
0.9039407107904627,1,0.998279
0.8720788318583349,1,0.998433
0.8858044953054239,1,0.998440
0.8881497221402466,1,0.997067
0.8806169186760852,1,0.996904
0.8945902910133711,1,0.998430
0.8680449339023668,1,0.991749
0.8807532401453962,1,0.998249
0.904027278018119,1,0.996587
0.8782116249818892,1,0.998551
0.8859936393740506,1,0.996364
0.8675306673870097,1,0.998469
0.8816058041931202,1,0.998418
0.882233720720182,1,0.998469
0.8543587024467824,1,0.996540
0.8389100161853417,1,0.998501
0.8746563492203462,1,0.997019
0.849745381989321,1,0.996983
0.871037437043022,1,0.998279
0.8492623220226722,1,0.998462
0.864671534385775,1,0.998035
0.8879641104515147,1,0.985075
0.8798424846032449,1,0.998302
0.8317915361024817,1,0.996466
0.8588091903892039,1,0.993311
0.8731149758374334,1,0.998371
0.9035657299083559,1,0.996764
0.8944391361861049,1,0.989933
0.9321341693933627,1,0.989971
0.9437296028389474,1,0.998384
0.9260308236718008,1,0.996491
0.9427436443970034,1,0.998415
0.9156469823924,1,0.995399
0.9196901659562201,1,0.996593
0.9364671065650798,1,0.998236
0.9431777981910597,1,0.998066
0.9400172578903309,1,0.986733
0.9155047052438986,1,0.998308
0.9225063159498351,1,0.998371
0.9056625364489377,0,0.918790
0.8931752578364412,1,0.986133
0.9074995809139657,1,0.998276
0.9279531895561483,1,0.998379
0.9170597453877046,1,0.997028
0.9202526432545876,1,0.998428
0.9358361596261918,1,0.998249
0.8939850017845121,1,0.994915
0.9152555924855194,1,0.998433
0.9220562760234683,1,0.998205
0.8738455648010339,1,0.998311
0.922745709825941,1,0.998437
0.8981904843801356,1,0.998485
0.9077953540873206,1,0.996743
0.9335284393287494,1,0.995177
0.9191528378717212,1,0.998366
0.8945063289498973,0,0.978300
0.9185361981447001,1,0.998255
0.9259831041140295,1,0.998512
0.8903422640242957,1,0.998374
0.8937205665846916,1,0.998410
0.9296819235222188,1,0.996364
0.8954020480246806,0,0.903720
0.9229339156273237,1,0.993355
0.9088353079012138,1,0.997063
0.8798024123441452,1,0.994863
0.8887997289095427,1,0.995595
0.8861026693047543,1,0.998492
0.9021876049455139,1,0.998485
0.9169358278737668,1,0.997063
0.909519558708705,0,0.962832
0.9142385781870218,1,0.996870
0.8909160925432286,1,0.998557
0.8754938966024283,1,0.998447
0.8953733596709746,1,0.998258
0.9130921124486445,1,0.995565
0.9009201140487227,1,0.998403
0.8836805691147941,1,0.998445
0.8775070537991693,1,0.998492
0.9379132511779681,1,0.994498
0.9317779823079756,1,0.981752
0.9411270183654195,1,0.998392
0.88774174283386,1,0.995455
0.9172400439566352,1,0.998425
0.9186191773753202,1,0.998316
0.9397809911371929,1,0.995495
0.9207888174892892,1,0.998437
0.9015054334550806,1,0.998322
0.9209348975163784,1,0.998363
0.9214216210855637,1,0.988764
0.9423005281012166,1,0.998314
0.9296034492663187,1,0.998374
0.907562019713774,1,0.998291
0.8854632267293365,1,0.998179
0.9259410423210851,1,0.995455
0.9065667180505329,1,0.996855
0.9169662613563426,1,0.997218
0.9409203615723346,1,0.998175
0.9208775398230938,1,0.996805
0.9048242928214458,1,0.995699
0.9208886234334767,1,0.995406
0.9355170879565259,1,0.997001
0.9325843842403387,1,0.998575
0.9396517157001213,1,0.994374
0.9273533391325988,1,0.993421
0.9354395768802292,1,0.996689
0.9082659992482155,0,0.983704
0.9182465220346894,1,0.998410
0.9136935215758403,0,0.973022
0.8878682125956835,1,0.998276
0.9013271865656056,1,0.991554
0.9078210025762569,1,0.996899
0.9189126453114892,1,0.986486
0.9162804763869284,1,0.989080
0.8914420666091503,0,0.982456
0.8870650778786855,1,0.989474
0.9312408448906068,1,0.998358
0.9182278778059069,1,0.990669
0.9190689986249203,1,0.998358
0.9082279289623685,1,0.994003
0.9158855853970651,1,0.998016
0.926660048756292,1,0.998211
0.9313499355689084,1,0.998138
0.9118293859164235,1,0.998382
0.9379173263078385,1,0.997006
0.8862951905346738,1,0.998405
0.9012393575682434,1,0.992945
0.902550562908128,1,0.988449
0.9083422557314472,1,0.996880
0.9029619869120897,1,0.996569
0.9071137072712265,1,0.988095
0.9200301374698999,1,0.989779
0.9235299155197022,1,0.997067
0.8926316156034745,1,0.985891
0.9091260577938451,1,0.998442
0.9021358512301916,1,0.998433
0.9042575920972492,0,0.938739
0.8853693210157704,0,0.920188
0.9207253461080254,1,0.998403
0.898455712206809,1,0.998369
0.910868782776127,1,0.998440
0.89660023216265,1,0.992920
0.878933708769739,0,0.961279
0.8895070262114868,1,0.996894
0.935477094218125,1,0.993874
0.9155363661115914,1,0.996845
0.8982975659023892,1,0.998185
0.9045249712555763,1,0.996947
0.9093045064165607,1,0.997015
0.880036518977401,1,0.998339
0.8802435397230531,1,0.998423
0.9124531854098775,1,0.998217
0.8948509262375127,1,0.998525
0.9188376188365103,1,0.994992
0.9082665311497723,1,0.998314
0.9046212569060159,0,0.981878
0.8718450293791599,1,0.995238
0.9217300844813929,1,0.987847
0.898616608350501,1,0.998198
0.9175106639629633,1,0.990033
0.8993834013375189,1,0.998469
0.911264256643527,1,0.996593
0.8774839411950632,0,0.982055
0.8934210093003734,1,0.998358
0.8902998432730859,1,0.998185
0.89371567334401,1,0.998415
0.8646991679003629,1,0.998464
0.8957720130934834,1,0.995208
0.9063011519620842,1,0.998302
0.8963259016691505,1,0.998452
0.8794233177966074,1,0.998440
0.9198367558510219,1,0.996890
0.9336642338300102,1,0.998423
0.9300325864954391,1,0.998366
0.9309009608832906,1,0.998369
0.9401868645490383,1,0.991259
0.936000498428409,1,0.997037
0.9031795451253004,1,0.996661
0.9295044623558633,1,0.998353
0.9332551835978907,1,0.996979
0.9295533259246384,1,0.998464
0.9016662314846929,1,0.998462
0.8989261866154479,1,0.989062
0.9178717178923453,1,0.998425
0.8999573401697545,1,0.998540
0.9112351791567282,1,0.996396
0.9290500438041385,1,0.996711
0.9076440712270571,1,0.998435
0.9231599625798067,1,0.998258
0.9196758412393647,1,0.998597
0.934259304111699,1,0.998516
0.9109464827915436,1,0.998322
0.9294481102438031,1,0.998423
0.9086803741407209,1,0.998155
0.9425347774020054,1,0.998542
0.9041154717102604,1,0.996422
0.898081507487095,1,0.997059
0.8856577835364349,1,0.994048
0.8847866546732043,1,0.998423
0.90729603067404,1,0.995575
0.9052344704944411,1,0.998447
0.9006135781857607,1,0.998471
0.9068326471589786,1,0.995313
0.8824398011520572,1,0.998512
0.8997802179526668,1,0.993701
0.8922586243354432,1,0.998264
0.8893805898273276,0,0.976744
0.9110183289241726,1,0.998420
0.9114401916157266,1,0.996296
0.8898889744242853,1,0.998428
0.9057483665796512,1,0.995146
0.916396340493225,1,0.996269
0.8976424350425706,1,0.996627
0.9114773057038307,1,0.994614
0.9244857348538746,0,0.971223
0.9200273004460929,1,0.998452
0.9223472684975088,1,0.998452
0.9027852158335676,1,0.993333
0.9269633374009866,1,0.998366
0.8707955673427151,1,0.996276
0.9185548236583939,1,0.996317
0.8979509381072408,1,0.998311
0.932647760139338,1,0.996330
0.9034035303062549,1,0.994186
0.8965926109157548,1,0.998400
0.8961779352152416,1,0.997063
0.913101831131829,0,0.983308
0.8857491848578691,1,0.996918
0.905811150053817,1,0.998437
0.9008380137225499,1,0.995169
0.8878296311970042,1,0.998466
0.9003081915866006,0,0.975570
0.8950858299984323,1,0.998276
0.8946917095876273,1,0.998462
0.8925080405553593,1,0.998464
0.8750663026360933,1,0.998492
0.8620262244209481,1,0.998433
0.9347996877823767,1,0.998208
0.89783246126435,1,0.998377
0.8924060824038356,1,0.998462
0.9052390808979016,1,0.997063
0.9050121113329959,1,0.998457
0.8818913487745028,1,0.998314
0.8936199703775088,1,0.996403
0.9010243712995556,1,0.998227
0.9143522727339464,1,0.998294
0.9252431867335487,1,0.995342
0.8797096981371875,1,0.998430
0.9033607736678081,1,0.998534
0.9082803604672182,1,0.994495
0.9296614539602185,1,0.998158
0.8974773016681927,1,0.994755
0.9006972934778584,1,0.996933
0.8772993942374047,1,0.997050
0.9029033262654372,1,0.998503
0.8811891769091282,1,0.998452
0.9186138966001376,1,0.996678
0.8933605925145292,1,0.998538
0.8938598910795704,1,0.998182
0.8943064238404338,1,0.996370
0.9074831067828293,1,0.998363
0.9013263750016925,1,0.998553
0.893955950732151,1,0.996599
0.9168772984056168,1,0.994152
0.9031089705453199,1,0.998498
0.8729370730669288,1,0.998261
0.9103725990322898,1,0.982107
0.9104022445626652,1,0.998397
0.8871876991315342,1,0.996850
0.8655286405548024,1,0.998358
0.8894425981931486,1,0.998249
0.8946593308564921,1,0.996790
0.8787000494276773,0,0.974122
0.8899116443807142,1,0.998476
0.8459060780570066,1,0.998503
0.9016784977935782,1,0.996377
0.8809288579622339,1,0.998442
0.833663938158586,1,0.996880
0.866500712972188,1,0.996988
0.9232732737377081,0,0.973641
0.9330195811624206,1,0.996947
0.9048646428579963,1,0.983974
0.9162328948576577,1,0.993837
0.9232399989708416,1,0.995845
0.944364881910612,1,0.998525
0.9182775783595323,1,0.993443
0.9061366151781876,1,0.996429
0.9187642544197672,1,0.996937
0.9001657368433634,1,0.995283
0.9186377457783574,1,0.996942
0.9115355460324107,1,0.994056
0.9285683775966583,1,0.998233
0.9234059805905666,1,0.998382
0.9196488701001748,1,0.998294
0.9104788301237253,1,0.998510
0.9187927049907387,1,0.998494
0.9270243866297848,1,0.996683
0.8985856345862484,1,0.996795
0.92624646300046,1,0.996860
0.8822605821119638,1,0.998246
0.8803948929920056,0,0.895204
0.9322889494241521,1,0.993277
0.9073424036138091,1,0.998542
0.8854621951566934,1,0.998291
0.9247241179726915,1,0.998069
0.9183915067242352,1,0.998066
0.9182652551939492,1,0.995223
0.9157086738784674,0,0.972447
0.9243552924186518,1,0.993671
0.9133149370709465,0,0.970297
0.9236041809351991,1,0.998462
0.9261793759905785,1,0.996383
0.9080846498974865,1,0.996928
0.9094933283330684,1,0.994690
0.920694190280493,1,0.989547
0.9101529891796953,1,0.998270
0.9133202390164188,1,0.998521
0.8725378427301217,1,0.998464
0.9194711221104629,1,0.998134
0.945452492002141,1,0.998369
0.9138232947288698,1,0.995890
0.9142087918869778,1,0.994595
0.8997566688419486,1,0.997024
0.8857031969614165,1,0.998445
0.935577992050508,1,0.998532
0.9297825129696314,1,0.998319
0.9020364151035045,1,0.998510
0.91688973813891,1,0.998221
0.9204342188316875,0,0.975329
0.9028060714658086,1,0.998400
0.9136512991127724,1,0.993517
0.9452609394446745,1,0.995268
0.920095676998605,1,0.996951
0.9344926737858087,1,0.996575
0.9089571076799962,1,0.998503
0.8641502091352742,1,0.998498
0.9018730452388043,1,0.987970
0.9085506173118088,0,0.979927
0.9016348146142075,1,0.998462
0.9263813969423254,0,0.901434
0.9103260948963536,1,0.996616
0.8808626132328264,1,0.998408
0.914028767248754,1,0.998480
0.9252578921185223,1,0.994465
0.8768248124887924,1,0.994690
0.9054051785045341,1,0.982036
0.9023798197927398,1,0.994949
0.9041226845460051,0,0.974182
0.9077558390879008,1,0.996616
0.9013037527672775,1,0.996785
0.8918152783167312,1,0.987805
0.9145643064701195,1,0.985740
0.8936806524069655,1,0.996435
0.884452618290585,1,0.998544
0.9047893655846525,1,0.996904
0.9243498744521649,1,0.996865
0.924142972047466,1,0.998410
0.8920642509976825,1,0.998308
0.8934812309810272,0,0.976407
0.9073228054894248,1,0.995185
0.9325133282190782,0,0.957792
0.9120359634995138,1,0.996283
0.8898384706809429,1,0.996416
0.8895133349832365,1,0.984848
0.9068181656423087,1,0.998279
0.922492569708926,1,0.989708
0.9289904262206857,1,0.998311
0.9358599576217417,0,0.967320
0.9085474934489092,1,0.998534
0.9257919436691232,1,0.998353
0.9100657225379639,1,0.998452
0.886482343788721,1,0.998316
0.8988143318225998,1,0.998405
0.9118135281181495,1,0.991018
0.9065806475879833,1,0.996732
0.860532084067217,0,0.977564
0.8754273715861404,1,0.998478
0.8788613630823975,1,0.998418
0.8619672002525022,1,0.998350
0.9207475742472382,1,0.994329
0.9179706411706877,1,0.998459
0.874156289577366,1,0.998459
0.9184244424665992,1,0.996528
0.8978816990800513,1,0.998339
0.9091720585740706,1,0.996979
0.9156667827900522,1,0.998270
0.9060339966217376,1,0.996850
0.9180936684515807,1,0.998141
0.8989047814169143,1,0.985714
0.8982490568618675,1,0.996875
0.9014552102266722,1,0.991749
0.910747319911785,1,0.998459
0.8964096724490622,1,0.998255
0.9098239801148383,1,0.996510
0.8919205641970804,1,0.998358
0.9000260330933975,1,0.998366
0.9065370688160533,1,0.998408
0.8897249746036814,1,0.998390
0.9185623595281494,1,0.998331
0.8627942339084621,1,0.998447
0.8870363356905109,1,0.998379
0.8632418453104286,1,0.998299
0.9065380598490095,1,0.998478
0.8866621483034154,1,0.998483
0.9300709255985232,1,0.998319
0.9286792697703068,1,0.998134
0.9423122318953316,1,0.997963
0.9323932696918475,1,0.998395
0.9290477992362864,1,0.997006
0.9100825855663905,0,0.976661
0.91636441402475,1,0.998408
0.8913960204001337,1,0.997024
0.9448344141655826,1,0.998450
0.9028748265103886,1,0.988034
0.9333045788593947,1,0.998437
0.9127022858181221,1,0.998435
0.9132144579732817,1,0.995261
0.9123625679582371,1,0.998428
0.9115640879465345,1,0.990000
0.9207449204655515,1,0.998454
0.9244776547070407,1,0.988562
0.9323858811288523,1,0.998507
0.9387493793616983,1,0.998214
0.9381397283394517,0,0.976534
0.9463067742782965,1,0.998525
0.9407177623410925,1,0.994966
0.938338696171662,1,0.995385
0.9105765936639204,1,0.998538
0.907922281942066,1,0.992647
0.9198626106905311,1,0.993789
0.9329012025897092,1,0.992832
0.9172120521250735,1,0.998534
0.9248482147517336,1,0.997126
0.9051038078843506,1,0.998377
0.9105685226309407,1,0.994595
0.9046372667892357,1,0.994186
0.9384945623783714,1,0.990783
0.9171033865815931,1,0.994828
0.9196192755616339,1,0.996364
0.9289154045594247,1,0.994633
0.8785716467396689,1,0.996296
0.9187043390971615,1,0.998361
0.9068036412346402,1,0.994526
0.9071472839774307,1,0.998418
0.8948574909627449,1,0.998366
0.8914174758993609,1,0.998544
0.904072293710761,1,0.994872
0.9317991935203361,0,0.974729
0.9199400708636382,1,0.984975
0.9041016459600558,1,0.998430
0.8925756281650377,1,0.996830
0.8942241777914827,1,0.992743
0.9230084201187105,1,0.998172
0.9073919246769079,1,0.998379
0.869406917422292,1,0.998192
0.919237590940685,1,0.994941
0.910154264309656,0,0.962963
0.8857214256100594,1,0.991477
0.8921952455505269,1,0.996705
0.9065499234064768,1,0.998445
0.9021614173916095,1,0.998400
0.8836818746982289,1,0.998476
0.9116997330625566,1,0.998350
0.8748440450227454,1,0.998382
0.9166675769286932,1,0.998344
0.899045605050707,1,0.998478
0.9231026588413584,1,0.995475
0.9051425156359744,1,0.996970
0.9143285530795591,1,0.998501
0.908843990446252,1,0.998182
0.9162849474856369,1,0.998464
0.8813545298500111,1,0.998428
0.9281165546762391,1,0.998540
0.9391990525177868,1,0.998408
0.9022105064566984,1,0.992754
0.8902837489327622,1,0.997033
0.889131638383641,1,0.998162
0.8793827934379369,1,0.996743
0.901489438160931,1,0.998514
0.9096587569175295,1,0.993410
0.9018647569314479,1,0.998538
0.9350358389956714,1,0.994907
0.9298664873127807,1,0.998347
0.903953911711762,1,0.994941
0.9199290851317481,1,0.998464
0.9323762694140076,1,0.998331
0.9186549493352039,0,0.980144
0.9245607181174542,1,0.997015
0.9197153721756265,1,0.998279
0.9237431685761944,1,0.996622
0.9215396572324388,1,0.994118
0.9154108620937151,1,0.996785
0.9067864266573559,1,0.995549
0.9190702209421601,1,0.998347
0.9130585890394286,1,0.998512
0.914296679847607,1,0.984496
0.9148220909147395,1,0.998296
0.9400098253480554,1,0.998489
0.9126047877129025,1,0.998428
0.9359789974340986,1,0.998408
0.9214525175085241,1,0.998379
0.9245057861258108,0,0.931298
0.9213728532153852,1,0.998374
0.9384562564278155,1,0.995033
0.9359522088046106,1,0.993691
0.9195775040787391,1,0.996951
0.929853954201915,1,0.995529
0.9061180668708101,1,0.998542
0.9060875256529096,1,0.998430
0.9110890987367878,1,0.998336
0.9073412642282386,1,0.998480
0.9164561937303675,1,0.986322
0.9130792442726795,1,0.998494
0.908406600693501,1,0.998415
0.8803410346450979,0,0.982893
0.8982887448513152,1,0.998487
0.9145053651288139,1,0.998529
0.9113134451387168,1,0.992857
0.9139492449214895,1,0.992920
0.9046027858607574,1,0.998308
0.9130150737150717,1,0.995146
0.9273452244046648,0,0.947020
0.9119234313201839,1,0.998353
