0.9994395779226616,1,0.996951
0.9817878824798041,0,0.990532
0.9560189194626851,1,0.998152
0.9998204835060661,1,0.999520
0.9997957350742802,1,0.999570
0.9966905698883038,1,0.997874
0.9968611482505166,0,0.988245
0.9987465554179457,0,0.990443
0.9996206309066678,1,0.999437
