1.0,1,0.998645
1.0,1,0.999197
0.9999999999999996,1,0.999504
0.9999999999999994,1,0.999385
0.9999999999999988,1,0.999392
1.0,1,0.999338
1.0,1,0.999403
0.9999999999999997,1,0.999400
0.9999999999999986,1,0.999335
0.9999999999999974,1,0.999572
1.0,1,0.999425
1.0,1,0.999377
1.0,1,0.999409
0.9999999999999962,1,0.999549
0.9999999999999994,1,0.999554
1.0,1,0.999560
0.999999999999996,1,0.999463
1.0,1,0.999465
1.0,1,0.999199
0.9999999999999977,1,0.999434
