0.7943216175108628,0,0.992083
0.9845092183781682,0,0.999944
0.9819191113699346,0,0.764063
0.975199668992414,0,0.752981
0.9385541494214706,1,0.999962
0.9103490090615464,1,0.999959
0.9647684318687284,1,0.999969
0.9529088887378009,0,0.141745
0.8825431524556118,1,0.999995
0.8985818501046398,1,0.999950
0.9015569427659156,0,0.923065
0.9020029737674228,0,0.878336
0.9016055374275729,1,0.999994
0.9437323338932466,0,0.919137
0.9436170247722476,0,0.920521
0.8071100929191652,0,0.936911
0.8502714094005364,0,0.113446
0.8756011641007938,0,0.999189
0.8518934276054846,0,0.138140
0.9319024184265323,1,0.999979
0.9663499162743437,1,0.999955
0.9781945184909224,0,0.999868
0.9823100448033383,0,0.998816
0.9811354516953584,0,0.999693
0.9762734274841557,1,0.999995
0.9775591238407926,1,0.999995
0.9868072002059206,1,0.999995
0.9803313344611607,0,0.964500
0.9777482981759622,1,0.999992
0.9285935287782925,0,0.135805
0.9915549238944141,1,0.999983
0.9735619850929058,0,0.999860
0.967844691903331,1,0.999962
0.9791079703066309,1,0.999971
0.9805419860750795,1,0.999985
0.9676923499782809,1,0.999983
0.9303174597250207,1,0.999994
0.9295215752617224,1,0.999995
0.9018700957468809,1,0.999984
0.9722731427417686,0,0.999928
0.98371989925888,1,0.999990
0.9305520410605957,1,0.999994
0.9089338309984959,1,0.999984
0.8085529025132154,1,0.999983
0.9562839910241253,1,0.999989
0.9227518514107483,0,0.999865
0.9224893820484426,1,0.999988
0.9210319634869236,0,0.915909
0.9435262662306898,1,0.999995
0.9435262662306898,1,0.999990
0.9406676482371306,1,0.999988
0.9201088546682388,1,0.999949
0.9650059244394837,1,0.999983
0.7139339072133772,1,0.999993
0.9633683580437356,1,0.999994
0.9274956577499771,0,0.998545
0.9252820977378499,0,0.999809
0.9742272032224334,1,0.999990
0.9721373284823863,1,0.999995
0.9681844791527451,0,0.906439
0.9466557059524602,1,0.999959
0.9522784200547696,0,0.999898
0.9515043493910533,1,0.999995
0.973053512536836,1,0.999985
0.9885978035439575,1,0.999989
0.9767055255421457,1,0.999994
0.9770080268996472,1,0.999856
0.9873284287297218,1,0.999995
0.9952055529546248,1,0.999994
0.992909529199643,1,0.999951
0.7690518032359791,0,0.890644
0.8512438502191517,0,0.893537
0.8746576502374235,0,0.893051
0.8993854835019364,0,0.894445
0.9209168399380405,0,0.895233
0.7524691282161847,1,0.999994
0.9581402321964357,0,0.902218
0.9587255842358167,0,0.999552
0.9595583679551584,1,0.999992
0.9292833024903545,1,0.999980
0.9409334667792068,1,0.999995
0.9325409510896421,0,0.871370
0.9294485723374617,1,0.999987
0.9701380048253655,1,0.999975
0.8700790130441837,1,0.999960
0.9076177587786254,1,0.999968
0.9375790767996671,1,0.999977
0.9424754809884321,0,0.941936
0.8965392481270402,1,0.999987
0.9363357587320464,0,0.999537
0.9744384219168065,1,0.999970
0.9849989645810429,1,0.999981
0.9653467034197546,1,0.999992
0.9608384579400843,1,0.999950
0.9782518489954812,0,0.999194
0.9850861769722011,1,0.999995
0.9850861769722011,0,0.999459
0.9820485364927418,1,0.999986
0.9401764228835608,0,0.999563
0.9220600052089831,0,0.999637
0.6547356736051324,0,0.888629
0.6859025014009338,1,0.999992
0.9323540175129152,1,0.999980
0.9787530985835551,1,0.999941
0.9642188855227023,1,0.999993
0.961994288522697,0,0.999815
0.9595789100024682,1,0.999986
0.9364111133329247,0,0.999837
0.9270393425658602,0,0.999822
0.9439481063570243,1,0.999972
0.85489283177433,0,0.998568
0.9359073784880233,0,0.888774
0.8866722065137587,1,0.999992
0.7050248090468447,0,0.880005
0.9397150311396628,1,0.999993
0.9800152598379843,0,0.907324
0.9886665281458921,1,0.999975
0.8870768772526135,1,0.999925
0.8630685242506984,0,0.999366
0.864292932978412,0,0.931707
0.9072480176245141,1,0.999780
0.9879110045576496,0,0.998323
0.9879110045576496,0,0.997789
0.953734009031114,0,0.999764
0.9646376666662128,0,0.999474
0.9631826493361761,0,0.999290
0.9640220284539113,1,0.999991
0.9606002691710905,0,0.999824
0.9605350531991046,1,0.999990
0.9816348744864188,1,0.999995
0.958602249329633,1,0.999992
0.9783572142271307,1,0.999994
0.9721810863092349,0,0.892730
0.9711299027595625,0,0.892771
0.9691215797606331,0,0.892374
0.9669440013008822,0,0.892586
0.9662538458981222,0,0.893452
0.9653441304657299,0,0.893749
0.9255529740423931,0,0.973915
