0.012371814626794687,0,0.948761
0.010163078703373513,0,0.562005
0.00802664587747405,0,0.619922
0.0056879303999803526,0,0.464001
0.0019511993364370814,0,0.734699
-0.001416217857881202,0,0.345473
-0.003098598741376036,0,0.457783
-0.0040900068054383855,0,0.456789
-0.004676701976734197,0,0.456713
-0.004992986562305139,0,0.388932
-0.0036344604047113226,0,0.456309
0.04605284865092975,0,0.983674
-0.00428834205079389,0,0.540944
-4.924104226688192E-4,0,0.896152
0.005352570164490417,0,0.908691
-1.2502063854860282E-4,0,0.713441
0.006630864302791184,0,0.722298
0.7231271387441602,0,0.988391
0.1731569942886742,0,0.990718
0.042340699285084896,0,0.667226
0.20418727751050894,0,0.732393
0.08942610966400763,0,0.995563
0.03644133842048182,0,0.890247
0.011662982535689436,0,0.981280
0.00891507691343923,0,0.996387
0.4280710036854312,0,0.991218
0.019967788147482363,0,0.951205
0.01437480725523298,0,0.998084
0.0014526991557071759,0,0.856352
9.697383622260537E-4,0,0.967560
-8.144033460934431E-4,0,0.991240
-8.65760626241411E-4,0,0.600281
-7.611500099988305E-4,0,0.601599
-6.637054028588558E-4,0,0.656805
-5.8990421677789E-4,0,0.657764
-6.311762575815928E-4,0,0.736865
-7.470751654373329E-4,0,0.918164
0.002899970477405934,0,0.934094
4.976785753565666E-4,0,0.528712
-8.317638015752317E-4,0,0.937303
0.9551543955279587,1,0.999975
0.44979423591575673,0,0.991848
0.48682021988307306,0,0.993204
-2.3302074159991355E-4,0,0.993374
-7.647679098932787E-4,0,0.671570
-0.0018662572411518447,0,0.791371
-0.0014496016373962849,0,0.680951
-0.0011415940400455063,0,0.987326
-8.834209005275827E-4,0,0.958735
-0.0019390183038923837,1,0.999943
-0.00195489010622378,0,0.934672
-0.001666901266830991,0,0.798330
-1.0309778267654043E-4,0,0.981664
0.6923218068380874,0,0.999484
0.23493661934483742,0,0.952818
0.22953115770392588,0,0.793249
0.20522453988192998,0,0.990955
0.16939318235634632,0,0.949284
0.1140968908568409,0,0.924558
-9.02458985031485E-5,0,0.999659
-0.0015929279992026842,0,0.997298
-0.003524234538128327,0,0.783577
-0.003524234538128327,0,0.708880
-0.003657297062959442,0,0.671329
-0.0038421492406011024,0,0.747466
-0.0038421492406011024,0,0.690634
-0.0038148589768069578,0,0.695235
-0.00387245236771804,0,0.693540
-0.003835650353921423,0,0.693905
-0.0036670090947230507,0,0.656903
-0.003805979862690356,0,0.767780
-0.0018267645273080018,0,0.719542
-0.002986790369519559,0,0.912733
-8.817852444752003E-4,0,0.922297
-0.001561565247975872,0,0.430032
-0.0022288132105964596,0,0.952881
0.002388925877100742,0,0.972096
0.0685043722040221,0,0.901685
0.014109805181937256,0,0.749005
-9.73320927275974E-4,0,0.739109
-8.849659718022191E-4,0,0.917698
-0.001767161073072756,0,0.737624
0.12280897329870857,0,0.997452
0.006198602852340022,0,0.996719
-4.936914342227416E-4,0,0.382131
-0.002921056254412158,0,0.825813
-0.002935344347057351,0,0.786239
-0.00299936932105307,0,0.859828
-0.002350835337403257,0,0.832680
-0.0021764516927330335,0,0.838666
-0.0020324228315965628,0,0.836969
-0.0020649494979903286,0,0.892729
-0.0021163158400194023,0,0.892171
-0.002439033823356318,0,0.887655
-0.001965981666283915,0,0.636199
-0.0021797915360851627,0,0.922154
-0.002826512010600457,0,0.841848
0.7903608380609749,0,0.999868
0.7872546300030311,0,0.780304
0.7831338849043767,0,0.995657
0.7709381224644897,0,0.816285
0.7510118579251979,0,0.992624
-9.136914620766723E-4,0,0.965657
-0.0020108477365777507,0,0.950793
-0.0031904460162919717,0,0.917878
-5.033087587225008E-4,0,0.681945
-0.0028680339338847632,0,0.608003
-0.0031377652715193225,0,0.869105
-0.0033504352729339035,0,0.503022
-0.001963376303131969,0,0.810769
-0.0022032626313232503,0,0.778628
-0.001543994015574898,0,0.826161
0.017953935395049955,0,0.876399
0.0017007071176242774,0,0.922598
-0.0026201816387531147,0,0.980152
-0.0019571024826915196,0,0.953670
-0.002908508486576765,0,0.562235
-0.0029687000370620113,0,0.838113
-0.003939453431713453,0,0.976863
0.016921651443345693,0,0.984341
0.0241385283013445,0,0.973918
0.03495692031608138,0,0.939017
0.03723377655300097,0,0.095623
0.022329982597048218,0,0.485583
0.011383055092446316,0,0.737619
0.004645015990383925,0,0.823256
0.0013008833427134408,0,0.971476
-0.004856349233527642,0,0.619246
-0.004175179849770181,0,0.474412
0.004493812080974255,0,0.973143
0.030096160488897915,0,0.986740
0.9059132120632296,0,0.999919
0.7778809159957342,0,0.999926
0.3280156386295815,0,0.891341
-0.0016214494689103585,0,0.900876
-0.0024172598377214982,0,0.924443
0.052891915468654946,0,0.965877
0.9684167007927053,0,0.999805
0.8291316899115202,0,0.986304
0.005890120539220702,0,0.996550
0.005643821930808005,0,0.995984
0.007638289900869919,0,0.995526
0.03924753999195033,0,0.978631
-0.0018207357839263405,0,0.996972
-0.00212652221785272,0,0.651033
-0.001003823912422698,0,0.874913
0.17745053220340856,0,0.998369
0.015196344105249986,0,0.928250
0.007661326224170045,0,0.974751
0.0036278245349254897,0,0.969799
6.958013955800644E-4,0,0.904307
0.935528976266649,0,0.999907
0.07179954737065582,0,0.934434
0.06122611801893919,0,0.945372
