0.06771340193793024,0,0.601134
0.7226340904775227,1,0.999993
0.8066454169527574,1,0.999942
0.7931855931462873,1,0.999905
0.8614229883208717,1,0.999990
0.8576715007399007,0,0.111933
0.8901709760181155,0,0.182877
0.9433394370737052,0,0.218658
0.9381518986502737,0,0.469304
0.9338975341724136,0,0.614700
0.7423107822627097,0,0.984226
0.8560591784827841,0,0.999798
0.8811926201174161,1,0.999986
0.8660770200133932,0,0.906528
0.9606735418940532,1,0.999991
0.9300738003964373,1,0.999992
0.9475288818511212,1,0.999993
0.9344923543271076,1,0.999983
0.8707179455535579,0,0.973481
0.8550041277851546,1,0.999982
0.9702734702408896,1,0.999993
0.9852677889784929,0,0.999131
0.9776467304777077,1,0.999990
0.9313851875177335,1,0.999876
0.9291009983981988,1,0.999988
0.9545774242693316,0,0.178214
0.9221312285471344,1,0.999988
0.9254254662558138,1,0.999985
0.9421404113750492,1,0.999993
0.9496569500495547,1,0.999991
0.96803715471955,1,0.999993
0.9656042297403603,1,0.999992
0.964512550445403,0,0.999528
0.9404711023954996,0,0.986645
0.9374016939260524,0,0.986534
0.9366498444394601,0,0.998187
0.9350406234100471,0,0.234731
0.932352083192852,0,0.998790
0.9281384522330581,0,0.216356
0.9237835361500836,0,0.999863
0.8994071925919565,1,0.999970
0.7243297535518138,0,0.486055
0.9649651483960396,0,0.999084
0.9229425575600241,1,0.999989
0.8419762560391452,1,0.999925
0.8382265667707484,1,0.999978
0.943416128213524,1,0.999989
0.9584376795293343,1,0.999990
0.9468488118801178,1,0.999989
0.8924415368164331,0,0.102919
0.9328073556309393,1,0.999982
0.9772010461491891,1,0.999986
0.9711182216308375,1,0.999993
0.943748890829571,0,0.991094
0.8287311261814703,0,0.072263
0.8750119702482583,1,0.999993
0.8750021694834378,1,0.999993
0.8729400710419527,0,0.217856
0.8768043145845325,0,0.898436
0.8751648649176443,1,0.999993
0.8731521307591442,0,0.221586
0.8716357476189678,0,0.896107
0.8708667245849628,1,0.999993
0.863034592329849,1,0.999992
0.8749149260726161,0,0.647646
0.9021402169274202,1,0.999978
0.9536721403744884,1,0.999982
0.9449674362919637,1,0.999989
0.9443324478847417,1,0.999991
0.9920637318463978,1,0.999993
0.9493917133571549,1,0.999993
0.9401152748804998,1,0.999989
0.9182808548290526,0,0.146905
0.9850702986003201,0,0.560957
0.9849763695413583,1,0.999992
0.9847839610245748,0,0.227857
0.9845564752889943,1,0.999992
0.9841006556259456,1,0.999992
0.9832429561543136,0,0.220195
0.9823463836943728,0,0.070203
0.9811615892430151,0,0.219455
0.9796113461269087,0,0.185952
0.9783322393794065,1,0.999992
0.9759786572984959,1,0.999992
0.9722017002573956,0,0.929173
0.9670621048586052,0,0.222412
0.9630400519607965,1,0.999992
0.95610884846261,0,0.863001
0.8275213757358792,0,0.859556
0.9765511992073905,1,0.999988
0.933648218233446,0,0.999791
0.9216190999029986,0,0.978983
0.9016293955331665,0,0.988912
0.958743432492812,1,0.999975
0.9725893962126266,1,0.999969
0.9805181515658449,1,0.999981
0.9893264858984165,1,0.999993
0.9742470749584088,1,0.999993
0.939638188865187,1,0.999991
0.9361341801236773,1,0.999991
0.7951570993714593,1,0.999938
0.9391454917867512,1,0.999993
0.9397089246426518,1,0.999976
0.9572877327392222,0,0.868761
0.9718851369587037,0,0.998975
0.9453831343745603,1,0.999992
0.9016378570178238,0,0.999921
0.9112466580856173,0,0.891943
0.9698288608870808,0,0.984681
0.9114383368878073,1,0.999990
0.9102700586231441,1,0.999977
0.861707784182643,0,0.838764
0.9253642526972926,1,0.999993
0.8646650720176,1,0.999987
0.9079207765957685,0,0.875677
0.9439482539015673,1,0.999982
0.9740915842139309,1,0.999986
0.9663762878275725,1,0.999988
0.9674643914775399,0,0.992369
0.9636174005052389,1,0.999989
0.9863006001591775,1,0.999930
0.9709121825476631,1,0.999986
0.941270662781456,1,0.999988
0.9892863778174413,1,0.999993
0.9868206709454845,1,0.999989
0.9365440572543231,0,0.998822
0.9480421915467913,1,0.999988
0.9461963836806908,1,0.999988
0.9054336573640293,1,0.999906
0.9699236479069205,1,0.999991
0.9664308919038811,1,0.999990
0.9409236711409377,0,0.999866
0.965297224701471,1,0.999987
0.9849864540864779,1,0.999990
0.9733974143675301,1,0.999977
0.9572938730974486,0,0.998486
0.9742264723654176,1,0.999982
0.9678795733048818,1,0.999982
0.9594006311944614,0,0.999634
0.9686118635092755,0,0.999679
0.9585830611619625,1,0.999987
0.9585909665452117,1,0.999987
0.9586072067089985,1,0.999987
0.9586215526817071,1,0.999987
0.9586392702417971,1,0.999986
0.9668982480440933,0,0.903830
0.9485767545946651,1,0.999991
0.9646035228780121,1,0.999990
0.9479091161766544,1,0.999988
0.8681443710845712,1,0.999992
0.8957655224842437,1,0.999951
0.9517362037107476,0,0.999710
0.9343289564389461,1,0.999976
0.9724503443633357,1,0.999993
0.9841922480453105,1,0.999993
0.9818495305726815,1,0.999911
0.8880216855434088,0,0.999873
0.866593225672783,0,0.888241
0.9716243602685691,1,0.999970
0.9393519872611633,0,0.882238
0.9651603463195165,0,0.930222
0.6102936767647071,0,0.896553
0.9564732689667323,1,0.999968
0.9204522324133015,1,0.999983
0.9925497758986999,1,0.999992
0.9888859633444719,1,0.999989
0.9577176706364702,0,0.998719
0.9238443165764042,0,0.994966
0.9790133744298258,1,0.999976
0.9743126446685719,1,0.999990
0.9795579602585458,1,0.999991
0.9851020000523788,1,0.999980
0.9700265901861224,0,0.895736
0.9631867445255773,0,0.905348
0.9947330244837894,1,0.999925
0.9761674771509506,1,0.999989
0.928296307976729,0,0.999761
0.9285154121567979,1,0.999988
0.9288305503814284,1,0.999988
0.9293941200059824,1,0.999988
0.9300860504613722,0,0.999679
0.9006989481111292,1,0.999983
0.9347815872259868,0,0.850627
0.9545376529347793,1,0.999992
0.9429758375919481,0,0.999825
0.9634801267428572,1,0.999993
0.9581495388916272,1,0.999993
0.9432149006242144,1,0.999993
0.9222639553438888,1,0.999993
0.9021422032154907,1,0.999993
0.951053660902238,0,0.838299
0.9520567428039363,0,0.917194
0.7788820147009883,1,0.999991
0.7828203653655162,0,0.883949
0.9185674651183101,1,0.999989
0.945201506952524,0,0.858822
0.9443469981747901,0,0.867728
0.951735493737117,1,0.999985
0.9492577491084089,1,0.999984
0.9255480357986626,1,0.999982
0.961368564292967,0,0.919070
0.9683924263165816,1,0.999981
0.9783297908877061,1,0.999987
0.9768014624205646,1,0.999993
0.9768014624205646,1,0.999992
0.9937623483324844,1,0.999993
0.9937527068612906,1,0.999993
0.993748955878497,1,0.999993
0.967459145829609,1,0.999989
0.9287249326616643,1,0.999953
0.945668434304887,1,0.999993
0.9378630054186743,1,0.999992
0.9546338644719667,0,0.974287
0.9370401486959332,1,0.999992
0.9341431596983153,1,0.999991
0.934428382709141,0,0.851131
0.9228185623394546,1,0.999982
0.893976625085888,0,0.999386
