0.9716321089273985,0,0.999472
0.8795828758697717,0,0.408528
0.9727107830143031,0,0.970236
0.9672884744141955,0,0.998679
0.9352193089776094,0,0.999827
0.8992117872624601,0,0.999424
0.9549632861358082,1,0.999910
0.9526524357614777,0,0.999902
0.8501381338136655,0,0.999788
0.7478627474800622,1,0.999992
0.812455130219824,1,0.999944
0.7715429318236505,0,0.598007
0.789149627403338,0,0.167198
0.8205848540430509,0,0.614812
0.9027042429215822,1,0.999989
0.9549467814506856,0,0.587841
0.9738092974244504,1,0.999993
0.8258450736204315,1,0.999992
0.8820897138562624,0,0.784918
0.8534964233331046,1,0.999898
0.9391928825105778,1,0.999922
0.8431381997263417,0,0.966241
0.9748811919104816,1,0.999993
0.9684065901452976,0,0.686309
0.8660157533224734,0,0.700754
0.9810559093642638,1,0.999993
0.9419104727628173,0,0.748845
0.9616014965401227,0,0.999843
0.9400621743990627,1,0.999986
0.8610310210119825,1,0.999945
0.9368214968450586,0,0.940135
0.8722707233625984,0,0.602751
0.8637728022146677,1,0.999969
0.957974022082985,1,0.999985
0.9769139797917442,0,0.507835
0.9422554048403743,0,0.857220
0.8857485307817792,1,0.999982
0.9906515490271941,0,0.970040
0.9157272615698832,1,0.999977
0.8434635216594653,1,0.999993
0.8501347455022422,0,0.999728
0.8523281136115364,0,0.987767
0.8320937279721476,0,0.999852
0.9586059294474467,1,0.999993
0.8479041984250439,0,0.865441
0.8483223282091732,0,0.902466
0.9402806411090278,0,0.999199
0.9381874682630071,0,0.953830
0.9930648022407056,1,0.999986
0.9152941229828738,1,0.999992
0.9176880190682861,0,0.999084
0.8617755683179013,0,0.845067
0.784081265185054,0,0.999704
0.9169607825034091,1,0.999958
0.7107592302168895,1,0.999985
0.9712865879093997,1,0.999979
0.9876567338304468,0,0.999876
0.9591064631626287,1,0.999991
0.9591064631626287,1,0.999985
0.8791999496073017,0,0.865273
0.8903113596054923,0,0.866044
0.9074944340202282,0,0.865674
0.9240974234158136,0,0.865718
0.9780090758825633,1,0.999993
0.9777379116244561,1,0.999993
0.9720829619650151,1,0.999977
0.9446063639282875,0,0.999330
0.9808594688688368,1,0.999945
0.9286095791773891,1,0.999993
0.9274228962270735,0,0.998888
0.9265280252314658,0,0.990849
0.9250233760623047,1,0.999992
0.9227258643348444,1,0.999992
0.9167867892774403,0,0.997057
0.914102189975383,1,0.999992
0.9165823868068559,1,0.999992
0.9221136475160487,0,0.817252
0.9286586358515568,1,0.999992
0.9338887215674964,1,0.999992
0.9379666552477258,1,0.999989
0.93921093652499,0,0.837547
0.9418313139050183,0,0.998021
0.943615579211008,1,0.999916
0.8998865379993268,1,0.999983
0.554758582445277,0,0.940527
0.7441050899367482,1,0.999849
0.9509616663175574,0,0.999698
0.9433783293173738,1,0.999987
0.9222167658031775,0,0.999873
0.9813630373339041,1,0.999991
0.9865672444878759,1,0.999989
0.9737889491238504,1,0.999990
0.9736503259157324,1,0.999990
0.9530469579992253,0,0.998901
0.9398542009489537,0,0.863319
0.9503714994477085,0,0.864375
0.9667868346488542,0,0.864798
0.976514162192984,0,0.865304
0.9310086802801647,0,0.870456
0.8819134815186161,0,0.871368
0.7310321389618246,1,0.999989
0.9407336470829816,1,0.999993
0.940351650479958,1,0.999916
0.9769131633537443,1,0.999881
0.9671919485769986,1,0.999982
0.9734136507443284,0,0.999703
0.9438583331907214,1,0.999991
0.8955636013810855,0,0.999721
0.9524636969154959,1,0.999937
0.9368145794359354,0,0.999896
0.9201451871182009,1,0.999940
0.8074134327361827,1,0.999955
0.9576990235788871,1,0.999984
0.9633910521783438,1,0.999990
0.9538963076219267,1,0.999942
0.8642058069462342,0,0.999435
0.7615537486251173,0,0.828875
0.976610758790994,0,0.997588
0.9440403814202991,1,0.999985
0.9549687715323651,0,0.999922
0.9755229771616376,0,0.998741
0.9748216653533655,1,0.999982
0.9012593611137699,0,0.999699
0.8476764498041581,0,0.871909
0.9061218604255271,0,0.886327
0.9729790228877163,1,0.999991
0.9689588097058279,0,0.999705
0.9644116650241487,1,0.999986
0.9494270168814849,1,0.999989
0.8914932162733504,0,0.978545
0.7437645875657812,0,0.999796
0.7581171072404904,0,0.999460
0.7784920661736783,0,0.919861
0.806332659780536,0,0.921426
0.9384978179505086,1,0.999991
0.9546227054712165,0,0.847578
0.9728104852804261,0,0.861329
0.9861008998396859,1,0.999987
0.7844853924622892,1,0.999988
0.8133028143993866,0,0.999464
0.8704419676201192,0,0.883466
0.8521883682793745,0,0.999750
0.8114689876506264,1,0.999931
0.7733399591666651,1,0.999975
0.7770365484809748,1,0.999987
0.7783983141417313,1,0.999987
0.781134196608537,0,0.883888
0.7709568733218287,1,0.999988
0.899516207296767,1,0.999768
0.9538200539647693,0,0.877513
0.9689049835808757,1,0.999990
0.9687512717963997,0,0.999637
0.9700502197730965,1,0.999926
0.9694847796541278,1,0.999993
0.8641231391820654,0,0.999589
