0.7353072489729595,0,0.999387
0.5993607412417266,0,0.001852
0.6484372000617177,0,0.999653
0.5153668930496834,0,0.001652
0.48928844013558603,0,0.999310
0.3606503321025157,0,0.001929
0.20340789863392267,0,0.987818
0.2214171343986485,0,0.998110
0.25742332901738385,1,0.999973
0.30015365098761726,0,0.995984
0.3198498381777789,0,0.971487
0.3198498381777789,0,0.992466
0.4014884122486269,0,0.976912
0.42623730360017914,0,0.985009
0.45799699160250995,0,0.991511
0.3746498404307953,0,0.999789
0.3791332623048146,0,0.976157
0.3771169447890371,0,0.995543
0.4572812905262494,1,0.999924
0.550678912640891,0,0.966065
0.568729933032391,0,0.986426
0.601403384382261,0,0.994663
0.5653901680386982,0,0.999039
0.5337721590325741,0,0.966373
0.5408396865867239,0,0.976563
0.5586891242522692,0,0.956241
0.5586891242522692,0,0.997545
0.5550528616569669,0,0.999642
0.5669518019715004,0,0.988249
0.47461911417835956,0,0.988099
0.4199079691274786,0,0.971506
0.6587232070229436,0,0.996936
0.6452572637660977,0,0.968247
0.6458745309468187,0,0.999425
0.6535618084243615,0,0.997451
0.6493319429073883,0,0.973125
0.6472031640585469,0,0.991211
0.6452829193059578,0,0.968562
0.5519010050459318,0,0.990491
0.5502273801223848,0,0.999489
0.5346856700694573,0,0.996137
0.4109955340887073,0,0.999425
0.7131346534550284,0,0.994950
0.7248943885250769,0,0.988472
0.7428768269341086,0,0.999839
0.7335897506093652,0,0.973186
0.6426011353575622,0,0.983458
0.5110976518894351,0,0.995811
0.5817194750751697,0,0.992251
0.5878043895862973,0,0.998291
0.5870644661503819,0,0.995458
0.6103859434480945,0,0.997639
0.6544655164524296,0,0.998614
0.7143068801844341,0,0.990575
0.7144453271852794,0,0.996082
0.7326587508452564,0,0.997108
0.736310198977243,0,0.983340
0.7320665957468355,0,0.997398
0.7664368422571994,0,0.996903
0.4921084919424746,0,0.999730
0.6549319988223685,0,0.994913
0.7365574041374509,0,0.999674
0.7453329944733977,0,0.998752
0.7269620231224426,1,0.999899
0.7286965152359554,0,0.999750
0.7848651790290443,1,0.999858
0.720627732595223,1,0.999985
0.8355214866958011,0,0.999572
0.8410911186411204,0,0.998213
0.8273470114679552,1,0.999953
0.6713380299048781,1,0.999943
0.6300896262797441,0,0.994800
0.7443581911176261,1,0.999885
0.7578745398676996,0,0.993856
0.8639825011673183,1,0.999990
0.8457344351786753,1,0.999946
0.8277424005517442,0,0.999191
0.816504173827733,1,0.999912
0.8281609207458381,1,0.999991
0.8328765448060709,1,0.999974
0.8004766694602968,0,0.994312
0.7872628322290481,0,0.986757
0.7721972810527422,0,0.999627
0.770959513664867,1,0.999938
0.7215116959633485,0,0.978449
0.7929452503198443,0,0.999845
0.7926359038066245,1,0.999975
0.7922045162134528,0,0.999748
0.7268236373771466,1,0.999989
0.840416586378637,1,0.999942
0.8375494435110057,0,0.998962
0.8081111623874095,0,0.999131
0.5332212588003787,0,0.993914
0.6149868546669439,0,0.985624
0.5911082089127084,0,0.993898
0.5656693296700546,0,0.982445
0.5827785261176682,0,0.999784
0.5501448907733938,0,0.992221
0.5356004679566696,0,0.996690
0.5133718147388043,1,0.999961
0.52767113908913,0,0.989895
0.5142387578680159,0,0.995054
0.4923040276370529,1,0.999931
0.47317967217032747,1,0.999943
0.45616855070182555,1,0.999943
0.44721420083107827,0,0.994400
0.4414534389839535,0,0.999815
0.5488008724918243,0,0.994970
0.4968999313633722,1,0.999986
0.5424628372931102,0,0.981172
0.5990399887908604,1,0.999987
0.6864087449709455,0,0.998803
0.7768675008675028,0,0.995819
0.7946060051682138,0,0.999376
0.8195216267242017,0,0.985677
0.7362774568806534,0,0.999385
0.7360041019426281,1,0.999921
0.7722497950632263,0,0.996743
0.7672981830545125,1,0.999987
0.7623311397090501,0,0.994967
0.7815665662519881,1,0.999950
0.8166034479955318,1,0.999974
0.7992010820200816,1,0.999882
0.7784144922325458,1,0.999987
0.8084334301757045,0,0.999801
