NaN,0,0.983324
0.02073902232513602,0,0.881873
0.014118794034717582,0,0.766605
0.01100890268669252,0,0.761803
0.010190014091327698,0,0.885277
0.009650529750848085,0,0.886045
0.008606019879278582,0,0.873431
0.006685418526628618,0,0.842959
0.006340461596869415,0,0.882296
0.006148822431010073,0,0.879471
0.005518586351189616,0,0.814206
0.005466517243428612,0,0.885506
0.00530535830243581,0,0.885455
0.0038588661122571097,0,0.556247
0.49115104602916065,0,0.897483
0.42541622235645177,0,0.565168
0.4254057400018714,0,0.880261
0.4254057400018714,0,0.747020
0.4253906590965981,0,0.746735
0.4253736579095116,0,0.506925
0.42535524739059244,1,0.999995
0.4253356310558507,0,0.763881
0.4253148903427628,0,0.766027
0.42529305812382445,0,0.912484
0.4252701479893637,0,0.879873
0.42524616590080566,0,0.914486
0.42522111482214525,0,0.914154
0.4251949965596555,0,0.918296
0.42516781249223307,0,0.914373
0.4251395638610972,0,0.682873
0.4251102518849958,0,0.914375
0.42507987780559675,0,0.579230
0.425048442905672,0,0.766141
0.4250159485161663,0,0.763910
0.4193919196593178,0,0.914070
0.4193919196593178,0,0.757537
0.41925365603972803,0,0.998811
0.41925365603972803,0,0.753492
0.39465970889654145,0,0.996731
0.39465970889654145,0,0.928669
0.3945005442168986,0,0.830186
0.3945005442168986,0,0.827562
0.3941468391665911,0,0.929621
0.3937585624101486,0,0.995697
0.39272133642451235,0,0.932328
0.39272133642451235,0,0.931674
0.3925823119684649,0,0.995758
0.39210084601100725,0,0.928826
0.39210084601100725,0,0.927853
0.3907857037503428,0,0.928025
0.3907232597447629,0,0.872059
0.3907232597447629,0,0.906326
0.39033443984114924,0,0.927703
0.38998303251064836,0,0.907770
0.38998303251064836,0,0.892230
0.38962273105343187,0,0.906173
0.3892424333644533,0,0.889067
0.3891071732007166,0,0.928635
0.3891071732007166,0,0.930450
0.38897339969643957,0,0.900091
0.38865908275100536,0,0.955768
0.38865908275100536,0,0.953819
0.387872582472074,0,0.851889
0.387801223862222,0,0.977197
0.387801223862222,0,0.851607
0.38770159563222334,0,0.902489
0.38770159563222334,0,0.853768
0.38743360243980046,0,0.850105
0.38743360243980046,0,0.847875
0.3873756118431658,0,0.848883
0.38579184313504605,0,0.881497
0.38579184313504605,0,0.762604
0.38572277206888,0,0.927026
0.38560014159963657,0,0.871613
0.38560014159963657,0,0.849953
0.3505798454233854,0,0.923992
0.35027583788394595,0,0.875032
0.5809954605497374,1,0.999988
0.5809954605497374,0,0.999794
0.572760266213315,0,0.999953
0.571928109161851,1,0.999983
0.571928109161851,0,0.999670
0.5712052110276087,1,0.999979
0.5705025420534178,0,0.999789
0.5705854739082976,1,0.999994
0.5705854739082976,0,0.999968
0.5704262522749045,0,0.999818
0.5702725699311605,0,0.999927
0.5701350876602062,1,0.999974
0.5701350876602062,0,0.999865
0.5700063445328586,0,0.999906
0.6322400423577532,0,0.999831
0.6317074304055948,0,0.999758
0.6317074304055948,1,0.999988
0.6788634379868989,0,0.999886
0.6778289548773332,0,0.999933
0.6768589515216461,0,0.999889
0.7168473959061501,0,0.999886
0.7157594232732436,0,0.999846
0.714724776057384,0,0.999790
0.714724776057384,1,0.999997
0.8202725216959103,1,0.999988
0.9046036495660033,0,0.999881
0.9221450354517194,1,0.999971
0.922121205287039,0,0.271534
0.9217014451989115,0,0.968210
0.9212729631853523,0,0.999881
0.9212409044851074,0,0.945496
0.9190650321051118,0,0.807570
0.9190340560434654,0,0.859108
0.918169640420953,0,0.799776
0.8968213901733562,0,0.869770
0.8961606830030022,0,0.999907
0.8961606830030022,0,0.749428
0.8889517865872548,0,0.731657
0.8737452915930052,0,0.999905
0.8737452915930052,0,0.999953
0.8737452915930052,0,0.904163
0.8651679506012547,0,0.830983
0.8306176907473429,0,0.999878
0.8306176907473429,0,0.839846
