1.0,1,0.999998
1.0,1,0.999998
1.0,1,0.999998
1.0,1,0.999998
1.0,1,0.999998
1.0,1,0.999998
1.0,1,0.999998
1.0,1,0.999998
1.0,1,0.999998
1.0,1,0.999998
1.0,1,0.999998
1.0,1,0.999998
1.0,1,0.999998
0.004948773705005314,1,0.999995
0.004922743674288942,1,0.999997
0.004780752592908138,1,0.999979
0.004780752592908138,1,0.999997
0.004780752592908138,1,0.999997
0.004780752592908138,1,0.999997
0.004780752592908138,1,0.999997
0.004780752592908138,1,0.999996
0.004780752592908138,1,0.999996
0.004780752592908138,0,0.999899
0.004780752592908138,0,0.999748
0.004780752592908138,0,0.999721
0.004396838669692371,0,0.840685
0.004396838669692371,0,0.999928
0.004396838669692371,1,0.999997
0.004396838669692371,1,0.999979
0.004396838669692371,1,0.999997
0.004396838669692371,1,0.999996
0.004396838669692371,0,0.999799
0.004396838669692371,1,0.999996
0.004396838669692371,0,0.999737
0.004396838669692371,1,0.999994
0.004396838669692371,1,0.999993
0.0038087690122980407,1,0.999997
0.0038087690122980407,1,0.999984
0.0038087690122980407,1,0.999997
0.0038087690122980407,1,0.999996
0.0038087690122980407,1,0.999992
0.0038087690122980407,1,0.999995
0.0038087690122980407,1,0.999994
0.0038087690122980407,0,0.999535
0.0038087690122980407,1,0.999992
0.0036588420192497817,1,0.999998
0.0036588420192497817,1,0.999998
0.0036588420192497817,1,0.999998
0.0036588420192497817,1,0.999998
0.0036588420192497817,1,0.999998
0.0036588420192497817,1,0.999998
0.0036588420192497817,1,0.999998
0.0036588420192497817,1,0.999998
0.0036588420192497817,1,0.999997
0.0036588420192497817,1,0.999989
0.0036588420192497817,0,0.999891
0.0036588420192497817,1,0.999978
0.0036588420192497817,1,0.999997
0.0036588420192497817,1,0.999996
0.0036588420192497817,0,0.999796
0.0036588420192497817,1,0.999996
0.0036588420192497817,1,0.999990
0.0036588420192497817,1,0.999994
0.0036588420192497817,1,0.999993
0.0035085481495837215,1,0.999997
0.0035085481495837215,1,0.999987
0.0035085481495837215,1,0.999981
0.0035085481495837215,1,0.999997
0.0035085481495837215,1,0.999980
0.0035085481495837215,1,0.999996
0.0035085481495837215,1,0.999996
0.0035085481495837215,0,0.999615
0.0035085481495837215,0,0.999662
0.0035085481495837215,1,0.999994
0.0035085481495837215,1,0.999971
0.0033212170339742978,1,0.999997
0.0033212170339742978,0,0.999848
0.0033212170339742978,1,0.999992
0.0033212170339742978,1,0.999984
0.0033212170339742978,1,0.999997
0.0033212170339742978,1,0.999996
0.0033212170339742978,1,0.999996
0.0033212170339742978,0,0.999840
0.0033212170339742978,0,0.999790
0.0033212170339742978,1,0.999994
0.0033212170339742978,1,0.999993
0.0031065876889554847,1,0.999997
0.0031065876889554847,1,0.999979
0.0031065876889554847,1,0.999997
0.0031065876889554847,1,0.999997
0.0031065876889554847,1,0.999970
0.0031065876889554847,1,0.999996
0.0031065876889554847,1,0.999996
0.0031065876889554847,1,0.999995
0.0031065876889554847,1,0.999968
0.0031065876889554847,0,0.999925
0.0031065876889554847,1,0.999978
0.002892229626644604,1,0.999997
0.002892229626644604,1,0.999987
0.002892229626644604,1,0.999997
0.002892229626644604,1,0.999990
0.002892229626644604,1,0.999993
0.002892229626644604,1,0.999996
0.002892229626644604,1,0.999996
0.002892229626644604,0,0.999710
0.002892229626644604,0,0.999714
0.002892229626644604,0,0.999663
0.002892229626644604,1,0.999977
0.0026604092812817126,1,0.999997
0.0026604092812817126,1,0.999992
0.0026604092812817126,1,0.999987
0.0026604092812817126,1,0.999997
0.0026604092812817126,1,0.999997
0.0026604092812817126,1,0.999996
0.0026604092812817126,0,0.999786
0.0026604092812817126,0,0.999502
0.0026604092812817126,0,0.998778
0.0026604092812817126,0,0.999318
0.0026604092812817126,1,0.999960
0.0024120568354996518,1,0.999997
0.0024120568354996518,0,0.999901
0.0024120568354996518,1,0.999997
0.0024120568354996518,0,0.999951
0.0024120568354996518,1,0.999980
0.0024120568354996518,1,0.999996
0.0024120568354996518,1,0.999996
0.0024120568354996518,0,0.999245
0.0024120568354996518,0,0.998752
0.0024120568354996518,0,0.998237
0.0024120568354996518,1,0.999943
0.0021487916322656406,1,0.999992
0.0021487916322656406,0,0.999965
0.0021487916322656406,1,0.999983
0.0021487916322656406,0,0.999958
0.0021487916322656406,1,0.999997
0.0021487916322656406,0,0.999812
0.0021487916322656406,0,0.999068
0.0021487916322656406,0,0.998977
0.0021487916322656406,0,0.998812
0.0021487916322656406,0,0.998881
0.0021487916322656406,1,0.999949
0.0018729336026077517,1,0.999987
0.0018729336026077517,1,0.999997
0.0018729336026077517,0,0.999969
0.0018729336026077517,1,0.999997
0.0018729336026077517,1,0.999996
0.0018729336026077517,1,0.999996
0.0018729336026077517,0,0.998862
0.0018729336026077517,0,0.998451
0.0018729336026077517,0,0.998485
0.0018729336026077517,1,0.999937
0.0015874449005000432,1,0.999997
0.0015874449005000432,1,0.999987
0.0015874449005000432,1,0.999973
0.0015874449005000432,0,0.999861
0.0015874449005000432,0,0.999951
0.0015874449005000432,1,0.999996
0.0015874449005000432,1,0.999996
0.0015874449005000432,0,0.998614
0.0015874449005000432,0,0.998161
0.0015874449005000432,0,0.998147
0.0015874449005000432,0,0.999872
0.00129579784673808,1,0.999997
0.00129579784673808,1,0.999987
0.00129579784673808,0,0.999971
0.00129579784673808,0,0.999860
0.00129579784673808,0,0.999812
0.00129579784673808,1,0.999996
0.00129579784673808,0,0.999796
0.00129579784673808,0,0.998360
0.00129579784673808,0,0.998119
0.00129579784673808,0,0.997795
0.00129579784673808,1,0.999986
0.0010017796365347233,1,0.999997
0.0010017796365347233,1,0.999997
0.0010017796365347233,0,0.999944
0.0010017796365347233,0,0.999945
0.0010017796365347233,0,0.999766
0.0010017796365347233,1,0.999996
0.0010017796365347233,1,0.999996
0.0010017796365347233,0,0.997807
0.0010017796365347233,0,0.997554
0.0010017796365347233,0,0.997433
0.0010017796365347233,1,0.999993
7.092581222033793E-4,1,0.999997
7.092581222033793E-4,1,0.999992
7.092581222033793E-4,0,0.999963
7.092581222033793E-4,0,0.999939
7.092581222033793E-4,0,0.999758
7.092581222033793E-4,1,0.999996
7.092581222033793E-4,1,0.999996
7.092581222033793E-4,0,0.997842
7.092581222033793E-4,0,0.997442
7.092581222033793E-4,0,0.997076
7.092581222033793E-4,0,0.999858
4.219417384461338E-4,1,0.999997
4.219417384461338E-4,0,0.999907
4.219417384461338E-4,0,0.999925
4.219417384461338E-4,0,0.999932
4.219417384461338E-4,1,0.999997
4.219417384461338E-4,0,0.999952
4.219417384461338E-4,0,0.999772
4.219417384461338E-4,0,0.997521
4.219417384461338E-4,0,0.997183
4.219417384461338E-4,1,0.999994
4.219417384461338E-4,1,0.999992
1.4316723107377438E-4,1,0.999997
1.4316723107377438E-4,1,0.999989
1.4316723107377438E-4,1,0.999997
1.4316723107377438E-4,1,0.999997
1.4316723107377438E-4,1,0.999966
1.4316723107377438E-4,0,0.999590
1.4316723107377438E-4,0,0.999541
1.4316723107377438E-4,0,0.997266
1.4316723107377438E-4,0,0.996250
1.4316723107377438E-4,1,0.999954
1.4316723107377438E-4,0,0.999815
-1.242587223897018E-4,0,0.999904
-1.242587223897018E-4,0,0.999960
-1.242587223897018E-4,0,0.999931
-1.242587223897018E-4,1,0.999977
-1.242587223897018E-4,1,0.999997
-1.242587223897018E-4,0,0.999378
-1.242587223897018E-4,0,0.997220
-1.242587223897018E-4,0,0.996961
-1.242587223897018E-4,0,0.996472
-1.242587223897018E-4,0,0.999899
-1.242587223897018E-4,0,0.999801
-3.781506903339095E-4,1,0.999997
-3.781506903339095E-4,1,0.999997
-3.781506903339095E-4,0,0.999925
-3.781506903339095E-4,1,0.999997
-3.781506903339095E-4,0,0.999931
-3.781506903339095E-4,0,0.999165
-3.781506903339095E-4,0,0.997080
-3.781506903339095E-4,0,0.996421
-3.781506903339095E-4,0,0.996131
-3.781506903339095E-4,0,0.999816
-3.781506903339095E-4,0,0.999846
-6.169687542112479E-4,1,0.999979
-6.169687542112479E-4,1,0.999979
-6.169687542112479E-4,0,0.999919
-6.169687542112479E-4,1,0.999984
-6.169687542112479E-4,1,0.999997
-6.169687542112479E-4,0,0.998556
-6.169687542112479E-4,0,0.996827
-6.169687542112479E-4,0,0.996130
-6.169687542112479E-4,0,0.995713
-6.169687542112479E-4,0,0.999799
-8.397867738862448E-4,1,0.999997
-8.397867738862448E-4,1,0.999997
-8.397867738862448E-4,1,0.999987
-8.397867738862448E-4,0,0.999731
-8.397867738862448E-4,1,0.999997
-8.397867738862448E-4,1,0.999996
-8.397867738862448E-4,0,0.998323
-8.397867738862448E-4,0,0.996538
-8.397867738862448E-4,0,0.995785
-8.397867738862448E-4,0,0.995369
-8.397867738862448E-4,0,0.999757
-0.0010462213133067937,1,0.999997
-0.0010462213133067937,1,0.999987
-0.0010462213133067937,0,0.999941
-0.0010462213133067937,0,0.999760
-0.0010462213133067937,0,0.999568
-0.0010462213133067937,1,0.999989
-0.0010462213133067937,0,0.998279
-0.0010462213133067937,0,0.995361
-0.0010462213133067937,0,0.995002
-0.0010462213133067937,1,0.999994
-0.0010462213133067937,1,0.999985
-0.0012363388263485094,0,0.999918
-0.0012363388263485094,1,0.999992
-0.0012363388263485094,1,0.999973
-0.0012363388263485094,0,0.999855
-0.0012363388263485094,0,0.999527
-0.0012363388263485094,1,0.999996
-0.0012363388263485094,0,0.998250
-0.0012363388263485094,0,0.995687
-0.0012363388263485094,0,0.994776
-0.0012363388263485094,0,0.999674
-0.0012363388263485094,1,0.999941
-0.001410556252968973,1,0.999997
-0.001410556252968973,1,0.999997
-0.001410556252968973,1,0.999997
-0.001410556252968973,0,0.999881
-0.001410556252968973,1,0.999990
-0.001410556252968973,1,0.999996
-0.001410556252968973,0,0.997998
-0.001410556252968973,0,0.995649
-0.001410556252968973,0,0.994986
-0.001410556252968973,0,0.999659
-0.001410556252968973,0,0.999715
-0.0015695460724737711,1,0.999997
-0.0015695460724737711,0,0.999888
-0.0015695460724737711,1,0.999997
-0.0015695460724737711,0,0.999874
-0.0015695460724737711,0,0.999927
-0.0015695460724737711,1,0.999996
-0.0015695460724737711,0,0.997755
-0.0015695460724737711,0,0.995332
-0.0015695460724737711,0,0.994603
-0.0015695460724737711,0,0.999879
-0.0015695460724737711,1,0.999992
-0.0017141525523503161,1,0.999997
-0.0017141525523503161,1,0.999979
-0.0017141525523503161,1,0.999997
-0.0017141525523503161,1,0.999997
-0.0017141525523503161,0,0.999872
-0.0017141525523503161,0,0.998586
-0.0017141525523503161,0,0.997310
-0.0017141525523503161,0,0.995087
-0.0017141525523503161,0,0.994313
-0.0017141525523503161,0,0.999864
-0.0017141525523503161,0,0.999675
-0.0018453223015253918,1,0.999997
-0.0018453223015253918,0,0.999941
-0.0018453223015253918,1,0.999997
-0.0018453223015253918,1,0.999997
-0.0018453223015253918,0,0.999865
-0.0018453223015253918,0,0.997554
-0.0018453223015253918,0,0.997066
-0.0018453223015253918,0,0.994802
-0.0018453223015253918,0,0.993366
-0.0018453223015253918,0,0.999824
-0.0018453223015253918,0,0.999656
-0.0019640496216249133,1,0.999997
-0.0019640496216249133,1,0.999997
-0.0019640496216249133,1,0.999997
-0.0019640496216249133,1,0.999984
-0.0019640496216249133,0,0.999946
-0.0019640496216249133,0,0.997348
-0.0019640496216249133,0,0.997029
-0.0019640496216249133,0,0.994515
-0.0019640496216249133,0,0.993434
-0.0019640496216249133,0,0.999796
-0.0019640496216249133,1,0.999992
-0.00207133553396977,1,0.999997
-0.00207133553396977,0,0.999885
-0.00207133553396977,1,0.999992
-0.00207133553396977,0,0.999925
-0.00207133553396977,0,0.999867
-0.00207133553396977,0,0.997088
-0.00207133553396977,0,0.996561
-0.00207133553396977,0,0.994227
-0.00207133553396977,0,0.993207
-0.00207133553396977,0,0.999754
-0.00207133553396977,0,0.999617
-0.002168158544722101,1,0.999997
-0.002168158544722101,1,0.999979
-0.002168158544722101,1,0.999997
-0.002168158544722101,1,0.999997
-0.002168158544722101,0,0.999866
-0.002168158544722101,0,0.996912
-0.002168158544722101,0,0.994464
-0.002168158544722101,0,0.993946
-0.002168158544722101,0,0.999702
-0.002168158544722101,0,0.999739
-0.002168158544722101,1,0.999990
-0.0022554549510020506,0,0.999864
-0.0022554549510020506,1,0.999973
-0.0022554549510020506,1,0.999992
-0.0022554549510020506,1,0.999990
-0.0022554549510020506,1,0.999976
-0.0022554549510020506,0,0.995856
-0.0022554549510020506,0,0.994345
-0.0022554549510020506,0,0.993298
-0.0022554549510020506,0,0.999838
-0.0022554549510020506,0,0.999647
-0.0023341065701722136,1,0.999997
-0.0023341065701722136,1,0.999973
-0.0023341065701722136,0,0.999955
-0.0023341065701722136,0,0.999537
-0.0023341065701722136,1,0.999984
-0.0023341065701722136,1,0.999996
-0.0023341065701722136,0,0.996367
-0.0023341065701722136,0,0.994003
-0.0023341065701722136,0,0.992882
-0.0023341065701722136,0,0.999911
-0.0023341065701722136,0,0.999622
-0.0024049340283272625,1,0.999997
-0.0024049340283272625,1,0.999992
-0.0024049340283272625,1,0.999997
-0.0024049340283272625,0,0.999914
-0.0024049340283272625,0,0.999270
-0.0024049340283272625,1,0.999996
-0.0024049340283272625,0,0.996088
-0.0024049340283272625,0,0.992305
-0.0024049340283272625,0,0.991789
-0.0024049340283272625,0,0.999860
-0.0024049340283272625,1,0.999993
-0.002468694060688449,1,0.999997
-0.002468694060688449,1,0.999992
-0.002468694060688449,1,0.999997
-0.002468694060688449,0,0.999816
-0.002468694060688449,0,0.999768
-0.002468694060688449,1,0.999996
-0.002468694060688449,0,0.995791
-0.002468694060688449,0,0.992791
-0.002468694060688449,0,0.992236
-0.002468694060688449,0,0.999830
-0.002468694060688449,1,0.999992
-0.0025260795901964946,1,0.999995
-0.0025260795901964946,0,0.999957
-0.0025260795901964946,1,0.999997
-0.0025260795901964946,1,0.999997
-0.0025260795901964946,0,0.999963
-0.0025260795901964946,0,0.996768
-0.0025260795901964946,0,0.995484
-0.0025260795901964946,0,0.992865
-0.0025260795901964946,0,0.999448
-0.0025260795901964946,0,0.999748
-0.0025260795901964946,0,0.999532
-0.0025777216244016253,1,0.999997
-0.0025777216244016253,1,0.999997
-0.0025777216244016253,1,0.999989
-0.0025777216244016253,1,0.999997
-0.0025777216244016253,1,0.999980
-0.0025777216244016253,0,0.996560
-0.0025777216244016253,0,0.995241
-0.0025777216244016253,0,0.992601
-0.0025777216244016253,0,0.999463
-0.0025777216244016253,0,0.999734
-0.0025777216244016253,1,0.999984
