0.93474316553344,0,0.000240
0.9371246444365827,0,0.946182
0.939786685571253,0,0.000288
0.9369219619429573,0,0.000300
0.9359868305407435,0,0.000304
0.932751397436523,0,0.000289
0.9300306061591592,0,0.000288
0.9284737666158176,0,0.000289
0.9268172880313652,0,0.000302
0.9251013238332798,0,0.000303
0.9233722192512784,0,0.000316
0.9216801795356859,0,0.000316
0.9175733175634171,0,0.000288
0.9150815357850782,0,0.000300
0.9109033946734881,0,0.000302
0.9102388287009265,0,0.000303
0.9100736038794351,0,0.000315
0.9094234309260398,0,0.000316
0.9078195358402457,0,0.000316
0.9055593608535294,0,0.000319
0.8985501199255763,0,0.000288
0.8937876739846575,0,0.000300
0.8878480240514437,0,0.000302
0.8784985602717866,0,0.000303
0.874019899126734,0,0.000303
0.863245664793659,0,0.000302
0.8576781010122035,0,0.000300
0.8523582700873173,0,0.000288
0.8482280590472798,0,0.000288
0.845166627646297,0,0.000288
0.8129502338408244,1,0.999998
0.7959518168675234,0,0.939002
0.7719623108507945,0,0.939494
0.7639315244196827,0,0.938573
0.7475501849903395,0,0.938784
0.7738975228824689,0,0.949875
0.7600274705032871,0,0.936606
0.3414776812554345,0,0.935376
0.7748117384400718,0,0.936150
0.3754981362495151,0,0.939884
0.7808991258937173,0,0.935738
0.7933142840628552,0,0.936422
0.7833390537758359,0,0.935439
0.78208198474509,0,0.935891
0.7682269847074197,0,0.935945
0.3486238036309946,0,0.936118
0.776348449629004,0,0.936653
0.36779955796846864,0,0.934982
0.7784869451523085,0,0.936863
0.3857549009378138,0,0.934443
0.49941091987011305,0,0.932485
0.44464674657639847,0,0.935196
0.4216005409760585,0,0.000299
0.3947035734258295,0,0.934958
0.44871029367238097,0,0.933598
0.4258529517154408,0,0.000310
0.3791784120093383,0,0.934249
0.7642174468513716,0,0.934551
0.42782848181574357,0,0.000310
0.562384856869061,0,0.934963
0.48073674076234546,0,0.935022
0.47060976408512467,0,0.000312
0.43919924937350835,0,0.944299
0.43919924937350835,0,0.000319
0.43413757636204003,0,0.935070
0.43413757636204003,0,0.000321
0.6891163190037415,0,0.000312
0.6891163190037415,0,0.000325
0.7209563255257672,0,0.000315
0.709427460303667,0,0.000313
0.709427460303667,0,0.000325
0.7381657008664516,0,0.000316
0.5756419085574079,0,0.000322
0.5513850683954515,0,0.932940
0.5319040722505847,0,0.933480
0.5284690650228989,0,0.181978
0.5245224301504494,0,0.935045
0.5245224301504494,0,0.000323
0.5963411946758164,0,0.934832
0.5963411946758164,0,0.000322
0.6066115868531526,0,0.905731
0.6066115868531526,0,0.000321
0.6347421775209928,0,0.946910
0.6347421775209928,0,0.000321
0.6523264103338985,1,0.999990
0.6523264103338985,0,0.000319
0.6793450538138779,0,0.804248
0.6793450538138779,0,0.000316
0.6793450538138779,0,0.000331
0.7096451160133596,0,0.000568
0.7096451160133596,0,0.000593
0.7396626544433228,0,0.000689
0.7396626544433228,0,0.000719
0.7678049948892163,0,0.000772
0.7678049948892163,0,0.000844
0.7742913255757996,0,0.000773
0.7742913255757996,0,0.000844
0.7982297869151782,0,0.936731
0.7982297869151782,0,0.000842
0.8200352590268662,0,0.936053
0.8200352590268662,0,0.000837
0.8395804529165145,0,0.153021
