0.01464659554262022,0,0.386619
0.05198058191779918,0,0.351403
0.03288496045623206,0,0.366548
-0.0030526148062447575,0,0.472927
-0.014356097104079955,0,0.849857
-0.010794690604548025,0,0.319412
-0.01189146227193813,0,0.793831
-0.01148442791849676,0,0.245958
-0.011493565508256592,0,0.349955
-0.010821068791076872,0,0.408312
-0.012828604799240502,0,0.355958
-0.005953255825235341,0,0.400882
0.02225550748194796,0,0.632350
0.045877466231731494,0,0.615302
0.009635897371485307,0,0.858870
0.004941315295356759,0,0.832144
0.0032631976532708244,0,0.627722
-0.0046102105434087035,0,0.867231
-0.004849816777456595,0,0.793185
0.00556162565023981,0,0.773148
0.8520007926057845,0,0.968606
0.49794305458701055,0,0.938456
0.505658133939003,0,0.972674
0.4045714649370862,0,0.936664
0.8037735541515527,0,0.982671
0.7384132277545314,1,0.999886
0.16255357793363237,0,0.982061
0.1928489367847961,0,0.984112
0.281463639983002,0,0.981254
0.3148989808794484,0,0.980769
0.4375604005037875,0,0.972389
0.3771941826259868,0,0.938578
0.3595493539332021,0,0.971671
0.3789818878265443,1,0.999859
0.14613277789916576,0,0.810573
0.2033401183909956,0,0.997572
0.16279081724429387,0,0.983707
0.19918953447205148,0,0.945174
0.3016360746061252,0,0.997175
0.022747027703873903,0,0.970267
0.03895497676502521,0,0.737832
0.009483012469320004,0,0.877680
0.5398000661651108,0,0.929678
0.7784411667497513,0,0.967420
0.3152283429651558,0,0.997321
0.33945620102617713,0,0.840400
0.3143284272800161,0,0.993666
0.34544537526563307,0,0.994720
0.37563011443206146,1,0.999971
0.3413265527108206,0,0.979713
0.22407629002921828,0,0.710492
0.5527675143686669,0,0.950181
0.4827568160911951,1,0.999664
0.10407185810942446,0,0.999092
0.11474370611736297,0,0.928150
0.27818281721231863,0,0.918849
0.3060491544927588,0,0.962779
0.33993238425682265,0,0.976549
0.4058923239568091,0,0.981895
0.500137160332651,0,0.997729
0.5972769385270863,0,0.996282
0.6096326285421271,0,0.954769
0.18917064808246434,0,0.981313
0.4400055575361217,1,0.999984
0.40281629670021063,0,0.758677
0.6007242992842023,0,0.966587
0.5666110594812965,1,0.999802
0.6853185133408447,0,0.999602
0.5883634133121196,0,0.847888
0.18010569568957208,0,0.978827
0.2179433076837253,0,0.999135
0.5584401891877867,0,0.983681
0.49321646905721833,0,0.914105
0.2902653843915673,0,0.990861
0.2566465932261442,0,0.963364
0.4647699281078953,0,0.893972
0.2845554025089511,0,0.928800
0.2236705364880363,0,0.993960
0.16507738507917927,0,0.880656
0.28720866420918767,0,0.945112
0.2909627247340035,0,0.993331
0.41311628040568604,0,0.971470
0.4348522213735436,0,0.974742
0.3849506326079407,0,0.944422
0.21528260661719775,0,0.897744
0.3219904195212988,0,0.973368
0.30970865076965237,0,0.952201
0.32086512929889094,0,0.998944
0.31190199016435066,0,0.871780
0.3252141871265605,0,0.908179
0.6178314880017337,0,0.998212
0.22427746683040015,0,0.947073
0.37126593997362467,0,0.951895
0.1615797352516994,0,0.914046
0.16768671224984777,0,0.726375
0.2307695210413357,0,0.990684
0.3661870164461085,0,0.919094
0.45033175282376575,0,0.934834
0.5817540640480223,0,0.472944
0.4923936660599907,0,0.965752
0.41087636093618046,0,0.871232
0.4215642722706261,0,0.901928
0.417582563165196,0,0.992419
0.4361905976589247,0,0.971381
0.2411603122384885,0,0.969481
0.447222126770072,0,0.993718
0.6075267620400414,0,0.997512
0.5437608874643233,0,0.685756
0.28684297748998644,0,0.870546
0.4210439792537007,0,0.986528
0.523662751577333,0,0.923684
0.41235076041922164,0,0.979829
0.5597172834396551,0,0.893760
0.49235387022895005,1,0.999957
0.03635227991568028,0,0.995097
0.573997370412774,0,0.999151
0.8294406628752524,1,0.999916
0.28138343841806673,0,0.957274
0.48270872865056735,0,0.988814
0.6860750423302379,0,0.997987
0.7518964943646529,0,0.999163
0.8611777194823715,0,0.998849
0.4490400932141979,0,0.913911
0.33889824653833595,0,0.863376
0.057947482992161466,0,0.970458
0.05018286839211079,0,0.904699
0.14795940262447624,0,0.977265
0.05031228544713553,0,0.420984
0.7405972036498223,0,0.959485
0.7652560846624147,0,0.968425
0.7849709223203599,1,0.997597
0.012336431493519415,0,0.787386
0.06019026472345999,0,0.942795
0.779362891805851,0,0.990246
0.3371651818175474,0,0.911585
0.4073999334365067,0,0.991925
0.2727787031095472,0,0.971046
0.16033196648026432,0,0.991239
0.3942092931871512,0,0.952714
0.29128347735054994,0,0.982396
0.2588327581091116,0,0.926939
0.49143749968695993,0,0.947733
0.17209594429968197,0,0.972229
0.17760210566037296,0,0.917233
0.20205649758664845,0,0.942431
0.11736898874307733,0,0.537229
0.06725304634621355,0,0.834079
0.09422019538406964,0,0.989037
0.3386507183718808,0,0.995899
0.1427322050319724,0,0.873349
0.4984997733869895,0,0.953448
0.4441995808215615,0,0.990850
0.38905691327485464,0,0.812806
0.19290372714717696,0,0.942862
0.47013676508590324,0,0.884397
0.3878303237056147,0,0.996310
0.5509731445910355,0,0.999128
0.6281993998498343,0,0.975905
0.3875938776497944,0,0.923689
0.2552177527665227,0,0.983838
0.437407244795714,1,0.999923
0.39689521929451765,0,0.994525
0.5189349435356438,0,0.994021
0.015704249141160382,0,0.895307
0.21772574872488093,0,0.978101
0.3425391656121565,0,0.898966
0.26167501771707175,0,0.987128
0.2031946635719765,0,0.968606
0.47203470158798816,1,0.999352
0.1473945505437572,0,0.919687
0.4026022514857988,0,0.978790
0.6057460864119177,0,0.999193
0.5597231954632162,0,0.997924
0.650109342703194,0,0.971081
0.3832098088571537,0,0.998843
0.6285400648265281,0,0.998839
0.21799928354768694,0,0.935303
0.35920092698725065,0,0.953390
0.4676953922450649,0,0.908700
0.15172131029413274,0,0.983674
0.3916731662664328,0,0.988275
0.23761345272892048,0,0.921126
0.4492430364459997,0,0.994573
0.5148669368754178,0,0.992952
0.4146679954056855,0,0.992762
0.4290399358803309,0,0.936943
0.3575724378296281,0,0.983977
0.40519868080691235,0,0.947234
0.33530421513366804,0,0.994574
0.39628880628948454,0,0.974411
0.09553482639089148,0,0.998534
0.11657501414428376,0,0.936528
0.07487164832250273,0,0.942267
0.24357679845290667,0,0.924839
0.38461713055373686,0,0.997697
0.2852933341875112,0,0.998118
0.37867922356098205,0,0.996329
0.5729764056138865,0,0.997564
0.2608804401507012,0,0.999241
0.3967930503201156,0,0.912692
0.3178467905208423,0,0.931991
0.4941375106164314,0,0.867207
0.3686146636646727,0,0.784468
0.33688402068521206,0,0.928627
0.38424134273500393,0,0.917151
0.49052536174446343,0,0.909340
0.3949054612506507,0,0.845007
0.6056192857225152,0,0.999491
0.640903904561014,0,0.999298
0.713517866519047,0,0.902447
0.22146952355596758,0,0.669980
0.40605696949946596,1,0.999733
0.5839422638459772,0,0.999085
0.5170153482175274,0,0.988919
0.10751520539954693,0,0.276217
0.3086157601989928,0,0.998607
0.3425030190069274,0,0.996300
0.5220609077960455,0,0.827583
0.44721553352918914,0,0.994757
0.16131301608313894,0,0.983313
0.11287286286260331,0,0.671873
0.17967108840990928,0,0.964869
0.3472352443260097,0,0.945363
0.15122591023984608,0,0.746892
0.2399383807058322,0,0.996989
0.4124093763197863,0,0.979242
0.4425488119492236,0,0.993123
0.4225882483403784,0,0.973835
0.33911122907629176,1,0.999733
0.5656172811998368,0,0.999755
0.4350653116456451,0,0.983217
0.5310093720277836,0,0.919442
0.08687324228670658,0,0.822891
0.3537098370702411,0,0.986207
0.5148498968593236,0,0.992788
0.6795483714222457,0,0.998922
0.16758068287150604,0,0.886646
0.309747978676741,0,0.975936
0.28563396365251026,0,0.954696
0.2327216630206125,0,0.966228
0.2177571945904931,0,0.962883
0.27292394447019624,0,0.970388
0.25435258135412087,0,0.705525
0.1562975913534482,0,0.874233
0.17245128593607886,0,0.903543
0.24321808139664905,0,0.976813
0.2683560075651489,0,0.934947
0.21889186832564844,0,0.886814
0.20939667252291133,0,0.618424
0.30957513080088067,0,0.963943
0.3232906095359285,0,0.993229
0.007560961522221488,0,0.769434
0.049105876589654214,0,0.910382
0.49031602810711883,0,0.846778
0.4700430649612449,0,0.965214
0.36504673439751295,0,0.983597
0.6005216501718207,0,0.994583
0.49079391940647904,0,0.826509
0.4827232627931045,0,0.999216
0.5782989158001516,0,0.972710
0.49087659453411264,0,0.969632
0.44138777958816644,0,0.471761
0.13224256577502314,0,0.925890
0.4520815033459395,0,0.994063
0.0947265886857117,0,0.782158
0.40378582368632904,0,0.903129
0.4202574628914314,0,0.999544
0.5749537752063656,0,0.975048
0.33956635195866536,0,0.975483
0.6187003127807488,0,0.980144
0.6059965341898327,0,0.990865
0.37502049203645826,0,0.999322
0.4292729830573846,0,0.997874
0.5596616507179581,1,0.999900
0.7016499281924149,0,0.966768
0.16039692992503266,0,0.979788
0.44840899181560995,0,0.754744
0.24256290194075397,0,0.975431
0.2879192986141182,0,0.591716
0.35392204005874267,0,0.993448
0.5218343652852148,0,0.999238
0.5293737195063124,0,0.990360
0.7354193704800113,1,0.999826
0.7543136671412841,0,0.997138
0.6508137152691401,0,0.997286
0.16225220583506977,0,0.962304
0.6477311374569825,0,0.991615
0.6694419382128919,0,0.992638
0.7010989283991536,0,0.996072
0.5272211932803891,0,0.988033
0.5584138648756382,0,0.986818
0.21079170848605033,0,0.933184
0.12479238309518433,0,0.918764
0.24505753000503377,0,0.981221
0.1708872442061073,0,0.905671
0.1039995140412276,0,0.890426
0.1745033327999966,0,0.957885
0.050179745436924016,0,0.775394
0.1322832417718608,0,0.994973
0.7895733978938514,0,0.993210
0.817986985361121,0,0.997154
0.7951089120703403,1,0.998994
0.4405588710767632,0,0.997626
0.41114298364689755,0,0.997485
0.5996832946492504,0,0.997066
0.11554686392861672,0,0.893509
0.16432291479197103,0,0.871223
0.4555782718488232,0,0.977178
0.1928188815535604,0,0.966076
0.09878069455713434,0,0.893533
0.18921531879926276,0,0.982379
0.17789799809317852,0,0.940016
0.1408303211203564,0,0.949049
0.30425837334188227,0,0.894749
0.36282487110900513,0,0.997482
0.29618465411428435,0,0.980611
0.1977220821066086,0,0.998586
0.30338882848871435,0,0.996628
0.2230093565248438,0,0.998681
0.08248788789334409,0,0.917597
0.33211698677667895,0,0.929854
0.13405263188816793,0,0.984143
0.18243881459903324,0,0.925701
0.20898347630289368,0,0.805562
0.39773004190016936,0,0.972236
0.32572810318052825,0,0.984651
0.5367193734347974,0,0.998816
0.5183884107415859,0,0.990586
0.7193447259714904,0,0.998470
0.09622953058225026,0,0.809237
0.1576261921168327,0,0.996835
0.13117140059659335,0,0.704278
0.11116969102258588,0,0.978237
0.1466905600888504,0,0.991364
0.21619756791325673,0,0.825891
0.3598627306970526,0,0.976562
0.21129496771655212,0,0.937613
0.4339665323046253,0,0.884783
0.35754388370720697,0,0.924328
0.441798369042515,0,0.988936
0.4030546688528797,0,0.915367
0.44093867318651375,0,0.993546
0.41316933940139566,0,0.993233
0.5054685665203706,0,0.951670
0.11908939825096103,0,0.772521
0.23949580902867462,0,0.923899
0.22538480123272128,0,0.919330
0.4964204228869232,0,0.999674
0.6071516224409077,0,0.998538
0.6375137039378319,0,0.994877
0.36593579125338616,0,0.833395
0.17668584050868053,0,0.813552
0.3018929286879178,0,0.915084
0.3427008913952674,0,0.736540
0.44069952090715225,0,0.971977
0.45270386141785246,0,0.956507
0.39477920538943434,0,0.920266
0.4746692252359289,0,0.988290
0.5491302379467504,0,0.966460
0.2396049378841285,0,0.985896
0.48346784324511183,0,0.997559
0.45562956207127747,0,0.958294
0.4991473655859925,0,0.975128
0.15173086700959526,0,0.964245
0.3429735857324534,0,0.916009
0.538934410330201,0,0.943533
0.5115337556961141,0,0.942056
0.6028586179157267,0,0.999694
0.511045459436926,0,0.996640
0.46709349007345313,0,0.985418
0.335265331203538,0,0.867815
0.31181086941996866,1,0.999506
0.46281892143442444,1,0.999578
0.3084071153553884,0,0.968604
0.35931654270746927,0,0.971472
0.45928851951725946,0,0.935365
0.40574407404414703,0,0.863115
0.2613636251628125,0,0.983094
0.48200236375556377,0,0.935426
0.5479473327506742,0,0.998634
0.4583925970303084,0,0.996778
0.2995568289676689,0,0.989445
0.3268902820338739,1,0.999864
0.15320754631035916,0,0.852842
0.29091861480369297,0,0.978477
0.5146466192648546,0,0.995813
0.4877165176264509,0,0.918528
0.2123615065679965,1,0.999925
0.40768844583003977,0,0.998835
0.4058195766457283,0,0.997207
0.4530082718758666,1,0.999946
0.412888913015241,1,0.999594
0.5395478202115267,0,0.976155
0.5905082182559415,0,0.960309
0.554915579965467,0,0.999460
0.5912821497120065,0,0.999270
0.7591836899038689,0,0.984581
0.03320051040492174,0,0.995397
0.21166238527921927,0,0.982143
0.6309113099037692,0,0.929497
0.07742795641052319,0,0.925078
0.21968644051502184,0,0.997302
0.18312882331603408,0,0.803337
0.14884354257600577,0,0.995524
0.2231136531887954,0,0.934238
0.16722469137752105,0,0.907855
0.3086204063257075,0,0.998329
0.25050381818719464,0,0.954364
0.2762414822446455,0,0.915419
0.21240129582043232,0,0.998298
0.5475214685556491,0,0.989362
0.10738046498771436,0,0.990565
0.3114805474761324,0,0.886252
0.5618617082380082,0,0.998854
0.6432963582022833,0,0.994615
0.7903728860555463,1,0.999861
0.6909909351108254,0,0.995650
0.7045059564059314,0,0.998417
0.27670581589051285,0,0.945341
0.05919129201624643,0,0.946526
0.19543491163403567,0,0.916276
0.09352340440074461,0,0.906479
0.1541319925960675,0,0.899021
0.19733078724073436,0,0.903596
0.09849139767698717,0,0.951499
0.15429578444113104,0,0.964878
0.2000352658834783,0,0.954176
0.07080905318254677,0,0.899119
0.12083790889121773,0,0.987583
0.1802121618212514,0,0.916442
0.5642191518849488,0,0.907312
0.656686291795663,0,0.985603
0.7640548229267927,1,0.999755
0.799457031904052,0,0.996712
0.6206536050974606,0,0.997056
0.11364108377458579,0,0.997286
0.10684616193768201,0,0.992338
0.2563176802609063,0,0.785679
0.15731385093815367,1,0.998740
0.12902027978207295,0,0.724179
0.09374855176437724,0,0.961715
0.1411153785258113,0,0.878053
0.12889147183944696,0,0.932143
0.1372715540118094,0,0.934885
0.5548358197236122,0,0.928171
0.6458011554715396,0,0.998810
0.04923345854426497,0,0.862447
0.2145267365339386,0,0.944815
0.6954694780413955,0,0.995272
0.6918332599140948,1,0.999920
0.3286114931277411,0,0.914089
0.19055696636513125,0,0.926828
0.06028098217641491,0,0.809018
0.0751303138364371,0,0.990261
0.7689832383261266,0,0.999759
0.7137610212425508,0,0.979386
0.12278736015091099,0,0.911915
0.1588914064844141,0,0.980132
0.10520463266684321,1,0.999803
0.05492244745542343,0,0.948713
0.07483825736266896,0,0.828475
0.03189858044289828,0,0.890366
0.5735262402953317,0,0.987016
0.6283292869847819,1,0.999635
0.7324477564509133,0,0.994421
0.2001608250463996,0,0.995588
0.6466519453331554,0,0.999274
0.72816318501844,1,0.999862
0.7530261685589358,0,0.999549
0.6691761812034025,0,0.996201
0.742040134702516,1,0.999973
0.7776747594517865,0,0.994605
0.0932892205445941,0,0.899695
0.18199797747929497,0,0.563111
0.21393470504304885,0,0.917568
0.20305008053148385,0,0.877694
0.07672112611680143,0,0.934171
0.03208151764168724,0,0.986055
0.1025633263764882,0,0.967753
0.1489509663210568,0,0.954986
0.24809769630203793,0,0.814182
0.03795277155839239,0,0.941424
0.11120367699454174,0,0.944902
0.19505165252676676,0,0.918315
0.2341655707784487,0,0.991205
0.2610443984491147,1,0.999419
0.09793868198958862,0,0.958674
0.12233284592629866,0,0.972689
0.05626110303119461,0,0.771817
0.08225499818858789,0,0.956209
0.1465336518939316,0,0.920345
0.011563498986798905,0,0.842714
0.14978919979452268,0,0.810974
0.18483907799892552,0,0.867657
0.19850630046910692,0,0.967972
0.13915263317155876,0,0.827628
0.0994326578918894,0,0.985487
0.16635328087961207,0,0.928310
0.4218531315848857,0,0.994798
0.09271651793291893,0,0.992716
0.036265483841486805,0,0.797200
0.5100574298087172,0,0.999656
0.6044047138598979,0,0.876032
0.1381434118649106,0,0.577332
0.20064742382849785,0,0.994518
0.12349374609308869,0,0.824613
0.07569796127253134,0,0.995443
0.08113090340926374,0,0.971688
0.16980794644136535,0,0.912988
0.19692592143781593,0,0.910906
0.3029947203188468,0,0.919898
0.36694529922536134,0,0.899009
0.4297858669782146,0,0.992001
0.2657367113533166,0,0.914268
0.11698343146200621,0,0.979369
0.1084017760766494,0,0.898871
0.12415651942327882,0,0.922740
0.23209977062608492,0,0.998561
0.3823952475534458,0,0.922735
0.4575232437537321,0,0.981535
0.46682547424152526,0,0.998036
0.5372038930995952,0,0.966148
0.18593157253652667,0,0.820730
0.14627121471551868,0,0.863112
0.31365604127195545,1,0.999936
0.3181196425075963,1,0.999802
0.48230234894045027,0,0.993779
0.18768864131884674,0,0.829506
0.35424165800049057,0,0.977563
0.5244169021275517,0,0.999602
0.5552128089442963,0,0.927003
0.3011585256090329,0,0.945008
0.26494577301520844,0,0.937327
0.21648145270504296,0,0.961372
0.20229850307204628,0,0.974375
0.4899621375358857,0,0.916415
0.2540482832294615,0,0.930073
0.19969520369469057,0,0.911900
0.3315271479881807,0,0.997788
0.24931727081264735,0,0.854004
0.44682354381794503,0,0.931965
0.5534511514749749,0,0.978706
0.5948745789315346,0,0.971359
0.2670151842790264,0,0.990291
0.5645791491431486,0,0.963689
0.5976598467617897,0,0.998055
0.6029998862317923,0,0.879629
0.4583528875827303,0,0.951048
0.38323062527346197,0,0.922499
0.3252530010683471,0,0.790632
0.5596545952189655,0,0.856198
0.5158499339656794,0,0.851852
0.16548230972900038,0,0.920007
0.2564880211724886,0,0.930518
0.43594928684489936,0,0.849902
0.2825264384130474,0,0.620097
0.35935380594272304,0,0.790306
0.21480684214447388,0,0.926910
0.5227086091721118,0,0.993950
0.2890699252271503,0,0.973889
0.4832163496439547,0,0.511971
0.4244037191185052,0,0.795568
0.36087373962102887,0,0.946701
0.4910966683722506,0,0.966099
0.33247061147761886,0,0.953241
0.2120445433525027,0,0.991005
0.24637291084135107,0,0.922398
0.356745804126936,0,0.722619
0.47315156487575144,0,0.938837
0.4470471337837764,0,0.994503
0.41894685361916123,0,0.976570
0.4131713285489463,0,0.953005
0.25188890650330403,0,0.983560
0.17948069162857666,0,0.999313
0.5217649766551967,0,0.752941
0.511735179736639,0,0.855528
0.14121502925685248,0,0.944988
0.4363095137695037,0,0.989077
0.4999951279749535,0,0.938723
0.4623558378222707,0,0.990775
0.37918831044921925,0,0.895275
0.45156460756427114,0,0.921902
0.7441429843882703,1,0.999655
0.1613643169561246,0,0.995776
0.35429728955627376,0,0.996103
0.3604127246291554,0,0.907068
0.38927540224165696,0,0.933114
0.20052671395374894,0,0.932497
0.4687976612297919,1,0.999943
0.34839153929899036,0,0.978321
0.4341137395802601,0,0.994426
0.4160779461562074,0,0.998635
0.5849772336433308,1,0.999931
0.5934045238042013,0,0.976188
0.7264297551436347,0,0.998816
0.8028507974987528,1,0.999918
0.7947331480940308,1,0.999706
0.7841504545996618,1,0.999227
0.8495110160330621,1,0.999612
0.8079782953442675,0,0.977978
0.7371593877384076,1,0.999983
0.17707421138623458,0,0.999603
0.15303841301550114,0,0.919729
0.13263321169449488,0,0.866707
0.1812274618588695,0,0.984426
0.17062661073110075,0,0.996997
0.2711134492172294,0,0.996151
0.31391719153998915,0,0.998154
0.33259076301628204,0,0.983679
0.28504729781326055,0,0.995581
0.2840566443455563,0,0.824756
0.1487312407414145,0,0.844926
0.2624103100138867,0,0.973165
0.23571795324488737,0,0.966520
0.30615306516686885,0,0.975961
0.5345626818053861,0,0.989742
0.7012302263421542,0,0.984593
0.3264148814201765,0,0.864110
0.14657430064519603,0,0.897963
0.2841401444558267,0,0.847621
0.4698660780983647,0,0.996159
0.22946029144162972,0,0.701542
0.6133085267663104,0,0.999201
0.2724560696457311,0,0.999509
0.3318429180542884,0,0.995713
0.5330888370686384,0,0.996462
0.33542731386082225,0,0.982915
0.2224020338221207,0,0.982700
0.5039267623857474,0,0.944662
0.04772031030727217,0,0.829184
0.12540351537407474,0,0.957786
0.047224497755322406,0,0.890172
0.5112627053181046,0,0.890084
0.5411552361321776,0,0.996779
0.11677148184623337,0,0.914521
0.17746115801829926,0,0.896520
0.1944413580433328,0,0.989616
0.17187818896306942,0,0.801721
0.1539570135932374,0,0.961646
0.25688087404416055,0,0.900423
0.08877175604452846,0,0.947889
0.7669078895325616,0,0.996264
0.8284826336557678,0,0.968031
0.14238476627001795,0,0.848853
0.12275986488704871,0,0.971576
0.18929456989165988,0,0.991159
0.584062080076879,0,0.999738
0.1481604964131304,0,0.963575
0.32504915535294,0,0.934890
0.24985461338129833,0,0.865236
0.3819631976403512,0,0.989872
0.28794079602359396,0,0.994785
0.160175991450441,0,0.617889
0.34542909735360644,0,0.950430
0.12195548977280218,0,0.963315
0.6168623675406966,0,0.990164
0.7906476699153601,1,0.999946
0.7879135462011008,0,0.999649
0.6863149332769081,0,0.803619
0.09777563179096352,0,0.831353
0.3252599658799729,0,0.972651
0.07679224212201909,0,0.940003
0.13300094334926907,0,0.938279
0.15304048596806497,0,0.994309
0.150348828979214,0,0.902322
0.22822917211428118,0,0.993907
0.18985337767002103,0,0.996055
0.29115230229821,0,0.982565
0.33374719076930365,0,0.975049
0.31941101671016664,0,0.972390
0.2608757888049628,1,0.999334
0.304250070409819,0,0.982937
0.3207400592572656,0,0.909502
0.23053792709552892,0,0.919911
0.21465746296231353,0,0.914665
0.2608892086346615,0,0.961634
0.3754528754692409,0,0.993301
0.2518826811825937,0,0.760773
0.16570312238705695,0,0.826040
0.1153503184678312,0,0.860931
0.2910311410211911,0,0.956362
0.22753099932981743,0,0.914442
0.3607255750813378,0,0.938554
0.2952494271660943,0,0.779937
0.3362335335129625,0,0.916755
0.2663086377301736,0,0.991663
0.1486017192508172,0,0.862735
0.13093070359400832,0,0.834988
0.14840976169622644,0,0.746026
0.21824347369481625,0,0.999519
0.23811142415154607,0,0.999187
0.5528267788522974,0,0.890737
0.3809356328029394,0,0.992343
0.13611593326066018,0,0.996901
0.31623468666163485,0,0.745232
0.3392301889129458,0,0.959126
0.4723975311836432,0,0.994400
0.2453270914066117,0,0.808463
0.15986476628968269,0,0.949316
0.17097370191588737,0,0.979797
0.6153651469702958,0,0.985199
0.5908195412838179,1,0.999975
0.22401978840060516,0,0.941139
0.2287073530566096,0,0.904584
0.29478566612463764,0,0.903798
0.6448769789070544,0,0.999327
0.1609253749046581,1,0.999717
0.7040653786257209,0,0.992747
0.6560406326288589,0,0.995638
0.6630257703363461,1,0.999923
0.15991752624233949,0,0.969548
0.10881673442030605,0,0.996982
0.434450364386891,0,0.998261
0.15632166130022634,0,0.874406
0.1675092884001097,0,0.986755
0.23796951745928896,0,0.804524
0.10672190253748672,0,0.954107
0.34200425611574337,0,0.274873
0.8457188992091212,1,0.999877
0.7033500696314666,0,0.208333
0.06001254395472772,0,0.882041
0.06331523917736058,0,0.897630
0.10455973068781234,0,0.895484
0.27966660740018245,1,0.999956
0.6371615051143057,0,0.955383
0.23324170385211082,0,0.889736
0.03469014057744164,0,0.930017
0.01081840426121728,0,0.962692
0.6029826453435257,0,0.978105
0.7101875759185126,0,0.970814
0.8107799971925322,0,0.999264
0.7420704001960406,0,0.997697
0.7771392072230785,0,0.880022
0.18627221213072956,1,0.999213
0.1355844536396315,0,0.636017
0.169498222478,0,0.775567
0.30410711200799545,0,0.987011
0.29306822463458565,0,0.917417
0.11725598891306152,0,0.993062
0.14667681000234675,0,0.901775
0.11637034193279112,0,0.966833
0.1316079276790112,0,0.904936
0.012135432100679262,0,0.969390
0.12976227784510255,0,0.775979
0.48781740358594805,0,0.999080
0.26238089275480886,0,0.709259
0.03260740047872882,0,0.902203
0.04738111024892135,0,0.931169
0.16700967577376374,0,0.919028
0.1735221242247469,0,0.969762
0.6795276294210194,1,0.999918
0.13281694293437596,0,0.808054
0.13496337444794526,0,0.990240
0.11583057938265495,0,0.872611
0.10358337591155864,0,0.952746
0.06436152068486009,0,0.946324
0.10263032548326007,0,0.936075
0.1917426604542746,0,0.981229
0.09519606566781143,0,0.972857
0.07238536979260562,0,0.988606
0.6931580391268397,0,0.997910
0.6350431526852524,1,0.999812
0.20321303844263444,0,0.974050
0.06527657780015113,0,0.811113
0.0733250256071846,0,0.935423
0.10558010268616758,0,0.979954
0.05335096368026077,0,0.950349
0.14426807580533843,0,0.842275
0.14796067577736743,0,0.854792
0.11707796481582,0,0.999688
0.11938690407703173,0,0.996901
0.57796905184862,1,0.999780
0.2517358311576626,0,0.982455
0.17785553408343585,0,0.849019
0.7158256240855707,0,0.997573
0.6116801027335347,0,0.998692
0.812350431733722,0,0.998701
0.7659014765790501,0,0.998293
0.1172810171593495,0,0.873327
0.0665239705174018,0,0.814675
0.1054905394038653,0,0.833939
0.04281049964182566,0,0.907752
0.7819625752856205,0,0.994288
0.7561113077223177,0,0.995847
0.5629536120529,0,0.999073
0.45126804323325015,1,0.999948
0.3090340354551109,0,0.912285
0.030899889547585446,0,0.838934
0.0743662241679006,0,0.946672
0.3648341795509272,0,0.954846
0.239791776839838,0,0.829253
0.3338518525809883,0,0.925971
0.6489442222870879,1,0.999816
0.3902206911411023,0,0.977027
0.7265067684017754,0,0.996938
0.14643217195910688,0,0.933362
0.1361373020587196,0,0.721226
0.5449759000954608,0,0.998662
0.31425242999867153,0,0.976040
0.11432740936564656,0,0.864607
0.6859126515455304,0,0.996125
0.7874839172067839,0,0.993925
0.6326230947523835,0,0.957716
0.06354018201940927,0,0.972302
0.11130793443624627,0,0.679641
0.0052756852174657195,0,0.869397
0.6215753229831077,0,0.999681
0.7303602146081841,0,0.999279
0.756291927491518,0,0.999461
0.20868852792232762,0,0.765106
0.1973198491256563,0,0.988047
0.09858152268318204,0,0.906882
0.056072355866557906,0,0.973127
0.08304933926624604,0,0.925754
0.10135134653278095,0,0.844570
0.05195388422008449,0,0.985008
0.4235871917054224,0,0.943256
0.07480997790819566,0,0.933577
0.04773903265676871,0,0.949927
0.7584106754151777,0,0.999728
0.8160674930275842,0,0.999047
0.4244503591172997,0,0.949929
0.03010153207310682,0,0.659373
0.05870778071323539,0,0.858342
0.004972218870302283,0,0.778096
0.18021485836567713,1,0.999884
0.1682587149082008,0,0.972611
0.03439036886071438,0,0.914481
0.07025004314627441,0,0.967765
0.4894890778834299,0,0.947553
0.09556683159387891,0,0.476740
0.0729390419416072,1,0.998429
0.02666866751450329,0,0.963455
0.0872940393186754,0,0.888417
0.6186684357211114,0,0.974736
0.7368959860426111,0,0.998307
0.052494443827187126,0,0.999380
0.7381710074293095,0,0.887756
0.11721602179477346,0,0.653175
0.2356280520881297,0,0.993390
0.33109904686610014,0,0.768742
0.0933014398899273,0,0.960375
0.7200236138639358,0,0.998111
0.37395980174113147,0,0.946327
0.07417645279412122,0,0.946283
