0.05045536009621758,0,0.581345
0.08297755433037704,0,0.490384
0.08779599329394837,0,0.473664
0.0857910626965829,0,0.361336
0.08357193013831694,0,0.490419
0.08848627378705742,0,0.462173
0.08808633976979693,0,0.490585
0.0866388121972951,0,0.443244
0.08623102890766599,0,0.486120
0.08196013785576839,0,0.490822
0.07704222739374499,0,0.488799
0.07799380364661594,0,0.443569
0.09328557684200231,0,0.490498
0.08965196716902805,0,0.488905
0.0900134572662726,0,0.490749
0.09008979261600175,0,0.350348
0.09020960926765487,0,0.488939
0.08650184080596243,0,0.489316
0.08721269417060386,0,0.490975
0.10854903083853497,0,0.489309
0.10623765477280052,0,0.489462
0.1019797334786547,0,0.442706
0.10219916897261437,0,0.455684
0.107561260904357,0,0.489074
0.10853062695718435,0,0.453369
0.11292285790671536,0,0.455853
0.12174935112465142,0,0.344828
0.12547803767325055,0,0.489141
0.12311705780651276,0,0.488931
0.12256807784238909,0,0.441575
0.12425878695075757,0,0.491854
0.12061246837378353,0,0.490417
0.13087239000671483,0,0.494050
0.1420712348409347,0,0.489985
0.1405314947261105,0,0.490423
0.14170078162351527,0,0.490456
0.13906441722735602,0,0.490509
0.13702468678065602,0,0.490062
0.1344514257126495,0,0.489803
0.1447991851696354,0,0.192589
0.15492101369267644,0,0.451972
0.15728810866911902,0,0.492293
0.1544086218732425,0,0.491862
0.15292430655164627,0,0.492172
0.14941596384341832,0,0.490209
0.15051277414003836,0,0.490490
0.14815367214957098,0,0.456493
0.14697671048175576,0,0.492355
0.14800588079362131,0,0.490621
0.14664369518460746,0,0.490034
0.15573052431946788,0,0.461965
0.1545012633299634,0,0.490552
0.15205732834596625,0,0.357849
0.1507854738561632,0,0.447658
0.14946763961582432,0,0.490120
0.14827021774310895,0,0.492432
0.1491647081241196,0,0.490531
0.14780598473667927,0,0.492064
0.1562351805847365,0,0.459011
0.15500459769482391,0,0.492441
0.1525684013013183,0,0.461621
0.15130294164905894,1,0.999992
0.15031433896807184,0,0.490676
0.14932611017027428,0,0.492658
0.14735260777372028,0,0.490484
0.14636819790221078,0,0.492650
0.14533904152587807,0,0.490272
0.1443598706681925,0,0.492600
0.15249438903944523,0,0.192121
0.15429102095195357,0,0.192455
0.1532633088350315,0,0.491059
0.15208712988111245,0,0.491062
0.15091770345995573,0,0.344066
0.14990592443629197,0,0.490951
0.14889833045777368,0,0.492650
0.15664112838354746,0,0.449370
0.15547520136073928,0,0.456407
0.16410074812386347,0,0.490606
0.16404088255208105,0,0.492641
0.164828734383833,0,0.448290
0.1638741036342825,0,0.490986
0.16276874404900304,0,0.490285
0.1618177568021762,0,0.492734
0.16269808426049795,0,0.450515
0.16234405672933125,0,0.462284
0.1619771335630471,0,0.457877
0.1618218516972736,0,0.490916
0.16178108344239753,0,0.492512
0.16084067965246204,0,0.492651
0.15896516032875158,0,0.188804
0.15883832631545178,0,0.192654
0.15790539002030782,0,0.462170
0.1598408969184822,0,0.457846
0.1589015327655437,0,0.490058
0.15796484627504612,0,0.490716
0.15792017117830812,0,0.491075
0.1596874222903523,0,0.492283
0.15874795302641662,0,0.492635
0.1587037273533076,0,0.492685
0.1595094233301176,1,0.999994
0.15857074101882543,0,0.449920
0.15841206579794373,0,0.455883
0.15747908780055891,0,0.456245
0.1591948924053228,0,0.470957
0.1582594713225578,0,0.457971
0.1573278173202281,0,0.457929
0.1590191481285549,0,0.490088
0.15897124603935292,0,0.490814
0.1580382165271175,0,0.491027
0.15799097889215497,0,0.491281
0.15706264340143414,0,0.491163
0.1587297142907202,0,0.492495
0.15774715000404746,0,0.492749
0.1567707922787684,0,0.492747
0.158413807853657,0,0.492763
0.15743768298801655,0,0.492802
0.15646791730193757,0,0.492845
0.15550459393091573,0,0.492867
0.15544992769478072,0,0.492879
0.15449392504223816,0,0.492867
0.15610131610069222,0,0.492874
0.15514587949039116,0,0.492866
0.1541970509413999,0,0.492886
0.1532548877962683,0,0.492919
0.15497577490587486,0,0.492916
0.15494439564960402,0,0.492795
0.1284787880816947,0,0.456650
0.12837038978340012,0,0.456609
0.12978727632134848,0,0.540690
0.12974890552876306,0,0.519652
0.13115889738453046,0,0.491506
0.13115889738453046,0,0.489814
0.1311266670696916,0,0.489823
0.13252976897628374,0,0.540851
0.13204268929456048,0,0.519848
0.13156758000918164,0,0.511755
0.13143793356187594,0,0.487902
0.13131473526551746,0,0.511792
0.13084060402811382,0,0.546224
0.13036534995636959,0,0.511662
0.13036534995636959,0,0.491497
0.13174622118072657,0,0.491321
0.1312784010631163,0,0.491097
0.13080939163922706,0,0.489920
0.1303392984810985,0,0.489548
0.12986822505666276,0,0.489074
0.1312287160535687,0,0.514778
0.1312287160535687,0,0.491528
0.13066200202463826,0,0.491468
0.13009665643435409,0,0.491212
0.13144248850871254,0,0.489593
0.1308744147249471,0,0.489199
0.13030783816639496,0,0.461123
0.12985381132822793,0,0.542967
0.12939883342555697,0,0.517728
0.1289429977868795,0,0.546287
0.1289429977868795,0,0.491511
0.12848639585393254,0,0.491468
0.1280291171791139,0,0.490178
0.12795914852773083,0,0.491558
0.1275017611149021,0,0.489971
0.12881296833363917,0,0.542474
0.12835168290783094,0,0.545584
0.12835168290783094,0,0.491601
0.1296537611218943,0,0.490170
0.12918868466784908,0,0.489555
0.12915541569686612,0,0.540523
0.12915541569686612,0,0.491500
0.12870726433709542,0,0.491587
0.12822914879882624,0,0.517433
0.1295155224479325,0,0.320671
0.1295155224479325,0,0.490025
0.12906399000793659,0,0.461438
0.12900231413348412,0,0.511758
0.128550635099462,0,0.517548
0.128550635099462,0,0.491648
0.12809848342471422,0,0.490585
0.12936957919967645,0,0.461484
0.12891384301461173,0,0.519914
0.1284577739364344,0,0.542360
0.1284577739364344,0,0.491713
0.12971706160461888,0,0.461411
0.1292575673156371,0,0.515061
0.1292575673156371,0,0.492145
0.1287978750064772,0,0.491750
0.12833805734972994,0,0.490302
0.12958250751683986,0,0.516670
0.12911947762435264,0,0.541784
0.12911947762435264,0,0.491761
0.12905361753010838,0,0.457168
0.12859107030331338,0,0.516497
0.12859107030331338,0,0.492530
0.12812859755461423,0,0.491837
0.12805667742603122,0,0.494720
0.1275948879987026,0,0.461693
0.12713329360172843,0,0.514822
0.12713329360172843,0,0.496729
0.12667195728450573,0,0.496065
0.12624941206804377,0,0.494375
0.12582647850227252,0,0.543514
0.1254032226099371,0,0.544110
0.1254032226099371,0,0.496293
0.12497970902031251,0,0.495084
0.1245560009730489,0,0.470302
0.1257611274061216,0,0.920531
0.12696143983950833,0,0.514299
0.12696143983950833,0,0.496917
0.12653168075150245,0,0.504965
0.12610182642911524,0,0.503110
0.13184210294924095,0,0.920501
0.13184210294924095,0,0.504031
0.13139581972509565,0,0.470341
0.13096577438305051,0,0.514668
0.1321558417875128,0,0.495051
0.1317227591947148,0,0.461619
0.13128944480370613,0,0.542083
0.13128944480370613,0,0.496383
0.13085595921653712,0,0.495146
0.130422361737997,0,0.461649
0.12998871038145132,0,0.516970
0.12998871038145132,0,0.496419
0.1381239640368719,0,0.543529
0.1381239640368719,0,0.492772
0.13766705272346122,0,0.505245
0.1372101669511979,0,0.503262
0.1451544813154868,0,0.514420
0.1451544813154868,0,0.496956
0.14467524312975877,0,0.504356
0.14419611328150206,0,0.470417
0.14371714934755786,0,0.544001
0.14371714934755786,0,0.496505
0.14370236079940016,0,0.496466
0.14322369778732696,0,0.503963
0.14320898921972372,0,0.470424
0.14273068134980452,0,0.534622
0.14273068134980452,0,0.496467
0.14225270344592655,0,0.503372
0.14177510778415836,0,0.543559
0.14177510778415836,0,0.492725
0.14129794535020848,0,0.504292
0.1412814347548028,0,0.470529
0.14080485328478085,0,0.517287
0.14080485328478085,0,0.496643
0.1484202005753301,0,0.514107
0.1484202005753301,0,0.492725
0.14796023572117525,0,0.505063
0.15544050825312888,0,0.470433
0.15496094687101813,0,0.545305
0.15496094687101813,0,0.496537
0.15613404402344072,0,0.544331
0.15613404402344072,0,0.496542
0.15565193124972268,0,0.504048
0.15516973415175622,0,0.513707
0.1546950707427169,0,0.544406
0.1546950707427169,0,0.496581
0.15463966070660304,0,0.503475
0.15416522362134505,0,0.514369
0.15416522362134505,0,0.492791
0.15532395731902127,0,0.470637
0.15484706906877074,0,0.518992
0.15484706906877074,0,0.496904
0.15437015432675785,0,0.504081
0.15551959466978504,0,0.545793
0.15551959466978504,0,0.492679
0.1550403421523419,0,0.504524
0.15456115806012016,0,0.470726
0.15408209358024105,0,0.511495
0.15408209358024105,0,0.496593
0.15360319879649018,0,0.503757
0.1531245226965361,0,0.511807
0.1531245226965361,0,0.492964
0.1526461131802109,0,0.504421
0.15216801707040703,0,0.470701
0.1592932695500363,1,0.999994
0.1592932695500363,0,0.470735
0.15879692358930392,0,0.513742
0.15879692358930392,0,0.496663
0.15830096392786883,0,0.503692
0.16529726629352773,0,0.511575
0.16529726629352773,0,0.496705
0.16478371820919888,0,0.503726
0.1647639615893325,0,0.867580
0.1647639615893325,0,0.504108
0.1642509995721698,0,0.517338
0.1642509995721698,0,0.493083
0.16537695080884468,0,0.504172
0.1648622098796842,0,0.517788
0.1648622098796842,0,0.493190
0.1647953250716835,0,0.544572
0.1647953250716835,0,0.493224
0.16428159576236248,0,0.504534
0.1637684461541149,0,0.470683
0.16488309524345343,0,0.489189
0.16488309524345343,0,0.504522
0.16481086059940545,0,0.867514
0.16481086059940545,0,0.505346
0.16429658519584653,0,0.470843
0.16421271487730596,1,0.999991
0.16421271487730596,0,0.505481
0.16419559120209104,0,0.544050
0.16419559120209104,0,0.496789
0.16368270347477315,0,0.470816
0.16478814133738348,0,0.543084
0.16478814133738348,0,0.496829
0.1642736914200299,0,0.470799
0.1637599605179897,0,0.542122
0.1637599605179897,0,0.496810
0.1632469872991713,0,0.503767
0.16278048198370246,0,0.542142
0.16278048198370246,0,0.497021
0.16231400270913332,0,0.503803
0.16184759342424662,0,0.543082
0.16184759342424662,0,0.497235
0.16182153515012368,0,0.470811
0.16135541201921624,0,0.518932
0.16135541201921624,0,0.496906
0.1624417070507606,0,0.514578
0.1624417070507606,0,0.496830
0.1619736680515575,0,0.470831
0.16150581668324582,0,0.542484
0.16150581668324582,0,0.496897
0.1625840314629707,0,0.470807
0.16211435315847403,0,0.540192
0.16211435315847403,0,0.496967
0.16208698366049018,0,0.517324
0.16208698366049018,0,0.496911
0.161617751652067,0,0.470808
0.16823252100237931,1,0.999981
0.16823252100237931,0,0.504664
0.16774779656767932,0,0.470730
0.16774779656767932,0,0.493509
0.16771834282404713,0,0.516210
0.16771834282404713,0,0.493362
0.16723414244511886,0,0.504775
0.1667502999090608,0,0.545882
0.1667502999090608,0,0.493385
0.16671939493205357,0,0.504436
0.16623616593314666,0,0.545752
0.16623616593314666,0,0.493244
0.16730016641622872,0,0.511096
0.16730016641622872,0,0.497474
0.16681536268821914,0,0.503878
0.16633102017730406,0,0.514312
0.16633102017730406,0,0.497322
0.16738719881458572,0,0.470905
0.16690136246030587,0,0.542503
0.16690136246030587,0,0.497023
0.16686934433844905,0,0.547372
0.16686934433844905,0,0.505928
0.166384261632279,0,0.470766
0.17280386948708543,0,0.489782
0.17280386948708543,0,0.504911
0.17230406567980233,0,0.511533
0.17230406567980233,0,0.493459
0.17226998649407443,0,0.545709
0.17226998649407443,0,0.493169
0.17177101078466547,0,0.504245
0.17127264956920346,0,0.545080
0.17127264956920346,0,0.497529
0.17123726321925664,0,0.470900
0.1707398081713712,0,0.532267
0.1707398081713712,0,0.497039
0.17178141142678957,0,0.867114
0.17178141142678957,0,0.505803
0.17128269611366384,0,0.545344
0.17128269611366384,0,0.493592
0.17078468465782387,0,0.504946
0.17181873813732088,0,0.516860
0.17181873813732088,0,0.497634
0.17131953896969312,0,0.504250
0.1712832341719462,0,0.490965
0.1712832341719462,0,0.470990
0.17082505011756538,0,0.542932
0.17082505011756538,0,0.497116
0.1703669876551172,0,0.470948
0.17035547372402302,0,0.514098
0.17035547372402302,0,0.497116
0.1698976181188601,0,0.470820
0.1698976181188601,0,0.493714
0.169439954397636,0,0.504956
0.1694268330954941,0,0.470823
0.1694268330954941,0,0.493672
0.16896945877778477,0,0.505024
0.16851234384138514,0,0.511420
0.16851234384138514,0,0.493540
0.16805552116074873,0,0.504570
0.1680409228337371,0,0.504125
0.16758450022333224,0,0.514566
0.16758450022333224,0,0.497155
0.16714147010216604,0,0.471021
0.16712538236417346,0,0.513503
0.16712538236417346,0,0.497184
0.16668261591325817,0,0.470872
0.16668261591325817,0,0.493751
0.1662400592726441,0,0.505064
0.16579774395133098,0,0.547486
0.16579774395133098,0,0.493472
0.165780313077177,0,0.497680
0.1653383670505595,0,0.471048
0.1648967230619618,0,0.547334
0.1648967230619618,0,0.497173
0.16487791323643336,0,0.505796
0.16443670956199502,0,0.511391
0.16443670956199502,0,0.493541
0.1639958661397546,0,0.504375
0.1635676302296363,0,0.511251
0.1635676302296363,0,0.497164
0.16354760678658742,0,0.471040
0.16311971026004465,0,0.514142
0.16311971026004465,0,0.506135
0.1626920657543461,0,0.514345
0.1626920657543461,0,0.493660
0.16267076365645947,0,0.505039
0.1622435261166143,0,0.532188
0.1622435261166143,0,0.497736
0.1618225410139248,0,0.471039
0.16140179872767396,0,0.542811
0.16140179872767396,0,0.506172
0.16735695849077217,0,0.514565
0.16735695849077217,0,0.497787
0.16692361182703083,0,0.504203
0.17281701244278497,0,0.490636
0.17281701244278497,0,0.516577
0.17281701244278497,0,0.493827
0.1723713923316488,0,0.504691
0.17335976394750385,0,0.516015
0.17335976394750385,0,0.497315
0.1729127809081826,0,0.470946
0.1729127809081826,0,0.493969
0.17288992946918127,0,0.505157
0.17244340940170488,0,0.544661
0.17244340940170488,0,0.493673
0.17342523680844557,0,0.511280
0.17342523680844557,0,0.506260
0.17297741426779129,0,0.519508
0.17297741426779129,0,0.493888
0.17395444443925284,0,0.471221
0.17350535785603055,0,0.546443
0.17350535785603055,0,0.497406
0.17305665135783907,0,0.511303
0.17305665135783907,0,0.494015
0.17260836609730026,0,0.505119
0.17216052763177697,0,0.540471
0.17216052763177697,0,0.497819
0.17171316099773706,0,0.471205
0.1712662907159397,0,0.543704
0.1712662907159397,0,0.506101
0.1708199407955022,0,0.517266
0.1708199407955022,0,0.493885
0.17037413473998603,0,0.504444
0.1699288955523765,0,0.520033
0.1699288955523765,0,0.497534
0.16950670590470016,0,0.511360
0.16950670590470016,0,0.494039
0.16944688738554986,0,0.505089
0.17040433247367687,0,0.490578
0.17040433247367687,0,0.471078
0.17040433247367687,0,0.494178
0.16998118065199672,0,0.505022
0.17093412273349065,0,0.541790
0.17093412273349065,0,0.506509
0.1705096962691262,0,0.518955
0.1705096962691262,0,0.494039
0.17008557698240756,0,0.504484
0.17309316792529425,0,0.490467
0.17309316792529425,0,0.516997
0.17309316792529425,0,0.493967
0.17404126116298227,0,0.471301
0.17404126116298227,0,0.494322
0.17360973608746047,0,0.505472
0.17317855681951605,0,0.545228
0.17317855681951605,0,0.498145
0.1771718817534029,0,0.490971
0.1771718817534029,0,0.505338
0.17673284853341042,0,0.516668
0.17673284853341042,0,0.497624
0.17767323139243357,0,0.516116
0.17767323139243357,0,0.494090
0.17723308719110098,0,0.504520
0.176808466412409,0,0.544070
0.176808466412409,0,0.506577
0.17782604279477943,0,0.490728
0.17782604279477943,0,0.471303
0.17739961649123126,0,0.491548
0.17739961649123126,0,0.505551
0.17697346687966498,0,0.517620
0.17697346687966498,0,0.498076
0.17790388269917487,0,0.511374
0.17790388269917487,0,0.494242
0.17747657792291197,0,0.504759
0.17704959171799972,0,0.542753
0.17704959171799972,0,0.506829
0.17662294675942294,0,0.514187
0.17662294675942294,0,0.494126
0.17762691859480723,0,0.867075
0.17762691859480723,0,0.505701
0.1776172906265336,0,0.504724
0.17718900291184048,0,0.514500
0.17718900291184048,0,0.506851
0.1767610994620713,0,0.543194
0.1767610994620713,0,0.494134
0.17768025670664833,0,0.471360
0.17768025670664833,0,0.494436
0.17725130805523745,0,0.505085
0.1768227821736303,0,0.511244
0.1768227821736303,0,0.497948
0.1767986412419994,0,0.490801
0.1767986412419994,0,0.505020
0.17637070096744284,0,0.540149
0.17637070096744284,0,0.497926
0.17594322392135114,0,0.517480
0.17594322392135114,0,0.494268
0.17593250010636038,0,0.504808
0.17550555170442397,0,0.519591
0.17550555170442397,0,0.506890
