0.995387304486019,1,0.999851
0.9901963167939984,1,0.999803
0.9994924789114092,1,0.999977
0.9936774277120001,1,0.999977
0.9461494353868312,0,0.997441
0.7517314594208062,1,0.999826
0.9220756477314036,1,0.999772
0.9153605444624233,1,0.999953
0.9158518146691309,1,0.999955
0.7545807747117858,1,0.999809
0.5502815582422198,1,0.999532
0.8522210597777913,1,0.999955
0.8313760371550027,1,0.999702
0.9961078298343045,1,0.999693
0.9978660271193895,1,0.999948
0.9964784505042746,1,0.999879
0.9976091448507117,1,0.999974
0.9958152069896568,1,0.999954
0.971470439093697,1,0.999919
0.9855003691145958,1,0.999498
0.995884857330467,0,0.997237
0.9876383975208285,1,0.999518
0.9784298368777198,1,0.999953
0.8114000364870001,0,0.999214
0.8987492101685104,1,0.999917
0.8887299308073862,1,0.999968
0.9923565698938428,1,0.999968
0.746907003833837,0,0.998112
0.67696951465689,1,0.999447
0.5299990404323871,0,0.992816
0.9747568891380591,1,0.999977
0.9820575948580222,1,0.999951
0.9977139246312401,1,0.999976
0.9913736324695369,1,0.999944
0.6438722558676986,0,0.998944
0.9796815497062313,1,0.999891
0.999984677147603,1,0.999885
0.7761005304467928,0,0.998492
0.9901149125042089,1,0.999937
0.9436558204629906,1,0.999971
0.9807812451218306,0,0.996403
0.9045035909633918,1,0.999811
0.964324848010095,1,0.999919
0.9998673922122508,1,0.999952
0.9998525291415222,1,0.999956
0.9998604526441098,1,0.999955
0.9998683784805159,1,0.999956
0.8906053223858713,1,0.999971
0.9944303241754636,1,0.999956
0.9970833505487077,0,0.999358
0.9989822372174514,1,0.999980
0.9908173596818237,0,0.999597
0.9938521753550105,1,0.999972
0.8750172800182716,0,0.999526
0.9912188341759488,1,0.999957
0.993422319875014,1,0.999970
0.6857007914297822,1,0.999976
0.9353824759804491,1,0.999978
0.6235751817768413,0,0.999342
0.9056537074988031,1,0.999978
0.8406077151256137,0,0.999587
0.8514809204767548,1,0.999913
0.7367201936954323,0,0.999756
0.947723386882427,1,0.999979
0.9259178825567325,1,0.999965
0.9387959958087947,1,0.999952
0.9977006313605202,1,0.999896
0.9847269335520668,1,0.999939
0.9988408073902855,1,0.999980
0.9988118972748234,1,0.999976
0.9819659992771684,0,0.998297
0.9770937689038555,1,0.999856
0.645976051392542,1,0.999972
0.713730355485607,0,0.996519
0.6700005631859545,0,0.999146
0.6534935495238061,0,0.999491
0.8786289738755132,0,0.998220
0.9038967019143599,1,0.999861
0.9447549428405005,1,0.999865
0.8684061660201542,1,0.999776
0.8478442636491198,1,0.999928
0.9453361212064121,1,0.999959
0.9303594278377955,0,0.998745
0.9297054435262347,1,0.999816
0.9330299444296589,0,0.995423
0.9371394739943747,0,0.999545
0.9420199991464464,0,0.999192
0.9916190736734114,1,0.999959
0.7943486981474364,0,0.989196
0.9094044572975036,1,0.999800
0.8830847999304114,0,0.997243
0.8326351004149224,1,0.999937
0.9888978900713922,1,0.999824
0.9102222566583463,0,0.999175
0.8350142072623458,0,0.999389
0.9112631543487393,0,0.998558
0.9704970784911011,0,0.996092
0.9914965134565775,1,0.999862
0.9994258200443384,1,0.999980
0.9905633486378362,1,0.999895
0.988960393379844,1,0.999893
0.9463438723021983,1,0.999889
0.9345781922722044,1,0.999903
0.9344069635453093,0,0.988096
0.9342718368931044,1,0.999904
0.934102587425502,1,0.999902
0.9336923280824125,1,0.999903
0.643474655290488,1,0.999791
0.6271809257869698,1,0.999780
0.6266946736063831,1,0.999811
0.6258554539225711,1,0.999973
0.6251962390045418,1,0.999784
0.6244676796128757,1,0.999783
0.6236842452001473,1,0.999782
0.6215737815117295,1,0.999761
0.9277137088508822,1,0.999811
0.9503786980758353,1,0.999956
0.982523865815432,1,0.999939
0.9946514764009118,1,0.999932
0.9890542391840536,1,0.999732
0.9898643053577183,1,0.999928
0.9867311886460249,1,0.999675
0.9943356131742278,1,0.999795
0.9921169459264767,1,0.999864
0.9958738444728606,1,0.999932
0.9888952123496889,1,0.999591
0.9958628036584147,1,0.999933
0.9888522271752996,1,0.999932
0.988424976408872,1,0.999932
0.9916493857726221,1,0.999932
0.98835738487228,1,0.999932
0.9888683226657109,1,0.999933
0.9899286413644107,1,0.999932
0.9844550279914001,1,0.999932
0.9898315051108774,1,0.999946
0.9891238332815819,1,0.999932
0.9893231429737297,1,0.999932
0.9879290650335172,1,0.999931
0.9912281294390604,1,0.999933
0.9890984671368924,1,0.999932
0.9855381056743977,1,0.999932
0.985043597332729,1,0.999932
0.9912032743716553,1,0.999932
0.9893960275029313,1,0.999942
0.9881747905543764,1,0.999943
0.9870750018863549,1,0.999933
0.9861355335049121,1,0.999945
0.9873065292589763,1,0.999933
0.9862409081373879,1,0.999949
0.988561125620375,1,0.999947
0.9853905630825011,1,0.999934
0.9889150940902648,1,0.999932
0.9860905704892698,1,0.999865
0.9894521595355734,1,0.999932
0.9889406802744584,1,0.999933
0.986394568189435,1,0.999944
0.9851289789777303,1,0.999944
0.9848610069964774,1,0.999932
0.9884640416180038,1,0.999943
0.98692455049646,1,0.999932
0.9903665196578153,1,0.999932
0.986798470609927,1,0.999932
0.9884608305163873,1,0.999850
0.985041495079422,1,0.999944
0.9876657796543385,1,0.999932
0.9905171215544115,1,0.999931
0.9888940696731744,1,0.999932
0.9869926745708001,1,0.999932
0.9878535898936384,1,0.999863
0.9853442461961328,1,0.999931
0.9886099853622651,1,0.999942
0.9898590382588621,1,0.999942
0.9851525499551979,1,0.999931
0.9829770625773037,1,0.999932
0.9846841934992656,1,0.999931
0.9860233438812107,1,0.999941
0.9888758357351246,1,0.999932
0.9877940437720021,1,0.999944
0.9891407982207736,1,0.999932
0.9912594840054004,1,0.999863
0.9863593100742978,1,0.999932
0.9848849310856991,1,0.999928
0.9894315870664769,1,0.999952
0.9938885676667042,1,0.999944
0.992015893915168,1,0.999932
0.9887453918794824,1,0.999928
0.9924714183167822,1,0.999931
0.9894490410431868,1,0.999931
0.9881376263637526,1,0.999931
0.9866440282430314,1,0.999914
0.9898163970882206,1,0.999931
0.9899113334395848,1,0.999863
0.9920441208638396,1,0.999931
0.9866827846027532,1,0.999946
0.988307700111618,1,0.999931
0.9864963679928243,1,0.999856
0.98956566748481,1,0.999931
0.9875338572829663,1,0.999931
0.9831179427368256,1,0.999941
0.98669889312734,1,0.999941
0.9874039857981998,1,0.999931
0.9919333015937566,1,0.999931
0.9889814599164538,1,0.999942
0.9886996399876864,1,0.999947
0.9883308958963335,1,0.999947
0.9906404526700989,1,0.999943
0.9893668467073521,1,0.999944
0.9912910129683844,1,0.999943
0.9855776351709896,1,0.999947
0.9916764346954458,1,0.999932
0.9900529282435159,1,0.999932
0.9880626280549748,1,0.999932
0.9899873664128571,1,0.999931
0.9882795778903677,1,0.999931
0.9929176709051469,1,0.999931
0.9899642275168895,1,0.999931
0.9906812769456007,1,0.999947
0.9897834633420372,1,0.999932
0.9898134077655475,1,0.999931
0.9907012706039564,1,0.999943
0.9906284056522489,1,0.999932
0.9907078436984386,1,0.999943
0.9937235199111303,1,0.999932
0.9900190873173497,1,0.999931
0.9914627578822829,1,0.999932
0.9894052254639467,1,0.999931
0.9916580760915017,1,0.999931
0.9912930694818097,1,0.999931
0.9887054547627163,1,0.999944
0.9897991198759966,1,0.999946
0.9917814139704392,1,0.999942
0.9905274532294731,1,0.999931
0.9892803076191049,1,0.999932
0.9919449854386523,1,0.999932
0.9905851964428816,1,0.999944
0.9806920694083766,1,0.999932
0.9797654126430524,1,0.999943
0.9767195695043598,1,0.999928
0.9786207176944159,1,0.999931
0.9797843731140066,1,0.999931
0.9818419812485802,1,0.999932
0.9792126775105839,1,0.999931
0.9756087492386614,1,0.999944
0.97706450556498,1,0.999931
0.9795164649179418,1,0.999931
0.9771221041686381,1,0.999931
0.9768704437044964,1,0.999947
0.975668952292267,1,0.999932
0.9778505497138068,1,0.999932
0.9758724445899493,1,0.999932
0.98094773749965,1,0.999932
0.9796249809469124,1,0.999931
0.9797813147772361,1,0.999931
0.9731505753855134,1,0.999931
0.9781437631506331,1,0.999942
0.9753803796334973,1,0.999943
0.977777017502641,1,0.999931
0.9790388397466997,1,0.999931
0.9763607847693458,1,0.999931
0.974435411489908,1,0.999931
0.9789168097816134,1,0.999931
0.9798316947002613,1,0.999945
0.9776946695073864,1,0.999932
0.9783366643914744,1,0.999931
0.9774095691196375,1,0.999932
0.9803215781062784,1,0.999931
0.9762703191470873,1,0.999931
0.9818430553917105,1,0.999931
0.9781811698424283,1,0.999932
0.9820737235744815,1,0.999944
0.9786371191290254,1,0.999931
0.9775301353053131,1,0.999931
0.9743505186375241,1,0.999931
0.9805921037075543,1,0.999931
0.9784578835016892,1,0.999931
0.97522622042105,1,0.999931
0.9776351740979435,1,0.999931
0.9795151827798562,1,0.999931
0.979602855017127,1,0.999931
0.9793770835962871,1,0.999931
0.9802334373954162,1,0.999863
0.9815387663660552,1,0.999931
0.9821026690844749,1,0.999932
0.9779456100755946,1,0.999931
0.9797138128888624,1,0.999932
0.9775894324244745,1,0.999931
0.9767410047436988,1,0.999943
0.9748218537983463,1,0.999947
0.9798601732231202,1,0.999943
0.9811242734002309,1,0.999942
0.9791934959295094,1,0.999946
0.9766748831862817,1,0.999928
0.9790636138361863,1,0.999942
0.9741686477953378,1,0.999943
0.977398022436573,1,0.999931
0.9775347137247286,1,0.999931
0.9774454178202824,1,0.999943
0.979269888870868,1,0.999932
0.97839221578312,1,0.999944
0.9767553994828821,1,0.999931
0.9812528461212328,1,0.999931
0.9776026103276111,1,0.999794
0.976262005174465,1,0.999946
0.9779689793001923,1,0.999931
0.9789016866111543,1,0.999931
0.9789606942010567,1,0.999931
0.9754281368156978,1,0.999932
0.9794286005258411,1,0.999932
0.9753220210164191,1,0.999943
0.9786035969990848,1,0.999932
0.9742904883194082,1,0.999944
0.9715867590921599,1,0.999931
0.9772524496592628,1,0.999949
0.9756737947304783,1,0.999931
0.9780262381180743,1,0.999931
0.9786983535511004,1,0.999942
0.9766963210245201,1,0.999931
0.9780940449578602,1,0.999931
0.9737578956796403,1,0.999931
0.973179504300745,1,0.999931
0.9734474809530086,1,0.999863
0.977809196999197,1,0.999932
0.978924360762283,1,0.999931
0.9765221050574707,1,0.999931
0.9739977254180456,1,0.999942
0.9759648454355186,1,0.999931
0.974647959262362,1,0.999924
0.9752174039617337,1,0.999931
0.97631085258555,1,0.999863
0.972865149886077,1,0.999944
0.9779845480798456,1,0.999931
0.9760357164051858,1,0.999932
0.9755995891858472,1,0.999944
0.9766706765539468,1,0.999931
0.9760830899380546,1,0.999947
0.9701446662826967,1,0.999931
0.9762690395259949,1,0.999941
0.974699137689679,1,0.999931
0.9784034250625413,1,0.999942
0.974226458133621,1,0.999931
0.9783107119524493,1,0.999943
0.9758453686043647,1,0.999931
0.9749821317869635,1,0.999931
0.9760534837180699,1,0.999931
0.9744465554661367,1,0.999931
0.9746384994276571,1,0.999932
0.9813411886604227,1,0.999864
0.9685023652288577,1,0.999945
0.9706918674162363,1,0.999932
0.97717671303815,1,0.999931
0.9745850209927602,1,0.999931
0.9770602959468958,1,0.999942
0.9784678379312707,1,0.999932
0.9798999755893969,1,0.999931
0.9773133844316144,1,0.999931
0.9787450307720643,1,0.999942
0.9788966061582214,1,0.999931
0.9764277270721982,1,0.999932
0.9807420279723681,1,0.999931
0.9781022181612928,1,0.999931
0.9761188389645622,1,0.999928
0.975798286577138,1,0.999932
0.9771412947784917,1,0.999863
0.9786131665188836,1,0.999931
0.9784441691485063,1,0.999932
0.9767956916920741,1,0.999931
0.9814168561088235,1,0.999932
0.9781809968326418,1,0.999931
0.973762999135983,1,0.999941
0.9780454323818157,1,0.999944
0.9819595692133591,1,0.999932
0.9754653946213663,1,0.999932
0.9770485189136355,1,0.999942
0.9793881007349091,1,0.999932
0.9831353359199998,1,0.999932
0.9767174245325653,1,0.999932
0.9801883675230989,1,0.999944
0.9783367249639481,1,0.999931
0.9804276253024812,1,0.999932
0.9766441376841446,1,0.999944
0.9804341156987337,1,0.999932
0.980763072390726,1,0.999928
0.9840742450038611,1,0.999932
0.9804032711428244,1,0.999931
0.9775905111805555,1,0.999931
0.9783060055976301,1,0.999946
0.9790318606822036,1,0.999931
0.9741899811828585,1,0.999932
0.9802906691405922,1,0.999932
0.9832141506367361,1,0.999932
0.9778557746948523,1,0.999942
0.9773581954830443,1,0.999942
0.9794132053565143,1,0.999932
0.9799333004711809,1,0.999944
0.9816817005670633,1,0.999931
0.9778400847995468,1,0.999945
0.979181389014692,1,0.999941
0.9818818149218036,1,0.999931
0.9808525961308873,1,0.999943
0.9796522760698422,1,0.999931
0.9804343278141397,1,0.999943
0.9802190725396458,1,0.999943
0.9779073106015748,1,0.999931
0.9743014341534545,1,0.999856
0.9789478780690132,1,0.999932
0.9761483715105322,1,0.999932
0.9791955090156079,1,0.999932
0.9763053193875454,1,0.999932
0.9803998455095374,1,0.999932
0.98074352548812,1,0.999944
0.9745245101492866,1,0.999928
0.9814083264656036,1,0.999932
0.9768119128085251,1,0.999941
0.9786557666778248,1,0.999943
0.9827725361758921,1,0.999932
0.9818246920948519,1,0.999944
0.9777454474017612,1,0.999932
0.9793729267764448,1,0.999942
0.9805783416802486,1,0.999932
0.9796201595267093,1,0.999932
0.9796117152358593,1,0.999943
0.9767888244004678,1,0.999947
0.9817955405575981,1,0.999931
0.9804744734263269,1,0.999932
0.9794454840896764,1,0.999946
0.9799034523826119,1,0.999942
0.9815714560863198,1,0.999943
0.9812226206587177,1,0.999932
0.9777007542436513,1,0.999950
0.9829061312118367,1,0.999932
0.983896865172728,1,0.999932
0.9813624066392048,1,0.999947
0.9818675122082523,1,0.999931
0.9772978826589999,1,0.999931
0.9817169161905451,1,0.999931
0.9794592667760634,1,0.999931
0.9835664835789889,1,0.999932
0.9806016202699667,1,0.999942
0.9863690147933093,1,0.999864
0.981365317266454,1,0.999932
0.9797048015897614,1,0.999932
0.9819309391146177,1,0.999932
0.9835119549070572,1,0.999932
0.98125976850301,1,0.999945
0.9797655942134779,1,0.999931
0.9771645342528339,1,0.999932
0.980871319424532,1,0.999948
0.9819615330391614,1,0.999932
0.9827586374987038,1,0.999932
0.9821245753470398,1,0.999932
0.9812924720820604,1,0.999932
0.9823501813470241,1,0.999944
0.9776791934302642,1,0.999931
0.9832087918882829,1,0.999932
0.9815015307286203,1,0.999947
0.9812368691296964,1,0.999932
0.9772845971997218,1,0.999941
0.9830339013109072,1,0.999944
0.9815523484676173,1,0.999943
0.9785314513560255,1,0.999947
0.9759161392076358,1,0.999932
0.9768170121447052,1,0.999932
0.9781872293415295,1,0.999944
0.9732962898229441,1,0.999942
0.9801349017869219,1,0.999932
0.9786172720271875,1,0.999932
0.9802284593662548,1,0.999932
0.9782926096391988,1,0.999932
0.9820817479100165,1,0.999932
0.9807458174371835,1,0.999885
0.9794480515544464,1,0.999932
0.9753178261231341,1,0.999932
0.978225965537756,1,0.999863
0.9774533647829186,1,0.999932
0.9726479096594629,1,0.999932
0.9772157137189653,1,0.999932
0.9778431800659665,1,0.999932
0.9801095347482998,1,0.999932
0.97525749327863,1,0.999932
0.9787143505347613,1,0.999932
0.9807309462204966,1,0.999932
0.977402585341803,1,0.999932
0.9791719445665061,1,0.999944
0.98146409268916,1,0.999932
