0.9643305820102082,1,0.999886
0.964310109085066,0,0.985387
0.9574100397572595,1,0.996526
0.9629800195069936,0,0.640329
0.9694985272752669,0,0.997811
0.9730010214091342,1,0.999831
0.9750945084462345,0,0.998088
0.9782460391273261,1,0.999868
0.9737577457224595,0,0.994773
0.9686938367453534,1,0.999546
0.9730524881442933,1,0.999874
0.9770140052262047,1,0.999868
0.9761798517094984,1,0.999759
0.9765513213119983,0,0.585736
0.9769079871515141,0,0.997447
0.9772987195922676,0,0.786413
0.9751079824660525,1,0.999097
0.9728787239541133,1,0.999352
0.9729899874742458,1,0.999910
0.9746935069932945,1,0.999352
0.9762039061527297,1,0.999706
0.9768499805256927,1,0.999748
0.975528132737955,1,0.999225
0.9762840588092776,0,0.998896
0.9761854011987908,1,0.999742
0.975786727697172,1,0.998686
0.9770054061839768,1,0.999871
0.9779499412781194,1,0.999542
0.9782688764643621,1,0.998106
0.9793391010398097,0,0.998201
0.9809049943452183,1,0.998867
0.9823835195870377,1,0.999037
0.9832292319942224,1,0.999094
0.9135853254274046,0,0.996905
0.9288045897307324,0,0.996872
0.9346650970709556,0,0.998227
0.9390981378745604,0,0.993453
0.9420157580640691,0,0.994701
0.94479325822254,0,0.983864
0.9467733253267401,0,0.987047
0.9482499450748544,1,0.997274
0.9509466254261972,1,0.998727
0.9533493122601112,0,0.993407
0.9557796038156966,0,0.992481
0.9579064241939167,0,0.984222
0.9599906386780244,0,0.989441
0.9621029188918168,1,0.999217
0.964920241250361,0,0.983687
0.9663930385361074,1,0.999836
0.9685359145247873,0,0.993701
0.9700886889351662,0,0.971576
0.9713323041796582,1,0.999667
0.9724149034087576,0,0.979658
0.9732809586376941,0,0.977192
0.9739960104265274,1,0.999915
0.97456897579076,0,0.995795
0.975147015428003,0,0.966667
0.975493151322286,0,0.982837
0.9757337143972177,0,0.986725
0.9758609410871153,0,0.986564
0.9759814174149913,1,0.999845
0.9761337104126825,0,0.983102
0.9766170992770261,0,0.983804
0.976817030200988,0,0.989132
0.9771252756398021,1,0.999706
0.9796154463212875,0,0.993658
0.9807449272553106,0,0.984596
0.9819927776878665,0,0.996374
0.9820810933044503,0,0.983967
0.9829581846640094,0,0.994738
0.9844751389325997,1,0.999908
0.9862672499937276,0,0.996786
0.9881506066235556,1,0.999087
0.9885637643527502,1,0.999611
0.9885858343871116,0,0.998232
0.9877925863552103,0,0.994291
0.986827676318594,1,0.999483
0.9855576453931444,1,0.999897
0.9850962734872358,1,0.999511
0.9845503614818302,0,0.990336
0.9840263183022315,0,0.987398
0.9837419177795913,1,0.999899
0.9834620249750192,0,0.988443
0.9828774487084054,0,0.995875
0.9822296997977306,1,0.999888
0.9821604427771822,1,0.999810
0.9819642602071262,1,0.999892
0.9814481633125552,1,0.999698
0.9809597027194703,1,0.999904
0.980572965354756,1,0.999890
0.9823693743594929,0,0.995956
0.9889196561293725,0,0.997537
0.991262580304263,0,0.989797
0.9928009432607865,1,0.999527
0.992818189285536,1,0.999534
0.9927620655687788,1,0.999130
0.991863416941268,0,0.992440
0.9907319098171298,0,0.998230
0.9895668751661565,1,0.999476
0.9881732483800013,1,0.999879
0.9872504389213902,1,0.998751
0.9863014574209964,1,0.999067
0.9849588146063284,1,0.999109
0.9838416066196515,1,0.999894
0.9825184197277191,1,0.999800
0.9817873097143618,1,0.999797
0.9806178465643851,1,0.999667
0.9801968245511744,1,0.999890
0.9797002397627365,1,0.999886
0.9798574221003609,0,0.997533
0.979834622246524,0,0.997263
0.979523586295141,0,0.995495
0.9801338446700376,0,0.998892
0.9806556607459384,1,0.999902
0.9811658325167891,1,0.999656
0.977946813005173,0,0.998530
0.9829549496305908,1,0.998941
0.9842635929046007,0,0.992751
0.9844082309272563,1,0.998949
0.9849558528729911,0,0.997794
0.9855461022809695,1,0.999366
0.987000744702328,1,0.999851
0.9874717584850453,1,0.999824
0.9879251128203558,1,0.999493
0.98819919139406,1,0.999889
0.989377603618905,1,0.999880
0.9896260777124222,0,0.998247
0.989974736829688,1,0.998167
0.9899433329824842,1,0.998997
0.9899160883920598,1,0.999136
0.9898692356261489,1,0.999286
0.9897807980988695,0,0.997459
0.9896466166706819,1,0.999898
0.9893784827160675,1,0.999844
0.9888579583544389,0,0.995842
0.9887149353766312,1,0.998785
0.9888193605804376,1,0.998615
0.9887700057341056,1,0.999155
0.9885434869406338,0,0.996473
0.9882239178138336,1,0.998455
0.987813435399559,1,0.998720
0.9870745567424115,1,0.999117
0.9862946415132741,0,0.997860
0.9854622887358138,1,0.999736
0.9844870430770797,1,0.999913
0.9834167429174598,1,0.999923
0.9824747118869729,1,0.998828
0.9814843211647503,0,0.996989
0.9798203314526733,1,0.999518
0.9782571645521121,1,0.998450
0.977713981014363,0,0.987856
0.9765499819067802,0,0.996510
0.9752062747004681,0,0.997274
0.9741427912549857,0,0.996722
0.9381655921021326,1,0.999116
0.9408607842991602,1,0.998794
0.941922675392305,0,0.996824
0.9402038110398702,0,0.994619
0.9409257463847003,0,0.992016
0.9400872273220003,0,0.991660
0.9416132959270321,0,0.976495
0.9423637507691789,0,0.998281
0.9425392078615811,1,0.998990
0.9464241878803483,1,0.999383
0.9508539898225996,0,0.987545
0.9542358497822613,1,0.998792
0.9562386667592414,1,0.999539
0.9583900397815353,1,0.999333
0.9604994682070709,1,0.999875
0.960028556606713,0,0.999019
0.9614114373336603,1,0.999877
0.9626224950872998,1,0.998972
0.9628007304272119,1,0.999309
0.9635946417603792,1,0.999912
0.9648852313124955,1,0.998973
0.9649666436207917,1,0.999761
0.9658535718106182,1,0.999487
0.9659758472388119,1,0.999034
0.9658353128182358,1,0.998941
0.9654621032283124,1,0.999593
0.9649426337816417,0,0.994902
0.9646460581682503,0,0.998789
0.9643484391852069,0,0.995438
0.9641267949947703,0,0.998692
0.9642755474748231,0,0.997574
0.9640336051142033,1,0.999776
0.9642046983848495,1,0.999658
0.9642035689983033,1,0.999264
0.9650690866735198,1,0.999120
0.9390393924602035,0,0.993828
0.9499458051367194,0,0.996303
0.9589984954522731,1,0.998429
0.9621388632687189,1,0.998863
0.9653143131935735,0,0.996972
0.9679179823514332,1,0.998795
0.9708780570420616,0,0.998561
0.9744950830792853,1,0.999720
0.975589289516236,1,0.999743
0.9762635622377599,1,0.999885
0.9762056565061076,1,0.999033
0.9759559391399824,0,0.996781
0.9754244858884309,1,0.999254
0.9744587908665657,0,0.983490
0.9751518533009604,0,0.997302
0.976221520686346,1,0.999749
0.9773711551305021,1,0.999413
0.97861507639872,0,0.995625
0.9786706959124848,0,0.995879
0.9785477327895358,1,0.999836
0.9783417911937113,0,0.997482
0.9777773184825708,1,0.999605
0.9774151300433239,0,0.994785
0.9765094855298636,1,0.999496
0.9762548702717969,0,0.992952
0.9759535263370814,1,0.999138
0.9755890251668955,1,0.999007
0.9746572104902427,1,0.999582
0.9741777727219778,1,0.999142
0.9741543124178583,0,0.997461
0.97396120723228,0,0.985829
0.9736006936220384,0,0.994766
0.9734892982958946,0,0.997285
0.9734806427734667,1,0.999676
0.9739355647467738,1,0.999735
0.9743640719896349,1,0.999339
0.9746735725241952,0,0.990405
0.9754265502920549,0,0.998596
0.976161948722124,0,0.998682
0.9765442464607023,1,0.999756
0.976944818002196,0,0.995131
0.9773936805969826,0,0.990764
0.9775421748728381,1,0.999724
0.9207673047808503,1,0.999790
0.9214822307280559,0,0.993599
0.9225098286166965,0,0.990857
0.9240355777414854,1,0.999018
0.9275612066808561,1,0.999840
0.9373509457163013,1,0.998695
0.9372491851593954,1,0.998982
0.9378971583990651,0,0.924694
0.939469387721162,1,0.999783
0.9422566137418885,1,0.999754
0.9428200353899668,0,0.985813
0.949748974399572,0,0.989782
0.9586838645695215,1,0.999866
0.9634674514400313,1,0.999894
0.967064359184393,0,0.998852
0.9688252101954794,1,0.999181
0.9711102458826335,1,0.999384
0.9733463097584905,0,0.998680
0.9747926903364994,1,0.999007
0.9755737830377742,1,0.999371
0.9763736770373624,1,0.999492
0.9769984853744274,1,0.999896
0.9773899845461987,1,0.999880
0.9773486409362333,0,0.995658
0.9773403965655596,0,0.997370
0.9771530198066299,0,0.991831
0.9771593012178665,0,0.994439
0.9771146244981902,0,0.981018
0.976863834820598,0,0.992719
0.9771493905351126,0,0.991512
0.9771983716096987,0,0.998279
0.9773167810661305,1,0.999682
0.9773518481446232,0,0.991391
0.977696969407862,1,0.998911
0.9780200131380847,1,0.999752
0.9781752984046203,0,0.992616
0.9781107519440438,1,0.999538
0.9779720586982806,1,0.999874
0.9777028203850627,1,0.996879
0.9778895399943133,1,0.997628
0.9780346296518224,0,0.988623
0.9781277783625083,0,0.990102
0.9782167297376296,1,0.995208
0.9782948808151505,1,0.999488
0.9781402876531153,1,0.999431
0.9117106052285748,0,0.902801
0.9170750214296003,1,0.999493
0.9243785402561839,1,0.995000
0.9266614539164715,0,0.965875
0.9287564136107415,1,0.996657
0.9306886605519129,1,0.999554
0.9357801565100423,0,0.969822
0.9404026295899934,1,0.999744
0.9414305775735474,0,0.973047
0.9418846937247523,0,0.878949
0.9446768762978447,1,0.999825
0.948924223377151,0,0.995609
0.9545305073723785,1,0.999892
0.9608516928841192,1,0.999775
0.9658434142361226,0,0.994208
0.9693274828630363,0,0.997456
0.9718795825646883,1,0.999770
0.9742294173500757,1,0.999878
0.975925391699147,1,0.999865
0.9768959217949137,1,0.999147
0.9770694126390855,1,0.998737
0.9767363373860427,0,0.988232
0.9761537586178965,0,0.918770
0.9775391523314895,1,0.999877
0.9782292203599269,1,0.999792
0.9786252815029903,1,0.999784
0.9789250923654129,1,0.999002
0.979187206703144,0,0.992343
0.9793625305479564,0,0.993863
0.9798750774489922,0,0.992992
0.9804089011513334,0,0.998208
0.9808863747300983,1,0.999268
0.9809757674068869,0,0.995667
0.9810508420528246,0,0.997125
0.980885992720244,0,0.992836
0.9807684458394119,0,0.994318
