0.0017410976749196864,0,0.754573
0.0223349555432366,0,0.777168
0.07024267171651602,0,0.824330
0.0683228738996825,0,0.801293
0.0652683859507409,0,0.749969
0.06272968441824849,0,0.745663
0.06028468025441221,0,0.753960
0.05404991505743891,0,0.752104
0.04836401142087693,0,0.748651
0.04105813558517578,0,0.869457
0.03834980831455244,0,0.746134
0.03782356440699123,0,0.873254
0.022871316152713674,0,0.733253
0.014060230051783076,0,0.733256
0.013305556964673542,0,0.764137
0.012519523946328524,0,0.730857
0.022442484408246394,0,0.220766
0.026820463619219366,0,0.462673
0.04390322604695625,0,0.669478
0.24807085175841723,0,0.995047
0.7592122102021327,0,0.946873
0.7556123990906264,0,0.705225
0.7540375212958056,0,0.844289
0.7539044592729298,0,0.970624
0.7536525709213276,0,0.997228
0.7376934347546208,0,0.817718
0.737032912249163,0,0.697684
0.7349656083015496,0,0.860997
0.7310333350038497,0,0.702787
0.7138073867342508,0,0.955853
0.6817427634512895,0,0.974874
0.5950342435505347,0,0.368932
0.5939133047253881,0,0.876750
0.5934028210768724,0,0.995722
0.5583297245986572,0,0.980641
0.5500141622380028,0,0.482137
0.5491172529237343,0,0.909708
0.5489047875486984,0,0.879150
0.5486876539720794,0,0.699309
0.5448211786926703,0,0.785760
0.5433726205743724,0,0.766623
0.5321885791941188,0,0.960927
0.5211998066125981,0,0.938983
0.516827511753074,0,0.957652
0.5139797567360467,0,0.922914
0.5138380748525679,0,0.736859
0.5123937144241077,0,0.907475
0.48986408335689896,0,0.993557
0.7902372859986346,0,0.674405
0.7786482238190111,0,0.994142
0.7782567164514853,0,0.662655
0.7773357810972992,0,0.923272
0.7710056364942407,0,0.963814
0.6928401941997171,0,0.671509
0.5414707029245348,0,0.996290
0.5423453539443841,0,0.997587
0.5837458065497408,0,0.995672
0.6349240808112702,1,0.999967
0.7378669263217431,0,0.999766
0.7098761952068453,1,0.999866
0.812246961347936,0,0.999533
0.7636773912318816,1,0.999900
0.7329093602325587,0,0.999648
0.7324265468092495,0,0.996563
0.7300848382554922,0,0.995960
0.729324857402423,1,0.999967
0.7470139142002491,1,0.999900
0.789486585953691,0,0.973605
0.7893634216286226,0,0.942775
0.7893519621548337,0,0.945521
0.7893369617903205,0,0.910147
0.7889495557314339,1,0.999950
0.7868378171370483,0,0.484617
0.7845669927462658,0,0.645572
0.7693298784545385,0,0.990403
0.746339518190781,0,0.979638
0.744086171795459,0,0.949939
0.7440645909164009,0,0.875447
0.744046824998617,0,0.884741
0.7440239286585235,0,0.537162
0.7440078257799196,0,0.857222
0.743919335661818,0,0.951909
0.7438399127268672,0,0.557430
0.25547458463078865,0,0.890127
0.25498287953859694,0,0.830078
0.2549798470094681,0,0.908089
0.25495221593580175,0,0.999312
0.2549456282680206,0,0.951803
0.25468267599471556,0,0.680783
0.2545944080526146,0,0.908398
0.25458858001908596,0,0.870749
0.2543310620430069,0,0.913501
0.25278510312353114,0,0.951213
0.2524684450193602,0,0.943054
0.1943567094773922,0,0.995870
0.19438378790625044,0,0.796104
0.19502868801483889,0,0.983827
0.19498966044564756,0,0.983275
0.19468914679967464,0,0.979570
0.19432908418198114,0,0.996420
0.2379920736609893,0,0.983488
0.2503546704853436,0,0.997209
0.2512444652713572,0,0.988864
0.2548064869895535,0,0.719694
0.2563448996803165,0,0.958905
0.24290309247785283,1,0.999828
0.2507394977731868,0,0.978263
0.2547975124316311,0,0.748590
0.2564964232054201,0,0.869669
0.25665823099046153,0,0.989876
0.24444474238484518,1,0.999982
0.3070487436177394,0,0.678258
0.30707611846403265,0,0.994609
0.30676474952888155,1,0.999965
0.3062130588703706,0,0.997939
0.30575913643239866,0,0.999231
0.30547107897535447,0,0.987462
0.30529470247885204,0,0.992437
0.30370350965736365,0,0.998752
0.300707997576093,0,0.999517
0.2983125969221685,0,0.600784
0.2982776478524205,0,0.997902
0.2969205896793493,0,0.928857
0.2976736245015962,0,0.999243
0.2976547614648696,0,0.591981
0.2976339949645022,0,0.950321
0.29763159516592214,0,0.671014
0.2977009078610029,0,0.948042
0.29852187972904165,0,0.893649
0.3062429815885498,0,0.905582
0.3086180113759527,0,0.945411
0.3085298780180746,0,0.929782
0.3093089854216019,0,0.993684
0.3154377667465709,0,0.999042
0.31571121181222545,0,0.998098
0.32390608143399485,0,0.709035
0.3401603412185008,0,0.999796
0.351693281017172,1,0.999950
0.42253807554994915,0,0.967713
0.5412248174014256,1,0.999881
0.6221952060816857,0,0.745422
0.651150363800677,0,0.999567
0.6890368613825927,1,0.999933
0.7100460558601188,1,0.999847
0.7169999170017581,0,0.965321
0.7255080673480477,0,0.943564
0.7489383082569275,1,0.999983
0.7569451214727855,1,0.999983
0.7623409590908141,0,0.842554
0.7665910654807743,1,0.999983
0.769215243960417,0,0.999813
0.7720011621193646,1,0.999965
0.77246396150724,0,0.965259
0.7751841299411129,0,0.988328
0.7799629142570543,0,0.864357
0.7858711383617338,1,0.999983
0.7902345150687957,0,0.999797
0.7971542207522567,0,0.967156
0.8043583322906895,0,0.871897
0.8084552044800323,0,0.999813
0.8186376122587238,0,0.976222
0.8240287353468774,1,0.999933
0.8262771001859032,0,0.963180
0.10300299221520971,0,0.931319
0.10085784006250569,0,0.960777
0.6676330485843884,1,0.999934
0.6932971016701419,1,0.999983
0.6917358934867209,0,0.856304
0.6955755832340282,0,0.996752
0.7084172082185942,0,0.998253
0.712860519570647,0,0.933472
0.7165085270225634,1,0.999966
0.720754974200278,0,0.997806
0.7312734049200965,0,0.999222
0.7382259860629193,0,0.998714
0.7468543574636279,0,0.990527
0.7569103792755705,0,0.998973
0.7606635384058207,0,0.972209
0.7781013498693119,1,0.999983
0.7817001230578137,0,0.968832
0.7842509732181282,1,0.999983
0.7860595585793759,1,0.999983
0.7881141290782359,0,0.999004
0.7873270628441404,0,0.994591
0.7862712005511477,0,0.974520
0.785289178809755,0,0.997680
0.7838806323575772,0,0.929946
0.7829310542231114,0,0.990757
0.7820750604932576,0,0.999709
0.7807969724117632,0,0.999422
0.7790348853840074,1,0.999983
0.7771983043039994,0,0.999764
0.7753897231082979,0,0.926956
0.7742210987726463,1,0.999949
0.7742709991420434,0,0.998567
0.7764970498052075,1,0.999831
0.7883400785383469,1,0.999983
0.7888999955670398,0,0.999375
0.7928942833815922,0,0.998572
0.8062864231897562,1,0.999847
0.8059452857431558,0,0.999814
0.8119692825531373,1,0.999826
0.8117884901110264,0,0.998847
0.8134707236231515,1,0.999965
0.8168527287135847,0,0.980227
0.8168822436052728,0,0.995690
0.8175938260661673,0,0.998621
0.8197989225965804,1,0.999983
0.8246312025113497,1,0.999848
0.8272242021487498,0,0.999312
0.8270933526877626,1,0.999878
0.828332536498732,0,0.999377
0.833160711709283,0,0.999474
0.8341617229533057,0,0.861747
0.8339414168127133,1,0.999848
0.8357853488120106,0,0.999763
0.8421927865958855,1,0.999933
0.8422801248561548,0,0.999815
0.8480503108858307,0,0.999625
0.8530404003509927,1,0.999949
0.8544369160951935,1,0.999966
0.8543260027626861,1,0.999949
0.8576117562549195,1,0.999932
0.8656359751837426,1,0.999932
0.8730204194430308,0,0.999814
0.8823772424604097,1,0.999983
0.8878047247490994,1,0.999983
0.3264770077820915,0,0.997427
0.5844051979844256,0,0.963373
0.7275336937021236,0,0.988800
0.7399981434276667,0,0.984122
0.7383298035168094,0,0.984991
0.7493665762717759,1,0.999967
0.7558037683752686,1,0.999881
0.7683796645647629,1,0.999950
0.774680968809498,0,0.999682
0.7793553671276812,0,0.969434
0.7814873001164405,1,0.999983
0.7862490574607469,0,0.961388
0.7887823452866084,1,0.999967
0.7912128041416966,1,0.999934
0.79395751031108,1,0.999983
0.7966747670443461,1,0.999933
0.8002042018004556,1,0.999967
0.8028677151762725,1,0.999833
0.8051444925836359,1,0.999849
0.8081662038223856,1,0.999833
0.8102692171166517,0,0.990050
0.811931546942538,0,0.989768
0.815518049401585,1,0.999950
0.818574410110306,1,0.999950
0.8217767627649657,1,0.999983
0.8241557169047042,1,0.999933
0.8260574974573406,1,0.999967
0.8283842561941097,1,0.999950
0.8298839602022848,1,0.999983
0.8303098727799584,0,0.990925
0.8308521812923122,1,0.999933
0.832449815067172,1,0.999967
0.8332917908960248,1,0.999950
0.8562870165242215,0,0.999400
0.8397333512257199,1,0.999983
0.8216672019368204,1,0.999933
0.8185839654617026,1,0.999933
0.8166015798641939,1,0.999967
0.8166447746688099,1,0.999983
0.8184701448191811,1,0.999917
0.8195077948044672,1,0.999983
0.8187046790148038,1,0.999983
0.8181905286345518,1,0.999983
0.8194896884003304,1,0.999983
0.8211874824379256,1,0.999900
0.8223186975075899,1,0.999983
0.8206684754430091,1,0.999983
0.8179987380951769,1,0.999933
0.8169489822491716,1,0.999834
0.815568349273095,1,0.999983
0.8153702143865049,1,0.999967
0.8159364945946612,1,0.999933
0.8173090094490799,1,0.999983
0.8182543676089099,1,0.999933
0.818344665500138,0,0.937676
0.818250166702229,0,0.995814
0.8181447557088855,0,0.897049
0.8180697645677891,0,0.943286
0.8179355450817692,0,0.997044
0.8158502954750877,1,0.999866
0.8170581580500286,1,0.999983
0.8173407596478319,0,0.999045
0.8195694441302122,1,0.999966
0.8227990788886385,0,0.999488
0.8229738688971806,0,0.999084
0.8239508738994654,0,0.998073
0.8311094467112095,0,0.994276
0.8375582535137138,1,0.999966
0.8412118280207302,0,0.999645
0.615950869350873,0,0.999430
0.5111398562770539,0,0.997856
0.5129853256186016,0,0.998548
0.5255595210771793,0,0.999528
0.716996398898946,1,0.999829
0.6850731442538494,0,0.980302
0.7065148875472378,0,0.988188
0.6892138076612889,1,0.999983
0.34053539433330166,0,0.999125
0.21507521733659665,1,0.999983
0.17681164137936503,0,0.999509
0.18199032608292964,0,0.999630
0.24567064495447263,0,0.998435
0.26622553639960433,0,0.999456
0.22875564931418668,0,0.998974
0.20590670802137148,0,0.999574
0.2064236170483733,0,0.922915
0.20721232038135382,0,0.960798
0.20915758754397853,1,0.999983
0.21091252751435327,0,0.995920
0.2148557815412572,0,0.996654
0.21740988977377312,0,0.970681
0.22089868578043467,0,0.996538
0.2248154730685592,0,0.999163
0.24416839254231185,0,0.999513
0.2605611435134736,0,0.999336
0.3175899536873639,1,0.999983
0.39589583310709614,1,0.999830
0.48787176556672135,1,0.999915
0.5122093333304975,0,0.999500
0.5129593727874474,1,0.999899
0.5202262278488262,0,0.996840
0.5188165306291536,0,0.998192
0.5209778011188525,0,0.999796
0.5275464107032857,0,0.999797
0.5337298421521379,0,0.997569
0.5437261212042382,0,0.988968
0.5508353299199522,1,0.999847
0.5588348938524917,0,0.999798
0.5666389323271228,1,0.999966
0.5756927739529881,1,0.999983
0.5844898198635113,0,0.998705
0.5864156369048726,1,0.999983
0.5890256092547944,1,0.999830
0.5908866042744435,0,0.999712
0.5933838618963603,0,0.999677
0.5976506531608757,1,0.999900
0.6040062860426919,1,0.999932
0.24024699037826794,0,0.993978
0.2521510903216054,1,0.999949
0.30106451304308857,0,0.995523
0.396970499692773,1,0.999949
0.5149791427507865,1,0.999949
0.5424072040532117,0,0.996567
0.5446481198730155,0,0.996551
0.5491540267291971,0,0.999231
0.5536085088932016,1,0.999949
0.5532328662326562,1,0.999966
0.5560982177316321,0,0.999813
0.5590243366211541,1,0.999831
0.562837099054314,1,0.999966
0.5664603520816444,0,0.993179
0.5715837473269848,1,0.999983
0.5745360345340732,0,0.999199
0.5751124715014958,0,0.999627
0.5750971815326748,0,0.995787
0.5750523217886554,0,0.991651
0.5750369450278869,0,0.791393
0.5750355387100339,0,0.833765
0.5750256768360408,0,0.997823
0.5750160309992338,0,0.423813
0.5750105580225099,0,0.987977
0.5749873170308933,0,0.867863
0.5749679866393635,0,0.983779
0.5749564139686696,0,0.997648
0.5749647225126197,0,0.996372
0.575074287344977,0,0.993936
0.5750467797337319,0,0.997056
0.575127854140102,1,0.999914
0.5752631995820309,0,0.862683
0.5756454926719087,0,0.862348
0.5756407176271453,0,0.470238
0.5756244748793724,0,0.995886
0.5755756301866521,0,0.371861
0.575575316297766,0,0.889598
0.5755739970705208,0,0.913841
0.5755722276391964,0,0.755892
0.5755557373526492,0,0.991410
0.575539274470715,0,0.984948
0.5754480757825976,0,0.979534
0.5753200096907072,0,0.986477
0.5752896432986364,0,0.983142
0.5752482471681958,0,0.860577
0.5752040801719859,0,0.981576
0.5751806958151459,0,0.729225
0.5751771222064171,0,0.544246
0.5751775007013227,0,0.878322
0.5751726897643634,0,0.970191
0.5751339472039013,0,0.920004
0.5751310734712533,0,0.985473
0.5751264505087426,0,0.852225
0.57510538771262,0,0.729123
0.5750934632006042,0,0.947266
0.5750309878083626,0,0.985709
0.5749746558016681,0,0.982640
0.5749089383170078,0,0.993570
0.5751019313149918,0,0.999811
0.575293679031391,0,0.995632
0.5755333668946256,0,0.995698
0.5764566822823352,0,0.988579
0.578529520034383,0,0.999725
0.5826827178988143,1,0.999914
0.5876017056197597,0,0.967588
0.5875476267343932,0,0.976975
0.5875489845701156,0,0.665104
0.5875494756704763,0,0.996977
0.5877665721621594,0,0.997074
0.5880598046768944,0,0.999566
0.5972143776180944,1,0.999983
0.6105407567545914,0,0.999212
0.6215483028027544,1,0.999877
0.6215837624609002,0,0.980668
0.6216270271097016,0,0.995251
0.6216690205369071,1,0.999896
0.6219925080076429,0,0.989805
0.6292069488432135,0,0.999795
0.6307917506683789,0,0.803236
0.6307906759766648,0,0.876522
0.6307905075981981,0,0.996923
0.6307905180894839,0,0.652611
0.6307905768294436,0,0.791307
0.6307920411011633,0,0.849947
0.6308004744012172,0,0.972976
0.6308148893766427,0,0.773795
0.6308395979227697,0,0.978413
0.6308673717893818,0,0.662023
0.6309203448022834,0,0.674163
0.6309643575416288,0,0.976317
0.6310244304084435,0,0.977884
0.6311035414082817,0,0.999193
0.6312408295044695,0,0.999532
0.6312410113419447,0,0.754807
0.6312411373015496,0,0.814214
0.6312415186994137,0,0.737956
0.6312374773483532,0,0.730350
0.6312322626106434,0,0.983326
0.6312104887747334,0,0.798595
0.6311943773403926,0,0.992031
0.6311734733946422,0,0.970279
0.6311663309646052,0,0.609370
0.6311665386885189,0,0.746674
0.631166578018969,0,0.740036
0.6311666413147008,0,0.588733
0.631166642208629,0,0.945324
0.631204386752219,1,0.999931
0.6323102299375992,0,0.966909
0.6323102421895727,0,0.876633
0.6323102789380373,0,0.941966
0.6323102922201531,0,0.809026
0.2765632296750922,0,0.571402
0.27656315737341436,0,0.857472
0.2765629003019537,0,0.996731
0.2765625149606634,0,0.990358
0.27656107322087464,0,0.997354
0.27673468317147026,0,0.996900
0.27680101589321127,0,0.990754
0.2768771445746956,0,0.537405
0.27687678015848505,0,0.814878
0.2768749804453293,0,0.953004
0.27686963643373613,0,0.924186
0.2768604361722675,0,0.951115
0.2768555471179235,0,0.941583
0.2768609882485398,1,0.999860
0.27687250934596236,1,0.999983
0.2768786316480594,0,0.637982
0.276877464059759,0,0.973560
0.27690780297481943,0,0.868469
0.2769077366909342,0,0.965465
0.2769072781219333,0,0.836791
0.27690614151547466,0,0.993513
0.2769916734998809,0,0.890211
0.2800716374288552,0,0.848678
0.2800712038901726,0,0.854072
0.2800708867572537,0,0.943642
0.28062127655812846,0,0.908712
0.28276457813387557,0,0.942235
0.2868777936924639,0,0.998679
0.29398701255935233,0,0.990596
0.27453125688543356,0,0.996630
0.30686421795852925,0,0.955640
0.3123352121531661,1,0.999983
0.3595926852477987,0,0.998847
0.4447027775220503,0,0.911106
0.4518624915305591,0,0.913740
0.45683218014706917,0,0.962894
0.4893683391814817,1,0.999983
0.5701960554434023,0,0.999731
0.5721315921850426,0,0.996548
0.5780756358614314,1,0.999983
0.5790965948885,0,0.999738
0.5783551399532963,0,0.961310
0.5787426664851726,0,0.999692
0.5753047138057928,1,0.999949
0.5701727629358392,1,0.999949
0.570205003790259,1,0.999949
0.5751338924076392,0,0.998706
0.5755911009416905,0,0.998961
0.5759380537602025,0,0.740464
0.5760495810242097,0,0.999747
0.5781354430930297,1,0.999845
0.5819270500709739,0,0.999808
0.5865483514927009,0,0.998273
0.586795404661128,1,0.999948
0.5880277362764997,0,0.993914
0.5883650399818999,0,0.987780
0.58884586416635,1,0.999875
0.589212557445999,1,0.999945
0.5893168292236268,0,0.998607
0.5897516289802671,0,0.999749
0.590298230396474,0,0.999664
0.5909434527207753,0,0.982975
0.5909938006935164,0,0.959463
0.5911736807175074,1,0.999892
0.591341158503885,0,0.998578
0.5917582745883868,1,0.999965
0.5921379601141199,0,0.999344
0.5925092214246257,0,0.999628
0.5929829444435258,0,0.981776
0.5931256395794695,0,0.999491
0.592246717721189,1,0.999965
0.5858541403439361,1,0.999982
0.5858263173318496,1,0.999982
0.5859395060481718,0,0.995435
0.5860047398766727,0,0.940608
0.5873135139878372,1,0.999982
0.5919395957449582,1,0.999932
0.5962833110085539,0,0.983308
0.5971410164904944,0,0.999566
0.6032304659363041,0,0.993089
0.61054805605162,1,0.999915
0.6199812620417631,1,0.999916
0.6231256227814304,0,0.986441
0.6306604376131496,0,0.999211
0.6378810862376756,1,0.999915
0.642035871066734,0,0.998855
0.6469465282408068,0,0.990363
0.6479882699901567,1,0.999947
0.6486258797463196,1,0.999965
0.6506401796720005,0,0.997540
0.2867464921963624,0,0.998031
0.31905271110320355,0,0.995623
0.324832578300609,0,0.999772
0.34625230029578025,0,0.997366
0.15917244249298784,0,0.999437
0.16993708207616448,0,0.997433
0.18168135205695077,1,0.999948
0.18312171820042653,0,0.998720
0.21014716180198467,0,0.998421
0.2065647742751592,0,0.998442
0.20947630095299682,0,0.961852
0.2094852607073285,0,0.708175
0.25335460094017176,0,0.997686
0.3190208806922943,0,0.999393
0.35095881827851716,1,0.999983
0.3733941342825441,1,0.999983
0.37838916906423853,0,0.986927
0.3527299821055002,0,0.997064
0.424218392068175,0,0.987496
0.5180860804771308,0,0.994148
0.54019662567048,0,0.997719
0.40889617329096684,0,0.998121
0.34838861732906573,0,0.999356
0.31801050921447477,0,0.997896
0.3129309138240567,0,0.941112
0.3132210103720533,1,0.999822
0.30756074716940013,0,0.999456
0.30036824237762433,0,0.997192
0.2924600172442548,0,0.997333
0.3008958733855081,0,0.999369
0.3011314261280469,0,0.998233
0.3014987976243244,0,0.999626
0.3044490413693724,1,0.999982
0.3326310617952184,0,0.999489
0.3344184818865361,0,0.997600
0.343287977629955,0,0.997980
0.3591912168643713,0,0.998143
0.39369784681477293,0,0.996507
0.39478031991476664,1,0.999982
0.39662951095763194,1,0.999893
0.4000039935420058,1,0.999876
0.4074702761370431,1,0.999965
0.4123864505131951,0,0.998924
0.4243667577987093,0,0.983638
0.43861564435988804,0,0.999583
0.45200795057489107,0,0.998767
0.4559728765750367,1,0.999983
0.46396822168157664,0,0.994647
0.4811946936888124,1,0.999983
0.5024992351986435,1,0.999983
0.4929966360638048,0,0.981204
0.4964998327158986,1,0.999825
0.502770262090782,0,0.999714
0.5263499772827281,0,0.997534
0.5538288691009889,1,0.999983
0.5602312271726305,0,0.999084
0.5682189649015627,0,0.997540
0.5664973691603101,0,0.998344
0.5699534160520631,1,0.999841
0.577625972942147,1,0.999947
0.579998804243258,0,0.999233
0.5806126974278217,1,0.999894
0.5832695065976169,0,0.998368
0.585832021203854,0,0.998106
0.28006117924512425,0,0.994035
0.2834474810604817,0,0.997860
0.3548165263869016,1,0.999965
0.3579644272571075,0,0.998651
0.29542622878780744,0,0.998025
0.3226032419441976,0,0.998204
0.3262873559204635,1,0.999965
0.3471862301631574,0,0.996129
0.4047821955552749,0,0.998984
0.4421406655281474,1,0.999845
0.4475477526289232,0,0.985758
0.40424658510557926,1,0.999859
0.38178057745744776,0,0.999427
0.38597507361779054,0,0.986312
0.3807404381258544,1,0.999965
0.3984918658471748,0,0.999650
0.3951708564994893,0,0.998794
0.39611244153865127,0,0.992176
0.4116722582728056,0,0.989833
0.41910454901050476,0,0.997566
0.4333067638636678,0,0.994327
0.4437428216049357,0,0.999754
0.44850627025014494,0,0.996327
0.4647024987707534,0,0.996751
0.47522491203768924,0,0.995449
0.4787603006769016,0,0.996207
0.4903090959410504,1,0.999933
0.5106475348087521,0,0.999136
0.5268293473048243,0,0.995116
0.5490923286031755,0,0.998322
0.5743531691126572,0,0.997321
0.5964446492578065,0,0.998721
0.620530106344566,0,0.995533
0.6677917952388458,0,0.996190
0.6708722396132151,0,0.999670
0.6821185329555319,0,0.999346
0.7116927718893625,0,0.999005
0.7356562713919993,0,0.999465
0.7372895546282761,0,0.999324
0.746623768491364,0,0.999619
0.7477576078117499,1,0.999895
0.7609585322449595,1,0.999966
0.7843656194333218,0,0.999734
0.7988744813546634,0,0.999801
0.8082022097862825,0,0.993682
0.8129293970435363,0,0.999681
0.8177860148318875,0,0.999612
0.8199900528470135,0,0.999219
0.820756915654874,0,0.999771
0.8233516727579338,1,0.999899
0.8247235135294233,1,0.999949
0.8252697572318137,1,0.999916
0.8245395602260875,1,0.999983
0.8245065777773477,0,0.999528
0.8249559681529485,0,0.997905
0.8254505618812442,1,0.999965
0.8258489342868146,1,0.999843
0.8264520380630099,1,0.999983
0.8270457668460792,1,0.999947
0.8272409822249898,1,0.999894
0.8272989817765519,0,0.997154
0.8278679009117316,0,0.999523
0.8277765688433709,0,0.996962
0.8278318290016492,1,0.999947
0.8283347621897554,0,0.998865
0.8273765349524816,1,0.999826
0.8258344954788149,0,0.995762
0.26701392997672896,0,0.995496
0.3030029353684543,0,0.990001
0.26569159797852393,1,0.999948
0.26501056200150713,0,0.997182
0.2818150010936257,0,0.995614
0.3160258129899777,0,0.995522
0.35417174859605755,0,0.998387
0.34996075815492067,0,0.996459
0.35143301529594906,0,0.995369
0.3465497746511598,0,0.998069
0.3731014118305394,0,0.994943
0.4013934402372613,0,0.995372
0.382151979052142,0,0.997963
0.3804875195498748,0,0.997285
0.3889402104749883,0,0.998305
0.40353448396292435,0,0.999337
0.42993211930087327,0,0.997254
0.4711001614204359,0,0.997672
0.5363261588396525,0,0.999635
0.5576857296194306,0,0.996389
0.5719879277554026,0,0.997604
0.6476578196213945,0,0.999800
0.6753568029299283,1,0.999966
0.6908365949161237,0,0.999447
0.7041663327773404,0,0.999324
0.7354077472510933,0,0.999660
0.7596445327125216,0,0.999301
0.787547726554042,0,0.999455
0.8020096903565722,1,0.999983
0.8043558078572897,0,0.999337
0.8134229742426539,1,0.999983
0.8164803304274688,0,0.999372
0.8178931880186099,1,0.999897
0.8189406901157061,1,0.999983
0.8198957551104757,1,0.999930
0.8210546695474779,0,0.894051
0.8221314754521902,0,0.999585
0.8219587023708331,0,0.999577
0.8232527440899328,1,0.999983
0.8241446147323129,1,0.999983
0.8249789011453836,0,0.999734
0.8250141862545838,0,0.999632
0.8252087662876306,0,0.998665
0.8262630263206874,0,0.999452
0.8269023865123964,1,0.999930
0.827513188483552,1,0.999913
0.8277434043901469,0,0.999760
0.8280973999813664,1,0.999930
0.8289428681722295,0,0.998473
0.8291483968213186,1,0.999966
0.8291878143794567,1,0.999896
0.8301338078353627,0,0.999694
0.8302668845337356,0,0.999127
0.8295933980655377,1,0.999881
0.8296910502332797,1,0.999842
0.8297887315496119,0,0.999448
0.8296328810189586,1,0.999912
0.8300073223702464,1,0.999878
0.8297746232542201,1,0.999983
0.8294972176895058,1,0.999950
0.8299331441499614,1,0.999915
0.8303520291840966,0,0.996931
0.8306271440289209,0,0.999314
0.8310177397786374,0,0.999731
0.8320906858234506,1,0.999983
0.8324738779528101,0,0.999410
0.832434277489346,0,0.999552
0.832712572103658,0,0.997283
0.8348099714140799,0,0.999779
0.8361594708056866,1,0.999983
0.8375312206597095,1,0.999983
0.23423161288906177,0,0.987034
0.23611952815065804,0,0.989189
0.2854278757039566,0,0.993790
0.2960973341698474,0,0.998863
0.30159171369825155,1,0.999843
0.3166424738370066,1,0.999983
0.3818969470503296,0,0.995552
0.4435954853701676,0,0.995814
0.44253540523166823,0,0.997438
0.5664086885428028,0,0.997198
0.6645501529068912,0,0.999474
0.8104924958875048,0,0.999560
0.8527165019911152,1,0.999950
0.8608802631233529,0,0.999085
0.8684564878379532,0,0.999814
0.8698555920291322,1,0.999949
0.8709775846882313,0,0.999634
0.8704500034303972,0,0.999499
0.86731444501464,0,0.998786
0.8666059147245638,1,0.999828
0.8662542429693704,0,0.998815
0.8650545122310236,1,0.999965
0.8622659513831326,1,0.999882
0.8612366420631038,1,0.999865
0.8606270547274649,1,0.999983
0.8601539577454618,1,0.999932
0.8593327603758357,0,0.999060
0.8589853241899962,1,0.999849
0.8588829045876061,1,0.999983
0.8584500880438479,1,0.999930
0.8579571986727812,0,0.999816
0.858439151884991,1,0.999983
0.8582581349273547,0,0.999693
0.8581559731194224,0,0.999759
0.8580751170027133,1,0.999950
0.8577319935618726,1,0.999948
0.8565195421946471,1,0.999966
0.8555562382008998,1,0.999899
0.8555807133397505,1,0.999966
0.8552857925716625,0,0.999714
0.8549060474741945,0,0.999595
0.854758987282458,0,0.998120
0.8538966984923031,0,0.999043
0.8520645404354427,0,0.999651
0.8521452048243532,0,0.999758
0.8522464168580469,1,0.999948
0.8505849443811893,1,0.999967
0.8511076903962513,1,0.999934
0.8502572814637923,0,0.999751
0.8504550906932808,1,0.999932
0.8505071999165391,0,0.999694
0.8499631815769473,1,0.999966
0.8487750312014559,0,0.999691
0.8491136697848632,0,0.999447
0.8493052060404025,0,0.999371
0.8496405274241567,0,0.996608
0.8498257706120343,0,0.999812
0.84997040137512,1,0.999915
0.8493349407454314,0,0.999784
0.8483602356815244,1,0.999848
0.8480725864962895,0,0.998137
0.8483371779155702,1,0.999916
0.8478224281645118,1,0.999932
0.8477892548237999,1,0.999983
0.8479502225126222,0,0.999114
0.8483886549714232,1,0.999917
0.8488034213329155,0,0.999722
0.849049723584215,0,0.999200
0.2820573800163688,0,0.999773
0.3051352209004859,1,0.999965
0.31863435805562323,0,0.999774
0.42227378621968636,0,0.995820
0.4790853254104544,0,0.991267
0.5504549558854388,0,0.997473
0.6844781266620429,0,0.999411
0.7655862114813373,1,0.999913
0.7565788264331168,0,0.996969
0.7389571451789075,1,0.999982
0.6169495225516822,0,0.999561
0.8226918425856743,1,0.999983
0.7100717017969349,0,0.999776
0.8203217380307332,0,0.999585
0.8534668740685115,0,0.999721
0.8660509403799349,0,0.999339
0.8655111811735183,1,0.999931
0.8601866074104317,0,0.989885
0.8675659785021098,1,0.999983
0.8717876992106588,1,0.999830
0.8771167303930743,1,0.999983
0.8797256244994327,1,0.999983
0.8792244579283198,1,0.999983
0.8814366016578673,1,0.999983
0.8820617880451895,1,0.999966
0.8797004386441037,0,0.998863
0.8761852965389172,0,0.999815
0.8757406691846068,1,0.999983
0.8744425451124961,1,0.999933
0.873034697038551,1,0.999834
0.8703540893925452,1,0.999834
0.8711034630119243,1,0.999864
0.8733408461897795,1,0.999915
0.8743968561768118,0,0.999640
0.8743206090271735,1,0.999983
0.8741482817844743,0,0.999798
0.873962987030182,0,0.999812
0.8737226153762421,1,0.999900
0.8748130549332276,0,0.999762
0.8759240859269793,1,0.999832
0.8741482183376822,1,0.999983
0.8740236582238903,1,0.999897
0.874625700095805,1,0.999915
0.8753822484200269,1,0.999915
0.8758010455845922,1,0.999983
0.8763481967815382,0,0.997781
0.8756223278746783,1,0.999915
0.875775832184377,0,0.999743
0.8761297098488076,1,0.999983
0.8767766952180016,0,0.999655
0.8771576055251209,0,0.999801
0.8758806543810975,0,0.999795
0.8751147555814263,1,0.999983
0.8734386408798213,1,0.999966
0.8724157454288628,0,0.998181
0.8721871236685315,1,0.999983
0.8715386749158379,0,0.999677
0.871485202944365,1,0.999983
0.8696088720081806,1,0.999983
0.8697362291513421,1,0.999930
0.869936889245146,1,0.999933
0.8700038776775657,0,0.999643
0.870150868093335,1,0.999983
0.869970664279223,1,0.999898
0.8683527666537119,1,0.999848
0.8669841346908727,1,0.999983
0.866560004161151,1,0.999949
0.8658454547237727,1,0.999949
0.864943413975626,1,0.999966
0.86400651973892,1,0.999950
0.8639583187454598,1,0.999983
0.2286887536376801,1,0.999983
0.2768773207088307,0,0.996637
0.40368470491290886,0,0.996936
0.5067515577146384,0,0.994278
0.7692951262219115,0,0.998037
0.8912738350089748,1,0.999965
0.9007237992852357,0,0.999768
0.8969372735217784,1,0.999983
0.900879565496584,1,0.999933
0.9034979914954254,1,0.999933
0.9023508733203551,1,0.999831
0.8984792270014014,0,0.999730
0.8966086043277124,1,0.999983
0.8925835190002623,1,0.999933
0.8885254275827185,1,0.999882
0.8877245395485591,1,0.999848
0.8855253532645841,1,0.999983
0.8826690591594071,0,0.999381
0.8813413768982612,1,0.999931
0.880447877275751,1,0.999949
0.8812535381524683,1,0.999863
0.8812473107254809,1,0.999950
0.8784215170172989,1,0.999983
0.8774278765810892,1,0.999950
0.875877896009978,1,0.999966
0.872839164108532,1,0.999983
0.8717706692407325,1,0.999966
0.870445183332775,1,0.999966
0.8689547073300435,1,0.999829
0.8700604886555355,1,0.999983
0.8700209406070417,1,0.999948
0.8706090409652322,1,0.999983
0.8700171142983493,1,0.999900
0.8680774013422624,1,0.999983
0.8692621734790056,1,0.999898
0.869219150512403,1,0.999983
0.8683696703879935,1,0.999966
0.8689992198806384,0,0.999730
0.8696209332640749,0,0.998262
0.8709120616408145,1,0.999983
0.8717211542181553,0,0.999779
0.8722163041379125,0,0.999152
0.8725785238278783,1,0.999983
0.8731634788673958,1,0.999900
0.8733356551465024,1,0.999983
0.8733405119363817,1,0.999916
0.8740913704871054,1,0.999983
0.874707749066423,1,0.999949
0.8747156977925642,1,0.999966
0.8745878834667378,1,0.999949
0.87434541285726,1,0.999949
0.8744830544300182,0,0.999763
0.8751904099765409,1,0.999915
0.8738602636516942,1,0.999983
0.8733113123178051,1,0.999967
0.8729511184820573,1,0.999983
0.8728128280004264,1,0.999983
0.8715709138436091,1,0.999966
0.8713200203404818,1,0.999983
0.8713509846729052,1,0.999950
0.8713495181372007,1,0.999966
0.8709648436835082,1,0.999983
0.8704830925879269,0,0.999763
0.8705915524338409,0,0.999678
0.2199999103835224,0,0.995026
0.25622630134258934,0,0.993409
0.46420380886590795,0,0.998864
0.6123946548760997,0,0.999047
0.8168614804245113,0,0.999357
0.8583577311070145,0,0.999747
0.8643381361494947,0,0.997557
0.8353824950331735,0,0.999579
0.8293077566644291,0,0.999807
0.8495183886537508,0,0.999698
0.8413748286879866,0,0.999535
0.8453592547705835,1,0.999932
0.836722238705776,1,0.999966
0.8431630402711447,1,0.999983
0.8430995152801708,0,0.999731
0.8516280386921841,1,0.999983
0.8556451048950839,1,0.999949
0.850095428025018,1,0.999983
0.8488898847722989,0,0.999765
0.848349021731106,0,0.999797
0.8519236270738249,1,0.999881
0.8562726585534737,0,0.999548
0.8587604411353316,0,0.999701
0.8587973963325924,0,0.999765
0.8561642081959322,0,0.999020
0.8556974622489699,1,0.999850
0.8553246440915401,0,0.997998
0.857215229989915,0,0.999447
0.8564654133684623,1,0.999933
0.8556449608048923,0,0.999748
0.8545633759951492,0,0.999414
0.8540239691696024,0,0.998385
0.856616245368755,1,0.999983
0.8595165184846526,0,0.999414
0.8619031032914204,1,0.999916
0.8628899258459733,1,0.999967
0.8623701880896123,0,0.999663
0.8631275966959199,1,0.999983
0.8630081267311026,1,0.999983
0.8624593637414588,0,0.999463
0.8596565041436954,1,0.999883
0.8596578613761294,1,0.999949
0.8607513079424073,1,0.999983
0.8605173164120629,1,0.999983
0.8598404306526809,0,0.999282
0.8579221759914465,1,0.999949
0.8561252624760405,1,0.999916
0.8561411262954931,0,0.999514
0.8564145014808984,0,0.999797
0.8568212466494449,1,0.999948
0.8574687995992739,1,0.999983
0.8576791803717501,1,0.999983
0.8576051109054831,1,0.999967
0.8580296352073029,0,0.999633
0.8582794389516467,1,0.999948
0.8586261484025637,1,0.999983
0.8583157032996362,1,0.999829
0.857421032480865,1,0.999934
0.8564035443203937,1,0.999983
0.8554279249349037,1,0.999983
0.8550431951346263,0,0.997313
0.8555696530739523,1,0.999933
0.8561425397491601,1,0.999881
0.8565042498289167,1,0.999983
0.8562561347426213,1,0.999898
0.3403785951624393,0,0.999295
0.4031655690845172,0,0.998577
0.7915936636910443,0,0.993599
0.9094600350507501,1,0.999932
0.9091756366778462,1,0.999898
0.9016748431373813,1,0.999864
0.9014190341196812,1,0.999983
0.893128648002823,0,0.999727
0.8880533948149302,0,0.998202
0.8810128938563954,0,0.999511
0.8769127080151775,1,0.999983
0.8694964482154958,0,0.999658
0.8679050905035067,1,0.999865
0.8631943303724943,1,0.999864
0.8600383796226222,1,0.999983
0.8558574888768151,1,0.999916
0.8538120878680375,1,0.999983
0.8501267519786717,1,0.999983
0.8487754306933056,0,0.999327
0.8493187377337003,0,0.999540
0.8502406342659652,0,0.996500
0.8509419967171254,1,0.999983
0.8499526203681682,1,0.999881
0.8473790702394144,1,0.999983
0.8436189528210711,1,0.999934
0.8409909637876561,1,0.999832
0.8413487802459906,0,0.999612
0.8428060895082973,0,0.999460
0.8442230531826225,1,0.999831
0.844422460486217,1,0.999898
0.8452517210167336,1,0.999950
0.845742613358052,0,0.999713
0.8459707113407282,0,0.999474
0.8465807079600078,1,0.999983
0.8473857596340229,1,0.999950
0.8474764490921131,0,0.993773
0.847848480522254,0,0.999466
0.8484673981497513,1,0.999862
0.8499457848311103,1,0.999983
0.8514747560971783,0,0.999466
0.8532541604740195,1,0.999983
0.854469337042051,0,0.999745
0.855913933637828,1,0.999983
0.8568767584094291,1,0.999914
0.8578918917857918,1,0.999932
0.8585417457503166,1,0.999966
0.859367043436517,1,0.999966
0.8599198950377437,1,0.999931
0.8602600015785484,1,0.999983
0.860711413264708,1,0.999966
0.8609370932172632,1,0.999983
0.8599756764782694,1,0.999983
0.858821018917565,1,0.999882
0.8586462022090228,0,0.999503
0.8593220578325735,0,0.999488
0.859843148750308,0,0.999557
0.8603113953271037,1,0.999882
0.8603532657929897,0,0.999647
0.8607904123261683,0,0.999608
0.8614687177913671,1,0.999967
0.8620000130132693,0,0.999438
0.8628929874545035,0,0.999795
0.8634186454335454,1,0.999932
0.863260416975479,1,0.999863
0.8633963229305215,1,0.999983
0.863909908987206,1,0.999950
0.8635681823273835,1,0.999983
0.8640601314293904,0,0.999731
0.8638596942331724,1,0.999983
0.8630315847468495,1,0.999983
0.21522121918843937,0,0.993509
0.26822944283947464,0,0.991150
0.4553041473041491,0,0.995375
0.750169868757443,0,0.999352
0.8704540994073585,1,0.999983
0.8956404371899691,0,0.999698
0.8978867504536524,0,0.998699
0.8950829052461708,0,0.999815
0.8895938023067783,1,0.999983
0.884295712188497,0,0.999748
0.8786526865421541,1,0.999899
0.8716240307059858,1,0.999983
0.8656660726441728,1,0.999967
0.86606358748166,0,0.999532
0.8669428585751552,1,0.999983
0.8704665097412032,0,0.998857
0.8772327605224759,1,0.999896
0.8814633926648456,1,0.999914
0.8860063301577016,1,0.999966
0.8906560501846333,1,0.999983
0.8932332047079238,1,0.999967
0.8943552824911003,1,0.999983
0.8930775446338949,1,0.999864
0.8932767626452554,1,0.999983
0.8933742698176376,1,0.999983
0.8917550267019227,0,0.999782
0.8884999577707263,1,0.999881
0.8855074755822399,1,0.999983
0.8842951893642842,1,0.999983
0.8836641975464848,1,0.999983
0.8822143306866815,1,0.999915
0.8815172266500173,1,0.999833
0.8805881564303951,1,0.999983
0.8793049417380739,1,0.999983
0.8784025636611561,1,0.999983
0.8792037622409956,1,0.999949
0.877539556473787,1,0.999983
0.8750241123368468,0,0.999614
0.8724596243726536,1,0.999967
0.8733317791247953,0,0.999714
0.8737258045257608,1,0.999950
0.8736126979677453,0,0.999278
0.8736232638712842,0,0.999629
0.8736701140729772,1,0.999933
0.8732784033116513,1,0.999895
0.8733918785936621,1,0.999966
0.8726835406948807,1,0.999983
0.8715755122240483,1,0.999967
0.8712982491993512,0,0.999590
0.8711544862161905,1,0.999950
0.8707613181612007,1,0.999983
0.8704072873744385,1,0.999983
0.869312820954868,1,0.999983
0.8675033743920193,1,0.999950
0.8654873551051289,0,0.999699
0.8636193087241625,1,0.999967
0.8634942192401951,0,0.999056
0.8642741607795034,0,0.999713
0.8647047968947353,0,0.999747
0.8654041877539269,1,0.999848
0.86555034408548,1,0.999983
0.8652396569663472,1,0.999983
0.8655272474402249,1,0.999983
0.8660255424198152,1,0.999950
0.8665208119921893,1,0.999983
0.8671508572841312,0,0.999549
0.8677379001924578,0,0.999360
0.8679325791402246,1,0.999895
0.8685719499212001,1,0.999832
0.8689091591480664,1,0.999850
0.8694378494449013,1,0.999983
0.8699650551659721,1,0.999949
0.8701317373723335,1,0.999966
0.870412246302773,1,0.999983
0.19775551614323056,0,0.995169
0.2359060394264611,1,0.999983
0.367247409858628,0,0.999592
0.5592406390029305,0,0.998570
0.8101772108731367,1,0.999983
0.8827467376754463,1,0.999914
0.8902350706651588,1,0.999914
0.898334959018324,1,0.999829
0.8909530960117313,1,0.999900
0.8878881960855091,1,0.999880
0.8948166682938085,0,0.999546
0.8957100438926217,0,0.999362
0.8927212268154568,1,0.999915
0.8882844167485862,0,0.999690
0.8839693418232523,0,0.998562
0.8812246077922682,1,0.999949
0.8782263773269798,1,0.999848
0.8759777307847018,1,0.999983
0.8723232815880797,0,0.999761
0.871797514750506,1,0.999983
0.869771917045859,1,0.999833
0.8687217667551769,1,0.999983
0.8656024266730782,0,0.999454
0.8655423927771283,1,0.999866
0.8683279667310528,1,0.999983
0.8703534071427776,0,0.999782
0.8725579432235381,0,0.999020
0.8750638071656682,0,0.999664
0.8769685379599182,1,0.999983
0.8780642706911852,0,0.999429
0.8776573037374084,0,0.999464
0.8777758755035902,1,0.999983
0.8773304643997886,0,0.999711
0.8774634220156053,1,0.999966
0.8779180009279319,1,0.999863
0.8781009752308236,0,0.999646
0.8779376007998841,0,0.999741
0.8773664392935778,1,0.999880
0.8776971391060681,1,0.999983
0.8773997322724548,0,0.999555
0.8769303547713801,0,0.999709
0.8763882350368276,1,0.999983
0.876289896288954,1,0.999983
0.876051320742005,1,0.999983
0.876652464543715,1,0.999983
0.8765618236725655,1,0.999897
0.8771683666410494,1,0.999947
0.8777506003774004,1,0.999965
0.8781754329986762,1,0.999825
0.878172127732958,0,0.757991
0.8781717308592056,0,0.999010
0.8781707914135792,0,0.969482
0.878170349351523,0,0.969434
0.8781694757426051,0,0.988778
0.878170383431641,0,0.919611
0.8783990257871904,0,0.999678
0.878759180393658,1,0.999983
0.8788295617437223,0,0.820127
0.8788287682567844,0,0.763431
0.8788287857820972,0,0.841016
0.8788289016477665,0,0.879046
0.8788289277514284,0,0.840338
0.878829166962069,0,0.563491
0.8788292767283551,0,0.993090
0.8788292869629679,0,0.925503
0.878829290303792,0,0.198814
0.8788294011868962,0,0.791887
0.8788297938579843,0,0.964556
0.8788303552357377,0,0.995181
0.878830367998445,0,0.970427
0.8788299960219261,0,0.809483
0.8788299993424399,0,0.827347
0.8788300582993612,0,0.955533
0.8788300601050473,0,0.959013
0.8788305464513477,0,0.984008
0.8788391985207912,0,0.983738
0.8788414682179624,0,0.970472
0.8788625413187797,0,0.735363
0.8788662751553923,1,0.999877
0.8789403176097814,0,0.999548
0.8795218531087662,0,0.999793
0.8800032060952601,1,0.999967
0.8805842581827213,1,0.999864
0.8812525734558894,1,0.999933
0.881952816912727,0,0.999355
0.8821619037989792,1,0.999950
0.8824672181333185,1,0.999848
0.8824831692959532,0,0.999162
0.8825152436550474,0,0.999696
0.8826159647710338,0,0.999673
0.8827492378575101,1,0.999880
0.8832394555406591,0,0.999558
0.8832004821834336,1,0.999983
0.8825500757777541,1,0.999983
0.8822152525723773,1,0.999983
0.8814227206483655,0,0.999492
0.8809127014733278,0,0.999511
0.18200180312784386,0,0.998479
0.19468175595038592,1,0.999932
0.22695990764460053,1,0.999983
0.3320921298268688,0,0.998105
0.6872304024842419,0,0.999701
0.885032505243192,1,0.999881
0.8971942714260578,1,0.999834
0.8951023941719118,0,0.999724
0.8963074925170398,1,0.999900
0.90227915496167,1,0.999966
0.8964154898316079,1,0.999881
0.8935768916298128,1,0.999864
0.8899289158509354,1,0.999983
0.8867865402806804,1,0.999845
0.8839285100818387,1,0.999983
0.8853751233267259,1,0.999983
0.8874688190134422,0,0.999814
0.884624100135022,1,0.999983
0.884726495465736,1,0.999966
0.8831597929453493,1,0.999966
0.8808494147642055,0,0.999662
0.8800110434948955,1,0.999916
0.8784273460531574,0,0.999782
0.8785111269433674,0,0.999458
0.8779764615568019,1,0.999966
0.8766672502451877,1,0.999949
0.8746290264616562,1,0.999983
0.8734229135141,1,0.999845
0.8718098144840023,0,0.999444
0.8702562324123926,1,0.999933
0.8717057257290889,1,0.999966
0.8732258909747705,1,0.999966
0.8742793658698224,1,0.999966
0.8753855094333259,1,0.999932
0.8760975914355165,1,0.999933
0.8774887107809819,1,0.999898
0.8787022820426569,1,0.999983
0.8793180313422854,1,0.999983
0.8784012525572764,1,0.999983
0.8770142164986316,1,0.999983
0.8770907380798648,0,0.999384
0.8770630473625747,1,0.999900
0.8766892143184621,1,0.999983
0.8759492186542223,1,0.999983
0.8759416569810204,1,0.999898
0.8759453775821437,1,0.999932
0.8749654049295085,0,0.999798
0.8740613925363978,1,0.999983
0.873851157376777,1,0.999983
0.8733926220229765,0,0.999542
0.8727927813223116,0,0.999811
0.8725198246841505,1,0.999847
0.8718521366314885,1,0.999865
0.871528279478143,1,0.999983
0.8709046129923084,1,0.999983
0.8698373774283791,0,0.999774
0.870105805177223,0,0.999503
0.8710607893719732,0,0.999656
0.8714408947600446,1,0.999966
0.8716324494099685,1,0.999966
0.8722785769692973,0,0.999334
0.8730584921606924,1,0.999966
0.873668248489435,0,0.999811
0.8739578158981568,1,0.999931
0.8744581951369739,0,0.999765
0.8746550610235733,0,0.999748
0.8750265679697804,1,0.999950
0.8754675286529036,0,0.999766
0.8753579819038099,1,0.999932
0.8752466189901479,0,0.999681
0.8749197334410596,0,0.998856
0.8752200052577228,0,0.999323
0.8748317991263099,0,0.999680
0.8751968374114368,1,0.999932
0.8748094524142144,1,0.999983
0.8741511993865273,1,0.999966
0.8733348744014644,1,0.999983
0.8726834016758938,1,0.999933
0.21964985219422709,0,0.994637
0.31952479003638445,0,0.997914
0.7022175970443294,0,0.997135
0.8867867105579608,1,0.999966
0.9167657026168352,1,0.999866
0.9203333600258078,1,0.999983
0.9126195872009333,0,0.999798
0.9066380071576203,1,0.999983
0.8963019828587547,1,0.999915
0.8969797102911995,0,0.999746
0.8949206085507696,1,0.999862
0.8925081815526552,1,0.999983
0.8892527669553387,1,0.999983
0.8840082121453247,1,0.999983
0.8835730164990367,1,0.999966
0.8815948306799137,1,0.999931
0.8804095739629114,1,0.999966
0.8777050748231074,0,0.999726
0.8757526472012412,1,0.999950
0.8742823865006912,1,0.999983
0.87317243674729,1,0.999966
0.8716405719945801,1,0.999933
0.8702189943307678,0,0.999429
0.868322262680447,0,0.999380
0.865905845157912,1,0.999950
0.8660296489687488,0,0.999759
0.8662034452974778,1,0.999933
0.8668131962848471,1,0.999932
0.8681802643476915,0,0.998985
0.8702371447944395,0,0.999776
0.87112814415381,1,0.999949
0.8727665823597045,0,0.999663
0.8726580176260609,0,0.999699
0.8738265956648602,1,0.999949
0.8739797241205783,0,0.999796
0.8734589641603778,1,0.999983
0.8747661743031475,1,0.999915
0.8746029578325593,1,0.999879
0.8755369026476515,1,0.999966
0.8750764739896354,1,0.999967
0.8750438406828683,1,0.999967
0.8742567991987084,1,0.999966
0.8740738204719367,1,0.999897
0.8741456835428062,1,0.999883
0.873365550523842,0,0.999777
0.873428455500883,1,0.999949
0.8740017781155017,1,0.999966
0.8741747542716783,1,0.999983
0.8735547813305796,1,0.999967
0.8725637405249556,1,0.999966
0.8716961431105776,1,0.999966
0.8706678904385632,1,0.999949
0.8693796100365621,1,0.999933
0.8680193297102436,1,0.999967
0.8678323821122774,1,0.999950
0.8663947037813446,1,0.999950
0.8643935234737966,1,0.999983
0.8622349036164582,1,0.999950
0.8597738347126528,1,0.999915
0.8607365383456335,0,0.999478
0.8616775224532183,1,0.999864
0.8625669089771645,0,0.999541
0.863514683445908,1,0.999966
0.8646065307907838,0,0.999781
0.8650159357656475,0,0.999602
0.8656637849881063,0,0.999796
0.8660940581878867,0,0.999592
0.8666575846042932,1,0.999865
0.867276656637045,0,0.999152
0.8678233361927147,1,0.999983
0.8680822171404269,1,0.999899
0.8685087988362028,1,0.999898
0.8690098989097642,1,0.999966
0.869481194571324,1,0.999949
0.869790953075788,1,0.999966
0.47493664218889375,0,0.996420
0.5326197728898875,0,0.998103
0.5947139228480822,0,0.996514
0.6461715039252157,0,0.999697
0.6753578924993463,0,0.999076
0.7094042857271219,0,0.998348
0.7271199899023717,1,0.999983
0.7358877067244195,0,0.996481
0.7388245926520832,0,0.999244
0.7418923161441139,0,0.999226
0.738930603104907,0,0.999428
0.7355562655623848,0,0.999345
0.7333739524821432,0,0.998977
0.7326566091497855,1,0.999983
0.7356792147193201,0,0.999271
0.7376498566466533,1,0.999949
0.7418407256389159,1,0.999949
0.7447169702333668,0,0.999629
0.7473283342490216,0,0.999562
0.7542814294457104,1,0.999983
0.7674114144897873,1,0.999948
0.7804377934212846,1,0.999966
0.7894791710354093,1,0.999966
0.8056920954178652,1,0.999983
0.8130774676876249,0,0.999355
0.822445744894132,0,0.999612
0.8341773811109509,1,0.999896
0.8422857226448636,1,0.999965
0.8479538634605512,0,0.999713
0.8547692900195236,1,0.999932
0.860468281629428,1,0.999948
0.8646160049133741,1,0.999932
0.8685281261710749,1,0.999948
0.870673794766924,0,0.999487
0.8732197387906402,1,0.999983
0.8748221087081652,1,0.999966
0.8777900428620781,1,0.999932
0.8776484549392496,1,0.999914
0.8781234210907299,1,0.999983
0.8789911978124408,1,0.999983
0.878886126957877,1,0.999932
0.8787062242614796,1,0.999883
0.8794184420724553,0,0.999728
0.8794476544540852,1,0.999896
0.8802313480290868,1,0.999966
0.8814867152484548,1,0.999983
0.8812134035322908,1,0.999983
0.8808804116632664,0,0.999694
0.8792475627371313,1,0.999950
0.8760469355819026,1,0.999950
0.8753645852915396,1,0.999983
0.8745539132468398,1,0.999983
0.8734568984147512,0,0.999390
0.873391987949403,1,0.999933
0.8726370323153324,1,0.999983
0.8724207457774164,1,0.999966
0.8718116274239197,1,0.999983
0.8712864399827555,1,0.999983
0.8707050172619247,1,0.999966
0.8695236410011139,1,0.999933
0.8684486589842098,1,0.999950
0.8673762277419554,1,0.999900
0.866355388975396,1,0.999983
0.8654619767734582,0,0.999731
0.8650740714725638,0,0.999815
0.8643634883298472,1,0.999846
0.8645316544311091,0,0.999799
0.8641186929495962,0,0.999782
0.8635845836331337,0,0.998863
0.8628310940410248,1,0.999983
0.8619147294093821,1,0.999933
0.8612650881277947,1,0.999899
0.8606524297474586,1,0.999916
0.8599383311450988,0,0.999527
0.8589736844324892,1,0.999850
0.8582379892458556,1,0.999933
0.8573833111342277,1,0.999949
0.856563550222322,1,0.999900
0.8568478348413184,1,0.999983
0.8569875840050077,1,0.999983
0.8573917948151004,1,0.999932
0.859008341743128,1,0.999933
0.8596066165681118,1,0.999915
0.4584603544362603,0,0.998187
0.4927992825665963,0,0.999499
0.5885593932891217,0,0.998563
0.7451461431626135,0,0.996951
0.8366635605188112,0,0.999704
0.8766270204783823,1,0.999932
0.8756684010998823,1,0.999932
0.8886553521069364,1,0.999850
0.8900408030086214,1,0.999931
0.888879622027067,1,0.999966
0.8861620261719817,1,0.999933
0.8919084430884034,0,0.997867
0.8904966568582752,0,0.999252
0.8893057928035234,1,0.999966
0.8895976962302389,1,0.999950
0.8878474565807856,1,0.999983
0.882747363204719,1,0.999862
0.8838621088143589,0,0.999378
0.8841208893509838,1,0.999966
0.8839411496882805,1,0.999915
0.886591941405344,0,0.999295
0.8853134855035993,1,0.999983
0.8850218133337445,1,0.999916
0.8846907432253099,0,0.997419
0.8840483219207139,0,0.997038
0.8829433153351414,1,0.999966
0.8810690902121978,1,0.999967
0.8796088959481012,1,0.999950
0.8800252673590678,0,0.998568
0.8790482693695689,1,0.999881
0.8779472350065928,1,0.999950
0.8765669122505074,0,0.998910
0.8748969078443948,0,0.998581
0.8737573015061991,1,0.999949
0.8726774488254874,1,0.999966
0.8735925512083633,0,0.999623
0.8743761840481686,0,0.999103
0.8747453653721153,1,0.999950
0.8745392468661516,1,0.999865
0.873948758078786,1,0.999849
0.8738113226789188,1,0.999881
0.8741533578292581,1,0.999983
