0.03636641911139042,0,0.996580
0.06783884995017726,0,0.492240
0.25764872839949676,0,0.998630
0.5962756762198607,0,0.813527
0.4429006942164205,0,0.897844
0.24179862154618062,0,0.779793
0.0862431909785824,0,0.983111
0.1978998782435887,0,0.956861
0.32304641541688356,0,0.983777
0.2831174331578777,0,0.950268
0.05226235743231621,0,0.853691
0.3875209809400307,0,0.972399
0.5468666087572563,1,0.999527
0.7719239119521389,0,0.994886
0.7841018107332638,0,0.996327
0.8676695471921074,0,0.982782
0.20574595747641095,0,0.802114
0.022281319567353703,0,0.974599
0.5271420168697163,0,0.989978
0.5244109013786258,0,0.997002
1.9793807033842434E-4,0,0.952343
0.3967304128002211,0,0.996903
0.6844544311381452,0,0.986939
0.7495893402396315,0,0.997761
0.6699599594517902,0,0.978403
0.6872803545062812,0,0.986339
0.8102077234243127,0,0.985760
0.6124088038970573,0,0.970581
0.6772850971656633,0,0.994579
0.5684326953294391,1,0.999945
0.4641631018630792,0,0.999349
0.313316640947685,0,0.973771
0.28703197568469374,0,0.976222
0.14823284708642154,0,0.983123
0.33142140860807345,0,0.986318
0.4974923191598632,0,0.975432
0.39838403429670416,0,0.998463
0.10535115716985806,0,0.997724
0.20809616160593505,0,0.994961
0.47360613060496204,0,0.994799
0.24794352192684874,0,0.961990
0.3700528626837436,0,0.995077
0.32853057767303073,0,0.958435
0.4202419578935272,0,0.990513
0.381728163843856,0,0.979594
0.33828955216539275,0,0.980767
0.3378328218046003,0,0.977416
0.521475929668308,0,0.988572
0.5307936801308974,0,0.995755
0.46534922541041457,0,0.996516
0.5420880348618773,0,0.998575
0.27467998176148284,0,0.965219
0.17682000286999786,0,0.960786
0.4799490948970016,0,0.995216
0.42227216784003985,0,0.983429
0.4311810651551577,0,0.988017
0.46381630422634346,0,0.993344
0.4956285609449123,0,0.991641
0.43352815531485894,0,0.954296
0.3381849839793591,0,0.946091
0.5762153704568094,0,0.982490
0.4126155585216688,1,0.999851
0.30031471103438356,0,0.960663
0.369054264251926,0,0.931358
0.5261179200910666,0,0.992885
0.4667442516814233,0,0.973017
0.3573864870658384,0,0.969753
0.49919460549007927,0,0.972392
0.6005459484820065,0,0.985260
0.3398262426883387,0,0.946765
0.3826619797232169,0,0.996875
0.48473850794409273,0,0.994841
0.45385188694361195,0,0.959712
0.6137644779968623,0,0.991395
0.12496022903370622,0,0.984425
0.15261156363759326,0,0.904392
0.44435192618236885,0,0.993632
0.4696453369840215,0,0.951774
0.41900698617787663,0,0.996788
0.5304107892330119,0,0.993495
0.6503275829988117,0,0.998070
0.600802877124466,0,0.988442
0.5247316243879845,0,0.995616
0.6545119002631847,1,0.999499
0.753003429302112,0,0.982799
0.7741308889092232,0,0.998160
0.7556361991450727,0,0.994735
0.6841559378353194,0,0.983416
0.6109506968422654,0,0.994961
0.7672164020584964,0,0.980098
0.5389882251426656,0,0.950406
0.421008834138009,0,0.996552
0.50915337149185,0,0.958971
0.594419757811645,0,0.983282
0.540351455457133,0,0.959565
0.5708566854511221,0,0.959974
0.43000597945741087,0,0.969016
0.463804716219788,0,0.990044
0.5990870755685135,0,0.998192
0.640693453128752,0,0.967517
0.6248032451123156,0,0.982883
0.5691151975447829,0,0.991020
0.5168506835979555,0,0.999183
0.5581805341076538,1,0.999949
0.6943115940331348,0,0.998304
0.8395909852500637,1,0.999532
0.816112831657724,0,0.998056
0.27512467284354314,0,0.991530
0.5119743168262987,0,0.990126
0.47270828905851026,0,0.997769
0.17254136885835428,0,0.956480
0.16161164548457926,0,0.997900
0.38207690437558234,1,0.999607
0.27643029163265936,0,0.994602
0.250430523899587,0,0.990970
0.38891936323597714,0,0.982449
0.4353534646938403,0,0.992573
0.4171916752198656,0,0.990812
0.5261852123442182,0,0.960002
0.5863256561817335,0,0.996988
0.5714503204153831,0,0.988845
0.5468692314018375,0,0.990768
0.36953609212183536,0,0.989624
0.25542140669671576,0,0.984877
0.10913227565016187,0,0.991702
0.308007978781957,0,0.919601
0.26496770589992397,0,0.984754
0.46172464160481447,1,0.999283
0.46595856626688065,0,0.975310
0.5329048573478341,0,0.991256
0.6412994525523454,0,0.956036
0.7127528393917973,0,0.991970
0.8225052886962232,0,0.987245
0.7307275776468136,1,0.999930
0.7960304238707331,0,0.990146
0.6544541943671108,1,0.999590
0.7014018305848013,0,0.994893
0.6356146523297569,0,0.989318
0.6970972961850438,0,0.928587
0.4728954419301325,0,0.985188
0.7960708134462101,1,0.999147
0.7970299902424467,0,0.999021
0.699518775159904,0,0.995616
0.44908185731775835,0,0.984603
0.7120936825194312,0,0.956296
0.7337832900368052,0,0.997520
0.8636947847949932,1,0.999863
0.8122796474214689,0,0.974087
0.8038694440910934,0,0.979702
0.6521320577058455,1,0.999930
0.7195839611822565,0,0.985836
0.8418899963626972,1,0.999625
0.8405063152102815,1,0.999437
0.757375122772706,0,0.993205
0.5301874195940232,0,0.987508
0.47381249615025095,0,0.954531
0.5708984837133172,0,0.999111
0.4492064621327772,0,0.985812
0.6357324503429632,1,0.999786
0.6709344167333431,0,0.992169
0.7837647905067632,0,0.992317
0.7461887890000705,1,0.999930
0.7738725074658303,1,0.999229
0.8023482083962141,1,0.999361
0.8147300447430323,1,0.999902
0.8463265266834533,1,0.999498
0.831344012336504,0,0.992817
0.6808628042800124,0,0.905905
0.7001276033400182,0,0.993763
0.5788749002680902,0,0.932529
0.758335811518609,1,0.999383
0.7360667246439934,1,0.999223
0.7549638391811011,1,0.998989
0.7250754337122722,0,0.987298
0.462650492882495,0,0.988231
0.7010872060106368,1,0.999925
0.7088120718768913,0,0.981667
0.7389208641476092,0,0.980163
0.8134809122772017,1,0.999735
0.7804804574676055,1,0.999614
0.7715492576742451,0,0.993597
0.7948481422970084,0,0.994137
0.7561961441688235,1,0.999701
0.5586383796557753,0,0.998953
0.3927454171179524,0,0.980598
0.4411007166740988,0,0.962197
0.4822417993369378,0,0.995204
0.56839781090496,1,0.999838
0.6816364326101715,1,0.999030
0.6772888481306577,0,0.997869
0.8468962276522793,1,0.999339
0.7492185040657497,0,0.998512
0.8414851280437396,1,0.999854
0.802528653099021,0,0.996257
0.50216200830241,1,0.999801
0.6878306223331189,1,0.999465
0.7613431195472179,0,0.995195
0.7583545094079467,0,0.999086
0.7938855264764278,0,0.992018
0.7691225783056126,0,0.989547
0.7226479104443195,1,0.999304
0.8094926925927549,1,0.999712
0.6727755704116277,0,0.989904
0.7190168373603864,0,0.994148
0.7412076322713724,1,0.999455
0.7668647477657653,0,0.997330
0.7516767065225549,0,0.984160
0.7113718372859714,0,0.994629
0.7745297070180451,0,0.980000
0.7026928468023874,0,0.995386
0.7525573417762199,0,0.992761
0.8112882862544534,0,0.970172
0.81489235464366,0,0.985290
0.8627216624445403,0,0.997362
0.3774964118068453,0,0.983640
0.44413064953486836,0,0.995254
0.520803293550515,0,0.997548
0.5745817287813073,0,0.997800
0.6447347273442658,0,0.998964
0.7282710249053954,0,0.986916
0.5910025184338802,0,0.996821
0.7274828652476447,1,0.999320
0.7078578019930372,0,0.979778
0.7045119956908449,0,0.998831
0.6171504396511374,0,0.992988
0.6399925034237743,0,0.965235
0.6876725253784781,1,0.999584
0.7492180490935829,0,0.995458
0.6753032128974817,0,0.985838
0.6689621405782425,0,0.997417
0.5149266812720857,0,0.998090
0.4058389622263209,0,0.992534
0.5884703042387148,0,0.995671
0.5051506191383293,0,0.998417
0.4648712277226775,0,0.997131
0.5850711989240235,0,0.998672
0.40557355047468796,0,0.968737
0.49375795353119567,1,0.999700
0.4009192712583426,0,0.972381
0.5893433829376942,0,0.997370
0.4271340592117669,1,0.999944
0.4425444749134253,0,0.973825
0.4074603448989622,0,0.986741
0.4260896047691993,0,0.972257
0.6189142923745905,0,0.998023
0.46262549441488,0,0.979866
0.5155620842361783,0,0.998871
0.6353362631551814,0,0.998816
0.6223737370796635,0,0.986552
0.5968573801538988,0,0.998734
0.5578801710642888,0,0.978180
0.6245289428233393,0,0.992649
0.6318586056830853,0,0.993245
0.5673307191777313,0,0.987668
0.6244531243025457,0,0.971805
0.6127799058237157,1,0.999830
0.3398382461036676,0,0.997931
0.47311702872166905,0,0.995039
0.34660293415158716,0,0.957051
0.4433881854294244,0,0.973451
0.5577880674667434,0,0.995331
0.46211221983458173,0,0.996937
0.5601323209680512,0,0.939521
0.5919555761084153,1,0.999558
0.6487310908194163,1,0.999541
0.5970892640995535,0,0.979198
0.7064672718551642,0,0.997149
0.6377916437281392,0,0.992895
0.5528851641165154,1,0.999520
0.5390805561336545,0,0.996382
0.6549786142205682,0,0.945487
0.7086890665181249,0,0.997571
0.6298300951362872,0,0.976019
0.500067302246923,1,0.999419
0.6848467327778825,0,0.996158
0.5997971706106597,0,0.992742
0.610743918261011,0,0.984973
0.737318956420946,0,0.999038
0.7159633828501009,0,0.999075
0.31855819562746646,0,0.939326
0.5081558248725242,1,0.999609
0.4551095795132972,0,0.967953
0.22365438312042432,0,0.969746
0.4829776934857546,1,0.999571
0.5424907474133311,0,0.956269
0.6727391974594263,0,0.993715
0.38998806197884345,0,0.921919
0.4947721851203759,0,0.992937
0.482808245181215,0,0.968850
0.6132139238409063,0,0.972430
0.6532518286529893,0,0.981451
0.6255351761059847,0,0.986923
0.729480296230663,0,0.988345
0.6560238542775438,0,0.956725
0.707843333330438,1,0.999672
0.7425054858565638,0,0.994044
0.7115891817420131,0,0.999450
0.5917493702770942,0,0.978243
0.6399185036641533,0,0.945418
0.6471920177623824,0,0.979897
0.6161946114975767,0,0.994917
0.6612350521406708,0,0.997597
0.7445183312576802,1,0.999663
0.7133939040246244,0,0.997650
0.6364498902647249,0,0.976998
0.7093446911557765,0,0.997673
0.6735819140746238,0,0.995984
0.6865469144631088,1,0.999726
0.6262949652655445,0,0.999285
0.06017854378501508,0,0.787980
0.7162277023915182,1,0.999639
0.701335563953295,0,0.987962
0.6587505518274674,0,0.999112
0.6875227505450989,0,0.985985
0.7140865311710098,0,0.973747
0.7792106980378867,0,0.999087
0.806309818633586,0,0.998315
0.7953328984057663,1,0.999824
0.6958120414514337,0,0.998275
0.6985935049840863,0,0.993338
0.7512831499954377,0,0.989196
0.7283549942574594,0,0.992834
0.5764748853510303,1,0.999354
0.7640781843529635,1,0.999444
0.7682211104292113,0,0.997510
0.7815275661138079,0,0.995010
0.8173497871016085,0,0.997937
0.7836116631779132,0,0.982418
0.8157263338444473,1,0.999860
0.7892481671427698,0,0.998729
0.8126532989903866,1,0.999932
0.8616023748824363,1,0.999765
0.8602946078775543,0,0.996697
0.8003517774808954,0,0.998242
0.7284214178170898,0,0.955061
0.7252508403037707,0,0.997786
0.9058324100045488,0,0.991970
0.7905522428884817,1,0.999928
0.8055496380407476,1,0.999852
0.848824815079941,1,0.999635
0.7673316064803046,1,0.999781
0.7836182714728309,1,0.999830
0.7641730962893076,0,0.997574
0.5742831463751543,1,0.999515
0.6749100562253305,0,0.998717
0.7222923001392366,0,0.999115
0.5118778015825721,0,0.937719
0.3195824073397153,1,0.999931
0.2809092911928798,1,0.999878
0.43694565237452276,0,0.999223
0.6104956236450461,0,0.979618
0.5727342780001472,0,0.994139
0.6727088825643877,0,0.966514
0.7025239795315831,0,0.998503
0.681882931036343,0,0.998813
0.4896639577526499,0,0.990596
0.17544429335230832,0,0.961951
0.48581131038865594,0,0.940465
0.46502709727432845,0,0.977520
0.441602626457978,1,0.999796
0.46642116218210156,0,0.987565
0.4976612823095107,0,0.990140
0.46123247270776707,0,0.987054
0.3210897542693389,0,0.946386
0.3225132119454147,0,0.994692
0.4048383083473972,0,0.977682
0.4396737554280318,0,0.997905
0.40150331555846136,0,0.991361
0.5426777490909196,0,0.977389
0.4666431142438979,0,0.997674
0.47231013483454404,0,0.991745
0.5739314361146147,0,0.984338
0.4364255172608647,0,0.960722
0.5214708639646923,0,0.979117
0.5963702848061058,0,0.970729
0.562312904871455,0,0.979634
0.4802227483485886,0,0.998740
0.30922811807720335,0,0.929504
0.5588781962041179,1,0.999718
0.45334499018278546,0,0.934490
0.49258663873703223,0,0.995938
0.4945128364494028,0,0.996379
0.5464798934790314,0,0.989970
0.6494509553357745,1,0.999946
0.5939254745539749,0,0.999162
0.5959628268823723,0,0.942491
0.7053868382624607,0,0.998975
0.6493829648611625,0,0.991989
0.6884864508119829,0,0.991487
0.6227201526981999,1,0.999576
0.7266201071791026,0,0.999407
0.665600747504718,0,0.989639
0.5136995752967762,0,0.990342
0.5720527552879052,0,0.990115
0.6578499112203899,0,0.984660
0.6423631702148087,0,0.984296
0.6418013840642136,0,0.990673
0.6617723849753873,0,0.942823
0.6909499585862863,0,0.991423
0.6890495158264122,1,0.999859
0.6914533815033541,0,0.995190
0.6855483954997295,0,0.955861
0.46290685295711786,0,0.969219
0.41372640347688666,0,0.990164
0.48966543620121755,0,0.998005
0.47822101586307714,0,0.983473
0.5392841166060193,0,0.997937
0.4463348127052344,0,0.950931
0.4534651486364676,0,0.985701
0.48009218510820406,1,0.999935
0.5924680712238729,1,0.999824
0.5889748942968946,0,0.997301
0.5684586957797426,0,0.962753
0.6234582280396173,0,0.985138
0.6925627218558834,0,0.996874
0.45187239095894194,0,0.974475
0.5974416419806625,0,0.992960
0.6603037913195591,0,0.998643
0.6028045605090765,1,0.999892
0.6485350364215603,0,0.992103
0.6831733124723188,0,0.950169
0.6549852069882378,0,0.966739
0.6793450722016261,0,0.980963
0.6651291312941733,1,0.999950
0.7073264704995401,0,0.963083
0.7067127560859269,1,0.999623
0.6944413064173808,1,0.999953
0.7100519918721235,1,0.999808
0.4935212295675272,0,0.996411
0.7139581963390661,0,0.995661
0.6031725076396816,0,0.968964
0.6605431279104111,0,0.997728
0.7117955545718276,0,0.993995
0.7018501733522315,0,0.999102
0.7738981138153578,1,0.999946
0.7874230666122445,0,0.984695
0.8027475132870359,1,0.999479
0.7789662132440968,0,0.999060
0.7360835086779102,0,0.993134
0.7739078127619679,0,0.997252
0.8182181851349176,0,0.996301
0.7396368973364892,0,0.997910
0.663774966938719,0,0.972467
0.7933698191863523,0,0.969099
0.7787875287827406,0,0.997825
0.8205219066693213,0,0.993690
0.8405591649342405,0,0.993780
0.8180206282412432,0,0.989556
0.8575987698976127,0,0.995664
0.8205704621210546,1,0.999940
0.865443747429198,0,0.996775
0.7863875418238185,0,0.981282
0.7959892328558295,0,0.995424
0.7927210563167238,1,0.999947
0.7006091286262379,0,0.985668
0.7449523911496361,0,0.997817
0.7469616968569976,0,0.995916
0.712919934386114,0,0.999303
0.4829164644364673,0,0.995985
0.686864319299654,0,0.978065
0.7221094126756079,0,0.984520
0.60448860658689,1,0.999539
0.6884029474031019,0,0.996872
0.7532634065452077,1,0.999665
0.7408426200642987,0,0.988729
0.7470840489590722,1,0.999540
0.7021740204019483,0,0.997511
0.26533615123067805,0,0.982606
0.3264775684418773,0,0.969405
0.2826446309211854,0,0.995100
0.38166584021253885,0,0.989431
0.376903088424603,0,0.993449
0.49491633139127317,0,0.963802
0.5585807347350116,1,0.999954
0.5048442430121358,0,0.959561
0.49642241035759826,0,0.954527
0.5073531417359135,1,0.999422
0.5839345689717045,1,0.999881
0.6930029273858209,0,0.985568
0.6245194924644739,0,0.982090
0.6215717674464593,0,0.999088
0.591201646035054,0,0.970770
0.6644434136677028,0,0.999150
0.6506466911783011,0,0.967756
0.7338186579744423,0,0.981164
0.6847151153567044,1,0.999948
0.5650018978533319,0,0.999122
0.6718603646084599,0,0.996694
0.6395599412136399,1,0.999751
0.6085698407839503,0,0.974180
0.5856210217701893,0,0.993347
0.5807855931587702,1,0.999714
0.6945797233843491,0,0.997455
0.6704903592955659,0,0.999184
0.7253315147930594,0,0.970130
0.7087089058364241,0,0.997722
0.47644843339649895,0,0.990207
0.47822049710271786,0,0.967550
0.608803415629477,0,0.987101
0.5304364405014599,0,0.984843
0.5965175110175475,0,0.980958
0.5989641286774596,0,0.962288
0.5665763019896267,0,0.995466
0.6875609383439876,0,0.994660
0.7098555085905605,0,0.995782
0.7267270871676277,0,0.988434
0.7356047450546105,1,0.999907
0.663996547094671,0,0.941270
0.7311921070137275,1,0.999675
0.7617460211332356,1,0.999938
0.7720173013662935,1,0.999720
0.751053924737174,0,0.997242
0.8331858094382326,0,0.991936
0.8176080269871396,0,0.988946
0.8389866251685225,0,0.998956
0.8524287967125078,0,0.991467
0.8020284156860774,1,0.999945
0.8206315273912539,1,0.999946
0.8739579949252226,0,0.994542
0.8706224887297681,0,0.999400
0.9002915031457801,0,0.992251
0.8930821587579563,0,0.949358
0.8906566680898156,1,0.999945
