0.3572174100476115,0,0.986320
0.4991315273343995,0,0.983949
0.5669393181657617,0,0.987310
0.6483113949054112,0,0.989076
0.7203697568348246,0,0.988925
0.7706207154615613,0,0.989694
0.8258540581185667,0,0.990899
0.8757165042793871,1,0.999606
0.9099210103411802,1,0.999858
0.9247741392851279,0,0.991490
0.9368243992036083,1,0.999879
0.9449492672550781,0,0.998828
0.9501059156170142,1,0.999920
0.9558027413949224,1,0.999859
0.9594871987763338,1,0.999883
0.9630058401198998,1,0.999940
0.9652850133019915,1,0.999800
0.9659050539170686,1,0.999858
0.9677734728243815,0,0.998946
0.9699400371826726,0,0.992171
0.831453332355686,0,0.988476
0.8504561526747114,1,0.998772
0.8618938800880335,0,0.997161
0.8814174350848816,1,0.999626
0.9090903344889598,0,0.996797
0.929116646990863,1,0.999819
0.9405302964635103,1,0.999683
0.9488243546350655,1,0.999947
0.9552361378149803,1,0.999582
0.959153377846282,1,0.999760
0.961830479226421,1,0.999832
0.9642180810250659,1,0.999726
0.966370573650259,1,0.999747
0.9687185909765013,1,0.999934
0.9705270314402709,1,0.999791
0.971433451976483,1,0.999882
0.9713754012838421,1,0.999903
0.970721083699914,1,0.999885
0.7230281667113259,1,0.999901
0.7922115783061217,1,0.999664
0.8487628239425781,0,0.998563
0.8841890276908164,0,0.998790
0.9028962196074407,1,0.999332
0.9157403749144426,1,0.999836
0.9224903950279081,1,0.999920
0.9313138890643486,1,0.999665
0.934501551944126,0,0.997562
0.9390089882643997,0,0.999305
0.9450573240338128,0,0.998771
0.9498679021784592,1,0.999443
0.9532177647822287,0,0.997582
0.9578628144749719,1,0.999917
0.9595301593705865,0,0.997858
0.9605939212096726,1,0.999941
0.9627191518717855,1,0.999915
0.963719826237157,0,0.996419
0.7028613837709795,1,0.999853
0.7596066339889124,1,0.999706
0.8037319449282976,1,0.999865
0.836677487623703,1,0.999873
0.8578012142894685,1,0.999942
0.8796523431773581,0,0.992001
0.8980011092731253,0,0.993828
0.9094488942295648,0,0.992524
0.9188183278223275,0,0.998871
0.9255392644744881,1,0.999932
0.9286911943741747,1,0.999738
0.9324195385579163,1,0.999769
0.9365011162242138,1,0.999928
0.9425274909388699,1,0.999866
0.9468389593667567,1,0.999635
0.9505072097378525,0,0.999060
0.9529673340334813,1,0.999459
0.9552448955390258,1,0.999814
0.9564263388957924,0,0.992036
0.7195767949103683,0,0.998439
0.7941072035341564,0,0.997803
0.8426503576751274,1,0.999930
0.8750965498391368,1,0.999945
0.8982224939000002,0,0.997395
0.9177672260909001,0,0.995974
0.9282260283059269,0,0.993605
0.9373111884035982,0,0.998234
0.9443182544864529,1,0.999460
0.9503568113279472,0,0.998391
0.9545922729630986,1,0.999929
0.9565127304553479,1,0.999641
0.9581895292855712,1,0.999861
0.9599305046010991,1,0.999673
0.9611083075191086,1,0.999933
0.9617421840346566,1,0.999924
0.9620941334060834,1,0.999926
0.9622515996256078,1,0.999936
0.9618023867758347,0,0.990545
0.9614379375316354,1,0.999854
0.6988144293292876,1,0.999921
0.7508193094926475,0,0.983668
0.7890354634112282,0,0.998612
0.8137440901552072,0,0.991394
0.8295905744142076,1,0.999516
0.8393468096754886,1,0.999701
0.845209546443251,0,0.991168
0.8527722224174836,1,0.999941
0.8574414027604723,1,0.999375
0.8613040173835307,1,0.999523
0.8648052213588102,0,0.992811
0.8680259326853668,1,0.999857
0.8708040979907591,0,0.998790
0.8735300347185565,0,0.998448
0.8761075166708465,1,0.999930
0.8780594430788586,0,0.996920
0.8802426548786253,1,0.999818
0.8828521612491934,1,0.999422
0.8886019324349983,1,0.999875
0.8919945752371017,1,0.999515
0.8957558819872162,0,0.993177
0.8998720403521032,1,0.999899
0.7238780424673172,0,0.998207
0.7734346071617914,0,0.998619
0.795666803345565,0,0.986676
0.8218726145977584,0,0.993828
0.8429226206821773,1,0.999940
0.8588662778464139,1,0.999782
0.8689905822707791,1,0.999670
0.8784959346572841,1,0.999853
0.8848327963341802,1,0.999779
0.8889205817193498,1,0.999675
0.890387833067863,1,0.999809
0.8894127604412756,0,0.993188
0.8896648542059513,1,0.999939
0.8890076869940717,1,0.999795
0.8903839031838132,1,0.999812
0.8906936460491406,1,0.999784
0.8922330561604456,1,0.999683
0.892766234339955,1,0.999877
0.893863634983117,1,0.999617
0.8949285361566549,1,0.999831
0.8947324876385568,1,0.999930
0.8961657690443182,1,0.999935
0.8968617060211377,1,0.999861
0.8986852846544718,1,0.999766
0.6808210139500247,1,0.999935
0.7240158094300706,0,0.974771
0.7593668569504338,1,0.999803
0.7801343743187862,1,0.999661
0.801615104561001,0,0.995372
0.815454762324209,1,0.999872
0.8214271822151888,0,0.996859
0.8315099640257629,0,0.997894
0.832875492646828,1,0.999927
0.8425925014825256,1,0.999932
0.8496884871916857,1,0.999933
0.8554206653302587,1,0.999397
0.8601288266598103,1,0.999869
0.8623334572780413,1,0.999266
0.8648678483297139,1,0.999378
0.8668138020633973,0,0.995287
0.8697764901321292,0,0.995091
0.8715637183987418,1,0.999330
0.8725439686268548,0,0.977233
0.8749161925391761,0,0.999135
0.8777172661744377,0,0.998961
0.8789446845707665,1,0.999872
0.8827730911824927,1,0.999933
0.8876283638212114,1,0.999614
0.8919664094445984,1,0.999701
0.8960954355806193,0,0.979386
0.7133533552957927,1,0.999932
0.7649752334300782,1,0.999932
0.8023559518302383,0,0.997817
0.832884680764259,1,0.999839
0.8556707013347278,0,0.982380
0.872939907113062,0,0.981373
0.8851758583773817,1,0.999777
0.8949901533444199,1,0.999332
0.9023751223013345,0,0.989084
0.9078724238752375,0,0.992472
0.9134243424182716,0,0.998467
0.9163205896730873,0,0.998761
0.919099018417349,0,0.999260
0.921538139262315,0,0.998128
0.92342430106405,1,0.999883
0.9255989086391021,1,0.999887
0.9279255144008874,1,0.999592
0.9295147432343481,1,0.999882
0.9319172667331865,1,0.999931
0.9336034642582768,1,0.999854
0.9352438902686708,0,0.995045
0.9368215912798318,0,0.994391
0.9380809897555288,1,0.999939
0.9396358743806014,0,0.991428
0.9412592526076066,1,0.999936
0.942605100094457,0,0.994151
0.9436146544956446,1,0.999941
0.9447348078197374,1,0.999798
0.9453295742910652,0,0.995735
0.729441916491206,1,0.999543
0.7759572032847684,1,0.999657
0.8090460795841936,0,0.988980
0.8334012793156507,0,0.988414
0.8538543751023333,0,0.998637
0.8699526604534082,0,0.987545
0.8824891121468086,1,0.999938
0.8922273803622863,0,0.999326
0.899263179548426,0,0.993861
0.9055493760878939,0,0.979903
0.9096560391467814,1,0.999878
0.9131381154895744,1,0.999884
0.9163931154816938,0,0.999161
0.919971882013584,1,0.999874
0.9222065791087248,1,0.999870
0.9245564313072986,0,0.996952
0.9270633879508828,1,0.999938
0.9288304362240286,1,0.999797
0.9306933478031288,1,0.999935
0.9323653683816668,1,0.999632
0.9329027735135971,1,0.999941
0.9337227173623817,1,0.999813
0.9351701397412735,1,0.999875
0.9374503930666517,0,0.998593
0.9393556869576237,1,0.999941
0.940408430343546,0,0.994173
0.9414736568204086,1,0.999676
0.9426675633897732,1,0.999940
0.9435517709644773,1,0.999598
0.9442512198677657,0,0.998815
0.9445266972502555,1,0.999932
0.710090225041092,0,0.981359
0.7487178039139019,0,0.984871
0.7863045795268645,0,0.992257
0.817477728548305,0,0.988557
0.8411328878515247,0,0.993876
0.8591327023034775,0,0.995995
0.8756388764314653,0,0.986959
0.8841291317028068,0,0.996675
0.8891400086590129,1,0.999865
0.8928920106050084,0,0.998996
0.8944292973273643,0,0.990557
0.8945859704708775,0,0.994336
0.8936488925450432,0,0.996160
0.8942782720219296,1,0.999601
0.897211333350861,1,0.999523
0.89865539633874,0,0.991670
0.8995155376229453,1,0.999919
0.8998288201828738,1,0.999495
0.8993076433089352,0,0.991820
0.8989219599344684,1,0.999932
0.8985875414644923,0,0.998164
0.8985277051018253,0,0.998786
0.898902711469639,1,0.999864
0.8990772188553716,1,0.999843
0.8989460355663382,1,0.999448
0.8988413553819795,1,0.999644
0.8986157845799853,1,0.999938
0.8981882969393041,1,0.999933
0.8980431815975155,1,0.999630
0.8979237391987857,1,0.999863
0.8978156118360474,1,0.999866
0.8975750969625981,1,0.999786
0.8973493410786255,0,0.998448
0.7296997722267395,1,0.999763
0.758139808169572,1,0.999422
0.7793747403813358,0,0.984055
0.7973857068999873,0,0.994366
0.8125602371740682,1,0.999819
0.8223546393330728,1,0.999937
0.8317178304606146,0,0.996045
0.8385220446692695,0,0.997202
0.8449062746844699,0,0.998001
0.8501504621580463,1,0.999772
0.8533863814787207,0,0.975314
0.8571858540339286,1,0.999877
0.8597126029698795,0,0.995755
0.8619447143402187,0,0.999187
0.8630315201914315,0,0.998971
0.8650792964384287,0,0.998990
0.8664119154832364,0,0.994638
0.8674827172738578,0,0.994627
0.8682136629194077,0,0.990727
0.8689745072690942,1,0.999932
0.8697422343381775,1,0.999930
0.8711395792370835,1,0.999691
0.8710374625330933,1,0.999286
0.8709500518383989,1,0.999925
0.8710025459994073,1,0.999562
0.8702526415431352,1,0.999932
0.8686840571174576,1,0.999929
0.8680354204459652,1,0.999931
0.8674549296971821,0,0.997789
0.867409894523743,0,0.998581
0.8675679403580913,1,0.999606
0.8669174429371157,1,0.999729
0.8660653828494977,1,0.999573
0.865492160022722,1,0.999921
0.8652947363890954,0,0.998182
0.7235782877772577,1,0.999795
0.739535829741145,1,0.999927
0.756026575353317,1,0.999863
0.768311064739539,1,0.999935
0.7778447728553038,1,0.999803
0.7851117376005379,1,0.999933
0.791435201301056,1,0.999933
0.7951824317556799,0,0.998300
0.7971711626667898,0,0.998858
0.8018663967024905,1,0.999341
0.8114449618450774,1,0.999498
0.8203406796308362,1,0.999927
0.8270574821117388,1,0.999939
0.8335091045294019,1,0.999873
0.8393910662184747,1,0.999711
0.8437358552664187,1,0.999866
0.84784681237937,1,0.999754
0.8510043914088511,1,0.999941
0.8545690642146981,1,0.999863
0.859199334153424,1,0.999677
0.8585405766145922,0,0.996997
0.8580893975173505,1,0.999840
0.8573640725961148,1,0.999936
0.8568361436941765,1,0.999794
0.855648361548102,1,0.999802
0.8597007973694725,1,0.999936
0.8637104058745964,1,0.999936
0.8646330542637264,1,0.999917
0.8631851303352911,1,0.999927
0.8631002747268257,1,0.999932
0.8626648007461516,1,0.999905
0.8614848383277025,1,0.999440
0.8622153521934086,1,0.999932
0.8652699567301215,0,0.998661
0.8671099083073361,1,0.999939
0.8690908502458545,1,0.999939
0.8699310932710327,1,0.999751
0.7580398481286635,1,0.999676
0.7690875473165119,0,0.997411
0.7837399985520542,1,0.999926
0.8087509465090619,1,0.999800
0.8321989681920673,1,0.999855
0.8526484640345827,1,0.999750
0.8668610100409264,1,0.999940
0.8802839824006756,1,0.999754
0.8920075118010665,0,0.998294
0.9016486588298844,1,0.999875
0.9095353744309825,1,0.999937
0.9166877589268799,1,0.999855
0.922207375440446,1,0.999872
0.9261762046402549,1,0.999764
0.9290162574182308,1,0.999525
0.9318317480085269,1,0.999750
0.9344992554723923,1,0.999855
0.9368778762754266,1,0.999752
0.9385878252433173,1,0.999754
0.9387978006850068,1,0.999580
0.9382525852305151,1,0.999771
0.9381689385453924,1,0.999399
0.9377474133393356,1,0.999937
0.9373700439544815,0,0.998012
0.9373156255312595,1,0.999940
0.9369781595231816,1,0.999615
0.9365198294846254,0,0.998531
0.9361321224162149,1,0.999857
0.9357025761132974,1,0.999696
0.9348644880426022,1,0.999785
0.9342563590552058,1,0.999869
0.9334610666432848,1,0.999929
0.933412860494688,1,0.999929
0.9350869861666035,1,0.999820
0.936592503291137,1,0.999936
0.9378428038837396,1,0.999875
0.9388758426803189,1,0.999806
0.9403997813199463,1,0.999939
0.7618415263243308,0,0.994303
0.789542651683598,0,0.993954
0.8103215584655126,0,0.997871
0.8257544593932438,1,0.999942
0.8464588825677957,1,0.999688
0.8637096914971983,1,0.999257
0.8777978776197128,1,0.999873
0.8827829416677333,0,0.999040
0.8827401152809738,1,0.999718
0.8812348915509979,0,0.998761
0.8832077455952564,1,0.999935
0.8834706657545736,1,0.999314
0.88534509469637,1,0.999937
0.8934593294880911,1,0.999619
0.9001987339170235,1,0.999629
0.9053986914865674,1,0.999932
0.9068499607151789,1,0.999687
0.9095662572372152,1,0.999417
0.9123819377966647,1,0.999936
0.9142487370760982,1,0.999879
0.917734673296463,0,0.998818
0.9220876896172725,0,0.999147
0.9256347628772281,1,0.999822
0.9289135973172983,0,0.999238
0.9319746775743041,1,0.999423
0.9344981274270532,1,0.999456
0.9365907460925038,1,0.999300
0.937846819477445,1,0.999797
0.9390188898145777,1,0.999515
0.9398075708763088,0,0.997647
0.9403435679042725,1,0.999537
0.9405707122263022,1,0.999801
0.9407507373471871,1,0.999512
0.9408178528843154,1,0.999814
0.94220335223542,1,0.999585
0.9436957533360938,0,0.999242
0.9450987835166103,1,0.999629
0.9464672848701406,1,0.999937
0.9472708777806621,1,0.999938
0.9471195422842316,0,0.999209
0.7489779819386383,1,0.999438
0.7770182632275549,0,0.995223
0.7973891160207683,1,0.999505
0.8139565504652475,0,0.996326
0.8277169019018087,1,0.999866
0.8390381575782508,1,0.999750
0.848914251658589,1,0.999872
0.8613455307676524,0,0.999136
0.8744897993403274,0,0.999221
0.8854600697293318,1,0.999934
0.8947326985336733,1,0.999941
0.902441966241837,1,0.999572
0.9092495364151081,1,0.999527
0.9138678364798429,1,0.999928
0.9190298137603137,1,0.999941
0.9232115653583163,1,0.999876
0.9276859475954032,1,0.999928
0.9314559437304394,1,0.999874
0.9352309976602831,1,0.999870
0.9373468814039394,0,0.996645
0.9386072086578783,1,0.999929
0.9392171568670576,1,0.999936
0.9392350149841375,1,0.999937
0.9390116459729551,1,0.999866
0.9393005887306012,1,0.999807
0.9388010053245837,1,0.999868
0.9381227950519471,1,0.999932
0.937891441271437,1,0.999860
0.9372402494979505,1,0.999941
0.9365698443457489,1,0.999813
0.9360034462294123,1,0.999813
0.9349395867906898,0,0.998443
0.9340767993540939,1,0.999871
0.9331226814784004,1,0.999808
0.9322212255554257,1,0.999935
0.930891722160887,1,0.999930
0.92961180490411,1,0.999804
0.9285986391973564,1,0.999876
0.9277870181493432,1,0.999938
0.9267958078025819,1,0.999939
0.9259964816246304,1,0.999941
0.9250706302923682,1,0.999866
0.9242644697754656,1,0.999805
0.7802670335967512,1,0.999804
0.7932891113748467,1,0.999935
0.8060914142640258,1,0.999649
0.816748640098418,1,0.999940
0.8246008212523397,1,0.999774
0.8325566160809219,1,0.999673
0.8374720462484377,1,0.999926
0.8423690405391231,0,0.997503
0.8464372602870094,1,0.999942
0.8492664295255309,1,0.999882
0.8522541392472176,1,0.999864
0.854313982196768,1,0.999695
0.8559845111673275,1,0.999871
0.8572402982225803,1,0.999938
0.8581728610904417,1,0.999863
0.8584420537367768,1,0.999603
0.859234483505188,1,0.999937
0.8598317154915013,1,0.999762
0.8598092366409457,1,0.999870
0.8602352052229373,1,0.999935
0.8607126007753634,1,0.999929
0.8611355713055021,1,0.999865
0.8630313256716753,1,0.999567
0.8650243036197635,1,0.999748
0.867105351961202,1,0.999862
0.8686535201997264,1,0.999852
0.8704238348653436,1,0.999854
0.8723788876665174,1,0.999851
0.8741668244149752,1,0.999808
0.8752916831380728,1,0.999870
0.8760526350156914,0,0.999000
0.8765994234944435,1,0.999936
0.8772207574794507,1,0.999675
0.8780879838385195,1,0.999750
0.8785981567660114,1,0.999935
0.8797542227954424,1,0.999938
0.880711779229236,1,0.999937
0.8813325967108893,1,0.999925
0.8818874463042793,1,0.999936
0.8823701691911169,1,0.999933
0.8831883260612646,1,0.999934
0.8840894189581104,1,0.999276
0.8854153036699685,1,0.999747
0.7862749103719292,1,0.999859
0.8035342603425978,1,0.999912
0.8147884283253581,1,0.999941
0.8213623557758204,0,0.996974
0.8244974810651917,0,0.996400
0.8311449460270353,1,0.999737
0.8342125600664748,1,0.999936
0.8368680528206991,0,0.999121
0.8379378786447966,1,0.999933
0.8390808066016863,1,0.999930
0.8392773571511293,1,0.999794
0.8423078463164767,1,0.999936
0.8445380702938148,1,0.999877
0.844512111273468,1,0.999860
0.8441211094542116,1,0.999535
0.8443757299624857,1,0.999738
0.8447199332079083,1,0.999934
0.8455809312494327,1,0.999466
0.8532705393773954,1,0.999641
0.8595699572305893,1,0.999808
0.8649594870608144,0,0.997410
0.8695420771223258,1,0.999564
0.8736246274519076,1,0.999624
0.8744441028889454,0,0.999304
0.8767697350248763,1,0.999432
0.8779242664900638,1,0.999873
0.8812550286508689,1,0.999738
0.8835047026615388,1,0.999859
0.8840165669083374,0,0.999302
0.886199250136293,1,0.999644
0.8875319005117236,1,0.999863
0.8895695749065029,1,0.999864
0.8900563349247363,1,0.999934
0.8917590511175045,1,0.999395
0.8919381738639336,1,0.999864
0.8914664138645668,0,0.999079
0.8909426088196777,0,0.999060
0.8923336309551777,1,0.999934
0.8936251629851538,1,0.999816
0.8946596538269421,1,0.999857
0.8953793519694773,1,0.999869
0.8955498418950152,1,0.999406
0.8961247024029441,1,0.999923
0.8963323147636689,1,0.999925
0.8955856990589467,1,0.999923
0.8961110428892881,1,0.999546
0.8969180659323778,1,0.999805
0.807372382813506,1,0.999933
0.8279609247261556,1,0.999874
0.844973597423656,1,0.999632
0.8585405807634898,1,0.999930
0.8689425347176626,0,0.998131
0.8755243112790327,1,0.999882
0.8820850532309257,1,0.999798
0.8857487808343691,1,0.999767
0.8873823211808795,1,0.999695
0.8908876921315152,1,0.999931
0.8939563649360915,1,0.999873
0.8960571268665117,1,0.999930
0.8985413238070981,1,0.999799
0.8979177881374115,1,0.999876
0.90004632002766,1,0.999857
0.900437233153374,0,0.998310
0.9030916321933331,1,0.999930
0.9055927790616183,1,0.999398
0.9076535536839028,1,0.999811
0.90965183910529,1,0.999877
0.9122587056712335,1,0.999938
0.9146977903283536,0,0.998051
0.9159233795138135,1,0.999908
0.9181913940513926,1,0.999876
0.9194930254636223,1,0.999805
0.9206461091833142,1,0.999938
0.9209633034512666,0,0.998724
0.9217505916522871,1,0.999675
0.9220545939553557,1,0.999680
0.9229745463766196,1,0.999929
0.9231773660629052,0,0.998879
0.9229590878279237,0,0.997955
0.9233108325311319,1,0.999467
0.9232016149827287,1,0.999875
0.9230195738766901,0,0.998739
0.9224835777877932,0,0.999059
0.9226241228726362,1,0.999758
0.9230606431445508,1,0.999748
0.922749329498041,1,0.999871
0.9226903448911346,1,0.999170
0.9230712812760906,1,0.999590
0.9235318929326473,1,0.999738
0.9244821269776697,1,0.999807
0.9253570302106406,1,0.999758
0.9257756715325671,0,0.996251
0.9257747894418719,1,0.999762
0.9260634708476629,1,0.999853
0.9262427083685097,1,0.999927
0.9265923915877002,1,0.999930
0.8147542902025693,0,0.998646
0.8290429630156776,0,0.999046
0.8398574284985073,1,0.999685
0.8510238296856131,1,0.999939
0.8576094251911194,1,0.999749
0.8617813351006307,1,0.999873
0.869328922191775,1,0.999799
0.8785366753200906,1,0.999937
0.8828773038297235,1,0.999875
0.8846407518422307,1,0.999544
0.8880518785048406,1,0.999936
0.8907538878045027,1,0.999935
0.8926760044807707,1,0.999721
0.8942446807798314,1,0.999797
0.8976645797386462,1,0.999934
0.9010315335439724,1,0.999934
0.9030647991403907,1,0.999934
0.9059996811412767,1,0.999934
0.9087376344332508,1,0.999934
0.9122927973793544,1,0.999933
0.9134059694536003,1,0.999932
0.9131896311352898,1,0.999928
0.9125879254427476,1,0.999928
0.9123993412403879,1,0.999935
0.9115030372135434,1,0.999641
0.9111798307816275,1,0.999942
0.9108257849902572,1,0.999928
0.9098404221270924,1,0.999926
0.9091798590592505,1,0.999902
0.9085457635160629,1,0.999926
0.9089040464995494,1,0.999874
0.9095542814052695,1,0.999707
0.9098414412756566,1,0.999432
0.9106226470064265,0,0.997702
0.9107526826250778,1,0.999935
0.9105592610115344,1,0.999836
0.9105111802998505,1,0.999778
0.9109816091550567,1,0.999866
0.9111014915170527,1,0.999805
0.9111444170585082,0,0.995858
0.9108834102982141,1,0.999659
0.9108914745358365,1,0.999876
0.9108277335442302,1,0.999939
0.9111272482636497,1,0.999852
0.9113407421985228,1,0.999876
0.9117606570460515,1,0.999877
0.9124074051399556,1,0.999680
0.9127317768051425,0,0.994245
0.91300732610364,1,0.999857
0.9135014463945538,0,0.991278
0.8172809328745663,1,0.999921
0.8200224656638021,1,0.999924
0.8252227161098941,1,0.999565
0.8342198008920336,1,0.999496
0.8387526364536549,1,0.999711
0.8436954158608811,1,0.999640
0.8462722275245075,1,0.999631
0.8493410861618937,0,0.999259
0.8511154308953999,1,0.999826
0.8528333010001787,1,0.999931
0.8545728405019287,1,0.999549
0.856623792417428,0,0.998691
0.8612193805161356,0,0.999002
0.8692319903506709,1,0.999595
0.8763894030296316,1,0.999925
0.8836016550664199,1,0.999932
0.8903696081343636,1,0.999520
0.8968220986149538,1,0.999929
0.9003304196484133,1,0.999933
0.9035554245999587,1,0.999865
0.9078346376920715,1,0.999801
0.912055859590675,1,0.999936
0.916455237179495,1,0.999925
0.9192940814733818,1,0.999932
0.9222168200430936,0,0.997255
0.9244838823113529,0,0.999282
0.9273054233007135,1,0.999861
0.9301581100965678,1,0.999641
0.9323119929848179,1,0.999668
0.9338535054385676,0,0.998864
0.9358474872155045,0,0.995144
0.9369316157451195,1,0.999691
0.9376754928082169,0,0.996399
0.9394214200898244,1,0.999859
0.9411848258772773,0,0.998581
0.9416921040895592,1,0.999871
0.9427001200860844,1,0.999936
0.9432790689685109,1,0.999885
0.9442037348276879,0,0.996391
0.9447601667181218,1,0.999562
0.945604550708178,0,0.998905
0.945748739451264,1,0.999931
0.9466127407577699,1,0.999803
0.946726920052764,1,0.999733
0.9466448324873975,1,0.999853
0.9462215616254721,1,0.999933
0.9460345506085955,1,0.999924
0.9460193779327514,1,0.999930
0.9465206627594136,0,0.998841
0.9474035649259809,0,0.998597
0.9480544033659402,1,0.999938
0.9478497250180566,1,0.999785
0.9480114950028725,1,0.999808
0.9474298105048354,1,0.999855
0.9472506528192799,1,0.999876
0.826813843640706,1,0.999939
0.8435676407168233,1,0.999929
0.8592834305809808,1,0.999792
0.8688971677504334,1,0.999750
0.8769299214800507,1,0.999714
0.8822911608394306,1,0.999937
0.8887391955837404,0,0.999186
0.8942603964607218,1,0.999888
0.9027942142883386,1,0.999934
0.9094865288989018,0,0.997168
0.9154501322674169,0,0.998621
0.9198367184175124,1,0.999736
0.9218424506744767,1,0.999939
0.923101094033667,0,0.999016
0.9259666046447147,1,0.999931
0.9276828703981316,1,0.999803
0.9274479815030998,1,0.999707
0.9304334417702828,1,0.999942
0.9319480113472624,1,0.999933
0.9339378764028611,1,0.999867
0.9362906687244846,1,0.999936
0.937653398329104,1,0.999933
0.9378192276897683,1,0.999862
0.9378742873434602,1,0.999929
0.9374701711658999,0,0.999262
0.9370644761953417,0,0.998752
0.9368610774329409,1,0.999927
0.9369583852175306,1,0.999934
0.936506524553547,0,0.998874
0.9367279221910687,1,0.999830
0.9366122611751286,1,0.999923
0.936336828546592,1,0.999934
0.9369010068668957,1,0.999933
0.9381853721176021,1,0.999938
0.9385232098660459,1,0.999925
0.9393903541860652,1,0.999883
0.9401587961069758,1,0.999818
0.9403648084871393,1,0.999858
0.9419120379391654,1,0.999870
0.9424814028816958,1,0.999269
0.9431888411005654,1,0.999783
0.9441808099236222,1,0.999679
0.9450019814180209,1,0.999938
0.9453889242280461,1,0.999933
0.9450667709933797,1,0.999672
0.9449212106276913,1,0.999935
0.9445409033306171,1,0.999528
0.9440531025314981,1,0.999925
0.9435809483897235,1,0.999803
0.9430427671364319,1,0.999926
0.9423996985257248,1,0.999924
0.9416515112122178,1,0.999862
0.9412649603786047,1,0.999802
0.9407392876297259,1,0.999864
0.9400911117972074,1,0.999817
0.9396554275189071,0,0.998713
0.8377373462408609,1,0.999186
0.8447399762621588,1,0.999931
0.8498128674943278,0,0.999165
0.8545497338321549,1,0.999815
0.8586899007672062,1,0.999804
0.8633081364445657,1,0.999934
0.8660385955455547,1,0.999884
0.8694644875871743,1,0.999870
0.8730794748841126,0,0.998925
0.8771546913060255,1,0.999925
0.8792289717884747,0,0.988906
0.8797459181189679,1,0.999646
0.8810141217187536,1,0.999908
0.8806171630864715,1,0.999844
0.8811647435750445,1,0.999868
0.8826285192148878,1,0.999938
0.8831534332047298,1,0.999312
0.8831827755569238,1,0.999440
0.8831595873441623,0,0.991459
0.8835638706850512,1,0.999797
0.8837970496133433,1,0.999923
0.8845780970269723,1,0.999882
0.8862306029008515,1,0.999931
0.8870693936426044,1,0.999870
0.8877909538379813,1,0.999796
0.8883260344703212,1,0.999794
0.8889165972538089,1,0.999868
0.8890243257626959,0,0.991437
0.8890238573774966,0,0.999187
0.8890387643622973,0,0.996327
0.8891919939674501,0,0.998228
0.8891197293617998,1,0.999731
0.8890446021986164,1,0.999788
0.8887145362825646,1,0.999927
0.8886662377785273,1,0.999936
0.8887545156018838,0,0.999282
0.8888565817956775,1,0.999876
0.8887850280151652,1,0.999805
0.8886834437347616,1,0.999935
0.8889103554209946,1,0.999809
0.889131112893739,1,0.999813
0.8892729243405613,1,0.999794
0.8890273014636924,1,0.999938
0.88856386254913,0,0.998464
0.888061600826337,1,0.999705
0.8879372375926048,1,0.999914
0.8878171993555268,1,0.999813
0.8879085467096139,1,0.999877
0.8877947895338253,1,0.999714
0.8874470887091628,1,0.999865
0.8873801658667949,1,0.999804
0.8874305195381862,1,0.999866
0.8879102136500155,1,0.999618
0.8882851395552224,1,0.999933
0.8886175663530466,1,0.999796
0.888826596566313,1,0.999939
0.8889975603841865,1,0.999665
0.8891212087097838,1,0.999212
0.8614253654579064,0,0.998482
0.867841219889315,1,0.999790
0.8728955013358871,1,0.999798
0.8760359781052932,1,0.999923
0.879458091251764,1,0.999688
0.8825245045605534,0,0.999280
0.8852017256481912,1,0.999855
0.8866532663697455,0,0.998858
0.892031979596658,0,0.999000
0.896832852396893,1,0.999930
0.9010169082669587,1,0.999752
0.903774080722379,1,0.999717
0.9057696481758316,1,0.999933
0.9085593787814138,1,0.999499
0.9110127454729906,0,0.998759
0.9125768131466065,1,0.999928
0.9138593469309835,0,0.999291
0.9158754325838441,1,0.999589
0.9162826626366368,1,0.999879
0.9161764309724552,1,0.999927
0.9164426509059949,1,0.999806
0.9179790693022564,0,0.997359
0.9197155244077981,1,0.999460
0.9198999211807208,1,0.999929
0.9210840377937222,1,0.999940
0.9214714451396533,1,0.999931
0.9220103400470115,1,0.999875
0.9213220438585188,1,0.999813
0.9210915920020132,1,0.999864
0.920630694551833,1,0.999328
0.9201895675598345,1,0.999862
0.9194637694842974,0,0.998398
0.918839297701828,1,0.999678
0.9182633475968035,1,0.999656
0.9175906691450696,1,0.999870
0.9169001242555225,1,0.999937
0.9163266885696751,1,0.999810
0.9159643533489468,1,0.999742
0.9157971066837101,1,0.999932
0.9158337094533627,1,0.999742
0.9157496333931266,1,0.999926
0.9156503673571557,1,0.999864
0.9153003127714857,1,0.999933
0.9152483702277165,1,0.999799
0.9153698666044383,1,0.999936
0.9149131783659814,1,0.999853
0.9143360155836996,1,0.999936
0.9137602402352795,1,0.999942
0.9131493043825601,1,0.999929
0.9125561503367167,1,0.999874
0.9120202798155582,1,0.999862
0.9115727347346687,1,0.999739
0.9113362423382596,1,0.999930
0.9109913215742115,1,0.999936
0.910756752172987,0,0.998264
0.9102763911875251,1,0.999764
0.9098485157219484,1,0.999936
0.9097256502650312,1,0.999720
0.9092666245756177,1,0.999932
0.9088921728724345,1,0.999863
0.9087425271703374,1,0.999917
0.8643143783689284,1,0.999885
0.8708391619492226,0,0.999168
0.8768028077348737,1,0.999850
0.8823366811661345,1,0.999582
0.8849860733732038,1,0.999868
0.8878850731226651,1,0.999750
0.8897492695043577,1,0.999349
0.8903354701748852,1,0.999851
0.889633245725832,1,0.999925
0.8898152755513974,1,0.999875
0.8908771274660386,1,0.999916
0.8917263200085362,1,0.999675
0.892482032057001,1,0.999934
0.8929586760802282,1,0.999818
0.8959281929868118,1,0.999423
0.9005930786592893,1,0.999938
0.9051770669967816,1,0.999875
0.9089426645515745,0,0.991069
0.9124747848194029,0,0.991096
0.9150943427101835,0,0.990271
0.9155849064501244,1,0.999518
0.9174571154126016,1,0.999939
0.9171953782363585,1,0.999877
0.9164033728265156,1,0.999885
0.9152011508758005,1,0.999933
0.915161642704033,1,0.999638
0.916618391192719,1,0.999933
0.9177961601981345,1,0.999938
0.9187768265975285,1,0.999508
0.9190750184731022,1,0.999793
0.9182433486001202,1,0.999940
0.9174830498187001,1,0.999861
0.9172839729492345,1,0.999703
0.9177912794567856,1,0.999937
0.9179241834387493,1,0.999516
0.9169617249998819,1,0.999874
0.9174407758108002,1,0.999701
0.9189794288976934,0,0.999293
0.920428498216121,1,0.999436
0.9205041196957117,1,0.999434
0.9206325944478775,0,0.999226
0.9204736238658071,1,0.999456
0.9202955756843191,0,0.998615
0.9198209498363448,0,0.999137
0.9192921589754977,0,0.998928
0.9188799539518615,1,0.999460
0.9186239118197878,0,0.998925
0.9196999564792482,0,0.998510
0.9207805121072958,1,0.999940
0.920800692445124,0,0.998362
0.9206717651659242,1,0.999928
0.9202154835991063,1,0.999488
0.919990528411794,1,0.999868
0.9204337424968226,0,0.998984
0.9211442187518684,1,0.999795
0.9220765164558615,1,0.999802
0.9228519407102113,0,0.998922
0.9235375685231928,1,0.999860
0.9241785086758832,0,0.999194
0.9245114672626547,1,0.999555
0.9251908178282919,1,0.999731
0.925429355157611,1,0.999717
0.8596652432155786,1,0.999815
0.8706576143287993,0,0.998147
0.8810699445407204,1,0.999938
0.8885337290321443,1,0.999572
0.8979376230007751,1,0.999930
0.9046101644768754,1,0.999937
0.9107350047343146,1,0.999433
0.9164417215442103,1,0.999932
0.9211020568593936,1,0.999872
0.9239377942760699,1,0.999939
0.9268792756249206,1,0.999802
0.9274303525025428,1,0.999860
0.9272058879574282,1,0.999866
0.927210611867143,1,0.999866
0.9260528663722357,1,0.999867
0.9258771833442271,1,0.999937
0.92588200333585,1,0.999932
0.9277884524755969,1,0.999807
0.9289639979471173,0,0.998927
0.9303633292832503,1,0.999801
0.9300861669648459,1,0.999525
0.9295271621221484,1,0.999221
0.9292055306080428,1,0.999783
0.9283672446588952,1,0.999831
0.9274006254857565,1,0.999939
0.9268854578537894,1,0.999910
0.9276575063253105,1,0.999934
0.9288255715221689,1,0.999688
0.9298042155570125,1,0.999878
0.9306052690454278,1,0.999941
0.9312393506272135,1,0.999758
0.9315250893452391,1,0.999928
0.9311756288266457,1,0.999742
0.9301060130846326,1,0.999927
0.9296277900377344,1,0.999931
0.9292403631008886,1,0.999936
0.9293317104810815,1,0.999938
0.9293563054661237,1,0.999871
0.9296819942574404,1,0.999875
0.9300613491850642,1,0.999533
0.930211973634609,0,0.997551
0.9303473565240792,1,0.999568
0.9303371268808399,1,0.999935
0.9300984683945102,1,0.999396
0.9295260809356235,1,0.999941
0.9284366852099877,1,0.999915
0.9277240996543971,0,0.998730
0.9270052811812973,1,0.999839
0.926113089493945,1,0.999096
0.926275069207,1,0.999643
0.9264120654247571,1,0.999673
0.9267649273288635,1,0.999936
0.9267314633470136,1,0.999744
0.9270885928426138,1,0.999627
0.9268516363889611,1,0.999935
0.9266863096866483,1,0.999853
0.9262466149899299,0,0.998662
0.9262799022790553,1,0.999916
0.9261725891522721,1,0.999924
0.9263759176407212,1,0.999740
0.926641967419704,1,0.999857
0.9265366204118395,1,0.999849
0.9266770775990146,1,0.999699
0.9268035668630459,1,0.999746
0.9267632150827275,1,0.999494
0.8611662021123521,1,0.999732
0.8680891551954992,1,0.999936
0.8737006982066321,1,0.999920
0.8819047563903075,1,0.999881
0.8893464753485176,1,0.999934
0.8958671624808502,0,0.999226
0.9001654852879942,1,0.999765
0.9056870097653672,1,0.999875
0.9097125407894228,1,0.999935
0.9123774274631598,1,0.999851
0.9137449145465553,1,0.999933
0.9154823560786088,1,0.999816
0.9194098759609084,1,0.999941
0.9213348591651654,1,0.999605
0.9242706034597785,1,0.999864
0.9266036471455269,1,0.999931
0.9286106197891305,1,0.999929
0.9305510970933003,1,0.999450
0.9317934002999487,1,0.999863
0.9329820269886175,1,0.999938
0.9335125475093344,0,0.998970
0.9340720647675007,1,0.999646
0.9341174042618233,1,0.999557
0.9337942826649483,1,0.999606
0.9342737728897521,1,0.999859
0.9348592710546039,1,0.999934
0.9351155281497235,1,0.999688
0.9362202856820039,1,0.999874
0.9366070579339826,1,0.999930
0.9365960697111073,1,0.999935
0.9363931774842621,1,0.999802
0.9359884865436968,1,0.999940
0.9355470364948588,1,0.999531
0.9360137622055053,1,0.999554
0.936842344955463,1,0.999859
0.9369950455963043,1,0.999793
0.937298773183317,1,0.999942
0.9368928545175212,1,0.999758
0.9364824619134333,1,0.999937
0.9365435448779681,1,0.999939
0.9366116893895712,1,0.999818
0.9365566014489289,0,0.999223
0.9367447654629815,1,0.999929
0.9366883540515797,1,0.999875
0.9367007349897635,1,0.999815
0.9363925746826255,1,0.999752
0.9362969998783686,1,0.999867
0.936206448231228,1,0.999868
0.9358373991230468,1,0.999560
0.935989855927943,1,0.999868
0.9358323347922703,1,0.999878
0.9354067098887852,1,0.999935
0.9352879174676562,1,0.999798
0.9352746106958872,1,0.999885
0.9353804393304174,1,0.999803
0.9354075759981769,1,0.999868
0.9351137465935084,1,0.999865
0.9346387844085888,1,0.999837
0.9348036226468397,1,0.999939
0.9348272370639622,1,0.999886
0.9348638709949945,1,0.999940
0.9348313266762923,1,0.999798
0.9348254434219735,1,0.999941
0.9344839939552875,1,0.999932
0.9340505452616195,1,0.999929
0.9337167398160297,1,0.999937
0.8733566299159469,1,0.999938
0.8826677398101939,1,0.999934
0.8895092818301282,1,0.999674
0.8943199323536786,1,0.999672
0.8993628079340185,1,0.999736
0.9043277013417816,1,0.999728
0.9064654104926273,1,0.999931
0.9103940781707435,1,0.999930
0.913365500344419,1,0.999869
0.9139250352579481,1,0.999935
0.9143585926254928,1,0.999934
0.9147483219003237,1,0.999934
0.9161594005577941,1,0.999680
0.9172977865976517,1,0.999933
0.9190515468339858,1,0.999937
0.9213689527976491,1,0.999810
0.9226501900090865,0,0.999249
0.923184290683686,1,0.999391
0.9249839930545056,1,0.999265
0.9256651248734468,1,0.999691
0.926580167447024,1,0.999939
0.9277895050419949,0,0.997752
0.9289423293544591,1,0.999929
0.9298201144625674,1,0.999938
0.9297067852744068,1,0.999933
0.9294266288106352,1,0.999358
0.9295583099601414,1,0.999649
0.9298901063322198,1,0.999604
0.9297646290291839,1,0.999615
0.9291242888090759,1,0.999577
0.9288478361414235,1,0.999928
0.928506029362848,1,0.999539
0.9278402999173947,1,0.999926
0.9271715185179046,0,0.998773
0.927005485409051,1,0.999935
0.926429300070187,1,0.999937
0.9266302174007524,1,0.999807
0.9266378437598977,1,0.999935
0.9262259351561172,1,0.999559
0.9261031359120919,1,0.999388
0.9264306881451992,1,0.999765
0.9273433462713522,1,0.999927
0.9281185681823799,0,0.998929
0.928186501416131,1,0.999847
0.9280877245658182,1,0.999927
0.9277179900359371,1,0.999931
0.9283034036189887,1,0.999801
0.9285559074448244,1,0.999651
0.9286064592401513,1,0.999937
0.9291872794728008,1,0.999872
0.9295907216160931,1,0.999941
0.9301986743718703,1,0.999928
0.9297849975689754,1,0.999863
0.9290918305857869,1,0.999654
0.9284171379014634,1,0.999853
0.928745398637489,1,0.999722
0.9288347746654058,1,0.999854
0.9290989280209099,0,0.999314
0.929618508336402,1,0.999868
0.9297630988692334,0,0.999114
0.9298271586920064,1,0.999741
0.9300610298780172,1,0.999767
0.9295951023547987,1,0.999789
0.9288799733358423,1,0.999930
0.9283157677714946,1,0.999932
0.9284492223465434,1,0.999688
0.8730074594368835,0,0.998376
0.8830083196722571,1,0.999933
0.8904809222734857,1,0.999671
0.8973995180638036,0,0.996350
0.9039833373788785,0,0.999342
0.9081550969826689,1,0.999606
0.9110761828624719,1,0.999916
0.9131292871743399,1,0.999770
0.9147875431061332,1,0.999855
0.9161414421938726,0,0.998510
0.917176203797557,1,0.999856
0.9172933628290458,1,0.999443
0.9170497022601928,1,0.999936
0.9183886886557829,1,0.999928
0.9186741534833811,1,0.999939
0.919485785044063,1,0.999929
0.9204345779275319,1,0.999931
0.921741946220474,1,0.999937
0.9215342763598732,1,0.999932
0.9224153046278578,1,0.999923
0.9226565430221686,1,0.999934
0.9233058314533567,1,0.999861
0.9247470136424676,0,0.998870
0.9263678773155417,0,0.999123
0.9268610431411747,1,0.999603
0.9271721937357982,1,0.999939
0.92788184181088,0,0.998996
0.9281249762268657,0,0.998643
0.9287847776726236,1,0.999844
0.929673468471343,1,0.999903
0.9298406887892526,1,0.999934
0.9301227537693731,1,0.999935
0.93139332003792,1,0.999936
0.9318027079897949,1,0.999477
0.9320814352673189,1,0.999646
0.9327947426532207,0,0.997671
0.933444387403809,1,0.999789
0.9345422604527951,1,0.999683
0.9352014483412368,1,0.999377
0.935454929313545,1,0.999475
0.9349642106723022,0,0.999237
0.9343440490514128,1,0.999571
0.9339810541788958,1,0.999753
0.9332613955343834,1,0.999763
0.9331535236279025,1,0.999938
0.9331560189871578,1,0.999493
0.9326387066576683,1,0.999477
0.9329145916627097,1,0.999935
0.9334456492501574,0,0.998070
0.9337874577328743,1,0.999878
0.933998248187187,1,0.999933
0.9337468327134122,1,0.999861
0.933993890102296,0,0.997140
0.9338764125172417,1,0.999853
0.9339244937435162,1,0.999931
0.933941706862468,1,0.999790
0.9337597704462535,1,0.999928
0.9339401445745742,1,0.999933
0.9338410896691139,1,0.999930
0.9334813369062869,1,0.999562
0.933867383345369,0,0.997588
0.9340112170477062,1,0.999730
0.9340495114361332,1,0.999673
0.9341825170634633,1,0.999937
0.9343330206373791,0,0.997631
0.9346043307155912,1,0.999864
0.9344866506667849,1,0.999878
0.9342080257349411,1,0.999781
0.8727786241247125,1,0.999870
0.8807930546840359,1,0.999931
0.8888279030281324,1,0.999756
0.8950894603392926,1,0.999646
0.8987649037979191,1,0.999883
0.9037087158618661,1,0.999700
0.9079645373996555,1,0.999922
0.9116405358408504,1,0.999812
0.915093055456052,1,0.999696
0.9178334186680368,1,0.999565
0.9209194496656253,1,0.999881
0.9238012127825648,1,0.999881
0.9271274854694997,0,0.998531
0.9297871426141773,1,0.999862
0.9317322104442535,0,0.999126
0.9333988077527061,1,0.999931
0.9352861845559893,0,0.997809
0.9375144322830602,1,0.999484
0.9388387036678733,1,0.999936
0.9403567736437412,1,0.999837
0.9412316326768325,1,0.999939
0.9411006915438727,1,0.999869
0.9411729032551818,1,0.999318
0.9417695718117516,1,0.999874
0.9428463279904159,1,0.999942
0.9433648507451519,1,0.999936
0.9438274484077044,1,0.999800
0.9442943919325506,1,0.999772
0.9446232461727109,0,0.999272
0.9447706740647865,1,0.999825
0.9446873623447845,1,0.999814
0.9449244956318491,1,0.999935
0.9450837154334587,1,0.999935
0.945118344955371,1,0.999934
0.9456638719555733,1,0.999490
0.9457997796337678,1,0.999874
0.945913951043229,1,0.999784
0.9454970839889486,1,0.999931
0.9454448053482659,1,0.999802
0.9453648868506125,1,0.999938
0.9449780166771808,1,0.999542
0.9447704235147755,1,0.999814
0.9445743248876171,1,0.999938
0.9444008665638484,1,0.999637
0.9441629808276468,1,0.999940
0.9439069028845928,1,0.999940
0.9436886721235896,1,0.999934
0.9436703307287677,1,0.999879
0.9436562737441436,1,0.999862
0.9435233720768117,1,0.999918
0.9432061664538735,1,0.999933
0.94305083900133,1,0.999937
0.9430862768164364,1,0.999940
0.9427659358416376,1,0.999871
0.9426043343918005,1,0.999934
0.9425908491560635,1,0.999937
0.9424304060143741,1,0.999935
0.9420097395424563,1,0.999937
0.9416823405748658,0,0.998671
0.941636736761039,1,0.999934
0.9412007501568747,1,0.999802
0.9408825193303837,1,0.999690
0.940769080936405,1,0.999932
0.9402744699312144,1,0.999659
0.9398081738340097,1,0.999940
