0.6806760757281872,0,0.999089
0.8165546110257329,1,0.999943
0.932223537677534,1,0.999936
0.883912560705866,1,0.999948
0.8879691916074071,1,0.999764
0.8925058535579563,1,0.999951
0.8571505252440269,1,0.999824
0.9381237670661137,0,0.995910
0.9202713979139266,1,0.999923
0.9617910078845354,0,0.999168
0.952205640033022,1,0.999925
0.8988659001565593,0,0.999263
0.9139396271949556,0,0.999038
0.9405721358125003,1,0.999797
0.8952270568908112,1,0.999580
0.8875987944500903,1,0.999946
0.9009935767968819,1,0.999934
0.8746545616919338,0,0.999177
0.9488133532442884,1,0.999947
0.8754308796664273,0,0.982527
0.8983257692369647,0,0.987584
0.885968777681506,0,0.959954
0.8982571045069451,1,0.999866
0.9447388678871232,1,0.999843
0.8848366295850038,0,0.989665
0.8972555777578669,0,0.997966
0.9062958759897803,1,0.999559
0.904804249883013,1,0.999904
0.8333051675342054,1,0.999951
0.8407457330246255,1,0.999764
0.8714725145395391,0,0.996270
0.9201454474809997,1,0.999954
0.9468163483175674,1,0.999851
0.90440841739227,1,0.999936
0.9517549203900848,1,0.999763
0.9371378792235435,1,0.999950
0.9156604892730908,1,0.999879
0.9020898001205074,0,0.997261
0.9083304580268154,0,0.996329
0.921639872304404,0,0.995375
0.9369682055185135,1,0.999451
0.9350896202018112,1,0.999810
0.9594552954289169,1,0.999937
0.9289270545140825,0,0.998458
0.9285096776464962,0,0.997142
0.894455280065525,1,0.999649
0.9506885350024984,1,0.999929
0.916133915153932,1,0.999918
0.9336331469652049,1,0.999855
0.940160133797851,0,0.999013
0.9262530841501289,1,0.999730
0.9280797444272672,1,0.999940
0.9314426188508035,1,0.999873
0.9310708727832894,1,0.999883
0.9647699883774641,1,0.999941
0.9168324351576357,1,0.999870
0.9337509485958478,0,0.999233
0.9257310685275888,0,0.998911
0.9162104203534256,0,0.999177
0.9010587991994011,0,0.998361
0.9056227551368216,1,0.999854
0.9449168600135427,1,0.999943
0.9403408800165617,1,0.999944
0.9195609257552702,0,0.999175
0.9388151289513845,0,0.998979
0.9062926281427355,1,0.999491
0.9535144975537418,0,0.999301
0.8982691936351717,1,0.999944
0.9239792379035325,1,0.999945
0.9256646043384201,0,0.998672
0.9373466450735966,1,0.999600
0.9260023280607853,1,0.999947
0.9119616430152829,1,0.999935
0.9293579907417836,1,0.999949
0.9235229472665449,1,0.999903
0.9283384685793511,0,0.998847
0.9279275717832903,0,0.989067
0.9349522870294391,0,0.997234
0.9191852590128117,1,0.999779
0.8693360767768854,0,0.995870
0.9303574426168483,0,0.997575
0.937207672499214,1,0.999692
0.9213386969421483,1,0.999922
0.9053121717800248,0,0.997894
0.9138410665446712,1,0.999748
0.9254898531443672,1,0.999778
0.9237261342298079,0,0.970137
0.926137070203201,0,0.986916
0.9525169760162634,1,0.999923
0.9275549583245098,1,0.999850
0.9239022326202072,1,0.999572
0.9495469430358114,1,0.999832
0.9367077371882235,1,0.999937
0.9162562420780858,1,0.999936
0.9282068976517964,1,0.999936
0.9302870915383475,1,0.999936
0.9142751565044929,1,0.999948
0.9133806104774497,1,0.999668
0.8937412378995774,1,0.999884
0.9106221027332037,1,0.999922
0.9278769134066126,1,0.999950
0.880914616079239,1,0.999899
0.9391671205549554,1,0.999918
0.9113417445235548,1,0.999875
0.90616907146987,1,0.999763
0.9318239651000401,1,0.999829
0.9238344522744262,1,0.999941
0.9168365909821118,0,0.998072
0.9210008811031699,1,0.999756
0.9337906896853567,1,0.999941
0.9070999453630905,1,0.999903
0.9214751804964565,1,0.999946
0.9361814515698608,1,0.999889
0.9058151988071103,1,0.999942
0.9180161206031243,0,0.997694
0.9320024043343472,1,0.999941
0.8916671438547014,1,0.999874
0.9284281398221862,1,0.999935
0.8936351646296246,1,0.999441
0.9289679027098819,1,0.999581
0.9188714125241075,0,0.994654
0.8894748084988982,1,0.999521
0.9126787203834527,1,0.999914
0.9333414421272654,1,0.999779
0.9047266044907384,1,0.999941
0.9284076009736562,1,0.999930
0.9007517448575294,1,0.999924
0.9180862704355667,1,0.999892
0.9414899401631703,1,0.999881
0.9084281320966803,1,0.999880
0.9222619301927519,1,0.999942
0.8958231074857844,0,0.999315
0.9174351335050119,1,0.999939
0.9251319634126036,0,0.999113
0.9037225203490098,1,0.999933
0.9138789613715049,1,0.999680
0.891639839024384,1,0.999522
0.9154378121087633,1,0.999948
0.9002912401220824,1,0.999934
0.8922588230423574,1,0.999503
0.9094294335012774,1,0.999948
0.9214419342692153,0,0.963613
0.9216065995246387,1,0.999954
0.9015390884269462,0,0.998808
0.8917169874868278,0,0.996429
0.9194045448231465,0,0.978019
0.9031887585295578,1,0.999944
0.944325101986938,1,0.999933
0.925091446000241,1,0.999940
0.9206200964951294,0,0.997709
0.9055634562114875,1,0.999941
0.9269126208452165,1,0.999928
0.9003445374760111,0,0.998639
0.9356837120389686,1,0.999873
0.9434807521111909,1,0.999945
0.9047287041235496,0,0.999342
0.8599257252977383,1,0.999895
0.9058249888107903,1,0.999594
0.9051753969402947,1,0.999788
0.906153881440252,1,0.999941
0.9339765892942677,1,0.999923
0.9147326670269754,1,0.999936
0.9133431965412306,1,0.999814
0.9370201091370534,1,0.999548
0.8743409955010663,1,0.999770
0.8971344830030006,0,0.998378
0.8968240277634847,1,0.999778
0.8984839577513437,1,0.999945
0.9195121670017568,1,0.999945
0.8861141150381245,0,0.996944
0.8977324673698642,0,0.999117
0.9058948116149058,1,0.999934
0.8578347208846706,1,0.999942
0.9396765445957213,1,0.999655
0.9211535109255871,1,0.999935
0.9109535650719297,1,0.999769
0.9069142628456469,1,0.999869
0.9223922730352259,0,0.998423
0.9255326063549555,1,0.999893
0.9184650342603908,1,0.999818
0.9282355876818562,0,0.998356
0.8784832474664916,1,0.999930
0.9150972490303351,1,0.999944
0.9128221063859846,1,0.999612
0.8895397293698304,1,0.999931
0.8952606987598501,1,0.999934
0.8980910177137629,1,0.999680
0.9184386899724759,0,0.984991
0.925252441296588,1,0.999935
0.9317166103779214,0,0.998751
0.9038841084381867,1,0.999708
0.9438404516605979,1,0.999485
0.9281664540374539,0,0.989741
0.926890533605015,0,0.998100
0.9179357359368379,1,0.999929
0.9035159314665232,1,0.999939
0.9076491467218386,1,0.999943
0.9117366680482487,0,0.998270
0.9159750162915967,1,0.999804
0.9244638727608099,1,0.999874
0.9078789463978318,1,0.999934
0.9189964668561392,1,0.999942
0.929471734624505,1,0.999867
0.8914018555670341,1,0.999881
0.9152154946000026,1,0.999888
0.9176378368389277,1,0.999938
0.9337358761559286,1,0.999863
0.925811000741736,1,0.999747
0.9126375334014692,1,0.999800
0.9040479433719645,1,0.999942
0.9439706485073314,1,0.999706
0.9197169107751026,0,0.996615
0.90704827346992,0,0.998008
0.9156032436237037,1,0.999582
0.8967337847762458,0,0.999191
0.9244908119024272,0,0.999358
0.9007164293980422,1,0.999744
0.9339734293854153,0,0.997821
0.9037180985506628,1,0.999941
0.9174014342839428,0,0.996855
0.8707054092012018,1,0.999906
0.9221739920013571,1,0.999800
0.9353252878906549,1,0.999904
0.9020368231894603,1,0.999849
0.919980902620505,1,0.999934
0.927594979539401,1,0.999940
0.9500769638229055,1,0.999943
0.8868368193024431,1,0.999935
0.8991950469947285,1,0.999834
0.8793371952736442,1,0.999947
0.9314347884859546,1,0.999894
0.913637228145935,0,0.998287
0.8881690869937965,1,0.999894
0.9193353267338501,0,0.998194
0.9387822197399596,0,0.995004
0.956521043545459,0,0.999094
0.9437594631732078,1,0.999939
0.9119974463476367,1,0.999937
0.9451657246627925,1,0.999935
0.9195308938522964,0,0.998146
0.9157562276015855,1,0.999938
0.9296061198735136,1,0.999549
0.9265888502101542,0,0.998218
0.8873491243048378,0,0.998396
0.9284928416493035,0,0.999298
0.9288750003980197,0,0.998965
0.8822460530864703,1,0.999935
0.9013444125512019,1,0.999890
0.9047208942590158,1,0.999884
0.9403818944542177,1,0.999778
0.8580809511048149,1,0.999942
0.9273980540173642,1,0.999934
0.9226560956112572,1,0.999780
0.9246589484751552,1,0.999869
0.8660360779872404,1,0.999875
0.9117869758940056,0,0.999271
0.9556626961725265,1,0.999824
0.9246768043041986,1,0.999476
0.9208260231366563,0,0.998062
0.8831562791124038,1,0.999870
0.9409825534738993,1,0.999943
0.9420481416903609,1,0.999936
0.923198367521896,1,0.999752
0.9001817421635513,1,0.999935
0.9407300130231496,1,0.999831
0.9101110465498201,1,0.999857
0.8956733179190314,1,0.999883
0.9125978696002565,1,0.999715
0.9124085283274666,0,0.998370
0.917233911218622,1,0.999754
0.8778840139175679,1,0.999518
0.9196783172004203,1,0.999941
0.9301702670483801,0,0.989552
0.9244950487936207,0,0.998720
0.9510800710515561,1,0.999938
0.8922545356589193,1,0.999882
0.9480915383239994,1,0.999935
0.9413292358459829,1,0.999892
0.943573998723801,1,0.999936
0.959937719736083,1,0.999831
0.9451615614850765,1,0.999886
0.9210697548929904,1,0.999945
0.9369366163026205,0,0.996595
0.9425344654564405,1,0.999488
0.9244187241329042,1,0.999538
0.9084369937553203,0,0.998605
0.9272646457674186,1,0.999943
0.9145348853769919,1,0.999723
0.920040193851036,1,0.999930
0.8824541445051537,1,0.999929
0.878918297809828,0,0.998940
0.8522285926484735,0,0.989234
0.8711906156429479,1,0.999942
0.9060688555018234,0,0.997783
0.8694898580970585,0,0.999297
0.8552135645727307,1,0.999686
0.907507443230875,1,0.999927
0.9267150584519956,1,0.999810
0.9081488702455601,1,0.999941
0.9066733351622391,1,0.999762
0.9076385794690015,1,0.999866
0.9133568239005009,1,0.999941
0.8983284159989278,1,0.999652
0.9175231740152405,1,0.999512
0.9287245649216732,1,0.999941
0.9309539660863976,1,0.999935
0.8786934361764832,1,0.999940
0.9284307719864061,1,0.999932
0.9017396647333877,1,0.999941
0.8807959550050513,1,0.999550
0.9279631720409628,1,0.999948
0.9149448629557836,1,0.999895
0.9219165098404688,0,0.990708
0.926287150525249,1,0.999599
0.8807942426362946,1,0.999566
0.942573628814258,1,0.999880
0.9263932388518791,1,0.999942
0.9421210292576873,0,0.995461
0.9194542300131346,1,0.999878
0.9441667252966012,0,0.999210
0.8930185365898967,1,0.999887
0.9070824255205339,1,0.999883
0.9364687873054718,0,0.960707
0.9236270250578807,1,0.999881
0.9284456750909216,0,0.989620
0.9144224877802716,0,0.998631
0.9154532594847561,1,0.999937
0.9124814701843371,1,0.999505
0.9227777990918566,0,0.973346
0.9358946807985068,1,0.999921
0.9168576628028171,1,0.999659
0.929733356081859,1,0.999699
0.9306964203084948,1,0.999728
0.9158585782830628,1,0.999944
0.9060374879795786,1,0.999492
0.9210536570043196,1,0.999934
0.9286015352579131,1,0.999937
0.9022500885760713,1,0.999936
0.8863663466845638,1,0.999936
0.9346144696147837,1,0.999602
0.9301994545604352,0,0.998996
0.9301236310430644,1,0.999947
0.9219317116367082,1,0.999877
0.9470386012113606,1,0.999935
0.9045753027971847,0,0.998479
0.9151707634669852,1,0.999939
0.8892758599941087,0,0.983930
0.8766975717577702,1,0.999722
0.8963039180826246,1,0.999818
0.9098118724970622,1,0.999941
0.8988738602808826,1,0.999746
0.9261945695580714,1,0.999881
0.927595382470573,1,0.999943
0.936566871995208,1,0.999948
0.9401390224891785,0,0.993824
0.9429899198177605,1,0.999931
0.9499417201104756,1,0.999892
0.9480853590217219,1,0.999940
0.9232221531775587,1,0.999885
0.9156966714481347,1,0.999824
0.9236372661373747,1,0.999943
0.9363623895706511,1,0.999946
0.9582367173611398,1,0.999569
0.9152983830459577,0,0.993302
0.9591532995745364,1,0.999941
0.946658970235806,1,0.999895
0.9376957787795418,1,0.999941
0.9074708695812294,1,0.999602
0.8790622237571364,1,0.999865
0.9252048458404262,1,0.999691
0.9323514237685288,1,0.999600
0.9111241213543597,0,0.998233
0.9212755285162754,1,0.999939
0.9069206234685585,1,0.999935
0.9359139160922528,1,0.999939
0.8881838926458199,1,0.999945
0.9303232854628897,1,0.999943
0.9343711616104032,1,0.999731
0.958304497546322,1,0.999718
0.9323165005720665,1,0.999639
0.9412909402503662,1,0.999824
0.9169536310458261,1,0.999666
0.9221094652263668,1,0.999942
0.930775278596096,1,0.999939
0.9334992974090467,0,0.998330
0.9241929952119426,1,0.999752
0.9312901955586486,1,0.999936
0.9191088824948002,1,0.999714
0.931491506944398,1,0.999868
0.9212787133764005,1,0.999932
0.9144497393541956,1,0.999882
0.8967609631674988,1,0.999933
0.9430102440729335,1,0.999882
0.8829978984851691,1,0.999878
0.9061762123491337,1,0.999816
0.8918191956412951,0,0.998821
0.9055949488691972,1,0.999943
0.9084059396124026,1,0.999462
0.9158319017598118,0,0.997928
0.9405068461535903,1,0.999811
0.9221956468306938,1,0.999765
0.8885687031599022,1,0.999934
0.887169433007809,1,0.999609
0.9141469434026183,1,0.999929
0.8957861733326848,0,0.999116
0.9077632159047143,1,0.999811
0.9022570425153436,1,0.999764
0.9268727477172075,1,0.999933
0.9132766299670874,1,0.999946
0.9112471351842959,1,0.999945
0.9240616645818353,1,0.999916
0.9278046507857298,1,0.999944
0.9245132807662757,1,0.999934
0.8864249472821839,1,0.999926
0.9061949568929862,0,0.999192
0.9079647548018088,1,0.999895
0.8691228736231259,0,0.997283
0.9289991780958263,1,0.999878
0.8841014456864947,0,0.990564
0.9307734045381123,0,0.957354
0.8752772349831237,1,0.999925
0.8981449114028104,0,0.994504
0.9152044425499053,1,0.999894
0.8899157407915751,1,0.999941
0.909464383605719,1,0.999713
0.9062656921044827,1,0.999576
0.9162059967901449,1,0.999933
0.834680533206492,1,0.999936
0.9102366387570424,0,0.997581
0.9132257842521618,1,0.999932
0.9402550432566281,1,0.999867
0.9238137330159754,1,0.999788
0.9172177969867282,1,0.999842
0.919820553384797,1,0.999941
0.9337027880396672,1,0.999935
0.9098926663333529,1,0.999858
0.8924659511238459,1,0.999596
0.9034618391536853,1,0.999954
0.9248197422791491,1,0.999891
0.9067261586963121,0,0.998093
0.9127595133073546,1,0.999940
0.9168967589639396,0,0.998315
0.864426758029071,1,0.999932
0.8955649993294138,1,0.999941
0.9204321456648773,1,0.999720
0.9192543831568638,1,0.999661
0.8934904536034987,0,0.999163
0.9348611434815373,1,0.999933
0.890367668140987,1,0.999330
0.8862196598530659,0,0.998868
0.9125470958502091,1,0.999930
0.9148612693141412,1,0.999823
0.8999100450293104,1,0.999867
0.9270147936816452,1,0.999714
0.884717815318675,1,0.999946
0.9209861881974697,1,0.999937
0.906151373780803,1,0.999941
0.8992693365419089,1,0.999880
0.916453581443945,1,0.999738
0.9054109560096557,0,0.998941
0.9144115186844037,1,0.999933
0.9155227786562621,1,0.999934
0.9244647198282088,1,0.999944
0.8910353321097612,0,0.999283
0.9177618766417008,1,0.999932
0.9159819033439602,1,0.999936
0.9039146904726783,1,0.999941
0.884709523279796,1,0.999937
0.8955760500334321,1,0.999932
0.934245289776702,1,0.999884
0.9280501753179583,0,0.998226
0.9250325675833346,1,0.999879
0.8946838211827962,1,0.999946
0.9126392156661131,1,0.999869
0.8970937986657376,1,0.999947
0.8850652546884914,1,0.999798
0.9211369430215968,1,0.999877
0.9210360731574242,1,0.999688
0.8918615339799023,1,0.999812
0.8921242192586285,0,0.985404
0.9286084270822264,1,0.999730
0.8622727856582615,0,0.998522
0.9079334893481283,1,0.999874
0.9052640870791143,1,0.999928
0.9233015865954857,1,0.999935
0.90518265504363,1,0.999816
0.9054532070411896,1,0.999938
0.9044256522600876,1,0.999810
0.918112869925168,0,0.996670
0.9282611165613095,1,0.999941
0.928423363125186,1,0.999834
0.9133735759977241,1,0.999946
0.8860754503614511,1,0.999932
0.9424505718944082,1,0.999884
0.9272566974569885,0,0.999324
0.937689151081248,1,0.999878
0.9496358527240472,1,0.999738
0.9143521141465731,1,0.999855
0.9394954385586284,0,0.999136
0.925654354884944,0,0.998441
0.9272142886353855,1,0.999886
0.9092366506261077,0,0.999231
0.9182022133608284,1,0.999940
0.93592398078604,1,0.999858
0.921095005775176,0,0.997194
0.930167639922665,1,0.999808
0.9357654468613131,1,0.999574
0.9263648616190686,1,0.999934
0.9143287296789506,1,0.999785
0.9221079400773907,1,0.999927
0.916645964292991,1,0.999676
0.9330043763084122,0,0.990004
0.9484037276360071,0,0.999210
0.8961308594864035,1,0.999878
0.9399969388846783,1,0.999939
0.9049245080202432,1,0.999946
0.9288337746961588,1,0.999939
0.9367133686209983,1,0.999647
0.9218212574283902,1,0.999939
0.9080464079695473,1,0.999807
0.914434482494576,1,0.999864
0.9100812297616693,1,0.999866
0.8680584191366486,1,0.999883
0.9034892584902524,1,0.999673
0.9101057253117267,1,0.999878
0.844932007121837,1,0.999874
0.9155575592527122,1,0.999795
0.920357600264513,1,0.999938
0.9064693015775852,1,0.999818
0.9138291717613404,1,0.999933
0.9074706783084392,0,0.997971
0.9178729536339906,1,0.999943
0.8935189748584188,1,0.999665
0.9180165300776846,1,0.999832
0.8958568323643208,0,0.997533
0.9317830398998519,1,0.999875
0.8766055021022044,1,0.999937
0.8688855058344449,1,0.999932
0.9084894838839412,0,0.999393
0.9161455906527147,1,0.999941
0.9323551604611815,0,0.993515
0.9007676827416125,0,0.967239
0.9302954656247006,1,0.999877
0.9101702608028718,1,0.999920
0.9265878529821886,1,0.999450
0.9474241546906035,0,0.996509
0.9048151538402833,0,0.997995
0.9134420081091562,1,0.999761
0.9217525859263436,1,0.999938
0.9194535599560658,1,0.999362
0.902383443103055,1,0.999929
0.9257264745695453,0,0.996132
0.9364152505030806,1,0.999872
0.930092404339048,0,0.998643
0.9061015191539579,1,0.999940
0.920322186167348,1,0.999871
0.9279728228424027,0,0.998596
0.9212619607948835,0,0.998585
0.9121437578328857,1,0.999759
0.9144379337794724,0,0.998755
0.8896380459910954,1,0.999936
0.9050868464079892,1,0.999684
0.8876537893174596,1,0.999935
0.9160606959380371,1,0.999882
0.9151876559195025,0,0.999215
0.9494982675029783,1,0.999802
0.9240274534140792,1,0.999933
0.9118189723905011,1,0.999404
0.9234301930038028,1,0.999746
0.9150183311231428,1,0.999569
0.9164487995507669,1,0.999550
0.8881213934296596,0,0.998826
0.885708328801451,1,0.999682
0.885002496120215,1,0.999877
0.8965842182900774,1,0.999944
0.8860168068128803,0,0.999162
0.9039616852978896,0,0.996603
0.9007039094186425,1,0.999930
0.8661922631590895,1,0.999942
0.8984753742282209,1,0.999942
0.8666508249455086,1,0.999941
0.9300523799731055,1,0.999419
0.9234404795519809,1,0.999949
0.935733896912295,0,0.998919
0.9067961448802336,1,0.999691
0.9124213174745418,1,0.999943
0.9028403970682615,1,0.999884
0.953486264194994,0,0.998448
0.8906686179557981,1,0.999888
0.912381867990863,1,0.999946
0.9364227310776505,1,0.999938
0.8944058960191458,1,0.999884
0.9124220092527247,1,0.999924
0.9158615627061616,0,0.997569
0.9130180144374016,1,0.999861
0.9034152571512492,1,0.999945
0.9189360209792554,1,0.999776
0.9045237412979856,1,0.999931
0.8886745712529064,1,0.999526
0.920506756018238,1,0.999680
0.92915014487996,1,0.999795
0.9142245103185692,1,0.999938
0.928033918046021,1,0.999879
0.9301295010756364,1,0.999880
0.9230920795586366,1,0.999935
0.9184401564562008,1,0.999883
0.8958414800519677,1,0.999869
0.9112099430343104,1,0.999939
0.9319047262639985,1,0.999933
0.9281563593789234,1,0.999798
0.9441623920718812,1,0.999799
0.9192113367313969,1,0.999939
0.8704818754700074,0,0.999023
0.909689299666667,0,0.999046
0.9426340297865589,1,0.999938
0.9110172357063224,1,0.999509
0.9330233072239701,1,0.999938
0.9313305130976869,1,0.999766
0.9238291464849337,1,0.999868
0.9193787263261562,1,0.999944
0.9177107026526683,0,0.998420
0.8725566583231741,1,0.999931
0.9210665222109866,0,0.983586
0.8620233136936453,1,0.999938
0.9067824849928383,1,0.999886
0.9087821566655919,1,0.999753
0.9111679058209761,0,0.999268
0.9078107821586028,0,0.996611
0.9082344309795566,1,0.999917
0.8901436630893748,1,0.999751
0.8223054407309405,0,0.999159
0.9070969498002903,0,0.957031
0.9064099543660835,0,0.998215
0.9010929557865974,1,0.999935
0.9060969563047852,1,0.999815
0.9122378256421283,1,0.999930
0.8811760025804676,1,0.999933
0.9126446967097862,0,0.999215
0.9202292492705769,1,0.999937
0.9053181136211168,1,0.999877
0.8446947289580213,1,0.999937
0.915130712789833,1,0.999876
0.9452567597844438,0,0.998056
0.9389485902331439,1,0.999880
0.9230942139190313,0,0.997596
0.895804547239468,0,0.998576
0.9246140360843114,1,0.999598
0.8820969968262753,1,0.999826
0.9077569577996296,0,0.959211
0.9013560136377844,1,0.999882
0.9468014039197717,0,0.998782
0.919819547070175,1,0.999864
0.9259185314343508,0,0.996986
0.9388205962294308,0,0.996674
0.9168684023639476,0,0.989569
0.9445501287777682,1,0.999931
0.9394182271934526,1,0.999943
0.8983169239633515,1,0.999817
0.9032259796049715,1,0.999930
0.9068422736249002,0,0.994842
0.9228654685812596,1,0.999943
0.8880018957823135,1,0.999893
0.9310080232019773,1,0.999936
0.9263007311722454,1,0.999933
0.9194031373654306,0,0.998561
0.9166768186467584,1,0.999870
0.8860957831907735,1,0.999937
0.923412094695263,1,0.999943
0.9202262941297181,1,0.999882
0.9212069374006377,1,0.999938
0.9149284522767706,1,0.999937
0.9315183935218663,1,0.999893
0.8841469977079346,1,0.999371
0.947453778481007,0,0.998979
0.9164524717570744,1,0.999490
0.8789474969649895,1,0.999887
0.871556833756321,1,0.999940
0.9251158272285118,0,0.998987
0.9294518250945978,1,0.999944
0.9134151662568883,1,0.999878
0.8907759965338176,1,0.999412
0.8853336281056496,1,0.999474
0.8943910371479129,0,0.994985
0.9356723874146659,1,0.999744
0.9283562676144806,1,0.999946
0.9308250659792764,1,0.999941
0.903091717316313,1,0.999883
0.8956917270887577,1,0.999823
0.8943315056864463,1,0.999810
0.9087180515623694,1,0.999827
0.9092006375454801,1,0.999941
0.9182804748183533,1,0.999942
0.9160574207048452,1,0.999942
0.8902865414486995,1,0.999940
0.9178823420241172,1,0.999825
0.9105611873349017,0,0.992276
0.8963952184463647,1,0.999801
0.934239819347177,1,0.999885
0.9159766689909261,1,0.999528
0.9528390093238691,1,0.999933
0.9047669663393683,1,0.999555
0.9295523091549517,1,0.999891
0.8967387383577177,1,0.999887
0.9075958246941577,1,0.999837
0.8927842292637499,1,0.999943
0.907913299362961,0,0.998156
0.9134126250883449,1,0.999931
0.9094215467080746,0,0.930123
0.9352709139758695,1,0.999871
0.9368588052601563,0,0.997904
0.9303391003723407,1,0.999948
0.9183770148421784,1,0.999712
0.8961985455741596,0,0.996587
0.9191158528350388,1,0.999947
0.9126977456102688,1,0.999941
0.9350132235788363,0,0.998752
0.9376353693415295,1,0.999784
0.8904656647833068,1,0.999942
0.9170809502632292,1,0.999946
0.921835649799666,1,0.999946
0.9136254507377187,1,0.999762
0.9239129342091374,1,0.999942
0.9140934674505393,1,0.999943
0.9055975669576085,0,0.998648
0.9157889299974841,1,0.999938
0.9038007261972718,0,0.998430
0.9042760790595805,1,0.999891
0.9125124855982286,1,0.999940
0.8721857153503307,0,0.995951
0.8945681490611345,1,0.999822
0.8726258399564777,1,0.999935
0.9219324867074217,1,0.999375
0.8884235601458477,0,0.999267
0.9280257313140541,1,0.999785
0.9229516023052364,1,0.999938
0.8796327439380217,1,0.999941
0.9394738762335719,1,0.999931
0.9143585876266265,0,0.998399
0.9507198393047408,1,0.999931
0.9278428866370035,1,0.999792
0.9515665426496068,1,0.999892
0.9294260211400092,1,0.999937
0.949585235467131,0,0.998654
0.9351845399875243,1,0.999939
0.9231987450738945,1,0.999841
0.9252362606911089,1,0.999943
0.9321833013009345,1,0.999865
0.9100177155100895,1,0.999885
0.9159321404113848,1,0.999833
0.9272868849704126,1,0.999926
0.8991130024265643,1,0.999767
0.901483281582156,0,0.999091
0.9416863381315228,1,0.999734
0.9046511480038025,0,0.998506
0.9214464231956442,0,0.999400
0.8896647928350692,0,0.996739
0.9048137570958438,1,0.999942
0.9439537107849462,1,0.999930
0.932917212875792,1,0.999938
0.9228470223421282,0,0.999100
0.9165920739545131,1,0.999893
0.8678759175924837,1,0.999939
0.9164027169487475,1,0.999880
0.872737971885461,0,0.995366
0.9380709395754043,1,0.999812
0.9328414388478142,0,0.998028
0.9291749068324575,1,0.999814
0.9230589833973863,1,0.999946
0.9255512212018989,1,0.999944
0.880633641579385,1,0.999940
0.9045823120900419,0,0.999287
0.8594141629307985,0,0.982979
0.9396182039422711,1,0.999818
0.8959813260621761,1,0.999484
0.9322907925022239,1,0.999677
0.9089520345161849,1,0.999521
0.9246704881874768,1,0.999935
0.9137786621425146,1,0.999869
0.879739737567191,1,0.999942
0.9438774484141348,1,0.999890
0.8867350842096885,1,0.999894
0.9167417103075187,0,0.996864
0.9119543671256048,1,0.999813
0.9050924021546695,1,0.999935
0.909627328009582,1,0.999879
0.9232746535863675,1,0.999789
0.9286681495779656,1,0.999882
0.9127896874985669,1,0.999935
0.9095673933041599,1,0.999930
0.9476079689720321,1,0.999695
0.9277262513668738,1,0.999931
0.9156597220173415,1,0.999938
0.9031033825206073,1,0.999886
0.9083041522829423,1,0.999947
0.8967725656094082,1,0.999939
0.8901650346276176,1,0.999943
0.8914434071091324,1,0.999945
0.9079702176504411,1,0.999942
0.896946536971452,1,0.999774
0.9209406637643358,1,0.999943
0.9364451134073194,1,0.999946
0.931650692346076,1,0.999937
0.9099536192093224,1,0.999628
0.9284093797620466,1,0.999685
0.9032193725607828,1,0.999872
0.9184012295831842,1,0.999546
0.9121324471050741,0,0.998613
0.946931354645728,1,0.999941
0.9423167247298538,0,0.997967
0.9240267033981369,1,0.999943
0.8915660007049601,0,0.996294
0.9121349730408579,1,0.999936
0.8918785091544299,1,0.999936
0.9219894573719397,0,0.997856
0.9317953765714265,1,0.999942
0.9236082870790497,1,0.999944
0.9245752447167118,1,0.999778
0.9036841519120777,1,0.999941
0.9208306596675315,1,0.999936
0.9464720294998004,1,0.999832
0.9116457965993926,0,0.999326
0.9128672492242039,1,0.999658
0.9368234656786039,1,0.999878
0.9068384361992015,1,0.999945
0.9205131235767451,1,0.999940
0.9338290842715083,0,0.981077
0.9238940790670348,1,0.999933
0.9253753418724622,1,0.999739
0.929612726856744,1,0.999682
0.9174961907263595,1,0.999933
0.9421572102419218,1,0.999941
0.9477160669013003,1,0.999935
0.949661829864391,1,0.999796
0.9307729960139787,1,0.999934
0.9102588684341455,1,0.999941
0.9148133716181711,1,0.999943
0.9095212532969705,1,0.999936
0.9165012164910548,1,0.999945
0.9064106700436529,1,0.999943
0.9077617277430086,1,0.999858
0.9339570244207624,1,0.999915
0.8877473083712248,0,0.998928
0.909385075550074,1,0.999944
0.9186305337358905,1,0.999550
0.9237461614006791,1,0.999939
0.9067826561818668,0,0.987799
0.8747204426149787,1,0.999941
0.9245736828091589,0,0.985222
0.9114368444308619,1,0.999868
0.9080285638919994,1,0.999409
0.9015943144350445,1,0.999891
0.8894027962422878,0,0.997280
0.9146191618857986,1,0.999614
0.9115938446783665,0,0.971911
0.8978420425542032,1,0.999935
0.9323960573350198,1,0.999626
0.9261233386322582,1,0.999937
0.9201612474596145,1,0.999930
0.9265218056213161,1,0.999821
0.9341363616344405,1,0.999751
0.922794797886355,1,0.999879
0.9110490540893246,1,0.999672
0.9327260733855033,1,0.999841
0.9112126893869135,1,0.999884
0.9168458212047811,0,0.999024
0.9346977766771827,1,0.999935
0.91597700003334,1,0.999940
0.9231896452709948,0,0.999211
0.9302973005117836,1,0.999936
0.9062772278163036,0,0.997474
0.912170196464579,1,0.999935
0.9339899950301248,1,0.999693
0.9208987509206432,1,0.999947
0.9111280558820912,1,0.999939
0.9344726934595362,0,0.998739
0.9222951338043475,1,0.999943
0.9098943619338625,1,0.999611
0.9279089625544428,0,0.986827
0.9313815455515697,0,0.983382
0.9340403553625303,1,0.999944
0.9369084186455509,1,0.999676
0.9253582914674214,1,0.999931
0.9013028236059761,0,0.991774
0.8954376595094725,1,0.999878
0.9198841808626027,0,0.990977
0.9235885834032286,0,0.999105
0.9370038855284648,1,0.999789
0.8966633563980977,0,0.999277
0.9100087380685606,0,0.993035
0.9290813093016838,1,0.999876
0.9158925301345373,1,0.999762
0.9150148250818692,0,0.996108
0.8951502770650202,1,0.999948
0.9400010127170823,1,0.999876
0.9205988392440516,1,0.999708
0.8946594672595352,1,0.999942
0.8983149418550216,0,0.960623
0.9382887848501608,1,0.999836
0.9559038865489367,1,0.999941
0.9222238872690375,1,0.999935
0.9079160439037891,0,0.999146
0.919318892309963,1,0.999877
0.9075849057866376,1,0.999945
0.9101002741377493,1,0.999947
0.8934965097103602,1,0.999937
0.884960910337261,1,0.999765
0.894896818143615,0,0.997901
0.93048718662839,1,0.999943
0.9410388579139988,1,0.999794
0.9243244897723571,1,0.999936
0.9122820806408309,1,0.999944
0.8934754426463384,1,0.999889
0.8781756590198547,1,0.999934
0.9272240221346616,1,0.999940
0.9235577262658415,1,0.999531
0.8866212166658551,1,0.999886
0.9136418403126217,0,0.992691
0.8735713147281782,0,0.998983
0.8999281102813693,1,0.999928
0.8925363233245484,1,0.999942
0.9312479143219687,1,0.999946
0.9210933242743088,1,0.999901
0.9200417346063242,0,0.998086
0.9242888684629785,1,0.999693
0.8790403978581222,1,0.999872
0.9214784915675138,1,0.999564
0.8972826677583162,0,0.998983
0.9027351100242119,0,0.999009
0.9126211955489435,1,0.999908
0.7725866600859765,0,0.996443
0.8907998123339153,1,0.999928
0.9072579767317632,0,0.986010
0.9258741811583504,1,0.999933
0.8667520551236075,1,0.999865
0.8919398768910286,0,0.997938
0.9215206196302005,1,0.999921
0.9020338457780921,1,0.999885
0.9419051743622023,1,0.999936
0.9064507478249644,1,0.999936
0.9146603823593011,1,0.999944
0.886579178132287,0,0.986593
0.9274844945105611,0,0.999226
0.941825292391905,1,0.999938
0.9392774071589292,1,0.999938
0.904996114551793,1,0.999414
0.9133589087215424,1,0.999818
0.8958604795973092,1,0.999935
0.8869473358721413,1,0.999940
0.9228950090702676,1,0.999844
0.8963079785802562,1,0.999684
0.891963983173365,0,0.998552
0.8755387578559426,1,0.999882
0.9227435525746001,0,0.997615
0.9072203164857606,0,0.989716
0.8956120909888439,1,0.999721
0.9395527992961387,1,0.999932
0.9246508575884652,1,0.999672
0.9068044988637927,1,0.999752
0.8738356193544874,1,0.999939
0.8708827033734318,1,0.999868
0.916722386673174,1,0.999943
0.9100710949316035,1,0.999937
0.8781717017223484,1,0.999933
0.8933222793344812,1,0.999864
0.9164315595541632,1,0.999931
0.8940304401611217,0,0.998551
0.9124033002776928,1,0.999552
0.9271349332751793,0,0.999329
0.8954719586245538,1,0.999714
0.8824463935940766,1,0.999302
0.912039855909529,1,0.999829
0.9147316422750162,1,0.999579
0.8918494324060966,0,0.995372
0.9035173617641901,1,0.999938
0.8099781871913081,0,0.994993
0.853157679431217,1,0.999855
0.9322445917092684,1,0.999823
0.9103937408401306,0,0.998480
0.926576603981436,1,0.999942
0.9383174525808327,1,0.999350
0.9135952316577087,1,0.999948
0.917059498634118,1,0.999940
0.917852209459682,1,0.999929
0.898706560925209,1,0.999810
0.87837309246531,1,0.999806
0.903650568782862,1,0.999945
0.9030059297275342,0,0.998765
0.9197939575131091,1,0.999811
0.9285468475631069,1,0.999881
0.9019745724588079,1,0.999754
0.9089926550210952,1,0.999935
0.9060999403058352,1,0.999688
0.8980164580556723,1,0.999783
0.9036005472490309,1,0.999538
0.9278525533072205,0,0.998267
0.9104831745370071,1,0.999789
0.900772663659285,0,0.999197
0.8963261074972694,1,0.999887
0.9136494098887356,1,0.999880
0.9384978013989987,0,0.999239
0.9339720470969077,1,0.999858
0.9423748010734628,1,0.999889
0.9141913257230916,1,0.999926
0.9363940723538235,1,0.999940
0.913112746399856,1,0.999822
0.8926799613521179,0,0.998766
0.8782708092523991,1,0.999818
0.9168298053132902,1,0.999928
0.9233897695363272,1,0.999883
0.9210719552703843,0,0.999228
0.943167961625671,1,0.999866
0.9121298992816373,1,0.999945
0.8902388450498667,1,0.999946
0.9221987693359209,1,0.999817
0.8580564770961864,1,0.999940
0.8710452109936262,1,0.999940
0.9051204287526704,1,0.999894
0.9364193057095775,1,0.999895
0.9412985631943511,1,0.999888
0.9100247737355864,1,0.999945
0.9362689330371388,1,0.999929
0.8795103436978247,0,0.999386
0.887148746461517,1,0.999444
0.9234693533063721,1,0.999934
0.926215380924073,1,0.999890
0.9109445244646605,1,0.999943
0.9168412908160813,1,0.999937
0.9250466688896463,1,0.999938
0.9422506184756165,0,0.999176
0.9228017697497526,1,0.999944
0.8934081945687763,1,0.999548
0.9314555449099707,1,0.999815
0.9134773645509718,1,0.999936
0.9142777449417835,0,0.999181
0.9222598421725968,1,0.999502
0.923763566907654,1,0.999932
0.9045583694298326,1,0.999843
0.905982045833988,1,0.999873
0.9022857561808543,1,0.999935
0.9105036824862334,0,0.998743
0.9201901032509056,1,0.999936
0.9019289295048625,1,0.999661
0.908288745514097,1,0.999934
0.920891567647456,1,0.999523
0.9278273145876775,1,0.999941
0.9058052788721239,1,0.999290
0.9021603214050264,0,0.996430
0.86773650944676,1,0.999937
0.8948359658405866,1,0.999803
0.9298855916297109,1,0.999827
0.9012262754171282,1,0.999630
0.9279948302966677,1,0.999930
0.91973626709255,1,0.999802
0.9271044713106252,1,0.999939
0.9339335091199344,1,0.999843
0.9223461642494366,1,0.999879
0.9191818431652186,1,0.999538
0.9010759492457756,1,0.999584
0.924509629291866,1,0.999827
0.8702385410053245,1,0.999927
0.9279088380447423,0,0.999291
0.9397600642716304,1,0.999936
0.9186231790138506,1,0.999808
0.8545351853637987,1,0.999947
0.9275247092520972,1,0.999935
0.9192431319694305,1,0.999891
0.9315865051421168,1,0.999672
0.888928433811924,1,0.999728
0.8876361715514434,1,0.999752
0.9369476267456248,1,0.999939
0.9386179969481729,0,0.996834
0.9257375734762971,0,0.994219
0.8984160229507212,1,0.999936
0.9116683963979278,0,0.999115
0.9120180466990166,1,0.999856
0.8819456654230674,1,0.999935
0.935218510570695,1,0.999932
0.9266940828973276,1,0.999935
0.9452787476624471,1,0.999946
0.9386293315878789,1,0.999871
0.8925845797985046,1,0.999933
0.9249276952949941,0,0.999073
0.9259884465779085,1,0.999686
0.9019399825161544,1,0.999946
0.9309729840604695,1,0.999928
0.9321146529829527,1,0.999824
0.9284854751204885,1,0.999941
0.9163009577268276,0,0.999324
0.8756647567387674,1,0.999938
0.9268539674365224,1,0.999937
0.909558441507854,1,0.999943
0.9459683910841389,1,0.999938
0.9178014986596305,1,0.999943
0.9100038602197849,0,0.998188
0.8905902130663238,1,0.999737
0.9231076891017798,1,0.999942
0.8674024353657072,1,0.999938
0.8887727447890562,1,0.999930
0.884613416928894,1,0.999854
0.9100623133292108,0,0.998981
0.8922284892999417,1,0.999936
0.8875609394986488,1,0.999882
0.9251395169906055,1,0.999937
0.9141934524604749,1,0.999792
0.9013883514532177,0,0.997808
0.9041384907613648,1,0.999942
0.9009512799918991,0,0.998927
0.9186142742214961,1,0.999941
0.9243985388785751,0,0.997458
0.8983449401045881,0,0.999082
0.9102548906658261,1,0.999929
0.8892266451193941,1,0.999942
0.9199909410758983,1,0.999584
0.9014316697226661,1,0.999940
0.8707411151202379,1,0.999938
0.8973643620699607,1,0.999933
0.8973034817319981,1,0.999823
0.8579735792000155,1,0.999946
0.9200492250412288,1,0.999943
0.9225495146629467,1,0.999665
0.893855783966149,1,0.999298
0.9074478059487091,1,0.999942
0.9265052739131016,1,0.999935
0.9269458133451416,1,0.999945
0.887965851002783,1,0.999486
0.8964641174803112,1,0.999869
0.9235938411922436,1,0.999937
0.8777863313284299,1,0.999935
0.9028309842453786,1,0.999877
0.8825470370545926,1,0.999715
0.9300920467175017,0,0.998433
0.9138152110740699,0,0.996462
0.9215711903399517,1,0.999945
0.9178405909911005,1,0.999548
0.9254523433579438,1,0.999875
0.8902378992429132,0,0.998621
0.9101584330312125,0,0.992555
0.9160964663271716,1,0.999830
0.9463773522922717,1,0.999944
0.8986697223781399,1,0.999940
0.90118313621894,1,0.999882
0.9113921544450898,1,0.999471
0.8860624784889746,1,0.999889
0.9261819628158966,1,0.999934
0.9042541786665532,1,0.999758
0.9197972469813358,1,0.999885
0.9066847284052756,0,0.996730
0.9147295158357239,1,0.999942
0.9035946117412773,1,0.999940
0.9181900539660107,1,0.999595
0.9071271025144487,1,0.999666
0.9347705377634997,1,0.999698
0.8960344656050953,1,0.999739
0.9119571217287408,1,0.999939
0.922361091332586,1,0.999943
0.9126457915119254,1,0.999935
0.9094641336804773,1,0.999940
0.9276970616396158,1,0.999936
0.923286958639444,1,0.999935
0.9236494807358379,0,0.999332
0.9199797138872179,1,0.999822
0.8835462904159214,1,0.999831
0.9306073260317321,1,0.999940
0.9016925762101521,0,0.998661
0.8908209382599034,1,0.999812
0.8877031545437885,1,0.999753
0.9073275707471942,0,0.992952
0.8990652048684522,1,0.999463
0.887628852388016,0,0.997087
0.9224511369717099,1,0.999935
0.9320531463099663,1,0.999937
0.9228267614504736,1,0.999879
0.9248310392261653,1,0.999877
0.9349211245173149,0,0.999021
0.9330837141256124,1,0.999934
0.9000376479122026,0,0.995405
0.8964153812103064,1,0.999672
0.9074194973703789,0,0.996715
0.8950767115076459,0,0.985399
0.9196015064376348,0,0.997910
0.9115825477351669,1,0.999454
0.9373439694102443,0,0.998077
0.9298603863544068,1,0.999710
0.8880695674095752,1,0.999944
0.9164319171606685,1,0.999821
0.8949322706497742,1,0.999618
0.9446031909028159,1,0.999930
0.9189321478633538,1,0.999942
0.9321246670909435,1,0.999828
0.931212472892162,0,0.997673
0.9407800777889301,1,0.999809
0.9316573363472486,1,0.999927
0.9307076464277396,1,0.999772
0.9097803176705621,0,0.992906
0.9337901034359288,1,0.999945
0.9092540556495079,1,0.999710
0.925921950676789,1,0.999825
0.9370720200195064,1,0.999727
0.9021400874713721,1,0.999522
0.9298386004933168,1,0.999937
0.917191327509872,1,0.999932
0.9202696065186704,1,0.999684
0.9277087368392255,1,0.999865
0.9367120562468725,1,0.999946
0.9283939899978992,0,0.999229
0.8991508791043166,1,0.999886
0.9011756739319168,1,0.999630
0.9239585282761551,1,0.999872
0.9235916475043265,1,0.999659
0.9272235150479505,1,0.999947
0.8855889950264674,1,0.999886
0.9108957828970445,1,0.999545
0.9231127142254815,1,0.999943
0.9319530502875687,1,0.999935
0.9195565833025083,1,0.999324
0.9425658468345322,1,0.999787
0.9500248309004337,1,0.999944
0.950391234700446,0,0.998758
0.9154991819355774,1,0.999934
0.9262763360993274,1,0.999873
0.9325489628175133,0,0.999291
0.9027453879548479,1,0.999932
0.8706805035868964,1,0.999938
0.9329710076014012,0,0.996836
0.9122703569814382,0,0.999222
0.9333817876940197,0,0.998569
0.9285069179421265,1,0.999822
0.9434376810246872,1,0.999879
0.9427127404258091,1,0.999946
0.8790483844303961,0,0.999249
0.9132950988414389,1,0.999811
0.9040058321044556,1,0.999941
0.9335662965133117,0,0.999075
0.9153395047752749,1,0.999864
0.9220793993609406,1,0.999942
0.9281051356402082,1,0.999785
0.9027962951011309,1,0.999943
0.8918676754016014,1,0.999934
0.8627395527019933,1,0.999936
0.9046640599348362,1,0.999732
0.9121534038818792,0,0.998122
0.9430412068674346,0,0.998271
0.9210468246410901,1,0.999937
0.9360946986070151,1,0.999934
0.8745596773966507,1,0.999801
0.921242741067751,1,0.999930
0.9374029776560698,1,0.999275
0.8660598561366635,1,0.999786
0.9216232310538801,0,0.997735
0.9354275276432108,1,0.999844
0.9118655536894337,0,0.990144
0.9297198254201288,0,0.994551
0.9439855571870623,1,0.999938
0.939031685435146,0,0.994877
0.9091166351184505,1,0.999837
0.9081382881032244,1,0.999886
0.9190178810429739,1,0.999944
0.850478501136138,1,0.999646
0.9108782673829721,1,0.999947
0.9186051175782137,1,0.999663
0.9436362474718736,0,0.998175
0.916990303293832,1,0.999945
0.9274430664378207,1,0.999889
0.9243689446028803,1,0.999935
0.9071189382156213,0,0.994211
0.9169299760779797,1,0.999691
0.9495214308644736,1,0.999786
0.9306094310963854,1,0.999946
0.9285827742931806,1,0.999478
0.910593913484623,0,0.998839
0.9231622439575415,1,0.999801
0.8991530587919324,0,0.997568
0.8542734008137809,0,0.995526
0.9268613659071231,1,0.999932
0.942268121980057,0,0.996851
0.9167959605639432,0,0.986378
0.9448289939626855,1,0.999947
0.9251594834420908,0,0.999240
0.9085039487998321,0,0.997387
0.9077970702541555,0,0.983041
0.9396779584612918,1,0.999739
0.894852655603517,1,0.999446
0.9021652347757406,0,0.992863
0.9189256586271045,1,0.999766
0.9178872708787663,0,0.988092
0.9348513016928113,1,0.999754
0.9043601290524738,0,0.997718
0.912727662063778,1,0.999942
0.9275362836649362,0,0.998206
0.8733913582759772,0,0.995359
0.912161235980557,1,0.999778
0.9012864301728681,1,0.999862
0.92338850277717,1,0.999806
0.9061930585637525,0,0.995630
0.9061503903983618,1,0.999728
0.9435846788930685,1,0.999878
0.9244390483865458,1,0.999872
0.9086548273815027,1,0.999577
0.9296803385763075,0,0.987475
0.9144512081282782,1,0.999924
0.9418088861181537,1,0.999872
0.8976199836432106,1,0.999710
0.910735568720073,1,0.999932
0.9313318034056146,1,0.999948
0.8815035519162537,1,0.999882
0.9365116767823775,0,0.998804
0.9084660464761389,1,0.999944
0.9375596105849855,1,0.999940
0.9126098087714127,0,0.999169
0.9316386726525882,0,0.999268
0.9250855659320514,0,0.998061
0.9296217226528174,1,0.999941
0.8956565308427341,1,0.999412
0.9174405213871053,1,0.999877
0.9242312720059674,1,0.999943
0.8891234386703074,1,0.999937
0.9041703687835344,0,0.998875
0.9327962268735898,1,0.999874
0.8962203710651505,1,0.999411
0.9413570894650225,1,0.999576
0.8992378581083965,0,0.995248
0.9329969136894146,1,0.999941
0.9178822072091525,0,0.997313
0.9253643494314657,1,0.999878
0.9090897818612289,1,0.999817
0.918383021709628,1,0.999859
0.9157069557819706,1,0.999887
0.8910896594780848,1,0.999867
0.9039611340402373,1,0.999674
0.9186454081008357,1,0.999943
0.9006588122109132,0,0.998410
0.92429964105859,1,0.999932
0.91523197952893,1,0.999809
0.932181908341487,1,0.999893
0.9403191055388664,1,0.999824
0.904958622982984,1,0.999932
0.9051591443757085,1,0.999781
0.9118144142049807,1,0.999868
0.9035073537786665,1,0.999943
0.8808044738915705,0,0.999093
0.9080677278508237,1,0.999934
0.9115438289074871,1,0.999933
0.9433716525878424,1,0.999498
0.8885317275109784,1,0.999865
0.9418755176262972,1,0.999623
0.9111988084062682,1,0.999774
0.8914229772238267,1,0.999936
0.855647621306059,1,0.999681
0.9033161476374788,1,0.999934
0.9339250578448614,1,0.999942
0.9011337446370801,1,0.999781
0.927455541428969,1,0.999937
0.9254297198312642,0,0.999000
0.9058596117770611,1,0.999929
0.93256211615274,1,0.999796
0.9360049596498046,1,0.999894
0.9231010886968672,1,0.999937
0.9181268704683823,0,0.998848
0.8927903314715144,1,0.999435
0.9268285403786977,1,0.999943
0.928292729678845,1,0.999633
0.9147733219644899,1,0.999934
0.9334483271499395,1,0.999948
0.889586242178106,1,0.999719
0.9022232440418135,1,0.999855
0.8950989918105781,1,0.999759
0.9401170571514933,1,0.999930
0.9242165991501006,1,0.999898
0.9071601377090256,1,0.999822
0.9104528304493691,1,0.999937
0.8680680960702031,0,0.999085
0.8823138128966611,1,0.999946
0.9473436652831818,1,0.999603
0.9321239600173312,1,0.999942
0.8844997302349235,1,0.999935
0.9078308680404773,1,0.999862
0.9193833621468496,1,0.999690
0.911167582125286,1,0.999941
0.9254730948783877,1,0.999935
0.9200395582892713,1,0.999757
0.923313878172365,0,0.996704
0.9235433865305727,1,0.999612
0.8711051380252504,1,0.999935
0.8845039269850238,1,0.999936
0.9031276334192909,1,0.999937
0.8662713454515187,1,0.999476
0.8775661762979557,1,0.999943
0.8873839466203066,1,0.999875
0.9057933985975593,1,0.999757
0.9198382878965355,1,0.999833
0.8721338922252528,1,0.999818
0.902220532790523,0,0.999247
0.910827157125812,1,0.999881
0.9416008673450476,1,0.999868
0.9261812412054089,0,0.987421
0.8957070986720769,1,0.999668
0.9069752771268995,1,0.999629
0.9343407333725261,1,0.999941
0.9416936914987236,1,0.999942
0.9126273796009736,0,0.981504
0.9008463892772552,1,0.999894
0.9214555876246809,1,0.999716
0.915627917017308,1,0.999946
0.9018023725303491,1,0.999940
0.9321454115566767,1,0.999937
0.926927292838096,1,0.999886
0.9145111811916798,0,0.991371
0.9026639871728647,1,0.999609
0.907910047800849,1,0.999938
0.8766598479353771,1,0.999945
0.937501402414045,1,0.999614
0.9156997603821053,1,0.999939
0.9447743335141479,0,0.997476
0.9148268053085583,0,0.984460
0.9457353497592884,0,0.998797
0.9177813378511528,1,0.999942
0.9133777726672976,1,0.999882
0.9234119649282917,0,0.999071
0.939701767643441,1,0.999881
0.9093631150805987,1,0.999876
0.9365123033310342,1,0.999882
0.9333774563152808,1,0.999707
0.9315112812558843,0,0.999190
0.9209355876906912,1,0.999671
0.9307402241938106,1,0.999944
0.9326217972289633,1,0.999947
0.9299243966569184,1,0.999868
0.9293450242046581,0,0.999219
0.9402299518005944,1,0.999696
0.9163958406983183,1,0.999891
0.9271631674521434,1,0.999750
0.9166701867257785,1,0.999803
0.929417084838657,1,0.999941
0.9328440757130986,1,0.999688
0.9240153536198861,0,0.997949
0.9161108427015471,1,0.999840
0.8534585260599605,1,0.999886
0.9311098710695437,1,0.999938
0.9345458384253131,1,0.999639
0.9449125567589918,0,0.999216
0.9036777552039109,1,0.999485
0.9024787837291474,1,0.999875
0.93088798165875,1,0.999929
0.9139423705827426,1,0.999940
0.8523285995300556,1,0.999892
0.9118802124049541,1,0.999930
0.9116689690263241,1,0.999812
0.9273318544729771,1,0.999644
0.9123727223848029,0,0.998143
0.933251238595011,1,0.999897
0.8647917456821842,0,0.998493
0.9247243174665783,1,0.999392
0.9249304775379257,1,0.999477
0.8791941125484487,1,0.999717
0.947348770852247,1,0.999943
0.9106129696455648,0,0.998653
0.8885635898309805,1,0.999867
0.910545730745423,1,0.999939
0.9310228792672383,1,0.999946
0.9171375520602155,0,0.999392
0.8985384859943767,0,0.998894
0.885444695437992,1,0.999938
0.936935237563357,0,0.999002
0.9164144781047877,1,0.999895
0.9145340126062368,0,0.999029
0.930194562370514,1,0.999941
0.939802105803324,1,0.999856
0.9222316098423838,1,0.999874
0.9136674652552583,1,0.999876
0.9152159614078128,1,0.999944
0.9262090299228208,1,0.999892
0.9202267841744582,1,0.999942
0.9066440488971589,1,0.999853
0.8893987763648514,1,0.999870
0.9309816050841354,1,0.999867
0.9173688437809944,1,0.999823
0.8960912747556612,1,0.999806
0.9198910922919292,1,0.999878
0.9455308591800933,0,0.998576
0.9251031492974463,1,0.999465
0.9101931508492425,0,0.999259
0.9408103724985825,1,0.999941
0.9349158053952344,0,0.995162
0.8903676939120037,1,0.999786
0.8830706443504862,1,0.999939
0.898980050184531,0,0.995370
0.9185717027289707,1,0.999823
0.9152894839887572,1,0.999939
0.9091041175333792,1,0.999933
0.9268031149084183,1,0.999942
0.9339982566035324,1,0.999670
0.8978125512939356,1,0.999769
0.8804045550029413,0,0.973317
0.9195057868644825,0,0.999184
0.9291031637365804,1,0.999942
0.934536530235424,1,0.999943
0.9213534320020342,0,0.996008
0.943824879588543,1,0.999939
0.8728371858060786,1,0.999859
0.9305187220754594,0,0.997638
0.9498322040865917,0,0.994412
0.9446940433866798,1,0.999931
0.9090294230690419,0,0.999009
0.925530165585317,0,0.997730
0.9303351123594035,1,0.999936
0.8796849976285177,0,0.998667
0.925240812500113,0,0.987829
0.8942743330882184,1,0.999932
0.9376675016297245,0,0.979632
0.9023132863399682,1,0.999761
0.8957298045198362,1,0.999880
0.9425767185029681,1,0.999938
0.929818685463545,1,0.999884
0.9164731116062619,1,0.999937
0.9171665006855273,1,0.999848
0.9334807503881055,1,0.999939
0.9185816839902019,1,0.999939
0.918371959546878,1,0.999809
0.8935276982229545,1,0.999947
0.942013631466655,1,0.999940
0.8915661382466367,1,0.999932
0.9243422229581291,0,0.999343
0.9438042005896298,1,0.999941
0.9115527606202006,1,0.999654
0.9297081209489103,1,0.999635
0.8845844092735304,1,0.999945
0.9432905979797092,1,0.999936
0.9239183174589933,0,0.998215
0.9354987056208162,1,0.999942
0.8964209873961719,1,0.999876
0.9374839809043177,1,0.999934
0.9076117718561706,1,0.999943
0.9140154897707274,1,0.999938
0.9242857379597235,1,0.999936
0.9156124127057998,0,0.994625
0.9322215336122037,1,0.999939
0.9156898420997066,0,0.998955
0.9081554670710847,1,0.999776
0.9112973123661624,1,0.999680
0.8809859176446718,1,0.999942
0.9339338989136655,1,0.999944
0.9373319472079373,1,0.999937
0.9172197994753388,1,0.999880
0.8869083092084742,1,0.999937
0.9029968586922335,0,0.998544
0.8876875450742152,1,0.999933
0.9297212656176432,1,0.999935
0.878054908639613,0,0.998100
0.8950473299102887,0,0.996710
0.9056327975181091,1,0.999893
0.9107979506061673,1,0.999938
0.919107800743397,0,0.964367
0.8800203280870914,0,0.996053
0.8813879831645342,0,0.997974
0.8997090225452326,0,0.998885
0.870194312901749,1,0.999930
0.9138954003986942,0,0.998766
0.9073672263700961,0,0.997374
0.9001976219091551,1,0.999949
0.9079416311854012,1,0.999942
0.9066320160072153,1,0.999937
0.9468201395378153,1,0.999769
0.9186241449130051,0,0.995944
0.9044800311131374,1,0.999575
0.9283726546149685,1,0.999941
0.879870270645935,1,0.999883
0.9026791302643068,1,0.999879
0.9077190710961948,1,0.999841
0.9036483159674684,1,0.999946
0.9014020950845975,1,0.999885
0.8525779972417112,1,0.999827
0.8790782529353772,1,0.999656
0.9188280451688415,1,0.999866
0.901540410596431,1,0.999939
0.9217926114375384,1,0.999932
0.8576787226235076,1,0.999716
0.9369863338876351,1,0.999299
0.9059109333880264,1,0.999945
0.9140104990581253,0,0.995696
0.9249425832726955,1,0.999503
0.8885384737264599,1,0.999936
0.9288022671007404,1,0.999924
0.9040476105547062,1,0.999865
0.8813682690779966,1,0.999384
0.9011891399538516,1,0.999937
0.8710150708862745,1,0.999765
0.9162029985120225,1,0.999951
0.8809044043997348,1,0.999939
0.8891301525826204,1,0.999884
0.8829635724816577,0,0.993851
0.8896144907675765,1,0.999750
0.8770795952074496,1,0.999940
0.9488326755596056,1,0.999743
0.923665175016476,1,0.999934
0.9310913781458835,0,0.999281
0.9243002485640285,1,0.999947
0.8737904368891362,1,0.999723
0.8983432090846413,1,0.999943
0.9157118064510473,1,0.999940
0.9085729230829603,1,0.999938
0.9171934129288039,0,0.996988
0.9306561549549889,1,0.999866
0.8866254484741684,1,0.999876
0.9133286372749865,0,0.999304
0.8951825773249944,1,0.999938
0.8823997807848619,1,0.999944
0.842420460238971,1,0.999820
0.8798052455614112,1,0.999661
0.911751518476792,1,0.999777
0.9221475054351885,1,0.999896
0.8571682928827813,1,0.999830
0.9158292017425774,1,0.999866
0.8828908077334539,1,0.999875
0.8993686809509742,1,0.999888
0.8992900017197478,1,0.999580
0.8963277887074506,1,0.999936
0.8408637307804978,1,0.999406
0.8561557178900906,1,0.999823
0.8942409794653575,1,0.999806
0.9111032721039407,1,0.999863
0.8883087605595713,0,0.998513
0.8907533050415558,1,0.999886
0.8879694990629438,1,0.999943
0.8992200115239167,1,0.999499
0.9229330377900083,1,0.999939
0.9120096609779845,1,0.999290
0.91257333833174,1,0.999820
0.9126368440964311,1,0.999935
0.909800525663193,0,0.997875
0.9044604724245429,1,0.999936
0.8586114297481461,1,0.999691
0.8825784135008016,1,0.999892
0.8476608037970824,1,0.999929
0.9179909308982755,1,0.999577
0.8865070028785299,1,0.999833
0.9204813471907383,1,0.999885
0.8803448493157062,1,0.999947
0.879085765098794,0,0.999231
0.8981072998961938,1,0.999943
0.9017244793635986,1,0.999827
0.9119794062566853,1,0.999930
0.8958830382008722,1,0.999876
0.8919809405074902,0,0.998313
0.8982434777155773,1,0.999882
0.9010539067832566,1,0.999522
0.911865198840597,1,0.999936
0.8975936875873344,1,0.999879
0.9178248209419986,1,0.999870
0.890365624617753,1,0.999680
0.9455284559929266,1,0.999929
0.9194371613658483,1,0.999871
0.9099127833279211,0,0.957105
0.8655252279781037,0,0.995565
0.9073435875864742,1,0.999938
0.88760996919376,0,0.999164
0.8938276206504939,1,0.999935
0.9173602570817867,1,0.999607
0.8952948941687847,1,0.999868
0.8842401476892747,1,0.999929
0.9027699029990579,1,0.999940
0.8994877672520639,1,0.999944
0.9390309693593475,1,0.999939
0.9334278504358718,1,0.999933
0.9126109685129609,1,0.999884
0.9025993843553846,1,0.999839
0.9133352177579696,1,0.999945
0.9368541300521663,1,0.999695
0.9062226514879266,0,0.998832
0.9301467707880249,1,0.999880
0.8947861397737691,0,0.998549
0.8802719545330641,1,0.999866
0.9124973434826208,1,0.999674
0.8583168199836796,1,0.999877
0.9010959526075545,0,0.998776
0.8930851268277605,1,0.999653
0.9146429700768183,1,0.999938
0.8870856730800921,1,0.999602
0.8514127926494116,1,0.999943
0.9056642166127078,1,0.999531
0.9281341861912922,1,0.999683
0.891342523981529,1,0.999728
0.9397757525462163,1,0.999942
0.9270816308304379,1,0.999768
0.8999566482522159,1,0.999748
0.9453795588605792,1,0.999943
0.9190991226539129,0,0.999292
0.9332189985616733,1,0.999938
0.9111632195425321,0,0.998746
0.9054450545081273,1,0.999925
0.8822360137408274,1,0.999883
0.9211202719649864,1,0.999873
0.9061409708054943,1,0.999930
0.945932262287798,1,0.999832
0.8871007372161688,1,0.999804
0.9135586582823128,1,0.999877
0.9199330983452145,1,0.999940
0.879604782250054,0,0.997385
0.935169663218021,0,0.998582
0.9032318399453286,1,0.999941
0.9301372718877982,0,0.994891
0.9466551957898317,1,0.999865
0.9079354122066365,1,0.999867
0.9215597540092018,1,0.999883
0.8912877043262056,1,0.999841
0.9158027112097862,1,0.999888
0.9580000473497277,1,0.999937
0.9086497234466548,1,0.999825
0.9211592050496815,0,0.998066
0.8922122483184557,1,0.999943
0.8851148354811816,0,0.985332
0.9378321859503191,1,0.999934
0.8960191839845504,1,0.999947
0.9062395619427365,1,0.999746
0.8825274497855057,1,0.999937
0.8513897608715414,0,0.998710
0.8984750542974218,0,0.998136
0.9403703105273289,1,0.999822
0.917852900475449,0,0.998671
0.9216778960283813,1,0.999939
0.9347231797332559,1,0.999887
0.9138892200899761,1,0.999879
0.927225900895841,1,0.999945
0.9029668155606543,1,0.999936
0.9150619642072084,0,0.999133
0.9140565510085533,1,0.999944
0.818158270771315,0,0.994528
0.9130218372033632,1,0.999943
0.9145443882899368,1,0.999705
0.8983425970889071,1,0.999940
0.8852600124086735,1,0.999816
0.8953844481876679,1,0.999939
0.9132578295501209,1,0.999944
0.8974964538199677,1,0.999844
0.9085193455516908,1,0.999773
0.8774451644296816,1,0.999945
0.9290014240797967,1,0.999878
0.8894287591589908,0,0.994924
0.9226617232420368,1,0.999936
0.919744859469608,1,0.999940
0.85843261578344,1,0.999932
0.9014244851416393,0,0.999019
0.9066409679257711,1,0.999884
0.880226073445831,1,0.999921
0.8783266583641539,1,0.999781
0.8944785493576382,1,0.999933
0.8781069245926377,1,0.999936
0.8825976750998714,1,0.999929
0.8940996732351065,1,0.999868
0.9122342360467343,1,0.999935
0.8675354267675989,1,0.999819
0.8755433586016357,1,0.999762
0.8770082526855415,1,0.999809
0.8522658806444571,0,0.999131
0.9182270431577804,1,0.999930
0.9078680370848317,0,0.999336
0.9227816489151816,0,0.998062
0.8673463999981212,1,0.999943
0.8788592911566737,0,0.998172
0.8902073763719665,1,0.999416
0.9089145123255709,1,0.999942
0.9205874004274244,1,0.999936
0.9202706851170643,0,0.999039
0.9179550674271478,1,0.999792
0.9071078730617432,1,0.999936
0.9306093036067034,1,0.999937
0.9169908889603617,1,0.999887
0.9083569853013447,1,0.999714
0.8776871019663776,1,0.999938
0.9306844861235535,1,0.999948
0.8799938775243243,1,0.999941
0.8996717478901687,0,0.989642
0.9054712933664094,1,0.999934
0.9133955942884203,1,0.999828
0.9102280336778908,1,0.999656
0.9309888892510413,1,0.999939
0.9133831960436226,1,0.999940
0.9135862201339576,1,0.999936
0.8843112094101933,1,0.999481
0.9200076751924979,1,0.999756
0.8936900641564102,1,0.999940
0.865427961813398,1,0.999939
0.870216193443603,1,0.999931
0.8613075601716549,1,0.999939
0.8975769539491252,1,0.999937
0.9056368550306689,1,0.999936
0.8909297570163631,1,0.999499
0.9153323428681508,1,0.999932
0.8999223068432531,0,0.996894
0.9109709966156005,1,0.999879
0.9053582333064908,1,0.999805
0.9277618019278665,1,0.999755
0.9066448293313839,1,0.999926
0.9551874737602644,1,0.999529
0.9193596019419588,1,0.999936
0.9116342242470973,1,0.999345
0.9185033547946926,1,0.999834
0.9164833036833148,1,0.999936
0.8961888036732569,0,0.993707
0.8969793158736808,1,0.999888
0.872415824223196,1,0.999631
0.8984624015957625,1,0.999938
0.8784417733041786,1,0.999661
0.8990256470663657,0,0.999034
0.9157599974199385,1,0.999699
0.8991659278238778,1,0.999931
0.8702996767597609,1,0.999875
0.9004777319992433,1,0.999935
0.9284335999846355,1,0.999939
0.9195463486092759,1,0.999695
0.9370872985901528,1,0.999362
0.8988522075135763,1,0.999942
0.9450811715920537,1,0.999564
0.9304633272242102,1,0.999936
0.918261132930605,0,0.993618
0.8923115909168688,1,0.999924
0.9156538002669956,1,0.999868
0.9007606199417799,1,0.999942
0.8827420070956136,1,0.999940
0.9084344984105971,1,0.999874
0.8735786324414043,1,0.999831
0.9178645646269533,1,0.999944
0.9177020583164212,1,0.999651
0.8874678864454016,1,0.999798
0.9133188357205261,0,0.999020
0.896737925485748,1,0.999875
0.8744707612148137,1,0.999907
0.9160175908784708,1,0.999853
0.9071468424343507,1,0.999663
0.9141384421177151,1,0.999948
0.8892667430643699,1,0.999794
0.9161207607728319,1,0.999935
0.867702147960206,1,0.999928
0.8957511795379195,1,0.999938
0.9048363829411097,1,0.999937
0.9148640674039096,1,0.999930
0.8852887908122097,1,0.999607
0.8939171794113644,0,0.997833
0.9234119924506282,1,0.999822
0.9075636311500772,1,0.999926
0.8989058711734761,1,0.999896
0.9040775773827687,1,0.999939
0.8748316389561706,1,0.999875
0.8745436406756842,0,0.997504
0.9043805223215414,0,0.999290
0.9223693177106151,1,0.999942
0.9064353172236368,1,0.999948
0.9230777538809686,1,0.999818
0.9030621335872517,1,0.999946
0.9092033584541902,1,0.999949
0.9102638498351319,1,0.999882
0.942685713946592,1,0.999771
0.9149524409022307,1,0.999705
0.9489836340145168,1,0.999768
0.8771972112919212,1,0.999870
0.9147174127713507,0,0.999192
0.9168549208839238,1,0.999934
0.923919641206757,1,0.999775
0.9081936503849768,1,0.999801
0.8810217981175723,1,0.999879
0.8840039742485551,1,0.999935
0.8902242957746447,1,0.999936
0.8808056339109515,1,0.999937
0.9033205410650281,0,0.999151
0.910252135594421,1,0.999574
0.9159242611859716,1,0.999759
0.9300685017142702,1,0.999758
0.886794292287093,1,0.999941
0.9268088644726129,1,0.999545
0.911137744981057,1,0.999545
0.8812250198422755,0,0.999128
0.9122470443026971,1,0.999940
0.8987910452073594,0,0.990270
0.9114161559523061,1,0.999933
0.9263160735084078,1,0.999812
0.849176886252187,1,0.999694
0.8976897606946271,1,0.999807
0.8721647738804325,1,0.999873
0.9374289816590833,0,0.998477
0.9253313039750368,1,0.999935
0.9239896694279568,1,0.999488
0.8732034800727172,1,0.999783
0.9085789253264854,1,0.999937
0.9000171062598646,1,0.999833
0.896793108041689,1,0.999940
0.8871476524979326,1,0.999884
0.858376483078137,1,0.999425
0.8970547845475348,1,0.999934
0.9052255338949078,1,0.999940
0.8504427563873753,1,0.999700
0.8765808649874886,0,0.995526
0.8996465621061833,1,0.999889
0.8961898688217635,1,0.999940
0.9345330847629055,1,0.999942
0.9065742460502552,0,0.991145
0.9052012281858866,1,0.999938
0.9129520498799588,1,0.999477
0.9213969163305444,1,0.999930
0.8753531112258109,1,0.999801
0.8985131993042006,1,0.999938
0.8906157330084933,1,0.999878
0.8974918737491918,0,0.998325
0.9313177183060051,1,0.999820
0.9221227586710216,0,0.997643
0.9044793250986479,1,0.999893
0.8621837417213956,1,0.999868
0.8834447201148451,1,0.999493
0.9135234207393523,1,0.999795
0.9219463316373168,1,0.999888
0.9262391225495139,1,0.999679
0.9282378672326618,1,0.999470
0.8819192266559468,0,0.998493
0.9075412085098572,1,0.999939
0.9401043555343167,1,0.999746
0.8723814047206124,0,0.998936
0.8808524381906004,1,0.999873
0.9092523837392372,1,0.999431
0.9265309717710274,1,0.999935
0.8743366301532756,1,0.999763
0.8817207731674123,1,0.999864
0.9055952222125186,1,0.999877
0.9295860187399878,1,0.999939
0.8831535885693345,1,0.999921
0.9257814941147585,0,0.998559
0.9078149456072547,1,0.999867
0.9187515019258378,0,0.999139
0.8921935195239806,1,0.999891
0.9391280016350362,1,0.999941
0.9212255122993904,1,0.999937
0.8683097118871298,0,0.998371
0.9059554732941296,1,0.999829
0.9271400784299936,1,0.999943
0.895383530601685,1,0.999940
0.8425499471703594,1,0.999813
0.9117415480277337,0,0.991941
0.9108486162798115,0,0.996258
0.8883585476091164,1,0.999935
0.9281662328045741,1,0.999875
0.9213677558090855,0,0.999305
0.9103394352448475,0,0.999041
0.9055792829702057,1,0.999758
0.9099690885206022,1,0.999939
0.9357135134024971,1,0.999766
0.9246353175164757,1,0.999911
0.9045394617295025,1,0.999880
0.8682518073206269,1,0.999950
0.9094680826909977,1,0.999852
0.9181436051546834,1,0.999940
0.9102919766631921,1,0.999940
0.9260540749129922,1,0.999940
0.8917220667386659,1,0.999935
0.89961609819498,1,0.999720
0.860121244558074,0,0.960249
0.8476231853105247,1,0.999877
0.8873169610779759,1,0.999601
0.8723952491907645,1,0.999873
0.8691243157770775,0,0.999102
0.8693185378342365,1,0.999678
0.923775711191103,1,0.999667
0.861692343647906,0,0.999040
0.8459083327304174,1,0.999940
0.8662567864511417,0,0.979044
0.8798229867449756,1,0.999881
0.923065006975757,1,0.999944
0.8956330237385478,0,0.995606
0.9539497807003051,1,0.999873
0.8606666089567135,1,0.999605
0.9117274257070356,1,0.999505
0.8202098849221386,1,0.999820
0.9070208407241479,1,0.999925
0.870391202020962,0,0.999262
0.878394299081483,1,0.999943
0.9140258125899331,1,0.999937
0.9203740812591145,1,0.999857
0.9036659567539445,1,0.999943
0.889749386258111,1,0.999939
0.9143986076946332,1,0.999746
0.9269981780852605,1,0.999688
0.923248228091413,1,0.999857
0.9117204656494104,1,0.999868
0.9020710111155975,1,0.999856
0.9076544480882901,0,0.998918
0.8672657123734976,1,0.999935
0.9121407784637906,1,0.999939
0.9108616843420303,0,0.999135
0.9347473595391617,1,0.999684
0.9345832705978158,1,0.999942
0.911142103211507,1,0.999939
0.8936596118887081,1,0.999797
0.9360484259889863,1,0.999869
0.9195358038295468,1,0.999945
0.9130986845916892,1,0.999943
0.8767881222071804,1,0.999881
0.9319980536028146,1,0.999930
0.9230479023817804,0,0.998560
0.9000568171894067,1,0.999714
0.8819636143790343,1,0.999946
0.896060177231165,0,0.998545
0.8927406180403437,0,0.998707
0.927293735786191,1,0.999933
0.8788906305648448,1,0.999880
0.9217569760291711,1,0.999887
0.8976030996182588,1,0.999725
0.933002571423216,1,0.999888
0.8711934533287662,0,0.998276
0.9059680222898644,1,0.999922
0.9313062992672727,1,0.999946
0.9264789247588003,1,0.999942
0.9357734173584958,1,0.999944
0.8717127865271821,1,0.999867
0.9265533428558049,1,0.999841
0.9015520413503464,0,0.998770
0.9357499262519523,1,0.999621
0.943915642807914,1,0.999675
0.9324827878170194,0,0.998694
0.9317264409532225,1,0.999940
0.8810320643039773,1,0.999941
0.932141034231878,1,0.999940
0.9394519328066874,1,0.999935
0.9303296195919476,1,0.999895
0.8865407583313717,1,0.999833
0.9133633697140338,1,0.999538
0.9066593342290208,0,0.995608
0.9083038366581446,1,0.999934
0.87506895931673,1,0.999878
0.9223962687252889,1,0.999878
0.8638104909622618,1,0.999801
0.9485145510740152,1,0.999878
0.9268706384708519,1,0.999877
0.8375570767448995,1,0.999816
0.8941134280638311,1,0.999755
0.8722171117555282,1,0.999872
0.9343826525072737,1,0.999938
0.9190211536980765,1,0.999934
0.8932699716029565,0,0.998702
0.905521080466733,1,0.999940
0.8678460394675113,1,0.999940
0.8997238201036193,1,0.999456
0.9226538718784523,1,0.999941
0.9333158598700467,1,0.999899
0.9226480639741534,1,0.999939
0.9252495116582792,1,0.999946
0.9310686919309132,0,0.998038
0.9156756038732681,1,0.999938
0.9139160373190323,1,0.999932
0.9112043793987932,1,0.999670
0.9039435768647206,1,0.999894
0.9205816999199264,0,0.999037
0.8966735614196903,1,0.999943
0.9223510487700513,0,0.999088
0.9357749815599818,1,0.999888
0.9176904567932971,1,0.999775
0.9212891556143191,1,0.999937
0.8744069566823904,1,0.999327
0.9019002845456747,1,0.999787
0.9318270331713094,1,0.999941
0.9105377100727364,1,0.999938
0.9354920383190515,0,0.991066
0.9085043947826429,1,0.999849
0.8861930640551566,1,0.999872
0.9116351442948802,1,0.999541
0.9079191946034911,1,0.999799
0.9205459207425796,0,0.996864
0.901769504004205,1,0.999940
0.9236922533402513,1,0.999737
0.9055079365777612,0,0.998619
0.9117121596224096,1,0.999689
0.8999617080726773,1,0.999834
0.8672565424578114,1,0.999946
0.8834145144506671,1,0.999893
0.8652417991584581,1,0.999901
0.8596333589161512,1,0.999500
0.9016025725482775,1,0.999805
0.926094439438552,1,0.999801
0.9241232915816556,1,0.999569
0.8582192156444405,0,0.996149
0.9113271491622631,1,0.999734
0.9158655123285733,1,0.999895
0.926004318809256,1,0.999748
0.9177691021989212,1,0.999946
0.9373745934854334,0,0.998773
0.9245356665858804,1,0.999587
0.9440463376700807,0,0.998632
0.901771008922389,1,0.999936
0.9057893353436678,1,0.999940
0.91306972170066,0,0.999349
0.9129843535402887,1,0.999890
0.9114052998480463,1,0.999927
0.9063764888322747,1,0.999866
0.8984538896143112,1,0.999812
0.9269709951669912,0,0.999421
0.92952617434033,1,0.999879
0.9255787806987441,1,0.999666
0.9093847795340926,1,0.999800
0.8902831604072438,1,0.999868
0.9140653060072297,0,0.998587
0.9146032420707788,1,0.999543
0.9292909453649405,0,0.998666
0.8911724556196634,1,0.999883
0.9173450733505207,1,0.999785
0.8718815085593122,1,0.999367
0.8902697794776471,1,0.999866
0.8716526880419622,1,0.999869
0.8770338323293937,1,0.999944
0.9292514126327404,1,0.999937
0.9040738116689288,0,0.999277
0.9164235890430934,1,0.999938
0.8753211951913236,1,0.999866
0.8733379137511275,1,0.999872
0.9225766765078877,1,0.999784
0.8695421978517168,1,0.999684
0.8942447890050735,1,0.999755
0.9149869440127141,1,0.999945
0.9100177889625779,0,0.998832
0.8844667818091995,0,0.997081
0.9006079859654266,1,0.999944
0.8573020157359941,1,0.999933
0.9024717432578763,1,0.999933
0.9116283715783752,1,0.999736
0.876137380477624,0,0.982444
0.8663695706492691,1,0.999927
0.906530205092927,0,0.999271
0.8921864438985778,1,0.999939
0.9213545029520398,1,0.999702
0.929832708095062,1,0.999473
0.8965146286478204,1,0.999934
0.902175856340862,0,0.999193
0.8606344151586216,1,0.999616
0.8884026106396116,1,0.999940
0.9174613939155272,1,0.999695
0.9203283830609055,1,0.999933
0.8878120354467102,1,0.999688
0.9040995266709956,1,0.999932
0.8952806981534288,1,0.999938
0.8699919471314289,0,0.973496
0.9056672621837158,1,0.999936
0.9246481389354373,0,0.970072
0.9112230171828313,1,0.999713
0.8952043353411405,1,0.999939
0.8606326915880874,1,0.999953
0.8856274353341116,0,0.998856
0.9098187778390332,1,0.999454
0.8944940259770969,0,0.999012
0.9341399997621644,0,0.998099
0.8872629609310053,1,0.999490
0.9160617041671008,1,0.999757
0.9023786056123217,1,0.999932
0.9146477680895148,1,0.999939
0.8658958453642995,0,0.999247
0.9060103380629391,0,0.998947
0.8820571315194011,1,0.999932
0.8904897485289653,1,0.999810
0.9125899309684562,1,0.999936
0.9273285130209145,1,0.999807
0.9186128971005197,1,0.999945
0.9124312305079866,1,0.999881
0.8954817310420725,0,0.999259
0.8728687624910878,1,0.999784
0.8751878692345504,1,0.999933
0.9148634546864711,1,0.999940
0.8979381996502853,1,0.999869
0.9168679618450436,1,0.999939
0.926814149177333,1,0.999896
0.9319363995897251,1,0.999571
0.8878669331358345,1,0.999640
0.9504158755894941,1,0.999823
0.9100052544836258,0,0.991981
0.8824776210051034,1,0.999599
0.9173518908242874,1,0.999869
0.9164752810602558,1,0.999796
0.919088490699036,1,0.999803
0.9028334618570132,1,0.999937
0.9237827763785339,1,0.999802
0.9020487928253016,1,0.999864
0.9053446554835415,1,0.999888
0.8879850910803985,1,0.999941
0.9250673231573345,1,0.999679
0.948169835246339,1,0.999948
0.9157949013681361,1,0.999943
0.9217669519525568,1,0.999898
0.9365436669580203,0,0.999253
0.8898237360577604,1,0.999924
0.9120579956754563,1,0.999824
0.9032083823240493,1,0.999688
0.9325963629060171,1,0.999698
0.9288988529276186,1,0.999946
0.8874700463072573,0,0.991122
0.935981505717498,0,0.998410
0.9271447658935754,1,0.999925
0.9408952434044633,1,0.999942
0.9455696245298911,1,0.999719
0.9580887813693397,1,0.999707
0.9288965652019434,1,0.999824
0.9237326781676503,1,0.999938
0.9358605250536859,1,0.999486
0.9348977757374111,1,0.999941
0.9353007614940311,1,0.999942
0.9225754724474048,1,0.999938
0.8914999147468182,1,0.999936
0.9201062590318062,1,0.999514
0.9277389177728288,1,0.999947
0.9202498516688811,1,0.999944
0.8889794423281315,1,0.999947
0.8988884644023437,1,0.999940
0.9145335902716744,0,0.999034
0.94169107982955,0,0.998887
0.917150690210416,1,0.999941
0.8906360117098523,1,0.999930
0.8820083328398226,1,0.999842
0.9022355639755119,1,0.999935
0.8938188972296945,1,0.999946
0.93615442961901,1,0.999793
0.9319426914938214,1,0.999628
0.9367154974697354,1,0.999877
0.889567699040232,1,0.999931
0.9181151544692596,1,0.999938
0.8925471138116741,1,0.999560
0.9242547576341,1,0.999731
0.9272639561002439,0,0.995989
0.9356089221961378,1,0.999930
0.9344650962500006,0,0.999138
0.9310286306540012,1,0.999927
0.9315140775034644,1,0.999739
0.9240242080140064,1,0.999928
0.9256442453818109,1,0.999567
0.8852800802847595,0,0.997862
0.9151044763834106,1,0.999880
0.9188103194020851,1,0.999604
0.9229556774273983,1,0.999790
0.9463765376805711,1,0.999938
0.9289379513882187,1,0.999879
0.8859076611183794,1,0.999679
0.9241691077579233,1,0.999932
0.9476994422609135,1,0.999933
0.9302784952013277,1,0.999934
0.8957309312859009,1,0.999877
0.9248382813477296,1,0.999667
0.9108748382513289,1,0.999927
0.9168198671559299,1,0.999867
0.9414440582233673,1,0.999931
0.8904491632582783,1,0.999330
0.9286420950656783,1,0.999930
0.9446135887609864,1,0.999942
0.9226200357258707,1,0.999930
0.9143419795465507,1,0.999689
0.9266878239560632,1,0.999940
0.9045981420281409,1,0.999598
0.8985438653306297,1,0.999924
0.9235260121292461,1,0.999419
0.9262466916106534,1,0.999833
0.9263334117922616,1,0.999868
