0.9100137536002669,1,0.999953
0.7815789433137993,1,0.999951
0.8244387848527431,1,0.999946
0.7736955859275619,0,0.979190
0.9298413041695051,1,0.999739
0.8230344871663896,1,0.999919
0.9277972386288839,1,0.999954
0.897355189664867,1,0.999946
0.8931273738113454,0,0.999231
0.8026808228548945,1,0.999675
0.9482857081728255,1,0.999880
0.853008167148914,1,0.999885
0.7184820222188878,1,0.999528
0.8943841681233581,1,0.999551
0.8674732183900041,1,0.999891
0.6020836747594781,1,0.999627
0.9083908481058319,1,0.999547
0.9011345049991318,0,0.999227
0.922402074693426,1,0.999936
0.9292395644582738,1,0.999749
0.8859832856802984,1,0.999904
0.881165455028396,1,0.999733
0.8922101300572235,1,0.999948
0.7477037497063713,1,0.999952
0.799544659157147,1,0.999951
0.8418144711964766,1,0.999845
0.8819062052052352,1,0.999640
0.8703986484254185,1,0.999813
0.9526033289622516,1,0.999950
0.842438125213517,1,0.999940
0.786083031175454,1,0.999942
0.8687290837204856,1,0.999885
0.8763792041184514,1,0.999929
0.8981727231696066,1,0.999824
0.8956259685336938,0,0.998952
0.8089800603887775,1,0.999711
0.9159566577130365,1,0.999946
0.8697164759498759,1,0.999498
0.879403368421946,0,0.998363
0.900056061870845,1,0.999894
0.8565500795998613,1,0.999622
0.8643855774004674,1,0.999809
0.9000539918067871,1,0.999946
0.8594584568847604,1,0.999953
0.8535173137150714,1,0.999903
0.884554104993717,1,0.999949
0.8807696290946977,1,0.999448
0.8567944753035593,1,0.999842
0.8661928839252494,1,0.999950
0.8953557631226109,1,0.999944
0.848313701971354,0,0.999341
0.9162341937362436,0,0.999073
0.8699100903680665,1,0.999954
0.840916743832048,1,0.999949
0.8935746845292244,0,0.999203
0.8874423307703448,1,0.999852
0.8544857012158487,1,0.999562
0.9008948384435944,1,0.999888
0.8509037618962094,1,0.999800
0.9663864882291839,1,0.999758
0.9602117498879722,1,0.999849
0.9792114831731286,1,0.999927
0.954446251487704,1,0.999925
0.9337202358988502,1,0.999928
0.9086958491521413,1,0.999940
0.829531711572014,1,0.999943
0.9048801273971268,1,0.999945
0.88193522243867,1,0.999891
0.9325243125659987,1,0.999950
0.9455969746078462,1,0.999867
0.9442322198661057,1,0.999953
0.9239703453162731,1,0.999944
0.9291449841786611,0,0.997986
0.9272997762807799,1,0.999946
0.8991915217947274,0,0.999280
0.902697543116942,1,0.999944
0.8103244029713312,1,0.999494
0.9596978491719634,1,0.999795
0.9608364330617174,1,0.999934
0.9356418398816038,1,0.999926
0.921926314288725,1,0.999944
0.8815109602172717,1,0.999872
0.924077729842633,0,0.999367
0.9156579915969515,1,0.999588
0.8271431853183966,1,0.999953
0.8945609219111927,0,0.999202
0.9373095030170756,1,0.999518
0.8213714625165788,1,0.999952
0.9321240752521448,1,0.999597
0.8985205913053981,1,0.999946
0.8683556363488858,0,0.998470
0.8638962062623495,1,0.999938
0.853962871712824,1,0.999933
0.8683197379697299,1,0.999942
0.8751082310261403,1,0.999939
0.8497908439286823,1,0.999939
0.9734553355724176,1,0.999950
0.7420221320744532,1,0.999622
0.8879593612907043,1,0.999861
0.9015930583262275,1,0.999890
0.9007782918765123,1,0.999916
0.9129654062531757,1,0.999909
0.9101138387309027,1,0.999908
0.9394400507648452,1,0.999885
0.8009264141738253,1,0.999676
0.919094760725858,1,0.999907
0.8638733265256942,0,0.997802
0.8689526537142329,1,0.999900
0.9067541247553867,1,0.999654
0.9146262026621897,1,0.999905
0.6358210740495934,0,0.994320
0.9243746834818761,1,0.999903
0.8458476671380488,1,0.999908
0.9073833764464861,1,0.999702
0.8599283007262669,1,0.999929
0.907279137565332,1,0.999561
0.9359928494671037,1,0.999559
0.9026448995987637,1,0.999406
0.9105186169696029,1,0.999943
0.8650963034168441,1,0.999845
0.8842027910178191,1,0.999853
0.8949232447475552,1,0.999894
0.8632680404178168,1,0.999945
0.7621134941893902,1,0.999738
0.8327797877228555,1,0.999589
0.9346289109444575,1,0.999932
0.7719848891221472,1,0.999932
0.877110273871623,0,0.999382
0.9558186325140489,1,0.999937
0.8829389881470537,1,0.999836
0.9168332502131497,1,0.999406
0.9304475853255588,1,0.999881
0.9252093285733961,1,0.999945
0.8400382932292845,1,0.999955
0.8837629358897439,1,0.999796
0.9312985496364463,1,0.999774
0.9104197587414009,0,0.983436
0.9339154987855619,1,0.999927
0.9622494800590067,1,0.999954
0.9304839625359411,1,0.999758
0.9518678195857442,0,0.998920
0.9052371056775439,1,0.999951
0.8853991194833724,1,0.999733
0.9248916137625883,1,0.999758
0.9009176341154065,1,0.999742
0.8933183049167365,0,0.998581
0.9351450852692583,1,0.999947
0.8868562422435626,1,0.999945
0.9480175426141206,1,0.999939
0.8907026239982581,1,0.999942
0.951735151089212,1,0.999929
0.9339150268782626,1,0.999872
0.89895176267151,1,0.999945
0.8975193159244585,1,0.999949
0.900984545339894,1,0.999707
0.899433308070727,1,0.999835
0.9205836158570414,1,0.999951
0.8926635109841758,1,0.999939
0.8922854005313909,1,0.999907
0.8775160428309572,1,0.999953
0.9225203110749937,1,0.999939
0.921344454866725,1,0.999890
0.9229939238200823,1,0.999781
0.8764134653204819,1,0.999955
0.8992413390221246,1,0.999877
0.9241441104520025,1,0.999894
0.9296411705050674,1,0.999941
0.9609840432615435,1,0.999939
0.941379613520723,1,0.999946
0.9558938266236707,1,0.999929
0.8712062446864962,1,0.999885
0.8897332888440934,1,0.999947
0.8043165796143638,0,0.997831
0.8846874158851717,0,0.998042
0.9278859621624376,1,0.999813
0.9381060440902814,1,0.999938
0.943944876040917,1,0.999778
0.8357581702242964,1,0.999589
0.825485888467024,1,0.999901
0.8889803208665641,1,0.999947
0.9185977519051473,1,0.999944
0.858434310573297,1,0.999898
0.9276317959786671,1,0.999945
0.8991672318189449,1,0.999948
0.9194808339787504,1,0.999824
0.9168435627157417,1,0.999952
0.8855928871872908,1,0.999756
0.9003970123046874,1,0.999827
0.9029192995404851,1,0.999896
0.8874738144829157,1,0.999949
0.8595911968174369,1,0.999635
0.9044402152302671,1,0.999948
0.8844590657842584,1,0.999637
0.8989534385236762,1,0.999949
0.8869723463675363,1,0.999791
0.8884479129029117,1,0.999946
0.8978539990888068,1,0.999949
0.8577045552321877,1,0.999949
0.850601843535644,1,0.999897
0.8941245070585134,1,0.999950
0.8742507918815974,1,0.999947
0.8657208834512627,1,0.999899
0.869424558587057,0,0.999094
0.7406668808564525,0,0.997234
0.9201002241588249,1,0.999797
0.8918736205365926,1,0.999950
0.8479309539750797,0,0.999345
0.9055421607366028,1,0.999889
0.8699391119135895,0,0.998614
0.8956700087770801,1,0.999949
0.8587865544761888,1,0.999945
0.8983898494628232,1,0.999950
0.8905996954675024,1,0.999793
0.9112478143806495,0,0.999078
0.8394552012215833,1,0.999800
0.9096318301322629,1,0.999948
0.8808523155451736,1,0.999847
0.8929688872812752,1,0.999950
0.9010867639000337,1,0.999550
0.9127279721981457,1,0.999854
0.9082505120835754,1,0.999948
0.9105796832998366,1,0.999950
0.9198254161748829,1,0.999898
0.8997219434104013,1,0.999951
0.9001018575975533,1,0.999693
0.8971465562441631,1,0.999947
0.9224104038350095,1,0.999952
0.8884336258300639,1,0.999949
0.8332593533298066,1,0.999803
0.94038165769251,1,0.999869
0.9076836152684404,1,0.999941
0.9157979269490204,1,0.999769
0.9303510644038043,1,0.999944
0.9375321677484786,1,0.999942
0.8650473354883874,1,0.999888
0.9640457327020189,0,0.998921
0.9424358240808345,1,0.999944
0.9518504506337914,1,0.999944
0.9390297995007946,1,0.999883
0.9239853138143844,0,0.999194
0.8871020820886866,0,0.998251
0.8961606413351534,1,0.999794
0.9439925053632573,1,0.999939
0.916496841829802,1,0.999947
0.9507641636889107,0,0.999064
0.9415359703598641,1,0.999931
0.8635415528748007,1,0.999649
0.8747836313924764,1,0.999949
0.8813101830613548,1,0.999877
0.8998553668920661,1,0.999876
0.8840039005035554,1,0.999936
0.9008706795824484,1,0.999933
0.8877505528760511,1,0.999759
0.8956967661605468,1,0.999853
0.8406046323687076,1,0.999797
0.8895831720135923,1,0.999856
0.9031569504321875,1,0.999921
0.8792154600027774,0,0.994392
0.8790043528040431,1,0.999932
0.9260672155781242,1,0.999880
0.917365840009444,0,0.998517
0.9462284145472014,1,0.999940
0.8311099095473319,1,0.999945
0.9060998315608281,1,0.999685
0.9445652167936263,1,0.999947
0.917381168433099,1,0.999935
0.9365390546010701,1,0.999892
0.9419452720222099,0,0.997744
0.8845614352759383,1,0.999939
0.9303473034199484,1,0.999937
0.8959287359285255,1,0.999946
0.8965436710216635,0,0.998182
0.9520964827440347,1,0.999934
0.9474741771019746,1,0.999942
0.8974239669225189,1,0.999942
0.8355965670479948,1,0.999943
0.9090215911018027,1,0.999818
0.9625548738997157,1,0.999930
0.9250631765364642,1,0.999937
0.8245612555525543,1,0.999893
0.9318937661368074,1,0.999930
0.9346441502197841,1,0.999893
0.9329606153092632,0,0.998043
0.9177350940086595,1,0.999947
0.8577493658261969,1,0.999897
0.8394234885847008,0,0.997009
0.8811533332746067,1,0.999676
0.862879697928083,1,0.999946
0.8802711908903693,0,0.998790
0.9050748867456829,1,0.999947
0.8884806947859963,1,0.999832
0.884992044064047,1,0.999900
0.8778905776745511,1,0.999947
0.8668811588078796,1,0.999897
0.9040461539106196,1,0.999909
0.9205241229122475,1,0.999944
0.9175107634187465,1,0.999945
0.893286041022947,1,0.999946
0.8945233934686893,1,0.999760
0.8804970874631695,1,0.999944
0.858646268954418,1,0.999938
0.8975145851576568,1,0.999837
0.9197919844745518,1,0.999945
0.8859351345911515,1,0.999495
0.8450415737829641,1,0.999946
0.8904270119377803,1,0.999950
0.877162371675542,1,0.999898
0.8140041815825962,1,0.999780
0.9464423380260958,0,0.997543
0.9039168092926059,1,0.999949
0.8731802694129411,1,0.999949
0.9159556340440616,1,0.999947
0.9183158325989873,1,0.999945
0.8792265828840985,1,0.999949
0.8225217532681284,1,0.999953
0.8167782934747131,1,0.999628
0.9086132359955489,1,0.999950
0.8917991611217048,1,0.999795
0.8874479106378628,1,0.999950
0.8771543633439665,1,0.999751
0.7806897903417975,1,0.999496
0.8774048245532478,1,0.999948
0.899223155255266,1,0.999796
0.8568890387125822,1,0.999796
0.8719968100022035,1,0.999897
0.9296629284363276,1,0.999950
0.8892516798383143,1,0.999890
0.9072980778239675,1,0.999948
0.8934046289389841,1,0.999742
0.8602761130994329,0,0.991762
0.8712351373074295,1,0.999946
0.833319247920264,1,0.999531
0.8986086160617419,1,0.999948
0.9179398282976895,1,0.999661
0.9183386103000071,1,0.999952
0.8891886343700737,1,0.999888
0.8982159988880766,1,0.999947
0.9005516483155755,1,0.999942
0.8963499915348299,1,0.999943
0.9073074122163554,1,0.999718
0.8870909888282636,0,0.999271
0.9239200720262711,1,0.999896
0.876720816540391,1,0.999952
0.8955345291763975,1,0.999947
0.9279190405421587,1,0.999888
0.9026400347907397,1,0.999951
0.9263862552509052,1,0.999947
0.8306240694089629,1,0.999948
0.8617596165972258,1,0.999947
0.8613673710926686,1,0.999949
0.8999806017803125,1,0.999947
0.8354260810707077,1,0.999845
0.9087600126672318,1,0.999840
0.8731173152319052,1,0.999946
0.8952676674263567,1,0.999950
0.8666968739832602,1,0.999945
0.7934961212411371,0,0.998207
0.8789783054938134,1,0.999949
0.843380164100967,1,0.999786
0.9345707316735151,1,0.999949
0.8315058883423945,1,0.999850
0.8931403429891842,1,0.999948
0.8928685621728205,1,0.999948
0.9417413463805363,1,0.999944
0.9507287956272831,1,0.999945
0.9493076698277237,1,0.999946
0.9585567910804,1,0.999941
0.9604993948880568,1,0.999937
0.9023858494452205,1,0.999738
0.9236928340349648,0,0.993051
0.8761133159449759,1,0.999838
0.8699473904389153,1,0.999944
0.8928865620941674,1,0.999942
0.9496846254702096,1,0.999876
0.9071045304121012,1,0.999643
0.9027377662438099,1,0.999946
0.8845287142987993,1,0.999941
0.900217033010539,1,0.999708
0.9149539048763302,1,0.999896
0.9214392336767077,1,0.999934
0.9397692183062487,1,0.999941
0.8982345783675798,1,0.999937
0.9210234614589704,1,0.999938
0.944973660852075,1,0.999942
0.9367056029068085,1,0.999942
0.9380053580605533,1,0.999864
0.904774279783556,1,0.999821
0.93999437703996,0,0.999242
0.9348270072319093,1,0.999943
0.9022353412008888,1,0.999600
0.8951318062741275,1,0.999942
0.8832563141311758,1,0.999940
0.9358863523261728,1,0.999895
0.9034881242912915,1,0.999938
0.9546616707171199,1,0.999836
0.9194554416597345,1,0.999949
0.9575881471468082,1,0.999929
0.9073820643525401,0,0.995558
0.9121603907310517,1,0.999936
0.8906860353834808,1,0.999948
0.9380805017631806,1,0.999948
0.8805634400656626,1,0.999952
0.8698624781535014,1,0.999941
0.8933353103802943,1,0.999898
0.9262688358630864,1,0.999944
0.9030578084843295,1,0.999947
0.8859817683533977,1,0.999850
0.8946263728080911,0,0.999047
0.8885658148271082,1,0.999840
0.9250521793404695,1,0.999948
0.874655750987502,1,0.999852
0.9132125545748611,1,0.999949
0.8823988505129344,0,0.999173
0.9024551797136553,1,0.999900
0.885065160468297,0,0.998620
0.8828699190442427,1,0.999948
0.8892688129426497,1,0.999947
0.9080744414954257,1,0.999946
0.8959035856887936,1,0.999897
0.8754602003497773,1,0.999950
0.8698117384370292,1,0.999843
0.8766348146027937,1,0.999944
0.9331637769458583,1,0.999489
0.8572900003868322,1,0.999946
0.8955680109251861,1,0.999949
0.8897294421855025,1,0.999949
0.9211809438965798,0,0.997379
0.9072952161031309,1,0.999953
0.8873194410141053,1,0.999949
0.883883596919183,1,0.999950
0.8916933142434413,1,0.999946
0.8726173976135754,1,0.999848
0.8820310264522064,1,0.999948
0.8804718192132789,1,0.999896
0.8690921407995056,1,0.999951
0.8585104982537222,1,0.999894
0.8673449844919785,1,0.999631
0.8886474977906523,1,0.999948
0.8857947211436021,1,0.999785
0.8975494158945447,1,0.999779
0.8518210373462007,1,0.999597
0.8937731757146783,1,0.999949
0.9028923716631796,1,0.999950
0.8709979065437182,0,0.998341
0.8269231708697319,1,0.999948
0.8853365577604119,1,0.999848
0.8918454244062305,1,0.999948
0.8382054303534251,1,0.999571
0.860026308324808,1,0.999511
0.9157235343675479,1,0.999949
0.9006069315500572,1,0.999948
0.875124032712853,0,0.994203
0.9145352920628981,1,0.999947
0.8331233424346804,0,0.998031
0.8632274837828233,1,0.999946
0.8678607358422569,1,0.999949
0.8626486704682332,1,0.999893
0.8006846186937159,1,0.999945
0.8053013306729708,1,0.999848
0.9220773827367537,1,0.999951
0.819209827265489,1,0.999949
0.916586063529651,1,0.999893
0.9083013877005698,1,0.999946
0.8309920569364205,1,0.999944
0.8813353048973461,1,0.999891
0.8565352599049598,1,0.999682
0.8770193554258958,1,0.999949
0.8346739498256484,1,0.999950
0.8227727742109953,1,0.999946
0.8784828922704303,0,0.999089
0.828232562859329,1,0.999949
0.895034888586299,1,0.999946
0.8818639248309849,1,0.999947
0.8943358844442623,1,0.999945
0.9064016440344133,1,0.999902
0.8939218054373476,1,0.999947
0.8536529627581534,1,0.999948
0.8778484153582593,1,0.999837
0.8682007691618544,1,0.999948
0.9223585067549083,1,0.999945
0.8942371498020159,1,0.999950
0.840547131443802,1,0.999947
0.7613126193945549,1,0.999843
0.8069379309468248,1,0.999951
0.8573820625966211,1,0.999952
0.9295746346602927,1,0.999944
0.9024294703735396,1,0.999940
0.9130464767226791,1,0.999829
0.8589335717557383,1,0.999949
0.8737788327759195,0,0.998786
0.9280681606267625,1,0.999895
0.8991424970155403,1,0.999944
0.8672342699426944,1,0.999947
0.8885386618108088,1,0.999943
0.9135797729812348,1,0.999891
0.8762917736700409,0,0.999399
0.919631050995747,1,0.999897
0.9103982705819894,1,0.999898
0.8708836074373751,1,0.999889
0.8391970455084055,1,0.999795
0.9495572289615759,1,0.999947
0.8982171129655983,1,0.999853
0.8643296601677111,1,0.999953
0.890479016156432,1,0.999952
0.9223375261658954,1,0.999900
0.8958548743683149,1,0.999950
0.8776457906953481,1,0.999950
0.9068163375150736,1,0.999951
0.9136333806677436,1,0.999951
0.9135125604496871,1,0.999949
0.9421175909921218,1,0.999791
0.8796774590204436,1,0.999898
0.927910427573527,1,0.999949
0.8670118016270215,1,0.999950
0.8737738514115017,1,0.999611
0.8880592518954126,1,0.999647
0.9069394778214532,1,0.999898
0.9427654777031029,1,0.999951
0.868121231989256,1,0.999898
0.8803639276348418,1,0.999849
0.8951570180868014,1,0.999951
0.8795624967571799,1,0.999950
0.907353377631553,1,0.999896
0.9246956577748312,1,0.999900
0.9056690006373541,1,0.999803
0.9076378858413693,1,0.999901
0.8719003854590284,1,0.999947
0.9231531365358251,1,0.999945
0.8819485424157338,1,0.999903
0.830689437267321,1,0.999853
0.8564666473323921,1,0.999629
0.8578368128030575,1,0.999951
0.8674922082706629,1,0.999951
0.888756443981133,0,0.999238
0.8027818444185612,0,0.999184
0.8658915079706774,1,0.999949
0.8632521182865951,1,0.999790
0.9030086907312199,1,0.999750
0.8536918840494628,1,0.999903
0.899769144381492,1,0.999855
0.90730577956874,1,0.999737
0.8643837073698337,1,0.999703
0.9191764806307381,1,0.999941
0.8982623749433115,1,0.999850
0.8829573757252173,1,0.999506
0.8874725562761134,1,0.999899
0.884277979321056,1,0.999900
0.9031921378298905,1,0.999950
0.8633303250796606,1,0.999952
0.9117635673414423,1,0.999847
0.8972329516507035,1,0.999902
0.8990611961734405,1,0.999952
0.8797135706693535,1,0.999903
0.918542110312858,1,0.999950
0.8966046151123375,1,0.999950
0.8772712370521856,1,0.999904
0.8701828167605591,1,0.999950
0.8951199639867868,1,0.999900
0.8864366727589963,1,0.999950
0.9013356911062894,1,0.999845
0.9086742502881444,1,0.999950
0.9120225643345113,0,0.999455
0.8437891542060085,1,0.999951
0.9087044961685752,0,0.999057
0.8955364760111703,1,0.999948
0.8992504772521137,1,0.999610
0.8727071198693551,0,0.999156
0.8781406478263383,1,0.999952
0.8753054600846865,1,0.999951
0.8066404722247238,1,0.999852
0.8707062543566952,1,0.999899
0.8890568873397912,1,0.999893
0.9043505553172541,1,0.999948
0.8735414504420087,1,0.999950
0.842761909697517,1,0.999950
0.8348616423522922,1,0.999948
0.8761510433663297,1,0.999801
0.9019454387346247,1,0.999891
0.8624843276588738,1,0.999897
0.8775806815945447,0,0.999209
0.8469885641351669,1,0.999947
0.8947257187742702,1,0.999946
0.9110898082380213,1,0.999674
0.9247935246588207,1,0.999950
0.9007714032631753,1,0.999949
0.8620249330366508,1,0.999895
0.9336759422418196,0,0.999045
0.9079358222116163,1,0.999898
0.8960429148774945,1,0.999892
0.8731499931800273,1,0.999949
0.8701328154822646,1,0.999902
0.8824178447606001,1,0.999851
0.8811691765281466,1,0.999899
0.8703010563806998,1,0.999950
0.7912330235651848,1,0.999950
0.9131179708273868,1,0.999853
0.8907875682095922,1,0.999949
0.8882354407252903,1,0.999949
0.8623764694669793,1,0.999949
0.8603209413740893,1,0.999948
0.8814390637478049,1,0.999694
0.8791697228131379,1,0.999752
0.9083148375246085,1,0.999945
0.8905031749504172,1,0.999951
0.8485646882054941,1,0.999950
0.8128911505784654,1,0.999729
0.8496266094913698,1,0.999951
0.8398265356746616,1,0.999951
0.9067714624104413,0,0.999350
0.807142464064617,1,0.999898
0.8704592124905053,1,0.999793
0.9138303969188845,1,0.999948
0.878681483705394,1,0.999786
0.8584237212580339,1,0.999948
0.9059971461150038,1,0.999950
0.9009410347317183,1,0.999950
0.8196530304177322,1,0.999803
0.8524131887719788,1,0.999950
0.8400805959494438,1,0.999903
0.8330349126514057,1,0.999951
0.809140650528671,1,0.999852
0.9156679368370082,1,0.999950
0.8950938885056973,1,0.999756
0.9160794328688268,1,0.999851
0.9201000349790984,1,0.999949
0.8798182447762095,1,0.999702
0.9134336512330918,1,0.999944
0.9174728482261241,1,0.999949
0.9154528202298494,1,0.999795
0.9214401322820042,1,0.999949
0.902570389521294,1,0.999892
0.916343754366146,1,0.999948
0.910569795028446,1,0.999949
0.9105159569738188,0,0.997903
0.9003589793404041,1,0.999900
0.9001246452053365,1,0.999794
0.8862935123534645,1,0.999854
0.9048332603883422,1,0.999949
0.8866644176513865,1,0.999901
0.9323402563033192,1,0.999947
0.8751358607716505,1,0.999950
0.8816838067257059,1,0.999890
0.9015964197460168,1,0.999951
0.9259169922824471,1,0.999947
0.9036573377682913,1,0.999950
0.8963703078821088,0,0.999385
0.9333373520916503,1,0.999946
0.9360660775424939,1,0.999898
0.9443097809168116,1,0.999944
0.920134967481923,1,0.999947
0.9032001370383113,1,0.999801
0.9243135350931247,1,0.999949
0.9438355135306092,1,0.999700
0.893840463324517,1,0.999950
0.8482728087411091,1,0.999952
0.9189849716711824,1,0.999951
0.8876075272693398,1,0.999951
0.9267826289435864,1,0.999951
0.8860985825675196,1,0.999805
0.8548227352844356,1,0.999899
0.8725580584172152,1,0.999905
0.9237826945068808,1,0.999951
0.8876969845424891,1,0.999949
0.9127242678413429,1,0.999902
0.9020368939228557,1,0.999949
0.8865179141160935,1,0.999950
0.8874959045118084,1,0.999897
0.8108949436796662,1,0.999951
0.8863394716702874,1,0.999893
0.8712937681076252,1,0.999949
0.8365300271417011,1,0.999853
0.8927899034561568,1,0.999741
0.878162228028366,1,0.999854
0.8455994561745193,1,0.999950
0.9123913938465894,1,0.999949
0.882669574745168,1,0.999853
0.8921410775792763,0,0.998906
0.820252383030612,1,0.999711
0.8362532437591345,1,0.999899
0.8525074519991513,1,0.999698
0.8654156202948555,1,0.999901
0.8635701598102249,1,0.999795
0.8433034004649959,1,0.999692
0.8451399174170727,1,0.999951
0.8431016850849654,1,0.999952
0.858332471860015,1,0.999949
0.8133162291695177,1,0.999855
0.8530631283024294,1,0.999952
0.878228777233213,1,0.999754
0.8834092925884898,1,0.999951
0.8686915871320109,1,0.999804
0.8956803607255438,1,0.999857
0.8019765543826611,1,0.999949
0.8241104126994712,1,0.999899
0.850268497258672,1,0.999948
0.8487505096405215,1,0.999901
0.8919818965832536,1,0.999950
0.8553116762896622,1,0.999798
0.8950549095674135,1,0.999950
0.8592940690854264,1,0.999949
0.9070276737176542,1,0.999949
0.880129379020077,1,0.999950
0.8577141558809143,1,0.999950
0.8624296972142944,1,0.999950
0.8260506962708882,1,0.999949
0.8068370530526433,1,0.999842
0.8374454207441021,1,0.999951
0.8578613738820084,1,0.999758
0.8363949664432674,1,0.999901
0.8503605864749235,1,0.999854
0.8270073637688887,1,0.999903
0.8864589767338467,1,0.999949
0.8811859761460799,1,0.999848
0.878691817477237,1,0.999945
0.8746046876767712,1,0.999947
0.8726843111161856,1,0.999950
0.8968290845684724,1,0.999950
0.9106276798152372,1,0.999898
0.929158744282146,1,0.999951
0.8958345909236645,1,0.999951
0.8946540210616731,1,0.999847
0.888801751980734,1,0.999948
0.8869907567904828,1,0.999951
0.8903192747309767,1,0.999900
0.8700778008576728,1,0.999950
0.9208023166267206,1,0.999897
0.8662455406102033,1,0.999537
0.8814786971909789,1,0.999949
0.9008478695019816,1,0.999949
0.8661644446635665,1,0.999782
0.8949613506929968,1,0.999494
0.9031901530527274,0,0.999367
0.9123580761464093,0,0.995670
0.8943169163023603,1,0.999946
0.8814603617973855,1,0.999943
0.9036057830362887,1,0.999943
0.8815464831968051,1,0.999950
0.8549539544408722,1,0.999637
0.8286833349175529,1,0.999848
0.8743658362825524,0,0.999144
0.8720091459026963,1,0.999949
0.8882268723784212,1,0.999903
0.9135750441491366,1,0.999851
0.8799607577656913,1,0.999719
0.9228441499979958,1,0.999525
0.8643816093547707,1,0.999901
0.9402824474733948,1,0.999895
0.9111782084305087,1,0.999849
0.9153979407052554,1,0.999897
0.8708536246631069,1,0.999948
0.9199617649718226,1,0.999949
0.906160780722781,1,0.999952
0.8650340255911405,0,0.999443
0.8930128923828274,1,0.999951
0.9527778133913911,1,0.999747
0.8803247606020033,1,0.999949
0.8823827324035364,1,0.999758
0.930058076429554,1,0.999948
0.8512053783062815,1,0.999699
0.8277424847271282,1,0.999904
0.8532369083439483,1,0.999949
0.8347640337854748,1,0.999950
0.8416519427901014,1,0.999903
0.8744820820960679,1,0.999751
0.86748577625395,1,0.999852
0.8923618329563427,1,0.999902
0.8843680903392022,1,0.999948
0.8322018675273938,1,0.999951
0.8708522606710267,1,0.999950
0.8530885245215406,1,0.999951
0.9289218408538302,1,0.999794
0.9254393759292087,1,0.999947
0.9165542214891357,1,0.999896
0.8542842009832474,1,0.999948
0.8517224231864665,0,0.999390
0.854178510148945,0,0.984758
0.9067685036980389,1,0.999949
0.8876944815644329,1,0.999949
0.9351979720102425,1,0.999564
0.8188391592145496,1,0.999950
0.8342155590216223,1,0.999847
0.7975047643032717,0,0.999429
0.8776869930358728,1,0.999895
0.8362285257808706,1,0.999951
0.8420197940511602,1,0.999948
0.8593326523888766,1,0.999950
0.8674841666707735,1,0.999949
0.8346550831430662,1,0.999745
0.9337461532897168,1,0.999844
0.9181793423288445,0,0.998908
0.8790691030252075,1,0.999950
0.9128803245814611,0,0.998728
0.9102560858108372,1,0.999949
0.9053361209224345,1,0.999950
0.9270467346673634,1,0.999951
0.8916137401523319,1,0.999844
0.8851868691686672,1,0.999744
0.9104786644826038,1,0.999892
0.9046476485693932,1,0.999948
0.8826859356022101,1,0.999950
0.921512258375855,1,0.999948
0.8995984034687308,1,0.999596
0.8846817575394803,1,0.999694
0.9237040184245968,1,0.999900
0.8284234493048801,0,0.999449
0.8142011866762443,1,0.999543
0.8436847425467388,1,0.999950
0.8403484942884675,1,0.999950
0.9040334344942746,1,0.999951
0.8861869635216929,1,0.999951
0.8711835840003579,1,0.999854
0.893892370252389,1,0.999952
0.8178619671076351,1,0.999847
0.857372958950754,1,0.999951
0.8199071031545428,1,0.999804
0.6866323230215956,1,0.999905
0.8613649268823159,1,0.999951
0.908535024154678,1,0.999797
0.8436411470755781,1,0.999948
0.8104048829076447,1,0.999897
0.8746598053499015,0,0.999107
0.8950729536891144,1,0.999845
0.8935658743794587,1,0.999886
0.8826800301521375,1,0.999888
0.7241604645953619,0,0.996149
0.9095225444954711,1,0.999948
0.8235202843795814,1,0.999850
0.8546202360812098,1,0.999892
0.8980812706798421,0,0.998957
0.9051235105080644,0,0.999361
0.9086091084272042,1,0.999949
0.8856316981270346,1,0.999950
0.9233664514516188,1,0.999510
0.9016194488416739,1,0.999641
0.8661711270887597,1,0.999950
0.8347401745509972,1,0.999951
0.878756930867627,1,0.999894
0.8784132800402142,1,0.999899
0.8391506885998545,1,0.999851
0.8027144981319745,1,0.999848
0.8661262263687259,1,0.999949
0.8266958176496438,1,0.999950
0.7950350892418159,1,0.999899
0.900753833180368,1,0.999849
0.9266785847731265,1,0.999948
0.9284337138942256,0,0.998960
0.8747431723245566,1,0.999950
0.8585365617506189,1,0.999748
0.9192684431735749,1,0.999890
0.9053831948194331,1,0.999947
0.9149949351209281,1,0.999898
0.9153848030453949,1,0.999592
0.9285883236518776,1,0.999726
0.9056864873476467,1,0.999943
0.9040860607591954,1,0.999949
0.8790011593459899,1,0.999945
0.935372629573584,1,0.999941
0.9257627522316058,1,0.999831
0.9055650087969966,0,0.999115
0.9101672849406619,1,0.999938
0.8613334430284225,1,0.999945
0.8836145799384119,0,0.998981
0.8815285015555402,1,0.999947
0.9157131340530267,1,0.999948
0.9375315501944478,1,0.999898
0.9112698405704341,0,0.998869
0.8896915242824555,1,0.999897
0.8557339726673875,1,0.999653
0.7963314761021935,1,0.999898
0.8964876205666612,1,0.999895
0.9165163954215256,1,0.999946
0.8600698736300577,1,0.999581
0.8668372304591064,1,0.999944
0.8690856595016074,1,0.999891
0.8388552655433865,1,0.999894
0.8614539114062909,1,0.999850
0.8904290450651524,1,0.999900
0.9164017787005936,1,0.999950
0.9150342502268005,1,0.999949
0.89107626180968,1,0.999950
0.8504873163192909,1,0.999950
0.8662735569339142,1,0.999948
0.8701119417374111,0,0.997793
0.8964530778423747,1,0.999888
0.9109691164262458,1,0.999942
0.8241149463989008,1,0.999946
0.8414753880297574,1,0.999496
0.8447072255561631,1,0.999949
0.8439165942263558,1,0.999944
0.833179096860842,1,0.999949
0.8159090295941578,1,0.999844
0.8757247203267406,1,0.999900
0.8839668069842621,1,0.999949
0.7910583995206207,1,0.999902
0.8026754517430882,1,0.999950
0.8593088285735685,1,0.999951
0.7743294167851642,0,0.999079
0.7944679340263201,1,0.999951
0.7432168507400615,1,0.999576
0.8476282977878954,1,0.999950
0.8359225535318763,1,0.999949
0.8701161292988964,1,0.999949
0.8007214203225751,1,0.999951
0.7891653391871645,1,0.999950
0.779085549314197,1,0.999950
0.8817788286936613,0,0.995860
0.7958729884007261,1,0.999952
0.833010852441459,1,0.999943
0.828016123012349,1,0.999946
0.8980161210696087,1,0.999849
0.8253084552454099,1,0.999848
0.7654290442946593,1,0.999707
0.8272063149847521,1,0.999897
0.8560536870503614,1,0.999730
0.8313349487308074,1,0.999949
0.7592109645900228,1,0.999803
0.8912448967070995,1,0.999830
0.7323098329247612,1,0.999949
0.8360954984523591,1,0.999890
0.8936995239375404,1,0.999948
0.8162488703747142,1,0.999804
0.8317933682434495,1,0.999951
0.845334468299512,1,0.999951
0.9338292773152944,1,0.999947
0.9069117873363828,1,0.999890
0.9395853702977794,1,0.999516
0.9071793665527148,1,0.999945
0.9067592717330378,1,0.999943
0.8728876564374609,1,0.999947
0.8456304963199839,1,0.999944
0.8352975695642356,1,0.999896
0.9013116844844132,1,0.999747
0.8754336785796787,1,0.999642
0.8529857609635859,1,0.999896
0.7897440600778687,1,0.999949
0.8271490383093999,0,0.999364
0.6908187274671521,1,0.999947
0.7925259918256018,1,0.999642
0.7628990184801135,1,0.999949
0.7543727723892669,1,0.999951
0.8458921663026526,1,0.999945
0.8591776489372157,0,0.998927
0.8333421899365581,1,0.999892
0.8157249139982555,1,0.999943
0.7720298900119043,1,0.999948
0.8280465944142386,1,0.999780
0.6970947050072357,1,0.999947
0.7090951956828482,0,0.997989
0.847791965916054,1,0.999951
0.8980816737997364,1,0.999949
0.8267341426315624,1,0.999950
0.9324718304116926,1,0.999950
0.8761897865697297,0,0.997970
0.8842343189234743,1,0.999948
0.8766015231115524,1,0.999899
0.9215496531832961,1,0.999615
0.8842840213765073,1,0.999895
0.8276567178709713,0,0.999339
0.8447266929798548,1,0.999852
0.8550754837951597,1,0.999901
0.8971901145417447,1,0.999572
0.9426159058985257,0,0.999396
0.868584983620848,1,0.999950
0.8551738967608372,1,0.999854
0.8726097747144906,1,0.999803
0.8830377860665367,1,0.999901
0.8510552897743037,1,0.999901
0.8677782008407108,1,0.999952
0.8411988082326856,1,0.999851
0.8199069199395297,1,0.999588
0.8034554677249394,1,0.999951
0.8683521769994037,1,0.999795
0.9087592220392114,1,0.999950
0.8841258316756185,1,0.999951
0.8733195448195398,1,0.999850
0.8851049669697466,0,0.993880
0.889183926050985,1,0.999889
0.8153710854986381,1,0.999945
0.8697379296517724,1,0.999704
0.8257471716434602,1,0.999950
0.8087196364499892,1,0.999950
0.8236083119863296,1,0.999951
0.7428423194297238,1,0.999900
0.8811140838161445,1,0.999851
0.897311993979287,1,0.999951
0.9193011662061477,1,0.999947
0.8913469773952534,1,0.999951
0.8902556005601427,1,0.999951
0.8782348509840965,1,0.999799
0.8769078143298092,1,0.999806
0.8188338490161945,1,0.999951
0.9230790990014263,0,0.999259
0.8871937273159599,1,0.999952
0.8673252804786713,1,0.999903
0.9015747000615902,1,0.999803
0.8371035731721767,1,0.999951
0.8600901970976378,1,0.999950
0.8615916443445761,1,0.999952
0.8802606494153943,1,0.999949
0.8667145430605747,1,0.999901
0.8768074717477109,1,0.999897
0.751415298773799,1,0.999898
0.7741976633835945,1,0.999903
0.8094475245872716,1,0.999522
0.7678205055969165,1,0.999845
0.8260477307767082,0,0.998382
0.8434134159006441,1,0.999848
0.8929293093367197,0,0.999435
0.8774411567987412,1,0.999902
0.9058233166726332,1,0.999893
0.7999208510965248,0,0.999303
0.8875982496836289,1,0.999950
0.9100410718877827,1,0.999935
0.908346995055201,1,0.999894
0.9011823923971902,1,0.999945
0.8475929641054761,1,0.999951
0.8940690145072381,1,0.999947
0.9064279390061558,1,0.999950
0.8719163909630876,1,0.999946
0.9115109677219528,0,0.997356
0.8726963947384445,1,0.999950
0.9130145060844937,0,0.999389
0.8932557113483458,1,0.999897
0.9211251221338971,1,0.999955
0.8968306886528129,1,0.999948
0.88520541589886,1,0.999902
0.9159826888472922,1,0.999885
0.8549152560424498,0,0.999396
0.8393807206771757,1,0.999949
0.8607326028431715,1,0.999900
0.8741572741516538,1,0.999898
0.8564531513012832,1,0.999752
0.9039363027930966,1,0.999897
0.8424190484307842,1,0.999848
0.8749767244712685,1,0.999951
0.846443929567129,1,0.999950
0.8742889708739474,1,0.999850
0.8815044067905544,1,0.999947
0.8968625986018546,1,0.999849
0.8550226713917255,1,0.999899
0.8628269697411689,1,0.999949
0.8250031113507084,1,0.999793
0.8333223613788592,1,0.999951
0.8400679569277564,1,0.999558
0.8286654592181047,1,0.999947
0.8358639535481482,1,0.999894
0.772573567696273,1,0.999950
0.8638683914494325,1,0.999951
0.8619141210405865,1,0.999900
0.8446775701219791,1,0.999903
0.8173002989817039,1,0.999951
0.8683396626104098,1,0.999893
0.8298108778727747,1,0.999951
0.8177514024510509,1,0.999899
0.8645644164946972,1,0.999949
0.8571995293168703,1,0.999949
0.8724547701465453,1,0.999950
0.8238954384974704,1,0.999947
0.9095382118150269,1,0.999848
0.8584207817079694,0,0.998579
0.8235872454643218,1,0.999852
0.8615481989180906,1,0.999950
0.8103148894047452,1,0.999706
0.8337475562143929,1,0.999950
0.8506442207733343,1,0.999946
0.8325639046998966,1,0.999949
0.8049678736062654,1,0.999945
0.8305580437893627,0,0.999437
0.7148244817641076,1,0.999798
0.8036557043440808,1,0.999851
0.7863359793780416,1,0.999951
0.84024672771133,1,0.999952
0.7600433227659397,1,0.999948
0.7466366197633825,1,0.999900
0.8624468103062637,1,0.999947
0.8950613088476373,1,0.999948
0.9111735654560179,1,0.999940
0.9018792505389273,1,0.999943
0.8592656528794348,1,0.999951
0.8579450089304527,1,0.999949
0.868357788199028,1,0.999853
0.8786263691903776,1,0.999902
0.8635387289672054,1,0.999568
0.8680107884549401,1,0.999950
0.8598678281824228,1,0.999948
0.8945614677446666,1,0.999949
0.8856679984145324,1,0.999744
0.8692315309598786,1,0.999940
0.8630844815937269,1,0.999895
0.8915656130058367,1,0.999950
0.8782283610907207,1,0.999783
0.8254989301253608,1,0.999951
0.8464541450873564,1,0.999950
0.8104028320796892,1,0.999952
0.8918785601640589,1,0.999943
0.879281527579519,1,0.999837
0.792403174292319,1,0.999690
0.8772818341070971,1,0.999945
0.7829818611023305,1,0.999893
0.9291755904425321,1,0.999950
0.9028323091637059,1,0.999796
0.8770316095883879,1,0.999899
0.890197629779826,1,0.999946
0.871634471055534,1,0.999892
0.8106623029763798,1,0.999884
0.7781729894561424,1,0.999798
0.8227657892649031,1,0.999900
0.8769525192251509,1,0.999950
0.8294987032362419,1,0.999948
0.8578878701853637,1,0.999837
0.842388164822307,1,0.999591
0.8552923583671376,1,0.999851
0.9333767403170425,1,0.999898
0.8640854509743774,1,0.999950
0.9016054213176161,1,0.999629
0.856204792695422,1,0.999952
0.8264192658621851,1,0.999840
0.8070539604536932,1,0.999900
0.783797750525569,1,0.999951
0.8016514394315257,1,0.999889
0.8601984474459703,1,0.999589
0.8316057889013372,1,0.999948
0.8708036284588012,1,0.999950
0.8473260542972181,1,0.999948
0.8556376743982417,1,0.999949
0.7901934009189385,1,0.999951
0.7514223391441015,1,0.999903
0.8645359773784594,1,0.999890
0.8101287967866662,1,0.999898
0.7918176895544919,1,0.999952
0.6392150775733605,1,0.999952
0.7989542222648168,1,0.999893
0.7898287009247175,1,0.999947
0.8916565303097418,0,0.989134
0.8641253420195691,1,0.999727
0.9368753983781973,1,0.999886
0.912958740453762,1,0.999834
0.9050621897323122,1,0.999947
0.8626563381626126,0,0.998529
0.8614309029821936,1,0.999949
0.8388807701241463,1,0.999900
0.893188446115118,1,0.999950
0.8954895577137127,1,0.999934
0.8799882164268052,1,0.999948
0.8521698518933997,1,0.999950
0.8318601019647566,1,0.999851
0.8331383762555804,1,0.999902
0.8426704363640883,1,0.999951
0.8605800322153732,1,0.999948
0.8056348460549049,1,0.999837
0.7832271422068625,0,0.998171
0.8130399180405387,1,0.999951
0.8099015668341362,1,0.999949
0.88692584253685,1,0.999877
0.816705567617197,1,0.999881
0.8893565746422755,1,0.999526
0.8442671744905957,1,0.999947
0.7682966004192497,1,0.999841
0.8172210326037401,0,0.999248
0.8910750341879493,1,0.999949
0.8467800375854498,1,0.999950
0.7978339846985356,1,0.999951
0.854739095717407,1,0.999951
0.8976888235914775,1,0.999947
0.8539688864732146,1,0.999792
0.7642767359137068,1,0.999685
0.8167977410901903,0,0.999387
0.8639420431924132,1,0.999951
0.8461935821722881,1,0.999949
0.8729497351371048,1,0.999899
0.768835809851781,1,0.999894
0.7787185565652603,1,0.999808
0.7820950451854118,1,0.999796
0.7416650213174568,1,0.999951
0.8111885575950643,1,0.999895
0.7781074336211599,1,0.999836
0.8470436584260236,1,0.999950
0.8183223839996293,1,0.999948
0.8877893531276155,0,0.996168
0.8659623108017007,1,0.999945
0.8740631627054286,1,0.999946
0.6970494903309725,0,0.997970
0.8008361482888013,0,0.997805
0.8102665835869545,1,0.999833
0.7435995369972234,1,0.999840
0.8166408275504857,1,0.999829
0.8413093843405782,1,0.999947
0.80449753567708,0,0.995946
0.7002372716799206,0,0.999190
0.8461597117915971,1,0.999894
0.8519625159862096,1,0.999949
0.8567604745298464,1,0.999896
0.8818764904420238,1,0.999946
0.7690737242418114,1,0.999945
0.7414569458132488,1,0.999948
0.7728621082220182,1,0.999943
0.7227902791783339,1,0.999895
0.8731075386505043,1,0.999950
0.8421539707190437,1,0.999950
0.8400142313574994,1,0.999950
0.8306184778302182,1,0.999778
0.7238522762113632,1,0.999754
0.8802967677359295,1,0.999697
0.8767916592009866,1,0.999951
0.8966878386346783,1,0.999949
0.9202213347541455,1,0.999948
0.8877666923161694,1,0.999901
0.8960434469756828,1,0.999950
0.8102978771258144,1,0.999951
0.8903895336705376,1,0.999949
0.8155735183127046,1,0.999855
0.80877427866402,1,0.999899
0.8791198711071635,1,0.999795
0.871412908236933,1,0.999937
0.8350336767271223,1,0.999832
0.9005290230469947,1,0.999901
0.8731010427366228,1,0.999950
0.8332311097572814,1,0.999803
0.7047289569235425,1,0.999951
0.8231744368954506,1,0.999951
0.7466087395449961,1,0.999851
0.7982882357058345,1,0.999729
0.8996320409522859,1,0.999950
0.8081184877933283,1,0.999846
0.740765803946768,1,0.999695
0.7497977746189892,1,0.999950
0.8527466011633668,1,0.999787
0.9267140039836109,0,0.998790
0.9516335081780385,1,0.999742
0.9097625075731931,1,0.999944
0.9706720186982254,1,0.999939
0.9535568167793079,1,0.999770
0.9226861746367928,0,0.999025
0.8836756642971774,1,0.999829
0.9110622161587346,1,0.999943
0.9466290279009877,1,0.999880
0.9237554341968478,1,0.999949
0.880688375894505,1,0.999929
0.9452356128569342,0,0.999262
0.8952008234425123,1,0.999937
0.9404678165080116,1,0.999941
0.9205151288872279,1,0.999946
0.9026238003414464,1,0.999800
0.9394453457122031,1,0.999570
0.8723070159683463,1,0.999943
0.9185461040571538,1,0.999950
0.9224509261329845,1,0.999941
0.921879132125093,1,0.999902
0.9564301870299193,1,0.999882
0.9464010206845267,1,0.999948
0.9237366615477408,0,0.997693
0.8930473451735765,1,0.999949
0.8810854983873526,1,0.999952
0.9575448868697479,1,0.999938
0.9418153602362452,1,0.999942
0.8931982864343992,1,0.999954
0.9148288961327176,1,0.999833
0.9472909438917931,1,0.999932
0.9052393521801696,1,0.999543
0.9493430602519246,1,0.999933
0.877248759186271,1,0.999954
0.9286518232099902,0,0.968868
0.9035867904103061,1,0.999599
0.9151418552611464,1,0.999896
0.8963355904680009,1,0.999945
0.896900698714212,1,0.999946
0.8956334483479649,1,0.999943
0.8990263941283649,1,0.999885
0.9215793146583756,0,0.997880
0.8874571754903197,1,0.999556
0.9045197795285632,0,0.998743
0.9106464877078254,1,0.999788
0.8854628428265919,0,0.999158
0.9091149900461376,1,0.999479
0.9271372290241799,1,0.999942
0.9283450443033707,1,0.999942
0.8319774923824518,1,0.999774
0.8953952983723119,1,0.999940
0.9511314489648868,1,0.999950
0.9267593579340013,1,0.999939
0.8565567412221406,1,0.999760
0.8501323249192221,1,0.999892
0.921278150259839,1,0.999925
0.9135325438387696,1,0.999844
0.8927671634611419,1,0.999847
0.8890927651401533,1,0.999703
0.939265932780387,1,0.999755
0.9609741599332366,1,0.999934
0.9379176743340484,1,0.999809
0.9502295521537397,1,0.999892
0.9504125986052097,1,0.999937
0.8930470173995791,1,0.999942
0.9366647800523046,1,0.999942
0.9333691219048995,1,0.999946
0.9176005983508551,1,0.999837
0.9247947180185189,1,0.999798
0.9335318951910841,1,0.999815
0.9425844728126399,1,0.999946
0.9104810895374292,1,0.999813
0.897044055687335,1,0.999947
0.9053509286669477,0,0.998690
0.9006493199264428,1,0.999889
0.8744042185210242,0,0.998414
0.866871550498911,1,0.999939
0.9100278994264067,0,0.999049
0.938354606620694,1,0.999955
0.8829842476654125,1,0.999792
0.9441852190326008,1,0.999944
0.9250108142818327,1,0.999932
0.948126867483333,1,0.999749
0.8261056511140239,1,0.999948
0.9226281676957416,0,0.999292
0.8956453333254564,0,0.986717
0.8453900504589346,1,0.999943
0.870846904523298,1,0.999937
0.8347461768607212,1,0.999942
0.8612308170900034,1,0.999932
0.9238322508342075,1,0.999923
0.9076996840933,1,0.999543
0.8233083423584211,1,0.999945
0.879383756135925,1,0.999940
0.8512846724275633,1,0.999559
0.8064415291396273,1,0.999945
0.8768428620909148,1,0.999896
0.8972784700026011,1,0.999742
0.8720259913324538,1,0.999604
0.8774696749670792,1,0.999742
0.8906174526933519,1,0.999892
0.8764002281416734,1,0.999928
0.9294487800091574,1,0.999902
0.9068259480461841,1,0.999784
0.8489488816240075,0,0.998679
0.8975193384957855,1,0.999950
0.897921698167211,1,0.999947
0.9143839666513179,1,0.999621
0.8940267873966466,1,0.999886
0.8893793731673537,1,0.999949
0.9217869061695688,1,0.999821
0.9580063976441224,1,0.999935
0.9424464175140617,1,0.999859
0.9270238226248182,1,0.999936
0.9459809176726405,1,0.999259
0.8706491362572437,0,0.998779
0.8345932175283691,1,0.999814
0.9737958881628868,1,0.999871
0.8866306349857208,1,0.999939
0.9304843286655857,1,0.999832
0.9397587133165803,1,0.999701
0.9006836111482924,1,0.999516
0.9198732120707309,1,0.999662
0.9221808842641448,0,0.995879
0.8634616976701078,1,0.999947
0.9276004857002221,0,0.997179
0.900491196046887,1,0.999939
0.8491104189942689,1,0.999888
0.8982812048344226,1,0.999646
0.8968194580970963,1,0.999894
0.9187331198206428,1,0.999620
0.8630430223966109,1,0.999538
0.901030565061596,1,0.999942
0.9252858702578914,1,0.999950
0.9221966602564912,1,0.999945
0.9376801537694804,1,0.999888
0.8984354937279909,1,0.999889
0.8876749421387432,0,0.998714
0.9006723986782912,1,0.999931
0.9315440323867583,1,0.999847
0.9202274132013138,1,0.999832
0.92821151751968,0,0.998425
0.9098052571930202,1,0.999837
0.9377228616429325,0,0.998725
0.8713431379691787,1,0.999953
0.8667394736943546,0,0.999321
0.8928885802598174,1,0.999841
0.9289179513615867,1,0.999616
0.9532454045419907,1,0.999936
0.8831743930555714,1,0.999948
0.9161274144460831,1,0.999939
0.8792003993062302,1,0.999938
0.9409431652866082,1,0.999953
0.8868253873453942,1,0.999945
0.9270656726557432,1,0.999947
0.8848885444729329,1,0.999860
0.8903370280734746,1,0.999796
0.9051866093209372,1,0.999947
0.8561830947623967,1,0.999892
0.8591238340081764,1,0.999836
0.9301834133533876,1,0.999906
0.8145051534085102,1,0.999944
0.8946141527358471,1,0.999887
0.9169035670078881,1,0.999886
0.8796383553711176,1,0.999948
0.941979810405633,1,0.999736
0.9374842691147851,1,0.999643
0.9362610232536673,1,0.999817
0.9232332527248891,1,0.999752
0.8528162117006848,1,0.999544
0.8612959087346889,1,0.999743
0.9399726778967035,1,0.999938
0.9187601687807037,0,0.999284
0.9439678271420501,1,0.999362
0.9336746090421705,1,0.999508
0.8919743009806135,1,0.999928
0.9002979584989379,1,0.999945
0.8531450449037429,1,0.999943
0.8822139098643162,0,0.999333
0.8661021934599834,1,0.999898
0.8941415462947612,1,0.999901
0.9037068289211622,1,0.999563
0.9251910903589327,0,0.976393
0.8964073480531248,1,0.999946
0.8893234098924686,1,0.999946
0.9042611146497106,1,0.999880
0.7938825511148577,0,0.998221
0.8338633659778886,1,0.999842
0.8981844373843891,1,0.999948
0.9011296882703532,1,0.999894
0.8886891558123371,0,0.998648
0.8396759928539657,1,0.999895
0.9014481604677005,1,0.999744
0.8568490412162719,1,0.999853
0.840670906673701,1,0.999946
0.9079779647459782,1,0.999863
0.8480693601339687,1,0.999942
0.8459188934327421,1,0.999942
0.8652828727477586,1,0.999642
0.9212280973935383,1,0.999899
0.8539115567113453,1,0.999779
0.941677719383757,1,0.999742
0.9051984737039593,1,0.999942
0.9285989349003914,1,0.999477
0.8713687561309227,1,0.999768
0.955113320988383,1,0.999897
0.9163944311494033,1,0.999946
0.9079797078121242,1,0.999938
0.8510763906001632,1,0.999937
0.8438147605649601,0,0.998777
0.8812984319506889,1,0.999952
0.9041209622180792,1,0.999358
0.8824354927884562,1,0.999947
0.8669689125910954,1,0.999948
0.8961075430873588,0,0.999359
0.8471717846903434,1,0.999949
0.8234505535613367,1,0.999720
0.9539590671567122,1,0.999939
0.9505826590664693,1,0.999816
0.9564834106622286,1,0.999944
0.9211077166906938,1,0.999942
0.8911352540009932,0,0.999104
0.9328521182081184,1,0.999678
0.9115959657308854,1,0.999939
0.8913715815934332,0,0.998819
0.9427653349880392,0,0.998305
0.940787220436844,0,0.999002
0.9042000140009514,1,0.999664
0.8771060254033801,1,0.999715
0.8684012105537154,1,0.999889
0.9111190562050864,1,0.999953
0.9149832473842673,1,0.999937
0.9481134618572983,1,0.999941
0.9202903805177577,0,0.994898
0.9000081735551527,1,0.999893
0.9130402575189611,0,0.973748
0.933555507442119,1,0.999937
0.9590965540804203,1,0.999942
0.9468990580358237,1,0.999886
0.8230625197399485,1,0.999888
0.8850427206192328,1,0.999948
0.91207980611973,1,0.999902
0.8633286513516226,1,0.999947
0.9168517686702959,1,0.999883
0.9149385854421413,1,0.999941
0.8823789312502672,1,0.999951
0.9052349730150019,1,0.999887
0.8648551659122966,1,0.999949
0.929818918958176,1,0.999948
0.8774591610918483,1,0.999836
0.8379944029054202,1,0.999943
0.8861161542169816,1,0.999897
0.8197176188977215,1,0.999837
0.8609443779924203,1,0.999894
0.8135660824790962,1,0.999855
0.8632662179418552,1,0.999891
0.8774731302342375,1,0.999888
0.8810568949303935,0,0.997078
0.8751528102893198,1,0.999799
0.8708194882806922,0,0.999424
0.8736055046118512,1,0.999945
0.837313182211294,1,0.999830
0.832220551118582,1,0.999896
0.8660127228970423,1,0.999849
0.8718263927288339,0,0.999155
0.90158278597866,1,0.999789
0.8876649025986572,1,0.999840
0.8668820598920961,1,0.999838
0.8523589361384175,1,0.999948
0.9140814001928356,1,0.999841
0.852644575523542,1,0.999947
0.8670181041826769,1,0.999947
0.887428185521159,1,0.999946
0.846822147646777,1,0.999516
0.8027426181097503,1,0.999944
0.812939238216384,1,0.999877
0.7985628727504418,0,0.999142
0.9131041978276532,1,0.999828
0.9165619608653306,1,0.999946
0.9145867527051854,1,0.999946
0.8457037428409993,0,0.998292
0.8346443900558465,1,0.999894
0.8283167978006394,1,0.999949
0.8103247475223456,1,0.999944
0.8262070982770653,1,0.999737
0.7815660601262971,1,0.999893
0.9120809907770318,1,0.999949
0.8913370400190999,1,0.999947
0.900633155235021,1,0.999950
0.7733414187222407,1,0.999947
0.9083617190237288,1,0.999898
0.8712306801457487,1,0.999780
0.8661132627508765,1,0.999953
0.8607255585393768,1,0.999946
0.7786099601159889,1,0.999894
0.9050344036863918,1,0.999948
0.942972700403735,1,0.999940
0.9088083742971323,0,0.999312
0.839175015552278,1,0.999944
0.8351838589152494,1,0.999936
0.9471075319056966,0,0.999184
0.8478192979872237,0,0.998350
0.9521695560569461,1,0.999934
0.885674031841174,1,0.999880
0.940043631941348,0,0.994447
0.8861299236076675,1,0.999481
0.914077936236884,1,0.999737
0.8795814592985729,1,0.999902
0.9463899800230782,1,0.999943
0.8410877443231058,1,0.999449
0.8700611226234825,1,0.999947
0.9144165364923368,0,0.997338
0.8670805468706669,1,0.999897
0.9090282139394862,1,0.999950
0.8420197017203731,1,0.999892
0.8617380526134069,0,0.998707
0.9253698681077758,1,0.999898
0.8788716539365116,1,0.999892
0.8327175056349372,1,0.999837
0.8019790919053955,1,0.999875
0.8807303131233117,1,0.999948
0.8655264184853446,1,0.999946
0.873711174208633,1,0.999944
0.859332852064526,1,0.999836
0.8621314343079594,1,0.999898
0.8432536806350102,0,0.994565
0.8700112243154927,1,0.999946
0.8489834934284303,1,0.999944
0.8108922004334489,1,0.999946
0.8395277094393744,1,0.999948
0.8935054354025826,1,0.999942
0.867234762835645,1,0.999946
0.7925615984012787,1,0.999946
0.757630165931911,1,0.999897
0.8536832067236574,1,0.999944
0.8612457714888915,1,0.999835
0.8480000383064251,1,0.999947
0.85426634118989,1,0.999428
0.7905118045952165,1,0.999938
0.8138530729160065,1,0.999888
0.8466342949251644,1,0.999841
0.7163728654201885,1,0.999943
0.8282069870088833,1,0.999712
0.7427714352797824,1,0.999613
0.8809947915579599,1,0.999421
0.8171274584530328,1,0.999946
0.8693504141347348,1,0.999842
0.9040858640334378,1,0.999945
0.7840487840713043,1,0.999949
0.8300700965830626,1,0.999799
0.7801374535351763,1,0.999892
0.8139859342234036,1,0.999952
0.8709109865856675,1,0.999889
0.8854707915628347,0,0.997876
0.8080061871142827,1,0.999946
0.7603582205601748,1,0.999948
0.7733893296522281,1,0.999823
0.9036824475159367,1,0.999780
0.8123833045717708,1,0.999944
0.8398501369102936,1,0.999844
0.8513384934292554,1,0.999798
0.8630832207283835,1,0.999614
0.8254688953865011,0,0.998725
0.8227718679026559,1,0.999895
0.8146612541053809,1,0.999792
0.8076932491749154,1,0.999944
0.8198202477742601,1,0.999778
0.7658054304666168,1,0.999758
0.7289263175889942,1,0.999806
0.8792264276412016,1,0.999937
0.885625227819465,1,0.999894
0.9113629527196924,1,0.999891
0.870469458492471,0,0.997166
0.8759187615442268,1,0.999828
0.8565074560037782,1,0.999947
0.9150336173423949,1,0.999944
0.8904707387958741,1,0.999889
0.7326809567050472,1,0.999894
0.8264635865797504,1,0.999770
0.8041431062325073,1,0.999824
0.8107605544441308,1,0.999880
0.8807903614556276,1,0.999945
0.892495886843625,1,0.999938
0.8638243362421925,1,0.999945
0.8686005804910146,1,0.999894
0.8500639007361094,1,0.999833
0.8534430834765668,1,0.999948
0.836301979934613,0,0.998895
0.7665172824437462,1,0.999885
0.8764134872963353,1,0.999828
0.8297057770567225,1,0.999895
0.7770130372041613,1,0.999489
0.8490907213169353,1,0.999946
0.8429034033295957,1,0.999893
0.7752077020996893,1,0.999945
0.9112381070702058,1,0.999897
0.845024755727855,1,0.999942
0.8321710569972087,1,0.999789
0.9221730912018731,1,0.999839
0.8101113203588299,1,0.999947
0.8813146616853642,1,0.999844
0.8636470477919105,1,0.999945
0.8109190368069932,0,0.991273
0.7767331127242764,1,0.999946
0.7873781023380588,1,0.999889
0.8700964720766454,1,0.999944
0.879159075286952,1,0.999887
0.8347429615604773,1,0.999943
0.8174687466887329,0,0.998560
0.7129448667269578,1,0.999849
0.8579711172694315,1,0.999778
0.8252408507497294,1,0.999945
0.8309147514416215,1,0.999946
0.8400603269637985,1,0.999948
0.7141276669222257,1,0.999880
0.7593869494153983,1,0.999897
0.8076092428180981,1,0.999897
0.8838928807325864,1,0.999946
0.8758650933376821,1,0.999950
0.8012340901407351,1,0.999890
0.789188976232464,1,0.999536
0.7092208040119985,1,0.999445
0.7656272411228765,1,0.999891
0.7624994959318134,1,0.999874
0.6989602339866173,1,0.999943
0.80850928376392,1,0.999946
0.8533818249363361,1,0.999943
0.7481245393351051,1,0.999720
0.7658019683408316,1,0.999742
0.7741297638491896,1,0.999834
0.8919122254219638,1,0.999947
0.8486355460186331,1,0.999892
0.8379472578159182,1,0.999947
0.8824843206564277,1,0.999892
0.8523738524447668,1,0.999946
0.8599046269127836,0,0.999044
0.8163221931513196,1,0.999847
0.8459106485042399,1,0.999947
0.8422219885316147,1,0.999935
0.7928060435787656,1,0.999949
0.8830893400876711,1,0.999942
0.8351114150282484,1,0.999945
0.7692844286085062,1,0.999605
0.8157944767410431,1,0.999944
0.7622044831927685,1,0.999947
0.8113006175208793,1,0.999948
0.8499844427057975,1,0.999948
0.7983741925191385,1,0.999897
0.7453301083135759,1,0.999947
0.8027985572659696,1,0.999941
0.8186147032177985,0,0.999284
0.8306221742851799,1,0.999835
0.8203521336432454,1,0.999948
0.7714062596189086,1,0.999738
0.8173186556683903,1,0.999942
0.7381215369429628,0,0.997296
0.8173202450948192,1,0.999939
0.8250864103049227,1,0.999588
0.7181843812230881,0,0.999169
