NaN,0,0.089813
-0.010962879641900345,0,0.839053
-0.010544963146257028,0,0.838293
-0.014271196560522465,0,0.837836
-0.015634963285306207,0,0.830795
-0.03412253960530597,0,0.431750
-0.03412253960530597,0,0.037390
0.9275801467058896,0,0.999190
0.9734714810330214,0,0.993408
0.9734714810330214,0,0.998812
0.9757910174308728,0,0.998490
0.9524339606857563,0,0.999765
0.9524186837632789,0,0.998918
0.9524186837632789,0,0.999842
0.459364553046585,0,0.989489
0.4917045495495027,0,0.990435
0.8454045860719114,1,0.999905
0.8370951204586928,0,0.999731
0.7082068340703637,0,0.972889
0.7389937434007239,0,0.186571
0.6736832272271093,1,0.999954
0.6313747035683672,0,0.999622
0.7295632510658112,1,0.999987
0.766001328439728,0,0.995707
0.8050994670946068,0,0.999901
0.6568452539751436,1,0.999975
0.7279036014701165,0,0.999324
0.5336352247175511,1,0.999905
0.729110296957972,1,0.999984
0.6664845242596378,0,0.998529
0.6663382191175816,0,0.996815
0.6590688387110477,0,0.999223
0.6253735921729223,0,0.998554
0.2854963199454419,0,0.999706
0.46422239314036584,0,0.913435
0.6923473374236757,1,0.999994
0.6921877542410295,0,0.999671
0.6840032074104923,1,0.999991
0.8558083850761584,1,0.999994
0.8503630345122059,1,0.999945
0.6832544323887945,1,0.999989
0.8889811877198928,0,0.999695
0.8893854707918324,0,0.999280
0.7398075372479218,1,0.999994
0.5179172460027379,1,0.999969
0.3893261012513952,1,0.999935
0.8015802042664301,1,0.999949
0.8017670204459213,1,0.999992
0.6382016430929252,0,0.830380
0.9337180854123017,1,0.999989
0.757597464771772,1,0.999993
0.4963240364164818,0,0.999228
0.6394743728640387,1,0.999962
0.5424406175864188,0,0.992361
0.6699505350333863,1,0.999988
0.8808426851507664,1,0.999990
0.9255169698049531,1,0.999992
0.9033517535759473,0,0.999833
0.7283102031143694,1,0.999973
0.7241081542322686,0,0.999816
0.5775294427963479,1,0.999986
0.8949507899985322,1,0.999966
0.7438240192282715,1,0.999992
0.5208173905473683,1,0.999984
0.6356722058225822,1,0.999988
0.7479683677623288,0,0.986720
0.7994591693189271,1,0.999813
0.8637648641660313,0,0.999845
0.8688589459565506,1,0.999969
0.8517383422228589,1,0.999964
0.9245940777298945,1,0.999986
0.9384244043019515,1,0.999942
0.6744265050326416,0,0.999252
0.7694376173623892,0,0.999921
0.5922830927837693,0,0.996785
0.6223020218206793,0,0.999262
0.7939357784728207,1,0.999927
0.8529221235312628,1,0.999959
0.7345782172708819,0,0.999181
0.7602271358763716,1,0.999978
0.8292352517260843,1,0.999973
0.7718401267656121,1,0.999983
0.8276680691974899,1,0.999978
0.669050308310983,1,0.999991
0.9443178523638903,1,0.999991
0.6097141039106603,1,0.999954
0.8209743934957859,0,0.999271
0.8039991048831943,1,0.999993
0.7469038598096438,1,0.999935
0.8276807102929797,1,0.999960
0.9391568188741035,1,0.999959
0.9161854006297827,1,0.999858
0.9471622189415818,1,0.999992
0.7139634945488514,1,0.999931
0.7888669887762179,1,0.999936
0.8091204400608899,0,0.999835
0.6262074484651782,0,0.999649
0.8904175117614049,1,0.999988
0.9397962225034631,1,0.999301
0.9688248640366822,0,0.999862
0.755617742201468,1,0.999984
0.7999233114366888,1,0.999992
0.9398131036824706,1,0.999984
0.9323270649213221,1,0.999992
0.8539324596399945,1,0.999977
0.7064370526029586,1,0.999992
0.3166630038865932,1,0.999984
0.791503409199479,1,0.999992
0.8124174276177063,0,0.943889
0.4501761466809652,0,0.944008
0.376184957794263,1,0.999986
0.7306934639870224,1,0.999979
0.7131785911654869,1,0.999991
0.5211594646625463,1,0.999979
0.8389139756857099,1,0.999908
0.9039631129712523,1,0.999976
0.7889618407618489,1,0.999982
0.538943475938334,1,0.999992
0.8857309051874992,1,0.999867
0.9035853901351513,1,0.999955
0.9424400676639697,1,0.999959
0.9513952857627281,1,0.999992
0.5709299040720992,0,0.998497
0.9529600734329339,1,0.999930
0.9536830683244805,0,0.999526
0.9565084081350814,1,0.999906
0.9366243876191316,0,0.999899
0.5591484379014633,1,0.999891
0.8789050422480955,1,0.999991
0.7442286443648403,1,0.999990
0.7139548779091782,0,0.999884
0.7924199470889266,1,0.999903
0.8075189875093531,1,0.999952
0.9275864737536881,0,0.998730
0.9852254495968021,1,0.999943
0.9075192721361548,1,0.999797
0.91749963382514,1,0.999942
0.9156847375854783,1,0.999964
0.8764377830125709,1,0.999992
0.9604919638599835,1,0.999992
0.7670387081468487,1,0.999972
0.8819860600007415,0,0.999741
0.9033202661701982,1,0.999929
0.9484547128228401,1,0.999929
0.9417472876231711,1,0.999980
0.47601419955689295,1,0.999982
0.8850965748664598,1,0.999986
0.9170225375932195,0,0.999751
0.8753232935474635,1,0.998883
0.824699766840357,1,0.999695
0.9115860872769538,1,0.999987
0.7111389872960876,1,0.999987
