-0.018097367403655425,0,0.003760
-0.019100043933408008,0,0.519643
-0.013933527907844589,0,0.471274
4.960785914142934E-4,0,0.466699
0.01888119693507145,0,0.885451
0.018513425597328444,0,0.459067
0.013698525964936762,0,0.211806
0.02066470659476535,0,0.735980
0.04633629145569436,0,0.729563
0.04964769036831268,0,0.637005
0.04942779103112083,0,0.485960
0.06330747827319401,0,0.878385
0.07592073197191292,0,0.872712
0.07663573507373415,0,0.872484
0.07417222414233757,0,0.851794
0.07417222414233757,0,0.001827
0.07016544903788317,0,0.247633
0.06951833840638401,0,0.002584
0.07060877943420718,0,0.265405
0.05312306688999041,0,0.594877
0.040912825723078326,0,0.602038
0.040645970099943814,0,0.483273
0.0030141675680145498,0,0.998091
0.025374550421236968,0,0.583333
0.16813152341965973,0,0.917958
0.16812830959695493,0,0.916462
0.16807887339838176,0,0.916390
0.1680656605811384,0,0.916327
0.1680656605811384,0,0.537622
0.1680656605811384,0,0.912927
0.1668411434357009,0,0.637763
0.16543024862572353,0,0.910954
0.16540559546495825,0,0.941458
0.16538573805714543,0,0.970038
0.16538573805714543,0,0.861643
0.14061498710072565,0,0.870604
0.14061899989692753,0,0.497986
0.14055436321666723,0,0.544429
0.14055436321666723,0,0.456780
0.140676239619226,0,0.450430
0.13691011405685102,0,0.453705
0.1367027119711182,0,0.451178
0.13467349076535026,0,0.315891
0.1325965305639087,0,0.291926
0.06128927595717968,0,0.394209
0.026079218912628814,0,0.952118
0.07592321272275646,0,0.939754
0.08223694772058607,0,0.617427
0.09720029236719148,0,0.618723
0.09845545961596999,0,0.463714
0.09988306663001871,0,0.567267
0.10425479548704349,0,0.934050
0.10149710542307593,0,0.468660
0.06132559266675515,0,0.941477
0.061857141557944355,0,0.999867
0.0837559400650174,0,0.813467
0.11673914992311048,0,0.891280
0.1236450361947005,0,0.912584
0.08710755557101864,0,0.892099
0.13981429262897818,0,0.970808
0.14505438912930627,0,0.998179
0.13203085998431896,0,0.999523
0.16908930267636882,0,0.879292
0.15998514531259964,0,0.973917
0.16638894345334462,0,0.943680
0.16572222646814452,0,0.894741
0.10513340580439569,0,0.620797
0.07139413922828955,0,0.880215
0.10743068952170438,0,0.889192
0.10739700965675138,0,0.999698
0.11659185529216158,0,0.949453
0.12455387891971122,0,0.437906
0.09355478807056551,0,0.407834
0.04280270258793512,0,0.571611
0.03681298178834586,0,0.949571
0.036625763999016396,0,0.968067
0.030603083135154197,0,0.929918
0.07019936196669056,0,0.930034
0.0716925024083423,0,0.939897
0.09226632364175952,0,0.942934
0.09676372621980585,0,0.919936
0.10388330095974234,0,0.924184
0.11329093672346514,0,0.901460
0.10807110670772206,0,0.927831
0.13488147142999896,0,0.986309
0.16110213066592569,0,0.998083
0.16579499425630534,1,0.999984
0.16494186413964798,0,0.998141
0.1666364021032892,0,0.918622
0.16856081380296767,0,0.749167
0.19291571097783738,1,0.999961
0.18745392826393492,0,0.999553
0.21349261426193555,1,0.999994
0.23863991778682583,0,0.995672
0.24421985438225716,0,0.927573
0.24417306892126733,0,0.955076
0.272821285938204,0,0.917909
0.20117903822877614,0,0.962072
0.10814874476749499,0,0.774602
0.09179302096991261,0,0.521102
0.08117243868319081,0,0.442393
0.05764307331744181,0,0.444932
0.04457899886072893,0,0.431665
0.04708981217374203,0,0.988107
0.03240711354501763,0,0.411794
0.024174435940750246,0,0.432026
0.012065260281612832,0,0.478640
0.051988565648591244,0,0.856425
0.055378217056791634,0,0.881541
0.05694582381908577,0,0.612981
0.054925369384389064,0,0.996985
0.05279903247521432,0,0.229370
0.0433951890156504,0,0.484973
0.13680107558135876,0,0.854715
0.14539135509153872,0,0.973904
0.14541092007586232,0,0.853726
0.14542528000140084,0,0.852441
0.14173445359995127,0,0.586881
0.1363002993208033,0,0.488123
0.06308720140621003,0,0.996042
0.15335643220169548,0,0.868269
0.16869157929652037,0,0.996791
0.16422475158393074,0,0.709158
0.15428033017495943,0,0.895455
0.1511316363651382,0,0.531386
0.14622560591684647,0,0.579044
0.14039555592531341,0,0.477520
0.15379576945313336,0,0.995515
0.15798837532157622,0,0.997420
0.15694811414852924,0,0.417566
0.15963726727870475,0,0.853176
0.1457248498149158,0,0.478425
0.04986863463800004,0,0.936700
0.049714414360231045,0,0.886943
0.049714414360231045,0,0.785965
0.04631106952130413,0,0.608094
0.042235688105552775,0,0.226473
0.037820614789374735,0,0.685986
0.14150680665387738,0,0.998026
0.14568328806621275,0,0.992815
0.16459479860554316,0,0.820730
0.1511578791760973,0,0.448827
0.14725108903986264,0,0.906556
0.1472348636109395,0,0.582203
0.10528019514206467,0,0.999436
0.11190479919710004,0,0.554388
0.1772753483693799,0,0.995035
0.2293069002160379,0,0.882308
0.2293076235332439,0,0.995384
0.2532410698153896,0,0.995665
0.26244652706855837,0,0.825550
0.33497249557434794,0,0.996293
0.20806390194534832,0,0.992804
0.18536783026416048,0,0.999626
0.11455415817774223,0,0.711915
0.13563437043669221,0,0.918819
0.12559326258772846,0,0.991458
0.12130074048709831,0,0.995376
0.14388912524653866,0,0.778309
0.12934034844275702,0,0.845315
0.11488569355601015,0,0.916339
0.10701608151986926,0,0.948168
0.09936115478987792,0,0.957059
0.09863087269782338,0,0.938677
0.10702911684731624,0,0.957495
0.12520228702215475,0,0.403604
0.17123856783291716,0,0.939390
0.1710264818277129,0,0.942608
0.1618102643299682,0,0.884075
0.14677492442446402,0,0.929075
0.14677492442446402,0,0.569459
0.15118219031924426,0,0.999135
0.1334177574348592,0,0.998308
0.12808730065784743,0,0.995381
0.1422023936583165,0,0.803977
0.14208168502245114,0,0.219005
0.14284715934513814,0,0.998651
0.04114196843921682,0,0.441201
0.029225280271362033,0,0.583820
0.024518722141816274,0,0.590630
0.02294793137401903,0,0.184629
0.04441583979361967,0,0.997155
0.061743948662079294,0,0.453565
0.06605113521726806,0,0.968974
0.03903609516986834,0,0.968359
0.05274016292848467,0,0.930402
0.053303731351271505,0,0.929641
0.052351626278005076,0,0.931183
0.04882430972103619,0,0.993104
0.05204987277148726,0,0.368505
0.0953296885738992,0,0.655877
0.09991625736219108,0,0.423352
0.08741272079609894,0,0.992899
0.026276857580101728,0,0.530001
-0.0038601947716890702,0,0.964042
0.007062326792830784,0,0.634903
0.020693852905478947,0,0.733590
0.02167060469531759,0,0.936602
0.06849127894646967,0,0.846231
0.12445230372765728,0,0.869193
0.16502912128474168,0,0.883516
