0.9425131764831027,0,0.893134
0.9425131764831027,0,0.891042
0.9425131764831027,0,0.890140
0.9425131764831027,0,0.893871
0.9425131764831027,0,0.896669
0.9425131764831027,0,0.916156
0.9425158881623155,0,0.957823
0.9384844216623165,0,0.999838
0.8434785447690258,1,0.999986
0.9322895507969438,1,0.999866
0.9241087141729718,0,0.993286
0.9125768316315931,1,0.999863
0.9041587575859433,1,0.999993
0.9063448653769034,0,0.999882
0.910204382836264,1,0.999954
0.9163806621334647,1,0.999967
0.8826443449327496,1,0.999993
0.7937989024820189,1,0.999991
0.8884212165341303,0,0.206826
0.9457993704642342,1,0.999992
0.8851125990206153,1,0.999991
0.9580494126173047,0,0.999651
0.943709727079969,0,0.813495
0.9837787696960344,0,0.999907
0.9258910918871941,0,0.896852
0.9694028585810102,0,0.998887
0.9816846333825504,1,0.999994
0.9819642885127298,1,0.999991
0.8826939968690904,0,0.998724
0.9634826405231073,0,0.549249
0.9480063243239933,0,0.127004
0.8972641809674855,0,0.990653
0.826860482074789,1,0.999994
0.85607489285746,1,0.999994
0.8376445143835093,1,0.999990
0.9333214650330744,1,0.999987
0.8837701053932406,0,0.994841
0.9123531553288862,1,0.999989
0.9127086860255273,1,0.999995
0.9073136833870735,0,0.489808
0.9710237168072258,1,0.999990
0.9752819187560021,1,0.999988
0.954972823742147,1,0.999981
0.9713408729694122,0,0.999625
0.9678897138807526,1,0.999990
0.9477437059578724,0,0.999826
0.8322266411849226,0,0.542716
0.9952119630881213,1,0.999995
0.9459483054150023,1,0.999995
0.7870838650640366,1,0.999970
0.7933524531230012,1,0.999984
0.9262826890864182,1,0.999904
0.8934695269193808,0,0.191005
0.8718192278141338,1,0.999992
0.8812630562508168,0,0.180463
0.8082184456420505,1,0.999994
0.8144761327973941,0,0.999729
0.8295753726660924,1,0.999994
0.9407725717726241,1,0.999991
0.9413951461708095,1,0.999991
0.9423721152084654,1,0.999991
0.9435817757882409,1,0.999991
0.9450392761137244,1,0.999991
0.9467387972746479,1,0.999991
0.9486464285101907,1,0.999992
0.9506981756763562,0,0.190884
0.9528060447397487,0,0.193548
0.9541939387913353,1,0.999990
0.9561805524689132,1,0.999990
0.9579862639986361,0,0.110337
0.9611315750391936,0,0.181795
0.9038508843040465,0,0.997505
0.9410302926567854,0,0.963827
0.8010629580775069,1,0.999954
0.9522815396823328,0,0.912197
0.9696666835926332,1,0.999983
0.9841018616262127,1,0.999990
0.9350629065083225,1,0.999995
0.9911725842139925,0,0.999709
0.9686909074427111,1,0.999984
0.958061743003586,0,0.997946
0.9514994563521851,0,0.993914
0.9422435405709522,0,0.999895
0.984791050025203,1,0.999994
0.8658707401395257,1,0.999992
0.9890608183603196,1,0.999980
0.9041194608350814,1,0.999992
0.9193868554009013,1,0.999993
0.9203339360451028,0,0.923581
0.9609859359754928,1,0.999984
0.9143384304255415,0,0.968374
0.9123421802251886,0,0.968721
0.9102101687176878,0,0.969119
0.9082089247244476,0,0.969380
0.8839621329389675,1,0.999994
0.8973780749075447,0,0.937327
0.9047166320819094,1,0.999989
0.9498894429937772,1,0.999994
0.9513930341505202,1,0.999994
0.9387306414660515,1,0.999993
0.9719819311160744,1,0.999995
0.9853843222051896,1,0.999994
0.9832231403725128,1,0.999993
0.8791531519080484,0,0.998877
0.9376847079990369,1,0.999992
0.9514848021629865,0,0.998709
0.9453482777158879,1,0.999978
0.8840203832281307,0,0.959509
0.963667950156861,1,0.999983
0.9819481781863384,1,0.999995
0.9853948845275481,0,0.999741
0.9828555880792995,1,0.999993
0.9492299728058056,0,0.907245
0.9485961129812147,0,0.930284
0.9493865421001227,1,0.999964
0.966543891257678,1,0.999992
0.9336456809370204,1,0.999979
0.937704620776798,0,0.999473
0.931999737078777,1,0.999995
0.8432098547650339,1,0.999994
0.9408923981260466,1,0.999985
0.9766247716613984,1,0.999995
0.9630479111335074,1,0.999995
0.9162078386033163,0,0.948532
0.9178455357620124,1,0.999993
0.915939562714868,1,0.999994
0.9362273764375295,1,0.999995
0.9445186884922712,1,0.999994
0.8953715915754686,0,0.999872
0.9564112807607091,1,0.999987
0.4979114924261653,0,0.984674
0.8643666862038062,0,0.926556
0.8230463204905031,0,0.985969
0.8901998536834018,0,0.992028
0.9196894473161149,0,0.932153
0.8884992150349349,1,0.999984
0.8843713305391099,0,0.999396
0.9882993048388516,1,0.999991
0.9774018134853051,1,0.999993
0.9232010421142233,0,0.940028
0.9965337678842728,1,0.999993
0.9536233249287955,1,0.999992
0.9883128881035566,1,0.999994
0.9801869162271231,0,0.999530
0.9814574875190264,1,0.999994
0.9761254087152593,1,0.999994
0.9510041367113584,0,0.932972
0.6703770103664032,1,0.999968
0.8699826824718122,0,0.999876
0.9847183765010583,1,0.999995
0.990694607133452,1,0.999993
0.9837070256268261,1,0.999994
0.8883934831911764,0,0.942690
0.9394077479989541,1,0.999976
0.901837863001892,0,0.999511
0.945050995754651,1,0.999993
0.9527735847143222,0,0.999553
0.9644096365690192,1,0.999991
0.9358775801608213,1,0.999995
0.9466606143786803,1,0.999993
0.9759200546745186,0,0.999873
0.9843113830108075,1,0.999993
0.9791575665768275,1,0.999995
0.9935793904609903,1,0.999995
0.9349150261414726,0,0.999769
0.9387456922656766,1,0.999994
0.6659634649659816,1,0.999994
0.6680158005015564,1,0.999984
0.7635741081207752,0,0.965127
0.9076530740479029,0,0.999191
0.9613569189875216,1,0.999992
0.8360373480670166,1,0.999994
0.9059140139798241,1,0.999991
0.9884786322158624,1,0.999975
0.9703482974944088,1,0.999984
0.9511463833273988,1,0.999986
0.8389632046632766,0,0.950192
0.8082211020481546,0,0.984679
0.9551858063793724,1,0.999994
0.946145675459241,0,0.992182
0.9262826252121829,1,0.999994
0.8896111982571093,1,0.999994
0.9192205012575343,1,0.999995
0.9288396984816514,0,0.999873
0.8747101380052091,1,0.999991
0.8283310220524218,0,0.963179
0.8736819090987915,1,0.999994
0.8450699997269232,1,0.999994
0.8079963577506454,0,0.961374
0.9893770350346142,1,0.999995
0.9825829109891454,0,0.999264
0.9604709276596779,1,0.999994
0.9674559063113376,1,0.999993
0.9518328158489203,0,0.999819
0.905225056564523,1,0.999993
0.948963164761837,1,0.999994
0.9669324793335384,1,0.999994
0.9508319041297496,1,0.999983
0.9612933483365025,1,0.999983
0.6979504138197079,1,0.999994
0.894555881621684,1,0.999949
0.8597135036019369,0,0.999680
0.9631740915613513,1,0.999975
0.9352187788024713,1,0.999991
0.9378338573433228,1,0.999994
0.9366515213517405,0,0.999863
0.9454602698226229,0,0.967882
0.8721016608256206,1,0.999992
0.8729019763550289,1,0.999992
0.840281145759976,1,0.999991
0.9331229889814014,0,0.997801
0.9826527452833239,0,0.980553
0.9904001302048772,1,0.999992
0.9767485232236088,0,0.999919
0.9677955150487652,1,0.999994
0.9529772699361017,0,0.971616
0.9497109683977011,1,0.999991
0.8957084657136054,1,0.999993
0.9242197909575405,1,0.999987
0.9337941779590836,0,0.920288
0.8642018842346709,0,0.951277
0.973003263905335,1,0.999989
0.9689295313875499,0,0.964528
0.9394378399040266,1,0.999945
0.946300194920512,1,0.999990
0.9746080513119906,1,0.999991
0.9778968743482742,1,0.999991
0.985026873923577,0,0.999617
0.9826999474558198,0,0.938050
0.9483557883933024,1,0.999993
0.9476980182740631,1,0.999992
0.9386321597641037,0,0.978539
0.9844215708334207,1,0.999961
0.8498742017203189,0,0.941254
0.9720784755538644,1,0.999994
0.9716246009482964,1,0.999992
0.9605799551356565,0,0.950834
0.9674244112009917,0,0.920602
0.9661002295850633,1,0.999994
0.8558219866436948,1,0.999994
0.8415592357583918,1,0.999995
0.9823312636705465,1,0.999995
0.9842817549407045,1,0.999995
0.9245498214956938,1,0.999992
0.8809702105069869,0,0.990535
0.9160459311553275,1,0.999990
0.9240518008249513,0,0.999869
0.9451373570211682,0,0.944083
0.9452992334427558,1,0.999993
0.9590859178462662,1,0.999972
0.9537370197098612,0,0.917530
0.9412403871355858,1,0.999977
0.9338689974066188,1,0.999991
0.9699238677221074,1,0.999993
0.9699159009845016,1,0.999959
0.9544933403291035,1,0.999993
0.9545218094572021,0,0.999899
0.9546381389735745,1,0.999993
0.9549439772431192,0,0.924271
0.9555801063599956,1,0.999993
0.9571245558406851,1,0.999993
0.9586866145311013,1,0.999993
0.9600196711375645,1,0.999993
0.9302800180152037,1,0.999992
0.9328280995347411,0,0.985594
0.9320834511815996,0,0.999819
0.9332074024227218,0,0.998674
0.9888265248675647,1,0.999994
0.9777419048677483,0,0.999416
0.9722748840180824,1,0.999952
0.9213342108524029,1,0.999983
0.9042169506378811,0,0.928363
0.8454225343759816,1,0.999993
0.8583429192446891,0,0.999493
