-0.01713594451344634,0,0.003762
-0.01630227444077282,0,0.243771
0.6252490780559127,1,0.999993
0.8180118605845195,1,0.999994
0.9596733155907635,1,0.999994
0.9500639066207459,0,0.003038
0.869663146944099,1,0.999946
0.8469740215512134,0,0.003103
0.6209248569882143,0,0.997463
0.5883589554461618,1,0.999935
0.6900095398473182,0,0.997476
0.8445737273492325,0,0.999776
0.8159505213846903,0,0.999164
0.8145489756384798,0,0.999556
0.7937665790242214,0,0.999418
0.399100146333176,0,0.999903
0.3991001464543385,1,0.999992
0.4015605133440387,0,0.999297
0.3720743778090333,0,0.999695
0.18119534389062836,0,0.999580
0.1763381344863938,0,0.999232
0.17268199978448542,0,0.998167
0.1726646648137834,0,0.999157
0.16741337173977053,0,0.002004
0.1660210015339204,1,0.999906
0.3115409545448949,1,0.999970
0.45569114906382224,0,0.985744
0.6004829675176603,0,0.982666
0.6835834766673887,0,0.985460
0.7693263779742775,0,0.972955
0.7759970447386855,0,0.999766
0.731796623781229,1,0.999938
0.7053397712095035,0,0.999925
0.6872462945232963,1,0.999939
0.6857837282454928,1,0.999993
0.7989097784234014,1,0.999979
0.6487890160177504,0,0.999574
0.7462965663560865,0,0.999834
0.7855120517544726,0,0.999446
0.8121829028755708,1,0.999945
0.7713271298495208,1,0.999952
0.7679316641424688,0,0.998378
0.8744346905109764,0,0.984883
0.8091794168328359,0,0.991001
0.6809060140220471,0,0.999672
0.6459408186696893,0,0.991093
0.48264862813188425,0,0.997016
0.06838654501109681,1,0.999978
0.07588164396281279,0,0.999443
0.09506211533043306,0,0.997297
0.09516863998992407,0,0.995496
0.09514272818214221,0,0.989111
0.12022755687584484,0,0.986596
0.12911630698944754,1,0.999993
0.12926908262891285,0,0.978447
0.1683534730964383,0,0.998223
0.1671233299889416,0,0.977085
0.1765864319541404,0,0.997381
0.16822005673742002,0,0.995910
0.17119140754858692,0,0.990976
0.17617599162360134,0,0.978986
0.17930636207534317,0,0.988607
0.17899789409012454,0,0.996050
0.17873661286657627,0,0.988129
0.15091099440626085,0,0.997765
0.17941998894998165,0,0.989262
0.18264610193375572,0,0.997226
0.182617851917853,0,0.999728
0.182617851917853,0,0.989042
0.1844301378007266,0,0.976898
0.22806387674632228,0,0.988511
0.22806387674632228,1,0.999940
0.27744597184104874,0,0.999612
0.2824225438110149,0,0.975635
0.27554225540970867,0,0.999606
0.2769965125642075,0,0.999645
0.2556991433482376,0,0.991489
0.191175489814429,0,0.996543
0.304552279189577,0,0.990820
0.30889994859439834,0,0.999808
0.32517099298961544,0,0.999793
0.34892847419445927,0,0.992612
0.35751829683075875,0,0.999557
0.3623693666560546,1,0.999994
0.3574477922389014,0,0.992352
0.3637668775115366,1,0.999994
0.36175438443386926,0,0.994420
0.42575709103726506,0,0.999561
0.4097768268508785,0,0.999825
0.40759302471787556,0,0.999816
0.3908388160413079,1,0.999984
0.5056238134300587,1,0.999994
0.4742041134673943,0,0.997147
0.4597185554568867,0,0.996985
0.1951382192353517,0,0.999583
0.31344190408058126,0,0.992732
