0.07227745211194327,0,0.553947
-0.02661173379699819,0,0.818359
-0.04374522292278121,0,0.687097
-0.035011306995517986,0,0.813347
0.7561222776907766,0,0.938808
-0.005517270857769442,0,0.962156
-0.0364115265128987,0,0.537589
0.03185681625913456,0,0.880716
-0.06845947945977258,0,0.473868
0.6758939281740292,1,0.998276
0.882559507060725,1,0.991007
0.9255309863347415,1,0.996454
0.06281791763281995,0,0.915925
0.06933165986224712,0,0.918338
0.19135328264517892,1,0.996084
0.022784307374956826,0,0.731849
0.22028760258350125,0,0.957494
-0.0052669763299444585,0,0.905882
-0.04643621735056174,0,0.345570
-0.025455862895402602,0,0.634409
-0.0188184484933985,0,0.696774
-0.017512525330727155,0,0.714968
-0.029749152552341437,0,0.515640
-0.02825770360773371,0,0.554847
0.10606735513433874,0,0.956434
0.17972480341107058,0,0.432364
0.05540779554843759,0,0.811674
0.010533571070304048,0,0.909948
0.05436845064992975,0,0.939746
0.6322588253001798,1,0.996805
0.7509582556216622,1,0.997800
0.8661944190274279,1,0.989396
0.9539477065849256,1,0.996819
0.825153194265496,1,0.992505
0.849219655749729,1,0.993610
0.7603209974242683,1,0.992585
0.7395089477258501,1,0.992929
-0.04333574581934027,0,0.554455
-0.021793593761636226,0,0.975037
-0.027158459486878755,0,0.973490
-0.028570158225946527,1,0.985007
-0.028477713608524097,0,0.871747
-0.029382565956500413,0,0.799603
-0.03591623555795206,0,0.717391
-0.03485792862480978,0,0.631436
-0.033428826444730456,0,0.685408
-0.03318141759469311,0,0.784695
-0.022038644555372546,0,0.820480
-0.022361984462371757,0,0.946768
-0.02158018597386082,0,0.697211
9.050724840332493E-4,0,0.891832
-2.6144466600906794E-4,0,0.948608
0.2655292715491338,1,0.995935
0.1503230561514118,0,0.955882
0.14641658912986938,0,0.897260
0.8796030953603471,1,0.998935
0.8361049235480272,0,0.983087
0.8860846371523086,1,0.996812
0.8604731563412977,1,0.998938
0.8846888398548758,0,0.939181
0.9344334938942442,1,0.997881
0.0316896043927151,0,0.932535
0.00812298120548881,0,0.947769
0.038621159439935174,0,0.978655
-0.04147253094058965,0,0.569620
-0.06284525400124485,0,0.650224
-0.029839091283920177,0,0.918033
-0.025174778474671512,0,0.878158
-0.02586106305289535,0,0.910426
-0.020543670761985305,0,0.982379
-0.013508242251093431,0,0.953313
-0.007788232673934923,0,0.685882
-0.039060960702378224,0,0.598276
0.13990283504625636,0,0.801325
0.027724875329851732,0,0.885070
0.02554930039870734,0,0.568710
-0.02329045243279753,0,0.729364
-0.022400511640087908,0,0.897038
-0.016345251545679437,0,0.901484
0.9404584478100488,1,0.998641
0.9059241356667739,0,0.750000
-0.020772015334824114,0,0.886926
0.1032600867157697,0,0.801105
0.19785833228274044,0,0.898790
0.06375572066970313,0,0.900969
-0.01140317143403636,0,0.831288
0.016220872237308545,0,0.647282
0.05341751571370358,0,0.729499
-0.04161667570956358,0,0.231481
-0.0382887606125972,0,0.137931
-0.04684502331817174,0,0.189046
-0.02918762074337563,0,0.080851
-0.0317119077751972,0,0.036403
-0.02946478937867883,0,0.327808
-0.03501092364782016,0,0.194030
0.8547281708936766,1,0.978495
0.8267397929927307,1,0.998138
0.8164102076569912,1,0.980973
0.838778776718126,1,0.996063
0.9042574807567185,1,0.989189
0.6739107911675869,0,0.866913
0.6905387196768646,1,0.998363
0.7165200578243981,0,0.959220
0.6969898632601881,0,0.943289
0.7240249175022826,1,0.982979
0.8254197691402282,0,0.975309
0.6400694385058003,0,0.939781
0.7558576386794263,0,0.979008
0.4973894956638433,0,0.976967
0.5778643180832315,0,0.957118
0.6245833529696673,0,0.923358
0.6330722303577908,0,0.939163
0.7415929331665827,1,0.996344
0.7221892416137484,1,0.998120
0.7786185270524585,0,0.967153
0.718203192983011,0,0.969912
0.7942936653453222,1,0.991625
0.6504968562905035,1,0.988506
0.8666486340292328,1,0.998106
0.743050281667334,0,0.949917
0.8830860525777732,1,0.988848
0.8062226797333958,0,0.980800
0.7726784750909056,1,0.997807
0.8466352557385102,1,0.996422
0.88034591258053,0,0.965704
0.8488230747822167,0,0.927632
0.8791687145313368,0,0.969819
0.8008237869397422,1,0.997895
0.8970426242834378,0,0.963415
0.9114236164635796,1,0.995082
0.7206995544279978,0,0.978175
0.02915131070000447,0,0.949264
-0.0618377467809699,0,0.650000
-0.101854688891044,0,0.540052
0.8264221701618687,0,0.960245
0.29084853847058684,0,0.986742
0.6087529355693422,0,0.953028
-0.036573959110319125,0,0.764350
-0.07413281859428074,0,0.170829
-0.0423787496515872,0,0.031522
-0.052434926701284794,0,0.195938
-0.03865699424822598,0,0.114688
-0.028074288139382637,0,0.617761
-0.034711760786910704,0,0.857143
-0.03801457587171035,0,0.506702
-0.04554110539290712,0,0.625538
0.6957147884807546,0,0.958824
0.5619546215693378,1,0.998654
0.1727141415939888,0,0.932642
0.009935447885103622,0,0.811561
0.14397455555710123,0,0.965092
0.14620456745934493,0,0.914256
-0.031830454111348314,0,0.799228
-0.026013960012023853,0,0.702335
-0.024914544705245643,0,0.844961
-0.025780840487913043,0,0.850095
-0.03218199060467686,0,0.799465
-0.04376491661202277,0,0.465608
-0.030925167137550773,0,0.523035
-0.033828688158592926,0,0.906417
0.0035318396106494834,0,0.919903
0.9429270623886274,1,0.997531
-0.03816676453061435,0,0.771739
0.07751269328907327,0,0.665377
0.5461815550795085,1,0.996579
0.4874232637269687,1,0.998822
-0.05694287842339556,0,0.768161
-0.041738795407212696,0,0.194602
-0.03345498766579638,0,0.365900
-0.009211096351918741,0,0.683230
0.5314779344228663,1,0.988636
-0.025365306319797346,0,0.880779
-0.026224501218376297,0,0.958128
0.5234934354529425,1,0.976440
0.6704682306587996,0,0.970588
0.8481243936734466,1,0.984810
0.9198548654980859,1,0.995098
0.6999697217475758,0,0.961259
0.30678953243447055,0,0.951417
-0.03621359681725709,0,0.573113
0.0038789607593744026,0,0.949904
-0.03494126500502607,0,0.767516
-0.045401558833456486,0,0.122286
-0.03419217026321403,0,0.684911
-0.029353616873855477,0,0.815287
-0.021939458789733846,0,0.778481
-0.051224527829027165,0,0.553957
-0.04748521574304338,0,0.703704
0.12073604438670975,0,0.946602
0.10297350696438125,0,0.753906
-0.038405373528517105,0,0.880952
-0.04134304026606929,0,0.801762
-0.03393068940166591,0,0.605735
-0.02709571431839931,0,0.740466
-0.03332470143757308,0,0.039728
-0.013572008385113675,0,0.640237
-0.026473421472650083,0,0.699085
-0.02368745766444966,0,0.381885
-0.030904266377747562,0,0.806548
-0.03270736999312129,0,0.223150
-0.020444412316299107,0,0.877170
-0.03157543444828789,0,0.825417
-0.045988203096674875,0,0.494253
-0.042612877852972034,0,0.056604
-0.026346697785369116,0,0.831858
-0.05145759952867385,0,0.529138
-0.033259167527720186,0,0.144444
-0.036651220564498294,0,0.461310
-0.04650006454820237,0,0.404713
-0.03764610246316462,0,0.165701
-0.035558013810928525,0,0.266589
-0.03956799088910429,0,0.244621
-0.03363507471699112,0,0.310905
-0.03558103286582361,0,0.198758
-0.03352837675927305,0,0.664706
0.7815326041033438,1,0.995370
0.9125020670803033,1,0.990033
0.32120209429638874,0,0.952625
-0.06973234984156583,0,0.767372
-0.04126563083485289,0,0.656164
0.07872285012875918,0,0.734653
0.2542798497106575,0,0.973502
0.4910100901520991,0,0.983471
0.8352117215593496,1,0.998832
0.9212651220746881,0,0.972488
0.9393242750416366,1,0.996495
0.9366332406698094,1,0.998844
0.6662564716610768,1,0.994233
0.8303933271804617,0,0.983626
0.5724136157023649,1,0.996479
0.5513999991991276,0,0.959302
0.03890437601245482,0,0.900391
-0.05630274717659694,0,0.943144
-0.04285461516249921,0,0.663110
-0.05256059252703197,0,0.717042
0.14782854658618474,0,0.914647
-0.04827361832283109,0,0.096216
0.8268315729984842,0,0.959036
0.8555743861952246,0,0.733840
0.5124494003486457,0,0.969412
0.8929326603637948,1,0.992248
0.6197000706169238,1,0.998039
-0.04221677778127269,0,0.932857
-0.03762864741126175,0,0.985770
-0.05875791817971653,0,0.594512
-0.057593137279875445,0,0.128405
-0.05828162961570837,0,0.216484
-0.04248658190427712,0,0.239852
-0.06220266425591122,0,0.413706
-0.05901573592370922,0,0.343849
-0.07281103265873337,0,0.553603
-0.03682625550098795,0,0.070175
-0.042379950357071296,0,0.516032
-0.04102903656299522,0,0.477404
-0.06701367158896795,0,0.108815
0.7297307029185737,0,0.987642
-0.043612251261848214,0,0.797959
-0.03702234784322992,0,0.884498
-0.060397893548004324,0,0.685345
0.2686034238982681,0,0.978518
-0.04981932167271029,0,0.755102
-0.06456890499168687,0,0.746394
-0.05172856880312552,0,0.903766
-0.054692869232265275,0,0.861897
-0.04173028057700326,0,0.404028
-0.05220638895752713,0,0.055794
-0.06725595885554755,0,0.274348
0.31540084941011126,0,0.978386
-0.039461491771980106,0,0.890490
0.1935573173032244,0,0.965138
-0.05622322746375461,0,0.935393
0.19619087329853868,0,0.878788
0.6451360480869132,1,0.989605
-0.04713898249821241,0,0.770701
0.2520867528874299,0,0.942280
-0.044123773975806684,0,0.981623
0.5274874644178054,0,0.908957
0.4277543601773964,1,0.994126
0.7548259667798852,1,0.986790
-0.03235266489737952,0,0.749347
0.8438113272829858,1,0.991432
0.6817251173014891,1,0.996970
0.8931913709547704,0,0.984308
0.7212643972214539,0,0.942893
0.9431616116789839,1,0.997264
0.9399522183720616,1,0.992647
0.8170567673738078,1,0.990028
0.8986211309006243,0,0.982347
-0.06875525751188742,0,0.873518
-0.0663062739432949,0,0.877637
-0.05835562204760392,0,0.905350
-0.038062591302203866,0,0.502732
-0.09916078139990055,0,0.512857
-0.02954791281725477,0,0.533451
-0.04785142397039704,0,0.493182
-0.07129651795857622,0,0.198851
-0.05109682547570483,0,0.175610
-0.059633701606518,0,0.105206
-0.06865731681334389,0,0.022140
-0.06454516488135456,0,0.013431
-0.06137731954378972,0,0.349943
-0.06634644445675944,0,0.190999
-0.05619110411176994,0,0.524351
0.0301361758919803,0,0.488095
-0.0705430294873197,0,0.582734
0.32791756829005464,0,0.966330
-0.04198141560001016,0,0.194079
0.046594023597621936,0,0.731874
0.21086194891710325,1,0.991189
-0.03654595408217358,0,0.502463
-0.062123861866056576,0,0.396458
0.07243718793953245,0,0.684039
0.5598918959551312,1,0.993730
0.6492712840740686,0,0.914286
0.09105072793969819,0,0.892683
0.1622409299874163,0,0.923701
0.8353337261868106,0,0.979032
0.37996163231564534,0,0.962662
0.9187533800990331,0,0.944751
0.6400456020818006,0,0.958333
0.7554279202032156,0,0.969106
0.44740815643294224,1,0.983114
0.3247049225580601,0,0.895726
0.36812166136925906,1,0.996917
-0.0549024069293994,0,0.510490
-0.034598952941491214,0,0.527059
-0.03850081768681903,0,0.509950
-0.03818951091166285,0,0.749354
-0.05543061784205739,0,0.219668
-0.03859339654431017,0,0.558571
-0.03366469307075565,0,0.502216
-0.04248793237771851,0,0.628734
-0.030498708255962428,0,0.682819
-0.04757130489901254,0,0.277620
-0.06283795725086755,0,0.481840
-0.030641042839913757,0,0.511046
-0.0389154969843157,0,0.746774
0.1095659079201106,0,0.879032
0.04286447009992349,1,0.992114
0.05798250999174144,0,0.912181
-0.016954778305102162,0,0.714076
-0.06480334572973773,0,0.405220
0.06396977862651346,0,0.943463
0.0970023054484419,0,0.910217
0.08694490685894725,0,0.943925
0.10627420564479495,0,0.953039
0.18738335872902948,1,0.988732
0.47392816578513863,1,0.998192
-0.1017969460935469,0,0.333333
-0.03635848973401503,0,0.531027
-0.046021666031960506,0,0.318996
-0.0855078136074974,0,0.478605
-0.006543544090804624,0,0.612903
-0.009748369333867633,0,0.423077
-0.018564498175404228,0,0.577855
-0.07578518786132121,0,0.573574
-0.044185150328697693,0,0.587413
-0.11407196088641003,0,0.111266
-0.0416532278674945,0,0.327212
-0.0404521790537973,0,0.402098
0.517005835418455,1,0.992791
-0.03951719509214432,0,0.909742
-0.03846612690722167,0,0.800983
-0.04097487519294156,0,0.838480
-0.03888552490882205,0,0.832266
-0.03191614069280994,0,0.825032
0.05544797413573386,0,0.878893
0.07613419557900918,0,0.918671
0.28806666317450685,0,0.933962
0.1375581968600858,0,0.924551
0.17116830475171507,0,0.946301
0.7563532982809062,1,0.991150
0.9726767717412608,1,0.997628
0.9076432450415981,1,0.997785
0.8488330608172063,1,0.998896
0.7650405842940358,0,0.964730
-0.03688415654279773,0,0.960494
-0.04037899717353589,1,0.975369
-0.03340805600496078,1,0.978824
-0.042507076103020826,0,0.665860
-0.05343242098723213,0,0.481818
-0.03582119052294648,0,0.244389
-0.061893639419714326,0,0.315297
-0.05678666274168885,0,0.156118
-0.027558898682176015,0,0.136216
-0.05107888102237152,0,0.104167
0.21093930040702433,0,0.885057
0.009215288398014974,0,0.917808
0.8903723800611015,1,0.997191
0.8929726058151447,1,0.997151
-0.017389567955096205,0,0.878492
-0.026699412411495402,0,0.898305
0.09468529942402967,0,0.786885
0.15424606329922005,0,0.837061
0.05326566296965201,0,0.777500
-0.05646390995462581,0,0.458476
0.26461532802762344,0,0.717890
0.3362056295518662,0,0.977273
-0.015175266081654903,0,0.796085
-0.03525717198317498,0,0.550512
0.713628033114124,1,0.979730
-0.045155255643667326,0,0.659341
-0.025115558618661642,0,0.779845
-0.022724089988078747,0,0.757576
-0.03161885585023478,0,0.789474
-0.02738163001990502,0,0.631944
-0.03397679080234956,0,0.572387
0.12325814231021776,0,0.803170
-0.016218657415608934,0,0.950336
0.06452957435687884,0,0.913950
0.3998095724340642,0,0.892393
0.6761724599520011,0,0.972556
0.5242289868443896,0,0.987083
0.3233651828314438,0,0.948718
0.8387074917583485,1,0.998896
0.8519548543250688,1,0.996532
0.8948531538221448,1,0.996471
0.8936177839159603,1,0.998891
0.03195660184409297,0,0.815077
0.20239301563490664,0,0.894077
0.1697858069884628,0,0.895674
-0.03316664386026255,0,0.610329
-0.053296115783932334,0,0.879121
-0.04727015152172974,0,0.473154
-0.05160766382537489,0,0.191011
-0.041067545846168806,0,0.313984
-0.04289317037362116,0,0.250000
-0.03598040667865426,0,0.456633
-0.031665137436248394,0,0.532258
-0.04157433589725386,0,0.928113
-0.026661663717837708,0,0.273333
-0.020681563271217812,0,0.872914
-0.0544949850131278,0,0.429812
-0.030481424286969306,0,0.522042
-0.055620191065575246,0,0.183468
-0.037772999387428306,0,0.257479
-0.043114630860071834,0,0.186636
-0.044558084097560895,0,0.225547
-0.04461741555759717,0,0.262458
-0.04509498074224024,0,0.450108
0.3618393219837634,0,0.985839
-0.0034048416605963797,0,0.690265
-0.01142061368562046,0,0.823607
-0.07618915162913971,0,0.137002
0.2289133961357446,0,0.723987
0.11481778263100512,0,0.981982
0.2977110469553423,0,0.946809
0.33162772909698207,0,0.959916
0.3937714636473228,1,0.998901
0.6047832448823557,1,0.998962
-0.09102120736189362,1,0.958333
-0.08538890321269706,0,0.240924
-0.07814827282357792,0,0.240705
-0.08331511799231912,0,0.487751
0.19962462086361799,0,0.972826
0.4596798804965861,0,0.957933
-0.05540039454654787,0,0.581854
-0.03336124501439613,0,0.921260
-0.04172613882501985,1,0.972028
-0.055691222182678045,0,0.925287
-0.04065712689306426,0,0.625668
0.9630228624130336,1,0.998270
0.955405794026813,1,0.996694
0.8911984097365058,1,0.998314
0.9401361941396046,1,0.998319
0.8766687637197143,0,0.945848
-0.011880291253113656,0,0.574713
0.20782531203933544,1,0.990991
0.1485571068677957,1,0.998711
-0.032877874431445714,0,0.195312
0.57944067134062,0,0.771698
-0.015660726542920902,0,0.932489
-0.0029656910703454533,0,0.948124
-0.015274227468066549,0,0.966309
-0.029148491113673305,0,0.661896
0.6846718216529976,0,0.981343
0.7419102615688518,1,0.993932
0.71023201406034,0,0.975816
0.7222959833136315,1,0.994444
0.7568505735306044,0,0.982927
0.6300282000622142,0,0.982166
0.8685217286136954,0,0.907360
0.42565670225952174,0,0.936010
0.10473238534877505,0,0.937578
0.9173467431610874,1,0.999053
0.9272031585373045,1,0.997942
0.8825282767373736,1,0.998744
0.36303735219878264,0,0.733516
-0.05210521770111315,0,0.463068
-0.0560185154725173,0,0.942029
-0.04698435115491181,0,0.807899
-0.048079742866334145,0,0.359031
-0.04046113015365613,0,0.684959
-0.040527341009255397,0,0.622000
-0.031909395676370016,0,0.288965
-0.0305378890243997,0,0.386236
-0.03186238023770722,0,0.266874
-0.039480776592807715,0,0.355601
-0.03715080094056796,0,0.388718
-0.0365676113221578,0,0.402464
0.030943659612602755,0,0.795580
0.7077692419999014,1,0.992101
0.865646529097542,1,0.993166
0.46636502727971924,0,0.753346
-0.03208030080003134,1,0.975430
-0.00796357579217384,1,0.988201
-0.036755998587251426,0,0.606805
-0.03501175129715814,0,0.895879
0.07902765567310245,0,0.970775
0.19270158340307456,0,0.972222
0.8370131795979444,1,0.998601
0.11302587018957011,1,0.998682
0.42211159896171846,0,0.966921
-0.048133083794625,0,0.862595
-0.018495508586086524,0,0.904372
-0.02304250449468209,0,0.904564
9.558509786756572E-4,0,0.975362
0.03442097000327813,0,0.949772
0.05937641417589737,0,0.963247
-0.022968912819641373,0,0.854722
0.040262271058418134,0,0.727273
0.790260521639097,1,0.995657
-0.03801886113527888,1,0.979123
-0.03293591449606459,0,0.444902
-0.04697124252699404,0,0.092398
-0.044544000872786316,0,0.471330
-0.04921899050133457,0,0.433052
-0.05152083231669115,0,0.416473
-0.07129533684934178,0,0.258687
0.8118693275244492,1,0.992806
0.585550586705578,0,0.940594
0.6659620286335957,0,0.956938
0.7559665195082703,1,0.995506
-0.03958314500541496,0,0.927966
-0.10926349348307489,0,0.564904
0.028263843801081982,0,0.765753
0.02102709299252488,0,0.886740
0.06862434674342194,0,0.971114
0.32042652452679893,0,0.952765
0.17836767843610896,0,0.848276
0.2401468400100645,0,0.931663
0.3678953397703556,0,0.789055
-0.026683584012278622,0,0.962908
0.04425810361336942,0,0.900480
0.03849346351555098,0,0.795094
0.11775102330924533,0,0.959302
0.28072945098221447,0,0.949807
0.29091252499204817,0,0.826884
-0.0702344919829544,0,0.679803
-0.06148657003901994,0,0.272295
-0.0572778104603669,0,0.158382
0.06422010824454538,0,0.189815
0.13351974211909645,0,0.930464
0.4095605771110099,0,0.847115
-0.06496878328686359,0,0.940909
0.20005583925048973,0,0.544031
-0.006130081853707246,0,0.754300
-0.03910511422694741,0,0.644042
-0.04466351918496999,0,0.645763
-0.045020015881453546,0,0.398305
-0.0743293941021899,0,0.116780
0.08837921150952474,0,0.939052
-0.03229888746902703,0,0.715839
0.13313202662378942,0,0.875000
0.36307463173347954,0,0.961415
0.047914201227450076,0,0.830694
0.09912958771754542,0,0.944076
0.32881895650324466,0,0.985549
-0.031121575363898996,0,0.909910
-0.06821625770368532,0,0.414254
0.26522628900415013,0,0.684647
0.290978578722162,1,0.988943
0.4046240377097854,0,0.943953
0.2360530789709075,0,0.922876
0.3851356066434157,0,0.960526
0.8063901683943531,0,0.901484
0.8392461276596686,1,0.997506
0.16890817657117896,0,0.973418
0.28740368803176836,0,0.964677
0.728615608319489,0,0.972261
0.8763666481981279,0,0.964143
0.7219880224536098,0,0.969887
0.6672556885220153,0,0.947302
0.6352995669949694,0,0.967587
0.7323756498595623,0,0.974560
-0.08384371688804935,0,0.694097
-0.06784063105340413,0,0.924829
-0.06464837494884224,0,0.891304
-0.07892797433145471,0,0.519531
-0.06658923005211254,0,0.305164
-0.04167725826030975,0,0.037461
-0.03735097487924696,0,0.479762
-0.07748337077132382,0,0.120879
-0.05954935298765676,0,0.543956
-0.05095129971817134,0,0.387060
-0.09666994631970029,0,0.128818
-0.06103409065852598,0,0.037383
0.18932185308713792,0,0.972222
-0.0549411191254962,0,0.432008
-0.049453337781800055,0,0.425027
0.6687672332448522,0,0.929712
0.7151356047767776,0,0.958015
0.7708496149003682,0,0.948980
-0.061456524306717324,0,0.652835
-0.09492399428494992,0,0.535519
-0.05814243122626114,0,0.744681
-0.056675404887785025,0,0.790094
-0.06819573553868613,0,0.619632
-0.12057393883408563,0,0.552398
-0.03791078985128963,0,0.715302
-0.07871231719975028,0,0.138004
0.5621090710520641,1,0.990719
0.04918975134495802,0,0.982002
0.11388786894964772,0,0.929844
0.8370349953021203,1,0.989407
-0.015469154532434937,0,0.021583
-0.03328381813181495,0,0.759358
0.567374749483953,0,0.963816
0.7133205845996734,1,0.992888
0.7127558220701864,0,0.960630
-0.04527104012380183,0,0.813333
-0.08558473335645302,0,0.657627
-0.0731154339547562,0,0.615385
-0.06434615578931142,0,0.477124
-0.1034552551027692,0,0.928230
-0.03367834672244348,0,0.408451
0.11586397571193142,0,0.935691
0.0032852815899249536,0,0.934080
-0.08080041745536283,0,0.748466
-0.06524528497938151,0,0.041667
-0.07109420068705427,0,0.345413
-0.06396113829143116,0,0.066167
-0.06795045045555369,0,0.033679
-0.057644796478402545,0,0.174883
-0.06545922281618077,0,0.057179
-0.06994818561360991,0,0.199539
-0.04795121361762363,0,0.285876
-0.06762928227649756,0,0.189223
-0.06146528603195563,0,0.766022
-0.053006689836749075,0,0.331439
-0.03967975275077065,0,0.496420
-0.0577768993646947,0,0.391489
-0.08306454737520377,0,0.693182
-0.05777849536787844,0,0.363799
0.06962403412782207,0,0.974874
-0.045095663276973424,0,0.534161
-0.03425017265593059,0,0.534527
-0.022123833685504163,0,0.568905
0.08411561534435893,0,0.875862
-0.005533739486453929,0,0.787393
0.03522135407589706,0,0.810764
0.01637123151704631,0,0.844178
-0.10260652277822738,0,0.524752
-0.061898752037914034,0,0.403974
-0.0883795998935221,0,0.423676
-0.04383461871822548,0,0.468847
0.339962226239655,0,0.241237
-0.01428352481621002,0,0.897569
-0.11380652409549598,0,0.714765
0.10568113621005393,1,0.960526
0.19320946295693595,0,0.374165
0.1433650229186112,0,0.877953
0.013579645779762037,0,0.806134
0.13181054730465303,0,0.436275
0.1349361774156268,0,0.592539
0.011382044136845041,0,0.510917
0.007132877874945764,0,0.898855
0.06372036349262766,0,0.766625
0.5335763533069569,0,0.846381
-0.08643825422168258,0,0.450980
-0.031444850430130324,0,0.431472
0.3146096027188705,0,0.940937
-0.03179139262605571,0,0.378723
-0.03142057095985427,0,0.867470
0.2817733207420166,0,0.614489
-0.03490784781287865,0,0.287250
0.5925793151229305,0,0.860733
0.12049786835340048,0,0.558201
-0.039435247262079025,0,0.190355
0.4514895017319315,1,0.998353
0.12820857743345745,0,0.637333
-0.014151339885727249,1,0.990385
0.24896464254185774,1,0.992126
0.4913735125279975,1,0.964539
0.6575352412668292,1,0.852941
0.7558875254414307,0,0.985799
0.6648713893990292,1,0.998845
-0.0350082581645856,0,0.628722
-0.03854569867544952,0,0.708067
0.32365780683085865,0,0.737805
-0.03920606951417881,0,0.576471
-0.061217160622429906,0,0.875000
-0.05891172002541949,0,0.772727
-0.061583447096428795,0,0.249554
-0.07224164195538378,0,0.277325
-0.04214800809381129,0,0.099185
-0.042763252317369736,0,0.070423
-0.046258248216332,0,0.229226
-0.05277856001243352,0,0.533413
0.3286973018957496,1,0.988235
0.47816263930904573,1,0.954545
0.8325416731025711,1,0.996012
-0.07470927133971882,0,0.596980
-0.0076011561622653535,1,0.989677
0.005046321740851226,0,0.880512
0.7663744558005995,1,0.998901
0.5685755219099125,0,0.985651
-0.08292465187402852,0,0.664260
-0.05397691585342837,0,0.811189
-0.05839658446080849,0,0.841751
-0.05374199279382637,1,0.961538
-0.0596447729608045,0,0.607143
-0.03354671520824895,1,0.997494
0.83020171704908,1,0.997674
0.06369441334528775,0,0.868910
-0.04795173428558922,0,0.432892
-0.060230647189089666,0,0.556420
-0.04089235759784354,0,0.324000
-0.04852464206605071,0,0.128049
-0.05234584932852851,0,0.667006
-0.06965045835168514,0,0.349438
-0.05191385312954127,0,0.194483
-0.06773096588581434,0,0.406040
0.3059027586935453,0,0.778912
0.3674407438232163,0,0.731429
0.43619464137515807,1,0.996678
0.5879840682382768,0,0.901818
0.6473784198491295,0,0.954674
0.6747587766598083,0,0.977876
-0.07195415704286358,0,0.465587
-0.10779633056361589,0,0.157277
-0.12239637307500435,0,0.189583
-0.10866745675642912,0,0.288698
0.2580829409369973,0,0.729452
-0.022894727397357564,0,0.529625
-0.06271553958259699,0,0.349030
-0.0648857210515723,0,0.327720
0.08870231765271629,0,0.956057
-0.014274034741459439,0,0.917910
0.03158638886500143,0,0.761386
-0.04761410066585729,1,0.972414
-0.0438808285167977,0,0.849105
-0.030160683297542935,0,0.872587
-0.03871463843251233,0,0.316159
0.07924504783627288,0,0.633705
0.0882909547076293,0,0.943885
0.4539328115219243,1,0.998986
0.051464057132999154,0,0.858586
0.9474387600289776,1,0.997143
0.9605578655055251,1,0.997253
0.06482421356234594,0,0.734694
-0.02918564249114537,0,0.359722
-0.02155396737777861,0,0.530529
0.04040154557715127,0,0.887836
0.259753601311843,0,0.948468
-0.02964679376618521,0,0.912281
-0.030737623958308053,0,0.911348
0.27364934879239705,0,0.354322
-0.014447034554280105,0,0.727689
0.010494261626947204,0,0.848550
0.04408638409059015,0,0.941810
0.11667358753367313,0,0.875581
0.25968742021247304,0,0.906009
-0.04110167493590476,0,0.634078
-0.040353751701193,0,0.770992
-0.05684813446599636,0,0.806331
-0.03652940205326127,0,0.939866
-0.027127470968262832,1,0.995876
-0.001384749557408596,1,0.991952
0.07135437345818235,0,0.249428
-0.07908262946511989,0,0.240328
-0.057262272735556514,0,0.278261
-0.056424217583260314,0,0.344121
-0.06963861745781473,0,0.193314
-0.0013669256842459517,0,0.163290
0.5701701907802944,0,0.931990
0.5815982484222404,0,0.943590
0.08217146799523949,0,0.864230
0.8072453831992782,1,0.998804
-0.037425789334580246,0,0.287540
-0.063315249117233,0,0.288546
-0.03487286349648352,0,0.880952
-0.03100880510774429,0,0.858696
-0.052401856282801466,0,0.442946
-0.047499283970015606,0,0.207681
-0.0669329983805859,0,0.438596
0.5429960253458982,0,0.963636
-0.06891644647047351,0,0.314985
-0.04876819958130782,0,0.340067
-0.04922210454160531,0,0.352423
0.7159143375691513,1,0.983333
0.004405812071328641,0,0.757525
0.1601811765762488,0,0.491468
-0.016193713686341638,0,0.828087
-0.04405337861587402,0,0.688552
0.04274009824208753,0,0.558261
0.7762146101652464,1,0.986384
0.4837488070541319,1,0.993697
-0.01929159609722149,1,0.983838
-0.008292053876191433,0,0.924330
-0.04697816203183611,0,0.580802
0.2640304302074713,0,0.844697
-0.030382233601011645,0,0.744681
-0.03769239274516763,0,0.234803
-0.037492172032415866,0,0.481876
0.4965322502291556,0,0.843537
0.7907832857696123,0,0.943478
0.6960112240300199,1,0.988353
0.49986348283369403,0,0.888345
0.057510294793915964,0,0.927489
0.4485055410048043,0,0.978610
0.8924554185977407,1,0.994512
0.8520381308360727,1,0.996798
0.004697322802139514,0,0.612766
-0.03144764487131256,0,0.787717
-0.012907130810366894,0,0.831658
-0.003752781846196322,1,0.996979
0.036975547341073785,0,0.962484
0.04745896269523944,0,0.981273
0.13010367922449653,0,0.925558
0.21198171433371948,1,0.986486
0.584295258545004,1,0.996610
-0.06867872740065446,0,0.088235
-0.06423050429842964,0,0.210926
-0.049127890124526986,0,0.396739
-0.06700388385375843,0,0.262425
-0.04124016118115859,0,0.776184
0.2355176243171123,0,0.765766
0.14617044141339117,0,0.873156
0.6570006271888952,1,0.992685
0.8147462838226759,1,0.997704
0.3944516566078366,1,0.998770
-0.07893484291631925,0,0.748879
0.029061271263558744,0,0.854142
0.09676196207239737,0,0.819521
0.2843000339339777,0,0.984914
0.1520930444810316,0,0.640054
-0.09100427499167542,0,0.569620
-0.04736657992255021,0,0.653137
-0.04455993239539926,0,0.822738
-0.06635885599404835,0,0.404040
-0.06188679644313636,0,0.635274
-0.06937767232644546,0,0.507042
-0.07971027944449584,0,0.288580
-0.09100353862711354,0,0.273620
-0.08088163420634749,0,0.254950
-0.08234558309285142,0,0.401418
-0.08778564008142713,0,0.099533
-0.04805964719662757,0,0.154176
-0.09454754288447548,0,0.733945
0.0681865616732432,0,0.810445
0.0997729318359185,1,0.980728
0.12071446462828557,0,0.810204
0.3250468082856929,0,0.903930
0.04744791398760345,0,0.962008
-0.05179593608674834,0,0.906355
-0.04135922177605293,0,0.555556
-0.06521361147086678,0,0.466523
-0.08751980229670672,0,0.174174
-0.09128400794264395,0,0.418431
-0.09058269806108744,0,0.413233
-0.08946178405858479,0,0.107438
0.4358218177481477,0,0.632787
0.4183036491680891,0,0.860759
0.4759742200701114,0,0.916149
0.5357729909121133,1,0.996914
0.718142057564984,0,0.916667
0.9201763748962755,1,0.972561
0.9243798523759177,1,0.993464
0.3615242427122408,0,0.940379
0.20298292650855354,0,0.569579
0.424707588637233,1,0.985955
-0.041287090305819285,0,0.593002
-0.018120685858975243,0,0.779167
-0.04074503278172784,0,0.568000
-0.04241121510728937,0,0.099388
-0.027155324264146782,0,0.983170
-0.08212487595360751,0,0.593148
0.9308472688765697,1,0.997590
0.47674029705557575,1,0.992299
-0.06383438703955073,0,0.625478
0.8894609629350713,1,0.995320
0.6569961057691259,1,0.990812
0.8057642833499714,1,0.995370
0.7032018592804807,0,0.955657
0.7572786860307477,0,0.940442
-0.034245553007592945,0,0.932526
-0.058682988587152714,0,0.950549
0.7470080136552902,0,0.779661
0.5142166233704595,1,0.992403
0.6940593159983809,0,0.964247
0.7453348452668983,1,0.997753
0.7883157337999923,1,0.992135
0.7769485591356542,1,0.993821
-0.043870190752075044,0,0.801282
-0.04699731398865038,0,0.740838
-0.04052131095954809,0,0.803030
-0.03285566264844879,0,0.721154
-0.0884035525709611,0,0.168168
-0.061336593994583175,0,0.231579
-0.05678077747840398,0,0.386029
-0.07005300437056387,0,0.135854
0.8367071251813311,1,0.997275
-0.07707495358927223,0,0.413333
0.535780704053835,0,0.957447
0.10678850019363331,0,0.549383
-0.016935775639867312,0,0.781314
0.04590042989988015,0,0.836207
-0.07805552521141335,0,0.346614
-0.07971340396147805,0,0.625935
-0.06433890163683882,0,0.290210
-0.06506097342176483,0,0.527972
-0.058924233362510355,0,0.470395
-0.06441551519914958,0,0.633333
-0.06608473718577534,0,0.474149
-0.05220994036057169,0,0.378553
-0.0640217625933237,0,0.215000
-0.02821425102410414,0,0.362874
-0.06926810675263187,0,0.169683
-0.06851370600535542,0,0.196850
-0.05649613433045983,0,0.121402
-0.07078834397896216,0,0.177616
-0.07017063934844296,0,0.136929
-0.074843576657674,0,0.228833
0.2945989988078907,0,0.968284
0.11722066758108292,0,0.902878
0.17837205967824835,0,0.954463
0.15510612372998803,0,0.760684
-0.05620825071628045,0,0.574194
0.8605663945050944,1,0.997658
0.8456180367445179,1,0.987654
0.4678621102719782,1,0.983364
0.899031388066926,0,0.987585
0.009943609158468467,0,0.890076
-0.043744280340568195,0,0.668508
-0.04168917707748098,0,0.910615
-0.04050579720299072,0,0.909524
-0.04176418201290281,0,0.645511
0.001198542863064703,0,0.905605
-0.02790445458097085,0,0.513648
-0.03016324899864816,0,0.411204
-0.03921011478312755,0,0.628483
-0.05163709689234401,0,0.380021
-0.029916368744062755,0,0.431818
-0.027765821670601324,0,0.612565
-0.05295239273886066,0,0.510638
-0.04294587786090929,0,0.239216
-0.022527033059391632,0,0.673038
-0.02196205408006435,0,0.557229
0.666508546082345,0,0.974798
-0.062184117003206085,0,0.574074
-0.05516889899567735,0,0.619718
-0.053219061517717416,0,0.514403
-0.05474107127185523,0,0.843066
-0.050487643828674364,0,0.853047
-0.057058497244296326,0,0.232274
-0.04717751372945996,0,0.711340
0.6445356918503589,1,0.984283
0.2412539454742868,0,0.960761
0.6032988322064928,0,0.972715
-0.025386700967839605,0,0.504414
-0.02798269165085411,0,0.725678
0.09851933442206592,0,0.943463
0.09775133685962287,0,0.910412
0.07026992915998855,0,0.951357
0.11578516109977349,0,0.960511
0.13347103633620727,0,0.951865
0.03704947099001017,0,0.846667
-0.04749931527789298,0,0.895000
-0.03664298566914957,0,0.483287
-0.043427021089873515,0,0.542453
0.7330369344292545,0,0.960443
0.7964840033703458,1,0.998452
-0.04193930737232408,0,0.615789
-0.05314753909008936,0,0.828205
-0.059336845388047385,0,0.523256
-0.05606612964493742,0,0.545455
-0.06236866595353075,0,0.620000
-0.06647781269747159,0,0.516068
-0.048616894314862186,0,0.367673
-0.03649827934191028,0,0.416949
0.014033660493408692,0,0.720698
0.41083999273622696,0,0.975033
0.07898084262404613,0,0.863739
0.6835160573084915,1,0.991848
0.9171191159186373,1,0.992785
0.040546316160654655,0,0.546205
-0.04806724830486999,0,0.636555
-0.0700367350347318,0,0.599757
0.02196068761489171,0,0.926230
0.00869214928341524,0,0.947059
0.019797058970440914,0,0.953216
0.6348620042560785,0,0.962617
0.7706095907338995,1,0.998845
0.8453576217452689,1,0.997655
0.6986210358726338,1,0.997650
0.8978513229293752,1,0.995068
0.7450969715245687,0,0.964245
0.8531241280721864,1,0.996528
0.8765559022601683,1,0.995434
-0.042226425801119474,0,0.408104
-0.031602487143132435,0,0.658593
-0.024529295476261745,0,0.672434
-0.024764668129565744,0,0.679245
0.5560396033773457,0,0.981417
0.04555360103023478,1,0.998682
-0.02365574371384784,0,0.943978
0.10642631930419437,0,0.127119
-0.016435583353624706,0,0.743464
-0.0446509030241839,0,0.654959
-0.046943592438560736,0,0.437340
-0.03976080534227527,0,0.366947
-0.03398408898695895,0,0.784615
-0.03672575290885462,0,0.970745
-0.028467895183547313,1,0.977667
-0.06519159768957049,0,0.819209
0.11652081645227201,0,0.962700
-0.04634975698274576,0,0.414188
-0.04526298277767261,0,0.374314
-0.03793642253513654,0,0.198394
-0.06454966586724498,0,0.212320
0.8457835037452792,0,0.923767
-0.03595704059130462,0,0.578212
-0.03535031901452007,1,0.996337
0.6134253957294928,1,0.998957
0.0044814704481713884,0,0.853093
-0.04414208092340204,0,0.415730
-0.031200525701610977,0,0.829891
0.1312426097583991,0,0.931651
0.1639613696009043,0,0.873418
-0.038279247691205893,0,0.661074
-0.050936650853324904,0,0.157895
-0.03224605209833031,0,0.633690
-0.035760998046413056,0,0.755162
-0.025067987157646382,0,0.871711
-0.026699317981635252,0,0.903904
-0.02803362789347967,0,0.914373
-0.02903953185105068,0,0.603859
0.2977485107260581,0,0.332353
0.03660548201240549,0,0.233393
0.5958294846692287,0,0.716867
-0.04428764684725121,0,0.628348
-0.0459642721864902,0,0.306122
0.21529486177373838,0,0.963173
-0.058538096089827255,1,0.963303
-0.045746450379564034,0,0.296000
0.3352674602385936,1,0.969388
0.8458091134169927,1,0.991718
0.5478911767998802,0,0.959227
0.5074854806724612,1,0.993603
-0.038962403820104394,0,0.701686
0.13857500129036193,0,0.782486
-0.012726361979650241,0,0.606866
0.08154324112618262,0,0.946809
0.45858773456818624,1,0.997821
0.015706586041399052,0,0.542857
-0.04652763543563005,1,0.951691
-0.07512874453959252,0,0.285203
-0.04305697762329751,0,0.247797
-0.04035704127556757,0,0.140022
-0.026203310307583046,0,0.493506
-0.05518281903328756,0,0.654655
-0.0483545473693701,0,0.655090
-0.027850633828608654,0,0.680812
-0.033075702778977825,0,0.274964
-0.029407941353713034,0,0.230594
-0.04071839268394519,0,0.585613
-0.03013297860441214,0,0.591784
0.022090209300045308,0,0.913043
0.5185550584083783,1,0.998744
0.1722734267714172,0,0.982400
0.05968841096079924,1,0.984479
-0.06553467353590788,0,0.738022
0.4580903483373033,1,0.977273
0.43622726889936486,0,0.743929
0.9063299173097126,0,0.966197
0.3961434713661164,0,0.815029
-0.045215236814017165,0,0.883871
0.004254833486648892,0,0.473071
0.043112909915199026,0,0.929134
0.9338830406505372,0,0.982713
0.574618557104897,0,0.969152
0.5203725357378797,1,0.998718
-0.04765039254468747,0,0.721698
-0.035337165193701614,0,0.121212
0.6488524577792844,0,0.977703
-0.04527709917589066,0,0.679625
0.8445544621533707,1,0.987430
0.02166201372888495,0,0.937233
-0.027135425191366247,1,0.981917
0.25671799139621765,0,0.932409
-0.05110713600778098,0,0.752328
-0.04354041549957439,0,0.260671
-0.04911548723257775,0,0.327718
-0.04404652934890074,0,0.151042
-0.05047279674361658,0,0.262016
-0.0254126550246008,0,0.368906
-0.03459223950617905,0,0.120357
-0.02316758980973887,0,0.603509
0.42361789896499263,0,0.896040
0.5594149376524759,1,0.991892
-0.053742119349524754,0,0.170149
-0.04054760207305795,0,0.717277
-0.03056943512609894,0,0.873524
0.1395355784387633,0,0.336493
-0.04099020194520443,0,0.188387
-0.05960803396474629,0,0.446507
-0.05423731480209737,0,0.227778
-0.05132873495076143,0,0.171631
-0.06495171253188359,0,0.198529
-0.0049771746452289675,0,0.741463
0.7588123974012463,1,0.995951
0.7283446985892442,0,0.955204
-0.03908657252710239,0,0.952727
-0.03239593099935638,0,0.670103
-0.020399481284835444,0,0.809735
-0.07666503725920476,0,0.528455
-0.04623085982274011,0,0.472934
-0.05467865932482778,0,0.576792
-0.04443275926815232,0,0.866324
-0.04479817689978376,0,0.802941
-0.028942726977717114,0,0.839024
-0.018241671537467093,0,0.817961
0.15521257005004596,0,0.963680
0.58475943450188,0,0.858911
0.8143725333465576,1,0.994924
0.9553523406837409,1,0.997653
0.4662236606185885,0,0.879870
0.002886622410844449,0,0.804538
-0.0013639489636913748,0,0.816291
0.010798232645077916,0,0.873921
0.01099437694817272,0,0.706542
-0.01483515454810312,0,0.831461
0.014182931719469915,0,0.972222
0.009812628830099278,0,0.880866
0.0885898939168372,0,0.757333
0.06048714935491961,1,0.998353
-0.016803561095389153,0,0.632591
-0.029875615748357967,0,0.225705
0.8837184718312008,0,0.980042
-0.053920075975892164,0,0.950276
-0.04571566680946643,0,0.944976
-0.06152248704492129,0,0.958621
-0.046243082040328364,0,0.958515
-0.048977749659964195,0,0.923747
-0.05861879251803336,0,0.962025
-0.050970523612309616,0,0.867804
-0.06467442188861257,0,0.952991
-0.030357198828961287,0,0.602476
0.2289323066035694,0,0.805195
0.8259168576244408,0,0.986191
0.5601269137301967,0,0.945158
-0.027424229036418186,0,0.776892
-0.03286796907663444,0,0.857939
0.9063298573898414,0,0.978784
-0.016791672616059006,0,0.681648
-0.026143272685629864,0,0.621859
-0.027539924806450358,0,0.574866
-6.259695166649515E-4,0,0.789086
-0.024778633824618285,0,0.224747
-0.042819588027421085,0,0.541020
0.5059467416876713,1,0.960317
-0.04353967956071555,0,0.337209
0.18742586616504706,1,0.998035
0.056383495816280195,0,0.447020
0.28682370894617604,0,0.949086
0.2175343135199757,1,0.992099
0.02566067025059279,1,0.996904
-0.04075800991557053,0,0.962500
0.7720929696335189,0,0.870110
0.7835512808747744,1,0.996625
-0.028808578322276603,0,0.642957
-0.030338317055268925,0,0.747222
0.2516189986885772,0,0.978236
0.4644635271301267,0,0.968712
-0.060970989880348755,0,0.450913
-0.06038347450191418,0,0.268531
-0.05903306878199652,0,0.273087
-0.03785290057352844,0,0.258772
-0.06406298484063434,0,0.354717
-0.06136440128877976,0,0.347613
-0.06626547650257125,0,0.257552
0.3983362000479529,1,0.987212
0.05056179458194609,0,0.858394
0.45707338802882996,0,0.863222
0.6061601156538636,1,0.986207
-0.07004142862112266,1,0.998084
0.36268155630884474,0,0.928571
0.48033654320881347,0,0.873973
0.8318497147016505,0,0.952247
0.8363084301295582,1,0.998155
0.3295701844508472,0,0.864198
0.3940242229076363,1,0.985612
0.4072176114997741,0,0.983752
0.4182012625754237,1,0.991071
0.4637713480262367,0,0.948201
0.5310567138624896,0,0.949713
0.8136848323549354,0,0.967742
0.06216737524895052,0,0.976415
-0.023431085875061153,0,0.881034
-0.04822297249427665,0,0.859649
-0.05166091214676115,0,0.859223
-0.04498767758445015,0,0.681564
0.0627235859813186,0,0.947187
0.03967245302593728,0,0.900552
0.038070756003428165,0,0.894841
0.11471979302132533,1,0.997241
-0.06004034552246218,1,0.970588
0.2293271012987422,0,0.962754
0.05586876929450848,0,0.835249
0.0657079250311486,0,0.945996
0.695772720862386,0,0.971429
0.10436751379129516,0,0.751252
-0.07839518619728776,0,0.574018
-0.0676344960975867,0,0.607843
-0.0810411426216726,0,0.571429
-0.05474493177303252,0,0.510204
-0.06509616217087119,0,0.305302
-0.0775032515665228,0,0.429936
-0.02243666277760992,0,0.360479
0.42675554586286846,0,0.470874
-0.05445389339986919,0,0.161990
0.6407308722794433,0,0.952489
0.19339634949081738,1,0.992701
-0.04452913094559545,0,0.342640
0.6105989759906643,0,0.981550
-0.07791221960932594,0,0.482835
0.8245396328141635,1,0.993842
-0.02988516464124807,0,0.794326
-0.04066316747419224,1,0.990971
0.2706718680214217,1,0.995181
0.5054771820569898,0,0.504333
-0.018729590852190676,1,0.990020
0.9524250811229052,1,0.994059
0.851044125215983,1,0.998077
0.6503307053762283,0,0.940613
0.4184466731757286,0,0.857143
-0.03350742342198608,0,0.267905
-0.0215437546673589,0,0.412409
-0.02877965302845471,0,0.536791
-0.03199097176971097,0,0.562929
-0.043736731786611346,0,0.103064
-0.039510446354669215,0,0.226168
-0.02729716584230142,0,0.520202
-0.04651128609704575,0,0.451807
-0.04746775530838824,0,0.144578
0.10248126911734215,0,0.445312
0.3301845007183511,0,0.874233
0.2766293490568217,0,0.843558
0.12911409271933566,0,0.877246
-0.03856828319092656,1,0.952756
-0.013405211274316852,0,0.782895
-0.011257577812028989,0,0.854603
-0.0554327553140876,0,0.622412
-0.02986176015482664,0,0.619632
-0.05637469936617939,0,0.526515
0.36806258791159946,0,0.906716
0.21926472206865044,0,0.959641
0.8031328519713671,0,0.877953
0.7376838183444098,1,0.998505
-0.03189008032648278,0,0.439828
-0.06403380621042794,0,0.353116
-0.040751492492281535,0,0.953247
0.14966434524687428,0,0.967963
0.2887771351362739,0,0.904177
0.02053480560955009,0,0.903846
0.660119433482013,0,0.887731
0.7555261116204431,0,0.959615
-0.04075502942345665,0,0.524096
0.8558789240186151,1,0.998883
0.14580758873764088,0,0.807895
0.30314307026391135,0,0.965330
-0.019540635329575468,0,0.932692
-0.044110524396593125,0,0.571087
-0.02691820723269817,0,0.084833
-0.009297297546462826,0,0.627586
-0.04362463884208458,0,0.820513
-0.028561179830211395,0,0.405995
-0.06067988898213788,0,0.235119
-0.03638995167104016,0,0.275340
-0.07662908273482809,0,0.563017
-0.035675815741278386,0,0.822249
0.029521664286654484,0,0.928826
-0.015453103704217673,0,0.657143
-0.03575226620440442,0,0.261669
-0.005899474922992659,0,0.770312
0.07088228058183567,0,0.919236
0.22629684074673662,0,0.938521
-0.014137213477011482,0,0.877214
0.5743187728900448,1,0.991607
-0.03533357174907308,0,0.273936
0.4206447536570667,0,0.738636
0.23690346352379815,0,0.933140
0.3081315351471713,0,0.980983
0.23162985225066124,0,0.969697
-0.03007233057395356,0,0.549180
-0.07632791159214114,0,0.708333
-0.06512051218915607,0,0.470833
-0.07299390148425022,0,0.354467
-0.08398367768721521,0,0.472081
-0.07836888471978314,0,0.096096
-0.0769911086312269,0,0.343324
-0.046306503052419304,0,0.380000
-0.09772469636956944,0,0.029617
-0.04775820528717522,0,0.472848
-0.06374741988745625,0,0.288215
0.419459995370262,1,0.973615
-0.02455336268365573,0,0.801683
0.024458498920248702,0,0.526882
-0.04623519189956063,0,0.634697
-0.045519377000176456,0,0.349057
-0.031227098912261147,0,0.704748
0.38335589000312176,0,0.880196
0.4922614288749584,0,0.979452
0.047766280710964004,0,0.901124
0.19984393275418608,1,0.984816
0.41211261071381966,1,0.993213
0.15338209003204697,0,0.956522
0.6177765538514127,0,0.946449
-0.07197250522832387,0,0.594872
0.061858598908657005,0,0.904167
-0.04806890892553064,0,0.860279
-0.07805344873043132,0,0.279793
-0.06418468741137942,0,0.377273
-0.076715224431186,0,0.442231
-0.06157854236093809,0,0.452489
-0.10602752236642114,0,0.307971
-0.08670100935175305,0,0.332645
0.18477754074056332,0,0.932227
0.16304789773100015,0,0.947826
-0.036421835931196835,0,0.969965
-0.015821039818842753,1,0.930769
-0.02375673905673808,0,0.385730
-0.031125994848338254,0,0.598383
-0.01566280179865175,0,0.623431
0.8345796243615095,1,0.998073
-0.0063300680438556295,0,0.411557
-0.03611343522026121,0,0.520000
-0.03524565236621348,0,0.744237
-0.02713904295715783,0,0.207947
0.6036017745124623,0,0.791988
0.14140759195967154,0,0.945983
-0.09258619465202429,0,0.547619
-0.05210805021755458,0,0.898367
-0.036578290276726794,0,0.646138
0.2849051986772133,0,0.943199
0.3867600719444104,0,0.887755
-0.028020097920817954,1,0.977099
-0.06204760963733599,0,0.574751
-0.025621462708477684,0,0.964989
0.17511305820753473,0,0.944072
0.6750033113268115,0,0.920940
0.3252535935243446,0,0.983801
-0.03622041127915361,0,0.552083
0.2277605907779682,0,0.784530
0.6624971540579773,0,0.973601
0.28936263699785886,0,0.754293
0.019606574076256843,0,0.819410
0.8937427060753341,1,0.998770
0.9354524616565718,1,0.998797
0.9147743208519103,1,0.998807
0.07123613897222329,0,0.851759
-0.016142373710308515,0,0.680435
0.9191494106922873,1,0.997821
0.008652969291606905,0,0.895714
0.04214162813001096,0,0.461538
-0.054582864754176084,0,0.444219
-0.04431343996781374,0,0.344969
-0.04976607160057475,0,0.273210
-0.06456574615522503,0,0.581921
-0.05500419591209009,0,0.379404
-0.05508750547243014,0,0.275902
-0.05140666206033081,0,0.111502
-0.05077304349738781,0,0.215232
-0.05852921615198309,0,0.219466
-0.016880094078384054,0,0.311927
0.025784437110548446,0,0.725649
0.8991914774421816,1,0.984127
0.05784315259962801,0,0.896607
0.939199591907022,1,0.998519
0.5480714749349519,1,0.990909
0.0575860621633967,1,0.983660
0.19198697184876665,0,0.934000
-0.03076191424032901,0,0.653722
0.5920592782438253,0,0.789292
-0.014930434747330466,1,0.983539
-0.007893076481832816,0,0.647182
0.9030111395546515,1,0.998569
0.16383514855349696,0,0.967825
0.8010616258260154,1,0.998856
0.8662599707227528,1,0.995685
0.8182475768005579,0,0.984848
0.7989388370572844,1,0.993651
0.34619638446169065,0,0.773270
-0.05096469378626373,1,0.973333
-0.07771139177483441,0,0.951654
-0.0436851271941405,0,0.649329
0.930498719854226,0,0.978512
-0.03202531514228181,0,0.644891
0.3833614189838098,0,0.903401
-0.02263241283953146,0,0.778311
0.07540366926940902,0,0.925604
-0.04114275479938008,0,0.870466
-0.04262211318539319,0,0.866337
-0.051202969262274425,1,0.962085
-0.05773963462462727,0,0.301754
-0.02692588491669582,0,0.401302
-0.030072682075959437,0,0.682900
-0.0732000307942497,0,0.469388
-0.03169986436695762,0,0.881537
-0.03366153460530589,0,0.704167
-0.02017535661035392,0,0.819652
-0.03335313964596296,0,0.553398
0.001872493019794703,0,0.882867
0.2611340662063575,0,0.955357
-0.04548461666577769,0,0.204513
-0.03645501416368001,0,0.917714
0.9058316848630059,1,0.995134
-0.007353524687676094,0,0.950617
-0.030935370793431793,0,0.681319
-0.05565682666746975,0,0.816193
0.20423391312951997,0,0.664422
-0.03142876787114389,0,0.939966
-0.035044354552024884,0,0.570760
0.0975280820352652,0,0.950913
0.14486825017517588,0,0.969933
0.13698029685218044,0,0.946146
-0.03330185448187506,0,0.661605
-0.05983672262969631,0,0.675084
0.10389281109295383,0,0.682132
-0.03628522917028725,0,0.971253
-0.023127493884511362,0,0.805742
-0.04255973495140441,0,0.111562
-0.05099057435273698,0,0.737962
0.36944043136538396,0,0.561457
-6.616147940914061E-4,0,0.644279
-0.04723828571301219,0,0.549645
-0.028278429468625365,0,0.240602
0.1647066767253658,0,0.820856
0.7708936023338339,1,0.998573
0.8280160405420989,0,0.974220
0.8778369285474338,1,0.998681
0.8023106507470221,1,0.994872
0.756299472199808,1,0.994930
0.8617713958524279,1,0.993804
0.9313937556079124,1,0.995056
0.8361116093030344,1,0.997207
0.901397752048133,1,0.987700
0.9526681534872862,1,0.988722
0.9388368841091634,1,0.996053
0.8199027566028249,1,0.988506
0.8702682005025796,1,0.995582
0.8136212720143319,1,0.989175
0.7869075629871451,0,0.905767
0.8368403976185921,1,0.998794
0.8329002635324086,1,0.990318
0.8942061672504006,1,0.995322
0.7754288640140067,1,0.987500
-0.05206494004445894,0,0.947195
-0.042919087804363244,0,0.857520
-0.04514182666040567,0,0.299065
-0.04618974630049349,0,0.336237
-0.04946221390349668,0,0.397436
-0.03942179629084604,0,0.446809
0.1918974542607153,0,0.883721
0.2851086448971716,0,0.903292
0.3286022340139337,0,0.968539
0.35483960844384216,0,0.912017
0.6321416759369604,0,0.975610
0.9305060103146993,1,0.989754
0.6735538712231615,1,0.995662
0.17316877835574407,0,0.844744
-0.05740768793005372,0,0.626907
0.6063583033173818,0,0.954649
0.17696514422574602,0,0.922293
-0.03121248202220092,0,0.895062
-0.03226410684363697,0,0.341040
-0.03875436796008926,0,0.621701
-0.04758525227389411,0,0.875000
-0.04703357582272302,0,0.723404
0.027085841015145443,0,0.943627
0.3082925384321758,1,0.998944
-0.045727187477735284,0,0.316256
0.4973259079220104,0,0.960554
0.3809208815808819,0,0.869892
0.5629562119964964,0,0.979437
0.0033056719381359336,0,0.956278
0.23170229744564858,0,0.763636
-0.052644400251434124,0,0.641176
-0.03353784742743274,0,0.914209
-0.03472575009057082,0,0.799486
-0.03518086339591902,0,0.262032
-0.04364296673471449,0,0.958175
-0.05056491965611399,0,0.246503
-0.03428346473727517,0,0.643551
-0.0312422396691404,0,0.825485
-0.031667081089606815,0,0.731034
-0.08257624031992246,0,0.641700
-0.03084684882026204,0,0.474126
-0.035031023570888796,0,0.609181
-0.04053117193802484,0,0.493099
0.06738585656790212,0,0.931288
0.9123219796607875,1,0.998778
0.9526634404414132,1,0.998805
0.938056313323251,1,0.996475
0.12254708019667876,0,0.888496
0.3252203077840916,1,0.995200
0.22051145226389984,1,0.998972
-0.062315781492132925,0,0.370283
-0.0685936223406959,0,0.469828
-0.06685823002850026,0,0.509091
-0.06897895136944752,0,0.630435
-0.06540405256030513,0,0.288462
0.709186264116044,1,0.999035
-0.0653574192710359,0,0.349481
-0.10760809870957913,0,0.337838
-0.054084748484319135,0,0.401124
0.07728693578722903,0,0.849300
-0.026941535137759494,0,0.859756
0.9273557815629943,1,0.997059
-0.05163974737743829,0,0.207692
0.0144832848422577,0,0.181102
-0.012079643840687947,0,0.965451
0.02044364508930634,0,0.833561
-0.02174841982834369,0,0.847059
0.15431715037730467,0,0.933898
0.1157150192006318,0,0.971649
0.09534687286822971,0,0.795420
0.11576447664612773,0,0.904762
-0.02791793416414776,0,0.674817
-0.05530385578273924,0,0.285068
-0.04524845918460812,0,0.629344
-0.03976442978198818,0,0.499403
-0.00383388692206099,0,0.884698
0.2602430547324203,1,0.992000
0.4503561020491479,1,0.984085
-0.042529126107871434,0,0.375000
0.1236172015074426,0,0.916976
0.2687045048258501,0,0.914607
0.2989644534815789,0,0.968581
0.4139370836823741,0,0.978190
0.8796647451688909,1,0.997722
0.38140382627037134,0,0.985426
0.5606898469102959,0,0.941046
0.6671947930845036,0,0.983462
0.6871143468022225,1,0.991469
-0.046979405938649986,0,0.462882
-0.06992502838253929,0,0.456180
-0.007839829634171477,0,0.895105
-0.010883524074389556,0,0.801664
-0.006702625703769373,1,0.982659
0.05950941567477085,0,0.933333
0.03214193346950961,0,0.752420
0.06664544734607836,0,0.763908
0.05037794791431951,0,0.957650
0.06501577810405751,0,0.786104
0.31339536761558245,1,0.996764
-0.010876211881434755,0,0.299213
-0.029079810165970305,0,0.867987
-0.02563008713069237,0,0.702341
0.16689161437245345,0,0.560517
0.30216879879686265,0,0.987723
-0.021074229185389495,0,0.928910
-0.028969955461841574,0,0.749460
-0.05400923628795878,0,0.236467
0.2653681696913923,0,0.968786
0.928960773459215,1,0.998536
0.08854070775586867,1,0.991272
-0.07392334879472565,0,0.128395
-0.04671973771029621,0,0.843318
-0.033528075132214404,0,0.606522
-0.03150363805025069,0,0.909677
-0.0272500502117703,0,0.693277
-0.0616889300964707,0,0.241975
-0.03126000651253823,0,0.225416
-0.05285023439282791,0,0.379808
-0.06971955000594258,0,0.565815
0.04903461414944371,0,0.703971
0.028518425604443464,0,0.725275
0.03817549900351467,0,0.885932
0.36447514726895336,0,0.935606
-0.027200499878854402,0,0.931129
0.15943562003310877,1,0.978261
0.7506131884449011,1,0.991543
0.6455438260126611,0,0.907046
-0.07135791959004884,1,0.995585
0.44158513180254794,0,0.648529
-0.047613635762197085,1,0.986301
-0.04254721097415251,0,0.324503
-0.06923171277299195,0,0.170846
0.038591885095443236,0,0.933768
-0.03211155327296615,0,0.607368
0.009851876622609761,0,0.748954
0.09517005152178462,0,0.519553
0.20112270963093254,1,0.995671
0.31308380235126065,1,0.987179
0.8252690138814174,0,0.975025
-0.0430334761000606,0,0.317365
-0.058373186096759164,0,0.250000
0.3405403304093266,1,0.992337
-0.02683941557527136,0,0.787879
0.02165739438776755,0,0.770115
-0.0015837689715354503,0,0.725381
-0.03575456178294207,0,0.820755
-0.046848413015910556,0,0.955335
-0.08224730295332797,0,0.500000
-0.058370685821855894,0,0.896104
0.13730176816124767,0,0.483676
-0.06281847401677276,0,0.577465
0.4874698311413676,1,0.989451
0.9117243291891169,1,0.992639
0.9170348136456768,1,0.989933
0.9339112853079978,1,0.998960
-0.034282833682763345,0,0.466667
-0.03124479440056707,0,0.691214
-0.06379039334343582,0,0.446996
0.06179601554545562,0,0.810606
0.15895351011734013,0,0.917315
-0.0909895290010978,0,0.701299
-0.049878185457137014,0,0.654596
-0.026924169215159277,0,0.651558
-0.019592579067676374,0,0.710720
-0.003360648588656794,0,0.586481
0.04887556784125828,0,0.942065
0.862224964539657,1,0.998688
-0.03698729552642855,0,0.591549
0.0053573583781084235,0,0.971429
-0.023503699498161598,0,0.207207
-0.0363522023237425,0,0.883295
-0.0350729645621977,0,0.938679
-0.024299220463883348,0,0.477435
-0.010564609105508244,0,0.886525
0.11922059472413914,0,0.867117
0.05824164793080142,0,0.621140
0.15525732959850017,0,0.732759
0.15829301707987556,0,0.910085
0.17129217478306608,1,0.995633
0.5822491306216974,0,0.403576
0.3714063003479644,0,0.444444
-0.0031678351497284054,0,0.889858
0.41243348246937955,1,0.978858
0.122733536094804,1,0.992473
-0.028328504091662862,1,0.986804
0.6151276886310753,0,0.881818
0.023881614220836275,0,0.899248
-0.003902632109035626,0,0.926829
0.19405674391551728,1,0.998590
0.13821178663552164,1,0.991424
0.017232369838383096,1,0.995781
0.6333942530284612,0,0.974522
0.31238711129184854,1,0.996000
-0.03301988290774346,0,0.566411
-0.004684155370222148,0,0.871930
-0.034714115106998976,0,0.376404
0.0588477356573804,0,0.784314
-0.03091935097594213,0,0.734375
-0.020733614219161197,0,0.960177
0.18625680613443116,1,0.984649
0.6727997766407686,1,0.998358
-0.048265144323301055,0,0.111546
0.6447015932944412,1,0.997951
-0.05606267435982479,0,0.726795
0.42346113268387364,0,0.981343
0.7804428677772873,1,0.990012
0.46220462823365416,0,0.932484
-0.03358593946466408,0,0.222857
-0.03249773077280324,0,0.325000
-0.07582229538032798,0,0.531707
-0.05391691195248668,0,0.399254
-0.05146603326385015,0,0.828431
-0.028901708953658397,0,0.484848
-0.027293361908581098,0,0.867089
-0.03177077897560351,0,0.617834
0.052896636828556554,0,0.829700
0.02431853798383401,0,0.698435
0.4474914718694863,0,0.853608
-0.07458685594973849,0,0.615385
-0.04583543532965565,0,0.759197
-0.08791152684556212,0,0.645327
-0.05380777454211216,0,0.690947
-0.05471554943207209,0,0.586667
-0.04834937692834243,0,0.088358
0.011730321282814744,0,0.513245
0.025161758880332813,0,0.746795
0.012765284704779858,0,0.234568
0.14732890792403341,1,0.991952
0.7011239164248794,0,0.977987
-0.01385078778409294,0,0.854545
-0.01811054702217367,1,0.996933
0.9176016487895418,1,0.970501
-9.378930591106487E-4,0,0.707094
-0.015987131919513835,0,0.727064
-0.014235354720999398,0,0.581754
0.08400931855253993,1,0.990950
-0.05385260262739085,0,0.266169
0.02530171097225387,0,0.938710
0.0776998031825194,0,0.875530
0.012520035965398902,0,0.484848
-0.03585732435580347,0,0.871575
0.016795635289117844,0,0.784946
0.0195649520241753,0,0.486979
0.019602582473178837,0,0.853511
0.6281374563775601,0,0.984488
-0.06158751292692546,0,0.257426
0.6276205072645219,1,0.974227
0.7920355510005528,1,0.994885
0.060151957763225274,0,0.498254
0.8990203551634824,1,0.991213
0.833316822147926,0,0.980952
0.6807391983859558,1,0.988820
0.7532849829940347,1,0.998825
0.2796579679974564,0,0.946871
0.10275738965668742,1,0.990789
0.24343884876532532,1,0.997101
-0.0572273982703319,0,0.588816
-0.043822366009987325,0,0.395522
0.06006362807254875,0,0.972074
0.017726893752034897,0,0.791234
-0.00815306352354383,0,0.286571
-0.06476429517970968,0,0.460687
-0.06466240063701016,0,0.409556
-0.022214748597034817,0,0.416386
-0.03834786328901304,0,0.308023
0.7736280045234689,1,0.984975
0.40847913459239965,0,0.879070
0.41119448234188194,1,0.995146
0.6859385499402098,1,0.972789
0.12223489966699547,0,0.967213
0.3200801756787598,1,0.998296
0.031903535383602556,0,0.929254
0.07611775086315797,0,0.884837
0.012650681102126715,0,0.925150
-0.02333446988279374,0,0.196629
0.5959958701648271,1,0.994302
0.8516319755142931,1,0.997487
0.886346548431131,1,0.995381
0.7406395829610745,0,0.910755
0.7456327615117315,1,0.995708
0.8237085026007752,1,0.996040
0.6878647878612827,0,0.934659
0.11090257391802576,0,0.956871
0.26447412775070944,0,0.979021
0.39347544657022576,1,0.993684
0.7908199507602982,1,0.994018
-0.023782438468841847,0,0.772532
-0.030443056197702656,0,0.461078
-0.04010953816801955,0,0.604863
0.010275108011747115,0,0.636066
-0.024990217162396345,0,0.938053
-0.026754557914869408,0,0.802288
0.05659459773558598,0,0.917862
0.09784524132435214,0,0.902471
-0.035397059226788916,0,0.918675
0.09318272228063786,0,0.356115
-0.07254925803627821,0,0.623377
0.5837930362015475,1,0.997516
0.7593182168634893,1,0.992583
-0.025597837027764647,0,0.935211
0.003433504287984499,0,0.515152
0.01091373843206061,0,0.861496
-0.022185854047839165,0,0.552113
0.08933960001895377,0,0.878893
0.07271903347368941,0,0.929104
0.04476711998218455,0,0.948966
0.25922363066577775,0,0.958889
0.02303264565205303,0,0.712313
0.2724949017333096,0,0.537897
-0.021268733531237708,0,0.277910
0.009725273957883463,0,0.688013
0.013597161633256015,0,0.346348
0.022878938437982495,0,0.802095
0.05956905117015255,0,0.836639
-0.022380424339690758,0,0.851090
0.19956548872091426,0,0.757409
-0.01992550750375895,0,0.334021
0.022103807480885352,0,0.350333
0.12909084723260567,1,0.979550
0.09612794974210309,0,0.739899
0.12027140769044659,0,0.921109
0.20061071115674659,1,0.994792
-0.01769998535064856,0,0.674944
0.003144430526339623,0,0.779817
0.2740426689514972,0,0.965385
0.4225394413676469,0,0.969743
0.2190019339918869,0,0.928363
0.5772177697482946,1,0.998911
0.7025552788539312,1,0.993576
-0.030875505538396457,0,0.202410
0.008127751797873709,0,0.544564
0.1404841283853065,0,0.712121
-0.037514874132403356,0,0.543897
0.8231169844056611,1,0.996491
-4.650040568248742E-4,0,0.755319
-0.019702728954365187,0,0.518667
-0.019935546273279994,0,0.873203
-0.03274052186425633,0,0.515528
-0.027791508127018902,0,0.777062
0.8059593600914046,0,0.899160
0.4600943517318117,0,0.972973
0.025707131523481683,0,0.975033
0.21053932711575118,0,0.854902
0.12393042513048866,0,0.926342
-0.012167736125217004,0,0.614958
0.08411001570872884,0,0.716390
0.14693706839883047,0,0.967521
0.03836858895145186,0,0.445205
0.04071257770630863,0,0.685345
-0.04322270419782999,0,0.717877
0.6566778040371258,0,0.973656
0.06072143395975632,1,0.990533
0.13801021080107384,0,0.967780
-0.0678572050985766,0,0.908497
-0.055297362489749986,0,0.923241
-0.05239227705121358,0,0.788501
-0.03747977104473064,0,0.859406
-0.03794742219043983,0,0.251613
0.19592173153921164,1,0.988764
-0.03177069759600818,0,0.659574
0.01931361777857267,1,0.995690
0.1299145098442959,0,0.372358
0.5844568398311372,0,0.975369
-0.028086592433488926,0,0.608696
-0.02631928721176956,1,0.975510
-0.00632903373162925,0,0.775785
0.3243002551591249,0,0.920513
0.7913492077609127,0,0.942509
0.22918999091656628,0,0.971464
0.08232769816422397,0,0.846753
0.15278259209589354,0,0.948980
0.4370529205996842,0,0.974551
-0.03456899491834636,0,0.374610
-0.004570476969802304,0,0.607767
0.2125643335194435,0,0.912900
0.9169088770118109,1,0.998630
0.8933208388078918,0,0.932157
-0.043692587573820135,0,0.824405
0.5564441538342841,0,0.944510
-0.030748476537354345,0,0.684867
-0.025037531079902038,0,0.815961
-0.01970919970783739,0,0.831933
-0.021492800823712823,0,0.864019
-0.01977317164015772,0,0.929426
-0.019686843690028603,0,0.843256
0.19618019915558152,0,0.825721
0.8961336075154087,0,0.983153
0.9066663024239601,1,0.995062
0.9410218554762866,1,0.998802
-0.038889439508599584,1,0.996000
-0.024886805330572616,0,0.866505
-0.028916808516941978,0,0.752604
-0.028508736916480287,0,0.671119
-0.031261879737281235,0,0.617940
-0.028785736559304033,0,0.917090
-0.02980668130421594,0,0.965426
0.06846721320763212,0,0.937993
0.13943506544926296,0,0.935811
0.16960274958112634,0,0.936269
0.2545683991639885,0,0.979707
-0.042974907600621094,0,0.290553
0.9003958443323014,1,0.996976
0.11588421510269277,0,0.266289
-0.03783902055762559,0,0.782979
-0.026575126086394868,0,0.694473
-0.014383267077413211,0,0.356383
0.027969069992900882,0,0.694915
0.27693748259331236,1,0.993569
0.4484367959530464,1,0.979021
0.47571743007229295,0,0.839806
-0.013218789145989923,0,0.727003
0.22465065671228956,0,0.810256
0.7931959900173234,0,0.941447
-0.02848318380517841,0,0.679104
-0.017291151368977648,0,0.933014
-0.048460889811736116,0,0.848780
8.698314576207002E-4,0,0.672111
0.1381587620169867,0,0.810251
0.010494680480208272,0,0.783673
-0.020114563926842913,0,0.802985
-0.015648767917066507,1,0.986523
0.4143970866150352,1,0.990691
0.7907683281371419,1,0.998733
0.875995204149735,0,0.981534
0.8592292214726842,1,0.991379
-0.0204895176593685,0,0.895312
-0.02411462668131155,0,0.651917
0.0928628176380785,0,0.828571
0.06972484734501623,0,0.830486
-0.018359365694605542,0,0.881057
-0.025671495699582436,1,0.993994
0.02906351009848766,1,0.995354
0.13072022939228345,0,0.602131
0.08120483813211128,0,0.630597
-0.040495227041757204,0,0.316763
-0.03906479128543832,0,0.885478
-0.027052700012137033,0,0.617047
0.012108384279567464,0,0.747863
0.1583365266860236,0,0.844302
0.01596928101023101,0,0.885976
0.09231625802995652,0,0.982213
0.019946632509433935,0,0.793367
0.7249724696350602,1,0.997680
0.0671140055269397,0,0.365714
0.9249410677708874,1,0.984674
-0.03165780629931989,0,0.677966
0.43760067864441937,0,0.578275
-0.03634991478410491,0,0.941878
-0.004973837500976555,0,0.871245
0.026581734473210446,0,0.884120
0.45890631471397386,1,0.998450
0.22230083375615042,0,0.950000
0.47904543233252816,0,0.458239
0.26443483464336276,0,0.518072
0.25276083878777517,0,0.694864
0.03190006236147365,0,0.937107
-0.027616561960145503,0,0.981663
-0.02509481800866833,0,0.964976
-0.013958838464187166,0,0.880196
-0.011699532038737845,0,0.899050
-0.027495157421641204,0,0.869969
-0.011074226731001864,0,0.783088
0.0010938583990307642,0,0.946136
-0.002973390497736702,1,0.988746
-0.03259531115015153,0,0.315068
-0.04301219162472469,0,0.672504
0.00876791445019329,0,0.953448
-0.02096254021184804,0,0.733397
0.25628361268632527,0,0.500000
-0.023782589005781847,0,0.822300
-0.04847871296566349,0,0.456674
0.8689043300952002,1,0.992683
0.8695979301735146,1,0.998815
0.8459507828051103,0,0.982270
0.806404838539307,1,0.997712
0.9045000370132007,1,0.997845
-0.03968580426501605,0,0.625369
-0.040410064450649916,0,0.715054
-0.04552469015859698,0,0.765840
-0.042098710212133676,0,0.788945
-0.03943497760553027,0,0.783505
-0.04334482081382439,0,0.674286
0.024390232686086293,0,0.641213
0.7408254974550461,1,0.997386
0.8356968891319683,1,0.997416
0.05040354017458959,0,0.902616
0.07067599063344342,1,0.997203
0.24749750263257175,0,0.962039
1.339649292243639E-4,0,0.964516
0.1758825749570147,0,0.739884
0.8755151644001876,1,0.996226
0.09990541975364349,0,0.661426
0.5323426331089174,0,0.963830
-0.008937300840594757,0,0.954000
0.0017595029962941859,0,0.808300
-0.007590363782627782,0,0.981742
0.033419172103552275,0,0.918314
0.03649048013326361,0,0.717391
-0.021939676315893893,0,0.524355
-0.04332364746085536,0,0.762097
0.817483652201248,0,0.989362
-0.042659653664385906,0,0.301587
-0.026333212639637636,0,0.842553
-0.04451468205500695,0,0.862319
-0.038177537785077924,0,0.821256
-0.03875005449783908,0,0.863905
0.07473624584246058,0,0.160099
-0.029262527867001946,0,0.509091
0.2387272834449996,0,0.850377
0.10698793495363859,1,0.993289
0.17174973274248082,1,0.993115
0.12743867838867437,1,0.988748
0.06296838746015644,0,0.075397
-0.0531010742319238,0,0.155975
0.07250047749477988,0,0.704425
-0.05777786196730492,0,0.527865
-0.02978994364881683,0,0.581644
-0.04055470349048643,0,0.572775
-0.02019505367679757,0,0.965517
0.03454813191662434,0,0.260756
-0.027209909801438947,0,0.795610
0.035070757094406387,0,0.985751
0.1610900897322495,0,0.961883
0.025305572604135462,0,0.923963
0.14649556427265026,0,0.757009
0.012455062734222741,0,0.451827
0.007889113592131387,0,0.625974
0.051523891416418964,0,0.853101
0.022223109474179277,0,0.881188
0.044059664193692866,0,0.881316
0.014209513705859472,0,0.418919
0.3843282090814684,0,0.977995
-0.026789004034438606,0,0.488584
-0.05594149161728952,0,0.625000
-0.057250907270469394,0,0.753191
-0.0696632002503534,0,0.510460
-0.045664433012305244,0,0.290323
0.07323342360854879,0,0.384519
0.095708004173067,0,0.842308
0.8057809468385482,0,0.502833
0.1385542655467906,0,0.946650
0.8918759592876148,0,0.499227
0.7305194192525349,0,0.980066
0.48161377073726985,0,0.878571
-0.042434339930563204,0,0.676190
-0.04324188155115176,0,0.677885
0.453871766861538,0,0.833333
0.1793818885289299,0,0.981623
0.0058676408476761865,0,0.933702
-0.05927502022478838,0,0.658940
6.435785454707449E-4,0,0.458194
-0.03672995631517037,0,0.319802
-0.004740688748530591,0,0.947137
-0.0039156845966116715,1,0.996078
0.0934349590309338,0,0.948980
0.07038764983661114,1,0.998261
0.3972971331594464,0,0.972504
0.7647715295630284,0,0.861230
0.07243914890655669,0,0.783109
0.7913070590743765,1,0.998864
0.09501814185048774,0,0.957382
-0.011755763118370949,0,0.861988
-0.0399688812678585,0,0.702312
0.0038576774310892436,0,0.908257
-0.04885111593910269,0,0.396514
-0.0406728219532234,0,0.317136
-0.05209714483949589,0,0.462766
-0.046534350068689584,0,0.220532
0.15439381056544885,0,0.942085
0.22796537345320653,1,0.986348
0.39316964042695385,1,0.967742
-0.03716111114810688,0,0.537954
0.10765789590252957,0,0.955988
-0.0283098156662367,1,0.982955
-0.03429834190524046,0,0.908661
-0.07430669069605497,0,0.481848
-0.07109725793294992,0,0.710247
-0.044109378860462276,0,0.697161
-0.06893231894877083,0,0.575246
0.6134009778283942,0,0.475684
-0.05342413244787016,0,0.326316
0.490233811969316,1,0.997028
0.03994770161416366,0,0.915194
0.09243276338470886,0,0.934483
0.1459343078733074,0,0.841772
0.1557290201056933,0,0.786378
0.0015940226566206765,0,0.858730
-0.050169807164147824,0,0.727384
-0.05627240862339817,0,0.726804
0.5639997512462424,1,0.995128
-0.03596621397495068,0,0.737864
-0.04807064025779264,0,0.673469
0.8612399930416185,1,0.991294
-0.008462025736916621,0,0.485971
0.8514112629155595,1,0.998779
-0.049009703677387384,0,0.274866
0.12659482883491774,1,0.994737
0.30136542702305663,0,0.894665
0.03023237069561401,1,0.998912
0.053492334255121086,1,0.992457
0.08810811893827132,0,0.965632
0.15792673028536336,1,0.996812
0.18802529544208454,0,0.416887
-0.0608282688194181,1,0.955056
0.5542456104650643,0,0.696462
0.5541654251397419,1,0.986616
-0.028683797939195184,0,0.836735
-0.05008821996246499,0,0.469471
-0.07027113857562815,0,0.108202
-0.04801304691026495,0,0.421801
-0.04959125740220961,0,0.483376
0.04295075645344149,0,0.712276
0.015506270871736704,0,0.692112
0.14102662244136077,0,0.842407
0.2748841692569426,1,0.994334
0.6382418687782759,0,0.981623
0.548724608241946,0,0.955043
0.23489612696274198,1,0.997537
0.2924529962584462,1,0.995146
0.35062563047188217,0,0.941844
0.35751782485533296,0,0.957295
0.06626197977709726,0,0.535211
0.2763653709691967,0,0.122449
-0.02488151752583099,0,0.813253
-0.04709195376506528,0,0.775391
0.09930073785275617,1,0.983051
0.19551730048566537,1,0.982964
-0.03059985130453271,0,0.824818
-0.040055652643330386,0,0.664251
-0.04528701842470075,0,0.906195
0.38842922357781,1,0.995506
0.5505523421979855,1,0.990919
0.19677160052630485,1,0.984456
0.31308217962842644,0,0.947614
0.3029531288128809,1,0.992966
0.18315468354494174,0,0.942172
0.14600444620351863,0,0.911290
0.3427500849938855,0,0.975945
-0.02521974103268715,0,0.875449
0.3421354757204715,0,0.937204
0.49606249992351037,1,0.991898
0.5575725554549374,0,0.666667
-0.010331209904156605,0,0.738416
-0.001798738198411641,0,0.341289
0.018453855963319582,0,0.764000
0.031859156276256705,1,0.976261
0.21019767322821542,0,0.638432
0.6575879636923108,1,0.997156
0.004076200739718408,0,0.545667
0.028874280966096913,0,0.914201
0.06918691419243772,0,0.111617
0.5174865588031183,0,0.811287
0.23674130993826023,1,0.982107
0.047724546986640234,0,0.771700
0.03672842114977094,0,0.827807
0.07295962994301174,0,0.392655
0.2088401068117744,0,0.981203
0.19367635620337165,0,0.979798
0.4103309069011318,1,0.993243
0.4312984470756816,0,0.958722
0.7971962201827918,1,0.998701
0.8220446107092537,1,0.997611
0.8126071571658394,1,0.996641
-0.04220577772287785,0,0.914097
0.603553329498468,0,0.817130
0.8608544393307568,1,0.993641
0.6888432440743072,0,0.940774
0.7818236270273204,0,0.918660
0.5570022188147197,0,0.945330
0.10306656144557824,0,0.896607
0.3391380609036664,1,0.998768
0.08932753724886604,0,0.938257
-0.052788035304176716,1,0.962185
0.028149855190431783,0,0.873821
0.8204358576125338,1,0.996386
0.03736092134592808,1,0.966245
0.7215186065486394,0,0.964664
0.07386431505811608,1,0.993169
0.07886812806876002,0,0.961464
0.18450324986681899,1,0.991111
0.13024157731265384,0,0.971357
0.4213231682821515,1,0.998775
0.6051043669702408,0,0.938979
0.7165186274702249,1,0.998227
0.5997153809692959,0,0.964243
0.6310785572882025,1,0.998821
0.6202724065671136,0,0.973589
0.6108302262497637,0,0.974118
0.6135426945248401,1,0.988386
0.6458407267806868,1,0.994595
0.7120248600976664,1,0.998258
-0.03842254689282624,0,0.457317
0.24048982934225943,0,0.831122
0.14116760662842429,0,0.948148
-0.02633885574087545,0,0.923744
-0.034424183013449926,0,0.910959
-0.04793302936958462,0,0.313665
-0.04899152593831146,0,0.443077
-0.04824235860554117,0,0.380403
-0.05093031031767865,0,0.605459
-0.06621142631645643,0,0.238509
-0.03923910920948693,0,0.344118
0.21945041531904785,0,0.881295
0.4456977782695901,0,0.973131
-0.06180543199074208,0,0.768293
-0.0832220114847005,0,0.381078
-0.08483845309769554,0,0.266089
-0.0782915315463505,0,0.136816
0.11655623384934959,0,0.778302
-0.015620580586404776,0,0.741935
0.0035526058593713453,0,0.786667
0.6144754867514398,1,0.998761
0.6767787897037337,1,0.998773
0.6237215557958373,1,0.991860
-0.07850694278212031,0,0.946429
-0.05705501923674953,0,0.706745
0.09743159183290871,0,0.849015
0.007526817732749607,0,0.778271
-0.07861198892511281,0,0.775281
-0.031094917977250235,0,0.610105
0.019613809230413972,0,0.316594
0.19636713993972138,0,0.752226
0.22272120752429053,0,0.940144
-0.03603958092214794,0,0.858921
-0.019558433972821455,0,0.773558
0.34309889250406694,0,0.947313
-0.08031912868427941,0,0.276442
-0.0659986603372614,0,0.382159
-0.050915017878830196,0,0.165345
-0.04746168104022082,0,0.584171
-0.03436958691360517,0,0.600000
0.13263723796830962,0,0.677249
-0.03954299342056115,1,0.975610
-0.033477487196328794,0,0.460000
-0.044447683924445806,0,0.734628
-0.051828491836704564,0,0.417062
-0.064547622566872,0,0.246407
0.05325417319095817,0,0.843537
0.5461783721217083,0,0.921875
-0.020382646585333914,0,0.954262
-0.06605164674223694,0,0.610315
-0.035360530301602196,0,0.578947
-0.01693872154386162,1,0.972509
-0.07957612939483637,0,0.692641
0.269501752819756,0,0.486486
0.5794170903143951,1,0.998840
0.588745664948538,0,0.956364
0.177661961389823,0,0.972477
-0.011606504476438531,0,0.649351
0.25125998489040613,0,0.974857
-0.03894866367895906,0,0.332046
0.3989390618100407,0,0.963046
0.006257452199953899,0,0.612648
-0.006501464253804149,0,0.789588
0.23803559632653273,0,0.744108
-0.005116162317879327,0,0.703310
0.028606676523593562,0,0.854482
0.04130318547573721,1,0.959184
0.11132854689852459,0,0.915173
-0.014411401114975724,0,0.743772
0.05468143270389778,0,0.979557
0.07116700858341168,1,0.989276
0.41085348071499284,0,0.964953
-0.017067795308715415,0,0.849642
-0.006549971320535448,0,0.917563
0.059506013517177846,0,0.977621
0.9012586135714828,1,0.996305
0.850100282012173,0,0.958234
0.1989686427947632,0,0.440678
0.3552175645806518,0,0.961905
0.43916021814992645,0,0.970379
0.5775954921851109,0,0.983510
0.4255220977305621,0,0.430693
0.8601533060086175,1,0.996610
0.894253300141883,0,0.978824
0.7946081940604927,0,0.968347
0.9121836275202092,0,0.304069
-0.006784093915674199,0,0.905028
-0.029549155286873047,0,0.868996
0.31390689330620153,0,0.953162
-0.02596062981403528,0,0.862903
-0.026825474754769475,0,0.921384
0.5197286095881591,1,0.998979
0.5211826256557378,1,0.988662
0.8485422760668974,1,0.998828
0.8521328517963,1,0.998012
-0.02471829471468323,0,0.895397
0.8755797286223751,0,0.775468
0.901374210804206,1,0.998849
0.5315041561551964,0,0.985040
0.5172689395173842,0,0.956422
0.4424943002277956,0,0.963303
0.4331101730313894,0,0.924779
0.14596649552252053,1,0.993711
0.1711584085412674,1,0.982318
0.19841567188938175,0,0.945474
0.6862307039049238,1,0.998836
-0.020444062759637716,1,0.982107
-0.02404223030473115,1,0.992141
-0.022319494777972994,0,0.633466
0.00609506123214613,0,0.870432
-0.017208285627155484,0,0.837413
0.15411269849664883,0,0.874872
0.8287186845456933,1,0.915254
0.5431194755906914,0,0.982935
0.7522247378224995,0,0.854890
0.6610887743276838,0,0.918228
0.5981442936494863,0,0.916058
0.009096864791901228,0,0.748148
0.9000312920950622,1,0.997719
0.06679625638612853,0,0.723684
0.1700347645462363,0,0.930209
-0.010763571696204519,1,0.996086
-0.0322160758395266,0,0.742236
-0.016573474538470544,0,0.461676
0.1146108432456133,0,0.815558
-0.008803214677158205,0,0.936090
-0.01964455337183603,0,0.702128
-0.025459749029138355,0,0.977958
-0.014786333672219532,0,0.745029
-0.013079850578962266,0,0.977081
0.2913995957132141,0,0.804094
-0.031194569670510677,0,0.784946
-0.03213856850856822,0,0.862745
-0.030952845414834236,0,0.902439
0.00885556345575738,0,0.802020
0.16064485508745258,0,0.910732
-0.02666153622042393,0,0.968966
-0.020890160701583258,0,0.544031
-0.004154127257157358,1,0.997199
-0.005436565868829218,0,0.977459
-0.020683193575276166,0,0.671107
-0.013173422071758078,0,0.839658
-0.0199023648042798,0,0.807198
-0.021805190721090228,0,0.848485
-0.002200116099830057,1,0.990099
0.09217707702220407,1,0.995726
0.1773216123072634,0,0.918033
0.4933651095031962,0,0.713748
-0.01885111136945422,0,0.905882
0.32514241331040333,0,0.968696
-0.024597835368897585,0,0.518135
0.5739756171439333,0,0.973592
0.7912416631807612,1,0.998043
0.736763295082911,0,0.962225
0.5100679713215773,0,0.899662
0.10929042964112433,0,0.840822
-0.01835661745355613,0,0.798736
0.05034330353136489,0,0.842723
-0.004508367298568781,0,0.958724
-0.025561205716957,0,0.666667
0.05245156488376353,0,0.832370
0.003792366720823785,0,0.698370
-0.025516574070342222,0,0.701595
-0.03461205783074769,0,0.151899
-0.0014790466596614415,0,0.641694
-0.020855685596848892,0,0.818182
-8.467295628720142E-4,0,0.918831
0.05510427972003085,0,0.719626
0.017824589750220318,0,0.936326
0.31914886719981644,0,0.820946
0.15359660488150179,0,0.640587
2.446928692333308E-4,0,0.896000
9.322101834013435E-4,1,0.980892
-0.02394436240091202,0,0.841994
0.5709149410336959,1,0.998285
-0.043422221788139335,0,0.747440
-0.02101525261513442,0,0.703013
-0.017638277149490917,0,0.940320
0.08467267563330373,1,0.995556
-0.011076902777424302,0,0.821862
-0.01018569487032664,0,0.730994
0.27384848979755083,0,0.806773
0.6967546884515617,1,0.983968
0.7298779339726356,1,0.986381
0.5492672452209546,1,0.997942
0.34693779502908995,0,0.956607
0.5922132822381939,0,0.950397
-0.0650487545515018,0,0.658416
0.1971519807831942,0,0.902507
0.27446801984587627,0,0.952646
0.3425082948497035,1,0.994805
0.39139741835976755,1,0.994350
0.4476418591940557,1,0.991620
0.4916592117009824,1,0.983108
0.08467693610440906,0,0.941417
-0.09420119940156742,0,0.250000
-0.037292457580175145,0,0.964179
0.03128302463479325,0,0.898305
0.07851293905739386,0,0.913594
0.7234913850516327,0,0.895294
-0.0634921523688255,0,0.955390
0.029921039436210807,0,0.913272
0.08962331135597737,0,0.943624
0.26306179521909817,0,0.974825
0.22064605458854114,0,0.880866
0.3425084095417039,1,0.996416
0.3439803567702668,0,0.891341
0.42656434674975113,1,0.991794
0.5769488434862778,0,0.943662
0.6417107124503519,0,0.965076
0.6848846336529053,1,0.993048
0.1918647313467274,0,0.710630
0.24357820770958552,0,0.987135
0.2212463576260737,0,0.983970
0.32360254908854846,0,0.977778
0.6392090315199307,0,0.982699
0.40199230508757977,0,0.941304
0.3999608464475652,0,0.967816
0.3867537640280027,0,0.903600
0.3424410905561302,0,0.912281
0.43325436076589197,0,0.899179
0.6970898987768525,0,0.987342
0.758608766114579,0,0.974734
0.8139063818569313,1,0.995502
0.5993939573852212,0,0.976744
-0.036142161341181485,0,0.364896
0.7909333881953894,0,0.968668
0.062237348895690985,0,0.654255
0.02135165220902001,0,0.411609
0.040068642873286264,0,0.434572
0.3690515979271564,0,0.967320
0.7700412300919668,1,0.998808
0.7968329026592174,1,0.998830
0.8336514027202433,1,0.998832
0.8713387100510425,1,0.988848
0.07745819520560225,0,0.853437
0.05187201167198072,0,0.945774
0.48554577666612475,0,0.865353
-0.035583040096678085,0,0.962963
0.8422989771462593,1,0.998565
0.2252811084224919,0,0.900943
0.16658029771123806,0,0.963068
0.18802461147596294,0,0.925414
0.20456898882121446,0,0.835616
0.05859774544532967,0,0.899782
0.8263280337593364,1,0.963470
0.031010704338227404,0,0.901662
0.8937847568116403,1,0.997696
0.7049254684605031,0,0.551724
0.9298220544724646,0,0.964830
0.6789185100124209,0,0.967779
0.8896509974391684,0,0.887550
0.47577707372969613,0,0.838253
0.8803641332540003,1,0.996516
0.9074996906233639,1,0.990719
0.09441383582164356,0,0.882143
0.10545737091273301,0,0.584677
0.0059155574925887746,0,0.940767
-0.006421376390806696,0,0.936644
0.896058809956314,1,0.989349
0.8066651174352426,1,0.997582
0.004477050976254937,0,0.973684
0.5997787876071246,0,0.985765
0.6466597278721672,0,0.964539
0.6928737537611461,1,0.991515
0.8503365027919744,1,0.994152
-0.014634744110242707,0,0.488987
-0.005638560579645539,0,0.776722
0.024687438756581526,0,0.874751
0.665671658370684,0,0.981603
0.05144672784474384,1,0.952830
-0.059325583529289794,0,0.884146
-0.05948382391436308,0,0.696169
-0.061448883588308974,0,0.804878
-0.062076790840670075,0,0.781491
0.565507035563483,1,0.998739
0.7492834384205905,0,0.931472
0.7671028803719148,0,0.963291
0.7127911136197869,0,0.952564
0.7512506006921315,1,0.992701
0.744607025705472,0,0.969988
0.7317893540983855,0,0.978799
-0.03260087673886319,0,0.593478
0.7029751941653501,1,0.872340
0.4039306046742109,0,0.931102
0.22544130924363293,1,0.997630
0.2787167007438614,0,0.980186
0.33267475192714974,0,0.976581
0.4755505777543409,0,0.186813
-0.06249918367633952,0,0.390519
-0.0388225968013213,0,0.911392
-0.028436059219177055,0,0.759336
0.03862864768807732,0,0.872208
0.2504492775061989,0,0.913580
0.07717063171327906,0,0.575179
-0.03478612415440971,0,0.904040
0.24223403364068563,0,0.973934
-0.05282749856935431,0,0.546610
-0.06646234516152932,0,0.793103
0.22432899460187458,1,0.993789
0.8253264718247303,1,0.997519
-0.027271134616009114,0,0.740343
0.04152679284576821,0,0.929648
-0.036894477905875384,0,0.511230
-0.035219022571743974,0,0.550104
-0.046946726090422726,0,0.388946
0.6646938181141359,0,0.937337
0.8877723740329035,1,0.997409
-0.0216540619204696,0,0.694595
0.1129645175827465,0,0.866324
0.12073182702266587,0,0.959079
0.24724925774110057,0,0.966234
0.3311227445399264,0,0.914071
-0.0237742896700361,0,0.770930
-0.05206959910668306,0,0.775701
-0.039410900027025804,0,0.711908
-0.004450022681063638,0,0.807895
-0.033114797538076196,0,0.574213
0.27220674589957,0,0.659446
0.2420948699582794,0,0.968750
0.330855632653867,0,0.778894
0.40179630245224957,0,0.975177
0.06629021755095592,0,0.897172
-0.033849345991998805,0,0.865079
0.14173190204999145,1,0.995943
0.19285433549831202,1,0.990196
0.16008317887322088,1,0.931973
0.16748222216329586,1,0.976303
0.309969015847391,0,0.978378
0.8718130065625298,1,0.933962
0.9354586873201928,1,0.995276
0.8729589694953739,1,0.991926
0.34620805431460006,1,0.997925
0.7503729525573105,0,0.881620
-0.003763708769924522,0,0.932203
-0.035157942404841554,0,0.695332
-0.00813804166140128,0,0.536673
0.6839520381213626,0,0.944334
0.8932531186970669,1,0.989562
0.6323897957350827,1,0.994226
0.03017457745433588,0,0.791444
-0.002411796491017175,0,0.829517
0.010306201459662849,0,0.905660
0.012011584115916405,0,0.965557
0.07741898105348868,0,0.947977
-0.049225372615486276,0,0.316239
-0.049351178272114916,0,0.708197
-0.049069328593186204,0,0.419444
-0.04484645026605016,0,0.675393
0.2376157649824795,0,0.390785
0.034803499259876323,1,0.998503
0.052578408110182634,0,0.941315
0.03833075286112521,1,0.990419
0.06669855708872693,1,0.989461
0.07848217079721806,0,0.927400
0.11902458399521514,0,0.983796
0.15354933858377515,1,0.993088
0.2228153840766895,1,0.995376
0.27308632784280235,1,0.998834
0.3366590672703803,0,0.763298
0.033779395916719954,0,0.766423
0.049979765632468025,0,0.924574
0.07223910411256487,0,0.930788
0.0841788881068186,0,0.923445
0.1574975769644355,0,0.925059
0.1191878726834534,0,0.940618
0.360040456566118,0,0.965909
0.5340453640393997,0,0.967524
0.4562151323350609,0,0.987104
0.6166454218037614,1,0.997666
0.745830522580412,0,0.977273
0.38571272466980605,0,0.981352
0.6679980182067167,0,0.981330
0.8794259885617998,1,0.998134
0.16022467693139106,0,0.940228
0.2661897977121172,1,0.998822
0.196232333181031,1,0.993983
-0.025907618973897706,0,0.768029
-0.01827982880495046,0,0.931931
0.26847914609047646,0,0.971257
0.6921861078415861,1,0.991686
0.5902515167423158,1,0.997481
0.8626088722627135,1,0.996475
0.9218871155310453,1,0.998814
0.9420721664971686,1,0.998797
0.564235404769734,0,0.931845
0.43595405888145433,0,0.937282
0.483122487462449,0,0.983721
0.6149680147513839,1,0.996536
0.8725357674271694,1,0.998192
0.05666184728523398,0,0.538259
0.3998501461462961,0,0.966667
0.9342938878937745,1,0.998786
0.6455080793990582,1,0.995376
-0.028329643309569545,0,0.813333
-0.001277806057971875,0,0.906977
0.6227097957879724,0,0.977640
0.23858131277279157,0,0.936740
0.39754448628480943,1,0.989873
0.7761591380307705,1,0.997840
0.8712510113424008,1,0.997625
0.3893842988518746,0,0.926160
0.6178661499812228,0,0.970519
0.6419248377852382,0,0.983529
0.8342675923899618,1,0.998824
0.8837373130719722,1,0.997868
0.9104345978717697,1,0.998847
0.5646089383306535,0,0.981503
0.7839717451589482,0,0.978136
-0.025187871316088163,0,0.823529
-0.03249957553060619,1,0.944444
-0.020813060605870376,0,0.907912
-0.020888373494237777,0,0.910649
-0.014111693789649004,0,0.610437
-0.008773940983673288,0,0.968619
-0.014040282482612633,0,0.965092
0.03245371860319084,1,0.987854
0.05648118875682858,0,0.935268
-0.01067606361955024,0,0.866388
0.07477232515091074,1,0.996390
0.00197957653643499,1,0.993840
0.009727464413493751,0,0.930612
2.5942184298347683E-4,0,0.833698
-0.01094951421583925,0,0.954048
0.18056593524108724,0,0.977053
0.5567709635248971,0,0.979319
0.7344033824541697,1,0.985755
0.8323338048634383,0,0.974249
0.8638682112180196,1,0.998851
0.8566339902363191,1,0.998840
0.8518177097466366,1,0.998856
0.8461446444389102,0,0.983945
0.04396339642301464,0,0.652027
0.8345853341823015,0,0.900293
0.7021196597337857,1,0.998845
-0.0346172149761969,0,0.758794
0.5076616210128173,0,0.980653
0.004493659982198833,0,0.934315
-0.021119238937886725,0,0.941558
-0.019239778272587462,0,0.772177
-0.029138034292966616,0,0.863454
0.08923716009241692,0,0.824029
0.788305316311247,1,0.998843
0.07233508022983459,0,0.895868
0.14215948741166562,1,0.994744
-0.021857949777702657,0,0.854277
-0.016848950696836278,0,0.796875
-0.019916734559780498,0,0.668357
-0.013762293425001067,0,0.774520
0.016277807632577686,1,0.994071
0.001674913819072226,0,0.836198
-0.01210244150200718,0,0.760579
0.007974414011492865,0,0.781219
3.723103552880163E-4,0,0.909091
0.0074573607782001325,0,0.912647
-0.001925967090398406,0,0.979294
0.020145345553855085,1,0.992683
0.022800356156480284,1,0.989011
0.02318427485064907,0,0.979344
0.026366717392423394,0,0.980488
0.04198206726897487,1,0.988180
0.06148542056154508,1,0.992999
0.08370817274823088,0,0.982394
0.05832157826478784,0,0.978111
0.09048158668533475,1,0.997963
0.1752097927447288,1,0.998852
0.20317123897098607,1,0.997840
0.2630575811541137,1,0.998857
0.2627613955768419,0,0.618056
0.005058042483050821,0,0.792717
0.005968751853914141,0,0.853583
-0.014952697475498971,0,0.926036
0.5072102832629005,0,0.986270
0.5806940370054183,1,0.997704
0.007337535822083532,0,0.510145
0.30633274883320183,0,0.940904
0.44701382645618126,0,0.950355
0.6590487317913599,0,0.980638
0.8162202106668128,1,0.994318
0.8689265965450941,1,0.998847
0.8683591770242175,1,0.998578
0.8421453891593241,1,0.990329
0.8575667040594422,1,0.998565
0.6546949659246385,1,0.997680
0.5386761518980128,0,0.929642
0.8067958647991119,1,0.990836
0.8091539648199728,1,0.997722
0.8463012649280357,1,0.998845
0.824570501749657,1,0.996101
0.7491044847980892,1,0.995338
-0.015496757501577389,0,0.845912
0.004330517225076659,0,0.375969
0.6479401975600163,0,0.960409
0.5557885241136871,0,0.983891
0.5683733997696253,1,0.990196
0.5652382491730291,0,0.986602
0.567436205934581,1,0.994273
0.11076318750431859,0,0.962171
0.6914050221660896,1,0.888889
0.07135596551260377,0,0.958101
0.6846455421763121,0,0.980726
0.8011672478489555,1,0.989749
0.7030119010278851,1,0.996855
0.837784386969744,0,0.852055
0.7199954723780426,1,0.980000
0.6304181121211774,1,0.992593
0.8569868942651018,0,0.545455
0.7524076105540929,1,0.990878
0.8816672497632297,1,0.998834
0.0029500678681269508,0,0.602247
0.552506310893248,0,0.965128
0.5700823378744836,1,0.992008
0.6463161485083386,0,0.979042
0.021317856530952552,0,0.925795
0.26863395622964814,0,0.979310
0.8186767426754014,0,0.936803
0.7392561744190812,1,0.998860
0.8769298792698511,1,0.998861
0.8284307595803082,1,0.997717
0.6143669782149968,0,0.887356
0.5910404314521879,1,0.998837
0.6311766156603793,0,0.893443
0.6009023212972128,0,0.985160
0.4471556537526751,0,0.945736
0.543015019413823,0,0.964389
0.6033398432961252,1,0.992982
0.5856766039097399,0,0.898422
0.5467775570338902,1,0.992308
0.5632746328701286,1,0.998857
0.5964198128670317,0,0.959677
0.6838350189711375,0,0.977907
0.16916142988473587,0,0.863158
0.06040392152291258,0,0.946039
0.09406021246327036,0,0.950174
0.1902290571894212,0,0.960875
0.04217529059111549,0,0.854142
0.07819063231398816,0,0.833333
0.13325637329380022,1,0.972973
0.035152499877343237,1,0.997722
0.23329989368463025,1,0.997396
0.07444666588780001,0,0.911667
0.09321686992863931,1,0.979310
0.530773109737253,0,0.901088
0.7465226738922882,1,0.998555
0.5776958146442449,1,0.997658
0.2708859673500731,1,0.998819
0.6399811056389959,0,0.868421
0.14281604899773814,0,0.966318
0.15149018135186698,1,0.990621
0.24921570350436767,0,0.922776
0.34893106348683933,0,0.839844
0.6522730361687862,0,0.591304
0.581019292237847,0,0.950992
0.2371559233239294,1,0.996815
0.6786983119955198,0,0.965478
0.7297566850516939,0,0.852217
0.5170090382332577,1,0.936709
0.39555959723447104,0,0.918619
-0.03181380801640247,0,0.869231
0.12165468244676429,0,0.939044
0.12585957157679406,0,0.976048
0.16149513764993118,0,0.983683
0.2225325928565992,1,0.998855
0.3969827841017851,0,0.966281
0.4550980368956542,0,0.970930
0.3196144662817632,0,0.929078
0.577414208213519,0,0.905325
0.7230045079011276,1,0.997680
0.6329181382378914,0,0.984542
0.6436199607513896,1,0.995798
0.21316994981418375,0,0.892344
0.5893098332356466,1,0.995000
0.7874477137091915,1,0.998975
0.40494737519206186,1,0.996516
0.32544866726069466,0,0.952239
0.6221798727787523,0,0.564565
-0.01494455618782638,0,0.646421
0.32109637893037474,1,0.996016
0.32201373529101235,0,0.978399
0.3525250620264493,0,0.983815
0.5632363420895904,1,0.998861
0.9049883748920133,1,0.998849
0.4824912157843351,1,0.997930
0.08337072214602358,0,0.812010
0.08773735712177286,0,0.886486
0.1209640025728536,0,0.852941
0.13480281036169836,0,0.898104
0.18320555378309,0,0.968974
0.638327529737303,1,0.993404
-0.02601011273521924,0,0.631765
0.5369821994069819,0,0.966628
0.7380711743892028,1,0.993174
0.042510546740051426,0,0.965054
0.7805458140390622,1,0.974359
0.6822946888194706,1,0.992795
0.7802179357475004,1,0.997680
0.9183325890419445,1,0.998840
0.8573579512999223,1,0.994259
0.8652132540009861,0,0.888031
0.7302842730528232,1,0.995370
0.84350054610887,1,0.997730
0.8482820008775269,1,0.992188
0.9376108698239354,1,0.998800
0.016758553432446373,0,0.896584
0.7003399874798215,1,0.993103
0.8447266467109165,1,0.997653
0.7418008048358928,1,0.997727
0.934008801926716,1,0.998720
0.6901395628813871,0,0.985849
0.953801828604125,0,0.309859
0.8636945380423555,1,0.996583
0.6944350941275307,1,0.995423
0.7074775307475016,1,0.995470
0.6851438992193938,1,0.996595
0.05164746873271186,0,0.923628
0.07136728353637628,0,0.955378
0.08986803265932602,1,0.994172
0.11071482261236457,1,0.994226
0.10209762896650548,1,0.998862
0.10002410596428642,0,0.954494
0.8034387940820903,1,0.988304
0.6352298115140789,1,0.989928
0.6859908481522233,0,0.776699
0.2679743677807848,0,0.979228
0.1743698161496659,0,0.967327
0.1247656359218219,0,0.976959
0.13834799569681627,1,0.998860
0.5992803889006361,1,0.993166
0.6247196542934575,0,0.986395
0.18819497722828563,1,0.991982
0.5468955186182194,0,0.981630
0.6179520271513341,0,0.980527
0.5914396098213682,1,0.991860
0.6718685557740347,0,0.865585
0.6714126136200725,0,0.875862
0.43387379977476,1,0.996564
0.14822466485942654,0,0.199161
0.3062639101084582,0,0.247573
0.37777963627946626,1,0.995204
0.39806501794182847,1,0.998802
0.4319041956733917,1,0.998826
0.4488361283722218,1,0.996471
0.500997283790031,1,0.998847
0.13228692562824898,0,0.743483
0.5121084160309677,0,0.969873
0.47511174675019874,1,0.998858
0.6235336889735772,0,0.985621
0.7606736538348176,0,0.938534
0.7636774197987155,0,0.922986
0.7158013239716382,1,0.999043
0.7249101257785686,0,0.895813
0.7445789922815358,1,0.999028
0.7535976025044333,1,0.997113
0.7603321249180055,1,0.994135
-0.034166484843881115,0,0.730435
0.34453558697429476,1,0.988221
0.4273114372395984,0,0.971332
0.2386912350266428,0,0.966722
0.6191504169716724,1,0.998845
0.6417334578393532,1,0.999021
0.5658186124813261,0,0.610619
0.5763755761952788,0,0.535000
0.6450268249332143,1,0.996571
0.5688574105854948,1,0.998865
0.52706012738406,1,0.992045
0.5458436722930017,1,0.995000
0.5925597004530403,1,0.998866
0.30563028371158757,0,0.919689
0.5279954400217458,1,0.995261
0.5267040464602423,1,0.995283
0.5454082251019547,1,0.997653
0.46179216535534245,1,0.998839
0.6093409649669044,1,0.995964
0.8458542829885408,0,0.980573
0.7197460138072164,0,0.928023
0.7092303862101085,0,0.747305
0.7677929850132317,1,0.999038
0.778513820623506,0,0.974384
0.6863397963193507,0,0.982122
0.7581369438071219,0,0.936603
0.780696801718987,1,0.990215
0.7676061060682225,1,0.998060
0.7661063081307264,1,0.995202
0.7539901031121304,1,0.999038
0.5482167752454538,0,0.622857
0.9133360902528946,1,0.998848
