0.09663126678905326,0,0.958423
0.08369705782975254,0,0.955933
0.12630478060374078,0,0.840430
0.06228598434060868,0,0.954578
0.07454720435442687,0,0.914513
0.10691533468565187,0,0.946980
0.1942530643529783,0,0.932320
0.12731905778457284,0,0.983271
0.11449858544707042,0,0.678305
0.10578533375760966,0,0.968670
0.08672863873898765,0,0.950512
0.11003320654986973,0,0.949580
0.08602077404759667,0,0.964260
0.1077164311374276,0,0.856837
0.1152476203454846,0,0.931910
0.06723282268936917,0,0.973231
0.11683273466562964,0,0.946770
0.0994822712537996,0,0.829756
0.1578875587996823,0,0.990842
0.14520262322772018,0,0.932509
0.12419812510974704,0,0.924220
0.11198356336435386,0,0.989846
0.1456439354506411,0,0.914939
0.11828961498347536,0,0.850123
0.0734192122278095,0,0.906185
0.1117528072650767,0,0.894745
0.09397741869653867,0,0.887416
0.10482445558918188,0,0.989721
0.08852716759775948,0,0.979006
0.11250951498023883,0,0.992294
0.13093792725710987,0,0.722959
0.10565712122778657,0,0.925713
0.11100293082935572,0,0.953063
0.1098477695992562,0,0.876772
0.0506203665081253,0,0.926571
0.16485047853712367,0,0.958052
0.1317819670202088,0,0.958264
0.12891214500347828,0,0.979946
0.06940651414314827,0,0.963746
0.10594652387215893,0,0.966131
0.10378864077339742,0,0.960438
0.09032744965191954,0,0.718678
0.0483925919451094,0,0.948044
0.038157528703952094,0,0.894375
0.10733365790854002,0,0.963558
0.13966324250210016,0,0.970910
0.09993735270959117,0,0.974661
0.12285818676001592,0,0.887177
0.12437854949738336,0,0.811730
0.09855450897045065,0,0.964783
0.09136215851148705,0,0.957094
0.13273665304706414,1,0.997880
0.0641266180105123,0,0.849475
0.10777662145534636,0,0.933453
0.07927066423840037,0,0.761523
0.11844154827391927,0,0.966901
0.10477238483763211,0,0.938221
0.12369772646798792,0,0.909467
0.10721880470860848,0,0.972164
0.10297038844808745,0,0.989015
0.05670442337664619,0,0.951941
0.12441980669786792,0,0.995373
0.10246088362552169,0,0.863789
0.11174888881950176,0,0.960579
0.056937660617004386,0,0.959345
0.10583267791395329,0,0.985412
0.06817843544149509,0,0.879175
0.11324938680251055,0,0.968050
0.09529380912762778,0,0.995268
0.07652082653223367,0,0.938140
0.06306608774220092,0,0.971828
0.09587358450978509,0,0.981764
0.11820666162195682,0,0.982323
0.11637744728007686,0,0.917934
0.15465642433536744,0,0.947848
0.08565554487260374,0,0.696301
0.142123865388403,0,0.995502
0.1982678028951614,0,0.970506
0.05780728489695436,0,0.969524
0.1527693624266567,0,0.960809
0.1371159729997365,0,0.987275
0.11598101956507047,0,0.901452
0.10468696166161887,0,0.879817
0.10768319999202862,0,0.853812
0.15184385165585335,0,0.917909
0.24084492192396345,0,0.858127
0.09657489496500546,0,0.937891
0.1258968454596195,0,0.986591
0.14467195476822425,0,0.982605
0.11630116121677325,0,0.818203
0.11145738037543175,0,0.925056
0.11282621841092007,0,0.837097
0.1725168572014101,0,0.996400
0.10500129231104242,0,0.933615
0.18048240058461906,0,0.936376
0.11554760067880135,0,0.965465
0.1122882336327613,0,0.826200
0.10233436943078535,0,0.962845
0.12871538343571257,0,0.915612
0.13468780643299771,0,0.919139
0.09065005963113447,0,0.939642
0.14711542586271148,0,0.957616
0.20086596014405053,0,0.962859
0.20323188488282493,0,0.963545
0.10249564809758828,0,0.958482
0.10095229609411663,0,0.867343
0.1484997198926614,0,0.970941
0.12674577563027786,0,0.879668
0.09115678170844912,0,0.849610
0.16077575896614035,0,0.950868
0.12842688384126627,0,0.941986
0.0935756753337396,0,0.881297
0.17486323557705252,0,0.978231
0.13102535610593347,0,0.993689
0.15275086447421918,0,0.873163
0.09762434272574903,0,0.902489
0.10509538584836692,0,0.931841
0.09831466640805323,0,0.948776
0.10782350110509241,0,0.987343
0.12322555745893864,0,0.979645
0.1773693284283062,0,0.964356
0.1011825508229713,0,0.920079
0.11728210086515699,0,0.964767
0.14442840099322898,0,0.919198
0.18038970060829826,0,0.973136
0.08163777659469013,0,0.861530
0.10831205559755722,0,0.928531
0.14428536344427936,0,0.978165
0.1903305035040802,0,0.966185
0.13827820716168723,0,0.970482
0.1409862313355861,0,0.910139
0.10106065248788852,0,0.918128
0.0931624183759252,0,0.962791
0.09068909220205988,0,0.963248
0.10482005685292466,0,0.853322
0.12175858582088576,0,0.824103
0.16560303780994198,0,0.950342
0.12864088137690477,0,0.950422
0.10066142268690266,0,0.950057
0.12849575649560416,0,0.887498
0.0922608368299997,0,0.966521
0.1166203907977662,0,0.901988
0.15836356651271052,0,0.960314
0.123939957983245,0,0.945118
0.09924405861629676,0,0.971004
0.09100228621835278,0,0.984925
0.08579952408316475,0,0.930015
0.10899014882540972,0,0.978741
0.10677461052511393,0,0.974821
0.1879672704045811,0,0.983195
0.07299863910236865,0,0.944281
0.14201972476444075,0,0.785767
0.15557095349814917,0,0.901210
0.1571274138175842,0,0.994633
0.1724357136649316,0,0.974510
0.16591698496752919,0,0.951960
0.13442102770346961,0,0.909358
0.14769371075004517,0,0.985084
0.16282347284082246,0,0.990565
0.13581196115533153,0,0.960550
0.12981216708655732,0,0.961388
0.11817416977544695,0,0.971697
0.23221828808035033,0,0.995855
0.1881229795122782,1,0.999224
0.11991488219434362,0,0.958459
0.1631366542821785,0,0.871948
0.17410180007252413,0,0.964340
0.11387772250334842,0,0.938476
0.1357234283006324,0,0.980974
0.1668622233506136,0,0.887929
0.12316049426209957,0,0.875065
0.16147880521150126,0,0.913566
0.06970922938803505,0,0.916511
0.1001636981483219,0,0.921172
0.15018330479854378,0,0.921698
0.14920007698200496,0,0.969932
0.1641751060910019,0,0.969027
0.16910174391763297,0,0.912326
0.1697395951711341,0,0.857289
0.15316134214201835,0,0.950975
0.17203027137443835,0,0.930078
0.05976725091236313,0,0.939159
0.0773509730780453,0,0.946445
0.10755988558228455,0,0.967353
0.14733685003349037,0,0.958372
0.10626659288369586,0,0.927891
0.08075199836351521,0,0.955100
0.07087641359259288,0,0.982015
0.1203847589785526,0,0.977505
0.13161093653239578,0,0.764897
0.11163296174492635,0,0.924802
0.17490813693163773,0,0.970699
0.1388244564094605,0,0.909953
0.1726802943107947,0,0.918003
0.1393973933193962,0,0.976018
0.126667467991928,0,0.965686
0.16754357255662863,0,0.910841
0.11088181237687893,0,0.847083
0.18807459561108075,0,0.964535
0.20803152196976896,0,0.813419
0.29848867268379115,0,0.803552
0.17317762139442572,0,0.803663
0.14374155143914386,0,0.959363
0.15358585545644607,0,0.968846
0.11987552670002478,0,0.818383
0.11602430920248138,0,0.906425
0.1534273875316632,0,0.986421
0.12737942378804823,0,0.984419
0.1243377750996416,0,0.977162
0.20359021585149625,0,0.921579
0.1966483357400049,0,0.951698
0.15222669312655854,0,0.974073
0.22692054575479972,0,0.986075
0.12432710271347598,0,0.979214
0.17707030806541701,0,0.948469
0.16798252256272173,0,0.961533
0.2127552139179736,0,0.872858
0.14661712170773739,0,0.845581
0.12361062350207856,0,0.967850
0.16038094398441524,0,0.981159
0.09522591492167172,0,0.970801
0.10022608777748225,1,0.998479
0.08211609741817083,0,0.942876
0.15107521162599205,0,0.963086
0.11365498640513691,0,0.948132
0.1395168298540024,0,0.998191
0.1361753198946751,0,0.956898
0.11513295008514401,0,0.997115
0.09724045792980485,0,0.821843
0.22329986463707774,0,0.915101
0.12839169339380166,0,0.960873
0.13986300370794974,0,0.975518
0.15173648751386057,0,0.852223
0.14849066795213112,0,0.936173
0.09055666866999115,0,0.964478
0.13674407654821,0,0.889055
0.178063393465265,0,0.927019
0.20555703424313745,0,0.958576
0.21381437676448875,0,0.785646
0.19231486031368053,0,0.960767
0.15290623663197705,0,0.968334
0.13697517754725394,0,0.906879
0.08334289382629867,0,0.848726
0.15156160663876445,0,0.958358
0.12395883787132339,0,0.918367
0.2433839880740441,1,0.998758
0.21788194452702153,0,0.664304
0.19076665282389804,0,0.896060
0.14956971347921902,0,0.992148
0.0957308520447309,0,0.852653
0.1515349085554216,0,0.952180
0.09791554957579317,0,0.789674
0.15230065704927956,0,0.966277
0.14645165055198578,0,0.974819
0.1423448806723379,0,0.967950
0.20302573332621132,0,0.990147
0.18198397906777172,0,0.900477
0.18450670125530155,0,0.699121
0.22025272393716014,0,0.869912
0.1371517904141821,0,0.866556
0.14875640905759346,0,0.808803
0.17478867475572812,0,0.876195
0.09834012870793238,0,0.981563
0.11288626484451206,0,0.976812
0.10671905177621643,0,0.948873
0.19821237695604435,0,0.953910
0.12153739793576306,0,0.951282
0.25173315963324644,0,0.873391
0.12260865581892388,0,0.969933
0.17051481539693716,0,0.918047
0.15805414756152497,0,0.916337
0.22017538364903583,0,0.838226
0.1751724763451777,1,0.999190
0.15123995963178144,0,0.969728
0.16563986716558568,0,0.956597
0.1023139966839548,0,0.702970
0.07139340429604374,0,0.801142
0.09974532741415475,0,0.996039
0.11465418343540729,0,0.973508
0.11576729414185828,0,0.805185
0.14508914822502078,0,0.985236
0.12803901348624008,0,0.908053
0.16817780022646447,0,0.965201
0.1656226722139496,0,0.855797
0.20848883744509455,0,0.968131
0.18530159035059907,0,0.972586
0.18515352503313745,0,0.938036
0.12304545101375906,0,0.925112
0.16162509885214513,0,0.682682
0.18108810472952852,1,0.998230
0.07655247902287535,0,0.960009
0.13672546044269077,0,0.934645
0.15560157930505042,0,0.969323
0.11800080962110317,0,0.848498
0.1520686999622783,0,0.921484
0.17371518095788072,0,0.978958
0.07186822807641835,0,0.933148
0.12305146967057949,0,0.949624
0.20468178260207573,0,0.978228
0.08999152126514201,0,0.935295
0.12159408367871076,0,0.930846
0.14473985481611226,0,0.963130
0.1372774556120851,0,0.965522
0.23855361057130298,0,0.898555
0.19487753795457763,0,0.990480
0.17146067648414678,0,0.904341
0.18732885460377763,0,0.818018
0.1827043479123635,0,0.946717
0.20011986419481814,0,0.933275
0.17322120221929754,0,0.926448
0.20082101287590423,0,0.819191
0.23711746272967416,0,0.980661
0.2515889241430912,0,0.819726
0.22263553021854052,0,0.937074
0.25301371616858426,0,0.995513
0.22730632679885687,0,0.947707
0.16395934445396484,0,0.869379
0.18308185417988884,0,0.951713
0.20280221941825366,0,0.854492
0.17846046230820267,0,0.945720
0.1922754313742703,0,0.980568
0.17251168687350066,0,0.927989
0.2088528817472551,0,0.959570
0.2075948618024545,0,0.961488
0.19999975502538042,0,0.813082
0.1565197618281684,0,0.971618
0.1651201501340882,0,0.885077
0.11631875355653445,0,0.759336
0.11112061134211067,0,0.954652
0.12175839123981173,0,0.966174
0.15166135631397942,0,0.942776
0.07151627378514595,0,0.823065
0.11429101745912401,0,0.923687
0.10582146853363847,0,0.985479
0.12722851337575541,0,0.991749
0.12811671554679058,0,0.947575
0.11941623410162164,0,0.977908
0.1345338713226826,0,0.971785
0.12241641729884609,0,0.979674
0.11166271345650478,0,0.968572
0.11892253268549831,0,0.635878
0.07173055427352124,0,0.931173
0.08558529572001297,0,0.759246
0.08726110176924709,0,0.960434
0.11392616702903766,0,0.949879
0.08237996503857901,0,0.942285
0.1149056373789663,0,0.839367
0.16579436803599695,0,0.938152
0.13872552713676753,0,0.962581
0.07049433303216168,0,0.837739
0.17759234272306737,1,0.998970
0.14042814696549377,0,0.910398
0.23846721733877937,0,0.968920
0.12472220419204558,0,0.785359
0.10023177602618465,0,0.987142
0.15598765555082225,0,0.995654
0.09484539233669508,0,0.834598
0.10190910053201357,0,0.777456
0.08915573745444728,0,0.973788
0.0946755447209647,0,0.959031
0.07996807343894856,0,0.956608
0.09251203791768928,0,0.971977
0.09010155027193141,0,0.971490
0.08536622874954451,0,0.968591
0.1098146730662861,0,0.865230
0.08740540407976448,0,0.987489
0.17827150158221525,0,0.992001
0.1816610931493775,0,0.936236
0.1781531935236439,0,0.983643
0.1093259614582652,0,0.889557
0.10107275014025428,0,0.880685
0.13590462396623637,0,0.984015
0.09213398298726143,0,0.957778
0.1840798248718722,0,0.430543
-0.03838798169955558,0,0.857224
-0.022641962022829025,0,0.915530
-0.03725614764052397,0,0.983101
-0.04383672137744535,1,0.998549
-0.02433536946772569,0,0.914814
-0.026560722563281975,0,0.929420
-0.04065269240202301,0,0.912759
-0.03736914345684608,0,0.825575
-0.040451673937904435,0,0.960971
-0.043518681916045944,0,0.467584
-0.031039111976160116,0,0.050420
-0.03969002597159236,0,0.233372
-0.031125662235534618,0,0.355236
-0.030805007581367283,0,0.298117
-0.03634923405362401,0,0.298914
-0.030455299281529864,0,0.730126
-0.033137107715862035,0,0.376247
-0.030347781589784725,0,0.296227
-0.04986209054170847,0,0.300115
-0.045734421166724396,0,0.336614
-0.037365851548328714,0,0.294460
-0.033522395200984774,0,0.258371
-0.028398791415284855,0,0.408779
-0.04336641479511825,0,0.165308
-0.0455731358848024,0,0.249862
-0.028753817027739135,0,0.262864
-0.040063563589103325,0,0.135684
-0.03037339630427308,0,0.174672
-0.05130724691747916,0,0.101221
-0.04460716059437832,0,0.281692
-0.03454542018125382,0,0.319989
-0.027496352813080258,0,0.386476
-0.027175201560327957,0,0.137532
-0.025335002895721943,0,0.297819
-0.0417647992884412,0,0.245887
-0.05982831858993268,0,0.063746
-0.048227976169391694,0,0.129806
-0.0444548065679819,0,0.366009
-0.03880296692037109,0,0.383130
-0.03731293154546891,0,0.260622
-0.0252332991862283,0,0.297567
-0.030502022662199653,0,0.281631
-0.03158168455008839,0,0.325770
-0.031022077220279373,0,0.752288
-0.040449601607700995,0,0.234626
-0.03360502169474602,0,0.363452
-0.03596536367694903,0,0.218384
-0.02997595351816696,0,0.300450
-0.038254629422539925,0,0.923418
-0.03357860166139694,0,0.202025
-0.05046965818121225,0,0.464553
-0.04100356943277567,0,0.217077
-0.035620493150684586,0,0.427531
-0.029667682898479174,0,0.281237
-0.03842302681203162,0,0.204397
-0.03518828807104528,0,0.116995
-0.0430961708646352,0,0.159199
-0.03625454871582589,0,0.246580
-0.03557009546356479,0,0.286498
-0.03027091590885544,0,0.274395
-0.040516572159925074,0,0.010719
-0.059386889114288126,0,0.107689
-0.06518363116633817,0,0.162310
-0.04890298700241477,0,0.274623
-0.04127423077100938,0,0.172590
-0.05064097021652147,0,0.399728
-0.0383063287811989,0,0.388975
-0.027645553330929346,0,0.364525
-0.03884127532959987,0,0.168754
-0.035812728104631056,0,0.336062
-0.0414230219733608,0,0.415557
