0.13740432723305016,0,0.969992
0.13270662697670868,0,0.960277
0.12281773913413797,0,0.964947
0.13566827127055328,0,0.963816
0.15725520435454457,0,0.966557
0.1598169655228201,0,0.720984
0.14426128619252232,0,0.977464
0.1418524077452317,0,0.965921
0.1412385378096575,0,0.957994
0.14317699272650372,0,0.966904
0.1454892701778024,0,0.969833
0.14828408298866122,0,0.978909
0.14881900461936,0,0.969593
0.14850678408422477,0,0.964623
0.14587648025129563,0,0.963484
0.13921421816496488,0,0.962922
0.13522582194887053,0,0.962910
0.1369371591855493,0,0.963928
0.13578622690979422,0,0.964462
0.1375627693252856,0,0.967847
0.1379072207838916,0,0.963989
0.14002821829041812,0,0.965662
0.14284223352065423,0,0.976589
0.1450127177181555,0,0.975990
0.14685175193425926,0,0.972237
0.1480803093007454,0,0.964357
0.1513024486192604,0,0.964162
0.15267993583343054,0,0.963859
0.1535730363518676,0,0.966711
0.15489453276186446,0,0.965529
0.1486238902595629,0,0.966454
0.15004258632426312,0,0.964822
0.1515965916553061,0,0.963627
0.15204220518785105,0,0.967630
0.15288405384942397,0,0.948760
0.15377012089651534,0,0.965437
0.1546407539376878,0,0.968991
0.15951275353868685,0,0.975827
0.16320837397276952,0,0.971019
0.1675708802249746,0,0.982729
0.1697861357294318,0,0.981197
0.17500568449717568,0,0.972532
0.1799794380537309,0,0.968995
0.1832517286798846,0,0.948429
0.18561475098623836,0,0.978483
0.187257750693557,0,0.970969
0.1892276009540329,0,0.952398
0.19014204907538337,0,0.996802
0.19150530395717727,0,0.971405
0.19174441023812658,0,0.948459
0.1924076250511177,0,0.969937
0.19355842052260885,0,0.995990
0.1955396617562021,0,0.981837
0.19811343353390734,0,0.983377
0.20129481600680424,0,0.992751
0.20347819386948932,1,0.998865
0.20474999198420407,0,0.977104
0.20763477915180434,0,0.955067
0.20921288845313799,0,0.956783
0.2102164661166651,0,0.982933
0.21116394322532392,1,0.999917
0.21214988779951455,0,0.963328
0.21368638386178537,0,0.946392
0.21454681779563664,0,0.968375
0.19287203826461471,0,0.994550
0.19381654460652092,0,0.963097
0.1946564453338421,1,0.999036
0.19552467054415396,0,0.965415
0.19706700839053265,0,0.977440
0.19846589243773072,0,0.966331
0.200106398574852,0,0.968431
0.2020362626158571,0,0.956394
0.2033967020082334,0,0.965783
0.20475107744553422,0,0.971849
0.2073982732162141,0,0.963327
0.20869201030813675,0,0.997902
0.21057239097649538,0,0.962946
0.2118139262382153,0,0.971961
0.21371847813433137,0,0.955830
0.21517054345737976,0,0.966444
0.21679621349736589,0,0.958190
0.21792224131934212,0,0.974232
0.21942646395898485,0,0.962876
0.22108028925090994,0,0.972498
0.2231579337077633,0,0.967257
0.22499339580135477,0,0.963779
0.22600469868383438,0,0.970252
0.2278800681870111,0,0.997352
0.23035475937088937,0,0.994899
0.23140188558511823,0,0.971399
0.23270150173270432,0,0.972937
0.23472617172139382,0,0.997999
0.23742087494410663,0,0.962873
0.24015777440686167,0,0.991098
0.24261131452422757,0,0.973592
0.24502875670530408,0,0.972100
0.24824133895456466,0,0.962850
0.2507118907161308,0,0.969761
0.25313924420065304,0,0.977273
0.25641198009297583,0,0.969434
0.25900549549870044,0,0.977117
0.2622326507939775,0,0.966561
0.2651434330153559,0,0.977486
0.20254729532259194,0,0.987558
0.20537981554229479,0,0.982001
0.2088214867481683,0,0.964174
0.21090590303157994,0,0.982077
0.2143162297157527,0,0.990733
0.21755297811706828,0,0.957412
0.2203117334466262,0,0.991090
0.22613474116145493,0,0.972516
0.23182570775088243,0,0.969261
0.23723551302294074,0,0.967894
0.24145110305801185,0,0.977905
0.24449945627986874,0,0.975348
0.2483282274467154,0,0.978876
0.2518930718077865,0,0.977672
0.25761884842036004,0,0.993663
0.26094110730899484,0,0.971798
0.2620884195852671,0,0.973821
0.26320020846638287,0,0.973257
0.2657801899792429,0,0.995648
0.26865272396892254,0,0.994504
0.2717489507787291,0,0.969332
0.2750918523846466,0,0.982343
0.27906252793334885,0,0.979412
0.2811596969372789,0,0.995659
0.2844732066611889,0,0.970200
0.2861178760826166,0,0.976791
0.2890316200940678,0,0.971565
0.22102766892082315,0,0.972110
0.22554404646863216,0,0.976433
0.2290117179411419,0,0.976869
0.23262713229690815,0,0.973348
0.2371496665934064,0,0.990757
0.23977452963046442,0,0.997347
0.24412046058176212,0,0.969470
0.24780805493012342,0,0.995017
0.2513769838535517,0,0.955297
0.25626843848794223,0,0.970232
0.26012408832456985,0,0.966721
0.26350162715291386,0,0.969482
0.26835556292429263,0,0.973437
0.27344697483837804,0,0.979691
0.2780692970936427,0,0.967900
0.28191942125551833,0,0.979350
0.28380392774970964,0,0.971229
0.2847178986466321,0,0.972927
0.2859270611038909,0,0.967850
0.28701181109658214,0,0.975567
0.2882452585078404,0,0.964305
0.2907511189981448,0,0.983383
0.29298172152613605,0,0.963820
0.2942987203925103,0,0.960510
0.29585295834188485,0,0.988222
0.29813583942586197,0,0.998146
0.2997856722092112,0,0.969044
0.3012899719296922,0,0.975738
0.3023720200116888,0,0.975946
0.30397911228238766,0,0.977657
0.22489200612149474,0,0.971109
0.22664853889501546,0,0.987840
0.22758519549304823,0,0.966377
0.229065632968852,1,0.998620
0.23209153869235993,0,0.966589
0.23520429593244357,0,0.968873
0.23682521825557132,0,0.995831
0.23801169984106907,0,0.955151
0.23940513012249026,0,0.938292
0.2404771311738468,0,0.971992
0.24257763675454028,0,0.987792
0.24662378016398323,0,0.957519
0.2508131911211643,0,0.963181
0.25245071778363387,0,0.961741
0.2562182142106816,0,0.980614
0.2589377173277794,0,0.973274
0.26206957565270683,1,0.999470
0.2649461104817033,0,0.979221
0.2684295150800736,0,0.978838
0.27109842333592343,0,0.974767
0.27271498288785845,0,0.970796
0.27393350848410375,0,0.973698
0.27523320133759127,1,0.998773
0.2767149531422995,0,0.969683
0.2787287734265148,0,0.988152
0.28084195276140494,0,0.969045
0.2834235593653147,0,0.973333
0.28706708764776845,0,0.980261
0.29189838541273333,0,0.967409
0.29386981334422163,0,0.985286
0.29598449811919614,0,0.980003
0.2983133679279502,0,0.975077
0.300758468072568,0,0.969978
0.3038999357073557,0,0.998301
0.23080821028470822,0,0.971476
0.2346588618431123,0,0.971004
0.23701674316921711,0,0.972886
0.24019129664289032,0,0.994701
0.24267986532397123,0,0.995999
0.24662881241417492,0,0.965440
0.2503276816844677,0,0.969061
0.25383096644050257,0,0.981132
0.2573211858452748,0,0.998175
0.26096392823281495,0,0.971993
0.2636780381330781,0,0.995490
0.2665585187818925,0,0.978125
0.2693934216636861,0,0.965064
0.272417149794035,0,0.966667
0.2757054285024451,0,0.991624
0.27907362383524076,0,0.975606
0.28337092524962143,0,0.973673
0.2878725643728929,0,0.974630
0.2926492432507468,0,0.973560
0.2969526986035292,0,0.976116
