0.05653619774477393,1,0.999990
0.05006339374292413,1,0.999981
0.047734727018074935,1,0.999981
0.046471054342374425,1,0.999990
0.05263530579708927,1,0.999990
0.04873765891282696,0,0.981105
0.06399339062563097,1,0.999980
0.05993785593913364,1,0.999990
0.07525493524000954,1,0.999990
0.08995017871313798,1,0.999990
0.09601168509596726,1,0.999923
0.08357420937669582,0,0.999730
0.05260277164760871,1,0.999990
0.1314690124469387,1,0.999922
0.07515058068857444,0,0.999884
0.052385695580926914,0,0.990388
0.04907704889128052,0,0.997137
0.04712899015074199,1,0.999981
0.04714529416218729,0,0.989085
0.04709012242046922,0,0.373080
0.044031531800829346,1,0.999990
0.04902844492741601,0,0.979065
0.04623714303963202,0,0.372737
0.04528393650229476,1,0.999990
0.04345216294903754,1,0.999990
0.04652992223284492,1,0.999981
0.044517526969158304,0,0.957720
0.044874217028320944,1,0.999990
0.043190230140846705,0,0.370336
0.048746274146294725,1,0.999990
0.046054587822822554,1,0.999990
0.04662231803136532,1,0.999990
0.045758308962501305,1,0.999990
0.05169165509597269,0,0.991391
0.041854427790606406,1,0.999990
0.04028473014172187,0,0.359880
0.04071074590793389,0,0.383469
0.039685114770346565,0,0.380457
0.04429713045621895,1,0.999990
0.04107220241664258,1,0.999981
0.04188246652694332,0,0.370717
0.040650749018153416,0,0.372194
0.07278589471380041,0,0.999563
0.04353091078338648,1,0.999980
0.039143287278091944,0,0.979219
0.05885478124451785,1,0.999981
0.060857585880652675,1,0.999933
0.050119934237759386,1,0.999990
0.06426582860821493,0,0.999150
0.04831661943655695,1,0.999990
0.04882795420787879,0,0.999826
0.046770726700876834,0,0.374288
0.04672539828114642,1,0.999990
0.04878430608164695,0,0.363624
0.04632376430599754,0,0.367161
0.045873464002620636,0,0.999582
0.04359166622417237,0,0.358288
0.04247449431522927,0,0.983071
0.04515145087561932,1,0.999990
0.04260988402310123,1,0.999990
0.040186543772949654,1,0.999990
0.15684729021315566,0,0.999721
0.062154310889932944,1,0.999981
0.0687391342970054,1,0.999981
0.05946231906969457,1,0.999962
0.043078165073897536,0,0.999876
0.05404609665938638,0,0.999768
0.048061791121529494,1,0.999990
0.044088500934363034,1,0.999942
0.0590231952530919,1,0.999961
0.04559729643742624,0,0.982680
0.05231935406810503,1,0.999981
0.059549318271955184,0,0.382051
0.05135714456338314,0,0.997564
0.05696102611009259,1,0.999990
0.04383044935334047,0,0.793416
