0.20004691456316764,0,0.998852
0.3110495466285837,0,0.000000
0.40325345654947886,1,0.999990
0.4822925925161834,1,0.999981
0.5263773406847077,1,0.999971
0.5865640464573809,1,0.999990
0.6322801728429515,1,0.999971
0.6648108017188363,1,0.999990
0.6845093056627642,0,0.000000
0.693908234829957,0,0.000000
0.530068764791587,1,0.999990
0.5833328255240456,1,0.999990
0.6146317926318304,1,0.999971
0.6533303112283492,1,0.999981
0.6820801685717608,1,0.999981
0.695695317563062,0,0.000000
0.6993832665607618,1,0.999990
0.7166378742962537,0,0.000000
0.7405602055520235,1,0.999990
0.7373268213017677,0,0.000000
0.739322300615846,1,0.999990
0.7463075600032026,0,0.000000
0.6053754241209263,0,0.000000
0.640708256556837,0,0.000000
0.6622907725318344,0,0.000000
0.6723220947550442,0,0.000000
0.6987687977784608,0,0.000000
0.7196289436548715,1,0.999990
0.7416521874524107,0,0.000000
0.7482174276104598,1,0.999990
0.7241571778693905,0,0.000000
0.7407981299165924,0,0.000000
0.7395389470350786,1,0.999990
0.7472816567430084,0,0.000000
0.7654377536477746,0,0.000000
0.739430101455128,1,0.999971
0.6248451385224654,0,0.000000
0.6608842364456132,0,0.000000
0.6913000812048274,0,0.000000
0.6984703707695461,1,0.999971
0.6947016297841162,0,0.000000
0.6894419131399132,1,0.999990
0.7102015258619189,0,0.000000
0.7166897447149868,1,0.999990
0.7344760047337457,0,0.000000
0.7443208356376209,1,0.999990
0.7309804100588262,0,0.000000
0.745653115459096,1,0.999990
0.7538477160753351,0,0.000000
0.7697524842407623,1,0.999990
0.7643498336541422,1,0.999990
0.7367340259777233,1,0.999971
0.6117375735499222,0,0.000000
0.6536354665126543,1,0.999990
0.6630816659361607,0,0.000000
0.6875643967834904,1,0.999990
0.6941653585025258,1,0.999990
0.7065278747608839,1,0.999981
0.7200968045522066,1,0.999990
0.7254310692105954,1,0.999981
0.7437340440023351,1,0.999990
0.7531503227238726,1,0.999981
0.6979039004057122,1,0.999990
0.7166676962808296,0,0.000000
0.7217788292561957,0,0.000000
0.12000565113651937,0,0.894887
0.21301053097995837,0,0.998852
0.22937151213195436,0,0.996701
0.2827023540826266,0,0.986631
0.3597095296028417,0,0.989084
0.20136759759100295,0,0.989025
0.2997100689076043,0,0.989403
0.3919304546167848,0,0.999365
0.4527907578261837,1,0.999962
0.4761586253598025,0,0.987649
0.5294543864056199,0,0.998930
0.5733653548971462,0,0.995811
0.6332257138845108,1,0.999990
0.630287519704781,1,0.999990
0.659824752588792,1,0.999981
0.716029973917345,1,0.999990
0.6661222442746518,0,0.996310
0.6770556713311715,0,0.999078
0.642662413455454,0,0.996929
0.6810880715230301,0,0.997659
0.4673220290305784,0,0.997601
0.6102290933235296,1,0.999952
0.6577117922640209,1,0.999942
0.6613662832474089,1,0.999981
0.7128074062971601,0,0.997627
0.6579865554278339,0,0.940694
0.6631654535882869,0,0.988543
0.43348125042999586,0,0.926459
0.48165808244220853,1,0.999914
0.492420457336525,1,0.999933
0.5581907320496898,0,0.998842
0.6133667758255655,0,0.998720
0.5741797653477447,0,0.998831
0.6260141319367859,1,0.999952
0.6591234591003718,1,0.999990
0.4831934189283422,1,0.999990
0.6409070784763106,1,0.999914
0.6179081121239892,0,0.984453
0.5080132489880411,0,0.997525
0.6723100396209319,0,0.997059
0.4844055327489017,0,0.917368
0.6923877824771139,0,0.998641
0.6971334461991721,0,0.999040
0.7253884867828395,0,0.997310
0.7139593655698262,1,0.999990
0.7131167181381102,0,0.999876
0.6606619466451732,0,0.997418
0.6892223261753118,0,0.998837
0.6864055285189452,0,0.999894
0.754866751564248,1,0.999990
0.7491903494582443,1,0.999990
0.7241763970947546,0,0.999893
0.6134674953366861,1,0.999990
0.6425509654006618,1,0.999981
0.5786647014798455,0,0.989175
0.5149799567679572,0,0.990230
0.6034483323245302,0,0.924368
0.6734397279504488,0,0.997672
0.662183459113735,1,0.999981
0.6131543745047652,0,0.997499
0.7114396922335239,1,0.999981
0.6708009432895438,0,0.984086
0.6611521380697029,1,0.999962
0.6907326601228588,0,0.996202
0.7121531009316582,1,0.999952
0.5894524221589665,0,0.996253
0.6529884387713016,0,0.999885
0.6598629943984311,1,0.999981
0.6897595955660232,1,0.999962
0.6896819840874838,1,0.999943
0.609942511126654,0,0.998642
0.6052884856814998,0,0.999876
0.6289430089410337,1,0.999914
0.6943862511036258,0,0.997879
0.7347395057428323,0,0.999011
0.6651975814174977,0,0.999894
0.6566656334730986,0,0.999848
0.6992407839574919,0,0.999762
0.3733910562243657,0,0.988994
0.23436529917945362,1,0.999981
0.29123256037787865,0,0.987286
0.33135613827206883,0,0.998801
0.38909233238810714,0,0.998785
0.4122695845429304,1,0.999981
0.4247313998454713,0,0.944197
0.44148054434884265,0,0.996151
0.5017408014401705,1,0.999981
0.5119447458855589,0,0.998833
0.4791525173534209,0,0.988632
0.5740568917370275,0,0.999182
0.5714148234108349,0,0.986568
0.6069357073402774,0,0.995802
0.6298894008605698,0,0.997117
0.6193054511942814,0,0.995997
0.5735402027007785,0,0.995365
0.5647690304230282,0,0.986454
0.6296376773416721,0,0.988330
0.5913023768230182,1,0.999990
0.5795336543563052,0,0.997042
0.6454098592615183,1,0.999990
0.620265284522869,1,0.999990
0.6910174555705954,1,0.999990
0.650232005695112,0,0.996849
0.5644171184114162,0,0.985804
0.6647936942178954,0,0.997446
0.6779032616508149,0,0.995785
0.6743224387911201,1,0.999922
0.21745491587846869,0,0.929561
0.30823922871049825,1,0.999981
0.37634237923331204,0,0.989273
0.18437139770134953,0,0.989169
0.21920763124113374,0,0.996576
0.29247924343169046,0,0.988768
0.31055756252841243,0,0.985721
0.3728586500672763,0,0.998882
0.34266586613843447,1,0.999990
0.4118248686338246,1,0.999990
0.42716586102478743,0,0.996212
0.4541936679909545,1,0.999951
0.4613713318658989,0,0.998865
0.21600581478605513,0,0.997824
0.2938317427907183,1,0.999990
0.32136576123933575,0,0.998770
0.36296741709848573,0,0.997663
0.36576981049440527,0,0.997394
0.18982072524657048,0,0.916751
0.26802354008107293,0,0.997637
0.2682239572375585,1,0.999971
0.3045469792298787,1,0.999990
0.17900129980094812,0,0.995937
0.19107033883390498,0,0.997902
0.12654781458188907,0,0.989031
0.10083274141051664,0,0.997730
