0.3661294643757357,1,0.999990
0.36412232717704585,1,0.999990
0.38419845896861304,1,0.999990
0.37689223120407456,0,0.985558
0.3725105759487316,1,0.999971
0.36472296138007354,1,0.999990
0.3650156323352412,1,0.999990
0.36837732403542117,1,0.999990
0.46657930158575056,1,0.999971
0.4455772806685575,1,0.999981
0.41479110387319224,1,0.999990
0.4050327721160886,1,0.999990
0.3885286483761221,1,0.999990
0.3893725727139211,1,0.999990
0.3917019177511238,1,0.999990
0.369086088255493,1,0.999990
0.4890810834523357,0,0.984797
0.45194257809389,1,0.999971
0.4638240704200961,0,0.964906
0.4512879237621648,0,0.992733
0.4359387286503858,1,0.999990
0.3981656494007584,1,0.999981
0.44186740481893977,1,0.999990
0.3898128557089144,1,0.999990
0.4516218954412993,0,0.989330
0.39247281691860014,1,0.999990
0.4159801307763016,1,0.999990
0.3717287567109571,1,0.999981
0.4315981350143582,1,0.999990
0.3822900558105731,1,0.999981
0.4311303624357894,0,0.992270
0.380097200280363,0,0.990083
