0.936993949531972,1,0.999981
0.9152974862913401,1,0.999990
0.8888994200102744,1,0.999990
0.888429451230007,0,0.000000
0.8361038628754534,1,0.999990
0.8498356514516991,0,0.000000
0.8539955419981843,1,0.999990
0.8441077196713748,0,0.000000
0.8377349763469367,1,0.999971
0.8157500506028658,1,0.999981
0.8078592792702196,0,0.000000
0.8178278475718156,0,0.000000
0.8113538985445384,1,0.999990
0.8172424845707086,0,0.000000
0.8209836910265497,1,0.999990
0.7871543151103638,1,0.999990
0.9379562471882196,0,0.000000
0.905104347906615,1,0.999990
0.9007025381697713,0,0.000000
0.892766178733947,0,0.000000
0.8074107218965959,1,0.999990
0.8081563845038635,1,0.999981
0.8195625096137135,1,0.999990
0.8146603847780945,1,0.999990
0.9523348893949914,0,0.000000
0.8673808250337757,1,0.999981
0.8488613772286101,1,0.999990
0.8445446877883066,1,0.999981
0.939245903978119,1,0.999990
0.8782080869255445,1,0.999981
0.9530978790562532,0,0.000000
0.9265193554474112,0,0.000000
