0.24863036760545845,0,0.000000
0.4123379681258139,0,0.998936
0.5425576076836004,0,0.000000
0.6407558486116757,1,0.999990
0.7159221421431706,1,0.999990
0.7713930430733452,1,0.999990
0.8133106516179489,0,0.000000
0.8448962397671798,1,0.999990
0.8701386460669783,0,0.893927
0.8899296496811243,1,0.999981
0.7518620379418083,1,0.999981
0.797067789763507,1,0.999981
0.832309469342866,1,0.999981
0.8594867309692821,1,0.999971
0.880577906830509,0,0.893155
0.8972004927921011,1,0.999990
0.9111358130718313,0,0.893732
0.92277145958495,1,0.999952
0.9321523448899812,0,0.893116
0.9398713479273769,0,0.893254
0.9463761357987064,1,0.999990
0.9518918582182782,1,0.999981
0.8592458918509737,1,0.999990
0.8796293165171799,1,0.999990
0.8962112080053589,0,0.893207
0.910226281462424,1,0.999962
0.9213191245161827,1,0.999990
0.9303195606803379,1,0.999981
0.9377514428824337,1,0.999981
0.9442286144633939,1,0.999971
0.94953999802769,0,0.893600
0.9540664957475667,0,0.894532
0.958011578618812,0,0.894614
0.9621154043005484,1,0.999971
0.9654803907422226,0,0.901560
0.9684149560656123,0,0.901573
0.8979132411696368,0,0.893400
0.911624998309379,1,0.999971
0.9221167253133721,0,0.893440
0.9308628569424965,1,0.999990
0.9376774276837934,1,0.999990
0.9443968106924632,1,0.999952
0.9497140327225854,0,0.893866
0.9542558820033371,1,0.999990
0.9579150800053396,0,0.893471
0.9613466756581499,1,0.999981
0.9641613698068933,1,0.999990
0.9666380896895455,0,0.894690
0.9686912325623072,0,0.893536
0.9710475067491517,1,0.999990
0.9731146936876118,1,0.999981
0.9749245321007264,1,0.999990
0.9178610331467986,0,0.894253
0.9272746045793282,1,0.999990
0.9347979894191212,1,0.999990
0.940980387374411,1,0.999990
0.9459130209792341,0,0.894013
0.9507640437939222,1,0.999981
0.9550662122005985,1,0.999990
0.9586584745628699,1,0.999990
0.9616087682969148,0,0.893722
0.9642036931289157,1,0.999981
0.9664582498272257,1,0.999990
0.9683730196454774,0,0.892764
0.9700024512904052,1,0.999990
0.971952122295358,1,0.999981
0.9742754451130702,0,0.893881
0.9761532365012782,0,0.892718
0.9777762171576018,1,0.999990
0.9792099783581005,1,0.999981
0.9298425090530097,0,0.883669
0.9374139963864384,1,0.999971
0.9435701940884463,1,0.999990
0.9485663266031519,1,0.999943
0.9536045029411114,1,0.999990
0.9574795503957163,1,0.999971
0.960628143765427,1,0.999990
0.9631768377975675,1,0.999981
0.9657111573644455,0,0.882692
0.967704072504502,1,0.999990
0.9693389518859827,1,0.999990
0.9706558793936284,0,0.883723
0.9727772518972679,0,0.892489
0.9743882343078846,0,0.892163
0.9758566633874219,0,0.892505
0.9770119625386621,0,0.893182
0.9781689555031605,1,0.999990
0.9790299496966963,0,0.893219
0.9798642470101828,0,0.893603
0.9804648956762693,1,0.999990
0.9389504678121443,1,0.999990
0.9443064577008332,1,0.999990
0.9487985418954631,0,0.884483
0.9522652212923611,1,0.999990
0.9555765788297915,1,0.999990
0.9582797768913427,0,0.883330
0.9605667067587934,0,0.883185
0.9623568502177213,0,0.882977
0.9650174852558147,0,0.892647
0.9676419464053978,1,0.999990
0.969848920155913,1,0.999990
0.9716434844521151,1,0.999981
0.9732879477827518,0,0.893430
0.9747322570512659,1,0.999981
0.975936061410891,1,0.999981
0.9769240592869796,1,0.999990
0.9779395401724047,1,0.999990
0.978969515901341,1,0.999990
0.9798216900857675,0,0.893938
0.9805461942302012,1,0.999990
0.981186468334274,1,0.999981
0.9818105085781155,0,0.894625
0.9427123496067821,0,0.893725
0.946859750053751,1,0.999990
0.9506028349603997,0,0.893895
0.9549484430776489,1,0.999990
0.958321508249169,0,0.893445
0.9612054521657087,1,0.999990
0.963460732278929,1,0.999990
0.9656813607149916,1,0.999990
0.9673448001749748,1,0.999990
0.9688075709831291,1,0.999990
0.9699344782325156,1,0.999990
0.9715169571467033,1,0.999990
0.9726830839497437,1,0.999990
0.9737155249280981,1,0.999990
