0.04497279279075192,1,0.999990
0.0428770879489343,1,0.999990
0.04297427407847168,1,0.999990
0.04189513195045788,1,0.999990
0.05380161863492942,1,0.999990
0.04797405823813937,0,0.999183
0.08275369955498091,0,0.999794
0.06350296752448278,1,0.999981
0.09289731865704352,1,0.999990
0.09334211811845024,1,0.999971
0.1263267803911804,0,0.999586
0.07897696977846705,1,0.999952
0.04922916938003344,1,0.999990
0.04492060858569086,1,0.999990
0.0545677016008494,1,0.999990
0.0922524895801745,1,0.999990
0.0715174252287047,1,0.999990
0.042150766831219454,1,0.999990
0.09752580697432288,1,0.999981
0.04814271124721049,1,0.999981
0.048582727310442476,1,0.999990
0.044006351676600934,1,0.999990
0.04585249074836994,1,0.999990
0.07092751965543544,1,0.999981
0.08181648484603353,1,0.999990
0.06084357557903414,1,0.999990
0.07117371215340047,1,0.999990
0.10574573819211056,1,0.999990
0.06204173666578038,1,0.999981
0.06563207559592761,1,0.999981
0.049094387626306295,0,0.999270
0.05287640578486345,1,0.999990
0.05542287600266471,1,0.999980
0.046443251321630824,1,0.999951
0.046040818508678825,0,0.999262
0.07321121221002261,1,0.999990
0.046531170583073656,1,0.999990
0.05998962818697025,1,0.999990
0.04593429934466565,1,0.999990
0.08683020386495992,1,0.999981
0.04940998967655195,0,0.999334
0.04196643725676846,1,0.999990
0.052466526253097424,1,0.999922
0.06529001933428769,1,0.999990
0.04842267003418866,1,0.999990
0.035805766575869084,1,0.999990
0.033174059625683885,0,0.989746
0.03714147360223026,1,0.999981
0.03772177662668915,1,0.999990
0.038412715948570084,1,0.999990
0.09389961216561483,0,0.999730
0.24853164331092342,1,0.999981
0.1014342574504944,1,0.999913
0.11683309461363581,1,0.999980
0.10256171117459313,1,0.999961
0.09984398153134906,1,0.999981
0.6859553229965035,1,0.999990
0.11539128535279404,1,0.999990
0.10048291480781311,1,0.999990
0.19547473928657086,1,0.999981
0.2014033701699877,1,0.999990
0.11944898480802621,1,0.999990
0.11855464647072678,1,0.999961
0.06468364957036417,1,0.999990
0.13733211100118894,1,0.999990
0.07224245139572434,1,0.999990
0.07751479328843393,1,0.999990
0.075209063415308,1,0.999990
0.11388533659075545,1,0.999990
0.05516036613591936,0,0.999705
0.0468408601492089,1,0.999990
0.03644659488069679,1,0.999990
0.04109302934994733,0,0.995283
0.05202920662886212,1,0.999990
0.031407978453754225,1,0.999990
0.0797605520154874,1,0.999990
0.05693210594236225,1,0.999990
0.045581478491434506,1,0.999990
0.05266305729133765,1,0.999981
0.051879137706726655,1,0.999990
0.03817951020081445,1,0.999990
0.041007755797095466,1,0.999990
0.036026477936705936,0,0.989281
0.041634658553828856,1,0.999990
0.038215259062705356,1,0.999990
0.038436945383463914,1,0.999942
0.027577135820922014,1,0.999923
0.037889397744052596,1,0.999990
0.03622773874292057,1,0.999990
0.03283953140924798,1,0.999922
