0.9856200564454745,1,0.999954
0.9801224554273935,1,0.999955
0.9759518665857402,1,0.999867
0.9743100987230444,0,0.996839
0.9652561703895288,1,0.999867
0.9686608722902755,1,0.999910
0.9672844632566153,1,0.999822
0.9742973732937129,1,0.999910
0.9612680154431481,0,0.999458
0.9546602366498913,1,0.999955
0.957612224844964,1,0.999865
0.9648768889120013,1,0.999955
0.9603745355313444,1,0.999866
0.9638579169505537,1,0.999910
0.9575361375286431,1,0.999822
0.9622767276392621,1,0.999955
0.9541060616471455,0,0.997967
0.9584142020197294,0,0.996449
0.9634907590314934,0,0.996210
0.9522970453750308,1,0.999954
0.9487856277033578,1,0.999911
0.9519390179074694,1,0.999955
0.9508107517117338,1,0.999866
0.9555044699401243,1,0.999955
0.9564364452338299,1,0.999955
0.9497964846936474,1,0.999955
0.9525045104520248,1,0.999866
0.9562920700672014,1,0.999910
0.9586158150858037,1,0.999910
0.9637338229273499,1,0.999955
0.9503129199710871,1,0.999822
0.9524099575506909,0,0.999463
0.9441827918565255,1,0.999678
0.9434746104685364,1,0.999774
0.9480065305838459,1,0.999865
0.9439402947344233,0,0.998367
0.9497019879748021,1,0.999954
0.9514509648183778,0,0.998249
0.954928770405792,1,0.999778
0.9622451178962922,0,0.999368
0.9694542826174666,1,0.999955
0.9395524812168711,1,0.999955
0.9413758379082432,1,0.999955
0.9444238557989286,1,0.999955
0.9453368444752424,0,0.999015
0.9499179816380834,1,0.999955
0.9424355601851255,1,0.999911
0.9467425759903334,1,0.999596
0.9481182046127246,0,0.998722
0.9491724882975674,1,0.999910
0.9528820004768694,1,0.999865
0.9469943170782479,1,0.999864
0.9439548570903814,1,0.999954
0.9458738760511056,1,0.999955
0.9431452636882185,1,0.999911
0.9491775717245426,1,0.999955
0.9494782569808089,1,0.999955
0.9459914107113548,1,0.999955
0.9480802599130724,1,0.999910
0.9529554018334278,1,0.999911
0.9564390158355138,1,0.999955
0.9614321433909725,1,0.999910
0.9401702951425684,1,0.999865
0.9441008875986961,0,0.998025
0.9459188491951159,0,0.996299
0.9360521249446998,0,0.996099
0.9361007442392119,1,0.999821
0.9341609022473656,0,0.998177
0.9325203638505962,1,0.999910
0.939945560303817,0,0.997454
0.9367410390371582,1,0.999820
0.9439462849801317,0,0.998999
0.9423462172396931,1,0.999865
0.9356017947703558,1,0.999910
0.9361296843591428,1,0.999866
0.9392307947010404,1,0.999911
0.9411599233326937,1,0.999955
0.9479333562513572,1,0.999910
0.9374133155112511,1,0.999821
0.9433699256360142,1,0.999910
0.948916166071733,1,0.999910
0.9694828961110776,1,0.999910
0.9573919970565404,1,0.999910
0.9396354026893491,1,0.999955
0.93431819977305,1,0.999955
0.9399150618318167,1,0.999955
0.9352551891628215,1,0.999910
0.942953039789621,1,0.999955
0.9400505456746056,1,0.999955
0.932319229433174,1,0.999955
0.9392544359880217,1,0.999910
0.9412184456971651,1,0.999955
0.9442260860574145,1,0.999955
0.9494471338696042,1,0.999910
0.933011338881093,1,0.999866
0.9361936464226269,1,0.999955
0.9389287747397805,0,0.997737
0.9402426507530987,1,0.999955
0.9432900490108888,1,0.999866
0.9418325207649345,1,0.999599
0.9390948932464942,1,0.999910
0.9416009803701927,1,0.999955
0.9444750239064833,1,0.999867
0.9505512120920129,1,0.999910
0.949789113368319,1,0.999867
0.9346141003551951,1,0.999956
0.9373844730663174,1,0.999910
0.9407980659447669,1,0.999955
0.9404823416058656,1,0.999955
0.9412418577673958,1,0.999775
0.9350094052810342,1,0.999865
0.9388254319699527,0,0.996532
0.9418089638966507,1,0.999955
0.9410778396871531,1,0.999819
0.9499526233592417,1,0.999821
0.9436761194475961,1,0.999910
0.941120985889514,1,0.999955
0.939005252492476,0,0.999182
0.9393090958091984,1,0.999865
0.9433335867196413,1,0.999955
0.9454775033187246,1,0.999910
0.9377877206364047,1,0.999910
0.9505981569121419,1,0.999865
0.9496352848995753,1,0.999910
0.9587916568385991,1,0.999910
0.9592795163030825,1,0.999955
0.9349499763514073,1,0.999822
0.9351052881665934,1,0.999955
0.942109576214033,1,0.999954
0.9378441743946586,0,0.996212
0.9397136799824526,1,0.999955
0.9306293464328832,0,0.994298
0.9240570059327351,1,0.999910
0.9286497701306602,1,0.999910
0.9252800801111785,1,0.999864
0.9361267224907999,0,0.988104
0.9323615301710031,1,0.999865
0.9215735839035902,0,0.998910
0.921959441967632,1,0.999955
0.9301290028177478,0,0.997497
0.9293921611145032,1,0.999910
0.9329947768945184,1,0.999909
0.9222943077509718,1,0.999865
0.9315395529633729,1,0.999909
0.9329520598862119,1,0.999910
0.9369726593963313,1,0.999955
0.9388967660636262,1,0.999910
0.9347344603455366,1,0.999955
0.9254235324451061,1,0.999955
0.9290984830720177,1,0.999955
0.9256566370845308,1,0.999911
0.9334815942048489,1,0.999910
0.9366474813927055,1,0.999910
0.9269146434989236,1,0.999547
0.9311971200630373,1,0.999955
0.936588096670323,0,0.998549
0.9361342876840864,1,0.999910
0.940109610478776,1,0.999910
0.9261564575482725,1,0.999865
0.930617858121435,1,0.999956
0.9338477949102518,1,0.999955
0.9316385037978051,1,0.999593
0.9323033897919962,1,0.999955
0.940504908138563,1,0.999955
0.9357470762550814,1,0.999865
0.9432568260115916,0,0.998008
0.9398467953360474,1,0.999821
0.9608745888491464,0,0.998202
0.9466498442020806,0,0.997942
0.9214251830735523,1,0.999955
0.9250121515143829,0,0.997733
0.9262806699503349,0,0.997737
0.9319977985473196,1,0.999955
0.9326183155108921,0,0.995676
0.9241485861356413,1,0.999910
0.9275304008329363,0,0.999415
0.933441835906597,1,0.999955
0.9321676413557333,1,0.999866
0.9365118661436033,1,0.999955
0.934993589378524,1,0.999546
0.9302184521697728,1,0.999954
0.9312242610187593,0,0.998410
0.9302978728637054,1,0.999909
0.9331003849500872,0,0.996673
0.936916563856684,1,0.999910
0.9289421673232883,0,0.995116
0.9331703105932262,1,0.999955
0.9363035331657672,0,0.995621
0.9449489339223025,1,0.999910
0.9487428605359198,1,0.999955
0.9239869125649595,1,0.999866
0.926523261453853,1,0.999955
0.931490192823724,1,0.999864
0.9279062085462589,1,0.999955
0.9329071650437828,1,0.999593
0.9323444976541269,0,0.999415
0.9377601991957678,1,0.999955
0.9355314016683933,1,0.999910
0.9337214811789868,1,0.999822
0.9379650602213958,1,0.999911
0.9410035285908999,0,0.998176
0.9272963110550352,1,0.999775
0.930262143172653,1,0.999911
0.9306502709085216,1,0.999955
0.9381848704317404,1,0.999866
0.9384817990575172,1,0.999911
0.9320316079291571,1,0.999821
0.9348952882369606,1,0.999955
0.9462302443641374,1,0.999865
0.9429058235095806,1,0.999955
0.9548681901498631,1,0.999866
0.93704901966171,1,0.999910
0.923944600077589,0,0.999092
0.9303461977514693,0,0.997372
0.9260824350827233,1,0.999955
0.9316826589208536,1,0.999866
0.9311027961336669,0,0.999503
0.9275534042537038,0,0.999409
0.9285057940508726,0,0.998647
0.9324185383597471,0,0.997648
0.9350447432513247,1,0.999955
0.9404502027951169,1,0.999955
0.9265257612929322,1,0.999910
0.9285107868844962,1,0.999863
0.9286870324700469,0,0.995797
0.9306569669321084,0,0.997013
0.9316075290730069,1,0.999865
0.9317055685619771,0,0.997911
0.931355086881037,1,0.999955
0.9402832653848727,1,0.999911
0.9375265917078296,1,0.999866
0.9457560081846849,1,0.999910
0.9424939313322845,1,0.999910
0.9269588822484709,1,0.999865
0.9275877956063263,1,0.999955
0.9300979933565128,1,0.999955
0.9354556714341012,1,0.999955
0.9383358229849802,1,0.999955
0.9273070051870933,1,0.999911
0.9320988634887059,1,0.999549
0.9330894005003283,1,0.999553
0.9414927721064295,1,0.999955
0.9386781660277597,1,0.999955
0.9344904603627464,1,0.999955
0.9255596942150252,1,0.999955
0.9365116485738855,1,0.999955
0.9309178497256889,1,0.999911
0.9378938366159925,1,0.999955
0.9365991941382515,1,0.999955
0.9361199856275093,0,0.999281
0.9357656107108574,1,0.999955
0.9445018918062966,1,0.999955
0.9461848014718711,1,0.999955
0.9701024119417025,1,0.999911
0.9228421699899327,1,0.999867
0.9256261935920433,0,0.999509
0.9283521002806956,1,0.999955
0.9247857984971869,1,0.999955
0.9320625737058752,1,0.999911
0.9326897933403726,1,0.999955
0.9284134812589747,1,0.999956
0.9273340619197241,1,0.999955
0.9242907810605322,1,0.999778
0.9283728530632782,1,0.999596
0.9265484830569154,1,0.999866
0.9128147016733121,1,0.999595
0.9191129380614682,1,0.999866
0.9183695874369066,1,0.999910
0.9201264561252345,1,0.999910
0.9206461868646988,1,0.999955
0.9198016396033689,1,0.999779
0.9225401174965009,1,0.999910
0.9267270291805284,1,0.999867
0.9257872260730653,1,0.999955
0.9336888956940556,1,0.999822
0.9199847274011377,1,0.999819
0.9137237120870322,1,0.999955
0.9136751623074534,0,0.999145
0.9246663718018125,1,0.999866
0.9275690158601992,1,0.999955
0.9252516265815148,1,0.999866
0.9166130897234476,1,0.999955
0.9237305564644024,1,0.999866
0.9240470325002276,1,0.999911
0.9265648725734357,1,0.999911
0.9271330445642202,1,0.999956
0.9182743106457061,1,0.999778
0.9202273015938832,1,0.999955
0.9231848854933224,1,0.999911
0.9202825919445772,1,0.999954
0.9283065761909385,1,0.999866
0.9236951924566563,1,0.999910
0.9232642574651742,1,0.999955
0.9249991334526788,1,0.999955
0.9522982384294538,1,0.999821
0.9437378516364088,1,0.999955
0.9380278406483259,1,0.999910
0.9161456256577318,1,0.999595
0.9140803341645249,1,0.999955
0.9202898378857771,1,0.999955
0.9225326061705286,1,0.999955
0.9259965338853875,1,0.999683
0.9112759906317868,1,0.999955
0.923175108200701,1,0.999955
0.9229952995644739,1,0.999955
0.9245228587830647,0,0.999505
0.9257409754625987,1,0.999955
0.9240357972698318,1,0.999911
0.9149619491127636,0,0.998470
0.9213961875404639,0,0.997985
0.9142674687166492,0,0.998570
0.9290867143741838,1,0.999911
0.9269655270953197,1,0.999911
0.9218669929855517,0,0.999463
0.9227992772724277,1,0.999955
0.9306543695218793,1,0.999911
0.931767153960279,1,0.999955
0.9355298089344889,1,0.999955
0.9102917393225292,1,0.999911
0.9209511363479567,0,0.998172
0.9206229057110293,0,0.998171
0.9205850867999794,0,0.997853
0.9220721403755195,1,0.999591
0.9234491048735163,1,0.999955
0.9183238817442748,1,0.999593
0.9224146429618988,1,0.999821
0.919508348018776,0,0.998023
0.9393277801105739,0,0.998423
0.9338258625788999,0,0.999277
0.9233895778267781,1,0.999955
0.9224539702147224,1,0.999911
0.9291691755678658,0,0.998484
0.9311759614441962,1,0.999955
0.9363807937071124,1,0.999955
0.9197998913467486,1,0.999866
0.9372462477569433,1,0.999682
0.9366987461408429,1,0.999911
0.9409610930330323,1,0.999910
0.9413227335749232,1,0.999866
0.9229610572604974,0,0.997109
0.9161208776543927,0,0.994756
0.9163539943379895,1,0.999955
0.9211901831276794,0,0.992929
0.9185280290699026,1,0.999955
0.9278194087533908,1,0.999910
0.9184726732308272,1,0.999955
0.9224627682214134,1,0.999955
0.9231549451842126,0,0.998430
0.9293658454344816,1,0.999955
0.9298779428260529,0,0.999456
0.9204591418668739,1,0.999955
0.9162187495730546,1,0.999954
0.9248837415062402,1,0.999955
0.9217380304426905,0,0.998837
0.9264025807821078,1,0.999955
0.922339963140666,0,0.997038
0.9247446887908083,0,0.997948
0.9247569335883024,0,0.995104
0.9259077334564674,1,0.999955
0.9355940815746333,1,0.999955
0.9388834224051775,1,0.999595
0.9189529529186418,0,0.999271
0.9221685323208746,1,0.999955
0.921975876033719,1,0.999955
0.9264450785890229,1,0.999955
0.9271473656319299,0,0.999233
0.9208247708870319,1,0.999955
0.9211811314700298,1,0.999955
0.9346044249725834,1,0.999909
0.9333464709760434,0,0.998132
0.9330159248071749,1,0.999910
0.9257770375533702,1,0.999955
0.9248335123636504,0,0.998399
0.9228006202722788,0,0.997525
0.9215886646388977,1,0.999956
0.9247527402462332,0,0.998828
0.9373349878528906,1,0.999866
0.9267464384824525,0,0.996537
0.9325521146126545,1,0.999910
0.934051209865661,1,0.999955
0.9503953727867566,1,0.999910
0.944031661051468,1,0.999955
0.9118475788338257,1,0.999866
0.9167547314223181,0,0.995950
0.9174721848403022,0,0.996854
0.9206854944916331,1,0.999955
0.9258717108327971,1,0.999955
0.9229322121736077,1,0.999865
0.9183751094692977,0,0.999277
0.9227472740259218,1,0.999955
0.9216921824442713,0,0.998881
0.927517227887559,1,0.999955
0.9287008312394323,1,0.999955
0.924430072972542,1,0.999955
0.9225939590058272,1,0.999910
0.926835240933515,1,0.999910
0.9243513778050578,1,0.999955
0.931000669787357,1,0.999910
0.9187362773404243,1,0.999866
0.9253414632891936,1,0.999954
0.9263890451542925,1,0.999955
0.9357153717290291,1,0.999910
0.9367987479147543,1,0.999866
0.9259652093294246,0,0.998714
0.9213652833084361,0,0.995809
0.9266006503321322,0,0.997366
0.9175891606968625,1,0.999955
0.9241135985764132,0,0.996300
0.9220079026020354,0,0.997779
0.9265864555486542,1,0.999955
0.925688076026042,1,0.999911
0.9295889448272462,1,0.999910
0.931003263519529,1,0.999954
0.9355513210106259,1,0.999909
0.9162947366561891,1,0.999867
0.9224302560187606,0,0.996912
0.9214826625675502,1,0.999955
0.9290916866407523,1,0.999955
0.9284554728851123,1,0.999910
0.928659048085253,1,0.999910
0.9235614920610449,0,0.992789
0.9372916264374794,1,0.999955
0.9308213402511484,1,0.999910
0.9455810855574309,1,0.999955
0.9425078815103991,1,0.999955
0.9081276529892954,0,0.998897
0.921662604450401,1,0.999956
0.925914588043111,0,0.997116
0.9231542142949483,1,0.999954
0.9247847983022472,0,0.994901
0.9216710787510682,1,0.999955
0.9203480482808103,1,0.999774
0.9238210756492016,1,0.999818
0.9230095497951035,1,0.999955
0.9325371754299996,1,0.999910
0.9248412027153445,1,0.999955
0.9189857817611802,0,0.994722
0.9184528885722152,1,0.999955
0.9203350090277685,1,0.999954
0.923512840002808,0,0.998919
0.9250957910302648,1,0.999955
0.9194428336155566,0,0.997685
0.9291243736209153,1,0.999910
0.9305754728410668,1,0.999955
0.9350420159737387,1,0.999955
0.9362594534047802,1,0.999954
0.9154975896241595,1,0.999866
0.9176227977852013,1,0.999955
0.9209772934913343,0,0.999509
0.9172694434253915,1,0.999955
0.9269394029721506,1,0.999955
0.9230938622502747,1,0.999643
0.9208024735085147,1,0.999955
0.9214984028095532,1,0.999955
0.9243800795486151,1,0.999955
0.9289053828962773,1,0.999866
0.9291356658132555,0,0.999143
0.9128779570791156,1,0.999955
0.930265926222813,1,0.999866
0.9294086033638793,1,0.999911
0.9316170090286101,1,0.999910
0.9321432682628483,1,0.999955
0.9278820115553988,1,0.999823
0.9296720203594848,1,0.999956
0.9380550755217404,1,0.999955
0.9356019460953788,1,0.999955
0.9614980742123901,1,0.999823
0.9287163350223909,1,0.999955
0.915574791100913,1,0.999955
0.918697516769046,1,0.999956
0.9162295457511175,1,0.999595
0.9236052282532933,1,0.999955
0.9242127161212049,1,0.999598
0.9153159692833055,0,0.999462
0.9193573826111546,1,0.999955
0.9307693681728351,1,0.999955
0.9321800766903128,0,0.999280
0.9321473318248967,1,0.999955
0.9131332616322676,1,0.999955
0.9212328948127831,1,0.999955
0.9213100107889324,1,0.999955
0.923587174643828,1,0.999955
0.9226361530755879,1,0.999955
0.9270611763379218,1,0.999955
0.9220187286165742,1,0.999599
0.9268104439465574,1,0.999955
0.9250317168110946,1,0.999955
0.9370443493473462,1,0.999955
0.9372942765337183,1,0.999955
0.9148499965788516,1,0.999955
0.91563121786533,1,0.999955
0.9271818213255255,1,0.999955
0.9258481959737009,0,0.999280
0.929099226603592,0,0.999189
0.9172001488972064,1,0.999955
0.9262187559510298,0,0.999194
0.926482016651941,1,0.999955
0.9267053774860535,1,0.999597
0.9299748561654874,1,0.999955
0.9305838539225136,1,0.999910
0.9220528030886999,1,0.999955
0.9243135262982833,1,0.999955
0.9197165611749918,1,0.999866
0.9334850754797104,1,0.999549
0.9276647688462569,1,0.999955
0.9238712570829816,1,0.999955
0.9285919616151477,1,0.999955
0.9483556976048311,1,0.999910
0.9409606199702024,1,0.999955
0.9548886582238207,1,0.999955
0.9124089963111874,1,0.999911
0.9152574401205097,1,0.999593
0.9228751837904801,1,0.999954
0.9164911109875956,0,0.999414
0.9221592298577939,1,0.999955
0.9206662566917134,0,0.997525
0.919564938586468,1,0.999955
0.9222879912311845,1,0.999595
0.922276509311572,0,0.998787
0.9256308544375782,0,0.998385
0.9319951447433397,0,0.998832
0.9117355250319783,1,0.999691
0.9172051423672457,1,0.999955
0.9184960948138884,1,0.999640
0.9231480872631811,1,0.999549
0.9209250732068021,1,0.999864
0.9123364313871705,1,0.999777
0.914565431214866,1,0.999910
