-0.07655990525535888,0,0.010278
-0.05155890422003177,0,0.009107
-0.053563388070465325,0,0.173763
-0.053925777321055586,0,0.550300
-0.036203680075462326,0,0.451610
-0.007369368724776923,0,0.295231
-0.007812740413200056,0,0.881474
0.011923394717116044,0,0.023240
0.0026952865222468468,0,0.259288
0.0232487129545418,0,0.383235
-0.0040006989022616235,0,0.147544
-0.05645420375288851,0,0.111342
-0.040424914173316034,0,0.022891
-0.03550280551167688,0,0.022828
0.03878574622245428,0,0.023139
0.054854258503429926,0,0.812410
0.06582137390215789,0,0.413151
0.038809961116177995,0,0.023816
0.04618438008838884,0,0.546634
0.05955725003665829,0,0.633172
0.06848787061934358,0,0.554227
0.07747336819456715,0,0.148457
0.056880678519403795,0,0.547664
0.03114842704534254,0,0.232274
0.05287771048037879,0,0.604902
0.045237391613803024,0,0.216038
0.04764493962017604,0,0.345994
0.05194703204132851,0,0.797084
0.07543653360833792,0,0.536486
0.03866634855033609,0,0.606328
0.046291841182031467,0,0.748638
0.061073884303559936,0,0.256296
0.1016965439614386,0,0.877465
0.1288908202462685,0,0.994729
0.12468824440068955,0,0.867705
0.13789449352379188,0,0.997585
0.07337875686793982,0,0.057283
0.18618445657531815,0,0.930419
0.1789220852434904,0,0.741365
0.16621348024872046,0,0.303012
0.20728951709400173,0,0.920650
0.25237461230280955,0,0.488469
0.165115374314905,0,0.306489
0.20337075997717668,0,0.900738
0.14873710323335285,0,0.720605
0.14817063051989854,0,0.928177
0.11114357792249542,0,0.902678
0.07581891320232612,0,0.997679
0.06366256504637634,0,0.943185
0.04705890586722245,0,0.371864
0.06115959195733155,0,0.952155
0.044397546156273095,0,0.983615
0.1410220872708946,0,0.731675
0.20983993272899434,0,0.811416
0.1992571366514486,0,0.543137
0.12572891692317106,0,0.249072
0.21190688006759884,0,0.512110
0.1873916567293444,0,0.085219
0.09007917636122345,0,0.085564
0.11291573765551713,0,0.986900
0.15801221761261972,0,0.845135
0.23978374396851193,0,0.940463
0.19772111698093045,0,0.007174
0.1688916217886913,0,0.003598
0.24832725199210567,0,0.989589
0.18939810282094124,0,0.921585
0.23054765977830521,0,0.983729
0.27458881037148725,1,0.999568
0.17178365383957828,0,0.935524
0.20678805174486162,0,0.002181
0.2419042041787633,0,0.970257
0.24302588338092576,0,0.922661
0.34043693655741397,0,0.954520
0.21111653575581543,0,0.962710
0.2848859726691056,0,0.843057
0.30708752738011935,0,0.803251
0.24588106064522866,1,0.999915
0.28686312870514,1,0.999299
0.20344164109220636,0,0.984876
0.25516670050367873,0,0.859557
0.22823696350164924,0,0.969864
0.28068260877475487,0,0.936101
0.2604999296041804,0,0.965388
0.05338144069698163,0,0.884476
0.24388132973316898,0,0.974793
0.2918064303702746,0,0.995712
0.28818243320389925,0,0.925358
0.30237210351196936,0,0.993193
0.364157483325597,0,0.949431
0.22026203251507964,0,0.943754
0.1972868836711627,0,0.991639
0.25907091012919586,0,0.565836
0.24450234956739578,0,0.954263
0.38478763514928105,0,0.998290
0.31592367371853286,0,0.998781
0.31566050025073417,0,0.991477
0.2666217610083439,0,0.990418
0.20218708494933413,0,0.998919
0.24188549004119694,0,0.992710
0.3090982165986568,0,0.952961
0.20322730027805994,1,0.999444
0.13069628146588275,0,0.094793
0.14859076534646987,0,0.996288
0.12582661708097964,0,0.998951
0.3010142467080215,0,0.428352
0.3338269671176231,0,0.883492
0.05371540211337472,0,0.925617
0.07893318984238255,0,0.874366
0.25649240611577645,0,0.881677
0.1605394131346131,0,0.944735
0.2599946459535777,0,0.845131
0.227079249402626,0,0.973165
0.09002360228656094,0,0.536233
0.2892250068148707,0,0.935319
0.26991314601553973,0,0.895705
0.26144954992532987,0,0.985968
0.36090485624145663,0,0.990902
0.26859003541634086,0,0.993597
0.21395734032187264,0,0.963304
0.18342918633292657,0,0.773244
0.29492038940181814,0,0.955293
0.2179632700823167,0,0.977499
0.33277196531018727,0,0.995318
0.35544080727349764,0,0.919204
0.1687439954437176,0,0.698189
0.2965899236201227,0,0.991124
0.35296708049456077,0,0.983141
0.4163770506347611,0,0.996689
0.3743648311270553,0,0.852480
0.11617146840758776,0,0.939220
0.4576511493449431,0,0.934121
0.4638433824289245,0,0.976282
0.21647651560280315,0,0.984314
0.32250386644616774,0,0.974258
0.3301834601523884,0,0.933919
0.3671250066463342,1,0.999599
0.395374556072681,0,0.992506
0.38720275403492316,0,0.987939
0.25254433794586834,0,0.946590
0.31442480827527153,0,0.998117
0.2682785058814469,0,0.961727
0.21672314966814815,0,0.883262
0.21332804446510478,0,0.814441
0.13084897486393424,0,0.881537
0.3246106377395549,0,0.910153
0.3390765125987247,0,0.991372
0.22760338701127972,0,0.995365
0.26616870485685135,0,0.984439
0.19943095852451137,0,0.987633
0.24965318583897783,0,0.642562
0.2654649055676559,0,0.817433
0.40481217688014237,0,0.974569
0.3320229108684522,0,0.979426
0.23452292563198068,0,0.938434
0.21412440345818728,1,0.999472
0.1817653461109267,0,0.004378
0.11870504278341028,1,0.999230
0.16276006079339073,0,0.977415
0.33358763436223676,0,0.990320
0.32224155657650455,0,0.870722
0.24547233453243444,0,0.678361
0.3087719789210068,0,0.992806
0.3437356427120302,0,0.850442
0.32252971027251043,0,0.990836
0.3363922757699991,0,0.969399
0.31191026816056944,0,0.964242
0.09188270197668816,0,0.921458
0.2037607753896175,0,0.995885
0.03535702146350781,1,0.999451
0.13514068982197255,0,0.941021
0.2067683154971063,0,0.962272
0.3626683116390777,0,0.988518
0.37322203050193015,0,0.948724
0.3868126302010753,0,0.565993
0.23729689557922776,0,0.991640
0.2645062891248791,0,0.909870
0.29110955217922724,0,0.915287
0.29241255949499395,0,0.945524
0.2449603615039943,0,0.602303
0.21545563984653074,0,0.996258
0.32417153522356246,0,0.982539
0.36677192331000597,0,0.992162
0.4365367411017818,0,0.975802
0.3117925791122485,0,0.935874
0.15159506663730368,0,0.969605
0.23392751181837357,0,0.517795
0.12794561995962397,0,0.940368
0.29964367760661986,0,0.930196
0.326501251676713,0,0.979814
0.2873397435766951,0,0.991621
0.2862745151241094,0,0.992299
0.37901786923830044,0,0.860686
0.27149853679094077,1,0.999324
0.314286692806843,0,0.998599
0.3250956352911848,0,0.971709
0.4059758172249651,0,0.994425
0.3474505233977012,0,0.978193
0.3120252776730541,0,0.995274
0.24675847094897838,0,0.975743
0.20833176531742612,0,0.989274
0.26152067315407795,0,0.933459
0.2554442130257583,0,0.995598
0.2586372896102177,0,0.913688
0.32853831152595503,0,0.996716
0.45505085740663587,0,0.945602
0.32376048170979044,0,0.990363
0.19026090981996122,0,0.947650
0.16709367165307776,0,0.964577
0.3720235781705556,0,0.970344
0.042430236799759984,0,0.919827
0.1934892137804462,0,0.885276
0.371948942508648,0,0.966031
0.34958510319752556,0,0.974448
0.36436829753799194,0,0.997907
0.27328668830982256,0,0.992044
0.20236708856862964,0,0.940475
0.04654086466124533,0,0.969499
0.20337374208469838,0,0.924729
0.36175255507907683,0,0.692225
0.3303519299435592,0,0.947810
0.2594047911628823,0,0.976480
0.32258284552042915,0,0.996736
0.33811465152030973,0,0.972060
0.3194849498741036,0,0.932852
0.20541412478201046,0,0.926788
0.1463573468125855,0,0.971728
0.1560165104326869,0,0.850836
0.171296521565917,0,0.958107
0.16713011207839365,0,0.997131
0.2750673684918504,0,0.983120
0.28028050699533574,0,0.987428
0.3297963073033591,0,0.934977
0.22135719757152816,0,0.998594
0.22420912138904556,0,0.923782
0.25136352430612857,0,0.704571
0.22563933148910742,0,0.947436
0.2335516785313067,0,0.919595
0.2586974345817705,0,0.954638
0.28707137507308494,0,0.982754
0.2812421264509677,0,0.959360
0.08781747296952067,0,0.903086
0.10129642884865879,0,0.997856
0.09419954273478269,0,0.877454
0.29805354130446254,0,0.993212
0.36608949665253965,0,0.725699
0.22255958469331025,0,0.998083
0.2905135390224163,0,0.983706
0.18716762508604792,0,0.983220
0.22505614134140076,0,0.962245
0.24880940134264304,0,0.601039
0.22808867479844536,0,0.949525
0.26817915510333185,0,0.981278
0.4262221886824673,0,0.972267
0.4037996085485618,0,0.659620
0.267160801528952,0,0.991341
0.321163769845993,0,0.992970
0.01206202451501212,0,0.972632
0.08124018894265744,0,0.979692
0.176367177520202,0,0.899974
0.3108892214301718,0,0.931445
0.2724466893146453,0,0.998777
0.23323648671161581,0,0.988370
0.4521534420488967,0,0.767360
0.3160373776307383,0,0.958480
0.4072387784640821,0,0.872741
0.26222490792637543,0,0.975767
0.23256221556978857,0,0.984993
0.3044689183806373,0,0.884846
0.31223900002616345,0,0.681925
0.10185658537500943,0,0.971885
0.08363910568799778,0,0.608273
0.27891581978983127,0,0.989469
0.24737833623216082,1,0.999659
0.28540683618369506,0,0.991749
0.33695543009857243,0,0.878402
0.2325012252314877,0,0.976632
0.3169140245192665,0,0.959692
0.32056669546110356,0,0.987154
0.25733222335163586,0,0.775797
0.20633691994351866,0,0.954922
0.22980271197395233,0,0.950528
0.31467399836954674,0,0.920088
0.12645005218048838,0,0.947391
0.18296688241403128,0,0.996392
0.30952075903184134,0,0.994689
0.3387916832698492,0,0.939152
0.36545453781595005,0,0.977845
0.2040958135007195,0,0.969433
0.18211213878403815,0,0.975181
0.21200169255920953,0,0.998621
0.2491818879666415,0,0.973563
0.11623125002272094,0,0.951343
0.08424142161884872,0,0.980993
0.0236343325722388,0,0.889382
0.02191124402997291,0,0.921977
0.1686162283041198,0,0.770023
0.2071503798101724,0,0.806322
0.11540633968015056,0,0.895872
0.28667368638002366,0,0.912327
0.36275392896839337,0,0.798904
0.3438244853798763,0,0.916920
0.1404912280976076,0,0.856966
0.26892750941576626,0,0.920811
0.2295711082092288,0,0.820073
0.25506780098320353,0,0.864110
0.2321900274337666,0,0.948920
0.24330602959755068,0,0.937150
0.2379946180899725,0,0.923959
0.2640469418299873,0,0.797715
0.23910254001103276,0,0.878880
0.22625647546386526,0,0.045443
0.2150230760072172,0,0.571882
0.2135473124507814,0,0.809201
0.23471772776725816,0,0.997711
0.2383536525571797,0,0.813908
0.12919666865246499,0,0.941793
0.21614237436302794,0,0.094155
0.26364857559165644,0,0.997153
0.28258783415612043,0,0.888585
0.2699598700063452,0,0.992840
0.29039106799683045,0,0.734034
0.40611062619145116,0,0.958773
0.23966307807660148,0,0.994669
0.23008963733164275,0,0.949939
0.20171996161630104,0,0.942792
0.21767300835981246,0,0.989436
0.29552769005700763,0,0.964416
0.3225050246239752,0,0.998094
0.23097659868666154,0,0.773679
0.24144944248188566,0,0.877666
0.3015680450398511,0,0.555360
0.3042270334499209,0,0.909981
0.38633120251965325,0,0.968317
0.12664366141142214,0,0.184159
0.22935914643799818,0,0.897983
0.2361190466108757,0,0.527594
0.03854702869161983,0,0.979458
0.2212146925155738,0,0.406774
0.3289873359974959,1,0.999608
0.2943096014464446,0,0.993600
0.3253746600054981,0,0.963579
0.2494405923701324,0,0.992636
0.20302291215691448,1,0.999917
0.26418818706887015,0,0.888496
0.30845610454411637,0,0.874680
0.16998470127816862,0,0.980115
0.2732653953339593,0,0.835159
0.3102046010951656,0,0.945867
0.3120330445005419,0,0.790855
0.25045340236732605,0,0.995695
0.3096627436849891,0,0.974491
0.296368156418636,0,0.973781
0.27956306575754714,0,0.951045
0.25424674034337036,0,0.965644
0.3734099391381315,0,0.991297
0.332746077985263,0,0.994710
0.1615273103026825,0,0.893900
0.35312174855278056,0,0.988372
0.34375692803001034,0,0.980093
0.28269928153549445,0,0.995086
0.35091758182977095,0,0.923447
0.20745753579984338,0,0.889766
0.29052617235236305,0,0.920088
0.3035804971937852,0,0.921863
0.2299261327186638,0,0.998082
0.09736629318533198,0,0.904946
0.23694364303297433,0,0.859907
0.38754424040785795,0,0.975156
0.2819436636379883,0,0.891354
0.3016688579931352,0,0.909585
0.2941580703930648,0,0.895671
0.3318134528872988,0,0.990949
0.38558696227593187,0,0.984136
0.3161451911808074,0,0.964565
0.27815996303303897,0,0.985705
0.2098492673329387,0,0.978174
0.31759799180398857,0,0.959364
0.36436365886001554,0,0.995728
0.29485588268120594,0,0.892534
0.2673133235714082,0,0.995411
0.3810955494828385,0,0.997779
0.28372389208813625,0,0.481524
0.34600930661152146,0,0.944317
0.21545885002552254,0,0.993763
0.23901325463252368,0,0.933215
0.3801622940512266,0,0.996739
0.35833284476931215,0,0.997926
0.29872647197928426,0,0.997840
0.3843288416676754,0,0.889013
0.37555649577002526,0,0.992697
0.27013014340011926,0,0.955308
0.39562074852804596,0,0.960773
0.20755828619273053,0,0.928390
0.3050534248014846,0,0.963886
0.29058216726824543,0,0.937857
0.22554121728098003,0,0.844127
0.36188255629545996,0,0.986630
0.22628736189278814,0,0.955968
0.25917797392893416,0,0.905623
0.2605901859167023,0,0.992149
0.3671270705385488,0,0.993390
0.34244294884130977,0,0.993896
0.23530484607329197,0,0.906777
0.28978492253332516,0,0.918117
0.38460330196282144,1,0.999172
0.3924326051598377,0,0.902934
0.2751049375249629,0,0.990824
0.28708088404722,0,0.983827
0.24848775738501971,0,0.869775
0.08860648799160205,0,0.979185
0.07355305232123231,0,0.998086
0.042794728349119286,0,0.933919
0.06046037825622471,0,0.958984
0.03144072726320839,1,0.999056
0.07525581861178139,0,0.987920
0.09955235772849812,0,0.996540
0.1087794058736773,0,0.967447
0.1561544941703221,0,0.940817
0.19650828164243342,0,0.913501
0.14756297482612665,0,0.995276
0.13472492981796266,0,0.932778
0.06448743432146545,0,0.756445
0.06451025579893296,0,0.945476
0.1983584637086247,0,0.989452
0.0352318339571539,0,0.833792
0.13066467507445204,0,0.934327
0.13059648351872724,0,0.891575
0.17878881765877364,0,0.803202
0.06898087154572882,0,0.820502
0.08787685920854689,0,0.845586
0.15903794732942877,0,0.760497
0.17483541611080983,0,0.779499
0.06232703582468914,0,0.763362
0.11287064639933012,0,0.836084
0.10887784802951918,0,0.829291
0.1918097684857227,0,0.888191
0.030833509192267274,0,0.778883
0.20113225035487403,0,0.888016
0.036143425173301616,0,0.713517
0.05683972287797666,0,0.763180
0.15561854109916762,0,0.908396
0.20725011464074733,0,0.605346
0.17139240799200242,0,0.740428
0.2417561913063491,0,0.998998
0.20100077742531527,0,0.865214
0.18348553062693038,0,0.790931
0.21466827606047956,0,0.956496
0.2707725369284764,0,0.944682
0.20477150216707546,0,0.938628
0.07633855038226219,0,0.907376
0.10439144591080073,0,0.808755
0.14690074165708406,0,0.964908
0.21147169838763838,0,0.997771
0.299564744341858,0,0.840428
0.14258055379216528,0,0.949441
0.22774022451302647,0,0.911868
0.13335391322839668,0,0.919429
0.28484033056244806,0,0.962324
0.22066175539779362,0,0.855948
0.0737664369785437,0,0.829012
0.29734186857841366,0,0.965635
0.04650007619696463,0,0.771833
0.06565895087274687,0,0.538582
0.09244569512736403,0,0.983308
0.09082993277757274,0,0.919835
0.2147490686033564,0,0.941140
0.22596757637133436,0,0.815649
0.09708856111994496,0,0.679742
0.159596143787473,0,0.934518
0.20182483703462947,0,0.976891
0.15870547468369786,0,0.958909
0.23965847945729024,0,0.849389
0.3439375989044862,0,0.972652
0.26477603421471463,0,0.952685
0.1596848047127868,0,0.964334
0.21003780840512676,0,0.982790
0.33611537401411923,0,0.897171
0.24967295765969164,0,0.990928
0.16213054517738673,0,0.896941
0.21857388170114256,0,0.948026
0.2938967431388278,0,0.834845
0.17435208966472737,0,0.837272
0.1035711718202549,0,0.953675
0.2470101636084729,0,0.817861
0.27311639211317307,0,0.853039
0.3212299500542106,0,0.928937
0.33337242006052553,0,0.973378
0.3928485511008162,0,0.989811
0.3470593074138647,0,0.974881
0.3255795538739141,0,0.973702
0.33283521797376264,0,0.991006
0.304246680468708,0,0.949542
0.22453740821655052,0,0.010369
0.1378913606883941,0,0.955093
0.23404635213750127,0,0.994495
0.3142469394480798,0,0.908258
0.1532934325903984,0,0.940555
0.29128039851776866,0,0.983406
0.19106987438498554,0,0.729598
0.31342909061095237,0,0.666423
0.27191526313319,0,0.910910
0.16141202019063616,0,0.960121
0.20355696312678462,0,0.955927
0.2583785293044851,0,0.989831
0.2225468853255366,0,0.912445
0.16389545753670048,0,0.941772
0.15281877635207658,0,0.922090
0.26898974003931553,0,0.952120
0.2597416113514872,0,0.998644
0.19164017089030247,0,0.886273
0.24215169168781073,0,0.832478
0.2059769064015031,0,0.907853
0.1871519943083022,0,0.882934
0.1750402848253302,0,0.870045
0.08737597467188496,0,0.805635
0.24233099114429607,0,0.882127
0.23631295483010994,0,0.976434
0.2372130921225402,0,0.796474
0.2396983479043283,0,0.918646
0.25756460551376814,0,0.911840
0.1655447632517845,0,0.944410
0.29547641826389426,0,0.909861
0.30278950244465663,0,0.954095
0.10477096151347391,0,0.975259
0.1407647325043888,1,0.999482
0.32693745931572843,0,0.942985
0.3396072342664251,0,0.985456
0.27602402359316613,0,0.947902
0.2813918920360657,0,0.980863
0.3070413181478857,1,0.999595
0.2597678414746911,0,0.827358
0.2829653502246848,0,0.906946
0.3019220638582787,0,0.992355
0.28307932463637603,0,0.918899
0.3787335002511655,1,0.999332
0.3545602276621428,0,0.985364
0.2633398628898931,0,0.940026
0.19711621329165455,0,0.951844
0.3478410391272603,0,0.991042
0.27168683502058233,0,0.992947
0.2333584918871637,0,0.913886
0.2183210598518947,0,0.980496
0.24221115972038867,0,0.871059
0.23829515435253418,0,0.985543
0.375630694479949,0,0.963084
0.389008535193958,0,0.990532
0.3252219043611437,0,0.866927
0.24675816758522812,0,0.994474
0.20552738564948042,0,0.997047
0.16513026726409108,0,0.970795
0.10905784873469901,0,0.945046
0.18191362565100283,0,0.889535
0.34378600067611137,0,0.995014
0.25439722668144354,0,0.887287
0.07817390924706556,0,0.940715
0.008320581384546298,0,0.208656
0.19349419406548612,0,0.914688
0.23543418505932207,0,0.931028
0.26276772211109667,0,0.998737
0.23640679341861395,1,0.999723
0.2765391563110629,0,0.860287
0.2600288390106056,0,0.996403
0.24713075759577496,0,0.971662
0.2759335172726979,0,0.986755
0.3939856631703252,0,0.945649
0.33597133616180364,0,0.889921
0.37404852879460476,0,0.987141
0.39136287852405005,0,0.985809
0.4074424069590987,0,0.962282
0.1789819721064301,0,0.955177
0.22587603022545844,0,0.972410
0.27415498060770743,0,0.961336
0.1471403827226607,0,0.987362
0.19323539571586737,0,0.032541
0.2134431931405755,0,0.990678
0.2469554645433375,0,0.990579
0.21668314547174158,0,0.977969
0.2528782116464349,0,0.828413
0.3881443271723619,0,0.987036
0.37241189499827676,0,0.958606
0.2855794826333395,0,0.906711
0.21385089043143546,0,0.964738
0.2826261004957051,0,0.958820
0.3002396359936702,0,0.983590
0.3203255659301172,0,0.990000
0.3068033892749884,0,0.846307
0.1970679212552425,0,0.970792
0.23578007685522603,0,0.970235
0.10497430317737035,0,0.936931
0.251840870874148,0,0.920457
0.09896737977049834,0,0.904669
0.36861995635705364,0,0.987273
0.32941624591997726,0,0.995931
0.3402407390929997,0,0.998960
0.2866732971135347,0,0.948123
0.2657701004674382,0,0.953047
0.29452375757171906,0,0.918381
0.2912847053707672,0,0.879547
0.20572580604219054,0,0.568807
0.3308582108211589,0,0.973277
0.2684763819913966,0,0.973077
0.292664321329106,0,0.845828
0.02521668488060127,0,0.899674
0.19660594812303106,0,0.962361
0.28012648257519646,0,0.995145
0.08877098696885738,0,0.988959
-0.008890509993762117,0,0.991626
0.01828442191690905,0,0.932576
0.390152471204351,0,0.997812
0.36822589640430353,0,0.984296
0.36889123847599975,0,0.847677
0.2674360680865614,0,0.992850
0.2710136450242428,0,0.984162
0.25210409418676005,0,0.867333
0.11315662657541777,0,0.515532
0.09933217293856596,0,0.938993
0.20803361064465578,0,0.962793
0.213249019611501,0,0.876843
0.12491473721331686,0,0.807313
0.2679383138212167,0,0.991025
0.2530956229388705,0,0.944513
0.27048439078963904,0,0.963139
0.2923073418791589,0,0.931192
0.26355494656908623,0,0.994785
0.3086508052187835,0,0.978141
0.24654267384571218,0,0.959490
0.24274237307992388,0,0.948301
0.23490097931421616,0,0.990639
0.3131762695104641,0,0.994073
0.2088569601821333,0,0.765481
0.3554419051212753,0,0.984011
0.29821839836079705,0,0.996147
0.20366219381497996,0,0.908747
0.27516976704862833,0,0.979643
0.22335041194375854,0,0.906125
0.2873256973878292,0,0.993074
0.21732763088245735,0,0.848199
0.30394939887765227,0,0.952377
0.27946162477724584,0,0.984583
0.24632089075274247,0,0.978271
0.12723221056200396,0,0.694951
0.40391760943218347,0,0.955999
0.29562091978237626,0,0.978139
0.3554630565914234,0,0.994864
0.4539208796634471,0,0.925862
0.2033804328835817,0,0.936832
0.324083784551062,0,0.973121
0.14694479235366942,0,0.871012
0.15445904395190707,0,0.998077
0.45790036448324956,0,0.984675
0.41665516732548613,0,0.953708
0.28033314463529385,0,0.918912
0.315862237623247,0,0.985405
0.31461606087782806,0,0.895197
0.32036407653107146,0,0.998991
0.20128067337883862,0,0.949833
0.24902010531236318,0,0.944631
0.18521245778369466,1,0.999191
0.11346817468904044,0,0.986632
0.06582887467109855,0,0.898947
0.3582069981234651,0,0.991227
0.16677475953600204,0,0.847663
0.24347236247165013,0,0.980771
0.2736869775259846,0,0.986016
0.1122973698136566,0,0.908096
0.1170563206989423,0,0.908887
0.18232390633136675,0,0.940491
0.07288103510838764,0,0.848375
0.14116954670038226,0,0.925453
0.31505950056911014,0,0.978775
0.3240699810318468,0,0.961720
0.381210021259957,0,0.920185
0.18453492400036595,0,0.996131
0.24833448372405612,0,0.968017
0.15876978870576153,0,0.955076
0.18455680111763992,0,0.948166
0.2517333667175629,0,0.960295
0.061094149194561985,0,0.984906
0.4278723170547173,0,0.901163
0.2946798857017663,0,0.808100
0.35410493994553194,0,0.846112
0.4015100999320356,0,0.948461
0.38753674470772465,0,0.980473
0.3576292246962143,0,0.950850
0.29875929644286336,0,0.983543
0.26391604220734444,0,0.991153
0.33501165431846724,0,0.993443
0.0414522416525268,0,0.954955
0.12945184722524103,0,0.993860
0.3932258701210503,0,0.977479
0.301074825932306,0,0.839375
0.29331950045906363,0,0.922914
0.2379159583534216,0,0.847449
0.3332844522371693,0,0.981792
0.2833552828703862,0,0.986163
0.347082439281316,0,0.868501
0.38465715926794414,0,0.926551
0.19967688140883644,0,0.984261
0.323232403824543,0,0.778105
0.37206891238051504,0,0.993844
0.35362561432179734,0,0.991953
0.22233993295663562,0,0.945827
0.25746945648865593,0,0.999002
0.21365068366728973,0,0.991111
0.4300626668098386,0,0.969875
0.2883008938961221,0,0.967955
0.2369544113088126,0,0.920291
0.21349337609965743,0,0.978749
0.08660052989155896,0,0.929689
-0.0030729475410130763,0,0.478264
-0.008848703228800355,0,0.983013
0.1622395426675471,0,0.988215
0.1859915100832664,0,0.956184
0.20897907965335463,0,0.815330
0.2286188327602619,0,0.898086
0.24252968435543273,0,0.954262
0.3525960874248082,0,0.946016
0.3522218177789914,0,0.950793
0.34339145083229977,0,0.985875
0.15838519665494089,0,0.967273
0.3392674347091576,0,0.948066
0.3065566470746295,0,0.930501
0.22536871270891876,0,0.944751
0.255355042007146,0,0.917319
0.16361296600693906,0,0.919906
0.25422833927046623,0,0.915275
0.2087227004803022,0,0.898703
0.4028891953156871,0,0.981797
0.11133922048628128,0,0.907942
0.33862430468363275,0,0.995489
0.41176648467583593,0,0.953734
0.3030502473120955,0,0.994230
0.30375601167778166,0,0.974307
0.4063883582800935,0,0.956595
0.3866692191070934,0,0.991283
0.21336197822192135,0,0.993021
0.32956386198062726,0,0.938744
0.3478698586798382,0,0.956631
0.3147368363422904,0,0.987626
0.34323172709780697,0,0.926831
0.2653156327677223,0,0.986134
0.12686208638594274,0,0.858501
0.17971682677542686,0,0.990666
0.17718249739327724,0,0.904167
0.25626503899954245,0,0.893581
0.2947929417752518,0,0.811969
0.3295254108429991,0,0.842889
0.36040610833146985,0,0.873674
0.12372521642312694,0,0.998429
0.24939487432547286,0,0.980540
0.2130454088445943,0,0.975141
0.2878876018675944,0,0.914803
0.3734184912528021,0,0.952519
0.41510581232141097,0,0.911081
0.31287833714349683,0,0.987725
0.23588769470183102,0,0.888562
0.302658655353442,0,0.948633
0.4209475787232359,0,0.977721
0.21230587751365299,0,0.911650
0.3415537989277597,0,0.983197
0.26172998609858295,0,0.950320
0.1541543348814244,0,0.463386
0.11040682941797454,0,0.993428
0.01750348020531621,0,0.975424
0.04774659042385425,0,0.912457
0.4297857628621205,0,0.998361
0.4175814215359918,0,0.954270
0.32327723831306093,0,0.958692
0.38170420787975834,0,0.976262
0.17313944554165445,0,0.806661
0.10065996933896873,0,0.988800
0.0032070158558778266,0,0.629358
0.12839810820850214,0,0.991695
0.059556300187367954,0,0.888680
0.32383489235095336,0,0.996534
0.1684707167093305,0,0.945994
0.17317749521110326,0,0.938395
0.16919549708344037,0,0.970929
0.24573475905427097,0,0.989986
0.167542879964324,0,0.952697
0.14013657974722696,0,0.901351
0.18923691483043353,0,0.928133
0.2981077747669784,0,0.979037
0.39374351681502157,0,0.991972
0.2579718447078751,0,0.968169
0.2805569551045323,0,0.960843
0.1661927056925137,0,0.966354
0.09847908823690382,0,0.870534
0.3755950616845594,0,0.959981
0.3319910919716755,0,0.928038
0.2835336716165541,0,0.987574
0.3358648313831784,0,0.975430
0.35836296934430756,0,0.973590
0.14383810757694826,0,0.614202
0.17045360590595535,0,0.944019
0.16673605920358886,0,0.996169
0.057739841237119206,0,0.905299
0.10413158365392378,0,0.982000
0.14051165164795862,0,0.970476
0.38618497568555726,0,0.931250
0.4176478310324651,0,0.891483
0.17374338982422782,0,0.886040
0.44255401368602054,0,0.979803
0.10996923329263796,0,0.841650
0.13001354223262676,0,0.815234
0.3100382728818188,0,0.797565
0.20010794131143889,0,0.917186
0.310086738084909,0,0.934200
0.35356388802913397,0,0.942915
0.25345171534679783,0,0.915546
0.1914766653341107,0,0.984731
0.1773346012183786,0,0.971382
0.12127005456399925,0,0.998155
0.11365557395545149,0,0.905042
0.07460179903518044,0,0.936533
0.06700477535073723,0,0.882317
0.04526066290622058,0,0.985838
0.10629612613855534,0,0.993043
0.05706053785197918,0,0.930329
0.10406871685950127,0,0.992000
0.1580253298154534,0,0.949071
0.0037679955481859017,0,0.953200
0.13701318781187052,0,0.946981
0.28320909041838854,1,0.999421
0.16007660769690535,0,0.993270
0.09965477563921929,0,0.957383
0.02212112039416503,0,0.874828
0.0323856278674976,0,0.945672
0.17396915024214674,0,0.983316
0.14293844413010312,0,0.854857
0.1013754047012137,0,0.926815
0.12673857153208298,0,0.982353
0.17492049558289233,0,0.916370
0.16878285650415778,0,0.971494
0.13577538741773995,0,0.977518
0.2140474991214081,0,0.826341
0.22193250058543074,0,0.917311
0.16949430701409077,0,0.931772
0.13710427510350306,0,0.805384
0.26139438083447397,0,0.935980
0.2167871704554071,0,0.914103
0.20385695273375234,0,0.929027
0.19243090549657565,0,0.914351
0.2443276819018326,0,0.922731
0.22207081618863322,0,0.965269
0.20202918665357616,0,0.888207
0.2562715544075655,0,0.917745
0.15123470092688088,0,0.986995
0.1944483901716266,0,0.886976
0.2604244121509884,0,0.883419
0.21681602189537452,0,0.914278
0.28762302282687274,0,0.870105
0.3429214191809369,0,0.988982
0.2624825608007333,0,0.940695
0.27580084483749306,0,0.872834
0.32484493975336254,0,0.919034
0.2735822460965095,0,0.917342
0.26034477857973504,0,0.995667
0.3996670186052042,0,0.891761
0.2834020149943372,1,0.999919
0.3048999898205069,0,0.997095
0.2226530589433355,0,0.981706
0.39585721148721603,0,0.987006
0.2790782559492733,0,0.964762
0.2680389313232037,0,0.956705
0.34850418773530667,0,0.990170
0.38770002416499905,0,0.995538
0.36941751812198026,0,0.903618
0.2884068675461368,0,0.869845
0.09754502323394726,0,0.995141
0.14941265183940744,0,0.817205
0.45317196842021157,0,0.992512
0.42836225269860273,0,0.879745
0.21815588089324134,0,0.641701
0.2987622986997015,0,0.985457
0.3130404178067944,0,0.993278
0.3600859301455345,0,0.954387
0.3569209517918492,0,0.951850
0.16617468083477366,1,0.999740
0.34359459821184046,0,0.942942
0.39536252925459187,0,0.998489
0.4011419690709478,0,0.994418
0.2727627338890431,0,0.997020
0.2183397744434636,0,0.947611
0.3289404386261609,0,0.980457
0.41204180207139285,0,0.933339
0.34712784657847506,0,0.946279
0.26608618056007244,0,0.970288
0.24628771335594157,0,0.930279
0.3350226473014464,0,0.902243
0.34899852410791676,0,0.897997
0.22019418114041653,0,0.986225
0.07719006673966261,0,0.937425
0.0698597441579046,0,0.941668
0.07418712984755568,0,0.971552
0.15761764402823197,0,0.862024
0.18150004449962712,0,0.774473
0.10373011939682875,0,0.942409
0.12253840000793853,0,0.939710
0.25253221188971925,0,0.883562
0.1528272866430628,0,0.777959
0.3260562929217755,0,0.837261
0.3979636013519789,0,0.978677
0.3394881312391508,0,0.983681
0.27990833577352486,0,0.913534
0.2659978569140587,0,0.926504
0.27225057366412775,0,0.995280
0.24669163308846787,0,0.998403
0.28538780158341726,0,0.967341
0.295222240801825,0,0.993214
0.4128212964483758,0,0.809272
0.3954977034152179,0,0.946397
0.294516796409161,0,0.968924
0.3372531045460112,0,0.918291
0.37259338468868775,0,0.943594
0.29214998754304866,0,0.874315
0.39590385277553963,0,0.975767
0.40581797954718907,0,0.988847
0.2598792978914266,0,0.974679
0.2871527596057947,0,0.929885
0.15066606619217301,0,0.988415
0.17896793169860647,0,0.971757
0.2680675926591963,0,0.840260
0.11868601828199425,0,0.889086
0.15303813269003183,0,0.964390
0.13069116248937035,0,0.871806
0.20314441803519726,0,0.966992
0.2998999966533599,0,0.997043
0.18063945212535176,0,0.919068
0.22350139298186134,0,0.936363
0.2088281926197643,0,0.897565
0.29633120469225965,0,0.960826
0.38790682304450036,0,0.840095
0.36609995670287493,0,0.897970
0.252207011532368,0,0.966516
0.2682243558721759,0,0.970428
0.33628705315070717,0,0.914145
0.31952215350026025,0,0.963099
0.37887729906247336,0,0.979793
0.24664092384784778,0,0.912955
0.2977387385197426,0,0.970393
0.35120974209530215,1,0.999321
0.4036132664521846,0,0.996063
0.2903995311008102,0,0.873524
0.34342124058496204,0,0.991635
0.37347142895409435,0,0.960556
0.4101255663523754,0,0.976978
0.2592850570160501,0,0.974194
0.12929639238254445,0,0.927612
0.22163977066248564,0,0.989694
0.141677307490908,1,0.999449
0.09090847509591805,0,0.994403
0.2576998248512941,0,0.968538
0.3185350474440387,0,0.926169
0.22399235596481468,0,0.912228
0.2977293636884062,0,0.923772
0.3117546473157347,0,0.885517
0.21326494149336717,0,0.936106
0.24463074750506036,0,0.862293
0.3561286244090888,0,0.866993
0.26048969781453146,0,0.797506
0.2696222953146298,0,0.928358
0.21640396881421783,0,0.932139
0.3026665595677131,0,0.973935
0.2991610360074139,0,0.995250
0.2706324535789153,0,0.965006
0.367488819815575,0,0.966985
0.22659746420930307,0,0.998801
0.2982749129819057,0,0.894224
0.31980186947571476,0,0.861699
0.3146688977632075,0,0.966392
0.4566124723065895,0,0.904056
0.37193766120610405,0,0.952410
0.27885096443689816,0,0.980861
0.23086921919638914,0,0.806228
0.18161296977482205,0,0.838718
0.3023120244763053,0,0.904664
0.3561339296014006,0,0.954021
0.4276424290116281,0,0.964053
0.2371261121852591,0,0.966859
0.2946118697431813,0,0.887330
0.3806799249952034,0,0.982652
0.2694225530628442,0,0.992824
0.17036376346340754,0,0.988037
0.4064832033884387,0,0.878118
0.3928055821526831,0,0.946801
0.2408175170453971,0,0.926803
0.33478908673302504,0,0.915109
0.3411704301656058,0,0.911523
0.3278579993288752,0,0.951621
0.2635862897000895,0,0.978251
0.3262412120272705,0,0.966230
0.24750784612494617,0,0.876660
0.1092040197592609,0,0.894089
0.1149807486548195,0,0.971957
0.33067643277834746,0,0.957885
0.2754971403655735,0,0.047068
0.17946484841313495,0,0.537757
0.27514879419402627,0,0.986226
0.26348231019830337,0,0.682038
0.16935102600966884,0,0.684157
0.20144353304166446,0,0.919868
0.07090163900446408,0,0.981323
-0.02720067293787468,0,0.041513
-0.03751253897612589,0,0.040882
-0.045780661952787544,0,0.552416
-0.04358490491206428,0,0.604399
-0.05212750088622439,0,0.680156
-0.0639691977312682,0,0.636093
-0.0428155569047242,0,0.607345
-0.060611413842427395,0,0.635710
-0.04741678186629941,0,0.572697
-0.046888195628775504,0,0.590445
-0.049747094459991724,0,0.556689
-0.057796189968933154,0,0.670823
-0.053474704471950144,0,0.571251
-0.05605530013107151,0,0.624723
-0.04285871287647893,0,0.566165
-0.03559530316713105,0,0.735936
-0.049254124145439226,0,0.598898
-0.04457459564310824,0,0.486562
-0.050030142836053636,0,0.618993
-0.052977359307001363,0,0.765542
-0.03888098775016311,0,0.731631
-0.039477077323767304,0,0.829282
-0.025087783122012045,0,0.774951
-0.02621022697979457,0,0.658940
0.21775469783031784,0,0.973688
0.3454213837377731,0,0.993464
0.307332198200816,0,0.960388
0.10940621216420358,0,0.966041
0.11611960197795876,0,0.980903
0.05787847207079642,0,0.996943
0.20892182489296396,0,0.991850
0.14635700143254948,0,0.966543
0.039467468358615906,0,0.812758
0.05415030726533989,0,0.985978
-0.011773418274043221,0,0.651061
0.004392470316543565,0,0.927240
-0.019110342130999915,0,0.735801
0.04001346811272705,0,0.941810
0.018054980133097993,0,0.058780
0.24740321035058283,0,0.997150
0.2796431287060346,0,0.986132
0.2268307047118629,0,0.943856
0.3325134105307559,0,0.940501
0.3807056522193144,0,0.985502
0.23934409384689387,0,0.947062
0.25450389913990235,0,0.721317
0.19713605712409996,0,0.944709
0.23687960704142327,0,0.929730
0.24542195563860403,0,0.957445
0.33374856533489244,0,0.973176
0.3864034513765056,0,0.995551
0.25163717881535147,0,0.998595
0.3269982255716987,0,0.497591
0.2712390988103417,0,0.956034
0.3132944188366228,0,0.991404
0.31624086542783775,0,0.364568
0.26498361037177126,0,0.751214
0.24880069591774553,0,0.835297
0.17522234244808538,0,0.103126
0.1914829434415837,0,0.847294
0.20433827853124265,0,0.965410
0.2539545309669611,0,0.763680
0.30215906002493437,0,0.965051
0.1885911182930978,0,0.905008
0.10462396357796563,0,0.975649
0.10290513081728876,0,0.608771
0.13057281273603408,0,0.958881
0.13598879610599687,0,0.971045
0.014328866435717853,0,0.176434
-0.037530972927812475,0,0.325425
-0.03437451505331939,0,0.409592
-0.039452622949913724,0,0.612716
-0.04581737429299765,0,0.305497
-0.03737009952643647,0,0.277213
-0.039904122224454726,0,0.273788
-0.03708320697456582,0,0.597902
-0.03865010341697136,0,0.168188
-0.042852030332322974,0,0.583006
-0.03102515598206783,0,0.447341
-0.03718192733172401,0,0.559848
-0.038118899429492197,0,0.185060
-0.004810192825191705,0,0.532760
-0.02329899743173463,0,0.718888
-0.02182694980555833,0,0.135491
-0.03306262822263893,0,0.988368
0.010167437798521974,0,0.484236
-0.023929198419562665,0,0.582296
-0.030934196264697747,0,0.420935
0.002485419250283853,0,0.940344
-0.02382669439328075,0,0.324849
-0.01833844371111358,0,0.429217
-0.026269548157030705,0,0.494085
-0.015936082044120607,0,0.506467
-0.0018130680600184094,0,0.597483
-0.00585640256868516,0,0.665224
2.8467925729185295E-4,0,0.596358
-0.006349805253689834,0,0.772224
-8.087828442889891E-4,0,0.721390
0.031475552498581874,0,0.737290
0.004783994862462877,0,0.393574
0.10925601066258156,0,0.950034
0.13306536154776774,0,0.931726
0.2666471311408178,0,0.546614
0.2817311002881294,0,0.601960
0.2853992789245042,0,0.430270
0.21973252719080483,0,0.408130
0.20431560129662282,0,0.930121
0.04748408580314946,0,0.996897
0.04155894182213028,0,0.647867
0.0474048447134242,0,0.807583
0.050982076469130076,0,0.797679
0.05682372403010432,0,0.859204
0.27809565146928455,1,0.999066
0.33899421402913316,0,0.310640
0.30637945446646975,0,0.868854
0.17473379704681719,0,0.889763
0.04520969730156938,0,0.845701
0.026731804982431582,0,0.801448
0.056587889283505714,0,0.926436
0.18223176073042188,0,0.922610
0.1250026718222286,0,0.813864
0.1252191657483484,0,0.955357
0.03547812695476908,0,0.825068
0.11763861300869807,0,0.952146
0.08573498777613565,0,0.957094
0.12898922669597118,0,0.895668
0.06294758687194014,0,0.882249
0.10291586651267838,0,0.967133
0.0508115648192084,0,0.848160
0.23533632809183755,0,0.923192
0.058618287768348445,0,0.819760
0.12772949312006995,0,0.919494
0.2161342912645779,0,0.995866
0.22558130938531154,0,0.812994
0.09968616270665737,0,0.947092
0.1087046700667702,0,0.745982
0.044886460370795,0,0.886211
0.03583407362568586,0,0.945297
0.2428538442630626,0,0.268431
0.36504604476198466,0,0.333479
0.16533209694502907,0,0.966329
0.0652764397726822,0,0.922452
-0.034512264539384684,0,0.354781
0.11824360287131618,0,0.989844
0.3204972783727606,0,0.377058
0.21379795094558193,0,0.842249
0.02354964943457764,0,0.445428
0.023612189064329932,0,0.591067
0.01922055424673335,0,0.971279
-0.01706430534884809,0,0.993462
-9.264624195570955E-4,0,0.953606
0.42135174362365996,0,0.889065
0.27902462747529505,0,0.953117
0.04269168864314496,0,0.996217
0.0035304345102086607,0,0.559578
-0.027456213886392175,0,0.722856
0.33084341588644783,0,0.994463
0.23504853862939049,0,0.995085
0.22627172202238632,0,0.995683
0.08259244607450196,0,0.998998
0.051083622193661964,0,0.966586
0.3889611066562655,0,0.318651
0.12818010062074306,0,0.997546
0.12477856550332461,0,0.985169
0.01043359082484918,0,0.274262
0.11069484909177357,0,0.556945
0.048819451125019106,0,0.976929
0.004575386843784632,0,0.991594
0.010210096271328252,0,0.553194
0.05463350022295178,0,0.803619
0.2034229329712515,0,0.951369
0.18332058593989245,0,0.949222
-0.018081766963304182,0,0.625981
0.09038349867759114,0,0.493702
-0.007413595740153017,0,0.415567
-0.0031656773969721452,0,0.507003
0.1308248939096713,0,0.998193
0.2574794929184343,0,0.425025
0.17143261445382746,0,0.504134
0.1869388319803691,0,0.906205
0.19680007136296077,0,0.435574
0.14276548268554198,0,0.825296
0.1472733394804069,0,0.552895
0.253058744782385,0,0.969258
0.2835907999459414,0,0.571518
0.19529012473313956,0,0.574134
0.1988905959951239,0,0.423834
0.180593347471886,0,0.896005
0.03403428142135655,0,0.946330
0.30833433456454634,0,0.965096
0.06071947244860945,0,0.809447
0.14066899520000892,0,0.976412
0.28245533611611073,0,0.982822
0.23139884292509194,0,0.918800
0.30710550992065644,0,0.998956
0.07821837491733573,0,0.963218
0.2802669488020107,0,0.966411
0.20928396472234184,0,0.623886
0.06877811464226129,0,0.511501
0.17397938043989247,0,0.416999
0.13334972130796655,0,0.727403
0.27425702299338317,0,0.617891
0.2010815474794736,0,0.989453
0.12661860285291826,0,0.850716
0.2882248002191122,0,0.985394
0.2474655804103792,0,0.998952
0.06813214654930061,0,0.990790
0.3980743280256447,0,0.611877
0.3282653617246861,0,0.959102
0.35793308020954345,0,0.996338
0.4125753011651617,0,0.991656
0.21997636894555345,0,0.995140
0.32592311117053263,0,0.990271
0.22310822499312138,0,0.696287
0.1905663935631811,0,0.971311
0.0704795116558917,0,0.578268
0.3835483212338868,0,0.996274
0.48054523690571443,0,0.968289
0.3486682494724827,0,0.970455
0.3574528345267023,0,0.591046
0.3198194961478428,0,0.435150
0.29362964226552407,0,0.607056
0.19769347170955012,0,0.358536
0.012230072495435486,0,0.934358
0.2050458882441449,0,0.965128
0.4289940490395049,0,0.842773
0.29794139995391045,0,0.996900
0.2340584863988438,0,0.068706
0.21031364870276192,0,0.989961
0.1344672931810069,0,0.899524
0.30999046976421396,0,0.992961
0.3152364345092584,0,0.997433
0.3358375478892408,0,0.996518
0.44278358505907256,0,0.976823
0.49230926034889344,0,0.998975
0.3974242806174181,0,0.976814
0.2878380323007286,0,0.928978
0.3477308045893957,0,0.997683
0.46462356385825376,0,0.948004
0.34527266525497013,0,0.860671
0.010791460751858696,0,0.949204
0.03634205455054678,0,0.995140
0.34659921852048775,0,0.929616
0.3120958261146243,0,0.968072
0.377694760802028,1,0.999475
0.4592912700934068,0,0.991595
0.44652032719562,0,0.956196
0.31049333018749564,0,0.951051
0.28267475540086723,0,0.990215
0.2619756557285209,0,0.764482
0.21930270836195181,0,0.870872
0.16955785476109178,0,0.965184
0.06573435628261752,1,0.999700
0.09933300033299862,0,0.847000
0.008346478359969803,0,0.553785
-0.02595434513421856,0,0.382152
-0.037474327461065236,0,0.648921
0.061758455377829924,0,0.432070
-0.033621020038089505,0,0.955729
0.0461921208769713,0,0.468762
0.031263844213539935,0,0.804901
0.04397178105925945,0,0.930384
0.1067419626637413,0,0.888348
0.1937585678623369,0,0.916225
0.013504926283975134,0,0.640484
0.012289650143541806,0,0.913368
0.10834263767143576,0,0.417297
0.10173323795717973,0,0.911236
0.14605152752262238,0,0.494682
0.09991672322477309,0,0.905427
0.19517432432592163,0,0.602522
0.29535730358224643,0,0.750966
0.3126065617132869,0,0.478185
0.3309897176904155,0,0.897229
0.399552913946703,0,0.965783
0.2726289506195736,0,0.923275
0.30798798967720525,0,0.914072
0.29102114323490436,0,0.987109
0.17246992303876912,0,0.974190
0.0662545048327588,0,0.994603
0.2255667588950792,0,0.834096
0.2317991261276097,0,0.949432
0.36729689288671435,1,0.999666
0.2954197103048188,0,0.929252
0.3390505802541465,0,0.992123
0.15691082089551028,0,0.984091
0.26178655696668235,0,0.893388
0.29866602761610395,0,0.991797
0.269919283218612,0,0.937743
0.329441390632154,0,0.981384
0.20562039760599524,0,0.997680
0.14816129138280248,0,0.916938
0.06974117571391591,0,0.084948
-0.01495984601208697,0,0.541361
0.12512751103076053,0,0.279508
0.04708874543677234,0,0.904565
0.22020196316036686,0,0.420320
0.27576589537620194,0,0.968413
0.27663818609333884,0,0.983605
0.2808749961047493,0,0.624889
0.49736653942371795,0,0.995915
0.4897250746635029,0,0.677717
0.274895037624277,0,0.884493
0.30864744211077305,0,0.978031
0.2070806927641447,0,0.407424
0.23892720391655178,0,0.501592
0.32704264390250526,0,0.830976
0.23646704889630368,0,0.880584
0.24023161004367888,0,0.976410
0.3294908439262652,0,0.966133
0.29900820258805827,0,0.907080
0.38693530155560696,0,0.993185
0.49398687330194635,0,0.938813
0.5439574442098348,0,0.989373
0.3345808542225719,0,0.911248
0.060333272985650346,0,0.351755
0.08676393093405246,0,0.987736
0.07629100398375846,0,0.472054
0.05370211337125199,0,0.976673
0.006659001314393762,0,0.953565
0.10695891198319733,0,0.472472
0.0012683433413006923,0,0.922101
0.14157759374826437,0,0.936919
0.2265125405153827,0,0.447515
0.12766925940847837,0,0.953518
0.2371853779647626,0,0.917645
0.38799399810189783,0,0.997877
0.1623138962379726,0,0.967792
0.24250803116811465,0,0.650415
0.3819925771935355,0,0.598056
0.1361582524492918,0,0.992419
0.2595065324324679,0,0.952451
0.3475831543498835,0,0.967713
-0.015512440925065098,0,0.834204
0.08768919430234538,0,0.947031
0.15262424974552147,0,0.924141
0.09096872430859687,0,0.983099
0.08184300650579487,0,0.986303
0.3944012501611469,0,0.994323
0.15134463634509282,0,0.999080
0.15781865318236396,0,0.969869
0.4577087778322214,0,0.897041
0.3133089520336744,0,0.997649
0.2221404480732969,0,0.296689
0.042645528217659115,0,0.907166
0.1834646499854847,0,0.967716
0.3396546689094251,0,0.968275
0.3511691663167107,0,0.995996
0.03322102760135252,0,0.561095
0.07161930656100063,0,0.977545
0.29809820845724666,0,0.840486
0.1312970185717648,0,0.802455
0.12960924347908326,0,0.637135
0.14093247224087893,0,0.808824
0.12818269102240212,0,0.986954
0.11708392604777121,0,0.767076
0.173831541106596,0,0.733580
0.2857843919272236,0,0.459926
0.16857270883531303,0,0.996392
0.07813073166069008,0,0.616558
0.07015885430811608,0,0.889755
0.07996067196489132,0,0.089400
-0.0171470808360094,0,0.259849
0.0191943265861903,0,0.643392
0.026200563050644485,0,0.961579
0.0760766100308629,0,0.937962
0.2791623677984461,0,0.576246
0.03477578147099874,0,0.895093
0.014441102445980186,0,0.788294
0.599109962768652,0,0.788592
0.03888339301874345,0,0.921393
-0.007561658316449511,0,0.973779
0.002698387921293309,0,0.986091
0.1346724780279137,0,0.970418
0.00392655502735899,0,0.938248
0.01976604348505555,0,0.734838
0.05473516371487585,0,0.970507
0.16215888300005993,0,0.986406
0.19585697062409183,0,0.858926
0.13819535585273277,0,0.795075
8.041404972125394E-4,0,0.599878
-0.001117944418998466,0,0.804133
-0.0019517690965193343,0,0.819813
0.026404922583233226,0,0.910087
0.06785513606727221,0,0.929276
0.10988948247036374,0,0.880519
0.03408741355921141,0,0.847819
-0.01148892927661465,0,0.839829
0.042178185301352825,0,0.916816
0.042224124302891096,0,0.949211
0.05294054538476703,0,0.971332
0.06937494309025906,0,0.889523
0.2782512664241543,0,0.974116
-0.013975336603144472,0,0.951183
0.21555898144778193,0,0.929543
0.2785034308084323,0,0.984956
0.3362617263984492,0,0.680699
0.18745534463773583,0,0.873833
0.291283291563807,0,0.955193
0.34606768387902564,0,0.919082
0.28613847988974234,0,0.984959
0.015016023488229566,0,0.565244
0.026831600838085744,0,0.883256
0.10461362140189674,0,0.917405
0.14398939275982914,0,0.967839
0.15709689566429172,0,0.998254
0.2550584269706467,0,0.601521
0.3007736750437452,0,0.996622
0.07879413189426648,0,0.961212
0.1359980211488685,0,0.976536
0.4370311596273076,0,0.998749
0.1355741375541315,0,0.818781
0.24216426570810207,0,0.999013
0.3717700618037514,0,0.996966
0.33706228493216955,0,0.987272
-0.02094291885512788,0,0.625611
0.944391123654122,0,0.887944
0.49312878833918433,0,0.996770
0.11152034978051291,0,0.255324
-0.0015011358562581998,0,0.994610
0.013315398085580056,0,0.437449
0.02127719635314513,0,0.599685
0.5803744019707061,0,0.997039
0.5870522995402656,0,0.642774
0.5800911304664204,0,0.422415
0.2219980934894787,0,0.611650
0.21695061468056212,0,0.068751
0.01152913520943446,0,0.920918
-0.008798417503966352,0,0.636320
0.30542508397632984,0,0.688287
0.10424897105315814,0,0.127095
0.3644634673718734,0,0.958021
0.16243644540409227,0,0.885759
0.14429581447122286,0,0.548646
-0.001765384836800512,0,0.567842
-0.0029335309819214592,0,0.557758
-0.007818538069554673,0,0.479239
-0.008582129320140486,0,0.786830
-0.0013688687903090112,0,0.118721
-0.013005778265848922,0,0.145984
-0.01364075873818901,0,0.251103
-0.013280818548095189,0,0.868056
-0.013193861333787325,0,0.910565
-0.011355056753797482,0,0.953800
0.37546878666510125,0,0.334173
0.37347471689726525,0,0.843283
0.0733645564773982,0,0.214745
0.04808865872075563,0,0.319585
0.008144352534774447,0,0.882907
-0.008344444845787887,0,0.079606
-0.00837913613402287,0,0.466402
0.00647124493717084,0,0.990755
0.005547265057530981,0,0.997867
-0.006024484675062612,0,0.929207
-0.00921880352694834,0,0.573287
-0.006449651471668516,0,0.562877
-0.009824018167090586,0,0.515497
-0.012620352776964109,0,0.347764
-0.005196715402897697,0,0.560669
0.2668836324573234,0,0.815716
0.02680125833745886,0,0.929355
0.021883055190938673,0,0.273563
0.009554408759646,0,0.518760
0.12085916925222254,0,0.110979
0.06224185513522058,0,0.819302
-0.0042322228462022575,0,0.511696
3.6156499843333455E-5,0,0.129999
-0.0047241836883255275,0,0.135382
0.0015997608373425165,0,0.851320
0.10504704106340602,0,0.395016
0.09758420304509868,0,0.929314
0.08390293988075745,0,0.568235
-0.00428826592811162,0,0.684231
-0.007747834433565768,0,0.681009
0.18336989771000997,0,0.629369
0.19526055495387948,0,0.958773
0.06872634565778075,0,0.966151
0.01579967937315707,0,0.436761
-0.008597954780605918,0,0.851355
2.600845638073413E-4,0,0.742712
-0.008090401435162178,0,0.796840
-0.0077552502252827525,0,0.375563
-0.008742629785630295,0,0.998519
0.004637491678742985,0,0.885005
-0.0038405887615970795,0,0.597421
-0.007937392845603382,0,0.808940
-0.01074511008776855,0,0.994651
0.028822062341627788,0,0.791111
-0.007050690568408495,0,0.267675
-0.004444704226531989,0,0.832693
-0.005851274875248206,0,0.883723
-0.011124095395984043,0,0.834180
-0.010895095325303106,0,0.488976
-0.010386284529593628,0,0.928120
-0.006665800554114551,0,0.216360
-0.011546528851695919,0,0.789074
-0.010246653824610282,0,0.543532
-0.010947658359994308,0,0.692282
-0.011215391380347016,0,0.831554
-0.004846623969848717,0,0.266907
-0.008202122410430538,0,0.611460
-0.009324765348981252,0,0.192356
-0.011347334264303292,0,0.449567
-0.012515025331619484,0,0.251785
-0.0024775582243839094,0,0.954566
-0.008865956288083373,0,0.436655
-0.01004827268297069,0,0.551741
-0.011123237249929287,0,0.545307
-0.007439462505661155,0,0.593460
-0.010310045133739803,0,0.569522
0.06000631700216989,0,0.865100
-0.0025042432604889626,0,0.886975
-0.01133473026988731,0,0.490381
-0.0066815262496502685,0,0.882555
-0.010188962799376929,0,0.850510
-0.009933031504060049,0,0.941309
0.04947393909450423,0,0.888478
-0.008188398431175832,0,0.864917
-0.0065967629913765355,0,0.871220
-0.010741675088053529,0,0.391801
-0.008836145977972108,0,0.923327
-0.008505011849550891,0,0.699376
0.3682888531042968,0,0.786642
0.08397519672909468,0,0.991813
0.10698394109144312,0,0.976947
0.26157927296932393,0,0.333966
0.245804049610406,0,0.893851
0.008317163407391599,0,0.902448
-0.0035222181387002368,0,0.683950
-0.004439356293409905,0,0.632419
6.699000959919187E-4,0,0.962017
1.849138941282447E-4,0,0.333117
0.021681038945644354,0,0.987475
-0.0018694159235770745,0,0.752904
-0.005278161814068532,0,0.973153
0.10860433779688759,0,0.992057
0.09434138666659318,0,0.568571
-0.001889941596430182,0,0.559783
0.031573083293236485,0,0.963172
0.02025893263903543,0,0.122233
-0.009399305680816188,0,0.492204
0.006204760726105115,0,0.747804
2.207562331628871E-4,0,0.563832
-0.0018485175204352505,0,0.556249
-0.00978297926040391,0,0.795207
-0.007677627674685746,0,0.506078
-0.010854518042383595,0,0.996742
-0.010020965499453263,0,0.887973
-0.010859562516664705,0,0.457706
-0.00761054342446649,0,0.461616
-0.011061461398047253,0,0.440487
-0.007836903654974083,0,0.266802
-0.009373736121159248,0,0.654331
0.008098676792706157,0,0.858444
-7.451747560038717E-4,0,0.416322
0.0019733373875182062,0,0.872057
-0.00969392993038057,0,0.891254
-0.009493668359435697,0,0.145874
-0.014342077263121799,0,0.369777
-0.009502194297669096,0,0.862063
-0.008488708216406383,0,0.972966
-0.006507504044119261,0,0.863731
-0.007986565014272485,0,0.656723
-0.01223735437481739,0,0.617048
-0.00954816703225533,0,0.723438
-0.008377338673627,0,0.502559
-0.009344883716305747,0,0.725691
-0.009990117439944508,0,0.572924
-0.008886905278000302,0,0.963554
-0.008954231260845843,0,0.939868
-0.0034181543087344287,0,0.891497
-0.0012912516111594926,0,0.947688
-0.008457181019850098,0,0.840675
-0.006014505712408539,0,0.684469
-0.010566510234903466,0,0.784351
-0.0011662050039992114,0,0.983361
-0.004890091441203281,0,0.410211
0.41005826152031244,0,0.622220
0.3339614984281693,0,0.393029
0.030927447703669016,0,0.325984
-0.004368139903542157,0,0.243531
-0.007976076668199867,0,0.026075
-0.008721854619065952,0,0.026301
-0.006257494969879203,0,0.958359
-0.007614148782619688,0,0.026714
-0.008141146186472336,0,0.213095
-0.011015081312828757,0,0.331151
-0.013704409762766396,0,0.103319
-0.013013799553477284,0,0.720919
-0.015509641394090235,0,0.123703
-0.013877461772386778,0,0.585570
-0.0011871425983676165,0,0.281636
-0.015304571468959804,0,0.607808
0.46860861018817224,0,0.890491
0.4366582342530232,0,0.470240
0.38249099828818345,0,0.224631
0.1930564608674824,0,0.167324
-0.004839691842820578,0,0.986931
-0.005467543624798104,0,0.304318
-0.011369305857172933,0,0.420873
-0.010598239904800381,0,0.996987
-0.00980562895048239,0,0.701981
0.4058030960950397,0,0.979887
0.23654893672551042,0,0.643358
0.0037396567558028136,0,0.939455
-0.007120834496459444,0,0.348903
0.18065438454079108,0,0.652908
0.07145922361396012,0,0.214180
-0.010134337606377235,0,0.734875
0.37693292401919765,0,0.560308
0.3561375326487972,0,0.749375
0.10825040001463924,0,0.068683
0.017370188141969133,0,0.940087
-0.00718459792072995,0,0.720058
0.0016250646016652047,0,0.144085
-0.005576552241727148,0,0.349763
-0.005281355365563516,0,0.339736
-0.011004230513338457,0,0.651463
-0.009490729745120186,0,0.331115
-0.012061206579078288,0,0.669394
-0.013095045391607248,0,0.643494
-0.006640535894248015,0,0.342912
-0.008044919454921475,0,0.866426
-0.008860828098744673,0,0.647802
-0.011377045735750801,0,0.513080
-0.00749802964789706,0,0.687657
-0.011925047034296444,0,0.461863
-0.007751653751534541,0,0.194145
-0.006962275844607335,0,0.769689
-0.00794955613000867,0,0.159703
-0.008930558040359892,0,0.621640
-0.009918563232334447,0,0.508585
-0.010144396449853883,0,0.285155
-0.01126222027394136,0,0.264720
-0.010422172558353841,0,0.631277
-0.011532142118428734,0,0.291488
-0.01215886280096116,0,0.467807
-0.012346785730041528,0,0.438396
-0.011739177489729923,0,0.548080
-0.011031432088825377,0,0.389314
-0.01156481516770888,0,0.601887
-0.00989758794380021,0,0.470915
-0.013336510901311471,0,0.754862
-0.01262663874911056,0,0.363740
-0.011603054009765633,0,0.339268
-0.00790012967437891,0,0.501966
-0.009087795461772418,0,0.596152
-0.007792639951152574,0,0.898979
-0.009805053848083285,0,0.153451
-0.013090295520093184,0,0.866313
-0.007830696262461908,0,0.648219
-0.006823898680383196,0,0.872898
-0.007133008938728703,0,0.502762
-0.009115461772034759,0,0.616252
-0.004659469259075645,0,0.117642
-0.009320246303736896,0,0.975475
-0.01191033380459293,0,0.155635
-0.008973896024967579,0,0.591651
-0.014146597074459664,0,0.148055
-0.008848040597440996,0,0.870549
-0.0070429357220129505,0,0.467378
-0.007076808723069423,0,0.174183
-0.010018520027726373,0,0.355539
-0.009878974561017979,0,0.882918
-0.008705259464627716,0,0.353843
-0.008788009801571668,0,0.260170
-0.01005785058769212,0,0.651588
-0.007513188029322209,0,0.893072
-0.008409330146894803,0,0.816618
-0.01207760935985034,0,0.720111
-0.01097729494114158,0,0.404115
-0.01367291405063255,0,0.894856
-0.011526314974890815,0,0.913216
0.31903469907851134,0,0.967781
0.2744385586535523,0,0.965938
0.2655672513092162,0,0.932138
0.18645322756105426,0,0.996464
0.278308944903713,0,0.991575
0.13589734993426797,0,0.955930
0.2762027720395004,0,0.998362
0.19822777796694843,0,0.352510
0.36590215146115684,0,0.973024
0.3749072491976307,0,0.975474
0.03475837481046597,0,0.864401
0.06458265008954335,0,0.949132
0.38195024510759173,0,0.865101
0.24410225525400472,0,0.974344
0.16592421288273473,0,0.987955
0.2722795069399012,0,0.968143
0.13088358844078737,0,0.978884
0.23676995709762233,0,0.360838
0.08529434710928921,0,0.947002
0.3402245680779676,0,0.801498
0.3068238120035441,0,0.952004
0.38090934577892277,0,0.998824
0.48509373692854296,0,0.991641
0.30656910000489446,0,0.975446
0.35867944727263656,0,0.948855
0.2839622709200897,0,0.994464
0.43091699631575137,0,0.996419
0.060971913198039726,0,0.897693
0.20768556650775277,0,0.931882
0.22441721751178378,0,0.936441
0.31449941455775426,0,0.938912
0.27520397615177195,0,0.972811
0.3176608804690225,0,0.964474
0.3202262924664203,0,0.985551
0.22784109619545423,0,0.947310
0.1698624954324261,0,0.644991
-0.003490967916586084,0,0.540398
0.09147192709628282,0,0.360427
0.06996146034936786,0,0.449378
-0.02499305361630235,0,0.434592
0.02170448140172361,0,0.529325
-0.011851649748975469,0,0.699192
-0.014068706755983292,0,0.980408
0.08082095719567045,0,0.935350
0.31984687118942123,0,0.992952
0.2738355446185004,0,0.558248
-0.005666169773552035,0,0.149038
0.12125486375769792,0,0.530041
0.12962837479357375,0,0.889329
0.14158591356891265,0,0.348604
0.16863653254673067,0,0.953949
0.182829685562601,0,0.945839
0.2808249304634876,0,0.994897
0.22285510516034535,0,0.575007
0.25459502743547513,0,0.535915
0.3044964017623363,0,0.442762
0.2947132267194105,0,0.959414
0.38581675011945193,0,0.944435
0.2995983913751341,0,0.938365
0.20755858580575665,0,0.986881
0.2804186209304155,0,0.935884
0.3423837761445695,0,0.814531
0.02385091191352161,0,0.433240
0.03211913934371818,0,0.630672
0.14967887092146662,0,0.603662
0.2068825927601712,0,0.788163
0.07075091935813022,0,0.626899
0.23928589979023973,0,0.959320
0.36719308100180287,0,0.868801
0.4428403032026649,0,0.997819
0.3757315077583399,0,0.841169
0.18507570186102418,0,0.987679
0.2399922249362337,0,0.996955
-0.011871016229192524,0,0.992936
0.09388108758293909,0,0.968159
0.04273358293951397,0,0.525524
0.04043216700266538,0,0.945306
-0.04258668363609546,0,0.547469
-0.045519067547550925,0,0.544183
-0.042440062787565666,0,0.950005
-0.014359012743199614,0,0.032059
0.018883220024422522,0,0.929145
0.11748355297787025,0,0.517143
0.25316034422391565,0,0.440374
0.2321193222795566,0,0.957799
0.2539249173429514,0,0.489108
0.19766472403436555,0,0.534187
0.17333312102665258,0,0.978394
0.09466128034764743,0,0.458087
0.05509509088906512,0,0.872805
0.06815418758996927,0,0.920919
0.07747006164667898,0,0.587976
-0.011748279520318722,0,0.545947
-0.04111504967892142,0,0.987348
-0.04103944508641039,0,0.382957
0.06921597188490318,0,0.913059
0.3432046743666952,0,0.983718
0.3379908025446221,0,0.971956
0.19323002184657725,0,0.597951
0.008971509675126279,0,0.518678
0.020460532016396152,0,0.483265
0.021962521946134364,0,0.900056
0.20449813746251583,0,0.913607
0.1597596568701346,0,0.849842
0.05806733100521255,0,0.930988
0.08910145337305199,0,0.641999
0.19679409640301884,0,0.613623
0.19558047705045128,0,0.987301
0.14937436998036485,0,0.987452
0.013218670593752327,0,0.532432
0.10860559364978903,0,0.463462
0.09846040486985543,0,0.467111
0.029163948229528794,0,0.637640
0.03326767845063714,0,0.966378
0.06917186617363606,0,0.948150
0.05875727227176807,0,0.634805
0.07895755987221971,0,0.708684
0.024182384078095705,0,0.935917
0.02887335697973557,0,0.941807
0.0641331120881437,0,0.433840
0.11950181325811904,0,0.826310
0.20449175670683073,0,0.949577
0.10049793354685027,0,0.902992
0.011823283406646831,0,0.588341
0.0626505067986278,0,0.925163
0.06801921758141886,0,0.386619
-0.007831619051934434,0,0.351813
-0.020648703837190703,0,0.866726
0.043581684807677816,0,0.852812
0.08648389254879942,0,0.919048
0.11143282395603836,0,0.939218
0.08597194698029113,0,0.902408
0.33395761382078143,0,0.956476
0.05310355915926667,0,0.926882
0.08803239025349036,0,0.911192
0.21525554497612945,0,0.878664
0.04719597757935687,0,0.878756
0.0017149787879309948,0,0.572682
0.1049931845506238,0,0.479415
0.3353115934779392,0,0.487472
0.2624454838667241,0,0.114730
0.44889540317328763,0,0.620681
0.2841069162196021,0,0.695513
0.0632897375364783,0,0.820144
0.10838180012873534,0,0.413745
0.2960377315476908,0,0.979730
0.23039002636364286,0,0.674179
-0.018908419697589666,0,0.710727
0.01143974553280934,0,0.983852
0.06497249064601503,0,0.998753
0.1929293494535343,0,0.122211
0.20300687172438073,0,0.537136
0.2719684723866965,1,0.999622
0.25747483644099856,0,0.996720
0.360261230846025,0,0.964416
0.08273565397616363,0,0.971363
0.5150218768170668,0,0.941265
0.532381092434523,0,0.952702
0.35120547214980313,0,0.997694
0.39913475461462733,0,0.996960
0.4657167632980511,0,0.928748
0.1710379426603666,0,0.972587
0.1708091290089171,0,0.973601
0.04748960490984055,0,0.636197
-0.01741352880464393,0,0.840729
0.09094725891848424,0,0.541022
0.28841202940830235,0,0.990759
0.21116546355037927,0,0.930158
0.4198631564093954,0,0.833691
0.18545827597660877,0,0.986890
0.09685395315999916,0,0.988149
0.38382716848624043,0,0.987548
0.3742021236858673,0,0.814657
0.35566791031253103,0,0.996586
0.124673539520988,0,0.702992
0.40820244585122306,0,0.888018
0.1902593029691794,0,0.674336
0.1542677657165072,0,0.783740
0.04129529114210847,0,0.984392
0.04934936126505506,0,0.963028
0.014450379822366544,0,0.619248
0.09245297324270439,0,0.920796
0.12398019493954238,0,0.964400
0.16866446068245128,0,0.988166
0.33590579529103454,0,0.984667
0.2903258854669417,0,0.584963
0.16874270192153693,0,0.936244
0.14142913075995112,0,0.942807
0.3318801098531183,0,0.992463
0.5259487685113108,0,0.909632
0.23206365454567252,0,0.944272
0.2726351692277619,0,0.700783
0.10390652094962076,0,0.534393
0.42005300662492684,0,0.910420
0.15417701518509874,0,0.844879
0.361155012043585,0,0.950508
0.4515830997698019,0,0.998065
0.1476600806755201,0,0.968408
0.16825099710853594,0,0.611878
0.3523242042010027,0,0.962282
0.24935532132807542,0,0.967587
0.12800174460571734,0,0.993295
0.013222136643031615,0,0.920145
0.0447828686015136,0,0.980372
0.29055637396409284,0,0.724246
0.3036303325761217,0,0.771523
0.22951783519558466,0,0.862888
0.3140869108535051,0,0.683369
0.4539048471093464,0,0.952029
0.361645564554866,0,0.749204
0.3722255214675923,0,0.929420
0.22756643410383412,0,0.996371
0.22570506682485061,0,0.755556
0.2308174981342426,0,0.989060
0.1818864993570701,0,0.973442
0.2110019195171583,0,0.978446
0.48293223217602393,0,0.870074
0.3791805544234842,0,0.914452
0.3857193072272197,0,0.991695
0.4279112184738842,1,0.999340
0.4371468613493533,0,0.892035
0.2237692813919913,0,0.979592
0.1660784010290827,0,0.932524
0.13395579134340563,0,0.631426
-0.011746644568183815,0,0.973281
-0.01541538760968226,0,0.793099
0.010583987696642838,0,0.460487
0.030422516137079324,0,0.926995
0.17309723511932307,0,0.880930
0.16953194970331809,0,0.879467
0.1265516063086011,0,0.905404
0.12662314013958673,0,0.678151
0.15574017273783927,0,0.991884
0.46415665197845946,0,0.998896
0.12369045096842735,0,0.947476
0.14830464790185452,0,0.844568
0.14625119796057431,0,0.968952
0.09969671528483715,0,0.706401
0.22173298488949858,0,0.995558
0.410609643113417,0,0.909480
0.3878377065475153,0,0.943994
0.33821857431312896,0,0.992120
0.39311122881664856,0,0.946874
0.2166606169672226,0,0.408778
0.35934880622731075,0,0.997927
0.03411243409882382,0,0.710579
0.03666571988211211,0,0.867559
0.19526297997026384,0,0.971997
0.19557633515202927,0,0.856214
0.20294065635358866,0,0.970522
0.10970226439645987,0,0.869121
0.42282767497337637,0,0.984910
0.2438659829181163,0,0.574427
0.2595812343891222,0,0.926941
0.25777267324582553,0,0.587315
0.18416365564570691,0,0.748455
0.39284594167594283,0,0.993893
0.4908790309768979,0,0.985260
0.45472530903441455,0,0.950219
0.15406468431362552,0,0.959749
0.10620161220916037,0,0.957526
0.31316799998109784,0,0.965027
0.19367281131139344,0,0.790449
0.47631760560056885,0,0.997186
0.4073978077528569,0,0.819566
0.49594566873779644,0,0.819731
0.2889467173889339,0,0.984805
0.20651246616568117,0,0.974542
0.15598696650539062,0,0.609485
0.0573008232585318,0,0.972321
0.09641157123497628,0,0.798084
0.1666817964929977,0,0.986233
0.37616318695036466,0,0.907898
0.3953489988946765,0,0.892241
0.3418005614428607,0,0.847109
0.20541982834206202,0,0.838142
0.20765022510719966,0,0.981434
0.017325116235202047,0,0.770221
0.02203712331523735,0,0.429824
0.04798145951630842,0,0.422568
0.06869919504840179,0,0.981537
-0.015671560198085143,0,0.911162
-0.020429301496142985,0,0.998470
-0.023763034428965997,0,0.755009
-0.025480746395024654,0,0.022896
-0.027989069531715247,0,0.021401
-0.02621689434288972,0,0.022640
-0.03747412526876681,0,0.022039
-0.01541585720042504,0,0.561358
-0.020529266099443007,0,0.680997
0.01953761779972669,0,0.023658
0.009890943664220872,0,0.716681
0.006502125051865903,0,0.724630
0.08939026698766939,0,0.745999
0.1002973824387964,0,0.080293
-0.006455724240936313,0,0.969372
-0.01898975922268258,0,0.901697
-0.029925190746318754,0,0.378284
-0.0347585293130604,0,0.653037
0.03734086303494668,0,0.927413
0.04564129880259929,0,0.474958
0.22499802682314754,0,0.548259
0.1610498067432221,0,0.848119
0.0593003927661814,0,0.552269
0.0720899373520762,0,0.388952
0.05502146558245584,0,0.646212
0.08173429900843113,0,0.940696
0.20887729270487476,0,0.812660
0.134462164909374,0,0.943807
0.06963515760363803,0,0.994102
0.19788879332306727,0,0.606493
0.14038187038688166,0,0.990759
0.09912736257583868,0,0.909151
0.048581228791513394,0,0.604822
0.076898121818945,0,0.903129
0.08844235089483889,0,0.522625
0.10558722929203812,0,0.601818
0.13958634794051972,0,0.557884
0.16168224970744252,0,0.093148
0.1962747170031212,0,0.890894
0.17511154187159686,0,0.819699
0.27349050419025417,0,0.855027
0.28779961996748904,0,0.984970
0.13584415222084445,0,0.919348
0.13441115808160656,0,0.153336
0.20603089765017457,0,0.995864
0.2545692652464641,0,0.960732
0.1562237007897647,0,0.760322
0.2887348387747216,0,0.808580
0.2554018032658507,0,0.832957
0.29662848743931564,0,0.974337
0.281921471971207,0,0.829490
0.16337680955336364,0,0.888693
0.19701702520477662,0,0.995975
0.3715238573103809,0,0.983893
0.1863672443606234,0,0.923009
0.32735811904423623,0,0.816368
0.20002683878047703,0,0.939619
0.33588690689262324,0,0.995076
0.2861403398574777,0,0.880814
0.011102162542606677,0,0.952953
0.009204872654005871,0,0.374533
0.015265608863430272,0,0.844526
0.2169017633446722,0,0.988277
0.383248971618129,0,0.949663
0.28703877290234053,0,0.939386
0.24424882073881468,0,0.039176
0.2556066436001814,0,0.859412
0.2364029127386623,0,0.936978
0.4168210665075673,0,0.995455
0.30252359254576944,0,0.980776
0.07707269675492702,0,0.989277
0.42703989026872147,0,0.985344
0.32090317501827026,0,0.993816
0.09815623249516804,0,0.964316
0.3300572544502226,0,0.960850
0.3322019843232805,0,0.998195
0.13449702676331005,0,0.916508
0.2480727409219539,0,0.458298
0.009560743589583993,0,0.787590
0.07545966038525666,0,0.965620
0.02526181324528871,0,0.881106
0.07251604168360562,0,0.932491
0.19749888660453774,0,0.984850
0.23334666030021348,1,0.999151
0.31912603173628407,0,0.990013
0.1897278870814784,0,0.919182
0.3309441766220641,0,0.987510
0.21589517269949546,0,0.430564
0.06718293226888893,0,0.963395
0.15103714103630972,0,0.917336
0.3746326318502951,0,0.158522
0.026147949716048197,0,0.951694
0.024194327509485258,0,0.995625
0.36111803991248426,0,0.487082
0.07895225474624475,0,0.934289
0.20639524435878642,0,0.915479
0.2615620420693306,0,0.620007
0.29798464091918797,0,0.939222
0.14093643951993023,0,0.960906
0.18634372078211645,0,0.998910
0.18222637134367783,0,0.943072
0.24412802949916007,0,0.857772
0.07373190107931435,0,0.919907
0.08809027477048477,0,0.958913
0.33441665058776315,0,0.491499
0.3348091402435422,0,0.941709
0.20032653506522397,0,0.116419
0.1226508203891165,0,0.220251
0.09338465710733444,0,0.997824
0.25205930705791696,0,0.887689
0.42336713209934224,1,0.999516
0.11908825695572484,0,0.997788
0.2531328234120492,0,0.979857
0.22847761463843858,0,0.987135
0.18621907113654065,0,0.993995
0.09993804821928903,0,0.922493
0.027377770837969547,0,0.899175
0.37712133815679916,0,0.937027
0.20341381830482616,0,0.991125
0.20343040070362622,0,0.979998
0.136892374261912,0,0.998811
0.3844764580459262,0,0.974870
0.47532171816022606,0,0.973038
0.25004811123806225,0,0.241333
0.13286485592968866,0,0.794137
0.2685994792523178,0,0.045649
0.2795695712828917,0,0.949480
0.07925169888245323,0,0.822724
0.21073689339911236,0,0.889335
0.48149922330148254,0,0.980803
0.04281953264230919,0,0.738421
0.4349333028990263,0,0.903703
0.34071044188011773,0,0.205088
0.30628663992885313,0,0.994307
0.00998540778875441,0,0.838756
0.031113769363294762,0,0.992106
0.1248255185632787,0,0.986244
0.046987731807766546,0,0.530104
0.12474847077327708,0,0.683092
0.13541943791238978,0,0.774933
-0.03240028259703454,0,0.638486
0.056095003146215495,0,0.610739
0.05791854367517705,0,0.713581
0.06359962306706862,0,0.569794
0.06695250373828336,0,0.986891
0.04168060315725309,0,0.856325
-0.018843298996480858,0,0.798434
0.038951016438826536,0,0.818241
0.19261102855346973,0,0.597183
0.18190857838400631,0,0.730434
0.014169027298810298,0,0.997438
0.1597183984978454,0,0.944620
0.2910342729933014,0,0.847472
0.337636986247093,0,0.987979
0.16634527750706385,1,0.999229
0.18472262068343262,0,0.894350
0.1740507211613989,0,0.999011
0.18366150519734498,0,0.950698
-0.017691892226931905,0,0.493689
-0.03248185446931425,0,0.624450
-0.0317316656298443,0,0.732893
-0.03335840170106606,0,0.740077
0.06648178328772282,0,0.597746
0.17612608452290437,0,0.998883
0.33696194635442067,0,0.989774
0.2977874929597863,0,0.949937
-0.021653954162746965,0,0.595253
0.07444971565687791,0,0.838715
0.19000028292279905,0,0.967038
0.2561564305375815,0,0.961463
0.10922850730278941,0,0.944344
0.28626320292656354,0,0.984184
0.20074262366625734,0,0.502675
0.25394082398730417,0,0.924966
0.10857698903928197,0,0.988217
0.1875822383858098,0,0.891929
0.10616282751718803,0,0.972424
0.210262255665627,0,0.318128
0.11074370130194143,0,0.936803
0.10148373888685597,0,0.972770
0.006230820768470223,0,0.590105
0.18159303070429667,0,0.490847
0.22811577646174283,0,0.981891
0.23365618023616058,0,0.710925
0.18219801679314862,0,0.975149
0.010450226154663357,0,0.600170
-9.65572123844665E-4,0,0.543578
-0.006673835068157816,0,0.451273
-0.017594710529015786,0,0.902944
-0.02073660484485801,0,0.888262
0.051222169682924874,0,0.965540
0.08775032370382059,0,0.926242
0.10882964188511308,0,0.968721
0.136688270142677,0,0.908360
0.19388443604637856,0,0.946242
0.3532850675764351,0,0.957279
0.16549836240041893,0,0.834805
0.20189608371453302,0,0.938997
0.12198908040646864,0,0.570426
0.2803598840953555,0,0.913913
0.31877586135352726,0,0.885562
0.3183773725462754,0,0.609446
0.28990764200493196,0,0.609975
0.3313159834657893,0,0.998004
0.3806162246571821,0,0.981491
0.152785124132844,0,0.973686
0.1676481955730752,0,0.727514
0.2552596229945073,0,0.970803
0.3679764679587467,0,0.975599
0.1945873988388761,0,0.983188
0.09686255981103226,0,0.952696
0.14228849349382536,1,0.999187
0.06227973581096818,0,0.915312
0.08643390211049551,0,0.880317
0.15754101408132296,0,0.982005
0.19289234309590123,0,0.730225
0.20936392070064597,0,0.979455
0.21417826160029116,0,0.483128
0.263115864099464,0,0.895670
0.38822783563162266,0,0.700921
0.26340028376263774,0,0.709058
0.22881878184495377,0,0.637007
0.24519751194466907,0,0.411566
0.214597856094293,0,0.964065
0.1404425601825649,0,0.917226
0.2510699171403389,0,0.770432
0.20760236962390916,0,0.866539
0.4501810892757031,0,0.585883
0.39122673734641933,0,0.995303
0.2957550199176309,0,0.830446
0.059629888418671874,0,0.980545
0.04780399225811478,0,0.798069
0.012108688263447144,0,0.850523
0.394115865739848,1,0.999920
0.19126137783689873,0,0.783854
0.3251914521783141,0,0.992620
0.15581897766467442,0,0.997935
0.1345114261927249,0,0.945278
0.08305648232053768,0,0.985098
0.24140046197806442,0,0.922564
0.3647118327399462,0,0.998745
0.4365032077666665,0,0.801091
0.1780721112417229,0,0.760306
0.033708528952482726,0,0.976301
0.3494697903022111,0,0.974735
0.3439224293438849,0,0.994049
0.19227904147872363,0,0.921464
0.3228752181963966,0,0.935844
0.2345506814295234,0,0.988096
0.3094501290559672,0,0.929575
0.4269470587707085,0,0.980797
0.3523001202576471,0,0.998060
0.3849421785727625,0,0.939056
0.42256748542597705,0,0.688584
0.3945705846734945,1,0.999467
0.06813443195266328,0,0.775414
0.398884693856536,0,0.978327
0.49310124035532393,0,0.922317
0.3401755178368483,0,0.996112
0.26303592456106756,0,0.917252
0.06761020157902414,0,0.932840
0.03927790304450613,0,0.872950
0.0416158634496617,0,0.448239
0.20091672889534384,0,0.860401
0.1472524894896835,0,0.967087
0.13077016549793777,0,0.756762
0.05510944863911051,0,0.966744
0.15332360839387596,0,0.936834
0.1274614002648996,0,0.830725
0.09575463878602178,0,0.960072
0.08869431549817121,0,0.891457
0.27041309627660914,0,0.923856
0.2317136961584304,0,0.936138
0.2782665059170566,0,0.915301
0.15145427044322504,0,0.965620
0.4265466866266231,0,0.879599
0.46604780184536,0,0.987529
0.45002796911024295,0,0.960633
0.2766516057634702,0,0.737836
0.17048860230559615,0,0.872041
0.17456908801861576,0,0.877146
0.16700182458588103,0,0.906356
0.2578155202068573,0,0.889356
0.3589790414995332,0,0.807868
0.4669439271140122,0,0.842654
0.3539741090475283,0,0.899868
0.3513907823871344,0,0.980384
0.40589700049332594,0,0.874887
0.37469513700965146,0,0.868490
0.25680085747491843,1,0.999158
0.39907266508970834,0,0.997597
0.18754783313326576,0,0.939850
0.25691864223801114,0,0.920961
0.18062860484735851,0,0.893629
0.15346456331518601,0,0.978006
0.22445189834170207,0,0.974648
0.10845851855815587,0,0.746911
0.34745503463520677,0,0.996005
0.1098742655356053,0,0.739118
0.10131504832902395,0,0.993079
0.1952503125520979,0,0.586254
0.18845111139288065,0,0.698475
0.19712496388931747,0,0.973520
0.31010513190192557,0,0.925951
0.31034451452282047,0,0.795098
0.4306036514834709,0,0.954076
0.17966191443962415,0,0.955039
0.1123328333280512,0,0.769684
0.24700032633853072,0,0.968344
0.3866166418231566,0,0.996989
0.2121945094114613,0,0.783372
0.2668151747418657,0,0.987583
0.44839090901388606,1,0.999295
0.5326553852659756,0,0.904052
0.3243274391277854,0,0.997528
0.30554990952785327,0,0.987195
0.42402704834467875,0,0.756478
0.5110744807721918,0,0.979309
0.5179260395706479,0,0.969206
0.4439039616245746,1,0.999348
0.39170072037276066,0,0.997927
0.14050434344933457,0,0.945974
0.10982123419443032,0,0.871629
0.05982516733328644,0,0.966656
0.04898589775090084,0,0.845553
0.03012692988365563,0,0.858890
0.07394472833605718,0,0.841751
0.05673213907643347,0,0.558784
0.008843834195346414,0,0.735108
0.10849019360002018,0,0.870830
0.09802616165599481,0,0.846255
0.011326161134893351,0,0.647580
0.040259845214739715,0,0.769217
0.08158943218337256,0,0.920733
0.16447645581117806,0,0.976387
0.04375697902598387,0,0.926838
0.07963076624014795,0,0.977364
0.07412134866758577,0,0.814241
0.12096629750390842,0,0.964625
0.09359822971922314,0,0.968492
0.2184379608263246,0,0.970160
0.20328243610000338,0,0.890062
0.23241569408821963,0,0.990491
0.14952264145441815,0,0.792990
0.13284184504422636,0,0.987432
0.08637200551302394,0,0.611672
0.1921638969162298,0,0.986506
0.039458794882618914,0,0.905972
0.16779932581365808,0,0.981184
0.20500434577233115,0,0.839796
0.25651392144084395,0,0.812694
0.06842841114424826,0,0.990929
0.3523336044806131,0,0.882988
0.21827472027108355,0,0.939302
0.21321699367736963,0,0.653493
0.23662285218806167,0,0.994205
0.19724651567918167,0,0.969692
0.14680153453721684,0,0.893921
0.1445510166315494,0,0.948966
0.23931787193691592,0,0.927564
0.2401095767190323,0,0.987560
0.1164347925308138,0,0.660702
0.2667422171272352,0,0.914337
0.1127740576735943,0,0.938351
-0.035642969535614466,0,0.416280
-0.05459308571834217,1,0.998873
-0.0239444947117282,0,0.924032
-0.02126455821751472,0,0.659928
0.013198112105830412,0,0.764491
0.07456369480488838,0,0.360091
0.09148195584722686,0,0.462844
0.02753608016285807,0,0.958920
0.0189098188131842,0,0.480969
0.029965853706551315,0,0.942996
0.20643928762776995,0,0.980509
0.2208892959560273,0,0.748747
0.22053155355229215,0,0.075899
0.2199938497981455,0,0.792994
-0.006239510022165887,0,0.919842
8.68233994322381E-4,0,0.335366
0.016449020133047495,0,0.373778
0.02678586422764179,0,0.025460
-0.018633549794531662,0,0.632467
-0.018394959034230378,0,0.550752
0.04466965125436996,0,0.903229
-0.0022977806848851743,0,0.916836
0.06762700281606246,0,0.372038
0.06241080351015113,0,0.695267
0.07411262661354703,0,0.977893
0.026666207529737106,0,0.642946
-0.007259060459187852,0,0.858853
-0.0040691950590719984,0,0.874526
-0.014947537930332704,0,0.783864
-0.013183865519650615,0,0.870430
0.10289806616988635,0,0.995992
0.15519225871573958,0,0.078154
0.12327261140960079,0,0.924348
0.12277042383893925,0,0.823760
0.10618873962446532,0,0.923819
0.10009048747742157,0,0.777049
0.13239330659624265,0,0.738943
0.14401419728514303,0,0.492229
0.156187761043266,0,0.877771
0.14706508675766122,0,0.421987
0.13967386731359657,0,0.874103
0.15940020539553174,0,0.483175
0.14914345400161985,0,0.063871
0.24007622612581497,0,0.928789
0.24151957700414323,0,0.558642
0.2393044128689909,0,0.888468
0.21303900534968795,0,0.771322
0.27539592012387404,0,0.915599
0.20825519586412414,0,0.894435
0.16715370089642242,0,0.982634
0.24932638316515848,0,0.855570
0.2545399655229391,0,0.944419
0.22106606795096256,0,0.907373
0.30708432716780226,0,0.911517
0.3171698554358858,0,0.988706
0.3086595467907464,0,0.916216
0.147488952235486,0,0.933082
0.22355228900778784,0,0.991738
0.4050838126478312,0,0.968559
0.3084369141484729,0,0.976983
0.2182065322782585,0,0.938617
0.12105734096168515,0,0.957311
0.12987082011489703,0,0.843777
0.09717276298300499,0,0.858526
-0.009096073060275297,0,0.959620
0.44886115979510866,0,0.988177
0.4442277945092979,0,0.946312
0.32008524964884827,0,0.903450
0.2016241535019543,0,0.995254
0.12067477790433064,0,0.884353
0.1815590782505165,0,0.932555
0.2568594142353447,0,0.989505
0.2719525410717104,0,0.844011
0.2513567925398,0,0.929691
0.3178496177946004,0,0.965276
0.2897640101128663,0,0.993147
0.15678570504639502,0,0.990499
0.34531095582999854,0,0.987372
0.3629741383407046,0,0.962909
0.31338025709798767,0,0.998974
0.3213950350878416,0,0.918518
0.23040029459079742,0,0.967730
0.2137485891874353,0,0.990619
0.37717591996565863,0,0.928713
0.28610091238126806,0,0.978415
0.2141402339709749,0,0.796620
0.3277979683065738,0,0.866745
0.17720498762873785,0,0.962842
0.3976997239600661,0,0.954872
0.4611541032599978,0,0.869503
0.22861823134640497,1,0.999434
0.3185589612688792,0,0.993480
0.2521768097193591,0,0.790102
0.2735958841807287,0,0.869510
0.35931504537171416,0,0.997765
0.17848249502505503,0,0.812090
0.3121157435376566,0,0.921406
0.25954497084119665,0,0.980373
0.26121413848534275,0,0.947694
0.27406108217498304,0,0.881038
0.3085402459048898,0,0.804606
0.3031815519927382,0,0.951220
0.2819654218808378,0,0.943267
0.31424864081566045,0,0.969656
0.4273673063185247,0,0.979235
0.20570764754218837,0,0.959632
0.15597170736816807,0,0.998144
0.35733263448603686,0,0.998509
0.4494810710426791,0,0.994987
0.4602967904806048,0,0.701036
0.29809268345869533,0,0.952872
0.28908846318809267,0,0.969854
0.1418991845762104,0,0.965649
0.3534482030896304,0,0.947586
0.3920789953758947,0,0.977247
0.3536384481750376,0,0.972825
0.33233110677125427,1,0.999409
0.39710596711039237,0,0.960709
0.3905363112781866,0,0.939892
0.3829384110869291,0,0.938059
0.24353943319965182,0,0.971245
0.10862089186007838,0,0.995380
0.2798655780329069,0,0.743240
0.2832686714334419,0,0.967357
0.1695284179769823,0,0.993831
0.02445334101547916,0,0.684556
-0.014262267961234443,1,0.998796
-0.04166044381134991,0,0.453765
-0.04282551879866848,0,0.422154
-0.050529061374264043,0,0.979514
-0.04099375340278337,0,0.484605
-0.030458395144719323,0,0.629747
-0.02197497530539782,0,0.762053
0.1803422001411469,0,0.980028
0.1720652925613092,0,0.823375
0.17541369062216114,0,0.879054
0.24967521695553851,0,0.999130
0.09739501102180705,0,0.871664
0.30259480910577663,0,0.984971
0.2877355801845536,0,0.979985
0.35766808068291134,0,0.268799
0.04619386898659408,0,0.442747
0.07392407444962125,0,0.830344
0.06262833578920313,0,0.418452
0.18828948348974542,0,0.930046
0.3300325054372697,0,0.759161
0.3496914000842766,0,0.942560
0.004668635110893335,0,0.342562
-0.03555057290120227,0,0.803333
-0.023013547291606797,0,0.990064
0.09411401385801556,0,0.075704
0.19363379178128068,0,0.807599
0.16663845402295044,0,0.414096
0.20271869018329022,0,0.354032
0.10901360670875263,0,0.455756
0.0836386666759755,1,0.999588
0.05134061080296033,0,0.988481
0.16826046821572774,0,0.440684
0.018275921144300492,0,0.173506
0.20383804378806814,0,0.536486
0.3468124345029806,0,0.985733
0.3692088573870787,0,0.952663
-0.00293084315496974,0,0.678502
0.037042473654564055,0,0.597359
0.07731940508830222,0,0.904927
0.10414222260251077,0,0.957742
0.44611734756964194,0,0.985685
0.09548533629813415,0,0.931077
0.02586397136599747,0,0.989774
0.46466519676873147,0,0.997549
0.4744648910427682,0,0.996228
0.44298648163021903,0,0.879554
0.21844142318217086,0,0.389671
0.026314618183903033,0,0.697307
0.030540264285530153,0,0.867758
0.0753977463747422,0,0.717954
0.016972916491936302,0,0.105187
-0.032250129063343354,0,0.480335
0.043937450794370565,0,0.608493
0.02438622634960078,0,0.974322
0.03563741727461192,0,0.847626
0.09830401577371381,0,0.974230
0.12052714023560689,0,0.614212
0.07288635265411086,0,0.989086
0.025313131502618463,0,0.864371
0.06342441386306845,0,0.639946
-0.00836735713469342,0,0.724840
-0.022646913936098415,0,0.948300
0.2194106018011778,0,0.949291
0.3244718284994886,1,0.999799
0.6519642050863187,0,0.998812
0.576451261418459,0,0.990404
0.10322540426474047,0,0.566774
0.5004689189516076,0,0.955629
0.4696590798932736,1,0.999913
0.10117647223449583,0,0.957793
0.11077393374680167,0,0.963147
0.10192867392740011,0,0.924834
0.07112773050086209,0,0.703980
0.08339211307338634,0,0.686427
0.02647340638590592,0,0.823404
0.013665539988900691,0,0.135695
0.0054760854587157645,1,0.999898
0.00756717111117748,0,0.455628
0.10239367503532414,0,0.962992
0.08678746147799103,0,0.887637
0.05544800370333009,0,0.985642
0.04070185634168506,0,0.929584
0.07054725696610459,0,0.709054
0.08782416606953268,0,0.617121
0.05113449537676044,0,0.923096
0.053004545808965374,0,0.816887
0.030343476951184018,0,0.720417
0.06470276677489714,0,0.911197
0.11045659927440107,0,0.724019
0.2600767162407702,0,0.972417
0.2962923348927822,0,0.959321
0.34693770147010944,0,0.996629
0.5551453331161301,0,0.992680
0.2128189573573485,0,0.996278
0.1770649488282686,0,0.993251
0.1114218518990125,0,0.952950
0.03204733288202004,0,0.510289
0.13681775666778404,0,0.935502
0.05940989222800666,0,0.970527
0.27878404989554034,0,0.956872
0.4809369201653413,0,0.908885
0.0457102484218743,0,0.639629
0.22420715442436978,0,0.992355
0.1160011855352997,0,0.830141
0.14804596864846653,0,0.984052
0.4354356636590913,0,0.940424
0.1454012581300019,0,0.986743
0.19125136460511244,0,0.990823
0.15392339735768265,0,0.719205
0.12009706330893924,0,0.985814
0.4209593570653739,0,0.880748
0.1286553427527091,0,0.854936
0.08118032345365538,0,0.985322
0.2731807771256789,0,0.996944
0.10789173276017981,0,0.912575
0.3303605930916886,1,0.999199
0.20675850280713062,0,0.806048
0.15623408063776736,0,0.993075
0.51888286130195,0,0.984362
0.1493148691995225,0,0.970660
0.1474689413525942,0,0.970080
0.28139634551885834,0,0.988269
0.49856413901379826,0,0.943754
0.11051518475209002,0,0.968487
0.0049679481817659354,0,0.965517
0.0065695578958050015,0,0.838094
0.005050310057747898,0,0.799467
-0.023479926104685286,0,0.087429
-0.014334804267963113,0,0.830495
0.005057414498534994,0,0.792551
0.030288116820046642,0,0.969196
0.13115612177749458,0,0.986191
0.02928255850574761,0,0.991947
0.07585882944728904,0,0.876801
0.042552814881861384,0,0.731179
0.03630448227975128,0,0.780015
0.019015260023175114,0,0.682263
-0.02501559492478019,0,0.983039
-0.012009172300929414,0,0.972760
-0.004000684387557395,0,0.608772
-0.016490968138874726,0,0.985801
-0.014958246670141347,0,0.562468
0.09573556575866998,0,0.815896
0.04474619112546423,0,0.875279
0.04483878054076624,0,0.783598
0.0100031922868498,0,0.862598
0.017021986634376176,0,0.762542
0.011522879792505039,0,0.946902
0.037367685999955956,0,0.675111
0.10107411346083721,0,0.662503
0.03808501239843306,0,0.926081
-0.011514538461482161,0,0.918750
2.1866198344207632E-4,0,0.976652
0.15924232734048643,0,0.423929
0.1639159814353599,0,0.801593
0.05161123521422264,0,0.980848
0.055086039982981505,0,0.986946
0.09287210146927571,0,0.928071
0.1396045694770315,0,0.859236
-0.0016362487991685877,0,0.800385
-0.02019213600517525,0,0.688531
-0.025912407377642138,0,0.876412
-0.033734265218243506,0,0.690314
-0.0351813923796544,0,0.897390
-0.019581152596149176,0,0.770002
-0.026073224797808263,0,0.812994
-0.026133536565944637,0,0.851540
-0.0158074588273968,0,0.360938
-0.014165690255178236,0,0.709849
-0.011575945941603447,0,0.950883
-0.021684764178827108,0,0.559303
-0.03312818613364692,0,0.114566
-0.03703111791782517,0,0.848345
-0.03303128804905584,0,0.920928
-0.0337211217164108,0,0.814460
-0.028435828503584084,0,0.878746
-0.027325505095684485,0,0.885656
-0.028938535263454086,0,0.017832
-0.026891083486716545,0,0.017408
-0.031159189623133323,0,0.469753
-0.03201770817654944,0,0.901678
-0.034139514644861486,0,0.952748
0.027484757220726554,0,0.780690
0.009641633185452265,0,0.162900
-0.024399164231580533,0,0.984741
-0.027939712759297818,0,0.707535
-0.031404334183498264,0,0.828955
-0.03509239264517507,0,0.546952
-0.032150286382606134,0,0.393756
-0.03006582605771264,0,0.209638
-0.03586347907457599,0,0.902426
-0.03742848853582969,0,0.407063
-0.031156256498711378,0,0.175701
-0.03066135306696401,0,0.167310
-0.03404472345402648,0,0.645471
-0.021959166606982754,0,0.327676
-0.0318802628645548,0,0.313176
-0.03736328509974291,0,0.483540
-0.040017239589455605,0,0.561112
-0.023814105727183996,0,0.525716
-0.03273227454556231,0,0.803881
-0.037694346806957976,0,0.504090
-0.03292689911428309,0,0.269044
-0.029962393629288684,0,0.430097
-0.03735650565109251,0,0.713370
-0.0401665731037341,0,0.546405
-0.040954654948529505,0,0.725900
-0.03831227866443451,0,0.671418
-0.03766760585621072,0,0.602986
-0.031138050989393467,0,0.381978
-0.02441299588194211,0,0.533724
-0.029146218479448826,0,0.192431
-0.03237117120175699,0,0.860308
-0.038395261250615716,0,0.270891
-0.033711589696425674,0,0.576756
-0.020678042912835724,0,0.757237
-0.024117448062395002,0,0.727569
-0.020373794308280815,0,0.713754
-0.02119993360355692,0,0.558149
-0.03166497011723137,0,0.529024
-0.019073411203032492,0,0.576689
-0.020400439157683532,0,0.772958
-0.029931552631922716,0,0.491456
-0.03108332780952325,0,0.452619
-0.028611939165281323,0,0.622586
-0.026399230034476584,0,0.362915
-0.021666286216559062,0,0.498456
-0.02802919999286762,0,0.304933
-0.029160251853161515,0,0.733555
-0.027555364034163643,0,0.610276
-0.026698814314352018,0,0.298327
-0.02298864228865572,0,0.361550
-0.026979071934253605,0,0.615597
-0.021000873628969404,0,0.372614
-0.03638383493370904,0,0.762898
-0.030105568581046117,0,0.363792
-0.03337515661594274,0,0.133749
-0.051884858184543005,0,0.303434
-0.04119650092693862,0,0.290286
-0.053980032915221465,0,0.142927
-0.049402470934896026,0,0.225216
-0.06591493749110611,0,0.443491
-0.06033877097719713,0,0.236356
-0.06815119272810341,0,0.287175
-0.0638743739074009,0,0.115442
-0.053051294889488204,0,0.316653
-0.055824516897258654,0,0.272375
-0.06552801994785477,0,0.215807
-0.06609098261873686,0,0.027256
-0.073565432245253,0,0.302843
-0.058978314490750014,0,0.070251
-0.07032014590531266,0,0.096875
-0.057983700699700505,0,0.108327
-0.049920730267487445,0,0.069455
-0.049045546885632216,0,0.269489
-0.054250651905408495,0,0.031162
-0.06173914347783669,0,0.113553
-0.06257655070614145,0,0.336255
-0.05807218083835613,0,0.025680
-0.05121127091640186,0,0.025026
-0.04316373924231739,0,0.233225
-0.05193865988341255,0,0.031199
-0.05820405447938113,0,0.175938
-0.034143002463242346,0,0.426037
-0.05421403725701572,0,0.258076
-0.05847573511513086,0,0.151882
-0.08178797609805277,0,0.143927
-0.06989694860663892,0,0.219757
-0.051648840970406694,0,0.223043
-0.05689465792238141,0,0.356429
-0.05620593398537685,0,0.246004
-0.04687200342514279,0,0.155067
-0.04643343490430399,0,0.177532
-0.0498047874187121,0,0.249404
-0.05465493549531396,0,0.346833
-0.03824355380066776,0,0.271090
-0.05393170713062752,0,0.175664
-0.05526574502733442,0,0.155377
-0.06859537392306465,0,0.393774
-0.05171200164399668,0,0.159351
-0.05371785533061168,0,0.223129
-0.06965909903065307,0,0.179209
-0.05579693600109059,0,0.201149
-0.05364665264945978,0,0.213734
-0.057631026193409644,0,0.362977
-0.05757224372693524,0,0.152310
-0.06613553840076022,0,0.278712
-0.06177999799866752,0,0.034645
-0.0547050863619912,0,0.035481
-0.07024733052287033,0,0.131134
-0.03724932011646623,0,0.404639
-0.05011179684719944,0,0.300783
-0.05295747088812197,0,0.220951
-0.05278440057429308,0,0.252545
-0.07167383782313787,0,0.190242
-0.060780007974487966,0,0.186239
-0.07080573690939462,0,0.100775
-0.05631774232120632,0,0.172708
-0.06428112607060397,0,0.114877
-0.052759879228450005,0,0.112296
-0.047060621930425706,0,0.387524
-0.06006209788103659,0,0.161182
-0.053349196831943904,0,0.527391
-0.0374580406006687,0,0.229967
-0.04242712374639692,0,0.395126
-0.04716611306759558,0,0.140175
-0.064065274149732,0,0.382450
-0.05855326709374773,0,0.249555
0.00858929985831603,0,0.849539
0.05516197977712371,0,0.993496
0.17623918130203178,0,0.858342
0.2396154813226301,0,0.907335
0.4528492603337962,0,0.859679
0.3837795392181897,0,0.931987
0.4396053983826725,1,0.998885
0.5522882396830148,0,0.995709
0.45246218490791484,0,0.996868
0.7031397527890056,1,0.999142
0.5054370558356797,1,0.999747
0.6794559954178573,0,0.997464
0.7635732532590425,0,0.989342
0.7629151890732128,0,0.994641
0.5487262839626105,0,0.972248
0.37363876177289407,0,0.935484
0.5003686448211548,0,0.956122
0.21173303840699384,0,0.998529
0.2611953430365307,0,0.997268
0.045976667621088624,0,0.926035
0.08155133178494361,0,0.970656
0.1020491488406901,0,0.836228
0.0762913650298544,0,0.520179
-6.1997415470447E-4,0,0.368763
-0.03491138467502083,0,0.392568
0.21136822378007628,0,0.974572
0.3128605530968474,0,0.239036
0.32964220433653224,0,0.992578
0.1812577286627326,0,0.987623
0.23635939920395546,0,0.435624
0.2124157393780046,0,0.374225
0.17877637368015156,0,0.851148
0.38543416912324213,0,0.940127
0.05329949704951335,0,0.910057
0.2398600289744115,0,0.927557
0.31800217094016164,0,0.603297
0.2262163211328422,0,0.176335
-0.018538260322542507,0,0.447842
0.05198007371548978,0,0.986852
0.08460569547905192,0,0.826534
0.12656283950598154,0,0.419797
0.1395696066620159,0,0.991321
0.5028033445109062,0,0.982793
0.18108087447177892,0,0.949423
0.0372806421528525,0,0.983399
0.3044350169468476,0,0.996283
0.22860474315989787,0,0.984770
0.22173044960636235,0,0.981589
0.12329307045247731,0,0.961167
0.19044297804168833,0,0.868032
0.19556958587685014,0,0.909828
0.038885398647555615,0,0.950559
0.26775372925099017,0,0.981616
0.15943580002782945,0,0.880591
0.09139932589004952,0,0.952738
0.015291707907169085,0,0.463341
0.24562760693199961,0,0.935785
0.06184979521927571,0,0.887627
0.15623636230344867,0,0.911169
0.07676897330306806,0,0.797794
0.27037156113392696,0,0.987717
0.07600650579237225,0,0.539489
0.15510136137268468,0,0.918470
0.1359254847875783,0,0.044125
0.09117128052326194,0,0.890798
0.4578888613502279,0,0.885958
0.4849704263161844,0,0.972590
0.36710563992606304,0,0.954338
0.29648023572285037,0,0.409083
0.18175454754268636,0,0.796746
0.4103953260500887,0,0.954861
0.07476292237845374,0,0.666979
0.16517924476430607,0,0.924807
0.06871494831690847,0,0.848914
0.015424248174719069,0,0.788088
0.09494845550442658,0,0.962467
0.22726051002394265,0,0.882604
0.13918623154338952,0,0.846522
0.46984795186682804,0,0.961769
0.5229692920609891,0,0.964825
0.13361080384607807,0,0.533366
0.3670693491395821,0,0.609030
0.46505813010312047,0,0.968011
0.26668035135524937,0,0.981241
0.2207435156472678,0,0.891749
0.2882383070663451,0,0.997765
0.36854692378430987,0,0.989618
0.2142361219401648,0,0.948722
0.13669797115073773,0,0.486351
0.04040946299099642,0,0.917830
0.05928963874342328,0,0.415844
-0.019698470765901,0,0.561248
0.028476372376555315,0,0.924244
0.08315146809759724,0,0.678495
0.05030199051592591,0,0.101297
6.552001542503602E-4,0,0.628060
-0.026585526817790663,0,0.982094
0.021987982546109654,0,0.348379
0.020013479611854144,0,0.994608
-0.005462468795154831,0,0.481905
-0.023708273456572115,0,0.995082
-0.026043048679968445,0,0.940205
-0.025280190324497385,0,0.287911
0.03291151390867904,0,0.891473
0.12895275087535987,0,0.979926
0.10717171659417989,0,0.424190
0.0019564072474780063,0,0.367940
-0.0013289082141218946,0,0.545058
-0.002352900742297162,0,0.954364
-0.006980564412441332,0,0.364750
-0.025650456281062203,0,0.429823
-0.018252770849119533,0,0.786576
0.06032858661567138,0,0.994949
0.16708254482369111,0,0.950133
0.105457016674922,0,0.930412
0.05743637353705285,0,0.842401
0.058472766111925555,0,0.607337
0.01850152822739039,0,0.618615
0.006522250529854166,0,0.812029
0.029444563766716263,0,0.934746
0.16136448918414217,0,0.315401
0.11314273703503291,0,0.899209
0.08418198210190227,0,0.875549
0.2803640005638119,0,0.928854
0.14968116410481003,0,0.905748
0.2815582607934305,0,0.841384
0.19955632314392077,0,0.931813
0.0942217867642358,0,0.894462
0.008193782888172484,0,0.479400
-2.5746390740592203E-4,0,0.956413
-0.020044702610298754,0,0.420330
-0.033932809809969426,0,0.908420
0.16252171324475873,0,0.912119
0.2661211367401157,0,0.970698
0.2082775526776489,0,0.903939
0.33825599189834116,0,0.984805
0.2791114655223788,0,0.964867
0.19798370713472604,0,0.545536
-0.028312369099420528,0,0.484364
-0.021952052460279654,0,0.888767
0.03686723703540642,0,0.882216
0.34156526548847144,0,0.964323
0.4260534108172144,0,0.345488
0.45822037994634096,0,0.863489
0.15724392205073445,0,0.568838
0.16941532747858593,0,0.386103
0.050416087102732814,0,0.922547
0.062428020443072836,0,0.505173
0.07685041415284108,0,0.974905
0.1753708828944677,0,0.988543
0.2527544161640285,0,0.959095
0.14550429642089155,0,0.995520
0.2387830408685567,0,0.987718
0.21917555843289135,0,0.998913
0.2152188875993335,0,0.442801
0.18701557086271486,0,0.538573
0.19140449637101303,0,0.988059
0.3822731643508957,0,0.287588
0.13874341820613026,0,0.995206
0.020947337206133558,0,0.523696
0.03675717245803209,0,0.363090
0.19101344735949588,0,0.823374
0.29068648508215766,0,0.774744
0.0386447466224315,0,0.911564
0.10077615650603086,0,0.384775
-0.00411820916692031,0,0.625633
-0.004740684241255503,0,0.962344
-0.012362857163283532,0,0.468981
0.11908371543900641,0,0.979683
-0.017479402316210115,0,0.955722
0.026552427151674104,0,0.607526
-0.005182754493953772,0,0.477453
-0.035652219699869335,0,0.536007
-0.028877079125477885,0,0.727818
-0.03814212867343894,0,0.448614
-0.035600580802669625,0,0.963786
-0.015344270477698003,0,0.974720
-0.04179738084100893,0,0.508869
-0.03237414777824278,0,0.443421
-0.02555783702181897,0,0.426664
0.012715821671461512,0,0.382005
0.0031825342120189036,0,0.335158
-0.02486552833046808,0,0.769476
-0.03453496221621519,0,0.852377
0.07114638209883122,0,0.708467
0.1003370097634217,0,0.817832
0.3834970040448885,0,0.946366
0.10551732359107621,0,0.974497
0.06027898991968818,0,0.998100
0.11242530648661757,0,0.829579
0.09860418214855504,0,0.443669
0.29663603514904663,0,0.429373
0.2452171798628919,0,0.531686
0.030468947663939053,0,0.789430
-0.015013847180459122,0,0.800712
