0.04834864376383731,0,0.005646
0.4620655265596754,0,0.993056
0.4986331080481672,0,0.004859
0.44458824166765376,0,0.995909
0.39254444987744097,0,0.004537
0.44984236634751257,0,0.998863
0.5060515285505668,0,0.993587
0.3624798401247102,1,0.999328
0.3385329426697572,0,0.004662
0.2912738104670374,0,0.004869
0.2532065997167999,0,0.005029
0.28041463944692113,0,0.005063
0.38165243788697156,1,0.999733
0.4443579555525834,1,0.999918
0.45746139322464885,0,0.985047
0.3827421078043105,0,0.824413
0.2707024400590362,0,0.019276
0.2670413305676143,0,0.979688
0.242568087931025,1,0.999907
0.24547094110250892,1,0.999923
0.2116331670638376,0,0.520539
0.19411466276482378,0,0.518605
0.22762416661269536,0,0.973159
0.2382565632647337,0,0.518266
0.30552080287519773,0,0.970453
0.3182763726418456,0,0.977621
0.30556101488286586,0,0.817273
0.2882184698903578,0,0.994767
0.3046828299991078,0,0.994142
0.27887386435806816,0,0.998736
0.2097198387004124,0,0.995000
0.22663087036431706,1,0.999646
0.22297742941110793,0,0.817343
0.3410485547054055,0,0.990827
0.3664868970927692,1,0.999472
0.4001474535602223,0,0.989725
0.331899596141224,0,0.990195
0.3281533463811541,0,0.963549
0.3505604568407392,1,0.999913
0.32684962405328855,0,0.965976
0.32091044158281085,0,0.940712
0.3359008835401705,0,0.973302
0.34809327762614645,0,0.944672
0.34489183944406304,0,0.969103
0.3301946624132484,0,0.995008
0.2563919424278679,0,0.989757
0.3810746672347555,0,0.943825
0.3924605834299649,0,0.990104
0.3530733773470514,0,0.994544
0.32069425412931346,0,0.962122
0.3100530150773875,0,0.970303
0.3122306306748214,0,0.975629
0.3020182408434306,0,0.944028
0.33947690307514666,0,0.961906
0.3483354258987554,0,0.930653
0.44754247440308675,0,0.961477
0.49942972230445354,0,0.994017
0.4843056859684819,1,0.999917
0.4780774890275579,0,0.963315
0.4365531293399555,0,0.988515
0.4575902697527531,0,0.963406
0.3491109423694641,0,0.997484
0.35209345818818233,0,0.972608
0.33818825741712005,0,0.977393
0.3218506583954866,0,0.990421
0.3649929416092401,1,0.999376
0.3300535258528526,0,0.966447
0.3073625730069348,0,0.966938
0.2789055603335375,0,0.990878
0.31826322643599964,0,0.958558
0.2999077926893778,0,0.346162
0.22847718220831875,0,0.980501
0.23373941762489664,1,0.999903
0.20747741631995867,0,0.995713
0.1877931147622891,0,0.826577
0.15938509011281426,0,0.986349
0.2405160364184644,0,0.908294
0.2537352868786874,0,0.998173
0.3417525078803844,1,0.999743
0.40976457613205197,0,0.991347
0.3984040702686493,0,0.983538
0.39812717632045386,0,0.926394
0.41474115490400537,0,0.995938
0.4699254629284869,0,0.933033
0.5052181366318644,0,0.967821
0.4813176833141426,0,0.938268
0.4832451106349577,0,0.999129
0.4965163172313914,0,0.931272
0.4875053675876511,0,0.996021
0.4250305051332179,0,0.985443
0.39364797297536536,0,0.957558
0.37869458972248526,0,0.999116
0.32457272833426365,0,0.932938
0.28723506591843984,0,0.973601
0.3516032920332166,0,0.993201
0.3493969699145149,0,0.921023
0.33928168220474664,0,0.972087
0.34063307210238547,0,0.981959
0.29196752299000955,0,0.988263
0.20138135575932692,0,0.985526
0.2552131572670424,0,0.969535
0.2986977740189803,0,0.983905
0.32001604221428837,0,0.965758
0.29727318662222557,0,0.995218
0.2830956148674387,0,0.994977
0.45720162993237945,0,0.970178
0.47460886007437697,0,0.990746
0.37564491371106934,0,0.907397
0.39458875076070044,0,0.997597
0.4100470534128435,1,0.999411
0.4368949442319485,0,0.978746
0.3113204141854117,0,0.996226
0.33351837712140253,0,0.980799
0.27526336833899234,0,0.983740
0.243130380809381,0,0.989890
0.24969554893834703,0,0.994629
0.20710268225729173,0,0.996242
0.15179021340302212,0,0.991158
0.15284992137820722,0,0.991112
0.19475707806311277,0,0.996325
0.2173230396021672,0,0.992888
0.1568882178594026,0,0.993350
0.2879246192270164,0,0.954124
0.2967215133418061,0,0.960938
0.30281136741577674,0,0.954613
0.2872164143067523,1,0.999902
0.3972440457538837,0,0.935339
0.37566467244962337,0,0.997967
0.3033113646515391,0,0.996514
0.36050600846219444,0,0.988564
0.3365055001777841,0,0.991659
0.3453139700780537,0,0.983973
0.4140928686907731,0,0.928197
0.3968312814713916,0,0.993987
0.286957535837358,0,0.992221
0.3813152036257079,0,0.975583
0.44995513529424264,0,0.985592
0.45521678348026506,0,0.967823
0.3984070472050723,0,0.990812
0.23504989517579494,0,0.977967
0.19032728830928378,0,0.990218
0.16069214693311257,0,0.994521
0.15733274271056705,0,0.977019
0.1681686723852489,0,0.989697
0.18975177935550597,0,0.858852
0.3172897032061604,1,0.999905
0.3800823198376292,0,0.997301
0.28567869013284575,0,0.928639
0.3523985693817584,1,0.999909
0.3047347890508703,0,0.996358
0.23747626278362055,0,0.993765
0.37198327366877004,0,0.958038
0.42428582103832935,0,0.995729
0.3263893461231437,0,0.977884
0.36596876572261766,0,0.973768
0.4211130959817126,0,0.922624
0.4222207672269011,0,0.994220
0.37664513152701856,1,0.999550
0.5036406197280362,0,0.958436
0.4978520122044374,0,0.964118
0.435477239060303,0,0.982816
0.2546558693804047,0,0.966937
0.23456837755476193,0,0.988885
0.24025883041811383,0,0.960521
0.33075939977101293,0,0.971835
0.4154154265899558,0,0.936654
0.5934220513504423,0,0.994963
0.5551520341446584,0,0.985118
0.5105846874368418,0,0.983217
0.5269330013792846,1,0.999907
0.3637215460212129,0,0.973861
0.3991973947397477,0,0.995144
0.43228233793610055,0,0.966370
0.40471197459446046,0,0.997007
0.3848637199700993,0,0.987856
0.3743374778201693,0,0.990289
0.35858955320920544,0,0.977582
0.2874667480836179,0,0.997113
0.36426046536944523,0,0.982577
0.3357241456551314,0,0.988904
0.36325555154323497,0,0.917720
0.44246045257607797,0,0.968952
0.4505489617001747,0,0.996859
0.45809004377472257,0,0.946499
0.48770342447855697,0,0.969246
0.49570899285431386,0,0.993115
0.5335943767688358,0,0.996665
0.4093351412438418,0,0.987345
0.21288986777607122,0,0.988023
0.2767501824846914,0,0.962796
0.30512669743895915,0,0.991940
0.27951949998369036,0,0.965708
0.17050720276891682,0,0.982556
0.35538090181238524,0,0.980441
0.3395893742337328,0,0.944396
0.3294729013124645,0,0.996470
0.38091187118560366,0,0.946516
0.36737899604854735,0,0.966018
0.3851270714599914,0,0.984703
0.32830966480766316,0,0.913329
0.21623148416130894,1,0.999885
0.3933023016004708,0,0.998986
0.3844106565775217,0,0.903962
0.5187936068141933,0,0.987170
0.19004666235993894,1,0.999890
0.10290097708881327,0,0.997734
0.1658245993056485,0,0.934729
0.22139968502367482,0,0.951893
0.15191542863769072,1,0.999211
0.2946520849491247,0,0.997003
0.3353240861554265,0,0.944402
0.5852333272603587,0,0.932683
0.6067369741337483,0,0.995499
0.5595978403265408,0,0.946995
0.47981372461489175,0,0.998186
0.06814683960312783,1,0.999428
0.012614626258664422,1,0.999852
0.002419417315750192,0,0.998083
0.40403428494379917,0,0.839473
0.41529783565389977,0,0.991836
0.459289939917004,0,0.985524
0.4446504234502097,0,0.896078
0.612946047360746,0,0.969928
0.5746578896417698,0,0.997379
0.45137558262054234,0,0.880280
0.63534837255158,0,0.937845
0.6667781041356555,0,0.938772
0.6647096200333142,0,0.996342
0.46695990834206885,0,0.955097
0.19388704578554555,0,0.974489
0.11800987265398341,0,0.995789
0.07177047128742804,0,0.994184
-0.0025435172420662693,1,0.998874
0.0016435508636924276,1,0.999098
0.09893318116629848,0,0.995912
0.038474956487582646,0,0.989395
0.006687328945778795,1,0.999842
0.006623532195780284,0,0.997041
0.01045669652835763,1,0.999832
-0.011002722365238853,0,0.995189
0.01825579771784348,0,0.990660
0.05970372497170276,0,0.997501
0.04406231565293754,0,0.940219
0.05005613955123571,0,0.991373
0.08236627363490001,1,0.998680
0.05393055462170332,0,0.992571
0.03187421675116319,0,0.997156
0.09529910706911984,0,0.972067
0.23129409523197098,0,0.943917
0.1706049937029141,0,0.997123
0.11399783684531653,0,0.998119
0.04135360687649689,0,0.946410
0.07477626387287904,0,0.996070
0.09404937451010739,0,0.854016
0.15145333747175974,0,0.814915
0.15315370943822482,1,0.999834
0.19692572336552847,0,0.813277
0.24722449804837346,0,0.988277
0.2964182779743876,0,0.994381
0.3252034391780582,0,0.880517
0.31874578745677523,0,0.950369
0.45914970154053764,0,0.980795
0.5097149113706797,0,0.977992
0.42640747785412253,0,0.932546
0.45230761023050914,0,0.916555
0.479781304671117,0,0.987121
0.46874359332816756,0,0.997818
0.4063472284179987,0,0.913664
0.3856487734994088,0,0.992400
0.4462437772279236,0,0.963809
0.4334134616731745,0,0.982473
0.3702738630214938,0,0.997202
0.3761855024361932,0,0.983313
0.3783212030967009,0,0.998986
0.4646556911124952,1,0.999497
0.4779261058118792,0,0.998046
0.42190073576545395,0,0.976160
0.4097054450118282,0,0.940638
0.39876169412619655,0,0.913230
0.3958113316079969,0,0.998789
0.4038245830679247,0,0.947723
0.3522901220520339,0,0.728939
0.23889814090063005,0,0.971112
0.1613849993604065,0,0.925672
0.16915413443307842,0,0.948217
0.16899761380635064,0,0.988575
0.17621563825894274,0,0.948439
0.21235364564242484,0,0.961767
0.37840504397543934,0,0.893421
0.388835561219967,0,0.871023
0.3510824420447589,0,0.918970
0.418165871428069,0,0.997135
0.35943640884746986,1,0.999380
0.3656893841897744,0,0.951583
0.45747034246996304,0,0.982400
0.4522997544425326,0,0.922512
0.44399803925881776,0,0.951695
0.4322334196520774,0,0.923383
0.4463824885083555,0,0.964149
0.45393723971404565,0,0.928577
0.5191160387034953,0,0.837914
0.5016487302498169,0,0.966228
0.48506204385956153,0,0.980999
0.3666749035019638,0,0.959985
0.3704147629932728,0,0.997289
0.25835106259069646,0,0.994350
0.3618202325018507,0,0.953338
0.39600279117625037,0,0.945360
0.4299162405832571,0,0.914639
0.39299193475341226,1,0.999831
0.41057848896756666,0,0.977261
0.4776050797966579,0,0.930581
0.335219106748708,0,0.914944
0.31920675136429066,1,0.999283
0.12153487423698231,0,0.951105
0.11089989901594557,0,0.985884
0.17034125833918853,0,0.985760
0.20104988544794067,0,0.875066
0.3429328998854671,0,0.952463
0.4045730043688993,0,0.921213
0.3326196787544044,0,0.955062
0.3676995662291565,0,0.948191
0.37376983291328164,0,0.910199
0.36652633593746614,0,0.986989
0.3841887339268616,0,0.935875
0.39117725012162224,0,0.873589
0.36198374181480963,0,0.970724
0.4503791095111,0,0.991171
0.5025366892068638,0,0.965918
0.49094922523751106,0,0.983603
0.4513293964530006,0,0.986675
0.3848092611294638,0,0.988234
0.3218242159537318,0,0.988708
0.3714944356207779,0,0.979553
0.3850233326217731,0,0.998431
0.4007738437614927,0,0.973200
0.3633452695746343,0,0.936592
0.33494616051436976,0,0.938044
0.4656448005874295,0,0.957002
0.4805016875509541,0,0.971251
0.4495377783201137,1,0.999394
0.3745209813348542,0,0.961757
0.3438116440817072,0,0.884816
0.2749958029875654,0,0.931454
0.2978721676636179,0,0.969449
0.26426181504483637,0,0.971395
0.36876521622938097,0,0.914024
0.4073376743322896,0,0.992255
0.4515959710743059,0,0.989379
0.587742837228373,0,0.903605
0.5156683655065768,0,0.864941
0.5131208478665196,0,0.954057
0.5180233872593496,0,0.934556
0.5430515330183204,0,0.958426
0.5383592417455024,1,0.999368
0.5065643242671786,0,0.996917
0.4615529235318187,0,0.945030
0.4661282962317806,0,0.934715
0.3165384977083418,0,0.942329
0.1271920753594045,0,0.967115
0.17846090549601967,0,0.988745
0.20139075763364822,0,0.950295
0.27556665414454473,0,0.897601
0.26722961175504256,0,0.980084
0.352493723673182,0,0.972522
0.3461347074175273,0,0.962501
0.3100670900299613,0,0.986167
0.30727616351703385,0,0.952506
0.2651713228409758,0,0.997651
0.10526370175931958,0,0.991884
0.17375385853057085,0,0.889434
0.24970091427374258,0,0.957473
0.15568868068274583,0,0.890173
0.1387445467171516,0,0.984928
0.13557423142072159,0,0.992411
0.22554547064647001,0,0.926931
0.2765686474287834,1,0.999307
0.13074393696937106,0,0.903113
0.14388717081371608,0,0.983216
0.17444607640081783,0,0.815792
0.33624816729472107,0,0.822029
0.4014096642640384,0,0.977604
0.36913938348976866,0,0.953408
0.4304678470071473,0,0.957833
0.4445712484485529,0,0.899709
0.2422447613101735,0,0.966615
0.32746352483641317,0,0.958021
0.3329475700040805,0,0.998318
0.45205978559329457,0,0.997836
0.4564298935791961,0,0.966576
0.47980133147609383,0,0.989832
0.39501062046302415,0,0.997956
0.2501027769941267,0,0.995587
0.18224999900530228,0,0.948652
0.39068136356153466,0,0.949810
0.278336216920246,0,0.950840
0.2945515276212621,0,0.968370
0.19692079486466363,0,0.967144
0.3605693083022497,0,0.892951
0.2775335842327413,0,0.996991
0.27865644959289976,0,0.993872
0.3049624286547433,0,0.971871
0.25886138559688365,0,0.962948
0.21859143573853648,0,0.941071
0.1829158746119946,0,0.977016
0.1128340042279841,0,0.976425
0.13118589575842315,0,0.993292
0.31849061471138934,0,0.877030
0.46044014509265496,0,0.985610
0.4700975934914738,0,0.964108
0.4557397595606232,0,0.991531
0.4354599932387422,0,0.995151
0.41298679161039253,0,0.993212
0.4404669018973776,0,0.934046
0.45534152088903523,0,0.975540
0.5374612230825605,0,0.996023
0.5047543865967934,0,0.988916
0.41172114889425726,0,0.947943
0.4203158233522799,0,0.994889
0.30969593661313644,0,0.982150
0.12860987531467333,0,0.947955
0.12266030341634833,0,0.968359
0.11444903652250622,0,0.996798
0.18085137557882908,0,0.962702
0.1660366610685253,0,0.986636
0.18675816855186,0,0.988717
0.0945887571316381,0,0.997871
0.0638561715091518,0,0.968780
0.016157812663935452,1,0.999660
0.09918542073856852,0,0.996822
0.24073710217024835,1,0.999856
0.2848677727194304,1,0.999856
0.3927526008698437,0,0.966682
0.6632127897381873,0,0.995497
0.6872340934048455,0,0.993538
0.557936100229738,0,0.994918
0.4957444392724252,0,0.985288
0.07621440610367418,1,0.999286
0.2194170784740236,0,0.958603
0.299516702425908,0,0.869727
0.18158920531114625,0,0.846302
0.18158920531114625,0,0.811377
0.3572673333123342,0,0.706581
0.3796246616580052,0,0.973611
0.28506269979189586,0,0.849690
0.21110931648271192,0,0.938256
0.3812976540685503,0,0.994403
0.33199891491590655,0,0.836725
0.3569290264717105,0,0.987708
0.37965529369640477,0,0.940930
0.3632688424558785,0,0.960377
0.3034178186503597,0,0.983329
0.31726217044544763,0,0.973283
0.27624734459125294,0,0.903561
0.30491049210030474,0,0.951684
0.26781578504614617,0,0.814214
0.2737220691993362,0,0.945449
0.28682564157151325,0,0.954358
0.304609988160917,0,0.906297
0.23236047142532346,0,0.953131
0.29087033378297855,0,0.810589
0.2781116176490363,0,0.968692
0.24031001837421556,1,0.999410
0.3445556047142812,0,0.778029
0.326796525244696,0,0.935679
0.3139735053657601,0,0.950050
0.30948207228870556,0,0.975822
0.3073791762934495,1,0.999916
0.3179392186642613,0,0.960211
0.28508896082715995,0,0.852262
0.2867812492169217,0,0.937120
0.2786950685397036,0,0.990940
0.26287067854116714,0,0.924309
0.3447645657641113,0,0.957961
0.312302914782002,0,0.992756
0.29727581181658314,0,0.952105
0.2721808667181217,0,0.959415
0.2313939724263092,0,0.996135
0.22828881664898065,0,0.936041
0.24026334158915677,0,0.975799
0.2490589876294145,0,0.899362
0.23630743599074913,0,0.973479
0.2873533674002409,0,0.849285
0.313383616554446,0,0.845160
0.3348420150322095,0,0.936300
0.36410780514687424,0,0.852225
0.30429870087982447,0,0.940635
0.36014919951868085,0,0.937848
0.3505983566469038,0,0.983611
0.3551811483259836,0,0.844829
0.41083680373101045,0,0.800566
0.3998759754325665,0,0.891553
0.3370287313995386,0,0.995373
0.3279442086396817,0,0.892583
0.176199927392694,0,0.992362
0.19338701610812795,1,0.999904
0.3388808263957955,0,0.986059
0.32045313152252797,0,0.966889
0.3023795336708202,0,0.989433
0.22154774119479823,0,0.980778
0.22685709751991448,0,0.901589
0.25769783468506774,0,0.976069
0.22799841442944482,0,0.988473
0.27741517303475144,0,0.967251
0.2550151809253463,0,0.981541
0.21672177588628677,0,0.982518
0.18291560324058134,0,0.955973
0.2305553941701308,0,0.900420
0.2764479428592977,0,0.880982
0.3105087218689957,0,0.950282
0.32017170441690074,0,0.976600
0.29567140075128323,0,0.997418
0.28676012688822555,0,0.966951
0.26679921442411725,1,0.999903
0.26100748091135306,0,0.955818
0.2789167718724823,0,0.775937
0.25601716743117725,0,0.995381
0.19995121727428472,0,0.958730
0.18165393763033577,0,0.979449
0.22190856422627647,0,0.983923
0.16328639981873289,0,0.996132
0.14526541967910317,0,0.990257
0.1302109509187682,0,0.988086
0.18630678704305556,0,0.939538
0.3139676762790197,0,0.873586
0.3725685997485437,0,0.843792
0.33083350356900515,0,0.956530
0.3546617018898059,0,0.921155
0.3800776495517702,0,0.931252
0.3718973325312068,1,0.999694
0.30086247628395085,0,0.851294
0.24945957233481497,0,0.893327
0.2894745096056031,0,0.855355
0.27286170438231516,0,0.998369
0.24564641638361628,0,0.994153
0.22664432682970048,0,0.949629
0.21915913286246771,0,0.862397
0.2949506776336878,0,0.764719
0.3003788778184628,0,0.933954
0.3325158594993887,0,0.907200
0.29683012255209407,0,0.987008
0.20494948081307401,0,0.921965
0.29547528675531715,0,0.953463
0.3177953813979044,0,0.919726
0.26897510230005756,0,0.880657
0.17777679367436544,0,0.958581
0.17989280365638846,0,0.962631
0.17342930221730318,0,0.974549
0.16380625147247632,0,0.892330
0.2881059105580858,0,0.971420
0.3165923201000484,0,0.961642
0.24712900279775257,0,0.978002
0.22092360750720755,0,0.959601
0.36023857354785926,0,0.902630
0.3566300211235085,0,0.975870
0.3572860158029505,0,0.994138
0.3684426028362308,0,0.957960
0.2893526122106111,0,0.931436
0.20179324487000716,0,0.989548
0.1388824342666327,0,0.992725
0.23416859688476793,0,0.971764
0.26276376100253235,0,0.810928
0.25982680367937483,0,0.984018
0.29109032678360414,0,0.989600
0.3930675658563113,0,0.900659
0.42688308346069187,1,0.999489
0.4235790137408661,0,0.978457
0.4603407156015356,0,0.918191
0.47776356889893506,0,0.980522
0.39232336338597673,0,0.993958
0.17188915916335012,0,0.991398
0.19566796630652142,0,0.979121
0.1983162126802534,0,0.964550
0.18037370677124667,0,0.956879
0.24136353091595783,0,0.959408
0.30707802432794423,0,0.972727
0.3313839997551977,0,0.975187
0.30826290012282953,0,0.960000
0.30447549160262644,0,0.957379
0.4104427980487314,0,0.895998
0.43249242362630286,0,0.925002
0.4908477424568152,0,0.868886
0.4446104939152562,0,0.907091
0.27252240733174826,0,0.996537
0.37892718886577703,0,0.901939
0.37083827153703053,0,0.910862
0.31073446880350664,0,0.929798
0.3632292069935245,0,0.945069
0.4582804041308865,0,0.992413
0.44471538391241383,0,0.996918
0.5150769513481224,0,0.993076
0.48780738537423096,0,0.985547
0.4340685248554702,0,0.924388
0.38632685995824756,0,0.949371
0.44031553532695944,0,0.994243
0.47123820644539893,0,0.992334
0.4854567984342326,0,0.975300
0.4641894441899392,0,0.994332
0.43571802851742647,1,0.999790
0.2011562362799915,0,0.973430
0.20796551086316462,0,0.961152
0.1120277448746456,0,0.989606
0.1461433497729084,0,0.995564
0.11292890307415114,0,0.918111
0.12018530705171393,0,0.957166
0.14800521950527085,0,0.952242
0.2130894472623214,0,0.942680
0.2024914546304736,0,0.975703
0.22185738313650338,0,0.987205
0.19535443635873007,1,0.999475
0.25306189244616034,0,0.991298
0.22863388600378173,0,0.924281
0.22748339449322744,0,0.948637
0.2778280407527396,0,0.846851
0.28788026239257447,0,0.994853
0.3286026227257017,0,0.998042
0.31588564487312604,0,0.943715
0.3017338387201931,1,0.999423
0.33257702923681276,0,0.926085
0.36032251333168164,0,0.944571
0.32718558468953785,0,0.998504
0.35746351890251565,0,0.935717
0.37112017056144037,0,0.976410
0.3744951429217187,0,0.994999
0.375614025589429,0,0.977520
0.37313961312381577,0,0.996984
0.35657664790222743,0,0.990615
0.3522374098858697,0,0.991997
0.3723753213622956,0,0.993407
0.4192371414275835,0,0.945150
0.4616952556213767,1,0.999601
0.409968926949815,0,0.848875
0.4003571390549308,0,0.923860
0.40684856552586485,1,0.999921
0.399776683150967,0,0.917857
0.40117092210577665,0,0.982726
0.39445569816195103,0,0.895003
0.3712389248161062,0,0.888838
0.36791857448915605,0,0.922433
0.37696487500015513,0,0.996511
0.4138233122696458,0,0.884163
0.3585321378876506,0,0.989223
0.34698973502819846,0,0.984249
0.43996760588357414,0,0.978918
0.45281163856042317,0,0.967038
0.46492888803796173,0,0.997686
0.47452808168822924,0,0.929493
0.49594861035994553,0,0.987361
0.49892541092819287,0,0.972772
0.5166005572639303,0,0.856873
0.4440857507377416,0,0.959235
0.4311920177086347,0,0.986898
0.38874481688431123,0,0.980241
0.41743958329565406,0,0.980998
0.3601516262447611,0,0.978815
0.2842353566431306,0,0.917986
0.22869718791672586,0,0.955817
0.2472795035959045,0,0.867601
0.26925516762039753,0,0.967949
0.24961714197658857,0,0.923887
0.22585549120024043,0,0.957078
0.2417383172092714,0,0.908402
0.27044692120760383,0,0.926263
0.2630256753451248,0,0.960846
0.23787343982497103,0,0.959899
0.17452829639450168,0,0.986516
0.19587045829740715,0,0.994106
0.2046539634074674,0,0.992781
0.20245140840671036,1,0.999309
0.19140482002536915,0,0.993435
0.26852267631383636,0,0.977208
0.3247806626924413,0,0.995647
0.3290312769704674,0,0.991884
0.27324461558662055,0,0.987510
0.22629960194309537,0,0.925313
0.41873282654421623,0,0.851305
0.4377171048776001,1,0.999287
0.4223755271706851,0,0.963041
0.4910477466660795,0,0.964981
0.3460748584609799,0,0.962921
0.32249891482488363,0,0.946957
0.2557698129129619,0,0.942255
0.30679952831181984,0,0.911312
0.4002251518273647,0,0.956857
0.37277537270252115,0,0.945842
0.2937647383195589,0,0.993489
0.3763417046221398,0,0.998177
0.41349044689178344,0,0.994811
0.41817898900685785,0,0.943152
0.4208045723584111,0,0.972926
0.3205379643600021,0,0.922828
0.17075302958952704,0,0.971359
0.18461819353910733,0,0.911089
0.18288686655553968,0,0.937303
0.472697589111729,0,0.996758
0.4952609167461317,0,0.990372
0.49759006970637165,0,0.968452
0.49873248566570777,0,0.987830
0.4891813349941431,0,0.997621
0.3773983467145081,0,0.916560
0.31119392808440305,0,0.968039
0.350391579304733,0,0.994099
0.28192531320538394,0,0.972393
0.23540094524652372,0,0.975516
0.26661500270107674,0,0.971069
0.29064499241843683,0,0.958191
0.2142897338183944,0,0.959601
0.31344351355209077,0,0.947610
0.35511157630693435,0,0.939221
0.3513989089767591,0,0.992574
0.3711382264254761,0,0.845881
0.38386732321247885,0,0.970418
0.190387180914853,0,0.974146
0.3451793762616857,0,0.964573
0.23273573240400902,0,0.980235
0.22799949599628966,0,0.981686
0.36571928848874874,0,0.982690
0.37568123663105013,0,0.937022
0.40293689650587167,0,0.880968
0.38927692316012985,0,0.994579
0.4265935927519386,0,0.944444
0.43686313615016287,0,0.910327
0.35244856675211106,0,0.981285
0.3949666724874282,0,0.989158
0.41516132851864423,0,0.911327
0.4309619937222312,0,0.965309
0.4128164883605168,0,0.957062
0.44444260549682646,0,0.969886
0.3991402032829023,0,0.998856
0.3875280187966758,0,0.870632
0.4428706370287183,0,0.977618
0.4308222420671672,0,0.990832
0.5336296355494503,0,0.968755
0.48860591638033257,0,0.916830
0.46877391276552144,0,0.966024
0.4260310759069833,1,0.999691
0.5987108112487768,0,0.992307
0.5313765748885545,0,0.960554
0.5257199685900449,0,0.950626
0.3719229598723656,0,0.969548
0.5241285330050747,0,0.856914
0.5034089190097054,0,0.996824
0.5048824114351457,0,0.874784
0.45407409738486576,0,0.751452
0.4092223754677328,0,0.893540
0.3765682804635763,0,0.972013
0.3383460519126937,0,0.943662
0.27996014159185945,0,0.904007
0.2834314491716665,0,0.810151
0.3450685805411565,0,0.799632
0.17952065717089227,0,0.974680
0.2355311689172763,0,0.948116
0.22388676103908395,0,0.959495
0.19740837029121555,1,0.999894
0.19515193198932937,0,0.816318
0.22949550402278998,0,0.950718
0.3042282163857605,0,0.872558
0.2952491833065995,0,0.747372
0.3257132680296656,0,0.885857
0.3010530042567029,0,0.771177
0.2377540322289573,0,0.870161
0.26788319671860045,0,0.945865
0.26893548688618957,0,0.946348
0.30432444513754275,0,0.962608
0.3244900974486614,0,0.994911
0.3141307628147865,0,0.981549
0.29966128412218224,0,0.949167
0.3370654748440958,0,0.966546
0.42300821902199176,0,0.853978
0.40208635786821695,0,0.883667
0.3351224946550971,0,0.990912
0.3428316844575839,0,0.761037
0.40609667831740853,1,0.999288
0.3252401687401858,0,0.956075
0.3120787127407587,1,0.999804
0.25443918197682425,0,0.972778
0.2060630035033747,0,0.861444
0.221643494222297,0,0.996970
0.12007701730302364,0,0.984521
0.08098878101226602,0,0.975844
0.07921394890055211,0,0.995312
0.07035429844945994,0,0.834834
0.07810574253766198,0,0.986632
0.07901957514920484,0,0.977251
0.08020355648347222,0,0.978227
0.10726210557920172,0,0.975689
0.2791241008939948,0,0.972161
0.2578089638248345,0,0.965643
0.2933686206516644,0,0.995753
0.299144705504025,1,0.999665
0.24394820040505646,0,0.930573
0.3559277798189065,0,0.965806
0.3326016977399833,0,0.949513
0.34241111460911244,0,0.975133
0.2832566596154445,0,0.985007
0.15164732436394107,0,0.970438
0.17933493282816523,1,0.999277
0.14577791558053216,0,0.944766
0.23385557713072755,0,0.998621
0.2844552056536153,0,0.886928
0.2432047143892088,0,0.983531
0.11117661387253035,0,0.993078
0.09746281534269957,0,0.990150
0.12075497456598601,0,0.925176
0.0878726982591575,0,0.933813
0.13213351661896672,0,0.938222
0.16015622771590482,0,0.995655
0.3675545475556296,0,0.833790
0.3377780342357812,0,0.922486
0.41604480527497095,0,0.990991
0.4074622514975001,0,0.947593
0.42951575123053676,0,0.901346
0.504760792881314,0,0.991484
0.4647419387334237,0,0.891990
0.2664618068981165,0,0.920336
0.26907924508447956,0,0.938716
0.23051902987010042,0,0.975763
0.26671877600648186,0,0.943994
0.46991129946023596,0,0.993681
0.47709519402262607,0,0.990492
0.2549731268173092,0,0.906750
0.199248617550302,0,0.983745
0.3076650176322115,0,0.990705
0.2560592558263978,0,0.977266
0.17566068117752112,0,0.981802
0.38321339243745706,0,0.990392
0.35981059100045504,0,0.990011
0.19526336037233277,0,0.985888
0.0970717712230592,0,0.987087
0.0833462487295797,0,0.976579
0.22104569851744008,0,0.976734
0.22121733702284618,0,0.976651
0.22095944823384298,0,0.977376
0.15080810704860034,0,0.986907
0.11871443696072298,0,0.966341
0.13196392746306937,0,0.995299
0.13935074424168867,0,0.975156
0.1103410108680874,0,0.963474
0.1261535541482175,1,0.999387
0.05111219487368888,0,0.983215
0.0790585377558344,0,0.980316
0.2029829735167,0,0.968884
0.1502429497394562,0,0.978364
0.14466133557187458,0,0.953261
0.22648051598464936,0,0.966430
0.1194514444752466,0,0.954273
0.105696404359194,0,0.994308
0.19765567779875964,1,0.999348
0.17384337205765316,0,0.977386
0.131007539486049,0,0.994228
0.12469920852444269,0,0.976061
0.12821814949184013,0,0.989792
0.32414652214225315,0,0.934462
0.22522748615921798,0,0.967509
0.2681186749506348,0,0.996963
0.2293218308511452,0,0.926624
0.18133708792833497,0,0.943636
0.21626382694964497,0,0.959079
0.2859850394365531,0,0.991485
0.3413161852185701,1,0.999052
0.3330668597725786,0,0.998675
0.3263413955386862,0,0.903939
0.27198074840708797,0,0.986405
0.29258798477062326,0,0.894811
0.3968329299030847,0,0.899903
0.46452895464710897,0,0.921026
0.41536364541158727,0,0.989357
0.4709237098868207,0,0.916229
0.36750933637885463,0,0.844264
0.3482724418954499,0,0.977717
0.4834707522559907,0,0.972540
0.5320402774919113,0,0.887332
0.45863771909853607,0,0.940168
0.40012589160691986,0,0.941580
0.43150034853923913,0,0.925861
0.5444527950922466,1,0.999921
0.5801313512141979,0,0.956395
0.5165577469214815,0,0.990138
0.46296034886000875,0,0.933210
0.3118555308649782,0,0.974281
0.29895922078450315,0,0.982775
0.31114602328860136,0,0.978415
0.3311924878129847,0,0.971290
0.3234654485321413,0,0.986254
0.1751943759046747,0,0.992344
0.1661414334863059,0,0.966827
0.24332324486301674,0,0.990991
0.2803171984998734,0,0.996813
0.2997888627094258,0,0.998671
0.312838014980834,0,0.961401
0.22155240509585084,0,0.962245
0.16348811856669296,0,0.979909
0.12900013788163006,0,0.987312
0.15846709990852909,0,0.969272
0.11653940972001647,0,0.987404
0.09305681522434663,0,0.984050
0.07269920624433426,0,0.996135
0.11683962084218343,0,0.946933
0.09056485675537701,1,0.999141
0.11986441911575513,0,0.989723
0.334584951206341,0,0.994471
0.10982810461490707,0,0.991790
0.20720701548180584,0,0.920099
0.27798802094413827,0,0.835869
0.2249179132326735,0,0.892730
0.2776456958191494,0,0.992376
0.23189282815774176,0,0.996516
0.1202473055585024,0,0.986953
0.33986800491640806,1,0.999529
0.13731598224421138,1,0.998800
0.15016029272135573,0,0.985780
0.2167210591162695,0,0.994222
0.25255012889815326,0,0.920093
0.33972958375619144,0,0.964094
0.5643098288792953,0,0.903747
0.610065892847879,0,0.974456
0.49169680075562155,0,0.908201
0.48990234614585454,0,0.937409
0.41897076103071595,0,0.989640
0.34309389075732794,0,0.998638
0.39465112063597435,0,0.969236
0.5140245818485014,0,0.941929
0.6218924055696639,0,0.994714
0.6028421754310246,0,0.964979
0.44923414500252956,0,0.960680
0.40594968573013357,0,0.996702
0.4186314763329006,0,0.957134
0.3271461707016662,0,0.975000
0.1610608999106955,0,0.893676
0.20379517278124396,1,0.999879
0.2044486539794075,0,0.979219
0.23729590149977708,0,0.998541
0.16129438876824656,1,0.999149
0.13303704793986174,0,0.987725
0.03708461502609076,1,0.999870
0.08698049530866586,0,0.980448
0.08327085170630909,0,0.994378
0.16312440852134413,0,0.950965
0.17610588625884238,0,0.958191
0.25733610238294385,0,0.949388
0.24876958995536397,0,0.893540
0.1950182005264722,0,0.866113
0.21972828028989716,0,0.850786
0.32950165907373336,0,0.979676
0.34973033050837243,0,0.894684
0.3765100205096948,0,0.995408
0.36907822288328984,0,0.938059
0.4098977903839901,0,0.854332
0.38370239071814877,0,0.983021
0.3508802022974784,0,0.997591
0.31983598082788095,0,0.854563
0.33191547168285435,0,0.997118
0.3020770051580538,0,0.974753
0.0803936150375236,0,0.990889
0.0729859950698203,0,0.972001
0.016757667272913924,1,0.999829
0.016142326312476613,0,0.994377
-0.007833379653355146,0,0.995443
0.014689506936881699,1,0.998166
0.005737241065555982,1,0.999801
-0.024746337838707787,1,0.999124
-0.030360481295191453,1,0.999796
-0.031780410392195174,0,0.996404
-0.034684929176692365,0,0.939159
-0.006580986061390898,1,0.999784
-0.009873761036401842,1,0.999777
-0.017228522735266188,1,0.999772
-0.027403586329653635,1,0.999782
-0.037864556732440144,1,0.999763
-0.03663108778278124,0,0.937980
-0.031090753112215527,0,0.973613
-0.00370409758608608,1,0.999346
-0.009130711282991774,1,0.998232
-0.022591033709241152,1,0.999760
-0.025199394029665017,1,0.999760
-0.019200534282265477,0,0.898907
-0.034577824515957485,1,0.997624
-0.033992379302645856,1,0.999753
-0.041400626081430414,1,0.998049
-0.01346144901914555,0,0.994589
-0.002837200078982495,1,0.999738
-0.02534007739683817,1,0.999728
-0.03196560539598653,0,0.953004
-0.03271222973298045,1,0.999716
-0.008336971076330111,1,0.998901
-0.028338901228831453,0,0.991995
-0.04175008983177727,0,0.984115
-0.049487936980478965,1,0.998545
-0.03876172486179988,1,0.998761
-0.01142584601769475,0,0.893535
-0.031828576071568415,0,0.966694
-0.042522027091018925,0,0.996570
-0.06133102019244977,1,0.999721
-0.04865322499807526,0,0.986922
-0.04873385187822949,1,0.999646
0.6745664425521456,0,0.968041
0.503749651331036,1,0.999632
0.027587615461282494,0,0.971346
0.014099341204576817,1,0.999589
-0.0181968218443278,0,0.992290
-0.0429130897460543,0,0.980176
-0.05194884681366034,0,0.978248
-0.022312605018170867,0,0.833107
-0.011811359656545598,0,0.974410
0.15939618007930428,0,0.953683
-0.008071476183526268,0,0.937079
-0.02847280924940714,0,0.993310
-0.038715589011207474,1,0.998621
-0.05296056715409912,0,0.992547
-0.022282593268627672,0,0.996917
-0.035633956908815684,0,0.876812
-0.056843491632757565,0,0.927998
-0.006434963151738067,1,0.999712
-0.013999274404960859,0,0.960552
-0.027078481316727583,0,0.949972
-0.008862056920510295,0,0.952135
-0.035323378368287604,0,0.985183
-0.0349036574813105,1,0.999562
-0.04517749345038476,1,0.997279
-0.058479355789073845,1,0.997080
-0.06645622869483636,1,0.998147
-0.05966297545965436,0,0.982543
0.008858213910086742,0,0.890156
0.08221618300147178,0,0.908896
0.05404904329266686,0,0.863711
-0.018593378697275457,0,0.992561
0.47255154574729336,0,0.621707
0.46705573359671854,0,0.929998
0.1794748744470271,0,0.830692
-0.008270312505628164,0,0.880420
-0.038391538988302595,0,0.997546
-0.006252610238513091,1,0.998093
-0.014362656734650743,0,0.649177
-0.029941101326869887,0,0.884373
-0.04050639841500663,1,0.999774
0.017086632967008637,0,0.983765
0.009728818911891764,0,0.896739
-0.026931546664537478,0,0.977659
-0.042079142307321626,1,0.998965
-0.03927559005941669,0,0.977390
-0.03626025275486565,0,0.776742
-0.04534484880919373,0,0.980786
0.05412405734650855,0,0.893655
0.07441971193342176,0,0.801812
-0.01211757904734205,0,0.862546
-0.04188785255536905,0,0.931692
0.0032325427120462004,0,0.839463
-0.018819443099086133,1,0.999686
-0.0586723276641738,1,0.999287
-0.061572049810795434,0,0.984868
0.05020355093298584,0,0.929070
0.24952319319918836,0,0.678418
0.0810815793237192,1,0.999749
0.4910011167783388,0,0.586066
0.3909627079565497,0,0.549066
0.10638828270836365,0,0.879672
0.1475785874994081,0,0.800124
-0.019290755332010894,0,0.983435
-0.02505982196750493,1,0.998449
-0.007359711549881336,0,0.984972
-0.04114020565308085,0,0.982759
-0.042963233773146495,0,0.902040
0.04268448544593664,0,0.851285
-0.03405793932586534,0,0.996159
0.20414055255309127,1,0.998284
0.02988447392603601,0,0.968651
0.29333397584728266,0,0.958564
0.04850849177852329,0,0.981835
-0.013256304797931035,1,0.996857
0.4197384283379632,0,0.929318
0.1438014434612738,0,0.901840
0.185572527158656,0,0.579186
0.3619579508610633,0,0.954802
0.34509189648389077,0,0.791236
0.45932515907584753,0,0.982809
0.3243585628842886,0,0.896478
0.08141491886799734,0,0.944050
0.3498536111625665,0,0.986789
0.3361266855174575,0,0.648576
0.3792582240441962,0,0.589539
0.4370673402740127,0,0.586099
0.40877507096470206,0,0.994405
0.5221094488903929,1,0.998101
0.5794764259518195,0,0.992560
0.444099470566206,0,0.946586
0.12378704981636683,0,0.990228
0.09619029461059196,0,0.743074
0.1436325845927799,0,0.979687
0.04653245268519731,0,0.929714
-0.0037501270210019057,0,0.983639
-0.012696874461870875,0,0.948514
-0.01958000494485261,0,0.945027
0.1804191635854814,0,0.995965
-0.014872228883265975,0,0.989606
-0.01676793926126284,0,0.962400
-0.020817778470909508,0,0.964252
-0.039681296362233366,0,0.906410
0.09042434393291637,0,0.987357
0.44503038155432195,0,0.994636
0.33854103441994043,0,0.739288
0.027466038303639063,0,0.948699
-0.010691646946728575,0,0.995941
-0.011593658069794089,0,0.970622
0.019019062304830418,0,0.992519
-0.02529120640238847,0,0.978535
0.05534491626962155,0,0.994745
0.4136599804057384,0,0.597507
0.29131057264732724,0,0.972852
0.24806147898337227,0,0.667413
0.6435012859326202,0,0.975243
0.5896718776334607,0,0.717469
0.5226884169127237,0,0.610169
0.3725033554430758,0,0.860142
0.007653371828393283,0,0.974847
-0.004751109517858788,0,0.916667
-0.023164061748416107,0,0.996680
0.6026732549892982,0,0.987841
0.7015973848253233,0,0.970338
0.23665415933189748,1,0.998429
0.5143590169469288,0,0.836972
0.27604563638549656,0,0.951482
0.20824342192207293,0,0.982916
0.24313139494591998,0,0.950551
0.38580183527973155,0,0.971963
0.6310123717414831,0,0.907601
0.4697844897758927,1,0.999893
0.4341643665570573,0,0.965092
0.27041935144129275,0,0.965784
0.36180860834736256,0,0.883121
0.37401223463386385,0,0.912526
0.3196591400118797,0,0.986738
0.1057818735931281,0,0.987089
0.026245645393702416,0,0.931088
0.016923576204425615,0,0.967437
0.6255508099209417,0,0.981285
0.6445333343753351,0,0.976434
0.5128051377622533,0,0.987464
0.5118967371737045,0,0.933509
0.41355370056642526,0,0.930091
0.4304201253900778,0,0.995714
0.458451930827147,0,0.991404
0.2916075206322771,0,0.985268
0.3765597246259076,0,0.965785
0.45964181083317096,0,0.925612
0.5848702980569249,0,0.977530
0.6041263904620995,0,0.943520
0.5647609684588717,0,0.981798
0.5820707252639081,0,0.984692
0.43661062039342885,0,0.894994
0.4373672448224008,0,0.997233
0.5905362490174796,0,0.918857
0.4875535972782948,0,0.992998
0.450582717461056,0,0.726867
0.4120698914654061,0,0.983153
0.4704762169128237,0,0.963804
0.5867663565898833,0,0.985256
0.6344433292380034,0,0.841002
0.6268951621226735,0,0.974680
0.5184094670067385,0,0.998150
0.49544296106880537,0,0.975837
0.35759394795621613,0,0.998454
0.5289494462340596,0,0.903128
0.4945877370390521,0,0.998768
0.15814880556727312,0,0.996503
0.3098256231353245,0,0.991581
0.39373054253661705,0,0.980874
0.3863729193504843,0,0.967758
0.5653016941390774,0,0.813826
0.6105067328945558,0,0.985284
0.5934035451416383,0,0.978216
0.6334227997531182,0,0.998265
0.4738703399586573,0,0.985008
0.597668189846676,0,0.936447
0.5842756486805664,0,0.988900
0.592463928836758,0,0.987713
0.5811958864369386,0,0.944922
0.25220633263525266,0,0.967147
0.3270303907821856,0,0.986783
0.3183168912297069,0,0.986233
0.45494399674872604,0,0.973806
0.37337204495401366,0,0.929614
0.4981131325686636,0,0.981632
0.4263567208662585,0,0.942846
0.40650407966600116,0,0.998317
0.35446598702973836,0,0.976519
0.5336025384139046,0,0.995160
0.4002359933097706,0,0.942612
0.4342009872132367,0,0.868425
0.4581187757308773,0,0.983217
0.5284804241833492,0,0.988711
0.532851220437978,0,0.944952
0.42947181334503515,0,0.947203
0.40563110770217553,0,0.949631
0.42536435964482067,0,0.891287
0.29919767021299987,0,0.896694
0.3206687681932594,0,0.990168
0.35472667464308566,0,0.889827
0.4558579750168933,0,0.920488
0.6195737419977015,0,0.997673
0.5187188403230161,0,0.837428
0.47015168788073813,0,0.674577
0.35494261237564984,0,0.735267
0.3248559194276309,0,0.687967
0.43544481476092495,0,0.953129
0.48651504037396126,0,0.934751
0.4674038553185522,0,0.742863
0.6227499396415146,0,0.990376
0.6036939734742948,0,0.745472
0.6181336001025813,0,0.739954
0.4874976758509758,0,0.783337
0.3403821198888164,0,0.777581
0.24129286063443153,0,0.992445
0.5384403865869406,0,0.920984
0.6419923255350716,0,0.957048
0.6857446859044299,0,0.995165
0.6481527404645803,1,0.999669
0.5520012672858701,0,0.989995
0.49316969158993873,0,0.985030
0.46040874904000817,0,0.977500
0.4714790767796983,0,0.968789
0.47169940197440086,0,0.923077
0.6274880559887017,0,0.940548
0.7138296406879278,0,0.948598
0.5933940055457675,0,0.998452
0.5499401423052265,0,0.997141
0.7084006108062137,1,0.999176
0.7060817670285388,0,0.992245
0.648013191296286,0,0.994860
0.5814655626421501,0,0.960455
0.28076234805156897,0,0.834167
0.22042227272659407,0,0.835378
0.19944219008789005,0,0.870808
0.2898558881523331,0,0.988500
0.32593098509899193,0,0.987990
0.15172840013578762,0,0.995532
0.17234545996220896,0,0.929966
0.20815084738533776,0,0.923920
0.34282828061310283,1,0.999902
0.4107262514314022,0,0.860930
0.3431659957122989,0,0.919995
0.4058552632107157,0,0.959616
0.37368803597618344,0,0.979287
0.520415364590348,0,0.997119
0.4872655812580004,0,0.880080
0.471471156184668,0,0.881589
0.4728543729931405,0,0.985788
0.40200763140648604,0,0.918775
0.3758649618939669,0,0.965039
0.32415467944323567,0,0.974024
0.1961758386649558,0,0.983155
0.1358978849962599,0,0.990970
0.07772937563616597,0,0.990699
0.05153843900961781,0,0.991478
0.061587645613833585,0,0.990718
0.06327153118088823,0,0.996504
0.2619771900735425,0,0.997128
0.22401839773620602,1,0.999834
0.09770027527201688,1,0.998621
-0.010854660732961397,0,0.980178
-0.004412068678614371,0,0.992871
0.35002190711011,1,0.999281
0.28381986761660977,0,0.990737
-0.006773807626646016,0,0.996491
0.20845213974801347,0,0.953054
0.25042979466984433,0,0.986808
0.08799216191340314,0,0.996126
0.08775087837746565,0,0.956513
0.055307826536589964,0,0.988657
-0.006127017967415698,0,0.993365
0.19733429518013856,0,0.988644
0.3038528474454738,0,0.950554
0.09951789320654025,0,0.984712
0.06783726437869846,1,0.998522
0.2464981520560672,0,0.930819
0.1858435355914954,0,0.963908
0.3523692116414245,0,0.987780
0.4192594229130773,0,0.966165
0.0733753987739197,0,0.990338
0.04186148826475344,0,0.997071
0.2824573746827628,0,0.995629
0.3165181622822372,0,0.906855
0.45544580448553756,0,0.977253
0.5010992650039052,0,0.998277
0.5039288902024031,0,0.944841
0.39757471767156494,0,0.913205
0.036782814417356674,0,0.970542
-0.015893495359719612,0,0.939712
-0.012308363502100692,1,0.999759
0.020845583281288455,0,0.990337
0.22239974112524416,0,0.946890
0.07780913869236847,0,0.983718
-0.030990503275666697,1,0.997592
-0.034046303562856345,0,0.990988
0.41321837455573884,0,0.927088
0.4139213697381597,0,0.859007
0.39162409591365094,0,0.956522
0.40568918476961036,0,0.986708
0.4639834425908755,0,0.979744
0.455100467514098,0,0.802138
0.5523831932459984,0,0.929439
0.5209603112421751,0,0.985385
0.5154143427882822,0,0.964837
0.49889416249019697,0,0.984290
0.6489244848733137,0,0.968218
0.7656756029119056,0,0.946938
0.6897444109751328,0,0.968074
0.539560658425497,1,0.999917
0.5645997671543591,0,0.971625
0.7376525985828385,0,0.962595
0.7949256732187495,1,0.999200
0.5814066600345082,0,0.980969
0.6384737053601613,0,0.963062
0.565049721545875,0,0.976639
0.4150929374361384,0,0.935737
0.5955366753112588,0,0.977953
0.777539912453894,0,0.983766
0.8071831447149027,0,0.988861
0.46605336810761194,0,0.981163
0.5044547746559876,0,0.941826
0.6338405283171061,0,0.965235
0.5689424870479597,0,0.994299
0.3313676834288695,0,0.827438
0.06953825120740267,0,0.949807
0.10712734269549436,0,0.996389
-0.008550097643438701,0,0.995050
0.3913312945702465,0,0.850266
0.22079482574657275,0,0.990467
0.4092225393608457,0,0.810419
0.0855609125574453,0,0.958823
0.03783189065871951,0,0.991667
0.06930321091261203,0,0.970662
0.09769770808728868,0,0.997440
0.3839900260435823,0,0.754271
0.45507554065242667,0,0.958970
0.34071297772565856,0,0.969926
0.04049993996966613,0,0.991529
0.13527759860557234,0,0.996827
0.16240733915526656,0,0.973189
0.00367333746178259,1,0.998363
0.13364717092731837,0,0.969267
0.4344628017921929,0,0.998052
0.45051732364826047,0,0.933819
0.446221260116482,0,0.982384
0.01996250738527367,0,0.953241
0.45114399718646997,0,0.800135
0.39597472827335617,0,0.711482
0.4626415362033395,0,0.784584
0.3868675115531778,0,0.782948
0.1354464364856009,0,0.927552
0.43659566622528595,0,0.695043
0.3971728897662315,1,0.998166
0.07127870224900723,0,0.993583
-0.031840471940268886,1,0.999408
0.02095921290020714,1,0.999053
0.039965860872726654,0,0.990993
0.49863122772136503,0,0.991834
0.6626356899479392,0,0.632968
0.5014725041967687,0,0.958880
0.054519476611017914,1,0.998242
0.012842095672182759,0,0.868596
0.4909889883969242,0,0.848712
0.42075589658139245,0,0.995749
0.5139079709106431,0,0.994839
0.5006156438130483,0,0.872880
0.5377783447429896,0,0.918923
0.31639898954242446,1,0.998456
0.006922112819820491,0,0.989510
-0.012897491302448001,0,0.996005
0.04381932896521602,0,0.996399
0.0891983246704346,1,0.999806
0.0966613794824855,0,0.970991
0.1179639391066291,1,0.999777
0.47096951536317067,0,0.928487
0.3932518354776856,0,0.755092
0.578883105375461,0,0.759765
0.49242259749545614,0,0.969294
0.6391166595043334,0,0.949983
0.6137975552156355,0,0.952712
0.7889376843192728,0,0.983282
0.7854823080150434,0,0.960874
0.7989305366865342,0,0.994730
0.5198098274368577,0,0.993347
0.4961630381439258,0,0.996117
0.2635620317479925,0,0.908052
0.24083268320374535,1,0.998482
0.40957288759589916,0,0.845685
0.2916553624803418,0,0.876470
0.38421729732224846,0,0.846533
0.5363306049261874,0,0.989441
0.2764182035681238,0,0.967048
0.36895792466958216,1,0.999329
0.7373947161789146,0,0.991072
0.7998183016346605,0,0.998210
0.6339824085353538,0,0.814649
0.6352241312271966,0,0.945282
0.3735486719990292,0,0.588187
0.33299735991079804,0,0.815708
0.230828702860287,0,0.586990
0.31019552586873106,0,0.611282
0.16928637722208864,0,0.606047
0.2598213858621714,0,0.896557
0.2563078008196492,0,0.822776
0.3348049107815679,1,0.999882
0.21356237375226206,0,0.956939
0.19447863391617687,0,0.793296
0.29786940051675415,1,0.999556
0.3834087741138116,0,0.969211
0.44295138500142217,0,0.995653
0.35067998701205816,0,0.898418
0.2954988104215163,0,0.983817
0.46640089142936414,0,0.980812
0.4355370299587571,0,0.986169
0.38384502430253725,0,0.586686
0.4097315817387004,0,0.946065
0.3917203720962161,0,0.994673
0.2795816511263404,0,0.901668
0.28336850597445545,0,0.984455
0.3045431006466298,0,0.869041
0.30703971476539577,0,0.683537
0.33315193021550604,0,0.893469
0.27309546572616,0,0.715015
0.2564777896560606,0,0.921259
0.31238582482652466,0,0.976984
0.23246307672014344,0,0.990713
0.25994039077942366,0,0.917849
0.3082427590757803,0,0.907247
0.2974889987216443,0,0.916531
0.27365759248333277,0,0.761020
0.29977218818733276,0,0.786794
0.33294967247390783,0,0.959820
0.27045523524132964,0,0.949466
0.21556593409923455,0,0.990572
0.3741429029044618,0,0.934482
0.2961099283091353,1,0.999824
0.3242030110037111,0,0.823585
0.3273248308484609,0,0.970128
0.2896055970374383,0,0.978752
0.3060565426054396,0,0.988429
0.34745885312598856,0,0.721261
0.41627798681876826,0,0.764113
0.44301743846094194,0,0.992328
0.4358179089451443,1,0.999826
0.33717759933786506,0,0.991740
0.29672224735590835,0,0.972133
0.34161829293659124,0,0.989221
0.3733262466986881,0,0.996919
0.16703464643649335,0,0.929895
0.27415682165442673,0,0.805253
0.32019446772963217,0,0.879773
0.3424708246330458,0,0.987839
0.3356413959768157,0,0.992792
0.3561364273620192,0,0.997935
0.39769126847838915,0,0.995534
0.38193839822301734,0,0.961007
0.38630465553109805,0,0.974905
0.3046933780830801,0,0.722758
0.3371336249805185,0,0.979663
0.2926674165393404,0,0.804720
0.26485929728318125,0,0.971981
0.3076185173557011,0,0.950419
0.3108199767458229,0,0.837749
0.2926908790617421,0,0.977878
0.4730361476759405,0,0.983526
0.4679708152741428,0,0.998449
0.36399412669694875,0,0.836991
0.3553147229279269,0,0.933263
0.3696327278542789,0,0.969936
0.37752843124196345,0,0.985982
0.33612095908489625,0,0.982360
0.45637136793693633,0,0.931568
0.35128166223731727,0,0.974689
0.3551900893426191,0,0.968821
0.47360184998715793,0,0.986549
0.42912279961972427,0,0.875906
0.3994713813789567,0,0.995499
0.5717965438712275,1,0.999177
0.5631244432062035,0,0.991538
0.5735694954385822,0,0.991506
0.5478010694081004,0,0.951468
0.5302720348105691,0,0.900442
0.5580201685485213,0,0.979457
0.5733085923907928,0,0.894868
0.3674408730038824,0,0.922952
0.2910796113764653,0,0.969106
0.3201676944302676,0,0.901446
0.3193818693377257,0,0.979635
0.28221676948309976,0,0.985041
0.3149955811244633,0,0.985605
0.3661594002468209,0,0.988361
0.346185373362305,0,0.984918
0.3371373731298373,1,0.999772
0.5094604681287035,0,0.984962
0.57263875963076,0,0.948555
0.48678504458124683,0,0.964255
0.46867485248583396,0,0.945579
0.574712054154492,0,0.933102
0.5328166623133989,1,0.999571
0.5344430565055875,0,0.983973
0.5072629410755599,0,0.998263
0.5333214929322296,0,0.924672
0.4565016186722761,0,0.942239
0.5096405856206297,0,0.941660
0.5139248099246766,0,0.952368
0.49368594773496605,0,0.975216
0.4783365955263936,0,0.917596
0.3603644253566167,0,0.994142
0.40747742853353536,0,0.992752
0.48972221800786436,0,0.991444
0.377407325399584,0,0.966392
0.3530671664773064,0,0.995899
0.4088465474637564,0,0.979952
0.5862411645235182,0,0.934462
0.5955693969335606,0,0.949709
0.573713057490073,0,0.979816
0.4669904495758556,0,0.880628
0.43976821159052415,0,0.998642
0.416604274728665,0,0.956923
0.4449443641342949,0,0.975419
0.46138962538981354,0,0.929442
0.40682788231578515,0,0.990236
0.36234249015667325,0,0.934014
0.44448329775353096,0,0.869680
0.42930334544215876,0,0.956605
0.515808351574445,0,0.972800
0.49608873525176866,0,0.983885
0.49631153732638933,0,0.950019
0.38931274875525906,0,0.958720
0.421049232581338,0,0.979403
0.42060005595416183,0,0.966365
0.1816221911397118,0,0.973450
0.36856292446124506,0,0.950373
0.21918902501218585,0,0.973579
0.3391560771850633,0,0.916785
0.3983540414206425,0,0.998524
0.400862720742888,0,0.938048
0.2219521316833189,0,0.995907
0.19841319702360746,0,0.989223
0.1658765891674027,0,0.991213
0.15862472334276176,0,0.978743
0.18435793142258083,0,0.913472
0.20457915778736085,0,0.985431
0.2019139899478499,0,0.984979
0.23983854456727421,0,0.912189
0.6505204218490533,0,0.973583
0.6031921524041393,0,0.984601
0.6066395586919331,0,0.972310
0.5092870298941502,0,0.978355
0.3574754442358393,0,0.983397
0.3631915516367821,0,0.958086
0.43577669590593865,1,0.999796
0.45266047794980147,0,0.993647
0.32732193437551377,0,0.984197
0.37518658138563027,0,0.988391
0.3489202292542095,0,0.980745
0.2774747415539811,0,0.981808
0.30301798739284463,0,0.995966
0.2288835901870354,0,0.987427
0.47974765033013367,0,0.958765
0.5196743196264609,0,0.993056
0.396849794302169,0,0.976481
0.31332514512925863,0,0.976754
0.15443489093820317,0,0.988977
0.31914736085684076,0,0.997950
0.2276612759286171,0,0.995602
0.2541258449973066,0,0.991908
0.39360502801332964,0,0.992224
0.2643553916382064,0,0.995165
0.30257447824497136,0,0.994022
0.33216563954672634,0,0.975429
0.32959323817944036,0,0.993385
0.21505475392991358,0,0.982767
0.3095146669772241,0,0.990121
0.2325159965136436,0,0.991747
0.2667022540742734,1,0.999593
0.30279524636171146,0,0.989573
0.38863999430263946,0,0.992277
0.2679849787903224,0,0.961857
0.33543243070612927,0,0.991806
0.24819736623694946,1,0.999715
0.17093176696858856,1,0.999849
0.19136915339522836,0,0.938963
0.36200354047732136,0,0.984206
0.3182981856342396,0,0.996986
0.3327042797336204,0,0.998189
0.1650434983802694,0,0.956856
0.12161231025467173,0,0.943844
0.4010722852621401,0,0.930182
0.5141179889293503,0,0.902117
0.2819095429979528,0,0.965197
0.2987545114952659,0,0.981882
0.34916376978497127,0,0.913181
0.38904562325847103,0,0.971505
0.3070752538143354,0,0.959971
0.3360365278026949,0,0.938996
0.4014817967806845,0,0.854594
0.47690129560674105,0,0.971009
0.43129015882290916,0,0.978616
0.5062794782889738,0,0.938893
0.27764998324988127,0,0.831462
0.488999862844319,0,0.978933
0.595067300460913,0,0.760183
0.6216404478389889,0,0.997493
0.5284578654432192,0,0.969436
0.13412217033979038,0,0.971877
0.33457619676617184,0,0.982582
0.3254810535992708,0,0.986589
0.20041231680847907,0,0.927646
0.0940085678710524,0,0.992368
0.33891013048987184,0,0.918813
0.30540790206534846,0,0.982817
0.3729146316296782,0,0.976752
0.2579794931854819,0,0.969482
0.18055626947523307,0,0.979850
0.08987300118597205,0,0.982749
0.06643456893036777,0,0.976589
0.27647434481465577,0,0.992835
0.08840074319537382,0,0.983721
0.07909377543142806,0,0.973575
0.3615997532254021,0,0.961781
0.07748435527751392,0,0.989427
0.08424484197231176,0,0.976534
0.3584485482694239,1,0.998672
0.17288218370864225,0,0.990598
0.04448096655380292,0,0.990223
-0.0018524240213763949,1,0.999134
0.11656124748956316,0,0.992441
0.2521547762874107,1,0.999237
0.12251739750832584,0,0.992981
0.45730921974189864,0,0.997737
0.37880377116136504,0,0.992261
0.01706528222969748,1,0.998253
0.43891021086110266,1,0.998756
0.4258089303181737,1,0.998861
0.5332221176197149,0,0.983479
0.011778858098668934,1,0.997579
-0.02203708213066906,0,0.970322
0.32172847086605694,0,0.981193
0.551710698863965,0,0.903347
0.5122729924370976,1,0.998725
0.048707781047775275,0,0.964662
0.4163830651239972,0,0.659757
0.7557144357255159,0,0.991033
0.7773508196608196,0,0.968849
0.04899075674852398,0,0.989510
-0.021646228041653625,0,0.963208
0.021338465482677482,1,0.999459
-0.026173077166948024,0,0.966416
0.6693129722817449,0,0.983253
0.5229551592120487,0,0.963843
0.7598586144488781,0,0.972715
0.7027758420655748,0,0.991800
0.7187214192389274,0,0.870553
0.7290588963929586,0,0.989837
0.43227926517273657,0,0.962089
0.2703526966294681,0,0.978331
0.13585659349630247,0,0.994687
0.3153050800235437,0,0.998035
0.5387152400935258,0,0.988168
0.7597664474892073,0,0.911305
0.7345628868185423,0,0.895354
0.7513060791917822,0,0.796106
0.50980598130894,0,0.997689
0.41252550236105034,0,0.888441
0.3931217059304997,1,0.998865
0.09242065815116134,0,0.967947
0.10780118131173427,0,0.985799
0.688032310784765,0,0.986054
0.768443463477285,0,0.969707
0.6536093838218621,0,0.968511
0.6901010321454307,0,0.984845
0.6348148578621955,0,0.973404
0.638441866651801,0,0.942367
0.6133999160520996,0,0.934305
0.5545514330169636,0,0.933001
0.12544362483485702,0,0.972956
0.09487548507870447,0,0.894295
0.3362702496348752,0,0.904206
0.6815123626537297,0,0.973036
0.51922938304973,0,0.995788
0.746889135444685,0,0.959345
0.754726014218692,0,0.983649
0.7502463086409381,0,0.996379
0.22504734542064872,0,0.791896
0.16879926694293065,0,0.909995
0.611128099902435,0,0.991446
0.38126467476304415,0,0.913463
0.6679587912476443,0,0.919397
0.7029234046708144,0,0.969578
0.44229606658710796,0,0.965024
0.44853719238184364,0,0.985966
0.460448708910849,0,0.954781
0.39666860253541397,0,0.694209
0.4703392369454502,0,0.895742
0.5141250065932041,0,0.993122
0.44477739541499917,0,0.997442
0.5152699043898272,0,0.965562
0.6180692823067809,0,0.964922
0.4591127659612426,0,0.989425
0.5932225785993157,0,0.996362
0.7318671185732276,0,0.919826
0.7608624114907148,0,0.952390
0.39008837828828546,0,0.994078
0.7533572660460005,0,0.919369
0.5832818824628394,0,0.991681
0.399286434619803,0,0.998560
0.36229455651169146,0,0.949956
0.37936746784835956,0,0.859871
0.4072674682749365,0,0.941491
0.41850631725102033,0,0.960640
0.4300778878070547,0,0.945922
0.437694084388953,0,0.990677
0.42784819320523726,1,0.999224
0.41401964046135736,0,0.994909
0.42274679591268854,0,0.962091
0.43018296239848713,0,0.971135
0.4413016511969589,0,0.934890
0.34138959325495377,0,0.965007
0.3975427549878545,0,0.977448
0.3649062750091372,0,0.981193
0.3705595123118365,0,0.898708
0.40630596814329867,0,0.941869
0.44824058198014344,0,0.902614
0.4776289120559938,0,0.976152
0.4453183910626064,0,0.836190
0.454533237896418,0,0.967681
0.42931012662557905,0,0.959956
0.4114433145869312,0,0.950792
0.39375939788230385,0,0.952594
0.4837378430122999,0,0.905938
0.4821838366009857,0,0.990710
0.46300530814247054,0,0.986917
0.46713602403268273,0,0.991268
0.4723624246376722,0,0.966402
0.46394335839291423,0,0.911382
0.4488331254243603,0,0.997402
0.35158752885990957,0,0.988106
0.36909613500101013,1,0.999640
0.2643841322240271,0,0.958782
0.266767395439785,0,0.993727
0.30367782432833124,0,0.938826
0.2704104000455192,0,0.950478
0.28711410860105496,0,0.943959
0.48173868477753856,0,0.943953
0.3981515379218513,0,0.958197
0.35708670416427785,0,0.987264
0.3663672256023573,0,0.963493
0.37852182039855753,0,0.938682
0.34700111054471994,0,0.973971
0.31827881007890907,0,0.968222
0.40621242735079927,0,0.967789
0.39041627202387746,0,0.981365
0.3484498638957105,0,0.947150
0.5174417493205195,0,0.991022
0.496551932188952,0,0.986447
0.500025031971967,0,0.996334
0.48821709520908174,0,0.922520
0.43028541737188636,0,0.991949
0.3128576983743379,0,0.920371
0.4589792596442717,0,0.919156
0.4997600278128018,0,0.986125
0.5195649443423517,0,0.980934
0.5198119456907996,0,0.895927
0.5625830574760641,0,0.978481
0.5777839817932978,0,0.973867
0.3513502572733887,0,0.969957
0.28915367576448775,0,0.980908
0.24752496897264037,0,0.984127
0.45065872410704194,0,0.991952
0.593702586584374,0,0.792674
0.487506185606466,0,0.994319
0.5836362003490417,1,0.999900
0.5337566339781488,0,0.964768
0.4950834203260027,0,0.957817
0.3675459543419462,0,0.985542
0.3694546587400314,0,0.960682
0.33549795400692783,0,0.986398
0.3582976641658547,0,0.891860
0.373234796706372,0,0.990957
0.40468067021422915,0,0.963762
0.297872158182833,1,0.998823
0.4545711099874768,0,0.929257
0.5426524366367151,0,0.998502
0.2990756953643356,0,0.984251
0.35827948844831675,0,0.954190
0.29694424912114226,0,0.945788
0.5014459896291867,0,0.953179
0.4252837019356189,0,0.968116
0.6243847773347343,0,0.946509
0.6765132304166146,0,0.992552
0.5941579518404588,0,0.994978
0.600778620621133,0,0.837923
0.45517567693405714,0,0.997018
0.44785005357647334,0,0.919039
0.4579728347574367,0,0.996490
0.44629692133786425,0,0.989580
0.5480852931237896,0,0.982215
0.5136715815089048,0,0.980494
0.34367223387639806,0,0.974414
0.29230887951471185,0,0.937659
0.5482603124798267,0,0.994353
0.413453736609711,0,0.987629
0.47451630900421227,1,0.999038
0.5251124128367362,0,0.846479
0.5222943040642802,0,0.993483
0.5177440810249361,0,0.809984
0.4311419405929727,0,0.995784
0.4785289891755386,1,0.999013
0.5872680859428143,0,0.977539
0.5300036220847661,0,0.984508
0.6413635174960198,0,0.994787
0.5774665328347982,0,0.992965
0.5027765950570979,0,0.998321
0.3260320853961944,0,0.914699
0.2707676945414179,0,0.956294
0.383213862949437,0,0.991638
0.25810894417741226,0,0.963729
0.25146519224214486,0,0.997309
0.14720075691051723,0,0.991638
0.22306806330867637,0,0.996707
0.11158644192602107,0,0.997124
0.13768663478138526,0,0.983526
0.08384221792651568,0,0.991424
0.27531952547443844,0,0.983351
0.39160945585854323,0,0.990247
0.408595719628581,0,0.978102
0.19589021512415747,0,0.990261
0.13578849655575365,0,0.977023
0.05270274039098348,0,0.996213
0.20827388301089683,0,0.983110
0.12677797286865214,0,0.948180
0.38504206027872545,0,0.996869
0.35092669401741283,0,0.988362
0.03605016944410794,0,0.982820
0.06221797112266529,0,0.996801
0.3493817891931678,0,0.949803
0.1781356428252629,0,0.929044
0.225831202051987,0,0.952432
0.18639909527090137,0,0.993089
0.1297186197575995,0,0.947830
0.23233069441076631,0,0.997616
0.2184610935581438,0,0.988285
0.3298264127450328,0,0.964189
0.43311216713024353,0,0.984246
0.36489062570549025,1,0.999856
0.11758692374469573,0,0.962224
0.5848402400799422,0,0.905350
0.5493169659117374,0,0.985808
0.5859256477838455,0,0.981881
0.5900739667110801,0,0.976928
0.5844187197552708,0,0.995648
0.27937589303835975,0,0.980518
0.30852642122988194,0,0.978616
0.10285119083141323,0,0.996755
0.2328275166627673,0,0.984664
0.44073378485846026,0,0.985620
0.32696920745156216,0,0.957435
0.26631462477027906,0,0.986814
0.06496880226836219,0,0.980334
0.6992916051671829,0,0.994263
0.675894415622504,0,0.980756
0.7258259319028785,0,0.950775
0.638411275445269,0,0.984704
0.6069056488299382,0,0.953151
0.6100512572206562,0,0.994287
0.6194398893675437,1,0.999089
0.48065468226592106,0,0.998722
0.6112131787252644,0,0.979934
0.5809160477083863,0,0.918172
0.7139416413196368,0,0.997704
0.6327125095107345,0,0.987908
0.3446583094681869,0,0.923385
0.5720757343360111,0,0.996792
0.6620780021979032,0,0.998920
0.6256582333872301,0,0.963310
0.6430167718752574,0,0.975682
0.7376451920734773,0,0.962249
0.5930711106586617,0,0.982961
0.7254089792203865,0,0.996389
0.7552386217765548,0,0.994913
0.6447927375488911,0,0.958922
0.6873604344478742,0,0.994575
0.7140843959198131,0,0.998455
0.7317818023724448,0,0.975857
0.6773460735235529,0,0.943771
0.7552748592051416,0,0.995899
0.5475099197032763,0,0.997387
0.5634137946017974,0,0.845995
0.5624507373745138,0,0.968504
0.7460809963213518,0,0.979452
0.5771380046041859,0,0.981662
0.6886951340868769,0,0.996741
0.7135617569686397,0,0.970193
0.6749238570690794,0,0.954646
0.6323137273326399,0,0.971317
0.5016589633716719,0,0.994436
0.38310883464107975,0,0.976121
0.3456034340658505,1,0.999303
0.38821946680058195,0,0.808246
0.5368219583018767,0,0.971685
0.5474387458541377,0,0.932864
0.6356378768659168,0,0.922368
0.5849548260066378,0,0.935379
0.6294147879195647,0,0.974260
0.6357506353858422,0,0.972730
0.6365402157412394,0,0.996470
0.6971980449161241,0,0.981118
0.30865644953598204,0,0.968090
0.2664915473354856,0,0.968346
0.16305204341519022,0,0.983391
0.675750233760575,0,0.974777
0.4353252918158117,0,0.871356
0.3231581800236106,0,0.950656
0.31376525026309887,0,0.902761
0.15605972973611604,0,0.983487
0.14762710438335774,0,0.995878
0.08145072798086808,1,0.999070
0.3097861605028717,0,0.992680
0.1862829885514127,0,0.989059
0.036134839804791825,0,0.987002
0.057196893653364715,0,0.996631
0.09303060378772762,0,0.997130
0.06954807747869018,0,0.995957
0.08785896636346295,0,0.996083
0.18508249189025977,0,0.981797
0.18456510859241,0,0.995205
0.08885583766583936,0,0.985619
0.012305805461901086,0,0.993631
-0.012709542092113958,1,0.998491
0.03919190013418385,1,0.998718
-0.025625411568403762,0,0.990492
-0.022854621676454166,0,0.934380
0.376543869390617,0,0.876759
0.34404561881862444,0,0.998145
0.39789848372310305,0,0.996375
0.3848755779621881,0,0.975966
0.17593428792814436,0,0.922893
0.19412384171551733,0,0.962509
0.3772311860529586,0,0.995721
0.10300893626518522,0,0.987877
0.3039367711114335,0,0.974066
0.4454027393971514,0,0.975180
0.32294260941035136,0,0.980662
0.45565459347613035,0,0.944502
0.4800821341530813,0,0.990803
0.48940190062036854,0,0.996556
0.08070115565968644,1,0.998773
0.4826301629194393,1,0.999093
0.5043557636090216,0,0.680491
0.5064107183472963,0,0.951770
0.4526682364759052,0,0.672486
0.5009750883610751,0,0.972658
0.47538381983976735,0,0.989936
0.5070909253984052,0,0.957216
0.6449334123702489,0,0.959351
0.7345495220604733,0,0.957756
0.594148248479984,0,0.993370
0.5553383225207889,0,0.972450
0.5840581640698804,0,0.997188
0.5077510300143622,0,0.935530
0.34789556527348453,0,0.979932
0.47897317105805975,0,0.985462
0.5070921152791306,0,0.869157
0.4925276466009383,0,0.821798
0.3885080164724264,0,0.997767
0.3875709556805739,1,0.999784
0.6200655119514651,0,0.861895
0.8641227708010378,0,0.993703
0.40393935498336236,0,0.929740
0.4053952854912724,0,0.931877
0.48746132868402625,0,0.862275
0.34276842456301276,0,0.966288
0.3169246313343703,0,0.989225
0.021457709566259114,1,0.998374
-0.008886930645196413,0,0.921614
0.009230126425754395,0,0.860320
0.4496183476030344,0,0.946564
0.4657183845331579,0,0.763666
0.26670188602296047,1,0.997908
0.38372868370685786,0,0.987269
0.2527661145462278,1,0.999754
0.4620373563760372,0,0.733996
0.45341542663800694,0,0.973573
0.43496056881696754,0,0.978113
0.4592538795080841,0,0.922454
0.47630714228393856,0,0.749874
0.4512682414376463,0,0.941692
0.6160270832300444,0,0.992246
0.4979263458024688,0,0.926111
0.4975885057641108,1,0.997685
0.48293793441715066,0,0.902404
0.37037449432889025,0,0.990528
0.5535494518574439,0,0.997313
0.7213920703131765,0,0.979783
0.5361784869330058,0,0.980335
0.5030059677396328,0,0.953728
0.4185490203019809,0,0.979833
0.4370765625528842,0,0.970576
0.20126073005246553,1,0.998783
0.17956343806581962,0,0.992879
0.21432148493385228,1,0.997741
0.10855322624203069,1,0.999630
0.032476560878946174,0,0.997315
0.38185438736395133,0,0.787544
0.21541706777065486,0,0.996823
0.550154600664789,0,0.990317
0.3411620532684011,0,0.938988
-0.0058106554401579046,0,0.979935
-0.02940781894282755,0,0.985879
0.5238552105878427,0,0.941514
0.6304622704551798,0,0.998916
0.6782854183731326,0,0.979467
0.6343407589190573,0,0.970361
0.13949651123935658,0,0.990235
0.7141804226152735,0,0.986570
0.5103721497230961,0,0.959059
0.18016801195767954,1,0.999041
0.16316941187804984,0,0.968119
0.41096233626957235,0,0.858315
0.3001207492760467,1,0.997856
0.4494290867752334,0,0.862342
0.3927647098804307,0,0.854046
0.4803524727586397,0,0.816551
0.39308799789179794,0,0.790861
0.4771698455121046,0,0.868309
0.46160659909678414,0,0.804225
0.45378835215123187,0,0.921487
0.4602438567657652,0,0.989286
0.48529416817831655,0,0.967323
0.785432019730487,0,0.988633
0.5691026107894888,0,0.996575
0.7790884008711394,0,0.992408
0.7312080342446431,0,0.985090
0.460709393860159,0,0.943637
0.43726857405164465,0,0.976812
0.5041107354303621,0,0.958757
0.33344610224123417,0,0.982981
0.40227466750884094,0,0.976629
-0.018168329082175735,1,0.998796
-0.03481614813326652,0,0.996215
0.5106746521635844,0,0.836768
0.4963415527907905,0,0.834224
0.5937336119669582,0,0.918042
0.526951183105926,0,0.985865
0.5393552808358272,0,0.961587
0.5726814247423341,0,0.996079
0.5665859728509627,0,0.938681
0.5566402493141879,0,0.916031
0.09350299367827393,1,0.998310
-0.024085557744382077,0,0.983909
-0.01706023590876089,0,0.976760
0.5512756855188323,0,0.984065
0.657659141522414,0,0.993307
0.41849239704393826,0,0.970191
0.6268578592784982,0,0.972677
0.7744833096648994,0,0.978610
0.8108226941645935,0,0.972037
0.8093808995212489,0,0.993973
0.7365443324937856,1,0.999686
0.6883942543642028,0,0.932357
0.5300213339758064,0,0.984401
0.5260824338060339,0,0.912884
0.3826666065304413,0,0.983698
0.26005919907313524,0,0.995879
0.3252964173517697,0,0.962887
0.4520696137061505,0,0.898942
0.42989922495136074,0,0.996375
0.49491524748997545,0,0.862363
0.5741732452510753,0,0.986807
0.6293272478396807,0,0.997622
0.6962959307276934,0,0.982465
0.7373996786439916,0,0.990457
0.6908179338481137,0,0.997771
0.5910275066960674,0,0.979733
0.4208170063708219,0,0.973140
0.44874306401954167,0,0.959771
0.30817876355236734,0,0.953705
0.4557218951013737,0,0.981785
0.547465042868881,0,0.998565
0.5275482797975117,0,0.990397
0.6340054475721292,0,0.942644
0.45510112756307713,0,0.968010
0.6417079479608317,0,0.972433
0.46368849159388337,0,0.992953
0.4012409890416407,0,0.946859
0.7588965003964457,0,0.962125
0.7430613871353922,0,0.994172
0.5206772116170821,0,0.997507
0.5309584831311069,0,0.969139
0.7427822511381879,0,0.973494
0.6501445411335196,0,0.965477
0.47234339227240346,0,0.947783
0.3548337461208507,0,0.972331
0.31818412090855036,0,0.944183
0.42262303377875116,0,0.954483
0.645577232507447,0,0.987802
0.4760392573118809,1,0.998820
0.42297106213360464,0,0.962310
0.4159024785809516,0,0.951218
0.4051307158065677,0,0.934426
0.47889278260139073,0,0.880471
0.408136354706957,0,0.945743
0.6035659123971258,1,0.998945
0.5862927944176823,0,0.915277
0.7281445142088921,0,0.997590
0.5601578734894355,0,0.941714
0.5844510664515785,0,0.891589
0.5286039193885,0,0.924048
0.6146446217435796,0,0.958269
0.4522483147376425,0,0.990230
0.44387662171487996,0,0.956265
0.4121561394315738,0,0.993215
0.42419788242041556,0,0.997006
0.42836866064806717,0,0.951746
0.7087282152353467,0,0.985391
0.623709361828812,0,0.960545
0.44552110472813244,0,0.997784
