NaN,0,0.006226
-0.0076846173646339284,0,0.879368
-0.006978336455234008,0,0.871586
-0.006692674380012673,0,0.874150
-0.006191540442102382,0,0.881970
-0.00474846121680835,0,0.905017
-0.003645034902348782,0,0.899790
-0.0026581313502888225,0,0.909112
5.389477942014378E-5,0,0.905837
0.023979845906108688,0,0.945342
0.8224834360636636,0,0.785546
0.8390858800385164,0,0.999460
0.8003138139331839,0,0.991975
0.7727985873905999,0,0.997632
0.6473480398531967,0,0.999121
0.7034137698013904,0,0.990081
0.6870462473715812,0,0.994629
0.6355473793204075,0,0.994285
0.7132061083211317,0,0.996848
0.7438951955113204,0,0.997222
0.762021976816209,0,0.997533
0.7748915342551561,0,0.990565
0.8478093405304791,0,0.999513
0.9219413093201649,0,0.998050
0.8457060307178736,1,0.999804
0.8096546179386406,1,0.999957
0.8514700668949607,0,0.999563
0.8338574238569788,0,0.997556
0.8594719033510175,1,0.999978
0.889449386239158,0,0.988001
0.9019073002575427,1,0.999976
0.9169346396773486,1,0.999962
0.9148241605451767,0,0.999172
0.9197689434779031,1,0.999967
0.919488017579067,0,0.998975
0.9189625738220655,0,0.998889
0.9197618407245987,1,0.999922
0.9168340164695161,1,0.999775
0.9075339899369969,1,0.999984
0.7842578537555187,0,0.996506
0.7922122257785086,0,0.999537
0.8111522662683744,1,0.999736
0.838580249733202,0,0.998301
0.8409187401296239,1,0.999509
0.8464632093302444,0,0.999725
0.8534787507526053,1,0.999772
0.86510125148312,1,0.999824
0.8819058433645167,1,0.999932
0.8887623573145503,0,0.999582
0.8923456146572505,0,0.997370
0.8929059094544093,0,0.999512
0.8929693276013408,0,0.997916
0.8936838607133055,1,0.999767
0.8974316166447621,0,0.998251
0.8997560974380007,1,0.999923
0.9023895345728549,1,0.999911
0.905360669753897,1,0.999703
0.9039900517685703,1,0.999794
0.9087784677870705,0,0.983713
0.9165496713916509,1,0.999957
0.919501108492541,0,0.999512
0.9206578362345554,0,0.997190
0.9234586863113396,1,0.999758
0.9252742852928855,1,0.999638
0.9291582416944565,1,0.999348
0.9358627374549596,1,0.999985
0.940634896566401,1,0.999882
0.9484264663881753,1,0.999944
0.44123881906049794,0,0.986684
0.5521018971025481,0,0.998749
0.5764902573688161,0,0.996151
0.6296086810375567,0,0.998626
0.6569972243716786,0,0.999151
0.7249792081836762,1,0.999871
0.788855209785842,1,0.999887
0.79735111982534,1,0.999799
0.8202640860162018,0,0.987465
0.8533594606304669,1,0.999860
0.8826965659276776,0,0.999789
0.889052141245458,0,0.996860
0.8912329174905951,1,0.999722
0.8947629321616136,0,0.993345
0.9019059574153392,0,0.997562
0.9065149167904176,1,0.999625
0.9129921977741964,0,0.992318
0.9184457362712615,1,0.999980
0.9212949177081682,1,0.999923
0.9222904608130758,1,0.999960
0.9217612012227595,1,0.999910
0.9251004107953861,1,0.998880
0.9272477750081546,1,0.999676
0.926158468576432,1,0.999853
0.9281044414696028,1,0.999980
0.9286379107731638,1,0.999895
0.9307405010219095,1,0.999956
0.9331521304151739,1,0.999985
0.935808903455042,1,0.999904
0.9375750284874305,0,0.998109
0.9402995957963342,1,0.998995
0.9419358528238693,0,0.998356
0.9436720607019597,0,0.998250
0.9456122396578976,1,0.999957
0.9474456883772866,1,0.999489
0.9480827857349435,0,0.994964
0.9485574348303186,1,0.999772
0.9487142490757863,1,0.999909
0.950137612702982,1,0.999271
0.9512966433008531,1,0.999857
0.5834358486117853,1,0.999826
0.6036801411653302,0,0.973165
0.622308934082201,0,0.997719
0.6523781593365873,0,0.989565
0.6770254902858579,1,0.999845
0.704778175578856,0,0.995593
0.7312865293325392,1,0.999955
0.7496554176371611,0,0.998046
0.7662265592918225,0,0.997455
0.7811470140207329,0,0.992543
0.7847275010805582,0,0.997765
0.7867747743167678,1,0.999940
0.7956109394517346,0,0.999349
0.8011143279071693,0,0.995713
