0.05262065153899301,0,0.903778
0.0418300735053578,0,0.665641
0.01710636203986654,0,0.807076
0.0114170534152906,0,0.102084
0.05143867245611181,0,0.031990
0.06955788037609204,0,0.665341
0.046559995183971685,0,0.030399
0.045421007890746365,0,0.029931
0.11579236133566913,0,0.356790
0.09553715449526282,0,0.033603
0.15822423506197392,0,0.033776
0.16450999061442045,0,0.645810
0.1842883693506471,0,0.030929
0.09239632613834278,0,0.030699
0.06138060618978178,0,0.899288
0.04327401247687427,0,0.271510
0.05395543329179708,0,0.867554
0.11061962017948755,0,0.563707
0.10465209567188677,0,0.107359
0.15692276268809405,0,0.030131
0.30835457832165447,0,0.030226
0.27166036873145427,0,0.033783
0.2876662503647995,0,0.041371
0.3199290837816484,0,0.030259
0.38255382491724976,0,0.412921
0.4037332561438545,0,0.192211
0.47633531451159694,0,0.030076
0.4664743329438672,0,0.031950
0.3807759123371255,0,0.994125
0.23764088603744157,0,0.858306
0.21123293599862106,0,0.027251
0.16936275629531042,0,0.437576
0.3830431853790344,0,0.736961
0.6334598355884602,0,0.864517
0.622819352640802,0,0.930875
0.5425063003318406,0,0.946191
0.5708574251544388,0,0.153359
0.5392166711284817,0,0.972415
0.18581990793081038,0,0.972072
0.14568202583266468,0,0.973563
0.10292406239021216,0,0.973561
0.05387266525629178,0,0.974740
0.04511131805023086,0,0.556253
0.027727640974101967,0,0.974671
0.01747876263844468,0,0.973901
0.0057565601650020745,0,0.760234
0.15327276592375907,0,0.977577
0.029291036617603433,0,0.977371
0.02419048590060657,0,0.976966
0.010258956460497678,0,0.977563
0.0061228499219498755,0,0.544275
0.0049501101900262185,0,0.655786
0.14873155790470655,0,0.906972
0.13692324380624574,0,0.980009
0.004927154519137071,0,0.831649
0.004408898659375167,0,0.978683
0.0021568247594985885,0,0.887331
-0.0017273028479725498,0,0.691660
-0.0018325224677523564,0,0.648134
-0.0018853141916241357,0,0.337212
-0.0019000158665458664,0,0.921556
-0.002160799927833255,0,0.975747
0.1891829484515799,0,0.975276
0.06690848027847364,0,0.741987
0.06636265067962557,0,0.977454
0.03282808106632156,0,0.974335
0.024372214370697833,0,0.973309
0.01456098933244362,0,0.977044
0.0058127909603917765,0,0.954962
0.020202080985748706,0,0.994855
0.017370056554170524,0,0.998739
0.011240068852216638,0,0.811912
0.004804585933842246,0,0.942506
0.0024130518419902785,0,0.736967
0.0032448005043521537,0,0.985010
0.003028766565061574,0,0.980168
0.0012279812237043816,0,0.642969
7.848568028197859E-4,1,0.999941
-3.253702841475334E-5,0,0.765159
-2.2623704865566013E-4,0,0.755908
-0.0018721755029738594,0,0.722466
-0.0022146135915824742,0,0.979549
-0.002277476094713909,0,0.762540
-0.0022537499883660225,0,0.981209
-0.0023488849854415707,0,0.736827
-0.0025637512342808785,0,0.775287
-0.002493825478387568,0,0.980151
-0.0025843603096837716,0,0.724359
-0.0026682617663332793,0,0.980908
-0.0023638739740599966,0,0.713369
-0.001997111665700413,0,0.981850
-0.0020094385244327287,0,0.980902
0.010178743017086532,0,0.713758
0.007380394334534244,0,0.757113
0.007101069881620274,0,0.981514
0.006172805269059084,0,0.979128
0.0037709012847670256,0,0.737223
0.001074193187478333,0,0.743359
3.8411460574403465E-4,0,0.660967
-2.891065030621782E-4,0,0.981191
-6.564424648178653E-4,0,0.978043
-0.001034138075567895,0,0.996172
0.20561375625491715,0,0.564270
0.4094747036552034,0,0.723673
0.47277232520887164,0,0.527689
0.60266408274535,0,0.989529
0.5891929988631026,0,0.915600
0.5911728299942433,0,0.994219
0.5759341340850979,0,0.725444
0.43313501602742016,0,0.961740
0.39864848576389034,0,0.602527
0.30527986437939647,0,0.748994
0.0814278686832094,0,0.726559
0.07481770477337117,0,0.978823
0.01860982316517805,0,0.980067
0.009778649720267624,0,0.734041
0.003563984926230843,0,0.614232
0.0014996021936176263,0,0.640126
0.001070567388830556,0,0.972509
7.799664604351205E-4,0,0.980923
4.4721121045567474E-4,0,0.759603
-1.2706088091364375E-4,0,0.973915
-5.888430103049739E-4,0,0.979323
-9.822394323892015E-4,0,0.664807
-0.0010159329955110453,0,0.980073
-0.0014268976684926897,0,0.980093
0.008753020071314704,0,0.980541
0.005769787765048835,0,0.980176
5.376946112803871E-4,0,0.981570
-7.708343948810497E-5,0,0.745128
-0.0012257271715901046,0,0.576542
-0.0013685997125136204,0,0.922161
-0.001483669763023102,0,0.705116
-0.0014934348707888927,0,0.694098
-0.0016902047676931532,1,0.999992
-0.0017173832650747487,0,0.650978
-0.001861518690438967,0,0.976473
-0.001916136033306539,0,0.597583
-0.0019614898943717267,0,0.980009
0.019588568764954982,0,0.832390
0.06637511635303352,0,0.605877
0.07606029483558889,0,0.940226
0.15984795653165662,0,0.980505
0.436389289914465,0,0.714347
0.3953562527814685,0,0.771594
0.014880238766342542,0,0.793821
0.04087305271043424,0,0.498644
0.1837503493882016,0,0.347284
0.2556570001137935,0,0.185087
0.7256667959241669,0,0.907035
0.7283021174176508,0,0.812791
0.6758859361854787,0,0.434658
0.6501103740678534,0,0.252899
0.6250509317584584,0,0.809481
0.6103314967271601,0,0.958339
0.6689166423482137,0,0.903247
0.7134208185249485,0,0.885257
0.6540254405045536,0,0.778808
0.642584667504012,0,0.910606
0.49776889587417145,0,0.842473
0.44419882040073855,0,0.971055
0.1385110406920443,0,0.972238
0.22716763335800605,0,0.913799
0.2753168673533306,0,0.361831
0.2691998283065294,0,0.997694
0.26321225351262323,0,0.438871
0.28592886726434297,0,0.973656
0.2885377104536177,0,0.395055
0.2989345101230209,0,0.986621
0.32707442322217717,0,0.362887
0.3911324326000182,0,0.974431
0.6036209777378065,0,0.966763
0.6048931620227216,0,0.335611
0.5830639534962601,0,0.294568
0.41852218890242804,0,0.978576
0.3591187839834797,0,0.774105
0.3877436092550095,0,0.833414
0.31996975369225794,0,0.383677
0.11501608799405387,0,0.993162
0.053796856462822874,0,0.393338
0.038470716767476286,0,0.364475
0.032532818241557564,0,0.367605
0.00364174580615084,0,0.976149
0.0031878491631541768,0,0.366586
0.021434052277079667,0,0.983715
0.009705033298514684,0,0.923628
0.00771062399358008,0,0.989865
0.007269018488811787,0,0.234454
0.004472157547731163,0,0.988950
0.004211050599421064,0,0.983311
0.003186485813090929,0,0.809925
0.0026712797812967516,0,0.983094
5.232613922125467E-4,0,0.354516
-3.838655566888894E-4,0,0.983519
-7.307930155794581E-4,0,0.401238
-0.0011597074639477186,0,0.986590
-0.0012537576802629125,0,0.912899
-0.0012826730090947538,0,0.983792
-0.0013506667995722235,0,0.766617
-0.0013782838319017522,0,0.273466
-0.0015627887449311006,0,0.985048
-0.001601237134080773,0,0.740497
0.08060009876968047,0,0.416892
0.2946541392061338,0,0.986537
0.27250272136129167,0,0.981905
0.23533720934640978,0,0.303222
0.2291039133880561,0,0.245046
0.162787561317384,0,0.986151
0.1100743091736057,0,0.986763
0.1137969315489163,0,0.965260
0.15123761058490853,0,0.853604
0.07580146428955421,0,0.986933
0.06671778005400868,0,0.997874
0.06375522203744871,0,0.971988
0.015681955615808103,0,0.332844
0.01322560186992428,0,0.976587
0.009995800926292367,0,0.402469
0.008530808959353342,0,0.922214
0.008375907512228848,0,0.981150
0.0079803513714899,0,0.984171
0.005716951405346107,0,0.324860
0.003303783543680033,0,0.852408
0.0014041131993985465,0,0.985700
8.703339580715292E-4,0,0.250050
8.187837742456911E-4,0,0.745977
3.586726052446804E-4,0,0.975979
2.121769879294912E-4,0,0.912849
-3.072995743693356E-4,0,0.851621
-3.442213002936861E-4,0,0.986555
-4.5106753510690587E-4,0,0.276136
-8.849322900313403E-4,0,0.946587
-0.001104329230038741,0,0.986935
-0.0011652226404860228,0,0.986416
-0.0012084087968410881,0,0.743606
0.004443597116660359,0,0.985753
0.0035225992227991766,0,0.982510
0.0032851308646248893,0,0.987835
9.285009255140004E-4,0,0.916807
-3.98402064488049E-4,0,0.733890
-4.329262112852219E-4,0,0.984796
-4.5209842206734376E-4,0,0.988010
-5.901441243244918E-4,0,0.167151
-6.508541730220295E-4,1,0.999972
-7.837909091341265E-4,0,0.901554
-8.339947853578412E-4,0,0.983102
-0.001055298571730849,0,0.923362
-0.0011231313361021154,0,0.983903
-0.0012011682799445928,0,0.279597
-0.001189900303104684,0,0.984412
-0.001213824544065746,0,0.988072
-0.0012728245001196968,0,0.206803
-0.0012381099372676437,0,0.995358
-0.001307518192064267,0,0.389305
-0.0014400573338185848,0,0.870417
-0.0015062099528049121,0,0.970474
-0.0013999055994782803,0,0.986774
-0.001427727287201719,0,0.983939
-0.0020497090111696306,0,0.844155
-0.0018306888556398552,0,0.859791
-0.001884979987877402,0,0.984387
0.10154859669618202,0,0.994299
0.08661033380822317,0,0.887422
0.07378392071031141,0,0.870315
0.035773084919032645,0,0.899547
0.03267500259669274,0,0.987587
0.024772531683024825,0,0.817047
0.020334310893159672,0,0.979708
0.019050552405093697,0,0.232831
0.00756708876504267,0,0.926440
0.006905131737969452,0,0.986032
0.006488234269810077,0,0.987829
0.0016750130532597652,0,0.948208
0.001386818789261158,0,0.982245
-2.995565363410125E-4,0,0.843608
-3.5322030808009335E-4,0,0.936679
-3.7417240010069133E-4,0,0.993147
-5.339760719129803E-4,0,0.983433
-7.461113185721266E-4,0,0.639731
-8.826619372640932E-4,0,0.192801
-9.366168768242268E-4,0,0.987535
-0.001209670860965446,0,0.984912
-0.0012936840850585494,0,0.755006
-0.0013014709752421916,0,0.190756
-0.001316542979878904,0,0.984665
-0.001726293419935104,0,0.973995
-0.0016975447761024048,0,0.164947
-0.0013065028004174287,0,0.216375
-0.0015313548014428077,0,0.280920
-0.0013829012446618092,0,0.281491
-0.0017541885048963563,0,0.949094
-0.0018227854294894283,0,0.980843
-0.0018593233569580408,0,0.544371
-0.001893686443365155,0,0.985584
-0.002059105512049462,0,0.915144
-0.0020982255700099546,0,0.982140
-0.0021218034899374238,0,0.986802
-0.0021826538911602607,0,0.918799
0.021025555551103074,0,0.630098
0.42038762108911093,0,0.946805
0.321765119356809,0,0.989809
0.42052507908484366,0,0.999801
0.4416539631978725,0,0.241223
0.33991021496528134,0,0.175255
0.2619757666946491,0,0.916733
0.2309136325792961,0,0.653404
0.3926005919213187,0,0.999254
0.35941304811230196,0,0.983741
0.059683778218594344,0,0.339782
0.16937758688263013,0,0.926083
0.38329570582984585,0,0.293073
0.3745237364398061,0,0.862070
0.35017628003642964,0,0.874480
0.014438177822357448,0,0.934066
0.5186207028878403,0,0.999791
0.2531131091158858,0,0.991543
0.47327299512999516,0,0.931548
0.749883564955473,0,0.999781
0.5503751231964085,0,0.979624
0.6403531142231247,0,0.313224
0.5478222894354939,0,0.242872
0.5533298939884594,0,0.872020
0.4263496848376182,0,0.962748
0.1681655448092851,0,0.963349
0.18670208248055042,0,0.182928
0.18565372751921783,0,0.992433
0.18699706937437444,0,0.973353
0.17658775016554343,0,0.271852
0.16502120199007236,0,0.307298
0.16144204601662357,0,0.996940
0.14525564439738473,0,0.930040
0.13050711285428143,0,0.193416
0.010022892180956264,0,0.371700
-8.419815615629214E-4,0,0.989783
-6.238315922311044E-4,0,0.029549
-0.0011358360617863467,0,0.987795
-0.0011980361596715297,0,0.349734
-0.0010535856331142885,0,0.327182
-0.0011020864661599845,0,0.973308
-0.0011309542877054762,0,0.286886
3.7822080895169585E-4,0,0.228790
4.046137646894328E-4,0,0.969596
-2.9989540823475716E-6,0,0.972052
-6.008401099148697E-4,0,0.271454
-0.001261851359933697,0,0.251585
-0.0011064634023380023,0,0.880553
-0.001138296398310806,0,0.991685
-0.0011365603084887255,0,0.247265
-0.001078042591898782,0,0.988097
-0.001139575817621629,0,0.984980
-0.0011831588335626019,0,0.970474
-0.001070921858825693,0,0.986062
-0.0012087625604861173,0,0.216967
-0.0011998886657309691,0,0.971857
-0.001181023525140499,0,0.995173
-0.001227041914171316,0,0.230107
-0.0012009609972644475,0,0.974035
-0.0010723261880171873,0,0.281451
-0.001229260654529362,0,0.990488
-0.0012591167332869455,0,0.199432
-0.001287310323939654,0,0.982474
-0.0013024557590513885,0,0.984264
-0.0013024815224351202,0,0.258609
-0.001289496212818339,0,0.986289
-0.0012136430152601338,0,0.847226
-0.0012505763508866197,0,0.967001
-0.0012561559181079674,0,0.968059
-9.883369707927136E-4,0,0.968795
-0.0011037515923568242,0,0.032912
-0.0011622985126735095,0,0.977790
-0.0012456680846364488,0,0.986446
-0.00129959933562648,0,0.272882
-0.0013874592136445167,0,0.876647
-0.001532965506147531,0,0.016647
-0.0012156194938050327,0,0.984162
-0.0012419613311764424,0,0.982579
-0.0012792892814876412,0,0.967096
-0.001386658433002431,0,0.303410
-0.0015983017940549998,0,0.222625
-0.0015091826830187307,0,0.050352
-0.0012905924524438449,0,0.241743
-0.0013265697839040765,0,0.206035
-0.0013202308970553494,0,0.967604
-0.00126656118540479,0,0.301158
-0.0017663606415924268,0,0.919458
-0.0017518417603624556,0,0.892100
-0.0018541135016474644,0,0.995016
-0.0020874074657708207,0,0.260831
-0.002171185187261952,0,0.730344
0.17200257629569138,0,0.809274
0.5582002983286833,0,0.979083
0.3314686670100522,0,0.391042
0.2715740543619859,0,0.270965
0.023939331180038152,0,0.355210
0.10246400283052513,0,0.988240
0.017073464443037433,0,0.951691
0.009668101397532632,0,0.291837
0.0023632445362697574,0,0.746362
0.00874609820608848,0,0.650865
0.33429880658597205,0,0.953377
0.27021404985158476,0,0.639019
0.07270402200667696,0,0.838022
0.520530898242334,1,0.999993
0.6845324377740077,0,0.270502
0.4046426613568381,0,0.973755
0.09374976390886829,0,0.879799
0.40932376154961087,0,0.980244
0.09305955410043132,0,0.989747
0.7460713388899026,0,0.730988
0.663047804884089,0,0.971507
0.2916585823313891,0,0.367517
0.10897285260337479,0,0.816639
0.2585056887931974,0,0.813515
0.10267591664142378,0,0.850671
0.16590516721447515,1,0.999953
0.0943604577495865,1,0.999979
0.037994843900148303,0,0.829331
0.051053681864385726,0,0.961326
0.10980577051798973,0,0.363407
0.45111588716172146,0,0.932297
0.49362135846994193,0,0.880062
0.46466216232459273,0,0.593434
0.27931451515234645,0,0.780946
0.2623525415792892,0,0.542842
0.5785698522080299,0,0.999586
0.6208792504658225,0,0.856009
0.6246553796317714,0,0.955788
0.1943183423222246,0,0.328015
0.3900283345071175,0,0.978426
0.08691374182109103,0,0.634566
0.4084761398674113,0,0.909473
0.36440297845394304,0,0.983877
0.36287406548184015,0,0.914539
0.373567206351905,0,0.876411
0.322306503561861,0,0.278751
0.31451641199294983,0,0.340302
0.3359727881088861,0,0.986891
