0.6840576344914507,0,0.999759
0.8173732756721394,1,0.999987
0.7509887488338934,0,0.000068
0.8085838144704651,1,0.999936
0.8061270073619498,0,0.000070
0.8098929200121672,0,0.000071
0.8407936143563286,0,0.999892
0.7616423044559982,0,0.999904
0.7919060919791332,0,0.000074
0.8570202028174742,1,0.999993
0.7756370813214046,0,0.977573
0.8407698944281385,1,0.999992
0.8318568617331733,0,0.999662
0.7987252322645819,1,0.999991
0.7648025279067675,0,0.999753
0.7649011270780436,0,0.999758
0.8176686402480438,0,0.000098
0.7450807102274102,1,0.999993
0.824036523820552,1,0.999991
0.8501820406769007,0,0.742688
0.7784657029132015,1,0.999934
0.7820839266871208,1,0.999992
0.8093611859369472,1,0.999980
0.8124390734072718,0,0.989252
0.8132482541303967,0,0.999752
0.7145869642261511,0,0.744104
0.7425681362402369,1,0.999974
0.8070576058174164,1,0.999990
0.671927130453782,1,0.999990
0.8485558733076842,0,0.999813
0.8273325411811862,1,0.999993
0.8124113440451195,0,0.922919
0.8278255405641757,1,0.999947
0.8517078892055403,0,0.000062
0.9423648143281762,1,0.999993
0.8274949199220306,1,0.999992
0.7866808812483261,1,0.999991
0.7782003638137762,0,0.999843
0.79762951621181,0,0.951196
0.7901593469914178,0,0.999772
0.7914825785725693,1,0.999991
0.815129581117964,1,0.999986
0.7719362100488555,1,0.999993
0.8478374599230121,1,0.999994
0.8188246408373882,1,0.999993
0.8196598129419372,0,0.999773
0.8145322901743445,1,0.999976
0.7920521664334255,0,0.969815
0.8045803298944881,1,0.999990
0.8123831456317449,0,0.991228
0.755449678298512,0,0.868617
0.7566559701051432,0,0.950182
0.7748255991479681,0,0.945495
0.748968362422781,1,0.999993
0.7533338443383819,0,0.856207
0.760291820806047,0,0.868339
0.7970093506383893,0,0.964603
0.7335009848766793,1,0.999993
0.7836087455301474,1,0.999992
0.7804281324598553,0,0.895655
0.7419203090837828,1,0.999990
0.8640949319881911,1,0.999973
0.8763794482052817,1,0.999935
0.8891332133264225,1,0.999988
0.8781318383339999,0,0.999221
0.8345297911527676,0,0.960304
0.8392489413117711,0,0.984463
0.8375776751633793,1,0.999993
0.8376426051482092,1,0.999985
0.7216018836552476,1,0.999993
0.8382847374413872,0,0.998829
0.928812076841638,1,0.999993
0.8969126690880388,1,0.999987
0.8032964406168401,0,0.985542
0.7832840394294011,1,0.999993
0.8215906820908669,0,0.966590
0.8486299506570764,1,0.999980
0.866379170295619,0,0.986839
0.8388886348383889,1,0.999992
0.7746899752880538,0,0.972421
0.7199678211377927,0,0.973028
0.786446961055246,1,0.999970
0.797108368931285,1,0.999993
0.8120930359402461,1,0.999952
0.8438042557632757,0,0.972788
0.8049546059549496,0,0.978265
0.8171630669249083,0,0.965629
0.746535201010886,1,0.999991
0.7921089713569802,0,0.966670
0.8259131854567963,0,0.989952
0.83021592442947,1,0.999971
0.817293867443683,1,0.999964
0.8396085400061184,1,0.999993
0.76189395180947,1,0.999985
0.7624304656241124,1,0.999979
0.8234986625486892,0,0.979272
0.8242156444009171,1,0.999979
0.7703712793027669,1,0.999990
0.7342813670508519,1,0.999980
0.7643910257881144,1,0.999991
0.809904630462536,0,0.971631
0.8220318033400393,0,0.998057
0.8862521940097815,1,0.999991
0.86765744494334,0,0.999825
0.9170644968041413,0,0.999380
0.8496704370310676,1,0.999973
0.840599435571077,1,0.999992
0.836201055992041,0,0.972895
0.8408312235535422,1,0.999974
0.8062506307508837,0,0.987803
0.8060819168871792,0,0.996172
0.819476681311375,1,0.999935
0.8804387241101022,1,0.999986
0.8541104052941375,0,0.996324
0.8391177883870374,1,0.999966
0.8133848356854925,1,0.999991
0.8124423792340648,0,0.984888
0.8308353166050371,1,0.999988
0.7779177866853537,0,0.999843
0.8672596716624615,1,0.999987
0.8429162416594796,1,0.999987
0.877846988225415,0,0.970837
0.8769288969041465,1,0.999985
0.7131080945649645,1,0.999973
0.7722850676263038,1,0.999993
0.7810129626316382,1,0.999966
0.8084247786132283,1,0.999971
0.7913454309701741,0,0.999352
0.777776794396408,0,0.996619
0.6725967411812215,1,0.999974
0.7110371636331322,1,0.999955
0.7859187303278105,0,0.978636
0.831367421436638,0,0.993123
0.7785881963471628,1,0.999983
0.7304616912035187,0,0.999584
0.7034911080789981,0,0.995076
0.8199542211676109,1,0.999962
0.8245259222052231,1,0.999961
0.8337578099236986,1,0.999948
0.7679027686265877,0,0.999397
0.8575504114590781,1,0.999988
0.8695066173801573,1,0.999941
0.8190076266324552,1,0.999938
0.8197590759623332,1,0.999941
0.823742960750446,0,0.996655
0.8191127867766802,0,0.994843
0.7820589898203396,1,0.999989
0.7848238781335634,1,0.999992
0.7898972386173899,1,0.999974
0.8187209486031203,1,0.999993
0.8846297805737994,1,0.999993
0.7776216630079003,0,0.993999
0.7423824706055837,1,0.999986
0.7516397344175673,0,0.997896
0.7522612922621899,0,0.989940
0.8232965680727309,1,0.999990
0.8272161642918153,1,0.999983
0.7968324889422018,1,0.999993
0.7894338464306768,1,0.999993
0.6716377237808476,0,0.999902
0.8185816635909295,0,0.973160
0.805893163697091,0,0.968869
0.8369809935296826,1,0.999992
0.776786431780658,0,0.977730
0.8882311725051119,1,0.999993
0.772134605884285,1,0.999986
0.8386315401863507,0,0.982383
0.7684083961198889,1,0.999989
0.7705057693736951,1,0.999993
0.59407444256013,1,0.999950
0.8611282006922977,1,0.999990
0.6999925098205056,0,0.979371
0.7359153898052492,1,0.999964
0.8744953286285353,0,0.963207
0.8118169242335559,1,0.999980
0.7945865438608081,0,0.961114
0.8016962531941504,0,0.961067
0.8174281979755905,0,0.963992
0.8029741571939186,1,0.999922
0.7733791937669973,1,0.999992
0.8290287021250576,1,0.999993
0.6876799223722024,0,0.963288
0.8076498064125427,1,0.999919
0.8610311621725867,0,0.959614
0.8526382393302462,1,0.999987
0.8168344847778064,0,0.961875
0.9027039635457665,1,0.999973
0.8578188327369722,1,0.999951
0.9070820473384225,1,0.999991
0.6857698373445181,0,0.967380
0.8554522030434829,0,0.964815
0.815218622862573,1,0.999870
0.8160322785225893,1,0.999909
0.7968437486756303,1,0.999990
0.8258361026921452,1,0.999970
0.843852007467972,0,0.999898
0.8181425928012559,1,0.999951
0.7766340364413936,0,0.974114
0.8307648623867823,1,0.999993
0.8269209592574129,0,0.999817
0.8238623940238881,0,0.964372
0.8715071563064859,1,0.999964
0.8380607115803037,0,0.977578
0.8337570044937308,1,0.999970
0.7296848436983507,1,0.999993
0.877850966033868,1,0.999993
0.8368075628292289,1,0.999993
0.7896863123142313,1,0.999993
0.813981360185807,0,0.958810
0.8258084488624117,1,0.999991
0.8199601506568781,0,0.999908
0.8118185946313133,1,0.999993
0.8784824381431429,0,0.983098
0.8426517754276698,0,0.961796
0.8401949507916887,1,0.999951
0.8495898561981184,1,0.999992
0.797313779975147,0,0.962741
0.7607502421642262,1,0.999985
0.8366226994503041,1,0.999966
0.8451699676049451,0,0.960408
0.8232750742183157,1,0.999993
0.8136499056675185,1,0.999945
0.8580271456974385,1,0.999993
0.8869682784648023,1,0.999993
0.6893450864387065,1,0.999991
0.8270063011636966,1,0.999993
0.7392598822425561,1,0.999990
0.8289104878093281,1,0.999989
0.781780661343024,0,0.973896
0.780079188474461,1,0.999992
0.7545024698299287,1,0.999993
0.8051212230707435,0,0.969505
0.7994666179608264,1,0.999986
0.7089432247676608,1,0.999989
0.857543691518806,0,0.964294
0.8075194109822589,0,0.996965
0.8171596427209111,1,0.999993
0.7370337117317567,1,0.999959
0.8345176822859394,1,0.999992
0.8243687393594701,0,0.981951
0.8073081213201505,1,0.999993
0.8433484643229547,1,0.999992
0.849156287942205,1,0.999993
0.8642857000064036,1,0.999993
0.8610782454085294,1,0.999990
0.8883427122769555,1,0.999973
0.8471536886656899,1,0.999989
0.7986958027999607,1,0.999993
0.8755126239137857,1,0.999992
0.8277628431504956,0,0.975706
0.8338432378222193,0,0.999732
0.831545553716217,1,0.999967
0.7892800697695261,1,0.999993
0.7326712786348262,0,0.999865
0.820952753904917,1,0.999993
0.8504611170964421,1,0.999990
0.8920066518538983,1,0.999993
0.7397695015658796,1,0.999990
0.8354979561592206,0,0.960093
0.8250693211655358,1,0.999987
0.8132234608858732,1,0.999980
0.8145279334451635,1,0.999929
0.8906839004687785,1,0.999803
0.8785696485916967,0,0.961141
0.9489504317585388,1,0.999989
0.8875555499796204,1,0.999969
0.8622526479154563,1,0.999979
0.777225757234,1,0.999988
0.9098831039228802,0,0.991252
0.9039721547769851,0,0.976111
0.8240987383263277,1,0.999880
0.788370232981451,0,0.999355
0.8666140119649736,0,0.962850
0.7448523299215659,0,0.963527
0.8942562220564401,0,0.999899
0.7349746408291968,0,0.967825
0.8876617156434633,0,0.999832
0.8175850800972755,0,0.997793
0.8110583839355714,1,0.999993
0.8156513670692466,0,0.965015
0.8440923607923403,1,0.999993
0.8176108765102593,1,0.999991
0.7971391949702619,1,0.999968
0.897269253817116,1,0.999990
0.7987468084007474,0,0.999707
0.8457694750578386,1,0.999992
0.8257242321377174,1,0.999967
0.8699717008395512,1,0.999984
0.8913066285662876,1,0.999979
0.8883688987346176,1,0.999956
0.8141624887115851,0,0.990889
0.9066613924108783,0,0.995888
0.8288271279564684,1,0.999977
0.8181006599072935,0,0.991021
0.800620486989933,1,0.999984
0.8191258100618718,1,0.999986
0.9397887125439907,1,0.999993
0.7366694428238085,0,0.962513
0.8307612859073806,0,0.966659
0.8237579066751138,0,0.999778
0.8095658805668426,1,0.999993
0.785396610936866,0,0.972220
0.6999471445038448,1,0.999984
0.7119828010603937,0,0.978135
0.8531874580045137,1,0.999972
0.8013035439881627,0,0.992498
0.8434178581396691,1,0.999993
0.739445682345708,0,0.962608
0.8545727058734286,0,0.998037
0.7867207038031068,1,0.999993
0.8218474010017414,0,0.959312
0.8408502577861209,1,0.999993
0.8581683063301582,1,0.999992
0.7488495002208189,1,0.999986
0.7544135043356942,0,0.994392
0.852313353746256,0,0.999265
0.8094322376550156,0,0.966575
0.896821449788272,1,0.999990
0.8103481348813683,1,0.999984
0.8249163703250352,1,0.999988
0.742950403875322,1,0.999981
0.9078437028221886,1,0.999974
0.7742729723024953,0,0.959041
0.8749487195251473,0,0.957998
0.8271515434145916,1,0.999991
0.8010402043927213,0,0.972013
0.811070087475784,1,0.999992
0.8003548914949691,1,0.999973
0.7975645042477558,0,0.959210
0.802409763766021,1,0.999992
0.8173500614707068,1,0.999984
0.8094544078471037,0,0.965524
0.8334391247359598,1,0.999946
0.8592032946491682,0,0.958984
0.8456791916685995,0,0.982838
0.8842538068806909,1,0.999986
0.8450545724641224,1,0.999991
0.7856010805651993,0,0.999108
0.7833055393327404,1,0.999993
0.8889118497252304,0,0.953668
0.7853003633034458,0,0.951360
0.8052678687412086,1,0.999989
0.8754966467993313,1,0.999993
0.8588676039100193,1,0.999993
0.8587458167294686,1,0.999992
0.8738477802368549,1,0.999951
0.8134502991254242,1,0.999979
0.8605390225605704,0,0.980210
0.7787778622154353,0,0.970751
0.9055441099253293,1,0.999989
0.7991885888785559,1,0.999978
0.840401838752971,1,0.999986
0.876057083609451,1,0.999952
0.9809177708432115,1,0.999988
0.9088351404185427,0,0.961021
0.8458888209211075,1,0.999989
0.8655882167137581,0,0.964661
0.9628266545021479,1,0.999958
0.9405826204160189,0,0.999768
0.8749735557045756,1,0.999986
0.9557329911437881,1,0.999944
0.9578791357127555,1,0.999985
0.8404154330202732,0,0.952807
0.9408915270849996,1,0.999985
0.9625953983983379,0,0.997559
0.8688365114599893,1,0.999986
0.9468818238822486,0,0.999809
0.7878558260334643,1,0.999991
0.83700988914666,1,0.999980
0.794419346274094,1,0.999993
0.8908770721971166,1,0.999972
0.8041482813084438,0,0.999898
0.8203226529974567,1,0.999993
0.7910369323009367,0,0.991839
0.8631704838754102,0,0.996119
0.8784629324581307,0,0.993972
0.8633484535654037,0,0.964062
0.8572391603518075,0,0.999839
0.8855016293693576,0,0.960140
0.8645766957571083,1,0.999992
0.8873441370800561,0,0.959425
0.8472440843494147,1,0.999987
0.7751189441737799,1,0.999992
0.8674360120405432,0,0.999921
0.8417936944584732,1,0.999988
0.9095420079238734,0,0.939960
0.9111481244832175,0,0.949149
0.8820431083343151,1,0.999809
0.95410933586666,1,0.999969
0.9326696397189964,1,0.999949
0.881904453476551,0,0.976685
0.8274532097518452,1,0.999824
0.9440140078254653,1,0.999775
0.9132927363153758,0,0.998784
0.9811376194043882,1,0.999956
0.9000759379531175,1,0.999970
0.9369173735919917,1,0.999968
0.9645571761901514,1,0.999968
0.9262185892792827,0,0.998705
0.820128827440781,1,0.999993
0.9103216417066655,1,0.999992
0.9053035414316966,1,0.999984
0.909740431590765,0,0.999814
0.9032253192024343,0,0.990224
0.8962314425690157,1,0.999991
0.8952847942936246,1,0.999992
0.8374748835728776,1,0.999991
0.7850923174715406,0,0.999905
0.7753293274862156,1,0.999993
0.8254999984617067,1,0.999991
0.8362175241265863,0,0.999888
0.8492785587499714,0,0.950393
0.8426494916448154,1,0.999993
0.8192444649628712,0,0.983627
0.8309812740434412,0,0.978803
0.9052596489848004,1,0.999974
0.8367855916803493,0,0.999789
0.8379115997503259,0,0.976993
0.8773432751570142,0,0.983702
0.8266508008887792,1,0.999945
0.6890175357496242,1,0.999854
0.8180737187443146,0,0.965613
0.8701425160079544,1,0.999986
0.9123404049080791,1,0.999983
0.9195042124094632,1,0.999993
0.9378855121683953,1,0.999993
0.8406752802422237,0,0.999788
0.8812987103979852,1,0.999986
0.8435361497566535,1,0.999992
0.8754221245297439,1,0.999993
0.7980272726131104,0,0.999688
0.8292676961114465,1,0.999991
0.7932403085821559,0,0.999859
0.8941761266604985,1,0.999989
0.9046791657772358,0,0.944832
0.9397500569238062,1,0.999964
0.8469151887981855,1,0.999992
0.7075949935018113,1,0.999975
0.9647262359239994,1,0.999974
0.9757644281299285,1,0.999993
0.895074375620836,1,0.999993
0.826655421875022,1,0.999973
0.7815865328877482,1,0.999993
0.782748753911237,1,0.999992
0.8909383717399568,1,0.999991
0.8414688801712218,1,0.999993
0.8552100098400698,1,0.999953
0.8783130790544782,1,0.999978
0.8221980921953705,0,0.999119
0.9169029386465549,1,0.999948
0.8476812826807787,1,0.999991
0.8476673214813888,1,0.999968
0.8168704993572692,1,0.999987
0.8729548810758494,1,0.999979
0.8605735496209181,1,0.999988
0.7861288834265644,0,0.940988
0.9420308655713427,1,0.999984
0.9385250194616439,1,0.999965
0.9242756372705097,1,0.999902
0.8911660233172395,0,0.982007
0.8935934812399873,1,0.999985
0.8938393872728955,1,0.999988
0.8881492746085974,0,0.969412
0.8955191043985516,1,0.999558
0.8508494007767873,1,0.999987
0.8259246750429275,1,0.999782
0.929215914982773,1,0.999993
0.8003451570666499,1,0.999993
0.7870261224437366,1,0.999983
0.9388085808867472,1,0.999794
0.8774598277646742,0,0.994340
0.8392128097542542,1,0.999985
0.8123897191982544,1,0.999984
0.9511877391625421,0,0.974362
0.818732655389105,1,0.999979
0.8624990835608042,1,0.999993
0.8185624744538945,1,0.999993
0.9105457493235751,0,0.999804
0.8159371829340096,1,0.999992
0.7920701990002833,1,0.999993
0.9181208801098228,1,0.999987
0.8238450669513041,0,0.999851
0.8097099096317154,1,0.999945
0.88410590935463,1,0.999979
0.8629474932046016,0,0.939839
0.874795773097366,1,0.999988
0.8309713797257077,0,0.950387
0.8821625823606322,0,0.989154
0.9176265900818544,1,0.999993
0.8928086996767508,0,0.944560
0.8184189109988467,1,0.999933
0.8304210815388882,0,0.992286
0.8373176936125993,0,0.986298
0.829662725034866,0,0.967183
0.918368199489159,1,0.999990
0.8022255529641616,1,0.999977
0.9184396531771457,0,0.999844
0.8142130891163514,1,0.999993
0.8607548361096746,1,0.999993
0.8520492990201931,1,0.999927
0.7345702906867916,1,0.999992
0.8306211165358075,1,0.999977
0.9179648898887168,1,0.999954
0.8503038078480004,1,0.999989
0.9405387387841648,1,0.999972
0.9384224747662553,0,0.988441
0.905536672533708,0,0.966070
0.8717793427114975,1,0.999990
0.9631251578263228,1,0.999984
0.9509428700438023,1,0.999984
0.960135450636484,1,0.999953
0.9559149106869187,1,0.999984
0.7615683065866202,1,0.999973
0.9660747711723812,1,0.999985
0.9124995589644864,0,0.999782
0.8418655976263256,1,0.999992
0.8639481220605194,1,0.999993
0.7786876324883231,0,0.993186
0.896583011562511,1,0.999993
0.8468249677302441,1,0.999978
0.867770234776901,0,0.999473
0.8272999079459681,1,0.999993
0.6688923322569666,1,0.999987
0.9067014181943055,0,0.999756
0.9099608770600296,0,0.961223
0.9131706370277977,1,0.999951
0.957995135528877,1,0.999980
0.934235304578751,0,0.999771
0.8082413569680571,1,0.999993
0.860860866794247,1,0.999992
0.8895937804449429,1,0.999989
0.889446175303022,1,0.999993
0.8745272174795724,1,0.999991
0.9143940550470342,1,0.999992
0.8947333625296037,1,0.999993
0.8602196927420293,0,0.999863
0.9119545067250292,1,0.999991
0.8912960461224073,1,0.999993
0.8338672299340079,1,0.999993
0.9044001014791849,1,0.999993
0.7931910547329485,1,0.999993
0.9233956747994579,1,0.999983
0.9473454222441253,1,0.999986
0.7236337035646163,1,0.999993
0.8411478820264567,0,0.963619
0.8392448074491357,1,0.999992
0.8935996714435838,1,0.999993
0.9471028907140462,0,0.957959
0.8432449136680386,0,0.983221
0.8366584446453011,0,0.961438
0.8385041097799714,1,0.999592
0.8332554989536947,1,0.999993
0.8602947075845023,1,0.999990
0.7942688262144356,1,0.999993
0.8661122276053802,0,0.999826
0.7740877925635024,1,0.999992
0.8512279463954098,1,0.999993
0.6841047406947323,0,0.953835
0.835716572299308,1,0.999993
0.9026870457070698,0,0.957166
0.8201929845349855,0,0.951135
0.8333127501392295,0,0.959461
0.9114245312286997,1,0.999826
0.8360622809528856,0,0.999155
0.8754640923257285,0,0.982240
0.9421901584293667,1,0.999990
0.9295696849973923,1,0.999993
0.9016721395003899,1,0.999992
0.9606882622648468,1,0.999913
0.927587698184965,1,0.999983
0.8318016402535978,0,0.981274
0.7956419883927477,1,0.999985
0.889543260854428,1,0.999989
0.8654018789407227,0,0.964151
0.9669744563586995,1,0.999934
0.8742094303979542,0,0.999759
0.8307846079207474,0,0.978485
0.9050828449041404,1,0.999989
0.8828144913836868,1,0.999993
0.8637906019573031,0,0.970198
0.8504824700618665,1,0.999987
0.880632557247814,1,0.999985
0.8863939911513709,1,0.999987
0.9497792166970153,1,0.999960
0.899808629150293,0,0.999871
0.7627730108005327,0,0.997496
0.9753420915736702,1,0.999973
0.9218108801264444,1,0.999974
0.9671980253969252,1,0.999986
0.9768723342892704,1,0.999987
0.9496961149520543,1,0.999970
0.9740971356171114,1,0.999987
0.9738033660775756,1,0.999993
0.8659873440402119,1,0.999992
0.756438785372994,1,0.999992
0.8096443197060808,0,0.997178
0.9058711241779405,0,0.972817
0.8427790404336583,1,0.999989
0.7475936029842678,0,0.971890
0.8383114234303363,1,0.999992
0.885469889090841,1,0.999993
0.900880559446014,0,0.999804
0.924402880629017,1,0.999931
0.9089303305313261,1,0.999981
0.9580818316575961,1,0.999982
0.8504355075059483,1,0.999985
0.9313346513750009,1,0.999937
0.9355386328203775,0,0.999806
0.9528624866344819,1,0.999992
0.9003554745343066,1,0.999989
0.8671301878255477,0,0.969355
0.8788873314231361,1,0.999991
0.9031309068369805,1,0.999993
0.9194050708065888,1,0.999993
0.9399373878342006,0,0.947037
0.9120104576828822,1,0.999981
0.9612373004587187,1,0.999971
0.8742723488915439,1,0.999990
0.8345335524629666,0,0.970356
0.8972492202754698,1,0.999985
0.9129417962627645,1,0.999987
0.8956761975210933,1,0.999985
0.9745015372403676,1,0.999905
0.9744766472820533,1,0.999977
0.9530943905363527,0,0.999171
0.9003604842900061,1,0.999893
0.958556267202335,1,0.999967
0.9432050424739864,1,0.999980
0.9374763494967578,0,0.999186
0.8949123524304636,1,0.999915
0.8143460154171671,1,0.999992
0.9402956134423176,0,0.951932
0.8317621492692685,0,0.999903
0.8452546681826726,1,0.999990
0.9637598748164866,1,0.999980
0.9667019862974284,0,0.999749
0.9113362986967846,1,0.999979
0.8830785775001011,1,0.999992
0.8263188132037306,1,0.999992
0.8329990584521021,1,0.999992
0.8711538878101891,1,0.999993
0.8943343338559757,1,0.999983
0.9067294622848925,1,0.999993
0.8590190127291708,0,0.997039
0.9218147190954404,0,0.938019
0.826311292728592,1,0.999953
0.8994372746888312,0,0.934306
0.9155957108451933,1,0.999940
0.9147871004026961,1,0.999991
0.8439536562760448,0,0.990446
0.8442555109077425,1,0.999972
0.8846519900302084,0,0.999908
0.9361106912095364,0,0.980826
0.8793267788089135,0,0.969844
0.8859412335889628,1,0.999993
0.8620579221274705,1,0.999993
0.9310915716828538,1,0.999993
0.8715415688411803,0,0.962939
0.9367189998100878,1,0.999988
0.9023718699654547,1,0.999969
0.8998190211169138,1,0.999942
0.8997683464869498,1,0.999387
0.7547465139233756,1,0.999988
0.8682178066559413,1,0.999985
0.8750117599977512,1,0.999921
0.9509505903264622,0,0.999603
0.8596630908929761,1,0.999991
0.8449163188605804,0,0.999348
0.8441265203438735,1,0.999883
0.8256730561863774,1,0.999988
0.8106512054815963,0,0.999707
0.9600544684149261,1,0.999979
0.976000802734087,1,0.999980
0.9490164709654302,1,0.999974
0.9524692279764846,1,0.999872
0.9772044482753482,1,0.999971
0.9612016562081266,1,0.999940
0.8996628540920314,1,0.999992
0.8502520893641655,1,0.999937
0.8766184040408229,0,0.999722
0.8392357797249234,1,0.999993
0.8745457943997464,0,0.978477
0.9493615824536054,1,0.999989
0.9463639849674934,1,0.999988
0.9382370260119686,1,0.999985
0.9365648460661393,0,0.999511
0.8775640713012922,1,0.999993
0.8791760341927518,0,0.954356
0.8730917267112683,1,0.999992
0.9029118225535538,1,0.999992
0.9337537276908133,1,0.999986
0.9203441716630553,1,0.999992
0.9085271617395376,1,0.999993
0.9110738895809807,1,0.999953
0.8777538858333552,1,0.999945
0.9024891177196147,1,0.999993
0.9630825495966265,1,0.999817
0.8930684709586281,1,0.999903
0.9698883781294185,1,0.999980
0.9633289033266091,0,0.999162
0.9457138150361015,1,0.999958
0.9558922356938814,1,0.999972
0.9696958447703506,1,0.999945
0.9066464765488618,1,0.999863
0.9640548704878787,1,0.999937
0.9614926511718632,1,0.999876
0.8304747933460042,1,0.999979
0.8894128670443645,1,0.999993
0.8840880279324854,0,0.999846
0.802012064971589,1,0.999986
0.9129266021179822,1,0.999991
0.9559184124280243,0,0.999662
0.79701210914683,0,0.999917
0.8738231327922927,1,0.999993
0.9010664613235214,0,0.999802
0.8736255457647095,0,0.996355
0.842798133627105,0,0.999816
0.8556677769029403,1,0.999992
0.924351711480047,1,0.999993
0.8423368181057461,1,0.999992
0.8565708284258832,1,0.999981
0.9459947007112445,1,0.999980
0.9470721397023555,1,0.999974
0.9615200875757521,1,0.999993
0.9185547526576098,0,0.951750
0.8259034096917399,1,0.999992
0.9370518721559532,1,0.999986
0.9424093367815818,1,0.999993
0.8586464178495112,0,0.922176
0.9291932970257669,1,0.999955
0.8784213793733642,1,0.999993
0.906230381999022,1,0.999991
0.841987250065027,1,0.999993
0.91718892181071,0,0.999728
0.9020052925264245,1,0.999992
0.9184364136872051,0,0.967312
0.9845661176318558,1,0.999974
0.9174492875038053,0,0.996745
0.9531690315259768,1,0.999983
0.9741966189649611,1,0.999978
0.9732087146634684,1,0.999981
0.944446658181819,0,0.997965
0.9670121231705296,1,0.999964
0.9580135877129478,1,0.999890
0.9049602252613234,1,0.999971
0.8137438801048489,1,0.999980
0.8350739795896215,1,0.999963
0.8790493862608949,1,0.999985
0.9645826259099117,1,0.999941
0.9451653963897401,1,0.999987
0.9299650135388104,0,0.993991
0.8620914262340144,1,0.999991
0.8808416052947152,1,0.999993
0.7858005962488631,1,0.999993
0.8041305655285773,1,0.999993
0.9567651878241277,0,0.999915
0.8580415328224701,1,0.999818
0.8119202948363659,0,0.999682
0.9007100334147476,0,0.999818
0.8409625168333168,1,0.999993
0.9324158693257499,1,0.999993
0.8536930939660943,1,0.999993
0.8421426339577586,0,0.997097
0.8625743668950195,0,0.999630
0.8363075976307349,1,0.999993
0.9525500418243599,0,0.986625
0.8841215058893394,0,0.999819
0.8993458246226704,1,0.999952
0.897630380648322,1,0.999907
0.970530158112466,1,0.999956
0.958403134981781,0,0.999785
0.87733025121514,1,0.999975
0.9408175273334224,1,0.999982
0.899686979586703,1,0.999993
0.7747688082386226,0,0.956359
0.941703003739477,1,0.999993
0.8331654204468378,1,0.999993
0.9146229659498106,1,0.999855
0.9414641222451323,1,0.999979
0.9268013526613119,0,0.999847
0.9327252150197892,0,0.943971
0.8366314813656706,1,0.999990
0.9458098282684764,0,0.949776
0.9675793435055352,1,0.999778
0.9511932387726934,1,0.999893
0.9323863285167122,1,0.999924
0.9235955530289071,1,0.999889
0.9726478539494114,1,0.999955
0.9700366276007734,1,0.999978
0.9607140768196831,1,0.999973
0.9701612582889468,1,0.999979
0.9252979891589224,0,0.999881
0.9029879803614798,0,0.974158
0.8860996620623973,0,0.964733
0.7902295452184313,1,0.999931
0.890562472139609,1,0.999992
0.9027288624071869,0,0.948928
0.9701910559497515,1,0.999981
0.9494702356148758,1,0.999953
0.9001335787102712,1,0.999992
0.9460630417138091,1,0.999991
0.9362415949456225,1,0.999970
0.8729300668984258,1,0.999983
0.9711526374190741,0,0.994590
0.9278086604294897,1,0.999968
0.9610674941287572,1,0.999977
0.8462646721169469,1,0.999966
0.7992446375827058,1,0.999991
0.9196912184523585,1,0.999986
0.9580680971980781,0,0.979673
0.9675769956619688,1,0.999970
0.9821018283610103,0,0.999673
0.978625056364668,0,0.998081
0.9352103887355275,1,0.999993
0.9129639928906534,1,0.999992
0.8756557964025823,1,0.999993
0.8924537079707469,1,0.999993
0.8187060788635573,1,0.999993
0.84398313523239,1,0.999993
0.7889108125942633,1,0.999990
0.9776152755798152,1,0.999966
0.9478646587938574,1,0.999956
0.8300404459323985,1,0.999992
0.9059510804160193,1,0.999991
0.9052036874845399,1,0.999986
0.9497549231970188,1,0.999987
0.8461848636701799,0,0.974582
0.9212862484573038,0,0.998287
0.9398708004080897,1,0.999986
0.9325399631817759,1,0.999993
0.7224431869724207,1,0.999943
0.9559990535936309,1,0.999978
0.966566701474049,1,0.999985
0.9349079959923593,1,0.999993
0.9017689105192181,0,0.988539
0.8828487309953426,0,0.999871
0.9200804013924275,1,0.999993
0.8516380340741708,0,0.993711
0.93077745500341,1,0.999993
0.7974322455938866,1,0.999980
0.8508221060130581,0,0.941597
0.8328620143235101,1,0.999966
0.9506335639127068,1,0.999985
0.9132968618105798,1,0.999955
0.9461841778360013,1,0.999944
0.9387691183862574,1,0.999886
0.9544805474745063,1,0.999985
0.963083592218679,1,0.999914
0.9840232534015602,1,0.999980
0.9555796961699028,1,0.999984
0.9814195182546016,1,0.999983
0.9491361268157238,1,0.999993
0.8867295575732386,1,0.999991
0.8793745126581933,1,0.999991
0.9535691280273518,1,0.999735
0.8898026305247859,0,0.999733
0.9175273118622125,1,0.999939
0.9451358383493034,1,0.999986
0.938394850751378,1,0.999975
0.9215712948654324,1,0.999979
0.9214967954709804,1,0.999990
0.96577102226585,1,0.999980
0.942490716904407,0,0.981441
0.8640865446511566,1,0.999992
0.841155575856265,1,0.999992
0.8933904753370328,1,0.999987
0.9072684096689075,1,0.999976
0.9567704074293493,1,0.999948
0.9623641390430314,1,0.999867
0.9444600669306467,1,0.999925
0.9738990038189929,1,0.999863
0.9724354288249893,1,0.999952
0.9718552212215643,1,0.999974
0.949221385867765,1,0.999979
0.9352133666029133,1,0.999981
0.967409745980193,1,0.999973
0.929597784358072,1,0.999993
0.8214730013186581,1,0.999985
0.7105389791350498,1,0.999993
0.885552792924052,1,0.999993
0.9100944047326269,1,0.999993
0.9275342748209634,1,0.999993
0.9150451437296411,1,0.999993
0.9460440059261374,1,0.999986
0.8841365025689463,1,0.999941
0.9679796281325412,1,0.999959
0.9103669077801172,1,0.999993
0.8288013527265115,0,0.999208
0.8425651196897314,0,0.943003
0.8382659874405575,1,0.999993
0.9044784967439136,1,0.999992
0.8258553531825095,0,0.959328
0.9121582649082371,1,0.999923
0.9560249890557457,1,0.999978
0.9738072309025861,1,0.999986
0.9670510349396623,1,0.999986
0.9483062135024978,1,0.999993
0.8036613687155881,0,0.967334
0.9092941961891613,0,0.948089
0.9259354624060622,1,0.999992
0.9086792448449102,1,0.999983
0.9325643646567001,1,0.999985
0.8261268537207411,1,0.999965
0.829870653325451,1,0.999991
0.7896087907931736,1,0.999850
0.9679431181189595,1,0.999978
0.9620131348684383,1,0.999988
0.9381417758769205,1,0.999950
0.9217398995534402,1,0.999983
0.930340859144368,1,0.999981
0.9758673784684105,1,0.999941
0.9602296886467657,1,0.999947
0.9610374981017348,1,0.999977
0.9752982041798963,1,0.999983
0.9377139756421683,1,0.999993
0.869308823560565,1,0.999993
0.8221127975361522,1,0.999992
0.9373689043057076,1,0.999991
0.966269094960053,0,0.999076
0.9408865573217439,1,0.999959
0.9462935391179055,1,0.999993
0.9113026418739911,0,0.938688
0.9420927968840583,0,0.999852
0.8922103194533461,0,0.976271
0.9292710197115797,0,0.998740
0.8842038627096462,1,0.999992
0.8498785774833979,1,0.999985
0.9356887112822,1,0.999973
0.9142143930810357,1,0.999992
0.887222898051682,0,0.997047
0.9400415990891346,1,0.999993
0.9432383985188764,1,0.999991
0.9163791839520886,1,0.999993
0.7890043966759267,1,0.999930
0.840604624757967,1,0.999953
0.9735548246313274,1,0.999979
0.9249844564044527,1,0.999923
0.9344260214955759,1,0.999892
0.9476725551272207,1,0.999993
0.9532698679793121,1,0.999975
0.9603453788815184,1,0.999980
0.937641171272959,1,0.999978
0.9055575356742207,0,0.912946
0.8942413204753977,1,0.999993
0.889866254236145,1,0.999976
0.8525341200741482,0,0.995446
0.8170270309896908,0,0.999774
0.9206566471185901,1,0.999990
0.9469182534811371,1,0.999993
0.7854463922545767,0,0.930905
0.940840943417694,1,0.999990
0.8983149178555149,1,0.999987
0.9131894401247859,1,0.999912
0.9563597735575914,1,0.999961
0.9735020067760805,1,0.999976
0.9635337899753265,1,0.999971
0.9622324788414629,1,0.999980
0.9732670957194567,1,0.999993
0.8509820764739988,0,0.993812
0.9030377960654952,0,0.904385
0.9629053576048162,0,0.952673
0.9608264714672161,1,0.999892
0.980176204920963,1,0.999976
0.8843417248108132,0,0.943568
0.8903171267628603,1,0.999990
0.9463336357185591,1,0.999977
0.949454757831044,1,0.999927
0.953257913735058,1,0.999993
0.9187644384508838,1,0.999993
0.9461198569971414,0,0.999729
0.5928580758028972,1,0.999921
0.935053767240394,1,0.999993
0.9541952248724285,1,0.999989
0.9181690072951287,0,0.998733
0.975526204539121,1,0.999992
0.9231789557003112,1,0.999993
0.8528980525424537,1,0.999993
0.8848143977526907,1,0.999977
0.8998837483421145,1,0.999992
0.8764216063097366,0,0.999898
0.9167580575769237,1,0.999993
0.8465252145536751,1,0.999976
0.7629561238036462,1,0.999992
0.9098955938930805,1,0.999925
0.9387167698505492,0,0.999751
0.8828271275111107,1,0.999931
0.7996201549196833,0,0.999908
0.8989212294481866,0,0.979909
0.9357720663978034,1,0.999890
0.8576624155792552,0,0.999653
0.9196406043711327,1,0.999980
0.8888196059945355,1,0.999989
0.9228267060744259,0,0.999763
0.922494446512601,1,0.999990
0.8821204854675311,1,0.999992
0.8112750790672455,0,0.956879
0.9115529480082986,1,0.999993
0.9308950645579182,1,0.999986
0.9570622774873723,1,0.999978
0.957553145829863,1,0.999983
0.9133437418656577,1,0.999972
0.9694800142393796,1,0.999886
0.9742316026380944,1,0.999851
0.975721769237324,0,0.999724
0.9659711891305456,1,0.999979
0.9747904522254973,1,0.999980
0.9791762615372405,1,0.999993
0.9257869095670884,1,0.999967
0.8623339068589645,0,0.999827
0.8773256567176574,1,0.999986
0.8490350130317683,1,0.999974
0.9555396722345947,1,0.999980
0.9831632666790378,1,0.999979
0.9548408457841341,1,0.999962
0.9636173110351292,1,0.999977
0.955318923315787,0,0.999729
0.9494478040034166,1,0.999992
0.8969652580962589,0,0.960924
0.9681112879729855,1,0.999811
0.9484186853579766,1,0.999781
0.974791506572628,1,0.999924
0.958210457008061,1,0.999899
0.9491914502106134,1,0.999978
0.9652606640617358,0,0.988264
0.9661818419285148,1,0.999992
0.9328022261260384,0,0.999814
0.8864736214560088,1,0.999986
0.9526880593812972,1,0.999671
0.941527459494765,0,0.999045
0.9343891696869052,1,0.999992
0.9127508422329546,1,0.999977
0.839173456172533,1,0.999993
0.9760838679766302,1,0.999934
0.8682506609354894,1,0.999946
0.9325534207898728,1,0.999993
0.959361562760008,1,0.999993
0.9212953254613381,1,0.999993
0.8052726440656915,1,0.999980
0.9103272552487279,0,0.975081
0.9110361138851182,1,0.999993
0.932722578251872,1,0.999958
0.9719938307556889,1,0.999977
0.960929930309609,0,0.999450
0.937742040921844,1,0.999976
0.9115289177551981,1,0.999953
0.965315203120298,0,0.999818
