0.9999997545988746,1,0.999964
0.9999997567785253,1,0.999964
0.9999997718265801,1,0.999974
0.9999999348070521,1,0.999973
0.9999999981101765,1,0.999946
0.9999999991913204,1,0.999993
0.9999999999898871,1,0.999993
0.9999999999982793,1,0.999989
0.9999999999999718,1,0.999991
0.9999999999999922,1,0.999987
0.998651872331354,1,0.999993
0.9999975575243979,0,0.999485
0.9999989055394438,1,0.999989
0.9999997359342663,1,0.999992
0.9999999998839023,1,0.999992
0.9999999998952726,0,0.999784
0.9999999999159028,1,0.999990
0.999999999964587,1,0.999992
0.9999999999993457,1,0.999991
0.9999999999998055,1,0.999990
0.9999999999998956,1,0.999990
0.9999999999999002,0,0.999682
0.9999999999999548,1,0.999980
0.9999999999999679,1,0.999985
1.0,1,0.999980
0.9999999999999725,1,0.999970
0.9998285860164721,1,0.999992
0.9999978533091765,1,0.999993
0.9999983890201943,1,0.999986
0.9999996715427042,1,0.999993
0.9999999999380013,1,0.999992
0.9999999999995068,1,0.999992
1.0,1,0.999992
1.0,1,0.999994
1.0,1,0.999993
0.9999999999999978,1,0.999991
1.0,1,0.999993
0.9999999999999821,1,0.999990
1.0,1,0.999993
1.0,1,0.999993
0.9999117127177575,1,0.999989
0.9999775718090128,1,0.999990
0.999998086993039,1,0.999987
0.9999999449571018,1,0.999991
0.9999999842801126,1,0.999986
0.9999999978478958,1,0.999983
0.9999999982372757,1,0.999981
0.9999999988528678,1,0.999976
0.9999999996335085,1,0.999970
0.9999999998979159,1,0.999974
0.9999999999299759,1,0.999978
0.9999999999604847,1,0.999982
0.9999999999809396,1,0.999971
0.9999999999877246,1,0.999972
0.9999999999929077,1,0.999964
0.9999999999949802,1,0.999961
0.999999999996116,1,0.999991
0.9999999999982331,1,0.999970
0.999999999999663,1,0.999958
0.9999999999999852,1,0.999981
1.0,1,0.999953
1.0,1,0.999989
0.9999999999999971,1,0.999990
0.9999999999999939,1,0.999991
0.999999999999994,1,0.999988
0.9999999999999907,1,0.999992
0.999999999999971,1,0.999992
1.0,1,0.999991
0.9999999999999899,1,0.999993
0.9999999999999827,1,0.999993
0.9999999999999981,1,0.999993
1.0,1,0.999993
0.9999919156743012,1,0.999992
0.9999999988212133,1,0.999993
0.9999999995553611,1,0.999991
1.0,1,0.999993
1.0,1,0.999992
1.0,1,0.999984
1.0,1,0.999987
0.9999999999999996,1,0.999993
0.9999999999999971,1,0.999981
1.0,1,0.999988
0.9999999999999929,1,0.999993
0.9999999999999972,1,0.999993
0.9999999999999863,1,0.999992
0.999999999999962,1,0.999992
0.9999999999999751,1,0.999993
1.0,1,0.999990
0.9999999999999774,1,0.999989
1.0,1,0.999993
1.0,1,0.999993
0.9999999999999916,1,0.999994
0.9999999999999747,1,0.999993
1.0,1,0.999993
1.0,1,0.999994
1.0,1,0.999978
0.9999999999999465,1,0.999990
0.9999999999999858,1,0.999994
1.0,1,0.999992
0.9999999999999932,1,0.999993
1.0,1,0.999985
0.9999999999999846,1,0.999984
0.9999999999999782,1,0.999972
1.0,1,0.999990
1.0,1,0.999973
0.9999999999999968,1,0.999988
1.0,1,0.999970
0.9999999999999801,1,0.999979
0.999999999999984,1,0.999984
0.9999999999999847,1,0.999972
1.0,1,0.999972
0.9999999999999976,1,0.999977
1.0,1,0.999976
0.9999999999999876,1,0.999963
0.9999999999999951,1,0.999983
1.0,1,0.999976
0.9999999999999962,1,0.999982
0.9999999999999987,1,0.999980
0.9999999999999836,1,0.999973
0.9999999999999938,1,0.999968
0.9999999999999856,1,0.999980
0.9999999999999615,1,0.999989
1.0,1,0.999973
0.9999999999999911,1,0.999989
0.9999999999999744,1,0.999989
0.9999999999999934,1,0.999993
0.9999999999999822,1,0.999993
1.0,1,0.999992
1.0,1,0.999992
0.999999999999973,1,0.999992
1.0,1,0.999992
0.99998438219783,1,0.999992
0.9999998253431558,1,0.999992
0.9999999999655584,1,0.999993
0.999999999999958,1,0.999993
0.9999999999999472,1,0.999992
1.0,1,0.999992
0.9999999999999933,1,0.999993
0.5938265472805647,0,0.998975
0.9965472122111797,0,0.981629
0.9999843521358198,0,0.988427
0.9999987168939483,0,0.985763
0.9999998304479111,0,0.985418
0.9999999876339138,1,0.999993
0.9999999987450673,1,0.999990
0.9999999999397496,1,0.999991
0.9999999999987357,0,0.998499
0.9999999999999798,1,0.999994
1.0,1,0.999994
1.0,1,0.999994
1.0,1,0.999991
1.0,0,0.992035
1.0,0,0.994457
0.9999999999999817,1,0.999993
1.0,1,0.999993
1.0,1,0.999993
0.9999976712306372,1,0.999987
0.9998764073535289,1,0.999993
0.9999998588152077,1,0.999993
0.9999999996600906,1,0.999991
0.9999999999999551,1,0.999993
0.9999999999999889,1,0.999992
0.9999999999999926,1,0.999993
1.0,0,0.997640
1.0,0,0.997456
0.9999999999999868,1,0.999993
0.9999999999999827,1,0.999992
1.0,1,0.999993
1.0,1,0.999993
1.0,1,0.999993
0.9999999999999912,1,0.999991
0.9999999999999999,1,0.999990
0.9999999999999867,1,0.999993
0.9999999999999648,1,0.999986
1.0,1,0.999993
1.0,1,0.999993
0.9999998773254516,1,0.999992
0.9999999999330282,1,0.999990
0.999999999940512,1,0.999991
0.999999999999915,1,0.999993
0.9999999999999223,1,0.999989
0.9999999999999769,1,0.999992
0.9999999999999996,1,0.999992
1.0,1,0.999990
0.9999999999999999,1,0.999989
1.0,1,0.999990
1.0,1,0.999988
1.0,1,0.999993
0.9999999999999859,1,0.999992
1.0,1,0.999988
0.9999999999999832,1,0.999987
1.0,1,0.999985
0.9999999999999617,1,0.999986
1.0,1,0.999984
0.9999999999999911,1,0.999983
0.9999999999999828,1,0.999983
1.0,1,0.999987
1.0,1,0.999989
0.9997908248575099,1,0.999992
0.9999963732159405,1,0.999993
0.9999993734578284,1,0.999992
0.9999999997173279,1,0.999993
0.9998393215231597,1,0.999987
0.9999868488475091,1,0.999991
0.9999979439282467,1,0.999981
0.9999999869373287,1,0.999991
0.9999999946402086,1,0.999994
0.9999999982883316,1,0.999978
0.9999999999999153,1,0.999993
0.9999999999999888,1,0.999992
1.0,1,0.999992
1.0,1,0.999986
1.0,1,0.999993
0.9999999999999876,1,0.999991
1.0,1,0.999993
0.9999999999999915,1,0.999993
0.9999972102367258,1,0.999988
0.9999999453265587,1,0.999991
0.9999999999910117,1,0.999989
0.9999999999998034,1,0.999993
1.0,1,0.999982
0.9999999999999819,1,0.999980
0.9999999999999982,1,0.999975
0.9999999999999871,1,0.999990
1.0,1,0.999991
1.0,1,0.999990
0.9999999999999983,1,0.999993
0.9999999999999912,1,0.999992
1.0,1,0.999991
0.999999999999998,1,0.999993
1.0,1,0.999993
1.0,1,0.999993
0.9999999999999668,1,0.999989
0.9999999999999789,1,0.999993
1.0,1,0.999993
1.0,1,0.999993
0.9999999999999897,1,0.999992
0.9999886015027295,1,0.999993
0.9998306311181195,1,0.999985
0.9999999999999347,1,0.999994
0.9999999999999969,1,0.999980
1.0,1,0.999992
0.9999999999999566,1,0.999971
0.9999999999999887,1,0.999992
1.0,1,0.999991
1.0,1,0.999993
0.9999976551464098,1,0.999993
0.9999999680620185,1,0.999989
0.9999999948065533,1,0.999983
0.9999999999998416,1,0.999988
0.9998812117648442,1,0.999988
0.9985384899433652,1,0.999991
0.7906002810484986,0,0.971380
0.9624941581961105,1,0.999992
0.9999999116673001,1,0.999994
0.9999999934051705,1,0.999990
0.9999999999673996,1,0.999992
0.9999999999996277,1,0.999924
0.999999999999973,1,0.999993
0.9999999999999811,1,0.999988
1.0,1,0.999987
1.0,0,0.999339
0.9999999999999927,0,0.992469
1.0,0,0.985836
0.9999999999999977,0,0.998160
0.9999999999999828,0,0.986881
1.0,1,0.999989
0.9999999999999974,1,0.999986
0.999999999999996,1,0.999987
0.9999999999999833,1,0.999985
0.9999999999999782,0,0.991893
0.9999999999999925,1,0.999988
1.0,1,0.999910
1.0,1,0.999984
0.9999999999999855,0,0.999516
0.9999999999999698,0,0.994230
0.999999999999989,1,0.999951
1.0,0,0.998272
0.9999999999999769,1,0.999944
0.9999999999999769,1,0.999988
0.9999999999999885,1,0.999992
1.0,1,0.999990
0.9999999999999634,1,0.999990
0.9999999999999932,1,0.999993
0.9999999999999982,1,0.999993
1.0,1,0.999993
1.0,1,0.999992
1.0,1,0.999992
1.0,1,0.999993
0.9999999999999812,1,0.999992
1.0,1,0.999992
0.999999999999977,1,0.999989
0.9999999999999906,1,0.999988
0.9999999999999613,1,0.999992
0.9999999999999885,1,0.999992
0.9999999999999922,1,0.999988
0.9999999999999988,1,0.999992
1.0,1,0.999992
0.9999999999999967,1,0.999988
0.999999999999995,1,0.999991
1.0,1,0.999992
1.0,1,0.999990
0.9999999999999987,1,0.999991
1.0,1,0.999987
0.9999999999999946,1,0.999983
1.0,1,0.999993
1.0,1,0.999991
0.9999999999999755,1,0.999989
0.9999999999999928,1,0.999993
0.9999999999999802,1,0.999992
0.999999999999987,1,0.999992
1.0,1,0.999981
0.9999999999999923,1,0.999977
0.9999999999999951,1,0.999993
0.9999459348087969,1,0.999993
0.9999969885039474,1,0.999992
0.9999999995294666,1,0.999990
0.999999999999959,1,0.999991
0.9999999999999953,1,0.999993
1.0,1,0.999945
1.0,1,0.999992
1.0,1,0.999992
1.0,1,0.999987
1.0,1,0.999992
1.0,1,0.999987
0.9999999999999786,1,0.999944
0.9999999999999856,1,0.999991
1.0,1,0.999988
0.9999999999999968,0,0.999684
0.9999999999999966,1,0.999989
0.9999574933107943,1,0.999993
0.9999898376485551,1,0.999991
0.9999971552554477,1,0.999992
0.9999999978127397,1,0.999991
0.9999999998671599,1,0.999992
0.9999999999610857,1,0.999989
0.9999999999999439,1,0.999993
0.999999999999974,1,0.999993
0.9999999999999959,1,0.999990
0.9999999999999785,1,0.999990
1.0,1,0.999992
0.9999999999999714,1,0.999993
1.0,1,0.999990
1.0,1,0.999988
1.0,1,0.999992
0.9999999999999964,1,0.999989
1.0,1,0.999976
1.0,1,0.999948
1.0,1,0.999988
0.9999999999999899,1,0.999931
1.0,1,0.999910
1.0,1,0.999910
0.9999999999999925,1,0.999991
1.0,1,0.999989
0.9999999999999979,1,0.999993
0.999999999999993,1,0.999992
0.9999999999999687,1,0.999991
0.9999999999999932,1,0.999992
0.999999999999996,1,0.999984
0.999999999999977,1,0.999993
0.9999999999999918,1,0.999992
1.0,1,0.999993
1.0,1,0.999993
0.9999999999999798,1,0.999993
1.0,1,0.999992
0.9999999999999908,1,0.999992
1.0,1,0.999992
1.0,1,0.999984
0.9999995803343215,1,0.999993
0.9999999999780776,1,0.999993
0.9999999999999516,1,0.999992
0.9999994822504,1,0.999991
0.9999999968771227,1,0.999992
0.9999999999693334,1,0.999972
0.9998023279762827,1,0.999987
0.9999983741313334,1,0.999994
0.9999999937599825,1,0.999993
0.9999999994411395,1,0.999991
0.9999999999968978,1,0.999968
0.9999999999994146,1,0.999993
0.9999999999999639,1,0.999992
1.0,1,0.999992
0.999994771918401,1,0.999993
0.9961801035385199,1,0.999988
0.9997381869395464,1,0.999992
0.9999993737742634,1,0.999987
0.9999999999997838,1,0.999994
1.0,1,0.999993
0.9999999999999765,1,0.999992
0.9999868228512137,0,0.997821
0.9999996040813844,0,0.982229
0.9999999751166103,0,0.988924
0.999999999817819,1,0.999991
0.9999999999999857,1,0.999990
0.9999999999999988,1,0.999992
0.9999999999999973,1,0.999991
0.9998889202912427,0,0.989820
0.9999602389785511,1,0.999992
0.9998875370807842,0,0.992243
0.9999943458819749,1,0.999993
0.9999961390474318,1,0.999986
0.9999995408751788,1,0.999987
0.9999998780743699,1,0.999992
0.9999998853419926,1,0.999986
0.9999999025626389,1,0.999979
0.9999999727651504,0,0.995798
0.9999999784246999,1,0.999989
0.9999999958808227,1,0.999990
0.9999999999999089,1,0.999991
1.0,1,0.999992
0.9999999999999937,1,0.999991
0.9999999999999809,1,0.999989
0.9999999999999781,1,0.999992
1.0,1,0.999993
1.0,1,0.999993
0.9998420396239626,1,0.999991
0.9999965608292831,1,0.999987
0.9999997441512426,1,0.999981
0.9999999950727462,1,0.999983
0.9999999968149824,1,0.999991
0.9999999996235605,1,0.999979
0.9999999999999734,1,0.999990
0.9999999999999927,1,0.999990
0.9997933155596472,1,0.999993
0.9999884370982787,1,0.999992
0.9999999293759745,1,0.999992
0.9999999947147423,1,0.999992
0.9999999999918839,1,0.999993
1.0,1,0.999993
1.0,1,0.999993
0.9999999999999889,1,0.999992
0.9999999999999968,1,0.999989
1.0,1,0.999989
1.0,1,0.999988
1.0,1,0.999988
0.9999999999999876,1,0.999987
0.9999999999999711,1,0.999992
0.9999999999999877,1,0.999992
1.0,1,0.999991
1.0,1,0.999993
0.9999999999999962,1,0.999993
1.0,1,0.999993
0.9999999999999915,1,0.999993
0.9999999999999873,1,0.999992
1.0,1,0.999993
1.0,1,0.999992
0.9999999999999873,1,0.999984
0.9999999801033523,1,0.999992
0.9999999999997423,1,0.999991
1.0,1,0.999989
1.0,1,0.999989
0.9999999999999865,1,0.999990
1.0,1,0.999975
0.999999999999978,1,0.999968
1.0,1,0.999961
1.0,1,0.999985
1.0,1,0.999985
0.9999999999999928,1,0.999980
1.0,1,0.999973
1.0,1,0.999985
0.9999999999999993,1,0.999955
0.9999999999999959,1,0.999933
1.0,1,0.999975
1.0,1,0.999941
1.0,1,0.999992
1.0,1,0.999952
0.9999999999999953,1,0.999952
1.0,1,0.999988
1.0,1,0.999991
0.9999999999999962,1,0.999991
0.9999999999999872,1,0.999990
0.9999999999999751,1,0.999993
1.0,1,0.999993
1.0,1,0.999992
0.9999999999999978,1,0.999991
0.9999999999999781,1,0.999993
0.9999999999999637,1,0.999993
1.0,1,0.999993
1.0,1,0.999993
0.9999999999999488,1,0.999988
1.0,1,0.999993
0.9999999999999933,1,0.999992
0.999999999999984,1,0.999985
1.0,1,0.999986
0.9998915997062825,1,0.999993
0.9997362623603248,1,0.999992
0.9999999999669209,1,0.999993
0.9999999999999942,1,0.999993
0.9999281446842132,1,0.999993
0.9999999999692348,1,0.999985
0.9999999999999641,1,0.999979
0.9999999999999756,1,0.999978
1.0,1,0.999986
0.9999999999999871,1,0.999988
0.9999999999999952,1,0.999992
1.0,1,0.999993
0.9999999999999911,1,0.999975
1.0,1,0.999988
0.9999999999999793,1,0.999989
0.9999999999999786,1,0.999987
0.999919861318658,1,0.999993
0.9999274299828323,1,0.999993
0.9999999267673928,1,0.999993
0.9999999980776051,1,0.999993
0.9999999999999436,1,0.999993
0.9999999999999885,1,0.999990
1.0,1,0.999992
0.9999999999999766,1,0.999990
0.9999999999999946,1,0.999990
0.9999999999999921,1,0.999981
0.9999999999999922,1,0.999984
1.0,1,0.999985
1.0,1,0.999990
0.8092587398499389,0,0.999663
0.9999948753489626,1,0.999993
0.9999985652864765,0,0.994115
0.9999995632064914,1,0.999989
0.999999999924078,0,0.963926
0.9999999999762194,1,0.999986
0.9999999999997071,1,0.999992
0.9999999999998026,0,0.965938
0.9999999999999944,0,0.983176
0.9999999999999795,0,0.978697
1.0,1,0.999992
1.0,0,0.988127
1.0,0,0.977247
1.0,1,0.999988
1.0,0,0.992467
0.9999999999999698,0,0.997674
0.9999999999999877,1,0.999985
1.0,1,0.999975
1.0,1,0.999980
0.9999999999999933,0,0.993317
0.9999999999999967,1,0.999987
0.9999999999999997,1,0.999987
1.0,0,0.995435
1.0,1,0.999991
0.9999999999999553,1,0.999991
1.0,1,0.999989
1.0,1,0.999990
0.9999999999999879,1,0.999993
0.9999999999999746,1,0.999992
0.9999999999999759,1,0.999992
0.9999999999999853,1,0.999993
1.0,1,0.999993
0.9999999999999885,1,0.999992
0.999999999999994,1,0.999993
0.9999999999999889,1,0.999993
1.0,1,0.999993
1.0,1,0.999989
0.9999999999999793,1,0.999991
1.0,1,0.999988
1.0,1,0.999990
1.0,1,0.999990
1.0,1,0.999986
0.9999999999999655,1,0.999993
1.0,1,0.999993
0.999999999999998,1,0.999993
0.9999999999999881,1,0.999993
1.0,1,0.999993
0.9999999999999923,1,0.999992
0.999999999999989,1,0.999987
0.9999999999999977,1,0.999991
0.9997392269222112,1,0.999992
0.999737697035663,1,0.999990
0.9999999943317119,1,0.999992
0.9999999977734146,1,0.999989
0.999999999996537,1,0.999993
0.9999999999997492,1,0.999986
0.9999999999997733,1,0.999975
1.0,1,0.999993
1.0,1,0.999993
0.9999999999999976,1,0.999983
1.0,1,0.999988
0.9999999999999895,1,0.999987
0.9999715821340074,1,0.999991
0.9999997017739128,1,0.999993
0.9999998932167927,0,0.999892
0.9999999999924127,1,0.999993
0.9999999999999469,1,0.999992
1.0,1,0.999991
1.0,1,0.999987
1.0,1,0.999987
1.0,1,0.999989
0.9999999999999828,1,0.999990
1.0,1,0.999991
1.0,1,0.999991
0.9999999999999717,1,0.999991
1.0,1,0.999985
1.0,1,0.999969
0.9999999999999801,1,0.999965
0.9999999999999895,1,0.999947
0.9999999999999921,1,0.999990
0.9999999999999655,1,0.999990
1.0,1,0.999989
0.9999999999999911,1,0.999990
0.9999999999999961,1,0.999989
1.0,1,0.999990
0.9999999999999881,1,0.999983
0.9999999999999759,1,0.999984
0.9999999999999999,1,0.999988
1.0,1,0.999982
0.9999999999999976,1,0.999987
0.9999999999999953,1,0.999973
1.0,1,0.999989
0.9999999999999986,1,0.999989
1.0,1,0.999988
0.9999999999999916,1,0.999966
0.9999999999999898,1,0.999975
0.9999999999999879,1,0.999986
0.999999999999997,1,0.999931
1.0,1,0.999909
1.0,1,0.999988
1.0,1,0.999987
1.0,1,0.999993
1.0,1,0.999992
1.0,1,0.999993
1.0,1,0.999992
1.0,1,0.999992
0.9999999999999971,1,0.999992
1.0,1,0.999993
0.9999999999999873,1,0.999991
0.9999999999999972,1,0.999992
0.9999999999999967,1,0.999992
1.0,1,0.999993
0.9999999999999857,1,0.999992
1.0,1,0.999993
0.9999999999999845,1,0.999993
1.0,1,0.999993
1.0,1,0.999993
1.0,1,0.999992
0.9999999999999792,1,0.999992
0.9999999999999917,1,0.999992
1.0,1,0.999991
0.9999999999999747,1,0.999992
0.9999999999999617,1,0.999992
1.0,1,0.999993
0.9999999999999983,1,0.999990
0.9999999999999982,1,0.999992
0.9999999999999979,1,0.999993
0.9999999999999816,1,0.999993
1.0,1,0.999993
0.9999999999999875,1,0.999991
0.9999999999999997,1,0.999993
1.0,1,0.999992
1.0,1,0.999991
0.9999999999999583,1,0.999989
1.0,1,0.999988
0.9999999999999972,1,0.999993
1.0,1,0.999993
0.9999999999999855,1,0.999993
0.9999999999999664,1,0.999990
1.0,1,0.999979
0.9999999999999879,1,0.999992
0.999999999999994,1,0.999993
0.9999999999999974,1,0.999991
0.9999999999999921,1,0.999988
1.0,1,0.999978
0.9999999999999968,1,0.999986
1.0,1,0.999988
0.9999999999999971,1,0.999988
0.9999999999999979,1,0.999985
0.9999999999999958,1,0.999984
1.0,1,0.999987
0.9999999999999948,1,0.999973
1.0,1,0.999976
1.0,1,0.999992
0.9999999999999666,1,0.999993
1.0,1,0.999993
1.0,1,0.999993
0.9999999999999768,1,0.999991
0.9999999999999731,1,0.999993
0.9999999999999891,1,0.999981
1.0,1,0.999992
0.9999999999999917,1,0.999991
1.0,1,0.999991
1.0,1,0.999993
1.0,1,0.999993
0.999999999999983,1,0.999987
1.0,1,0.999987
1.0,1,0.999993
0.999999999999996,1,0.999992
1.0,1,0.999992
0.9999999999999987,1,0.999989
0.9999999999999633,1,0.999984
0.9999999999999988,1,0.999992
1.0,1,0.999980
0.9999999999999867,1,0.999987
1.0,1,0.999968
0.9999999999999788,1,0.999992
0.6983032510466987,0,0.993817
0.9426820056993321,1,0.999991
0.9999850855904742,0,0.975011
0.9999858282045062,0,0.968883
0.9999882889963659,0,0.990902
0.9999997334200719,0,0.978090
0.9999999997753948,1,0.999991
0.9999999999957213,0,0.960831
0.9999999999993174,0,0.985400
0.9999999999999336,1,0.999992
1.0,1,0.999973
1.0,0,0.982021
0.9999999999999892,1,0.999975
0.9999999999999968,0,0.969581
0.9999999999999851,1,0.999986
1.0,0,0.982727
1.0,1,0.999992
0.9999999999999964,1,0.999992
0.9999999999999876,1,0.999990
1.0,1,0.999989
1.0,1,0.999990
0.9999999999999917,1,0.999988
0.9999999999999918,1,0.999989
0.9999999999999912,1,0.999988
1.0,1,0.999991
0.9999793293587562,1,0.999993
0.9999999991515027,1,0.999993
0.9999999999999802,1,0.999993
0.9999999999999643,1,0.999991
1.0,1,0.999989
1.0,1,0.999984
0.9999999999999937,1,0.999979
1.0,1,0.999980
0.9999999999999992,1,0.999992
0.9999999999999822,1,0.999975
1.0,1,0.999986
1.0,1,0.999963
0.9999999999999976,1,0.999962
1.0,0,0.998207
1.0,1,0.999956
0.9999999999999876,1,0.999992
1.0,1,0.999991
1.0,1,0.999972
1.0,0,0.997656
1.0,1,0.999991
1.0,1,0.999950
0.9999999999999887,1,0.999991
0.9999999999999812,0,0.998251
1.0,0,0.997791
0.9998788526774629,1,0.999993
0.9999208946656993,0,0.997045
0.9999999953937639,1,0.999990
0.999999999444953,1,0.999991
0.9999999999999918,1,0.999992
1.0,1,0.999991
0.9999999999999915,1,0.999992
1.0,1,0.999989
1.0,1,0.999982
0.9999999999999769,1,0.999986
0.9999999999999996,1,0.999985
0.9999999999999957,1,0.999989
0.9999999999999969,1,0.999949
0.9999999999999888,1,0.999977
1.0,1,0.999986
1.0,1,0.999949
1.0,1,0.999989
1.0,1,0.999984
1.0,1,0.999975
1.0,1,0.999952
1.0,1,0.999985
0.9999999999999947,1,0.999981
1.0,1,0.999923
0.9999999999999841,1,0.999993
1.0,1,0.999964
1.0,1,0.999992
0.9999999999999741,1,0.999993
1.0,1,0.999991
1.0,1,0.999992
1.0,1,0.999991
1.0,1,0.999991
1.0,1,0.999993
1.0,1,0.999992
0.9999999999999919,1,0.999993
1.0,1,0.999993
1.0,1,0.999991
1.0,1,0.999990
1.0,1,0.999992
0.9999999999999846,1,0.999991
0.9999999999999876,1,0.999993
0.9999999999999994,1,0.999991
0.9999999999999954,1,0.999984
1.0,1,0.999992
0.9999999999999751,1,0.999993
0.9999999999999984,1,0.999990
1.0,1,0.999981
1.0,1,0.999992
1.0,1,0.999980
1.0,1,0.999974
1.0,1,0.999989
1.0,1,0.999975
0.9999999999999946,1,0.999977
0.999999999999979,1,0.999973
1.0,1,0.999992
1.0,1,0.999992
0.9999999999999881,1,0.999991
1.0,1,0.999992
0.9999999999999694,1,0.999993
0.9999997751956007,1,0.999993
0.9999999999980901,1,0.999992
0.9999999999999657,1,0.999990
1.0,1,0.999993
1.0,1,0.999991
0.9999999999999976,1,0.999992
0.999848511347681,1,0.999992
0.999999969326633,1,0.999984
0.9999999968662572,1,0.999992
0.999999999161932,1,0.999981
0.9999999996564481,1,0.999979
0.9999999999599783,1,0.999963
0.9999999999855512,1,0.999980
0.9999999999999905,1,0.999993
0.9999999999999758,1,0.999993
0.9999999999999807,1,0.999993
0.9999999999999845,1,0.999991
0.9999999999999936,1,0.999989
0.9999999999999734,1,0.999966
1.0,1,0.999966
1.0,1,0.999989
0.999999999999989,1,0.999985
0.9999999999999873,1,0.999989
0.9999999999999885,1,0.999984
0.9999999999999988,1,0.999985
1.0,1,0.999987
0.9999999999999992,1,0.999988
0.999999999999997,1,0.999974
0.9996786400484303,1,0.999974
0.9998128345191835,1,0.999985
0.9999978197913373,1,0.999992
0.99999999997913,1,0.999991
0.999999999999973,1,0.999991
0.9999999999999986,1,0.999992
1.0,1,0.999992
1.0,1,0.999991
1.0,1,0.999993
1.0,1,0.999992
1.0,1,0.999993
1.0,1,0.999993
1.0,1,0.999991
0.9996774016974674,1,0.999993
0.9999999997346415,1,0.999992
0.9999999999671483,1,0.999992
0.9999999999998793,1,0.999992
0.9999999999999921,1,0.999992
0.9999999999999795,1,0.999993
0.9999999999999891,1,0.999990
1.0,1,0.999991
1.0,1,0.999992
0.999999999999985,1,0.999960
1.0,1,0.999957
1.0,1,0.999966
1.0,1,0.999912
0.9999999999999997,1,0.999870
0.9999999999999897,1,0.999958
0.9999999999999933,1,0.999992
0.9999999999999563,1,0.999993
0.9999999999999736,1,0.999991
0.9999254316840017,1,0.999992
0.9999302162118632,1,0.999989
0.9999375486519793,1,0.999947
0.9999999998744336,1,0.999993
0.9999999999999806,1,0.999993
0.9999999999999748,1,0.999989
0.9999999999999968,1,0.999985
0.9999999999999991,1,0.999986
0.9999999999999776,1,0.999988
1.0,1,0.999984
1.0,1,0.999979
1.0,1,0.999985
1.0,1,0.999983
0.9999377063748052,1,0.999993
0.9999909776697223,1,0.999993
0.9999998890351182,1,0.999993
0.999999999577764,1,0.999993
0.9999999999518767,1,0.999991
0.9999999999988656,1,0.999990
0.9999999999999772,1,0.999992
0.9999999999999979,1,0.999992
0.9999999999999847,1,0.999992
1.0,1,0.999993
0.9999999999999972,1,0.999992
0.9999999999999926,1,0.999989
0.9999999999999816,1,0.999991
0.9999999999999809,1,0.999993
0.9999999999999983,1,0.999990
1.0,1,0.999978
1.0,1,0.999967
0.9999999999999836,1,0.999992
1.0,1,0.999994
1.0,1,0.999993
1.0,1,0.999990
0.9999999999999998,1,0.999992
1.0,1,0.999991
0.9999999999999853,1,0.999992
0.9999999999999857,1,0.999992
1.0,1,0.999989
1.0,1,0.999983
0.9999999999999871,1,0.999967
1.0,1,0.999990
0.9999999999999952,1,0.999985
1.0,1,0.999989
0.7918270125423468,1,0.999984
0.9996349561971345,0,0.996309
0.9996991390445283,0,0.982790
0.9998316727956447,0,0.997370
0.9998698374304235,0,0.991724
0.9999938406295802,1,0.999992
0.9999999994338489,0,0.990121
0.9999999999990433,0,0.977738
0.9999999999991721,0,0.957158
0.9999999999993512,1,0.999989
0.9999999999994865,1,0.999992
0.9999999999996507,1,0.999992
0.9999999999997196,1,0.999985
1.0,1,0.999992
0.9999999999999967,1,0.999993
1.0,1,0.999990
1.0,1,0.999990
1.0,1,0.999988
1.0,1,0.999989
0.9999999999999846,1,0.999992
0.999999999999983,1,0.999987
0.9999999999999982,1,0.999985
0.9999999999999944,1,0.999969
0.9999999999999986,1,0.999984
0.9999999999999603,1,0.999993
0.9999999999999774,1,0.999993
0.9999999999999699,1,0.999982
0.999999999999995,1,0.999987
1.0,1,0.999981
0.999999999999982,1,0.999977
0.9999999999999827,1,0.999989
0.9999999999999958,0,0.999855
0.9999999999999862,1,0.999992
1.0,1,0.999992
0.9999999999999991,1,0.999991
0.9999999999999856,1,0.999990
1.0,1,0.999988
1.0,1,0.999990
1.0,1,0.999992
0.9999999999999957,1,0.999992
1.0,1,0.999992
0.999999999999992,1,0.999994
0.9999277465834343,1,0.999981
0.9999824569694603,1,0.999980
0.9999994327068562,1,0.999984
0.9999995296093287,1,0.999987
0.9999995815913019,1,0.999975
0.9999998891274047,1,0.999988
0.9999999297529464,1,0.999974
0.999999981523392,1,0.999970
0.999999985133209,1,0.999963
0.9999999890856318,1,0.999958
0.9999999941412954,1,0.999964
0.9999999990180145,1,0.999990
1.0,1,0.999993
0.9999999999999906,1,0.999992
0.9999999999999835,1,0.999991
1.0,1,0.999992
1.0,1,0.999991
0.9999999999999911,1,0.999993
0.9999999999999855,1,0.999992
1.0,1,0.999992
1.0,1,0.999988
1.0,1,0.999989
0.999999999999995,1,0.999984
1.0,1,0.999990
0.9999999999999996,1,0.999989
0.9999999999999938,1,0.999991
0.9999999999999765,1,0.999993
1.0,1,0.999992
0.9999999999999879,1,0.999989
1.0,1,0.999991
1.0,1,0.999990
0.999999999999998,1,0.999986
1.0,1,0.999981
1.0,1,0.999985
1.0,1,0.999985
0.9999999999999849,1,0.999985
0.9999999999999957,1,0.999984
1.0,1,0.999981
0.9999999999999911,1,0.999984
1.0,1,0.999993
0.9999999999999949,1,0.999993
1.0,1,0.999993
0.9999880071926522,1,0.999982
0.9999908092112734,1,0.999981
0.9999939167440188,1,0.999986
0.9999983861284488,1,0.999967
0.999998540775539,1,0.999986
0.9999989778023891,1,0.999990
0.9999991497550622,1,0.999967
0.9999995203747628,1,0.999966
0.9999998936210619,1,0.999985
0.9999999407121699,1,0.999947
0.9999999886688051,1,0.999990
0.9999999934868994,1,0.999968
0.9999999942937791,1,0.999976
0.9999999973611199,1,0.999746
0.9999999998297003,1,0.999991
0.9999999999000203,1,0.999953
0.999999999933918,1,0.999991
0.9999999999640713,1,0.999882
0.9999999999957333,1,0.999990
0.9999999999999964,1,0.999990
0.999999999999989,1,0.999987
0.9999999999999865,1,0.999977
0.9999999999999971,1,0.999964
0.9999977271565402,1,0.999986
0.9999999743425768,1,0.999993
0.9999999999988709,1,0.999993
1.0,1,0.999993
0.9999999999999974,1,0.999993
0.9999999999961225,1,0.999993
0.9999999999999977,1,0.999993
1.0,1,0.999993
0.9999999999999842,1,0.999993
1.0,1,0.999993
1.0,1,0.999991
0.9999997287424427,1,0.999993
0.9999999999997555,1,0.999982
0.9999999999999799,1,0.999992
0.9999999999999897,1,0.999993
0.9999999999999856,1,0.999993
0.9999999999999725,1,0.999992
0.9999999999999983,1,0.999991
1.0,1,0.999993
0.9999999999999899,1,0.999991
0.9999999999999577,1,0.999991
0.9999999999999657,1,0.999993
1.0,1,0.999993
1.0,1,0.999993
0.9999999999999879,1,0.999993
0.9999999999999857,1,0.999992
1.0,1,0.999993
0.9999999999999979,1,0.999991
0.9999881576843819,1,0.999992
0.9999983819209922,1,0.999991
0.9999996711380968,1,0.999979
0.9999999999751481,1,0.999992
0.9999999999999677,1,0.999993
0.9999999999999943,1,0.999989
1.0,1,0.999983
1.0,1,0.999988
1.0,1,0.999993
1.0,1,0.999993
1.0,1,0.999987
0.9999999999999798,1,0.999987
1.0,1,0.999982
0.9999999999999847,1,0.999992
1.0,1,0.999991
1.0,1,0.999960
1.0,1,0.999970
1.0,1,0.999992
0.9999999999999993,1,0.999936
0.9999999999999971,1,0.999963
0.9999999999999969,1,0.999991
0.9999999999999987,1,0.999989
0.9999999999999952,1,0.999962
0.9999999999999917,1,0.999970
0.9999999999999998,1,0.999958
1.0,1,0.999939
0.9999999999999946,1,0.999884
1.0,1,0.999986
1.0,1,0.999959
1.0,1,0.999989
1.0,1,0.999988
1.0,1,0.999983
0.9999999999999719,1,0.999984
1.0,1,0.999980
1.0,1,0.999984
0.9999999999999961,1,0.999987
0.9999999999999609,1,0.999984
0.9999999999999815,1,0.999991
0.9999999999999948,1,0.999982
1.0,1,0.999993
0.9999999999999933,1,0.999993
1.0,1,0.999993
1.0,1,0.999991
0.9999999999999968,1,0.999981
0.9999999999999862,1,0.999989
0.9999999999999881,1,0.999991
0.9999999999999917,1,0.999991
0.9999999999999952,1,0.999989
0.9999999999999893,1,0.999979
0.9999999999999889,1,0.999967
0.9999999999999979,1,0.999993
1.0,1,0.999992
1.0,1,0.999993
1.0,1,0.999993
0.9999999999999858,1,0.999991
1.0,1,0.999990
1.0,1,0.999990
1.0,1,0.999988
0.9999999999999931,1,0.999993
1.0,1,0.999993
1.0,1,0.999993
0.9999999999999762,1,0.999993
0.9999999999999901,1,0.999971
0.9999999999999899,1,0.999897
1.0,1,0.999987
0.9999999999999882,1,0.999989
1.0,1,0.999988
0.9999999999999855,1,0.999967
1.0,1,0.999931
0.9999999999999997,1,0.999913
0.8839822614590416,0,0.999501
0.8898554427534573,0,0.992102
0.9830908362098838,1,0.999983
0.9941358235402695,0,0.998715
0.9999112152220756,1,0.999990
0.9999977769462618,1,0.999988
0.9999999947946429,1,0.999992
0.9999999974489165,1,0.999992
0.9999999995972144,1,0.999991
0.9999999999924758,1,0.999992
0.9999999999980388,1,0.999976
0.9999999999999755,1,0.999970
1.0,1,0.999993
1.0,1,0.999993
1.0,1,0.999991
1.0,1,0.999993
1.0,1,0.999993
1.0,1,0.999993
0.9999999999999758,1,0.999992
0.9999999999999921,1,0.999988
0.9999999999999785,1,0.999989
0.9999999999999926,1,0.999987
0.9999999999999936,0,0.997692
1.0,1,0.999992
1.0,1,0.999993
1.0,1,0.999991
1.0,1,0.999985
1.0,1,0.999984
0.9999999999999799,1,0.999988
0.9999999999999934,1,0.999992
1.0,1,0.999993
0.9999999999999754,1,0.999990
0.9999999999999899,1,0.999985
1.0,1,0.999979
0.9999999999999915,1,0.999985
0.999999999999952,1,0.999958
0.999999999999987,1,0.999815
0.9999999999999919,1,0.999978
1.0,1,0.999936
1.0,1,0.999810
1.0,1,0.999987
0.9999999999999943,1,0.999988
0.9999999999999892,0,0.999856
1.0,1,0.999990
0.9999999999999692,1,0.999988
0.9999999999999704,1,0.999981
1.0,1,0.999991
1.0,1,0.999993
0.999999999999991,1,0.999989
0.9999999999999962,1,0.999990
1.0,1,0.999992
0.99999999999997,1,0.999992
0.9999999999999912,1,0.999979
1.0,1,0.999991
0.9999999999999934,1,0.999991
1.0,1,0.999978
0.9999999999999869,1,0.999966
0.999999999999983,1,0.999987
1.0,1,0.999952
1.0,1,0.999954
0.9999999999999766,1,0.999875
1.0,1,0.999987
0.9999999999999825,1,0.999990
0.9999999999999883,1,0.999987
0.9999999999999971,1,0.999972
1.0,1,0.999986
1.0,1,0.999971
1.0,1,0.999974
1.0,1,0.999991
1.0,1,0.999993
1.0,1,0.999990
1.0,1,0.999991
1.0,1,0.999989
0.9999999999999896,1,0.999986
0.9999999999999845,1,0.999985
1.0,1,0.999960
0.9999999999999898,1,0.999990
1.0,1,0.999988
1.0,1,0.999990
1.0,1,0.999984
1.0,1,0.999973
1.0,1,0.999947
1.0,1,0.999982
1.0,1,0.999983
1.0,1,0.999983
0.9999999999999943,1,0.999982
0.9999999999999902,1,0.999972
1.0,1,0.999975
1.0,1,0.999982
1.0,1,0.999978
1.0,1,0.999984
1.0,1,0.999966
0.9999999999999947,1,0.999988
0.9999999999999915,1,0.999967
0.9999999999999999,1,0.999988
0.9999999999999977,1,0.999985
1.0,1,0.999990
1.0,1,0.999991
1.0,1,0.999987
0.9999999999999963,1,0.999991
0.9999999999999587,1,0.999985
0.9999999999999956,1,0.999983
1.0,1,0.999990
1.0,1,0.999992
0.9999999999999964,1,0.999990
0.9999999999999991,1,0.999991
0.9999999999999818,1,0.999989
0.9999999999999951,1,0.999992
1.0,1,0.999992
0.9999999999999918,1,0.999989
0.9999999999999932,1,0.999980
1.0,1,0.999988
0.9999999999999951,1,0.999979
0.9999999999999734,1,0.999992
1.0,1,0.999992
1.0,1,0.999992
0.9999999999999948,1,0.999992
0.9999999999999958,1,0.999993
0.9999099453888979,1,0.999992
0.9999973621375257,1,0.999990
0.9999999999997341,1,0.999993
1.0,1,0.999993
1.0,1,0.999993
1.0,1,0.999988
0.9999999999999978,1,0.999992
1.0,1,0.999993
1.0,1,0.999985
0.9999999999999943,1,0.999983
0.9999999999999838,1,0.999990
0.999999999999983,1,0.999991
0.9999999999999777,1,0.999993
0.9999999999999899,1,0.999992
0.9999999999999926,1,0.999987
1.0,1,0.999993
0.9999999999999999,1,0.999985
0.9999999999999953,1,0.999969
0.9999999999999796,1,0.999986
1.0,1,0.999988
0.9999999999999964,1,0.999990
0.9999999999999555,1,0.999991
0.9999999999999668,1,0.999992
0.9999999999999938,1,0.999993
1.0,1,0.999992
0.9999700280791195,1,0.999981
0.9999524038874175,1,0.999983
0.9999968423828066,1,0.999949
0.9999999977191338,1,0.999992
0.9999114147918615,1,0.999993
0.9999999335129387,1,0.999992
0.9999999999999879,1,0.999978
0.9999999999999953,1,0.999993
0.9999999999999991,1,0.999993
1.0,1,0.999992
1.0,1,0.999993
1.0,1,0.999992
1.0,1,0.999990
1.0,1,0.999992
1.0,1,0.999992
1.0,1,0.999992
0.9999999999999802,1,0.999993
0.9999999999999888,1,0.999992
1.0,1,0.999990
0.999999999999957,1,0.999993
1.0,1,0.999993
1.0,1,0.999992
0.9999999999999909,1,0.999989
1.0,1,0.999990
0.9999999999999972,1,0.999987
0.9999999999999971,1,0.999988
1.0,1,0.999988
0.9999999999999892,1,0.999992
0.9999999999999811,1,0.999991
0.9999999999999966,1,0.999967
0.9999999999999867,1,0.999949
0.9999999999999818,1,0.999991
0.9999999999999456,1,0.999993
1.0,1,0.999992
1.0,1,0.999705
0.999999999999991,1,0.999950
1.0,1,0.999985
1.0,1,0.999971
1.0,1,0.999990
1.0,1,0.999987
0.9999999999999913,1,0.999989
0.9999337734703675,1,0.999992
0.999962077741705,1,0.999993
0.9999984346861349,1,0.999992
0.9999999823128867,1,0.999993
0.9999999999997965,1,0.999993
0.9999875310202148,1,0.999992
0.9999961122566292,1,0.999990
0.9999999996655533,1,0.999992
0.9999999998879479,1,0.999992
0.9999999999072036,1,0.999991
0.9999999999329549,1,0.999992
0.9999930797099228,1,0.999993
0.9999991458249421,1,0.999992
0.9999999997883298,1,0.999992
0.9999999999893145,1,0.999992
0.9999999999999852,1,0.999992
0.9993043203362452,0,0.955631
0.9999967582940382,1,0.999987
0.9999999995931456,1,0.999988
1.0,1,0.999988
1.0,1,0.999993
1.0,1,0.999993
0.9999999999999731,1,0.999993
0.9999999999999899,1,0.999993
0.9999999999999999,1,0.999993
1.0,1,0.999993
0.9999999999999871,1,0.999993
0.9999999999999792,1,0.999991
0.9999999999999937,1,0.999992
0.9999999999999672,1,0.999992
0.9999999999999939,1,0.999992
0.9999999999999797,0,0.990358
1.0,0,0.990569
1.0,0,0.997194
0.9999999999999954,0,0.998346
1.0,1,0.999987
0.9999999999999963,1,0.999986
0.9999999999999856,1,0.999991
1.0,1,0.999990
0.9999999999999808,1,0.999990
1.0,1,0.999989
0.9999999999999777,1,0.999989
0.9999999999999868,1,0.999989
1.0,1,0.999989
0.9998519341067409,1,0.999993
0.9999442028398017,1,0.999990
0.9999822994103945,1,0.999990
0.9999999983072875,1,0.999993
0.9999999999853243,1,0.999988
0.9999999999999818,1,0.999992
1.0,1,0.999978
0.9999999999999739,1,0.999992
0.9999999999999822,1,0.999975
0.9999999999999905,1,0.999952
1.0,1,0.999990
0.999999999999991,1,0.999992
1.0,1,0.999960
0.9999999999999987,1,0.999983
0.9999999999999988,1,0.999978
0.999999999999999,1,0.999952
1.0,1,0.999954
1.0,1,0.999986
1.0,1,0.999987
0.9999999999999742,1,0.999945
0.9999999999999815,1,0.999986
0.9999999999999915,1,0.999978
0.9999999999999843,1,0.999877
1.0,1,0.999926
0.9999999999999961,1,0.999980
0.9999999999999944,1,0.999982
1.0,1,0.999982
1.0,1,0.999973
0.9999999999999989,1,0.999984
0.9999999999999993,1,0.999977
1.0,1,0.999984
0.9999999999999886,1,0.999972
1.0,1,0.999982
0.9999999999999987,1,0.999987
0.9999999999999997,1,0.999975
0.999999999999994,1,0.999985
0.9999999999999977,1,0.999986
0.9999999999999925,1,0.999982
0.9999999999999937,1,0.999986
0.9999999999999973,1,0.999985
1.0,1,0.999978
0.9999999999999944,1,0.999973
1.0,1,0.999970
0.9999999999999912,1,0.999979
0.9999999999999961,1,0.999979
0.9998875939604338,1,0.999993
0.9999999999816347,1,0.999993
0.9999999999908311,1,0.999992
0.9999999999989785,1,0.999992
0.999999999999152,1,0.999992
1.0,1,0.999992
1.0,1,0.999991
1.0,1,0.999992
1.0,1,0.999992
1.0,1,0.999991
0.9999999999999951,1,0.999992
0.999999999999994,1,0.999992
0.9998338123336945,1,0.999991
0.9999449316575367,1,0.999993
0.9999978453641207,1,0.999991
0.9999999930226424,1,0.999993
0.9999999994135819,1,0.999991
0.9999999999993305,1,0.999990
0.999999999999981,1,0.999990
1.0,1,0.999992
0.9999999999999971,1,0.999993
1.0,1,0.999991
1.0,1,0.999993
0.9999999999999982,1,0.999991
0.9999999999999996,1,0.999993
0.9999999999999994,1,0.999993
0.9999999999999795,1,0.999988
1.0,1,0.999993
0.999999999999997,1,0.999987
1.0,1,0.999980
0.9999999999999841,1,0.999987
1.0,1,0.999993
0.9999999999999968,1,0.999981
0.9999999999999987,1,0.999963
0.9998943011231526,1,0.999993
0.9999999812977023,1,0.999993
0.9999999927856955,1,0.999992
0.999999996271201,1,0.999991
0.9999999967888719,1,0.999992
0.9999999999999107,1,0.999991
1.0,1,0.999993
1.0,1,0.999993
0.9999999999999871,1,0.999993
0.9999999999999897,1,0.999992
0.9999999999999933,1,0.999987
1.0,1,0.999988
0.9999999999999919,1,0.999982
0.9999999999999807,1,0.999980
0.9986131212334604,1,0.999985
0.999999999229685,1,0.999993
0.9999999996287688,1,0.999963
0.9999999999121676,1,0.999985
0.9999999999473331,1,0.999988
0.9999999999977928,1,0.999993
0.9999999999999757,1,0.999988
1.0,1,0.999986
0.9999999999999689,1,0.999984
1.0,1,0.999984
0.9999999999999919,1,0.999979
0.9999999999999888,1,0.999991
1.0,1,0.999981
0.9999682001954611,1,0.999988
0.9999976861783749,1,0.999959
0.9999999996254734,1,0.999990
0.9999999999999856,1,0.999992
1.0,1,0.999993
0.9999999999999947,1,0.999992
0.9999999999999959,1,0.999992
1.0,1,0.999993
1.0,1,0.999992
0.999999999999979,1,0.999993
1.0,1,0.999992
1.0,1,0.999993
0.9999999999999809,1,0.999975
1.0,1,0.999938
1.0,1,0.999951
0.9999999999999789,1,0.999840
0.9999999999999859,1,0.999990
1.0,1,0.999976
1.0,1,0.999912
0.999999999999994,1,0.999990
1.0,1,0.999990
0.9999999999999996,1,0.999980
0.9999999999999885,1,0.999709
1.0,1,0.999988
0.9999999999999934,1,0.999986
0.9999999999999923,1,0.999988
0.9999999999999936,1,0.999986
0.9999999999999962,1,0.999990
0.9999999999999925,1,0.999990
0.9999999999999867,1,0.999980
0.9999999999999908,1,0.999987
0.9999999999999942,1,0.999918
0.9999999999999977,1,0.999985
0.9999999999999856,1,0.999989
1.0,1,0.999987
0.9999999999999932,1,0.999982
1.0,1,0.999978
1.0,1,0.999980
0.9999999999999928,1,0.999988
1.0,1,0.999988
1.0,1,0.999993
1.0,1,0.999993
0.9999806853310819,1,0.999993
0.9999997659046346,1,0.999991
0.9999999998338343,1,0.999991
0.9999999999925276,1,0.999993
0.9999999999998843,1,0.999992
0.9999999999999942,1,0.999993
0.9999999999999759,0,0.999890
1.0,1,0.999992
0.9999999999999857,1,0.999992
1.0,1,0.999993
0.999999999999999,1,0.999993
0.9999999999999796,1,0.999990
0.9999999999999879,1,0.999993
1.0,1,0.999993
0.9999999999999915,1,0.999993
0.9999999999999758,1,0.999988
1.0,1,0.999992
1.0,1,0.999993
0.9997234994109555,0,0.943235
0.9999999999992965,1,0.999993
1.0,0,0.946598
0.9999999999999913,0,0.965291
0.9998225384689048,1,0.999993
0.9999434001582727,1,0.999990
0.9999994546993375,1,0.999993
0.9999999729863536,1,0.999990
0.9999999999905291,1,0.999991
0.9999999999917728,1,0.999991
0.9999999999999766,1,0.999992
0.9999999999999506,1,0.999993
1.0,1,0.999990
0.9999999999999845,1,0.999984
1.0,1,0.999989
0.9999999999999873,1,0.999986
0.9999999999999916,1,0.999990
0.9999999999999928,0,0.984133
1.0,1,0.999981
0.9999999999999892,1,0.999985
1.0,1,0.999979
1.0,1,0.999980
1.0,1,0.999990
1.0,1,0.999987
1.0,1,0.999992
0.9999999999999866,1,0.999989
0.99999999999999,1,0.999991
1.0,1,0.999993
1.0,1,0.999992
0.9999999999999866,1,0.999992
0.9998019384157978,1,0.999993
0.9999999780067408,1,0.999993
0.9999999999999684,1,0.999993
1.0,1,0.999986
0.9999999999999377,1,0.999991
0.999999999999997,1,0.999990
0.9999999999999958,1,0.999991
1.0,1,0.999987
1.0,1,0.999966
0.9999999999999898,1,0.999993
1.0,1,0.999993
0.9999999999999656,1,0.999992
0.999999999999991,1,0.999960
0.9999999999999947,1,0.999991
1.0,1,0.999989
1.0,1,0.999992
0.9999999999999775,1,0.999992
0.999999999999991,1,0.999992
0.9999999999999953,1,0.999992
0.9999999999999944,1,0.999993
0.9999999999999745,1,0.999993
0.999927862211237,1,0.999992
0.9999994863801979,1,0.999993
0.9999999999999788,1,0.999993
0.999999999999958,1,0.999993
0.999999999999984,1,0.999993
0.9999999999999886,1,0.999989
1.0,1,0.999990
0.9999999999999838,1,0.999990
0.9999999999999905,1,0.999991
1.0,1,0.999989
0.9999997800367013,1,0.999993
0.9999999993557083,1,0.999993
0.9999999994301291,1,0.999992
0.9999999999817233,1,0.999991
0.9999999999999898,1,0.999990
1.0,1,0.999993
0.999999999999995,1,0.999990
1.0,1,0.999989
1.0,1,0.999990
0.9999999999999782,1,0.999993
1.0,1,0.999979
0.9999999999999972,1,0.999991
1.0,1,0.999967
0.9999999999999856,1,0.999992
1.0,1,0.999989
1.0,1,0.999990
0.9999999999999978,1,0.999993
0.9999999999999825,1,0.999993
1.0,1,0.999992
1.0,1,0.999989
0.9999999999999921,1,0.999984
1.0,1,0.999992
1.0,1,0.999985
0.999999999999985,1,0.999974
0.9999999999999917,1,0.999991
1.0,1,0.999988
0.9999999999999818,1,0.999987
1.0,1,0.999987
1.0,1,0.999963
0.9999999999999791,1,0.999882
1.0,1,0.999989
0.9999999999999976,1,0.999973
1.0,1,0.999988
1.0,1,0.999987
0.999999999999999,1,0.999989
1.0,1,0.999990
0.9999999999999756,1,0.999987
0.999999999999984,1,0.999989
0.9999999999999896,1,0.999990
1.0,1,0.999988
0.999999999999983,1,0.999987
0.9999999999999893,1,0.999991
1.0,1,0.999983
1.0,1,0.999987
0.9999999999999957,1,0.999985
1.0,1,0.999990
0.9999999999999989,1,0.999990
1.0,1,0.999986
0.9998889437071405,1,0.999992
0.9999860908672071,1,0.999993
0.9999999968452222,1,0.999993
0.9999999999852534,1,0.999991
0.999999999999975,1,0.999991
0.9999999999999953,1,0.999993
1.0,1,0.999991
1.0,1,0.999990
0.9999999999999984,1,0.999989
1.0,1,0.999990
1.0,1,0.999991
0.9999999999999708,1,0.999989
1.0,1,0.999990
0.9999999999999716,1,0.999990
0.9999999999999944,1,0.999978
1.0,1,0.999967
0.999999999999995,1,0.999993
1.0,1,0.999993
1.0,1,0.999993
0.9999999999999711,1,0.999991
1.0,1,0.999987
1.0,1,0.999958
1.0,1,0.999990
1.0,1,0.999991
0.9999999999999853,1,0.999991
1.0,1,0.999989
1.0,1,0.999992
1.0,1,0.999991
0.9999999999999923,1,0.999991
0.9999999999999579,1,0.999989
0.9999999999999954,1,0.999927
1.0,1,0.999969
0.999999999999998,1,0.999989
0.9999999999999971,1,0.999986
1.0,1,0.999988
0.9999999999999789,1,0.999963
1.0,1,0.999971
0.9999999999999983,1,0.999985
1.0,1,0.999979
0.9999999999999972,1,0.999990
1.0,1,0.999990
0.9999999999999961,1,0.999990
1.0,1,0.999991
0.9999999999999961,1,0.999989
0.9999999999999855,1,0.999989
0.9999999999999923,1,0.999989
0.9999999999999961,1,0.999989
0.9999999999999915,1,0.999988
0.9999999999999828,1,0.999987
0.9999999999999908,1,0.999993
0.9999999999999843,1,0.999992
1.0,1,0.999991
0.9999999999999991,1,0.999988
0.9999999999999908,1,0.999990
0.9999999999999949,1,0.999993
0.999999999999994,1,0.999983
1.0,1,0.999977
1.0,1,0.999981
1.0,1,0.999958
0.9999999999999826,1,0.999985
0.9999999999999969,1,0.999983
1.0,1,0.999979
1.0,1,0.999985
0.9999999999999993,1,0.999987
0.999999999999995,1,0.999988
0.9999999999999957,1,0.999993
0.999999999999986,1,0.999993
0.999999578899067,1,0.999993
0.9999999999999838,1,0.999993
0.9999999999999857,1,0.999993
0.9999999999999966,1,0.999991
1.0,1,0.999990
1.0,1,0.999991
0.9999999999999696,1,0.999993
0.9999920098543104,0,0.977825
0.9999999986846917,1,0.999991
1.0,1,0.999993
0.9999999999999623,1,0.999993
0.9999999999999913,1,0.999993
1.0,1,0.999991
1.0,1,0.999985
1.0,1,0.999988
1.0,1,0.999992
0.9999999999999967,1,0.999896
0.9999999999999908,1,0.999987
0.9999999999999927,1,0.999988
1.0,1,0.999990
1.0,1,0.999992
0.9999999999999981,1,0.999988
1.0,1,0.999987
0.9999999999999948,1,0.999993
0.9999999999999938,1,0.999987
1.0,1,0.999993
1.0,1,0.999990
1.0,1,0.999985
0.9999999999999927,1,0.999989
1.0,1,0.999984
1.0,1,0.999989
1.0,1,0.999990
0.9999999999999584,1,0.999987
0.9999999999999891,1,0.999990
0.9999999999999862,1,0.999987
1.0,1,0.999993
1.0,1,0.999893
1.0,1,0.999983
1.0,1,0.999989
1.0,1,0.999992
1.0,1,0.999992
0.9999999999999885,1,0.999988
1.0,1,0.999979
1.0,1,0.999993
1.0,1,0.999993
1.0,1,0.999993
1.0,1,0.999991
1.0,1,0.999987
0.9999999999999637,1,0.999991
0.9999999999999399,1,0.999990
0.9999999999999847,1,0.999984
1.0,1,0.999980
0.9999999999999648,1,0.999992
0.9999999999999506,1,0.999993
1.0,1,0.999984
0.9999999999999832,1,0.999948
1.0,1,0.999988
0.9999999999999986,1,0.999989
0.999999999999996,1,0.999985
0.9999999999999805,1,0.999979
0.9999999999999755,1,0.999979
1.0,1,0.999932
0.9999999999999969,1,0.999984
0.9999999999999902,1,0.999990
0.9999999999999962,1,0.999991
1.0,1,0.999989
0.9999999999999938,1,0.999989
0.9999999999999835,1,0.999975
1.0,1,0.999987
0.9999999999999866,1,0.999984
1.0,1,0.999948
1.0,1,0.999990
1.0,1,0.999993
0.9999999999999852,1,0.999992
0.9999999999999992,1,0.999992
1.0,1,0.999990
0.9999999999999988,1,0.999993
1.0,1,0.999983
1.0,1,0.999989
1.0,1,0.999981
1.0,1,0.999987
0.9999999999999774,1,0.999981
0.9999999999999987,1,0.999919
0.9999999999999944,1,0.999989
1.0,1,0.999992
1.0,1,0.999992
1.0,1,0.999993
1.0,1,0.999991
0.9999999999999893,1,0.999993
1.0,1,0.999994
0.9999999999999885,1,0.999991
0.9999999999999961,1,0.999987
1.0,1,0.999988
0.99999999999996,1,0.999993
0.9999999999999906,1,0.999991
1.0,1,0.999984
1.0,1,0.999993
1.0,1,0.999983
1.0,1,0.999985
1.0,1,0.999976
1.0,1,0.999963
0.9999999999999895,1,0.999991
1.0,1,0.999989
0.999999999999991,1,0.999987
1.0,1,0.999987
1.0,1,0.999986
1.0,1,0.999989
1.0,1,0.999989
0.9999999999999853,1,0.999990
1.0,1,0.999984
0.9999999999999937,1,0.999965
0.9999999999999803,1,0.999993
1.0,1,0.999991
0.9999999999999993,1,0.999955
1.0,1,0.999990
0.9999999999999586,1,0.999991
1.0,1,0.999981
1.0,1,0.999987
0.999999999999987,1,0.999942
1.0,1,0.999988
0.9999999999999986,1,0.999975
1.0,1,0.999982
0.9999999999999672,1,0.999993
0.9999999999999993,1,0.999992
1.0,1,0.999988
1.0,1,0.999986
1.0,1,0.999987
0.9999992628971939,1,0.999991
0.9999999998952219,1,0.999989
1.0,1,0.999993
1.0,1,0.999993
0.9999754970921977,1,0.999993
0.9999998821458561,1,0.999993
0.99999999999955,1,0.999991
1.0,1,0.999993
0.9999999999999909,1,0.999984
1.0,1,0.999990
1.0,1,0.999991
1.0,1,0.999982
1.0,1,0.999986
0.9999999999999987,1,0.999980
0.999999999999996,1,0.999984
1.0,1,0.999983
1.0,1,0.999985
0.9999999999999972,1,0.999966
0.9999999999999798,1,0.999985
0.9999999999999865,1,0.999975
1.0,1,0.999971
0.9999999999999974,1,0.999987
0.9999999999999913,1,0.999985
1.0,1,0.999971
0.9999999999999987,1,0.999979
1.0,1,0.999984
0.9999999999999852,1,0.999991
1.0,1,0.999987
0.999999999999993,1,0.999993
0.9999999999999726,1,0.999991
1.0,1,0.999992
0.9999999999999846,1,0.999993
1.0,1,0.999990
0.9999999999999947,1,0.999992
0.9999999999999895,1,0.999992
1.0,1,0.999990
1.0,1,0.999991
0.9999999999999908,1,0.999993
0.9999999999999883,1,0.999993
0.9999999999999988,1,0.999990
0.999999999999998,1,0.999993
0.9999999999999942,1,0.999993
1.0,1,0.999993
0.9999999999999957,1,0.999991
0.9999999999999688,1,0.999991
0.9999999999999997,1,0.999983
0.9999999999999941,1,0.999989
0.999999999999986,1,0.999992
1.0,1,0.999993
0.9999999999999623,1,0.999988
0.9999999999999921,1,0.999992
0.999999999999983,1,0.999989
0.9999999999999797,1,0.999991
1.0,1,0.999987
1.0,1,0.999983
1.0,1,0.999991
0.9999999999999805,1,0.999988
1.0,1,0.999987
1.0,1,0.999991
1.0,1,0.999992
0.9999999999999921,1,0.999991
0.9999999999999658,1,0.999991
1.0,1,0.999987
1.0,1,0.999989
0.9999779658801715,1,0.999990
0.9999999977179252,1,0.999974
0.9999999999999774,1,0.999985
1.0,1,0.999987
0.9999999999999897,1,0.999974
1.0,1,0.999986
1.0,1,0.999982
1.0,1,0.999978
1.0,1,0.999872
1.0,1,0.999974
0.9999999999999987,1,0.999985
0.9999999999999916,1,0.999986
1.0,1,0.999973
1.0,1,0.999974
0.9999999999999968,1,0.999979
0.9774506185818764,1,0.999987
0.9998811662481865,1,0.999993
0.9999992228741197,1,0.999993
0.9999999994047798,1,0.999993
0.9999999999999424,1,0.999993
1.0,1,0.999992
0.9999999999999829,1,0.999993
0.9999999999999918,1,0.999986
1.0,1,0.999991
0.999999999999982,0,0.936695
0.9999999999999976,1,0.999992
0.9999999999999936,1,0.999993
0.9999999999999873,1,0.999993
1.0,1,0.999992
0.9999999999999865,1,0.999992
0.9999999999999932,1,0.999993
1.0,0,0.939892
0.9999999999999952,1,0.999993
0.9999999999999853,1,0.999993
0.9999999999999944,1,0.999991
0.9999999999999497,1,0.999991
0.9999999999999937,1,0.999993
0.9999999999999739,1,0.999993
0.9999999999999698,1,0.999992
0.9999999999999988,1,0.999992
1.0,1,0.999991
1.0,1,0.999991
0.9999999999999857,1,0.999990
1.0,1,0.999990
1.0,0,0.964167
0.9999999999999982,0,0.964582
1.0,1,0.999993
0.999999999999967,1,0.999993
1.0,1,0.999990
1.0,0,0.972452
1.0,0,0.998723
0.999999999999997,1,0.999991
1.0,1,0.999993
1.0,0,0.998249
0.9999999999999545,1,0.999987
1.0,1,0.999967
0.9999999999999996,1,0.999955
1.0,1,0.999970
0.9999999999999967,1,0.999958
1.0,1,0.999960
1.0,1,0.999977
1.0,1,0.999969
1.0,1,0.999963
1.0,1,0.999977
0.9999999999999911,1,0.999978
1.0,1,0.999991
0.999999999999957,1,0.999992
1.0,1,0.999992
0.9999999999999966,1,0.999988
1.0,1,0.999991
1.0,1,0.999991
1.0,1,0.999992
0.9999999999999969,1,0.999986
1.0,1,0.999967
1.0,1,0.999993
0.9999999999999987,1,0.999988
1.0,1,0.999989
1.0,1,0.999983
1.0,1,0.999978
1.0,1,0.999985
0.9999999999999993,1,0.999976
1.0,1,0.999975
1.0,1,0.999929
0.9999999999999873,1,0.999954
0.9999999999999784,1,0.999971
1.0,1,0.999990
1.0,1,0.999982
0.9999999999999957,1,0.999978
1.0,1,0.999984
1.0,1,0.999993
1.0,1,0.999971
1.0,1,0.999992
1.0,1,0.999991
1.0,1,0.999990
0.999999999999988,1,0.999992
0.9999999999999776,1,0.999990
0.9999999999999988,1,0.999992
1.0,1,0.999991
1.0,1,0.999992
1.0,1,0.999990
0.9999738994033569,1,0.999990
0.9999998724424918,1,0.999993
0.999999994180604,1,0.999990
0.9999999994683721,1,0.999992
0.9999999999966769,1,0.999985
0.9999999999999701,1,0.999986
0.9999999999999711,1,0.999993
0.9999999999999731,1,0.999993
1.0,1,0.999992
0.9999999999999732,1,0.999993
1.0,1,0.999992
0.9999999999999901,1,0.999991
0.9999999999999888,1,0.999993
0.9999999999999861,1,0.999992
1.0,1,0.999993
0.9999999999999618,1,0.999991
1.0,1,0.999981
0.9999876671806923,1,0.999990
0.99999999999995,1,0.999990
1.0,1,0.999990
1.0,1,0.999990
1.0,1,0.999993
1.0,1,0.999980
0.999999999999995,1,0.999985
0.9999999999999841,1,0.999973
1.0,1,0.999993
0.9999962074736473,1,0.999993
0.9999998249008529,1,0.999993
0.9999999982131937,1,0.999992
0.9999999995253516,1,0.999993
0.9999999999784296,1,0.999992
0.9999999999999933,1,0.999993
0.9999999999999917,1,0.999993
0.9999999999999812,1,0.999992
1.0,1,0.999992
0.9999999999999927,1,0.999991
0.9999999999999738,1,0.999992
0.9999999999999583,1,0.999992
1.0,1,0.999992
0.9999999999999956,1,0.999993
0.9999999999999992,1,0.999991
0.9999999999999953,1,0.999992
1.0,1,0.999989
1.0,1,0.999993
0.999999999999951,1,0.999993
0.9999999999999891,1,0.999989
0.9999999999999949,1,0.999987
1.0,1,0.999992
0.9999999999999984,1,0.999982
0.9999999999999968,1,0.999987
1.0,1,0.999990
0.9999999999999928,1,0.999981
1.0,1,0.999985
0.999999999999989,1,0.999987
0.9999999999999859,1,0.999985
1.0,1,0.999987
1.0,1,0.999986
1.0,1,0.999987
0.9999999999999886,1,0.999986
0.9999908230529472,1,0.999993
0.999925350405618,1,0.999993
0.9999996905008907,1,0.999993
0.999940484448498,1,0.999993
0.9999999999970337,1,0.999993
0.9999999999999958,1,0.999992
0.9999999999999905,1,0.999992
0.9999999999999948,1,0.999992
0.999999999999986,1,0.999993
0.9999983503258367,1,0.999992
0.9999999648559582,1,0.999992
0.9999999999989578,1,0.999992
0.9999999999997066,1,0.999991
0.999999999999988,1,0.999993
1.0,1,0.999991
0.9999999999999913,1,0.999989
1.0,1,0.999993
1.0,1,0.999991
1.0,1,0.999991
0.999999999999992,1,0.999988
1.0,1,0.999988
0.999999999999991,1,0.999988
1.0,1,0.999988
1.0,1,0.999988
0.9999999999999883,1,0.999989
1.0,1,0.999991
0.9999999999999823,1,0.999991
0.999999999999985,1,0.999993
0.9999999999999951,1,0.999976
0.9999999999999939,1,0.999989
0.9999999999999881,1,0.999989
0.9999999999999953,1,0.999987
0.9999999999999865,1,0.999987
0.9998988447831523,1,0.999993
0.9999578191551717,1,0.999993
0.9999991490717339,1,0.999992
0.9999999607689458,1,0.999991
0.999999999974651,1,0.999991
0.999999999993501,1,0.999991
1.0,1,0.999990
0.9999999999999879,1,0.999993
1.0,1,0.999993
0.9999999999999927,1,0.999993
1.0,1,0.999992
1.0,1,0.999992
1.0,1,0.999992
1.0,1,0.999990
1.0,1,0.999988
0.9999999999999918,1,0.999988
1.0,1,0.999993
0.9999999999999671,1,0.999989
0.99999999999998,1,0.999981
1.0,1,0.999992
0.9999999999999829,1,0.999993
0.45276017786620376,0,0.976236
0.9999928153852404,0,0.952369
0.9999999999877561,1,0.999982
0.9999999999999983,1,0.999986
0.9999999999999905,1,0.999986
1.0,1,0.999987
0.999999999999992,1,0.999992
1.0,1,0.999991
0.9999999999999755,0,0.957153
0.9999878147757338,1,0.999992
0.9999991408819602,1,0.999989
0.9999999738209083,1,0.999990
0.999999997602089,1,0.999991
0.9999999999994555,1,0.999989
1.0,1,0.999991
1.0,1,0.999993
1.0,1,0.999960
1.0,1,0.999991
0.9999999999999954,1,0.999993
1.0,1,0.999989
0.9998425882658104,1,0.999992
0.9999954514940088,1,0.999992
0.999999610813986,1,0.999988
0.9999999999998446,1,0.999992
1.0,1,0.999993
1.0,1,0.999992
1.0,1,0.999993
0.9999999999999771,1,0.999993
0.9999999999999918,1,0.999988
1.0,1,0.999983
0.9999999999999936,1,0.999983
1.0,1,0.999987
1.0,1,0.999983
1.0,1,0.999990
0.9999999999999922,1,0.999993
1.0,1,0.999992
1.0,1,0.999993
0.99999999999998,1,0.999990
0.9999999999999659,1,0.999986
0.9999999999999952,1,0.999992
0.9999999999999842,1,0.999993
1.0,1,0.999993
1.0,1,0.999993
1.0,1,0.999993
1.0,1,0.999993
1.0,1,0.999993
1.0,1,0.999993
0.9999999999999886,1,0.999990
1.0,1,0.999993
0.9999999999999948,1,0.999989
0.9999999999999969,1,0.999918
1.0,1,0.999992
0.9999999999999976,1,0.999985
1.0,1,0.999971
1.0,1,0.999986
0.9999999999999902,1,0.999987
0.9999999999999913,1,0.999987
0.9999999999999839,1,0.999945
0.9999999999999978,1,0.999986
0.9999999999999942,1,0.999988
0.9999151900020852,1,0.999993
0.999990847001404,1,0.999991
0.9999998360491417,1,0.999992
0.9999999850847423,1,0.999990
0.9999999999737079,1,0.999990
0.9999999999999741,1,0.999991
1.0,1,0.999992
0.9999999999999974,1,0.999991
1.0,1,0.999993
0.999681282896607,1,0.999992
0.9999999999941378,1,0.999993
0.999999999999933,1,0.999993
0.9999999999999976,1,0.999992
0.9999999999999829,1,0.999992
1.0,1,0.999993
0.9999999999999903,1,0.999993
1.0,1,0.999992
0.9999999999999969,1,0.999993
1.0,1,0.999990
1.0,1,0.999990
1.0,1,0.999992
1.0,1,0.999989
1.0,1,0.999990
0.999999999999991,1,0.999992
0.99999999999999,1,0.999992
0.9999999999999878,1,0.999992
0.9999999999999952,1,0.999993
0.9999999999999956,1,0.999991
1.0,1,0.999993
0.9999999999999919,1,0.999991
1.0,1,0.999990
0.9999999999999789,1,0.999992
0.9999999999999906,1,0.999992
0.9999999999999916,1,0.999993
1.0,1,0.999992
1.0,1,0.999990
1.0,1,0.999992
0.9999999999999994,1,0.999993
0.9999999999999835,1,0.999986
0.9999999999999862,1,0.999979
0.9996348959200043,1,0.999989
0.9999953212847003,1,0.999988
0.9999988712856376,1,0.999976
0.9999996557687522,1,0.999974
0.9999999949064867,1,0.999991
1.0,1,0.999991
0.9999999999999848,1,0.999980
0.9999999999999561,1,0.999989
0.9999999999999958,1,0.999987
1.0,1,0.999986
0.9999999999999585,1,0.999974
0.9999999999999932,1,0.999976
0.9999999999999979,1,0.999990
1.0,1,0.999993
1.0,1,0.999993
0.9999999999999946,1,0.999993
0.9999999999999364,1,0.999991
1.0,1,0.999993
0.9999999999999749,1,0.999993
0.9999999999999926,1,0.999993
0.9999999999999677,1,0.999993
1.0,1,0.999990
1.0,1,0.999970
1.0,1,0.999968
0.9999999999999908,1,0.999988
0.9999999999999761,1,0.999988
0.9999999999999964,1,0.999986
1.0,1,0.999983
0.999999999999996,1,0.999982
1.0,1,0.999977
1.0,1,0.999981
0.9999999999999933,1,0.999983
1.0,1,0.999981
1.0,1,0.999981
1.0,1,0.999984
0.9999999999999922,1,0.999982
1.0,1,0.999984
0.9999999999999838,1,0.999993
1.0,1,0.999993
1.0,1,0.999993
1.0,1,0.999992
0.9999999999999984,1,0.999991
1.0,1,0.999993
0.9999999999999781,1,0.999993
1.0,1,0.999991
1.0,1,0.999992
1.0,1,0.999992
0.9999999999999816,1,0.999993
1.0,1,0.999991
1.0,1,0.999992
0.9999999999999889,1,0.999993
0.999999999999969,1,0.999992
1.0,1,0.999992
1.0,1,0.999990
1.0,1,0.999993
0.9999999999999933,1,0.999993
1.0,1,0.999991
0.9999999999999819,1,0.999990
1.0,1,0.999991
1.0,1,0.999989
0.9999999999999531,1,0.999992
0.9999999999999902,1,0.999992
0.9999999999999978,1,0.999980
0.9999999999999687,1,0.999991
0.9999999999999943,1,0.999990
0.9999999999999915,1,0.999991
0.9999999999999787,1,0.999958
1.0,1,0.999992
1.0,1,0.999993
0.9999999999999599,1,0.999992
1.0,1,0.999992
0.9999999999999941,1,0.999965
1.0,1,0.999958
1.0,1,0.999908
1.0,1,0.999888
0.9999999999999999,1,0.999987
0.9999999999999928,1,0.999992
1.0,1,0.999866
1.0,1,0.999990
0.9999999999999939,1,0.999987
0.9998279163885931,1,0.999992
0.999999999698617,1,0.999993
0.9896159094558525,0,0.920836
0.9999999997355715,1,0.999979
0.999999999999922,0,0.932481
0.9999999999999812,0,0.935412
0.9999999999999871,1,0.999993
0.9999999999999982,0,0.939408
0.9999999999999856,0,0.997847
0.9999999999999742,1,0.999993
0.999874426232241,1,0.999993
0.9999975304077144,0,0.992401
0.9999999894583624,1,0.999993
0.9999999999999969,1,0.999991
1.0,1,0.999993
1.0,1,0.999992
0.9997393171964927,1,0.999993
0.999999822985293,1,0.999991
0.9999999448453111,1,0.999993
0.9999999999999863,1,0.999993
0.9999999999999738,1,0.999993
0.9999999999999791,1,0.999992
1.0,1,0.999992
0.9999999999999839,1,0.999993
1.0,0,0.974388
1.0,0,0.977605
0.9999999999999988,0,0.974565
1.0,1,0.999993
1.0,1,0.999986
1.0,1,0.999981
1.0,0,0.991359
1.0,1,0.999988
0.9999999999999885,0,0.992748
0.9999999999999918,1,0.999986
1.0,1,0.999984
1.0,1,0.999982
1.0,1,0.999984
1.0,1,0.999985
0.9999999999999896,1,0.999987
0.9999999999999897,1,0.999987
1.0,1,0.999988
1.0,1,0.999986
1.0,1,0.999988
0.9999999999999978,1,0.999988
0.9999999999999976,1,0.999984
1.0,1,0.999993
1.0,1,0.999993
1.0,1,0.999993
0.9999999999999983,1,0.999993
1.0,1,0.999992
1.0,1,0.999992
1.0,1,0.999992
1.0,1,0.999992
0.9999999999999966,1,0.999992
0.9999999999999979,1,0.999992
1.0,1,0.999993
0.9999999999999941,1,0.999991
1.0,1,0.999992
0.9999999999999776,1,0.999992
1.0,1,0.999993
1.0,1,0.999992
0.9999999999999971,1,0.999991
0.9999999999999957,1,0.999992
1.0,1,0.999992
1.0,1,0.999992
1.0,1,0.999990
0.9999999999999972,1,0.999990
1.0,1,0.999993
0.9999999999999925,1,0.999992
0.9999999999999961,1,0.999991
1.0,1,0.999990
0.9999999999999808,1,0.999992
0.9999999999999717,1,0.999993
0.9999998746477912,1,0.999993
0.9999999960583388,1,0.999992
0.9999999974735115,1,0.999991
0.999999999999897,1,0.999991
1.0,1,0.999993
1.0,1,0.999990
1.0,1,0.999992
1.0,1,0.999991
1.0,1,0.999993
0.9999999999999697,1,0.999993
0.999999999999997,1,0.999989
1.0,1,0.999993
0.9999999999999993,1,0.999991
0.9999999999999999,1,0.999990
0.9999999999999882,1,0.999988
0.9999999999999966,1,0.999972
0.9999999999999984,1,0.999972
0.9999999999999934,1,0.999976
1.0,1,0.999972
0.9999999999999977,1,0.999972
0.9999999999999946,1,0.999973
0.9999999999999989,1,0.999962
0.9999999999999954,1,0.999900
0.9999999999999831,1,0.999960
0.9999999999999822,1,0.999906
1.0,1,0.999989
0.9999999999999666,1,0.999992
1.0,1,0.999959
0.9999986964826513,1,0.999989
0.9999999999559215,1,0.999976
1.0,1,0.999991
1.0,1,0.999992
1.0,1,0.999991
1.0,1,0.999991
1.0,1,0.999990
1.0,1,0.999992
0.9999999999999831,1,0.999994
1.0,1,0.999992
0.99999999999999,1,0.999992
1.0,1,0.999991
0.9999999999999577,1,0.999993
0.9999999999999849,1,0.999989
1.0,1,0.999991
1.0,1,0.999993
1.0,1,0.999978
1.0,1,0.999987
1.0,1,0.999986
1.0,1,0.999983
0.9999999999999921,1,0.999981
0.9999999999999951,1,0.999968
1.0,1,0.999979
0.9999999999999915,1,0.999972
1.0,1,0.999968
0.9999999999999938,1,0.999989
1.0,1,0.999951
1.0,1,0.999988
0.9999999999999987,1,0.999990
0.9999999999999853,1,0.999985
1.0,1,0.999989
0.9999999999999892,1,0.999937
0.9999999999999962,1,0.999988
1.0,1,0.999993
0.9999999999999963,1,0.999993
0.9999999999999669,1,0.999988
1.0,1,0.999988
0.9999999999999799,1,0.999992
1.0,1,0.999992
0.9999999999999881,1,0.999984
1.0,1,0.999988
1.0,1,0.999988
1.0,1,0.999988
1.0,1,0.999978
1.0,1,0.999986
1.0,1,0.999993
0.9999999999999944,1,0.999993
0.9999999999999852,1,0.999993
0.9999999999999797,1,0.999993
1.0,1,0.999993
1.0,1,0.999993
0.9999999999999798,1,0.999993
0.9999999999999768,1,0.999992
0.999999999999997,1,0.999993
1.0,1,0.999993
1.0,1,0.999993
1.0,1,0.999993
0.9999999999999879,1,0.999993
0.9999999999999996,1,0.999991
1.0,1,0.999990
1.0,1,0.999992
1.0,1,0.999991
0.9999999999999956,1,0.999992
1.0,1,0.999993
1.0,1,0.999991
1.0,1,0.999975
0.9999999999999911,1,0.999989
1.0,1,0.999993
1.0,1,0.999993
0.9999999999999656,1,0.999993
1.0,1,0.999993
1.0,1,0.999990
1.0,1,0.999986
1.0,1,0.999992
0.9999999999999761,1,0.999980
0.999999670948257,1,0.999993
0.9999999999794933,1,0.999988
0.9999999999894692,1,0.999990
0.999864453323796,1,0.999990
0.9999999999995205,1,0.999993
0.9999999999999997,1,0.999993
0.9999999999999897,1,0.999993
0.9999999999999867,1,0.999984
0.999999999999968,1,0.999966
1.0,1,0.999991
0.9999999999999556,1,0.999986
1.0,1,0.999985
1.0,1,0.999891
1.0,1,0.999977
1.0,1,0.999985
1.0,1,0.999985
0.9999999999999877,1,0.999983
1.0,1,0.999988
0.9999999999999971,1,0.999984
0.9999999999999782,1,0.999984
0.9999999999999867,1,0.999983
1.0,1,0.999984
1.0,1,0.999978
1.0,1,0.999978
0.9999999999999999,1,0.999986
1.0,1,0.999983
0.9999999999999974,1,0.999980
0.9735866123176017,0,0.933287
0.9999999999983002,1,0.999979
1.0,1,0.999977
0.999999999999999,1,0.999981
0.9999999999999929,1,0.999993
1.0,1,0.999993
1.0,1,0.999992
1.0,1,0.999993
0.9999999999999892,1,0.999993
1.0,1,0.999992
0.9999999999999973,1,0.999991
1.0,1,0.999993
0.9999999999999922,1,0.999991
0.9999999999999988,1,0.999992
1.0,1,0.999993
1.0,1,0.999993
1.0,1,0.999992
1.0,1,0.999993
0.9999999999999726,1,0.999992
1.0,0,0.988813
1.0,1,0.999989
0.9999999999999928,0,0.991164
0.9999999999999857,1,0.999991
0.9999999999999756,0,0.991391
0.9999999999999831,0,0.992004
0.9999999999999833,1,0.999992
1.0,1,0.999993
0.9999999999999992,1,0.999991
1.0,1,0.999993
1.0,1,0.999993
0.9999999999999656,1,0.999992
1.0,1,0.999984
0.9999999999999907,1,0.999974
0.9999999999999895,1,0.999981
0.9999999999999947,1,0.999989
1.0,1,0.999993
1.0,1,0.999993
0.9999999999999927,1,0.999992
1.0,1,0.999993
1.0,1,0.999993
0.9999999999999857,1,0.999992
1.0,1,0.999992
0.99999999999999,1,0.999993
0.9999999999999917,1,0.999992
0.9998808527855771,1,0.999993
0.9999999332926829,1,0.999993
0.9999999980552003,1,0.999992
0.999999999999244,1,0.999993
0.9999999999999419,1,0.999991
1.0,1,0.999993
1.0,1,0.999992
1.0,1,0.999993
1.0,1,0.999990
1.0,1,0.999991
1.0,1,0.999993
1.0,1,0.999990
1.0,1,0.999976
1.0,1,0.999993
0.9999999999999918,1,0.999991
0.9999999999999976,1,0.999954
1.0,1,0.999988
1.0,1,0.999965
0.9999999999999662,1,0.999991
0.9999999999999765,1,0.999968
0.9999999999999944,1,0.999989
1.0,1,0.999974
0.9999999999999994,1,0.999971
0.9999999999999996,1,0.999989
1.0,1,0.999988
0.9999999999999762,1,0.999988
0.9999999999999967,1,0.999974
1.0,1,0.999990
0.9999999999999867,1,0.999990
1.0,1,0.999992
1.0,1,0.999991
0.9999999999999987,1,0.999988
1.0,1,0.999964
0.9999999999999691,1,0.999991
1.0,1,0.999988
0.9999999999999972,1,0.999991
0.9999999999999877,1,0.999992
1.0,1,0.999951
0.9999999999999947,1,0.999992
0.9999999999999826,1,0.999989
0.9999999999999998,1,0.999983
1.0,1,0.999987
1.0,1,0.999990
1.0,1,0.999990
1.0,1,0.999992
0.999999999999975,1,0.999991
1.0,1,0.999970
1.0,1,0.999954
0.9999999999999855,1,0.999983
0.9999860349275004,1,0.999993
0.9999928912778484,1,0.999990
0.999999894029064,1,0.999984
0.9999999289666471,1,0.999982
0.9999999354002739,1,0.999982
0.999999999878227,1,0.999988
0.999999999999984,1,0.999990
1.0,1,0.999988
0.9999999999999972,1,0.999963
0.9999999999999762,1,0.999935
0.9999999999999977,1,0.999993
0.9999999999999806,1,0.999991
0.9999999999999765,1,0.999989
0.9999999999999831,1,0.999992
1.0,1,0.999972
1.0,1,0.999985
0.9991583495003151,1,0.999990
0.9990696643440147,0,0.999634
0.9994297306293355,1,0.999978
0.9994689247142703,1,0.999989
0.9999959678854204,1,0.999970
0.999999999769205,1,0.999772
0.9999999999902508,1,0.999988
0.999999999999982,1,0.999988
0.9999999999999919,1,0.999964
0.999999999999987,1,0.999984
1.0,1,0.999986
0.9998084615944456,1,0.999993
0.9998812029395722,1,0.999992
0.9998983967586167,1,0.999992
0.9999982096699032,1,0.999992
0.9999999732806687,1,0.999991
0.9999999998231209,1,0.999993
0.9999999999999583,1,0.999993
0.9999999999999516,1,0.999985
0.9999999999999888,1,0.999985
0.9999969934238394,1,0.999993
0.9999999986769001,1,0.999991
0.9999999999999942,1,0.999985
0.9999999999999912,1,0.999993
0.999999999999997,1,0.999958
0.9999999999999868,1,0.999949
1.0,1,0.999989
1.0,1,0.999812
1.0,1,0.999984
0.9999999999999757,1,0.999979
1.0,1,0.999982
0.9999999999999869,1,0.999993
1.0,1,0.999993
1.0,1,0.999984
1.0,0,0.999835
0.9999999999999939,1,0.999993
0.9999999999999827,1,0.999989
0.9999999999999961,0,0.999882
1.0,1,0.999990
1.0,1,0.999992
0.9999999999999829,1,0.999992
1.0,1,0.999993
0.9999999999999851,1,0.999992
0.9999999999999926,1,0.999989
1.0,1,0.999992
1.0,1,0.999992
0.9999999999999787,1,0.999992
1.0,1,0.999993
0.9999999999999922,1,0.999991
1.0,1,0.999993
0.9999999999999687,1,0.999992
0.999999999999999,1,0.999964
0.9999999999999993,1,0.999980
1.0,1,0.999985
0.9999999999999883,1,0.999993
1.0,1,0.999992
0.9999999999999917,1,0.999992
1.0,1,0.999991
0.9999999999999886,1,0.999992
0.9999999999999797,1,0.999988
0.9999999999999873,1,0.999987
1.0,1,0.999988
1.0,1,0.999992
0.9999999999999857,1,0.999991
1.0,1,0.999992
0.999999999999988,1,0.999991
0.9999999999999961,1,0.999986
0.9999999999999998,1,0.999975
0.9999999999999984,1,0.999944
1.0,1,0.999978
1.0,1,0.999987
0.9999999999999785,1,0.999983
1.0,1,0.999990
0.9999999999999828,1,0.999989
1.0,1,0.999983
0.9999999999999747,1,0.999987
0.9999999999999923,1,0.999984
1.0,1,0.999989
1.0,1,0.999990
1.0,1,0.999992
1.0,1,0.999993
1.0,1,0.999993
1.0,1,0.999992
1.0,1,0.999992
1.0,1,0.999991
1.0,1,0.999992
0.9999999999999929,1,0.999991
1.0,1,0.999993
0.9999999999999932,1,0.999976
1.0,1,0.999993
0.9999999999999932,1,0.999990
1.0,1,0.999965
0.999999999999994,1,0.999993
0.9999999999999887,1,0.999993
0.9999999999999831,1,0.999993
1.0,1,0.999993
0.9999999999999967,1,0.999993
0.9999999999999998,1,0.999992
0.9999999999999963,1,0.999990
1.0,1,0.999993
0.9999999999999919,1,0.999990
1.0,1,0.999991
0.9999999999999879,1,0.999989
0.9999999999999978,1,0.999986
1.0,1,0.999993
1.0,1,0.999993
0.9999999999999963,1,0.999985
1.0,1,0.999988
0.9999999999999865,1,0.999988
0.9999968937671165,1,0.999985
0.9999999999998902,1,0.999987
0.9999999999999971,1,0.999985
0.9999999999999831,1,0.999982
0.9999999999999849,1,0.999981
0.9999999999999942,1,0.999985
0.9999999999999979,1,0.999985
0.9999999999999998,1,0.999986
0.9999999999999976,1,0.999993
0.9999999999999817,0,0.999359
1.0,1,0.999992
1.0,1,0.999991
0.9999999999999826,1,0.999993
1.0,1,0.999993
0.9999999999999595,1,0.999993
1.0,1,0.999991
1.0,1,0.999989
0.9999999999999954,1,0.999993
0.999999999999996,1,0.999993
0.9999999999999821,1,0.999992
0.9999999999999492,1,0.999991
0.9999999999999766,1,0.999986
1.0,1,0.999985
1.0,1,0.999986
0.9999999999999816,1,0.999975
1.0,1,0.999979
0.999999999999992,1,0.999965
0.9999999999999978,1,0.999950
0.9999571515690172,1,0.999993
0.999999963170892,1,0.999991
0.9999999997732096,1,0.999989
0.9999999999998941,1,0.999983
1.0,1,0.999991
0.9999999999999932,1,0.999963
1.0,1,0.999975
1.0,1,0.999990
0.9999999999999751,1,0.999989
0.9999999999999957,1,0.999990
0.9999999999999876,1,0.999989
1.0,1,0.999987
0.99999999999998,1,0.999991
0.9999999999999791,1,0.999993
0.9999999999999806,1,0.999992
1.0,1,0.999979
0.9999999999999911,1,0.999985
0.9999999999999929,1,0.999965
0.9999999999999859,1,0.999978
0.9999999999999934,1,0.999965
1.0,1,0.999848
1.0,1,0.999990
1.0,1,0.999993
1.0,1,0.999993
1.0,1,0.999992
0.9999999999999969,1,0.999988
0.9999999999999758,1,0.999978
1.0,1,0.999979
1.0,1,0.999979
1.0,1,0.999979
1.0,1,0.999959
1.0,1,0.999989
1.0,1,0.999993
1.0,1,0.999943
1.0,1,0.999974
1.0,1,0.999981
0.999999999999991,1,0.999979
0.9999999999999896,1,0.999979
1.0,1,0.999993
0.9999999999999902,1,0.999993
1.0,1,0.999993
1.0,1,0.999993
1.0,1,0.999992
0.9999999999999988,1,0.999991
0.9999999999999608,1,0.999993
0.9999999999999998,1,0.999992
1.0,1,0.999993
0.9999999999999972,1,0.999992
0.999999999999996,1,0.999991
0.9999999999999735,1,0.999991
1.0,1,0.999993
1.0,1,0.999992
0.9999999999999902,1,0.999993
0.999999999999962,1,0.999989
1.0,1,0.999993
1.0,1,0.999993
0.9999999999999767,1,0.999993
1.0,1,0.999993
1.0,1,0.999993
0.999999999999986,1,0.999982
0.999999999999992,1,0.999974
1.0,1,0.999991
1.0,1,0.999928
0.9999999999999885,1,0.999980
0.9999999999999963,1,0.999981
0.9999999999999837,1,0.999992
1.0,1,0.999992
1.0,1,0.999993
1.0,1,0.999993
1.0,1,0.999989
0.9999999999999757,1,0.999988
0.9999999999999971,1,0.999993
0.9999999999999789,1,0.999992
0.9998625501664462,1,0.999992
0.9999999999999987,1,0.999992
1.0,1,0.999993
0.999999999999996,1,0.999993
1.0,1,0.999992
0.9999999999999778,1,0.999993
0.9999999999999756,1,0.999993
0.9999999999999807,1,0.999991
0.9999999999999988,1,0.999991
0.99999999999998,1,0.999963
1.0,1,0.999856
0.9999999999999964,1,0.999987
1.0,1,0.999990
1.0,1,0.999989
1.0,1,0.999987
1.0,1,0.999973
1.0,1,0.999985
0.9999999999999954,1,0.999966
1.0,1,0.999993
1.0,1,0.999993
0.9999999999999664,1,0.999993
0.9999999999999994,1,0.999992
1.0,1,0.999992
0.9999999999999729,1,0.999993
1.0,1,0.999993
1.0,1,0.999993
0.9999999999999928,1,0.999993
1.0,1,0.999986
0.9999999999999911,1,0.999993
0.9999999999999882,1,0.999989
1.0,1,0.999982
0.9999999999999958,1,0.999983
0.9999999999999964,1,0.999987
1.0,1,0.999992
1.0,1,0.999991
0.9999999999999943,1,0.999983
0.9999999999999959,1,0.999978
1.0,1,0.999993
1.0,1,0.999993
0.9999924310321083,1,0.999983
0.9999999649360379,1,0.999984
0.9999999999954869,1,0.999986
0.9999999999999892,1,0.999985
0.9999675328521385,1,0.999993
0.9999999844867498,1,0.999991
0.9999999999994609,1,0.999990
0.9999999999997763,1,0.999988
0.9999999999999986,1,0.999991
0.999999999999982,1,0.999993
1.0,1,0.999993
1.0,1,0.999991
0.9999999999999886,1,0.999993
0.9999999999999903,1,0.999968
0.9999999999999997,1,0.999959
1.0,1,0.999979
0.9999999999999983,1,0.999948
0.9999999999999931,1,0.999985
1.0,1,0.999984
0.9999999999999952,1,0.999985
0.9999999999999951,1,0.999984
1.0,1,0.999983
0.9999999999999825,1,0.999985
0.9999999999999976,1,0.999980
1.0,1,0.999971
1.0,1,0.999984
1.0,1,0.999993
1.0,1,0.999993
0.9999999999999858,1,0.999992
1.0,1,0.999993
1.0,1,0.999992
1.0,1,0.999993
1.0,1,0.999992
1.0,1,0.999991
0.9999999999999938,1,0.999991
1.0,1,0.999970
1.0,1,0.999991
1.0,1,0.999993
1.0,1,0.999993
0.9999990309721037,1,0.999993
0.9999999999943778,1,0.999992
0.9999999999999964,1,0.999992
0.9999999999999964,1,0.999989
0.993471283321629,0,0.914888
0.9957705032693395,0,0.992277
0.9999966649936067,1,0.999993
0.9999999959472166,1,0.999993
0.9999999995704427,0,0.965372
0.9999999999998794,1,0.999993
1.0,0,0.972626
0.9999999999999907,1,0.999993
1.0,1,0.999992
1.0,1,0.999992
0.999999999999992,1,0.999981
0.9999999999999798,1,0.999985
1.0,1,0.999963
0.9999793639516222,1,0.999993
0.9999994517189573,1,0.999992
0.9999999928582676,1,0.999992
1.0,1,0.999993
0.999999999999998,1,0.999990
1.0,1,0.999990
1.0,1,0.999989
1.0,1,0.999986
0.9999999999999922,1,0.999987
1.0,1,0.999927
1.0,1,0.999988
1.0,1,0.999991
0.9999999999999791,1,0.999991
0.999999999999985,1,0.999993
0.9999999999999974,1,0.999992
0.9999999999999746,1,0.999989
0.9999999999999889,1,0.999967
0.999999999999975,1,0.999981
0.9999999999999831,1,0.999985
1.0,1,0.999982
0.9999999999999661,1,0.999984
0.9999999999999832,1,0.999932
1.0,0,0.998385
1.0,1,0.999984
1.0,1,0.999971
0.9999999999999724,1,0.999977
0.9999999999999865,1,0.999957
1.0,1,0.999977
1.0,1,0.999953
1.0,1,0.999984
0.9999999999999815,1,0.999975
0.9999999999999956,1,0.999975
0.9999999999999984,1,0.999960
1.0,1,0.999979
0.9999999999999917,1,0.999981
0.9999999999999974,1,0.999983
0.9999999999999793,1,0.999993
1.0,1,0.999993
1.0,1,0.999993
1.0,1,0.999993
0.9999999999999833,1,0.999993
1.0,1,0.999993
1.0,1,0.999993
0.9999999999999812,1,0.999993
0.99999999999998,1,0.999993
0.9999999999999803,1,0.999991
1.0,1,0.999990
0.9999999999999946,1,0.999992
0.9999999999999915,1,0.999992
1.0,1,0.999992
0.9999999999999885,1,0.999991
1.0,1,0.999992
1.0,1,0.999992
1.0,1,0.999991
0.9999999999999973,1,0.999990
0.9999999999999928,1,0.999991
1.0,1,0.999989
0.9999999999999803,1,0.999978
1.0,1,0.999992
1.0,1,0.999990
1.0,1,0.999992
1.0,1,0.999991
1.0,1,0.999992
1.0,1,0.999988
0.9999999999999691,1,0.999893
0.9999999999999849,1,0.999992
1.0,1,0.999988
0.9999999999999823,1,0.999986
1.0,1,0.999990
0.9999999999999744,1,0.999982
1.0,1,0.999983
1.0,1,0.999991
1.0,1,0.999993
1.0,1,0.999992
0.9999999999999715,1,0.999989
1.0,1,0.999993
1.0,1,0.999993
1.0,1,0.999993
1.0,1,0.999993
0.999999999999998,1,0.999987
1.0,1,0.999993
0.9999999999999983,1,0.999986
0.9999999999999939,1,0.999982
1.0,1,0.999978
0.9999999999999936,1,0.999983
0.9999999999999974,1,0.999993
0.9999999999999962,1,0.999990
1.0,0,0.999887
1.0,1,0.999990
1.0,1,0.999993
1.0,1,0.999993
0.9999999999999979,1,0.999990
1.0,1,0.999981
0.9999999999999959,1,0.999989
1.0,1,0.999993
0.999999999999999,1,0.999993
0.9999999999999857,1,0.999993
0.9999999999999957,1,0.999992
1.0,1,0.999993
1.0,1,0.999993
0.9999999999999893,1,0.999993
0.9999999999999866,1,0.999993
1.0,1,0.999993
0.9999999999999961,1,0.999992
0.9999999999999901,1,0.999992
0.9999999999999782,1,0.999991
1.0,1,0.999993
0.9999999999999954,1,0.999991
1.0,1,0.999992
0.9999999999999979,1,0.999989
0.9999999999999991,1,0.999992
1.0,1,0.999974
1.0,1,0.999986
1.0,1,0.999975
0.9999999999999997,1,0.999975
0.9999999999999988,1,0.999904
0.9999999999999962,1,0.999969
1.0,1,0.999978
0.9999999999999948,1,0.999979
1.0,1,0.999966
1.0,1,0.999969
1.0,1,0.999957
0.9999999999999787,1,0.999981
0.9999758564531691,1,0.999993
0.9999980350268579,1,0.999992
0.9999999999509269,1,0.999993
0.9999999999937534,1,0.999992
0.9999999999999268,1,0.999993
0.9999999999999792,1,0.999991
1.0,1,0.999992
1.0,1,0.999991
0.9999894679569815,1,0.999992
0.9999999420704853,1,0.999989
0.9999999995979931,1,0.999990
0.9999999997099854,1,0.999987
0.9999999999999677,1,0.999993
1.0,1,0.999993
0.9999999999999608,1,0.999992
1.0,1,0.999993
0.9999999999999882,1,0.999993
1.0,1,0.999990
0.9999999999999883,1,0.999993
1.0,1,0.999993
0.9999999999999987,1,0.999992
1.0,1,0.999992
1.0,1,0.999993
0.9999999999999948,1,0.999993
0.9999999999999861,1,0.999990
0.9999999999999916,1,0.999993
1.0,1,0.999993
0.9999999999999969,1,0.999993
0.9999999999999695,1,0.999992
1.0,1,0.999993
1.0,1,0.999993
1.0,1,0.999980
0.9999999999999978,1,0.999984
0.999999999999998,1,0.999987
0.9999999999999989,1,0.999985
0.9999999999999992,1,0.999989
0.999999999999994,1,0.999989
1.0,1,0.999988
1.0,1,0.999983
0.9999999999999928,1,0.999987
1.0,1,0.999991
0.9999999999999829,1,0.999992
0.9999999999999956,1,0.999993
1.0,1,0.999993
1.0,1,0.999987
0.9999999999999877,1,0.999986
1.0,1,0.999992
0.9999999999999751,1,0.999994
1.0,1,0.999991
1.0,1,0.999991
1.0,1,0.999992
1.0,1,0.999988
0.9999999999999647,1,0.999975
1.0,1,0.999988
0.9999999999999858,1,0.999867
0.9999999999999832,1,0.999989
0.9999999999999759,1,0.999993
1.0,1,0.999986
1.0,1,0.999988
1.0,1,0.999971
1.0,1,0.999989
1.0,1,0.999991
0.9999999999999987,1,0.999988
0.9999999999999845,1,0.999991
1.0,1,0.999993
1.0,1,0.999993
1.0,1,0.999993
0.99999999999996,1,0.999989
0.999982812654499,1,0.999993
0.999982076032551,1,0.999992
0.9999914664587191,1,0.999986
0.9999999995635563,1,0.999992
0.9999999999766829,1,0.999990
0.9999999999999966,1,0.999990
1.0,1,0.999992
0.9999989576610397,1,0.999993
0.9999999926381807,1,0.999993
0.9999998991740524,1,0.999992
0.9999999999460701,1,0.999992
0.9999999999999921,1,0.999972
0.9999999999999957,1,0.999984
1.0,1,0.999993
0.9999999999999968,1,0.999993
0.9999999999999848,1,0.999993
0.999999999999977,1,0.999992
1.0,1,0.999992
1.0,1,0.999993
0.9999860608842944,1,0.999993
0.9999999825079106,1,0.999993
0.9999999933131318,1,0.999993
0.999999999972236,1,0.999993
0.9999999999998718,1,0.999992
1.0,1,0.999989
0.9999998266842408,1,0.999991
1.0,1,0.999990
0.9999999999999906,1,0.999993
0.999999999999974,1,0.999993
1.0,1,0.999993
0.9999999999999835,1,0.999986
0.9999999999999971,1,0.999988
0.9999999999999939,1,0.999934
1.0,1,0.999988
1.0,1,0.999972
0.9999999999999991,1,0.999987
0.9999999999999996,1,0.999986
0.999936345678741,1,0.999991
0.9999886520755713,1,0.999993
0.9999965402876569,1,0.999990
0.9999998957157141,1,0.999992
0.9999999999996155,1,0.999993
0.9999999999999953,1,0.999989
0.9999999999999983,1,0.999991
1.0,1,0.999991
1.0,1,0.999989
0.9999999999999903,1,0.999993
1.0,1,0.999981
1.0,1,0.999990
1.0,1,0.999989
1.0,1,0.999991
0.9999999999999922,1,0.999962
1.0,1,0.999947
0.9999999999999895,1,0.999965
0.9999255636421914,1,0.999990
0.9999971290611857,1,0.999985
0.999999996219073,1,0.999992
1.0,1,0.999993
1.0,1,0.999987
1.0,1,0.999987
1.0,1,0.999984
0.9999999999999734,1,0.999993
1.0,1,0.999992
0.9999999999999974,1,0.999993
1.0,1,0.999992
1.0,1,0.999993
0.9999999999999819,1,0.999993
0.9999999999999962,1,0.999993
1.0,1,0.999993
0.9999999999999866,1,0.999993
0.9999999999999865,1,0.999992
0.9999999999999852,1,0.999993
0.9999999999999849,1,0.999992
0.9999999999999813,1,0.999993
0.9999999999999911,1,0.999989
1.0,1,0.999993
0.9999999999999962,1,0.999993
1.0,1,0.999993
1.0,1,0.999992
0.9999999999999732,1,0.999993
0.9999999999999827,1,0.999993
0.99999999999997,1,0.999990
1.0,1,0.999986
1.0,1,0.999981
0.9999999999999933,1,0.999982
0.9999999999999745,1,0.999977
1.0,1,0.999982
0.9999999999999917,1,0.999976
0.9999999999999964,1,0.999982
1.0,1,0.999985
0.9999999999999853,1,0.999983
0.9999999999999956,1,0.999981
1.0,1,0.999982
0.9999999999999982,1,0.999983
1.0,1,0.999987
1.0,1,0.999993
0.999999999999973,1,0.999993
0.9999999999999848,1,0.999992
1.0,1,0.999988
0.9999999999999875,1,0.999989
1.0,1,0.999979
1.0,1,0.999993
0.9999999999999839,1,0.999992
0.9999999999999925,1,0.999992
0.9999999999999848,1,0.999991
1.0,1,0.999991
0.9999422383328713,1,0.999991
0.9999965373659137,1,0.999993
0.9999995380308504,1,0.999992
0.9999999993657778,1,0.999991
0.9999999999994941,1,0.999992
1.0,1,0.999992
1.0,1,0.999989
0.9999999999999919,1,0.999992
0.9999999999999801,1,0.999939
1.0,1,0.999972
1.0,1,0.999981
0.9999999999999837,1,0.999986
0.9999999999999993,1,0.999988
0.9999999999999739,1,0.999993
0.9999999999999936,1,0.999993
1.0,1,0.999992
1.0,1,0.999991
1.0,1,0.999990
0.9999999999999974,1,0.999992
1.0,1,0.999992
1.0,1,0.999991
0.9999999999999776,1,0.999993
0.9999999999999868,1,0.999971
0.9999999999999881,1,0.999988
0.9999999999999877,1,0.999962
1.0,1,0.999987
1.0,1,0.999989
0.9999999999999826,1,0.999989
0.999999999999994,1,0.999993
0.9999999999999747,1,0.999993
0.9999999999999855,1,0.999993
0.9999999999999767,1,0.999991
0.9999999999999976,1,0.999965
0.9999999999999896,1,0.999981
0.9999999999999973,1,0.999987
1.0,1,0.999986
0.9999999999999987,1,0.999866
1.0,1,0.999767
1.0,1,0.999990
1.0,1,0.999991
1.0,1,0.999991
0.9999482975233878,1,0.999990
0.9999999938472465,1,0.999990
0.9999999985688632,1,0.999986
0.9999999999910592,1,0.999985
1.0,1,0.999984
0.9999981271871815,1,0.999993
0.9999996758931851,1,0.999992
0.9999999999999897,1,0.999992
0.999999999999992,1,0.999991
0.9999999999999944,1,0.999993
1.0,1,0.999993
1.0,1,0.999992
0.9999999999999977,1,0.999991
0.9999999999999895,1,0.999993
0.9999999996327208,1,0.999993
0.9999999999999754,1,0.999988
1.0,1,0.999988
1.0,1,0.999979
1.0,1,0.999973
0.9999999999999856,1,0.999979
1.0,1,0.999982
1.0,1,0.999992
0.9999999999999637,1,0.999989
1.0,1,0.999912
0.9999999999999967,1,0.999970
1.0,1,0.999985
1.0,1,0.999983
0.9999999999999916,1,0.999981
0.9999999999999976,1,0.999986
1.0,1,0.999983
1.0,1,0.999982
0.9999999999999988,1,0.999981
0.9999999999999741,1,0.999993
1.0,1,0.999992
0.9999999889847889,1,0.999993
0.9999999999496978,1,0.999991
0.9999717939841457,1,0.999993
0.9999990248775216,1,0.999991
0.9999999778872649,1,0.999993
0.9999999999847602,1,0.999990
1.0,1,0.999992
0.9999999999999961,1,0.999993
0.9999999999999942,1,0.999988
0.9999999999999653,1,0.999991
1.0,1,0.999993
0.9999999999999957,1,0.999987
1.0,1,0.999986
0.9999999999999885,1,0.999993
1.0,1,0.999990
0.9999999999999942,1,0.999990
0.9999999999999545,1,0.999981
0.9999999999999737,1,0.999991
0.9999999999999893,1,0.999974
1.0,1,0.999962
0.9999999999999994,1,0.999976
0.9999999999999984,1,0.999985
1.0,1,0.999993
0.9999999999999587,1,0.999992
1.0,1,0.999991
0.9999999999999818,1,0.999988
1.0,1,0.999990
1.0,1,0.999879
0.9999999998896334,1,0.999991
1.0,1,0.999993
0.9999999999999944,1,0.999981
1.0,1,0.999976
0.9999999999999676,1,0.999991
0.9999999999999987,1,0.999993
1.0,1,0.999993
0.9999999999999624,1,0.999993
0.9999999999999906,1,0.999993
0.9999999999999943,1,0.999993
0.9999999999999846,1,0.999993
1.0,1,0.999991
0.9999999999999812,1,0.999993
1.0,1,0.999989
0.9999999999999813,1,0.999986
0.9999999999999961,1,0.999988
0.6345929763456859,0,0.968774
0.9975437019576697,0,0.936124
0.9999999168094396,1,0.999986
0.9999999999802053,1,0.999895
0.9999999999992154,1,0.999939
0.9999999999999934,1,0.999978
1.0,1,0.999967
1.0,1,0.999985
0.9999999999999899,1,0.999981
0.9999999999999823,1,0.999927
0.9999999999999823,1,0.999973
1.0,1,0.999978
1.0,1,0.999982
1.0,1,0.999974
0.9999999999999951,1,0.999984
0.9999999999999779,1,0.999976
1.0,1,0.999985
1.0,1,0.999992
0.9999999999999885,1,0.999993
1.0,1,0.999992
0.9999999999999688,1,0.999993
0.9999999999999973,1,0.999991
0.9999999999999847,1,0.999992
1.0,1,0.999991
0.9999999999999991,1,0.999993
0.9999999999999891,1,0.999993
1.0,1,0.999992
1.0,1,0.999991
0.9999999999999702,1,0.999991
0.9999999999999887,1,0.999992
1.0,1,0.999992
1.0,1,0.999991
1.0,1,0.999991
1.0,1,0.999993
0.9999999999999922,1,0.999993
1.0,1,0.999991
0.999999999999982,1,0.999990
1.0,1,0.999988
1.0,1,0.999993
0.9999431000782455,1,0.999989
0.9999992539537114,1,0.999993
0.9999999976616809,1,0.999992
1.0,1,0.999993
1.0,1,0.999992
0.999999999999998,1,0.999984
1.0,1,0.999992
1.0,1,0.999993
0.9999999999999756,1,0.999993
0.9999999999999658,1,0.999993
0.9999999999999879,1,0.999988
1.0,1,0.999993
0.9999999999999969,1,0.999993
0.999999999999986,1,0.999992
1.0,1,0.999982
1.0,1,0.999975
1.0,1,0.999970
0.9999999999999928,1,0.999976
1.0,1,0.999976
1.0,1,0.999978
0.9999999999999923,1,0.999988
1.0,1,0.999980
1.0,1,0.999987
0.9999583085150918,1,0.999992
0.999999991752643,1,0.999992
0.9999999999448033,1,0.999992
0.9999999999967716,1,0.999992
1.0,1,0.999989
1.0,1,0.999994
1.0,1,0.999987
0.9999999999999692,1,0.999989
0.9999999999999961,1,0.999991
0.9999999999999812,1,0.999993
0.9999999999999842,1,0.999993
0.9999999999999962,1,0.999992
1.0,1,0.999993
0.9999999999999805,1,0.999994
0.9999999999999925,1,0.999990
0.9999999999999971,1,0.999991
1.0,1,0.999989
1.0,1,0.999980
1.0,1,0.999979
1.0,1,0.999983
0.999960562305694,1,0.999993
0.9999691790183667,1,0.999991
0.9998833999606634,1,0.999993
0.9999978241617171,1,0.999993
0.9999999995339985,1,0.999993
0.9999999999999648,1,0.999993
0.9999999999999805,1,0.999992
0.9999999999999746,1,0.999989
1.0,1,0.999957
1.0,1,0.999976
0.9999999999999512,1,0.999970
0.9999999999999684,1,0.999988
0.999999999999994,1,0.999950
1.0,1,0.999975
0.9999999999999901,1,0.999980
0.9999999999999919,1,0.999985
0.9999999999999928,1,0.999984
0.9999999999999961,1,0.999987
0.9999999999999829,1,0.999975
1.0,1,0.999993
1.0,1,0.999978
1.0,1,0.999969
0.9999999999999799,1,0.999983
0.9999999999999925,1,0.999988
0.999999999999991,1,0.999969
1.0,1,0.999977
0.9999999999999877,1,0.999976
1.0,1,0.999973
0.9999999999999781,1,0.999978
0.9999347362102726,1,0.999993
