0.07077044650968801,0,0.879272
0.11036015949195276,0,0.995909
0.17125983600016173,0,0.878193
0.8069014729027867,1,0.999871
0.9142644771624047,0,0.922996
0.897671741869708,0,0.812018
0.8517868015858856,0,0.877860
0.8462637142158878,0,0.814712
0.8173916856338166,0,0.816214
0.7959374390725407,0,0.814036
0.8622108413383687,0,0.960503
0.83145727797879,1,0.999985
0.7862369440989472,1,0.999914
0.8107057960248051,1,0.999942
0.8117757699561118,1,0.999988
0.838534854271113,1,0.999988
0.8585102465482675,1,0.999976
0.8558094667832374,0,0.810739
0.8783318553254429,0,0.808192
0.793566314851692,1,0.999890
0.8315950576498049,0,0.997987
0.7732705274555822,0,0.867445
0.8192123671126812,1,0.999950
0.8267289216809433,1,0.999871
0.8354415213890488,1,0.999986
0.7661435169261527,0,0.787021
0.8616132731840077,0,0.999697
0.8174913669237194,1,0.999974
0.8366230726416359,1,0.999987
0.8342808944169486,1,0.999988
0.7533944590558751,0,0.963336
0.8112780496260606,1,0.999938
0.8344335647613687,0,0.983968
0.8111210968705743,0,0.993413
0.8352059411525844,0,0.999550
0.9310184544017539,1,0.999987
0.8184022539325935,1,0.999988
0.8968572631569015,1,0.999984
0.8659232118959622,1,0.999987
0.8943736398534129,1,0.999988
0.8156480920979905,1,0.999988
0.8622998845298965,1,0.999983
0.7993326601763615,0,0.971842
0.8095050305794417,0,0.998894
0.6524437322568615,0,0.999759
0.7292303017645514,1,0.999986
0.9203658785106149,1,0.999987
0.8302207075764618,1,0.999985
0.8328352970495024,0,0.986436
0.855744931907379,0,0.948109
0.8787446808401773,0,0.999774
0.8788028932609923,1,0.999983
0.8739401752729826,1,0.999982
0.885969253466056,1,0.999785
0.85288996056176,0,0.980484
0.8414436457201596,1,0.999986
0.8077042484160523,0,0.958217
0.5609971191199501,1,0.999974
0.8551175638991038,1,0.999985
0.8380793680674697,1,0.999986
0.8901298876643837,0,0.982669
0.7084863169232005,0,0.999771
0.7732609429429699,1,0.999983
0.8168410512188052,0,0.999841
0.8681328414552946,1,0.999988
0.8520814405677072,0,0.984872
0.8758765321048803,0,0.970230
0.8355195188299377,0,0.978060
0.8721285101602069,0,0.999860
0.784316165089808,0,0.974482
0.8409518649463461,1,0.999987
0.8392782458485836,1,0.999984
0.8611263399359183,1,0.999987
0.8726774115312866,1,0.999986
0.8333553008888426,1,0.999977
0.852355727850875,0,0.999781
0.8934147463494553,1,0.999988
0.9213042474073533,0,0.999834
0.8376744179570846,0,0.999655
0.8549294082625187,1,0.999975
0.7898748054881648,1,0.999695
0.7579922523729692,1,0.999535
0.9060604536648393,1,0.999973
0.8516707101099504,1,0.999988
0.8504211260413274,0,0.949047
0.8383994286115166,0,0.969131
0.3380059458766498,1,0.999986
0.8034206302975369,1,0.999978
0.8240278155866307,1,0.999986
0.9342311089629373,0,0.949823
0.8306615182062016,1,0.999983
0.6940277379928174,1,0.999986
0.8456044789726332,0,0.991188
0.8719328537781414,1,0.999988
0.8307522346078062,1,0.999949
0.7617728022837307,1,0.999635
0.7768133940028711,0,0.982577
0.8507715741565781,1,0.999869
0.832338852319761,1,0.999981
0.8565982565597496,1,0.999892
0.8640594046362661,1,0.999967
0.8056239944062308,1,0.999973
0.843339248002212,0,0.958502
0.9105680298555403,1,0.999983
0.8420536349879393,1,0.999984
0.8031717317172213,0,0.954228
0.8023208936482767,0,0.975945
0.8211777226242734,0,0.999728
0.9057269208325724,0,0.999717
0.8791540852737075,0,0.983849
0.833252723290203,0,0.999375
0.8180513317224019,1,0.999985
0.9062646957894389,0,0.956253
0.8979489068339631,0,0.964004
0.8570842408300331,1,0.999979
0.815247395919001,0,0.965205
0.8564511073169062,0,0.949579
0.8132278850737521,0,0.999832
0.8918864207597108,1,0.999965
0.8577599019742417,0,0.970321
0.8920538765039148,0,0.981643
0.8503544661030059,0,0.977314
0.8503893350451283,0,0.984790
0.849056724537904,1,0.999958
0.8483034249562269,1,0.999985
0.8464958669417935,0,0.983427
0.8450344243591517,0,0.941498
0.8388658668184004,0,0.964435
0.9514004748409541,1,0.999963
0.8187389333913547,0,0.999770
0.8642940946680763,1,0.999910
0.9215858511164536,1,0.999988
0.8662688570718403,1,0.999973
0.8488286212415057,1,0.999982
0.8557673789264819,1,0.999977
0.8185424941139596,0,0.971499
0.8954099039799245,1,0.999879
0.8767153413555955,0,0.997460
0.824671319622376,0,0.982871
0.8988550923769058,1,0.999983
0.9096886343043216,1,0.999962
0.8958314960644495,1,0.999983
0.8265017872909489,0,0.934253
0.8424727941358285,1,0.999897
0.7738806816070635,0,0.945899
0.8121690937703819,1,0.999986
0.8499192557019555,0,0.977230
0.8301948369772767,0,0.999683
0.7954739417883286,0,0.952014
0.877861886753386,1,0.999984
0.7980754081406377,1,0.999986
0.8703936095336825,1,0.999986
0.8595715676675016,1,0.999969
0.8389009885557435,0,0.939696
0.9107236542330321,1,0.999956
0.7447956425244506,1,0.999845
0.9504996700607392,1,0.999949
0.7713843254890356,1,0.999982
0.832891394862797,1,0.999988
0.879016638950538,1,0.999975
0.8330831669330806,0,0.951598
0.8594617281939579,0,0.999129
0.8631805845045563,0,0.962575
0.819108359251007,0,0.997108
0.8988526628548344,1,0.999980
0.8116809868399573,1,0.999976
0.8239503683643572,0,0.997161
0.9208098255305359,1,0.999986
0.8649611854466362,1,0.999977
0.756367869185428,1,0.999962
0.8322347144801955,1,0.999920
0.8433777521717644,1,0.999967
0.8194488880056415,1,0.999984
0.7259464411272264,0,0.999292
0.950066586228787,1,0.999984
0.8887329689973277,0,0.998779
0.7723520295319422,0,0.999841
0.7449856186946572,1,0.999988
0.9014765157878355,1,0.999988
0.8356375631425156,0,0.944478
0.8553150060760233,0,0.942913
0.7208878699832101,0,0.987480
0.8428587440696276,0,0.996332
0.8117360472843553,1,0.999980
0.8739231640386785,0,0.999394
0.802852806839057,0,0.946674
0.8649418632754097,1,0.999957
0.852631280261035,1,0.999980
0.9430604957424203,1,0.999956
0.8440840066924481,0,0.945738
0.899534321991533,1,0.999988
0.9168197433961559,0,0.982523
0.8283836406486037,1,0.999971
0.8848132258857102,0,0.992669
0.893883988780461,0,0.974758
0.8018258108260022,1,0.999890
0.8082529287752042,1,0.999950
0.8550164390301946,1,0.999981
0.8530080187773135,1,0.999988
0.8610012441398461,1,0.999988
0.8949029115718486,1,0.999980
0.9101552718597916,1,0.999988
0.9012831636942399,0,0.960488
0.88450523475602,0,0.945511
0.9150342495093265,0,0.999847
0.7704883326378202,0,0.957502
0.8761211692087771,0,0.999571
0.921999432609607,1,0.999982
0.8738949847995848,0,0.985477
0.8304896542528462,1,0.999975
0.8780103663720293,0,0.999288
0.8921247766265331,0,0.976635
0.9198891080133045,0,0.987884
0.8894629039100064,0,0.998756
0.9472256159241927,1,0.999984
0.8600992744316532,1,0.999984
0.8554954120113003,0,0.995815
0.9097639819148325,1,0.999856
0.908946133612249,0,0.956344
0.9314612903141524,1,0.999978
0.8119443967355565,0,0.928920
0.8609556727951377,1,0.999925
0.8670746939183993,0,0.932376
0.8692782957106907,0,0.999822
0.8522031854911348,0,0.927814
0.9114086668485176,1,0.999972
0.9067613248112191,0,0.996797
0.9076129607584165,1,0.999873
0.9146212988405384,0,0.996829
0.8691097865614202,1,0.999876
0.8877516989344528,1,0.999986
0.9021113515982645,1,0.999988
0.5854779319197618,1,0.999989
0.435962223024978,0,0.999792
0.9015355611524135,1,0.999972
0.8794274383124068,1,0.999983
0.8859540748027758,0,0.959038
0.9051720795108197,1,0.999969
0.9091908983001904,0,0.945729
0.8564646377318845,0,0.941174
0.9012183960087498,1,0.999987
0.884835347032488,1,0.999975
0.9060965481878954,1,0.999984
0.8648861890600794,1,0.999976
0.8221291529638488,1,0.999973
0.7673219317101881,1,0.999971
0.8257802961686012,0,0.974584
0.8651472758026677,1,0.999953
0.8662768204126617,1,0.999972
0.9158668244289068,1,0.999986
0.9174227014915964,1,0.999967
0.8891268557004683,1,0.999988
0.9106270268486963,1,0.999934
0.9209883223359052,1,0.999978
0.9272212226962637,0,0.991260
0.9031526964163812,1,0.999958
0.8945268499391518,1,0.999817
0.9493011038961618,1,0.999974
0.9632852151205604,1,0.999988
0.838857896179236,1,0.999988
0.8671026170785632,1,0.999986
0.880581550491733,1,0.999968
0.7726086948802535,1,0.999988
0.9129507597330958,1,0.999988
0.725304839234959,0,0.999704
0.8012838837159219,0,0.994450
0.7362843352602254,1,0.999968
0.9629642021737884,1,0.999987
0.9253687994327054,0,0.949940
0.8928174091221418,1,0.999986
0.83930000848357,1,0.999918
0.9183256287080189,0,0.960131
0.9416221470597688,1,0.999983
0.9292670986369626,1,0.999983
0.9226164300427134,0,0.998582
0.8661318829948873,1,0.999845
0.9404159503990246,1,0.999982
0.8775996318467216,1,0.999967
0.7881083610801919,0,0.941992
0.8776298818778319,1,0.999877
0.8220709972357148,1,0.999988
0.874484241451797,1,0.999917
0.8608101663485958,1,0.999987
0.8923170132196402,0,0.965190
0.9208864591246883,1,0.999950
0.9695288674372307,1,0.999988
0.8637473979235949,1,0.999988
0.7929920781322499,1,0.999984
0.8628452438571275,0,0.945033
0.8922928248497354,0,0.970675
0.8547109399452983,1,0.999900
0.9349801148639457,1,0.999944
0.8862931001137523,1,0.999986
0.9310762442844752,1,0.999988
0.8994743429796502,1,0.999986
0.7689261353891773,0,0.954077
0.8264982114706907,1,0.999986
0.8779017135553154,0,0.999869
0.8869088580519562,1,0.999986
0.9195760236480099,1,0.999981
0.8951756614878904,0,0.977888
0.8708572542088368,0,0.976604
0.9277951217701287,1,0.999950
0.9104353105234121,1,0.999816
0.9545059161616046,1,0.999978
0.894381274095114,1,0.999964
0.9021273583792064,1,0.999829
0.9345882918823685,1,0.999977
0.48646398661083284,1,0.999986
0.9131046834000701,1,0.999976
0.8399942167102824,1,0.999986
0.812804805479329,1,0.999797
0.8397786523765162,1,0.999968
0.928196806291106,1,0.999973
0.8307764982621143,0,0.945302
0.8880063139533276,0,0.962387
0.8267154246795179,1,0.999795
0.948634610865337,1,0.999975
0.8029639426778297,0,0.976761
0.8790126559092608,0,0.948544
0.886876938318838,1,0.999984
0.8377874195148791,1,0.999983
0.9746713582813421,1,0.999935
0.9197810059789643,1,0.999985
0.9259712434424155,1,0.999989
0.8911449786616132,1,0.999986
0.8814910701855656,1,0.999973
0.849470902840092,1,0.999968
0.9119405801777166,1,0.999940
0.9328376723817198,1,0.999984
0.8546943500726211,1,0.999939
0.8820906135070778,1,0.999988
0.9268527871570348,1,0.999988
0.8424835492219869,0,0.999847
0.9379872081641013,1,0.999966
0.9233150889499461,1,0.999965
0.9010389129889722,0,0.977892
0.9399199915909561,0,0.951959
0.7948329179980601,0,0.977172
0.6571663316828302,1,0.999981
0.9071590525155641,0,0.999248
0.910495877344439,1,0.999988
0.9294925562896891,1,0.999899
0.8652009288720629,1,0.999985
0.9061476397445133,1,0.999919
0.9408051543266683,1,0.999988
0.8735695876354601,1,0.999952
0.8720089268731597,0,0.991411
0.9080253736323133,1,0.999872
0.8453400928958152,0,0.999342
0.9054082652339771,1,0.999988
0.9165369383416928,0,0.970411
0.8783373220834827,0,0.999613
0.8774753378022102,1,0.999987
0.8693133160123705,1,0.999989
0.8668243614891051,1,0.999975
0.9410263377145781,1,0.999932
0.9444188895884138,1,0.999988
0.8969160889008946,1,0.999977
0.9420011151094372,1,0.999946
0.902080695906408,1,0.999984
0.8874109862468119,0,0.999719
0.9518021391895637,1,0.999987
0.859496992814819,1,0.999986
0.8877709554590699,1,0.999988
0.9015633751599496,0,0.999578
0.9445839882111482,0,0.999829
0.8998954995062205,1,0.999984
0.9256923623763568,0,0.999558
0.842718983122357,1,0.999973
0.7449835202372673,0,0.996088
0.8531330666624052,0,0.970110
0.9036849781508133,1,0.999981
0.9598189437242823,1,0.999979
0.9018310475169088,1,0.999982
0.879409644839265,0,0.998900
0.9871704974305456,1,0.999886
0.9504131420475154,0,0.988967
0.9104879372145425,0,0.981614
0.8788256975519028,0,0.943299
0.8925544619695268,1,0.999977
0.9013956364843093,0,0.999726
0.8974863801943854,1,0.999976
0.9312305715341757,0,0.995423
0.865177172641771,1,0.999913
0.938635508494893,1,0.999979
0.9284783936295448,1,0.999979
0.8872216318897478,1,0.999981
0.8634589080841726,0,0.958255
0.8812580112278734,0,0.958688
0.9357316682882747,1,0.999988
0.9292542142061807,0,0.931977
0.9051995559618022,0,0.966882
0.9468774066815397,0,0.990937
0.9363687131030398,1,0.999893
0.45234089255216703,1,0.999904
0.8675630453969164,0,0.951047
0.8301609188817932,1,0.999986
0.8752024658750729,0,0.999857
0.8535055245795969,0,0.997826
0.9073338940404492,1,0.999840
0.9241493539554557,1,0.999982
0.6523149821865785,0,0.939779
0.9810714052828705,1,0.999975
0.8849909025564756,1,0.999988
0.8939622207422827,1,0.999987
0.9539694875452662,1,0.999958
0.5061992226039115,1,0.999977
0.9302474470289842,1,0.999984
0.9096287979449867,1,0.999974
0.9474084277288884,1,0.999961
0.9371302604780711,0,0.999772
0.8983357485657117,1,0.999915
0.9398095381277601,1,0.999615
0.959563141746369,1,0.999904
0.8966161237428864,1,0.999985
0.8706786679937684,1,0.999969
0.8832584165567362,1,0.999987
0.694799892082789,1,0.999978
0.8644700247106163,0,0.942868
0.8812568655534238,1,0.999975
0.9687932885820238,1,0.999988
0.9136391652103667,1,0.999889
0.8648607848561333,0,0.988529
0.8795231811792581,0,0.953636
0.972795842505524,1,0.999975
0.9399483814025467,1,0.999989
0.845693647689399,0,0.936424
0.8555212468369713,0,0.933140
0.9256931871591461,1,0.999978
0.7919387659401872,1,0.999975
0.9528748154764127,1,0.999964
0.9708239676335223,1,0.999987
0.8660925829266525,1,0.999982
0.8304327739868222,0,0.984948
0.9021065715616674,1,0.999950
0.9262510452978212,1,0.999989
0.8707480755593929,1,0.999978
0.8820813744853515,1,0.999926
0.9180401064996888,1,0.999966
0.8852069631924683,1,0.999988
0.8057727845318748,1,0.999988
0.8421489669483979,1,0.999983
0.9249553204703981,0,0.979049
0.8665384092587127,1,0.999987
0.8543513623968204,0,0.999214
0.8999205618376559,1,0.999916
0.9393799713597784,1,0.999987
0.910783958003755,1,0.999987
0.919078586872894,1,0.999972
0.877746375761625,1,0.999905
0.8210852689116226,0,0.996021
0.8969164755580469,0,0.979840
0.9117571534726095,1,0.999983
0.9065285180002548,1,0.999738
0.9507273725004024,1,0.999986
0.8942641040229476,1,0.999975
0.910768384025403,1,0.999976
0.9384634549182629,1,0.999988
0.8895187697672485,1,0.999985
0.7821763964505347,1,0.999985
0.8914882821774058,1,0.999976
0.8981422883244651,1,0.999958
0.8750002649817383,1,0.999980
0.9131949538010468,0,0.999330
0.9533063704348861,0,0.997205
0.9223243264858276,0,0.968037
0.8810032514756576,1,0.999979
0.9631397142816048,1,0.999985
0.9029505768770577,0,0.951734
0.8780511344126737,1,0.999937
0.41838612748342396,1,0.999987
0.844545441274049,1,0.999985
0.9488604795341022,1,0.999884
0.9442812437555621,0,0.969564
0.9822943696591134,1,0.999984
0.9713635494450754,0,0.999458
0.9396540046701507,1,0.999952
0.9452630133810249,1,0.999985
0.8906631667243724,1,0.999985
0.9315955773096324,1,0.999987
0.8912351408566788,0,0.985402
0.9114073213939802,1,0.999983
0.9506755329862594,0,0.960863
0.8770906424509987,1,0.999947
0.8999914886861508,1,0.999925
0.7928204258977374,0,0.999508
0.8932005835998476,0,0.959527
0.8546193719450977,1,0.999969
0.9228845199635194,1,0.999949
0.9810125831575522,0,0.999489
0.9012147658856496,1,0.999974
0.9547932943912235,1,0.999981
0.9319939879581199,1,0.999979
0.9741002616808377,0,0.937322
0.9260103415018766,1,0.999845
0.984124170132469,1,0.999973
0.9700452313126032,1,0.999988
0.8460393151409601,0,0.988343
0.8632867623203326,1,0.999983
0.9156417936389686,1,0.999942
0.8939396139085313,1,0.999951
0.8495694813833596,0,0.999816
0.9304143096192181,0,0.968607
0.8726799065045382,0,0.999735
0.3773562376648207,1,0.999987
0.9522211684727465,1,0.999988
0.9512258632394688,0,0.946080
0.963973442137254,1,0.999986
0.8969493323427188,0,0.938438
0.8560175807487289,0,0.936220
0.9420836472657883,1,0.999982
0.9247084495192204,1,0.999986
0.8461802869016253,1,0.999915
0.9123290190484417,0,0.978272
0.8382444304828082,0,0.956974
0.9274297578305433,0,0.967116
0.904764042212319,1,0.999986
0.9238276240226675,0,0.939752
0.8551054506611999,1,0.999938
0.9024786674416354,1,0.999988
0.9190314973204763,1,0.999890
0.9425771381117118,1,0.999969
0.8958034819653552,1,0.999974
0.9513260337500498,1,0.999921
0.9392744225379106,0,0.999866
0.9214818750530348,1,0.999986
0.9013175390113978,1,0.999986
0.9837642374048146,1,0.999975
0.9655754631841725,1,0.999958
0.9903596241299627,1,0.999985
0.9100493277384981,1,0.999983
0.8931868961745525,0,0.967270
0.9033784681519265,1,0.999900
0.9427636699946267,1,0.999978
0.9864240993444716,1,0.999979
0.7761584867723773,1,0.999915
0.9157053449693691,1,0.999975
0.9392977084297982,1,0.999977
0.979170452496005,1,0.999975
0.9540288270524834,1,0.999964
0.8537700812066683,0,0.997542
0.8539266275709061,1,0.999981
0.9169301934955485,1,0.999987
0.8762399186414658,1,0.999938
0.8277030711725225,1,0.999944
0.894480016336587,0,0.994091
0.8899300100468911,0,0.964533
0.9777567853407385,1,0.999966
0.7104189501602791,1,0.999811
0.9037796099754605,1,0.999965
0.8739484765612553,0,0.997513
0.9183032142832921,1,0.999930
0.8878920441837053,0,0.966552
0.906662010410664,1,0.999958
0.9378939098189489,0,0.986853
0.9057950577680626,1,0.999985
0.8872726196429912,0,0.929754
0.860363193287775,1,0.999988
0.8591004141255777,0,0.995379
0.9697490978444177,1,0.999973
0.9519272259110263,0,0.958162
0.959673392363679,1,0.999818
0.9848889741562025,1,0.999976
0.8434942251668868,0,0.999693
0.7902315567210714,1,0.999979
0.9310014964368759,1,0.999988
0.9633163235035637,1,0.999988
0.8087102569761196,1,0.999955
0.7062930944518148,0,0.967464
0.8926656981385299,1,0.999906
0.9563537863866189,1,0.999903
0.8811852349221811,1,0.999977
0.817064557117507,1,0.999988
0.9585372588137274,1,0.999988
0.8468657552108598,1,0.999986
0.9074595032768282,1,0.999969
0.965221808728839,1,0.999842
0.8782915189322598,1,0.999984
0.9621372358417857,0,0.990919
0.9718379634537584,0,0.998410
0.9801775840374105,1,0.999989
0.8984042401200218,1,0.999882
0.9621353641435758,1,0.999897
0.9245189490803527,1,0.999986
0.9078093336564733,1,0.999961
0.8677652165967911,0,0.940626
0.9012853747399002,1,0.999901
0.9298814204562149,0,0.971880
0.9152231874129986,0,0.998401
0.7887600173564623,1,0.999985
0.9165519171404668,1,0.999981
0.9098345353105887,1,0.999982
0.9440893593777343,1,0.999953
0.9333858927675971,1,0.999967
0.8687440004821297,0,0.970597
0.8610235287393979,1,0.999972
0.8609659510194334,1,0.999972
0.9574891593003816,0,0.993439
0.9180341924022203,0,0.980737
0.9645623378772341,0,0.998360
0.9330147852777292,1,0.999985
0.888748678547603,0,0.928799
0.9325238684619725,1,0.999988
0.9163780508638354,0,0.999596
0.8614698753621582,1,0.999942
0.8799263557227571,1,0.999988
0.9171304766277897,1,0.999979
0.9121749405024301,1,0.999985
0.9068969694849156,1,0.999952
0.9682028855692791,1,0.999988
0.9141305990718632,1,0.999874
0.9650774801521649,1,0.999972
0.9458275185567994,1,0.999903
0.8830815380447196,0,0.947640
0.9199757398712205,1,0.999961
0.9467186494768319,0,0.933090
0.8287061378559117,1,0.999988
0.9510847919377696,1,0.999988
0.8199832289307915,0,0.999636
0.8759828441095835,1,0.999988
0.9541693092661079,1,0.999964
0.5268409142470694,1,0.999969
0.8986877704343279,1,0.999694
0.871243394828992,1,0.999975
0.8890202796862501,0,0.977707
0.7414609973372117,1,0.999973
0.9323174109759523,1,0.999969
0.868135071971329,0,0.999191
0.9675955053057138,1,0.999961
0.936094503618559,1,0.999753
0.9166878043144291,1,0.999928
0.9922949205689912,1,0.999980
0.9347108057884568,1,0.999984
0.896983109786425,1,0.999913
0.855851783627607,1,0.999905
0.8218526951488193,0,0.917641
0.8889974754749421,0,0.986681
0.8869407117965675,1,0.999913
0.8872442381980088,0,0.928122
0.8324587231436742,1,0.999810
0.8570865626383826,1,0.999945
0.9683501209003675,1,0.999972
0.9602688185457986,0,0.999401
0.9213834874049456,0,0.964872
0.9497517099589045,1,0.999987
0.9796910865869651,1,0.999951
0.9549899957220851,1,0.999673
0.9254161564731095,1,0.999985
0.9365442473482684,1,0.999973
0.8831450448446972,1,0.999988
0.9480276719008678,1,0.999890
0.8728438343493171,1,0.999843
0.975415339211157,1,0.999987
0.9452304060000776,1,0.999987
0.9015657242921027,1,0.999862
0.9550680715949049,0,0.997719
0.8058143579999878,1,0.999927
0.9622641225017887,0,0.964216
0.9798877224012748,1,0.999964
0.9655077049088245,1,0.999973
0.9846912424369543,1,0.999965
0.9449884131823226,1,0.999820
0.9451961500207231,1,0.999930
0.8422397560349711,1,0.999927
0.90309198581816,1,0.999942
0.8553969036835547,1,0.999964
0.9475561148990752,1,0.999706
0.841376479073348,1,0.999966
0.693541739754395,1,0.999974
0.9040657482683945,1,0.999964
0.8618501574944213,1,0.999979
0.8139077640438067,1,0.999968
0.73894585390908,1,0.999965
0.9111120119732614,1,0.999973
0.9094786225129653,1,0.999949
0.9332144776558065,1,0.999966
0.9491703022649014,1,0.999958
0.9346443683889192,1,0.999983
0.9117426119040083,1,0.999980
0.771582457369953,1,0.999982
0.9813629403647957,1,0.999988
0.9145199836929133,1,0.999945
0.9032381546185434,1,0.999979
0.8503683158210797,1,0.999974
0.926790984411556,0,0.971068
0.4799324373678444,0,0.999566
0.885118894510401,1,0.999976
0.9202064654257847,1,0.999961
0.8601276374871405,1,0.999985
0.790145931060585,1,0.999986
0.8566575819328368,0,0.947707
0.9742242128485337,0,0.999433
0.8332817097555647,1,0.999988
0.9022664059330474,1,0.999957
0.8609150959510135,0,0.950892
0.9462856265892319,1,0.999988
0.9451907965148629,1,0.999944
0.932569128946861,1,0.999980
0.9438295227006287,1,0.999980
0.8844377087279657,1,0.999987
0.9673163186712371,0,0.999308
0.9344912675388469,1,0.999883
0.9608102224126712,1,0.999987
0.9184682101736098,1,0.999970
0.8940185737076055,1,0.999974
0.9473239927495226,1,0.999978
0.9065337719184123,1,0.999951
0.963821728540712,1,0.999971
0.9775247203185065,1,0.999909
0.976110580843919,1,0.999978
0.9452450925126238,0,0.992233
0.7672927921382418,1,0.999958
0.8999299336623974,1,0.999988
0.8878225800532309,1,0.999987
0.8909660824401953,0,0.998207
0.8593643661175095,1,0.999963
0.7964696250920074,1,0.999976
0.9422895416582151,1,0.999986
0.9043554464383069,1,0.999982
0.923504767609072,1,0.999986
0.9102402636891224,1,0.999982
0.9181228926379248,1,0.999988
0.9606515455948236,1,0.999987
0.9232305986364318,1,0.999987
0.8951669781103676,1,0.999976
0.889677622284936,0,0.999752
0.905706311789549,1,0.999988
0.8786342830140969,1,0.999917
0.9531572116027873,0,0.998899
0.9007767066271035,1,0.999985
0.9123758913820607,1,0.999982
0.9135254065834899,0,0.999450
0.9516748195157538,1,0.999980
0.9205731248124689,1,0.999975
0.9145820797742237,1,0.999985
0.9004653302397183,0,0.950061
0.803873624296551,1,0.999947
0.8875024928286899,0,0.991102
0.9033540886130026,1,0.999976
0.9555132867864491,1,0.999962
0.9107450786640503,1,0.999947
0.9108816652252028,1,0.999931
0.9393973624518416,1,0.999747
0.8860127101894141,0,0.993664
0.952742552983146,1,0.999976
0.711767662422805,0,0.999769
0.9083187142399928,1,0.999986
0.9001708677961877,1,0.999913
0.8983356829440613,0,0.944683
0.8681600581165828,1,0.999980
0.9547548160148015,1,0.999959
0.9422513004374741,1,0.999981
0.8938901283669858,1,0.999985
0.935473133731356,1,0.999924
0.9790227414889314,1,0.999986
0.9056462570702312,1,0.999985
0.8243750428736711,0,0.911942
0.9420757695809141,1,0.999946
0.8464442126750624,1,0.999988
0.8750599357844626,1,0.999925
0.949856704222365,1,0.999978
0.7606031785958356,0,0.977873
0.9350589514728238,0,0.998101
0.9058849073065071,1,0.999869
0.8811796954058941,1,0.999985
0.8537433869024859,1,0.999913
0.9406327033075839,0,0.999677
0.9113539029556983,1,0.999934
0.828129509743634,0,0.997887
0.9347157993855002,0,0.998820
0.9231166756775063,0,0.922268
0.8540423941118382,1,0.999960
0.8831216886643702,1,0.999975
0.9648795207466979,0,0.974496
0.9081049167375063,1,0.999950
0.8499536138146516,1,0.999959
0.7692026817388649,1,0.999976
0.8718701842139873,0,0.969766
0.9467228783521909,1,0.999988
0.9238277688288778,1,0.999928
0.9782889491014729,1,0.999982
0.9067686630561497,1,0.999988
0.9654502188873381,1,0.999981
0.9524356156229907,1,0.999988
0.9717431161324566,0,0.998967
0.9754328689995085,1,0.999987
0.9028732955561493,1,0.999980
0.9281189884306413,0,0.914411
0.9721406123725358,1,0.999969
0.9590054843616654,1,0.999928
0.9468145814292132,1,0.999959
0.9623272772923743,0,0.995428
0.6708781349567455,1,0.999986
0.9346052616675418,1,0.999988
0.8845844514832503,1,0.999988
0.6606131983565808,0,0.999448
0.7267927215043133,1,0.999761
0.8810535705146262,0,0.969246
0.8369609855829361,1,0.999972
0.9603733118716814,1,0.999978
0.8936831881747922,1,0.999988
0.8526659217038156,1,0.999912
0.9008730996876672,1,0.999841
0.9586176117824955,0,0.989864
0.8671635628968786,0,0.999604
0.9730696088289617,1,0.999979
0.769481162724159,1,0.999927
0.8657065707808036,0,0.998868
0.9658654380373961,1,0.999861
0.9622787019880413,1,0.999988
0.9357719311242522,1,0.999983
0.8624261767121861,1,0.999976
0.8145330391075013,0,0.999516
0.9586048774105526,1,0.999980
0.9656076992311416,1,0.999954
0.9676638098561012,0,0.986777
0.9273959576145994,0,0.998161
0.9372012514103982,1,0.999980
0.8814721007285581,1,0.999982
0.9078619348527999,1,0.999987
0.9008731662183054,0,0.946678
0.9403404982637895,1,0.999986
0.799999375612816,1,0.999973
0.8396730199644408,1,0.999987
0.9103189320477235,0,0.947089
0.9604198895845685,1,0.999920
0.9322532927008763,0,0.999841
0.9638632280687679,1,0.999890
0.9480826306011764,1,0.999987
0.84299530974956,0,0.999634
0.9072989412722146,1,0.999985
0.9125763605837226,1,0.999979
0.9497044114402504,1,0.999908
0.9368890068526452,1,0.999985
0.9606340113434779,1,0.999976
0.9038387415743633,1,0.999926
0.9021212009865001,1,0.999926
0.824923311063479,1,0.999973
0.8557703632117225,1,0.999935
0.7158710229139724,1,0.999988
0.7434723362515782,0,0.999864
0.7472188868056135,1,0.999972
0.8652958073529845,1,0.999975
0.9464556167442619,1,0.999978
0.9598833315309312,1,0.999949
0.9161038274225558,0,0.999754
0.8987052950295521,0,0.998932
0.9535996714480907,0,0.998952
0.9487116004772028,0,0.998742
0.8810845082499449,1,0.999987
0.940620338883637,1,0.999911
0.9773308632007622,1,0.999890
0.9261623107598735,1,0.999934
0.8476076911092597,1,0.999973
0.933697141825221,0,0.999243
0.9694121520310449,1,0.999986
0.8114351113047263,1,0.999981
0.9043979321983885,1,0.999929
0.8923001853005581,1,0.999973
0.9112328042304427,1,0.999937
0.9635787272804791,0,0.999786
0.9837011546536576,0,0.986056
0.946955982883333,0,0.999845
0.8064861005390956,1,0.999986
0.7776067579906255,1,0.999988
0.8920729397111177,1,0.999987
0.8184728997567843,1,0.999988
0.8285302528712556,0,0.999849
0.9568036391393752,0,0.995464
0.9153614617334551,1,0.999936
0.7979782635516253,1,0.999965
0.7966257055307285,0,0.998225
0.8846281020902697,1,0.999970
0.8863351949085045,1,0.999803
0.8949732190970777,1,0.999986
0.9103206148758191,0,0.971940
0.43899355143343566,1,0.999965
0.9522338684427318,1,0.999925
0.9062728481539195,1,0.999922
0.9479005637539764,0,0.966653
0.858544837032896,0,0.999827
0.8921880983065177,1,0.999986
0.9179083369120588,0,0.998468
0.876842025969035,1,0.999976
0.904328416367046,0,0.996716
0.8967707248373492,0,0.999123
0.8329760129122588,1,0.999925
0.9548954299203017,1,0.999827
0.9179377595596816,1,0.999978
0.959761355417233,1,0.999984
0.8820008282683315,1,0.999964
0.9160275109745599,0,0.997241
0.8603134009458798,1,0.999921
0.8603559911108135,1,0.999850
0.8881286108137293,1,0.999988
0.9324933750631014,1,0.999988
0.9118239698865508,1,0.999895
0.9367205012503799,0,0.997321
0.9262056712011558,1,0.999983
0.760135260132071,1,0.999961
0.9117755048286181,1,0.999982
0.8895146809704548,0,0.916830
0.946827058202452,0,0.967707
0.9317421586855856,1,0.999972
0.8467434383440879,1,0.999969
0.971956866506297,1,0.999961
0.9420339543701685,0,0.975173
0.9632036556452934,1,0.999967
0.9631903581684835,1,0.999896
0.9101095149074361,1,0.999970
0.9489644093452003,1,0.999987
0.8982002853415223,1,0.999989
0.9122932642043906,0,0.997822
0.8976770398235123,1,0.999902
0.9179925897945824,0,0.999179
0.8731934882669719,0,0.994406
0.9354200339929373,0,0.958244
0.8529435227542204,1,0.999937
0.9389119504571555,1,0.999963
0.9575222273708838,0,0.940660
0.7949839987587984,1,0.999897
0.6590841553484631,0,0.999339
0.7828671897655356,0,0.999571
0.951357624623632,1,0.999902
0.9427000196119156,0,0.982586
0.937266417593324,1,0.999764
0.9458391033238973,1,0.999901
0.9264740045997311,1,0.999972
0.9449279285605263,1,0.999853
0.9465189947463886,1,0.999972
0.8686354804733302,0,0.999074
0.820980004683123,1,0.999988
0.8623046347929982,0,0.923819
0.9770984449614781,1,0.999900
0.945900528087565,1,0.999975
0.9468350214011261,1,0.999986
0.8171504674279673,0,0.921250
0.9723706309866356,1,0.999959
0.9665163496030817,1,0.999968
0.8996140811046248,1,0.999924
0.9163477557604036,1,0.999928
0.9460989953847757,1,0.999964
0.9414255054653222,1,0.999595
0.9578299443692654,1,0.999968
0.9279567744797472,1,0.999986
0.8670716431301487,0,0.999027
0.8783032214588398,1,0.999980
0.8750171751959165,1,0.999982
0.8882649363604348,1,0.999987
0.8582027141835828,0,0.974361
0.9531300351991701,0,0.964966
0.9064517108228122,1,0.999942
0.8848332975007484,1,0.999988
0.9423835736706132,1,0.999937
0.8133844830008226,0,0.990283
0.9382656082286522,1,0.999988
0.8849422290225217,1,0.999987
0.8565361374090619,1,0.999988
0.8756124460404832,1,0.999988
0.9302267707914663,1,0.999988
0.8896102624762768,1,0.999976
0.9146035701526097,1,0.999988
0.9460966172582339,1,0.999937
0.9315973820584321,1,0.999984
0.8213285970029611,1,0.999983
0.9419232866646888,1,0.999986
0.8914030927105223,1,0.999987
0.9096868946328561,1,0.999986
0.9387007599744767,1,0.999972
0.9609038294855288,1,0.999975
0.9082219078127999,1,0.999889
0.9665010472782969,0,0.999693
0.9477955904481654,1,0.999882
0.7797167889511484,1,0.999985
0.931344053511028,1,0.999968
0.9107344767097539,1,0.999988
0.8807897167128569,1,0.999886
0.8175734260748099,1,0.999987
0.9045487634471729,0,0.983022
0.875852832413377,0,0.954903
0.8383340058769331,1,0.999986
0.8942338849504974,1,0.999987
0.9643974163011643,0,0.998612
0.9392053580644412,1,0.999978
0.912991171650658,1,0.999982
0.9267296826793842,0,0.949200
0.890417521494184,0,0.999428
0.9265499920540091,0,0.999792
0.9440079504857526,1,0.999943
0.9105773098539583,0,0.984831
0.9428885286378472,1,0.999978
0.9884658939443263,1,0.999988
0.9159058259177767,0,0.971317
0.8122062872369715,1,0.999988
0.8939195942747883,1,0.999988
0.8305780060828091,1,0.999988
0.9099985305328061,1,0.999987
0.8512202903675624,1,0.999926
0.7958704024783535,1,0.999988
0.8420744489648607,1,0.999988
0.8485883577533321,1,0.999981
0.9319219928872684,1,0.999949
0.8819811945965228,0,0.992629
0.9389676837294385,1,0.999985
0.8327696794449351,1,0.999976
0.9529769055500625,1,0.999987
0.9242551074013158,1,0.999988
0.9520488509208772,1,0.999844
0.896146247355516,0,0.959057
0.9501399210637507,1,0.999949
0.9162425680690407,1,0.999984
0.8140216583664953,1,0.999982
0.9310390647518566,1,0.999970
0.9526287741758993,1,0.999965
0.9573876270421026,0,0.934052
0.9088146874513383,1,0.999954
0.9055357919533206,1,0.999978
0.9114930734655976,1,0.999986
0.8843770492438644,1,0.999988
0.9409000756813585,1,0.999976
0.8454919920782406,1,0.999985
0.8935902410372651,1,0.999975
0.8657742408159852,1,0.999988
0.9653750499862579,1,0.999924
0.9491341406322323,1,0.999966
0.9344321546718456,1,0.999969
0.9242523763089286,1,0.999929
0.9455887806691012,1,0.999965
0.9171335025092858,1,0.999853
0.958502159433264,1,0.999965
0.9473008063241992,1,0.999981
0.9093428101532427,0,0.930677
0.943203406076988,1,0.999944
0.9402704092003763,1,0.999987
0.7722207099046822,0,0.999719
0.9508401259793499,1,0.999901
0.943282963011959,1,0.999711
0.9444884838716325,1,0.999983
0.8544697848608251,1,0.999962
0.9295593208352978,1,0.999974
0.835709385893275,1,0.999935
0.8727178932425267,1,0.999489
0.9477568754656135,0,0.995369
0.93660244651483,1,0.999947
0.9165912774396503,0,0.997730
0.946237458686527,1,0.999987
0.9069578318912677,1,0.999978
0.8523823529469974,0,0.999575
0.9671798970786424,1,0.999986
0.9310602055120369,0,0.997705
0.9054199574373136,0,0.907146
0.9463020098806109,1,0.999940
0.9413396258410724,0,0.999785
0.9062433792614066,1,0.999986
0.8688412416599226,1,0.999988
0.923091797635137,1,0.999970
0.8959265905471814,0,0.951267
0.9026554054786381,1,0.999988
0.8588415745450327,1,0.999979
0.914830427046198,0,0.997786
0.9017146070439522,1,0.999975
0.9436129813236563,1,0.999976
0.869729944273359,1,0.999982
0.9772104997934413,1,0.999988
0.8045324047385075,1,0.999987
0.8297863109424217,1,0.999988
0.8962962705768993,1,0.999983
0.9035740539755229,1,0.999904
0.8146877478441414,0,0.956982
0.91657790097139,1,0.999977
0.8911696682846145,1,0.999977
0.9325681455818453,1,0.999969
0.9213606040835124,1,0.999944
0.9383626826271251,1,0.999826
0.9103741147301121,1,0.999975
0.9537653442165333,1,0.999842
0.9273495618987329,0,0.998964
0.8639135633363471,1,0.999957
0.9028396182565434,1,0.999987
0.7040381875342465,1,0.999989
0.9065689180082166,0,0.969401
0.956471620024766,1,0.999984
0.9322158482827327,1,0.999965
0.7961365220848617,0,0.971245
0.9700538833415762,1,0.999959
0.9358948517293426,1,0.999976
0.9044657149568623,1,0.999986
0.9158920444976787,1,0.999956
0.8907309291011921,1,0.999974
0.9324449217183898,1,0.999984
0.9482412804978413,1,0.999981
0.9232134001132268,1,0.999983
0.9397530829253442,1,0.999983
0.9713921200167547,1,0.999988
0.9200362587937158,1,0.999946
0.7609183790015754,0,0.935437
0.9491520414043192,1,0.999981
0.8657257173501179,1,0.999983
0.9304398461149208,1,0.999985
0.9477792049444769,0,0.999692
0.9289982836164387,0,0.956375
0.8539908768588806,1,0.999973
0.8945719281099436,1,0.999984
0.9803312125952123,1,0.999981
0.9350027585298649,1,0.999982
0.93879596614259,1,0.999959
0.9612468119150603,1,0.999975
0.9677426076120362,1,0.999971
0.9393379843464013,1,0.999975
0.987330746289518,0,0.975739
0.9539907737371314,1,0.999987
0.8530445758805824,1,0.999976
0.8191467904970544,1,0.999934
0.5562920367914528,0,0.964463
0.9129953463102051,1,0.999981
0.9124923537212386,1,0.999983
0.9240372336490007,0,0.999455
0.9579858813848201,0,0.999442
0.9413362052328698,1,0.999987
0.8913197747436976,1,0.999987
0.8794894722790461,1,0.999850
0.8400805677223507,1,0.999986
0.9653703943406615,1,0.999976
0.893785025273564,1,0.999982
0.876700346882467,1,0.999971
0.9481491892436271,1,0.999953
0.9622792112402969,1,0.999948
0.9545078157907267,1,0.999962
0.9513975677265784,1,0.999959
0.9784155494384924,1,0.999923
0.9509157264921231,1,0.999956
0.9493308831776833,1,0.999953
0.9362229542159738,1,0.999986
0.8345187730088459,1,0.999984
0.8769116891271245,1,0.999972
0.8957487688393153,1,0.999988
0.9104612611833859,1,0.999987
0.8989772730546908,1,0.999975
0.8687024423212587,1,0.999931
0.8898897209601356,1,0.999971
0.9493685497562322,1,0.999978
0.9089283740114072,1,0.999986
0.9687412493578806,1,0.999942
0.8904766865682521,1,0.999975
0.7990954509122726,1,0.999985
0.963803428785037,0,0.989471
0.9310427487439694,1,0.999979
0.9145258303577796,1,0.999986
0.9155376091017189,1,0.999952
0.9172752638232328,1,0.999891
0.9417756793605615,0,0.934797
0.9386748069562311,1,0.999988
0.9310335664324298,0,0.999812
0.9116543536997319,1,0.999855
0.958941858260158,1,0.999962
0.9423889898626421,1,0.999852
0.7624345941122082,1,0.999987
0.9006049710443561,1,0.999977
0.867807238405095,1,0.999954
0.9335247838738296,1,0.999986
0.8491942617996499,1,0.999973
0.9374325867100824,1,0.999880
0.9565878914761774,0,0.962942
0.9413662485873561,0,0.998489
0.9456369163820352,1,0.999977
0.9525891307498685,1,0.999964
0.9174303500559061,1,0.999977
0.9059378605494267,0,0.954350
0.9674113204501441,1,0.999891
0.8980780010904964,0,0.999706
0.9748456802443135,1,0.999976
0.9077450047034636,1,0.999984
0.9326725218352974,1,0.999969
0.8610670529066422,0,0.999449
0.8931217393458749,1,0.999980
0.8705632428825528,1,0.999985
0.9058663832380203,1,0.999981
0.7413915314428172,1,0.999978
0.946560724961002,1,0.999963
0.8870991746425162,1,0.999957
0.765189265322504,1,0.999983
0.928604573580767,1,0.999908
0.8792817759480559,0,0.933043
0.8701588727247705,1,0.999947
0.9175877752183949,1,0.999972
0.9624382535405545,0,0.998924
0.9591771318067844,1,0.999886
0.9762889706352255,1,0.999965
0.9559839641259087,1,0.999966
0.9734137296305551,1,0.999931
0.948167717749342,1,0.999935
0.9610689910564618,1,0.999960
0.9826558028629951,1,0.999967
0.944108893326401,1,0.999986
0.9364544986152625,1,0.999966
0.9323058051113867,1,0.999988
0.8999030406787499,1,0.999987
0.9089992886479571,0,0.999842
0.9225322556728626,1,0.999989
0.8846442511621773,1,0.999874
0.8972056667738225,1,0.999988
0.8931331245431482,1,0.999947
0.899129196257509,1,0.999938
0.9352450320398611,1,0.999989
0.912161263697584,1,0.999924
0.8971866608515606,1,0.999987
0.9378882154161367,0,0.999685
0.9601518433978182,1,0.999980
0.9087851690064123,1,0.999884
0.8683368734271744,1,0.999918
0.8852305541230024,1,0.999979
0.8683886811552867,1,0.999978
0.9487834343551227,1,0.999977
0.9252812620356824,0,0.999774
0.9282155504563256,1,0.999905
0.9272537601913251,1,0.999985
0.9448870233336434,1,0.999944
0.8980520499625322,1,0.999980
0.9667441218978609,1,0.999987
0.8939509093741071,1,0.999955
0.938373172776717,1,0.999962
0.8652347290154629,1,0.999981
0.780766690511776,1,0.999844
0.9715887394579319,1,0.999975
0.7092777336527243,1,0.999983
0.9403292835676508,1,0.999811
0.9725069147163088,1,0.999956
0.966545392631684,1,0.999946
0.9588327631629672,1,0.999956
0.9425068006371364,0,0.945071
0.9187533765311774,0,0.972210
0.9261562130208764,0,0.996654
0.8593675500968011,1,0.999979
0.9589172771428153,1,0.999974
0.8395421437800275,1,0.999963
0.9107494445213694,1,0.999982
0.8769505659820328,1,0.999982
0.9459984095995052,1,0.999969
0.8452044647831559,1,0.999987
0.8759195358828828,1,0.999978
0.8298091508485699,1,0.999986
0.9526808544122461,1,0.999971
0.9504920157782225,0,0.999421
0.8857287056521449,0,0.999444
0.9253867738608944,1,0.999976
0.9288923557096023,1,0.999986
0.8950446320684414,1,0.999985
0.8402783481187625,1,0.999964
0.8694639438842378,0,0.999285
0.849580389197456,0,0.999784
0.9305757854920902,1,0.999986
0.8935674525075165,1,0.999987
0.9386475028224954,1,0.999960
0.9033135742854869,1,0.999945
0.9645652217350542,1,0.999951
0.9532578984231413,1,0.999807
0.9194275871293759,0,0.998989
0.9424504231235046,0,0.970576
0.9164685778325368,1,0.999980
0.933789028249073,1,0.999988
0.8095943614299241,0,0.982777
0.8988631262904432,1,0.999988
0.8616507983340288,1,0.999984
0.970753854578144,1,0.999976
0.930191505785257,0,0.996722
0.9593545436287977,1,0.999978
0.8504669291722345,0,0.999379
0.8570306364316149,0,0.999078
0.9169516322121833,1,0.999976
0.9155996083120675,1,0.999984
0.9456588722426542,1,0.999988
0.9037193365619036,1,0.999979
0.8078463812572627,1,0.999957
0.9311190503819516,1,0.999971
0.894715654207147,1,0.999983
0.9197436218337779,1,0.999984
0.907237297215613,1,0.999986
0.9411019600816128,0,0.947800
0.909911263211798,1,0.999947
0.9625255344340672,1,0.999985
0.9718171801721688,1,0.999984
0.9564029453463188,1,0.999985
0.9197705103746613,0,0.999818
0.9509659610841644,1,0.999979
0.9569894959821357,1,0.999967
0.9589389662568666,0,0.999708
0.9344795698886268,1,0.999970
0.9316852206043357,1,0.999715
0.9502156102935922,1,0.999945
0.9330833101783125,1,0.999916
0.9299307377923272,1,0.999944
0.9254160913713186,0,0.997857
0.9362078258951771,1,0.999986
0.9851904535673075,0,0.999669
0.9357484648923572,1,0.999951
0.949113111629666,1,0.999978
0.9620148563954555,0,0.997090
0.9584711482545928,1,0.999938
0.9468112297089204,0,0.999189
0.9125896845576371,1,0.999950
0.9421480150453678,1,0.999982
0.8960538862938023,0,0.999756
0.9682128760140802,1,0.999882
0.9142668176733322,1,0.999973
0.8587979618355733,1,0.999920
0.9453920528965307,1,0.999977
0.9584456967880537,0,0.999700
0.9681547224932743,1,0.999985
0.910109874285489,1,0.999915
0.8976479583198774,1,0.999983
0.9292782795208061,0,0.983890
0.9710956526770748,1,0.999986
0.9194186143039812,0,0.999808
0.8385667250543866,1,0.999952
0.9341427212497773,1,0.999972
0.9201139007721667,1,0.999987
0.9217778522932832,1,0.999984
0.7576678260310008,1,0.999972
0.8758256559287146,1,0.999987
0.918380254107832,1,0.999985
0.9281515238028079,1,0.999986
0.9524274985048449,1,0.999985
0.8316792559047924,0,0.999347
0.9515087530654326,1,0.999934
0.9488459568450397,1,0.999979
0.9655838388850395,1,0.999975
0.9684464130484237,1,0.999976
0.9565513284820278,0,0.931243
0.9258850547244553,0,0.933791
0.8031952832949766,0,0.999625
0.910320416681887,1,0.999880
0.866390483974013,1,0.999987
0.9395368874518522,1,0.999988
0.9485116780282721,1,0.999979
0.926320141712332,0,0.965185
0.9005751080608719,0,0.988597
0.8232635679468219,1,0.999987
0.962585026392823,1,0.999967
0.951971775481004,1,0.999819
0.9091267385090719,0,0.999395
0.9770383338786149,1,0.999951
0.9481848565780028,1,0.999983
0.8729779648604046,0,0.999708
0.954930892777595,1,0.999942
0.944933667331932,0,0.971365
0.9519271805015612,0,0.977686
0.9456396390227235,1,0.999957
0.9508892688760171,1,0.999959
0.9640907805093802,0,0.987746
0.9493441873364216,1,0.999945
0.9589282225996492,1,0.999937
0.9612601153339597,1,0.999946
0.9495273723324625,0,0.999003
0.9193914520008825,1,0.999988
0.9442401648374371,1,0.999984
0.8997701756741318,1,0.999979
0.8468360882090208,1,0.999988
0.8551769365975738,1,0.999977
0.9381075663360171,1,0.999960
0.8535366851468064,0,0.999733
0.8523174939396956,0,0.999820
0.8744241196958115,1,0.999974
0.888186364623231,1,0.999986
0.9475482948725658,1,0.999988
0.8636832727442818,1,0.999921
0.9283313415787294,1,0.999987
0.8727911419908697,1,0.999977
0.9654484061927134,1,0.999986
0.9145415258444668,1,0.999981
0.9052263810790647,1,0.999964
0.9525485605036714,1,0.999981
0.8677355571659385,1,0.999956
0.9298964865309252,1,0.999982
0.9800283915012336,1,0.999987
0.930168817612574,1,0.999976
0.847634035692275,0,0.999534
0.9395565628702316,1,0.999984
0.9151445861614693,0,0.960465
0.9705926243165093,1,0.999980
0.9503719621271132,1,0.999966
0.9243156194728338,0,0.937869
0.8109505135939694,0,0.895934
0.9410745235706376,1,0.999974
0.9755556517559917,1,0.999976
0.9715270637476285,1,0.999988
0.9376797605920962,1,0.999978
0.827058368722262,1,0.999982
0.8906218972839861,0,0.999649
0.9104698789595744,1,0.999970
0.9153517552632501,1,0.999936
0.9765330103113123,1,0.999970
0.9000827366683082,1,0.999980
0.9137548540618875,1,0.999894
0.8721293261191274,1,0.999940
0.9578149263820882,1,0.999940
0.9608936142230471,1,0.999944
0.957219636473236,1,0.999945
0.964416540163565,0,0.999205
0.9425784860537164,1,0.999962
0.9619229165623391,0,0.999316
0.8106546253396671,1,0.999987
0.9246880195429737,1,0.999976
0.9034293485099965,1,0.999937
0.8412943193140864,1,0.999984
0.8578644584000399,1,0.999986
0.9223843281408445,0,0.999633
0.806280591690691,1,0.999958
0.9132787762714017,1,0.999878
0.9478398164517762,1,0.999960
0.9362958061933471,1,0.999957
0.9176176641067503,1,0.999881
0.9651299157176376,1,0.999955
0.788807571227719,1,0.999942
0.751332993861138,1,0.999973
0.8720486407529014,1,0.999985
0.9169904094340069,1,0.999974
0.8307978962178677,1,0.999983
0.8559039049745202,0,0.932085
0.9237614094223361,1,0.999774
0.9672453268601238,1,0.999960
0.9557999458108551,1,0.999963
0.9715324683354238,1,0.999951
0.9471358965922427,1,0.999955
0.9662254483753097,1,0.999923
0.9452904608850523,0,0.989577
0.8967183291429558,0,0.929358
0.9507365895837657,1,0.999984
0.9167539868919828,1,0.999964
0.8430622426493211,1,0.999973
0.9628779041888333,1,0.999977
0.9558796014584288,0,0.957743
0.9591991624346118,1,0.999934
0.9204438868916722,1,0.999866
0.9377707728957172,1,0.999988
0.9536955976997594,0,0.921565
0.8524245863222617,1,0.999988
0.855951678694169,1,0.999959
0.9371701185497974,1,0.999960
0.9198585899022124,1,0.999980
0.9220464949106802,1,0.999961
0.9168653555609927,1,0.999878
0.9226178740784107,1,0.999979
0.931930183310918,1,0.999973
0.9595034184074634,1,0.999987
0.7798684866103364,1,0.999922
0.8858252381389771,1,0.999914
0.7962195894120041,1,0.999978
0.9466301061450747,0,0.999016
0.8315028369017519,1,0.999989
0.9177802119268055,1,0.999987
0.8663953732307597,1,0.999964
0.8291470223396558,1,0.999988
0.9009238771628675,1,0.999988
0.8464666401692971,0,0.965304
0.9187337451977594,1,0.999987
0.9565869442013082,1,0.999967
0.8903114915411011,1,0.999980
0.9456685540976887,1,0.999986
0.9040073027789446,1,0.999976
0.7957890764372489,1,0.999988
0.7820825448892144,1,0.999985
0.9234358137929237,0,0.948198
0.9542496055080093,1,0.999844
0.969382322339922,1,0.999869
0.9639111206819359,1,0.999954
0.9679845407516795,1,0.999962
0.9550890032095207,0,0.998193
0.9707259081134104,1,0.999959
0.9579616411854156,1,0.999762
0.9755393417088414,1,0.999988
0.7485321249847208,1,0.999983
0.9522758958617562,0,0.998397
0.9222461668134085,1,0.999938
0.9364622581675262,0,0.942182
0.9162791440897403,0,0.960250
0.9293871716264199,1,0.999987
0.8803691059564263,1,0.999988
0.8854238940965667,1,0.999971
0.9265201666564189,1,0.999962
0.8600923943186976,1,0.999939
0.8601361085338168,1,0.999933
0.8777883224716826,0,0.999507
0.9390680087596802,1,0.999981
0.901183409709352,1,0.999981
0.8910433353405575,0,0.999837
0.9273386654423087,1,0.999978
0.8770359771540186,1,0.999987
0.9039520925015833,0,0.935258
0.7311216570280687,1,0.999987
0.9443082293710596,1,0.999974
0.9531988586668931,1,0.999976
0.9668929687534221,0,0.999602
0.9251136582269637,1,0.999829
0.8906113825228181,1,0.999937
0.7334686986271884,0,0.999577
0.8988629252921301,0,0.999619
0.9520279380539495,1,0.999949
0.9553331592397488,1,0.999835
0.9760810924733406,1,0.999885
0.9446514794518035,1,0.999986
0.880895435399318,0,0.999835
0.8841205655234212,1,0.999988
0.9732461870659477,0,0.999607
0.9245795256723627,1,0.999988
0.9351120846458081,1,0.999857
0.9399452587083797,0,0.999421
0.8806342193930763,1,0.999965
0.9111430073500889,1,0.999968
0.8893240803843221,1,0.999957
0.9443466042345307,1,0.999975
0.9208033645710235,1,0.999963
0.9550108966281857,1,0.999974
0.9305731150005049,1,0.999969
0.9187085723827141,1,0.999975
0.9625364642516681,0,0.935254
0.9383803505496146,0,0.997795
0.9593853866553566,1,0.999643
0.9379587350235402,0,0.999747
0.9085954966415595,1,0.999966
0.9051380180855463,1,0.999972
0.9038103706546071,0,0.999823
0.8731775409523607,1,0.999893
0.8558347755628448,0,0.936237
0.8328337676054571,1,0.999984
0.9051262673140964,1,0.999977
0.9474861106853288,1,0.999980
0.9600010273427717,1,0.999988
0.9272568158131012,1,0.999968
0.9507744717539379,1,0.999887
0.9524014495661507,1,0.999789
0.9352880423306341,0,0.999360
0.9193886211547705,0,0.999588
0.7387598223275084,1,0.999964
0.7601938269404531,1,0.999942
0.7786158919472853,1,0.999972
0.9542826194742787,1,0.999962
0.9442462507233249,1,0.999974
0.9678947748408187,1,0.999980
0.7752796649073037,1,0.999975
0.9023638018563701,1,0.999969
0.7527129592855865,0,0.999748
0.8571856551129784,1,0.999956
0.9527947037532298,1,0.999982
0.9119980324743842,1,0.999983
0.8508571613871111,1,0.999900
0.9067330403325637,1,0.999972
0.8274360282372434,1,0.999972
0.8535478123514658,1,0.999912
0.9199885441387587,1,0.999973
0.9639972885283576,1,0.999711
0.8652637801827029,1,0.999982
0.9595365092835084,1,0.999975
0.9065264191404739,1,0.999981
0.8757809304411291,1,0.999932
0.7485742376957324,0,0.996492
0.9584360228371988,1,0.999969
0.9508484266977555,1,0.999919
0.9026705339481629,1,0.999960
0.9222526310926701,0,0.997875
0.8406173592073225,1,0.999988
0.9696746501000784,0,0.999311
0.9517381136266145,1,0.999950
0.9555847418274556,1,0.999957
0.9774766505917487,1,0.999849
0.9071262014310775,0,0.999141
0.9142706830267711,1,0.999988
0.8682348415171325,0,0.916724
0.938878904434172,1,0.999980
0.9382387379104783,1,0.999969
0.8943089920195331,1,0.999985
0.7407645668699212,1,0.999895
0.9115953251989154,1,0.999942
0.926548680031008,1,0.999987
0.8865111835409744,1,0.999967
0.8690874996231972,1,0.999987
0.848184464586464,1,0.999987
0.858964295817931,1,0.999918
0.9542000183448386,1,0.999967
0.9539654741056649,1,0.999976
0.929818379198855,1,0.999974
0.946527592700179,1,0.999944
0.9519926928106259,1,0.999894
0.9405852448099906,1,0.999974
0.9299257952486675,1,0.999987
0.933537395023903,0,0.999500
0.9011561266684441,0,0.976339
0.9414168792948481,1,0.999975
0.8152258338282489,1,0.999988
0.8722576700883073,0,0.999618
0.924982151760995,0,0.999730
0.935701626134773,1,0.999903
0.8861890313461487,1,0.999983
0.9499870801508377,1,0.999983
0.8543329731247388,1,0.999983
0.8894626635483113,1,0.999947
0.901244877127294,1,0.999975
0.931603884456767,1,0.999980
0.9202286961515515,1,0.999980
0.9130579882226355,1,0.999798
0.959181047145018,1,0.999837
0.9318433018012109,1,0.999967
0.9674782281138782,1,0.999718
0.9534390788632178,1,0.999956
0.9601661068148801,1,0.999870
0.928079833022256,1,0.999794
0.34915490057353044,1,0.999954
0.6678648834136068,1,0.999988
0.9551484551543822,1,0.999962
0.9182764161411775,0,0.999790
0.9021619700822605,1,0.999985
0.9326645390486076,0,0.999569
0.8836788766294127,1,0.999972
0.8971965410947493,0,0.997150
0.9368726246854086,1,0.999976
0.8185375557378363,1,0.999984
0.8012179692509606,1,0.999988
0.9327659009242069,1,0.999988
0.8865196725314493,1,0.999987
0.9180669104455192,1,0.999871
0.9665116026362325,1,0.999981
0.9496205947283075,0,0.996462
0.9676570556867389,0,0.999802
0.9365711734124333,1,0.999879
0.9716706673791711,1,0.999923
0.9465821760827356,1,0.999948
0.9577743641559425,1,0.999973
0.9718909786131923,1,0.999976
0.9486862224955863,1,0.999894
0.9211004949460408,0,0.999558
0.8260729561869014,0,0.928434
0.8851615521847692,0,0.999598
0.9090015951735524,1,0.999987
0.8554525385358775,1,0.999987
0.8110611745017199,1,0.999975
0.7886410130246692,1,0.999939
0.875633309805867,1,0.999885
0.7580941109894417,1,0.999937
0.8855583642996211,1,0.999967
0.9656982959173757,1,0.999941
0.9588699003167939,1,0.999915
0.9715002775737958,1,0.999947
0.9826693236329449,1,0.999763
0.974760667091866,1,0.999943
0.9615177964633664,1,0.999957
0.9607845079099829,1,0.999959
0.9612505497633653,1,0.999906
0.9393533131288626,0,0.998875
0.8600747547587524,1,0.999934
0.9058101571786732,1,0.999963
0.7864479678607355,1,0.999954
0.9081321533172424,1,0.999971
0.91364378217888,0,0.999803
0.8696191673370103,1,0.999883
0.9403026793001525,1,0.999968
0.906899872079997,1,0.999985
0.8516505300210386,1,0.999987
0.8350522144023611,1,0.999983
0.9037811924635261,1,0.999987
0.8976654820686313,1,0.999987
0.8654073194482289,1,0.999962
0.8088092375535864,1,0.999987
0.9365221325020323,0,0.999691
0.8412209487207726,1,0.999944
0.8112107917947766,1,0.999979
0.8783423749706153,1,0.999985
0.534601979668119,1,0.999975
0.8891255752219088,1,0.999980
0.8956136256405272,1,0.999963
0.8727362611979632,1,0.999984
0.964800015749122,1,0.999975
0.9174896357907929,1,0.999950
0.9570864170175406,1,0.999842
0.9371761870858195,1,0.999976
0.9735023723774663,1,0.999809
0.9577220656735602,1,0.999889
0.8666169376439543,1,0.999985
0.9702475599382497,1,0.999967
0.9412330267677235,1,0.999962
0.95385875144486,1,0.999929
0.9364254649654913,1,0.999945
0.9295937507448925,1,0.999981
0.9362959375340683,1,0.999932
0.9484374441208592,0,0.998287
0.7965256157437114,0,0.999557
0.8578035948606983,1,0.999976
0.8886634131930482,1,0.999965
0.9468563350378033,1,0.999966
0.9185444148511848,1,0.999866
0.9362798500656426,1,0.999970
0.9389042377264709,1,0.999986
0.8859110360697154,1,0.999988
0.9620346791362897,1,0.999879
0.9496306324161471,1,0.999988
0.9695356612054356,1,0.999951
0.9444663752131073,1,0.999984
0.9279737944807487,1,0.999985
0.9262152082113322,0,0.999763
0.899206976923846,1,0.999985
0.8288838380155884,1,0.999969
0.9519812627933038,1,0.999965
0.9772657261030391,1,0.999881
0.8919563928295742,1,0.999988
0.9246920834015024,1,0.999963
0.8855683323191426,0,0.998704
0.8721560727495435,1,0.999923
0.9195141695986434,1,0.999974
0.8642751211075655,0,0.999659
0.9647035115798256,1,0.999987
0.9501860811454959,1,0.999988
0.9717776717572775,1,0.999957
0.9299950013781103,1,0.999972
0.8739101887368715,1,0.999931
0.9292228880792334,1,0.999972
0.9668767857844358,1,0.999981
0.9712642488771138,0,0.999435
0.9737109034996206,1,0.999967
0.9745203610913856,1,0.999808
0.9637432414765357,0,0.998966
0.9354178507558821,1,0.999937
0.9709683056254352,1,0.999968
0.9478582364384973,1,0.999947
0.9456148296486001,1,0.999768
0.9282353037376764,0,0.950069
0.9045293929451967,1,0.999978
0.9426772866177215,1,0.999976
0.8066495607489479,1,0.999982
0.9038581751245885,1,0.999983
0.8894433713860115,1,0.999987
0.8574787295241951,1,0.999928
0.9200424706241355,0,0.999849
0.9545647521218185,1,0.999962
0.9055790575279513,1,0.999986
0.9447738954983198,1,0.999963
0.9398502226116154,1,0.999983
0.8185628814259595,1,0.999987
0.9512849991907981,1,0.999982
0.9260034009212827,0,0.998983
0.8266221156238507,1,0.999974
0.9419234386049954,1,0.999932
