0.6283904870378162,0,0.000027
0.48818702324394236,0,0.001150
0.3793150969598584,0,0.004705
0.6290089305981437,0,0.999416
0.7702162357268254,0,0.963865
0.33338143524729086,0,0.650820
0.38320082473841194,0,0.479038
0.46972575404647254,0,0.169739
0.40746677241806045,0,0.161940
0.45988874435002,0,0.925581
0.36618278476966654,0,0.603048
0.4484002501960194,0,0.009421
0.5834894529613739,0,0.027614
0.3662268999627994,1,0.999976
0.6795558672538178,1,0.999988
0.5885203460013197,0,0.996436
0.3179810913117375,0,0.585758
0.5774207508803767,0,0.661964
0.5090607107460536,0,0.466437
0.45484403118612543,0,0.390001
0.4848422134706733,0,0.038979
0.45684941731839496,0,0.036401
0.6234461042499628,0,0.303198
0.6539545711109478,0,0.335240
0.6258074641626233,0,0.314497
0.6082392901918474,0,0.217308
0.36843238972338693,0,0.147813
0.3355196912742765,0,0.148800
0.31087069703329534,0,0.743342
0.3036393424229094,0,0.162525
0.6588041737435463,0,0.051400
0.5340334230166316,0,0.916581
0.7201637154521887,0,0.997510
0.7175031242334787,0,0.999557
0.497828167195251,0,0.924031
0.31477070138527574,0,0.898961
0.6564048216731444,0,0.972375
0.563995373693331,0,0.905262
0.24138944805574913,0,0.999764
0.4999691634609998,1,0.999985
0.6566052436713772,0,0.998074
0.7869679964470002,0,0.990787
0.76124429041065,0,0.998997
0.7383328594168443,1,0.999917
0.5203838637052424,1,0.999922
0.3925036641702858,0,0.999643
0.2739936496028082,0,0.964206
0.3899330433868463,0,0.989697
0.8082084502878822,0,0.997809
0.6772288099047632,1,0.999918
0.5750065166361767,0,0.998779
0.6131066173453288,0,0.999630
0.6653211795316473,0,0.992192
0.688774122514987,0,0.991846
0.43102425409302103,0,0.999752
0.5230070839861705,0,0.984129
0.37011101816542147,0,0.998737
0.48615931902625525,0,0.998763
0.5230419845970896,0,0.973023
0.6218597986794292,0,0.968526
0.738438364106563,1,0.999984
0.6429021810303076,0,0.980583
0.7182179130649018,0,0.943736
0.7759424404003067,1,0.999860
0.7749934633395811,0,0.999376
0.2960413151850333,0,0.991189
0.2636317056353651,0,0.999605
0.31718244759347947,0,0.999731
0.8985711021856112,1,0.999920
0.4826601434669821,1,0.999942
0.3444353999266563,0,0.986144
0.8559757226843355,1,0.999897
0.7483384996487001,1,0.999960
0.8043158307211246,0,0.956394
0.34830423236343594,0,0.986872
0.6678919046206321,1,0.999915
0.6458275113203766,1,0.999986
0.6613551970506345,0,0.984851
0.8700937649497378,0,0.953896
0.7475298089810793,0,0.962570
0.7714910382164285,1,0.999986
0.8230310521356021,0,0.999800
0.6604340873009582,1,0.999986
0.6413564884783665,0,0.967360
0.48281767514271295,0,0.987748
0.7953167708762182,0,0.952763
0.6566463907991001,1,0.999977
0.37317068481627086,0,0.998823
0.7055100128764579,1,0.999861
0.6270627914722976,0,0.997063
0.8319783070583481,1,0.999926
0.8758032501034395,1,0.999987
0.6988049172826315,1,0.999964
0.7967124994905432,0,0.990804
0.7803491657674849,1,0.999987
0.6960676272353001,1,0.999989
0.7242967913108581,0,0.966385
0.5337030278491957,0,0.993304
0.8338459278019267,0,0.962752
0.7651400657863684,0,0.999116
0.40107723566047804,0,0.997594
0.6153759881638248,0,0.999570
0.7206265323542485,0,0.997635
0.8810058737061544,0,0.969164
0.2768749791747928,0,0.998536
0.31956816048176806,1,0.999952
0.4365742302645328,0,0.999243
0.7841252803801914,0,0.999175
0.5889441071664141,1,0.999964
0.7321769085874852,1,0.999963
0.5896810841247002,0,0.990839
0.7855406565071427,1,0.999917
0.5122204337191604,1,0.999987
0.8086806245031194,0,0.993669
0.6748345850830525,0,0.996340
0.47176182253803794,1,0.999799
0.3484198194862135,0,0.968087
0.3264909436383822,0,0.994253
0.6697591454686175,0,0.958081
0.2886917815640629,1,0.999982
0.6932752163767882,0,0.999805
0.46582281789415075,0,0.998237
0.8088027468345597,1,0.999987
0.5338787623712636,1,0.999986
0.9109670809663861,1,0.999988
0.8350293321897113,0,0.979232
0.6480231795983378,0,0.972589
0.4891532672752589,0,0.994771
0.5616506862416104,1,0.999881
0.5584170609143996,1,0.999909
0.8003178998058776,1,0.999954
0.6069243888786876,0,0.967005
0.13921684636865264,1,0.999978
0.15868267407003994,0,0.981647
0.19900461042007345,0,0.973347
0.260716548114065,1,0.999976
0.44589626709101327,0,0.964012
0.6648964145786613,0,0.998587
0.6583643559771648,1,0.999915
0.6040960659864341,0,0.995250
0.9235319236832792,0,0.999708
0.16123035291348836,0,0.995573
0.5414717926701038,0,0.959471
0.5003850217967458,0,0.961532
0.7338707347585723,0,0.978387
0.8303500676083286,1,0.999892
0.8206327800218299,1,0.999957
0.8109653783451333,0,0.999618
0.7686072228732289,1,0.999853
0.8591340243408062,0,0.999676
0.6038881094377956,0,0.997658
0.34713031218078,0,0.984542
0.4844889947148172,0,0.999812
0.6857353282611114,0,0.988635
0.7811282345291325,0,0.989411
0.8631868440058098,1,0.999973
0.5343961451460401,1,0.999986
0.7667050338705309,0,0.979791
0.44881373665024593,1,0.999960
0.9288363204833477,1,0.999981
0.5206863761817838,0,0.999665
0.22698936083772883,0,0.944118
0.21368630707758834,0,0.997529
0.8141498889645238,1,0.999913
0.6023502675331578,1,0.999974
0.7353830218672315,1,0.999986
0.5947647603775691,0,0.999578
0.878776054835476,0,0.979576
0.6631216961787901,0,0.997542
0.47879230903452963,0,0.998121
0.5500050200560788,0,0.950691
0.7237433236673806,0,0.999783
0.2681925414896749,0,0.958922
0.6213390903411754,0,0.987702
0.659192185065566,1,0.999983
0.7816143898106754,0,0.993196
0.7836461813746092,0,0.998963
0.48850555840667226,0,0.998605
0.4289544345740846,0,0.988403
0.7921766070410312,1,0.999978
0.5798839670509517,1,0.999879
0.7362338234708813,0,0.999427
0.6609854500361303,1,0.999980
0.6616919460581647,0,0.963650
0.8767201544430139,0,0.993100
0.7833598734456871,0,0.999636
0.8694590597580022,0,0.967239
0.8359540286227702,1,0.999954
0.8322593568583968,0,0.926809
0.7522409777475296,0,0.999671
0.8748788869820388,0,0.935061
0.8858472787613222,0,0.945446
0.42822016658542583,0,0.986610
0.7922354409861994,0,0.940701
0.6066856894990147,0,0.995738
0.8500915863019273,0,0.969562
0.7072185156351745,0,0.989611
0.5057293507027975,0,0.999434
0.2703057996398484,0,0.999556
0.5966888252672038,0,0.998213
0.47809557904605077,0,0.998645
0.8142707697615921,0,0.986471
0.6804603355972558,0,0.968550
0.7888389697163064,1,0.999985
0.7878501867755672,1,0.999960
0.865013238764668,0,0.998034
0.6582502060514257,0,0.994778
0.3066907208525559,0,0.999099
0.7532942836187844,1,0.999984
0.6045235539372612,1,0.999966
0.7683850370833726,1,0.999918
0.7049602652694313,0,0.962023
0.7898517416342722,1,0.999947
0.39096573808076995,0,0.999329
0.9314290493857436,1,0.999988
0.9040001468960523,1,0.999962
0.8488836928249475,0,0.995216
0.9035958444094881,0,0.997038
0.7482137921031511,1,0.999985
0.8405419125543828,1,0.999859
0.9009644243914612,0,0.989599
0.4323538063561638,1,0.999977
0.45467824247103295,0,0.940298
0.3790317156261529,1,0.999986
0.29380288681916894,1,0.999951
0.7135803841086754,0,0.994125
0.6969491739630567,0,0.998884
0.7620676607414287,1,0.999986
0.6657033355813736,1,0.999986
0.6520175697050343,0,0.998904
0.8841513149481119,0,0.932072
0.442854704733612,0,0.998101
0.3591025660328742,0,0.991613
0.646007277970421,0,0.987509
0.6454205514802233,1,0.999960
0.32628500294393814,0,0.971054
0.7340626543032108,0,0.999007
0.6338126861668231,0,0.998914
0.4735813059007146,0,0.997334
0.8317042205651591,0,0.997001
0.43748443594847763,0,0.998698
0.9391758187669715,0,0.970263
0.8509316024455399,0,0.931704
0.8712938482195031,0,0.991705
0.616350746437286,0,0.943373
0.19432673105283166,0,0.994886
0.7746572864633725,0,0.999332
0.7318224477905787,1,0.999976
0.7799311030551518,0,0.930384
0.4716932781250623,0,0.962222
0.7106274622572932,0,0.997933
0.5831710855539862,1,0.999975
0.7610804278380228,0,0.928102
0.7095435591726172,1,0.999979
0.6293164818746786,0,0.975888
0.7403939125651329,0,0.993665
0.1875545702364836,1,0.999789
0.720394384706865,1,0.999976
0.6889950816179026,0,0.995460
0.7865529540933333,0,0.986642
0.6622176296829979,1,0.999906
0.40296939983543023,0,0.999260
0.9750221278298699,1,0.999966
0.9598908816902776,0,0.998871
0.9701193233014873,1,0.999958
0.46883150588885253,0,0.999188
0.5775787836365822,1,0.999893
0.9098455647712708,1,0.999988
0.5747543484845477,0,0.997575
0.8168095996187148,0,0.996943
0.3452121218157697,0,0.994997
0.21125832536656253,0,0.986365
0.764920685148379,1,0.999987
0.897391029577043,1,0.999876
0.7421197784815505,0,0.999160
0.26134823553875036,0,0.944550
0.8660844065248042,1,0.999988
0.4462120078009431,0,0.952569
0.8585618243560469,1,0.999986
0.7172194994904766,0,0.995232
0.4898324613145387,1,0.999975
0.47734553265602286,0,0.946389
0.7502117103709126,0,0.934056
0.5302419669491784,0,0.991927
0.8879211566525216,0,0.998217
0.9022341526350134,1,0.999870
0.7373892202783597,1,0.999953
0.7621958816018229,0,0.953943
0.7747724172225194,0,0.951514
0.4126824547858798,1,0.999938
0.5825342814171186,0,0.999662
0.6509965451561066,0,0.999830
0.6062045366511719,1,0.999981
0.8911568629191515,0,0.982124
0.8501550557920741,0,0.994933
0.7701710408298004,0,0.965153
0.7189372268414268,0,0.978257
0.6656522851714152,1,0.999968
0.41309510352269097,0,0.993067
0.49327580169568336,0,0.999369
0.5761131820036894,0,0.960207
0.9028612949752745,1,0.999986
0.7296668681172335,0,0.998707
0.33194225971440733,0,0.947972
0.6386057439044317,1,0.999961
0.648303260730251,0,0.996765
0.5533483184355642,0,0.954571
0.8560076756622091,1,0.999871
0.6956131464736379,1,0.999902
0.8586544428214336,1,0.999971
0.796354250173305,1,0.999979
0.7898543013442626,0,0.999325
0.8270945822600491,1,0.999978
0.3776592957789161,0,0.999552
0.6952280870744606,0,0.987131
0.7628800471903388,0,0.999762
0.6911631230880848,0,0.939451
0.8981328371782257,1,0.999906
0.8598236213842113,0,0.930533
0.9127240267542225,1,0.999987
0.9113163035824247,1,0.999966
0.731650217574221,1,0.999980
0.7854839763150121,0,0.990445
0.5497964421621274,0,0.999568
0.916649360445551,0,0.997692
0.6816668348541682,1,0.999949
0.8636505789963187,1,0.999962
0.7759977317067976,0,0.999405
0.7683049621281148,0,0.999261
0.4213720130134726,0,0.999735
0.8385603657874718,1,0.999973
0.8476234467895387,0,0.946248
0.9093105484740669,0,0.999732
0.6106328689227626,1,0.999877
0.8719724354544108,0,0.998123
0.8516405518756373,0,0.989682
0.59310363278748,1,0.999962
0.9001524636311043,1,0.999988
0.7623626810155122,0,0.973037
0.5118446095809842,0,0.999460
0.41659939901963805,0,0.990400
0.49916106956104656,1,0.999988
0.7849807995858782,0,0.949940
0.7221071896178286,0,0.996632
0.9150250846639489,1,0.999989
0.9111325668976502,1,0.999961
0.5476042710167697,1,0.999977
0.8083211762190838,1,0.999737
0.9447916020353008,1,0.999981
0.9188473543256915,1,0.999732
0.957283701476794,0,0.940120
0.8069182911157375,0,0.999831
0.6859588006388833,0,0.959986
0.43469661290026096,1,0.999758
0.9472434298921472,1,0.999938
0.9398491922415557,1,0.999686
0.9213827693313646,0,0.999626
0.8738392295065026,1,0.999970
0.7219209479249069,0,0.992392
0.7564990996980759,1,0.999776
0.5796233250562863,1,0.999960
0.7422234577742854,0,0.977344
0.860603416928358,0,0.998801
0.5942690667905307,1,0.999985
0.753988251821255,1,0.999986
0.8064452378063913,0,0.999533
0.7346991944954928,0,0.983425
0.9175561215513175,1,0.999989
0.29424497069179284,0,0.997096
0.7538116759448206,0,0.999770
0.7466130218775213,0,0.968587
0.7648476740918657,0,0.924484
0.9683788487695163,0,0.999016
0.422020688073,0,0.998919
0.46518886450227004,0,0.997696
0.8972330667576375,0,0.989906
0.8730940203669033,0,0.998587
0.6901553455815245,1,0.999954
0.9088351607064361,0,0.999709
0.8555134593830234,0,0.976301
0.8339794484957941,0,0.952492
0.406910128551247,1,0.999915
0.622988628287188,0,0.999846
0.6649764253752755,1,0.999958
0.44545422562482223,1,0.999972
0.92995516253683,1,0.999987
0.9592284322207307,1,0.999930
0.9384918945957571,0,0.999033
0.6500812415385333,1,0.999930
0.7513111504969351,1,0.999986
0.7009540496697114,0,0.943462
0.7740950192722343,1,0.999965
0.8121052069971715,0,0.966349
0.8493329952294225,1,0.999839
0.5607475185633282,0,0.999166
0.6796811708439444,0,0.977838
0.5685854121022671,1,0.999970
0.8149302596143944,1,0.999822
0.827187447528636,0,0.933760
0.6846533131327477,0,0.998450
0.8393567627438483,0,0.997098
0.7313184554246557,0,0.951193
0.9136077984870342,0,0.998047
0.8538949561664061,1,0.999876
0.48376376652363606,0,0.998390
0.9182251627026935,1,0.999671
0.9447107995358583,0,0.999819
0.6681997545686282,0,0.948522
0.7901077548505135,0,0.979978
0.25714736241798514,1,0.999975
0.8453427012518383,0,0.920112
0.9726871842107635,0,0.940722
0.9404947987666715,0,0.996129
0.8698616302000081,0,0.965500
0.8668489391571811,1,0.999868
0.7076776302709695,1,0.999858
0.847560403737094,0,0.997598
0.6601955216668962,0,0.998764
0.4692299308928974,0,0.984854
0.7216752462908891,0,0.914019
0.869271156341193,0,0.933233
0.5120471059334631,0,0.998031
0.8681375270208554,1,0.999975
0.8432914661535361,1,0.999988
0.790474929241961,1,0.999924
0.79426746666592,1,0.999933
0.6982873452920614,0,0.937642
0.3437723845317005,0,0.997463
0.5785731213999421,0,0.999635
0.627918165495791,0,0.997529
0.40139464024087684,0,0.990013
0.8100680748828586,1,0.999970
0.7637863373466607,0,0.998292
0.7396483324904243,0,0.997507
0.9693217548518204,0,0.999543
0.7340242439362702,0,0.999224
0.654582494385914,0,0.995940
0.9656795524573754,0,0.987707
0.833083456533176,1,0.999988
0.8228255523838616,0,0.999268
0.7993946148231019,0,0.949965
0.9459335786133657,0,0.999850
0.9484170758604368,1,0.999963
0.9014819797942923,1,0.999966
0.6648934633473048,1,0.999973
0.9000244347391794,0,0.999519
0.9428271271592094,0,0.999422
0.9385640007951175,0,0.995531
0.9229359053817866,0,0.999032
0.36711499963119376,0,0.987240
0.8359458888584426,0,0.999614
0.9317024328359015,1,0.999988
0.8884878466628607,1,0.999863
0.44476465417850125,0,0.998568
0.8373379420741303,1,0.999875
0.4833496064810789,1,0.999943
0.7503024442589992,1,0.999933
0.8891299006307943,1,0.999985
0.7831646506479583,0,0.921242
0.8482505566781685,1,0.999550
0.2655476964747961,0,0.997915
0.6676641254436657,0,0.999822
0.6444504110258908,1,0.999988
0.8148209135605047,1,0.999941
0.8342773442428291,1,0.999988
0.5004143737634588,1,0.999972
0.8995449414885824,0,0.984660
0.40777833489632737,1,0.999674
0.9478666520703776,1,0.999928
0.1382772438295357,0,0.963932
0.6521223596376087,0,0.998701
0.8842236533591782,0,0.929548
0.8842363198913911,1,0.999971
0.49454510638509197,0,0.996006
0.8638148456859296,0,0.999706
0.5656346741752741,0,0.963108
0.8632981400760283,1,0.999963
0.8683898678436569,0,0.999760
0.8556328700675198,1,0.999986
0.7913448295884872,1,0.999941
0.7239865319924919,1,0.999955
0.7780124118793735,0,0.988308
0.9123911858441864,0,0.999723
0.8915534763969907,0,0.999131
0.7486530766958307,0,0.967974
0.9242437980471221,0,0.998946
0.7635865528354825,0,0.992696
0.9209495165091534,1,0.999988
0.7308550233111616,0,0.998287
0.9320323961546837,1,0.999939
0.8848127724108955,1,0.999881
0.8013685695226167,0,0.997936
0.7619006251358097,0,0.999794
0.8941165293898087,1,0.999967
0.9632089663091762,0,0.996383
0.6248444007712048,0,0.998598
0.8869048033454512,1,0.999988
0.8013304312101028,1,0.999954
0.6855588048588942,0,0.993463
0.8352475415831541,1,0.999917
0.9332092500682505,1,0.999969
0.9207340016136257,1,0.999952
0.81839357592328,1,0.999528
0.9032161375590614,1,0.999966
0.7981704979091198,0,0.997117
0.7929337335898606,1,0.999954
0.39486513929822076,0,0.998159
0.7006424583165477,1,0.999970
0.8726719559026282,1,0.999650
0.9243697187969866,0,0.990103
0.9473882624558604,1,0.999831
0.9347992926612871,0,0.998924
0.9111771083956601,1,0.999904
0.9337176243851725,1,0.999987
0.8207555086506461,1,0.999916
0.48383102614264395,1,0.999830
0.880298483810089,1,0.999971
0.8411403195816577,0,0.999715
0.7348521995741109,0,0.999809
0.6243013181561722,0,0.999808
0.837663814830295,1,0.999984
0.7970642075574779,0,0.999779
0.6752583683507843,0,0.999636
0.37226443311935015,0,0.990790
0.7119114586684123,1,0.999967
0.7581585373960545,1,0.999917
0.5861340062005804,1,0.999985
0.7095677276783979,0,0.984712
0.5266992604691431,1,0.999926
0.7104162137403779,1,0.999849
0.5186050939739938,1,0.999864
0.6763255546034365,1,0.999863
0.24879470466227274,0,0.943989
0.517465429664779,0,0.999653
0.8912081024066482,1,0.999980
0.9342761001895058,0,0.968364
0.606706789104335,0,0.943664
0.3830123544286211,0,0.995847
0.8852978853672221,0,0.992773
0.8069264805032837,1,0.999947
0.7666227336662048,0,0.942018
0.7305594438283898,1,0.999976
0.7640553453997622,0,0.935211
0.8875598595872136,0,0.998693
0.9287424021314892,1,0.999944
0.47644840886697376,1,0.999944
0.3431952925060904,0,0.999711
0.8287254015609617,0,0.999733
0.21170881742661413,0,0.999673
0.6451247894779317,0,0.998488
0.6898298567703853,0,0.987635
0.8392817101633415,1,0.999901
0.8917472185169669,0,0.999780
0.9281625652321965,1,0.999829
0.7501005469056143,0,0.999869
0.7638008787321251,1,0.999985
0.47812586183801725,0,0.939887
0.7533555189789958,1,0.999987
0.8441130571983699,0,0.999778
0.7836384576791899,0,0.999713
0.9054184081186777,0,0.999850
0.6351674224053676,1,0.999956
0.8175444071764753,0,0.999069
0.9307102665985222,0,0.982288
0.570807572448702,1,0.999977
0.578740538275423,0,0.997209
0.9327626686823839,1,0.999913
0.40968672850339666,1,0.999975
0.9314307863855141,1,0.999823
0.4166495337590864,0,0.979090
0.8681849795239122,1,0.999983
0.8778623804624487,1,0.999986
0.837664537912107,1,0.999985
0.8600760797208035,0,0.999574
0.9080264064849435,0,0.965101
0.9411278822580418,1,0.999843
0.9085271000663371,0,0.999540
0.863665255118007,0,0.997397
0.8251432033804441,1,0.999974
0.9793270510101386,1,0.999735
0.8594851637623021,1,0.999989
0.7369727292893269,0,0.999838
0.37978679914944696,1,0.999767
0.9073034527040105,0,0.998698
0.686726630983942,0,0.966873
0.6187208521690364,1,0.999954
0.8023640210538615,0,0.928736
0.8794772459398633,0,0.999412
0.7409367158746133,0,0.998691
0.7700648444374528,1,0.999962
0.6867753096580055,1,0.999897
0.8653387289581552,1,0.999988
0.6755634906721587,0,0.997650
0.6370935114729231,0,0.951058
0.781709133957291,1,0.999984
0.9298015032174954,1,0.999881
0.5262010187121242,0,0.980498
0.7551911613534782,0,0.999835
0.8375290680115228,0,0.999712
0.8282412402875071,1,0.999900
0.808706671639082,1,0.999927
0.6848753835547705,1,0.999820
0.7295835350753433,0,0.999142
0.8400697527029672,1,0.999975
0.9092889986099707,1,0.999742
0.9092933753260932,0,0.999557
0.5851751206422703,1,0.999985
0.6229979447693245,1,0.999876
0.8460925494448359,1,0.999983
0.9338229849850073,1,0.999734
0.8346919465213698,1,0.999973
0.9509100098318021,1,0.999974
0.9000425834276735,1,0.999971
0.8736938481482261,1,0.999910
0.9508302171967798,1,0.999986
0.9393209939693934,0,0.999387
0.8675958571592266,0,0.999776
0.9059300982549489,1,0.999958
0.9204429890539952,1,0.999914
0.8743123843200982,0,0.998472
0.9084675539435301,0,0.999307
0.9125436983446786,1,0.999968
0.7191962006462252,1,0.999984
0.7305838871306481,1,0.999935
0.8781107104826987,1,0.999987
0.6930763072832642,0,0.956633
0.6802179518344282,0,0.999533
0.7951906239403035,1,0.999952
0.5071835849143145,0,0.924201
0.6643872833047585,0,0.980266
0.8176854498683428,1,0.999986
0.7049909188719968,0,0.999667
0.8415520160165492,0,0.999524
0.5406358699201141,0,0.999151
0.7828558743762384,0,0.918812
0.9019126866388909,0,0.999766
0.7989082131361824,0,0.999667
0.6650229041398215,0,0.999728
0.9267896476188009,0,0.925226
0.9470000950163038,1,0.999700
0.8706541168357875,1,0.999985
0.8609958898453015,1,0.999974
0.7932095340430675,0,0.995184
0.689888450212055,1,0.999819
0.5484123158430192,0,0.999484
0.9154922800163957,0,0.999259
0.9021759104304121,0,0.997198
0.8513213420566403,0,0.914159
0.7518729159664248,1,0.999981
0.8871810683371417,0,0.966984
0.8002805020941258,0,0.999335
0.8939776685838244,1,0.999985
0.5479839960621019,0,0.943158
0.8711548091024021,1,0.999955
0.9206902440417536,0,0.999835
0.8446864804521707,1,0.999956
0.8046034777299854,1,0.999938
0.910380657545486,0,0.999434
0.843888173997597,0,0.923082
0.8930285779733882,0,0.999587
0.5424883456461248,0,0.999145
0.7877636026464443,0,0.999030
0.44985497787964146,0,0.997111
0.8693167926241812,0,0.999837
0.2279511744011348,0,0.994345
0.8102222978282652,0,0.999155
0.8466711779006896,1,0.999971
0.7130063400540835,0,0.999019
0.9253580946234066,0,0.998484
0.9352779372541302,0,0.999567
0.9459615107067869,1,0.999964
0.9391314347319552,0,0.999207
0.4622435604393699,0,0.931857
0.6128834495594286,1,0.999934
0.9337766619937078,1,0.999959
0.6893463671382756,0,0.937281
0.6129845013660641,0,0.953658
0.8347030899839053,1,0.999986
0.7918687180263058,1,0.999974
0.8914467575309322,0,0.957168
0.8662137921167335,1,0.999977
0.6773281256325419,0,0.999736
0.812088570961379,1,0.999980
0.9395809456772853,0,0.996192
0.7896833420618403,0,0.967525
0.6605252517512602,1,0.999982
0.7238377756682265,0,0.996706
0.40966217071458005,0,0.921027
0.6540472807286886,1,0.999850
0.9068563874296277,0,0.950709
0.7892322710144487,1,0.999707
0.9156163406648108,1,0.999658
0.8996289116799576,0,0.988266
0.9548651775857534,1,0.999908
0.9089439607228343,1,0.999964
0.8994191315106947,0,0.963990
0.8797194329536324,1,0.999988
0.8438862777749647,0,0.998206
0.4242068340857938,0,0.998152
0.8453319747530876,1,0.999798
0.6237940114888131,1,0.999890
0.8405944077042841,1,0.999767
0.6562852606124177,1,0.999904
0.8319280069021749,1,0.999912
0.9094892416602292,0,0.999805
0.7528045759066405,0,0.999495
0.7899054955980535,0,0.999446
0.9218369085656198,0,0.998278
0.7667382804013834,0,0.995296
0.9116111743877875,1,0.999988
0.7417454977309318,1,0.999976
0.555013174376965,0,0.912354
0.8421513427154074,0,0.982232
0.8083861577692975,1,0.999987
0.5708116567881106,1,0.999887
0.6734436611824061,1,0.999942
0.9161365224616322,1,0.999952
0.8680337971894516,1,0.999907
0.9589547595042572,1,0.999982
0.4387428217314657,1,0.999852
0.8334984191452028,0,0.993745
0.9259985272331602,0,0.965807
0.9373298920415788,1,0.999698
0.9110202477377191,1,0.999956
0.9425516281816423,1,0.999915
0.9239421222828057,1,0.999850
0.9393856604504248,1,0.999988
0.7998171712751023,0,0.999669
0.8987045394268391,0,0.999574
0.6928939593583369,1,0.999983
0.3772178582602711,0,0.930474
0.40181827965024874,0,0.998330
0.573702904659226,0,0.999253
0.8476143704233687,0,0.972352
0.7728710945339881,1,0.999868
0.9183399588301273,0,0.999855
0.334930422926586,0,0.995992
0.8747227889762036,0,0.999690
0.8501497025655614,0,0.999180
0.885194605262655,0,0.998398
0.815638550614081,1,0.999941
0.9544652388792616,1,0.999984
0.9073371140210603,0,0.987435
0.45558538910476176,1,0.999983
0.4948554817785661,0,0.999396
0.9190752579787149,0,0.999704
0.29732862916150893,0,0.978601
0.8959410480302402,0,0.998584
0.8544474719342396,1,0.999983
0.8852666907315554,1,0.999984
0.9391944554602171,1,0.999764
0.7581079561975239,0,0.999398
0.6645976808958552,0,0.998289
0.7529105744065893,1,0.999965
0.8857378757242188,1,0.999957
0.6518771651465632,0,0.997671
0.6357890871617373,0,0.999445
0.8878988535512592,1,0.999966
0.9438241723852187,1,0.999965
0.9058176461904835,1,0.999980
0.9164605745622573,0,0.998406
0.8158054978903096,0,0.999405
0.7961530926207968,0,0.995644
0.8749057429980677,0,0.997405
0.5139214978816298,1,0.999873
0.8502144982623849,1,0.999985
0.3920131992247752,0,0.997329
0.8590216764051198,1,0.999952
0.8752511605808351,0,0.971063
0.945954752374662,0,0.999434
0.8184847190013455,1,0.999958
0.6914305383523119,1,0.999984
0.8914628308449536,1,0.999983
0.8268702742126884,1,0.999879
0.277571237302158,1,0.999887
0.8973038072986987,0,0.992207
0.9103205665596128,1,0.999915
0.7512093495905103,1,0.999973
0.8158540191749336,0,0.999698
0.7473431916801859,0,0.994141
0.9223816503920275,0,0.997738
0.5347746857125167,0,0.970546
0.9581068522076457,1,0.999964
0.43468601312901267,1,0.999971
0.6809032608966601,0,0.974145
0.9494553822783159,0,0.971931
0.9206713484982996,0,0.997287
0.9072308893680509,1,0.999914
0.9396595261519052,0,0.978822
0.8787676771223952,0,0.999657
0.9102409163654979,1,0.999914
0.8290429239109866,0,0.999587
0.9635506636930092,1,0.999927
0.7249783891621626,1,0.999982
0.7272023003934937,0,0.993638
0.7985108409198975,1,0.999907
0.929151309578421,1,0.999930
0.7509498416222604,0,0.947921
0.860736386284667,0,0.999008
0.7114877417367401,1,0.999849
0.8770235326923592,1,0.999959
0.8554007268762058,0,0.989643
0.9315726647855809,0,0.999828
0.7531705465433134,0,0.999040
0.7820272343471598,0,0.998976
0.8221376428468313,1,0.999911
0.6948778991001081,1,0.999946
0.6997955072453172,1,0.999964
0.8211346100472152,1,0.999972
0.8774067754609741,1,0.999979
0.5838193701827741,0,0.983047
0.4724260665266022,1,0.999849
0.8039067526642365,1,0.999895
0.9410219238674096,0,0.999829
0.8108552122568776,1,0.999761
