-2.7040820789896175E-4,0,0.239729
-2.7040820789896175E-4,0,0.239280
-2.7040820789896175E-4,0,0.240384
-2.7040820789896175E-4,0,0.241518
-2.7040820789896175E-4,0,0.242682
-2.7040820789896175E-4,0,0.243878
-2.7040820789896175E-4,0,0.245082
-2.7040820789896175E-4,0,0.246344
-2.7040820789896175E-4,0,0.247641
-2.7040820789896175E-4,0,0.249042
-2.7040820789896175E-4,0,0.243645
-4.538301091479887E-4,0,0.241419
-4.826371022611467E-4,0,0.241087
0.7854089094071062,1,0.999998
0.32902337404135173,0,0.123804
0.32902337404135173,0,0.120686
0.32902337404135173,0,0.120225
0.32902337404135173,0,0.119764
0.32902337404135173,0,0.119879
0.32902337404135173,0,0.120448
0.32902337404135173,0,0.121039
0.32902337404135173,0,0.121647
0.32902337404135173,0,0.122278
0.32902337404135173,0,0.123092
0.3297065051113871,0,0.154851
0.3297065051113871,0,0.146157
0.3297065051113871,0,0.144831
0.3297065051113871,0,0.145728
0.3297065051113871,0,0.146654
0.3297065051113871,0,0.147606
0.3297065051113871,0,0.148586
0.3297065051113871,0,0.149594
0.3297065051113871,0,0.150631
0.3297065051113871,0,0.151734
0.3294472323092886,0,0.104226
0.3294472323092886,0,0.104611
0.3294472323092886,0,0.105050
0.3294472323092886,0,0.106007
0.3294010237712447,0,0.104436
0.3294010237712447,0,0.104821
0.3294010237712447,0,0.105340
0.33040983613203156,0,0.108199
0.33040983613203156,0,0.102573
0.33040983613203156,0,0.102714
0.33040983613203156,0,0.103042
0.33040983613203156,0,0.103379
0.33040983613203156,0,0.103725
0.33040983613203156,0,0.104088
0.3304098361320317,0,0.105046
0.3304098361320317,0,0.102522
0.3304098361320317,0,0.102827
0.3304098361320317,0,0.103158
0.3304098361320317,0,0.103498
0.3304098361320317,0,0.103850
0.3304098361320317,0,0.104183
0.3304098361320317,0,0.104567
0.3304098361320317,0,0.104972
0.3304098361320317,0,0.105841
0.3300769958350221,0,0.110110
0.3300769958350221,0,0.102930
0.3300769958350221,0,0.102647
0.3300769958350221,0,0.102973
0.3300769958350221,0,0.103308
0.3300769958350221,0,0.103652
0.3300769958350221,0,0.104012
0.3300769958350221,0,0.104363
0.3300769958350221,0,0.104736
0.3300769958350221,0,0.105189
0.3300769958350221,0,0.105946
0.3299663505823317,0,0.105048
0.3299663505823317,0,0.102581
0.3299663505823317,0,0.102887
0.3299663505823317,0,0.103219
0.3299663505823317,0,0.103561
0.3299663505823317,0,0.103913
0.3299663505823317,0,0.104249
0.3299663505823317,0,0.104634
0.3299663505823317,0,0.105048
0.3299663505823317,0,0.105853
0.10174480728130807,0,0.110643
0.10174480728130807,0,0.103421
0.10174480728130807,0,0.103190
0.10174480728130807,0,0.103526
0.10174480728130807,0,0.103871
0.10174480728130807,0,0.104225
0.10174480728130807,0,0.104596
0.10174480728130807,0,0.104950
0.10174480728130807,0,0.105335
0.10174480728130911,0,0.110915
0.10174480728130911,0,0.103666
0.10174480728130911,0,0.103281
0.10174480728130911,0,0.103618
0.10174480728130911,0,0.103964
0.10174480728130911,0,0.104319
0.10174480728130911,0,0.104691
0.10174480728130911,0,0.105047
0.10174480728130911,0,0.105436
0.10174480728130911,0,0.105946
0.1017391657759334,0,0.105307
0.1017391657759334,0,0.103103
0.1017391657759334,0,0.103418
0.1017391657759334,0,0.103760
0.1017391657759334,0,0.104111
0.1017391657759334,0,0.104474
0.1017391657759334,0,0.104758
0.1017391657759334,0,0.105153
0.10173916577616145,0,0.998338
0.10173916577616145,0,0.104458
0.10173916577616145,0,0.103192
0.10173916577616145,0,0.103521
0.10173916577616145,0,0.103865
0.10173916577616145,0,0.104218
0.10173916577616145,0,0.104586
0.10173916577616145,0,0.104925
0.10173916577616145,0,0.105330
0.10173916577616145,0,0.105769
0.10173352521514284,0,0.105910
0.10173352521514284,0,0.103179
0.10173352521514284,0,0.103494
0.10173352521514284,0,0.103837
0.10173352521514284,0,0.104188
0.10173352521514284,0,0.104552
0.10173352521514284,0,0.104898
0.10173352521514284,0,0.105303
0.10173352521515207,0,0.100488
0.10173352521515207,0,0.104335
0.10173352521515207,0,0.103138
0.10173352521515207,0,0.103466
0.10173352521515207,0,0.103809
0.10173352521515207,0,0.104162
0.10173352521515207,0,0.104530
0.10173352521515207,0,0.104868
0.10173352521515207,0,0.105271
0.10173352521515207,0,0.105703
0.09430605139441832,0,0.152940
0.09430605139441832,0,0.146084
0.09430605139441832,0,0.146696
0.09430605139441832,0,0.147637
0.09430605139441832,0,0.148604
0.09430605139441832,0,0.149601
0.09430605139441832,0,0.150587
0.09430605139441832,0,0.151667
0.09365789067903553,0,0.158857
0.09365789067903553,0,0.150543
0.09365789067903553,0,0.150459
0.09365789067903553,0,0.151447
0.09365789067903553,0,0.152466
0.09365789067903553,0,0.153513
0.09365789067903553,0,0.154607
0.1699249376179482,0,0.167648
0.1699249376179482,0,0.158780
0.1699249376179482,0,0.155807
0.1699249376179482,0,0.156847
0.1699249376179482,0,0.157936
0.1699249376179482,0,0.159056
0.1699249376179482,0,0.160218
0.01899030847614718,0,0.659155
0.17238435206736097,0,0.074032
0.19721230567696763,0,0.999978
0.40647009348924706,0,0.999452
0.24086311098923577,0,0.232264
0.011267020915504673,0,0.829713
0.011266254320190171,0,0.829375
0.038113782473587134,0,0.771148
0.038108016390646045,0,0.771145
0.07450470638909647,0,0.731837
0.04459496516348223,0,0.745579
0.0445943134486898,0,0.747611
0.04459205660418996,0,0.996146
0.04459205660418996,0,0.746981
0.04459205660418996,0,0.748500
0.028177503331906408,0,0.735527
0.028177503331906408,0,0.738041
0.028177503331906408,0,0.738670
0.028176474556719434,0,0.732447
0.028176474556719434,0,0.737054
0.028176474556719434,0,0.737973
0.028176474556719434,0,0.739422
0.02817427239201203,0,0.743680
0.028168430497382362,0,0.741377
0.028168430497382362,0,0.745916
0.03252611472313795,0,0.736389
0.03252540025835246,0,0.736078
0.028150886829450463,0,0.753656
0.028150886829450463,0,0.754608
0.028150886829450463,0,0.757062
0.028150886829450463,0,0.759362
0.028150886829450463,0,0.776455
0.02815047781043078,0,0.742719
0.02815047781043078,0,0.745457
0.02815047781043078,0,0.746393
0.02815047781043078,0,0.748760
0.02815047781043078,0,0.750905
