3.396253252730877E-5,0,0.999665
3.396253252730877E-5,0,0.999661
3.396253252730877E-5,0,0.999656
3.396253252730877E-5,0,0.999651
3.396253252730877E-5,0,0.999645
3.396253252730877E-5,0,0.999639
3.396253252730877E-5,0,0.999634
3.396253252730877E-5,0,0.999628
3.396253252730877E-5,0,0.999620
3.396253252730877E-5,0,0.999614
3.396253252730877E-5,0,0.999608
3.396253252730877E-5,0,0.999602
3.396253252730877E-5,0,0.999594
3.396253252730877E-5,0,0.999587
3.396253252730877E-5,0,0.999582
3.396253252730877E-5,0,0.999574
3.396253252730877E-5,0,0.999567
3.396253252730877E-5,0,0.999560
3.396253252730877E-5,0,0.999551
3.396253252730877E-5,0,0.999544
3.396253252730877E-5,0,0.999534
3.396253252730877E-5,0,0.999527
3.396253252730877E-5,0,0.999521
3.396253252730877E-5,0,0.999511
3.396253252730877E-5,0,0.999501
3.396253252730877E-5,0,0.999495
3.396253252730877E-5,0,0.999489
3.396253252730877E-5,0,0.999483
3.396253252730877E-5,0,0.999479
3.396253252730877E-5,0,0.999475
3.396253252730877E-5,0,0.999471
3.396253252730877E-5,0,0.999467
3.396253252730877E-5,0,0.999462
3.396253252730877E-5,0,0.999454
3.396253252730877E-5,0,0.999443
3.396253252730877E-5,0,0.999430
3.396253252730877E-5,0,0.999415
3.396253252730877E-5,0,0.999402
3.396253252730877E-5,0,0.999381
3.396253252730877E-5,0,0.999366
3.396253252730877E-5,0,0.999350
3.396253252730877E-5,0,0.999323
3.396253252730877E-5,0,0.999302
3.396253252730877E-5,0,0.999283
3.396253252730877E-5,0,0.999262
3.396253252730877E-5,0,0.999241
3.396253252730877E-5,0,0.999206
3.396253252730877E-5,0,0.999187
3.396253252730877E-5,0,0.999163
3.396253252730877E-5,0,0.999134
3.396253252730877E-5,0,0.999105
3.396253252730877E-5,0,0.999069
3.396253252730877E-5,0,0.999037
3.396253252730877E-5,0,0.998991
3.396253252730877E-5,0,0.998957
3.396253252730877E-5,0,0.998931
3.396253252730877E-5,0,0.998883
3.396253252730877E-5,0,0.998830
3.396253252730877E-5,0,0.998784
3.396253252730877E-5,0,0.998746
3.396253252730877E-5,0,0.998708
3.396253252730877E-5,0,0.998679
3.396253252730877E-5,0,0.998654
3.396253252730877E-5,0,0.998630
3.396253252730877E-5,0,0.998602
3.396253252730877E-5,0,0.998573
3.396253252730877E-5,0,0.998530
3.396253252730877E-5,0,0.998465
3.396253252730877E-5,0,0.998406
0.021991070064956098,0,0.999585
0.021991070064956098,0,0.999578
0.021991070064956098,0,0.999570
0.021991070064956098,0,0.999562
0.021991070064956098,0,0.999550
0.021991070064956098,0,0.999542
0.021991070064956098,0,0.999531
0.021991070064956098,0,0.999518
0.021991070064956098,0,0.999509
0.021991070064956098,0,0.999498
0.021991070064956098,0,0.999484
0.021991070064956098,0,0.999474
0.021991070064956098,0,0.999462
0.021991070064956098,0,0.999449
0.021991070064956098,0,0.999435
0.021991070064956098,0,0.999423
0.021991070064956098,0,0.999411
0.021991070064956098,0,0.999395
0.021991070064956098,0,0.999383
0.021991070064956098,0,0.999372
0.021991070064956098,0,0.999366
0.021991070064956098,0,0.999359
0.021991070064956098,0,0.999351
0.021991070064956098,0,0.999340
0.021991070064956098,0,0.999322
0.021991070064956098,0,0.999302
0.021991070064956098,0,0.999279
0.021991070064956098,0,0.999249
0.021991070064956098,0,0.999225
0.021991070064956098,0,0.999185
0.021991070064956098,0,0.999155
0.021991070064956098,0,0.999123
0.021960880434439573,0,0.999583
0.021960880434439573,0,0.999576
0.021960880434439573,0,0.999567
0.021960880434439573,0,0.999559
0.021960880434439573,0,0.999548
0.021960880434439573,0,0.999540
0.021960880434439573,0,0.999526
0.021960880434439573,0,0.999516
0.021960880434439573,0,0.999506
0.021960880434439573,0,0.999491
0.021960880434439573,0,0.999482
0.021960880434439573,0,0.999470
0.021960880434439573,0,0.999458
0.021960880434439573,0,0.999445
0.021960880434439573,0,0.999431
0.021960880434439573,0,0.999421
0.021960880434439573,0,0.999406
0.021960880434439573,0,0.999390
0.021960880434439573,0,0.999380
0.021960880434439573,0,0.999372
0.021960880434439573,0,0.999365
0.021960880434439573,0,0.999358
0.021960880434439573,0,0.999350
0.021960880434439573,0,0.999334
0.021960880434439573,0,0.999315
0.021960880434439573,0,0.999292
0.021960880434439573,0,0.999268
0.021960880434439573,0,0.999240
0.021960880434439573,0,0.999211
0.021960880434439573,0,0.999173
0.021960880434439573,0,0.999143
0.021960880434439573,0,0.999109
0.021960880434439573,0,0.999038
0.021960880434439573,0,0.999005
0.021960880434439573,0,0.998962
0.021960880434439573,0,0.998914
0.021960880434439573,0,0.998861
0.021960880434439573,0,0.998808
0.02192458000811597,0,0.998807
0.2778367848919841,0,0.999588
0.2778367848919841,0,0.999581
0.2778367848919841,0,0.999573
0.2778367848919841,0,0.999565
0.2778367848919841,0,0.999555
0.2778367848919841,0,0.999545
0.2778367848919841,0,0.999535
0.2778367848919841,0,0.999522
0.2778367848919841,0,0.999513
0.2778367848919841,0,0.999502
0.2778367848919841,0,0.999488
0.2778367848919841,0,0.999478
0.2778367848919841,0,0.999466
0.2778367848919841,0,0.999454
0.2778367848919841,0,0.999441
0.2778367848919841,0,0.999427
0.2778367848919841,0,0.999416
0.2778367848919841,0,0.999400
0.2778367848919841,0,0.999386
0.2778367848919841,0,0.999375
0.2778367848919841,0,0.999368
0.2778367848919841,0,0.999361
0.2778367848919841,0,0.999353
0.2778367848919841,0,0.999345
0.2778367848919841,0,0.999328
0.27867477412386,0,0.999317
0.9328698485816241,0,0.999955
0.8192266112709641,0,0.998489
0.8192266112709641,0,0.998103
0.8192266112709641,0,0.997879
0.8216330516879632,0,0.998018
0.8241996708577093,0,0.998161
0.8241996708577093,0,0.997935
0.6964073007751502,0,0.996652
0.7172342721482444,0,0.997096
0.7172342721482444,1,0.999409
0.8359745740811445,1,0.999980
0.8657079189167066,0,0.989954
0.9206427986005963,1,0.999999
0.8926958491508811,1,0.999999
0.9184791763843748,0,0.999982
0.8808158333716181,0,0.999334
0.8676959867934116,0,0.947879
0.8539067068926683,0,0.996154
0.7223698503865401,0,0.999565
0.9084409065359726,1,0.999986
0.9001971390551433,1,0.999990
0.8947817289083377,1,0.999999
0.9329064297011173,1,0.999996
0.46555754723413983,0,0.999683
0.933261365812674,1,0.999998
0.8681041901619474,1,0.999999
0.9012511964638542,1,0.999999
0.8051847369516837,1,0.999999
0.8958842232614467,0,0.999973
0.893717923142769,1,0.999995
0.7601344026037675,0,0.999980
0.8434553310124303,1,0.999996
0.8779582363295771,1,0.999982
0.7958417546009767,1,0.999570
0.6765528129087823,0,0.999960
0.8642052871305568,1,0.999976
0.8446438443563291,1,0.999991
0.8588727149895973,0,0.999976
0.8279682004173194,0,0.996427
0.2658504761754861,1,0.999995
0.8554651685222607,1,0.999996
