1.0,1,0.999784
1.0,1,0.999529
0.9999999999999949,1,0.999775
0.9999999999999978,1,0.999805
1.0,1,0.999783
0.9999999999918553,1,0.999782
0.9999999999999986,1,0.999797
0.9999999999999996,1,0.999802
0.9999999999999951,1,0.999788
0.9999999999999984,1,0.999809
1.0,1,0.999815
0.9999999999999911,1,0.999749
0.999999999999997,1,0.999780
0.9999999999999932,1,0.999800
1.0,1,0.999778
1.0,1,0.999816
0.9999999999999135,1,0.999785
0.9999999999999473,1,0.999798
1.0,1,0.999791
1.0,1,0.999795
1.0,1,0.999789
1.0,1,0.999815
0.9999999999999981,1,0.999795
0.9999999999999983,1,0.999793
1.0,1,0.999805
1.0,1,0.999792
0.9999999999999959,1,0.999763
0.9999999999999968,1,0.999804
1.0,1,0.999779
1.0,1,0.999793
0.9999999999999957,1,0.999779
1.0,1,0.999793
0.9999999999999979,1,0.999798
0.9999999999999994,0,0.983590
0.9999999999999989,1,0.999567
1.0,1,0.999600
1.0,1,0.999764
1.0,1,0.999660
0.9999999999999979,1,0.999757
1.0,1,0.999535
0.9999997051403964,1,0.999779
0.9999999999999996,1,0.999746
1.0,1,0.999790
1.0,1,0.999457
0.9999999999999988,1,0.999568
1.0,1,0.998708
0.999999999999998,1,0.999749
0.9999999999999999,1,0.999813
1.0,1,0.999267
1.0,1,0.999620
0.9999999999999973,1,0.999763
1.0,1,0.999727
0.9999999999999984,1,0.999754
1.0,1,0.999483
0.9999999999999988,1,0.999623
0.9999999999999991,1,0.998299
1.0,1,0.999775
1.0,1,0.999755
0.9999999999999954,1,0.999595
1.0,1,0.999742
0.9999999999999999,1,0.999671
1.0,1,0.999709
0.9999999999999967,1,0.999260
1.0,1,0.999773
0.9999999999999984,1,0.999082
0.9999999999999976,1,0.999751
1.0,1,0.999554
0.9999999999999993,1,0.999303
1.0,1,0.999678
1.0,1,0.999605
1.0,1,0.999615
0.9999999999999977,1,0.999769
1.0,1,0.999781
1.0,1,0.999511
1.0,1,0.999521
1.0,1,0.999759
1.0,1,0.999781
0.9999999999999984,1,0.999806
1.0,1,0.999778
1.0,1,0.999753
1.0,1,0.999799
1.0,1,0.999068
1.0,1,0.999699
0.9999999999999927,1,0.999740
1.0,1,0.999658
0.9999999999999966,1,0.999767
0.9999999999999992,1,0.999580
1.0,1,0.999728
0.9999999999999981,1,0.999524
0.9999999999999991,1,0.998573
1.0,1,0.999656
0.9999999999999967,1,0.999785
1.0,1,0.999746
1.0,1,0.999788
0.9999999999999964,1,0.999743
1.0,1,0.999417
0.9999998732656178,1,0.999160
0.9999999999999958,1,0.999791
0.9999999999999988,1,0.999738
1.0,1,0.999310
1.0,1,0.999517
0.9999999999999974,1,0.999752
0.9999999998929842,1,0.999462
1.0,1,0.999784
0.999999999999996,1,0.999386
0.9999999999999994,1,0.999755
0.9999999999999978,1,0.999758
0.9999999999999969,1,0.999797
0.9999999999998379,0,0.983292
0.9999999999999984,1,0.999066
0.9999999963447743,1,0.999749
1.0,1,0.999466
0.9999999999999976,1,0.999560
0.9999999999999977,1,0.998998
1.0,1,0.999630
1.0,1,0.999511
1.0,1,0.999100
0.9999999999999983,1,0.999788
1.0,1,0.999688
1.0,1,0.999448
0.9999999999999979,1,0.999491
0.999999999998909,1,0.999802
1.0,1,0.999549
0.9999999999999961,1,0.999350
0.9999999999999993,1,0.999790
1.0,1,0.998124
1.0,1,0.999390
1.0,1,0.999762
0.9999999999999967,1,0.999361
0.9999999999999981,1,0.999807
0.9999999917038915,1,0.999537
0.9999999999999932,1,0.999746
1.0,1,0.999558
1.0,1,0.999516
0.9999971427373424,1,0.999770
0.9999999999999992,1,0.999266
0.9999999999999996,1,0.999617
0.9999999999999951,1,0.999584
1.0,1,0.999671
1.0,1,0.999077
0.9999999999999983,1,0.999733
0.999999999999992,1,0.999801
0.999999999999999,1,0.999810
0.9999999999999983,1,0.999790
0.9999999999999961,1,0.999804
0.9999999999999988,1,0.999801
0.9999999999999915,1,0.999814
0.9999999999999999,1,0.999786
0.9999999999999943,1,0.999772
0.9999999999999986,1,0.999789
0.9999999999999993,1,0.999792
1.0,1,0.999811
1.0,1,0.999801
0.9999999999999993,1,0.999800
1.0,1,0.999797
0.9999999999999938,1,0.999801
1.0,1,0.999794
1.0,1,0.999804
1.0,1,0.999772
1.0,1,0.999812
1.0,1,0.999807
1.0,1,0.999814
0.9999999999999946,1,0.999806
0.9999999999999942,1,0.999773
1.0,1,0.999778
0.9999999999999991,1,0.999795
0.9999999999999994,1,0.999791
1.0,1,0.999756
1.0,1,0.999239
0.999999999930871,1,0.999660
1.0,1,0.999400
0.9999999999999983,1,0.999775
1.0,1,0.999531
0.9999999999999962,1,0.999784
1.0,1,0.999520
0.9999999999999983,1,0.999749
1.0,1,0.999464
1.0,1,0.999331
1.0,1,0.999687
1.0,1,0.999720
0.9999999999999953,1,0.999597
1.0,1,0.999509
1.0,1,0.999693
0.9999999999999962,1,0.999324
1.0,1,0.999184
1.0,1,0.999387
1.0,1,0.999785
1.0,1,0.999802
0.9999999999999996,1,0.999403
0.9999999999999998,1,0.999635
1.0,1,0.999342
0.9999999999999964,1,0.999734
1.0,1,0.999720
0.9999999999999987,1,0.999479
0.9999999999999987,1,0.999432
0.9999999999999994,1,0.999598
1.0,1,0.999759
0.9999999999999982,1,0.999668
0.9999999999999983,1,0.999760
1.0,1,0.999764
1.0,1,0.999780
1.0,1,0.999730
0.9999999999999986,1,0.999505
0.999999999999996,1,0.999221
1.0,1,0.999451
1.0,1,0.999435
1.0,1,0.998970
0.9999999999999976,1,0.999711
0.9999999999999952,1,0.999773
0.9999999999999997,1,0.999784
0.9999999999999994,1,0.999759
1.0,1,0.999773
1.0,1,0.999808
0.9999999999999968,1,0.999716
0.9999999999999963,1,0.999755
0.9999999999999961,1,0.999356
0.999999999999997,1,0.999671
1.0,1,0.999245
0.999999999999999,1,0.999466
0.9999999999999944,1,0.999783
1.0,1,0.999766
0.9999999999999952,1,0.999749
0.9999999999999994,1,0.999634
0.9999999999999997,1,0.999577
0.99999999999999,1,0.999802
0.9999999999999956,1,0.999796
0.9999999999999977,1,0.999416
1.0,1,0.999808
1.0,1,0.999755
1.0,1,0.999794
1.0,1,0.999466
1.0,1,0.999688
0.9999999999999997,1,0.999632
1.0,1,0.999478
1.0,1,0.999762
1.0,1,0.999627
1.0,1,0.998938
1.0,1,0.999448
1.0,1,0.999487
0.9999999999999968,1,0.999526
1.0,1,0.999680
1.0,1,0.999413
0.9999998914570964,1,0.999644
1.0,1,0.999720
1.0,1,0.999197
0.9999999999999976,1,0.999481
1.0,1,0.999795
1.0,1,0.999794
1.0,1,0.999810
0.9999999999999952,1,0.999792
0.9999999999999946,1,0.999361
1.0,1,0.998976
1.0,1,0.999262
0.9999999999999998,1,0.999732
0.999999999999999,1,0.999678
0.9999999999999997,1,0.999815
1.0,1,0.999799
0.9999999999999986,1,0.999663
1.0,1,0.999701
0.999999999999997,1,0.999015
0.9999999999999916,1,0.999315
0.9999999999999983,1,0.999801
0.9999999999999956,1,0.999760
0.9999999999999982,1,0.999501
0.9999999999999954,1,0.999796
0.9999999999999991,1,0.999693
0.9999999999999986,1,0.999782
0.9999999999999971,1,0.999752
0.9999999999999987,1,0.999700
1.0,1,0.999237
0.9999999999999991,1,0.999646
0.9999999999999964,1,0.999789
1.0,1,0.999697
0.999999999999999,1,0.999295
0.9999999999999946,1,0.999715
1.0,1,0.999332
1.0,1,0.999372
0.9999999999999996,1,0.999776
1.0,1,0.999781
0.9999999999999967,1,0.999740
1.0,1,0.999762
0.9999999999999971,1,0.999702
0.9999999999999982,1,0.999767
1.0,1,0.999713
1.0,1,0.999747
0.9999999999999991,1,0.999792
0.9999999999999993,1,0.999757
0.9999999999999986,1,0.999690
1.0,1,0.999762
1.0,1,0.999009
0.9999999999999984,1,0.999697
1.0,1,0.999247
1.0,1,0.999740
1.0,1,0.999780
0.9999999999999953,1,0.999792
0.999999999999998,1,0.999783
1.0,1,0.999763
1.0,1,0.999759
0.9999999999999993,1,0.999246
1.0,1,0.999791
1.0,1,0.999645
0.9999999999999997,1,0.999790
1.0,1,0.999080
0.9999999999999969,1,0.999677
1.0,1,0.999775
1.0,1,0.998770
0.9999999999999984,1,0.999763
1.0,1,0.999759
1.0,1,0.999613
0.9999999999999976,1,0.999768
0.9999999999999963,1,0.999789
1.0,1,0.999790
1.0,1,0.999760
0.9999999999999984,1,0.999805
0.9999999999999952,1,0.999760
0.9999999999999979,1,0.999026
0.9999999999999984,1,0.999793
1.0,1,0.999661
0.9999999999999997,1,0.999534
1.0,1,0.998963
0.9999999999999991,1,0.999731
1.0,1,0.999088
1.0,1,0.998726
0.9999999999999969,1,0.999802
0.9999999999999984,1,0.999738
1.0,1,0.998915
1.0,1,0.999246
0.9999999999999986,1,0.999765
1.0,1,0.999764
0.9999999999999966,1,0.999740
0.9999999999999987,1,0.999669
1.0,1,0.999801
0.999999999999996,1,0.999725
1.0,1,0.999688
0.9999999999999978,1,0.999175
1.0,1,0.999705
1.0,1,0.999582
0.9999999999999928,1,0.999628
0.9999999999999978,1,0.998964
0.9999999999999963,1,0.999797
1.0,1,0.999734
0.9999999999999922,1,0.999773
0.9999999999999949,1,0.999790
0.9999999999999983,1,0.999529
0.9999999999999971,1,0.999791
0.9999999999999997,1,0.999678
1.0,1,0.999395
0.9999999999999984,1,0.999685
1.0,1,0.999694
0.9999999999999972,1,0.999423
1.0,1,0.999504
0.9999999999999958,1,0.999748
1.0,1,0.999328
0.9999999999999991,1,0.999702
0.9999999999999978,1,0.999731
1.0,1,0.999682
0.9999999999999971,1,0.999797
0.9999999999999999,1,0.999733
0.9999999999999991,1,0.999621
0.9999999999999964,1,0.999789
0.9999999999999948,1,0.999803
0.9999999999999959,1,0.999736
0.9999999999999972,1,0.999783
1.0,1,0.999775
0.9999999999999996,1,0.999136
1.0,1,0.999759
1.0,1,0.999774
0.9999999999999996,1,0.999409
0.9999999999999939,1,0.999755
1.0,1,0.999791
0.9999999999999989,1,0.999755
0.9999999999999959,1,0.999773
1.0,1,0.999476
0.9999999999999942,1,0.999739
0.9999999999999971,1,0.999763
0.9999999999999992,1,0.999787
1.0,1,0.998960
1.0,1,0.998832
1.0,1,0.999629
1.0,1,0.999770
0.9999999999999977,1,0.999761
1.0,1,0.999204
1.0,1,0.999757
0.9999999999999997,1,0.999771
0.9999999999999978,1,0.999459
1.0,1,0.998674
0.9999999999999973,1,0.999337
0.9999999999999987,1,0.999218
1.0,1,0.999324
1.0,1,0.999593
1.0,1,0.999730
0.9999999999999992,1,0.999674
1.0,1,0.999794
1.0,1,0.999782
1.0,1,0.999480
0.9999999999999994,1,0.999771
1.0,1,0.999544
0.9999999999999994,1,0.999377
1.0,1,0.999765
0.9999999999999989,1,0.999766
1.0,1,0.999186
0.9999999999999974,1,0.998808
1.0,1,0.999700
1.0,1,0.999347
1.0,1,0.999671
0.9999999999999997,1,0.999566
0.9999999999999979,1,0.998667
0.9999999999999981,1,0.999651
1.0,1,0.999752
0.9999999999999968,1,0.998805
0.9999999999999981,1,0.999635
1.0,1,0.999749
0.9999999999999996,1,0.999700
0.9999999999999987,1,0.999734
1.0,1,0.999724
0.9999935684778909,1,0.999739
1.0,1,0.999742
1.0,1,0.999734
0.9999999999999993,1,0.999758
0.9999999999999971,1,0.999617
1.0,1,0.999649
1.0,1,0.999800
1.0,1,0.999774
0.9999999999999996,1,0.999766
1.0,1,0.999241
0.9999999999999963,1,0.998957
1.0,1,0.999742
1.0,1,0.999394
0.9999999999999966,1,0.999661
0.9999999999999984,1,0.999388
1.0,1,0.999172
0.9999999999730973,1,0.999734
0.9999999999999987,1,0.999481
0.9999999999999956,1,0.999794
0.9999999999999984,1,0.999773
1.0,1,0.999764
0.9999999999999948,1,0.998729
1.0,1,0.998521
0.9999999999999999,1,0.999576
0.9999999999999998,1,0.999089
0.9999999999999989,1,0.999814
1.0,1,0.998915
0.999999999999997,1,0.999571
1.0,1,0.999789
1.0,1,0.999721
0.9999999999999949,1,0.999766
0.9999999999999982,1,0.999708
0.9999999999999931,1,0.999783
1.0,1,0.999790
1.0,1,0.999768
1.0,1,0.999767
0.9999999999999982,1,0.999631
0.999999999999995,1,0.999744
0.9999999999999991,1,0.999761
0.9999999999999983,1,0.999789
0.9999999999999984,1,0.999158
1.0,1,0.999387
0.9999999999999994,1,0.999803
0.9999999999999994,1,0.999587
0.9999999999999994,1,0.998654
1.0,1,0.999795
1.0,1,0.999569
1.0,1,0.999679
1.0,1,0.999254
1.0,1,0.999574
0.9999999999999982,1,0.999773
1.0,1,0.999707
1.0,1,0.999353
1.0,1,0.999655
0.9999999999999971,1,0.999677
1.0,1,0.999781
0.9999999999999998,1,0.999385
0.9999999999999973,1,0.999538
1.0,1,0.999191
0.9999999999999963,1,0.999677
0.9999999999999984,1,0.999522
1.0,1,0.999725
1.0,1,0.999748
1.0,1,0.999719
0.9999999999999973,1,0.999637
0.9999999999999983,1,0.998920
1.0,1,0.998670
0.999999999999999,1,0.999527
0.9999999999999966,1,0.999759
0.9999999999999976,1,0.999789
1.0,1,0.999570
1.0,1,0.999526
1.0,1,0.999214
0.9999999999999989,1,0.999721
1.0,1,0.999550
0.9999999999999937,1,0.999769
0.9999999999999981,1,0.999771
1.0,1,0.999749
1.0,1,0.999724
0.9999999999999977,1,0.999533
1.0,1,0.999076
1.0,1,0.999294
1.0,1,0.999568
0.9999999999999954,1,0.999745
1.0,1,0.999738
0.9999999999999953,1,0.999713
1.0,1,0.999720
0.9999999999999974,1,0.999703
1.0,1,0.999285
1.0,1,0.999654
1.0,1,0.998734
1.0,1,0.999529
0.999999999999996,1,0.999450
1.0,1,0.999694
1.0,1,0.999756
0.9999999999999991,1,0.999212
1.0,1,0.999771
0.9999999999999997,1,0.999663
1.0,1,0.999744
0.9999999999999946,1,0.998789
0.9999999999999997,1,0.999522
0.9999999999999941,1,0.999773
1.0,1,0.999734
1.0,1,0.998682
1.0,1,0.998988
1.0,1,0.999758
1.0,1,0.999620
0.9999999999999973,1,0.999760
1.0,1,0.999665
1.0,1,0.999675
1.0,1,0.999637
0.9999999999999982,1,0.999704
0.9999999999999981,1,0.999744
0.9999999999999958,1,0.999655
0.9999999999999979,1,0.999787
1.0,1,0.998586
0.9999999999999981,1,0.999745
0.9999999999999963,1,0.999280
1.0,1,0.999796
0.9999999999999966,1,0.999760
0.9999999999999987,1,0.999630
0.9999999999999963,1,0.999804
0.9999999999999951,1,0.999767
1.0,1,0.999743
0.9999999999999971,1,0.999757
0.9999999999999998,1,0.999761
0.9999999999999986,1,0.999169
1.0,1,0.999722
1.0,1,0.999498
1.0,1,0.998997
1.0,1,0.999676
1.0,1,0.999799
0.9999999999999993,1,0.999522
1.0,1,0.999750
0.9999999999999988,1,0.999747
1.0,1,0.999749
1.0,1,0.999720
0.9999999999999992,1,0.999710
1.0,1,0.999772
1.0,1,0.999704
0.9999999999999996,1,0.999593
1.0,1,0.999778
0.9999999999999981,1,0.999729
1.0,1,0.999784
1.0,1,0.999793
1.0,1,0.999802
0.9999999999999998,1,0.999435
0.9999999999999986,1,0.999622
0.9999999999999944,1,0.999533
0.999999999999998,1,0.999488
1.0,1,0.999233
0.9999999999999937,1,0.999761
1.0,1,0.999767
0.9999999999999982,1,0.999457
1.0,1,0.999787
0.9999999999999991,1,0.999234
0.9999999999999987,1,0.999596
1.0,1,0.999114
1.0,1,0.999730
1.0,1,0.999408
1.0,1,0.999759
0.9999999999999993,1,0.999729
0.9999999999999978,1,0.999133
0.9999999999999996,1,0.999804
0.9999999999999932,1,0.999274
1.0,1,0.999542
1.0,1,0.999794
0.9999999999999981,1,0.999195
1.0,1,0.999785
0.9999999999999984,1,0.999153
1.0,1,0.999761
1.0,1,0.999773
1.0,1,0.999544
0.9999999999999984,1,0.999466
0.9999999999999932,1,0.999690
0.9999999999999993,1,0.999721
0.9999999999999997,1,0.998866
1.0,1,0.999124
0.9999999999999988,1,0.999699
1.0,1,0.999626
0.9999999999999964,1,0.999112
1.0,1,0.998791
0.9999999999999993,1,0.999524
1.0,1,0.999770
0.9999999999999968,1,0.999773
1.0,1,0.999611
0.9999999999999996,1,0.999744
1.0,1,0.999715
1.0,1,0.999726
1.0,1,0.999586
0.9999999999999962,1,0.999342
0.9999999999999996,1,0.999634
0.9999999999999966,1,0.999782
0.9999999999999993,1,0.999551
1.0,1,0.998845
0.9999999999999971,1,0.999647
0.9999999999999986,1,0.999031
0.9999999999999996,1,0.999730
0.9999999999999942,1,0.999793
0.9999999999999974,1,0.999594
1.0,1,0.999745
1.0,1,0.998826
0.9999999999999996,1,0.999806
0.9999999999999966,1,0.999543
1.0,1,0.999220
1.0,1,0.998112
0.9999999999999982,1,0.999727
1.0,1,0.999782
0.9999999999999963,1,0.998857
0.9999999999999984,1,0.999575
0.9999999999999961,1,0.999115
0.9999999999999982,1,0.999307
1.0,1,0.999431
1.0,1,0.998532
0.9999999999999991,1,0.999806
1.0,1,0.999546
0.9999999999999996,1,0.999176
1.0,1,0.999788
0.9999999999999981,1,0.999783
0.9999999999999991,1,0.999708
1.0,1,0.999801
0.9999999999999998,1,0.999105
0.9999999999999989,1,0.999549
1.0,1,0.999797
0.9999999999999984,1,0.999792
0.9999999999999919,1,0.999340
0.9999999999999939,1,0.999766
0.9999999999999999,1,0.999241
1.0,1,0.999676
0.9999999999999978,1,0.999140
0.9999999999999993,1,0.999766
1.0,1,0.999056
0.999999999999997,1,0.999658
0.999999999999996,1,0.999692
1.0,1,0.998829
0.9999999999999983,1,0.998885
1.0,1,0.999703
1.0,1,0.999437
1.0,1,0.999549
0.9999999999999994,1,0.999537
1.0,1,0.999491
1.0,1,0.999756
1.0,1,0.999356
1.0,1,0.999753
1.0,1,0.999783
0.9999999999999991,1,0.999139
1.0,1,0.999445
1.0,1,0.999270
1.0,1,0.999767
0.9999999999999988,1,0.999759
1.0,1,0.999672
0.9999999999999981,1,0.999724
0.9999999999999988,1,0.999700
0.9999999999999997,1,0.999690
0.9999999999999987,1,0.999656
0.9999999999999979,1,0.999768
0.9999999999999968,1,0.999798
1.0,1,0.999669
1.0,1,0.999449
0.9999999999999976,1,0.999264
0.9999999999999994,1,0.999793
1.0,1,0.999754
0.9999999999999954,1,0.999783
0.9999999999999974,1,0.999778
0.9999999999999964,1,0.999772
1.0,1,0.999708
0.9999999999999993,1,0.999289
0.9999999999999987,1,0.999738
0.9999999999999956,1,0.998748
1.0,1,0.999760
0.9999999999999952,1,0.999462
0.9999999999999982,1,0.999561
1.0,1,0.999781
1.0,1,0.999749
1.0,1,0.999254
1.0,1,0.999778
0.9999999999999993,1,0.999698
1.0,1,0.999791
1.0,1,0.999682
1.0,1,0.998626
0.9999999999999984,1,0.999589
1.0,1,0.999733
1.0,1,0.998795
1.0,1,0.999700
0.9999999999999994,1,0.999815
1.0,1,0.999458
1.0,1,0.999665
0.9999999999999979,1,0.999601
0.9999999999999979,1,0.999772
0.9999999999999999,1,0.999712
1.0,1,0.998706
0.9999999999999966,1,0.999750
1.0,1,0.999664
1.0,1,0.999694
0.999999999999996,1,0.999796
0.9999999999999996,1,0.999611
0.9999999999999971,1,0.999096
0.9999999999999957,1,0.999688
1.0,1,0.999690
0.9999999999999986,1,0.999575
0.9999999999999943,1,0.999347
1.0,1,0.999752
1.0,1,0.999798
0.9999999999999937,1,0.999779
1.0,1,0.999768
0.9999999999999981,1,0.999178
0.9999999999999978,1,0.999186
1.0,1,0.999783
1.0,1,0.999770
0.999999999999999,1,0.999783
0.9999999999999986,1,0.999766
0.9999999999999962,1,0.999737
1.0,1,0.999461
1.0,1,0.999248
1.0,1,0.999744
0.9999999999999969,1,0.999454
0.9999999999999969,1,0.999789
0.9999999999999986,1,0.999772
1.0,1,0.999567
0.999999999999998,1,0.999779
1.0,1,0.999623
0.999999999999998,1,0.999751
1.0,1,0.999665
0.9999999999999977,1,0.999470
0.999999999999995,1,0.999720
0.9999999999999974,1,0.999638
1.0,1,0.999798
0.9999999999999946,1,0.999726
0.9999999999999986,1,0.999506
0.9999999999999977,1,0.999742
1.0,1,0.999439
1.0,1,0.999097
0.9999999999999999,1,0.999772
0.9999999999999944,1,0.999766
0.9999999999999981,1,0.999772
1.0,1,0.999758
0.999998996090013,1,0.999150
0.9999999999999952,1,0.999695
1.0,1,0.999514
0.9999999999999978,1,0.999770
1.0,1,0.999776
0.9999999999999932,1,0.999742
0.9999999999999982,1,0.999397
0.9999999999999989,1,0.999402
1.0,1,0.999744
1.0,1,0.999782
1.0,1,0.999426
0.9999999999999993,1,0.999077
0.999999999999998,1,0.999627
0.9999999999999961,1,0.999670
1.0,1,0.999147
1.0,1,0.999712
1.0,1,0.999458
1.0,1,0.999355
0.9999999999999961,1,0.999771
0.9999999999999999,1,0.999770
1.0,1,0.998466
1.0,1,0.999748
1.0,1,0.999788
1.0,1,0.998771
0.9999999999999976,1,0.999698
0.9999999999999998,1,0.999793
0.9999999999999963,1,0.999734
1.0,1,0.999797
0.999999999999999,1,0.999503
1.0,1,0.999700
0.9999999999999983,1,0.999771
0.9999999999999992,1,0.999667
0.9999999999999988,1,0.999334
0.9999999999999978,1,0.999252
1.0,1,0.999769
0.9999999999999981,1,0.999160
1.0,1,0.999505
0.9999999999999961,1,0.999747
1.0,1,0.999756
0.9999999999999952,1,0.999549
0.9999999999999961,1,0.999276
0.9999999999999983,1,0.999463
1.0,1,0.998959
0.9999999999999969,1,0.999763
1.0,1,0.999335
0.9999999999999982,1,0.999691
0.9999999999999987,1,0.999634
0.9999999999999998,1,0.999781
1.0,1,0.999220
0.9999999999999968,1,0.999652
1.0,1,0.999655
1.0,1,0.999401
1.0,1,0.999796
0.9999999999999892,1,0.999771
0.999999999999999,1,0.998607
0.9999999999999996,1,0.999069
0.9999999999999993,1,0.999464
1.0,1,0.999763
0.9999999999999968,1,0.999770
0.9999999999999991,1,0.999298
1.0,1,0.998857
0.9999053824625962,1,0.999794
1.0,1,0.999489
1.0,1,0.999180
0.9999999999999976,1,0.999642
1.0,1,0.999778
0.9999999999999964,1,0.999496
1.0,1,0.998492
0.9999999999999991,1,0.998933
1.0,1,0.999580
1.0,1,0.999529
1.0,1,0.999509
1.0,1,0.999754
1.0,1,0.999430
1.0,1,0.999429
1.0,1,0.999750
1.0,1,0.999757
0.9999999999999988,1,0.999711
0.9999999999999958,1,0.999771
0.9999999999999997,1,0.999767
1.0,1,0.999405
1.0,1,0.999348
1.0,1,0.999667
1.0,1,0.999721
0.9999999999999989,1,0.999457
0.9999999999999994,1,0.999407
1.0,1,0.999773
1.0,1,0.999735
0.9999999999999979,1,0.999606
1.0,1,0.998403
1.0,1,0.999586
1.0,1,0.999255
1.0,1,0.999679
0.9999999999999991,1,0.999683
0.9999999999999962,1,0.999624
1.0,1,0.999358
1.0,1,0.999694
0.9999999999999996,1,0.999628
0.9999999999999993,1,0.999272
1.0,1,0.999614
0.9999999999999991,1,0.999661
0.9999999999999998,1,0.999469
0.9999999999999973,1,0.999519
1.0,1,0.999719
0.9999999999999992,1,0.999767
0.9999999999999988,1,0.999740
0.9999999999999981,1,0.999742
0.9999999999999994,1,0.999425
0.9999999999999976,1,0.999767
1.0,1,0.999795
0.9999999999999996,1,0.999803
1.0,1,0.999591
1.0,1,0.999729
1.0,1,0.998311
1.0,1,0.999735
1.0,1,0.999318
1.0,1,0.999720
0.999999999999998,1,0.999700
1.0,1,0.999678
0.9999999999999986,1,0.999687
0.9999999999999987,1,0.999740
1.0,1,0.999544
1.0,1,0.999300
0.9999999999999994,1,0.999698
1.0,1,0.999735
1.0,1,0.998941
0.9999999999999984,1,0.999251
1.0,1,0.999771
1.0,1,0.998993
0.9999999999999993,1,0.999759
1.0,1,0.999802
0.9999999999999981,1,0.999583
0.9999999999999925,1,0.999626
1.0,1,0.998780
0.9999999999999917,1,0.999405
0.9999999999999984,1,0.999398
1.0,1,0.999739
1.0,1,0.999069
0.9999999999999919,1,0.999734
0.9999999999999953,1,0.998900
1.0,1,0.999413
0.9999999999999984,1,0.999394
1.0,1,0.999759
1.0,1,0.999533
1.0,1,0.999784
1.0,1,0.999764
0.9999999999999976,1,0.999308
0.999999999999998,1,0.999068
0.9999999999999984,1,0.998897
0.9999999999999977,1,0.999501
0.999999999999996,1,0.999660
0.9999999999999987,1,0.999346
0.9999999999999959,1,0.999544
1.0,1,0.999763
1.0,1,0.999398
0.9999999999999978,1,0.999407
0.9999999999999994,1,0.999668
1.0,1,0.999371
0.9999999999999981,1,0.999729
1.0,1,0.999486
0.9999999999999978,1,0.999248
0.9999999999999997,1,0.999767
0.9999999999999978,1,0.999780
0.9999999999999974,1,0.999396
1.0,1,0.999759
0.9999999999999962,1,0.999731
0.9999999999999991,1,0.999277
1.0,1,0.999592
0.9999999999999974,1,0.998596
0.9999999999999943,1,0.999675
1.0,1,0.999696
1.0,1,0.999742
1.0,1,0.999714
1.0,1,0.999743
0.999999999999999,1,0.999599
0.9999999999999977,1,0.999784
0.9999999999999992,1,0.999651
0.9999999999999999,1,0.999382
1.0,1,0.999774
0.9999999999999941,1,0.999717
1.0,1,0.999594
0.9999999999999983,1,0.999605
1.0,1,0.999182
1.0,1,0.999788
1.0,1,0.999784
0.9999999999999993,1,0.999776
1.0,1,0.999785
1.0,1,0.999778
0.9999999999999981,1,0.999463
0.999999999999995,1,0.999473
1.0,1,0.999608
0.9999999999999998,1,0.999725
1.0,1,0.999360
1.0,1,0.999746
0.9999999999999986,1,0.999682
0.999999999999996,1,0.999783
1.0,1,0.999620
0.9999999999999937,1,0.999703
0.999999999999998,1,0.999472
0.9999999999999987,1,0.999457
0.9999999999999988,1,0.998974
1.0,1,0.999688
0.9999999999999993,1,0.999417
0.9999999999999997,1,0.999770
0.9999999999999993,1,0.999585
0.9999999999999928,1,0.999774
1.0,1,0.999405
0.9999999999999973,1,0.999736
1.0,1,0.999690
1.0,1,0.999632
1.0,1,0.999754
1.0,1,0.998914
0.9999999999999978,1,0.999666
0.9999999999999977,1,0.999751
0.9999999999999949,1,0.999783
1.0,1,0.999567
1.0,1,0.999637
1.0,1,0.999697
1.0,1,0.999746
1.0,1,0.999770
1.0,1,0.999773
1.0,1,0.998985
1.0,1,0.999714
0.9999999999850611,1,0.999753
0.9999999999999972,1,0.999498
0.999999999999998,1,0.999748
1.0,1,0.999333
1.0,1,0.999765
0.9999999999999987,1,0.999738
0.999999999999995,1,0.999469
1.0,1,0.999745
0.9999999999999972,1,0.999676
0.9999999999999963,1,0.999698
1.0,1,0.999157
1.0,1,0.999578
0.9999901151632581,1,0.999770
1.0,1,0.999811
1.0,1,0.999804
1.0,1,0.999806
1.0,1,0.999808
0.9999999999999978,1,0.999787
1.0,1,0.999770
0.9999999999999967,1,0.999810
0.9999999999999996,1,0.999588
0.9999999999999998,1,0.999385
0.9999999999999991,1,0.999692
1.0,1,0.999762
0.9999999999999998,1,0.999776
0.9999999999999941,1,0.999776
0.9999999999999994,1,0.999585
1.0,1,0.999786
0.9999999999999966,1,0.999701
0.9999999999999979,1,0.999577
1.0,1,0.999440
1.0,1,0.999505
0.9999999999999994,1,0.999787
0.9999999999999987,1,0.999703
0.9999999999999962,1,0.999708
1.0,1,0.998748
1.0,1,0.999642
1.0,1,0.999617
1.0,1,0.999587
0.9999999999999971,1,0.999588
1.0,1,0.999350
0.9999999999999996,1,0.999659
1.0,1,0.999721
0.9999999999999994,1,0.999117
0.9999999999999967,1,0.999590
0.9999999999999992,1,0.999680
0.9999999999999989,1,0.999003
0.9999999999999942,1,0.999626
0.9999999999999944,1,0.999733
0.9999999999999982,1,0.999740
1.0,1,0.999813
1.0,1,0.999306
0.9999999999999971,1,0.999314
1.0,1,0.999459
1.0,1,0.999696
0.9999999999999994,1,0.999753
0.9999999999999971,1,0.999097
0.9999999999999988,1,0.999713
1.0,1,0.999322
0.9999999999999989,1,0.999734
0.9999999999999999,1,0.999572
1.0,1,0.999480
0.9999999999999994,1,0.999804
1.0,1,0.998900
0.9999999999999997,1,0.998960
0.9999999999999998,1,0.999641
0.9999999999999996,1,0.999429
1.0,1,0.999280
0.9999999999999981,1,0.999065
0.9999999999999973,1,0.999755
1.0,1,0.999806
1.0,1,0.999795
1.0,1,0.999371
0.9999999999999983,1,0.999796
0.9999999999999967,1,0.998415
1.0,1,0.999696
0.9999999999999976,1,0.999762
1.0,1,0.999772
1.0,1,0.999779
0.9999999999999998,1,0.999779
0.9999999999999979,1,0.999800
1.0,1,0.999794
0.9999999999999937,1,0.999569
1.0,1,0.999753
1.0,1,0.999757
0.9999999999999954,1,0.999586
1.0,1,0.999751
1.0,1,0.999755
0.9999999999999964,1,0.999564
0.9999999999999978,1,0.999709
1.0,1,0.999612
1.0,1,0.999778
0.9999999999999957,1,0.999773
1.0,1,0.999710
0.9999999999999977,1,0.998852
1.0,1,0.999608
0.9999999999999953,1,0.999752
1.0,1,0.999419
0.9999999999999978,1,0.999469
1.0,1,0.999705
0.9999999999999972,1,0.999700
0.9999999999999998,1,0.999790
0.9999999999999994,1,0.999616
0.9999999999999949,1,0.999572
0.9999999999999999,1,0.999760
0.9999999999999993,1,0.999656
0.9999999999999954,1,0.999801
1.0,1,0.999734
1.0,1,0.999575
1.0,1,0.999778
1.0,1,0.999382
1.0,1,0.999622
1.0,1,0.999767
1.0,1,0.999597
1.0,1,0.999653
0.9999999999999928,1,0.999413
0.9999999999999978,1,0.999761
0.9999999999999974,1,0.999757
1.0,1,0.999735
0.9999999999999962,1,0.999749
0.9999999999999941,1,0.999725
1.0,1,0.999761
1.0,1,0.999605
0.9999999999999996,1,0.999783
1.0,1,0.999740
1.0,1,0.999632
1.0,1,0.999357
0.9999999999999993,1,0.999525
0.9999999999999973,1,0.999576
0.9999999999999982,1,0.999715
1.0,1,0.999736
1.0,1,0.999733
1.0,1,0.999755
0.999999999999997,1,0.999761
1.0,1,0.999636
1.0,1,0.999397
0.9999999999999986,1,0.999754
1.0,1,0.999788
1.0,1,0.999762
0.9999999999999991,1,0.999547
0.9999999999999977,1,0.999745
1.0,1,0.999694
0.999999999999999,1,0.998953
1.0,1,0.999771
0.9999999999999992,1,0.999758
0.9999999999999964,1,0.999710
1.0,1,0.999712
1.0,1,0.999744
1.0,1,0.999723
0.9999999999999957,1,0.999482
0.9999999999999972,1,0.999706
1.0,1,0.999696
1.0,1,0.999237
1.0,1,0.999791
0.9999999999999993,1,0.999092
0.9999999999999991,1,0.999564
0.9999999999999977,1,0.999747
1.0,1,0.999776
0.999999999999998,1,0.999634
1.0,1,0.999731
0.9999999999999986,1,0.999499
1.0,1,0.999495
0.9999999999999983,1,0.999695
0.9999999999999997,1,0.999686
0.9999999999999968,1,0.999692
0.9999999999999993,1,0.999747
0.9999999999999944,1,0.999757
1.0,1,0.999726
1.0,1,0.999764
1.0,1,0.999757
0.9999999999999971,1,0.999434
0.9999999999999991,1,0.999272
0.9999999999999976,1,0.999669
0.9999999999999932,1,0.999735
0.999999999999997,1,0.999598
1.0,1,0.999751
0.9999999999999964,1,0.999740
0.9999999999999961,1,0.999795
1.0,1,0.999398
1.0,1,0.999458
1.0,1,0.999641
0.9999999999999977,1,0.999750
0.999999999999996,1,0.999369
1.0,1,0.999725
1.0,1,0.999641
1.0,1,0.999741
1.0,1,0.999308
0.9999999999999998,1,0.999791
0.999999999999997,1,0.999743
1.0,1,0.999757
0.9999999999999996,1,0.999532
0.9999999999999967,1,0.999795
1.0,1,0.999552
1.0,1,0.999539
0.9999999999999999,1,0.999724
0.9999999999999994,1,0.999755
1.0,1,0.999742
0.9999999999999991,1,0.999766
0.999999999999997,1,0.999755
1.0,1,0.999540
0.9999999999999979,1,0.999080
0.9999999999999997,1,0.999720
1.0,1,0.999488
0.9999999999999969,1,0.999458
0.9999999999999981,1,0.999657
1.0,1,0.999410
1.0,1,0.999753
1.0,1,0.999756
1.0,1,0.999214
1.0,1,0.999741
0.9999999999999952,1,0.999770
0.9999999999999988,1,0.999723
1.0,1,0.998785
1.0,1,0.999667
0.9999999999999993,1,0.999375
0.9999999999999946,1,0.998728
1.0,1,0.999730
1.0,1,0.999664
1.0,1,0.998720
0.9999999999999979,1,0.999758
0.9999999999999991,1,0.999730
0.9999999999999982,1,0.998689
0.9999999999999993,1,0.999683
0.9999999999999997,1,0.999643
1.0,1,0.999766
1.0,1,0.999799
0.9999999999999992,1,0.998764
0.9999999999999973,1,0.999746
0.9999999999999951,1,0.999761
0.9999999999999973,1,0.999458
0.9999999999999977,1,0.999774
0.9999999999999996,1,0.999731
0.9999999999999996,1,0.999742
0.9999999999999997,1,0.999705
1.0,1,0.999661
0.9999999999999991,1,0.999297
0.9999999999999968,1,0.999749
1.0,1,0.999761
1.0,1,0.999629
0.999999999999996,1,0.999584
1.0,1,0.999745
0.9999999999999976,1,0.999744
1.0,1,0.999787
1.0,1,0.999765
0.9999999999999999,1,0.999754
0.9999999999999973,1,0.999762
1.0,1,0.999717
1.0,1,0.998521
1.0,1,0.999728
0.999999999999994,1,0.999752
0.9999999999999973,1,0.999558
1.0,1,0.999417
0.9999999999999966,1,0.999699
1.0,1,0.999767
1.0,1,0.999742
1.0,1,0.999482
1.0,1,0.999123
0.9999999999999982,1,0.999486
1.0,1,0.999527
0.9999999999999954,1,0.999806
0.9999999999999993,1,0.999512
0.999999999999998,1,0.999522
1.0,1,0.999296
1.0,1,0.999781
1.0,1,0.999669
1.0,1,0.999718
1.0,1,0.999597
0.9999999999999959,1,0.999413
1.0,1,0.999277
1.0,1,0.999454
0.9999999999999996,1,0.999636
0.9999999999999968,1,0.999791
0.9999999999999972,1,0.999743
0.9999999999999971,1,0.999465
1.0,1,0.998731
1.0,1,0.998716
1.0,1,0.999313
0.9999999999999961,1,0.999709
0.999999999999998,1,0.999593
1.0,1,0.999612
0.9999999999999992,1,0.999602
1.0,1,0.999729
0.9999999999999994,1,0.999281
0.9999999999999948,1,0.999796
0.9999999999999976,1,0.999345
0.9999999999999943,1,0.999677
0.999999999999999,1,0.999551
1.0,1,0.999727
1.0,1,0.999385
0.9999999999999958,1,0.999530
1.0,1,0.999742
1.0,1,0.999671
0.9999999999999981,1,0.999745
1.0,1,0.998611
1.0,1,0.998789
1.0,1,0.999458
1.0,1,0.999727
0.999999999999999,1,0.999697
0.9999999999999984,1,0.999696
1.0,1,0.999417
1.0,1,0.999745
0.9999999999999998,1,0.998553
0.999999999999999,1,0.999659
0.9999999999999947,1,0.999485
1.0,1,0.999417
1.0,1,0.999753
0.9999999999999988,1,0.999635
1.0,1,0.999780
1.0,1,0.999351
1.0,1,0.999625
1.0,1,0.999614
0.9999999999999957,1,0.999351
1.0,1,0.999650
1.0,1,0.999809
1.0,1,0.999767
0.999999999999998,1,0.999485
1.0,1,0.999631
1.0,1,0.999373
1.0,1,0.999592
1.0,1,0.999428
1.0,1,0.998753
1.0,1,0.999275
1.0,1,0.999764
0.999999999999203,1,0.999621
1.0,1,0.999450
0.9999999999999967,1,0.999786
0.9999999999999989,1,0.999545
1.0,1,0.999571
1.0,1,0.999521
1.0,1,0.999490
1.0,1,0.999394
0.9999999999999987,1,0.999763
0.9999999999999977,1,0.999600
0.999999999999997,1,0.999756
1.0,1,0.999775
0.9999999999999933,1,0.999793
1.0,1,0.999433
1.0,1,0.999768
1.0,1,0.999787
0.9999999999999984,1,0.999376
0.9999999999999998,1,0.999563
0.999999999999998,1,0.999384
1.0,1,0.999785
1.0,1,0.999656
0.9999999999999997,1,0.999340
1.0,1,0.999759
1.0,1,0.999257
0.9999999999999998,1,0.999396
0.9999999999999966,1,0.999756
1.0,1,0.999623
0.999999999999999,1,0.999619
1.0,1,0.999781
0.9999999999999984,1,0.999768
1.0,1,0.999777
1.0,1,0.999769
0.9999999999999989,1,0.999792
0.9999999999999977,1,0.999805
1.0,1,0.999696
1.0,1,0.999451
0.9999999999999986,1,0.999236
0.9999999999999994,1,0.999289
1.0,1,0.999750
0.9999999999999944,1,0.999789
1.0,1,0.999797
1.0,1,0.999658
1.0,1,0.999713
1.0,1,0.999749
1.0,1,0.999705
0.999999999999998,1,0.999688
0.9999999999999991,1,0.999283
1.0,1,0.999436
1.0,1,0.999745
1.0,1,0.999775
0.9999999999999998,1,0.999513
1.0,1,0.999760
1.0,1,0.999779
0.9999999999999973,1,0.999788
0.9999999999999988,1,0.999765
0.9999999999999959,1,0.999625
1.0,1,0.999728
1.0,1,0.999770
0.9999999999999978,1,0.999731
1.0,1,0.999542
1.0,1,0.999664
0.9999999999999994,1,0.999653
1.0,1,0.999752
1.0,1,0.999742
1.0,1,0.999794
0.999999999999998,1,0.999205
0.9999999999999997,1,0.999713
1.0,1,0.999385
0.9999999999999994,1,0.999664
0.9999999999999976,1,0.999723
0.9999999999999978,1,0.999716
1.0,1,0.999706
0.9999999999999946,1,0.998788
0.9999999999999991,1,0.999554
0.9999999999999952,1,0.999227
1.0,1,0.999314
1.0,1,0.999305
1.0,1,0.999554
0.9999999999999963,1,0.999770
1.0,1,0.999728
1.0,1,0.999739
0.9999999999999932,1,0.998879
1.0,1,0.999732
0.9999999999999951,1,0.999791
1.0,1,0.999748
1.0,1,0.999648
0.9999999999999984,1,0.999768
0.9999999999999951,1,0.999664
1.0,1,0.999697
0.9999999999999994,1,0.999285
1.0,1,0.999280
0.9999999999999973,1,0.999701
1.0,1,0.999590
0.9999999999999981,1,0.999164
1.0,1,0.998974
1.0,1,0.999737
0.9999999999999974,1,0.999751
1.0,1,0.999274
1.0,1,0.999461
0.999999999999998,1,0.999770
1.0,1,0.999781
1.0,1,0.999060
0.9999999999999982,1,0.999192
0.9999999999999996,1,0.999614
1.0,1,0.999764
1.0,1,0.999705
1.0,1,0.999637
1.0,1,0.999743
1.0,1,0.999676
1.0,1,0.999740
1.0,1,0.999697
0.9999999999999993,1,0.999789
0.999999999999999,1,0.999594
0.999999999999996,1,0.999755
1.0,1,0.999277
1.0,1,0.999245
0.9999999999999958,1,0.999323
0.9999999999999958,1,0.999528
0.9999999999999952,1,0.999549
0.9999999999999974,1,0.998752
0.999999999999997,1,0.999556
1.0,1,0.999750
1.0,1,0.999647
0.9999999999999987,1,0.999373
1.0,1,0.999748
0.9999999999999999,1,0.999764
1.0,1,0.999776
0.9999999999999991,1,0.998804
0.9999999999999974,1,0.999584
1.0,1,0.999798
0.9999999999999998,1,0.999238
0.999999999999996,1,0.999757
1.0,1,0.999615
1.0,1,0.999606
0.9999999999999996,1,0.999715
1.0,1,0.999789
0.999999999999996,1,0.999671
1.0,1,0.998917
1.0,1,0.999238
0.9999999999999989,1,0.998867
1.0,1,0.999633
1.0,1,0.999766
1.0,1,0.999780
0.9999999999999986,1,0.999722
1.0,1,0.999412
1.0,1,0.999462
1.0,1,0.998529
1.0,1,0.999644
0.9999999999999972,1,0.998837
0.9999999999999958,1,0.999788
0.9999999999999953,1,0.999379
1.0,1,0.999526
1.0,1,0.999514
1.0,1,0.999541
1.0,1,0.999787
0.9999999999999973,1,0.999112
1.0,1,0.999263
1.0,1,0.999783
0.9999999999999922,1,0.998152
1.0,1,0.999695
1.0,1,0.999780
1.0,1,0.999369
0.999999999999995,1,0.999802
1.0,1,0.999582
1.0,1,0.999797
1.0,1,0.998858
0.9999999999999993,1,0.998950
1.0,1,0.999344
1.0,1,0.999195
1.0,1,0.998924
1.0,1,0.999762
1.0,1,0.999679
0.9999999999999981,1,0.999668
1.0,1,0.999718
1.0,1,0.999367
1.0,1,0.999781
0.9999999999999991,1,0.999646
0.9999999999999964,1,0.999617
1.0,1,0.999362
1.0,1,0.999554
0.9999999999999994,1,0.999773
1.0,1,0.999623
1.0,1,0.999661
0.9999999999999953,1,0.999666
1.0,1,0.999796
0.9999999999999987,1,0.999702
0.9999999999999993,1,0.999540
1.0,1,0.999632
1.0,1,0.999783
0.9999999999999964,1,0.999791
0.9999999999999953,1,0.999594
1.0,1,0.999753
0.9999999999999962,1,0.999559
0.9999999999999982,1,0.999271
1.0,1,0.999797
1.0,1,0.999449
1.0,1,0.999742
1.0,1,0.999571
1.0,1,0.999781
0.9999999999999996,1,0.999422
1.0,1,0.999589
0.9999999999999981,1,0.999568
0.9999999999999952,1,0.998817
0.9999999999999967,1,0.999784
0.9999999999999994,1,0.999662
1.0,1,0.999549
0.999999999999995,1,0.999558
1.0,1,0.999742
1.0,1,0.999337
1.0,1,0.999783
0.9999999999999979,1,0.999753
1.0,1,0.999763
0.9999999999999943,1,0.999594
0.9999999999999963,1,0.999671
1.0,1,0.999484
1.0,1,0.999524
1.0,1,0.999587
0.9999999999999959,1,0.999737
0.9999999999999999,1,0.999743
0.9999999999999974,1,0.999596
0.999999999999999,1,0.999661
0.9999999999999991,1,0.999051
0.9999999999999957,1,0.999666
1.0,1,0.999450
0.9999999999999991,1,0.999429
0.9999999999999987,1,0.999746
1.0,1,0.999610
1.0,1,0.999657
1.0,1,0.999760
1.0,1,0.999538
1.0,1,0.999725
0.999999999999997,1,0.999463
0.9999999999999988,1,0.999436
0.9999999999999941,1,0.999375
0.9999999999999973,1,0.999240
1.0,1,0.999759
1.0,1,0.998940
1.0,1,0.999760
0.999999999999997,1,0.999362
0.9999999999999991,1,0.998641
1.0,1,0.999814
0.9999999999999983,1,0.999383
0.9999999999999982,1,0.999667
1.0,1,0.999780
1.0,1,0.999675
1.0,1,0.999684
1.0,1,0.999781
1.0,1,0.999354
1.0,1,0.999715
0.9999999999999961,1,0.999353
1.0,1,0.999146
1.0,1,0.999507
1.0,1,0.999726
1.0,1,0.999748
0.9999999999999978,1,0.999673
0.9999999999999987,1,0.999684
1.0,1,0.999426
0.999999999999999,1,0.999018
1.0,1,0.999484
0.9999999999999978,1,0.999738
1.0,1,0.999317
0.9999999999999994,1,0.998748
1.0,1,0.999630
0.9999999999999973,1,0.999138
1.0,1,0.999745
0.9999999999999976,1,0.999422
0.9999999999999964,1,0.999611
1.0,1,0.999800
1.0,1,0.999779
1.0,1,0.999722
0.9999999999999991,1,0.999784
1.0,1,0.999734
1.0,1,0.999742
0.999999999999998,1,0.999258
0.9999999999999984,1,0.999765
1.0,1,0.999753
1.0,1,0.999463
1.0,1,0.999526
1.0,1,0.999774
0.9999999999999997,1,0.999647
0.9999999999999993,1,0.999602
0.9999999999999954,1,0.999649
1.0,1,0.999805
1.0,1,0.999775
0.9999999999999996,1,0.999779
0.9999999999999988,1,0.999152
1.0,1,0.999717
0.9999999999999992,1,0.999752
0.9999999999999996,1,0.999694
0.9999999999999974,1,0.999356
0.9999999999999987,1,0.999756
0.9999999999999968,1,0.999771
0.9999999999999974,1,0.999796
1.0,1,0.999731
0.9999999999999979,1,0.999472
0.9999999999999968,1,0.999646
0.9999999999999956,1,0.999758
1.0,1,0.999733
0.9999999999999952,1,0.999806
1.0,1,0.999668
0.9999999999999963,1,0.999646
0.9999999999999994,1,0.999504
0.9999999999999993,1,0.999716
1.0,1,0.999586
0.9999999999999991,1,0.999630
1.0,1,0.999766
1.0,1,0.999650
0.9999999999999983,1,0.999706
0.9999999999999972,1,0.998857
1.0,1,0.999788
1.0,1,0.999090
1.0,1,0.999792
0.999999999999997,1,0.999685
0.9999999999999993,1,0.999803
1.0,1,0.999330
0.9999999999999967,1,0.999798
1.0,1,0.999624
1.0,1,0.999668
0.999999999999998,1,0.999638
1.0,1,0.999614
0.9999999999999982,1,0.999704
0.9999999999999973,1,0.999769
1.0,1,0.999457
0.9999999999999992,1,0.999567
0.9999999999999989,1,0.999565
0.9999999999999962,1,0.999706
0.9999999999999994,1,0.999778
1.0,1,0.999234
0.9999999999999972,1,0.999624
0.9999999999999998,1,0.999705
0.9999999999999994,1,0.998397
0.999999999999998,1,0.999240
0.999999999999994,1,0.999553
0.9999999999999994,1,0.999625
0.9999999999999978,1,0.999503
1.0,1,0.999613
1.0,1,0.999783
0.9999999999999964,1,0.999500
0.9999999999999925,1,0.999469
1.0,1,0.999806
1.0,1,0.999631
0.9999999999999984,1,0.999642
1.0,1,0.999756
0.9999999999999997,1,0.999416
0.9999999999999993,1,0.999803
1.0,1,0.999695
1.0,1,0.999753
1.0,1,0.999589
0.9999999999999964,1,0.999796
0.9999999999999992,1,0.999772
0.9999999999999957,1,0.999801
0.9999999999999989,1,0.999732
0.9999999999999977,1,0.999779
0.9999999999999986,1,0.999783
1.0,1,0.999797
0.9999999999999911,1,0.999768
0.999999999999999,1,0.999796
1.0,1,0.999742
1.0,1,0.999756
1.0,1,0.999773
0.9999999999999988,1,0.999783
1.0,1,0.999789
1.0,1,0.999766
1.0,1,0.999733
0.9999999999999957,1,0.999763
1.0,1,0.999778
0.9999999999999967,1,0.999794
0.9999999999999943,1,0.999793
1.0,1,0.999716
1.0,1,0.999772
1.0,1,0.999771
1.0,1,0.999796
0.9999999999999972,1,0.999795
0.9999999999999928,1,0.999799
1.0,1,0.999800
1.0,1,0.999803
1.0,1,0.999759
1.0,1,0.999791
0.9999999999999964,1,0.999202
1.0,1,0.999734
0.999999999999998,1,0.999773
0.999999999999998,1,0.999761
0.9999999999999977,1,0.999459
0.9999999999999976,1,0.999654
1.0,1,0.999752
1.0,1,0.998698
0.9999999999999958,1,0.998721
1.0,1,0.999515
0.9999999999999972,1,0.999230
0.9999999999999962,1,0.999449
1.0,1,0.999589
0.9999999999999996,1,0.999809
1.0,1,0.999476
1.0,1,0.999579
1.0,1,0.999745
0.9999999999999987,1,0.999248
0.9999999999999978,1,0.999536
0.9999999999999981,1,0.999237
0.9999999999999997,1,0.999649
1.0,1,0.999590
1.0,1,0.998834
0.9999999999999941,1,0.999691
0.9999999999999992,1,0.999168
1.0,1,0.999726
1.0,1,0.998489
0.9999999999999998,1,0.999696
0.9999999999999972,1,0.999143
0.9999999999999968,1,0.999784
1.0,1,0.999758
0.9999999999999989,1,0.998630
0.9999999999999988,1,0.999223
1.0,1,0.999743
0.9999999999999989,1,0.999302
1.0,1,0.999723
1.0,1,0.999627
1.0,1,0.999230
0.9999999999999991,1,0.999188
0.9999999999999998,1,0.999760
0.9999999999999953,1,0.999762
0.9999999999999978,1,0.999728
0.9999999999999997,1,0.999384
0.9999999999999998,1,0.999761
0.9999999999999967,1,0.999601
1.0,1,0.999508
0.999999999999999,1,0.999766
0.9999999999999983,1,0.999808
1.0,1,0.999766
1.0,1,0.999763
0.9999999999999941,1,0.999772
1.0,1,0.999801
1.0,1,0.999799
1.0,1,0.999739
1.0,1,0.999740
0.9999999999999999,1,0.999795
0.999999999999999,1,0.999783
0.9999999999999962,1,0.999809
0.9999999999999988,1,0.999807
0.9999999999999983,1,0.999796
1.0,1,0.999405
1.0,1,0.999595
0.999999999999995,1,0.999686
1.0,1,0.999486
1.0,1,0.999398
1.0,1,0.999683
1.0,1,0.999610
1.0,1,0.999299
1.0,1,0.999541
0.9999999999999998,1,0.999326
0.9999999999999952,1,0.999484
1.0,1,0.999793
1.0,1,0.999570
0.9999999999999982,1,0.999786
0.9999999999999983,1,0.999214
1.0,1,0.999396
0.9999999999999984,1,0.999369
1.0,1,0.999719
0.9999999999999983,1,0.999750
1.0,1,0.999792
0.9999999999999943,1,0.999278
0.999999999999998,1,0.999762
1.0,1,0.999730
1.0,1,0.999737
1.0,1,0.999586
1.0,1,0.999313
0.9999999999999957,1,0.999735
0.9999999999999992,1,0.999216
1.0,1,0.999712
0.999999999999999,1,0.999787
1.0,1,0.999741
0.9999999999999996,1,0.999766
1.0,1,0.999438
1.0,1,0.999568
1.0,1,0.999008
0.9999999999999972,1,0.999421
0.9999999999999997,1,0.999714
0.9999999999999953,1,0.998841
1.0,1,0.999434
0.9999999999999998,1,0.999629
0.9999999999999996,1,0.998783
1.0,1,0.999329
0.999999999999999,1,0.999408
1.0,1,0.999506
0.9999999999999983,1,0.999764
1.0,1,0.999666
1.0,1,0.999752
1.0,1,0.999297
1.0,1,0.999770
0.9999999999999956,1,0.999772
1.0,1,0.999772
1.0,1,0.999647
1.0,1,0.999383
1.0,1,0.999766
0.9999999999999932,1,0.999505
0.9999999999999959,1,0.999516
0.9999999999999996,1,0.999731
1.0,1,0.998993
1.0,1,0.999594
0.9999999999999982,1,0.999732
0.9999999999999973,1,0.999673
1.0,1,0.999661
1.0,1,0.999295
1.0,1,0.999690
0.999999999999998,1,0.999600
1.0,1,0.999475
1.0,1,0.999769
0.9999999999999953,1,0.999762
0.9999999999999928,1,0.999779
0.999999999999999,1,0.999711
1.0,1,0.999425
1.0,1,0.999756
1.0,1,0.999697
0.9999999999999993,1,0.999708
0.9999999999999973,1,0.998962
0.999999999999996,1,0.999706
1.0,1,0.999708
1.0,1,0.999582
1.0,1,0.999767
0.9999999999999998,1,0.998944
1.0,1,0.999557
0.9999999999999984,1,0.998925
1.0,1,0.999169
0.9999999999999967,1,0.999765
0.999999999999999,1,0.999110
1.0,1,0.999478
1.0,1,0.999771
0.9999999999999976,1,0.999760
1.0,1,0.999213
1.0,1,0.999743
0.9999999999999986,1,0.999303
1.0,1,0.999738
1.0,1,0.999725
0.9999999999999982,1,0.999790
0.9999999999999964,1,0.999723
0.9999999999999978,1,0.999597
1.0,1,0.998689
0.9999999999999969,1,0.999464
0.9999999999999951,1,0.999773
0.9999999999999991,1,0.999771
1.0,1,0.999799
0.9999999999999967,1,0.999748
1.0,1,0.999465
1.0,1,0.999754
1.0,1,0.999705
0.9999999999999996,1,0.999748
0.9999999999999988,1,0.999650
0.9999999999999961,1,0.999586
0.9999999999999978,1,0.999332
1.0,1,0.999729
1.0,1,0.999749
1.0,1,0.999581
1.0,1,0.999171
0.9999999999999989,1,0.999739
1.0,1,0.999779
1.0,1,0.998645
1.0,1,0.999653
1.0,1,0.999722
1.0,1,0.999799
1.0,1,0.999344
0.999999999999996,1,0.999294
1.0,1,0.999567
1.0,1,0.999527
1.0,1,0.999657
1.0,1,0.999791
1.0,1,0.999746
0.9999999999999987,1,0.999302
0.9999999999999981,1,0.999407
0.9999999999999998,1,0.999317
1.0,1,0.999553
1.0,1,0.999594
0.9999999999999994,1,0.999747
1.0,1,0.999365
1.0,1,0.999221
0.9999999999999999,1,0.999671
0.9999999999999983,1,0.999797
0.999999999999998,1,0.999723
1.0,1,0.999218
1.0,1,0.999774
1.0,1,0.999765
1.0,1,0.999695
1.0,1,0.999726
1.0,1,0.999795
1.0,1,0.999750
0.9999999999999973,1,0.999744
1.0,1,0.999667
0.9999999999999988,1,0.999300
0.9999999999999973,1,0.999110
0.9999999999999997,1,0.999787
0.9999999999999986,1,0.999767
0.9999999999999984,1,0.998956
0.9999999999999991,1,0.999324
1.0,1,0.999507
1.0,1,0.999747
1.0,1,0.999468
0.9999999999999964,1,0.999701
0.9999999999999992,1,0.999474
1.0,1,0.999523
0.999999999999999,1,0.999564
1.0,1,0.999708
1.0,1,0.999429
1.0,1,0.999754
1.0,1,0.999606
1.0,1,0.999741
1.0,1,0.999755
0.9999999999999951,1,0.999674
1.0,1,0.999131
0.9999999999999967,1,0.999749
1.0,1,0.999760
1.0,1,0.999748
1.0,1,0.999752
0.9999999999999991,1,0.999457
1.0,1,0.999584
0.9999999999999964,1,0.999738
0.9999999999999961,1,0.999800
0.9999999999999999,1,0.999385
1.0,1,0.999795
1.0,1,0.999570
1.0,1,0.999739
1.0,1,0.999699
1.0,1,0.999543
1.0,1,0.998670
1.0,1,0.999593
1.0,1,0.999764
0.9999999999999967,1,0.999631
0.9999999999999992,1,0.999617
0.9999999999999941,1,0.999708
0.9999999999999939,1,0.999739
0.9999999999999979,1,0.999546
1.0,1,0.998767
1.0,1,0.999759
0.9999999999999986,1,0.999332
0.9999999999999983,1,0.999603
1.0,1,0.999770
0.9999999999999983,1,0.999469
0.9999999999999988,1,0.999726
0.9999999999999978,1,0.999767
1.0,1,0.998937
1.0,1,0.999747
1.0,1,0.999452
1.0,1,0.999720
1.0,1,0.999400
0.9999999999999986,1,0.999721
1.0,1,0.999707
1.0,1,0.999355
1.0,1,0.999439
0.9999999999999973,1,0.999266
1.0,1,0.999776
0.9999999999999964,1,0.999719
1.0,1,0.999318
1.0,1,0.999769
1.0,1,0.999799
1.0,1,0.999732
0.9999999999999992,1,0.999213
0.999999999999998,1,0.999644
1.0,1,0.999735
0.9999999999999978,1,0.999432
1.0,1,0.999750
0.9999999999999959,1,0.999793
0.9999999999999982,1,0.999632
1.0,1,0.999705
1.0,1,0.999541
0.9999999999999996,1,0.998847
1.0,1,0.999749
0.9999999999999963,1,0.999715
0.9999999999999969,1,0.999678
1.0,1,0.999753
0.9999999999999981,1,0.999751
1.0,1,0.999738
1.0,1,0.999779
1.0,1,0.999772
1.0,1,0.999787
1.0,1,0.999764
1.0,1,0.999055
1.0,1,0.998141
0.9999999999999992,1,0.999618
1.0,1,0.999524
0.9999999999999937,1,0.999775
0.9999999999999996,1,0.999303
0.9999999999999998,1,0.999537
1.0,1,0.999610
0.999999999999997,1,0.999773
1.0,1,0.999292
1.0,1,0.999732
0.9999999999999957,1,0.999784
0.999999999999997,1,0.999764
1.0,1,0.999776
0.9999999999999971,1,0.998663
1.0,1,0.999762
1.0,1,0.999427
1.0,1,0.999460
1.0,1,0.999761
0.9999999999999939,1,0.999673
0.9999999999999932,1,0.999801
1.0,1,0.999712
1.0,1,0.999726
0.9999999999999963,1,0.999793
1.0,1,0.999643
0.9999999999999971,1,0.999723
0.9999999999999927,1,0.999733
0.9999999999999979,1,0.999694
0.9999999999999988,1,0.999724
1.0,1,0.999732
0.9999999999999966,1,0.999426
0.9999999999999997,1,0.999665
1.0,1,0.999695
0.9999999999999954,1,0.999658
0.999999999999999,1,0.999101
0.9999999999999984,1,0.999662
1.0,1,0.999631
1.0,1,0.999753
0.9999999999999991,1,0.999783
1.0,1,0.999553
1.0,1,0.999462
0.9999999999999987,1,0.999499
1.0,1,0.999368
1.0,1,0.999202
0.9999999999999991,1,0.999745
0.9999999999999977,1,0.998281
0.9999999999999983,1,0.999654
0.9999999999999993,1,0.999734
1.0,1,0.999505
0.999999999999993,1,0.999649
1.0,1,0.999722
0.9999999999999959,1,0.999478
0.9999999999999978,1,0.999308
1.0,1,0.999625
1.0,1,0.999747
0.9999999999999989,1,0.999799
1.0,1,0.999793
0.9999999999999982,1,0.999598
1.0,1,0.999657
1.0,1,0.999788
0.999999999999998,1,0.999734
0.9999999999999994,1,0.999624
0.9999999999999991,1,0.999379
0.9999999999999969,1,0.999785
0.9999999999999998,1,0.999322
1.0,1,0.998915
0.999999999999998,1,0.999673
0.9999999999999999,1,0.999147
0.9999999999999981,1,0.999493
1.0,1,0.999284
1.0,1,0.999749
1.0,1,0.999737
0.9999999999999973,1,0.998575
0.9999999999999958,1,0.999744
0.9999999999999978,1,0.999527
1.0,1,0.999803
0.9999999999999997,1,0.999700
0.9999999999999994,1,0.999425
1.0,1,0.999781
1.0,1,0.999772
0.9999999999999994,1,0.999611
1.0,1,0.999365
0.9999999999999932,1,0.998639
1.0,1,0.999375
1.0,1,0.999602
1.0,1,0.999716
0.9999999999999968,1,0.999798
1.0,1,0.998686
0.9999999999999967,1,0.999749
0.999999999999999,1,0.999784
0.9999999999999997,1,0.999761
0.9999999999999988,1,0.999781
0.9999999999999969,1,0.999617
0.999999999999999,1,0.999726
0.9999999999999994,1,0.999773
0.9999999999999983,1,0.999192
1.0,1,0.999789
0.9999999999999981,1,0.999789
0.9999999999999989,1,0.999370
0.9999999999999994,1,0.998884
1.0,1,0.999794
0.9999999999999994,1,0.999775
0.999999999999999,1,0.999780
1.0,1,0.999785
1.0,1,0.999701
1.0,1,0.999433
0.9999999999999977,1,0.999397
1.0,1,0.999528
1.0,1,0.999167
0.999999999999999,1,0.999771
1.0,1,0.999806
0.9999999999999936,1,0.999784
1.0,1,0.999796
0.9999999999999994,1,0.999723
0.9999999999999972,1,0.999784
0.9999999999999992,1,0.999738
0.9999999999999998,1,0.999367
0.9999999999999978,1,0.999769
0.9999999999999981,1,0.998617
1.0,1,0.999404
1.0,1,0.999589
0.9999999999999869,1,0.999775
1.0,1,0.999804
1.0,1,0.999771
0.9999999999999963,1,0.999355
1.0,1,0.999775
0.9999999999999992,1,0.999704
0.9999999999999992,1,0.999389
0.9999999999999949,1,0.998980
1.0,1,0.999789
0.999999999999997,1,0.999779
1.0,1,0.999023
1.0,1,0.999673
1.0,1,0.999784
0.9999999999999979,1,0.999514
1.0,1,0.999755
0.9999999999999969,1,0.999633
0.999999999999999,1,0.999176
0.9999999999999989,1,0.998810
1.0,1,0.999784
0.999999999999999,1,0.998744
0.9999999999999998,1,0.999736
1.0,1,0.998660
1.0,1,0.999328
0.9999999999999964,1,0.999701
1.0,1,0.999780
1.0,1,0.999356
1.0,1,0.999718
0.9999999999999982,1,0.999774
0.9999999999999997,1,0.999779
0.9999999999999967,1,0.999777
0.9999999999999997,1,0.998917
1.0,1,0.998647
0.9999999999999958,1,0.999774
1.0,1,0.999228
1.0,1,0.999514
1.0,1,0.999585
1.0,1,0.999710
1.0,1,0.999513
1.0,1,0.999086
0.999999999999998,1,0.999707
0.999999999999996,1,0.999447
1.0,1,0.999774
0.9999999999999987,1,0.999764
1.0,1,0.999806
0.999999999999998,1,0.999738
0.9999999999999992,1,0.999721
0.9999999999999989,1,0.999779
1.0,1,0.999701
0.9999999999999973,1,0.999784
0.9999999999999992,1,0.999777
0.999999999999999,1,0.999660
0.9999999999999993,1,0.999046
1.0,1,0.999731
0.9999999999999977,1,0.999704
1.0,1,0.999712
1.0,1,0.998866
1.0,1,0.999715
1.0,1,0.999077
0.9999999999999987,1,0.999405
0.9999999999999999,1,0.999313
0.9999999999999992,1,0.999781
1.0,1,0.999547
1.0,1,0.999468
0.9999999999999981,1,0.999351
0.9999999999999989,1,0.999791
0.9999999999999969,1,0.999783
1.0,1,0.999482
1.0,1,0.999540
0.9999999999999963,1,0.999786
1.0,1,0.999776
0.9999999999999998,1,0.999762
1.0,1,0.999516
1.0,1,0.999271
0.9999999999999999,1,0.999363
0.9999999999999984,1,0.999678
1.0,1,0.999421
1.0,1,0.999698
0.9999999999999963,1,0.999676
0.9999999999999938,1,0.999745
0.9999999999999998,1,0.998938
1.0,1,0.999775
0.9999999999999991,1,0.999130
0.9999999999999999,1,0.998862
0.999999999999998,1,0.999791
0.9999999999999997,1,0.999792
0.9999999999999986,1,0.999506
1.0,1,0.998594
0.9999999999999952,1,0.999619
0.9999999999999991,1,0.999569
1.0,1,0.999517
1.0,1,0.999610
0.9999999999999992,1,0.999763
1.0,1,0.999776
1.0,1,0.999655
0.9999999999999964,1,0.999796
1.0,1,0.998965
1.0,1,0.999577
0.9999999999999994,1,0.999303
0.999999999999999,1,0.998915
0.9999999999999986,1,0.999689
1.0,1,0.999807
1.0,1,0.999329
1.0,1,0.999746
0.9999999999999992,1,0.999771
1.0,1,0.999718
1.0,1,0.999496
1.0,1,0.999372
0.9999999999999982,1,0.999758
1.0,1,0.999714
0.9999999999999994,1,0.999768
1.0,1,0.999602
0.999999999999996,1,0.999791
0.9999999999999979,1,0.999793
0.9999999999999991,1,0.999789
1.0,1,0.999808
1.0,1,0.999575
0.9999999999999967,1,0.999436
0.9999999999999968,1,0.999796
0.9999999999999986,1,0.999784
0.9999999999999984,1,0.999207
0.9999999999999977,1,0.999773
1.0,1,0.999749
0.9999999999999962,1,0.999611
0.9999999999999976,1,0.999703
0.9999999999999989,1,0.999793
1.0,1,0.999248
1.0,1,0.999743
0.9999999999999997,1,0.999759
1.0,1,0.999450
1.0,1,0.999703
0.9999999999999972,1,0.999715
1.0,1,0.999724
0.999999999999998,1,0.998833
1.0,1,0.999229
0.9999999999999983,1,0.999369
0.9999999999999988,1,0.999768
0.9999999999999997,1,0.999683
0.9999999999999993,1,0.998981
0.9999999999999958,1,0.999514
0.999999999999999,1,0.999451
0.9999992593139104,1,0.999807
0.9999999999999987,1,0.999794
1.0,1,0.999297
0.9999999999999997,1,0.999305
0.9999999999999958,1,0.999649
0.9999999999999993,1,0.998710
1.0,1,0.998737
1.0,1,0.999296
0.9999999999999948,1,0.999686
0.9999999999999973,1,0.999576
0.9999999999999976,1,0.999749
1.0,1,0.999780
1.0,1,0.999396
0.9999999999999993,1,0.999761
0.9999999999999962,1,0.999571
1.0,1,0.999762
0.9999999999999971,1,0.999516
1.0,1,0.999787
1.0,1,0.999783
1.0,1,0.999777
0.9999999999999984,1,0.999132
0.999999999999997,1,0.999416
1.0,1,0.999761
0.9999999999999978,1,0.999708
1.0,1,0.999665
1.0,1,0.999485
0.9999999999999992,1,0.999486
0.9999999999999949,1,0.999733
0.9999999999999937,1,0.999455
1.0,1,0.999200
1.0,1,0.999214
0.9999999999999989,1,0.999672
1.0,1,0.999789
1.0,1,0.999768
1.0,1,0.999464
1.0,1,0.999760
1.0,1,0.999702
1.0,1,0.999627
0.9999999999999977,1,0.999753
0.9999999999999978,1,0.999642
1.0,1,0.999685
1.0,1,0.999318
1.0,1,0.999790
1.0,1,0.999678
0.9999999999999923,1,0.999727
1.0,1,0.999036
0.9999999999999979,1,0.999787
1.0,1,0.999374
1.0,1,0.999664
1.0,1,0.999771
0.9999999999999999,1,0.999373
1.0,1,0.999197
1.0,1,0.999781
1.0,1,0.999237
0.9999999999999991,1,0.999803
1.0,1,0.999718
1.0,1,0.999349
0.9999999999999944,1,0.999712
1.0,1,0.999413
1.0,1,0.999528
1.0,1,0.999755
0.9999999999999989,1,0.999559
0.9999999999999977,1,0.999428
1.0,1,0.998665
0.9999999999999964,1,0.999765
1.0,1,0.999242
0.9999999999999998,1,0.999726
0.9999999999999978,1,0.999413
0.9999999999999976,1,0.999480
1.0,1,0.999766
0.9999999999999989,1,0.999303
0.9999999999999997,1,0.999764
0.9999999999999981,1,0.999702
0.9999999999999992,1,0.999778
0.9999999999999988,1,0.999781
0.9999999999999987,1,0.999113
0.9999999999999964,1,0.999791
0.9999999999999974,1,0.999711
0.9999999999999974,1,0.999703
0.9999999999999992,1,0.999745
0.9999999999999993,1,0.999721
0.9999999999999947,1,0.999605
0.9999999999999988,1,0.999720
0.9999999999999979,1,0.999378
0.9999999999999983,1,0.999673
0.9999999999999994,1,0.999328
1.0,1,0.999682
0.9999999999999983,1,0.999507
1.0,1,0.998905
1.0,1,0.999616
0.9999999999999953,1,0.999766
0.9999999999999988,1,0.999735
1.0,1,0.999765
1.0,1,0.999242
1.0,1,0.999710
0.9999999999999979,1,0.999316
0.9999999999999969,1,0.999789
1.0,1,0.999026
0.9999999999999976,1,0.999709
1.0,1,0.999748
0.9999999999999993,1,0.999789
1.0,1,0.999738
1.0,1,0.999668
0.9999999999999973,1,0.999447
1.0,1,0.999564
0.9999999999999997,1,0.999720
0.9999999999999989,1,0.998747
0.9999999999999988,1,0.999386
0.9999999999999941,1,0.999738
1.0,1,0.999619
0.9999999999999978,1,0.999298
1.0,1,0.999703
0.9999999999999983,1,0.999758
1.0,1,0.999816
0.999999999999999,1,0.999469
0.9999999999999952,1,0.999656
0.999999999999999,1,0.999229
1.0,1,0.999759
1.0,1,0.999787
0.9999999999999974,1,0.999792
0.9999999999999971,1,0.999738
1.0,1,0.999769
1.0,1,0.999458
0.9999999999999962,1,0.998721
0.9999999999999991,1,0.999762
1.0,1,0.999479
1.0,1,0.999613
0.9999999999999981,1,0.999446
1.0,1,0.999702
0.9999999999999974,1,0.999407
1.0,1,0.999371
1.0,1,0.999557
1.0,1,0.999705
0.999999999999998,1,0.998379
0.9999999999999988,1,0.999765
1.0,1,0.999750
1.0,1,0.999727
1.0,1,0.999705
1.0,1,0.999362
1.0,1,0.999780
0.9999999999999986,1,0.999755
1.0,1,0.999798
0.999999999999999,1,0.999739
1.0,1,0.999606
1.0,1,0.999763
1.0,1,0.999766
1.0,1,0.999197
1.0,1,0.999545
0.9999999999999981,1,0.999405
1.0,1,0.999789
1.0,1,0.999534
1.0,1,0.999748
1.0,1,0.998621
0.9999999999999983,1,0.999739
0.9999999999999972,1,0.999773
0.9999999999999989,1,0.999564
1.0,1,0.998706
1.0,1,0.999759
1.0,1,0.999737
0.9999999999999949,1,0.999196
1.0,1,0.999415
1.0,1,0.999777
0.9999999999999978,1,0.999308
1.0,1,0.999479
1.0,1,0.999247
0.9999999999999991,1,0.999726
0.9999999999999989,1,0.999399
0.9999999999999994,1,0.999706
0.9999999999999998,1,0.998768
1.0,1,0.999800
1.0,1,0.999432
1.0,1,0.998986
0.9999999999999983,1,0.999783
0.9999999999999992,1,0.999519
1.0,1,0.999663
0.9999999999999983,1,0.999399
0.9999999999999976,1,0.999447
1.0,1,0.999692
1.0,1,0.998454
1.0,1,0.999523
1.0,1,0.999781
0.9999999999999992,1,0.999407
0.9999999999999951,1,0.999413
0.9999999999999998,1,0.999783
1.0,1,0.999780
0.9999999999999996,1,0.999473
1.0,1,0.999578
0.9999999999999991,1,0.999625
0.999999999999996,1,0.999783
1.0,1,0.999747
1.0,1,0.999796
0.9999999999999993,1,0.999645
1.0,1,0.999616
0.9999999999999989,1,0.999407
0.9999999999999961,1,0.999430
1.0,1,0.999551
1.0,1,0.999521
1.0,1,0.998316
1.0,1,0.999790
0.9999999999999978,1,0.999749
0.9999999999999954,1,0.999697
1.0,1,0.999762
0.9999999999999988,1,0.999510
1.0,1,0.999534
0.9999999999999944,1,0.999630
0.9999999999999954,1,0.999426
0.9999999999999977,1,0.999138
1.0,1,0.999714
1.0,1,0.999417
1.0,1,0.999658
0.999999999999995,1,0.999763
0.9999999999999977,1,0.999737
1.0,1,0.999705
0.9999999999999966,1,0.999759
1.0,1,0.999726
0.9999999999999969,1,0.999796
1.0,1,0.999189
0.9999999999999989,1,0.999223
0.9999999999999992,1,0.999689
1.0,1,0.999747
0.9999999999999988,1,0.999723
0.9999999999999998,1,0.999719
1.0,1,0.999316
0.9999999999999943,1,0.999561
0.999999999999999,1,0.999312
1.0,1,0.999592
1.0,1,0.999793
0.9999999999999989,1,0.999765
1.0,1,0.999686
0.9999999999999966,1,0.999776
0.9999999999999967,1,0.999553
0.9999999999999992,1,0.998716
1.0,1,0.998896
1.0,1,0.999516
1.0,1,0.999518
0.9999999999999987,1,0.999711
0.9999999999999986,1,0.999040
1.0,1,0.999527
0.9999999999999947,1,0.999732
0.999999999999999,1,0.999593
0.999999999999997,1,0.999720
1.0,1,0.999637
0.9999999999999983,1,0.999735
1.0,1,0.999356
1.0,1,0.999720
0.999999999999998,1,0.999777
0.9999999999999964,1,0.999632
1.0,1,0.999750
0.9999999999999996,1,0.999762
1.0,1,0.999731
1.0,1,0.999268
1.0,1,0.999466
0.9999999999999956,1,0.999719
1.0,1,0.999775
1.0,1,0.998921
0.9999999999999968,1,0.998876
0.9999999999999998,1,0.999752
0.9999999999999979,1,0.999231
0.9999999999999992,1,0.999766
0.9999999999999961,1,0.999194
0.9999999999999988,1,0.999757
0.9999999999999991,1,0.998413
0.9999999999999994,1,0.999451
0.9999999999999947,1,0.999749
0.9999999999999998,1,0.999468
0.9999999999999982,1,0.999661
0.999999999999999,1,0.999710
0.9999999999999978,1,0.999725
1.0,1,0.999322
0.9999999999999979,1,0.999792
0.999999999999996,1,0.999699
0.9999999999999993,1,0.999431
1.0,1,0.999749
0.9999999999999971,1,0.999691
0.9999999999999944,1,0.999777
0.9999999999999967,1,0.999668
1.0,1,0.999758
1.0,1,0.999188
0.9999999999999961,1,0.999513
0.9999999999999996,1,0.999734
0.9999999999999993,1,0.999652
1.0,1,0.999738
1.0,1,0.999321
1.0,1,0.999759
1.0,1,0.999282
1.0,1,0.999677
1.0,1,0.999744
0.9999999999999978,1,0.999638
0.999999999999999,1,0.999726
1.0,1,0.999754
0.9999999999999949,1,0.998905
1.0,1,0.999333
0.9999999999999997,1,0.999492
0.9999999999999959,1,0.999774
1.0,1,0.999092
0.9999999999999954,1,0.999574
1.0,1,0.999580
0.9999999999999997,1,0.999731
1.0,1,0.999482
1.0,1,0.999379
1.0,1,0.999789
1.0,1,0.999784
0.9999999999999983,1,0.999064
1.0,1,0.999805
0.9999999999999964,1,0.999407
1.0,1,0.999761
1.0,1,0.999478
0.9999999999999909,1,0.999522
1.0,1,0.999767
0.9999999999999978,1,0.999229
0.9999999999999997,1,0.999503
1.0,1,0.999781
1.0,1,0.999568
1.0,1,0.999112
0.9999999999999992,1,0.999657
0.9999999999999984,1,0.999325
0.9999999999999952,1,0.999692
1.0,1,0.999692
0.9999999999999982,1,0.999496
1.0,1,0.999795
0.9999999999999962,1,0.999303
1.0,1,0.999806
0.9999999999999952,1,0.999772
0.9999999999999968,1,0.999753
0.9999999999999988,1,0.999761
1.0,1,0.999779
0.9999999999999993,1,0.999517
0.9999999999999978,1,0.999516
0.9999999999999968,1,0.999303
1.0,1,0.999605
1.0,1,0.999683
0.9999999999999999,1,0.999320
0.9999999999999956,1,0.999719
0.9999999999999902,1,0.999755
1.0,1,0.999248
1.0,1,0.999606
0.999999999999999,1,0.999745
0.9999999999999986,1,0.999784
1.0,1,0.999795
1.0,1,0.999657
0.9999999999999984,1,0.999432
0.9999999999999991,1,0.999775
0.9999999999999991,1,0.999568
0.9999999999999989,1,0.999646
1.0,1,0.999687
0.9999999999999984,1,0.999685
1.0,1,0.999755
1.0,1,0.999770
1.0,1,0.999779
1.0,1,0.999750
1.0,1,0.999530
0.9999999999999966,1,0.999580
0.9999999999999984,1,0.999714
0.9999999999999993,1,0.999781
1.0,1,0.998711
1.0,1,0.999739
0.9999999999999968,1,0.999668
1.0,1,0.999639
0.9999999999999962,1,0.999809
1.0,1,0.999795
0.9999999999999956,1,0.999720
1.0,1,0.998605
1.0,1,0.999714
0.9999999999999979,1,0.999317
1.0,1,0.999724
0.9999999999999929,1,0.999303
0.999999999999997,1,0.999711
1.0,1,0.999483
1.0,1,0.999756
1.0,1,0.999664
0.9999999999999986,1,0.999455
1.0,1,0.998363
1.0,1,0.998485
0.9999999999999988,1,0.999249
1.0,1,0.999789
1.0,1,0.999289
0.9999999999999973,1,0.999778
1.0,1,0.999320
0.999999999999996,1,0.999739
0.9999999999999979,1,0.999173
0.9999999999999979,1,0.999354
0.9999999999999983,1,0.999767
1.0,1,0.999746
0.9999999999999984,1,0.999804
0.9999999999999986,1,0.999670
1.0,1,0.999760
0.999999999999996,1,0.999702
1.0,1,0.998311
1.0,1,0.999698
0.9999999999999979,1,0.999572
0.9999999999999903,1,0.999586
1.0,1,0.999715
1.0,1,0.998785
0.9999999999999979,1,0.999614
0.9999999999999957,1,0.999712
1.0,1,0.999707
0.9999999999999999,1,0.999221
1.0,1,0.999395
1.0,1,0.999749
0.9999999999999997,1,0.999530
1.0,1,0.999767
0.9999999999999993,1,0.999662
1.0,1,0.999272
0.9999999999999977,1,0.999408
1.0,1,0.999782
0.9999999999999978,1,0.999001
1.0,1,0.999424
0.9999999999999979,1,0.999754
0.9999999999999974,1,0.999764
1.0,1,0.999799
1.0,1,0.999765
0.9999999999999977,1,0.999375
1.0,1,0.999728
1.0,1,0.999578
0.9999999999999999,1,0.999728
0.9999999999999946,1,0.998815
1.0,1,0.999791
0.9999999999999984,1,0.999292
0.9999999999999959,1,0.999623
1.0,1,0.999680
1.0,1,0.999268
0.9999999999999997,1,0.999739
0.9999999999999993,1,0.999793
0.9999999999999976,1,0.999746
0.9999999999999969,1,0.999741
0.9999999999999977,1,0.999770
0.9999999999999992,1,0.999421
0.9999999999999964,1,0.999769
1.0,1,0.999703
0.9999999999999991,1,0.999571
0.9999999999999969,1,0.999656
0.9999999999999986,1,0.999743
1.0,1,0.999777
0.9999999999999984,1,0.999282
1.0,1,0.999786
1.0,1,0.999577
0.9999999999999976,1,0.999703
0.9999999999999994,1,0.999474
1.0,1,0.999785
0.999999999999993,1,0.999738
0.9999999999999929,1,0.999349
0.9999999999999978,1,0.999738
1.0,1,0.999798
1.0,1,0.999793
0.9999999999999981,1,0.999681
0.9999999999999988,1,0.999755
1.0,1,0.999784
0.9999999999999981,1,0.999786
1.0,1,0.998968
0.9999999999999943,1,0.999205
1.0,1,0.999740
1.0,1,0.999733
1.0,1,0.999700
1.0,1,0.999717
0.9999999999999979,1,0.999666
1.0,1,0.999778
0.9999999999999968,1,0.999425
1.0,1,0.999242
0.9999999999999971,1,0.999768
1.0,1,0.999586
0.9999999999999993,1,0.999780
0.9999999999999983,1,0.999645
0.9999999999999986,1,0.999222
0.9999999999999966,1,0.999476
1.0,1,0.999698
0.9999999999999968,1,0.999684
0.999999999999998,1,0.999447
0.9999999999999982,1,0.999160
1.0,1,0.999719
0.9999999999999994,1,0.999720
1.0,1,0.999681
0.9999999999999971,1,0.999779
0.9999999999999962,1,0.999793
1.0,1,0.999638
0.9999999999999989,1,0.999757
0.9999999999999971,1,0.999458
1.0,1,0.999781
0.9999999999999959,1,0.999149
1.0,1,0.999117
0.9999999999999988,1,0.999786
0.9999999999999942,1,0.999800
1.0,1,0.999671
0.9999999999999988,1,0.999793
0.9999999999999976,1,0.999537
0.9999999999999988,1,0.999557
0.9999999999999996,1,0.999502
0.9999999999999981,1,0.999731
1.0,1,0.999283
1.0,1,0.999373
1.0,1,0.999732
1.0,1,0.998665
0.9999999999999978,1,0.999689
0.9999999999999938,1,0.999566
1.0,1,0.999669
0.9999999999999988,1,0.999250
0.9999999999999972,1,0.998876
0.9999999999999993,1,0.999589
1.0,1,0.999750
0.9999999999999994,1,0.999564
1.0,1,0.999745
1.0,1,0.999771
0.9999999999999986,1,0.999810
0.9999999999999984,1,0.999444
0.9999999999999951,1,0.999305
1.0,1,0.999791
1.0,1,0.999772
0.9999999999999998,1,0.999661
1.0,1,0.999201
1.0,1,0.998571
1.0,1,0.999758
1.0,1,0.999783
1.0,1,0.999795
1.0,1,0.999736
0.9999999999999957,1,0.999754
0.999999999999997,1,0.999747
0.9999999999999978,1,0.999399
1.0,1,0.999699
0.9999999999999969,1,0.999213
1.0,1,0.999711
1.0,1,0.999671
1.0,1,0.998571
1.0,1,0.999811
1.0,1,0.999769
0.9999999999999964,1,0.999196
1.0,1,0.998621
1.0,1,0.999772
0.9999999999999976,1,0.999354
0.9999999999999976,1,0.999723
1.0,1,0.999757
0.9999999999999976,1,0.999671
0.9999999999999966,1,0.999239
0.9999999999999984,1,0.999333
1.0,1,0.999183
1.0,1,0.999769
0.9999999999999983,1,0.999745
0.9999999999999991,1,0.999659
0.9999999999999991,1,0.999465
1.0,1,0.999546
1.0,1,0.999668
1.0,1,0.999622
0.9999999999999997,1,0.999190
1.0,1,0.999777
0.9999999999999974,1,0.999477
0.9999999999999977,1,0.999772
0.999999999999998,1,0.998811
1.0,1,0.999371
1.0,1,0.999635
0.9999999999999993,1,0.999351
0.9999999999999999,1,0.999759
1.0,1,0.999541
1.0,1,0.999685
0.9999999999999994,1,0.999792
0.9999999999999992,1,0.999407
1.0,1,0.999088
0.9999999999999984,1,0.999775
0.9999999999999992,1,0.998492
1.0,1,0.999718
0.9999999999999969,1,0.999806
1.0,1,0.998273
0.9999999999999974,1,0.999765
1.0,1,0.999345
0.9999999999999979,1,0.999455
0.999999999999999,1,0.999277
1.0,1,0.998798
1.0,1,0.999139
0.9999999999999941,1,0.999780
1.0,1,0.999637
0.9999999999999962,1,0.999757
0.9999999999999994,1,0.999635
1.0,1,0.999704
0.9999999999999984,1,0.999400
0.9999999999999999,1,0.999788
1.0,1,0.998826
0.9999999999999968,1,0.999694
1.0,1,0.999725
0.9999999999999976,1,0.999777
1.0,1,0.999230
0.9999999999999947,1,0.999675
1.0,1,0.999792
0.9999999999999991,1,0.999761
0.9999999999999997,1,0.999762
0.9999999999999969,1,0.999772
0.9999999999999982,1,0.999666
1.0,1,0.999688
1.0,1,0.999576
0.9999999999999956,1,0.999809
1.0,1,0.999342
1.0,1,0.999680
0.9999999999999987,1,0.999795
0.9999999999999998,1,0.999134
1.0,1,0.999799
1.0,1,0.999778
1.0,1,0.999680
0.9999999999999991,1,0.998684
0.9999999999999983,1,0.999729
1.0,1,0.999599
0.9999999999999993,1,0.999757
1.0,1,0.999425
1.0,1,0.999389
1.0,1,0.999381
1.0,1,0.999573
0.9999999999999988,1,0.999779
0.9999999999999949,1,0.999747
0.9999999999999991,1,0.999291
1.0,1,0.999723
0.9999999999999971,1,0.999762
1.0,1,0.999638
0.9999999999999994,1,0.999804
0.9999999999999968,1,0.999509
1.0,1,0.999739
0.9999999999999977,1,0.999753
1.0,1,0.999770
1.0,1,0.999703
1.0,1,0.999255
1.0,1,0.999746
1.0,1,0.999778
0.9999999999999994,1,0.999235
0.9999999999999992,1,0.999797
0.999999999999989,1,0.999772
1.0,1,0.999777
1.0,1,0.999793
0.9999999999999966,1,0.999714
1.0,1,0.999450
0.9999999999999956,1,0.999792
1.0,1,0.999491
1.0,1,0.999173
1.0,1,0.999786
0.999999999999997,1,0.999733
0.9999999999999966,1,0.999400
1.0,1,0.999747
1.0,1,0.999687
0.9999999999999986,1,0.999767
1.0,1,0.999591
0.9999999999999987,1,0.999498
1.0,1,0.998433
0.9999999999999969,1,0.999792
1.0,1,0.999658
0.9999999999999982,1,0.999665
0.9999999999999998,1,0.999730
1.0,1,0.999613
0.999999999999998,1,0.999775
1.0,1,0.999768
1.0,1,0.999703
0.9999999999999988,1,0.999792
0.9999999999999973,1,0.999719
1.0,1,0.999759
1.0,1,0.999328
0.9999999999999993,1,0.999776
0.9999999999999989,1,0.999393
1.0,1,0.999741
0.9999999999999982,1,0.999716
0.9999999999999978,1,0.999514
0.9999999999999996,1,0.998428
0.9999999999999987,1,0.999791
0.9999999999999988,1,0.999199
0.9999999999999989,1,0.999767
0.9999999999999977,1,0.999277
1.0,1,0.999015
1.0,1,0.999454
0.9999999999999898,1,0.999761
1.0,1,0.999171
0.9999999999999971,1,0.999587
0.9999999999999988,1,0.999608
0.9999999999999996,1,0.999798
1.0,1,0.999684
1.0,1,0.998433
0.9999999999999928,1,0.999370
1.0,1,0.999224
0.999999999999998,1,0.999387
1.0,1,0.999635
0.9999999999999994,1,0.999585
1.0,1,0.999759
0.9999999999999947,1,0.999214
1.0,1,0.999776
0.9999999999999991,1,0.999772
1.0,1,0.999299
0.9999999999999968,1,0.999735
0.9999999999999973,1,0.999789
0.9999999999999996,1,0.999770
1.0,1,0.999796
1.0,1,0.998639
1.0,1,0.999517
1.0,1,0.999574
1.0,1,0.999762
0.9999999999999977,1,0.999803
0.9999999999999969,1,0.998561
1.0,1,0.999736
1.0,1,0.999810
0.9999999999999989,1,0.999171
0.9999999999999922,1,0.999714
1.0,1,0.999762
1.0,1,0.999638
0.9999999999999973,1,0.999764
0.9999999999999976,1,0.999034
1.0,1,0.999801
0.999999999999998,1,0.999786
0.9999999999999999,1,0.999718
1.0,1,0.999142
0.9999999999999956,1,0.999633
0.9999999999999982,1,0.999377
1.0,1,0.999590
0.9999999999999974,1,0.999314
0.9999999999999997,1,0.999717
0.9999999999999973,1,0.999667
1.0,1,0.999726
1.0,1,0.999567
1.0,1,0.999765
0.9999999999999996,1,0.999742
0.9999999999999929,1,0.999764
0.9999999999999983,1,0.999731
1.0,1,0.999771
1.0,1,0.999436
0.9999999999999968,1,0.999730
0.9999999999999996,1,0.999702
1.0,1,0.999546
1.0,1,0.999744
0.9999999999999992,1,0.999779
1.0,1,0.998945
1.0,1,0.999155
1.0,1,0.999077
0.9999999999999997,1,0.999767
0.9999999999999974,1,0.999770
1.0,1,0.999731
0.9999999999999998,1,0.999419
0.9999999999999957,1,0.998956
1.0,1,0.999792
0.9999999999999974,1,0.998759
1.0,1,0.999751
1.0,1,0.999698
0.999999999999999,1,0.999766
1.0,1,0.999359
0.9999999999999915,1,0.999408
1.0,1,0.999766
1.0,1,0.999759
0.9999999999999996,1,0.999751
0.9999999999999973,1,0.998989
1.0,1,0.999780
0.9999999999999986,1,0.999675
1.0,1,0.999270
1.0,1,0.999246
1.0,1,0.999229
1.0,1,0.999747
0.9999999999999998,1,0.999756
1.0,1,0.999561
0.9999999999999998,1,0.999355
0.9999999999999998,1,0.999193
0.9999999999999987,1,0.999757
0.9999999999999954,1,0.999774
1.0,1,0.999775
1.0,1,0.999767
0.9999999999999962,1,0.999440
0.9999999999999993,1,0.999221
1.0,1,0.999610
0.9999999999999943,1,0.999602
0.9999999999999966,1,0.999742
1.0,1,0.999684
0.9999999999999899,1,0.999735
1.0,1,0.998737
1.0,1,0.999754
0.9999999999999987,1,0.999493
1.0,1,0.999676
0.9999999999999988,1,0.999463
1.0,1,0.999591
1.0,1,0.999705
0.9999999999999992,1,0.999728
1.0,1,0.999581
1.0,1,0.999523
1.0,1,0.999739
1.0,1,0.999803
0.9999999999999962,1,0.999646
1.0,1,0.998681
0.9999999999999977,1,0.999792
1.0,1,0.999717
0.9999999999999982,1,0.999412
0.9999999999999998,1,0.999241
0.9999999999999948,1,0.999789
0.9999999999999991,1,0.999683
0.999999999999996,1,0.999776
0.9999999999999988,1,0.999698
0.9999999999999986,1,0.998747
0.9999999999999977,1,0.999474
1.0,1,0.999023
1.0,1,0.999713
0.9999999999999958,1,0.999771
0.9999999999999982,1,0.999755
1.0,1,0.999524
0.9999999999999968,1,0.999801
0.9999999999999998,1,0.999784
1.0,1,0.999670
1.0,1,0.999755
1.0,1,0.997821
1.0,1,0.999636
1.0,1,0.999398
1.0,1,0.999313
0.9999999999999996,1,0.999084
0.9999999999999967,1,0.999050
0.9999999999999979,1,0.999697
0.9999999999999974,1,0.999741
0.9999999999999997,1,0.999689
1.0,1,0.999131
1.0,1,0.999714
1.0,1,0.999764
0.9999999999999964,1,0.998879
1.0,1,0.999697
0.9999999999999974,1,0.999556
1.0,1,0.999738
0.9999999999999993,1,0.999194
1.0,1,0.999753
1.0,1,0.999572
1.0,1,0.999534
0.9999999999999988,1,0.999790
0.9999999999999992,1,0.999796
1.0,1,0.999711
1.0,1,0.999598
0.9999999999999972,1,0.999792
1.0,1,0.999600
0.9999999999999997,1,0.999720
0.9999999999999969,1,0.999518
0.9999999999999994,1,0.999704
1.0,1,0.999765
0.9999999999999949,1,0.999758
1.0,1,0.999361
1.0,1,0.999554
1.0,1,0.999670
0.9999999999999981,1,0.998780
1.0,1,0.999401
1.0,1,0.999778
0.9999999999999991,1,0.999158
1.0,1,0.999785
0.9999999999999946,1,0.999741
1.0,1,0.999289
1.0,1,0.999712
1.0,1,0.999283
0.9999999999999966,1,0.999040
0.9999999999999964,1,0.999553
0.9999999999999987,1,0.999703
1.0,1,0.999717
0.9999999999999993,1,0.999337
1.0,1,0.999724
0.9999999999999934,1,0.999713
0.9999999999999961,1,0.999785
0.9999999999999996,1,0.999789
0.9999999999999987,1,0.999527
1.0,1,0.999745
0.9999999999999973,1,0.999763
1.0,1,0.999779
0.9999999999999963,1,0.999578
1.0,1,0.999736
1.0,1,0.999435
0.9999999999999963,1,0.999789
0.9999999999999949,1,0.999774
0.9999999999999981,1,0.999479
1.0,1,0.999751
0.9999999999999994,1,0.999623
1.0,1,0.999735
0.999999999999996,1,0.999528
1.0,1,0.999775
0.9999999999999953,1,0.999790
0.9999999999999957,1,0.999808
0.9999999999999969,1,0.999808
0.999999999999998,1,0.998950
0.9999999999999994,1,0.999479
0.9999999999999967,1,0.999707
0.9999999999999986,1,0.999754
1.0,1,0.999284
1.0,1,0.999183
0.999999999999999,1,0.999206
1.0,1,0.999772
0.9999999999999969,1,0.999779
1.0,1,0.999670
0.9999999999999963,1,0.999764
1.0,1,0.999663
0.9999999999999978,1,0.999457
1.0,1,0.999406
0.9999999999999983,1,0.999797
1.0,1,0.999755
0.9999999999999963,1,0.998942
0.9999999999999986,1,0.998785
0.9999999999999977,1,0.999617
0.9999999999999966,1,0.999462
0.9999999999999992,1,0.999805
0.9999999999999977,1,0.999610
0.999999999999995,1,0.999235
1.0,1,0.999722
1.0,1,0.999624
1.0,1,0.999721
0.9999999999999986,1,0.999755
0.9999999999999999,1,0.999653
1.0,1,0.999411
0.9999999999999968,1,0.999743
1.0,1,0.999753
0.999999999999999,1,0.999281
0.9999999999999987,1,0.999529
0.9999999999999987,1,0.999702
0.9999999999999961,1,0.999792
1.0,1,0.999492
1.0,1,0.999458
0.9999999999999991,1,0.999727
0.9999999999999973,1,0.999739
0.9999999999999994,1,0.999441
0.9999999999999982,1,0.999749
1.0,1,0.999304
0.9999999999999984,1,0.999316
1.0,1,0.999753
1.0,1,0.999789
0.9999999999999954,1,0.999696
0.9999999999999981,1,0.999769
1.0,1,0.999022
1.0,1,0.999726
1.0,1,0.999734
0.9999999999999977,1,0.999517
1.0,1,0.999663
0.999999999999997,1,0.999670
0.999999999999998,1,0.999139
1.0,1,0.999341
1.0,1,0.999779
1.0,1,0.998873
1.0,1,0.999235
0.9999999999999997,1,0.999550
1.0,1,0.999769
0.999999999999996,1,0.999388
0.9999999999999983,1,0.999750
1.0,1,0.999773
1.0,1,0.999780
0.9999999999999946,1,0.999774
1.0,1,0.999548
0.9999999999999984,1,0.999794
0.9999999999999977,1,0.999728
1.0,1,0.999615
0.9999999999999977,1,0.998594
1.0,1,0.999777
0.9999999999999999,1,0.999792
1.0,1,0.997831
1.0,1,0.999765
1.0,1,0.999735
0.9999999999999953,1,0.999429
1.0,1,0.999395
0.9999999999999996,1,0.999774
1.0,1,0.999740
1.0,1,0.999527
1.0,1,0.999060
1.0,1,0.999801
0.9999999999999999,1,0.999336
0.9999999999999989,1,0.999458
1.0,1,0.999780
0.9999999999999989,1,0.999785
0.9999999999999983,1,0.999431
1.0,1,0.999730
1.0,1,0.999687
1.0,1,0.999755
0.9999999999999988,1,0.999460
1.0,1,0.999503
1.0,1,0.999755
