-1.944721984035715E-5,0,0.999665
-1.944721984035715E-5,0,0.999661
-1.944721984035715E-5,0,0.999656
-1.944721984035715E-5,0,0.999651
-1.944721984035715E-5,0,0.999645
-1.944721984035715E-5,0,0.999639
-1.944721984035715E-5,0,0.999634
-1.944721984035715E-5,0,0.999628
-1.944721984035715E-5,0,0.999620
-1.944721984035715E-5,0,0.999614
-1.944721984035715E-5,0,0.999608
-1.944721984035715E-5,0,0.999602
-1.944721984035715E-5,0,0.999594
-1.944721984035715E-5,0,0.999587
-1.944721984035715E-5,0,0.999582
-1.944721984035715E-5,0,0.999574
-1.944721984035715E-5,0,0.999567
-1.944721984035715E-5,0,0.999560
-1.944721984035715E-5,0,0.999551
-1.944721984035715E-5,0,0.999544
-1.944721984035715E-5,0,0.999534
-1.944721984035715E-5,0,0.999527
-1.944721984035715E-5,0,0.999521
-1.944721984035715E-5,0,0.999511
-1.944721984035715E-5,0,0.999501
-1.944721984035715E-5,0,0.999495
-1.944721984035715E-5,0,0.999489
-1.944721984035715E-5,0,0.999483
-1.944721984035715E-5,0,0.999479
-1.944721984035715E-5,0,0.999475
-1.944721984035715E-5,0,0.999471
-1.944721984035715E-5,0,0.999467
-1.944721984035715E-5,0,0.999462
-1.944721984035715E-5,0,0.999454
-1.944721984035715E-5,0,0.999443
-1.944721984035715E-5,0,0.999430
-1.944721984035715E-5,0,0.999415
-1.944721984035715E-5,0,0.999402
-1.944721984035715E-5,0,0.999381
-1.944721984035715E-5,0,0.999367
-1.944721984035715E-5,0,0.999350
-1.944721984035715E-5,0,0.999323
-1.944721984035715E-5,0,0.999302
-1.944721984035715E-5,0,0.999283
-1.944721984035715E-5,0,0.999262
-1.944721984035715E-5,0,0.999241
-1.944721984035715E-5,0,0.999206
-1.944721984035715E-5,0,0.999187
-1.944721984035715E-5,0,0.999163
-1.944721984035715E-5,0,0.999135
-1.944721984035715E-5,0,0.999105
-1.944721984035715E-5,0,0.999069
-1.944721984035715E-5,0,0.999037
-1.944721984035715E-5,0,0.998991
-1.944721984035715E-5,0,0.998958
-1.944721984035715E-5,0,0.998931
-1.944721984035715E-5,0,0.998884
-1.944721984035715E-5,0,0.998830
-1.944721984035715E-5,0,0.998784
-1.944721984035715E-5,0,0.998746
-1.944721984035715E-5,0,0.998708
-1.944721984035715E-5,0,0.998679
-1.944721984035715E-5,0,0.998654
-1.944721984035715E-5,0,0.998630
-1.944721984035715E-5,0,0.998602
-1.944721984035715E-5,0,0.998574
-1.944721984035715E-5,0,0.998530
-1.944721984035715E-5,0,0.998465
-1.944721984035715E-5,0,0.998406
0.001420849840642355,0,0.999586
0.001420849840642355,0,0.999579
0.001420849840642355,0,0.999572
0.001420849840642355,0,0.999563
0.001420849840642355,0,0.999552
0.001420849840642355,0,0.999543
0.001420849840642355,0,0.999533
0.001420849840642355,0,0.999520
0.001420849840642355,0,0.999511
0.001420849840642355,0,0.999500
0.001420849840642355,0,0.999486
0.001420849840642355,0,0.999476
0.001420849840642355,0,0.999464
0.001420849840642355,0,0.999451
0.001420849840642355,0,0.999437
0.001420849840642355,0,0.999424
0.001420849840642355,0,0.999413
0.001420849840642355,0,0.999397
0.001420849840642355,0,0.999384
0.001420849840642355,0,0.999373
0.001420849840642355,0,0.999367
0.001420849840642355,0,0.999360
0.001420849840642355,0,0.999352
0.001420849840642355,0,0.999343
0.001420849840642355,0,0.999325
0.001420849840642355,0,0.999305
0.001420849840642355,0,0.999282
0.001420849840642355,0,0.999252
0.001420849840642355,0,0.999228
0.001420849840642355,0,0.999193
0.001420849840642355,0,0.999159
0.001420849840642355,0,0.999129
0.001420849840642355,0,0.999088
0.001420849840642355,0,0.999048
0.001420849840642355,0,0.999012
0.001420849840642355,0,0.998969
0.001420849840642355,0,0.998919
0.001420849840642355,0,0.998864
0.0014274287996575564,0,0.998863
0.00143973632076671,0,0.998837
0.043102641540930846,0,0.999350
0.043102641540930846,0,0.999331
0.043102641540930846,0,0.999309
0.043102641540930846,0,0.999284
0.043102641540930846,0,0.999257
0.043102641540930846,0,0.999231
0.043102641540930846,0,0.999200
0.043102641540930846,0,0.999172
0.043102641540930846,0,0.999143
0.043102641540930846,0,0.999125
0.043102641540930846,0,0.999110
0.043102641540930846,0,0.999090
0.04669403002461825,0,0.999741
0.9761290885777337,0,0.999352
0.9761290885777337,0,0.999334
0.9761290885777337,0,0.999313
0.9761290885777337,0,0.999287
0.9761290885777337,0,0.999260
0.9761290885777337,0,0.999235
0.9761290885777337,0,0.999204
0.9761290885777337,0,0.999177
0.9761290885777337,0,0.999145
0.9761290885777337,0,0.999126
0.9761290885777337,0,0.999111
0.9761290885777337,0,0.999094
0.9402443374116586,0,0.999268
0.9402443374116586,0,0.999243
0.9402443374116586,0,0.999211
0.9402443374116586,0,0.999175
0.9402443374116586,0,0.999142
0.9402443374116586,0,0.999104
0.9402443374116586,0,0.999063
0.9402443374116586,0,0.999036
0.9402443374116586,0,0.999015
0.9402503477180266,0,0.999283
0.9402503477180266,0,0.999261
0.9402503477180266,0,0.999233
0.9402503477180266,0,0.999202
0.9402503477180266,0,0.999165
0.9402503477180266,0,0.999130
0.9402503477180266,0,0.999092
0.9402503477180266,0,0.999053
0.9402503477180266,0,0.999029
0.9402503477180266,0,0.999007
0.9424483351104137,0,0.999206
0.9424483351104137,0,0.999176
0.9424483351104137,0,0.999139
0.9424483351104137,0,0.999097
0.9424483351104137,0,0.999052
0.9424483351104137,0,0.999008
0.9424483351104137,0,0.998970
0.9424483351104137,0,0.998943
0.9456897604114827,0,0.999084
0.9456897604114827,0,0.999043
0.9456897604114827,0,0.998989
0.9456897604114827,0,0.998931
0.9456897604114827,0,0.998876
0.9456897604114827,0,0.998841
0.9467231982375683,0,0.999059
0.9467231982375683,0,0.999009
0.9467231982375683,0,0.998954
0.9467231982375683,0,0.998893
0.9467231982375683,0,0.998853
0.9497433444711291,0,0.999076
0.9497433444711291,0,0.999031
0.9497433444711291,0,0.998977
0.9497433444711291,0,0.998920
0.9497433444711291,0,0.998867
0.9527576576572527,0,0.999513
0.9527576576572527,0,0.999053
0.9527576576572527,0,0.999002
0.9527576576572527,0,0.998946
0.9527576576572527,0,0.998884
0.9527576576572527,0,0.998848
0.9558378191908347,0,0.999072
0.9558378191908347,0,0.999024
0.9558378191908347,0,0.998972
0.9558378191908347,0,0.998915
0.9558378191908347,0,0.998863
0.9589293151160824,0,0.999513
0.9589293151160824,0,0.999053
0.9589293151160824,0,0.999002
0.9589293151160824,0,0.998946
0.9589293151160824,0,0.998884
0.9589293151160824,0,0.998847
0.9619871974123656,0,0.999078
0.9619871974123656,0,0.999036
0.9619871974123656,0,0.998980
0.9619871974123656,0,0.998922
0.9619871974123656,0,0.998869
0.9619871974123656,0,0.998834
0.9649754257472991,0,0.999069
0.9649754257472991,0,0.999020
0.9649754257472991,0,0.998967
0.9649754257472991,0,0.998909
0.9649754257472991,0,0.998860
0.9649754257472991,0,0.998908
0.9675805890097018,0,0.999067
0.9675805890097018,0,0.999017
0.9675805890097018,0,0.998964
0.9675805890097018,0,0.998905
0.9675805890097018,0,0.998858
0.9675805890097018,0,0.998904
0.9837920197977834,0,0.999076
0.9837920197977834,0,0.999034
0.9837920197977834,0,0.998978
0.9837920197977834,0,0.998920
0.9837920197977834,0,0.998866
0.9837920197977834,0,0.998831
0.9841185498458938,0,0.999511
0.9841185498458938,0,0.999046
0.9841185498458938,0,0.998996
0.9841185498458938,0,0.998936
0.9841185498458938,0,0.998877
0.9841185498458938,0,0.998840
0.9844656586775318,0,0.999511
0.9844656586775318,0,0.999047
0.9844656586775318,0,0.998996
0.9844656586775318,0,0.998939
0.9844656586775318,0,0.998877
0.9844656586775318,0,0.998840
0.9848333218186438,0,0.999385
0.9848333218186438,0,0.999041
0.9848333218186438,0,0.998986
0.9848333218186438,0,0.998928
0.9848333218186438,0,0.998871
0.9848333218186438,0,0.998835
0.9852212765682463,0,0.999073
0.9852212765682463,0,0.999030
0.9852212765682463,0,0.998974
0.9852212765682463,0,0.998915
0.9852212765682463,0,0.998862
0.9852212765682463,0,0.998905
0.9856289987936118,0,0.999061
0.9856289987936118,0,0.999011
0.9856289987936118,0,0.998957
0.9856289987936118,0,0.998897
0.9856289987936118,0,0.998850
0.9860556846466798,0,0.999511
0.9860556846466798,0,0.999047
0.9860556846466798,0,0.998996
0.9860556846466798,0,0.998938
0.9860556846466798,0,0.998876
0.9860556846466798,0,0.998839
0.9865002387844486,0,0.999073
0.9865002387844486,0,0.999030
0.9865002387844486,0,0.998974
0.9865002387844486,0,0.998915
0.9865002387844486,0,0.998861
0.9865002387844486,0,0.998838
0.9869612705544263,0,0.999059
0.9869612705544263,0,0.999009
0.9869612705544263,0,0.998954
0.9869612705544263,0,0.998894
0.9869612705544263,0,0.998848
0.9954407394197383,1,0.999999
0.9496484685417445,0,0.999077
0.9496484685417445,0,0.999035
0.9496484685417445,0,0.998981
0.9496484685417445,0,0.998921
0.9496484685417445,0,0.998865
0.9496484685417445,0,0.998830
0.9496484685417445,0,0.999072
0.9496484685417445,0,0.999028
0.9496484685417445,0,0.998972
0.9496484685417445,0,0.998913
0.9496484685417445,0,0.998859
0.9869619093862,1,0.999997
0.9996973409270709,1,0.999987
0.9999260709025579,1,0.999996
0.9999300016077536,1,0.999992
0.9815175164944685,1,0.999992
0.9999358663467319,1,0.999991
0.9999959954457384,1,0.999998
0.9997103433535496,1,0.999999
0.9999153653948758,1,0.999996
0.9999809944812349,1,0.999991
0.9998428809504221,1,0.999996
0.9998629586951128,1,0.999980
0.9996867449795879,1,0.999964
0.9995760171959512,1,0.999995
0.9997476304935382,1,0.999993
0.9997485499429083,1,0.999988
0.9996760283322682,1,0.999989
0.999999563903068,1,0.999995
0.9999999985055779,1,0.999998
0.998437913199808,1,0.999981
0.9997176351858564,1,0.999970
0.9997407122646341,0,0.981172
0.9997829442730309,1,0.999965
0.9996549756457083,1,0.999993
0.9997472499255212,1,0.999999
0.9997237385884316,1,0.999999
0.9997237385884316,1,0.999999
0.9997276560491811,1,0.999999
0.9997276560491811,1,0.999999
0.9997556581556891,1,0.999999
0.9997556581556891,1,0.999999
0.9997568340401692,1,0.999999
0.9997620239938662,1,0.999999
0.9997620239938662,1,0.999999
0.9997530242245496,0,0.999132
0.9997530242245496,0,0.999852
0.9999837125706961,1,0.999994
0.9972032730467192,1,0.999972
0.999993783499636,1,0.999959
0.9999995412285738,1,0.999999
0.9996666979267889,1,0.999999
0.9999612052112928,1,0.999999
0.999999983775681,1,0.999999
1.0,1,0.999999
0.9999999984665701,1,0.999999
0.9999999999999082,1,0.999999
0.9999999999971887,1,0.999994
0.9999999996956738,1,0.999999
0.9998870775275942,1,0.999998
0.9999995939954403,1,0.999999
0.9998769449436032,1,0.999961
0.9991044265190872,1,0.999988
1.0,1,0.999999
0.9999999999998705,1,0.999999
0.9999999999999061,1,0.999999
0.9999999999294429,1,0.999999
0.9999999999999035,1,0.999995
0.9999999999999332,1,0.999999
1.0,1,0.999998
0.9999999999999777,1,0.999999
0.9999999999999851,1,0.999998
0.999999999999986,1,0.999999
1.0,1,0.999999
0.9999999999999827,1,0.999998
1.0,1,0.999998
1.0,1,0.999999
0.9999410987376633,1,0.999998
