-2.3642084775503005E-5,0,0.999631
-2.3642084775503005E-5,0,0.999625
-2.3642084775503005E-5,0,0.999620
-2.3642084775503005E-5,0,0.999615
-2.3642084775503005E-5,0,0.999608
-2.3642084775503005E-5,0,0.999602
-2.3642084775503005E-5,0,0.999596
-2.3642084775503005E-5,0,0.999589
-2.3642084775503005E-5,0,0.999580
-2.3642084775503005E-5,0,0.999573
-2.3642084775503005E-5,0,0.999567
-2.3642084775503005E-5,0,0.999560
-2.3642084775503005E-5,0,0.999551
-2.3642084775503005E-5,0,0.999544
-2.3642084775503005E-5,0,0.999538
-2.3642084775503005E-5,0,0.999530
-2.3642084775503005E-5,0,0.999522
-2.3642084775503005E-5,0,0.999514
-2.3642084775503005E-5,0,0.999505
-2.3642084775503005E-5,0,0.999496
-2.3642084775503005E-5,0,0.999486
-2.3642084775503005E-5,0,0.999478
-2.3642084775503005E-5,0,0.999471
-2.3642084775503005E-5,0,0.999460
-2.3642084775503005E-5,0,0.999449
-2.3642084775503005E-5,0,0.999442
-2.3642084775503005E-5,0,0.999436
-2.3642084775503005E-5,0,0.999429
-2.3642084775503005E-5,0,0.999425
-2.3642084775503005E-5,0,0.999420
-2.3642084775503005E-5,0,0.999416
-2.3642084775503005E-5,0,0.999411
-2.3642084775503005E-5,0,0.999406
-2.3642084775503005E-5,0,0.999398
-2.3642084775503005E-5,0,0.999385
-2.3642084775503005E-5,0,0.999371
-2.3642084775503005E-5,0,0.999354
-2.3642084775503005E-5,0,0.999339
-2.3642084775503005E-5,0,0.999317
-2.3642084775503005E-5,0,0.999300
-2.3642084775503005E-5,0,0.999283
-2.3642084775503005E-5,0,0.999252
-2.3642084775503005E-5,0,0.999230
-2.3642084775503005E-5,0,0.999209
-2.3642084775503005E-5,0,0.999186
-2.3642084775503005E-5,0,0.999162
-2.3642084775503005E-5,0,0.999124
