0.004894135213223941,0,0.907152
0.9301504686812294,0,0.999771
0.6419141797892011,0,0.999349
0.9440312871492986,0,0.873835
0.891194882041973,0,0.995457
0.9438537121852949,0,0.995176
0.9880952597261573,0,0.997047
0.9982032439232108,0,0.995750
0.998226505796489,0,0.998690
0.984798781412171,0,0.994075
0.8326347616758076,0,0.998428
0.874568628293372,0,0.999786
0.9777780496833834,0,0.999664
0.8550678055003934,0,0.999878
0.5868429157576041,0,0.998804
0.9798998414993192,1,0.999982
0.9970837123284723,1,0.999991
0.9971123505751885,1,0.999992
0.9971123505751951,0,0.999888
0.997150473581481,0,0.999751
0.9971579192424163,0,0.998376
0.9767171367214956,0,0.999848
0.9334014330362524,1,0.999977
0.7157956289208806,0,0.999715
0.7973903469917352,0,0.998684
0.8753660053572573,0,0.998643
0.7426776316076921,0,0.991388
0.9893088113468811,0,0.992080
0.9962448461095587,0,0.999006
0.995374626388508,1,0.999991
0.9940484306364681,0,0.999873
0.9576404283785204,0,0.991281
0.9591078054732732,0,0.999823
0.9565366030316023,1,0.999962
0.9368241584565299,0,0.999883
0.9603100588526472,1,0.999981
0.9281623820144829,0,0.999767
0.917038161555414,0,0.998765
0.5110390854380218,0,0.987674
0.996233057613736,1,0.999978
0.9960121489648043,0,0.999048
0.8312358537844846,0,0.998965
0.6072966960675703,1,0.999834
0.9653797169335421,0,0.999824
0.9461482880711657,0,0.963072
0.9638702907601444,1,0.999986
0.9832610990899877,0,0.965469
0.9881398910560166,0,0.958027
0.8805164540782384,0,0.958015
0.608437663479573,0,0.976686
0.9404070718321298,1,0.999951
0.34947165606019953,0,0.999567
0.8910606954598888,1,0.999972
0.7540159348800798,1,0.999866
0.987955426892171,0,0.999480
0.9625616610394879,1,0.999710
0.9672872145718772,0,0.999604
0.958204619177782,0,0.999618
0.6343166592225725,1,0.999906
0.9246917149936646,0,0.995411
0.7350217335010139,0,0.999668
0.9072081749437219,0,0.999608
0.9868001911691775,1,0.999983
0.8574581253617493,0,0.995866
0.9854996691812162,1,0.999930
0.9903077690302428,1,0.999936
0.9892435653083035,1,0.999968
0.994232511681234,1,0.999918
0.9655469636678587,1,0.999980
0.9789373241264382,1,0.999875
0.9922633613714023,1,0.999919
0.9802638507480197,1,0.999938
0.9845495573750159,1,0.999918
0.9976173909193099,1,0.999938
0.9992584760322573,1,0.999879
0.9986349765268201,1,0.999917
0.9974006805803708,1,0.999937
0.9889934083565327,1,0.999932
0.9939033669218106,1,0.999934
0.9998509745326654,1,0.999934
0.9939935154663241,1,0.999916
0.9975096558604756,1,0.999921
0.9995496869163149,1,0.999921
0.9950796595700585,1,0.999665
0.9858687068980221,1,0.999917
0.9964502139537337,1,0.999853
0.994359877601301,1,0.999925
0.991496581673146,1,0.999909
0.998922557436264,1,0.999926
0.991648640089764,1,0.999911
0.9963767188988669,1,0.999928
0.9973528280579538,1,0.999925
0.9797176378867641,1,0.999930
0.9528506754672258,1,0.999633
0.9991124234408536,1,0.999922
0.9754149970062341,1,0.999913
0.9345638671871058,1,0.999977
0.9938351452893751,1,0.999924
0.9943095927774626,1,0.999919
0.9972375657914644,1,0.999763
0.9996865135132657,1,0.999912
0.9990511397353452,1,0.999906
0.9983941558301703,1,0.999916
0.9945346628827778,1,0.999860
0.9991921546065083,1,0.999918
0.9994087120615546,1,0.999928
0.999841600546188,1,0.999967
0.9658410033973602,1,0.999878
0.9801469661753567,1,0.999912
0.9857839538751749,0,0.998131
0.9288119699378284,1,0.999955
0.832003980125163,1,0.999895
0.9058877033937175,1,0.999345
0.9788971762962555,1,0.999910
0.990974301091655,0,0.994804
0.8593408967571817,0,0.999334
0.9832475321366209,0,0.999660
0.9377727664440868,1,0.999381
0.9942685735727373,1,0.999804
0.9904812539834461,1,0.999843
0.9896584841374635,1,0.999746
0.9973405539607884,1,0.999902
0.9986365083279847,1,0.999848
0.9910596955270595,1,0.999867
0.9892500356530203,1,0.999841
0.9995592232556643,1,0.999846
0.9993119465876121,1,0.999864
0.9783836267207753,1,0.999872
0.9987002262301531,1,0.999851
0.9909398507672537,1,0.999724
0.9987024588857757,1,0.999860
0.9973001921474991,1,0.999877
0.997006439359728,1,0.999753
0.9878828495926467,1,0.999358
0.9902234632379328,1,0.999871
0.9751067046370976,1,0.999920
0.9906787579839001,1,0.999871
0.8665695157730309,1,0.999488
0.998411359277297,1,0.999890
0.9851058808745827,1,0.999901
0.9918674682153471,1,0.999914
0.9960250223642648,1,0.999891
0.9940690840318102,1,0.999891
0.9941295161272221,1,0.999908
0.9994440041409852,1,0.999904
0.994512728462855,1,0.999743
0.9983476204453213,1,0.999892
0.9954282748217559,1,0.999881
0.9915191352275694,1,0.999899
0.9982129664079881,1,0.999896
0.9986849352276892,1,0.999908
0.9995078975705396,1,0.999907
0.998273290956683,1,0.999810
0.9947871753724882,1,0.999622
0.9990792925335078,1,0.999882
0.9987340716609119,1,0.999867
0.9900422140034535,1,0.999898
0.9993926540183432,1,0.999908
0.9788747594004984,1,0.999884
0.9943646214775992,1,0.999909
0.9833954325368807,1,0.999903
0.986268486424307,1,0.999918
0.9868128790097773,1,0.999877
0.9928513489918288,1,0.999961
0.985562425511057,1,0.999917
0.8643547647842824,1,0.999939
0.9987568803313455,1,0.999947
0.9729072078100263,1,0.999937
0.9987350977331223,1,0.999795
0.9941022207916875,1,0.999973
0.9979386979329634,1,0.999678
0.999491142965374,1,0.999878
0.9989496976730033,1,0.999973
0.9980479985453534,1,0.999914
0.9895337939483142,1,0.999684
0.9989160241760184,1,0.999704
0.9964854127238185,1,0.999863
0.9989515290345933,1,0.999766
0.9999292422866481,1,0.999899
0.99922946586379,1,0.999971
0.9981757139632843,1,0.999816
0.997373862915086,1,0.999895
0.9930835908861969,1,0.999701
0.9994480066462297,1,0.999909
0.9987353641953294,1,0.999895
0.9995554470266164,1,0.999910
0.9986917435797863,1,0.999913
0.9996935378714653,1,0.999915
0.9984811979132653,1,0.999905
0.9993178058316058,1,0.999920
0.9806227909494851,1,0.999699
0.9973163077864604,1,0.999887
0.9946619534375464,1,0.999944
0.9974788602557001,1,0.999966
0.9463705256692314,1,0.999866
0.9899409696521181,1,0.999885
0.9971368556497056,1,0.999911
0.9977395558589522,1,0.999839
0.9936009200231999,1,0.999892
0.9798393247377991,1,0.999887
0.9912589762478942,1,0.999919
0.9907579949352187,1,0.999953
0.9687073679523542,1,0.999852
0.9956902415952985,1,0.999771
0.9899647507077048,1,0.999905
0.9992715074631042,1,0.999920
0.9953627177874098,1,0.999783
0.9944751454864259,1,0.999887
0.9982727630651697,1,0.999943
0.9913223736533123,1,0.999860
0.9771909118706538,1,0.999548
0.9887628569285475,1,0.999893
0.9891952584399184,1,0.999827
0.9943787258097425,1,0.999932
0.9929580352386227,1,0.999943
0.9869895954008192,1,0.999937
0.9997421331781394,1,0.999937
0.977129355159603,1,0.999926
0.9875095802421061,1,0.999916
0.9478041105323577,1,0.999886
0.9965965483712886,1,0.999867
0.9982864163121669,1,0.999931
0.9972929939737631,1,0.999876
0.9987273795793555,1,0.999896
0.9967366240438515,1,0.999908
0.9940435147001196,1,0.999837
0.9777080356338197,1,0.999918
0.9899941726425047,1,0.999905
0.9957919259337499,1,0.999853
0.9961658199019977,1,0.999932
0.9973370211271035,1,0.999881
0.9924116499001415,1,0.999841
0.9862115598224959,1,0.999933
0.9969628971072106,1,0.999891
0.9499744215435296,1,0.999912
0.9971935101611622,1,0.999909
0.9802142764725339,1,0.999889
0.9520228028929045,1,0.999869
0.9962621997429849,1,0.999905
0.9981486055748312,1,0.999944
0.9866748286027259,1,0.999864
0.9991984601441748,1,0.999856
0.9980955445415565,1,0.999903
0.9976551571820723,1,0.999878
0.9984034127788562,1,0.999740
0.9971784799708021,1,0.999723
0.9990773108364094,1,0.999857
0.9905874925980473,1,0.999860
0.9913670709620532,1,0.999893
0.990498087148277,1,0.999791
0.9892393496964199,1,0.999866
0.9930233632000853,1,0.999680
0.9757975854466452,1,0.999844
0.9976700512817719,1,0.999754
0.9949967688147544,1,0.999570
0.9895442828002818,1,0.999909
0.9986281496706805,1,0.999917
0.9955147802754097,1,0.999891
0.9964082241292699,1,0.999921
0.9952115313997604,1,0.999916
0.9944286877332521,1,0.999902
0.9955938331764117,1,0.999777
0.9975206879774333,1,0.999904
0.9948641116714443,1,0.999477
0.9985124563549267,1,0.999861
0.9986080246142337,1,0.999847
0.9994512142476226,1,0.999930
0.9876375727119704,1,0.999939
0.9878995513514873,1,0.999911
0.9981060518266968,1,0.999933
0.9979162402189761,1,0.999864
0.9884419030698954,1,0.999935
0.8952227477798748,0,0.998413
0.9666062284627733,1,0.999926
0.9915687947423178,1,0.999627
0.9966747107227896,1,0.999766
0.9972467365530427,1,0.999934
0.9951603214316669,1,0.999768
0.9453638369202267,1,0.999297
0.9871125469564545,1,0.999500
0.9992189931497742,1,0.999902
0.9970685513505321,1,0.999918
0.9971090085399675,1,0.999851
0.9891449666141086,1,0.999709
0.9946901240588675,1,0.999919
0.9913912052225902,1,0.999923
0.9086278917514552,1,0.999386
0.9959574188490823,1,0.999828
0.9945591063038469,1,0.999893
0.996633742548986,1,0.999913
0.9896297829881988,1,0.999721
0.975969567105278,1,0.999924
0.9966364067404694,1,0.999918
0.984225022614389,1,0.999391
0.9895202547269446,1,0.999898
0.9872797379169806,1,0.999924
0.9929268500497366,1,0.999796
0.9994647799794457,1,0.999812
0.9926683665215222,1,0.999356
0.9459448639600411,0,0.999265
0.9957625864880348,1,0.999773
0.9253156783890976,1,0.999667
0.9834736767406517,1,0.999891
0.9945209266673541,1,0.999890
0.9855169251116547,1,0.999851
0.9972467834186289,1,0.999900
0.9949014696366539,1,0.999582
0.9980021413830097,1,0.999926
0.9936253397453447,1,0.999930
0.994251911946009,1,0.999921
0.9973059565192807,1,0.999923
0.9936739365362797,1,0.999928
0.9973496541762894,1,0.999910
0.9918186943406169,1,0.999557
0.9824751899968598,1,0.999856
0.9844328716413172,1,0.999848
0.9956671685852028,1,0.999897
0.996345815383673,1,0.999801
0.9889944202676412,1,0.999370
0.9776637325400346,1,0.999549
0.9955691920026069,1,0.999786
0.9983053264970817,1,0.999937
0.9972781063921444,1,0.999932
0.985682545423423,1,0.999877
0.9957715638597909,1,0.999890
0.9964161976249154,1,0.999903
0.9927142247179045,1,0.999901
0.9783963295913239,1,0.999826
0.9982425033750233,1,0.999921
0.9976619288408509,1,0.999906
0.9814454517996523,1,0.999922
0.9945366833793423,1,0.999937
0.997474015825633,1,0.999939
0.9920174340021789,1,0.999868
0.9754208125906313,1,0.999893
0.9637269484707145,1,0.999885
0.9984181149876479,1,0.999924
0.99782808445617,1,0.999919
0.9788860780572761,1,0.999939
0.9971435313151962,1,0.999885
0.9938804917881433,1,0.999821
0.7960231760993912,1,0.999875
0.9983986849227281,1,0.999920
0.9976854732612128,1,0.999907
0.9962405865056264,1,0.999932
0.9924000734120969,1,0.999763
0.9973166639453189,1,0.999814
0.9988912918876885,1,0.999923
0.999064481348051,1,0.999879
0.9941884712946445,1,0.999936
0.9977526032563853,1,0.999931
0.9947127566301806,1,0.999936
0.9920768235731521,1,0.999931
0.9966454448788108,1,0.999787
0.9992741315622226,1,0.999934
0.9975275501155189,1,0.999935
0.9842215046988565,1,0.999515
0.9867725086853566,1,0.999929
0.9996287408525464,1,0.999919
0.9684860493173091,1,0.999474
0.9994358518829451,1,0.999943
0.9952394394381182,1,0.999920
0.9959723145597437,1,0.999914
0.9978859589993603,1,0.999905
0.9974545927837247,1,0.999936
0.9263032952599107,1,0.999575
0.9942730984601623,1,0.999928
0.9890643025291771,1,0.999934
0.9955660303757601,1,0.999808
0.9987018983780898,1,0.999848
0.9953462981260265,1,0.999721
0.9991553014045947,1,0.999911
0.8778502896026903,1,0.999635
0.9981469626811363,1,0.999931
0.998827627520342,1,0.999802
0.9968461517481304,1,0.999911
0.9996001088954334,1,0.999934
0.9924967575112473,1,0.999883
0.993281512480067,1,0.999894
0.9801048334581907,1,0.999922
0.9823077568601943,1,0.999720
0.9825629526576939,1,0.999953
0.9956603187373881,1,0.999896
0.9965007988279935,1,0.999555
0.9920278383336856,1,0.999489
0.9860260380282447,1,0.999863
0.9896979888195484,1,0.999896
0.9834540101197704,1,0.999952
0.9985858308322791,1,0.999961
0.9950791920566349,1,0.999891
0.998106018292845,1,0.999917
0.9879475322055554,1,0.999378
0.9900784304704858,1,0.999814
0.9922910116707705,1,0.999926
0.997813183246572,1,0.999618
0.9209857924275087,1,0.999679
0.9761921946447057,1,0.999840
0.9913980618360388,1,0.999772
0.99627221464647,1,0.999802
0.9939066288228081,1,0.999778
0.9984682288366201,1,0.999889
0.9941534140503091,1,0.999653
0.9945017294094517,1,0.999869
0.9929341018063544,1,0.999922
0.9975332091656611,1,0.999828
0.9907983394722458,1,0.999886
0.9894915837558078,1,0.999902
0.987482184783826,1,0.999813
0.9939819355946569,1,0.999911
0.8723839621227023,0,0.998938
0.9993237962105556,1,0.999917
0.9778224240372094,1,0.999695
0.9983838118629581,1,0.999964
0.9952786237035469,1,0.999857
0.9817056539786227,1,0.999930
0.9991250082512604,1,0.999879
0.9930568158641955,1,0.999900
0.9696365383974899,1,0.999926
0.9936952347334334,1,0.999916
0.9244831816882056,1,0.999919
0.9591556440706263,1,0.999804
0.985153081109018,1,0.999818
0.9993053394440244,1,0.999909
0.9990931056154062,1,0.999928
0.9961332355268627,1,0.999926
0.9962614166562599,1,0.999930
0.989915541375694,1,0.999897
0.9910372627917167,1,0.999703
0.931944495185258,1,0.999640
0.9982186917726694,1,0.999864
0.9978210567275463,1,0.999903
0.990492400538922,1,0.999878
0.9970086127276637,1,0.999945
0.9924621830483193,1,0.999850
0.9986460570604638,1,0.999951
0.9821891833495988,1,0.999661
0.9875235340024279,1,0.999970
0.9891553120670494,1,0.999751
0.9465559799839881,1,0.999712
0.983763443791455,1,0.999710
0.9612279525327566,1,0.999959
0.995760828551933,1,0.999958
0.9802342670797956,1,0.999868
0.978510612839133,1,0.999577
0.9911893578733064,1,0.999901
0.9800119276398129,1,0.999926
0.9960327731919755,1,0.999847
0.9830788230759081,1,0.999790
0.9890591443325051,1,0.999531
0.9956885775412204,1,0.999916
0.9976151406897886,1,0.999901
0.997053344890434,1,0.999863
0.9987670708164171,1,0.999917
0.9931176670144943,1,0.999697
0.9976269128265964,1,0.999893
0.9948813463781075,1,0.999922
0.9846780675160541,1,0.999729
0.9973473085297264,1,0.999945
0.9865771637389451,1,0.999911
0.9990214526165222,1,0.999879
0.9953125708466902,1,0.999777
0.9988598072835998,1,0.999836
0.998234000872802,1,0.999907
0.9905461886249829,1,0.999869
0.990651987350916,0,0.998089
0.9977095530061317,1,0.999900
0.9986433390809533,1,0.999248
0.9983146246789076,1,0.999888
0.9977044280970196,1,0.999903
0.9941680408266941,1,0.999856
0.9875685819987087,1,0.999859
0.980461441593666,1,0.999810
0.9979581754321527,1,0.999831
0.9940704091565397,1,0.999857
0.9959603884506855,1,0.999904
0.993978151357169,1,0.999888
0.997437465209724,1,0.999870
0.9986943032601661,1,0.999610
0.9931806062976453,1,0.999709
0.9989652108346763,1,0.999894
0.9904749726713998,1,0.999879
0.9867843903837323,1,0.999683
0.9870988083354526,1,0.999702
0.9923435948071955,1,0.999964
0.9955890051950739,1,0.999884
0.9956662685687023,1,0.999920
0.9868385018968988,1,0.999781
0.9671938347028253,1,0.999938
0.9975871983009948,1,0.999887
0.9986332849061199,1,0.999927
0.9955231061437851,1,0.999884
0.972702280200911,1,0.999925
0.998071769847524,1,0.999913
0.9853977240851579,1,0.999922
0.9975921156195051,1,0.999778
0.9838082337903289,1,0.999890
0.987864422241064,1,0.999962
0.9907104435546169,1,0.999876
0.9841627820568304,1,0.999916
0.9746796042089824,1,0.999884
0.9932442949926199,1,0.999880
0.9822855109362,1,0.999920
0.9681141538542027,1,0.999703
0.9986259770475785,1,0.999879
0.9983894090451318,1,0.999474
0.9925263369215682,1,0.999905
0.9693530203405296,1,0.999759
0.9859951770812807,1,0.999898
0.9908818991393229,1,0.999871
0.9939343109166215,1,0.999894
0.996757107306587,1,0.999892
0.998638698047435,1,0.999854
0.9991205975888238,1,0.999840
0.9978411791697287,1,0.999847
0.9983106203080497,1,0.999867
0.9961255410196749,1,0.999652
0.9875652254749598,1,0.999862
0.9975745751769433,1,0.999720
0.9930351864919402,1,0.999814
0.9996303607596363,1,0.999897
0.9921058274504767,1,0.999883
0.9970693525343052,1,0.999893
0.9883972631016402,1,0.999902
0.9760369164668529,1,0.999274
0.9852552359980514,1,0.999873
0.9764094190860028,1,0.999852
0.9882233922664864,1,0.999766
0.9992089012310797,1,0.999898
0.9995567451026577,1,0.999897
0.9967933500313516,1,0.999894
0.997081035425281,1,0.999783
0.9992644134200801,1,0.999874
0.9979999162001684,1,0.999893
0.9968062244533226,1,0.999784
0.9856603693144076,1,0.999791
0.9951668975495166,1,0.999770
0.9980074331307155,1,0.999673
0.9983023473076539,1,0.999903
0.9945196927642201,1,0.999895
0.9984359166282449,1,0.999886
0.9996458966256003,1,0.999895
0.9864008715454413,1,0.999901
0.9976750409566051,1,0.999905
0.992897144368009,1,0.999915
0.9985869838039534,1,0.999915
0.9952505795817015,1,0.999490
0.9995321622410385,1,0.999918
0.9947720922288468,1,0.999899
0.9802205314215962,1,0.999813
0.99509884436436,1,0.999654
0.9982664999181065,1,0.999904
0.9985155488407164,1,0.999897
0.9944418802047658,1,0.999890
0.9958696268659283,1,0.999889
0.9992107625027844,1,0.999913
0.9942355042065851,1,0.999889
0.9932175498393838,1,0.999882
0.9995631650388618,1,0.999899
0.9993015154745899,1,0.999902
0.9996336828237607,1,0.999917
0.9973417311709619,1,0.999912
0.9975335974078675,1,0.999833
0.9909635830729641,1,0.999912
0.999043372193449,1,0.999905
0.9935044912061918,1,0.999829
0.9874995805417977,1,0.999829
0.9904518298628322,1,0.999884
0.9983317985343839,1,0.999914
0.9985832569886189,1,0.999906
0.9998121255846623,1,0.999868
0.9995371116562933,1,0.999912
0.9976118950398881,1,0.999895
0.9994367483366295,1,0.999914
0.9960762704400978,1,0.999908
0.9990791764316289,1,0.999896
0.9929060214110887,1,0.999373
0.9901779778928221,1,0.999520
0.989772093121621,1,0.999807
0.9982412725620476,1,0.999903
0.9984283583130068,1,0.999801
0.9981554810979812,1,0.999914
0.9987234419567564,1,0.999875
0.9970898095275477,1,0.999894
0.9954330565885879,1,0.999913
0.9988236640713191,1,0.999804
0.9980448952643208,1,0.999874
0.9566783246232281,1,0.999836
0.9976426693720621,1,0.999837
0.9958402678548864,1,0.999891
0.995799275245355,1,0.999801
0.994624192979583,1,0.999922
0.9908512226673737,1,0.999918
0.991349856882576,1,0.999897
0.962627613225586,1,0.999653
0.9795499912538502,1,0.999930
0.9950545321895129,1,0.999905
0.9995944599480163,1,0.999863
0.9972135083365452,1,0.999929
0.9969603721062739,1,0.999780
0.997814726444902,1,0.999819
0.9860597600413497,1,0.999842
0.9961053556606368,1,0.999880
0.9525087573037332,1,0.999810
0.9779811117879498,1,0.999869
0.9986263762028229,1,0.999907
0.968080497029749,1,0.999887
0.995363864691864,1,0.999876
0.993192037697653,1,0.999699
0.9951754465204682,1,0.999889
0.9986341049172502,1,0.999910
0.9868134019311247,1,0.999869
0.986298625603688,1,0.999804
0.97701090133126,1,0.999731
0.996708549177832,1,0.999513
0.9967272906512629,1,0.999891
0.9755989523939541,1,0.999912
0.9944449937508053,1,0.999572
0.9935168929343847,1,0.999848
0.9513481747908241,1,0.999890
0.9760758130632812,0,0.998700
0.9805075458370002,1,0.999878
0.9945275450074107,1,0.999911
0.9978151528052212,1,0.999736
0.9993633480626792,1,0.999892
0.9881512710589103,1,0.999872
0.9972376492836996,1,0.999904
0.965588384470526,1,0.999880
0.9973892513806222,1,0.999906
0.9876155683919171,1,0.999872
0.986144770589351,1,0.999888
0.966742844772522,1,0.999958
0.9856946997449666,0,0.998687
0.992781878849246,1,0.999659
0.9994386456839978,1,0.999858
0.99147238236983,1,0.999906
0.9949429241930992,1,0.999915
0.9918881247723514,1,0.999887
0.9966755865768349,1,0.999897
0.9830822768539108,1,0.999772
0.9957638254883344,1,0.999922
0.996185313564684,1,0.999918
0.9962661912799692,1,0.999844
0.9976579180625268,1,0.999876
0.9808843006692076,1,0.999953
0.9793526047740514,1,0.999898
0.9913651361404491,1,0.999882
0.9825577499986113,1,0.999957
0.9889848582246722,1,0.999906
0.9942019382400585,1,0.999914
0.993697890626817,1,0.999883
0.9939692286281814,1,0.999895
0.9902791288843783,1,0.999950
0.9945203594821914,1,0.999960
0.9928167547321607,1,0.999684
0.9985802122379269,1,0.999902
0.9984820037237658,1,0.999903
0.9987960682797418,1,0.999724
0.9911769190394693,1,0.999918
0.998075572479959,1,0.999782
0.9964212648553502,1,0.999652
0.9951246609248041,1,0.999909
0.9929045776504282,1,0.999941
0.9903887520559709,1,0.999912
0.996913164868854,1,0.999788
0.9990330862631202,1,0.999913
0.9973762898507212,1,0.999789
0.9927962560222695,1,0.999822
0.9987121696287298,1,0.999897
0.9858828861359498,1,0.999963
0.9867386282558489,1,0.999880
0.9990858589281179,1,0.999895
0.9973304790340576,1,0.999914
0.9991857083390436,1,0.999574
0.9950409732083539,1,0.999904
0.9982636804928259,1,0.999897
0.9868219991005293,1,0.999883
0.9938563506215314,1,0.999891
0.9964267552376751,1,0.999903
0.9963682492881347,1,0.999912
0.9948182107049978,1,0.999857
0.9984916507251992,1,0.999920
0.9933278743324008,1,0.999737
0.9876072536473232,1,0.999859
0.998670910425051,1,0.999847
0.9858874947405247,1,0.999849
0.999355895156379,1,0.999916
0.9563834447643494,1,0.999894
0.9612367550097615,1,0.999893
0.9906736526872045,1,0.999853
0.9931389798862744,1,0.999836
0.9780626523579816,1,0.999885
0.9941810168913872,1,0.999885
0.9831157441645747,1,0.999841
0.9909033997583432,1,0.999869
0.99452161450642,1,0.999869
0.9761051877099328,1,0.999750
0.9489192458215188,1,0.999847
0.9151393550856912,1,0.999881
0.9756045768888754,1,0.999886
0.9867245010618527,1,0.999921
0.9698519580485938,1,0.999884
0.987434032442566,1,0.999643
0.99754583378431,1,0.999944
0.9854954404424432,1,0.999873
0.9906897566127842,1,0.999895
0.9940805090883804,1,0.999903
0.9934264937232947,1,0.999887
0.9939780628020032,1,0.999909
0.9996608029547425,1,0.999953
0.9921063640292497,1,0.999785
0.9922383706408573,1,0.999688
0.9858634724055318,1,0.999605
0.9972217666270164,1,0.999940
0.9960922445397571,1,0.999964
0.9868813720956696,1,0.999880
0.9828151716590254,1,0.999901
0.9872553676982261,1,0.999224
0.9864295659839665,1,0.999889
0.9869210682861171,1,0.999778
0.9963064756190624,1,0.999922
0.9955351311107158,1,0.999905
0.9930037781160953,1,0.999706
0.9980897179301212,1,0.999907
0.9973937079003949,1,0.999878
0.989393827343565,1,0.999900
0.9986724839679552,1,0.999914
0.9973740084767284,1,0.999749
0.9969651000222278,1,0.999872
0.9964175540502361,1,0.999700
0.9801592525174847,1,0.999718
0.9959992494581345,1,0.999723
0.9851581258759743,1,0.999759
0.9717231922604256,1,0.999852
0.9899402960226623,1,0.999703
0.9954893924316229,1,0.999800
0.9951607847531108,1,0.999894
0.9942747239501329,1,0.999867
0.99755481493326,1,0.999880
0.9958809010635634,1,0.999753
0.9850146453446533,1,0.999593
0.9682425255541871,1,0.999894
0.9660317759813102,1,0.999836
0.9976162385434121,1,0.999924
0.9108791224806747,1,0.999611
0.9811341469336565,1,0.999848
0.9988905416363894,1,0.999909
0.9962832319896957,1,0.999916
0.9992707679915505,1,0.999865
0.9954909392271378,1,0.999797
0.9944705459258224,1,0.999605
0.9990000505194642,1,0.999877
0.9538288011487348,1,0.999887
0.997678215277565,1,0.999886
0.9945564328380553,1,0.999474
0.9940862261622125,1,0.999903
0.9932478255706796,1,0.999905
0.9996059240396269,1,0.999851
0.9953361330939164,1,0.999920
0.9946744164956073,1,0.999913
0.9944347165399249,1,0.999884
0.9976844797297472,1,0.999904
0.9951758033652087,1,0.999891
0.9577578216797888,1,0.999488
0.9982900452435458,1,0.999451
0.9975965184158674,1,0.999778
0.9988397306693901,1,0.999914
0.9675185101481579,1,0.998956
0.9925253805678992,1,0.999877
0.9948554266185912,1,0.999826
0.992918639913391,1,0.999905
0.9970315434227607,1,0.999105
0.9966192023758514,1,0.999869
0.9920793648378355,1,0.999859
0.9973067773659336,1,0.999897
0.9987705614909875,1,0.999763
0.9975084493413306,1,0.999900
0.9940369382049911,1,0.999902
0.9904138304617631,1,0.999913
0.9908355595175857,1,0.999510
0.9977345225637643,1,0.999629
0.9910476377108971,1,0.999839
0.9846274467129214,1,0.999870
0.9943626040197312,1,0.999863
0.9977915357524181,1,0.999711
0.9989083433733759,1,0.999851
0.9994286114519425,1,0.999881
0.9947974785685562,1,0.999898
0.9798717232640748,1,0.999882
0.9985101307787083,1,0.999861
0.9972487836775614,1,0.999880
0.9985486747648318,1,0.999881
0.9925251773187845,1,0.999904
0.9985223440072045,1,0.999900
0.9966657200221367,1,0.999865
0.9966576718183672,1,0.999885
0.9971221262732642,1,0.999795
0.9948683462972191,1,0.999880
0.9728558628359305,1,0.999820
0.9689316856239371,1,0.999717
0.9862801336911274,1,0.999868
0.9640746885557469,1,0.999905
0.9729832218768976,1,0.999876
0.9992528326541611,1,0.999903
0.9906719333562769,1,0.999893
0.9961796582565439,1,0.999797
0.9860077692738947,1,0.999894
0.9964250530748285,1,0.999893
0.9918425623303843,1,0.999815
0.9742848577345089,1,0.998796
0.9704666451703408,1,0.999611
0.9509453276670399,1,0.999699
0.9988347728200252,1,0.999877
0.9986062723001459,1,0.999874
0.9982118428044688,1,0.999863
0.9948857231590329,1,0.999886
0.9995180576666896,1,0.999877
0.9943585451814884,1,0.999892
0.9957536631800519,1,0.999905
0.9954408995624552,1,0.999857
0.9977813601066378,1,0.999895
0.9868767389474132,1,0.999866
0.9962423659927406,1,0.999011
0.9950897481971155,1,0.999843
0.9985016391347226,1,0.999860
0.9976294607222661,1,0.999610
0.9973297450374677,1,0.999880
0.989651756666851,1,0.999812
0.9979157243434038,1,0.999761
0.9946101711089201,1,0.999863
0.9968096476029612,1,0.999883
0.9818362115476069,1,0.999629
0.9819709335941081,1,0.999887
0.9992338556581615,1,0.999773
0.9917029966548823,1,0.999892
0.9971653880797446,1,0.999884
0.9864196677642015,1,0.999850
0.9950087968203433,1,0.999879
0.9829477362474226,1,0.999751
0.9833305342860198,1,0.999901
0.9941756790822218,1,0.999901
0.9819610164022695,1,0.999746
0.9981602568357533,1,0.999811
0.9858449992672782,1,0.999839
0.9951724102522549,1,0.999851
0.9984209585825062,1,0.999859
0.9962899475078469,1,0.999913
0.9953605249641889,0,0.998701
0.9949170230669634,1,0.999884
0.986456240608535,1,0.999463
0.985994651607703,1,0.999904
0.9807877208044176,1,0.999810
0.9909646746283188,1,0.999669
0.9970257954142763,1,0.999808
0.9893617559997393,1,0.999882
0.995226737881726,1,0.999877
0.9886250609984369,1,0.999873
0.9668835891615428,1,0.999778
0.9890207964937,1,0.999883
0.9994456398639697,1,0.999885
0.998817926016693,1,0.999798
0.961237767920198,1,0.999899
0.9904467937623929,1,0.999789
0.9907322084354391,1,0.999859
0.9964844928930704,1,0.999847
0.9986780566417801,1,0.999908
0.9986277331207821,1,0.999891
0.9958397309602987,1,0.999549
0.9952980503321384,1,0.999916
0.9635227989216071,1,0.999488
0.9982087140945737,1,0.999855
0.9954914700939966,1,0.999893
0.989907858526451,1,0.999775
0.9952181481531742,1,0.999868
0.9992081880270869,1,0.999785
0.9621873129390812,1,0.999907
0.9776950554618068,1,0.999895
0.9582836136312239,1,0.999853
0.995575849071297,1,0.999790
0.9862291790421882,1,0.999875
0.9900804495866294,1,0.999886
0.9748320600364453,1,0.999908
0.9947711640651186,1,0.999917
0.9976251160037714,1,0.999890
0.9631371112083511,1,0.999490
0.9926536902279232,1,0.999915
0.9932367811886843,1,0.999894
0.9867986824080114,1,0.999907
0.9921587002733855,1,0.999904
0.9909329528351816,1,0.999917
0.9982213162507282,1,0.999906
0.9969538809783366,1,0.999916
0.9919479223914774,1,0.999905
0.985884764152578,1,0.999815
0.9859057162959293,1,0.999796
0.9781161736061017,1,0.999658
0.9905926984306948,1,0.999888
0.9925450389168536,1,0.999697
0.9853626407626194,1,0.999911
0.9892521383455836,1,0.999895
0.9771121484093807,1,0.999902
0.9781621806549068,1,0.999906
0.9954248876003863,1,0.999608
0.9931220972688577,1,0.999928
0.9995423789815215,1,0.999906
0.9957947099756236,1,0.999947
0.9957540720095318,1,0.999800
0.9955714117592984,1,0.999901
0.9990281960815102,1,0.999909
0.9910629857918946,1,0.999947
0.9969662691286163,1,0.999904
0.9955948938296129,1,0.999903
0.9949424126985257,1,0.999842
0.9925909238915549,1,0.999893
0.990237241204481,1,0.999821
0.9963054319108435,1,0.999878
0.9964119513486468,1,0.999848
0.9996501058091608,1,0.999900
0.9940382225661907,1,0.999741
0.9837220337589099,1,0.999775
0.9911124765131198,1,0.999897
0.9924105219019168,1,0.999705
0.9940679629759612,1,0.999891
0.9968141106559301,1,0.999896
0.9945510081346621,1,0.999855
0.9947876226685269,1,0.999890
0.9961295320148364,1,0.999904
0.9949747938022259,1,0.999905
0.9962765141981346,1,0.999909
0.9842763868336696,1,0.999840
0.997666282997562,1,0.999917
0.9956271941346857,1,0.999905
0.996793387037253,1,0.999909
0.9980443229715772,1,0.999910
0.9936417114380843,1,0.999875
0.9985662276409507,1,0.999910
0.9993845558318383,1,0.999909
0.9961663713224643,1,0.999714
0.9980867687833258,1,0.999860
0.9988647117019986,1,0.999909
0.991965542296873,1,0.999886
0.9979484629733351,1,0.999896
0.9987282721982162,1,0.999914
0.9893673270219359,1,0.999905
0.9942628643038142,1,0.999552
0.9974880717908431,1,0.999915
0.992840531757847,1,0.999919
0.9971662411388083,1,0.999892
0.9964197995887409,1,0.999945
0.96155751957329,1,0.999910
0.9980964044901381,1,0.999867
0.9966909835179643,1,0.999869
0.9967575690486149,1,0.999880
0.9985222430350941,1,0.999846
0.9978330925071193,1,0.999869
0.9977323192877138,1,0.999899
0.9816631139771258,1,0.999771
0.9944579644683871,1,0.999871
0.9974645822720072,1,0.999909
0.9894510987285343,1,0.999894
0.9964472164706834,1,0.999725
0.9984391530519596,1,0.999897
0.9976259953203324,1,0.999561
0.999223585505284,1,0.999903
0.9915626524941349,1,0.999876
0.9985078149794012,1,0.999754
0.9986655233015754,1,0.999879
0.9949769379682062,1,0.999895
0.9984061261080456,1,0.999764
0.9957808903479729,1,0.999868
0.9995690941913654,1,0.999904
0.9995487785610587,1,0.999705
0.9995062105277506,1,0.999843
0.9992996691403779,1,0.999886
0.9958787572811576,1,0.999578
0.9981679562259987,1,0.999855
0.9945088720226695,1,0.999895
0.9996072677736636,1,0.999901
0.9993413091118397,1,0.999777
0.9891284812402632,1,0.999762
0.9981114974465076,1,0.999855
0.9994841371316647,1,0.999805
0.996701396275382,1,0.999736
0.9989148504844978,1,0.999884
0.9992339274344856,1,0.999866
0.9992397439025409,1,0.999862
0.9978138114665195,1,0.999867
0.9989815025484431,1,0.999904
0.9994048497488763,1,0.999895
0.996299569325867,1,0.999893
0.9992107359990035,1,0.999898
0.99957449165924,1,0.999893
0.9997554847030086,1,0.999892
0.9988540639179793,1,0.999797
0.9935413350580558,1,0.999616
0.9979259663725261,1,0.999789
0.9964144328991629,1,0.999897
0.9986724276362376,1,0.999898
0.9989853514571023,1,0.999881
0.9390731521238336,1,0.999178
0.9918161167641526,1,0.999869
0.9955524479953011,1,0.999887
0.9963968585064582,1,0.999901
0.9943010609317178,1,0.999905
0.988470554142416,1,0.999858
0.995669631996556,1,0.999895
0.9985312725765639,1,0.999952
0.997200368788512,1,0.999947
0.9961453167186564,1,0.999893
0.9973047743897696,1,0.999873
0.9994615096412282,1,0.999862
0.9925136398185092,1,0.999873
0.9776388972736947,1,0.999881
0.9969629420497742,1,0.999905
0.99521893523655,1,0.999870
0.9989352604248735,1,0.999890
0.9934545527507552,1,0.999882
0.9972560734537711,1,0.999900
0.9813053722621691,1,0.999931
0.9928378157330422,1,0.999883
0.9954203475020275,1,0.999880
0.9953736135406074,1,0.999904
0.998580540723681,1,0.999858
0.9974203315909455,1,0.999901
0.9847272970338733,1,0.999872
0.9988826062301897,1,0.999908
0.9994468903198463,1,0.999952
0.9993481025279892,1,0.999909
0.9985701629865501,1,0.999810
0.9941624493928315,1,0.999917
0.9975686930764404,1,0.999860
0.9864094850784644,1,0.999684
0.9931358886873597,1,0.999903
0.9867120608135133,1,0.999718
0.9974539759407568,1,0.999748
0.9947920716091507,1,0.999882
0.9974337581411847,1,0.999884
0.997380336037846,1,0.999858
0.9978405142771465,1,0.999887
0.9973877973020343,1,0.999946
0.9928148012370462,1,0.999888
0.9975514809745917,1,0.999901
0.9881766444396884,1,0.999919
0.9984211169442931,1,0.999886
0.9821357269403443,1,0.999756
0.9987144371074262,1,0.999878
0.987584790936713,1,0.999894
0.9964974086294628,1,0.999640
0.994773198052592,1,0.999874
0.9963153183091471,1,0.999908
0.9988303761453997,1,0.999692
0.9922566635183521,1,0.999269
0.9992865920652129,1,0.999903
0.9981911945559416,1,0.999899
0.9707515908948036,1,0.999632
0.9932256789070769,1,0.999883
0.9985572867800026,1,0.999902
0.9976720650548045,1,0.999940
0.9951614863401818,1,0.999941
0.9928821955335068,1,0.999872
0.991994894861403,1,0.999895
0.9980442635738804,1,0.999850
0.9855154665703592,1,0.999871
0.9988190003610662,1,0.999884
0.9990377722881033,1,0.999663
0.9990545337986816,1,0.999954
0.9934063841745553,1,0.999771
0.9798713772686855,1,0.999662
0.9761885128926346,1,0.999889
0.9885498866195113,1,0.999864
0.997481569564917,1,0.999850
0.9671373842226862,1,0.999695
0.9970793478993296,1,0.999864
0.9966603756940999,1,0.999627
0.9989183565446482,1,0.999917
0.9944589673951668,1,0.999899
0.9945152410684523,1,0.999782
0.9944286643757999,1,0.999862
0.9980697577561747,1,0.999882
0.974517931465489,1,0.999778
0.9978031714693214,1,0.999717
0.9976919235056368,1,0.999901
0.9932558725080652,1,0.999442
0.9874664753899648,1,0.999775
0.9910865413256229,1,0.999724
0.9757245979334253,1,0.999888
0.9928049976151727,1,0.999850
0.9973771474282355,1,0.999867
0.997898713168607,1,0.999667
0.994776878357226,1,0.999889
0.9976206393977985,1,0.999888
0.9885087295305042,1,0.999871
0.9946571334808791,1,0.999860
0.9984642127213655,1,0.999853
0.9951370464706658,1,0.999890
0.9927439416633215,1,0.999910
0.9948823335608629,1,0.999873
0.996605406094726,1,0.999877
0.9804183481308505,1,0.999854
0.9838248455957284,1,0.999885
0.995256892953005,1,0.999753
0.9956797047393982,1,0.999863
0.9961315849985524,1,0.999838
0.9901458911563114,1,0.999847
0.9980372137630023,1,0.999883
0.9939473570138831,1,0.999588
0.9792013110006116,1,0.999791
0.9771964768508942,1,0.999892
0.9953135174590345,1,0.999816
0.988854734490524,1,0.999925
0.9978145111561282,1,0.999899
0.9980541171588808,1,0.999932
0.992527153261972,1,0.999772
0.9947048806868097,1,0.999903
0.997103151926706,1,0.999922
0.9964271692379629,1,0.999889
0.9990860747545081,1,0.999893
0.9747595315036712,1,0.999896
0.9955303503824041,1,0.999906
0.9963311684303012,1,0.999879
0.9947110267239563,1,0.999885
0.9975377766317771,1,0.999867
0.9981443166846427,1,0.999875
0.9977076470797498,1,0.999778
0.9978881793469223,1,0.999880
0.9991695451005425,1,0.999860
0.9972438628023723,1,0.999668
0.9956607178232408,1,0.999825
0.9958444985466672,1,0.999753
0.9941824977905156,1,0.999886
0.9947038337914605,1,0.999370
0.9980457610668986,1,0.999893
0.9980187666391025,1,0.999883
0.9980300359134775,1,0.999906
0.9935499914469029,1,0.999875
0.9903018013328346,1,0.999875
0.9980790683192617,1,0.999804
0.9978934583738515,1,0.999693
0.995661715537656,1,0.999865
0.9978511326572467,1,0.999889
0.9965530411722868,1,0.999873
0.9913696409483386,1,0.999892
0.9964761110733734,1,0.999790
0.9967908779925732,1,0.999900
0.9994338882949187,1,0.999864
0.9963304861992129,1,0.999887
0.9994100172396994,1,0.999717
0.9917465163409334,1,0.999890
0.9198432794936829,1,0.999819
0.9984946725102988,1,0.999748
0.9977811030591445,1,0.999863
0.9752356073874466,1,0.999776
0.9962358709707886,1,0.999905
0.9957498627552753,1,0.999906
0.9852578244483209,1,0.999810
0.9973477082313904,1,0.999927
0.9878544720809445,1,0.999899
0.9936256090532337,1,0.999870
0.977372930730121,1,0.999897
0.9948846791607674,1,0.999872
0.9983803406784113,1,0.999757
0.9939864841199227,1,0.999890
0.9935722814010334,1,0.999846
0.9893178282052637,1,0.999864
0.9939773678500927,1,0.999884
0.9927183241988468,1,0.999946
0.9932889933650648,1,0.999951
0.9991162828829183,1,0.999877
0.9980851685358962,1,0.999461
0.993482666524502,1,0.999859
0.9926391550005881,1,0.999818
0.9989238272139559,1,0.999919
0.9985638618591035,1,0.999954
0.9941556400286992,1,0.999876
0.9987800894852168,1,0.999873
0.992072678235884,1,0.999895
0.9934171989209116,1,0.999694
0.9983947897376761,1,0.999862
0.9975503275171512,1,0.999879
0.993323465494017,1,0.999871
0.9922053056231341,1,0.999890
0.9981798473092325,1,0.999908
0.9957242521085518,1,0.999768
0.980843686176272,1,0.999901
0.9919053770040213,1,0.999884
0.9933449947017853,1,0.999746
0.9769267653732062,1,0.999900
0.9714836785409974,1,0.999892
0.9942227823317649,1,0.999879
0.9839373110168131,1,0.999771
0.9979390647676439,1,0.999907
0.9904941697639122,1,0.999889
0.9840455861374887,1,0.999888
0.9972817953378718,1,0.999921
0.997349753274422,1,0.999926
0.9912657853108109,1,0.999919
0.9991192335366182,1,0.999712
0.9969775227001114,1,0.999864
0.9953806545584224,1,0.999723
0.994311476536646,1,0.999719
0.9982725062715431,1,0.999952
0.987378816665438,1,0.999220
0.9939409837720342,1,0.999842
0.9983525913476154,1,0.999897
0.9960118331571804,1,0.999652
0.9977715117381103,1,0.999680
0.995543068264514,1,0.999943
0.9948052139139932,1,0.999897
0.9933874803473383,1,0.999687
0.9976008430323721,1,0.999890
0.9757317644259069,1,0.999913
0.9949671496253353,1,0.999919
0.9945624926386254,1,0.999866
0.9983150428174109,1,0.999910
0.9992554845621742,1,0.999905
0.9953024818417464,1,0.999550
0.9643272553327178,1,0.999674
0.9969378602981159,1,0.999894
0.998717492577299,1,0.999906
0.9982766862864952,1,0.999886
0.9948729376796903,1,0.999886
0.9945963563986011,1,0.999910
0.9963795181401693,1,0.999897
0.9937586308749224,1,0.999900
0.9991204945600247,1,0.999913
0.9978962981158039,1,0.999898
0.9977467406020617,1,0.999901
0.9979644961982999,1,0.999913
0.9947611575844012,1,0.999899
0.9959718817978087,1,0.999885
0.996633445213189,1,0.999878
0.9989081421359458,1,0.999899
0.9994387659383569,1,0.999892
0.9908222426560975,1,0.999887
0.9949875759913321,1,0.999619
0.9965903606798698,1,0.999891
0.996657446944238,1,0.999911
0.9958744714229567,1,0.999802
0.9965781602646501,1,0.999911
0.9972810603150232,1,0.999907
0.9965947384968068,1,0.999790
0.9914372336236806,1,0.999911
0.994596771276588,1,0.999906
0.9885574924075861,1,0.999809
0.9906565049977735,1,0.999817
0.9987634624767117,1,0.999909
0.9919454299274093,1,0.999885
0.9974124491049216,1,0.999790
0.9979834700936641,1,0.999915
0.9930748466953618,1,0.999882
0.9952078870481519,1,0.999898
0.9981626533558962,1,0.999907
0.9976658054087827,1,0.999886
0.9902183651669918,1,0.999827
0.9964994581020585,1,0.999916
0.9986325482715807,1,0.999914
0.999074819008824,1,0.999899
0.998404101287643,1,0.999602
0.9846584596444488,1,0.999903
0.9981066876835564,1,0.999898
0.997162784215858,1,0.999898
0.9987121696160747,1,0.999881
0.9976372307098161,1,0.999884
0.9957795974681417,1,0.999915
0.9967234163789719,1,0.999860
0.9943787827903574,1,0.999859
0.9984486506892046,1,0.999766
0.9985283280008139,1,0.999862
0.9933206117006615,1,0.999893
0.9962098149154834,1,0.999515
0.9948145192201856,1,0.999910
0.9986847991634864,1,0.999815
0.9853809878266888,1,0.999901
0.982478598924198,1,0.999733
0.9976616713930646,1,0.999807
0.9874951908919144,1,0.999901
0.995727987285307,1,0.999787
0.9962587779162188,1,0.999755
0.9960754848414268,1,0.999882
0.9942344156431495,1,0.999772
0.9924763429384877,1,0.999910
0.9866185725478616,1,0.999905
0.9983475382028063,1,0.999888
0.9169180071347937,1,0.999544
0.9760799836546895,1,0.999885
0.9978577888908741,1,0.999900
0.9961139358375746,1,0.999870
0.9947535014597246,1,0.999288
0.9968154152076035,1,0.999893
0.9982647187579967,1,0.999915
0.9971531725262313,1,0.999914
0.9989379131417101,1,0.999908
0.9994402504274578,1,0.999849
0.9992352152510068,1,0.999889
0.9906522218073731,1,0.999878
0.9973908080228895,1,0.999885
0.9929590271877522,1,0.999895
0.9790446986073827,1,0.999908
0.9783914403082995,1,0.999866
0.9900156050436515,1,0.999835
0.9858718802796562,1,0.999901
0.9910241188616269,1,0.999888
0.9895221171850268,1,0.999879
0.991533804063083,1,0.999767
0.9116612220801371,1,0.998812
0.9915665899028409,1,0.999818
0.9979720628334359,1,0.999887
0.9881095300133605,1,0.999889
0.9945663711792627,1,0.999917
0.9883247399355102,1,0.999922
0.9919561154239093,1,0.999890
0.9966763844910622,1,0.999953
0.9967680355703902,1,0.999941
0.9967840956189279,1,0.999581
0.9865993551542955,1,0.999643
0.9991968653499556,1,0.999871
0.9945133075864644,1,0.999924
0.9911329285208328,1,0.999907
0.9973660026067243,1,0.999895
0.998515172601797,1,0.999938
0.9983980468159175,1,0.999671
0.9985971837627703,1,0.999886
0.9975453380695455,1,0.999923
0.9990824818524535,1,0.999890
0.9953768054969415,1,0.999922
0.9931845529270175,1,0.999882
0.9989423152618796,1,0.999881
0.9985867377033742,1,0.999915
0.9975049606486754,1,0.999898
0.9978789158649305,1,0.999906
0.9853471965595455,1,0.999859
0.9905488650083649,1,0.999889
0.9913691197350686,1,0.999897
0.9988688125685317,1,0.999884
0.9990279802567252,1,0.999890
0.999204701379893,1,0.999890
0.9953469125099074,1,0.999893
0.9925321689283502,1,0.999909
0.9973533722226373,1,0.999896
0.9953005840798829,1,0.999844
0.9834842641443869,1,0.999580
0.985627915602275,1,0.999822
0.9946386812962714,1,0.999889
0.9948741087629152,1,0.999896
0.993903097252966,1,0.999828
0.9970412360910547,1,0.999898
0.9962790636216761,1,0.999870
0.9979868056352049,1,0.999881
0.9991207527017085,1,0.999899
0.9979262217651497,1,0.999832
0.9879550833227192,1,0.999833
0.995665497244372,1,0.999908
0.996390018117583,1,0.999861
0.995633010500632,1,0.999791
0.9981842107507207,1,0.999906
0.988813083429838,1,0.999873
0.9959722281084814,1,0.999900
0.9949793921762755,1,0.999886
0.9982437157599624,1,0.999892
0.9849292675675532,1,0.999900
0.9885789045549488,1,0.999908
0.9997432056137202,1,0.999686
0.994239886866162,1,0.999903
0.9915834379454056,1,0.999904
0.9962545729047934,1,0.999876
0.9938618599396872,1,0.999897
0.9985462100643671,1,0.999882
0.9960161547472937,1,0.999893
0.9944779007843215,1,0.999910
0.9956902896389737,1,0.999825
0.9988245943791495,1,0.999861
0.9967512109380994,1,0.999892
0.9930025941017575,1,0.999953
0.9986667644976762,1,0.999779
0.9979612219811018,1,0.999740
0.9975604816756176,1,0.999870
0.9933255946059796,1,0.999898
0.9827925204507821,1,0.999733
0.9807991729855596,1,0.999890
0.9909475809422619,1,0.999896
0.9945463358386931,1,0.999946
0.9871018451047704,1,0.999873
0.9965597012456773,1,0.999892
0.9924840777526001,1,0.999870
0.9974183110302278,1,0.999952
0.995015003943392,1,0.999855
0.9949269804849575,1,0.999632
0.9945824980086097,1,0.999875
0.9966292339867918,1,0.999838
0.9860130147537088,1,0.999897
0.9813272240054773,1,0.999114
0.9957849757455909,1,0.999771
0.9840721126224685,1,0.999847
0.9718671319410932,1,0.999899
0.9871481341568489,1,0.999902
0.9903850589067925,1,0.999826
0.9465432418088943,1,0.999874
0.9816532723992939,1,0.999887
0.9784378003922009,1,0.999871
0.9944274125324435,1,0.999373
0.9869644364273975,1,0.999564
0.9948559650401274,1,0.999841
0.9960368481534183,1,0.999906
0.9800858500017067,1,0.999773
0.9990265225294811,1,0.999852
0.9991092933685223,1,0.999896
0.973507325308184,1,0.999841
0.9981374880904925,1,0.999890
0.989013437664225,1,0.999903
0.98289813576133,1,0.999869
0.981114494382081,1,0.999896
0.97031914831872,1,0.999882
0.9787849986249194,1,0.999869
0.9886406350665966,1,0.999850
0.9977615819784579,1,0.999891
0.9977040611706485,1,0.999879
0.9969141840328377,1,0.999897
0.9974122720591665,1,0.999796
0.9962342907716766,1,0.999906
0.9983128122204995,1,0.999885
0.9975798262463635,1,0.999868
0.9989566600441749,1,0.999874
0.9960234012979532,1,0.999904
0.9963457972712634,1,0.999835
0.9966353725629649,1,0.999623
0.9989033281382074,1,0.999888
0.9976345670003364,1,0.999876
0.9988755169330895,1,0.999884
0.9912990915484599,1,0.999839
0.970051673581737,1,0.999912
0.997113462964774,1,0.999894
0.9993543329466766,1,0.999574
0.9968921496833546,1,0.999920
0.9979087060921468,1,0.999889
0.9981846776410538,1,0.999886
0.9994072816774513,1,0.999907
0.9974796527673417,1,0.999678
0.9929812886107536,1,0.999668
0.9960243625925249,1,0.999870
0.9947248042007415,1,0.999906
0.9960111118331516,1,0.999852
0.9986476985257033,1,0.999899
0.9979430333725043,1,0.999883
0.9831243180405691,1,0.999682
0.9834933892606397,1,0.999741
0.9847234131547586,1,0.999772
0.9975673611207017,1,0.999951
0.9907429320437054,1,0.999881
0.9968811903693996,1,0.999919
0.9971822447916542,1,0.999907
0.9959779120615039,1,0.999863
0.9794865109785185,1,0.999709
0.9992596560380897,1,0.999871
0.9991249585638909,1,0.999887
0.9938716383041841,1,0.999598
0.9961835725407066,1,0.999904
0.9963662726572967,1,0.999569
0.9917720090941847,1,0.999889
0.9988594346578638,1,0.999902
0.9992731194778564,1,0.999920
0.9663970990813642,1,0.999741
0.9845925449503781,1,0.999940
0.9936216578055733,1,0.999940
0.9963870506637191,1,0.999832
0.9987585266937725,1,0.999905
0.995455511140858,1,0.999879
0.9921500644985439,1,0.999724
0.9962901562514738,1,0.999872
0.9990758960796796,1,0.999952
0.9957152529661338,1,0.999865
0.9716050022415795,1,0.999469
0.9924980564821968,1,0.999579
0.9992935826125426,1,0.999884
0.9989547415486244,1,0.999948
0.9971375406251441,1,0.999867
0.9988728093386184,1,0.999891
0.9991903365871495,1,0.999895
0.9980139350501616,1,0.999728
0.9966074399740974,1,0.999473
0.9750227145334017,1,0.999890
0.984769839797097,1,0.999876
0.988808957409824,1,0.999914
0.9888831285129805,1,0.999920
0.9749897729916658,1,0.999777
0.98218465077931,1,0.999412
0.9976792985525037,1,0.999895
0.9964764320889705,1,0.999656
0.9945616371580875,1,0.999885
0.9919248289541744,1,0.999858
0.9943027507639886,1,0.999871
0.9898587533321203,1,0.999756
0.9932364924960155,1,0.999901
0.9958743771291361,1,0.999906
0.9895087847457855,1,0.999886
0.9981458488119266,1,0.999815
0.9980339348792149,1,0.999892
0.9959001062670689,1,0.999582
0.9954649622549039,1,0.999787
0.9960230766151416,1,0.999776
0.9891571988809273,1,0.999845
0.9988341826308694,1,0.999885
0.9975951508534286,1,0.999903
0.9969315534880467,1,0.999870
0.9961991590368412,1,0.999662
0.9988315443797491,1,0.999912
0.988008174691904,1,0.999804
0.9940101043700498,1,0.999886
0.9959785910488087,1,0.999764
0.992078627544167,1,0.999625
0.9965552504954878,1,0.999890
0.9865180548203851,1,0.999903
0.9932800125266488,1,0.999795
0.9990508035922719,1,0.999897
0.9954287668618326,1,0.999903
0.9995325411247948,1,0.999908
0.9984671943932827,1,0.999760
0.9990414954565077,1,0.999916
0.9972279451314003,1,0.999903
0.9973458895546392,1,0.999919
0.9964483637145769,1,0.999919
0.9755881134165727,1,0.999831
0.9971163394256192,1,0.999801
0.9984109902336233,1,0.999890
0.9970278700583294,1,0.999818
0.9992123753607155,1,0.999929
0.9972897630953698,1,0.999854
0.9963431407871006,1,0.999881
0.992233194103967,1,0.999864
0.9923152629009724,1,0.999886
0.9911183756187929,1,0.999885
0.9959540782578554,1,0.999861
0.9777202435726677,1,0.999793
0.9960586817147373,1,0.999849
0.9940270862539812,1,0.999651
0.993894867345336,1,0.999846
0.9806905959170286,1,0.999902
0.9412341953549811,1,0.999479
0.9812179255068442,1,0.999813
0.9987972861261201,1,0.999656
0.9989629491490218,1,0.999870
0.9382712507811374,1,0.999608
0.997688601603983,1,0.999895
0.9937646247258055,1,0.999578
0.9602062099737148,1,0.999456
0.9958533690196373,1,0.999820
0.9880578225039509,1,0.999895
0.9977236822032022,1,0.999714
0.9964522265229803,1,0.999882
0.9887797192814887,1,0.999820
0.9993106439253563,1,0.999881
0.9988895817589213,1,0.999855
0.9977645217380594,1,0.999834
0.9964850246346707,1,0.999823
0.9959160524898262,1,0.999834
0.9950542978743914,1,0.999748
0.8993815485201375,1,0.998882
0.9664512574560464,1,0.999878
0.9696954825453339,1,0.999888
0.9593142535388578,1,0.999876
0.9898773817326635,1,0.999736
0.9970321432008292,1,0.999930
0.9937650491839158,1,0.999726
0.9981354036621543,1,0.999824
0.9959534383122856,1,0.999850
0.9866497358416917,1,0.999828
0.9984417978749643,1,0.999878
0.9511838999117078,1,0.999694
0.9842749447655071,1,0.999750
0.9773807414231118,1,0.999718
0.9933161606520055,1,0.999489
0.9084729582455972,1,0.999840
0.9975367940256807,1,0.999869
0.9973265012490574,1,0.999869
0.9907658958124134,1,0.999886
0.99164319608578,1,0.999868
0.9984897288517055,1,0.999931
0.9968872809930042,1,0.999881
0.9940305023294216,1,0.999881
0.9948448656466561,1,0.999869
0.9895012962203363,1,0.999877
0.9940798096273652,1,0.999839
0.9948523982291473,1,0.999889
0.9967478988441505,1,0.999922
0.9854067085711188,1,0.999734
0.9839640023131863,1,0.999712
0.9732357753936139,1,0.999838
0.9960595841625213,1,0.999861
0.9981605075530607,1,0.999846
0.9955696368915379,1,0.999847
0.9909979116623954,1,0.999859
0.9712880253675911,1,0.999853
0.9960338617967527,1,0.999873
0.9983020845154019,1,0.999870
0.9932176971542432,1,0.999863
0.9935605715082712,1,0.999835
0.9966700823994019,1,0.999581
0.995693146659383,1,0.999883
0.9972396605721178,1,0.999718
0.9961157103757432,1,0.999894
0.9939697035626016,1,0.999848
0.9965427944457439,1,0.999740
0.9875170754006583,1,0.999592
0.9985679685879199,1,0.999857
0.9963683328274878,1,0.999604
0.9925762201113582,1,0.999923
0.9972800038450409,1,0.999839
0.9831925633561878,1,0.999864
0.9919193883738264,1,0.999639
0.9935912839879029,1,0.999867
0.9969048978062728,1,0.999870
0.9735411960624325,1,0.999866
0.9968392142157829,1,0.999756
0.9868784516863341,1,0.999877
0.9970412934210686,1,0.999887
0.9933457742923801,1,0.999905
0.9962731286140285,1,0.999879
0.9990798810187805,1,0.999700
0.9969288725611628,1,0.999654
0.9987227546734065,1,0.999892
0.9986214883851695,1,0.999772
0.995143952262725,1,0.999885
0.992033892134058,1,0.999883
0.9930809701997427,1,0.999739
0.9945329441052259,1,0.999880
0.9970206906679416,1,0.999880
0.9920507184729023,1,0.999890
0.990324861027602,1,0.999860
0.9949292652552262,1,0.999788
0.9957057140774518,1,0.999884
0.9950726417543289,1,0.999935
0.995321361598325,1,0.999689
0.9995285715357445,1,0.999861
0.994826675829259,1,0.999890
0.9981339520529939,1,0.999864
0.9971256073286144,1,0.999876
0.9861455908678648,1,0.999876
0.9973305303927242,1,0.999543
0.9950882893534707,1,0.999721
0.9952465591462859,1,0.999869
0.9883641407005894,1,0.999847
0.9982173290714825,1,0.999852
0.9961581107309551,1,0.999866
0.9923243263436134,1,0.999855
0.9865816676011621,1,0.999829
0.9982239833362546,1,0.999843
0.9936474036171129,1,0.999826
0.9951599865926145,1,0.999621
0.9925229224531854,1,0.999854
0.9982335196703875,1,0.999876
0.978205952516899,1,0.999375
0.9908571483336905,1,0.999487
0.9962663358291665,1,0.999879
0.9919913791712841,1,0.999870
0.9941154950601127,1,0.999852
0.9987853289243848,1,0.999851
0.9855686901103203,1,0.999727
0.9987179070407824,1,0.999849
0.9939795551004503,1,0.999883
0.9950479446144912,1,0.999854
0.9942580168733444,1,0.999915
0.9976434061500801,1,0.999877
0.9883720918770196,1,0.999881
0.9904805712824354,1,0.999849
0.9941440503358923,1,0.999856
0.9927760529897024,1,0.999717
0.9975363161175091,1,0.999894
0.9805830665883314,1,0.999536
0.9968341993662985,1,0.999756
0.9870542988478163,1,0.999891
0.9858700679991362,1,0.999895
0.9934856605808873,1,0.999868
0.9916517522482489,1,0.999881
0.9991524143484645,1,0.999883
0.9938035439011705,1,0.999461
0.9968227063834776,1,0.999773
0.9931110652542856,1,0.999874
0.9860367844750471,1,0.999886
0.9957960087352975,1,0.999879
0.9946253392370809,1,0.999900
0.9926243802491419,1,0.999772
0.9903140471616991,1,0.999885
0.9976554557320839,1,0.999887
0.9935829680399092,1,0.999866
0.9977345969046069,1,0.999869
0.9955896411887171,1,0.999689
0.9988932528967192,1,0.999895
0.9953709632571346,1,0.999891
0.999435434949179,1,0.999880
0.9990255987816614,1,0.999789
0.9959823572367139,1,0.999939
0.9974198628096249,1,0.999736
0.9966052412381594,1,0.999898
0.9975191744684212,1,0.999822
0.9938866329880065,1,0.999896
0.9970801733164416,1,0.999744
0.9973305622391347,1,0.999789
0.9773187379890711,1,0.999740
0.9887868791404021,1,0.999874
0.9822185642066438,1,0.999887
0.9926610105668447,1,0.999900
0.9990483928471432,1,0.999881
0.9822951488817929,1,0.999781
0.9944479047004242,1,0.999891
0.9657778068299732,1,0.999904
0.9920276782879595,1,0.999900
0.9946595627308605,1,0.999789
0.9832075276171999,1,0.999878
0.9858517518113871,1,0.999884
0.9929036266678793,1,0.999884
0.9911770664662086,1,0.999686
0.9977055808826087,1,0.999910
0.9956443819144966,1,0.999894
0.9938162611604571,1,0.999892
0.997736912393629,1,0.999893
0.9862195606542017,1,0.999647
0.9961735019562286,1,0.999794
0.9892560067437697,1,0.999912
0.9979480631667079,1,0.999892
0.9974089958346123,1,0.999874
0.9980761785645595,1,0.999784
0.9939124283817002,1,0.999909
0.9968744253246029,1,0.999883
0.9945630111064104,1,0.999888
0.9926035856487025,1,0.999902
0.9898568178293597,1,0.999897
0.9957614926044993,1,0.999787
0.9980807243787085,1,0.999891
0.9938871482277164,1,0.999612
0.995102043856376,1,0.999878
0.9936887333306126,1,0.999907
0.9742423136176334,1,0.999762
0.9974552825292223,1,0.999894
0.9964796180944563,1,0.999896
0.9935736465010765,1,0.999892
0.993598525766919,1,0.999866
0.969948104516515,1,0.999823
0.9912867845349781,1,0.999906
0.9935168626658879,1,0.999902
0.9951319862551158,1,0.999891
0.9954421107747772,1,0.999898
0.9943261424423785,1,0.999866
0.9906067795595489,1,0.999627
0.9958629418433055,1,0.999898
0.9945709449960722,1,0.999884
0.9967122904988194,1,0.999902
0.9856288538306095,1,0.999893
0.9970907782775682,1,0.999907
0.994327613205973,1,0.999857
0.9988447252189698,1,0.999911
0.9970694372207886,1,0.999878
0.996240581303065,1,0.999794
0.9974325827414495,1,0.999888
0.9982478121581942,1,0.999868
0.9899204531060908,1,0.999746
0.9595689006559305,1,0.999856
0.9988361139942867,1,0.999877
0.9941849456811614,1,0.999861
0.9939420119069072,1,0.999892
0.9964576310765865,1,0.999869
0.9977445686251338,1,0.999725
0.9981788265931064,1,0.999872
0.9889904784372419,1,0.999739
0.9938458793257713,1,0.999866
0.9788580076627647,1,0.999880
0.9989433463291854,1,0.999886
0.99818761499886,1,0.999881
0.9981576637769938,1,0.999852
0.9983538176407435,1,0.999877
0.9757644119165967,1,0.999860
0.9955854969777034,1,0.999872
0.9892340482595154,1,0.999916
0.997603357598494,1,0.999890
0.994555451003491,1,0.999842
0.9965749419342501,1,0.999906
0.998459918417926,1,0.999882
0.9958208192972239,1,0.999929
0.9982556352597586,1,0.999914
0.9973460361142354,1,0.999942
0.9971967139778397,1,0.999785
0.9971637181458224,1,0.999909
0.9937074247229547,1,0.999899
0.9970988241289864,1,0.999885
0.9988807729328252,1,0.999895
0.9965103625667271,1,0.999812
0.9879085958216652,1,0.999876
0.999098469707464,1,0.999894
0.9963386799041251,1,0.999909
0.9973098982711245,1,0.999902
0.9991579498324261,1,0.999855
0.9933807238969317,1,0.999891
0.9972198537931063,1,0.999895
0.9920394936772324,1,0.999764
0.9982589263049615,1,0.999893
0.9844196469452963,1,0.999877
0.9950762135964899,1,0.999882
0.996352363645782,1,0.999898
0.9869603340514524,1,0.999883
0.9961966508550589,1,0.999861
0.9893409304906844,1,0.999932
0.9767809751015408,1,0.999888
0.9977812964634868,1,0.999859
0.9992678582263608,1,0.999918
0.9985863175205848,1,0.999909
0.9976703823591855,1,0.999920
0.9990455218047894,1,0.999920
0.9981826275938757,1,0.999485
0.9936282755368124,1,0.999909
0.9649085371957101,1,0.999869
0.9974045213072794,1,0.999846
0.9993080883915904,1,0.999891
0.999085605136006,1,0.999949
0.9799112438660812,1,0.999894
0.99817863188085,1,0.999886
0.9913680588440784,1,0.999951
0.9988683623239032,1,0.999894
0.997659596390272,1,0.999850
0.9974040325463632,1,0.999696
0.9927013392577845,1,0.999894
0.9956691788930473,1,0.999893
0.9952136939574232,1,0.999860
0.9963944917122678,1,0.999922
0.9974333484694821,1,0.999921
0.995715559994385,1,0.999919
0.9980058583745486,1,0.999902
0.9942324663232691,1,0.999868
0.9962399980466874,1,0.999894
0.9941127842037597,1,0.999801
0.9969737259145381,1,0.999794
0.9884599294281884,1,0.999880
0.9921295432632692,1,0.999901
0.9927491436314653,1,0.999908
0.998374732366951,1,0.999831
0.9947209318933012,1,0.999569
0.993363002655381,1,0.999894
0.9875416618995857,1,0.999840
0.9974727398068963,1,0.999823
0.9989436450441196,1,0.999905
0.9946707763199943,1,0.999723
0.9709997986632968,1,0.999606
0.9952769949818205,1,0.999877
0.9756863197951893,1,0.999930
0.9933867162503923,1,0.999749
0.9974277841912909,1,0.999875
0.9873078486239407,1,0.999776
0.9958424113219717,1,0.999889
0.9947552233894827,1,0.999890
0.9995814865551317,1,0.999859
0.9994718924131203,1,0.999742
0.9985415159766868,1,0.999691
0.9980525320569019,1,0.999885
0.98254543722819,1,0.999898
0.975395640414316,1,0.999872
0.9962834275028675,1,0.999621
0.9993680340294155,1,0.999866
0.9962588719111503,1,0.999831
0.9988368104884197,1,0.999897
0.9970083572634358,1,0.999837
0.9991171705039369,1,0.999825
0.9962016507327828,1,0.999850
0.9867155063546162,1,0.999894
0.9977733876600654,1,0.999873
0.9881472026696778,1,0.999899
0.9956680468946667,1,0.999124
0.9958820400810637,1,0.999875
0.9977911843884985,1,0.999872
0.998850775835794,1,0.999795
0.9946559757444663,1,0.999847
0.99639767865239,1,0.999889
0.9980537274031659,1,0.999884
0.9978039098224475,1,0.999912
0.9960015119710631,1,0.999942
0.998660492835572,1,0.999829
0.9786320229527292,1,0.999810
0.9971508386695755,1,0.999816
0.9930902346370494,1,0.999771
0.9968164207855994,1,0.999905
0.9984026176333584,1,0.999791
0.9964169565351683,1,0.999765
0.9981937053209343,1,0.999929
0.9989014057402387,1,0.999908
0.9892748572273142,1,0.999913
0.9991855497839914,1,0.999905
0.9904249274018458,1,0.999805
0.9895493650436452,1,0.999855
0.9965774039464785,1,0.999499
0.9970126602562349,1,0.999864
0.9967309215674086,1,0.999903
0.9945688726414958,1,0.999908
0.9918461166815145,1,0.999754
0.9947404143803062,1,0.999845
0.9963265593502381,1,0.999893
0.9996152422529391,1,0.999879
0.9966164041749307,1,0.999905
0.9958196347821152,1,0.999900
0.9826644994720818,1,0.999410
0.9965888372963628,1,0.999665
0.9942598153388922,1,0.999917
0.9971446606665925,1,0.999919
0.9946222591973581,1,0.999882
0.9913799815564011,1,0.999864
0.9957504875662304,1,0.999924
0.9963116435277095,1,0.999689
0.9968179185459853,1,0.999741
0.9982962025933187,1,0.999916
0.999076661393243,1,0.999916
0.9987536474796098,1,0.999914
0.9968484767642162,1,0.999869
0.9978560126567844,1,0.999891
0.9968907836639209,1,0.999940
0.9800290150144568,1,0.999876
0.9978532179526566,1,0.999864
0.9967270054726954,1,0.999685
0.9846362165103028,0,0.998082
0.9980416458700296,1,0.999861
0.9782798969532628,1,0.999846
0.9949364879686757,1,0.999786
0.999095314146862,1,0.999941
0.9842129619260033,1,0.999902
0.9975103043833329,1,0.999604
0.9922412336413778,1,0.999907
0.9898741309730064,1,0.999928
0.9972745504831524,1,0.999759
0.9982086020301778,1,0.999910
0.9850261941711863,1,0.999918
0.9990466556325723,1,0.999920
0.9968110917044447,1,0.999889
0.9959053673075325,1,0.999908
0.9974991346325367,1,0.999757
0.997201631544531,1,0.999725
0.9981852665788937,1,0.999895
0.995905780843722,1,0.999650
0.9985843111543746,1,0.999886
0.9967146461147798,1,0.999896
0.9949870223912243,1,0.999872
0.9962645451948922,1,0.999855
0.9911033508647151,1,0.999874
0.9540316571089452,0,0.998547
0.9957804002750922,1,0.999864
0.9952526483480889,1,0.999677
0.9902412280262299,1,0.999859
0.991884697929012,1,0.999894
0.995642168996471,1,0.999385
0.990342496732361,1,0.999846
0.9659296331856345,1,0.999871
0.9980204188622945,1,0.999871
0.9990662038617427,1,0.999640
0.9982374414987365,1,0.999878
0.9925839981983371,1,0.999905
0.9938934995478753,1,0.999610
0.9969887625971238,1,0.999871
0.9906262236618594,1,0.999507
0.9903495483781565,1,0.999863
0.9930403416796966,1,0.999889
0.9963362102091969,1,0.999876
0.9765814583551427,1,0.999833
0.9973451589187845,1,0.999858
0.9960292660987092,1,0.999839
0.990952645798313,1,0.999888
0.9943447192689927,1,0.999878
0.9982016006079709,1,0.999881
0.9940248981311416,1,0.999752
0.9848553866356121,1,0.999868
0.993933311277562,1,0.999901
0.9955988635613097,1,0.999818
0.9981134884347154,1,0.999952
0.9962178447655891,1,0.999875
0.9983812286284167,1,0.999894
0.9886152379287266,1,0.999726
0.935911434342881,1,0.999864
0.9976019384908157,1,0.999884
0.9839125381871228,1,0.999886
0.9960139528776443,1,0.999803
0.9904412820144166,1,0.999838
0.9946313892787028,1,0.999696
0.995643875900176,1,0.999808
0.9993339625601457,1,0.999778
0.9959299115621933,1,0.999908
0.9986225120070257,1,0.999939
0.998839432622997,1,0.999908
0.9972887438523642,1,0.999888
0.9887295386058762,1,0.999608
0.9943897450739315,1,0.999861
0.9990074879098336,1,0.999902
0.9984381398574185,1,0.999918
0.9980286637761241,1,0.999908
0.9911457449463624,1,0.999872
0.9990664435635248,1,0.999939
0.9989341856709079,1,0.999907
0.9988244537157484,1,0.999899
0.9987557782875605,1,0.999880
0.9979153079967483,1,0.999814
0.9981065214070766,1,0.999881
0.997968101554318,1,0.999868
0.9984859844375373,1,0.999892
0.9952104773657932,1,0.999875
0.9941370795281281,1,0.999930
0.9916977910995286,1,0.999880
0.9996891828318519,1,0.999885
0.9965492347647711,1,0.999689
0.9956463939940428,1,0.999722
0.9930345704198925,1,0.999936
0.9994135282572848,1,0.999891
0.9996779937011897,1,0.999881
0.9977618263589743,1,0.999909
0.9995666599204421,1,0.999850
0.9966958086412708,1,0.999899
0.9988244974371521,1,0.999897
0.9982158945339981,1,0.999829
0.9880840220555058,1,0.999938
0.9901075775019277,1,0.999937
0.9966083170401799,1,0.999935
0.9842453324472362,1,0.999278
0.9951904548404603,1,0.999885
0.9980379851654972,1,0.999883
0.9929457095417541,1,0.999904
0.9976242332016636,1,0.999803
0.9989797988139193,1,0.999869
0.99928873378432,1,0.999751
0.9946184488443646,1,0.999879
0.9860816051359479,1,0.999878
0.9633031127430914,1,0.999872
0.9986788990129938,1,0.999868
0.9908856224436473,1,0.999863
0.9929215689485448,1,0.999859
0.9951915127660089,1,0.999893
0.9980758250636841,1,0.999832
0.997892065437514,1,0.999706
0.9958889662833706,1,0.999890
0.999292091426398,1,0.999874
0.9915111803226773,1,0.999882
0.9978567975689729,1,0.999733
0.99276153399454,1,0.999863
0.9986971518747128,1,0.999908
0.9941163001057041,1,0.999888
0.9944277801372037,1,0.999635
0.9981637627519311,1,0.999891
0.9985556360623253,1,0.999880
0.9955234997764094,1,0.999834
0.9940306685329713,1,0.999604
0.9974920505522279,1,0.999864
0.9903531907014127,1,0.999854
0.9948482148594551,1,0.999854
0.9985673035416638,1,0.999867
0.9868005104359083,1,0.999857
0.9888336748170213,1,0.999856
0.9952355803477513,1,0.999261
0.9964484015264116,1,0.999874
0.9913188635639867,1,0.999872
0.9927898243721432,1,0.999724
0.99775677518276,1,0.999862
0.9973483368656608,1,0.999871
0.9912647778227898,1,0.999847
0.998092134048044,1,0.999732
0.9966753514565191,1,0.999882
0.9960627529182013,1,0.999724
0.993478441062656,1,0.999840
0.9982227889327383,1,0.999863
0.9926450022008203,1,0.999432
0.9944457878683717,1,0.999882
0.9895917759739128,1,0.999578
0.9233968388000394,0,0.997172
0.9982229230677064,1,0.999860
0.9989410016677391,1,0.999911
0.9960994772742909,1,0.999460
0.997494839365629,1,0.999871
0.993083193698395,1,0.999902
0.9868499804138571,1,0.999885
0.9980156289231433,1,0.999864
0.9987722201346806,1,0.999898
0.983563250924073,1,0.999910
0.998535005008052,1,0.999886
0.996156445892868,1,0.999800
0.9994678125047572,1,0.999859
0.9983767126041736,1,0.999900
0.997525937663726,1,0.999434
0.9973978705021839,1,0.999886
0.9911035758609203,1,0.999893
0.9993382181507414,1,0.999879
0.9943428929288498,1,0.999898
0.9981219188399488,1,0.999917
