NaN,0,0.965229
NaN,0,0.970769
NaN,0,0.974257
NaN,0,0.980503
NaN,0,0.985490
NaN,0,0.992215
-2.772416262603827E-4,0,0.994934
-4.796192106230261E-4,0,0.994939
-6.178874034464999E-4,0,0.994944
-7.289148499253889E-4,0,0.994948
-7.317131831417187E-4,0,0.994878
-7.32872479630983E-4,0,0.994882
0.03141378956299762,0,0.962405
0.03141378956299762,0,0.967602
0.03141378956299762,0,0.970345
0.03141378956299762,0,0.977787
0.03141378956299762,0,0.984533
0.03141378956299762,0,0.989835
0.03141378956299762,0,0.998041
0.031215607576915362,0,0.995317
0.04724306907952154,0,0.998118
0.04702887975948681,0,0.998099
0.0771467124250312,0,0.998074
0.06138643540827242,0,0.998135
0.09000269160896414,0,0.510170
0.06993154282326294,0,0.998087
0.07744215262839185,0,0.998187
0.07744215262839185,0,0.998131
0.07744215262839185,0,0.998046
0.07744215262839185,0,0.997989
0.07744215262839185,0,0.997880
0.07744215262839185,0,0.997796
0.07744215262839185,0,0.998034
0.08244018081844813,0,0.998246
0.08244018081844813,0,0.998378
0.08244018081844813,0,0.998263
0.08494809285642752,0,0.998296
0.08759454473428865,0,0.998359
0.08759454473428865,0,0.998240
0.9880805971843017,0,0.989377
0.9784297378391118,1,0.999902
0.9775798497913888,0,0.995193
0.9775798497913888,0,0.995382
0.9775798497913888,0,0.995235
0.9775798497913888,0,0.995277
0.9775798497913888,0,0.995134
0.9775798497913888,0,0.995422
0.9775798497913888,0,0.995232
0.9775798497913888,0,0.995205
0.9775798497913888,0,0.995190
0.9775798497913888,0,0.994819
0.9775798497913888,0,0.994900
0.9692059746637784,0,0.997266
0.9692059746637784,0,0.997378
0.9692059746637784,0,0.997215
0.9692059746637784,0,0.997101
0.9692059746637784,0,0.997053
0.9692059746637784,0,0.996775
0.9692059746637784,0,0.996483
0.9692059746637784,0,0.996240
0.9672385177259086,0,0.996808
0.9672385177259086,0,0.996512
0.9672385177259086,0,0.996262
0.9647297900149319,0,0.996822
0.9647297900149319,0,0.996529
0.9647297900149319,0,0.996285
0.9616154295952667,0,0.996841
0.9616154295952667,0,0.996544
0.9616154295952667,0,0.996318
0.9616154295952667,0,0.996103
0.9160391359893624,0,0.997433
0.9160391359893624,0,0.997278
0.9160391359893624,0,0.997161
0.9160391359893624,0,0.997115
0.9160391359893624,0,0.996844
0.9160391359893624,0,0.996552
0.9160391359893624,0,0.996319
0.9107410325698672,0,0.996207
0.9048058554849545,0,0.997455
0.9048058554849545,0,0.997297
0.9048058554849545,0,0.997300
0.9048058554849545,0,0.997155
0.9048058554849545,0,0.996862
0.9048058554849545,0,0.996546
0.9048058554849545,0,0.996335
0.8987139072460817,0,0.997424
0.8987139072460817,0,0.997466
0.8987139072460817,0,0.997304
0.8987139072460817,0,0.997219
0.8987139072460817,0,0.997156
0.8987139072460817,0,0.996884
0.8987139072460817,0,0.996597
0.8987139072460817,0,0.996369
0.8916474925030563,0,0.997577
0.8916474925030563,0,0.997475
0.8916474925030563,0,0.997320
0.8916474925030563,0,0.997287
0.8916474925030563,0,0.997064
0.8916474925030563,0,0.996792
0.8916474925030563,0,0.996575
0.8916474925030563,0,0.996333
0.8634248614710178,0,0.997420
0.8634248614710178,0,0.997259
0.8634248614710178,0,0.997264
0.8634248614710178,0,0.997113
0.8634248614710178,0,0.996815
0.8634248614710178,0,0.996493
0.8634248614710178,0,0.996402
0.8654667373131718,0,0.997839
0.8654667373131718,0,0.997808
0.8654667373131718,0,0.997684
0.8654667373131718,0,0.997574
0.8654667373131718,0,0.997553
0.8654667373131718,0,0.997322
0.8654667373131718,0,0.997076
0.8654667373131718,0,0.996943
0.8654667373131718,0,0.996748
0.4423957876603719,0,0.998451
0.4423957876603719,0,0.998385
0.4423957876603719,0,0.998292
0.4423957876603719,0,0.998185
0.4423957876603719,0,0.998033
0.4423957876603719,0,0.997852
0.4423957876603719,0,0.997649
0.4423957876603719,0,0.997447
0.45507178672478527,0,0.998472
0.45507178672478527,0,0.998443
0.45507178672478527,0,0.998350
0.45507178672478527,0,0.998267
0.45507178672478527,0,0.998145
0.45507178672478527,0,0.997958
0.45507178672478527,0,0.997768
0.45507178672478527,0,0.997553
0.48540825904928964,0,0.998456
0.48540825904928964,0,0.998425
