0.4296847607062983,1,0.999964
0.32237709893137906,0,0.997641
0.33401161987266387,1,0.999861
0.3331654299335519,1,0.999965
0.3173431859033484,0,0.990215
0.32751940907554705,1,0.999965
0.321449854096744,0,0.994908
0.3191057904811835,1,0.999963
0.3092871101193884,1,0.999962
0.3094331709723996,1,0.999964
0.32910348824678815,1,0.999965
0.3226122751415037,1,0.999965
0.328752627814549,1,0.999965
0.3061380075386656,1,0.999895
0.31137961663559843,1,0.999964
0.30431463559595395,1,0.999965
0.32758760612812526,1,0.999782
0.30100709224692906,1,0.999929
0.29830591641777093,1,0.999964
0.2993831813756237,1,0.999967
0.2942510793162264,1,0.999806
0.3005187263035348,1,0.999960
0.29445362171369405,1,0.999965
0.29642887601688017,0,0.999491
0.28991169911135223,1,0.999894
0.3151626452298597,1,0.999741
0.2950845840123277,1,0.999898
0.30202379701852,1,0.999963
0.2966624781450983,1,0.999964
0.30708191439573485,1,0.999965
0.30007418788912804,1,0.999965
0.2973817847899488,1,0.999966
0.2944154121784887,1,0.999960
0.3089355340138446,1,0.999964
0.30882289799453855,1,0.999962
0.28116555399545473,1,0.999964
0.2962248568274751,0,0.998894
0.2943309950999513,0,0.998502
0.31219846502487597,1,0.999965
0.300031758098662,0,0.999417
0.28556922605418633,1,0.999965
0.2916725627145146,1,0.999964
0.2914312259903053,1,0.999964
0.32294075985308274,1,0.999965
0.319595398347086,1,0.999964
0.30486020240509104,1,0.999965
0.29981669616482215,1,0.999964
0.29396597335678076,1,0.999965
0.31092687961039345,1,0.999964
0.30439719917635666,1,0.999963
0.3043908941999716,1,0.999961
0.295752574765978,1,0.999965
0.31816988226964127,1,0.999961
0.3068621079180897,1,0.999965
0.3118519044406968,1,0.999965
0.2965356338363685,1,0.999962
0.2654020101706346,1,0.999671
0.2932506143322935,1,0.999965
0.2937726409350678,1,0.999964
0.29651671706518934,1,0.999964
0.2915335471882952,1,0.999965
0.27206352569733766,1,0.999896
0.29776004385528115,1,0.999964
0.29354040289421823,1,0.999964
0.29275221238336024,1,0.999963
0.31226183148598896,1,0.999964
0.2852602399475025,1,0.999963
0.30582426363198056,1,0.999965
0.2932375845930853,1,0.999964
0.29060076231851395,1,0.999964
0.27994621246765367,1,0.999845
0.27498596383867535,0,0.998517
0.29233807289024777,1,0.999880
0.28943205587097165,1,0.999965
0.29260721468155454,1,0.999964
0.283218182445345,1,0.999965
0.2914871884207009,1,0.999965
0.2679028385438224,1,0.999961
0.2674657142147728,1,0.999895
0.2632904503276216,1,0.999930
0.3003834708160698,1,0.999964
0.29213121285791027,1,0.999964
0.2919712548808206,1,0.999962
0.2865567484275608,1,0.999964
0.29412432312209535,1,0.999964
0.291625697279292,1,0.999961
0.28916896526285407,1,0.999965
0.2696112849327844,1,0.999963
0.2933212993241014,1,0.999965
0.2893714325538607,1,0.999965
0.29163590743469586,1,0.999961
0.28370265063792127,1,0.999965
0.2863877725574128,1,0.999965
0.2838603655759492,1,0.999966
0.2882595363942147,1,0.999965
0.2779416514679337,1,0.999961
0.3133298065190548,1,0.999966
0.28989304252873277,1,0.999964
0.29377487877567765,1,0.999964
0.290017837024067,1,0.999964
0.28535940958734185,1,0.999964
0.2674803277695654,1,0.999961
0.2827580244704011,1,0.999961
0.26016144327264723,1,0.999733
0.2792334251912049,1,0.999964
0.28110181483916613,1,0.999965
0.2648670647891638,1,0.999964
0.28695617736010554,1,0.999931
0.27720465425996793,1,0.999964
0.27408993301530304,1,0.999964
0.26043365911624783,1,0.999964
0.26467665982076927,1,0.999965
0.29099707037957134,1,0.999931
0.2688523790895721,1,0.999961
0.2721176438446601,1,0.999964
0.2623480054469594,1,0.999964
0.24996208759669727,1,0.999961
0.29242663569531946,1,0.999964
0.29089074652157393,1,0.999965
0.2600424093456555,0,0.999635
0.2784483749112504,1,0.999965
0.2793836494222951,1,0.999965
0.2916187241324314,1,0.999961
0.2862543091425624,1,0.999963
0.26730039740399014,1,0.999963
0.2634870070747876,1,0.999964
0.2593572958485805,1,0.999961
0.28639797682499746,1,0.999964
0.28085310698437027,1,0.999963
0.27614931319973995,1,0.999962
0.26100522588705666,1,0.999961
0.27478657829783365,1,0.999960
0.26765032123109217,1,0.999962
0.2713438354982668,1,0.999963
0.26468335070491833,1,0.999963
0.2871313532704079,1,0.999964
0.2839867267746016,1,0.999963
0.28756767033704606,1,0.999964
0.27924451240138737,1,0.999965
0.28616410218145444,1,0.999963
0.24915766715611312,1,0.999961
0.24573777693207075,1,0.999964
0.2489807679441023,1,0.999962
0.24100086801061302,1,0.999963
0.27505688434507086,1,0.999965
0.24576192411650424,1,0.999965
0.2713688366568279,1,0.999963
0.2672066805524092,1,0.999964
0.23698992860909004,1,0.999964
0.25995164821845523,1,0.999963
0.253142677256625,1,0.999964
0.26396449257828136,1,0.999963
0.23838761966559663,1,0.999963
0.24562357354480224,1,0.999964
0.3047642437930341,1,0.999964
0.2853170450205964,1,0.999965
0.3073260759040021,1,0.999965
0.28823675013752353,1,0.999965
0.2776406353309369,1,0.999961
0.2903774579043011,1,0.999961
0.2918114130784667,1,0.999964
0.2631128420002197,1,0.999964
0.2870572597000633,1,0.999965
0.28228668213435776,1,0.999964
0.29035935118920536,1,0.999963
0.27759123565471877,1,0.999963
0.28226743214581707,1,0.999963
0.27694563833456454,1,0.999965
0.2889180240696999,1,0.999962
0.2793467656373234,1,0.999966
0.2645973279107549,1,0.999965
0.26195184780587444,1,0.999965
0.2943431083528251,1,0.999962
0.2859098143297595,1,0.999965
0.2892505728675354,1,0.999963
0.2818748117393641,1,0.999965
0.28941529931508986,1,0.999961
0.28425403108823694,1,0.999965
0.2820579981999497,1,0.999963
0.2797460264238176,1,0.999965
0.28704236365519553,1,0.999964
0.2802783647964789,1,0.999964
0.27767020437645873,1,0.999965
0.2744881459172769,1,0.999931
0.274536019704708,1,0.999964
0.24689242171749842,1,0.999864
0.26703683608779766,1,0.999964
0.25114923089179475,1,0.999895
0.2709549023151526,1,0.999964
0.2767051372313831,1,0.999965
0.24866242546000406,1,0.999929
0.29565349636609795,1,0.999965
0.2846104817593876,1,0.999965
0.2933628566204356,1,0.999961
0.26922665182828076,1,0.999965
0.2624073066204685,1,0.999964
0.2904770181416149,1,0.999964
0.2764962096947572,1,0.999964
0.2846001027511746,1,0.999961
0.26490161988889754,1,0.999965
0.2602461377897315,1,0.999961
0.2878696935769146,1,0.999963
0.2551957358168854,1,0.999965
0.2613218947649811,1,0.999963
0.256560962432787,1,0.999965
0.26503086189868424,1,0.999961
0.2609577146827936,1,0.999961
0.26104539888673706,1,0.999963
0.24743919193536948,1,0.999929
0.28274621901758634,1,0.999962
0.27407060067200595,1,0.999963
0.27759023449329184,1,0.999961
0.26828031385724593,1,0.999965
0.2650917494134236,1,0.999963
0.26263806633544523,1,0.999965
0.265507584567722,1,0.999965
0.25769756230108276,1,0.999963
0.2832721207680357,1,0.999930
0.26351907286908427,1,0.999964
0.24956129384992973,1,0.999965
0.2597053595551394,1,0.999960
0.24390153013598276,1,0.999763
0.2891918681402726,1,0.999965
0.2561489558549026,1,0.999961
0.2605166885231526,1,0.999963
0.2586994931905418,1,0.999965
0.24805761000515714,1,0.999960
0.22875883623632207,1,0.999964
0.28574621800259775,1,0.999962
0.2675116379789806,1,0.999963
0.2882971468265399,1,0.999963
0.28967029604091726,1,0.999961
0.2665101073694036,1,0.999962
0.27680945437883675,1,0.999964
0.27757227018545927,1,0.999965
0.281144660295216,1,0.999964
0.2557445347539841,1,0.999963
0.24600977222276466,1,0.999762
0.2794011862726655,1,0.999964
0.2717774846681741,1,0.999965
0.2684887332926117,1,0.999964
0.2628208509857243,1,0.999960
0.27340617166161085,1,0.999961
0.2688958417361057,1,0.999960
0.26486297921276714,1,0.999965
0.23319627839230167,1,0.999898
0.2723556967218959,1,0.999964
0.2667289507607054,1,0.999963
0.2679188256152477,1,0.999965
0.26045446354760327,1,0.999960
0.26579977215478484,1,0.999963
0.2603466817058287,1,0.999962
0.26551725833269585,1,0.999965
0.2516693817659083,1,0.999898
0.2724936944367161,1,0.999964
0.2713374281572217,1,0.999963
0.2632868996176226,1,0.999964
0.2671800236728746,1,0.999964
0.2529008467602198,1,0.999962
0.2714197156125725,1,0.999963
0.24656635202876603,1,0.999929
0.2476925434759566,1,0.999896
0.24223417598901517,1,0.999928
0.24862387695053226,1,0.999963
0.3041358510158934,1,0.999965
0.27831587721712314,1,0.999963
0.27242435700497164,1,0.999963
0.27201699188917655,1,0.999964
0.2711790674995908,1,0.999963
0.2505894535801784,1,0.999963
0.26373205278781353,1,0.999964
0.26720221115771525,1,0.999965
0.27047456169017475,1,0.999960
0.265113686127895,1,0.999963
0.24299718664921507,1,0.999929
0.2674260788451743,1,0.999964
0.259432397672331,1,0.999961
0.24185400052481634,1,0.999932
0.2403373349253435,1,0.999966
0.2541015081976446,1,0.999961
0.24504836205406336,1,0.999929
0.247379138267567,1,0.999966
0.23700700536697025,1,0.999962
0.2691450476732818,1,0.999961
0.26474673627580786,1,0.999960
0.2619062141852242,1,0.999965
0.26343726337567436,1,0.999963
0.2603561778446743,1,0.999965
0.23566849271029455,1,0.999963
0.23962405950026672,1,0.999932
0.2332574938401911,1,0.999965
0.2660274258341469,1,0.999964
0.256947409710278,1,0.999964
0.23989610907025488,1,0.999895
0.2459568943548611,1,0.999963
0.2296569469809555,1,0.999965
0.24448186408022055,1,0.999965
0.2602545757470389,1,0.999964
0.2366069215262098,1,0.999964
0.24363890220508277,1,0.999930
0.22317741669591462,1,0.999965
0.30647941425821734,1,0.999961
0.2839423052211564,1,0.999863
0.29140701340650466,1,0.999897
0.29429756904773746,1,0.999965
0.2900230528844362,1,0.999964
0.2665115969553755,1,0.999963
0.27942130114755565,1,0.999963
0.2900906681883833,1,0.999965
0.29135335487310887,1,0.999963
0.28579062414932255,1,0.999963
0.2613566899797472,1,0.999961
0.28620012893157193,1,0.999965
0.27685114240891645,1,0.999965
0.26270330661300717,1,0.999966
0.26150471806481496,1,0.999964
0.2745149386908357,1,0.999963
0.2666053897407835,1,0.999962
0.2697677451720907,1,0.999965
0.2561430942734295,1,0.999961
0.2899043409607657,1,0.999960
0.28361640355093076,1,0.999961
0.2864032745682896,1,0.999963
0.2764235881141399,1,0.999964
0.262898487388851,1,0.999966
0.2611616768968532,1,0.999965
0.2638312153331449,1,0.999965
0.25535510171763187,1,0.999964
