0.0031896026255933303,1,0.999985
0.0019410967742992077,0,0.987756
0.009673159444004617,1,0.999985
0.017790274097959698,0,0.987729
0.06319229908045862,0,0.798790
0.5045064884851899,0,0.979131
0.724341574574854,0,0.982002
0.756069929671128,0,0.990859
0.12263411388541669,0,0.986746
0.5104961037659075,1,0.999986
0.8959655882168578,0,0.999794
0.8852757510292423,0,0.784201
0.2584160360766086,0,0.994562
0.39731748245009535,0,0.957675
0.6290092752840032,0,0.996025
0.8122159790647171,1,0.999956
0.8801334946239733,0,0.953837
0.6524216912300459,0,0.999617
0.7299816537729111,0,0.932871
0.8559787248062201,1,0.999985
0.9098253599670829,0,0.802709
0.8473830012850782,1,0.999985
0.8730198100437864,1,0.999984
0.23703609901656414,0,0.912136
0.17075819871375847,1,0.999970
0.23065320411011783,0,0.920355
0.37865953865949764,1,0.999854
0.3216454499541094,0,0.971363
0.3305794143916487,1,0.999918
0.38342034211629833,0,0.920845
0.24949218962951766,0,0.992778
0.31473213968543157,0,0.939932
0.1977197368584164,0,0.911235
0.20994440102371478,0,0.905580
0.9101438388129016,1,0.999879
0.24718476946309248,0,0.947904
0.3374644799080309,0,0.907631
0.21326733222593933,0,0.935811
0.2661135935868629,0,0.929945
0.4180170643200033,0,0.968323
0.15746303451102603,0,0.932757
0.38409936384340637,1,0.999957
0.6727007883387438,1,0.999928
0.9081444479639326,1,0.999956
0.8968851038489185,0,0.976880
0.36509564965773933,0,0.997985
0.4406633206931315,0,0.997552
0.4712304012475362,0,0.997674
0.840176017288378,0,0.925520
0.8172231529721089,1,0.999970
0.8882138798892742,1,0.999985
0.8761336538037989,1,0.999985
0.8602095286176109,0,0.999833
0.9033962261111558,1,0.999942
0.8941483631026624,0,0.999794
0.8887043037749307,1,0.999985
0.8695928877048099,1,0.999985
0.23496422105140383,0,0.966578
0.5198443627069881,1,0.999985
0.15645313735326338,0,0.908283
0.1361399830778579,0,0.912721
0.19746774142262183,0,0.999343
0.18535787922845354,1,0.999985
0.22184035544274974,0,0.998817
0.779557359494699,0,0.999385
0.8373858608956787,0,0.915943
0.8293170962795734,1,0.999951
0.28733095444228324,0,0.895875
0.354614357956657,0,0.989226
0.3615221266880562,0,0.878454
0.8419857275632893,0,0.888796
0.3880717895728182,0,0.901023
0.6880975437979501,1,0.999956
0.8536518368425011,1,0.999956
0.8965132526470269,0,0.999644
0.373433681455823,0,0.997672
0.5825663785830798,0,0.999746
0.6451842139994626,0,0.999791
0.8140261061952698,1,0.999897
0.8733729245537981,0,0.999613
0.3564026295433824,0,0.904820
0.17211378148587225,0,0.896680
0.21821738841156438,0,0.887273
0.20937301397523966,0,0.890624
0.2825236523725227,1,0.999971
0.21750840001957328,1,0.999941
0.2099803901916763,0,0.910036
0.2872054368751233,0,0.913353
0.2607511983143977,1,0.999985
0.18752199314211357,0,0.959990
0.2300843755722207,1,0.999926
0.13393061726147096,0,0.946443
0.6396670993119372,0,0.999708
0.6724624253782864,0,0.999360
0.7966571817265015,1,0.999971
0.9250415685066199,0,0.999407
0.875144202956354,1,0.999985
0.8698389664588696,1,0.999955
0.8569464206503026,1,0.999985
0.8739869288638059,1,0.999985
0.9087955035291491,0,0.940303
0.8877835370392632,1,0.999970
0.8530420225261807,1,0.999954
0.4815203098123953,0,0.946977
0.8636393292787835,1,0.999799
0.6845847485536867,1,0.999701
0.2748591953423135,0,0.961205
0.39952491190980294,0,0.999513
0.7080727136864027,0,0.960351
0.4378217905312526,0,0.995078
0.3219855049974952,1,0.999957
0.37561658104300993,0,0.997814
0.3058052395848652,0,0.881610
0.33225148841400953,0,0.895799
0.28290320728745294,0,0.982114
0.45020174552652764,1,0.999915
0.3011958241762733,0,0.919220
0.3860897413948584,0,0.993082
0.27515868916521685,0,0.888326
0.4352991712731491,1,0.999792
0.38323935909552315,0,0.996981
0.36311281447671206,0,0.952331
0.39949868791295784,0,0.985359
0.3313532242225259,0,0.941776
0.34154351480132694,0,0.941864
0.4910409016340233,1,0.999956
0.31439670383059726,1,0.999955
0.38994513013283627,0,0.947948
0.358662822323957,0,0.993930
0.29750384701081056,0,0.976164
0.5656376462764177,1,0.999958
0.3765304182207623,0,0.942436
0.7897939839357455,1,0.999956
0.45465846711489466,1,0.999957
0.44452872830086804,0,0.958199
0.35547922716821884,0,0.950722
0.4026514641894429,1,0.999915
0.4065019517256242,0,0.955524
0.4129291709600127,1,0.999874
0.34551435876877784,0,0.941851
0.33279978816762606,0,0.954245
0.4471329612511648,0,0.980030
0.39711709568018194,1,0.999915
0.5487049471282383,1,0.999899
0.6155636298784681,0,0.970503
0.8976272303463216,0,0.997123
0.9128250582448542,1,0.999866
0.9194585289557026,1,0.999926
0.9067231022436075,1,0.999970
0.8903757730416624,1,0.999941
0.8705788076055525,1,0.999985
0.6947316303141762,0,0.997348
0.49826957572958824,0,0.999271
0.42050251155417384,0,0.992796
0.3066320537224022,0,0.931215
0.2788464315773871,0,0.911770
0.5506395865385171,0,0.931678
0.34555723855881815,0,0.915816
0.2580210064022735,0,0.939117
0.2931303016178837,0,0.974773
0.39915303527473517,0,0.950741
0.35948324457299535,0,0.990771
0.45438253021110325,0,0.921325
0.19834086751631952,0,0.998847
0.23221139673330604,0,0.936450
0.26630379575907503,0,0.956745
0.3300742456230646,0,0.990419
0.16027103778069107,0,0.929618
0.32902257485710845,0,0.999727
0.512210942591907,0,0.943329
0.34105165889089367,0,0.926466
0.29775449654486574,0,0.999410
0.58179146127048,1,0.999867
0.2819227677108754,0,0.928486
0.7360517257226963,1,0.999913
0.8479699094669889,1,0.999880
0.3191084499180519,0,0.932869
0.28345418542153716,0,0.959393
0.2757109926953085,0,0.996606
0.3129003821300115,0,0.935423
0.22679652511150264,0,0.931548
0.2907851917058044,0,0.939797
0.9306377268315013,1,0.999956
0.2989434044994043,0,0.922460
0.53076884299005,0,0.995942
0.3569929465104378,0,0.950096
0.3425338315515197,0,0.964593
0.3453534782798316,0,0.993121
0.44907006672839594,0,0.998353
0.3380481752303132,1,0.999593
0.38048008779297543,0,0.964116
0.5064936827521389,0,0.970508
0.3952964269934281,0,0.998828
0.5673837099782132,1,0.999912
0.3733312196116166,0,0.950449
0.46709847724457326,0,0.940955
0.4857293293477648,1,0.999955
0.3691569113638817,0,0.957915
0.3127216091229417,1,0.999956
0.3557605300759304,1,0.999574
0.6212225914464167,0,0.999503
0.37783354471303704,1,0.999958
0.4320436046994154,1,0.999914
0.35423095367900637,0,0.985365
0.39842792644685826,0,0.946921
0.5185231966804681,0,0.996870
0.4387859043990684,0,0.978273
0.45063262635336365,0,0.967948
0.33175470638912535,0,0.937572
0.5133515333296947,1,0.999955
0.7379300556572812,0,0.985730
0.3557330802041191,1,0.999956
0.30957630757833693,0,0.975089
0.302375342928488,1,0.999955
0.45474495947803495,0,0.993476
0.6643715869504093,0,0.999722
0.7584549452235723,0,0.999394
0.84127706743504,1,0.999985
0.8503149079361888,0,0.999752
0.07335548515347151,0,0.980908
0.2573801809858362,1,0.999985
0.14893355012108597,0,0.946249
0.26729632584393465,0,0.981702
0.3145907195058428,0,0.973709
0.14572272181044124,0,0.933782
0.15733200570859135,0,0.934599
0.2479790240990226,0,0.932690
0.2798716617006971,0,0.998804
0.2744037793816366,0,0.896594
0.49769038619674266,0,0.911130
0.23197647907999552,1,0.999914
0.7879279933702269,0,0.999635
0.36788701385050165,1,0.999755
0.4173756837657674,0,0.992906
0.3549971719657334,0,0.908539
0.3952706135903019,0,0.880642
0.6668120827464254,0,0.999029
0.526744002087893,1,0.999959
0.34568808996491546,0,0.992772
0.4107344417002912,0,0.980027
0.35542304593676266,0,0.927233
0.4408249792776292,1,0.999782
0.3693652802475339,0,0.981551
0.39974985034884447,0,0.971669
0.45290822063182823,1,0.999862
0.4618208977713169,0,0.999541
0.7436924281734545,0,0.988239
0.40029205368507753,0,0.999019
0.440672796299258,0,0.932734
0.422972199592535,1,0.999912
0.5409845799998668,0,0.995490
0.41703403562109004,1,0.999908
0.5574140848984012,0,0.996394
0.4789416396463856,1,0.999708
0.3619894620942393,0,0.928752
0.3464108919450172,0,0.899373
0.2966281556702956,0,0.982596
0.4031671917791899,0,0.917441
0.50545121571481,0,0.972349
0.4572651222789966,0,0.937276
0.4994002727335163,0,0.989574
0.41320917176021654,0,0.997897
0.40243163436021023,0,0.940483
0.5886336515600752,0,0.940401
0.923542832010264,1,0.999985
0.8676951699937913,0,0.942572
0.8838496230526964,1,0.999985
0.2958450557096634,0,0.988038
0.3338965673578996,1,0.999957
0.3057265413360776,0,0.991608
0.49931888670223246,1,0.999876
0.47521751609832014,0,0.968516
0.32368987454725145,0,0.954007
0.6949452589913453,0,0.993998
0.2915000067136068,0,0.915009
0.3759761364084468,0,0.912090
0.8454712222198535,1,0.999955
0.8873498019521001,0,0.991577
0.3943620212719143,1,0.999824
0.26778106911698796,0,0.986678
0.7297513105756727,0,0.999143
0.7777150371073196,0,0.930036
0.7639598064926293,0,0.999796
0.892074262461238,1,0.999985
0.8864647333992515,1,0.999985
0.8522571328396991,1,0.999985
0.8763894272926862,1,0.999957
0.7170523887322864,1,0.999985
0.4682490055301133,1,0.999956
0.2722929709397571,0,0.984896
0.33416041821565656,0,0.969170
0.1670181622545583,0,0.915238
0.22529592693174497,0,0.917015
0.26020546021186725,1,0.999970
0.2897769163633424,0,0.866444
0.3526812854209976,1,0.999756
0.36799126013335026,0,0.988428
0.4246888627555741,0,0.964784
0.2707033455845066,0,0.921249
0.8696658984708728,1,0.999955
0.16203991636935106,0,0.938619
0.3536236821466618,0,0.957939
0.4342505129276974,0,0.946014
0.25139669624268796,0,0.954439
0.7824338085131026,0,0.999552
0.6337017899196042,1,0.999822
0.8278004937859857,0,0.918225
0.33663365699899694,1,0.999970
0.31128031444065707,0,0.992115
0.3810952600876858,0,0.993202
0.29319804408692307,1,0.999958
0.3017518759102871,0,0.936463
0.26219293547935396,1,0.999957
0.3680164486005129,0,0.987891
0.264427435459359,1,0.999866
0.3184234403512963,0,0.899166
0.4098641289119829,0,0.994526
0.3142927935495469,0,0.946577
0.42810222644289847,0,0.909329
0.4550672027713459,0,0.908611
0.8479755822129434,0,0.988070
0.38591370827685045,0,0.932642
0.38153810396511606,1,0.999955
0.47597515519338646,0,0.996710
0.3425361813804398,0,0.899345
0.5553543838000018,1,0.999677
0.41736004537807825,0,0.932194
0.31736006414541984,0,0.959305
0.468030851769875,0,0.999204
0.3057755037920077,0,0.937878
0.35039406672118534,0,0.999530
0.3943770287017257,0,0.998272
0.37738010456823534,0,0.971146
0.4248164660809263,1,0.999870
0.42361865369016866,1,0.999913
0.3685817683537352,0,0.946224
0.37180342977964237,0,0.961966
0.4265244997697465,1,0.999910
0.4601162874115393,0,0.998004
0.41520589556718085,0,0.911744
0.5474532560000523,0,0.961740
0.9040551865782348,1,0.999956
0.8844264626294118,1,0.999985
0.8894161060446312,1,0.999852
0.14183168300270532,0,0.955442
0.16154821124378063,0,0.950033
0.18615243132836798,0,0.952807
0.27093303859452383,1,0.999957
0.3084107512496705,0,0.976010
0.30665952991914336,0,0.986328
0.32903681421241415,0,0.934022
0.35088729111078043,0,0.997959
0.5043919252034599,0,0.994261
0.5471447304593398,0,0.922181
0.8391822686859685,0,0.993846
0.8376662278645083,1,0.999985
0.854155352790041,1,0.999971
0.8061892607495527,1,0.999985
0.8536203699067246,0,0.999808
0.26797097277378706,0,0.996071
0.31496777925631886,0,0.998547
0.2695607003066296,0,0.997916
0.45819114297205893,1,0.999958
0.3612286893974231,0,0.937526
0.45859239828330245,1,0.999912
0.4109953890115504,0,0.969586
0.5207810496523092,1,0.999957
0.4669345699712855,0,0.979443
0.6306740779683863,1,0.999903
0.4715447316363861,1,0.999872
0.6732076319666743,1,0.999959
0.45953579681110474,0,0.949896
0.7890408285722489,1,0.999781
0.3834218900891333,0,0.944590
0.45668608462951793,0,0.997550
0.37800110194623754,0,0.912450
0.6348671291871733,1,0.999851
0.735211294836489,0,0.963345
0.9060931761279077,0,0.969093
0.29672714561611535,0,0.998166
0.2998815093237339,0,0.998455
0.6195427215750562,1,0.999872
0.5567964502922715,0,0.997003
0.499135534262858,0,0.998317
0.8961941062349876,1,0.999956
0.40248038121938884,0,0.924183
0.314437261932176,0,0.936460
0.7353396848740907,1,0.999918
0.3404869268176149,0,0.997718
0.3805437428800488,0,0.953407
0.34962363968816995,0,0.932148
0.3697849049635122,1,0.999956
0.3768075528622758,0,0.950912
0.41757440286470465,0,0.942581
0.3482874544761923,0,0.963984
0.7036699661247766,1,0.999688
0.8677127526005484,1,0.999952
0.9080860182524081,1,0.999950
0.8791084264625649,1,0.999900
0.5477332603898978,0,0.995341
0.3533556157139747,0,0.935272
0.6233768065159038,1,0.999611
0.431030075756306,0,0.927071
0.773077209039162,1,0.999959
0.43847360105262206,1,0.999823
0.46147943622190185,0,0.920245
0.521318453911822,0,0.994528
0.3814218951183566,0,0.938997
0.8061255601671035,1,0.999958
0.4014933470240782,0,0.951371
0.5969758762355274,1,0.999957
0.5378143684676874,1,0.999958
0.605413381944003,1,0.999956
0.4072852053001432,0,0.936998
0.39698467258326564,1,0.999855
0.422083506499392,0,0.980675
0.7521232286073043,0,0.946156
0.5142748496629929,0,0.957272
0.503696634057032,1,0.999812
0.39627885517822775,0,0.962717
0.5579489959025229,1,0.999956
0.4741225587661756,1,0.999985
0.6965692846894063,1,0.999985
0.30550939000834465,0,0.998918
0.7837188479420745,1,0.999971
0.42980661931049224,0,0.957989
0.47091143406830266,1,0.999958
0.40268562892042553,0,0.920765
0.4645882587796214,0,0.998784
0.4772501461384535,0,0.988798
0.3741655083214741,1,0.999955
0.5150947174578702,0,0.999454
0.4083070931425273,0,0.938061
0.6485242551510466,0,0.956117
0.5720414308008692,0,0.914766
0.36842126680240417,0,0.957863
0.5761229872121141,0,0.946532
0.8657049306340227,1,0.999577
0.6378032075846154,1,0.999959
0.5882273040713957,1,0.999913
0.45998548746864987,0,0.998346
0.3968887644782056,1,0.999667
0.5176698063795739,1,0.999903
0.22979521185273355,0,0.978475
0.37993613083110306,1,0.999620
0.3491940322609767,0,0.947634
0.41606727245332525,0,0.999340
0.39830059934712414,0,0.982121
0.40592641413234526,0,0.998413
0.5300080866780955,1,0.999959
0.5202370638143855,0,0.998691
0.43433430197378353,0,0.998830
0.4622182064047897,1,0.999912
0.822835312744039,1,0.999752
0.5449274476346095,1,0.999955
0.3853771978687883,0,0.994557
0.42524786702673845,1,0.999955
0.39792870987920687,0,0.998284
0.40073295195646097,0,0.997678
0.5117127207862792,0,0.973578
0.13982330332445253,0,0.962107
0.24087713165088512,0,0.965202
0.18709205185199113,0,0.959738
0.26660218846683953,0,0.996800
0.588648251164888,0,0.999750
0.8417094577440463,1,0.999985
0.7762916811262494,0,0.999822
0.8786069319607753,0,0.999694
0.8909531636699454,1,0.999970
0.7578408504480296,1,0.999882
0.7804607606195221,1,0.999959
0.6043286480110563,1,0.999873
0.4039996009949047,0,0.995527
0.36320172130492323,0,0.948510
0.7143856652540669,0,0.991061
0.40057020261423026,0,0.999093
0.2730651448545332,0,0.919598
0.5877904615021026,0,0.998800
0.4776771113295025,0,0.994400
0.3462835582426225,0,0.935315
0.4139984764209808,0,0.908492
0.653453187671448,0,0.923091
0.4168499562611516,0,0.997771
0.3869288242592571,0,0.922065
0.39105500740196025,0,0.918884
0.5496991071175165,0,0.997987
0.4373943739754699,0,0.886689
0.33500627528410876,1,0.999954
0.6479497206829635,0,0.996795
0.8384475095435732,0,0.961965
0.3002517788144907,1,0.999955
0.31836363375877086,0,0.996648
0.34804739669150847,0,0.966073
0.6470706607445811,1,0.999730
0.40403631274008883,1,0.999957
0.5471116938006736,1,0.999956
0.27288110432229296,0,0.983188
0.2992571827881614,1,0.999956
0.36495952588256886,1,0.999952
0.43364118872115787,0,0.996216
0.33775631795842137,1,0.999958
0.6497717849258222,0,0.996642
0.3464481172950079,0,0.925921
0.3373807237164525,0,0.937706
0.3833748562812078,0,0.999429
0.47212701375680033,1,0.999738
0.4956330947962395,0,0.929693
0.32096129700511117,0,0.923705
0.703041020295566,1,0.999957
0.1968075192676705,0,0.926462
0.2179793031306811,0,0.944748
0.5799355430990719,0,0.987997
0.3536762573945104,0,0.977405
0.3891645587380095,0,0.914530
0.34694625690814546,1,0.999912
0.3286006518081912,0,0.995839
0.33098759026530017,0,0.936880
0.4065713509709493,0,0.927802
0.5025327523798707,1,0.999834
0.40465700755405093,0,0.997396
0.36480301707197776,0,0.979138
0.5712546868547504,1,0.999795
0.5008536834442361,0,0.932397
0.21126469438914214,0,0.925666
0.25821505727329264,0,0.979365
0.5460575578197551,0,0.999545
0.5893710476813956,0,0.999258
0.3320931682829409,0,0.919124
0.4021112874434294,0,0.915681
0.5434397349169752,0,0.993178
0.6772017352200417,0,0.919276
0.8405346620496599,1,0.999917
0.9046872236148105,1,0.999985
0.8590938071204951,0,0.999735
0.7320008986624583,1,0.999912
0.379846398254361,0,0.968881
0.4562513051337349,1,0.999956
0.6297928626766611,1,0.999620
0.43870687658918234,0,0.997990
0.5339876072255932,1,0.999910
0.3845984241685313,0,0.909597
0.4787189314316463,0,0.910054
0.8804339941077624,0,0.910312
0.3873273356458728,0,0.889008
0.4563857154529055,0,0.998841
0.4764585870430149,0,0.991393
0.34690689929273705,0,0.947415
0.39999107322117,0,0.908057
0.29253218406143533,1,0.999911
0.31232389443516767,0,0.951089
0.5115216456285784,1,0.999914
0.3349412688104843,0,0.966458
0.49874056945025164,0,0.977221
0.3546860265591233,0,0.945692
0.481190680536375,1,0.999958
0.5168386014654445,0,0.920094
0.5385070531774433,0,0.999348
0.5150782982925743,0,0.963761
0.7183391046513936,1,0.999954
0.459143948571333,0,0.999275
0.4771949656064389,0,0.929803
0.32052443498638666,1,0.999903
0.4320800137716776,0,0.977646
0.3237556744144559,0,0.905789
0.3851873655924851,0,0.936347
0.4210091499651398,0,0.999372
0.42324344494838223,0,0.948247
0.5180492714014708,1,0.999956
0.37171575061716416,0,0.996076
0.4785446282048447,1,0.999953
0.8983599216148324,1,0.999954
0.8680651569529939,1,0.999985
0.818255524784616,1,0.999985
0.8345919454929646,1,0.999985
0.8795874118737105,1,0.999985
0.7888163738311217,1,0.999970
0.8025145651337766,0,0.999793
0.8491713588880025,0,0.999823
0.8502317580159775,1,0.999985
0.8281224781998529,0,0.999465
0.8363111677567497,1,0.999985
0.814244241948607,0,0.999839
0.7619307281638212,1,0.999956
0.7930115818474328,0,0.999793
0.8281899559461186,0,0.999511
0.8208869931731217,1,0.999956
0.7662491870168711,1,0.999985
0.8281526600631682,0,0.997321
0.7863153083049346,1,0.999985
0.7820714675324328,1,0.999985
0.7363130778549132,1,0.999985
0.8002125638788736,0,0.999343
0.7537630552384107,1,0.999985
0.6881394365075304,0,0.997320
0.711658313225753,0,0.998594
0.7466648235643928,1,0.999985
0.7415839023399324,0,0.997870
0.30955413188132225,0,0.992197
0.6670550970080449,0,0.998278
0.341567788526264,0,0.994144
0.37881835538844005,0,0.950161
0.4749610429165854,0,0.996405
0.34487342474992866,0,0.972320
0.3987116005753651,0,0.951614
0.6389669915982816,1,0.999956
0.5583869275467381,0,0.994970
0.46261306318839807,1,0.999956
0.5475901197575713,1,0.999956
0.6216225536511304,1,0.999956
0.48000912109566374,1,0.999657
0.492773967361087,1,0.999953
0.4741382414980012,1,0.999788
0.43374844659409073,0,0.971691
0.45345271600537196,0,0.999382
0.46130905822962126,0,0.942353
0.44253770862281233,0,0.999067
0.32035419458221437,0,0.930293
0.4438996007195941,0,0.987065
0.5196126875054029,1,0.999957
0.4265947425490015,0,0.996959
0.3395903185758869,0,0.996526
0.3751847650766264,1,0.999913
0.44404507540189647,0,0.997699
0.3868201837795856,0,0.915725
0.3614148195374569,0,0.926156
0.39354601489657076,0,0.961711
0.4697793750831346,1,0.999908
0.3948677479817195,0,0.986339
0.48669346694517845,0,0.999244
0.3574678440670444,1,0.999958
0.4478658506737912,1,0.999689
0.5226556871518687,0,0.998773
0.5411395491381067,0,0.947290
0.558806084574154,1,0.999958
0.4229421289299398,0,0.912983
0.416163381610222,1,0.999956
0.37154715688710205,0,0.997736
0.4523225039785712,0,0.959240
0.41366442551346294,1,0.999957
0.4142342782606828,0,0.991253
0.35059379446475236,0,0.987221
0.39496525567399077,0,0.966172
0.5447109943128189,0,0.990135
0.4575783231709497,0,0.945658
0.4120356031388339,0,0.997942
0.46673629397019795,0,0.999569
0.6214224449319203,0,0.992054
0.7222021363685094,0,0.992589
0.7958715311310747,0,0.952465
0.8212602792795471,0,0.997307
0.8945428081924481,1,0.999866
0.6813355184548234,0,0.998605
0.6615857144862498,1,0.999870
0.6369556383794213,1,0.999955
0.6503156765906455,0,0.996321
0.6271159666368635,1,0.999686
0.7020889689574041,1,0.999956
0.47835933799150476,1,0.999876
0.43246801209951763,1,0.999956
0.4846875186487494,0,0.982173
0.4616595985083682,1,0.999956
0.38874700874310497,0,0.970931
0.3370450113285607,0,0.988848
0.34056953890791997,0,0.992666
0.4052374104556985,1,0.999956
0.3717549719202105,1,0.999953
0.2932539551874628,0,0.959235
0.1807101547864043,0,0.950090
0.3078955232098989,0,0.948019
0.44301587935517917,0,0.948769
0.3926336207930015,0,0.990032
0.423718937586427,1,0.999925
0.3279106112090187,0,0.969756
0.3886484369562869,0,0.950793
0.387378669369532,0,0.966680
0.4216894549876134,0,0.999470
0.5259909990676048,1,0.999955
0.43110137041636515,1,0.999954
0.4917234704170161,0,0.926775
0.4346983393339397,0,0.999183
0.46248723718579415,1,0.999910
0.3820527796614386,0,0.960872
0.5815369293152627,1,0.999954
0.34936478557277073,0,0.985958
0.5973224458673925,1,0.999956
0.8705421563796358,0,0.961486
0.8693240746912301,0,0.966357
0.3381111584213693,1,0.999984
0.8112166763859171,0,0.999617
0.8610340331606153,1,0.999926
0.8364833551692358,1,0.999985
0.8496986954587326,1,0.999956
0.8065581103100304,1,0.999985
0.8171645964870664,1,0.999971
0.835414726751794,1,0.999985
0.8659490516506956,1,0.999985
0.792787180570199,1,0.999985
0.42523065265004134,0,0.997966
0.6476443069741546,0,0.992528
0.353791955415347,0,0.963306
0.32336362399352425,0,0.999322
0.4213817542181657,0,0.995492
0.9386458204872163,1,0.999958
0.41607925573981996,1,0.999957
0.4472556366615773,0,0.998497
0.4845825943251803,1,0.999864
0.48600007169709364,0,0.998601
0.5668042496214548,0,0.913045
0.42553493067900533,1,0.999544
0.665009673581944,1,0.999864
0.37129617328987435,0,0.998782
0.43846402960835357,0,0.925168
0.4984342755896341,0,0.997895
0.45304372557932654,1,0.999876
