NaN,0,0.036641
-0.004025368541552828,0,0.973909
-0.0075361646249458535,0,0.868544
-0.00782919517500652,0,0.084094
0.014038555420662046,0,0.996980
0.8239005448228448,1,0.999967
0.834624101828566,1,0.999976
0.8618221160956948,1,0.999967
0.8694107048336389,0,0.905496
0.8691047635341825,0,0.892265
0.8675904505335829,0,0.889549
0.8633388973172508,0,0.997204
0.8476610591685226,0,0.986546
0.8399052780279098,0,0.999907
0.8398723687158394,0,0.997398
0.8372935642525342,0,0.940128
0.778551111965866,0,0.997066
0.7336820030534306,0,0.998202
0.7242614307581994,1,0.999977
0.7665297408802246,0,0.996218
0.818875533874125,0,0.994595
0.8189224389753362,0,0.999926
0.8189265282131114,0,0.971724
0.8182929274065799,0,0.995063
0.8179090635437081,0,0.997118
0.8177596369625016,1,0.999995
0.8175884537792258,0,0.993710
0.8109712208666968,0,0.998773
0.8102173409331994,0,0.978548
0.7920280135433716,0,0.988251
0.781434157779211,0,0.996124
0.7808895326152239,0,0.994571
0.7808102046870551,0,0.998721
0.7792743261266839,0,0.995487
0.7683514697994696,0,0.994311
0.7682289543349133,0,0.992452
0.7323401056180988,0,0.996326
0.7091946672501618,0,0.983300
0.7032025773603876,0,0.989508
0.6879936697087666,0,0.991650
0.6686855046977986,0,0.993213
0.6650576332053855,0,0.991696
0.6646892082231023,0,0.993703
0.6601049664695529,0,0.995249
0.6591706209876165,0,0.996828
0.6572310832983699,0,0.986585
0.6551041340776309,0,0.996425
0.6526926334912024,0,0.993879
0.6502684467226606,0,0.992907
0.6480652407862216,1,0.999937
0.6484333934168582,0,0.995619
0.6481631064622249,0,0.990985
0.647005088824009,0,0.991258
0.6376011620942187,0,0.994091
0.636404449569826,0,0.992399
0.628059940080588,1,0.999969
0.628059940080588,0,0.996769
0.6274699792369058,0,0.999842
0.6251343278818783,0,0.996986
0.6246573101990849,0,0.997723
0.630176742523017,0,0.998199
0.6364230902403787,0,0.996853
0.6361107717003915,0,0.997780
0.6371981095841631,0,0.998124
0.6460154817397873,1,0.999980
0.6465083149759334,0,0.993543
0.6575415137235355,0,0.998674
0.6698296668968103,0,0.996774
0.6876226268390256,0,0.999823
0.7267865500446389,0,0.999699
0.7584469659023048,0,0.999766
0.7681184411665898,0,0.998671
0.7811376007204568,0,0.999261
0.7864127680048554,0,0.998860
0.7885717627978391,0,0.996521
0.7908584419013016,0,0.998355
0.8021851335576091,0,0.998738
0.8003756260758765,0,0.998217
0.8152232072324546,0,0.999466
0.8168527322291506,0,0.998204
0.8254726135433278,0,0.998803
