0.4358801205479439,0,0.982858
0.6572815793893623,0,0.931638
0.5240729820955952,0,0.994176
0.4232817453973405,0,0.861394
0.46327453988883277,0,0.910685
0.4925779610374728,0,0.992884
0.5198033043354352,0,0.960083
0.38677969234288817,0,0.990788
0.5498161409156163,0,0.940517
0.526914524217499,0,0.946287
0.5164289797121473,0,0.987336
0.5837203032017758,0,0.993433
0.5905677121336258,0,0.973654
0.609601342519954,1,0.999254
0.35708290079599014,1,0.999725
0.5799025921341128,0,0.955190
0.5832962578984674,1,0.998234
0.677843386572848,0,0.972736
0.5972224067419669,1,0.999327
0.4708622492104734,0,0.794928
0.37907784566249575,0,0.984669
0.5530965536582233,0,0.994542
0.5512327145179499,0,0.997749
0.5729962980340133,0,0.964912
0.6431517389960534,0,0.946464
0.6066498707824933,0,0.989839
0.576483772138729,0,0.980769
0.6481203433154149,1,0.999595
0.6972192990553473,0,0.966107
0.6802365379129078,0,0.841349
0.7251864805455958,0,0.955760
0.7081473842678083,0,0.988839
0.7019547008872209,1,0.999207
0.663759094824006,0,0.993454
0.5946076120119853,1,0.999518
0.7208789604223953,1,0.997317
0.7636292154482491,1,0.997558
0.7911519675894139,0,0.927069
0.742139382865522,1,0.999328
0.5485289544508868,0,0.986917
0.6238145348530816,0,0.988070
0.6486444339131591,0,0.928287
0.6756842536293383,0,0.988408
0.6582093066175303,1,0.999866
0.7454725581883586,1,0.999461
0.7727717725605651,1,0.992586
0.7431984378447397,1,0.998735
0.7599061674943118,1,0.998904
0.6628178940628342,1,0.998684
0.6884628482764105,0,0.980070
0.8084495124336216,1,0.999313
0.814091412079146,1,0.996585
0.732462552064919,0,0.950349
0.8320314349678296,1,0.998603
0.7719735107585236,0,0.993960
0.7414882548568693,1,0.999371
0.8279891284558446,0,0.980334
0.6766259745908002,1,0.999392
0.5823590329090081,0,0.985137
0.6233080920223858,1,0.999864
0.667103142731659,0,0.938641
0.597373566263845,0,0.993643
0.6104593840848996,0,0.977323
0.732436165983896,0,0.997659
0.7293125008959944,0,0.977199
0.7696155003326361,0,0.997675
0.7830966146948511,0,0.987365
0.762318499864978,1,0.998796
0.7673888099533134,0,0.996700
0.7209444551253584,0,0.977733
0.7672891921050118,0,0.974674
0.6692268723173159,1,0.997533
0.7936027166302319,1,0.998554
0.6761540811852961,1,0.999472
0.7350722740488724,0,0.988514
0.807686375160832,0,0.992442
0.7804631876051048,0,0.987663
0.6823910639390932,1,0.997507
0.7905988387616745,0,0.977417
0.6445098302778887,0,0.994876
0.7071650753473931,0,0.990291
0.7280529037726301,0,0.993871
0.7456832388673414,1,0.997925
0.65195483132046,1,0.996507
0.7827163029604525,0,0.994586
0.7015010662078739,1,0.998816
0.7250392915053012,1,0.998517
0.6774523497068912,1,0.999799
0.7583857218021776,1,0.999559
0.7330873267078705,1,0.998711
0.7752557144382773,1,0.998857
0.730914078877462,0,0.997767
0.8128554563458602,1,0.999391
0.7958033302387276,0,0.988858
0.7922546372110392,1,0.998051
0.7707669736710895,0,0.809698
0.7484514728008494,0,0.984499
0.8411367263519565,0,0.966518
0.8125587647203666,1,0.995951
0.6851931904278963,1,0.999399
0.8089734943014119,1,0.998873
0.49815283413738476,1,0.993823
0.5675694890820545,0,0.956000
0.6190991973034938,0,0.989905
0.7393464336257093,0,0.892210
0.6988241807881811,0,0.993795
0.7614553395898666,0,0.989332
0.7385508183368001,0,0.979552
0.7104544095334246,1,0.998867
0.7833596576923574,1,0.997597
0.803052781185047,1,0.999450
0.8319185436967083,0,0.995141
0.7847536947761863,1,0.998122
0.7246689161921409,1,0.998943
0.8087284392043732,0,0.992276
0.6955310601690985,0,0.991537
0.7154029092131299,0,0.986819
0.7595268067926874,0,0.993410
0.7742036797445235,0,0.992880
0.8285566926919277,1,0.999568
0.7417994062501881,0,0.988372
0.789562908458398,0,0.996981
0.8035816910610218,0,0.977478
0.7694526003205969,0,0.969182
0.7603180922617746,1,0.997838
0.6519553224213643,1,0.999791
0.6910468880026266,0,0.959888
0.6586434520594074,0,0.979865
0.5045279271494633,0,0.982552
0.7001687536362493,1,0.999786
0.6290085104793661,0,0.927573
0.676067725966758,1,0.999093
0.7708801125153426,1,0.997480
0.8071835564808114,0,0.992866
0.7123511867753158,0,0.985492
0.7804376022037951,1,0.998314
0.7506126792743555,1,0.997872
0.7122456550783323,0,0.856647
0.7257478097420914,0,0.992561
0.7526382823120825,1,0.997936
0.7533475140241102,1,0.996717
0.7138012248434882,0,0.975078
0.817293158020244,0,0.992794
0.797405162459935,0,0.994514
0.7817378925722765,0,0.992215
0.8464754669383259,1,0.997009
0.7746408137950782,1,0.999557
0.8015932087821568,1,0.999677
0.8056318134224812,0,0.987188
0.8091188700886518,0,0.986336
0.6512248135922063,0,0.987578
0.8246101308586831,1,0.999648
0.8643350964924171,1,0.998917
0.6496847448415248,0,0.968494
0.654375037126906,1,0.999106
0.6837976979327538,0,0.988741
0.7166799531085948,0,0.996225
0.778806804883905,1,0.999721
0.693561867778845,1,0.997412
0.735060114207819,0,0.984127
0.8107843262278086,1,0.999668
0.822761053913041,1,0.998508
0.7190118165938132,0,0.981796
0.7476281486825958,1,0.999367
0.8204027871549763,1,0.999625
0.7100964193324861,1,0.999092
0.7909222356669612,1,0.997862
0.8024912621634511,1,0.997783
0.8236869727159957,1,0.998762
0.7491495907901564,1,0.999405
0.7532698551729071,0,0.998026
0.75622471205834,0,0.987836
0.6655937673560536,1,0.995257
0.7723368525016139,0,0.991613
0.7568228807487087,0,0.997346
0.6721791859254823,0,0.992156
0.7497021949018784,0,0.985359
0.6836790767632174,0,0.996344
0.5956719379517161,0,0.993818
0.7643995172516234,0,0.989313
0.8189741043023516,1,0.998531
0.5856242806352316,0,0.996251
0.5359915253450367,0,0.975317
0.69850531581523,1,0.997901
0.7089045841983219,1,0.999205
0.7294507037559493,1,0.997916
0.6653693451421927,1,0.996032
0.709376083937744,0,0.924929
0.6866382215939089,1,0.995687
0.8192215884238124,0,0.936577
0.7410742109983803,0,0.969291
0.691331215618815,0,0.997601
0.7260053074636295,1,0.999038
0.6938943002232185,1,0.997950
0.7994180668332795,0,0.992809
0.7784633895597678,0,0.992847
0.6029851811717766,1,0.994655
0.5912939832525482,0,0.774315
0.7469331772284811,0,0.990405
0.7526970189217317,1,0.999345
0.6835153438699603,0,0.988126
0.7614364053438539,1,0.999795
0.7306886602385209,1,0.998568
0.7995389196445705,1,0.998538
0.6761695073661232,0,0.990167
0.7476276842167706,1,0.999584
0.7299466326609622,0,0.966741
0.6468765208556632,0,0.993942
0.834083724234165,1,0.998386
0.7834915245261636,1,0.999807
0.8321393916644704,1,0.998985
0.8165461306415854,1,0.997132
0.8171955915514933,1,0.998982
0.5788890699626719,0,0.976362
0.6579643135224937,1,0.998221
0.729801372389314,1,0.999707
0.6939996755180817,1,0.997945
0.664694904100637,1,0.999106
0.7133418472358539,1,0.999210
0.7400751445790487,1,0.998500
0.7477596366903473,1,0.999674
0.7750281106649034,1,0.997695
0.6921350073617915,1,0.999213
0.7797115620691055,0,0.988818
0.7579512555522934,1,0.999322
0.6780829689174963,0,0.969578
0.5136236479132563,1,0.998413
0.6508984037316139,0,0.977376
0.5527363899196368,0,0.950535
0.757029222842104,1,0.992864
0.7357663239369833,0,0.979597
0.6848404198783515,0,0.947871
0.8423931158664995,0,0.996477
0.7611465731831749,1,0.999316
0.6121715940814161,0,0.975383
0.8055979807847966,0,0.917900
0.7292607878425174,1,0.999053
0.7449777151605431,1,0.999095
0.6853196767061006,0,0.970787
0.7419673808612172,1,0.999173
0.7890882920970609,1,0.999290
0.8253459979610037,1,0.999617
0.8518752384813062,1,0.999127
0.7494037259491589,1,0.999220
0.7705309455621933,1,0.996656
0.8024849098641923,1,0.999518
0.82767931114546,1,0.999836
0.7815852024336449,1,0.998721
0.6739133479849827,1,0.999390
0.5104874010337321,0,0.994879
0.543418304892761,0,0.963636
0.6665658944067132,1,0.999082
0.6783495699990233,0,0.993677
0.6555214559417878,1,0.998942
0.701295936128375,1,0.998150
0.7439412739890159,0,0.994739
0.7127301640763979,1,0.998763
0.768834500967649,0,0.959823
0.7341123007371703,0,0.970636
0.7741600183646682,1,0.998708
0.5943865890682324,0,0.820951
0.5548609790008113,0,0.989372
0.7918840858597189,1,0.996702
0.7359471164315725,1,0.998885
0.7528644927411915,0,0.992576
0.7625610115283035,0,0.972843
0.6322423058465189,0,0.996953
0.6850745982380612,0,0.995355
0.7333305030482338,1,0.999630
0.7471700791855364,1,0.999421
0.7738547952895987,1,0.999238
0.7643523705408537,0,0.995670
0.84110582691227,1,0.999115
0.659828477924517,0,0.993019
0.8072408724837502,0,0.994856
0.7653759167210252,1,0.998422
0.6693336416111095,0,0.992558
0.7304602921424342,1,0.998208
0.7740335636709744,1,0.998909
0.757967784446827,1,0.999739
0.7687879337893251,1,0.999213
0.6889673133135767,1,0.999462
0.8243777253267893,1,0.999798
0.8061296021388418,1,0.998212
0.6868573867888409,0,0.997678
0.6325186378065241,0,0.974880
0.6548067648219129,1,0.999519
0.6462774080768869,0,0.908839
0.7191207269278068,1,0.998386
0.7357135716881049,1,0.998869
0.7210713072757668,0,0.977918
0.7017595139687437,1,0.999079
0.6044660473341857,1,0.995587
0.6552869013089551,0,0.860973
0.681805122689364,0,0.830851
0.6580121213609703,0,0.810692
0.6678195975905995,1,0.998569
0.7642164914191026,1,0.998695
0.7347528891551165,1,0.998972
0.7524484595881944,1,0.999267
0.7095368484031064,1,0.999841
0.827218846732628,1,0.998976
0.7941341612101384,1,0.998975
0.6940574674268544,0,0.983230
0.7522582318495753,1,0.999626
0.6313193686836112,1,0.999408
0.5336144763682665,0,0.994999
0.43581087709877264,0,0.994622
0.7161594792689824,0,0.996722
0.5931047610612383,0,0.977896
0.5911754369777851,0,0.979880
0.6231204014176471,0,0.946201
0.6400490618368274,0,0.965137
0.8129370291210005,0,0.943400
0.7888876604206269,0,0.991717
0.695066243019959,1,0.993211
0.6458182905588107,0,0.995197
0.7161832693673,1,0.998779
0.6181060810923401,0,0.991268
0.8080681879789112,1,0.999565
0.775758276320602,0,0.996410
0.8349740061117242,1,0.998372
0.6298084821033842,0,0.935421
0.6256232369925379,0,0.997115
0.7467452359372381,1,0.996482
0.740347788581983,1,0.991379
0.689319185889269,0,0.992829
0.6043930603388116,0,0.946506
0.6242439998596319,0,0.992791
0.6563697832634571,1,0.999450
0.6098119113182522,0,0.985365
0.5982194104110719,0,0.990179
0.6967588202728329,0,0.995401
0.70185458260842,0,0.984160
0.7060733288347045,0,0.976908
0.6512035520148468,0,0.967490
0.7161983591961931,1,0.999431
0.4723692552524711,0,0.917615
0.6375329320124808,0,0.932031
0.6291704397398772,1,0.997107
0.7327447922393546,1,0.997916
0.7184620724698721,0,0.996642
0.773267796525193,1,0.999499
0.7895132572771544,1,0.997284
0.7948647855441299,0,0.995974
0.7219626562946172,0,0.817682
0.7269257238227633,1,0.998870
0.770755021857096,1,0.997365
0.7747041062237868,0,0.980849
0.8062864037557718,0,0.994110
0.768790122154067,0,0.996668
0.7974796289555751,1,0.999104
0.8330702842839529,0,0.938931
0.8022921957484705,1,0.999500
0.7822402185713844,1,0.998445
0.7623416267205473,1,0.999437
0.8493711602807398,1,0.997785
0.8184831886515249,0,0.997536
0.8285107511682785,1,0.999295
0.6480860469996296,0,0.972726
0.6084836652281712,0,0.933996
0.7560172478226983,1,0.999533
0.7627353025424866,0,0.802895
0.5706120361485914,0,0.874579
0.7033189375301123,1,0.998860
0.6431518011937003,1,0.998165
0.7654204698219422,1,0.998608
0.5629283552952634,0,0.867111
0.6856630706536107,1,0.999110
0.6821860605531417,1,0.998655
0.8120551800366287,1,0.999743
0.5843732737473909,0,0.998265
0.5215100172688825,0,0.984669
0.6197206665708486,0,0.939701
0.6873661483182945,0,0.991273
0.6370156695451249,1,0.997433
0.6758014624514848,1,0.999580
0.7210898120321879,0,0.995823
0.7213526346070791,1,0.997390
0.6873098205765897,1,0.999652
0.7402636745340102,1,0.999656
0.7012845376305559,0,0.978188
0.6802025927250334,0,0.997751
0.8204626926146179,1,0.999539
0.8319651032464229,1,0.998171
0.6309285595002382,1,0.998716
0.7330564314053972,1,0.998492
0.7761845315354985,0,0.981668
0.700059700676939,0,0.989832
0.6516467039175695,1,0.997715
0.7247061022020805,0,0.995867
0.7961695893365697,1,0.998213
0.7866009568246527,1,0.998907
0.6121262349125501,0,0.998222
0.7917807227866215,0,0.989531
0.8223010520359413,1,0.998776
0.6357007401750905,0,0.959291
0.7416280362849396,0,0.994485
0.7334063157103867,1,0.999648
0.775180959893576,1,0.999230
0.7650470172965528,0,0.982959
0.6552403613833376,0,0.988000
0.8242317589987902,0,0.996530
0.7781192107399632,0,0.986310
0.6745438231094955,1,0.999367
0.5748160218353789,0,0.952608
0.7618343214496001,0,0.995007
0.6674385982466761,0,0.994970
0.7197677820035429,1,0.998758
0.8156045485935036,1,0.999282
0.7683989966492242,0,0.994537
0.7317130222927483,1,0.997419
0.7732584658510182,0,0.997932
0.6592381957624599,1,0.998845
0.6881333936717179,0,0.993605
0.6973111552557526,1,0.998884
0.6380180029054378,1,0.999527
0.7249883808894315,1,0.997352
0.4509095656938645,0,0.914266
0.660258158243812,0,0.865452
0.6831577329634773,0,0.986835
0.6765735443485985,0,0.995444
0.6577277241676462,0,0.978145
0.7244073814322124,1,0.999228
0.5912738564310688,1,0.998903
0.8031731359636579,0,0.984527
0.5555941692674128,0,0.984869
0.6585421359658166,1,0.997857
0.6375002389160332,1,0.996489
0.7196379057990328,0,0.990041
0.7334096515270268,1,0.999037
0.710743250847885,0,0.984751
0.7638003817146162,0,0.953280
0.7921450964709812,1,0.998713
0.716234417188051,1,0.997762
0.7211261395076093,0,0.998126
0.614989388593689,0,0.980532
0.6095755998339114,0,0.816545
0.6825617617733174,0,0.977047
0.7288133143154396,1,0.999830
0.7851443936675082,0,0.990401
0.6765473042580968,0,0.974917
0.4851644658646603,0,0.919944
0.5894552324172465,0,0.921875
0.6395425401234814,0,0.939671
0.6778037134925272,0,0.994082
0.5573314568614877,1,0.999137
0.709318433284163,0,0.997320
0.7207274150670179,0,0.992594
0.5810765679941615,0,0.952611
0.6011826878790755,0,0.966522
0.6305303515961109,0,0.992829
0.7057526755446505,1,0.997358
0.6252629892843758,0,0.888207
0.6393315761485512,0,0.982048
0.6899735975287999,1,0.998625
0.6820942291564348,1,0.997936
0.7973650097860137,1,0.999690
0.8045346732241649,1,0.999431
0.7932038124379776,1,0.999346
0.6790977578587487,0,0.982239
0.5347622220425506,0,0.957700
0.6023933331239972,1,0.996988
0.7048265252002683,0,0.998104
0.685352445022608,1,0.999700
0.6052918487799629,0,0.979395
0.696780066419238,1,0.998571
0.5714288143064007,1,0.999480
0.6583609031106903,1,0.998055
0.6453068277721419,1,0.998703
0.6679562817457302,1,0.996166
0.7588109167378049,0,0.997763
0.7648404569538084,1,0.999570
0.7296486244792842,1,0.999306
0.7470163454223729,1,0.999712
0.6858882311020871,1,0.998127
0.739101212019048,0,0.993331
0.8027763483797896,1,0.997955
0.7844053752314283,0,0.995778
0.7403600748121854,1,0.997757
0.7855994286906839,1,0.998537
0.7411360624730104,1,0.995532
0.6967853789911884,0,0.975051
0.7145930024761901,1,0.997106
0.7143842733208701,1,0.999669
0.7067108939101895,1,0.997596
0.6735427979215795,0,0.995027
0.7989785303674749,0,0.996288
0.7768757488775513,1,0.999031
0.6565422118974734,1,0.998231
0.7305367509246116,0,0.995493
0.7607418435385543,0,0.982728
0.6762560635144487,0,0.994735
0.7243505195404083,0,0.983253
0.8056576186644041,0,0.995207
0.7003430389508581,0,0.988608
0.7386589949702208,0,0.998054
0.7111756571741068,0,0.996748
0.6615366273648389,0,0.976906
0.7290953983012539,0,0.995155
0.7342465220551533,0,0.989940
0.7306012263241278,1,0.997825
0.6763525431787817,1,0.999197
0.7890050478631079,1,0.999057
0.7641776988887975,0,0.995212
0.6761379995560478,0,0.995545
0.7349336676194754,1,0.998757
0.7406135057400672,0,0.996709
0.7339478738353165,0,0.952314
0.43886543958527446,0,0.962110
0.6820767243975044,1,0.998055
0.6638015030482887,1,0.999632
0.6262104912439735,1,0.998327
0.63719903723439,1,0.996433
0.6044097611838425,1,0.998628
0.6984713981521814,1,0.999742
0.670392344271017,1,0.996803
0.7700544504055227,0,0.993245
0.7881321079760321,0,0.997229
0.7420500428706291,1,0.999197
0.7558015999535426,1,0.997537
0.7570052531047322,1,0.998692
0.8009223894811389,1,0.999702
0.7499797802850398,1,0.999307
0.6773118321789839,0,0.996147
0.7494848160538526,1,0.999647
0.80209583771151,1,0.999539
0.7971039435118583,1,0.998560
0.8019670961429766,1,0.999358
0.6830555972917224,1,0.999580
0.80411436272157,0,0.991635
0.7399057422316327,1,0.995169
0.7527058377531447,1,0.998912
0.6557774931382402,0,0.977456
0.8081037745840939,1,0.995673
0.5058750655640476,0,0.962636
0.7155284390045377,0,0.997991
0.6803584235448092,0,0.966420
0.6957353274405309,1,0.997370
0.7371034453982483,1,0.999113
0.7673033207025661,1,0.999232
0.7495838920110163,1,0.997290
0.7480405252549495,1,0.999272
0.7110943953713175,0,0.992913
0.7052652169073941,1,0.999358
0.693264720506182,0,0.986902
0.6578866900524821,0,0.896739
0.6274685108419316,0,0.993538
0.685758977616155,0,0.975163
0.6580746860001088,0,0.993397
0.8209489082986227,0,0.966794
0.7045450741699133,1,0.997578
0.8165575754132323,1,0.999412
0.7555975561521979,1,0.999581
0.8312122886595978,0,0.905052
0.7713856718144833,1,0.999435
0.7885196694299387,1,0.999666
0.8218110005679428,1,0.998421
0.8014929885961928,1,0.999376
0.5825437129120453,1,0.999552
0.6116798227977304,0,0.997713
0.6732806729662298,1,0.999684
0.6826191320941581,1,0.999494
0.7056166768481464,1,0.999681
0.6848333620795766,0,0.986675
0.7503854284710519,1,0.997511
0.7375564901834025,0,0.994754
0.659506988892085,0,0.981132
0.7495117112789216,0,0.997787
0.7311710291118781,0,0.996114
0.7701853659111915,1,0.996090
0.8084689483385737,1,0.998481
0.7829341119264283,1,0.999091
0.7704863762047353,1,0.996619
0.7067529293485503,1,0.999718
0.677522920262633,0,0.969280
0.7204286171616632,0,0.993289
0.7729890873685684,1,0.999123
0.6202865996245139,0,0.859891
0.7188116477918146,0,0.996463
0.796096317995806,0,0.997036
0.8136426392561189,0,0.998292
0.554240792756722,0,0.956511
0.7508374991859234,0,0.972448
0.7335600427336946,0,0.991374
0.8343302987844793,0,0.997364
0.804983616717621,1,0.999435
0.7858702690893157,1,0.999184
0.7203420095837032,0,0.998143
0.623169102082305,0,0.814978
0.7575228600675288,1,0.998663
0.7563828757618241,0,0.988058
0.8455387937781568,1,0.999331
0.8448349071321942,1,0.998750
0.7721166043255008,1,0.998080
0.8020037384102742,1,0.999847
0.809389815309091,1,0.999667
0.8416292400337899,1,0.999680
0.7700349408716177,0,0.982436
0.8137698174673828,1,0.997247
0.8292883577719359,0,0.981271
0.8563471845654874,1,0.999840
0.8249931635220537,1,0.997326
0.846852619335135,1,0.999835
0.7912217005094043,1,0.999425
0.8007673635788547,1,0.998505
0.8550402695653632,0,0.977684
0.5794524675469924,0,0.989458
0.5231051448112646,0,0.917026
0.5804268690996931,0,0.856131
0.6087078042532789,0,0.931373
0.6712099969009965,1,0.999637
0.5069182123483174,0,0.991146
0.5687294840327032,0,0.965563
0.6155548055870455,1,0.998145
0.6521355655133299,1,0.999284
0.5388683109607526,0,0.978112
0.605722679395023,1,0.995098
0.7194852899567838,0,0.972497
0.6179598564697174,0,0.879263
0.6949610961883107,1,0.999341
0.5518391914748229,0,0.950972
0.6369703517216004,1,0.998797
0.6840918995373991,1,0.999659
0.49571987895317965,0,0.917725
0.6166251774633182,0,0.987982
0.5335949928745002,0,0.957123
0.6396979181229264,1,0.998150
0.6942170867477089,1,0.996806
0.693529117635252,1,0.999516
0.6558476210643168,0,0.971658
0.7315706479262516,1,0.997722
0.7226575952909686,1,0.999818
0.6893960589922624,1,0.998555
0.6228852107408752,0,0.972767
0.7473464100457138,1,0.999607
0.7561592856124973,1,0.998013
0.7423084134102814,0,0.997022
0.5354518832722791,0,0.987475
0.6097558374140243,0,0.966541
0.7525902139151753,1,0.999493
0.7920920996702292,1,0.997886
0.7564089576354612,0,0.992785
0.7390985259111775,0,0.993725
0.7215139749486765,1,0.999022
0.6715243239340198,0,0.998071
0.6794445635382184,1,0.998845
0.7428655973949849,0,0.933704
0.7420996388778018,1,0.998678
0.770899769891407,1,0.999384
0.6412739779020695,0,0.991664
0.755049620980303,0,0.997840
0.8108418147761224,1,0.998231
0.7370770020842022,1,0.999335
0.7694987555517033,0,0.985942
0.6752314794440984,1,0.998510
0.7281849845622004,0,0.975765
0.6374026321331338,0,0.981986
0.7169352630864533,1,0.999676
0.7412772921287619,1,0.999634
0.7494113158174446,1,0.998800
0.767816626595421,1,0.999387
0.7583333442353267,0,0.985836
0.8088926211081218,1,0.999788
0.7316470636114271,0,0.992067
0.6455509141167847,0,0.994987
0.5761668493543621,0,0.993939
0.6883610535872523,1,0.999492
0.5788724286577303,1,0.999536
0.626903539595169,1,0.996571
0.5882989450593596,1,0.999694
0.6689948788157454,1,0.999822
0.6706106155602035,1,0.997043
0.6398845494906754,1,0.998349
0.5514957168335402,0,0.933560
0.5926774761959204,1,0.999155
0.5450639120681968,0,0.925165
0.659077557936566,1,0.998464
0.6564718285045099,0,0.995273
0.7646761778061223,0,0.996598
0.682647748667907,0,0.990571
0.7674138728655145,1,0.998238
0.7369472502181493,1,0.999230
0.6793407926478514,1,0.999260
0.7390059406099829,1,0.995380
0.8181979769328676,1,0.998887
0.7147990608787296,1,0.998970
0.6821023198897674,0,0.996545
0.7120446244706655,1,0.997284
0.6610947054678551,0,0.996502
0.6360742007392843,0,0.982418
0.7822839917231723,1,0.997476
0.7197093416118886,0,0.991269
0.5649284718479526,1,0.995644
0.680072370941926,0,0.995909
0.6834154053377587,0,0.946576
0.796211913871842,0,0.993510
0.809649656004911,1,0.998854
0.693508385447423,1,0.998707
0.7145989643150821,1,0.999551
0.7773044182351853,1,0.995749
0.7308736868686793,0,0.992461
0.7286747492122965,1,0.999444
0.7635080288009223,1,0.999410
0.7740438901010058,0,0.958479
0.7459694743495158,1,0.998183
0.705425258570112,0,0.963046
0.680391605126014,1,0.997016
0.721923488220397,0,0.981849
0.6975419127075719,1,0.999531
0.6315178767875118,0,0.979405
0.8164293151177768,1,0.999163
0.6459749407110984,0,0.988071
0.6568803609100338,1,0.999479
0.6716890180074145,0,0.996608
0.7438299891782152,0,0.953861
0.7474392113247232,1,0.999835
0.7896395190919052,0,0.991159
0.7052154334690595,0,0.992177
0.7252299990733874,1,0.999633
0.7733525003381919,1,0.999094
0.741537065064579,1,0.997490
0.7468363924350637,1,0.999283
0.8367278902406142,1,0.999843
0.7292540149169514,0,0.991603
0.7767321272111078,1,0.998353
0.48997939714792355,0,0.993435
0.5998586495347333,0,0.998173
0.6523262387034542,1,0.999615
0.5888406729384795,1,0.996561
0.6592781293377068,0,0.980889
0.6596066265069667,0,0.985320
0.6512583371944616,1,0.999447
0.7586634970377764,1,0.998960
0.7087718088816214,0,0.970802
0.7070728948006569,1,0.999252
0.6779193977585113,0,0.985085
0.6905812257638974,0,0.984418
0.7802969447639945,0,0.995813
0.671950134680853,0,0.991456
0.7239134104239453,1,0.998543
0.7593344391471305,1,0.999057
0.7506447953289176,1,0.999179
0.6086833740704789,0,0.980259
0.7393703997188519,0,0.962834
0.7680209107886544,0,0.958202
0.7534343630788295,1,0.999058
0.660091905060655,0,0.992354
0.7853250521179765,0,0.997967
0.7846723928395004,1,0.997054
0.8031330839445162,1,0.999184
0.7465045201885977,0,0.979120
0.7433770401700146,0,0.989820
0.6174068523292982,1,0.998419
0.7997860803272635,1,0.999250
0.7435721369985088,1,0.999505
0.7448151781440733,1,0.999493
0.7964862084601697,0,0.996448
0.7989847078280194,1,0.999652
0.7864226437769058,0,0.989529
0.6872351555513732,0,0.995124
0.7735008575576083,1,0.998862
0.7323038826144088,0,0.986130
0.6885459624112044,0,0.970874
0.7575685413984609,1,0.999653
0.7082896743587539,1,0.998053
0.7007067694646316,1,0.999043
0.7089961141599519,0,0.991740
0.7184435582881629,0,0.992268
0.6658665752268803,1,0.998976
0.7206479681578016,1,0.998321
0.6865677677303239,1,0.998894
0.7348290130826055,0,0.909173
0.6344720749361755,0,0.996720
0.7639319736430187,1,0.997947
0.6390396929716425,1,0.996255
0.7075979494980721,0,0.989437
0.6572518073006834,0,0.822995
0.6316545868423061,0,0.960323
0.7068976653087685,1,0.998291
0.7806227117380264,1,0.994934
0.7972601518399933,1,0.998915
0.7006526331813124,0,0.994644
0.6961448291505992,1,0.998193
0.6413905276181355,0,0.939582
0.6714843314159128,0,0.996925
0.6131306658694956,1,0.999657
0.7314855994095156,1,0.998312
0.6645668454633298,0,0.996932
0.5830807606520747,0,0.966934
0.5640663398177924,0,0.989140
0.7285333756086445,1,0.999824
0.7009278700603278,1,0.998145
0.7311262287816667,1,0.999046
0.5405160127415735,1,0.999373
0.6031106466199265,1,0.999643
0.6769356258198727,1,0.996507
0.6998842522849488,1,0.998453
0.672974135083942,1,0.997272
0.6853535376599957,1,0.999637
0.6679505801854032,1,0.999464
0.712571364381975,1,0.998853
0.5673956591399739,1,0.998389
0.6163325146948886,1,0.998338
0.7306369104266078,1,0.996796
0.6219429799342934,1,0.999835
0.736482849540585,0,0.998042
0.5723053032749948,0,0.989280
0.6971447686457904,1,0.999181
0.6714736532333067,1,0.998633
0.5955132915820831,0,0.971195
0.612018981895508,1,0.998663
0.6474458874113987,0,0.992547
0.6396189917217003,1,0.997091
0.6997245685628484,0,0.983793
0.7522658599453447,1,0.999624
0.6733262735712755,1,0.999609
0.6385110239868825,1,0.998434
0.7118876909283194,1,0.999411
0.6622083791730892,1,0.998841
0.6496532087205814,1,0.999857
0.6841939153684626,1,0.999820
0.6968170481239939,0,0.996283
0.7129650467822073,0,0.996020
0.713981869005537,0,0.993024
0.7884976601664551,1,0.998941
0.8152231728092,1,0.996774
0.761119639670395,1,0.999324
0.7398833338255408,1,0.999657
0.7104227644992334,1,0.999147
0.8058624939697507,1,0.999303
0.7296399843970302,0,0.969032
0.8084127882892634,1,0.998989
0.8097042448422463,1,0.999640
0.7058500816993364,1,0.998553
0.5411627414696646,0,0.979474
0.7276524162958716,0,0.996728
0.6625665804780223,0,0.992532
0.7265505311963459,0,0.997071
0.7467896748110736,0,0.953887
0.7386019187504667,1,0.998705
0.7321549712993631,1,0.998672
0.6772450552222467,1,0.998524
0.7975997506499924,1,0.999270
0.7454933093898345,1,0.999125
0.6385075743502863,1,0.998902
0.6555228330186651,1,0.999007
0.6955891807191308,1,0.999555
0.6771409354222866,1,0.998444
0.6951983023548876,1,0.999654
0.7179438410415719,1,0.999493
0.7020068156637939,0,0.997119
0.6428263429303913,0,0.991219
0.5634273846925496,1,0.998284
0.6738500147698032,0,0.968800
0.6232868337651778,0,0.967044
0.5328705244460855,0,0.988625
0.5399315340013884,0,0.983794
0.5788141517784824,1,0.998614
0.6234486267496439,1,0.993007
0.6504632850319624,0,0.995222
0.6131393197139785,0,0.961193
0.6360245137109479,0,0.995997
0.6886469322276102,0,0.975574
0.6538580177335451,1,0.996564
0.6966749804322135,1,0.999416
0.5981958580471818,0,0.993636
0.6594893476164353,0,0.989835
0.6823330185892114,0,0.933504
0.7018191688406421,0,0.997811
0.6484908213074921,1,0.995833
0.6787673134979826,0,0.942238
0.7256771456350547,0,0.993228
0.7297101679141215,0,0.995596
0.7066350984708388,0,0.995961
0.7571321406814283,1,0.997612
0.6589695642981431,0,0.990996
0.6625736904102936,0,0.980518
0.7737289333710217,1,0.999674
0.7570206408072314,0,0.985651
0.7963864123814135,1,0.999365
0.781693287064422,0,0.998019
0.7839389785481106,1,0.999828
0.7538110313727567,1,0.999383
0.6781870804374187,0,0.990792
0.6927029725380727,1,0.999756
0.7178421720126895,1,0.998927
0.8217086395488385,1,0.999425
0.7690996697249315,1,0.998316
0.7912967407688208,1,0.999184
0.7670116260247665,0,0.976503
0.8339744749443198,1,0.999847
0.7090161635217149,0,0.990485
0.7186860190750956,1,0.999240
0.5740516502941307,0,0.991673
0.6603792574453207,0,0.971813
0.6984527280838467,0,0.957270
0.716236876912528,1,0.999275
0.7462584413029218,0,0.996125
0.7134383051247734,1,0.998625
0.7036330535555291,0,0.959779
0.7641584514369424,1,0.998633
0.7172321466627959,1,0.999674
0.756455421115784,0,0.985014
0.7679960782095275,0,0.991622
0.7650633721697783,1,0.998763
0.7520469940115274,0,0.993361
0.7693304338248043,1,0.999601
0.6989224780202741,0,0.995743
0.616713694974759,1,0.999316
0.6267306804502984,1,0.999114
0.5166846049206083,1,0.999483
0.46775995462880693,0,0.969099
0.6748448417645722,1,0.998503
0.5699396415332054,0,0.965373
0.7017208285587179,1,0.998571
0.7081724661769916,1,0.996788
0.5804792909126978,0,0.982685
0.6614543460409664,0,0.996506
0.6955256734303819,1,0.996288
0.7512476030982183,1,0.999849
0.682474941172544,1,0.998420
0.7321595830297078,1,0.999263
0.6354096624259146,1,0.999571
0.6032762735946037,1,0.999386
0.6459732094218126,1,0.997678
0.7664217097834308,0,0.993421
0.7205083659778122,1,0.999303
0.5634424052055973,0,0.996997
0.6462158910277177,0,0.997634
0.6730446959519579,1,0.999252
0.7861699641894511,0,0.966204
0.7566820733348487,1,0.998818
0.7514951405584769,1,0.998982
0.7410633409071069,1,0.999661
0.687042969036763,1,0.999358
0.7134087264519391,1,0.999419
0.725888470776199,0,0.997976
0.7764512883640302,1,0.999653
0.737301602577729,1,0.996473
0.7974460023289208,0,0.995577
0.7353866966131964,0,0.942537
0.7035660587568126,1,0.999690
0.7915676694026068,1,0.997469
0.7353424868459887,1,0.998156
0.7367273819605648,0,0.965558
0.7637940137578563,1,0.999245
0.7659405828770646,1,0.998146
0.7237675190881009,1,0.999529
0.7855434792525241,1,0.999667
0.7759670242307394,0,0.996178
0.838959200209089,1,0.999234
0.742561808373487,1,0.997551
0.6264154718197691,0,0.995583
0.7039894638177379,0,0.949949
0.5757499467198282,0,0.994109
0.689782144842694,0,0.937586
0.7582281666877798,0,0.963439
0.7221757720449823,1,0.998223
0.7642419857894376,1,0.998756
0.7793353222717005,1,0.998962
0.7707069287965019,1,0.997981
0.7737965964893013,1,0.999323
0.7594845671205638,1,0.999492
0.6940972350828144,1,0.998704
0.7159590592033175,0,0.997377
0.6822499499088281,0,0.981655
0.7195371661980248,1,0.999648
0.7288324251964565,0,0.980625
0.7059861479870141,0,0.992953
0.7564521691519441,1,0.998572
0.8003343970761053,1,0.998981
0.7496108304168986,1,0.999382
0.7368790635769151,0,0.978415
0.5207524877336257,0,0.996251
0.621734546432239,1,0.998043
0.6042684938932523,0,0.996634
0.6013936931467424,1,0.997584
0.587310090238526,1,0.999543
0.6716448105523405,0,0.990665
0.6321197806702097,1,0.999519
0.6890683724846233,0,0.997849
0.7033629358306728,1,0.999406
0.6835586680500687,1,0.998454
0.7214346995464049,1,0.996414
0.7403018064440686,1,0.999004
0.6994248761885223,0,0.996947
0.7038475347637482,1,0.999163
0.6018246050767108,0,0.973033
0.658258576303476,0,0.966586
0.6961425134458803,1,0.999796
0.6762224112109269,0,0.996128
0.7462243407524851,0,0.947946
0.6568254079607149,1,0.997634
0.7254723504506096,0,0.978226
0.7664149219784189,1,0.997242
0.7389132401323069,1,0.999654
0.6162843206075926,1,0.999776
0.7089863405472581,0,0.985851
0.7888282085343882,1,0.999027
0.7110318404874796,0,0.986686
0.6454450030713028,0,0.966612
0.7835590179852032,1,0.999812
0.7646174585555198,1,0.999444
0.738986529508787,1,0.999175
0.7137242697532389,0,0.990073
0.7060805448995107,0,0.995492
0.7360882197967417,1,0.997129
0.6696532854329866,1,0.998980
0.7921915127007125,1,0.997235
0.7301872174308424,1,0.998789
0.772821580160175,1,0.999198
0.7143402112919134,0,0.993893
0.7956278519036003,0,0.995900
0.7907953613886648,1,0.997925
0.7617012272787741,1,0.999669
0.8451288140254403,1,0.995636
0.80966986626545,1,0.998999
0.8272593300641027,0,0.989283
0.773731216478246,0,0.958475
0.7712619665756761,1,0.999271
0.7713079567292422,1,0.998842
0.8295080796670931,1,0.996639
0.843855030580999,1,0.999076
0.7581888347628594,1,0.999533
0.6773275450009737,1,0.999295
0.7113837038945449,0,0.996522
0.8088841011823444,1,0.997156
0.7774291053543767,1,0.999501
0.8097982848029637,1,0.999262
0.7579300282311697,1,0.996169
0.6703575638974419,0,0.942123
0.7775050174095826,1,0.995920
0.6663475470274591,0,0.996142
0.7412639703967064,1,0.999373
0.8007889348495184,0,0.990577
0.8166799986736464,1,0.998973
0.746848111376343,1,0.999547
0.6786361120176604,0,0.988191
0.7181810437302091,0,0.978694
0.7151016325731674,0,0.997633
0.765442525529069,1,0.999629
0.8014865137377355,0,0.995163
0.6269693628325844,0,0.983902
0.4944982807154766,0,0.970388
0.6531915226445831,1,0.998398
0.4862296473549849,0,0.953542
0.5519334877310595,0,0.995084
0.6205078433691505,0,0.873460
0.5733106609469022,1,0.997773
0.6314963091707532,1,0.999167
0.6706257111644999,0,0.974240
0.6159412871334315,0,0.988468
0.6271985163564625,0,0.956773
0.6511489696479029,0,0.992170
0.6859592491429917,1,0.997999
0.7422615689241748,0,0.986832
0.7388877180866428,1,0.999642
0.7057963378203288,1,0.999667
0.6996507904438741,1,0.998488
0.747639484394025,1,0.999282
0.627771777841628,1,0.997230
0.7644576225071403,1,0.999573
0.6533895434523319,0,0.952723
0.7430301931113042,1,0.998242
0.6555456279448022,0,0.977211
0.6465796863170202,0,0.975224
0.7186548152042153,1,0.998350
0.7800402747434422,1,0.998141
0.7823339681671809,1,0.999835
0.7792762701038836,1,0.998644
0.6585580336808783,0,0.997468
0.7971098269427757,1,0.998233
0.8142812472196956,0,0.997315
0.5866171334701399,0,0.983447
0.791056677342217,1,0.996673
0.7939341822302373,0,0.995325
0.8037277054615505,1,0.999210
0.7907408640718944,1,0.998728
0.7885028500703194,0,0.994536
0.5961906966297399,1,0.998331
0.8225528293764343,0,0.997974
0.759654820415416,1,0.999236
0.8181445504473183,1,0.999025
0.7872643785948584,0,0.990457
0.7905281523910241,1,0.999329
0.6931754031195184,0,0.837256
0.7856147984934714,1,0.997746
0.6531462457099094,0,0.987949
0.650929529260038,0,0.996376
0.7847182365947788,1,0.998047
0.8108598252972083,0,0.993401
0.7358795101045561,0,0.994455
0.8030646831260928,1,0.999673
0.7739191220464825,0,0.977754
0.7670991759530571,0,0.961844
0.7267951252179726,0,0.988998
0.772195983568937,1,0.997342
0.7751677774358249,1,0.999027
0.7805103154027755,1,0.998298
0.795491396503442,1,0.998138
0.7158541346841711,0,0.961806
0.8332960935588392,1,0.999255
0.7889094760892912,1,0.999440
0.7238637004637067,1,0.998972
0.7612372458296631,1,0.998600
0.7904229772413262,0,0.937104
0.7650605944264847,0,0.994979
0.6650684091978354,1,0.998624
0.7596631537664735,0,0.994142
0.6544570938237448,0,0.993917
0.6942303167708204,0,0.994831
0.7146050393169401,0,0.969969
0.8012746169718168,0,0.987818
0.5999474362102962,0,0.705268
0.4954888913715686,0,0.973602
0.4373216975063662,0,0.991262
0.6472215787381245,1,0.999250
0.6164939724186004,1,0.998305
0.6211182659370186,0,0.943329
0.6723278039374965,1,0.997164
0.6504118376592728,0,0.966247
0.6720668022911406,1,0.999455
0.6735897439585101,1,0.999626
0.6703304343759846,1,0.996839
0.5986997468823638,0,0.920740
0.6339254857779529,0,0.977958
0.5616074769883456,0,0.992936
0.6311614442299551,1,0.997884
0.6116537759235517,0,0.923831
0.6766701203378034,0,0.976972
0.6923827354890429,0,0.979362
0.7193295460638034,1,0.999050
0.7714104854229594,0,0.977365
0.6797843782312488,0,0.959164
0.6792116216620243,0,0.997441
0.6685512004151092,0,0.978384
0.5947851489022863,0,0.996051
0.7424018790084712,1,0.998575
0.7034282610104236,0,0.956556
0.6862630736687283,1,0.999628
0.7699244711827301,0,0.989480
0.7991821422690442,1,0.999313
0.7774644783822083,0,0.991540
0.7399884903108993,1,0.996936
0.7571137845020199,0,0.994032
0.6578986264944678,1,0.997669
0.7717423347347729,1,0.998155
0.7901790334642431,1,0.998593
0.8065978183953729,1,0.999496
0.7898318233489631,1,0.997900
0.7534801806518301,1,0.998385
0.7687150209615636,1,0.997217
0.7253761719008216,1,0.998056
0.7170996981426042,0,0.992665
0.7636215572566099,1,0.999539
0.748386184149073,0,0.991922
0.7243866796755174,1,0.997386
0.8108513881773982,1,0.997449
0.7985521541462862,1,0.999460
0.7660596647874232,1,0.999083
0.791209275733913,1,0.998475
0.6954823989946483,1,0.998984
0.6957357186506867,1,0.998537
0.6009240511659532,1,0.999243
0.7983930828439675,1,0.998645
0.8023196601344519,1,0.998418
0.7979249850441243,0,0.997757
0.7071019060420786,0,0.992958
0.796796404357393,0,0.996448
0.7728113203224467,0,0.988242
0.7911009403045006,1,0.996651
0.7950312368244835,1,0.999508
0.815931500497401,1,0.999514
0.6441126940164622,0,0.991624
0.6983819429884012,1,0.999524
0.6382418958715247,0,0.995001
0.7508084029075435,0,0.997308
0.5500378705612586,1,0.995751
0.7228495827165256,1,0.993823
0.7677399515661367,1,0.999364
0.7839545199055196,1,0.996615
0.8417980384212717,0,0.984668
0.7459183090650707,1,0.998624
0.8291267754681625,0,0.985354
0.7714130956854701,0,0.995691
0.7439611967824921,1,0.999244
0.7897439634586667,1,0.998830
0.7857173721782823,1,0.998059
0.8002113118201305,1,0.998897
0.7442810861204696,1,0.997398
0.562989384012709,0,0.978802
0.5646606505984784,1,0.998006
0.6152964228921446,1,0.996586
0.6246773870627297,0,0.939137
0.5538559468312126,0,0.985147
0.5768548294861479,0,0.994457
0.6370069742872003,1,0.998180
0.5363622910983527,0,0.977083
0.537414017787869,0,0.995734
0.6316167443533538,0,0.993233
0.6700812072803762,1,0.998661
0.6133227137836332,1,0.998445
0.6638016496609453,0,0.991961
0.6272034269572003,0,0.996748
0.6686158419965649,1,0.999792
0.6919097113189734,1,0.998862
0.6678625304341212,1,0.999846
0.7285494013928802,1,0.995937
0.681332761351958,0,0.919411
0.6587570472399217,1,0.998513
0.7187995962749131,0,0.996143
0.7429412639507164,0,0.981932
0.6717774485795536,0,0.994491
0.7167473680556172,0,0.995794
0.7471905470459922,1,0.999591
0.7419728444212329,1,0.999567
0.7828200413855744,1,0.999389
0.6785355312357879,0,0.976952
0.758560493814422,1,0.999610
0.7652122935257093,1,0.998674
0.7743599971450698,0,0.991306
0.7089654629583348,0,0.996412
0.7024618320964612,0,0.993045
0.7903480745381878,1,0.999340
0.6865099087346638,1,0.998795
0.7822770572329928,0,0.995905
0.6679624481702073,0,0.980835
0.7665673535180384,1,0.998941
0.8040942642611302,1,0.999516
0.7866828674274153,1,0.999186
0.7834300460519598,1,0.999679
0.8106593751404133,1,0.999610
0.7881500832490745,1,0.999775
0.7772351061729611,0,0.991324
0.7408158660721704,0,0.989534
0.7344538077099957,1,0.999423
0.8204487614542268,1,0.999161
0.7121433984877279,1,0.999677
0.7604968464521948,1,0.998147
0.6791479580011389,1,0.999587
