0.968111260946708,1,0.978437
0.970258642596892,1,0.954839
0.9756566408869419,1,0.990741
0.9779166779539564,1,0.992509
0.981299581816194,1,0.980645
0.9867364457556682,1,0.998476
0.9893063194971915,1,0.998418
0.9907242324289561,1,0.994175
0.9920284357711099,1,0.998058
0.9926843021757458,1,0.995585
0.9932547829002784,1,0.998077
0.9938735656978599,1,0.994633
0.9941812942939385,1,0.994382
0.9945892058635827,1,0.997487
0.9950476475435115,1,0.995702
0.9955027330910413,1,0.994633
0.9957405139115224,1,0.996599
0.9958742828206284,1,0.994350
0.9959188126846941,1,0.998487
0.8470139483027571,1,0.990826
0.9053200210580324,0,0.919643
0.9258518639364681,0,0.910864
0.9389052038400542,1,0.987889
0.9502347511308666,1,0.995585
0.953849681558883,1,0.993697
0.956541604307611,1,0.998165
0.9583310753861952,1,0.995349
0.9590083797186972,1,0.995238
0.9607608584436822,1,0.997963
0.9620082081200838,1,0.993952
0.9624707189801384,1,0.993958
0.9644909726521628,1,0.995033
0.9656733321159815,0,0.854685
0.9676907507268635,1,0.997976
0.9689989442796734,0,0.770370
0.970491123898111,1,0.984456
0.9713582717444588,1,0.996904
0.9711373526461847,1,0.991870
0.971482680810886,1,0.996835
0.973335312076355,0,0.979866
0.9768268193548537,0,0.974510
0.8918358022570024,1,0.989510
0.9168249619057309,1,0.993421
0.929550770584912,1,0.996711
0.9307341093021703,1,0.995181
0.9330827785220551,1,0.997636
0.9360243865130913,1,0.994638
0.935135590592034,1,0.988615
0.9345152899291371,1,0.992016
0.9339808267803028,1,0.988662
0.9316275130974381,0,0.842857
0.9269501069827909,0,0.800000
0.9186858493736523,0,0.981067
0.9119717799893061,1,0.995565
0.9110241412464029,1,0.946746
0.913713306814458,1,0.992248
0.9187882284069517,1,0.991247
0.9241771361264621,1,0.988290
0.9294374478969153,1,0.986957
0.9353044191866602,1,0.997297
0.9408977162672175,1,0.979769
0.9460897132390788,0,0.965714
0.952356681402195,1,0.992462
0.9570194837293758,0,0.981233
0.9606213205039241,1,0.989233
0.8981048881016531,1,0.998088
0.9288019575763231,1,0.996622
0.939713908167264,1,0.998192
0.941877142126509,1,0.994667
0.942590002028126,1,0.997305
0.9421288303509953,1,0.997423
0.943001346824204,1,0.984127
0.9454322213433353,1,0.997283
0.9462534812939972,1,0.993197
0.944766245554112,0,0.970297
0.9441973306802206,1,0.997596
0.9411993634285438,1,0.979592
0.9395234745161807,1,0.994475
0.9380727505655803,1,0.997758
0.9365926173326103,1,0.990971
0.9337651515382064,1,0.997543
0.9330299050734574,1,0.997812
0.9299618523385564,0,0.910026
0.9271665882508923,1,0.986239
0.9241568890491663,1,0.995652
0.921684122370264,1,0.990017
0.9195393245908319,1,0.997531
0.9179038457597543,0,0.964856
0.9168872121458821,1,0.997602
0.9151725222743654,0,0.964115
0.9135861142720934,1,0.998073
0.9124391836566357,1,0.993658
0.8885792077593826,1,0.980000
0.8938473682807945,0,0.904762
0.8979428654231743,1,0.989691
0.9013150999669207,1,0.989691
0.9022353134998597,1,0.996350
0.9009745912439945,1,0.997849
0.8965352741708872,1,0.985149
0.8943470126148635,1,0.990950
0.8939948806740271,1,0.987976
0.8979549734712667,1,0.994845
0.9000898168562433,1,0.994778
0.9031856351094776,1,0.993528
0.9068070926137453,1,0.976623
0.9103831471190016,0,0.942085
0.9153189112863659,1,0.997143
0.9185618821231442,1,0.998024
0.9221572389139586,0,0.485507
0.9270517767899514,1,0.986175
0.9292027383581993,1,0.977208
0.933635628307007,1,0.995781
0.9351706845934922,1,0.997531
0.9367631424200916,0,0.965714
0.9379881443868016,1,0.997085
0.9382464526986334,1,0.996094
0.9383561430565082,0,0.973451
0.9389615359866487,1,0.999135
0.9401754595182426,1,0.996667
0.9408507894814754,1,0.996154
0.941289273431116,1,0.979215
0.9415119570398468,1,0.997372
0.9413390304325567,1,0.989547
0.94060378348916,1,0.998294
0.8891977214580213,0,0.970270
0.9062729398153245,1,0.985130
0.9187670260157846,1,0.975000
0.9282429593289537,1,0.976526
0.9365303303529983,1,0.985714
0.9379123358184401,0,0.926190
0.938579636187856,0,0.924870
0.9363496385144536,1,0.985222
0.9371885478644324,0,0.893417
0.9383806162051681,1,0.954751
0.9432895894002491,0,0.951220
0.9492851328068598,0,0.951662
0.950719003616775,0,0.912664
0.9521773198085822,0,0.919271
0.9551671315613134,1,0.994269
0.9548229223130565,0,0.962441
0.9560648114817076,0,0.907692
0.9559265432712687,0,0.938710
0.956040747635644,1,0.995465
0.9550916944196008,0,0.871795
0.9539971812622969,1,0.983505
0.9524557015054148,1,0.996466
0.950608036611284,1,0.995614
0.9489515313433627,1,0.996303
0.9479450068616617,1,0.995781
0.9465698387795433,1,0.996055
0.9441339103809672,0,0.938017
0.9413507911814836,1,0.990544
0.9377942907092686,1,0.992366
0.9360842722181424,1,0.995708
0.9353772157144896,1,0.996000
0.9340329776448495,0,0.780269
0.9321199025956239,1,0.990809
0.9302597545919921,1,0.996633
0.9289730140385445,1,0.997579
0.9283821633560706,1,0.997531
0.8730311157145102,1,0.989247
0.8813956247656426,1,0.996865
0.8926688255457561,0,0.908805
0.9142479959520319,1,0.986047
0.9277499844109642,1,0.998605
0.9408291801445327,1,0.985653
0.9485477240912743,1,0.998004
0.9491478435138161,1,0.959839
0.9471877900954812,1,0.996161
0.9433745144148572,1,0.998205
0.9381363059748131,1,0.996422
0.940054363655255,1,0.993506
0.9419684446682868,1,0.995893
0.9400667157425199,1,0.996540
0.9390486207680928,1,0.989796
0.9387715870573033,1,0.996825
0.9389183274229661,1,0.994987
0.9394855036199784,1,0.995444
0.9387576810800858,1,0.996109
0.9377873797653334,1,0.993258
0.9380639701939018,1,0.993603
0.9369726949974949,1,0.997468
0.9368914178416348,0,0.930851
0.9367046267883566,1,0.997389
0.9350169776864763,1,0.996805
0.934124569391221,1,0.997543
0.9334832919320588,1,0.995146
0.9334674163813979,1,0.993711
0.9326545853911421,1,0.998350
0.9317304452571118,1,0.996008
0.9307828341469461,1,0.995935
0.9309101443600161,1,0.996292
0.9302239142177372,1,0.986460
0.9299723732641638,1,0.997835
0.9290926549292612,1,0.986971
0.9286445104261154,1,0.997792
0.8682748247760911,1,0.997942
0.8885686704387481,0,0.937500
0.9089540261747695,1,0.991690
0.9246549823234244,1,0.987692
0.9300391010491115,0,0.968401
0.9333929763346251,1,0.997347
0.9365901661273162,1,0.999134
0.938165791848303,1,0.990521
0.9366937360236437,1,0.994536
0.934640867243191,1,0.991582
0.9300405772680135,1,0.989164
0.9271320534826186,1,0.997831
0.9264397452555394,1,0.997126
0.9258215452418393,1,0.993220
0.9254025830377821,1,0.996951
0.9258755344680162,1,0.995290
0.9264282188190905,1,0.997859
0.9271629467097755,0,0.982704
0.9281419646835146,1,0.998077
0.9283435495320368,1,0.995249
0.9281828467546156,1,0.991843
0.9274178568940994,1,0.997738
0.9269897134517294,0,0.918421
0.9269085258076775,0,0.961039
0.9270136160634955,0,0.734127
0.9259708179761451,0,0.840116
0.9245810563695945,1,0.997934
0.9237882169858126,1,0.996942
0.9236553150571887,0,0.974359
0.9245804613955946,1,0.995360
0.9254160625643884,1,0.995381
0.9254692510929007,1,0.990050
0.926089303738382,1,0.994565
0.9267879789647663,1,0.990215
0.9275830165091878,1,0.994580
0.9287802145919382,1,0.985401
0.9299258687916659,1,0.988528
0.9295282223818717,0,0.967655
0.8697859767833355,1,0.996146
0.8854986640960324,1,0.978448
0.894974379886062,0,0.975391
0.90130995996343,1,0.976109
0.906662566205996,0,0.654891
0.912942634147438,1,0.978769
0.9143268501882804,1,0.991573
0.915696007398805,1,0.980861
0.9166416007626417,1,0.996241
0.9174858118784327,1,0.993724
0.9171254450691642,1,0.989429
0.9164918766764045,0,0.960440
0.9166236607253562,1,0.997602
0.9152184861141759,0,0.978261
0.913056334529738,1,0.997732
0.910449446846794,1,0.987578
0.9097403230138755,1,0.974937
0.9086239851336408,1,0.995343
0.9077883420121412,1,0.991379
0.9067612724453596,1,0.991471
0.904021070817609,1,0.996909
0.9026386878194458,1,0.992347
0.9018267113876293,0,0.962810
0.9004087389246518,1,0.992701
0.8995423959660804,1,0.987730
0.9000188923334335,1,0.990148
0.9003252245212933,1,0.997680
0.9005109143731154,1,0.997625
0.9017133506728404,1,0.997753
0.9024868922966841,1,0.995370
0.9028836392277871,1,0.987315
0.9038989871911602,0,0.965328
0.9054007382620812,1,0.988914
0.9062027388300194,1,0.989975
0.907268335855047,0,0.846154
0.9081607299052733,1,0.995482
0.9091832652948563,0,0.960591
0.9110846503644524,0,0.980322
0.9120615492338547,1,0.995885
0.9132914898502443,1,0.983051
0.9142029985571701,0,0.933610
0.8725742667781274,1,0.997525
0.8880592624758611,1,0.996510
0.9034249267254142,1,0.986523
0.9175823622968162,1,0.997877
0.9277467118132501,1,0.985849
0.9309509902489516,1,0.986867
0.9307254421524003,1,0.997680
0.9291638148324769,1,0.987500
0.9260671024303646,1,0.995516
0.9254523208923552,1,0.994638
0.9267117322079735,0,0.867089
0.9294630094535462,1,0.990291
0.93185176946434,1,0.984043
0.9331228614159442,1,0.996094
0.9353545320273198,1,0.981308
0.9373216247000021,1,0.983402
0.9399407405586478,0,0.979087
0.9415911194328291,1,0.991573
0.9417966653977955,1,0.994490
0.940619815389151,1,0.996587
0.9394923379582281,1,0.943182
0.9406513459286097,1,0.995098
0.9417388307706335,0,0.972906
0.9429888611642798,1,0.997955
0.944211312125162,1,0.996055
0.944804695806236,1,0.995110
0.9436737762114968,1,0.985915
0.941261680190269,1,0.997691
0.9378393066863836,1,0.996040
0.9370630997523107,1,0.995316
0.9357573766429553,1,0.992606
0.9345835017919598,1,0.993915
0.935316157096368,1,0.997455
0.9364473157460679,1,0.993333
0.9374907658721868,0,0.971897
0.9390135307151336,1,0.998141
0.9401731534029947,1,0.997821
0.9402995646555433,1,0.997821
0.9399837027505906,1,0.997506
0.940231703506732,1,0.996904
0.9412278968411245,1,0.971510
0.9423960419174547,1,0.997555
0.9438566987752475,1,0.997537
0.9449717305453369,1,0.993151
0.9458511631563336,1,0.996117
0.8810275051481414,0,0.935310
0.8921046999003307,0,0.968912
0.898976397976011,0,0.891051
0.9056316611659042,1,0.994030
0.9123497908638716,1,0.994220
0.9182422860445565,1,0.994898
0.9185277702782643,1,0.992105
0.9158561048003062,1,0.990632
0.9127441484609208,1,0.989059
0.9108333410295001,1,0.996753
0.9054884668534311,1,0.992754
0.901086418690936,1,0.993039
0.8966705852540485,1,0.990632
0.895262119467755,1,0.995181
0.8946329678120692,1,0.996672
0.8979317555522338,1,0.994366
0.9016093402778633,1,0.997050
0.9033244122749337,1,0.998325
0.9068771491262059,1,0.990654
0.9103572451785314,1,0.968127
0.913052833648331,1,0.995726
0.9159637038671,1,0.998095
0.9179763721463986,0,0.909589
0.9184150360321278,1,0.980519
0.9185607067656653,1,0.990148
0.9179469208107982,1,0.996283
0.918014228085504,1,0.994302
0.9187135350674165,0,0.981758
0.9193766539099478,1,0.990476
0.9196445906448795,1,0.998418
0.9200778889477813,1,0.997732
0.9203773588780891,1,0.991935
0.9206362116858143,1,0.992874
0.9208644720837583,1,0.993802
0.9211204360013777,1,0.984962
0.9211500772852602,1,0.988685
0.9217016195638772,1,0.998374
0.9210938226972943,1,0.997347
0.9202181796020352,1,0.995992
0.9188900531351654,1,0.988976
0.9169889262150418,1,0.995516
0.9167851215112948,1,0.997207
0.9169447192938228,0,0.926471
0.9172328468411772,1,0.994792
0.9171254909228133,1,0.992288
0.9167836003683606,1,0.997797
0.886192583495879,1,0.994737
0.8963322826196803,0,0.971983
0.9032810911727945,0,0.961722
0.9074936529834449,0,0.778443
0.9112499166815674,1,0.990291
0.9131517051151923,1,0.995868
0.9140827096586464,1,0.968992
0.9135438182762833,1,0.985507
0.9089150424036012,1,0.998221
0.9012479649523276,1,0.997938
0.8952867032407651,1,0.947020
0.8960549574258133,1,0.987539
0.8973277564384343,1,0.956140
0.8976800149830626,1,0.994792
0.8977427560927647,1,0.995204
0.8970397339910525,1,0.995633
0.8967309201303485,1,0.989865
0.896409397847151,0,0.969819
0.8950562628654897,1,0.994898
0.8942170834566241,1,0.994595
0.8919050670316483,1,0.988406
0.8896579389196655,1,0.995789
0.8907264234240072,1,0.994924
0.893593507758501,1,0.997701
0.8958057033558721,0,0.878095
0.8981730907046886,1,0.986616
0.9018994571690694,1,0.997067
0.9052650314161826,1,0.996435
0.9077068099417159,0,0.969748
0.9094006824334492,1,0.988372
0.9105813795409989,1,0.997543
0.9120616198564794,1,0.998336
0.9135025237728468,1,0.996785
0.9152781750969363,1,0.992771
0.916311892658048,1,0.998155
0.9169016189874043,1,0.995208
0.9175636928515434,1,0.991128
0.9178305444070197,0,0.967172
0.9179757309935153,1,0.994723
0.9177963196913018,1,0.997807
0.9173489472714588,1,0.991848
0.9166651896954517,1,0.986667
0.9158819510260265,1,0.997024
0.9159740172267196,1,0.997753
0.9163219741238333,0,0.979592
0.9167120553273951,1,0.989562
0.9171498913521419,1,0.997382
0.9173391656166849,1,0.986726
0.9177324784543551,1,0.985011
0.9180217212692946,1,0.997191
0.8874396490210796,0,0.980978
0.8945095375611183,1,0.998255
0.904622945144448,1,0.987250
0.9118952614207712,1,0.997854
0.9118784916451289,0,0.957198
0.9126145038863285,1,0.994723
0.9160438256867225,0,0.918067
0.9186964094974399,1,0.997455
0.9220999410073178,0,0.889535
0.9244417268701522,1,0.987500
0.9245254406803652,1,0.997959
0.9227929976553497,1,0.991914
0.9227290099310936,1,0.977827
0.9224137654508435,1,0.997840
0.9216085552684135,1,0.996700
0.9198159408108373,1,0.984405
0.9182919363816301,1,0.982301
0.9185639607619884,0,0.970982
0.9186056379437127,1,0.998270
0.9158122327135076,1,0.990868
0.9109309700530284,1,0.996627
0.9086662108558623,1,0.995098
0.9065759780392059,1,0.981685
0.908317032767478,1,0.995745
0.9093129492579288,0,0.883929
0.9110333183517481,0,0.771930
0.9125922306109993,1,0.994350
0.9128854647669128,1,0.996581
0.9128904929336109,1,0.987421
0.9123191531043877,1,0.994671
0.9113986873123106,1,0.996101
0.9106000885239489,1,0.997549
0.9101008156546523,1,0.996522
0.9102809194330754,1,0.996161
0.9086348090850866,1,0.997696
0.9073788481217464,1,0.997877
0.9065245014389917,1,0.992933
0.9057209402861365,1,0.995918
0.9055806451958095,1,0.988484
0.9061996250958594,1,0.992844
0.9055877622204173,1,0.995181
0.9038182757863631,1,0.997783
0.9029943207986455,1,0.997625
0.9027892993002953,1,0.990758
0.9029058995495663,1,0.992891
0.9026886242859042,1,0.997143
0.9030685460990661,1,0.992084
0.9034125302716436,0,0.973094
0.9030816135898614,1,0.984472
0.8819529117053091,1,0.974074
0.8949584507716023,1,0.987562
0.9039714410694757,0,0.975309
0.9156479346553623,0,0.880597
0.9257674068237955,0,0.925852
0.9320906136409358,1,0.996667
0.9350642154501848,1,0.996610
0.9386148125930769,1,0.989035
0.940354862073962,1,0.992823
0.9412091126223661,1,0.998333
0.9424183477229074,1,0.994924
0.9431426721666551,1,0.989848
0.9417179424040171,1,0.993258
0.9387271189909296,1,0.984076
0.9382204834924144,1,0.998445
0.9368920871810378,1,0.996276
0.9354638201414861,1,0.996885
0.9355066470608556,1,0.973118
0.9347574863539865,1,0.980149
0.9337589327924897,1,0.990741
0.9324976712803588,0,0.945946
0.9312469402786303,1,0.995595
0.9297534819145972,1,0.994885
0.928733919175978,1,0.989276
0.9285043949987625,1,0.998929
0.9276855104416817,0,0.969199
0.926020365428358,1,0.984127
0.9247881744199751,1,0.989733
0.9208355093897195,1,0.995074
0.9172161470122586,1,0.993213
0.916005036058183,1,0.992188
0.915420405434329,1,0.997101
0.9136449973517479,0,0.985037
0.912535501924696,1,0.993779
0.9114909876219034,1,0.998239
0.9103573013881109,1,0.995992
0.9090777511271979,0,0.933929
0.9089892344803988,0,0.966245
0.9091780269163483,1,0.996058
0.907839640992485,1,0.997636
0.9058757977481617,1,0.995249
0.9054449680374188,1,0.992470
0.9050241452587898,1,0.998403
0.904816199388808,1,0.982456
0.9051195710577512,1,0.998377
0.9045137182726739,0,0.967267
0.9041750139528812,0,0.967413
0.9038996872739141,1,0.989712
0.9040165614186482,1,0.998319
0.9038640736805429,1,0.997625
0.9029165027486471,1,0.997917
0.9033678017691836,1,0.996479
0.889698940079055,1,0.975845
0.9007468356379392,0,0.965986
0.9110469263821077,1,0.996139
0.917609685011705,1,0.997326
0.923180023887316,1,0.990234
0.9274313308184212,1,0.997596
0.9300744556232237,0,0.882075
0.9326656267192135,1,0.990291
0.9347056797676933,0,0.969479
0.9338032765106878,1,0.997409
0.9299927613390212,1,0.996124
0.9263303397117818,1,0.986000
0.9229666958074356,1,0.997319
0.9201960969577943,1,0.982405
0.9172756103402048,1,0.996558
0.9142439225074916,1,0.995238
0.9127460719225508,0,0.934236
0.9117269208436384,1,0.996364
0.9087890345341434,1,0.995465
0.9054440616821786,1,0.990588
0.907408323448182,1,0.997354
0.910053956648328,1,0.994485
0.9118946874885233,1,0.997543
0.9116253783606687,1,0.992284
0.9106809742898102,0,0.960784
0.9098778768470969,1,0.997826
0.9099101854070695,1,0.998316
0.907801552097724,1,0.998249
0.9050863767208567,1,0.989540
0.9065859649267375,1,0.984568
0.9057756084960437,1,0.997579
0.9052136727165194,1,0.993119
0.9046949645609007,0,0.900641
0.904100988817634,1,0.997230
0.9035325544484119,1,0.992606
0.9020745674633136,1,0.994962
0.9005709067017734,1,0.995662
0.8997926935875331,1,0.996790
0.898796510027674,1,0.997738
0.8992097246562613,1,0.997238
0.9007265370431027,1,0.978355
0.9016127739312149,1,0.988764
0.9009771920855421,1,0.996829
0.9007547021135722,1,0.997636
0.9002844134479075,1,0.997423
0.8998293295836908,1,0.988971
0.899631423879549,0,0.913978
0.8997438909460117,1,0.994169
0.8986130574579388,1,0.993213
0.898024919276921,1,0.997996
0.8971230529549464,0,0.841509
0.8967827357760451,1,0.993610
0.8964733376014234,1,0.998927
0.8971404607825391,1,0.997475
0.8979687023080704,1,0.998476
0.8769284460356906,1,0.991061
0.8861683992559831,1,0.990809
0.8963058699764768,0,0.949495
0.9044047988617137,0,0.941176
0.9112918314151917,0,0.964286
0.9161008308170904,0,0.940476
0.9221657791030783,1,0.995146
0.9260036971398121,1,0.997167
0.9293935465558708,0,0.976331
0.9315983585208648,1,0.973282
0.9332163813932794,1,0.988930
0.9344445538890422,1,0.990551
0.9360830628032976,1,0.998233
0.9370832038394912,1,0.984649
0.9374373186428315,1,0.996694
0.93785917874408,1,0.997481
0.9376825888928448,1,0.989899
0.9381395345037018,1,0.999135
0.939464587518255,0,0.932540
0.9396198418258818,1,0.995062
0.9396202775660066,1,0.987365
0.941102747559312,1,0.989910
0.9404599728102601,1,0.997613
0.9401235898108765,1,0.997067
0.9395028931965554,1,0.998092
0.9367830503848168,0,0.984109
0.9341665437616676,1,0.995804
0.9307795380898596,1,0.995169
0.9315763767616632,1,0.997449
0.9298430235516246,1,0.997849
0.9271474061564271,1,0.995745
0.925885003088362,1,0.997802
0.9243136443719598,1,0.994000
0.9231075733505281,1,0.999135
0.9204473839931007,0,0.982361
0.917511100330694,1,0.998008
0.9169400460309447,0,0.982372
0.9151195427256106,1,0.995671
0.9137543959345773,1,0.997727
0.9129547085900795,1,0.993506
0.9099101934411284,1,0.990975
0.9082548122443822,1,0.997895
0.9062537241198579,1,0.997305
0.9050585157239646,1,0.993127
0.9048541439081149,1,0.995745
0.9043845282964281,1,0.995327
0.9036653749951045,1,0.994949
0.9025121394614474,1,0.992203
0.9011633701984374,1,0.994036
0.9005778077484831,1,0.991189
0.8998386954575981,1,0.997283
0.8990345707934881,1,0.995652
0.898528565438072,1,0.982175
0.8981849508136923,1,0.986056
0.8984394545762605,1,0.975610
0.8985006963167991,1,0.996101
0.8986295389343465,1,0.998035
0.9009348392213097,0,0.977032
0.9027777330637725,1,0.997947
0.9043641136735938,1,0.993684
0.9056701657062596,1,0.993958
0.8649864809082143,1,0.995876
0.8738193138083667,1,0.998246
0.8829853465047167,1,0.972067
0.8925169516916353,1,0.994609
0.9004490409529193,0,0.972414
0.908980015532394,1,0.984314
0.915190386279667,1,0.980469
0.9176336570742917,1,0.996390
0.9203318536699531,1,0.995868
0.9236039640824261,0,0.943529
0.927279059360727,1,0.996183
0.9313962525387185,0,0.971292
0.9326931930557947,1,0.997442
0.9328541512698272,0,0.967370
0.9336983190539412,1,0.996732
0.9358392212689767,0,0.978892
0.9384373847057724,1,0.993846
0.9408211499091967,1,0.998205
0.9413344880401749,1,0.995680
0.9404720797350309,1,0.996875
0.9385821367609377,1,0.996951
0.9380344247376479,0,0.913462
0.9388125201744398,1,0.993174
0.9392888831606654,1,0.988662
0.9393306538681109,1,0.991304
0.9393260388361335,1,0.985915
0.9395719933556819,1,0.983957
0.9398710611135496,1,0.990354
0.9401238408835415,1,0.993031
0.9403871807261732,1,0.994819
0.9405695636991549,1,0.996364
0.9404820523068805,1,0.981366
0.9404206880831837,1,0.996139
0.9402241416266854,1,0.999134
0.9400779094134397,1,0.997732
0.9394283480949381,1,0.990950
0.9388010078248509,1,0.993827
0.9376508523221021,1,0.968750
0.9362255984482204,1,0.985000
0.9342889452959445,1,0.994135
0.9328850530073678,1,0.978142
0.9305578436142887,1,0.991968
0.9275178703266469,1,0.995012
0.9255298728220143,1,0.988024
0.923625917058901,1,0.992337
0.9205600133837829,1,0.994197
0.9175615952799061,1,0.990792
0.9154067358614381,1,0.992366
0.9133843989031828,1,0.991554
0.9133295527793612,1,0.997738
0.913386854798967,1,0.994490
0.9133697059421283,1,0.993730
0.9133614019894549,1,0.997748
0.9132135305691408,1,0.978448
0.912944631171763,1,0.984190
0.9128688703316484,1,0.997963
0.9126296811001121,1,0.996516
0.9121628446205495,1,0.992647
0.9118761713288333,0,0.955665
0.9113655848131803,1,0.997596
0.9108524570501287,1,0.997481
0.9103011629823893,1,0.993399
0.9097503944790154,1,0.995272
0.9089743647923997,1,0.985401
0.9082614117135029,1,0.998145
0.9074719478377317,1,0.987097
0.9062285560468238,1,0.972678
0.9048585218052356,1,0.996409
0.9035027245618823,1,0.996198
0.9021500444489484,0,0.902655
0.9013309593860279,1,0.991071
0.9005213320451322,1,0.991304
0.8988939659015606,1,0.991722
0.896795594994485,1,0.994845
0.8944015094529649,1,0.989583
0.8677291052113285,0,0.975664
0.8729640319733628,0,0.862007
0.8788738960725163,1,0.987719
0.8855670897784073,1,0.986425
0.8891338369762247,1,0.973568
0.891079998914426,0,0.814714
0.8939835346402206,0,0.939068
0.8960221806859064,1,0.995763
0.8982745968409123,1,0.995392
0.9008280253873918,1,0.991150
0.9031975589627985,1,0.986441
0.9053106838081986,1,0.981651
0.9068341613051288,1,0.996759
0.9079340961033422,1,0.995305
0.9089502563090741,1,0.955752
0.9092508478802247,1,0.994792
0.9093910547072637,1,0.987097
0.9092386842040132,1,0.978448
0.9082072199206747,1,0.995633
0.9059281893096379,1,0.969112
0.9033679019667326,1,0.980000
0.9005606161177101,1,0.996997
0.9012260838513607,1,0.995876
0.9012467658580218,1,0.995575
0.9016601104806905,0,0.971581
0.9018524663287276,0,0.957290
0.9019581762363535,1,0.991870
0.9018781686292399,0,0.952247
0.8997974943948887,0,0.969940
0.8994938773804795,1,0.980810
0.899260246605357,1,0.995763
0.8989013563429569,1,0.991667
0.8980987146305809,1,0.996241
0.8969135435878285,1,0.997967
0.8957131069320705,1,0.980707
0.8947102788277647,1,0.985030
0.8938634280162807,1,0.996124
0.8928712255818373,1,0.995370
0.8913202760179029,1,0.995604
0.8896125272018327,1,0.977778
0.8879845906753374,1,0.995885
0.8864393392504186,0,0.947368
0.8849776548411056,0,0.827243
0.8824907337678197,1,0.993197
0.8793935251958457,1,0.997890
0.8760777350903014,1,0.993617
0.8732647301853085,1,0.984055
0.8711714932292491,1,0.988391
0.8689032908159889,1,0.980916
0.8675399327059071,1,0.985472
0.8671101162155497,1,0.998028
0.8669845161259848,0,0.975806
0.8666857425821222,0,0.843902
0.8664197975808425,0,0.959854
0.8660435606382257,1,0.997955
0.86572934548249,1,0.989011
0.8654874346713147,1,0.997701
0.8653311409141894,1,0.987382
0.8653547973640979,1,0.990991
0.8652724121117279,1,0.993080
0.86525073475981,1,0.996422
0.8650339710659045,1,0.993289
0.8646534164168301,1,0.996737
0.8636468015862878,1,0.997093
0.8628921400537609,1,0.993228
0.8620908839571805,0,0.873950
0.8617561799279994,1,0.976471
0.8616695668761306,0,0.849785
0.8617681386828507,1,0.979079
0.8618012412877404,1,0.990272
0.8617213395018519,0,0.904215
0.8613532912786451,1,0.997028
0.8608845833955439,1,0.995968
0.8600474277713309,1,0.992063
0.8595763850189118,0,0.966967
0.858849013886652,1,0.998305
0.879643878822256,1,0.989899
0.883099568997853,1,0.991892
0.8866831063572251,1,0.978142
0.8901423806370253,0,0.901734
0.8932866727827422,1,0.997938
0.8957300212257026,1,0.978102
0.8984406847727229,1,0.992991
0.9005129955108349,0,0.969892
0.9026417296063971,1,0.987368
0.9043670010366487,1,0.982301
0.9048610140136979,1,0.981233
0.9043067435511604,1,0.995951
0.9037850002302439,0,0.948882
0.9036365069278921,0,0.975855
0.902953968931226,1,0.951351
0.9022787629033925,1,0.997347
0.9008235141365336,0,0.934466
0.9001130822201662,1,0.995935
0.8984551197673474,1,0.991007
0.8971789627209166,0,0.969925
0.8947573080425558,1,0.992278
0.8931206733673299,1,0.985011
0.8883574078939815,1,0.996255
0.8841910668161823,1,0.992278
0.884493611124798,1,0.984615
0.8840294414921277,1,0.962085
0.8831868939544677,1,0.998058
0.88238510896112,1,0.991031
0.8812244580821205,1,0.970874
0.8798048531514109,1,0.987981
0.8781247090316477,1,0.994911
0.8763116814605204,1,0.984043
0.8745102428004032,1,0.997613
0.8729929641097438,1,0.997097
0.8719713464238806,1,0.996226
0.8707590501985722,1,0.994624
0.8689212817229179,1,0.994609
0.8660203887514564,1,0.997722
0.8635804864815471,1,0.994872
0.8616649779740657,1,0.997561
0.8606162382362647,1,0.997549
0.8600366990423207,1,0.989362
0.8598764388990122,1,0.992424
0.8597159425553607,1,0.981343
0.8596377746232291,1,0.985075
0.859177627242006,0,0.970954
0.8588464962537761,0,0.790816
0.8585855695094244,1,0.987973
0.8581089499388384,0,0.811966
0.8576706289948742,0,0.953901
0.8573919330928386,1,0.992995
0.8567931469224099,1,0.993367
0.8555903196519539,1,0.995565
0.85488957042069,1,0.997859
0.8545609909704459,0,0.939331
0.854286613997128,1,0.993213
0.8541528756007387,1,0.988581
0.8540262950984085,0,0.933535
0.8538017094299679,1,0.988662
0.8530636054555851,1,0.990724
0.8520448472838638,1,0.996466
0.8521159496163616,1,0.996894
0.8525194815195793,0,0.576923
0.8528870303031978,1,0.988848
0.8532636641862865,0,0.940141
0.8536423576933224,0,0.954386
0.8537630983593496,1,0.995726
0.8534285372623269,1,0.997561
0.8529740811336848,1,0.994555
0.8523991414749865,1,0.986248
0.8518918187186862,1,0.990244
0.8512722916750168,1,0.995516
0.8506896390458759,0,0.924638
0.8501846748346419,1,0.994100
0.8493015614547511,1,0.988426
0.8482828091837086,1,0.997537
0.8481711538030396,0,0.939024
0.8826637893781186,0,0.937158
0.8865752182538512,0,0.899471
0.8893095343540746,0,0.914358
0.8923463148134785,0,0.981818
0.89448962260781,0,0.977568
0.896874932038471,1,0.998693
0.8987763985126026,0,0.878187
0.9025401363652732,1,0.991945
0.9059523026966255,1,0.987220
0.9087684461190656,1,0.990060
0.9094341671483537,1,0.996094
0.9100289641348003,1,0.998693
0.9107616867778798,1,0.990783
0.9101078077695617,1,0.977346
0.9097327136487587,1,0.989950
0.9095517105940086,0,0.978286
0.9077900190190296,1,0.977778
0.9063465689537302,0,0.976161
0.9031881401848185,1,0.976190
0.8994226204283241,1,0.992574
0.8960248693907072,0,0.979849
0.8927995908316556,1,0.996979
0.8884482825542853,1,0.996047
0.8843964729402403,0,0.960199
0.8802629552636198,1,0.998435
0.8746504188200152,1,0.990491
0.8699193958868874,0,0.961443
0.866359905962418,0,0.760956
0.8627670000091215,1,0.995215
0.8579093778755095,1,0.997024
0.8512713111705722,1,0.997619
0.8452077478126974,1,0.992308
0.84145807722496,1,0.992523
0.8396025786511577,0,0.982639
0.8370586517552346,1,0.980220
0.8341666621349425,1,0.993478
0.8317002271382902,1,0.990148
0.8291060662307,1,0.990773
0.8272095304014278,1,0.958333
0.8258911075623215,1,0.995935
0.8259610282891104,0,0.709016
0.8257233818386077,1,0.987069
0.8245412525550122,0,0.961404
0.8232969806616758,0,0.940860
0.8224217110929724,1,0.984848
0.8213335645365003,1,0.991228
0.820515761925727,1,0.988889
0.8172821656970128,1,0.988000
0.8155396124350903,1,0.996522
0.8137749752683188,1,0.996212
0.8132812538417895,1,0.985380
0.8121525852434033,1,0.996101
0.8104228193102082,1,0.996310
0.8093015741941787,1,0.996599
0.8078522425677611,1,0.992095
0.8067271346035914,1,0.992308
0.8057960190768132,0,0.960573
0.8039794783280811,1,0.995935
0.8032080762778786,1,0.993758
0.8025432306468033,1,0.998162
0.801425525562974,0,0.970944
0.7998376702512864,1,0.990350
0.7995401985660646,1,0.989064
0.7988679239379616,0,0.963636
0.7982634387231065,1,0.994398
0.7978893296566424,1,0.993711
0.7976700230472714,1,0.996753
0.7973384835249607,1,0.997006
0.797474477944291,1,0.994859
0.796616189936191,1,0.994135
0.7953253406495464,1,0.995807
0.7943070183702919,1,0.993127
0.7943864254787604,0,0.983759
0.7947545240013223,1,0.991379
0.7947774230669553,0,0.805243
0.7947655032869251,0,0.951106
0.7945200653343705,1,0.995754
0.7941784283335941,1,0.993243
0.7937159156980821,1,0.954128
0.7938491929393118,1,0.997564
0.7940888789759526,1,0.994076
0.7939009860846491,1,0.995402
0.7937311818024514,1,0.995680
0.7939574021071252,1,0.994253
0.7935376158905684,1,0.998138
0.7936860277189955,1,0.992032
0.7936004073939263,1,0.991098
0.7937105048881051,1,0.988010
0.7940939116562293,1,0.994334
0.7941125367708167,1,0.995935
0.7942881002232665,1,0.989458
0.7939380956850146,0,0.974654
0.793528085265838,1,0.991266
0.793527026321095,0,0.976498
0.7939808244566106,1,0.980535
0.7944215815937967,1,0.996146
0.7949225297116056,1,0.995708
0.7952264113863052,1,0.987288
0.7956358259583403,1,0.993127
0.7961515869711852,1,0.994236
0.7965263659979009,1,0.973684
0.7966886101700652,1,0.990751
0.7968867679750006,1,0.997015
0.7971572405168076,1,0.996753
0.79761153678657,1,0.992895
0.798208032258415,1,0.994076
0.798567864193984,1,0.991085
0.7985811306985676,1,0.989726
0.7986767155805308,1,0.996774
0.799270640212512,1,0.989510
0.8662476480158419,1,0.988938
0.8756361972378544,1,0.998035
0.8850280265286191,1,0.976471
0.8884162959369256,1,0.992248
0.8927186620019708,1,0.994949
0.8982360501414274,1,0.996599
0.9066699119437852,1,0.965812
0.9100742943139591,1,0.988889
0.9135580981622173,1,0.994805
0.9166567216930938,1,0.981752
0.9194357963857515,1,0.981891
0.9211757941691344,1,0.990220
0.9231555447706691,1,0.979798
0.9251240256975428,1,0.995475
0.9250965609302128,1,0.997647
0.924234037916101,1,0.994206
0.9235790513774024,1,0.992141
0.9231402029484224,1,0.987013
0.9232752472753566,1,0.984772
0.922434901339855,0,0.917647
0.9220253785825702,1,0.978814
0.9204644444408195,1,0.990625
0.9188577381046316,1,0.993964
0.9171806976700936,1,0.992727
0.916071463176024,1,0.996732
0.9140991922897277,1,0.989957
0.910839049808472,1,0.997951
0.9101429274267258,1,0.994382
0.906656523123122,1,0.991579
0.9050476560493649,1,0.992941
0.9039575088198597,1,0.998095
0.9020613572711434,1,0.998547
0.9003996913675393,1,0.996644
0.8983533996160092,1,0.995614
0.8965798271101106,1,0.995114
0.8936436898269,1,0.997579
0.8916645573123237,1,0.988479
0.8907295340864823,1,0.997135
0.8891631687353042,1,0.992188
0.8878464131233018,0,0.904959
0.8869394359506889,1,0.995763
0.8847721353316129,1,0.996198
0.8830174772482443,1,0.997561
0.8808526454580669,1,0.996198
0.87942987763114,1,0.988331
0.8778064634894885,1,0.987593
0.877105902859272,1,0.994083
0.8760252761820478,1,0.994220
0.8753615121332965,1,0.968468
0.8744137844612713,1,0.991770
0.8734217785784468,1,0.998031
0.8719298595922206,1,0.998808
0.8707534479280411,1,0.998299
0.8700525404807244,1,0.992870
0.8691842287338939,0,0.885305
0.8686656656148876,1,0.997602
0.8677830654607583,1,0.997658
0.8670116898953506,1,0.991573
0.8670659708779845,1,0.967105
0.8670162577398446,0,0.950207
0.8670536051713817,1,0.990964
0.8670358207030354,1,0.954545
0.867023300030539,1,0.990000
0.8663535511663145,1,0.992551
0.8659932195584948,1,0.992806
0.8655420841809296,1,0.994253
0.8648869168668561,1,0.990264
0.8640371071983132,1,0.985075
0.8632090755283671,1,0.986395
0.8624219358801699,1,0.981481
0.8617570978669519,1,0.996460
0.861253208707434,1,0.990566
0.860907413467687,1,0.998205
0.8608836902703106,1,0.992991
0.8605200248269395,1,0.992565
0.8602368577647719,1,0.975000
0.8598249328743574,1,0.990610
0.8594528740827471,1,0.997921
0.8594112711629481,1,0.988764
0.8592210126342268,1,0.995157
0.8590012554852724,1,0.998551
0.8589256700153828,1,0.990588
0.8587770545128615,1,0.997183
0.858645444083683,1,0.997712
0.858534913403266,1,0.995868
0.8584775404480618,1,0.998113
0.8585053727861602,1,0.979839
0.8583476465066996,1,0.979328
0.8582365457386701,1,0.997738
0.8580512293333054,1,0.997297
0.8578474857433596,1,0.996190
0.8577367450412051,1,0.989726
0.8575080373397671,1,0.995455
0.8566398235485747,0,0.956012
0.8642478326802202,1,0.967871
0.8700853651688385,1,0.980874
0.8759879443693442,1,0.979167
0.8817069450403863,1,0.995833
0.8865188695350374,0,0.895833
0.8897680886230919,0,0.982353
0.8945194687779581,1,0.991851
0.9019070290965537,1,0.987179
0.9091513646825327,1,0.997863
0.9148379625599941,1,0.988180
0.9196698534767521,1,0.993631
0.9239758177364098,1,0.984375
0.9268229206690498,0,0.937931
0.9294224113887728,1,0.998578
0.9315729294025694,1,0.982857
0.9331277127001092,1,0.978947
0.934939559590323,1,0.985330
0.9359685140771714,1,0.996016
0.936338900711568,1,0.995012
0.9364803338950458,1,0.997312
0.9355701625624111,1,0.995050
0.9349794040712056,1,0.996390
0.9342991126638583,1,0.996296
0.9330691014024973,1,0.985507
0.9316098343568667,1,0.994413
0.9298184112009427,1,0.979675
0.9278975480064381,0,0.982428
0.9254447716589754,1,0.997487
0.9225368809491798,1,0.997537
0.9195434833345102,1,0.989501
0.9176450300330955,1,0.997625
0.9157361761825316,1,0.996324
0.9138578536357008,1,0.995455
0.9122502193105445,1,0.996422
0.9111837020644346,1,0.998647
0.9099302683738522,1,0.983516
0.9078427612165861,1,0.998211
0.9064703888002776,1,0.996516
0.9054464189867686,1,0.997859
0.9043423202538485,1,0.992941
0.9031148767417843,1,0.997758
0.9021832243406706,1,0.987879
0.9011853171218565,1,0.996564
0.8991262057050904,1,0.994030
0.8982525228221055,1,0.996176
0.8971477811381964,1,0.988010
0.896471349798972,1,0.994292
0.8958656657876718,1,0.992606
0.8948193064126194,1,0.976654
0.8938060972624855,1,0.992925
0.893097614063654,1,0.993363
0.8920610473795348,1,0.993651
0.8916322631950101,0,0.929515
0.8913955328247879,1,0.995506
0.8909558031010447,1,0.998569
0.8899179458768145,1,0.984925
0.8881801104617435,1,0.997895
0.8872865632320827,1,0.991285
0.8864569173869026,0,0.861004
0.8851410400577434,1,0.988304
0.8848622889944505,1,0.982332
0.8849573760078594,0,0.925000
0.885154639212243,0,0.950893
0.8853655846681427,0,0.872727
0.8853994300435782,1,0.994350
0.8852339981833638,1,0.996310
0.8849421731782579,0,0.967033
0.8847375499261231,1,0.998674
0.884429999453214,1,0.998243
0.8839979839308674,1,0.997468
0.8835680451212002,1,0.980676
0.883026380457172,1,0.997743
0.8824471960003801,1,0.995283
0.8821201773559475,1,0.997658
0.8817969361035803,1,0.998282
0.8814428115347371,1,0.993277
0.8813678727432117,1,0.992042
0.8809071992353966,1,0.993197
0.8804691330322867,1,0.993377
0.8804711756756597,1,0.993289
0.8803998622771471,1,0.993220
0.8802824027754048,1,0.997033
0.8800002797833685,1,0.990512
0.853969938145096,1,0.991349
0.8608484801377652,1,0.994475
0.8677127370972331,1,0.985866
0.8723616470630746,0,0.977547
0.8810321782651247,0,0.950777
0.8898565386835333,1,0.990741
0.8943255572102118,0,0.975610
0.8983173886856187,1,0.976096
0.9029840739546999,1,0.998288
0.9053527430860344,1,0.993392
0.906614424143774,1,0.993289
0.9084990678547971,0,0.875676
0.9102832943860023,1,0.985102
