0.5326653074051187,1,0.982699
0.5445182954329981,1,0.994889
0.49197372120567817,0,0.905109
0.30801714692382776,0,0.815000
0.4429344112184057,0,0.657388
0.23798696850539003,0,0.378882
0.5234847923411752,0,0.853904
0.7033999841022573,0,0.770774
0.3811945383798771,0,0.829545
0.4794315293903548,0,0.753296
0.46769525028743647,0,0.646377
0.3598450833434705,0,0.901679
0.2721213616890529,0,0.899635
0.10610874491981732,0,0.392562
0.3500942939225629,0,0.819473
0.32135847244756244,0,0.940659
0.41823782077891875,0,0.873449
0.32160880590559265,0,0.857143
0.32725138774219636,0,0.201794
0.643183003562819,0,0.535587
0.73507889707532,0,0.253465
0.3784358299010093,0,0.966135
0.18190991242710816,0,0.898496
0.22785888220246445,0,0.552632
0.1979337447566071,0,0.670886
0.25475094790341696,0,0.279221
0.18295807761617838,0,0.707260
0.2711495022567502,0,0.309406
0.3704995120865353,1,0.985632
0.2968158622043333,0,0.868637
0.19201982429402875,0,0.270451
0.16838238977165834,0,0.299376
0.23611462340034045,0,0.806236
0.2622417046876822,0,0.938182
0.12518553575654534,0,0.796552
0.2820948478300671,0,0.464912
0.21122828698566087,0,0.423948
0.19540762201339945,0,0.591837
0.14250966840526585,0,0.791667
0.15965435165340255,0,0.469231
0.19072649548492712,0,0.453782
0.36755879110853945,0,0.960212
0.330606650726241,0,0.189003
0.27932065745586426,0,0.712766
0.3290321706343534,0,0.821346
0.49063213955986695,0,0.892500
0.590935486750546,0,0.476684
0.27456216498416997,0,0.884298
0.27402744685806235,0,0.610422
0.20687717931165842,0,0.895863
0.12838077031794967,0,0.429293
0.26908153178846067,1,0.997519
0.1166670332605926,0,0.899023
0.13493563276250634,0,0.677273
0.1306422029193007,0,0.847390
0.17614343749837694,0,0.673653
0.1961282142627233,0,0.733906
0.11705646013140775,0,0.477500
0.20929275892469243,0,0.621993
0.1494982249971232,0,0.356125
0.17549915233637192,0,0.785714
0.15850375841168846,0,0.454545
0.26645950547011515,0,0.942169
0.2076771998494539,0,0.391608
0.12986488762148968,0,0.889130
0.20875070078719954,0,0.796935
0.3631264711197188,0,0.811245
0.3957011438247356,0,0.866667
0.4315522957286389,1,0.979592
0.479866375950968,0,0.923990
0.46879912831920595,0,0.500000
0.33708565418942904,1,0.990942
0.408580311458759,0,0.942584
0.5017042389627279,0,0.886747
0.26855511938970356,0,0.871134
0.17064744113476307,0,0.577689
0.15178481211348002,0,0.902954
0.22551502946334565,0,0.744304
0.259579416348975,0,0.916268
0.2681369709675272,0,0.094737
0.4267647440458027,0,0.773026
0.45494135222806176,1,0.983380
0.34210361677020207,0,0.708543
0.36139757015716983,0,0.363636
0.48758847980473313,0,0.227397
0.026744429011064594,0,0.665441
0.04757791080118348,0,0.960526
0.061925118748000184,1,0.992991
0.17549620242472092,0,0.922197
0.028968649642914557,0,0.566757
0.11911433338223455,0,0.847826
0.10754607492933449,0,0.765766
0.05209403530574215,0,0.481982
0.07544961343450608,0,0.904854
0.1735553981823612,1,0.969231
0.10681751818999392,0,0.199219
0.24026160794418955,0,0.908629
0.35073939009276206,0,0.973180
0.39162143007637806,0,0.807692
0.45707915150050643,0,0.796875
0.5358857829370381,0,0.873134
0.428605994518991,0,0.950000
0.4965876842289179,0,0.840678
0.3937062358905375,1,0.987080
0.23635617040615314,0,0.967118
0.14600105918525502,0,0.612987
0.23193136893328514,0,0.873239
0.13416338508465292,0,0.702381
0.24251232258294775,0,0.943320
0.44628253305902277,0,0.849291
0.17798829031419505,0,0.857585
0.2920577438437657,0,0.491892
0.3338456666809123,0,0.889130
0.3672911569238776,0,0.584052
0.4448299481232087,0,0.807018
0.24642652237090362,1,0.977208
0.20159226950730708,0,0.144599
0.16807033069111538,0,0.017467
0.1893561896512905,0,0.274000
0.23961723158716428,0,0.485915
0.23240120686668808,0,0.813793
0.06298516620915799,0,0.854545
0.14797829837939572,0,0.376022
0.16329711457108456,0,0.326797
0.27634787544527833,0,0.557576
0.2585567328138851,0,0.575419
0.3278395910477102,0,0.941832
0.5321509298921556,0,0.950980
0.358019893852167,0,0.663333
0.2328832886094519,0,0.728119
0.15596632516892223,0,0.588517
0.11265055783739131,0,0.415663
0.07269715351240669,0,0.460905
0.10785618396830844,0,0.832618
0.1313005780693076,0,0.923077
0.25884655678257723,0,0.873832
0.28763910101730217,0,0.961340
0.34638094068063385,0,0.859788
0.3150243689114632,0,0.669202
0.5948663718740836,1,0.990536
0.36526529400797136,0,0.926045
0.3862756588226457,0,0.840000
0.18658250617422728,0,0.884250
0.11446709143234636,0,0.523622
0.09496946863354774,0,0.968468
0.09209532540991107,0,0.622995
0.13674733044540224,0,0.600000
0.16480077467290094,0,0.297505
0.0895165357358928,0,0.515152
0.11811789970747799,0,0.804290
0.13058044455431667,0,0.689655
0.07740889879513854,0,0.255474
0.1646686166649238,0,0.640657
0.1308218946927692,0,0.157729
0.17008896144223956,0,0.927224
0.14968032200415454,1,0.969492
0.19974495819859034,0,0.896226
0.17564832945889347,0,0.400000
0.173263146326423,0,0.906404
0.22881384454059273,0,0.802439
0.06321444115798087,0,0.074355
0.35382803528377227,0,0.949785
0.5500423414599706,0,0.603491
0.3259268602935781,0,0.759140
0.35885133597474467,0,0.928328
0.3245042778434336,1,0.990172
0.39458132844157834,0,0.957020
0.24339178176014886,0,0.759091
0.2704070059610865,0,0.824104
0.42336275790265676,0,0.901503
0.4076396147899348,0,0.892958
0.21433112914289665,0,0.810496
0.09660106348705727,0,0.207746
0.11826438096469609,0,0.649123
0.13558171077551767,0,0.650847
0.12022462712045191,0,0.527660
0.2351130238509746,0,0.736994
0.23477278966809514,0,0.561224
0.2367117280662641,0,0.868421
0.2750470140417765,0,0.275974
0.36852036085362705,0,0.772632
0.28710724953780964,0,0.614545
0.300404208142205,0,0.622137
0.4831322887344625,0,0.703509
0.3707690118310333,0,0.918635
0.21712297720610285,0,0.757778
0.2059991185420808,1,0.982000
0.13225300038582616,0,0.941176
0.19009663293859683,0,0.595668
0.2508352897687046,0,0.081250
0.2941092551470098,0,0.852417
0.16745963732750005,0,0.914667
0.13808500252968442,0,0.064516
0.19586407881258022,0,0.242902
0.1053618175259401,0,0.206000
0.244577495739268,0,0.372596
0.14706655197448548,0,0.692473
0.10480014670295137,0,0.890052
0.06262408447817842,0,0.267241
0.11790812938093358,0,0.961111
0.12141632764509086,1,0.948864
0.10625758706430939,0,0.929487
0.157938606362036,0,0.849817
0.23736615759995275,0,0.823980
0.17643431066747603,0,0.925054
0.502267157151315,0,0.850780
0.277999792219714,0,0.879845
0.41296394716857343,0,0.971619
0.4046771582516321,0,0.838710
0.24661063631619642,0,0.853994
0.2463434087859405,0,0.684713
0.29854315732195763,0,0.866667
0.23941716902054413,0,0.816129
0.2360231120580578,0,0.895565
0.3551773427324503,0,0.466019
0.2100865528431577,0,0.786047
0.2660067057264393,0,0.273567
0.27508313379786337,0,0.765337
0.32670992730838955,0,0.481481
0.3021365874810463,0,0.708824
0.37408475319956297,0,0.453737
0.38381289579661515,0,0.157895
0.2277235725113066,0,0.633075
0.3010958031762193,0,0.671815
0.38878517784579797,1,0.971989
0.44182688721700814,0,0.542623
0.4850796173320567,0,0.893204
0.5148404488368529,0,0.598778
0.43557295214867914,0,0.917910
0.36875440553800426,0,0.054726
0.3881176299361344,0,0.876652
0.23361939366040071,0,0.732143
0.28826919725735956,0,0.787330
0.3070499775274574,0,0.617094
0.37134863111599675,1,0.995231
0.4452898395872172,0,0.864532
0.49312796071064535,1,0.996063
0.4248370484746153,0,0.941558
0.4482533019640529,0,0.876138
0.5110766840539669,0,0.643660
0.5924426544081322,0,0.871636
0.5559431455185355,0,0.882500
0.2821543050861015,1,0.982759
0.26419399733102433,0,0.918728
0.4017318982495707,0,0.850117
0.33180456487268223,0,0.881508
0.320652133963153,0,0.535270
0.3225738934531904,0,0.125000
0.4206191259342923,0,0.794014
0.22532870165978575,0,0.791444
0.4540554621288485,0,0.889213
0.4123756814518804,0,0.958861
0.39806739939622804,0,0.966457
0.4495622945668274,0,0.337731
0.4764319974864179,0,0.650909
0.6548198128625685,0,0.678030
0.197083992873465,0,0.667674
0.07237065784135999,0,0.165730
0.10981932308957805,1,0.980952
0.20459023441955027,0,0.963934
0.18921753480373085,0,0.937143
0.247982404238849,0,0.876582
0.18246643095838735,0,0.463127
0.08114395777695277,0,0.540755
0.02606917663872159,0,0.352381
0.058435136445693495,0,0.456790
0.027717524378221337,0,0.788274
0.07730953099979583,0,0.390625
0.16949944038201548,0,0.492441
0.15645911702063894,0,0.644737
0.16930938048585686,0,0.343832
0.2052094715974222,0,0.945263
0.026369218605407595,0,0.712766
0.06684324421884899,0,0.326870
0.0827456832626357,0,0.336000
0.20343134022664658,1,0.982301
0.22632541248954943,0,0.717105
0.09007710530602692,0,0.433566
0.19858020751014363,0,0.919455
0.15124139150783972,0,0.600000
0.07811470773032493,0,0.643038
0.15938337580596282,0,0.761246
0.11638074430020336,0,0.515328
0.10277487530980484,0,0.887006
0.21744188763734348,0,0.830128
0.25103598312639797,0,0.651613
0.14290007324184106,0,0.787004
0.04986077114881301,0,0.160338
0.050610881676129274,1,0.988543
0.04894745754752915,0,0.626786
0.1282768457674417,0,0.982275
0.2735431501207884,0,0.536349
0.2063679215722249,0,0.637450
0.44153229076678524,0,0.689542
0.43295171514252373,1,0.992337
0.4798938611100669,0,0.963947
0.5964296047415045,0,0.863454
0.6698565437733776,0,0.762712
0.45053158402719723,0,0.961672
0.7724073584941487,1,0.986486
0.3529418238495847,0,0.979920
0.23653841041227644,0,0.546798
0.23547402222832095,0,0.988960
0.15663403451429414,0,0.981601
0.23772632590661247,0,0.578667
0.3245501983191846,0,0.088462
0.4774304472353512,0,0.944798
0.5497837458195968,0,0.981450
0.24600319388829758,0,0.512035
0.3254412900839361,0,0.592018
0.46711790122228,0,0.937743
0.4602898479480355,0,0.643863
0.21997846707605676,0,0.816327
0.0994824615795018,0,0.852861
0.018708844396688195,0,0.720764
0.1308892849393366,0,0.469298
0.09487838753592599,0,0.800000
0.13746093640920468,0,0.238727
0.17066378340493757,0,0.913265
0.19846453286454144,0,0.917647
0.04778739607359965,0,0.302632
0.13736138554044885,0,0.463415
0.1732644207935636,0,0.090090
0.12063747627501666,0,0.881481
0.18637632722675587,0,0.614476
0.092907565706977,0,0.624668
0.11096043212819644,0,0.647239
0.17742391152814413,0,0.257962
0.1910235770950467,0,0.749296
0.10859978512954713,0,0.696309
0.10590641563007397,0,0.633745
0.15611758439970017,0,0.669136
0.10957155235599904,0,0.740659
-0.009014917474543098,0,0.144989
0.18068312515541943,0,0.854749
0.20769410636310678,0,0.703008
0.17041314739171518,0,0.583333
0.2067441492836628,0,0.791401
0.26518563540135115,0,0.523929
0.2131149090691332,0,0.556818
0.24404778165766028,0,0.398230
0.30719678040223414,0,0.546713
0.2510358771669588,0,0.365482
0.29292713541294746,0,0.836272
0.22845331756348566,0,0.478102
0.24029578452424133,0,0.482000
0.16825518323358327,0,0.137255
0.34820391599987344,0,0.506608
0.3222924317671784,0,0.951531
0.2080833144373262,0,0.790744
0.3240462784605451,0,0.066116
0.3566404984705133,0,0.190000
0.2533270644591641,0,0.133929
0.11843711218313031,1,0.989796
0.1998114260953033,0,0.683784
0.1745126815906043,0,0.934853
0.2591920081862086,0,0.833628
0.20101496955703166,0,0.950413
0.3602233971991581,0,0.601562
0.26931679735337805,0,0.611231
0.23323954689989657,0,0.222222
0.3428140526593463,0,0.792916
0.33254092246669775,0,0.801829
0.22917246192506174,0,0.498778
0.21634073250155714,0,0.738928
0.2581030305313493,0,0.531429
0.17577703425402996,0,0.831193
0.22440516260556367,0,0.439353
0.3752099774255487,0,0.963035
0.38324619641418844,0,0.673387
0.41397519279423967,0,0.680851
0.309905648114437,0,0.530271
0.2695525218679927,0,0.732965
0.3792009574652388,1,0.995787
0.223481948818372,0,0.760377
0.23712870870685374,0,0.782258
0.28003317006743483,0,0.146840
0.2136745527177793,0,0.136086
0.07437125273181977,0,0.882550
0.12339013429242014,0,0.962594
0.12630930820572295,0,0.732628
0.10510990521843454,0,0.603687
0.10619174765723366,0,0.699357
0.17587363975777293,0,0.703264
0.17984167923516536,0,0.072539
0.2569064102540341,0,0.854626
0.14607138029042954,0,0.364641
0.20826244193188131,0,0.212062
0.24195749412989262,1,0.994475
0.3274611203102273,0,0.685714
0.28939285439574713,0,0.930556
0.42859294845896917,0,0.791829
0.2904681949035574,0,0.728155
0.33284923772256225,0,0.215584
0.43802859765913843,0,0.835664
0.37549421775410896,0,0.967005
0.32476398931040207,0,0.600840
0.4171366518405638,0,0.916149
0.5202126152266008,0,0.889643
0.6149156198829434,0,0.966469
0.5629295258208151,0,0.125964
0.27745058831403574,0,0.783784
0.25731271137799144,0,0.651361
0.22287173701710758,0,0.468037
0.2046900295016216,1,0.981366
0.2584738122454687,0,0.683502
0.39383509377138654,0,0.296552
0.2699322950885272,0,0.458730
0.23187455071714952,0,0.264957
0.20776052048638738,0,0.856333
0.3001291815127562,0,0.133909
0.09905040731425473,0,0.918239
0.1959176433762821,0,0.682211
0.06697182385551058,0,0.377295
0.184873656784136,0,0.305031
0.11145738494914514,0,0.935018
0.14869179012598194,0,0.938662
0.229758064733339,0,0.718016
0.35159059187452185,0,0.704403
0.30104965657274174,0,0.375979
0.1816157673212776,0,0.856618
0.2724024039515532,0,0.973396
0.2701814451997355,0,0.884277
0.08621896203751464,0,0.684820
-0.0034772698759477556,0,0.776892
-0.034674725137425956,0,0.210177
0.17545928308224118,0,0.959522
0.024088704496608125,0,0.112000
0.19977223807458513,0,0.705882
0.15366334097455275,0,0.250000
0.2351601458887963,0,0.621185
0.3038769180995611,0,0.923077
0.2613332775740582,0,0.925333
0.24499728417067362,0,0.407008
0.22795261645725529,0,0.605791
0.25562627148150235,0,0.250000
0.24241630698428945,0,0.735294
0.19710859705756997,0,0.942484
0.11769330048640694,0,0.925297
0.22466759096147246,0,0.908072
0.24932849161321272,0,0.837662
0.15826098219874116,0,0.296403
0.2871503409774515,0,0.601010
0.14654971014534682,0,0.664609
0.2964181978207696,0,0.702811
0.2726618952986851,0,0.749487
0.12621299634807653,0,0.908873
0.16220852759011128,0,0.895455
0.1045587517776759,0,0.945736
0.07506203976493878,0,0.767196
0.068187555917044,0,0.656036
0.09958114897442648,0,0.606684
0.19700730413607287,1,0.967742
0.17342381853502048,0,0.166181
0.3252984961421333,0,0.150510
0.31168756828708427,0,0.543379
0.3296268032735066,0,0.510753
0.43038613204166615,0,0.661404
0.45603141549300935,0,0.158192
0.5484672185324458,0,0.939058
0.5237807869844431,0,0.873862
0.4836710968899276,0,0.942492
0.6721584042388761,1,0.991292
0.6886142079053109,0,0.957627
0.4268702946032995,0,0.918759
0.19483578370912627,0,0.640777
0.1970854165522169,0,0.412844
0.47394335476227006,0,0.830588
0.5402481155313185,1,0.995893
0.49463735194760006,0,0.229226
0.31500650849525547,0,0.448743
0.23036804822812576,0,0.543544
0.23766919407735274,0,0.261792
0.24892175699716398,0,0.830508
0.17631705053330296,0,0.943723
0.15258317951484182,0,0.884676
0.14794064728184145,0,0.786885
0.2673664504839615,0,0.967772
0.23895426795581637,0,0.870588
0.22187634173479429,0,0.782383
0.27520383802508425,0,0.646091
0.3544520159334731,0,0.684211
0.34753236453358216,0,0.788644
0.4247464297151312,0,0.653137
0.22958750774971545,0,0.939675
0.2763695125985484,0,0.428571
0.29282210875254383,0,0.869458
0.20260195398023223,0,0.492492
0.20886062585791082,0,0.484330
0.11223561142465799,0,0.879418
0.13083952940152668,0,0.672897
0.20857600119266917,0,0.608766
0.20051748323970442,0,0.588235
0.030517930998164678,0,0.729773
0.27715106742587686,0,0.782427
0.25730543632117514,0,0.505119
0.18818332321572417,0,0.548223
0.3474982198636203,0,0.367816
0.1230921228771268,0,0.274725
0.12644457428768874,0,0.650327
0.1981063273741008,0,0.729134
0.03990419575755854,0,0.725490
0.038133115519242346,0,0.235849
-0.0370066551803592,0,0.173267
0.05778554576339484,0,0.721477
0.06466597133237065,0,0.571121
0.08944491009579032,0,0.266667
0.08594409961413824,0,0.434409
0.02370833929268916,0,0.543750
0.02640136900207032,1,0.992462
0.14014040068712852,0,0.933842
0.07587938322036578,0,0.520000
0.040811732896145855,0,0.355556
0.06833985731361272,0,0.855114
0.06794561841208357,0,0.598504
0.1276162579384473,0,0.240887
0.1928009958766804,0,0.761236
0.23334205395591723,1,0.979310
0.401603188232497,1,0.974227
0.23456073765144064,0,0.872340
0.45997586905600363,1,0.991087
0.624425898983279,1,0.990530
0.4607961066510621,0,0.490964
0.2807415919710693,0,0.764706
0.23859112540050717,0,0.299776
0.24574160664085679,0,0.749123
0.2707818971695827,0,0.882514
0.276481384136717,0,0.473002
0.36450744257651263,0,0.730382
0.3396301060143365,0,0.673307
0.30348212787599593,0,0.895385
0.39085324217294276,0,0.673640
0.23257602228295837,0,0.924686
0.16477473511881308,1,0.958333
0.13480193242352684,0,0.909348
0.10973063198867392,1,0.991080
0.304990979546881,0,0.871397
0.1323744692007858,0,0.892996
0.2005572153615271,0,0.714903
0.10045606662195122,0,0.396122
-0.005542132884244171,0,0.072202
0.2016522217813368,0,0.172727
0.18197843083232648,0,0.532156
0.2136089774212935,0,0.851133
0.11076995949930786,0,0.935611
0.12962864744953317,0,0.357143
0.11321548513451185,0,0.538071
0.08246481873524929,0,0.555985
0.19533187339514707,0,0.619893
0.07746478362848978,0,0.627119
0.10067364939550237,0,0.668731
0.1531675932808748,0,0.375954
0.19665239712087854,0,0.902326
0.03605721662881583,0,0.447489
0.15200285075733017,0,0.358491
0.20729699876474555,0,0.461538
0.27859262295438775,0,0.721805
0.26735015686629565,0,0.816981
0.3027202015428387,1,0.985222
0.30691092930636676,0,0.698962
0.2926475469724631,1,0.978049
0.32673174252633846,0,0.767442
0.31795882913998325,0,0.625767
0.33053822556963436,0,0.941499
0.3085964822749267,1,0.985185
0.1393425859619914,0,0.826464
0.25903841202667666,0,0.719237
0.19431316440617932,0,0.755981
0.2376521856145578,0,0.558464
0.3076004023798993,0,0.927215
0.25368757763260424,0,0.520505
0.3376580940914752,0,0.431776
0.2714808144490006,0,0.735043
0.1989502039102224,0,0.704762
-0.07189327519027627,0,0.689855
0.07215375003870352,1,0.943662
0.08669109686826514,0,0.625641
0.13368608972575496,0,0.489945
0.1617124665458841,0,0.662953
0.17514038325583234,0,0.910284
0.22392122507835624,0,0.683962
0.25745222362890513,0,0.624113
0.3227260590202831,0,0.836983
0.5078072315768069,0,0.855828
0.2632387882039138,0,0.870871
0.5333600615772829,0,0.880096
0.34464465807965666,0,0.579926
0.38404012043556335,0,0.626043
0.49740064132640627,0,0.735437
0.27870329753558815,0,0.802974
0.4004103040401409,0,0.542373
0.0317010344030804,0,0.476431
0.18099826685839618,0,0.767773
0.07458135623921384,0,0.542373
0.14227684476057664,0,0.322967
0.1804132537960555,0,0.878136
0.2014371118711466,0,0.286058
0.22622801152303143,0,0.938942
0.3617429323870515,0,0.776515
0.31176079215021113,0,0.494382
0.27881093061435763,0,0.772500
0.34422177169711504,1,0.978587
0.41080824577857883,0,0.373444
0.3019064482090739,0,0.803922
0.3918876692986498,0,0.359155
0.17486730388097987,0,0.724576
0.30917344386487006,0,0.345794
0.2892157950594213,0,0.939791
0.29498548596538526,0,0.967480
0.27805083148774123,0,0.602113
0.2953489160178332,0,0.565217
0.25657676001471424,0,0.963437
0.27269329785809077,0,0.694611
0.028204948987755406,0,0.376731
0.08674181725341207,0,0.516320
0.06885413728764987,1,0.993363
0.10649006713344232,0,0.552381
0.12272845318124938,0,0.393148
0.16264121566564665,0,0.857143
0.13935595750590002,0,0.409692
0.18039321105030176,0,0.700405
0.2606581900490826,0,0.561069
0.13780072755641148,0,0.575916
0.1236998033182503,0,0.613333
0.20916687722792618,0,0.234450
0.11831597857151507,0,0.272727
0.08803698499455763,0,0.387844
0.08895492413943593,0,0.774127
0.16035183290894958,0,0.419298
0.1448317093128634,0,0.903485
0.21741343509739264,0,0.698876
0.17027765134383469,0,0.273364
0.21174080072405896,0,0.193939
0.1686208971107633,0,0.694969
0.2739076379509031,0,0.665298
0.2855165860205093,0,0.786697
0.2925691981824085,0,0.700205
0.2763078928324203,0,0.700651
0.3693668243397284,0,0.375949
0.36147811669286484,0,0.292276
0.43170587941572525,0,0.558824
0.4684466980513458,0,0.876133
0.2842267291568436,0,0.894434
0.19553831773538258,0,0.531339
0.18620489940769633,0,0.814607
0.09026774254025537,0,0.906422
0.1282743109166334,0,0.944123
0.1467334708793451,0,0.865546
0.1202083275149016,0,0.043614
0.20416231494593953,1,0.989831
0.2937369859162763,0,0.279545
0.20961152760970214,0,0.535135
0.24801213492101712,1,0.988072
0.36745828835540656,0,0.684746
0.3470446612170711,0,0.176895
0.35605270243493947,0,0.929961
0.33603370602759564,0,0.806683
0.3479249584858097,0,0.737463
0.3276329731864552,1,0.986842
0.45162649212947364,0,0.643836
0.19632994631571768,0,0.698444
0.18382659481983588,0,0.917808
0.1813275568644085,0,0.859649
0.211174259467892,0,0.743191
0.2766732400961199,0,0.269841
0.32523427477937455,0,0.688129
0.4674956201941661,0,0.937132
0.07529643130458015,0,0.721951
0.12759883348606926,0,0.761006
0.18268620557193485,0,0.078947
0.13471791081344428,0,0.751037
0.12325701586813625,0,0.590909
0.26509735009789703,1,0.982394
0.3220642674075186,0,0.924152
0.39505056722167087,1,0.996564
0.13058532244497043,0,0.881081
0.29879171638907637,0,0.300000
0.21151244456207335,1,0.992157
0.24048353884292203,0,0.775701
0.20732832559868783,0,0.233010
0.15320357023721012,1,0.993478
0.07990602456783026,0,0.645012
0.20070507218654995,0,0.724832
0.20851688677781693,0,0.585470
0.3434287176543,0,0.679426
0.23287440314370994,0,0.394578
0.40532754402167925,0,0.687840
0.3976329871098145,0,0.768692
0.3168618830380019,0,0.672941
0.12554851263686928,0,0.103723
0.38140671387386227,0,0.922145
0.257893486660833,0,0.942308
0.2941834252156369,0,0.848018
0.3072292102808216,0,0.745358
0.23346613429328272,0,0.713355
0.24134667753667188,0,0.751256
-0.008610043624744367,0,0.700472
0.08401085777021637,0,0.802789
0.22990357299964462,1,0.988506
0.11870976584839321,0,0.770642
0.09449519317222961,0,0.776316
0.09450442694183625,0,0.259494
0.16362930821306415,0,0.731818
0.09836328754998129,0,0.353698
0.15548634854238877,0,0.098485
0.02465728910294699,0,0.500000
0.12489185428657598,0,0.831551
0.1128397030835406,1,0.994220
0.32550693061213387,0,0.902692
0.20316066135565464,0,0.648438
0.061551035089954305,0,0.724480
0.09985077928454829,0,0.455631
0.09987253023312709,0,0.780591
0.09867010349439506,0,0.798587
0.09456938842043443,0,0.672297
0.12909816276608466,0,0.580448
0.12211524613056454,0,0.604790
0.18467680058793254,0,0.734003
0.12308853729286102,0,0.799677
0.1882120804278267,0,0.963783
0.31351298181444753,0,0.512000
0.21486840049670922,0,0.709052
0.22908306114123064,0,0.757202
0.42750984476345055,0,0.224206
0.6857362391146964,1,0.984334
0.6244910009081729,0,0.871353
0.5839569878434052,0,0.918182
0.6988761724434438,1,0.994242
0.15428192988910694,0,0.542199
0.22894984640750607,0,0.450855
0.17823635737206436,0,0.305936
0.3213135106416736,0,0.706827
0.15412951035602337,0,0.638197
0.12379943516283178,0,0.760305
0.229912742619467,0,0.139394
0.00814476790269493,0,0.478431
0.13085489675971074,0,0.764706
0.09476688293585006,0,0.698454
0.17622813469514187,0,0.315403
0.18602577451993274,0,0.793478
0.15796184402710498,0,0.941456
0.19380583708512342,0,0.219436
0.21929250442029355,0,0.768627
0.2124965177035348,0,0.416667
0.21022698894823136,0,0.117371
0.13918945658797394,0,0.879342
0.15325358746161147,0,0.878594
0.1916679321794927,0,0.536842
0.2514292787098038,0,0.396226
0.34337392342624734,1,0.996058
0.33725133331679236,0,0.692641
0.3979712559403638,0,0.946067
0.29010537389752467,0,0.836795
0.255180689738808,0,0.973585
0.24987892301701692,1,0.975439
0.24821078256428755,0,0.341202
0.18349129956369944,0,0.135593
0.1896589689402486,0,0.939929
0.16010028351142339,0,0.647059
0.0480706502923101,0,0.319871
0.08958472487995958,0,0.225714
0.07475590467856037,0,0.242366
0.1457268060534624,0,0.854881
0.1223610092625284,0,0.650190
0.1509511730026438,0,0.498294
0.17632115561028208,0,0.787097
0.1471461640623188,0,0.863014
0.09114357107130601,1,0.997207
0.22713841942108184,0,0.669643
0.1291986742737354,0,0.274047
0.19698071819544094,0,0.125000
0.11780165741691234,0,0.352941
0.16542104144898748,0,0.447301
0.08385437217078856,0,0.562290
0.04346588613980722,0,0.016854
0.09950960821987168,0,0.788419
0.06762364550300808,0,0.763804
0.10223266811914038,0,0.950207
0.09757336309250493,0,0.531008
0.14438853843656135,0,0.817130
0.25220109733003937,0,0.362092
0.19218281942143087,0,0.766026
0.26835215223761905,0,0.889671
0.11763511928770967,0,0.721905
0.08891006394418835,0,0.695150
0.17435052434257253,0,0.822304
0.12885973981970578,0,0.385432
0.023341897722154094,0,0.935943
0.12008101974201432,0,0.746781
0.05971730951515053,0,0.128114
0.08467413389198042,0,0.197731
0.0536831338004777,0,0.377224
0.028601285183392985,0,0.154167
0.11695169248130596,0,0.700637
0.06588624755271981,0,0.848421
-0.01985103014816612,0,0.574074
0.043983063779704124,0,0.128821
0.030109217007701337,0,0.379845
0.09948299176439844,0,0.141593
0.26811869383185666,0,0.604072
0.42254247604928596,0,0.686957
0.44800894908019845,0,0.598820
0.4398626059584417,0,0.783163
0.5352540321251192,0,0.897764
0.06698573340548732,0,0.813869
0.2576335966688387,0,0.508961
0.04954199377676938,0,0.856643
0.16471126395696054,0,0.776978
0.2846971381921736,0,0.841845
0.18106955026565363,0,0.596730
0.3306219385731408,0,0.792642
0.46312781008524917,0,0.828418
0.2807940802520354,0,0.876569
0.18905491159674456,0,0.756667
0.39712282482575645,0,0.787798
0.21956071366575916,0,0.531250
0.23279711735403516,0,0.962733
0.11362178445106678,0,0.817590
0.2956852544658105,0,0.763754
0.2576338844195859,0,0.948882
0.2679579316404726,0,0.273292
0.3371167149071794,0,0.199575
0.37943096730444364,0,0.459330
0.31570595621155517,0,0.272727
0.31320914190870497,1,0.996627
0.15187784548689776,0,0.396135
0.0017585594478266998,0,0.040153
0.09111140006050984,0,0.727907
0.17611755934158035,0,0.720430
0.16939099292351015,0,0.026954
0.15380906157006338,0,0.599462
0.24735374658818018,0,0.656836
0.28327875164681177,0,0.871795
0.22237127695637918,0,0.843400
0.2390786743229536,0,0.321063
0.3120478158322161,0,0.688213
0.3808624499405658,0,0.786448
0.3694465221552901,0,0.534823
0.48922713957736835,1,0.975904
0.4824422033400568,0,0.939908
0.36602447326681126,0,0.297794
0.4783996454889568,1,0.982022
0.5666476137751177,0,0.940000
0.6108128718627412,0,0.908537
0.32018681532984106,0,0.896040
0.2886760295082175,0,0.462963
0.22974782800785684,0,0.335366
0.21256576514717337,0,0.234940
0.17564678958320837,0,0.518834
0.11827223734977714,0,0.954741
0.08026121145264963,0,0.632653
0.18882142339902436,0,0.512422
0.15606805165454032,0,0.696113
0.10253804928579187,0,0.341867
0.06976687996783129,0,0.252525
0.10802666679359181,0,0.059289
0.13354772330342268,0,0.776786
0.049677245041852794,0,0.734043
0.1888011313491823,0,0.459701
0.0834004507398253,0,0.870347
0.08101600329817531,0,0.217391
0.08231437322368783,0,0.479021
0.04084511476809627,0,0.842466
0.03333211257163953,0,0.317241
0.03006898075169122,0,0.752577
0.07668456485802583,0,0.771218
0.08980224202148762,0,0.580737
-0.046929492180274104,0,0.214646
0.08975871490464121,0,0.369449
0.06656359917562238,0,0.695652
0.10622361125321024,0,0.793814
0.05254844214743651,0,0.780822
0.07304138789053144,0,0.573529
0.06898790581036301,0,0.936224
0.06816692399683735,0,0.538976
0.04542797490253753,0,0.908127
0.11574832560719485,0,0.200000
0.26533257705273827,0,0.631579
0.27427294355447646,0,0.802198
0.4597417430023166,0,0.952381
0.34623552418428966,0,0.298056
0.328260661144013,0,0.886878
0.3491074558664197,0,0.744304
0.31968531743099654,0,0.747346
0.5260567133711935,0,0.950413
0.4935229369057821,1,0.982587
0.4365890840378135,0,0.643068
0.5501260398021229,0,0.367698
0.6757936068964359,0,0.962891
0.33919317345136596,0,0.909314
0.2813522505895859,0,0.540501
0.14557301685439378,0,0.770718
0.24795555334491087,0,0.303774
0.02695554019848141,0,0.336066
0.06539050020060672,0,0.528998
0.13693095010229786,0,0.407767
0.12697165148772396,0,0.716599
0.17259484249982754,0,0.676923
0.27164462337562273,0,0.649706
0.3249568909059853,1,0.968198
0.3235879068963443,0,0.460784
0.15097382494233474,0,0.528351
0.1600091975315407,0,0.365989
0.12116304278049524,0,0.821121
0.1662844430302904,0,0.866667
0.20011260954037427,0,0.750567
0.09453139106776963,0,0.411960
0.08025429533214386,0,0.727723
0.1114776979203383,0,0.410345
0.14614437238175376,0,0.678400
0.20463284140898497,0,0.860465
0.1471058530379299,0,0.360568
0.07957860603433338,0,0.685022
0.14450130352550633,0,0.796715
0.22346529382965977,0,0.268293
0.15018299114409447,0,0.334572
0.07373857195009943,0,0.000000
0.11231811002560466,0,0.585742
0.11804809150358482,0,0.414458
0.11488574536405063,0,0.769384
0.13869221097160217,0,0.273418
0.16763924467374805,0,0.833753
0.21204958255242373,0,0.630986
0.3096917617099148,0,0.817982
0.2449268078867715,1,0.988439
0.24403809153561262,0,0.937811
0.2849126863718765,0,0.260536
0.4127324772317837,0,0.894155
0.28513148697355317,0,0.829060
0.3660144167046476,0,0.951417
0.21560008283839008,0,0.415282
0.1819284968347192,0,0.185771
0.12721827181999817,0,0.134426
0.2482957317856739,0,0.806962
0.25927701768305794,1,0.967273
0.3116325584977015,0,0.874101
0.38813828465999894,0,0.942568
0.3449233863318232,0,0.732653
0.346059298069823,0,0.541020
0.3971513317688522,1,0.998661
0.3699151049197429,0,0.962000
0.31177199453603915,0,0.882166
0.11068989545697057,0,0.312655
-0.005027322675599451,0,0.454839
-0.0017156989502427832,0,0.676887
-0.04586047528811078,0,0.713568
0.08790516123332943,0,0.497872
0.1614065655144525,0,0.330189
0.06547588279694715,0,0.664570
0.09292910705081783,0,0.493363
0.0799757372700088,0,0.862205
0.10670201059213641,0,0.843049
0.15052270140414334,0,0.884211
0.22108269848549583,0,0.641256
0.19072868123037554,0,0.732456
0.1729706218755353,0,0.904656
0.17926086927732587,0,0.729549
0.12970354857343042,0,0.762411
0.07210622081240325,0,0.813387
0.2516864977052391,0,0.440389
0.22199074765603963,0,0.411538
0.28511016313747234,0,0.761006
0.40532571284293917,0,0.827887
0.5053082972178528,0,0.921320
0.4397308300939537,0,0.428571
0.3436138750324195,0,0.931478
0.1979244549596022,0,0.564904
0.3352185318480091,0,0.932781
0.33982081426318145,0,0.886855
0.46119064308178725,0,0.972527
0.5441629531550567,0,0.929043
0.5098383527376132,0,0.717172
0.624010905549945,0,0.947849
0.7633294835356412,1,0.996099
0.2902753370811709,0,0.879845
0.19188846584195568,0,0.501799
0.22414566273089365,0,0.416268
0.280732402056276,0,0.433071
0.2725719484277878,0,0.923636
0.3502041149283797,0,0.896620
0.28568402156869754,0,0.584783
0.3170347669695615,0,0.431078
0.43241665130122076,0,0.792208
0.39151242970658867,0,0.835218
0.29662600750250784,0,0.240088
0.3900065736405563,0,0.556497
0.2525465924647251,0,0.838710
0.0835204494445559,0,0.217712
0.04904952465762422,0,0.736111
0.06117365665734234,0,0.040872
0.08745214262474463,0,0.392857
0.09010203932399578,0,0.965517
0.11933079762483868,0,0.844181
0.18623030798352336,0,0.876068
0.08381467927089603,0,0.502092
0.09616077374521556,0,0.683060
0.08918860728114884,0,0.692641
0.22212364961014924,0,0.916667
0.12676718944466428,0,0.149123
0.203006217600498,0,0.960452
0.2784749157182469,0,0.965087
0.15005495325636967,0,0.892019
0.1843187907232518,0,0.705882
0.12599776116689393,1,0.981432
0.19546924096397114,0,0.022152
0.22516966473286046,0,0.355634
0.19246491426376794,0,0.071856
0.06673000340055298,0,0.247934
0.18618021660960662,0,0.134615
0.15468883959683308,0,0.796438
0.11558955132149921,0,0.585507
0.19689820168543812,0,0.389590
0.13368458957492563,0,0.422505
0.18901126003916485,0,0.430421
0.1699310135807311,0,0.519939
0.13723349249970027,0,0.279612
0.22070693625940832,0,0.912955
0.18758812481679918,0,0.743697
0.15333438485824277,0,0.653495
0.20192430200219555,0,0.365714
0.23391799990267523,0,0.236434
0.28072643552700505,0,0.959807
0.24539491736285196,0,0.897661
0.2524925665802775,0,0.027888
0.3465833309157509,0,0.929550
0.35878557196446376,0,0.656069
0.40147959736579397,0,0.903733
0.47417121917390864,0,0.909091
0.37375562283993946,0,0.904255
0.49542495135627157,0,0.795455
0.5485535333650423,1,0.985119
0.36779196466018504,0,0.175749
0.44437013238022827,0,0.660338
0.226723116534602,0,0.726126
0.11098009479496844,0,0.487395
0.035682389768095006,0,0.522727
0.03826909681304578,0,0.352809
0.10448745539446465,0,0.321555
0.06189242677163646,0,0.450122
0.1359477286844435,0,0.494536
0.13961542929007725,0,0.864865
0.2315806419791426,0,0.645503
0.271294414115066,0,0.620301
0.1360895719888784,0,0.620536
0.24951533493251077,0,0.578164
0.22242814737032912,0,0.049881
0.2881970314842727,0,0.750000
0.3056731865454818,1,0.961390
0.28400803654984674,0,0.728814
0.3981455484965478,0,0.735751
0.4352568501833369,0,0.699588
0.40029668184844086,0,0.707510
0.27490883646846376,0,0.966140
0.48480725836489624,0,0.937360
0.4455200829029987,0,0.705202
0.35044807247749615,0,0.536649
0.4679076557269106,0,0.667954
0.15759152305087956,0,0.595588
0.30064560582170247,0,0.792763
0.355017954798933,0,0.473262
0.12416792808011969,0,0.588595
0.4261367184112684,0,0.952941
0.44015206570069804,0,0.821895
0.2227677732815353,0,0.389294
0.19711944019942618,0,0.275862
0.18037988813617561,0,0.925094
0.13617806594553652,0,0.600791
0.29613727520963706,0,0.795294
0.1907347849827858,0,0.536290
0.16856049541545465,0,0.319672
0.11582419886079136,0,0.558824
0.10093906819254392,0,0.880000
0.16101376684031543,0,0.336177
0.17633019389646937,0,0.605684
0.16413700130299527,0,0.475610
0.11470193061726834,0,0.518304
0.1785412658487152,0,0.912424
0.14842351169819065,0,0.435798
0.2339492083928088,0,0.681672
0.2476549266254847,0,0.842795
0.3416303780225872,0,0.932886
0.38335230827356415,0,0.252874
0.4848671157389133,0,0.702041
0.5800343217978843,1,0.987448
0.10746907425269275,0,0.744330
0.09946374072472386,0,0.403131
0.13673847425210167,0,0.754212
0.06266829929207807,0,0.720137
0.03858573523089187,0,0.531977
0.21884216702340506,0,0.274336
0.10567652099484767,0,0.807157
0.14623198155831854,0,0.834437
0.3007053533800973,0,0.968657
0.10923691789109825,0,0.638826
0.23523624059861542,0,0.640919
0.22781972174579704,0,0.922631
0.12074978087101235,0,0.469003
0.2505276994442035,0,0.382022
0.3323157650662094,0,0.223035
0.3028044908904621,0,0.385496
0.2621341757067524,0,0.288256
0.08030577390397589,0,0.447205
0.23899112950149132,0,0.777506
0.3654643246356607,0,0.784444
0.06812629225817761,0,0.759690
-0.0014631810472297388,0,0.849057
0.10809899454931876,0,0.447205
0.1110384779709327,1,0.990264
0.01419312024974254,0,0.850949
0.05313163039716166,0,0.800347
0.16756200556737968,1,0.984252
0.01846668449530199,0,0.701172
0.10386776032530307,0,0.455210
0.12515642856174888,0,0.832685
0.11832408610968333,0,0.251046
0.17381920211473628,0,0.709906
0.09665828909206502,0,0.663848
0.1501521682216776,0,0.833333
0.20338270349879436,0,0.646018
0.11539260291480419,0,0.407258
0.08627312880471166,0,0.296178
0.13303588393461183,0,0.610256
0.09573492114938488,0,0.811688
0.10612766533755089,0,0.599558
0.07763693208578427,0,0.360852
0.16964634698344355,0,0.712209
0.011637362933511548,0,0.431267
0.02335064189971498,0,0.498195
0.08994833816220828,0,0.667368
0.03903378825514101,0,0.657005
-0.02439395515908259,0,0.042623
0.05144980021005743,0,0.398601
0.049108515272496774,0,0.814607
0.059457884238555775,0,0.870849
0.027462903810022407,0,0.660377
0.22948724492480943,0,0.682566
0.33497137246504005,0,0.144898
0.47444634458204593,0,0.858864
0.36402833807151125,0,0.712895
0.2864157217744473,0,0.498221
0.32642828439881194,0,0.902299
0.2659283548731814,0,0.508475
0.34516399370729495,0,0.941581
0.22869798215429296,0,0.291667
0.24868189167784982,0,0.666667
0.022597027207241892,1,0.934211
0.2531120565332293,0,0.229508
0.16302475157792495,0,0.450920
0.25556835177986803,0,0.807154
0.37273575806652925,0,0.623037
0.262133957883858,0,0.865347
0.33703490577386364,0,0.873333
0.18526827358501918,0,0.725191
0.3021707691179023,0,0.636598
0.23468045230744522,0,0.202247
0.17620660736584276,0,0.225490
0.03328727127420471,0,0.698210
0.16195854736714504,0,0.615183
0.16893028032270857,0,0.976032
0.1708421715930348,0,0.946372
0.11191090260817613,0,0.395604
0.06422014500828734,0,0.958647
0.11378683208254366,0,0.429752
0.18322152283300977,0,0.067100
0.19431716505353583,0,0.848649
0.2682497944992936,0,0.276803
0.15473004530989243,0,0.604348
0.15608432755552903,0,0.884298
0.2484805440434254,0,0.928074
0.3315699792040861,0,0.372093
0.017907831358687606,0,0.088542
0.2749077497191635,0,0.663951
0.33162049670139215,0,0.733945
0.4271607741262286,0,0.685567
0.42131357123982616,0,0.717949
0.2534489902723975,0,0.896761
0.14712184914202847,0,0.508197
0.15421340642783538,1,0.998158
0.21102200441547186,0,0.394161
0.2270672664626908,0,0.547511
0.20746865828025376,0,0.724907
0.243760440750721,0,0.455263
0.24229437037057927,0,0.774448
0.2883927564049779,0,0.681159
0.3399585493439271,0,0.902549
0.33370925810468055,0,0.687988
0.3021259034028312,0,0.961433
0.3933041546002543,0,0.842199
0.36389516809731304,0,0.769481
0.27176866461423876,0,0.097222
0.26312182521324035,1,0.980507
0.12923399421808437,0,0.916058
0.13525269409638063,0,0.686347
0.32197941827863125,0,0.849858
0.32634058968842117,0,0.843537
0.27736076775741547,0,0.329154
0.2049111084736421,1,0.972810
0.10522269938829072,0,0.690625
0.22783356585139142,0,0.973109
0.0666435322161499,0,0.510516
0.025042722417723016,0,0.412429
0.031798069952402336,0,0.375465
0.1252781387280164,0,0.951220
0.1772018438894148,0,0.856287
0.17866128226946762,0,0.853480
0.1752261841061339,0,0.854400
0.2302125248012326,0,0.395881
0.11580083879900828,0,0.759375
0.09769710736915563,0,0.187266
0.17856249165741844,0,0.848276
0.19082120073678602,0,0.573876
0.2557411908061178,0,0.966346
0.13497212171428527,0,0.942073
0.1564093797048428,0,0.961259
0.10829744879476112,0,0.746631
0.06783368695367853,0,0.915470
0.09683461416390036,0,0.187348
0.07070341320598425,0,0.848024
0.10842622458076032,0,0.302752
0.13936113427774538,0,0.681239
0.2022115139528903,0,0.620755
0.12621130571812023,0,0.698492
0.11622199585429634,0,0.447293
0.0809920470936321,0,0.617792
0.14849745192425953,0,0.096552
0.07621916988662032,0,0.166667
0.024794283722601437,0,0.533724
0.23050807522996003,0,0.885856
0.36558499599884997,0,0.660714
0.2829336359832656,0,0.951009
0.35057639046155153,0,0.628931
0.37578653834112385,0,0.974609
0.42521257607043644,0,0.179283
0.3997945497439973,0,0.653211
0.36299745261663546,0,0.943038
0.31926100978949545,1,0.992636
0.2898259570657357,0,0.855362
0.37907509310425164,0,0.341637
0.36268173661895065,0,0.434174
0.4447482913554664,0,0.752608
0.2684109125194755,0,0.735010
0.2680191173611844,1,0.974286
0.24275866336523744,0,0.564706
0.20092330088058705,0,0.356083
0.23216590910167206,0,0.729783
0.2764695502548697,0,0.541436
0.36379810339138935,0,0.593651
0.363763981944567,0,0.882353
0.32394404945106586,0,0.757506
0.12769506446674764,0,0.164159
0.17084514232006462,0,0.933775
0.13979268048476387,0,0.870670
0.2646345392113816,0,0.692641
0.08687816851410395,0,0.733796
0.2081068743722468,0,0.794686
0.1381655774047082,0,0.791237
0.06725824057044999,0,0.730570
0.1294600296784892,0,0.806988
0.13247501635573486,0,0.952191
0.20329939236637212,0,0.864162
0.15178845237413732,0,0.481651
0.19775639782663082,0,0.723992
0.10275691714589423,1,0.994810
0.22309143554887714,0,0.941476
0.1829487321102736,0,0.055556
0.2645806483140352,1,0.986047
0.28169084613613676,0,0.604478
0.3173294727686385,0,0.942553
0.36539341709942513,0,0.682692
0.22500670356690383,1,0.987768
0.2683765971653745,0,0.455814
0.3307291677300735,0,0.844884
0.4290396857000322,0,0.169811
0.19369528380593568,0,0.342007
0.14489474593765103,0,0.664671
0.1580796968521576,0,0.522346
0.2909963753439579,0,0.328829
0.26429693159340073,1,0.992500
0.28324745856848643,0,0.955769
0.2304271402563467,0,0.160207
0.12005730293434788,0,0.806548
0.01566115606944321,0,0.958333
0.07634765506177106,0,0.852804
0.09935348534730289,0,0.118577
0.05291526848048212,1,0.976109
0.07248532547464084,0,0.539106
-0.050130291764706535,0,0.392086
0.08266423242688238,0,0.866799
0.12033744721873242,1,0.985507
0.11457432227917025,0,0.607251
0.08443861903026353,0,0.584383
0.15380849333581112,0,0.894144
0.057047123926508805,0,0.009934
0.09514527998201858,0,0.359932
-0.02189108674403159,0,0.178112
0.029499708354053324,0,0.325137
0.02939623415054861,0,0.628205
0.05024851193674387,0,0.597802
0.15388878331680628,0,0.281099
0.18863407353676276,0,0.881838
0.1024430035391052,0,0.732558
0.150072296207773,0,0.740566
0.13730166016975257,0,0.005405
0.16193563926727964,0,0.685629
0.15784374947081514,0,0.619643
0.11930170094153678,0,0.824561
0.14617173425425117,0,0.627660
0.1680662404523736,0,0.461066
0.09065967432481556,0,0.328571
0.08061844519463232,0,0.429668
0.1427688150866357,0,0.887967
0.18148785725108474,0,0.916667
0.10575275832926423,0,0.578680
0.09204491513853003,0,0.429400
0.20622202417476254,0,0.926582
0.17906308304259647,0,0.926160
0.23042088148764162,0,0.807692
0.13534888119811547,0,0.905565
0.1821053050067801,0,0.575472
0.3196927275960112,0,0.967280
0.17351842513023358,0,0.811370
0.13708359359492026,0,0.908800
0.2412504927317495,0,0.927313
0.20822938970024235,0,0.858223
0.30795644716817255,0,0.887755
0.16237875571560867,0,0.870504
0.2805168620024621,0,0.516414
0.35473922787035683,1,0.938356
0.3743793305920284,0,0.453901
0.3803522662519734,0,0.710300
0.5026616223854642,0,0.592381
0.26352170264318875,0,0.708223
0.4534219468967012,1,0.985915
0.33783826257491084,0,0.791469
0.5009246443970017,0,0.890295
0.3895077317244015,0,0.696262
0.2199362909102077,0,0.625806
0.25287848512979916,0,0.545113
0.33888614289245483,0,0.898182
0.17391236556032802,0,0.043344
0.3641464262484085,0,0.894737
0.38008984469557155,0,0.316537
0.3806827866232199,0,0.882353
0.368583481689799,0,0.841410
0.5769726577789904,1,0.993455
0.5620709380087313,0,0.279915
0.672801197355821,0,0.967249
0.31278883824438586,0,0.886010
0.4686883383791657,0,0.955414
0.28229627928397244,1,0.959799
0.39786991098638363,0,0.373563
0.2724098061347366,0,0.503861
0.33870768575614096,0,0.694716
0.32869853431503077,0,0.827119
0.30138015453281813,0,0.912844
0.31763816170848697,0,0.942623
