0.8869287048331624,0,0.998535
0.9187421681256951,1,0.999986
0.9193574487728422,1,0.999995
0.9016140398226394,0,0.992665
0.7860814516387855,1,0.999990
0.915100058589065,1,0.999995
0.964521254687896,1,0.999995
0.9718781000126197,1,0.999986
0.9711706484408835,0,0.999380
0.9657648220019944,1,0.999995
0.9706873498150025,0,0.999831
0.969209598476938,0,0.973014
0.9650225627624385,0,0.963394
0.9603811331403711,0,0.965733
0.9593202558937374,0,0.963684
0.9484734328669575,1,0.999995
0.9481945274760839,0,0.852972
0.9466411446981677,0,0.911341
0.9391352772709538,0,0.857476
0.9035506083296027,0,0.886564
0.9028048290059568,0,0.885236
0.9026863804449026,0,0.902884
0.9024863382861659,0,0.944295
0.9024915816708431,0,0.957940
0.90117889375373,0,0.953065
0.9009869037552056,1,0.999976
0.9011200258135273,0,0.972666
0.8982417853104585,0,0.971412
0.8941214665547245,0,0.972582
0.8907683894836772,0,0.984783
0.8769259992889717,0,0.946993
0.8766170149881398,0,0.998818
0.8649407326486668,0,0.995475
0.8554483589838429,1,0.999991
0.8554483589838429,0,0.991719
0.8453411867240919,0,0.950691
0.8398974385506687,0,0.997079
0.8377886633237396,0,0.985118
0.8374017046930272,0,0.982321
0.8354922449345927,0,0.998035
0.8290507847141627,0,0.989058
0.8290507847141627,0,0.990036
0.7976875619721899,0,0.987464
0.7976875619721899,0,0.999604
0.7735255047547017,0,0.997267
0.7730926287103863,0,0.997747
0.7711663296084086,0,0.998885
0.7615207502517772,0,0.999030
0.760062989958069,0,0.998702
0.7585920177625752,0,0.997928
0.7556539953538379,0,0.997689
0.75628596400893,0,0.994378
