0.0010135823161103788,0,0.978473
0.008193409094610521,0,0.982240
0.009230227690808545,0,0.433599
0.00928317165664104,0,0.759905
0.015563443203687088,0,0.638934
0.022973007549436892,0,0.747909
0.023019083688352353,0,0.432168
0.023205428732590284,0,0.753936
0.024443306768951522,0,0.407168
0.028846798330182326,0,0.442184
0.0348822618308916,0,0.616951
0.04359428334191748,0,0.634724
0.05250058571162119,0,0.609901
0.07262921195183758,0,0.624111
0.12354855790536048,0,0.634936
0.12605621150505064,0,0.633965
0.1284485527072939,0,0.733884
0.1289286794879542,0,0.749655
0.12961462203064059,0,0.749830
0.13119763323470607,0,0.968251
0.13213865993329926,0,0.639094
0.13404448987194081,0,0.625863
0.13680369212287785,0,0.405775
0.1759802432749783,0,0.409276
0.1777493704662419,0,0.408196
0.18037362843576057,0,0.415479
0.1833618802518433,0,0.416133
0.1867282977154509,0,0.413182
0.19048625480590375,0,0.408118
0.1946511409372467,0,0.413123
0.19923494207343698,0,0.661952
0.21250056954298352,0,0.404735
0.2176747808393654,0,0.410474
0.22329882056055195,0,0.412687
0.23589665992960587,0,0.404781
0.2428579895272225,0,0.410456
0.2545799082332032,0,0.412563
0.3336845920313037,0,0.418281
0.3348310184682207,0,0.414903
0.8739901859695072,1,0.999994
0.9007534435843909,0,0.417113
0.9007145960932333,0,0.426122
0.9053308450251256,0,0.831668
0.9081441472954641,0,0.827881
0.7912476793873178,0,0.400915
0.7440193707247423,0,0.739480
0.684261149200507,0,0.409699
0.6837971891814888,0,0.738070
0.47863715418886466,0,0.824315
0.42697298354755553,0,0.000229
0.3538084029832946,1,0.999893
0.37433087134920195,0,0.995155
0.3806067653373829,0,0.937567
0.39084219403364906,0,0.997220
0.474743420588113,0,0.982331
0.47487802674760854,0,0.985495
0.4846516379864268,1,0.999991
0.48930055762174385,0,0.988616
0.5311745859633769,0,0.995594
0.5369365036824476,0,0.999304
0.5369365036824476,0,0.997680
0.6500519272945643,0,0.997892
0.6500519272945643,0,0.999757
0.6937429815672809,0,0.999428
0.6937429815672809,0,0.984985
0.6551297757811215,0,0.999805
0.8741572979914428,1,0.999966
0.8897487463688186,1,0.999965
0.9317735695754358,0,0.997895
0.9342556271032137,0,0.998256
0.9364495663849342,1,0.999947
0.9382426772001196,0,0.998250
0.9400842756147533,0,0.999857
0.9438418439473787,0,0.999809
0.9438899128492999,0,0.999880
0.9437640787401105,0,0.999569
0.9433409857724099,1,0.999987
0.942013579816265,0,0.999479
0.9392496457898376,0,0.999826
0.9382363847546473,0,0.999854
0.9370612695248011,0,0.999821
0.9357051070301063,0,0.999849
0.9341470406622953,0,0.999815
0.9323645052149508,0,0.999849
0.9313244172265845,0,0.999826
0.9290939691866494,0,0.999849
0.9265624620961982,0,0.999837
0.9237002316587629,0,0.999556
0.9204760895489783,0,0.999579
0.9168575175460719,0,0.999687
0.9128109309353544,0,0.999710
0.9083020188216963,0,0.999849
0.9032961675672337,0,0.999849
0.8977589713296954,0,0.999849
0.8916568305233313,0,0.996921
0.8849576349305368,0,0.997052
0.9153574046225783,0,0.996897
0.9084823321908257,0,0.999732
0.9074528538923021,0,0.999213
0.8968459690059563,0,0.998955
0.9134250207083797,0,0.999708
0.8884286795106504,0,0.995326
0.9491846224254418,0,0.998522
0.9535255223261824,0,0.998712
0.9564320596528981,0,0.999304
0.939003281846453,0,0.998827
0.9433097476562078,0,0.996820
0.9436560726458465,0,0.997154
0.9129756002902492,0,0.987830
0.9004482849920111,0,0.251388
0.8940042044597577,0,0.999846
0.8940959753144566,1,0.999779
0.8410951063704503,0,0.984147
0.6702283606632111,0,0.237669
0.5025966533800459,1,0.999935
0.4947217445960108,0,0.998166
0.13467237536455492,0,0.999431
0.1458819817034981,1,0.999941
0.18621631390519977,0,0.999014
0.26542961723744607,1,0.999868
0.34943146367243194,0,0.999565
0.4413736991833071,1,0.999978
0.5465715571428501,0,0.984191
0.8133667383016857,0,0.990211
0.8810739021038904,0,0.979103
0.8603777570058054,1,0.999983
0.8318481218197304,0,0.998329
0.8277412139513907,0,0.997929
0.8293524980770842,0,0.999577
0.8293524980770842,0,0.990319
0.8292246734799509,0,0.999858
0.8684578930170713,0,0.999334
0.864141508775403,0,0.979517
0.9161040453897998,0,0.989034
0.9001681402948952,0,0.999446
0.8895738342380204,0,0.989559
0.8782796270078287,0,0.978572
0.8702204758060746,0,0.982303
0.8649644720860771,0,0.999654
0.8619759476683693,1,0.999993
0.8607626266303888,1,0.999993
0.8613295339580551,0,0.998966
0.8612955136406315,1,0.999941
0.8612855153706703,0,0.998622
0.9392523422482655,0,0.989539
0.9607407987857176,1,0.999994
0.9655215656546842,0,0.990692
0.9757284132039503,0,0.999196
0.97739752086036,0,0.989984
0.9796108515027953,0,0.999846
0.9317401878119194,0,0.998821
0.955330524614357,0,0.999619
0.9659268864179277,0,0.999903
0.9814209265715002,0,0.998486
0.9810595472789161,1,0.999994
0.973990227649493,1,0.999945
0.95880207272724,0,0.998918
0.9860670679711686,1,0.999994
0.9841137532254081,1,0.999987
0.9786547524425587,0,0.999657
0.9817363833644809,1,0.999994
0.9817363833644809,0,0.999888
0.9840946796839238,1,0.999994
0.9772881210165573,0,0.996898
0.9772881210165573,1,0.999988
0.975885193976225,0,0.986148
0.9640028038243809,0,0.986391
0.9378980409777096,0,0.986542
0.9312067564643047,0,0.999808
0.8490260522430984,0,0.999214
0.8490260522430984,0,0.998304
0.8682547176948594,0,0.987160
0.8681258367829779,0,0.990277
0.7864547482436185,0,0.980258
0.8831725797882428,0,0.991288
0.8762340491771204,0,0.986371
0.8829110751059881,1,0.999994
0.8938956188881182,1,0.999868
0.8783268185441817,0,0.996131
0.8493232546920475,0,0.975399
0.8489993665893607,1,0.999988
0.8489993665893607,0,0.985069
0.8776280927923996,0,0.971635
0.8851127136268612,1,0.999982
0.8825949111319722,1,0.999982
0.8764374123433296,0,0.998802
0.9199551088278398,1,0.999963
0.9515080845731887,0,0.999690
0.9415230245218107,1,0.999994
0.9292095133720666,1,0.999992
