0.972935818894881,1,0.999994
0.9368713629281908,1,0.999995
0.9342722989807523,0,0.998767
0.9602248899836363,0,0.830244
0.8406775957769635,0,0.934762
0.8923701622415428,1,0.999990
0.8593845407075014,0,0.999875
0.9569914102903386,1,0.999995
0.8843725521495478,0,0.152694
0.7817045016125067,1,0.999989
0.8811998083830732,0,0.590443
0.8508980033623608,1,0.999976
0.8340552861584153,0,0.971932
0.9461834345438428,1,0.999990
0.9463303592824663,1,0.999986
0.9427359708147036,0,0.999522
0.9252811981234803,1,0.999902
0.9633824566904952,0,0.975212
0.9760543325225997,1,0.999987
0.9830827277299039,1,0.999995
0.9238376274463351,1,0.999992
0.9884549527109755,1,0.999992
0.9915891058026336,0,0.750749
0.9595113222530102,1,0.999995
0.9596705663701599,1,0.999981
0.9327498316835942,1,0.999993
0.8236809563219203,0,0.986389
0.886821169465566,0,0.366192
0.9731411402967884,1,0.999994
0.9135482578803802,1,0.999995
0.9744058344205337,1,0.999947
0.9774952625204051,1,0.999995
0.988533627716067,1,0.999995
0.9885454381838207,1,0.999995
0.9896076821776777,1,0.999995
0.9800313962813296,1,0.999995
0.980919715167154,0,0.785036
0.9889367817629409,1,0.999995
0.9709185671738703,1,0.999994
0.9212519330514343,0,0.895929
0.8379820359339702,0,0.999531
0.940368905972822,0,0.999782
0.9794435216454267,1,0.999991
0.9102175156132529,1,0.999993
0.9219509414229774,0,0.999478
0.9423910809861973,1,0.999995
0.953822644108863,0,0.997051
0.9534246967037789,1,0.999969
0.943993833992801,0,0.996358
0.9471125810981134,1,0.999991
0.9611784866936939,1,0.999984
0.9336996203168295,1,0.999989
0.9780453790296271,1,0.999993
0.9771201377990403,1,0.999994
0.9530801690375583,1,0.999985
0.9655528391539537,0,0.958924
0.9620683895284335,1,0.999994
0.9735485149500663,1,0.999990
0.96704360489902,0,0.999911
0.9193234420049173,1,0.999993
0.8807035299928937,1,0.999980
0.9144084637244939,0,0.904512
0.9147506515458602,0,0.946163
0.9849640049736493,1,0.999985
0.9881342892370715,1,0.999994
0.982822600451887,1,0.999994
0.9447903884367903,1,0.999982
0.9841388802088065,1,0.999973
0.991289339135347,1,0.999995
0.9859894102321936,1,0.999995
0.9839152827581722,1,0.999990
0.9074151158312972,1,0.999985
0.9750107326463529,0,0.999313
0.9410864072483903,1,0.999994
0.9409581781439971,0,0.968118
0.9834800913439229,1,0.999988
0.9276666987400414,0,0.999721
0.9728752910919048,1,0.999971
0.9627731322867357,0,0.966200
0.9323636121034078,1,0.999982
0.8995061752280065,0,0.999759
0.9475769116884821,1,0.999925
0.9099396394886893,0,0.909600
0.9523739669185323,1,0.999989
0.9436632499212689,0,0.999365
0.9406629133203743,1,0.999994
0.9496433421494381,1,0.999952
0.9205835764035799,0,0.999505
0.9263307891337884,1,0.999993
0.9948089084312169,1,0.999995
0.983184468515649,1,0.999994
0.9485780668292025,1,0.999993
0.9811713647964805,1,0.999979
0.9833952540858997,0,0.998770
0.9826574591945174,1,0.999994
0.9804624679232704,0,0.998919
0.8758402786626399,1,0.999977
0.8938679496007083,1,0.999967
0.9327636719111414,1,0.999992
0.9766743695824422,0,0.999888
0.9640332183352976,0,0.903691
0.960196371462833,1,0.999994
0.9361882187102992,0,0.904370
0.9341109433260519,0,0.881147
0.8689667742497699,0,0.882559
0.8690796702092575,0,0.882736
0.8900280378381485,1,0.999993
0.7228230129819541,1,0.999957
0.798689396733055,0,0.999799
0.9338710525531816,1,0.999992
0.9318929768383614,1,0.999989
0.9318840922201651,0,0.999700
0.932833412992047,0,0.999623
0.9325006832085064,0,0.999716
0.8102629773950386,1,0.999990
0.8519520641405295,1,0.999986
0.8275945524921257,1,0.999995
0.9315483675300025,1,0.999992
0.915311751151517,1,0.999995
0.9646273313575016,1,0.999989
0.9610550497298965,1,0.999995
0.9770871740790632,1,0.999993
0.9810241514192448,0,0.907437
0.9704287719757966,1,0.999978
0.9767423893418369,1,0.999995
0.9679427859634548,1,0.999992
0.9828226472653088,0,0.912169
0.9449414615155663,1,0.999995
0.9801549331595667,0,0.995935
0.9301999883303746,1,0.999948
0.9303172408984448,1,0.999987
0.9304869174539235,0,0.929226
0.9307207211376668,0,0.981917
0.9310563424821647,1,0.999990
0.9207705304803777,0,0.933280
0.9242890982198574,0,0.933547
0.9304257822428919,0,0.932599
0.9382623440459772,0,0.933022
0.9480496305516576,0,0.933551
0.9583177724991903,1,0.999946
