-0.004749542760620934,0,0.289660
0.0025515187075312038,0,0.190726
0.0035931204818297376,0,0.451804
0.0035763162273330755,0,0.166350
0.005470760492550787,0,0.179567
0.005144293019542065,0,0.170911
0.005139955339637806,0,0.139993
0.00510746396184758,0,0.552583
0.005054912960551855,0,0.252335
0.006080202899303902,0,0.718879
0.012376017126416389,0,0.281172
0.0923157931921541,0,0.633580
0.18282223714762225,0,0.611869
0.2931344664733844,0,0.577898
0.4377022081685044,0,0.604396
0.43910454841715846,0,0.594390
0.4396374152833589,0,0.462106
0.4396360225676364,0,0.501124
0.4395900054877912,0,0.500676
0.4399198490884025,0,0.961591
0.43983979259849304,0,0.580622
0.4402344655523878,0,0.584846
0.44000302483845005,0,0.596005
0.4312367496859059,0,0.527032
0.43115678790899103,0,0.608995
0.43215081456775545,0,0.526540
0.4335697306259695,0,0.600640
0.4356828295498663,0,0.522628
0.43903700435524573,0,0.608029
0.44454658991737156,0,0.523382
0.45102720862977047,0,0.610697
0.4397489168346794,0,0.645695
0.44811106606500867,0,0.520230
0.446015004349921,0,0.622637
0.22355597277501693,0,0.663503
0.19587082657333,0,0.531226
0.2270093847434854,0,0.520329
0.23657062390579012,0,0.813234
0.23646415182205782,0,0.821752
0.8576146003763782,1,0.999967
0.8885729403097832,0,0.826865
0.8885456792142342,0,0.835353
0.8848643720118826,0,0.915593
0.8801515578297839,0,0.916355
0.4744877527125495,0,0.972688
0.5370431664222008,0,0.978996
0.5288214134552093,0,0.974520
0.5287998475730772,0,0.984922
0.51648497745729,0,0.999746
0.0835829948283962,0,0.869578
0.09099439803725548,0,0.986117
0.29393460137126365,0,0.982344
0.29205711532881595,0,0.872306
0.11895503066752891,1,0.999966
0.3567576701836778,0,0.882234
0.3567337116411826,0,0.873383
0.3547272383551414,0,0.999829
0.35331148722157696,0,0.708349
0.3851376620467988,0,0.986214
0.38310674080603296,0,0.983657
0.38310674080603296,1,0.999812
0.5416675088438512,0,0.962199
0.5416675088438512,0,0.997631
0.5127146230089188,1,0.999994
0.5127146230089188,0,0.995685
0.07107294930193835,0,0.997478
0.8643208665690408,1,0.999991
0.8826007733428601,1,0.999972
0.9239448084708564,0,0.997527
0.9272465337243747,0,0.998084
0.930073414260566,0,0.999299
0.9323737228490386,0,0.998078
0.9347730910079193,0,0.999311
0.9395222788407416,0,0.998910
0.9395754032144522,0,0.999880
0.9398241160069809,0,0.999569
0.3912149966538838,1,0.999960
0.0774592154418814,0,0.999454
0.06868385893387474,0,0.999826
0.06824097021115094,0,0.999843
0.06809096752998674,0,0.999815
0.06815596724185913,0,0.999843
0.06838336522511422,0,0.999815
0.06873635492145777,0,0.999843
0.06897863010324154,0,0.999826
0.06943384746088836,0,0.999843
0.06997171962184795,0,0.999832
0.07057620861872359,0,0.999540
0.07123513002491107,0,0.999568
0.07193906314965112,0,0.999675
0.07268061094369654,0,0.999699
0.07345388540540396,0,0.999838
0.07425414224644358,0,0.999838
0.07507751666814705,0,0.999838
0.07592082906310843,0,0.996952
0.07678143998017901,0,0.997082
0.08712449028914504,0,0.997055
0.0850794278072453,0,0.999744
0.15505975705798167,0,0.999471
0.16740824085589232,0,0.995475
0.8937959806978081,0,0.998889
0.8968710952126658,0,0.995465
0.957479076174487,0,0.998588
0.9561231243910602,0,0.998761
0.9547270547519559,0,0.999817
0.9459149101123384,0,0.998827
0.9225396247608506,0,0.996785
0.9245030019836515,1,0.999880
0.9237466647354525,0,0.904603
0.923664361316322,0,0.819087
0.866816563668112,0,0.999504
0.8842675314644325,1,0.999779
0.235134359142717,0,0.994165
0.33317545547522587,0,0.893059
0.2916581287466743,0,0.999771
0.29212876516656827,0,0.999568
0.06048486831583613,0,0.997822
0.06523418853903316,0,0.998635
0.07287078356591714,0,0.999283
0.20078739917387578,1,0.999901
