0.002505116661192673,0,0.390286
-0.01499845150914698,0,0.411102
-0.01661886551631842,0,0.002783
-0.016214526308868292,0,0.002355
-0.015599136639028973,0,0.509868
-0.015599136639028973,0,0.528443
-0.015376318475582379,0,0.877116
-0.010353027430013607,0,0.521436
-0.006867297874281163,0,0.503443
-0.0062784586718933125,0,0.518571
-0.004881364712692029,0,0.508344
-0.004231239746965936,0,0.807465
-0.004231239746965936,0,0.503353
-0.00374509394139557,0,0.518884
-0.0029400226888111293,0,0.525035
0.045475641695097435,0,0.870755
0.045475641695097435,0,0.508363
0.045479424210172,0,0.515768
0.045464220833411756,0,0.507305
0.04620752067530252,0,0.867994
0.0474533363286225,0,0.492422
0.043840113636106674,0,0.804790
0.04390238751476281,0,0.547765
0.0444257370187749,0,0.819658
0.03924211261527002,0,0.549989
0.03924211261527002,0,0.952907
0.03839186578622606,0,0.954525
0.0383127585680336,0,0.873867
0.0383127585680336,0,0.440915
0.039467573638875326,0,0.895433
0.04215846171918278,0,0.536905
0.04489395091014818,0,0.405018
0.04384562988241416,0,0.531129
0.042255984505283,0,0.954067
0.040069032352933916,0,0.953615
0.015870605573163176,0,0.431259
0.033826644148727936,0,0.686180
0.03385974206135053,0,0.002996
0.02757382378016094,0,0.003034
0.012161400871077062,0,0.496533
0.0032646670659164365,0,0.966123
0.006418931246340191,0,0.932022
0.007435401846563181,0,0.659933
0.007606409471672502,0,0.845386
0.006999788538139869,0,0.625040
0.006134187568117007,0,0.472907
0.005470401261555406,0,0.614531
0.04755908631690723,0,0.741931
0.04756303486254062,0,0.562095
0.04756303486254062,0,0.951277
0.030808265665957495,0,0.241795
0.029992963838512108,0,0.235457
0.03012741715059016,0,0.680888
0.029785613528806487,0,0.681384
0.03055759245190397,0,0.586690
0.03181821894294493,0,0.657297
0.03536155861832586,0,0.782754
0.030891504563129345,0,0.750155
0.026136496467251958,0,0.748817
0.026239462466601686,0,0.931064
0.02306986661777038,0,0.947959
0.02320880310701236,0,0.456601
0.030079067492676484,0,0.936811
0.030934038550850307,0,0.208996
0.024579327702954262,0,0.752302
0.03804282490641051,0,0.913997
0.04447374679377708,0,0.860142
0.0404728708590215,0,0.869042
0.0379696070793861,0,0.613874
0.03732327741045777,0,0.949536
0.031578669787545435,0,0.585560
0.007969158794642031,0,0.501075
0.020531963216812728,0,0.265710
0.020738234632433173,0,0.541478
0.020738234632433173,0,0.606772
0.0832588348772911,0,0.963881
0.18444829758420928,0,0.739716
0.19325933744875115,0,0.874459
0.20340958055198013,0,0.857364
0.17964485629232244,0,0.663329
0.12721406900821927,0,0.507985
0.12129401020699705,0,0.854876
0.12142064334398756,0,0.867521
0.11613367417482776,0,0.978139
0.11642247495097797,0,0.652932
0.10701074056793936,0,0.971489
0.0918358885477114,0,0.869432
0.15749304055652716,0,0.908170
0.13220111951507693,0,0.322190
0.09726917248120831,0,0.921061
0.09608832551377187,0,0.996055
0.05333268727478908,0,0.955872
0.05341139353137717,0,0.949604
0.05295280781582928,0,0.480374
0.04736006779916715,0,0.578821
0.040121551410440055,0,0.944372
0.05692477798063587,0,0.622177
0.05692477798063587,0,0.494809
0.06683160145390228,0,0.886305
0.06415559391158196,0,0.691269
0.07430184729365898,0,0.564003
0.08475696784368762,0,0.897607
0.09154970639806105,0,0.675024
0.09234122439516752,0,0.604568
0.054502689836835684,0,0.412442
0.06814687580125156,0,0.778468
0.07442104083489366,0,0.532628
0.0850542768742805,0,0.725664
0.10727848276067664,0,0.376463
0.0985387648598171,0,0.580953
0.09269049965813979,0,0.482496
0.09467689196935943,0,0.966328
0.12839901593805902,0,0.564397
0.1425966688512707,0,0.945320
0.14327874256310358,0,0.646382
0.14868082092131985,0,0.939435
0.14187498724625275,0,0.963798
0.14348343657282667,0,0.974216
0.14810162476682553,0,0.604373
0.146201218582167,0,0.896690
0.146201218582167,0,0.455711
0.1464554776004107,0,0.770636
0.1446724792255863,0,0.887990
0.1446724792255863,0,0.962376
0.09661251501320549,0,0.618564
0.09858522444196863,0,0.965894
0.0838912526706881,0,0.404347
0.0937439225300886,0,0.392560
0.09600852739586464,0,0.449555
0.09840350771860606,0,0.455285
0.20084470622612272,0,0.999618
0.20084470622612272,0,0.894304
0.2036588012001079,0,0.894744
0.20636343688296027,0,0.894360
0.20894842673058228,0,0.894611
0.20899969032749965,0,0.895316
0.21414331396933278,0,0.895317
0.21663714421728056,0,0.895317
0.22106279557229017,0,0.895312
0.22106279557229017,0,0.957341
0.22038438953479614,0,0.557222
0.2207051239323263,0,0.930445
0.21083173809508432,0,0.883041
0.17613526776652647,0,0.895112
0.1946600611617898,0,0.895850
0.20821683152295903,0,0.465466
0.21083061727979116,0,0.473623
0.2088619002638011,0,0.734731
0.16635517307840791,0,0.835826
0.1317098274796816,0,0.953194
0.13183558644569218,0,0.957817
0.14876452879814606,0,0.672106
0.1919272043160712,0,0.625276
0.25726740050327135,0,0.501286
0.2666416285356188,0,0.598964
0.26694840346223225,0,0.496279
0.24785734362808226,0,0.998610
0.25551792776928256,0,0.917461
0.2556977136203124,0,0.957926
0.2633310711391874,0,0.450578
0.22045741288977969,0,0.851248
0.19725787287995497,0,0.851264
0.17586491240944074,0,0.851271
0.16551141368167258,0,0.413192
0.1641077791028128,0,0.698596
0.16522807781334387,0,0.999572
0.16362789663018862,0,0.996351
0.16362789663018862,1,0.999891
0.16362789663018862,0,0.569242
0.15513241077917617,0,0.847820
0.15513241077917617,0,0.596507
0.13657606756782922,0,0.950633
0.23276032034233102,0,0.964763
0.32678393317527415,0,0.965442
0.33116150696864427,0,0.998574
0.37178912842524114,0,0.962891
0.23803132673863817,0,0.611568
0.21759212648489692,0,0.848514
0.202623827518794,0,0.619110
0.2775659183873643,0,0.855833
0.2775659183873643,0,0.999154
0.2734249691370181,0,0.942309
0.26236717819995925,0,0.956040
0.23303390677871694,0,0.951082
0.1310175870059631,0,0.597231
0.12962136518929088,0,0.999023
0.12479071204872766,0,0.417218
0.13151322830779832,0,0.697251
0.13151322830779832,0,0.875268
0.1319207414949128,0,0.530388
0.1378715109224977,0,0.909068
0.13823828132554494,0,0.953408
0.1497531141476222,0,0.957077
0.13178033001106398,0,0.949818
0.08115525465095108,0,0.450825
0.07598757388736094,0,0.306793
0.07359432829907467,0,0.682693
0.06717313517228411,0,0.953443
0.03699649631852862,0,0.569315
0.1778507744660496,0,0.450670
0.09300204712704256,0,0.929153
0.0963739846270411,0,0.583519
0.29717571264958154,0,0.993349
0.429442734876124,0,0.993727
0.47495347813432254,0,0.900052
0.47492499575652647,0,0.890575
0.47488923645962977,0,0.915220
0.47533939694295696,0,0.746301
0.4751846206737298,0,0.462289
0.4628462789061217,0,0.572232
0.42965539281673,0,0.454263
0.42977046595471796,0,0.947405
0.4298105944445264,0,0.947701
0.460858342299915,0,0.999880
0.460858342299915,0,0.409413
0.23881991271528544,0,0.984688
0.17366918754007216,0,0.862268
0.30764097878446134,0,0.963334
0.34644453111924295,0,0.428325
0.2577138235898454,0,0.965418
0.25825927019198386,0,0.946474
0.25863066103784177,0,0.962908
0.25994746589887696,0,0.981469
0.2517300398377787,0,0.998384
0.3535872646350337,0,0.962298
0.37089448064337693,0,0.520074
0.48101006421483256,0,0.999288
0.4713046279508924,0,0.997774
0.4713046279508924,0,0.484085
0.18188904696985947,0,0.398771
0.24041775834745818,0,0.217692
0.17560685765782155,0,0.628926
0.16377388083271938,0,0.920648
0.15156893483544429,0,0.858002
0.08494307599231794,0,0.595812
0.11097239611802673,0,0.888571
0.17466899215146797,0,0.953384
0.17214578439365003,0,0.918196
0.30443013327062696,0,0.983625
0.30644764215619075,0,0.919042
0.3939876690056664,0,0.548729
0.308426018535642,0,0.988856
0.29237430453245244,0,0.991281
0.25667513180285134,0,0.985706
0.2557381948143176,0,0.894665
0.2510781237382327,0,0.964408
0.3235302432677954,0,0.466872
0.3544871630109543,0,0.507538
0.44926690063138064,0,0.472806
