-0.004996484036072496,0,0.732629
0.0019144923812243122,0,0.775785
0.17354000628955302,0,0.438168
0.17453247493722826,0,0.370886
0.6853272105182379,0,0.889078
0.2137361934859066,0,0.406007
0.2733186323275045,0,0.636299
0.5023222191282428,0,0.991182
0.7744064296312632,0,0.891677
0.14078135005167253,0,0.818024
0.14075702210814567,0,0.965655
0.14846387071457426,0,0.968497
0.15342477721058265,0,0.946152
0.3323760719424164,0,0.930667
0.08037740640680235,0,0.779208
0.11440303469200017,0,0.700268
0.13908131741451768,0,0.982813
0.32916959543493696,0,0.967031
0.4622113950783653,0,0.838511
0.3137609348965793,0,0.998020
0.2727824879432006,0,0.997024
0.41558097547065237,0,0.992918
0.5148105178474313,0,0.849736
0.5131740060898761,0,0.754038
0.05531632221090193,0,0.768415
0.06361002657766246,0,0.963256
0.05207018354909977,0,0.891392
0.052040469335984336,0,0.832237
0.05198762685130259,0,0.927104
0.05193302092368872,0,0.992365
0.051867070469312104,0,0.927571
0.08781188649290507,0,0.999226
0.466792443433106,0,0.982190
0.47008344894997117,0,0.603221
0.14971225796522508,0,0.904120
0.21659097455101403,1,0.999983
0.04662949222262781,0,0.994952
0.05546889683969158,0,0.879094
0.05535644741083904,0,0.750525
0.137372231911133,0,0.999105
0.6229125926266557,0,0.981824
0.2953550981719873,0,0.998999
0.23475048614643798,0,0.883579
0.5247387157061577,0,0.998873
0.6900736956843856,0,0.998443
0.11710976205405799,0,0.997997
0.3977508815913251,0,0.999066
0.40071801681104563,0,0.591566
0.4004967712771324,0,0.904663
0.40038071806641407,0,0.901377
0.40034606578769394,0,0.815855
0.4002030658859834,0,0.579703
0.014773538863576532,0,0.732998
0.009470746233612359,0,0.717925
0.04375663031249575,0,0.741721
0.021544916615461207,0,0.692663
0.011690729782005579,0,0.940283
0.014759428610608676,0,0.887742
0.23856773341857124,0,0.847986
0.23858863734287994,0,0.651793
0.2385612695794177,0,0.403593
0.060277355625363696,0,0.456105
0.1312871318668048,0,0.983248
0.1794288795973465,0,0.981440
0.21547298913277288,0,0.996443
0.3348723566778088,0,0.588892
0.3348512920975675,0,0.582356
0.2567521222211484,0,0.910209
0.0396949751305582,0,0.449232
0.3610983133721868,0,0.934231
0.13975688556686158,0,0.704162
0.14024100325586114,0,0.851333
0.01673896405497477,0,0.301665
0.01750448119227156,0,0.880324
0.052412679436912975,0,0.776392
0.054474309802080394,0,0.998000
0.033904092292941904,1,0.999978
0.02463667522296456,0,0.996769
0.04400104852829114,0,0.989294
0.03580871327423637,0,0.962108
0.11850669760200706,0,0.655370
0.12294167831852423,0,0.580100
0.12323473867341828,0,0.496517
0.025747974361600336,0,0.727381
0.11626597313794793,0,0.855386
0.02554430910599159,0,0.674543
0.17217598700612965,0,0.999710
0.4247646893574165,0,0.998493
0.4102155122961525,0,0.999779
0.13353925109693748,0,0.961789
0.14417617657770704,0,0.998849
0.14417069511135358,0,0.204724
0.14436489215676332,0,0.409727
0.03972561731045784,0,0.798848
0.039712643324773596,0,0.770996
0.006307761420567035,1,0.999977
0.08442900303756125,0,0.972809
0.09502467880099176,0,0.965949
0.034292457684095126,0,0.999496
0.03442552092545977,0,0.995037
0.10721347961037617,0,0.997742
0.11714603552773258,0,0.983967
0.02204283901466676,0,0.999118
0.032815767028598994,0,0.960200
0.09680396101765786,0,0.994138
0.09926697703845884,0,0.994221
0.18399596380906397,0,0.987497
0.19212353914636512,0,0.993345
0.11753812744134906,0,0.981542
0.07867755867504393,0,0.983800
0.1548436062319459,0,0.977986
0.012932456196564078,0,0.992574
0.061415745629993315,0,0.997201
0.079627834199099,0,0.994183
0.047726554229850844,0,0.998084
0.02522651796253788,0,0.996237
0.024368639571163638,0,0.990587
0.037042884616511625,0,0.981825
0.2422539698965601,0,0.969174
0.23502045448418812,0,0.996419
0.26198000701588403,0,0.992176
0.2943230195666668,1,0.999898
0.4117422819874271,0,0.988594
0.06727654124840217,0,0.989945
0.0897111017375916,0,0.999023
0.09672308441231622,0,0.997415
0.21038070022205002,0,0.995527
0.22647501371433923,0,0.970692
0.3651847604871969,0,0.986417
0.28127010637447736,0,0.971936
0.3238610340465445,0,0.998456
0.15133522549092987,0,0.994540
0.2076484390029617,0,0.965763
0.28705213468688334,0,0.999505
0.4386260387291146,0,0.999283
0.5391665452983104,0,0.967558
0.5956543647878754,0,0.963083
0.676777795866216,0,0.999049
0.23116031002593976,0,0.968173
0.7460107352147983,1,0.999853
0.7333862718530656,0,0.999672
0.16939944185246944,0,0.995773
0.23301792268309718,0,0.967375
0.15567625720397216,0,0.966632
0.21432812851701627,1,0.999950
0.28384295461727904,0,0.996425
0.42288587541946654,0,0.999580
0.3663538607734107,0,0.998882
0.371841002312329,0,0.988200
0.15447334451925168,0,0.971140
0.17616852973431957,0,0.971023
0.20661907709447078,0,0.975303
0.30116096614463045,0,0.994201
0.4422743486184416,0,0.996249
0.3687547963535447,0,0.996010
0.26728025526050503,0,0.997966
0.4591486998063213,0,0.996748
0.41002445416668143,0,0.978728
0.3532775276048873,0,0.999634
0.6140982982247192,0,0.973961
0.41383376110045306,0,0.997884
0.7503893479267263,0,0.978782
0.4243687289058558,1,0.999967
0.5102866187161808,0,0.986670
0.44347983531037377,0,0.997876
0.40707014238844763,0,0.998910
0.48614219283417864,1,0.999983
0.42535952906193353,0,0.995679
0.3170814545207486,0,0.999004
0.6398253245450707,0,0.997207
0.7794634034021011,0,0.999607
0.7221739037119059,0,0.996658
0.8092127740941836,0,0.999196
0.653303425669417,0,0.996743
0.7402529407959685,0,0.999787
0.7473801905691807,0,0.996066
0.7496261363243478,0,0.994726
0.1715965296514673,0,0.998341
0.7515194591642917,1,0.999984
0.794230019614126,0,0.999508
0.7550140803186239,1,0.999984
0.8181102546560057,0,0.999672
0.7711880587485753,1,0.999967
0.2180998780581788,0,0.995708
0.7270698255825845,0,0.999345
0.761830569207938,1,0.999853
0.776423039402848,0,0.999429
0.8362412922604209,0,0.999720
0.8173789809108996,0,0.999361
0.38217041043942024,0,0.997678
0.14042499044643333,0,0.998561
0.8003862562678948,0,0.999288
0.8076465233676338,0,0.999394
0.818558392865464,0,0.998511
0.8314364243557931,0,0.998338
0.8375744820753399,0,0.998114
0.8643201203023342,0,0.995623
0.8610788916274006,1,0.999853
0.6846766131562139,1,0.999914
0.23962831830192471,0,0.997124
0.25822474434789405,1,0.999950
0.20584659225871033,0,0.999469
0.5495748214196047,1,0.999984
0.12486496481986499,1,0.999866
0.18357868981448375,1,0.999866
0.3083576740089628,1,0.999984
0.32980984956085957,0,0.999507
0.31917759659216033,1,0.999967
0.2951775679714839,0,0.999266
0.37932458395751906,1,0.999984
0.42448471820768535,0,0.999801
0.42023626217261917,0,0.998746
0.4636593736594157,1,0.999967
0.23064272274971326,0,0.997311
0.3699762572957117,0,0.999305
0.48365771191794477,1,0.999918
0.4568953722920997,1,0.999984
0.39984045986316713,1,0.999849
0.4609175397187466,0,0.998701
0.4667759035998043,0,0.999367
0.4254248369366158,0,0.997172
0.578579404995407,0,0.999575
0.7033784260276115,1,0.999984
0.399024599975593,0,0.999433
0.6879995862711591,1,0.999934
0.4751177539267669,0,0.999046
0.7559521999700933,0,0.991796
0.7086974673742359,1,0.999984
0.7549117826183633,0,0.995122
0.775246774618916,1,0.999967
0.4701329625625844,0,0.999170
0.6758944767965192,1,0.999983
0.7658635793853065,0,0.998573
0.7978951615712105,1,0.999951
0.7514695242032511,1,0.999967
0.7546646743835694,0,0.999641
0.8197872765584188,0,0.997484
0.6983963067831109,0,0.996936
0.781009934615708,0,0.999015
0.8332943153278738,0,0.999229
0.7768629756801874,1,0.999951
0.8302491386613778,1,0.999935
0.8627492418408261,0,0.999475
0.7894562438026624,0,0.999335
0.6643071041320125,0,0.996864
0.0020876029540751106,0,0.997174
0.006745288287322127,0,0.997707
0.006679189296840688,0,0.998332
0.012321902946168351,0,0.994040
0.02127443453873095,0,0.994318
0.028330662905830514,0,0.994926
0.03467994492704061,0,0.997910
0.04404932454194714,0,0.999736
0.004782933917857753,0,0.998012
0.006770655774939494,0,0.997966
0.0067870663296169635,1,0.999797
1.9291602784532246E-4,0,0.997664
0.0037782434497568873,0,0.996101
0.004000307515156872,0,0.994570
0.0043128575419479395,0,0.995506
0.005164457866414823,0,0.995633
0.007790628887542318,0,0.994044
0.009317000339956557,0,0.993824
0.011569898268307816,1,0.999912
0.01928472274587228,0,0.993143
0.02310566478378211,0,0.997083
0.002681416200622383,0,0.999120
0.0026819511286917705,0,0.997427
0.0026897921289372136,0,0.996358
0.002405561594428389,1,0.999982
0.006830458329710684,0,0.995832
0.0035431866281489736,0,0.992350
0.015232574285627267,0,0.988386
0.017940697819598048,0,0.993668
0.017941639204480643,0,0.998136
5.963333677593699E-4,0,0.995832
8.333266452642092E-4,0,0.990923
0.05091438134825,1,0.999981
0.050914212719738304,0,0.998705
0.0013755577256993048,0,0.989859
0.01591517737669203,0,0.984552
0.014652461506363824,0,0.996948
0.0020523417086712402,0,0.991492
9.992162186668325E-4,0,0.996592
0.0010907498025566349,0,0.992167
0.003609878332840965,0,0.999171
0.008358483461671973,0,0.997978
0.0013760622899455454,0,0.999645
0.0013758036421409525,0,0.999471
2.847452880803551E-4,0,0.999421
0.002504678819677164,0,0.996606
0.0025048083824046217,0,0.991873
0.004130632813882966,0,0.997232
0.006051759265454565,0,0.998078
7.162103186860152E-4,0,0.999383
0.009147832155785211,0,0.992012
0.007028214406223742,0,0.997491
0.00988473922812614,0,0.997466
0.028634345254287364,0,0.999657
0.07769977995126494,0,0.973792
0.02844233420367931,0,0.979654
0.032627059667830596,0,0.982823
0.03534837504486221,0,0.978670
0.061876607202653096,1,0.999983
0.03755370061255184,0,0.999261
0.04413215550075665,0,0.997566
0.057695777506087,1,0.999865
0.069336847061077,1,0.999932
0.0896199797945036,1,0.999966
0.06395958108681568,0,0.978382
0.009132841209854477,0,0.994193
0.03702466878708392,0,0.978450
0.03594543277199692,0,0.997188
0.004312993583922915,0,0.998850
0.004344464751569178,0,0.991239
0.004377756798056033,0,0.976899
0.004377730225708115,0,0.994497
0.002712297582747185,0,0.997487
0.026108105616011568,0,0.991438
0.055267971252383696,0,0.998996
0.047451905837228726,0,0.988353
0.04785358052615638,0,0.998928
0.18615929664248612,0,0.988887
0.06834038196957774,1,0.999827
0.0625130617048691,0,0.999638
0.15896905847444928,0,0.974933
0.31639533163356787,1,0.999932
0.34190475778648816,0,0.983529
0.4942963384075765,1,0.999950
0.49652192799065387,0,0.991104
0.5512955417442206,0,0.998876
0.2694439020886512,0,0.998951
0.20789667283402385,1,0.999983
0.29431052604937474,0,0.998427
0.5080825791352556,0,0.998522
0.6221742351027043,0,0.999543
0.5864484667051739,0,0.999397
0.6764498842061093,0,0.999527
0.6440772896898125,0,0.995396
0.5831826930288754,0,0.994674
0.5066651217079999,0,0.999341
0.7091875610271985,0,0.999190
0.7265270785645545,0,0.990918
0.7664402405619404,0,0.997212
0.580823360923781,0,0.999134
0.7749596611167815,0,0.999485
0.7777594307515235,0,0.998954
0.7335774351074447,0,0.999117
0.7626378317026713,0,0.999602
0.7894787237429478,0,0.993666
0.27704419844566675,0,0.998807
0.5958828946340414,1,0.999983
0.7293996248895354,1,0.999984
0.7081041736631503,0,0.997358
0.7788465028581121,1,0.999934
0.553420548067667,0,0.999705
0.6505751545930294,0,0.997430
0.7327322806937488,0,0.996306
0.6959646081641525,0,0.997386
0.1934414213472902,1,0.999983
0.15534381021363888,0,0.999631
0.30142509271806545,0,0.999134
0.7561681631412418,1,0.999935
0.6267180306165353,0,0.999220
0.8333699468375494,1,0.999934
0.8314888569819578,0,0.998337
0.8327302397414698,0,0.999165
0.7867560591671572,1,0.999984
0.784942373123618,0,0.999656
0.6938006007072135,0,0.997227
0.8366342764168065,1,0.999983
0.7411124269384496,0,0.999617
0.878420105732911,1,0.999984
0.8400686335121522,1,0.999900
0.6972718991974824,0,0.999583
0.7083516008288772,0,0.997932
0.8764892162977381,0,0.997734
0.6068192374928929,0,0.999526
0.8128434234158232,0,0.999704
0.8383348661093205,0,0.996828
0.8341945415872442,0,0.998137
0.8077814475782434,1,0.999967
0.8910808528219741,0,0.996925
0.8753055155176553,1,0.999967
0.8697723991284443,1,0.999983
0.8718859487473444,1,0.999917
0.8660353698737451,0,0.996518
0.8652854884406136,0,0.998988
0.8733169314917489,0,0.996954
0.894508707988811,0,0.997599
0.8861974462529989,0,0.997562
0.9000888323472999,0,0.997564
0.9051938964067451,0,0.996632
0.8820013891170364,1,0.999901
0.8702630375931596,0,0.997268
0.8600839679730224,0,0.999769
0.8235344744154988,0,0.997391
0.6645136675292315,0,0.997060
0.8992733543646712,0,0.997450
0.6807823670354375,0,0.999787
0.9029316742451868,0,0.999234
0.5406606250169196,0,0.998631
0.7378039004592958,0,0.999563
0.8213631255622004,0,0.997816
0.7334533966455223,0,0.999680
0.8448138845732674,0,0.998659
0.8174174498572945,0,0.999605
0.8259369518498111,1,0.999850
0.7758600061619698,1,0.999983
0.8677379888396816,1,0.999984
0.8498012135642821,0,0.995909
0.8875726104917662,1,0.999950
0.8949019140225375,1,0.999850
0.9047868557053302,1,0.999966
0.9129671643168595,1,0.999934
0.8457276507143012,0,0.999764
0.8738394521983561,0,0.999752
0.8823478066745032,1,0.999983
0.8928633574146295,1,0.999984
0.48605946633753494,0,0.998692
0.6745187407091939,0,0.998657
0.6308127641431369,1,0.999983
0.8223238898599446,0,0.995617
0.1863476237940933,0,0.996669
0.8271222886839966,1,0.999951
0.8612318218253842,0,0.999786
0.8820099618247161,1,0.999967
0.8860583431692445,0,0.999539
0.5484959658253438,0,0.999161
0.87963892392963,1,0.999983
0.8649202229170156,0,0.999734
0.8582072046664599,1,0.999984
0.8774034390993586,0,0.999222
0.8527581662178066,0,0.999621
0.878918929773116,1,0.999984
0.8748698235038002,0,0.999190
0.886573902272221,0,0.999265
0.19463252768640035,1,0.999917
0.6062157405150438,0,0.999750
0.7191984590855823,0,0.999472
0.8274801300535285,1,0.999967
0.4689752790455665,0,0.997005
0.8119061678053627,0,0.999341
0.845512889298695,1,0.999984
0.8273022022015778,0,0.999802
0.8406260324267953,0,0.997646
0.799863454044859,0,0.999040
0.8860030984327016,0,0.999604
0.8942055040675282,1,0.999899
0.0997102439439805,0,0.999633
0.11991907014025756,0,0.999254
0.8850380130716491,0,0.996540
0.8943352314559336,0,0.996231
0.6802030234475384,0,0.998595
0.8929371414835194,0,0.998438
0.8799316378259624,0,0.998760
0.891730179018888,1,0.999950
0.877812990432523,0,0.999783
0.8719533908855387,0,0.999751
0.8633711180086436,1,0.999851
0.8831230929769106,0,0.998276
0.9219053996341481,1,0.999984
0.8828484693801792,0,0.999482
0.8852513429070986,0,0.999718
0.9098780745405642,0,0.996715
0.8985887100772938,1,0.999901
0.5632665405710403,0,0.996349
0.8478333289767331,0,0.998967
0.2792026126825108,0,0.999512
0.47321877513298116,0,0.998179
0.5137518978455607,0,0.998362
0.5883116631395411,0,0.997473
0.8222876538940783,1,0.999867
0.6550377560421631,0,0.997413
0.6132130937796071,0,0.996820
0.7049963361801089,0,0.999666
0.8936598895864372,0,0.999652
0.8963124423763242,0,0.993036
0.7806032571513742,0,0.998143
0.7913778033858133,1,0.999950
0.4517775739668918,0,0.998295
0.7541571924474981,0,0.996309
0.8751638142943812,0,0.999820
0.7399823581342334,0,0.999750
0.8639495550827593,0,0.998159
0.8757967958125399,0,0.999619
0.8241141631325741,0,0.996510
0.8336765599667784,1,0.999950
0.8823129369109873,0,0.996404
0.9067108863533121,0,0.999355
0.8289177190370509,1,0.999967
0.8934698573212353,0,0.999503
0.8818525628020095,1,0.999951
0.871909978370503,0,0.999470
0.9089931796583633,0,0.999739
0.8957895699680867,1,0.999984
0.9186680216638065,1,0.999967
0.804082766526718,0,0.998303
0.9122780864907218,1,0.999950
0.8934166368014813,1,0.999984
0.8712480219015849,0,0.996859
0.8599660696599263,1,0.999967
0.8853895119648334,0,0.999771
0.8576599419972544,0,0.999291
0.4483297844466012,0,0.998164
0.8167244677366955,1,0.999983
0.8179460997112801,1,0.999868
0.7488372707066113,0,0.997328
0.7542088102386957,0,0.997999
0.8045820946174952,1,0.999983
0.7583307205202445,0,0.994330
0.7846368343620145,1,0.999934
0.8458310909305777,1,0.999984
0.6352396218137323,1,0.999949
0.7239518581654303,0,0.998900
0.855672199944291,1,0.999984
0.8580249778626213,0,0.996836
0.8790271085676216,0,0.998556
0.24110668377151168,0,0.999157
0.811177434423746,0,0.997368
0.6986786012658148,0,0.999600
0.8779507598284417,0,0.999802
0.7051881597668018,0,0.999120
0.8956505897289638,0,0.999459
0.900555784697872,0,0.998772
0.9128575486141324,1,0.999984
0.9151998421760553,1,0.999934
0.8943857514770558,1,0.999983
0.9147355995007221,1,0.999984
0.9078633362765789,1,0.999901
0.8888784886069055,1,0.999967
0.9072076368667484,1,0.999901
0.9025887959399396,0,0.999621
0.8240571490795895,1,0.999984
0.2902947424927955,1,0.999945
0.12063870689888469,0,0.999752
0.040090616903702046,0,0.998884
0.02057196549606412,0,0.999299
-5.497759946537529E-5,0,0.999445
0.010411582636295838,0,0.999052
0.0086227226938821,0,0.999315
0.009693998119666185,0,0.999723
0.03655867655793287,0,0.999072
-1.1916131542393008E-4,0,0.999550
-3.6156951610724564E-5,0,0.991132
0.001066130320916571,0,0.995734
1.882268542189109E-4,0,0.996888
0.019664602740847678,0,0.995331
0.04079961734486546,0,0.999692
0.04079644576770349,0,0.999480
0.04132987560727161,0,0.987651
0.010593607121532695,0,0.991082
0.026292977833265823,0,0.999103
0.07009253376547693,0,0.992808
0.018052473395855362,0,0.988759
0.00923989887907687,0,0.992443
0.008699844901005114,0,0.999123
0.008949285786721647,0,0.988129
0.008401861599029446,0,0.993553
0.012349466867727974,0,0.983488
0.018922059662594394,0,0.985550
0.010717734664052018,0,0.998190
0.006544789281907472,0,0.996115
0.011091625254404398,0,0.996765
0.02456632386587877,0,0.984524
0.012695564095846082,0,0.995198
0.016771727144623164,0,0.998879
0.16596918731513036,0,0.999350
0.259352431962262,0,0.982871
0.0449441872630241,0,0.984362
0.18845482814288486,0,0.983619
0.1784515813536203,0,0.987510
0.18341914671955928,0,0.997781
0.13543372101643747,0,0.986064
0.11687212765583856,0,0.994259
0.13910173262017592,0,0.996519
0.21304474742222113,0,0.997643
0.21612160176268772,0,0.998168
0.2970740343992605,0,0.997369
0.11481202293822429,0,0.999623
0.11768284538464177,0,0.998218
0.22049494939477257,1,0.999983
0.22772007798880134,0,0.997240
0.3093719989414925,0,0.996583
0.6147399534898207,1,0.999917
0.17593566574094266,1,0.999983
0.1573812159961719,0,0.994394
0.27893063779961225,0,0.998890
0.19269503492247883,0,0.997800
0.5681485569884391,0,0.993703
0.21592399532577994,0,0.999482
0.22850830675358252,0,0.996559
0.27601574402626783,0,0.997133
0.251280450034612,0,0.994645
0.2523786399205029,0,0.998296
0.3217328659442819,0,0.994590
0.7378085787043446,0,0.995059
0.1322203183875915,0,0.997282
0.1326673460799239,0,0.996221
0.13041022935397437,0,0.996678
0.11659630207839122,0,0.998118
0.1186951602736104,0,0.998475
0.1771341842429664,0,0.997613
0.2415128181161389,0,0.997117
0.22607019856641647,0,0.999516
0.09865919020222276,0,0.997725
0.1269391399991496,0,0.997760
0.23049639313078385,0,0.998431
0.17060091614335707,0,0.997694
0.1427920947480727,1,0.999983
0.20969719830615868,0,0.998142
0.12917234968312052,0,0.997958
0.18191304419941115,0,0.998211
0.21229962457398174,1,0.999899
0.20447986921062994,0,0.997962
0.1687773478232184,0,0.998942
0.2379347424686113,0,0.997813
0.22933583927343262,0,0.998177
0.18873745086052807,0,0.997907
0.26621248921213486,0,0.998232
0.2417843698421453,0,0.999129
0.2003079270368416,0,0.998650
0.24005886265338006,0,0.997990
0.45053069400835416,0,0.997939
0.17372936279846105,0,0.998054
0.16818514797887482,1,0.999983
0.21060461772418212,0,0.998970
0.6959816321862269,0,0.996353
0.25712107532412554,0,0.998674
0.755034914811004,0,0.998204
0.5243162759341564,1,0.999983
0.6919056906274867,1,0.999983
0.6359420891723113,0,0.997828
0.6566887751297675,1,0.999983
0.19209815359962082,0,0.997944
0.1554762779565823,0,0.997506
0.004060526797622575,0,0.998284
0.027580255238983335,0,0.999691
0.002100976166780689,0,0.999182
0.002846080695801344,0,0.999254
-1.3329040846663947E-4,0,0.999667
1.1249359990116075E-4,0,0.999395
-2.3351668894242605E-4,0,0.999175
-1.8113036679649378E-4,0,0.997034
-4.76391985411109E-4,0,0.994621
-1.6446758337368276E-4,0,0.995024
0.0017742366064445114,0,0.995644
0.007505841369938993,0,0.995345
0.010939592559004818,0,0.993248
0.0031776595102994574,0,0.992195
3.1468034069391965E-4,0,0.994283
0.0032796335112683923,0,0.994613
0.003204135891801191,0,0.994806
0.013719744875741293,0,0.996606
0.04126268919742395,0,0.998766
0.09599084403341607,0,0.981023
0.08908438949690553,0,0.999301
0.021873707311549147,0,0.996960
0.08768171631345374,0,0.998228
0.08768167842186553,1,0.999978
-7.138645758328258E-4,0,0.993783
-7.41415257280277E-4,0,0.998028
-6.075500496734048E-4,1,0.999952
-3.23639483135527E-4,1,0.999835
-4.1168685161422844E-4,0,0.998873
-8.880340368790522E-5,0,0.986192
-3.311536142389103E-5,0,0.995750
-5.4895132152023674E-5,0,0.998257
8.628828028952982E-5,0,0.994643
-2.299489773869602E-5,0,0.999617
4.546127248452701E-4,0,0.996661
4.070149297516185E-4,0,0.988310
8.691679675720658E-4,1,0.999926
9.99861024996078E-4,0,0.999287
0.0012177942157122691,0,0.995259
0.0014813842892646778,0,0.985708
0.002037210811215083,0,0.997127
0.0022139809847535248,0,0.993629
0.0024956514260866414,0,0.995044
0.004428932044205502,0,0.992073
0.0030387169010516017,0,0.987286
-1.9971866374911766E-5,1,0.999942
0.006106619132844509,0,0.999267
0.009216956638100512,1,0.999893
0.010882937698587176,1,0.999965
0.012195367056675885,0,0.982640
0.012922659370936446,0,0.994317
0.014878724674892612,0,0.991393
0.015031683133434302,0,0.997728
0.015441160844140664,0,0.991982
0.018231531094567252,1,0.999982
0.021742845960123332,0,0.991652
0.02306010797737304,1,0.999965
0.027727189702040175,0,0.980260
0.028591735291490467,0,0.999377
0.009764912864184388,0,0.995519
9.08013288977351E-4,0,0.998357
0.009710911797789691,0,0.987980
0.012587628675736746,0,0.988189
0.008839049814451683,0,0.990768
0.021833314645789737,0,0.996875
0.025238554054460356,0,0.988202
0.019535424174606124,0,0.992737
0.03521939118671459,0,0.992861
0.06172006843077619,1,0.999914
0.08451895469128996,1,0.999931
0.12431681463995536,0,0.999365
0.24252504404162203,0,0.991576
0.2685345748927694,1,0.999983
0.22530304324007344,0,0.997399
0.7921441428232175,0,0.990914
0.5692098250198496,0,0.996950
0.4918975506472108,1,0.999916
0.4420600261881894,0,0.998998
0.607520331574629,0,0.999498
0.3440041116470489,0,0.991674
0.3770586850589425,0,0.991709
0.8795848036229261,0,0.993079
0.3333942851998035,0,0.997558
0.3439146148912771,0,0.996424
0.3380983815683115,0,0.997622
0.43547429564307466,0,0.997823
0.38995146613207016,1,0.999950
0.3157876513814968,0,0.996132
0.3789084577089062,1,0.999898
0.5174504590392336,0,0.997852
0.4518579390875925,0,0.995419
0.6895471234611272,1,0.999917
0.4415346750111956,0,0.999734
0.37340956424455507,0,0.995021
0.38976978809626855,1,0.999983
0.4742994794058874,0,0.999092
0.37445920125869636,0,0.995130
0.2399918336532188,1,0.999966
0.20889648510288983,0,0.999012
0.6079127932000706,1,0.999917
0.7017779925724301,1,0.999983
0.7149663657300205,0,0.998506
0.8493993438491644,1,0.999983
0.44886664301532503,0,0.998750
0.519125829306706,1,0.999983
0.3656125866909066,0,0.999128
0.8616653597779371,0,0.998391
0.5818259930344722,1,0.999868
0.4332864805175212,1,0.999984
0.3337269482636036,0,0.999256
0.44804483476466483,0,0.998471
0.5976024877422742,0,0.999671
0.2466519422771762,0,0.998848
0.32813736304651747,0,0.996013
0.20520906589692978,1,0.999932
0.5566380239324803,0,0.998908
0.30455185734523255,1,0.999983
0.15112071976918529,0,0.997016
0.6793517231695088,0,0.997921
0.171441811941295,0,0.999346
0.7207574500709347,0,0.999360
0.810465372219905,0,0.999816
0.845147593578009,1,0.999885
0.6123453617200033,1,0.999983
0.8650569845384547,1,0.999899
0.8202671622164931,0,0.998899
0.1786303594321714,0,0.997887
0.18130740547059096,0,0.999612
0.8501857881926063,0,0.998427
0.7832107652793373,0,0.999224
0.44233184904489464,0,0.999800
0.48296797560104826,1,0.999884
0.5815221403008481,0,0.999568
0.744521124349114,0,0.998534
0.38226031727098564,0,0.999534
0.8667340164351931,1,0.999867
0.4257853715953504,0,0.998951
0.21105615781081652,1,0.999917
0.5255584989182033,0,0.996406
0.8400344776042035,0,0.999685
0.35387281580364105,0,0.999628
0.2987599246966395,0,0.999195
0.42445998185664074,0,0.998981
0.5100432326502965,0,0.999582
0.40421205511676384,0,0.997254
0.4481469056796826,0,0.998773
0.45301986799550686,0,0.997604
0.6251778313242987,0,0.999563
0.4938564689269021,0,0.997993
0.2175334001904095,0,0.999486
0.39126955069059327,1,0.999967
0.4024466514458229,0,0.998906
0.6622454624591962,1,0.999851
0.6341585399714534,0,0.999509
0.5000023542219866,1,0.999950
0.7093393152162228,0,0.997673
0.43058777736192116,0,0.999111
0.19748147202681077,0,0.999695
0.5148491832238914,0,0.998925
0.5288293692025189,1,0.999916
0.6947537336917536,0,0.999721
0.7361891220615914,0,0.999816
0.6398820145682873,1,0.999933
0.4490290187179049,0,0.999617
0.4785037348209981,0,0.989596
0.3770787674993893,0,0.997660
0.6568364000428664,1,0.999850
0.5622319775730888,1,0.999983
0.7338407586523088,1,0.999983
0.25859923275310626,0,0.997539
0.8102667667565656,1,0.999900
0.8781405174801279,1,0.999967
0.4521921740899635,1,0.999950
0.2730792975306351,0,0.997232
0.14291408612412665,0,0.997674
0.8452034408573281,1,0.999950
0.1457293723843539,0,0.998360
0.35312912236716454,0,0.999701
0.7031858877141519,0,0.998171
0.7169835325235335,1,0.999901
0.31067392381773445,0,0.999598
0.21455113385027896,0,0.998343
0.12116654887893283,0,0.999533
0.1511176798377378,0,0.999064
0.20930429310246834,0,0.999565
0.14043481808838587,0,0.999128
0.2806498956176582,0,0.997401
0.3481420542526025,1,0.999916
0.2388617525771108,0,0.998152
0.4416696828206448,0,0.999650
0.15150051903290393,0,0.998509
0.23317316719356404,1,0.999966
0.2933492405103265,0,0.999330
0.1407768618241557,0,0.998054
0.38134166697171235,0,0.999332
0.4268726588735999,0,0.998055
0.35435220459861083,0,0.999799
0.6043631359737809,0,0.999274
0.7089400075181671,0,0.998945
0.5890765161977844,1,0.999983
0.7998561353150813,1,0.999950
0.8528523907933332,0,0.999767
0.8256168605915204,1,0.999918
0.4642761960137709,0,0.999596
0.29964126294507504,0,0.997667
0.2718545446848909,0,0.997330
0.2228867022756896,0,0.996563
0.2469378875746466,0,0.997655
0.3583656401536105,0,0.996811
0.36348023468553353,0,0.996350
0.36215388068242177,0,0.996802
0.3369628948979059,0,0.996095
0.3822260185939336,0,0.997971
0.4437337443124671,0,0.997657
0.4753683613203173,1,0.999915
0.4518697278152681,0,0.996787
0.549079583514505,0,0.998907
0.41901325334845013,1,0.999983
0.5209150396789604,1,0.999983
0.446607737825972,0,0.998785
0.7089699694875077,0,0.999089
0.7370507147312791,0,0.994949
0.7944272608805677,0,0.998812
0.6037220904450951,0,0.996744
0.6522609334841475,1,0.999867
0.25659138047027213,0,0.997812
0.6277169900057301,1,0.999851
0.8535802400087784,1,0.999983
0.39384238851642966,1,0.999983
0.4684851147773127,0,0.999402
0.7029338779353521,1,0.999900
0.49160858993454376,0,0.995181
0.3792568238984372,0,0.999381
0.32456500257032717,0,0.996632
0.31893172136882797,0,0.998157
0.31454129301457046,0,0.997644
0.506602113514107,0,0.997981
0.4615630698184681,0,0.999049
0.7535948923152682,1,0.999901
0.5256588387798764,0,0.998525
0.39101922653759424,0,0.997258
0.3350563098992449,1,0.999983
0.4781489894702615,0,0.996986
0.4089226647487703,0,0.996345
0.5646895952171538,0,0.995968
0.49152775629189005,0,0.993495
0.4598642075816669,0,0.996756
0.3540071155968411,0,0.996287
0.6816361910648518,0,0.997407
0.3701372865247869,0,0.996699
0.5011082016132359,1,0.999900
0.6161698268210575,0,0.997415
0.5156383695256602,0,0.995600
0.43411983134720733,0,0.997293
0.43888961493813333,1,0.999967
0.5528676759367036,0,0.997364
0.6565112426850349,0,0.999274
0.4275987892174972,0,0.999130
0.4992798427552567,0,0.998667
0.4731504185129394,0,0.996599
0.6779739076593946,0,0.999630
0.6885029047866625,0,0.998321
0.6933281977834922,1,0.999983
0.5953241925750713,0,0.996492
0.7249814509218274,0,0.999264
0.31989565737027825,0,0.997637
0.24920038093983007,0,0.999359
0.8869926265875241,0,0.998446
0.5136327800039616,1,0.999983
0.7586352702265919,0,0.999817
0.8976221667158399,1,0.999967
0.6478404961893904,0,0.999685
0.19536049107555217,0,0.998930
0.6587454830745118,1,0.999984
0.3863564615335877,1,0.999983
0.8770861835536721,1,0.999900
0.7938686685796467,0,0.993065
0.5155395345506071,1,0.999983
0.6136373029939546,1,0.999900
0.5468079426444604,1,0.999933
0.5731255865635997,0,0.995918
0.4730849161501217,1,0.999983
0.7025428014186115,0,0.999518
0.8636924809775176,0,0.998878
0.4140817308493249,0,0.998239
0.5837238679771062,1,0.999984
0.8726126502561635,0,0.999753
0.8299505910278887,1,0.999984
0.41572973282630526,0,0.999734
0.6270973517389558,0,0.998638
0.8593213821431753,1,0.999983
0.8841318699875483,1,0.999868
0.665266532554824,0,0.999683
0.7810037467144343,0,0.995036
0.648471627708293,0,0.996362
0.7113954818797906,1,0.999883
0.6455410219300663,1,0.999967
0.6994918981542709,1,0.999983
0.8109376350814789,1,0.999868
0.7638537127677442,1,0.999983
0.8437814645917698,1,0.999934
0.8848791006396516,0,0.998190
0.7585184949327928,0,0.998981
0.4764694656559178,0,0.998597
0.8382864965333097,1,0.999934
0.8088587084692556,1,0.999984
0.6575199677392205,0,0.999650
0.6460940988167134,0,0.999784
0.75552134111178,1,0.999967
0.802819874881267,1,0.999951
0.6169149499342667,0,0.999720
0.47118169394713577,0,0.999601
0.7631630594005346,0,0.999016
0.5569016574979452,0,0.998913
0.5357774684760596,0,0.999163
0.6832889626108002,1,0.999967
0.6931197404303704,0,0.999682
0.5929097496311737,1,0.999950
0.6253711330306514,1,0.999984
0.6677107654071306,0,0.998997
0.5765608806185388,0,0.999601
0.5235981615956186,0,0.996153
0.5396111707042615,1,0.999899
0.3481750316891761,1,0.999834
0.5889672116223378,0,0.999763
0.5813617960138916,0,0.999488
0.5001003046202976,0,0.997240
0.6606348347638482,0,0.998541
0.8667606757147032,1,0.999884
0.8363105194547841,0,0.999489
0.48794088392574003,0,0.998675
0.8421971653027649,1,0.999834
0.6894077762098955,1,0.999984
0.5614191829413487,1,0.999950
0.4921928474709426,0,0.999195
0.81637563119909,0,0.998083
0.5857077758685052,1,0.999884
0.5920307095033013,1,0.999850
0.6406481338801967,0,0.995086
0.6285861524756615,0,0.997889
0.7992937878523727,1,0.999984
0.8284734306003007,1,0.999951
0.7743519948716321,1,0.999950
0.8417603019071621,1,0.999918
0.641743599314748,0,0.999800
0.714566134910826,0,0.999622
0.2911858286580684,0,0.998722
0.5412920979579644,1,0.999848
0.837169308852787,1,0.999967
0.5373730418542285,0,0.999515
0.8146810066398863,0,0.995734
0.3414418409814824,0,0.994598
0.509790367298896,0,0.998799
0.5333534172009686,0,0.999345
0.8565000354310323,0,0.999187
0.8167221288843887,1,0.999902
0.5116739359537378,0,0.998878
0.6651855405927719,0,0.999351
0.690352401856168,0,0.999769
0.30952633272734764,0,0.999817
0.7315182365496888,1,0.999884
0.829984195416204,1,0.999984
0.8510841076002726,1,0.999951
0.6792114790961293,0,0.999666
0.39489122491071826,1,0.999983
0.8396129375426572,1,0.999934
0.6898506543389559,0,0.997257
0.7049960315385847,0,0.999717
0.5733506444858452,1,0.999884
0.7507553430751618,0,0.998867
0.791306782866593,1,0.999967
0.577060679801902,0,0.998394
0.48565394088973085,0,0.998466
0.7059993957963643,1,0.999983
0.6741440865227356,0,0.999025
0.745632701537071,0,0.999636
0.5427009255607638,0,0.999752
0.7631595136411027,1,0.999934
0.548214068639334,0,0.999584
0.7530563758661905,1,0.999983
0.8388012650616989,1,0.999918
0.18074886071653604,0,0.999277
0.7871415085045975,0,0.999281
0.6838374811827941,0,0.996486
0.7229431643282007,1,0.999917
0.549392007147171,0,0.999229
0.5083584462744798,1,0.999983
0.6360176107268373,0,0.996415
0.8234748566561771,0,0.999818
0.572140912886723,0,0.995508
0.599105373294826,1,0.999851
0.8829456336190564,1,0.999984
0.83452218609193,1,0.999950
0.42495380650818676,1,0.999831
0.4542080035694629,0,0.997672
0.5811872134138824,0,0.998139
0.134455163186939,0,0.998964
0.8727298906103292,1,0.999984
0.6939915318581282,1,0.999967
0.8803329621420262,0,0.999175
0.6917747944503956,0,0.995461
0.5507417861382935,0,0.997784
0.8625620010975231,1,0.999868
0.8573532799493346,1,0.999852
0.8149078435503504,1,0.999984
0.8749019316878376,1,0.999984
0.7838768234581378,0,0.998977
0.7930394771638638,1,0.999885
0.8207845150695544,0,0.999039
0.6994992602232991,1,0.999883
0.8616058775280243,0,0.997630
0.6626490679119973,1,0.999934
0.7141987886007414,1,0.999983
0.8860822362397168,1,0.999967
0.8198822873918094,1,0.999984
0.8722712853485601,0,0.999311
0.6253385451704455,0,0.996722
0.7271221884863174,0,0.995524
0.7723349112197598,1,0.999950
0.7311146259795821,0,0.999767
0.7153685217825289,0,0.999619
0.8414518090545092,0,0.995987
0.6804122809316903,0,0.997919
0.8218219489806302,1,0.999950
0.7715034691324492,1,0.999983
0.8411843307494008,1,0.999834
0.8158688308954624,0,0.997732
0.7469291362626803,0,0.998674
0.848103753566141,0,0.998685
0.8593771935559144,0,0.999000
0.850500505928745,0,0.996945
0.8077281364022387,1,0.999983
0.8292577116739214,0,0.999417
0.8281665658114362,1,0.999984
0.7798517358446705,0,0.999485
0.6396040428141193,0,0.997850
0.5630130964289951,0,0.996814
0.6230813423770359,0,0.998125
0.43635648487779694,0,0.992580
0.5507912146598076,0,0.994365
0.5945241838896654,0,0.999754
0.8068881341760326,0,0.994648
0.7032188940521134,0,0.999818
0.8247992869646609,0,0.999333
0.8473024390457634,0,0.992690
0.8106570674260865,1,0.999983
0.8356898888974643,0,0.999515
0.8703505320293348,0,0.997275
0.8362036940306605,0,0.995679
0.43334818521096735,0,0.999415
0.6206669542036389,0,0.999520
0.6433502783565473,0,0.996070
0.6966022997668654,0,0.997402
0.6301825076266472,0,0.994486
0.736511178009607,1,0.999983
0.537586537868433,1,0.999984
0.6975257381939675,0,0.998493
0.7040447241013849,0,0.996553
0.5377636316568521,0,0.994094
0.43092868079811364,0,0.999533
0.3701988699031835,0,0.996771
0.5568414746839865,0,0.993037
0.8250431918040192,0,0.999369
0.5163554226594705,0,0.999541
0.6796642177953932,0,0.997081
0.54091825844258,0,0.994673
0.48652987994626384,0,0.993529
0.7796476901875533,1,0.999951
0.7921605987567095,1,0.999984
0.7895394774354678,0,0.994676
0.7445508640988601,0,0.998017
0.7187923474586945,0,0.996869
0.7643026404965584,0,0.998897
0.8309803261322483,0,0.999318
0.5762636182097937,0,0.998862
0.6905424741558402,0,0.999093
0.8531928279227392,1,0.999967
0.5516602314165802,0,0.996927
0.7290006058006837,0,0.999557
0.8114359515043362,1,0.999984
0.8148886285476066,1,0.999984
0.8216091434530712,0,0.993930
0.7953631501183822,0,0.995337
0.4921142303786907,0,0.999485
0.8225820568838443,0,0.993943
0.8034738769285779,0,0.994495
0.6894886327829689,0,0.999785
0.8254631765126318,0,0.996277
0.7637367159702166,1,0.999984
0.8389403601657384,0,0.993812
0.8211039451326829,0,0.993195
0.8580913130801936,0,0.993698
0.813654134945255,0,0.994539
0.8585429209533864,0,0.994134
0.7720055898631348,1,0.999917
0.5947104202006208,0,0.994485
0.7854098915937008,0,0.995202
0.7722401210551859,0,0.998565
0.8386952527114068,1,0.999967
0.8708271511327356,1,0.999834
0.8609060651983598,1,0.999967
0.5714149636660507,0,0.999654
0.8281516906975745,0,0.994693
0.8023856074659828,0,0.994236
0.743792084137889,1,0.999918
0.6769449549887052,1,0.999836
0.8304094202053927,1,0.999984
0.8381551910217392,0,0.999325
0.8388998933545615,0,0.999421
0.7905424083820746,0,0.996459
0.8501530622799006,0,0.999655
0.8368729608741207,0,0.995465
0.8306822682871619,0,0.999738
0.8641175051322514,1,0.999883
0.8047996961341667,1,0.999984
0.8368273849770576,1,0.999984
0.8485171562260454,0,0.996083
0.694514543637439,0,0.995261
0.822989467953395,1,0.999984
0.8154738954450961,1,0.999853
0.7110403836077022,1,0.999851
0.553450042827316,0,0.999703
0.6647228784247018,0,0.995751
0.8405260556935485,1,0.999967
0.8225718152122038,1,0.999984
0.8240897557349053,0,0.995736
0.8542101510309241,0,0.997561
0.8419014835421823,0,0.994786
0.8702473179542343,0,0.993928
0.7794031981886985,0,0.994934
0.7745462589303779,0,0.994808
0.8218133206719246,0,0.994867
0.8278182535085082,0,0.995165
0.877649308457858,0,0.999333
0.5617550428078905,0,0.999654
0.47965962349149016,0,0.999586
0.8579747911376506,0,0.999155
0.8627457373027607,0,0.996660
0.8269429252736145,1,0.999983
0.7681479218376744,0,0.999767
0.675642282483662,1,0.999984
0.8204388894465143,1,0.999984
0.8475886965099095,0,0.999162
0.8110000122563871,1,0.999853
0.8297094706672541,0,0.997273
0.8084733532076999,1,0.999984
0.8185851728907713,1,0.999885
0.8513615028942962,0,0.998065
0.7686882071694767,1,0.999884
0.7534366337038643,0,0.997913
0.7240805735264282,1,0.999933
0.8370742060199874,0,0.996305
0.8370682119040063,0,0.999754
0.8651010437398133,0,0.995189
0.7591734841823985,0,0.999572
0.8503753467440961,0,0.995975
0.8587218546503835,1,0.999984
0.8376573750647752,1,0.999951
0.8036292853676925,0,0.999640
0.6588873413167522,0,0.994789
0.5903383162654364,1,0.999967
0.7752137283819553,1,0.999984
0.7870123521725533,0,0.994652
0.7875703023230552,1,0.999934
0.718320861584176,1,0.999834
0.6772733504480316,0,0.999313
0.5788055759043499,0,0.997781
0.5583760598774906,0,0.999656
0.5324086169584874,0,0.995707
0.5371622487246667,1,0.999967
0.5744444523967525,0,0.998641
0.5925468116552972,0,0.998613
0.8084807956986256,0,0.999026
0.6750385017033359,0,0.997178
0.5580886685572723,0,0.997644
0.7666314594676973,0,0.999753
0.7987754653358712,0,0.998534
0.6091939804060437,0,0.999819
0.7670044874735819,0,0.999541
0.7697203242356577,1,0.999934
0.6439987526238317,1,0.999950
0.819734892855521,1,0.999934
0.8431760306049946,0,0.994617
0.8470754705918746,0,0.999804
0.8316807172570873,0,0.999819
0.7683118019993932,0,0.997336
0.8109883075914899,1,0.999983
0.8400220087828396,0,0.997892
0.8527815820597469,0,0.996123
0.8277213557421486,0,0.999787
0.8301917174430313,0,0.995377
0.6618960945932031,0,0.999673
0.8192998070314672,0,0.999247
0.5365164329585516,0,0.999718
0.5304663236160095,0,0.999160
0.8152810473383586,0,0.999802
0.7147258011828045,0,0.999398
0.7611850438431448,1,0.999967
0.8291550289944806,1,0.999984
0.8620644988165638,0,0.993662
0.5722429143732894,0,0.996161
0.8020697522463726,1,0.999934
0.5633690394909814,0,0.999731
0.6020111726709955,0,0.999304
0.8091691673279503,1,0.999934
0.7673481446026921,0,0.997216
0.582200867908258,0,0.999434
0.7794321687500443,0,0.999191
0.8516078679083533,1,0.999983
0.8001087487549505,0,0.996485
0.841258153405958,0,0.996675
0.24287795014470978,1,0.999851
0.2229965244235095,0,0.999572
0.2623559185257513,1,0.999861
0.2575524067254425,1,0.999900
0.6771781022406069,1,0.999951
0.3337543620017045,0,0.999302
0.7650056536637211,0,0.999520
0.3415875483587789,0,0.999462
0.3990775284640909,1,0.999983
0.33412184560396,1,0.999967
0.2784420452884175,0,0.999599
0.3705628950260108,0,0.997591
0.38485281391646664,1,0.999983
0.21854779687608297,0,0.997485
0.37157951119237753,0,0.997320
0.17516028811908577,0,0.997700
0.3532258926998229,1,0.999967
0.18809579601664936,0,0.997459
0.25908331317829036,0,0.998979
0.1907521490390007,0,0.998502
0.31233911264248704,0,0.997030
0.37200866075173106,0,0.999507
0.33103665619914896,0,0.999187
0.45431655092223067,0,0.999202
0.3343855740998236,0,0.997573
0.30471152501456295,0,0.998890
0.3180922458153945,0,0.998932
0.3605979899533765,0,0.997607
0.36412086412024114,0,0.998709
0.3535218827826815,0,0.999090
0.22105180827297255,0,0.998876
0.33706874561504147,0,0.999651
0.28202022072664756,1,0.999850
0.331781507139654,1,0.999950
0.45062885474773773,0,0.999125
0.34257049810533985,0,0.998288
0.34990636711239637,1,0.999950
0.3266223671618212,0,0.998836
0.345743794270805,0,0.998125
0.2947199161870196,0,0.998962
0.28983304686656486,1,0.999900
0.25523182449935233,0,0.999246
0.5162607058852049,0,0.997719
0.2990912038456675,0,0.998889
0.29148480546200733,0,0.999204
0.35869440770054123,0,0.998212
0.5184149037857937,0,0.996938
0.37748388007110345,0,0.997846
0.7587751790147728,0,0.999451
0.4595539128349684,1,0.999967
0.4804375321136539,0,0.999133
0.4270587185165621,1,0.999933
0.36872860773901434,0,0.998808
0.48941501774000834,0,0.999355
0.4298712902822059,0,0.997324
0.4381776839782533,0,0.999440
0.6561096867035807,0,0.998806
0.6119872965998532,0,0.998220
0.5010729624425173,0,0.998739
0.635427662469855,0,0.999269
0.7901888825420349,1,0.999832
0.7487887161732847,0,0.996407
0.5498049863876666,0,0.998448
0.4478032457942155,0,0.998795
0.5348115069521359,0,0.998937
0.43268698701658664,0,0.998867
0.6265324499151415,0,0.999201
0.3628038599657728,0,0.998971
0.4050365001075212,1,0.999917
0.474324861788525,0,0.997917
0.7222050517703016,0,0.997730
0.6013443929967245,0,0.999490
0.8059386236928222,1,0.999934
0.670470053759828,0,0.999486
0.7799932151687741,1,0.999983
0.90042061410326,0,0.997016
0.7948680368037837,0,0.999287
0.6201089262484637,0,0.998776
0.6660564189108219,0,0.997723
0.6799691157720488,0,0.997539
0.8651573170986492,1,0.999984
0.868637716610837,1,0.999983
0.8681430540405978,1,0.999984
0.9074310263567096,1,0.999983
0.8515890651516274,1,0.999967
0.6431490654061159,0,0.997717
0.6882759301465261,0,0.997359
0.7239555567082657,0,0.998672
0.731628139077487,0,0.998711
0.3743711372030811,0,0.997866
0.43461727368482567,1,0.999967
0.6841830342882312,1,0.999984
0.5372519864529658,1,0.999984
0.5073681276412889,1,0.999983
0.6854651033518702,0,0.998702
0.7783119285535716,1,0.999934
0.4277049797041561,0,0.998218
0.7012635128582542,0,0.999819
0.4497250463159783,0,0.998624
0.5374629206475782,0,0.997637
0.4952808707620874,0,0.998286
0.6821417909353115,1,0.999967
0.5934926728531096,0,0.999075
0.7369061885584745,1,0.999983
0.42354949054651425,0,0.999637
0.41751889924915037,0,0.998754
0.6508616021051485,1,0.999950
0.6555518314783858,0,0.998110
0.677238015865557,0,0.998863
0.6307143295477446,0,0.998518
0.6338936477779835,0,0.993508
0.5529707474641896,0,0.994849
0.7110722640071863,1,0.999984
0.8242335911788453,0,0.999548
0.8781631564404417,1,0.999951
0.675738441026805,0,0.997701
0.6233294551790393,0,0.998306
0.43248757518027425,0,0.997693
0.4999593693006901,1,0.999866
0.44541457698534354,0,0.997871
0.777923372183527,0,0.998707
0.45263627780906873,0,0.998184
0.5536407615912129,1,0.999983
0.8829148506363185,1,0.999967
0.8597056197335669,1,0.999837
0.7289740635902504,0,0.997123
0.57270268245675,1,0.999983
0.5777202301075153,0,0.998956
0.5322738030176362,0,0.998127
0.8864408299174146,1,0.999984
0.8860098372340722,1,0.999984
0.8832399007376724,1,0.999984
0.8846335886446587,1,0.999984
0.8815959270746763,0,0.999787
0.9121653395301186,1,0.999984
0.8680556634872418,1,0.999984
0.866331382124701,0,0.999099
0.8766024899201594,1,0.999951
0.8970999857249408,1,0.999934
0.7022001228452798,0,0.999669
0.8767553132202307,1,0.999984
0.8900042369583792,1,0.999984
0.8978006843801821,1,0.999967
0.8573048184434588,1,0.999967
0.8515301027021053,0,0.999359
0.8832484527269402,1,0.999967
0.874936477487759,1,0.999984
0.8730137066517787,1,0.999984
0.8975725099763738,1,0.999935
0.4958850077931939,0,0.999667
0.6515927113520621,0,0.998923
0.7119475193996341,0,0.998441
0.8313881949459722,1,0.999984
0.8745353834344413,0,0.999104
0.8875233302941822,1,0.999984
0.9000944028124452,1,0.999984
0.8776492913921075,1,0.999951
0.8765253293172232,1,0.999967
0.8495557065512971,1,0.999967
0.5433357471622704,0,0.999442
0.8927649460074664,1,0.999984
0.8854953590688137,1,0.999967
0.866263090981778,1,0.999984
0.8891308244059624,0,0.999328
0.8634658988617008,1,0.999984
0.8844121392269823,1,0.999984
0.9049632069647927,1,0.999869
0.8702983763430212,0,0.999770
0.8673180856084307,1,0.999984
0.8939672897959298,1,0.999984
0.8787353216805429,1,0.999984
0.8727498479950399,1,0.999869
0.8976843962142503,1,0.999984
0.8248781061075185,0,0.999686
0.6492182005807337,0,0.998309
0.8132777268827205,1,0.999951
0.8307277901879347,1,0.999984
0.6786801907279849,0,0.999702
0.8726354342266214,1,0.999885
0.6079777464024204,0,0.996654
0.8223568645817579,1,0.999984
0.7671283702750487,1,0.999967
0.8420327730263041,0,0.999803
0.8886438881076555,1,0.999983
0.6231542175600184,0,0.997745
0.7985271785773042,0,0.997417
0.8856645816142442,1,0.999984
0.8827219107753057,1,0.999984
0.4263933973190224,1,0.999983
0.7883864586925268,0,0.997473
0.8928435386634318,1,0.999984
0.9038790805061804,1,0.999967
0.6663034970914152,1,0.999850
0.749852082493711,0,0.998414
0.9155597316473304,0,0.999058
0.45320658182806073,0,0.998643
0.8673007841677027,1,0.999967
0.9157091156872966,1,0.999901
0.8359611117857054,1,0.999984
0.8873307278840565,1,0.999983
0.8155741667070678,1,0.999950
0.9091600453963553,1,0.999984
0.8885441943694407,1,0.999984
0.8500293498591316,1,0.999934
0.8774193328265344,1,0.999984
0.8789554738358578,1,0.999901
0.8931572177514978,1,0.999984
0.8970764692033288,1,0.999967
0.8614479954341027,1,0.999935
0.8560474848647436,1,0.999984
0.8472002195479471,1,0.999902
0.8264965002515985,1,0.999967
0.8574496388189863,1,0.999967
0.8381786351232224,1,0.999967
0.9076402114352673,1,0.999967
0.8247942692598019,0,0.999490
0.8807540735058966,1,0.999984
0.8815688962696752,1,0.999984
0.867219777469224,0,0.999770
0.9020597946270089,1,0.999984
0.8651899474406906,0,0.999640
0.8853502514857364,1,0.999967
0.8662129706293201,1,0.999984
0.6733093590983777,0,0.998490
0.8438585443487334,1,0.999983
0.828115445473558,0,0.999737
0.8828277148636223,1,0.999917
0.23906103682979787,0,0.999374
0.24021978366179567,0,0.998409
0.8959776518142082,1,0.999898
0.7958240418488073,0,0.999637
0.8515148905971699,1,0.999967
0.8877398132806749,1,0.999984
0.8168402073276311,0,0.999424
0.8715771968718369,1,0.999984
0.8674413556882127,1,0.999984
0.8809350047412458,1,0.999868
0.8858303898635603,0,0.998884
0.8920070413903595,1,0.999984
0.8934930691232739,1,0.999983
0.8160341794911182,0,0.998442
0.8605443738328689,0,0.999555
0.7949226136715989,0,0.999600
0.909964026004821,1,0.999984
0.8862531624072292,0,0.999803
0.844994631907153,1,0.999984
0.7185910647112952,0,0.999721
0.8705598925345642,1,0.999984
0.7674847692089076,0,0.999705
0.8531986661554515,1,0.999984
0.7902194767891856,1,0.999984
0.622394930616511,0,0.998716
0.8570927368748823,1,0.999967
0.7155644734600506,0,0.999749
0.856252036899057,0,0.999322
0.899989923379823,0,0.997758
0.8447912340699302,1,0.999967
0.7923728879972766,1,0.999934
0.8813363615669052,1,0.999984
0.8999997466981029,1,0.999967
0.8625077404544605,1,0.999983
0.884063319215143,0,0.999164
0.8596532188192131,1,0.999836
0.8430967811291529,0,0.999036
0.9022573023651566,0,0.998456
0.9007254043137534,0,0.999819
0.8970213245785863,1,0.999984
0.8630202877302177,1,0.999984
0.6549698547428667,0,0.998894
0.872617191156423,0,0.999655
0.7352853877095549,0,0.998592
0.24165280449788595,0,0.999076
0.842688706890177,0,0.997114
0.6995858783256728,0,0.999388
0.6561113439954588,1,0.999984
0.8149587207614004,1,0.999967
0.8660315803577612,1,0.999950
0.8468238702957074,1,0.999967
0.22661976557498356,1,0.999983
0.6384967850780132,1,0.999983
0.8559023506908771,1,0.999951
0.8530706994666396,1,0.999967
0.8329638358894851,0,0.999819
0.7963278618324293,1,0.999984
0.6734670038062373,1,0.999967
0.8788519617304366,1,0.999983
0.8496282987088788,0,0.997992
0.642515752934635,1,0.999884
0.7106806302280767,1,0.999983
0.825131511942352,0,0.998421
0.8486304481995789,0,0.998568
0.4312327121506936,0,0.997668
0.9077888106307159,1,0.999967
0.9107972133646645,1,0.999984
0.48598541618168317,0,0.998768
0.6914440147177382,0,0.998076
0.920455408471699,1,0.999984
0.9156777217349757,1,0.999967
0.8753450886000107,0,0.999078
0.8886631371087127,1,0.999885
0.39775441216408886,0,0.998862
0.8972008955454724,1,0.999984
0.6046017236532617,0,0.998336
0.7075741316516071,0,0.996478
0.4435435991402491,1,0.999983
0.4360839026718437,0,0.999500
0.578689778465703,1,0.999984
0.7385827960786432,0,0.998510
0.5659478216446163,0,0.999734
0.769292911639112,0,0.999621
0.6718776381702046,1,0.999983
0.8713122324522614,0,0.999687
0.6451956184795281,1,0.999867
0.7736187613560731,0,0.997284
0.7703458572149555,0,0.997848
0.8471522915923236,0,0.999753
0.6381783755095929,0,0.998932
0.47938733617803575,0,0.998313
0.7281223977233132,0,0.999720
0.8078826056594063,0,0.997800
0.7259443542677655,1,0.999983
0.7659098607398301,0,0.999818
0.7585272902380975,0,0.998291
0.8942101553566222,1,0.999984
0.8255574924021386,1,0.999934
0.4518208268139321,0,0.997348
0.7299014747684907,1,0.999967
0.7376372633573511,0,0.997755
0.4686864957022112,0,0.998972
0.6482348370635541,0,0.999300
0.8213030723254305,0,0.999639
0.6736856124964301,0,0.998989
0.8123804269136852,1,0.999984
0.0072712242542894295,1,0.999983
0.06393471806942848,0,0.999178
0.06729792802519632,0,0.999690
0.06416814009345659,0,0.999776
0.06391686481771677,1,0.999862
0.06393524256323294,0,0.999195
0.08712553976465606,1,0.999983
0.07989069102218921,1,0.999983
0.11543075095130331,1,0.999983
0.1969409858912252,0,0.998517
0.07187805632152504,0,0.998525
0.2145428400274248,0,0.997729
0.07439441699707373,0,0.998510
0.07947433279266411,0,0.998460
0.1030150379027785,0,0.998363
0.19564121760288852,0,0.998077
0.11655004836426044,0,0.998961
0.1640483351776544,0,0.999338
0.15919238956524046,0,0.999441
0.17499006336545467,0,0.999224
0.1687403833503793,0,0.999055
0.22083261096390472,0,0.998845
0.17714426940854403,0,0.999195
0.22547412847115963,0,0.998929
0.13031773191228105,0,0.999779
0.19934248558431317,0,0.999074
0.9091065305139954,1,0.999851
0.8538274320444126,1,0.999967
0.8976699448945596,1,0.999950
0.23378502838619172,0,0.998787
0.2911437448944875,0,0.998713
0.2853454593096878,0,0.998529
0.8948581706566092,1,0.999885
0.8625047502263377,1,0.999885
0.8976850936608036,1,0.999967
0.8729468558476571,1,0.999967
0.8680301302640009,1,0.999967
0.8933433129437622,1,0.999951
0.8764319859652582,0,0.999476
0.8900568668687052,1,0.999984
0.8895024073885002,1,0.999984
0.8676113886725877,0,0.999786
0.90876806605591,1,0.999984
0.8914519068462479,1,0.999967
0.8954029897201831,0,0.999351
0.8941323636489007,1,0.999951
0.894857500151774,1,0.999984
0.9240665752614798,1,0.999869
0.8950235646969775,1,0.999951
0.9000574546947662,0,0.998099
0.8590457961406988,1,0.999918
0.8957068285076066,0,0.998889
0.873515681729514,1,0.999983
0.8725324558685353,1,0.999951
0.8839666869872604,1,0.999951
0.8800565821887429,0,0.997155
0.8463247407754398,1,0.999951
0.8622861402667419,1,0.999901
0.7015416456527449,0,0.999303
0.7108659449421991,0,0.997874
0.8226739014488449,0,0.997333
0.8810426358507967,0,0.999802
0.8550804393884254,1,0.999984
0.8860238513802511,1,0.999951
0.8513975415073137,0,0.999260
0.8758011934454174,0,0.999737
0.7709120058983973,1,0.999983
0.916930563080177,1,0.999902
0.9033622766139574,1,0.999934
0.9220764958470665,0,0.998569
0.8896418542568922,0,0.999751
0.8939783897172058,0,0.999687
0.8646330861742881,1,0.999951
0.9122163078897677,0,0.998588
0.8374677767401373,1,0.999918
0.8409613585338115,1,0.999983
0.6153780286374021,0,0.997922
0.7434935640773089,0,0.997883
0.2391921629450241,1,0.999983
0.18796935117851335,0,0.998102
0.19984582470013768,1,0.999983
0.31516489228593336,0,0.998198
0.18721037368807542,1,0.999967
0.2284984833446349,1,0.999983
0.27828247793334876,0,0.998253
0.7887144437092389,1,0.999951
0.7352980870723119,0,0.999089
0.9089211105279962,1,0.999868
0.8545747405177031,0,0.997839
0.5842138627532261,1,0.999983
0.8918844322274875,1,0.999984
0.9248108870775879,0,0.999573
0.9044575173750928,0,0.999786
0.8820450095660837,1,0.999852
0.10515291097043664,0,0.999444
0.1052221950575179,0,0.999104
0.1218591567133113,0,0.999056
0.11892031513735439,1,0.999983
0.13319740205278305,0,0.998939
0.2233980704545021,0,0.999396
0.11987356013931418,0,0.999393
0.22507663096216526,0,0.998822
0.16612987637714424,0,0.999110
0.21082847646691946,0,0.998396
0.12465311930311279,0,0.999781
0.12851010156344622,0,0.999713
0.17433521856835696,0,0.998512
0.12356975080985404,1,0.999899
0.13694835739439337,1,0.999900
0.13623802102107144,1,0.999915
0.19694829250785992,0,0.998410
0.15352841968101424,0,0.999646
0.14068885301692174,1,0.999983
0.21536131954018212,1,0.999966
0.2687614609002085,1,0.999950
0.14698207747594014,1,0.999915
0.13768249141784633,0,0.999729
0.1579019131163689,0,0.999209
0.13279177403584658,0,0.999243
0.2056919305056003,0,0.997552
0.16836194359178747,1,0.999983
0.19166071469771295,1,0.999864
0.24127200965996753,0,0.998578
0.8476734310471483,0,0.998445
0.8640257846233111,1,0.999934
0.9067113449584331,1,0.999984
0.9194619407309117,1,0.999983
0.9076301330458633,0,0.999672
0.8608283426420179,1,0.999934
0.8934065988550434,1,0.999901
0.892944657374315,1,0.999951
0.8032392678412791,0,0.998459
0.926907331895034,1,0.999967
0.8953967955778483,0,0.999672
0.878957226747832,0,0.999688
0.9107500572384561,1,0.999853
0.8902851666569949,0,0.999672
0.8988082562206697,1,0.999967
0.8530706538286278,1,0.999967
0.8905345406081844,0,0.999572
0.8877610766632594,1,0.999934
0.873240224157834,1,0.999951
0.8900105262651778,1,0.999984
0.9017077210404382,1,0.999918
0.9072578176418449,1,0.999984
0.8790907633709089,1,0.999934
0.8830860153064727,1,0.999984
0.898234048146979,0,0.999277
0.8820930206954606,0,0.999786
0.8792746380173045,0,0.999360
0.8587289055638591,1,0.999967
0.8482214434865463,0,0.999621
0.870067358263619,1,0.999884
0.669468613689125,1,0.999983
0.8697663777178635,0,0.999179
0.8950653767459791,1,0.999836
0.8828264336813485,1,0.999984
0.84798988889745,1,0.999967
0.9018207292748642,1,0.999853
0.8666130528969685,0,0.999770
0.8853149485887811,0,0.999574
0.78363926005585,0,0.999488
0.7633864104475946,0,0.998828
0.8734402056952381,1,0.999868
0.854263201690983,0,0.996902
0.8352613748051532,0,0.999281
0.8953436609501727,0,0.998704
0.9058258489140765,1,0.999918
0.8350788043005184,0,0.999274
0.9117024095151226,0,0.999623
0.8972367187051333,0,0.998080
0.8826966783796112,0,0.999819
0.8854064449095709,0,0.998719
0.6450516519873359,0,0.997986
0.8656686991288797,1,0.999967
0.8882544761995637,1,0.999984
0.8952248783843401,1,0.999967
0.8605850827824563,0,0.999505
0.21503454575574116,1,0.999950
0.5557751063585894,0,0.998311
0.9139311137298219,1,0.999983
0.8162385198754414,0,0.999472
0.8639673222696127,1,0.999984
0.7429286281813299,1,0.999983
0.571027720547246,0,0.995588
0.8949076012720028,0,0.998899
0.9056109993330806,0,0.999721
0.8628047586481656,0,0.997846
0.7223334523747802,0,0.998456
0.7603157867735014,0,0.998682
0.8956546731588332,1,0.999984
0.921434658318124,1,0.999918
0.715900755084675,0,0.998532
0.9120724763456137,1,0.999934
0.9146660582921056,1,0.999984
0.9124878160315049,0,0.999739
0.8835766890946266,0,0.999818
0.9256390794119103,0,0.999688
0.863048549829278,1,0.999984
0.9031574323342005,0,0.999426
0.8973312820464722,1,0.999984
0.9161158760642332,0,0.999688
0.897420599330215,0,0.999670
0.7612854429680617,1,0.999983
0.66812805877519,0,0.998868
0.8952565002143402,1,0.999984
0.7984987414266245,0,0.999146
0.901162002150966,1,0.999984
0.902984500242431,1,0.999984
0.8904439675722846,0,0.998613
0.9131415998598242,1,0.999984
0.8990663992068308,1,0.999934
0.6841702737523447,1,0.999967
0.7654135833024398,0,0.999472
0.7632423935511566,0,0.998648
0.8695162465805212,0,0.998432
0.8841027883942213,0,0.998550
0.8741699714629089,1,0.999852
0.6405358069704163,0,0.999289
0.8814887836004865,0,0.996799
0.8408937764377171,0,0.999654
0.7486347761196483,0,0.999011
0.6049313996771687,0,0.998332
0.8872510540604832,1,0.999918
0.8583416106481254,0,0.998518
0.7585620461807203,1,0.999933
0.8734870640751001,0,0.999554
0.8584954206295003,0,0.999654
0.9046234528591511,0,0.999426
0.8821626001137209,1,0.999967
0.8915405528430043,0,0.999079
0.9099274847041168,1,0.999984
0.8960399665768931,0,0.999803
0.8897569982111049,1,0.999967
0.8917983458920485,1,0.999984
0.7978402182626869,0,0.999452
0.8331827889435407,0,0.997878
0.8564027089533471,0,0.997337
0.8975436573053833,1,0.999852
0.8597731517067921,1,0.999901
0.8275535728388521,1,0.999983
0.762152924358456,1,0.999950
0.8966750854903555,1,0.999983
0.8682036074316756,0,0.999671
0.8532830529385408,1,0.999885
0.9030799700836479,1,0.999951
0.8089507656988625,0,0.999158
0.8711236611981529,1,0.999984
0.8026046912424845,0,0.998439
0.8554966353233888,0,0.999573
0.8377010365252878,0,0.998684
0.8939666017579525,0,0.999192
0.8795462724385869,0,0.999421
0.5214304902698718,0,0.998358
0.892296699622076,0,0.998528
0.8985849737575939,0,0.997177
0.8905191181364308,0,0.998928
0.14462233050883952,1,0.999983
0.12955690593942534,0,0.998530
0.13335088051064703,1,0.999983
0.15151349896343297,1,0.999983
0.14314136033723948,0,0.998833
0.1549334885166517,0,0.999197
0.8733567395712847,1,0.999983
0.1601572170261901,1,0.999949
0.17988806583759928,0,0.998546
0.1403842518615735,0,0.999694
0.1990491349644287,0,0.999733
0.13258883513526354,0,0.999593
0.13906789905133102,1,0.999983
0.37963346930171493,0,0.998971
0.18505898036822838,0,0.998819
0.2565245238059641,0,0.996302
0.14308384236320532,1,0.999983
0.20857970350456523,0,0.998808
0.21482246090388518,0,0.998852
0.9039066451991765,1,0.999984
0.5042458914868855,0,0.997773
0.6639912181994927,1,0.999852
0.185689223874499,0,0.999426
0.17762726377302565,0,0.999001
0.7942011251882624,1,0.999983
0.14614160720822258,1,0.999830
0.8795353388339098,1,0.999983
0.8634538563396675,1,0.999885
0.8787394205369438,1,0.999983
0.8981176110723624,0,0.999271
0.8972737934857616,1,0.999918
0.6842189893971445,0,0.997149
0.19823742867430322,0,0.999209
0.913151396202826,1,0.999934
0.8887205932955977,1,0.999983
0.8845477520181487,0,0.999605
0.8951113651980739,1,0.999851
0.2852252641020976,0,0.998699
0.8727332142721428,1,0.999967
0.8580509516919216,0,0.999307
0.16166828734559335,0,0.998920
0.889732974509007,0,0.999621
0.8640689599025368,0,0.999458
0.8905816042522872,0,0.998792
0.9031051782537147,0,0.999048
0.2157133342001507,1,0.999983
0.19950268043189806,0,0.999628
0.8947588693800752,1,0.999869
0.8943093664342298,1,0.999918
0.22643964617655546,0,0.997334
0.22523696174371255,0,0.997703
0.260841053237538,0,0.998594
0.9060682056618777,0,0.999719
0.8707695948158574,0,0.999635
0.9032458165320292,1,0.999884
0.8726966376141461,1,0.999885
0.9038432411607538,1,0.999967
0.90041576425779,1,0.999984
0.7752542220436771,0,0.999136
0.8694596175262812,0,0.999178
0.9004218198857161,0,0.999603
0.9074349838520016,0,0.998964
0.5427086537635378,0,0.998943
0.9048243496787185,1,0.999984
0.9078946935964002,1,0.999917
0.8775101803848836,0,0.999637
0.9137395627646623,1,0.999984
0.815581748489162,1,0.999884
0.8527743321006984,1,0.999984
0.6478054052101649,1,0.999983
0.9429294429247719,0,0.999281
0.8453401665022663,0,0.999512
0.6666464715866952,0,0.998284
0.22503110657305808,0,0.997373
0.2185969598091717,0,0.997538
0.8141521083583061,0,0.999786
0.892873148701075,0,0.999393
0.9170555542426191,1,0.999984
0.9191811902982803,0,0.999819
0.9200165324247116,1,0.999902
0.9157940662493266,1,0.999984
0.8997715994362394,1,0.999935
0.904913621928959,1,0.999984
0.9166224911918552,0,0.999787
0.8811603320084616,0,0.999589
0.9207204093510549,1,0.999984
0.8908970872779869,1,0.999934
0.8735873924128843,1,0.999951
0.9000586040162857,0,0.999294
0.903974090401676,1,0.999967
0.8771840461888186,1,0.999984
0.912454039038248,1,0.999869
0.8948875317054144,0,0.996736
0.9007440578859952,1,0.999951
0.8975234476440678,1,0.999918
0.8716003048831951,1,0.999984
0.8798109999769191,0,0.998164
0.8753359164936501,0,0.998742
0.89174377089848,0,0.999721
0.887941518617843,1,0.999984
0.8864751954907285,1,0.999902
0.8384980797313198,0,0.999239
0.8970424199767528,1,0.999984
0.23246951969465868,0,0.998992
0.8830884762008376,1,0.999934
0.9170642402178513,1,0.999983
0.903686241458002,1,0.999984
0.9048535667889083,0,0.999637
0.8145124319040945,1,0.999984
0.8760599628402895,0,0.999359
0.8977402459703698,1,0.999984
0.883438790613221,1,0.999951
0.9116058418730015,1,0.999934
0.9065989323576393,0,0.999622
0.8783038610160019,1,0.999951
0.9026685577365271,1,0.999984
0.6829426690057725,0,0.999637
0.8738703714304275,0,0.999588
0.7288487832903375,0,0.998468
0.9024023117213119,0,0.999095
0.9302973177659518,1,0.999984
0.906142274144075,0,0.999783
0.9017411024818064,1,0.999984
0.9176378831635942,1,0.999951
0.8699400624596466,0,0.999753
0.8489506624118418,0,0.998831
0.901479760914275,1,0.999984
0.9038851160170962,0,0.999704
0.8794015389848138,1,0.999983
0.8874819398404091,1,0.999983
0.8894724437038996,0,0.999621
0.5655383351961443,0,0.999715
0.6883905469649563,0,0.997815
0.8105978905030297,0,0.999208
0.9108146855251201,1,0.999983
0.8316219993711647,0,0.999140
0.8966655366151499,0,0.999671
0.892472712543435,0,0.999802
0.630707588105518,1,0.999983
0.5079604342704928,0,0.998050
0.8853203867677805,1,0.999983
0.8804675685644268,0,0.999605
0.8832017012496259,0,0.998946
0.8782360142152362,1,0.999984
0.8995477139397188,0,0.998687
0.8571468030054781,0,0.999817
0.8735273775378346,0,0.998896
0.8768050379522253,0,0.997800
0.854857503854654,0,0.999574
0.6696876144249344,1,0.999983
0.8491873827651251,0,0.995607
0.8953563394533196,0,0.997091
0.7840806851157115,1,0.999951
0.7836979171058708,1,0.999934
0.846894521241854,0,0.999046
0.8832568496137955,0,0.996966
0.8999051194046099,1,0.999951
0.8985392110741132,1,0.999951
0.8930463986415962,0,0.997517
0.871090663182702,1,0.999901
0.8633998105352787,0,0.995733
0.8867600709485539,1,0.999984
0.8423535446561802,0,0.999390
0.8809025771576403,1,0.999918
0.8906423989454254,1,0.999951
0.8452526596728425,0,0.999719
0.5456439441822092,0,0.998779
0.8718831654859386,0,0.999294
0.8735102919633903,1,0.999984
0.8532928449349857,1,0.999902
0.9007467806544585,1,0.999917
0.8888752510548883,0,0.999278
0.8783942025260368,1,0.999984
0.8941574530275678,0,0.999570
0.592547739342672,0,0.999802
0.8613720592764118,0,0.999734
0.8837445247594556,1,0.999918
0.8777243290487573,1,0.999983
0.22460015517014914,0,0.997934
0.8399758539307939,0,0.999288
0.891131636390602,0,0.999538
0.8652102941029249,0,0.999653
0.2333710084219234,1,0.999967
0.6755139285806179,0,0.998499
0.8626426633114752,0,0.997821
0.8555320429299927,1,0.999984
0.779575156698083,0,0.999470
0.8948231077126657,0,0.999508
0.8915892518918845,1,0.999983
0.92843570994825,0,0.999788
0.755519535110562,1,0.999852
0.9219267345122418,1,0.999853
0.7989231380547444,1,0.999869
0.28378437268356294,0,0.997912
0.5811502793821773,0,0.998951
0.815719034124502,1,0.999951
0.9235267876988951,1,0.999884
0.8819979477145632,0,0.999377
0.9188615309999809,0,0.998497
0.906732581185391,1,0.999967
0.8854386357129317,1,0.999984
0.8159333489066205,0,0.999770
0.906558272865141,0,0.999541
0.8743103199981329,0,0.998448
0.9015842094809492,0,0.999787
0.877844790028665,0,0.998456
0.8791220622807813,0,0.999408
0.8799843609806851,0,0.998260
0.6608842747733471,0,0.999138
0.8731235129565561,0,0.999554
0.8589449355440815,0,0.999770
0.48151802874457944,0,0.998701
0.5257824550578251,0,0.999007
0.9062720061865148,1,0.999836
0.8920535123980184,1,0.999984
0.9097830813461216,0,0.999754
0.9027559428713826,1,0.999984
0.8537946371837339,1,0.999967
0.8853642039491948,0,0.999721
0.7798603807570095,1,0.999983
0.8644174781422611,1,0.999983
0.8316737074453341,0,0.997227
0.778158782157083,0,0.999587
0.8892021232277869,0,0.996945
0.8997481427034891,0,0.996980
0.8785821735541643,1,0.999934
0.8797234733303506,1,0.999901
0.8683342326819425,0,0.999634
0.8763101790292285,0,0.997759
0.8712783664161798,1,0.999984
0.858538407787588,1,0.999967
0.9019457909064096,0,0.999619
0.8805886722324159,0,0.998044
0.8976727946093745,0,0.999803
0.8802759876429376,1,0.999984
0.8773807065048218,0,0.999786
0.8663626233858926,0,0.999359
0.8498817539867118,0,0.998087
0.8828165416368949,1,0.999950
0.8828924799592608,0,0.997243
0.8627816376076411,0,0.997777
0.9000288751656351,0,0.999507
0.8942788611651539,1,0.999918
0.9006773272152055,0,0.999060
0.8995932249332887,1,0.999984
0.8558879442756375,1,0.999852
0.8966292641872063,1,0.999951
0.6450946969562419,0,0.998128
0.8904629114248612,1,0.999984
0.8731805679220269,0,0.998999
0.6532508101606181,0,0.999405
0.8636424735692998,1,0.999967
0.8132944320582721,1,0.999984
0.8531477887451331,0,0.999686
0.8026573799372806,1,0.999902
0.7401595528823526,0,0.999120
0.5628395071239809,1,0.999967
0.8822313935688767,1,0.999901
0.8374351405245822,0,0.997867
0.7462836967300143,0,0.997549
0.8971247409561387,1,0.999967
0.9016139817230496,0,0.999571
0.8770196721382143,0,0.999109
0.8286543115164423,1,0.999868
0.8798231938218961,0,0.999803
0.8734244447170597,1,0.999984
0.8905988069390648,0,0.998570
0.9091601508176669,1,0.999885
0.9064724494474036,1,0.999984
0.8834792628851598,1,0.999984
0.8794155554918818,1,0.999852
0.846006424545286,0,0.999767
0.8569382338703486,0,0.999552
0.8181169632759393,1,0.999951
0.8840072637131476,1,0.999983
0.9002181481158807,0,0.998323
0.8985990940358435,1,0.999967
0.90541935665482,0,0.998385
0.8501403075156304,1,0.999967
0.8266968681128718,0,0.998169
0.8700529522995312,0,0.997520
0.8841491367788136,1,0.999984
0.8910007892193286,0,0.999573
0.8873941003266766,0,0.999417
0.7761452036033825,1,0.999901
0.8676487293453784,0,0.998138
0.8901302595272907,1,0.999983
0.8966751273661722,0,0.999718
0.8850775418268572,1,0.999967
0.868960670293054,0,0.998666
0.9168211873335625,0,0.999003
0.8987974113882021,0,0.999424
0.9004373498430205,1,0.999918
0.892869640200655,0,0.997847
0.8873021133188123,0,0.998657
0.8802097340324899,1,0.999984
0.8217856362222378,0,0.999385
0.8088990459482963,0,0.998226
0.8511611090110578,0,0.997988
0.8786880586668342,1,0.999868
0.8765349576738087,0,0.997335
0.17266039975928035,0,0.999694
0.20076430181800273,0,0.998507
0.17787068449454835,0,0.999170
0.14217149090591877,0,0.999748
0.14374805290414705,1,0.999846
0.18922989331114956,1,0.999983
0.21230222371034407,1,0.999983
0.1944068576667113,0,0.999609
0.17338536539443447,0,0.998669
0.1886697133596398,0,0.998663
0.1751022858885269,1,0.999983
0.16956250524986527,1,0.999983
0.20007581185860662,0,0.997745
0.1802968680648326,0,0.999593
0.2145097722374928,1,0.999983
0.13412355446686583,0,0.998500
0.20764444138772956,1,0.999966
0.20740063741627915,0,0.998550
0.17820861283331058,0,0.999545
0.1505307847783411,1,0.999983
0.1776407799815256,0,0.998974
0.8087618156557748,0,0.999685
0.8439592416662965,1,0.999951
0.7568129104712923,1,0.999852
0.8822542054211848,1,0.999951
0.8455298624045695,0,0.999246
0.904574341106278,1,0.999983
0.807343236335826,0,0.999769
0.7315175229891525,1,0.999934
0.5573502914351891,0,0.999434
