0.015763419811443354,0,0.946407
0.03675733653089697,0,0.947174
0.053664980232466776,0,0.947965
0.040128864031803775,0,0.947428
0.043883413083554444,0,0.889148
0.04227250057943671,0,0.948425
0.04656702644497479,0,0.948540
0.04037158732366278,0,0.947574
0.03979316027534053,0,0.948035
0.04282090854744864,0,0.949039
0.04862104784911943,0,0.948934
0.0390007837937554,0,0.947960
0.04063975849343261,0,0.887128
0.07376576073238587,0,0.634221
0.07731751505235483,1,0.999982
0.08034292470711789,0,0.983117
0.08086362029477431,0,0.949485
0.09106690551421048,0,0.955333
0.08991938170202629,0,0.887016
0.08356981124381714,0,0.972915
0.08354280235671825,0,0.979728
0.10596596386103099,0,0.950140
0.10962087572613673,0,0.949473
0.10607590416255447,0,0.949431
0.05614333800308899,0,0.943839
0.061492529339166546,0,0.947040
0.06495899142347988,0,0.975801
0.06614920851563759,0,0.949580
0.08747305078384468,0,0.947994
0.0800854935783167,0,0.994539
0.0818716072261146,0,0.994723
0.07584140663180768,0,0.951090
0.07498390707917137,0,0.960376
0.05382524940190463,0,0.949483
0.06218310049847388,0,0.952653
0.07604480678634482,0,0.892559
0.07640145947501778,0,0.951999
0.07526972526516865,0,0.611591
0.06336137865516474,0,0.999246
0.06951212190492657,0,0.944389
0.06938126453942867,0,0.976952
0.058664698941162066,0,0.994185
0.05760078392441193,0,0.742884
0.06164411542548958,0,0.554324
0.06351945316179107,0,0.947256
0.08199509600573296,0,0.942222
0.06521145221415069,0,0.999767
0.10235060846287818,0,0.549974
0.10925598800701526,0,0.953655
0.11832720053140355,0,0.980218
0.13981387203642467,0,0.994359
0.1252928600966532,1,0.999932
0.14857181907720796,0,0.945749
0.18507208288231755,0,0.950375
0.2187803783136414,0,0.980370
0.18315929852424556,0,0.999745
0.29027811131237286,0,0.998116
0.27699275369605103,0,0.893000
0.1216579508740807,0,0.999082
0.20637916606752477,0,0.886166
0.10323058602406723,0,0.979125
0.2964437256827221,0,0.953123
0.31285204708117575,0,0.999607
0.16919591379310386,0,0.943991
0.0817376098105721,0,0.888005
0.09336213308372387,0,0.891735
0.07148326305510407,0,0.999163
0.08965269508096438,0,0.944162
0.2803518396297457,1,0.999983
0.08573707537039825,0,0.551313
0.110873955580005,0,0.980775
0.3044821903621772,1,0.999966
0.11090796869059497,1,0.999898
0.06421127866718591,0,0.978692
0.27019685263114646,1,0.999898
0.14562381669930408,0,0.975109
0.2162054161952566,0,0.939634
0.12501737848992397,0,0.999051
0.15428616024987227,0,0.878284
0.1965539891103566,0,0.990794
0.19763385777782996,0,0.999545
0.2546965960871189,0,0.999780
0.21909706837739573,0,0.977340
0.2810422810430524,0,0.995974
0.38684589776816347,0,0.980548
0.06415619939331206,0,0.996181
0.19817351094065247,0,0.999302
0.16016379953460988,0,0.999750
0.22768262592493593,0,0.977502
0.39055819683876514,0,0.999276
0.4979207779386911,0,0.999713
0.510255830298374,0,0.999648
0.07057107341265369,0,0.968458
0.14807248099880127,0,0.999592
0.293622666932913,0,0.969581
0.25219100868174943,0,0.998045
0.1514809798528956,0,0.999590
0.1369624640958563,0,0.740436
0.07013547805307731,0,0.975167
0.18751293444995595,0,0.937268
0.37815729893425665,0,0.950203
0.34695813953504334,0,0.556689
0.5280671447462576,0,0.999281
0.6487968418563138,0,0.999680
0.5268880540846128,1,0.999899
0.33430683503514963,0,0.999144
0.19556702853290742,0,0.999281
0.1830707862437519,0,0.999161
0.15510865254601777,0,0.980672
0.08832034931892602,0,0.889491
0.052939613652633874,0,0.641381
0.06648622157082192,0,0.994218
0.047723061631374596,0,0.994921
0.1251184043361788,0,0.736746
0.07144494452065851,0,0.992503
0.08728468634316121,0,0.881099
0.16652214675025637,0,0.885013
0.15074574983824074,0,0.955066
0.0636458101895948,0,0.944659
0.03814782639654372,0,0.889510
0.0427154094497794,0,0.950147
0.053898715766308475,0,0.950834
0.06116995919239204,0,0.949430
0.06062583414950191,0,0.550768
0.08703991075594479,0,0.994028
0.09182106940042188,0,0.994467
0.0649342185508396,0,0.993086
0.08042156300358252,0,0.887445
0.1670645112457417,0,0.941660
0.175973031824274,0,0.541116
0.1664080266711971,0,0.870648
0.11587693045310869,0,0.991745
0.1223353590214293,0,0.999160
0.12622012912324904,0,0.978277
0.24017706766935534,0,0.999713
0.34697385549472226,0,0.935981
0.2853934422513601,1,0.999966
0.29965036157875063,0,0.551180
0.19054080126736744,0,0.993819
0.12213635444783778,0,0.880722
0.17700333125240086,0,0.999584
0.248529559331561,0,0.999169
0.16008934043052603,0,0.993454
0.09929967608609243,0,0.989055
0.06643013726451363,0,0.945816
0.04620238918149128,0,0.999762
0.22772870503731504,0,0.952318
0.14596784143865987,0,0.942132
0.19640705608393588,0,0.998143
0.2342466689356638,0,0.999461
0.2035222361567745,0,0.949339
0.06030395562717401,0,0.949089
0.060820583128528345,0,0.663369
0.05100021961120697,0,0.731223
0.05520824806898702,0,0.969044
0.33108279996529566,0,0.988324
0.04696334232643886,0,0.880075
0.2941792496647855,0,0.999179
0.21246902980366517,0,0.991251
0.15984550675447737,0,0.993378
0.2517494353516999,0,0.995676
0.16986059785038193,0,0.997492
0.15773702014498908,0,0.998202
0.29764945780171465,0,0.998871
0.38453793204850967,0,0.944836
0.19212257159406723,0,0.950846
0.06541038343901741,0,0.936953
0.12407500570437997,1,0.999896
0.1625752918436318,0,0.974331
0.11690227866810105,0,0.981920
0.0673073979181335,0,0.980300
0.080596233931504,0,0.994578
0.08321066516400061,0,0.994346
0.08258614806520866,0,0.986423
0.08520309338653181,0,0.739428
0.08795817233799254,0,0.737838
0.05399300853066549,0,0.986932
0.052755313272344805,0,0.986676
0.056983351922427525,0,0.886343
0.04957035184061026,0,0.975625
0.0801289083196291,0,0.936950
0.12192910569255372,0,0.542160
0.07683753268033969,0,0.888836
0.17248594461901234,0,0.883197
0.12632249222378164,0,0.993155
0.12011539877344624,0,0.611383
0.07689278621640418,0,0.947918
0.06378918401647041,0,0.980222
0.0653100828279151,0,0.987212
0.08249967786255716,0,0.947875
0.0994374158285716,0,0.991804
0.055249090427511055,0,0.944906
0.07030512520503271,0,0.943376
0.10687678256985327,0,0.989111
0.09653722923440654,0,0.996707
0.12274461499933204,0,0.998906
0.1324723636804731,0,0.993372
0.04785095165647079,0,0.891205
0.1693503095876777,0,0.896479
0.1719121296972877,0,0.548819
0.16437189737737265,0,0.948215
0.0757685741963834,0,0.999450
0.08477447548953497,0,0.986497
0.08918912752123555,0,0.607390
0.056632535639921856,0,0.967643
0.057361907306990756,0,0.574262
0.058529051368650484,0,0.572240
0.16174541749693927,0,0.935464
0.18563957260556754,1,0.999916
0.3014855190038408,0,0.999467
0.08093133355674367,0,0.979602
0.15778726714556093,0,0.985502
0.3356533011162119,1,0.999931
0.3754197996021448,0,0.942171
0.47222136059372394,0,0.992131
0.09708542513012822,0,0.992790
0.21358922277807266,0,0.999659
0.25031256125384704,1,0.999897
0.1893106362600503,0,0.998617
0.514028648423199,1,0.999882
0.4881995442450362,0,0.999628
0.1741811306557243,0,0.529541
0.06646951007040441,0,0.991251
0.0853801195590447,0,0.998273
0.16279049945992263,0,0.996776
0.34061267444819315,0,0.999614
0.14118490728564762,0,0.997983
0.31450697494516083,0,0.999599
0.16794391766444328,0,0.997524
0.24573249609712294,0,0.999596
0.264945944164833,0,0.940421
0.15695424315947948,0,0.534461
0.3247303765614548,1,0.999916
0.05551252911967101,0,0.935077
0.10747463867250243,0,0.643674
0.24687098888277756,0,0.965322
0.11419104088873108,0,0.997310
0.2284222062371842,0,0.991587
0.13828293716920256,0,0.988509
0.22837702937323764,0,0.938738
0.19559391177747765,0,0.997924
0.37642078876274215,0,0.999436
0.3617180662842803,1,0.999898
0.4166731065443901,0,0.947839
0.23146439310243314,0,0.999737
0.20100931114289808,0,0.980453
0.5066809411897003,0,0.999660
0.22601627037206098,0,0.991121
0.22424181487126657,0,0.964185
0.13815163796104257,0,0.998215
0.11857106515337915,0,0.938815
0.11747084775279722,0,0.994551
0.10111591323332908,0,0.947605
0.04514616570151868,0,0.952423
0.0627046354597932,0,0.969782
0.2712005264042583,0,0.998581
0.0862367474216968,0,0.998162
0.5232317437857872,1,0.999949
0.27388903643294715,0,0.999452
0.12280905403448727,0,0.975604
0.14386051899462687,0,0.999682
0.28902320203440185,1,0.999983
0.08520601158992014,0,0.936941
0.1243761160889722,0,0.729213
0.08321397430711723,0,0.948563
0.05352526956016364,0,0.994577
0.06832191752356619,0,0.938007
0.06572489579462913,0,0.876011
0.061705118987317294,0,0.948962
0.06214674426655857,0,0.943987
0.07317361332366161,0,0.938613
0.05629851104705098,0,0.544098
0.044938715536175296,0,0.949313
0.059453789156357364,0,0.949405
0.061598246448796384,0,0.994775
0.045013457435076204,0,0.948316
0.11468982237105334,0,0.949687
0.11453855323358648,0,0.995098
0.11537843016892436,0,0.995195
0.07301211065202186,0,0.942787
0.0648827875504664,0,0.856995
0.06532622247770907,0,0.941362
0.08122633760110005,0,0.574943
0.0853530264827409,0,0.881265
0.08514216549880468,1,0.999869
0.058975249875241956,0,0.689760
0.1506442811849917,0,0.883953
0.12247273248798332,0,0.975482
0.15546570948585492,0,0.972236
0.14259493763054526,0,0.976034
0.10902177663864598,0,0.932071
0.12381993204944218,0,0.867274
0.035343026334006045,0,0.999341
0.06896283711802727,0,0.923006
0.12347335428458299,0,0.918534
0.22413216719398418,0,0.988438
0.19344429330782603,0,0.997376
0.18676123992411184,0,0.999033
0.22149337507736944,0,0.989679
0.27513694705189784,0,0.999731
0.350176945790307,0,0.998767
0.1646777750520644,0,0.999459
0.22894951143057757,0,0.659600
0.3399419920111338,0,0.999162
0.41588656364933646,0,0.999270
0.24701631348798112,1,0.999929
0.3768443631708869,0,0.999773
0.173173580198141,0,0.999596
0.38517501421387546,0,0.998325
0.2206788441321532,0,0.976012
0.2546883323750427,0,0.999089
0.23597541717054957,0,0.999462
0.17189920327682112,0,0.994329
0.2470168723306418,0,0.994473
0.27643990466476026,0,0.936433
0.3129217045742486,0,0.997179
0.33498857213515515,0,0.954719
0.13924674130326126,0,0.541272
0.12653694904896007,0,0.999258
0.2053610418671695,0,0.994800
0.29747985479423394,0,0.998483
0.14653822969758537,0,0.936048
0.09952521802885449,0,0.973323
0.10123867519759763,0,0.555501
0.12068655020957236,0,0.884731
0.18109494059853848,1,0.999827
0.22008395828984711,1,0.999924
0.16584802151574346,0,0.882916
0.09902400567666808,0,0.974944
0.1027288698665147,0,0.995435
0.10184319986778986,0,0.945261
0.06835764868737647,0,0.889069
0.05048269626585239,0,0.995715
0.055858333398683416,0,0.995962
0.21530353603446212,0,0.541701
0.20661867462746414,0,0.990378
0.2004586441340757,0,0.990454
0.16966300654871053,0,0.937048
0.11886546577023632,0,0.994821
0.07133038522030763,0,0.939767
0.17449544249030555,0,0.989491
0.19190521349147743,0,0.999588
0.11792586961215981,0,0.995141
0.23123969523234775,0,0.975123
0.28103150100483976,0,0.997997
0.1815011707104973,0,0.992690
0.2440975075958325,0,0.873579
0.3146560791001544,0,0.936958
0.08902471704924605,0,0.968811
0.21369664734147803,0,0.994084
0.2118419308035638,0,0.994898
0.3462428532254441,1,0.999982
0.23402687747772874,0,0.879662
0.08228268235476531,0,0.954755
0.07085285090166021,0,0.943370
0.09729201331303729,0,0.994386
0.05708426674568796,0,0.995754
0.2342619416444787,0,0.975630
0.1079653886165601,0,0.940384
0.1979775095894547,0,0.991915
0.3430848800593656,0,0.999401
0.14354848917134955,0,0.997103
0.14715242204102458,0,0.992411
0.320696019290538,0,0.997820
0.3406863681958864,0,0.999762
0.4317142001645397,0,0.999612
0.25161059136303976,0,0.997553
0.06587143611677272,0,0.946003
0.061592275770979574,0,0.996169
0.33051998934474536,0,0.984469
0.43715593935604513,0,0.887546
0.19516142524205177,0,0.868808
0.09947268713420541,0,0.979883
0.10599497750662099,0,0.996935
0.18864167536970056,0,0.875082
0.16043932160822172,0,0.881289
0.09816112643347044,0,0.727919
0.10277570169123726,0,0.944576
0.10638125303010178,1,0.999980
0.1392460314722717,0,0.610921
0.09807592194209887,0,0.732691
0.10462632256526508,0,0.888412
0.08879299857257114,0,0.883048
0.06321744980642316,0,0.561087
0.04184922549468451,0,0.997251
0.1323042092322906,0,0.940092
0.11337177032209342,0,0.953203
0.1186104026852112,0,0.634878
0.1693153862317724,0,0.934917
0.15899515925245084,0,0.879286
0.10768812706149362,0,0.887184
0.06255239051238133,0,0.877929
0.05340102025810842,0,0.944708
0.050083010164727645,0,0.606224
0.03546963556147687,0,0.996811
0.13231638358587414,0,0.880082
0.13752326393512598,0,0.928884
0.10718649832036636,0,0.935844
0.2340620621089622,0,0.935264
0.16005586603520117,0,0.872826
0.12037570104211197,0,0.879899
0.10521296388720772,0,0.999662
0.0765014167205657,0,0.884802
0.060264681749737294,0,0.941669
0.03678217736323533,0,0.943081
0.05248628913122695,0,0.632390
0.10022251278579099,0,0.868129
0.07253647469804615,0,0.973104
0.16724158271520873,0,0.988534
0.08072335569540486,0,0.684092
0.18669718359938905,0,0.988874
0.19814487936585176,0,0.866543
0.11358125975483273,0,0.875478
0.10108268967589254,0,0.540393
0.04641853243771626,0,0.869424
0.15286739518017528,0,0.990734
0.11211597560920841,0,0.927327
0.10494534693249769,0,0.629370
0.08367975116066825,0,0.946489
0.07211604657646122,0,0.999635
0.0807733221766677,0,0.989747
0.09834053776475989,0,0.940782
0.08738563056542487,0,0.927902
0.07673134226537202,0,0.991547
0.09976378741534048,0,0.998737
0.11330133124356846,1,0.999936
0.05716077700864326,0,0.566699
0.07010338916850069,0,0.840285
0.057903468191981375,0,0.994095
0.0995945097734902,0,0.927190
0.10343464696455783,0,0.619578
0.1571466808944115,0,0.998518
0.11383409556348352,0,0.717854
0.085407186291745,0,0.974820
0.20645756836280624,0,0.999183
0.24336357234822253,0,0.842073
0.10661045656995033,0,0.997934
0.10148067261468638,0,0.716970
0.07490803209600196,0,0.931024
0.08592797514184942,0,0.989932
0.07742785772584224,0,0.871869
0.0733275116218149,0,0.870920
0.06553604029408217,0,0.985887
0.04747365322750684,0,0.853188
0.12916615898764744,0,0.921434
0.08396090321264779,0,0.922226
0.05577051682609608,0,0.924255
0.11708861115295362,0,0.934778
0.09725913189322284,0,0.841819
0.10523327965835944,0,0.922099
0.10110181935120562,0,0.926696
0.06733432222668058,0,0.985631
0.1862905872759599,0,0.903957
0.26926923873496883,0,0.997904
0.1970935042614211,0,0.907695
0.22010459316493672,0,0.991578
0.26677175565607075,1,0.999931
0.18345703687222573,0,0.998181
0.3251275126704729,0,0.992910
0.08688556356787736,0,0.992843
0.06471025023898,0,0.991497
0.2769828362753254,0,0.996785
0.15944702238564692,0,0.941121
0.04899369989826366,0,0.926567
0.03912358469009536,0,0.989490
0.04649065945109483,0,0.927723
0.23097244617825702,0,0.929730
0.18707998188042904,0,0.907300
0.1943925954473197,0,0.855690
0.25588874624347885,0,0.991299
0.09611672095560751,0,0.975376
0.187545543006664,0,0.999490
0.37230992048480926,0,0.996269
0.2829247282508074,0,0.999176
0.2530124340629935,0,0.997650
0.20126821251068253,0,0.933828
0.3494276744175008,0,0.987105
0.10089585945259502,0,0.940470
0.1465128841393476,0,0.966729
0.08589729254208586,0,0.607668
0.09964532298704215,0,0.720846
0.10175695745198429,0,0.937681
0.07920162661552195,0,0.994101
0.0865278552878091,1,0.999977
0.11232885624084016,0,0.532444
0.10787759827984504,0,0.683749
0.07198568422272657,0,0.994848
0.09153273905485504,0,0.551980
0.07967629172905002,0,0.994577
0.21249461265787656,0,0.549208
0.1817329303179402,1,0.999965
0.12793041293809299,0,0.697536
0.0695013615062693,0,0.952125
0.0967112043905906,0,0.988620
0.08417462306322267,0,0.941513
0.0698661457311607,0,0.999776
0.05132253203553481,0,0.990300
0.08791837803604587,0,0.975719
0.15316713066523474,0,0.630026
0.08541829983147009,0,0.519123
0.09260176374971461,0,0.598754
0.10524145379095622,0,0.994359
0.075768746288038,0,0.597729
0.12829527736346516,0,0.975875
0.10773920892164798,0,0.717324
0.06701545767382215,0,0.549546
0.09825134301836974,0,0.991444
0.0640315622444197,0,0.940951
0.04873813393803413,0,0.855074
0.11659160153172665,0,0.997103
0.09668744891142865,0,0.929297
0.10720393747666214,0,0.989829
0.07993120298617949,0,0.964653
0.08636558674137418,0,0.987650
0.09479848437493874,0,0.994839
0.10367012252319428,0,0.923735
0.07769855307160789,0,0.978208
0.1419277368944716,0,0.989117
0.1275259800495314,0,0.943355
0.11300522498037278,0,0.935837
0.0960901108053109,0,0.935475
0.06809079010620804,0,0.999049
0.07844983198459422,0,0.935720
0.11564320738409552,0,0.922307
0.09541079130107172,0,0.929064
0.09402397538228793,0,0.947512
0.11070435053086577,0,0.904479
0.12296415469088197,0,0.993962
0.09837767854680306,0,0.981152
0.09353476242224246,0,0.926549
0.1231174037287323,0,0.863997
0.1052402627922975,0,0.864922
0.13281285490572411,0,0.622875
0.12357897865050761,0,0.845638
0.12164562794937218,0,0.852436
0.09859379252317674,0,0.597216
0.12863954545692122,0,0.936457
0.10166493176728982,0,0.988862
0.1582442285447829,0,0.976619
0.14091814815346718,0,0.995205
0.11830414778020767,0,0.861968
0.140000004859293,0,0.938089
0.10083763714795672,0,0.919293
0.12137296921150657,0,0.519132
0.14609338768066918,0,0.981934
0.13061980595870457,0,0.679980
0.11045358746890585,0,0.999133
0.13643014356394204,0,0.990423
0.09964353181895129,0,0.993379
0.12312734324509184,0,0.994642
0.08275167445132707,0,0.833185
0.08030287287058069,0,0.938779
0.10575932786563513,0,0.926039
0.13955252487431835,0,0.992454
0.15884154577498263,0,0.998563
0.1487451662020739,0,0.538720
0.1305288565054074,0,0.857391
0.10514803823535648,0,0.995729
0.06502206187421831,0,0.992413
0.09486638065730518,0,0.998018
0.0603849629432825,0,0.916410
0.0813599330629323,0,0.948140
0.10872702236836666,0,0.903192
0.11403723018807718,0,0.976296
0.13206683235000546,0,0.988841
0.09924563355341778,0,0.869997
0.10381555175351587,0,0.999032
0.19798524485601124,0,0.968855
0.19380444734257907,0,0.976216
0.15051944297635533,0,0.912036
0.13855137674082016,0,0.624772
0.0975629442121006,0,0.994864
0.13038875668999098,0,0.989297
0.23318838474207662,0,0.860235
0.12868848903919472,0,0.930597
0.1094988276273667,0,0.910237
0.21171441366521165,0,0.969243
0.2214429375044692,0,0.713544
0.1508419239107317,0,0.926451
0.14553880549290527,0,0.997749
0.18566694722251204,0,0.971740
0.11977417122700304,0,0.529307
0.061550761436027175,0,0.946217
0.11501348518461332,0,0.999524
0.12267503756959874,0,0.999622
0.15364252544879944,0,0.927227
0.133456314776691,0,0.857696
0.1572931599759459,0,0.937700
0.11422877445341731,0,0.997561
0.07098025230730033,0,0.980395
0.14252778826997048,0,0.597590
0.0760241904782282,0,0.619573
0.08271960892313795,0,0.985815
0.1192797186092593,0,0.491004
0.12606927306907392,0,0.837022
0.22736692838450104,0,0.998944
0.25353484309465035,0,0.943647
0.22436027365398092,0,0.532349
0.09561565078712303,0,0.997446
0.08625568846273288,0,0.999464
0.09770146792606275,0,0.999514
0.09987352891380345,0,0.987051
0.2074092724558685,0,0.977845
0.19196737122201118,0,0.561089
0.20756930501340862,0,0.992221
0.17230209074488784,0,0.563248
0.11966001062884338,0,0.858470
0.18981016926226635,0,0.995740
0.13192407527222558,0,0.970633
0.09253499037610496,0,0.974400
0.10202928972360291,0,0.997257
0.12546064007472243,0,0.992973
0.11715425577889836,0,0.933323
0.09006309964120873,0,0.996610
0.07957286716424478,0,0.933569
0.09919908295381129,0,0.930040
0.25946487716079,0,0.997877
0.12222840323034256,0,0.998619
0.11189059838667954,0,0.943809
0.12167801111724927,0,0.947715
0.050599805152184235,0,0.976436
0.10333497508140153,0,0.834876
0.040917722377791295,0,0.996180
0.07885700031460269,0,0.613612
0.14143612450292403,0,0.987533
0.07455879664248755,0,0.620141
0.09248368218782009,0,0.622888
0.1098031986793748,0,0.966565
0.186941271770181,0,0.998357
0.23679503171977764,0,0.888369
0.05713056011592797,0,0.574939
0.10599169768857988,0,0.992790
0.09228335097757402,0,0.529494
0.13652953405039,0,0.934913
0.10613885838912791,0,0.948386
0.15295368975995327,0,0.947839
0.08546425087109696,0,0.524661
0.05006089627535701,0,0.992887
0.07259624092375544,0,0.862562
0.082653965264313,0,0.596553
0.11001773191230779,0,0.979001
0.12444723232439173,0,0.938597
0.10674332172940236,0,0.859272
0.10487370458812359,0,0.942118
0.1223909213925967,0,0.921809
0.12143159674373466,0,0.971785
0.060991003213362344,0,0.993710
0.12002654903028523,0,0.941150
0.07768499099754422,0,0.932484
0.08875609071003716,0,0.951362
0.09792306264569041,0,0.936484
0.11566853667461484,0,0.977530
0.10290855090235171,0,0.929536
0.0822098089178846,0,0.991951
0.07706254772675637,0,0.993019
0.07926212442038603,0,0.952625
0.07638023814209136,0,0.938524
0.07974029379435987,0,0.544836
0.09761442690575806,0,0.997916
0.10819069470594912,0,0.997954
0.07285256267246017,0,0.566753
0.07474423458936513,0,0.519372
0.10279865568836866,0,0.934869
0.11029471847720741,0,0.868885
0.11568423384028104,0,0.881174
0.11023040639285331,0,0.952703
0.0879780938751283,0,0.988268
0.0647796353866056,0,0.657279
0.08543516251775174,0,0.929872
0.0850081580921637,0,0.940684
0.09128949356201356,0,0.856669
0.10442685172266072,0,0.995345
0.17187081468697532,0,0.547740
0.12279648371357864,0,0.990043
0.09125617107411767,0,0.854812
0.1434640212261646,0,0.975263
0.12673092526396085,0,0.889547
0.09552232116092736,0,0.995081
0.10768964778667887,0,0.933689
0.10556349566999937,0,0.860027
0.11248933028255005,0,0.947374
0.11037333647620433,0,0.931088
0.0711764771702452,0,0.949523
0.11507094067545456,0,0.998351
0.12199982366642241,0,0.973376
0.0637471040353831,0,0.995632
0.07406392215505982,0,0.987452
0.16835166915625213,0,0.990271
0.13402892311848733,0,0.977417
0.05684819127519645,0,0.932859
0.08718225186546169,0,0.928274
0.07388223668996224,0,0.938416
0.09779981673025603,0,0.986577
0.10805079068233446,0,0.995069
0.09004332544714623,0,0.508757
0.11356570765359736,0,0.851807
0.09722277737904708,0,0.909349
0.09941127265689839,0,0.997469
0.1332073745829858,0,0.938525
0.09551754905964517,0,0.977038
0.09949419865953371,0,0.990581
0.1125176951509877,0,0.985538
0.10383911008319781,0,0.650838
0.11402713533882905,0,0.842958
0.11777466832810084,0,0.859491
0.11642601983929807,0,0.996675
0.1120426941547354,0,0.924261
0.11564498954920403,0,0.929758
0.13229248436048405,0,0.994631
0.15405589683303272,0,0.822630
0.10018960365820037,0,0.993343
0.08711031471581626,0,0.972837
0.1687321040885367,0,0.510486
0.1018564382261685,0,0.950017
0.10646699202061777,0,0.993037
0.09437589509800719,0,0.988888
0.0907133398253339,0,0.960673
0.10533808232364295,0,0.954829
0.05990191505737492,0,0.972553
0.06699954556904543,0,0.973001
0.06699160292316282,0,0.898824
0.1811712083079358,0,0.887934
0.1221854237130669,1,0.999910
0.15027239190333752,0,0.588257
0.11170023883110254,0,0.938263
0.07562183438503804,0,0.703884
0.073225802889542,0,0.975384
0.08213704135649284,0,0.957736
0.09660673972899377,0,0.990273
0.13739887542029097,0,0.464551
0.09835899645499649,0,0.826120
0.06383160785012951,0,0.872714
0.15429278191377083,0,0.988140
0.21897468963811184,0,0.963040
0.1385509397908044,0,0.977201
0.15672005881104767,0,0.999399
0.1275863750931624,0,0.906349
0.09240769302676206,0,0.997377
0.11809666875218662,0,0.987421
0.11857929165837036,0,0.996468
0.14568235113723174,0,0.501950
0.12614544833710767,1,0.999925
0.28588345197895576,1,0.999964
0.20616150316326873,0,0.999745
0.24456540186021716,1,0.999982
0.3116065768950093,0,0.917468
0.21346367025266533,0,0.899433
0.17187307978164523,0,0.908555
0.24958407568979607,0,0.992805
0.0819376868340125,0,0.930946
0.094269193348412,0,0.950138
0.06922613617472173,0,0.917567
0.1305397563291842,0,0.862022
0.10232762476360785,0,0.997034
0.20042151670277109,0,0.993474
0.14218533251052878,0,0.992527
0.06388664668323697,0,0.944411
0.24534645392815005,0,0.999091
0.40619926910573406,1,0.999911
0.16453586338469894,0,0.999310
0.1725598660374212,0,0.965635
0.35627927284342964,0,0.999644
0.2556792261769545,0,0.999715
0.2736559351664447,1,0.999982
0.5171868790780053,0,0.682534
0.15364743190097893,0,0.993910
0.14420697996559587,0,0.829700
0.12422508518354024,0,0.913034
0.04053956496697626,0,0.978926
0.3020026640674213,0,0.976586
0.13047032565377892,0,0.997309
0.04448757439239949,0,0.913391
0.043619482485875764,0,0.850024
0.06251400554653763,0,0.979165
0.03668879896757113,0,0.980940
0.05876122465132772,0,0.596400
0.03400998739383743,0,0.828741
0.04202367274606243,0,0.976682
0.05336737898435642,0,0.991729
0.060845696667172655,0,0.848557
0.036040116668199854,0,0.917239
0.08731099047237058,0,0.942366
0.09109618486600267,0,0.541750
0.0549790500946741,0,0.601271
0.049790114180538705,0,0.994991
0.03968192227984252,0,0.810667
0.07698321680127228,0,0.837804
0.07155964221688337,0,0.629039
0.08501431559876282,0,0.981578
0.0529544243098142,0,0.986796
0.05980446991204893,0,0.982881
0.0686030553929502,0,0.569422
0.07577255819007209,0,0.894907
0.06708440894760047,0,0.939937
0.06924663956933684,0,0.834500
0.12055694402507464,0,0.852796
0.06363728045691244,0,0.992485
0.060856191090400864,0,0.973486
0.06985424464657816,0,0.992904
0.05260375810196547,0,0.503596
0.09305416908144436,0,0.958738
0.17188910394303636,0,0.932202
0.18294683468847286,0,0.995800
0.10828788766964961,0,0.922282
0.032140338916593784,0,0.887838
0.04443770688361394,0,0.968084
0.46240679275981056,0,0.518056
0.18170100746762266,0,0.926610
0.23299635980242375,0,0.998709
0.34773935340499157,0,0.939380
0.3384011081789541,0,0.999218
0.33008768186366627,0,0.999204
0.3623977023337471,0,0.979055
0.1271279894247669,0,0.993997
0.08758100987702011,0,0.999537
0.08301140665728496,0,0.986553
0.06987798623700549,0,0.990713
0.2594582902647297,0,0.996823
0.11347220382523968,0,0.981243
0.344412669355848,0,0.998683
0.2762236158605855,0,0.996255
0.09431893716637597,0,0.905817
0.2475970860185633,0,0.996624
0.11923979961461745,0,0.999605
0.18295503161651158,0,0.572869
0.07545296209081105,0,0.984254
0.07730221622852167,0,0.654882
0.05241895074391992,0,0.996439
0.06364606072113921,0,0.976399
0.06395033842445683,0,0.975051
0.06771978009530392,0,0.945448
0.06954799945349846,0,0.983595
0.08189535314822434,0,0.921343
0.08220689211188205,0,0.862658
0.09204329038926057,0,0.979320
0.0849428314187693,0,0.489077
0.13010393089641686,0,0.951670
0.09151401849284958,0,0.507508
0.07170461985668394,0,0.842427
0.07611123019885394,0,0.966322
0.07696871361976869,0,0.942695
0.0696744613832609,0,0.504351
0.0912358109121687,0,0.508636
0.10324743981386401,0,0.977464
0.08975209852642817,0,0.946361
0.10749201399341052,0,0.975445
0.09068277813985995,0,0.924388
0.09826764252331473,0,0.625629
0.09662855086124643,0,0.994804
0.15131886700297698,0,0.903775
0.16699046028303452,0,0.925992
0.1998054264752627,0,0.942173
0.061869656160120474,0,0.971341
0.08466930753141257,0,0.947663
0.1893548001074166,0,0.912728
0.06824910222825177,0,0.974499
0.24564804278625565,0,0.591893
0.198326354989458,0,0.972953
0.1700761671734551,0,0.985316
0.07090863713807845,0,0.990597
0.10405302211830295,0,0.845471
0.11327663395746274,0,0.944596
0.06897288328747471,0,0.985875
0.09705130911732944,0,0.989005
0.24475122698424748,0,0.997829
0.24478532575579628,0,0.908839
0.1663799036008713,0,0.975281
0.1557113757602707,0,0.843750
0.11272378402396131,0,0.991380
0.09281835298616427,0,0.835418
0.10639794009673759,0,0.625509
0.09523012874471058,0,0.994870
0.09122696506308867,0,0.935363
0.31248323556276564,0,0.999748
0.21644680736215718,0,0.990155
0.18170284799618722,0,0.985391
0.05667531893556553,0,0.673893
0.07066170320871248,0,0.987551
0.0788598492944718,0,0.983817
0.2268728736443438,0,0.999645
0.20481108274429455,0,0.972489
0.17509573991469216,0,0.988644
0.07988263087146112,0,0.986462
0.1340579634029228,0,0.852854
0.10468167613649286,0,0.919232
0.12394011510700728,0,0.604519
0.2688323255138009,0,0.865685
0.10508771463904995,0,0.955024
0.1193003610481347,0,0.922610
0.11992420304722567,0,0.523581
0.11505834045606156,0,0.617312
0.0950697916305955,1,0.999980
0.11229072612640688,0,0.884943
0.19622603896214996,0,0.845949
0.2369583963246703,0,0.984943
0.11626986635020627,0,0.971846
0.20600734139545898,1,0.999886
0.18780160840146948,0,0.893587
0.18957366388909327,0,0.935298
0.1325679675409338,0,0.987780
0.12367493684545441,0,0.942542
0.0763703272063264,0,0.975117
0.09241963923541704,0,0.997046
0.07884003808189612,0,0.994923
0.08301721602386357,0,0.997303
0.13796374381921495,0,0.997489
0.2408221907061811,0,0.915460
0.21032726936075707,0,0.999393
0.3086792649037677,0,0.532091
0.10548578654675364,0,0.941528
0.13270932046329512,0,0.926363
0.052698694198000044,0,0.999551
0.30102734497460604,1,0.999817
0.28162920602978464,0,0.828651
0.12642751863525575,0,0.999308
0.08434612260893887,0,0.981377
0.08749365029806876,0,0.982581
0.09862193629965983,0,0.995256
0.26781372576098395,0,0.997184
0.29027529409244707,0,0.973755
0.11502484235933973,0,0.537765
0.0661345318372726,0,0.845252
0.06268120698535032,0,0.840090
0.08692336295957963,0,0.618817
0.0584126282187465,0,0.933351
0.1726189146080308,0,0.978255
0.1465050728403251,0,0.840819
0.11341661671117531,0,0.660912
0.13080012507378533,0,0.982907
0.1476895321085847,0,0.998785
0.03076747308710728,0,0.951781
0.05766794623808101,0,0.916668
0.12732258055451914,0,0.472917
0.04417341582935744,0,0.976519
0.16719417293912067,0,0.995516
0.05787433292303203,0,0.923942
0.1331948793680297,0,0.958652
0.1213893537998014,0,0.909798
0.06139562257105251,0,0.655722
0.06018267300734449,0,0.821242
0.20860601243536203,0,0.996432
0.3206744726300569,0,0.906262
0.1128597603004043,0,0.660798
0.09285650677670415,0,0.992345
0.13364589228392965,0,0.799988
0.08116049488048806,0,0.879052
0.09352948716037242,0,0.934889
0.03852950893175152,0,0.935775
0.07858578337009556,0,0.808726
0.04584731976741206,0,0.895939
0.15279359142670537,0,0.774034
0.3496666705800014,0,0.997345
0.4494707879117469,1,0.999982
0.18603938747760856,0,0.951445
0.06017336248074393,0,0.996777
0.0884035108564014,0,0.993515
0.19668716385734208,0,0.840474
0.10344311909650311,0,0.913987
0.09473779761196345,0,0.993198
0.09515637581682548,0,0.905184
0.07559483474891504,0,0.969987
0.08378379389447936,0,0.893664
0.14395302491050543,0,0.938892
0.19083061515584618,0,0.943779
0.06703087935378968,0,0.933259
0.08400988465154867,0,0.605724
0.08944109100986125,0,0.931424
0.12318747983276251,0,0.997471
0.11445828780437009,0,0.986881
0.16462152697044735,0,0.919872
0.1939911823482969,0,0.999646
0.17875478630786218,0,0.999549
0.32500973485362294,0,0.991413
0.2193476299094287,0,0.919341
0.2186853553615765,0,0.968463
0.08702523822324186,0,0.909383
0.03744617614336883,0,0.985382
0.08970743775193421,0,0.996689
0.08900940812769578,0,0.561947
0.19051586320249025,0,0.970093
0.08933133928964988,0,0.999219
0.07343656218889665,0,0.993122
0.09435929888024709,0,0.933598
0.11766158779528081,0,0.625257
0.08958982138510452,0,0.970636
0.07044044742477282,0,0.968518
0.28716627905958375,0,0.938282
0.25584760914386345,0,0.615428
0.067864137759657,0,0.961858
0.08820799635182863,0,0.966515
0.1079936566526356,0,0.788520
0.08471230778737612,0,0.996807
0.06511790855237969,0,0.931600
0.06454083311344558,0,0.825148
0.052919224327017594,0,0.523049
0.3847850392584298,0,0.973173
0.05772717388959766,0,0.989895
0.09608054164528616,0,0.936446
0.10834406366647802,0,0.903599
0.11554020350436606,0,0.999752
0.11014112933551644,0,0.904148
0.06292621381683551,0,0.934411
0.14620119051297273,0,0.587534
0.05618993828193041,0,0.838517
0.06410584864859858,0,0.817852
0.2919902681337697,0,0.824788
0.030464096145073012,0,0.919041
0.12622411913873513,0,0.907128
0.3088781001289522,0,0.909403
0.1200755741938718,0,0.900971
0.048733236120406094,0,0.444566
0.06640094498381446,0,0.959926
0.3160235361270614,0,0.999751
0.06862333025811555,0,0.906107
0.13063027500127605,0,0.999257
0.08422888832041284,0,0.922078
0.06636966977464052,0,0.908880
0.06232573139931645,0,0.931811
0.08452687738595512,0,0.998979
0.11526169178285854,0,0.986968
0.09519719760259865,0,0.926792
0.06128687322022348,0,0.960993
0.049540457972749356,0,0.936167
0.09703990788066148,0,0.993673
0.12341414709804843,0,0.982113
0.07845021180916983,0,0.960100
0.20517514292432065,0,0.996488
0.11876696357671412,0,0.992651
0.08635250374734142,0,0.993620
0.06982190474386649,0,0.967012
0.10052964165286447,0,0.993009
0.05764804229750622,0,0.970519
0.09741168119469296,0,0.586320
0.12251761369805957,0,0.998378
0.08385922692028773,0,0.965924
0.06613295119098832,0,0.997227
0.05293919021200282,0,0.812324
0.19953454572062243,0,0.987874
0.0676510604535299,0,0.995726
0.11663272414311775,0,0.910739
0.09545262385273909,0,0.949795
0.10024171563040025,0,0.996722
0.050467568727063254,0,0.926135
0.033533130773819024,0,0.573490
0.18319618280042568,0,0.982210
0.23414394249289297,0,0.996002
0.21760630646467863,0,0.999350
0.11565026796058246,0,0.995561
0.1427964946819577,0,0.993166
0.22509718613174357,0,0.586285
0.12786785760421798,0,0.997368
0.05163404837287833,0,0.855306
0.03667495612414047,0,0.892859
0.05653967096345224,0,0.980554
0.048600471955874455,0,0.516263
0.09797689851376097,0,0.920002
0.1491425545375683,0,0.999489
0.051423924033940784,0,0.911380
0.20648986945067413,0,0.994519
0.1324649831270029,0,0.914091
0.08327097401331839,0,0.976590
0.10105437628394351,0,0.971924
0.09711739877384365,0,0.990924
0.13505586942860298,0,0.999246
0.17367303852034527,0,0.998651
0.10367089046737264,0,0.901571
0.09823591879482461,0,0.948004
0.10356063645215319,0,0.926103
0.07541068832826649,0,0.958986
0.07344382070011518,0,0.980899
0.18609828009466753,0,0.896223
0.2822675958671728,0,0.997636
0.10017717453376869,0,0.993583
0.09281919186015025,0,0.968642
0.16576671725031228,0,0.993969
0.12721040717544307,0,0.901519
0.2258445939490651,0,0.997098
0.3249003872956059,1,0.999982
0.2075154496984856,1,0.999814
0.12999571868596516,0,0.980780
0.22007518425628284,1,0.999981
0.11507972317362251,0,0.962150
0.07229876281377552,0,0.965039
0.4079180899130294,0,0.998771
0.11436027268418526,0,0.938213
0.038728581910013646,0,0.960073
0.04215278511848713,0,0.927736
0.16915791731950702,0,0.917350
0.173900840411268,0,0.497146
0.14172450531987568,0,0.782600
0.059926754118150335,0,0.918634
0.08663915752779318,0,0.474975
0.08294755162765681,0,0.985166
0.15320444809037306,0,0.997836
0.13351206524712017,0,0.940446
0.09674700057437785,0,0.519443
0.09741893218140815,0,0.999543
0.096899070690697,0,0.582293
0.15053446548701022,0,0.972748
0.3626035639535287,0,0.993641
0.4488734969748641,0,0.958581
0.5104285722015641,0,0.995658
0.09164427161867136,0,0.975394
0.11012424142926958,0,0.767336
0.1111133987117838,0,0.945659
0.09269073313051347,0,0.986717
0.17706779373905654,0,0.895553
0.08109099447219621,0,0.938437
0.09607032598213525,0,0.949168
0.10267658144622874,0,0.991110
0.07081417675809291,0,0.920209
0.05268389954252522,0,0.917330
0.047933674843424,0,0.858783
0.1354165801594213,0,0.976667
0.04331631439783542,0,0.971218
0.055448447994564394,0,0.877196
0.18372524694082581,0,0.946675
0.05251670587630629,0,0.984709
0.05420580265316755,0,0.949735
0.09161458595769147,0,0.917503
0.2250589152131445,0,0.853947
0.05113548952030847,0,0.900446
0.1227161401242211,0,0.872143
0.12719952439270416,0,0.999143
0.07398266487889335,0,0.977861
0.07238135344281096,0,0.917723
0.10887187802220315,0,0.991026
0.07644448188917961,0,0.981489
0.0664074883548888,0,0.989841
0.09658812222177565,0,0.501144
0.23824502739958306,0,0.626106
0.0817899883429838,0,0.858783
0.1070326504782919,0,0.804567
0.12198052824466284,0,0.997874
0.08435117092519157,0,0.948013
0.05881999332455418,0,0.901003
0.07497610711739576,0,0.985009
0.17639473957189947,0,0.988062
0.0859608645547314,0,0.804183
0.08652707845405304,1,0.999978
0.09340649344989689,0,0.600907
0.12111106069208062,0,0.980547
0.10530928565585984,0,0.970566
0.06707770456133304,0,0.930704
0.1326238131833889,0,0.868485
0.13624834373619313,0,0.981918
0.09388961718956983,0,0.993995
0.0765412518367668,0,0.942417
0.1679697717390862,0,0.909182
0.06770615534840957,0,0.439022
0.09500544626957404,0,0.979099
0.17075250462997302,0,0.994404
0.1620838623644788,0,0.976712
0.07208014175166051,0,0.971044
0.06077203405979544,0,0.570174
0.1695248678287177,0,0.909199
0.13769348580585475,0,0.852085
0.07403470055016774,0,0.995093
0.11125745581331434,0,0.770672
0.13060563586234444,0,0.997525
0.15477038094248685,0,0.998666
0.06654560140121957,0,0.911586
0.08564750873076708,0,0.616704
0.06719726570421633,0,0.992780
0.07849121130462214,0,0.931115
0.13336860627097027,0,0.899852
0.07418353527476429,0,0.994544
0.051031586154086234,0,0.975785
0.04336278304477634,0,0.932165
0.06402794249406586,0,0.751656
0.08201481083622249,0,0.933628
0.06397101143939789,0,0.901789
0.08760174005317464,0,0.968908
0.07106251492961763,0,0.951935
0.16696092516634814,0,0.940351
0.07764879595282123,0,0.947632
0.07749499175179381,0,0.998582
0.045154704249655855,0,0.902857
0.06810679235972009,0,0.762837
0.15031649634067848,0,0.984976
0.1839649966459117,0,0.766589
0.05412450667866864,0,0.910841
0.09552760366867986,0,0.991972
0.04920108385675129,0,0.913952
0.04683593223020179,0,0.921327
0.05995091227724604,0,0.802618
0.08001541707207191,0,0.774717
0.09213577547237468,0,0.782049
0.11485097312663661,0,0.917822
0.09941571218744283,0,0.997939
0.17334983824203354,1,0.999982
0.17477920920453152,0,0.899876
0.10666101018383294,0,0.997371
0.18108245938152395,0,0.780616
0.10697199481548456,0,0.999362
0.14302038750455556,0,0.979890
0.12409764884611879,0,0.934385
0.09226115317811513,0,0.997931
0.06474524961273904,0,0.976791
0.20494793434482636,0,0.999801
0.0995204019026114,0,0.989691
0.09598779675727791,0,0.611925
0.0939954364784231,0,0.612972
0.07536711675135192,0,0.500820
0.095706236712577,0,0.939627
0.05986718409702517,0,0.973083
0.0854537172133365,0,0.963772
0.1126911140468822,0,0.925610
0.06799840837950781,0,0.916200
0.07706064624702769,0,0.935888
0.112408048752698,0,0.613480
0.09718855792859693,0,0.910002
0.0733514531682564,0,0.966301
0.09418418891879925,0,0.969801
0.05992651411303809,0,0.935710
0.051002045743235455,0,0.995868
0.09230385639468994,0,0.803744
0.12120180205520185,0,0.457673
0.047634374022122325,0,0.922739
0.096003813081281,0,0.969467
0.10265649042678957,0,0.969312
0.0961348426111898,0,0.936532
0.08442190127473473,0,0.931084
0.0833204903581813,0,0.877125
0.06864914783484659,0,0.794522
0.07329053306611241,0,0.608657
0.1078547678680211,0,0.989612
0.11571307927231955,0,0.998051
0.10768956127195586,0,0.999425
0.12158757727030443,0,0.969802
0.08421322299861181,0,0.975624
0.13954912296837862,0,0.915320
0.1606998571120319,0,0.923582
0.12278278814696629,0,0.903319
0.4370713006798308,0,0.946545
0.3927493557379954,0,0.994390
0.22294447936060832,0,0.997252
0.0978585529257785,0,0.997541
0.07654867197949511,0,0.646168
0.05855337606159019,0,0.985951
0.0965034947608056,0,0.933577
0.09928564315161445,0,0.975420
0.09120198829752654,0,0.942482
0.05738382449828658,0,0.996606
0.0654036221604178,0,0.953086
0.04926934727856229,0,0.665072
0.06326428985468062,0,0.757654
0.06352668776620024,0,0.774953
0.058190188369372446,0,0.990859
0.06877837082551734,0,0.779285
0.04071041488810853,0,0.734831
0.05338809320204886,0,0.878034
0.06141960162939244,0,0.950261
0.07283628814231478,0,0.516999
0.06267918811855541,0,0.727277
0.027862999019336178,0,0.775504
0.060916412245280445,0,0.791034
0.05903583032583669,0,0.947727
0.07015775783000396,0,0.909123
0.05146447249946736,0,0.944448
0.0456260085994791,0,0.760496
0.029151254084023484,0,0.794462
0.05523844902744458,0,0.994890
0.055424342830412414,0,0.755680
0.0862001228634836,0,0.943914
0.04546644013518797,0,0.939013
0.05539871636928787,0,0.457773
0.03504228519540507,0,0.950900
0.05411606247219801,0,0.935640
0.06397348470790537,0,0.935401
0.05835725727331148,0,0.850292
0.05336416504084404,0,0.977526
0.08276297034959355,0,0.758570
0.05592088754718069,0,0.837775
0.04259949169752417,0,0.938561
0.055358758332254725,0,0.988244
0.041610231705418624,0,0.536652
0.06144541687853183,0,0.946702
0.06443546006458407,0,0.992644
0.05871965750419067,0,0.783603
0.06400156152638711,0,0.921992
0.0707878961889007,0,0.593565
0.03931222809833606,0,0.894188
0.07374054772154355,0,0.786804
0.06599085360694057,0,0.979681
0.06876619666754756,0,0.858848
0.059646849590011694,0,0.987555
0.07649141118971263,0,0.948574
0.08977781050617352,0,0.900370
0.0806042065308659,0,0.982384
0.027950280186275205,0,0.882520
0.05006261117162944,0,0.997857
0.06935182134080259,0,0.885849
0.08341766517086054,1,0.999825
0.07437562850844166,0,0.936283
0.10509509743820075,0,0.826723
0.13519767403335572,0,0.956515
0.05881816275126234,0,0.996118
0.07349059195670231,0,0.532598
0.05593870678645267,0,0.930477
0.06061066382621183,0,0.999139
0.04468511687049906,0,0.964493
0.10152539382311583,0,0.918444
0.05855850622131673,0,0.979472
0.045961811637021746,0,0.769013
0.18448740198202238,0,0.897256
0.05633341362952188,0,0.609409
0.042222944075514385,0,0.951942
0.17893963250059705,0,0.982175
0.051814270269375316,0,0.848146
0.18072633351871564,0,0.850902
0.19209552533967514,0,0.836747
0.03965652292519367,0,0.980246
0.07024693809578651,0,0.829341
0.0782466784624738,0,0.977135
0.06200293461567799,0,0.915633
0.06688170585710211,0,0.984595
0.06332327746165126,0,0.713993
0.11723812166190192,0,0.989948
0.16979578382315244,0,0.999302
0.15639116021926938,0,0.954388
0.13471797566647534,0,0.764940
0.061679316832400945,0,0.922877
0.07754564987706875,0,0.984188
0.05985401536908013,0,0.745417
0.26358584701542764,0,0.741230
0.2529009380422179,0,0.939034
0.06637878839202581,0,0.990814
0.06565000912640488,0,0.905883
0.11266085169870585,0,0.970989
0.2065646165788479,0,0.927730
0.11095382475598495,0,0.919096
0.07242736798730282,0,0.904762
0.07503761281819273,0,0.955725
0.08839420502956005,0,0.931506
0.10094542685564063,0,0.967934
0.0987848941102479,0,0.937289
0.0819412898031169,0,0.994207
0.10168024077099377,0,0.865429
0.09755785031147744,0,0.839457
0.1093840704375038,0,0.992944
0.11308718918502174,0,0.772616
0.06795870645471631,0,0.996975
0.11078366739538748,0,0.930157
0.1191339001508506,0,0.879830
0.08532898583874146,0,0.943969
0.063715040259759,0,0.900557
0.15355711376706213,0,0.905238
0.13810933569161973,0,0.872322
0.10961957262870263,0,0.941490
0.1362615368262766,0,0.911657
0.11861200161540765,0,0.995942
0.15213474351421755,0,0.586683
0.08263269973703755,0,0.622314
0.11443221139167321,0,0.514622
0.14957745595864685,0,0.926766
0.14894484078176026,0,0.989484
0.10583362248626405,0,0.969768
0.07145438990638814,0,0.927076
0.12266129639253005,0,0.854522
0.09722561310653725,0,0.979145
0.13403570245587512,0,0.908128
0.10535473050872438,0,0.980999
0.10471326400211428,0,0.810016
0.08967582027789699,0,0.971306
0.06873181133481919,0,0.880684
0.0497036460187715,0,0.629361
0.10684444845202995,0,0.882919
0.125650600834287,0,0.921376
0.37934450061178254,0,0.985673
0.15806375889181062,0,0.987252
0.10927001144969903,0,0.968698
0.09441784435904496,0,0.961143
0.21231114171607093,0,0.913025
0.09208674626609363,0,0.984914
0.1514035709203269,0,0.997355
0.1228147259533676,0,0.969987
0.07978380127339041,0,0.985754
0.09619601372796295,0,0.984083
0.07531175721865879,0,0.970380
0.1885011983170764,1,0.999824
0.1582756933428892,0,0.911017
0.10019214193008735,0,0.991506
0.0743102704691509,0,0.880732
0.07958420151567294,0,0.973929
0.10453134652030792,0,0.999089
0.09791470966078795,0,0.482461
0.09884240252252459,0,0.864197
0.06866888823771493,0,0.791815
0.0795150679316799,0,0.794574
0.11741984889065792,0,0.893320
0.12771327015616957,0,0.970842
0.08317665617920982,0,0.877460
0.10363578729615222,0,0.858712
0.0875122999413184,0,0.615637
0.11965197484241877,0,0.942662
0.08279928706488668,0,0.918964
0.12110395633967459,0,0.801629
0.1382206971239105,0,0.539139
0.11045151415846491,0,0.997719
0.0700061778557967,0,0.787875
0.04627412779035492,0,0.862845
0.12503489324616368,0,0.960585
0.14297768172955888,0,0.999226
0.04896210249320749,0,0.999247
0.11758583032193905,0,0.973552
0.11107345175712664,0,0.862877
0.08829029877912117,0,0.996506
0.09916199573634057,0,0.802731
0.09618235843739943,0,0.960681
0.1104832844372288,0,0.924676
0.11195183411258672,0,0.994916
0.1340322449667479,0,0.651191
0.10145252532003501,0,0.919663
0.08410128571631904,0,0.809212
0.14518216420236282,1,0.999981
0.10389835196626822,0,0.958109
0.10369385832787126,0,0.920952
0.10279467729306074,0,0.985352
0.061224816652036794,0,0.795575
0.18247100059664717,0,0.997258
0.14467881418437686,0,0.901760
0.12150509146588147,0,0.982138
0.1492900744259835,0,0.672450
0.09632079768808416,0,0.991863
0.1057942029768851,0,0.899180
0.11932155129964112,0,0.869746
0.09014106891197098,0,0.912452
0.0992454309816119,0,0.906574
0.06209184280407123,0,0.998893
0.13170510084522932,0,0.900976
0.10784641071426809,0,0.960470
0.13349038853797932,0,0.998659
0.14117328159838768,0,0.951593
0.13174307227709584,0,0.986570
0.10754202008978621,0,0.999569
0.20460984671735283,0,0.948912
0.15207940997937244,1,0.999788
0.13248595855536338,0,0.984197
0.14277506987114305,0,0.957723
0.18635592087424813,0,0.910505
0.08669290529988159,0,0.977275
0.09644920702761059,0,0.995902
0.0659388338841948,0,0.996826
0.13354869886235052,0,0.963223
0.1536736846117944,0,0.982041
0.16594702420559157,0,0.914439
0.17324112141894446,0,0.967516
0.11081060107249883,0,0.912190
0.09932942204743604,0,0.997046
0.17914779014609394,0,0.999115
0.17763457933690602,0,0.999294
0.20311696304562357,1,0.999963
0.20332813374517467,0,0.734756
0.15179688558698512,0,0.995355
0.19876073672631434,0,0.999234
0.3653885812609149,0,0.968309
0.6084705632051243,1,0.999961
0.7727537611850701,0,0.949104
0.8580178280884122,0,0.947616
0.5782334459485796,0,0.999396
0.25634161756631524,0,0.863369
0.09029063301595071,0,0.816177
0.07859731431828604,0,0.998872
0.08725567833588536,0,0.476500
0.07574860773009749,0,0.807741
0.060022309148239535,0,0.998290
0.0641297250762032,0,0.981866
0.08360083438075384,0,0.764709
0.08984089545161632,0,0.971195
0.09060319338322839,0,0.715316
0.06955985423477556,0,0.945651
0.07059477763379428,0,0.995884
0.07098909176642665,0,0.982556
0.06533194477223264,0,0.771102
0.0947042788052864,0,0.991665
0.10059078742169014,0,0.874037
0.09780943942067202,0,0.999554
0.1434251631071381,0,0.920797
0.13772006741538653,0,0.999772
0.12426109212182916,0,0.927701
0.08406683392321511,0,0.902850
0.050288291994369246,0,0.594969
0.0787953129472299,0,0.993634
0.06500224359007734,0,0.769379
0.09556971798127006,0,0.766195
0.09775111909100477,0,0.646823
0.07868090186085464,0,0.914451
0.04075892000404898,0,0.994579
0.07187535683877876,0,0.982081
0.08091356977839512,0,0.756618
0.07677389946209096,0,0.980114
0.0804276808892699,0,0.629912
0.08859246020404647,0,0.597007
0.08905802820828645,0,0.993215
0.04664740188025918,0,0.969939
0.016348742245137403,0,0.974622
0.061412813339672946,0,0.521258
0.04475571315371487,0,0.893229
0.07741739757417813,0,0.986434
0.06521766367448066,0,0.979274
0.04387140325574918,0,0.764436
0.03769065170374921,0,0.991146
0.024504037946530582,0,0.868240
0.04960035681566676,0,0.880826
0.05022032041184158,0,0.918313
0.02807505614311757,0,0.832457
0.08011360704517431,0,0.949838
0.042719439877099426,0,0.975906
0.08264255974112303,0,0.901298
0.05223595829421198,0,0.766997
0.09442587540200036,0,0.352600
0.05362614562353897,0,0.964282
0.049361042252878864,0,0.962746
0.07911157266379587,0,0.607559
0.07892185416703015,0,0.847989
0.06542817557957023,0,0.976022
0.06191652904946373,0,0.977856
0.10417692414466502,0,0.931308
0.0579911942616795,0,0.904310
0.06523953622848931,0,0.995172
0.0922207056241355,0,0.894769
0.07142927053478203,0,0.429850
0.05074543636744519,0,0.912983
0.1001411038628523,0,0.853749
0.07611747381384906,0,0.988390
0.09697427961690397,0,0.496826
0.08618232616991138,0,0.798394
0.06463286523467543,0,0.933907
0.07393100312012026,0,0.985548
0.025909015093497578,0,0.963543
0.07123685757604016,0,0.896118
0.0685403441400311,0,0.473546
0.04541322439654652,0,0.976608
0.04966089252265438,0,0.976221
0.018786190780423935,0,0.975638
0.06270790702321657,0,0.716021
0.09157592786868575,0,0.873560
0.07906990679327008,0,0.820556
0.04501788700266277,0,0.921018
0.03205144480272339,0,0.542288
0.048734788405978245,0,0.852866
0.03258939460306395,0,0.963363
0.08345443979866789,0,0.898209
0.08818309548350062,0,0.909629
0.036197683705013556,0,0.930068
0.03572990499486372,0,0.944765
0.06082770978917601,0,0.999739
0.05187568732349985,0,0.984563
0.040375468953076546,0,0.962643
0.09499086312737373,0,0.968801
0.06803406648483849,0,0.586481
0.14520104186046592,0,0.988169
0.11667396172944951,0,0.908998
0.08981809719698035,0,0.747012
0.0711939449799038,0,0.381754
0.06494063612993614,0,0.998298
0.08390379652016473,0,0.933129
0.09165442375751569,0,0.866997
0.035247357254460716,0,0.968916
0.08655235739319898,0,0.885573
0.1007754193624455,0,0.907647
0.07806913288310129,0,0.993484
0.0763219136155351,0,0.988793
0.12271281994918051,0,0.873901
0.05762973515663417,0,0.486356
0.03773845546403739,0,0.979670
0.08982726122890672,0,0.983043
0.052979344801877916,0,0.995749
0.05405803798760445,0,0.961180
0.06403346513801866,0,0.988912
0.020288568950668714,0,0.906194
0.06097695030787904,0,0.984401
0.08484863501001733,0,0.915176
0.08265034477007088,0,0.929213
0.09095745436613903,0,0.973187
0.11236711940557687,0,0.741858
0.02370590213528718,0,0.964733
0.10963081983031582,0,0.930313
