-0.004997688856567985,0,0.738884
0.0019123880303054468,0,0.780736
0.1744868759182343,0,0.428346
0.15706103132391425,0,0.844236
0.1559411972447975,0,0.840862
0.14404072178431535,0,0.846317
0.14471643878004609,0,0.640278
0.24189714485209393,0,0.402811
0.13121507900175836,0,0.981222
0.5790812968823263,0,0.555097
0.5857268125275218,0,0.636517
0.7162494816642961,0,0.580841
0.7153647716239243,0,0.757662
0.7140439734283865,0,0.762332
0.18635056087416046,0,0.553814
0.18616983226009357,0,0.569695
0.5753570794182944,0,0.970125
0.28854613436651927,0,0.975747
0.12130685568795527,0,0.924830
0.11985797070796529,0,0.978542
0.060675919167599006,0,0.854597
0.40727842274232484,0,0.933862
0.15581719189349547,0,0.885749
0.40616984916567916,0,0.915922
0.4031455666476295,0,0.919657
0.1800343154792706,0,0.817261
0.17975822204079278,0,0.908890
0.27369691269981844,0,0.446890
0.09931894459029396,0,0.963142
0.1101374311591018,0,0.964679
0.10984184032938414,0,0.995945
0.33770955394982743,0,0.998895
0.33671792318983856,1,0.999981
0.33408234761065325,0,0.948903
0.13091348672431571,0,0.854424
0.10229489068558291,0,0.745279
0.3477023215095635,0,0.980882
0.4280204423590661,0,0.974563
0.47019611566334624,0,0.983918
0.4691496971077764,0,0.992913
0.03994099963987752,0,0.736350
0.13777738173838358,1,0.999967
0.13769857088234258,0,0.952014
0.21074817839530885,0,0.964700
0.20524251025117235,0,0.903305
0.20491181016707744,0,0.914980
0.06174151823056536,0,0.974787
0.33218203144536435,0,0.817525
0.3777981282267842,0,0.981683
0.3180713650082283,0,0.936459
0.08785896615639806,0,0.997327
0.1989063495125559,0,0.997027
0.501593265985404,0,0.995910
0.1706491507705807,0,0.983996
0.21106839078428416,0,0.997468
0.6041464224274472,0,0.999456
0.07072379283837277,0,0.956600
0.07262569622215663,0,0.997312
0.07700435495488775,0,0.708256
0.12122153741693022,0,0.928131
0.13857626870070502,0,0.982224
0.08125561990239422,0,0.961687
0.08200886158284057,0,0.967716
0.0754387833014768,1,0.999980
0.09045145254535215,0,0.962555
0.0904064283815447,0,0.789573
0.08216167463993619,0,0.579563
0.05388944987813241,0,0.563209
0.05387357324221301,0,0.476479
0.08139183560831137,0,0.984766
0.256791259869704,0,0.960192
0.2873972219478712,0,0.917568
0.3025399987738736,0,0.982033
0.30339997571221433,0,0.999750
0.40548842293549525,0,0.990196
0.3065695501449138,0,0.999342
0.5960684375263571,0,0.999638
0.6031279394811956,0,0.998878
0.14905139230537107,0,0.987360
0.1689417576367739,0,0.969445
0.19687303712172444,0,0.998960
0.2046038874513735,0,0.974738
0.11513685911755638,0,0.976712
0.05578098255892646,0,0.998457
0.25873532023311424,0,0.998661
0.25861289980565716,0,0.986160
0.2584766128045854,0,0.993256
0.0488332646660587,0,0.991573
0.1305541882922383,0,0.125699
0.12549883455372815,0,0.958698
0.011226704744744806,0,0.349784
0.02268370627221315,0,0.966223
0.02767394114952246,0,0.292346
0.027665963451369263,0,0.973951
0.01578044697853312,1,0.999958
0.0078007413733999385,0,0.264693
0.13784395548172584,1,0.999937
0.037877044233040495,0,0.997985
0.03787429418900294,0,0.542256
0.17464284993581683,0,0.533141
0.02997928885432975,0,0.455530
0.1250864346116375,0,0.990545
0.06834428482429339,0,0.956396
0.21015476448956924,0,0.935772
0.11766904831774598,0,0.877616
0.17449455473740705,0,0.805731
0.056346288932034284,0,0.965084
0.08522484188285076,0,0.857960
0.03243683526626097,0,0.848908
0.2718436144171215,1,0.999945
0.3285774265671456,0,0.976102
0.11087095652340713,0,0.994112
0.17881210912858056,0,0.981302
0.20124606421073862,0,0.991855
0.09495715147940863,0,0.988593
0.17449289112795033,0,0.972547
0.20077503740538788,0,0.986075
0.19967343168642127,0,0.985391
0.10978168628427476,0,0.971953
0.19141306099607608,0,0.985566
0.2824735992371569,0,0.978461
0.077376486407676,0,0.990932
0.22842368217132186,1,0.999916
0.25859808042079474,0,0.992626
0.10228600098293304,0,0.984644
0.1931574567812412,0,0.973456
0.2165314439366621,0,0.994327
0.2147705231683552,0,0.997707
0.33423220295317185,1,0.999912
0.25385276505183574,0,0.969717
0.4224900025972217,0,0.981779
0.13098085819196778,0,0.995837
0.0549730241352932,0,0.997343
0.29162993943634413,0,0.989656
0.3064507634515364,0,0.985583
0.19431974627557821,0,0.970736
0.12579513359948655,0,0.991132
0.11223703337427393,0,0.969948
0.19979170067053872,0,0.985120
0.1928425828339322,0,0.998011
0.2560450787229076,0,0.997662
0.2750771112689759,0,0.995888
0.4553045086472022,0,0.974581
0.5117098197935598,0,0.982575
0.4279053585009514,0,0.991125
0.4035067768540056,0,0.996717
0.3602646374396219,0,0.998436
0.3881547619693703,0,0.983051
0.40686608686390335,0,0.995595
0.4261012401782589,0,0.984888
0.4254228310851476,0,0.999532
0.4475281444473228,0,0.999745
0.4512757127621231,0,0.979422
0.4587151443559302,0,0.991965
0.0763701826449032,1,0.999949
0.03330468734803118,0,0.983745
0.05036156631614742,0,0.985440
0.008042950597442618,0,0.992045
0.008985734808231541,0,0.999621
0.022243929247871483,0,0.998667
0.1082135875727029,0,0.998119
0.12309241721392367,0,0.996210
0.12508185622377907,0,0.982340
0.3710410921308542,0,0.998994
0.2999486353920601,0,0.971056
0.2942808182115523,0,0.999427
0.375643607393291,0,0.975919
0.4105331149529028,0,0.976171
0.24840978603583774,0,0.979741
0.3917501878402752,0,0.978618
0.05953742959293408,0,0.988913
0.014791877012183529,0,0.994665
0.01292075952549482,0,0.997947
0.0026735863618781385,1,0.999976
0.007464336246829634,0,0.999679
0.014334420920161236,0,0.999149
0.05086186326105457,0,0.987588
0.05085942237030279,0,0.994076
0.05085705719428518,1,0.999854
0.06892931755675316,1,0.999955
0.5570283535178253,0,0.999749
0.33082309543095667,0,0.992206
0.3842448613762592,0,0.999350
0.337478773212097,0,0.977675
0.27651150253926876,0,0.991730
0.27648220421118885,0,0.990349
0.2765319707750608,0,0.995639
0.2767566121249491,1,0.999905
0.012180546565111987,0,0.983801
0.012179986075001856,0,0.993959
0.012403252586056467,0,0.990610
0.06498936781423519,1,0.999979
0.16600052948646382,0,0.993201
0.23106255094916223,0,0.998291
0.2616571642180562,0,0.987618
0.33918218944287903,0,0.983540
0.2492671286697749,0,0.999605
0.2628837600768439,1,0.999895
0.2801392648657926,0,0.996711
0.24702345528091446,0,0.999799
0.3496559875963346,0,0.990496
0.3619251169201023,0,0.994796
0.41529632290238716,0,0.996204
0.508436800059247,0,0.999752
0.5321049546156391,0,0.999369
0.22196407674899182,0,0.995625
0.5593664619052474,0,0.999269
0.6740234707952977,0,0.998691
0.2911804301191742,0,0.997364
0.38166486338564215,0,0.997838
0.5567914930248473,0,0.984088
0.568519101167912,0,0.990839
0.29851348034542285,0,0.997922
0.2857982405670172,0,0.969045
0.4322357284151605,0,0.997673
0.4495999520556855,0,0.984269
0.2533733619670397,0,0.996221
0.3006509445589449,0,0.994790
0.3494458984408607,0,0.997677
0.3925114755080242,0,0.993362
0.3915794653454701,0,0.972285
0.4294570268972049,0,0.999038
0.4725036909178613,0,0.983417
0.07303343509101087,0,0.991117
0.4059952349242547,0,0.994495
0.3234066332560286,0,0.993488
0.3795274710835475,0,0.995787
0.6591477183896207,0,0.998051
0.47525049439222394,0,0.993311
0.4033421398557164,0,0.991849
0.4381278053374849,0,0.998776
0.46482415586430487,0,0.977944
0.467494374095573,0,0.979194
0.038914604487423864,0,0.991541
0.12311363226191217,0,0.985542
0.1393589312171304,0,0.990610
0.13963254948064924,1,0.999828
0.20962199595573588,0,0.992995
0.11587510108409049,0,0.990832
0.11601014010254634,0,0.995222
0.0832149946361547,0,0.979818
0.12138452012246728,0,0.990802
0.13152630075906463,0,0.998981
0.002006988844439087,0,0.997392
0.0017020949788314878,0,0.998625
0.001701756778066702,1,0.999973
-5.9377265228333725E-5,0,0.996063
0.0334313315353251,0,0.998255
0.035539500381299535,0,0.993254
0.023182885376593177,0,0.994397
0.026417003242316852,0,0.994105
0.047102758886589643,0,0.996124
0.03860711460355087,1,0.999925
0.049611515286191565,0,0.997255
0.018230360808817295,0,0.993248
0.024006902792583103,0,0.995581
0.026229462708598793,0,0.999130
0.032882046828232515,0,0.990687
0.037067985243469645,0,0.991345
0.031454704429885245,0,0.994744
0.035868469042805835,0,0.997763
0.035875052601330754,0,0.998119
0.012085066687509244,0,0.998915
0.002703508399705868,1,0.999971
0.004167548680095279,0,0.994807
0.04081030370029113,0,0.999388
0.004340624595277755,1,0.999749
0.009097128992139185,1,0.999832
0.0018230548199211609,0,0.999396
0.027760229891856354,0,0.992820
0.01469420438331142,0,0.987443
0.04048967924390458,0,0.996907
0.049198272202842175,0,0.970025
0.08648834158021687,0,0.989640
0.010511291512341358,0,0.984240
0.04269429955949751,0,0.988722
0.03223548877385153,0,0.999218
0.05236427136314675,0,0.997501
0.07586322941378089,1,0.999959
0.018219982915716013,0,0.990342
0.06011912252134388,0,0.999548
0.074614627806375,0,0.996752
0.02261037133550726,1,0.999924
0.06694720009474811,0,0.989301
0.04029897143672417,0,0.999172
0.019038588264571416,0,0.964422
0.09553485689326777,0,0.971437
0.08438078550519676,0,0.967258
0.10514838847017823,0,0.999633
0.07568737970895126,0,0.996475
0.04336424436701753,0,0.996048
0.08340264729486886,0,0.998465
0.11141771378849966,0,0.997484
0.1610029749977153,0,0.957433
0.16809030273825304,0,0.977240
0.022469786071427272,0,0.995213
0.18659317021299063,0,0.969746
0.22897677412088185,0,0.997943
0.25014389157037514,0,0.995122
0.2868179063818317,0,0.962930
0.3156058104918478,0,0.960298
0.3751365161950326,0,0.995647
0.3802576052786897,1,0.999983
0.4035388499107162,0,0.987933
0.17307501495301159,1,0.999830
0.21430835872777,0,0.964738
0.25520925543309103,0,0.991051
0.4607149355399048,0,0.976636
0.49372242499023333,0,0.998483
0.5056099547313808,0,0.992004
0.518942597024056,0,0.968163
0.5180834375809983,0,0.999270
0.552600825131124,0,0.998613
0.11590800132528452,0,0.992176
0.5280922558898639,0,0.992392
0.5672899356359405,0,0.997055
0.5794266833196317,1,0.999860
0.6174773702170918,0,0.965673
0.6359997803153664,0,0.958203
0.6602320793084543,0,0.952855
0.6799981452966508,0,0.997435
0.7044409234463707,0,0.999229
0.7034127594767524,0,0.998738
0.7272208533164751,0,0.958944
0.277529241061889,0,0.998229
0.7273642565638686,0,0.995860
0.7438791376353009,0,0.950086
0.7604928767369235,0,0.998568
0.7831919996999472,0,0.989901
0.7850465112245613,0,0.965436
0.17981541433140635,0,0.990973
0.18950020669935658,0,0.999623
0.18055636868955496,0,0.996050
0.23369060696781357,0,0.999157
0.33241726320448767,0,0.995661
0.3500321913544093,0,0.973899
0.35167366656038146,0,0.962388
0.4313471651994122,0,0.973797
0.42501062415787944,0,0.993331
0.4546821878184939,0,0.992911
0.5453439343702884,0,0.974749
0.21168516573896645,0,0.996043
0.27680838060452856,0,0.996749
0.3042628855414847,0,0.976521
0.5544631975509262,0,0.968900
0.4656126935409247,0,0.999049
0.42849772158255467,0,0.975522
0.43808629640446745,0,0.996997
0.4418570655491787,0,0.997354
0.5343382207832209,0,0.996008
0.3887537591983228,0,0.998389
0.13928778744051237,0,0.997201
0.4660766979614379,0,0.994398
0.40638394545419904,0,0.999786
0.4905354062997312,0,0.998961
0.4669210559768712,0,0.995620
0.5092330635186356,0,0.996385
0.4263100343863858,0,0.994117
0.3983664698048713,0,0.983823
0.4515345293207263,0,0.998859
0.43103059350973066,0,0.997959
0.5285548263168113,0,0.999021
0.5042026531870056,0,0.987010
0.4777601644393948,0,0.999210
0.5117146326270696,0,0.997594
0.463641249388255,0,0.994948
0.5049209116170655,0,0.997237
0.5486833949571024,0,0.997314
0.525365514758963,0,0.999099
0.4605614660786277,1,0.999919
0.5864941288359822,0,0.998722
0.6291444247588525,0,0.999071
0.5331206872470566,0,0.998836
0.5375045741388834,0,0.997143
0.5594763424154048,0,0.997064
0.5412632690570809,0,0.998103
0.6122171050427614,0,0.999801
0.5301929010697293,0,0.941349
0.5195785951931587,0,0.941964
0.5697763318533297,0,0.944435
0.6068460315095732,0,0.945026
0.6168610529374484,0,0.999479
0.5057976631174033,0,0.998610
0.46825014007738924,1,0.999918
0.276986835954593,1,0.999984
0.5525386861456465,0,0.953897
0.4345881311033054,0,0.953583
0.43197587592571385,0,0.999427
0.4201100224222972,0,0.999688
0.519362075513032,0,0.999406
0.4944887507411911,0,0.992032
0.582577524152983,0,0.990914
0.5825283095737372,0,0.995256
0.5825033071111982,0,0.982348
0.23533190611866062,0,0.992415
0.24823971946756404,0,0.993582
0.2743310311825088,0,0.997956
0.20995680127914151,0,0.991162
0.21568272700296195,0,0.996819
0.2912598753067254,0,0.995166
0.2721233073378648,0,0.956217
0.2745553649999726,0,0.996316
0.26600424374342885,0,0.998786
0.2786715312143223,0,0.996971
0.06840339658270753,0,0.997712
0.048724973743825194,0,0.997191
0.0816480863013758,0,0.992454
0.08165245105823042,0,0.992013
0.2899238479615154,0,0.965024
0.30441863582264067,0,0.997590
0.32752607521442006,0,0.961287
0.4125583395629672,0,0.997979
0.17408143072177687,0,0.988525
0.3397562518738614,0,0.995234
0.4871535229771945,0,0.996051
0.4283094139262385,0,0.994388
0.5773011736902749,0,0.999787
0.6280570701030858,0,0.997512
0.028393796271793222,0,0.999795
0.03104652856705962,0,0.997275
0.04797824637000872,1,0.999982
0.05257346933239501,0,0.996566
0.04337712953214495,0,0.997589
0.04663538811501173,0,0.999686
0.05480946535890156,0,0.999559
0.05698326359855685,0,0.996097
0.07550140903362677,0,0.996934
0.07644796804776247,0,0.999483
0.10400105162773306,0,0.996754
0.01815369569146714,0,0.993821
0.18630929952868272,0,0.991387
0.07143052359448865,0,0.996841
0.08046616019370899,0,0.997447
0.21377827936944205,0,0.988875
0.2200138044787317,0,0.996525
0.2200377734555008,0,0.995691
0.18645314072726,0,0.998751
0.26289893483211546,1,0.999949
0.27299179820040803,0,0.991594
0.3067345041158799,0,0.985706
0.2125026896964265,1,0.999966
0.18839859275992266,0,0.984715
0.3275213068328216,0,0.996504
0.3275246463944899,0,0.995581
0.08388031352552681,0,0.998555
0.014198252353200495,0,0.998397
-1.0896137439343138E-4,0,0.999296
0.005573697725515308,0,0.995676
0.00497706467733008,0,0.999237
0.0183285112100294,0,0.999003
0.012071281970454982,0,0.994009
0.01689065627248752,1,0.999850
0.024128981734814113,0,0.996112
0.028235097851606685,0,0.988076
0.039436393477721855,0,0.992150
0.03842575396930697,0,0.991758
0.07280805234013134,1,0.999982
0.11628680580403396,0,0.988297
0.12324704414934438,0,0.985600
0.13945692858428563,0,0.985832
0.12379474153747233,0,0.988524
0.15217959386482882,0,0.987924
0.1600472031520069,1,0.999821
0.16774325914192356,0,0.988735
0.19489583036809355,0,0.988568
0.19476693740303014,0,0.992432
0.008044587201755106,0,0.996844
0.04944460521660789,0,0.993024
0.01820052641274288,0,0.993778
0.04351824773358705,1,0.999801
-5.762509871770131E-4,1,0.999940
0.01779077200080679,0,0.998234
0.026336196495985734,0,0.994330
0.02497938020432424,0,0.996559
0.03202718024358449,0,0.983739
0.04062347494440925,0,0.986750
0.04365111405217823,0,0.982767
0.07686711669264636,0,0.992614
0.05640261099250686,0,0.984210
0.04137797518355891,0,0.973922
0.038046807765039194,0,0.978282
0.04015964718307475,0,0.999602
0.0025983236923638004,0,0.980058
0.010590990046266274,1,0.999835
0.015391676521439747,0,0.992556
0.01421215924588598,0,0.998231
0.01795806881412043,0,0.991128
0.014723484127604857,0,0.984125
0.01906980423811561,0,0.989011
0.016465814816260076,0,0.979787
0.0160436580386466,0,0.995446
0.016175323097043517,0,0.975564
7.205161466907137E-4,0,0.977496
0.02023232786339777,0,0.996613
0.010734583844826348,1,0.999980
0.004601903546721833,0,0.977476
0.04159410875247805,0,0.992100
0.059865657499944644,0,0.958505
0.009661432817639414,0,0.992795
0.017864607351021234,0,0.998159
0.019771523225008372,0,0.992988
0.0025795368015779094,0,0.999599
0.011104351548647832,0,0.998883
0.01762278781749218,0,0.995108
0.020763100438374815,0,0.996419
0.024344923223411433,0,0.993555
0.03563401545739012,0,0.998952
0.035013878570899,0,0.999720
0.04382772133669203,0,0.994709
0.04934179313971033,1,0.999849
0.05234981222749354,0,0.977341
0.06242799831667818,0,0.994539
0.054003475873862596,0,0.993783
0.06444676718746153,0,0.996018
0.0313303684031507,0,0.999246
0.050878345189580364,0,0.999120
0.0019399436414103916,0,0.996618
0.06687058754842144,1,0.999981
0.07148143952034325,1,0.999881
0.0673152676098696,1,0.999869
0.08195231246664908,0,0.953999
0.08700925982055216,0,0.999643
0.09290115593119483,0,0.999641
0.10979305079432476,0,0.947407
0.11626588633979582,0,0.999539
0.12962577787514262,0,0.952356
0.14128968806847203,0,0.966200
0.154575848250018,0,0.999553
0.14532952233014285,0,0.994692
0.07932947483010838,0,0.999438
0.16283765593441632,0,0.949047
0.16701858256801205,0,0.999229
0.1745465192356843,0,0.999424
0.17788599771093502,0,0.968663
0.1869271607357707,0,0.998976
0.19270643795223155,0,0.963907
0.200675377605308,0,0.999499
0.20657213873594438,0,0.984304
0.21308875368116972,0,0.952235
0.2186768036096773,0,0.984349
0.22561108541104705,0,0.952030
0.23033146563969933,0,0.952063
0.23165779807625947,0,0.997420
0.23165663081116897,0,0.991196
0.014993998142892996,0,0.990025
0.020302688154460423,0,0.998789
0.027250688929593744,0,0.996207
0.031239239921932605,0,0.975848
0.03213699942659552,0,0.974980
0.05870415759997168,1,0.999856
0.04140580222398641,0,0.996743
0.050537998024125466,0,0.999261
0.09198104102461482,0,0.972466
0.09321682642744888,0,0.998763
0.016388613789232936,0,0.990789
0.0045486281256794155,0,0.993292
0.075117554636488,0,0.958306
0.0499906065488901,0,0.994966
0.05661724493465888,0,0.999298
0.07339693113733234,0,0.969751
0.08705650989704958,0,0.994479
0.1064618689263559,0,0.995405
0.08959635587396154,0,0.992988
0.10453339713713874,0,0.999805
0.11997238752754492,0,0.999224
0.07065426063487573,0,0.989900
0.0755673990697793,0,0.994526
0.0903008322989296,0,0.986049
0.1142735979286114,0,0.962446
0.12098691091282408,0,0.964346
0.12386848181779006,0,0.979050
0.1024505713383964,0,0.988404
0.18985501824912102,0,0.992646
0.15681659759499136,0,0.985486
0.11434989668925791,0,0.987062
0.11500479155893648,0,0.988524
0.14418264411441561,0,0.979529
0.1950690789140306,0,0.999432
0.19474546021884673,0,0.991374
0.08621167082656686,0,0.986693
0.1377730659302889,0,0.979147
0.11170882224025265,0,0.985318
0.14692726479406593,0,0.982881
0.1424633203694495,0,0.996174
0.19339695399552603,0,0.982047
0.17788739811121212,0,0.992821
0.15910213464212972,0,0.992373
0.185467729255661,0,0.986613
0.2102253080185347,0,0.983590
0.21163348537903676,1,0.999932
0.21920792566643155,0,0.979165
0.2664205154826274,0,0.999059
0.2343253026626734,0,0.964403
0.23743230809113963,0,0.992233
0.2383475850440274,0,0.989509
0.2767837215085838,0,0.988711
0.2684334267601427,0,0.980677
0.28736464093977476,0,0.973690
0.2815909739377441,0,0.989938
0.3266794121249939,1,0.999983
0.2480722995641424,0,0.999783
0.26642460718399846,0,0.988132
0.28996920170352164,0,0.998331
0.2621010659380398,0,0.988892
0.18843543393082987,0,0.998267
0.24867821144124394,0,0.990682
0.33656049206844046,0,0.989241
0.33223675467835856,0,0.992964
0.3846618415096608,0,0.985825
0.34879819959815217,0,0.979564
0.37526809124542904,0,0.990248
0.3678693421645217,0,0.985419
0.42583468433738153,0,0.984241
0.4412414065152555,0,0.990587
0.4553479391549987,0,0.990891
0.45820789349269425,0,0.999599
0.4462175905737436,0,0.991512
0.4506069629669501,0,0.991666
0.4993874211196921,0,0.992237
0.5122451755123274,0,0.990407
0.49391750870191886,0,0.989209
0.5379917668189068,0,0.992814
0.5524959039934391,1,0.999967
0.5621133849290879,0,0.996886
0.5698621673324765,0,0.991095
0.5715735400990538,0,0.991445
0.5871642533418379,0,0.991759
0.6011978829469569,0,0.990986
0.609676026920336,1,0.999951
0.6171701891115848,0,0.996557
0.6328411284915219,0,0.994723
0.6413779421496169,0,0.992312
0.6583584608411946,0,0.998354
0.6589108410506825,0,0.993670
0.6579447615468614,0,0.993631
0.6786042058289097,0,0.993595
0.6749703647861235,0,0.993383
0.6886548188088997,0,0.993103
0.6945867658342171,0,0.993233
0.6885494479373531,1,0.999885
0.6910899723233304,0,0.993414
0.6761884704264682,0,0.994784
0.7006745330423053,0,0.994864
0.5321312220165054,0,0.994955
0.685061681332551,0,0.996156
0.7170246060385932,1,0.999852
0.7234254172128072,0,0.994763
0.7294946104838539,0,0.994909
0.7236602276159616,0,0.995590
0.692534714912556,0,0.995652
0.7452586580929033,0,0.997092
0.7554850746877615,1,0.999886
0.7523794388709176,1,0.999984
0.76194373973117,0,0.996800
0.7711560463520496,0,0.997485
0.740231026038462,0,0.996115
0.77222843175311,0,0.998606
0.783696302388125,0,0.999591
0.7785617066067344,0,0.996089
0.7649119782168918,0,0.995319
0.7775378453465596,0,0.996322
0.8088461533448481,0,0.995805
0.7609751522082447,0,0.996442
0.7437920550229853,0,0.996221
0.814607063394353,0,0.996497
0.8030379488080502,0,0.995392
0.8111043535080964,0,0.995931
0.7909883129283981,0,0.996199
0.8039699796043112,0,0.995903
0.7874092743718949,0,0.995405
0.8185180097587871,0,0.999065
0.8108425695933278,0,0.996249
0.8223208120414578,0,0.999787
0.8447982508549378,0,0.996330
0.8533345418023568,1,0.999899
0.8532318931964266,1,0.999905
0.7619900382618354,0,0.999198
0.24469438944184171,0,0.998695
0.2801680889182132,0,0.999624
0.4717191464998604,0,0.999029
0.5971716974241057,0,0.998376
0.5799688394014049,1,0.999967
0.584148583331796,1,0.999918
0.6207161502292943,0,0.998553
0.3109783416223394,0,0.996565
0.8225601227423432,0,0.995894
0.824761118580275,0,0.998740
0.8237414361269069,0,0.994755
0.8132629570793667,0,0.998254
0.16076368519830492,0,0.999726
0.8114750647605234,0,0.994675
0.8061972352894544,0,0.993858
0.8145617299912438,0,0.997940
0.820352272022055,0,0.999686
0.8132138363236906,1,0.999983
0.8116381799086405,0,0.994080
0.8083610554514646,0,0.993568
0.7789987967386063,0,0.992726
0.8189380398469541,0,0.998704
0.8253410809857205,0,0.996805
0.45997552399910946,0,0.996882
0.2775343212751936,0,0.995421
0.2861656745372658,0,0.994168
0.37846583012281176,0,0.994652
0.815285953938139,0,0.992845
0.8400396335275255,0,0.993397
0.8331286510790477,0,0.993648
0.8368183501184062,0,0.993584
0.7587455774103365,0,0.993188
0.7374761409834294,0,0.997736
0.8268971353587737,0,0.994950
0.7196401103931279,0,0.999240
0.719014482376905,1,0.999984
0.7763127949293281,0,0.993247
0.752594536505721,0,0.992906
0.7670159560982879,0,0.998267
0.7855025355485563,0,0.998019
0.5995654725860471,0,0.947454
0.7384599812745611,0,0.984170
0.7803269161231473,0,0.987856
0.7821411535034225,0,0.949087
0.7771780693949806,0,0.998371
0.7697752812896764,0,0.951031
0.780831101501401,0,0.997872
0.787147184009314,0,0.977330
0.3106943816166619,0,0.973149
0.38947244876380444,0,0.982873
0.5063312873447497,0,0.958021
0.7981531531844547,0,0.998705
0.8384410138773745,0,0.979102
0.6982792862662208,0,0.986931
0.44704885147299017,0,0.982634
0.4442127470146429,0,0.985414
0.419931746561896,0,0.967255
0.5429917702999375,0,0.976633
0.3469607799014643,0,0.986516
0.42395997314432493,1,0.999983
0.2049262924980702,0,0.987132
0.17038407528317423,0,0.988633
0.2713132850834151,0,0.990783
0.16283507380317577,0,0.990665
0.2080872385046996,0,0.977474
0.2064689482279044,0,0.984847
0.2948347192977019,0,0.998577
0.3136554943749699,0,0.980226
0.20163790230030992,0,0.986316
0.39675597423740516,1,0.999934
0.2230004519954953,0,0.984525
0.22500070708233455,0,0.979265
0.25321303039839943,0,0.991879
0.22741983435171573,0,0.980488
0.22702050404818483,0,0.986523
0.2324645615004672,0,0.990683
0.20421109698683151,0,0.991202
0.20836754497060878,0,0.985496
0.2299959059002393,0,0.986369
0.21154470519179927,0,0.990512
0.23055493598479596,0,0.987584
0.21321065238507417,0,0.989257
0.1980516439341999,0,0.992686
0.20208288999900834,0,0.987607
0.2184082269464082,1,0.999967
0.26493641478116564,0,0.999167
0.24386959364725747,0,0.999153
0.30270920162991305,0,0.991753
0.2465438564663128,0,0.994408
0.2355240644388829,0,0.995762
0.3028596052496564,0,0.994411
0.2655372814642864,0,0.995632
0.23934279073494577,1,0.999966
0.24564205490175922,0,0.993857
0.3790302129518118,0,0.995795
0.49691566632430434,0,0.994608
0.8051589757742289,0,0.992852
0.7585991357951778,0,0.993076
0.7645245839471985,0,0.993494
0.7731548787348226,0,0.992072
0.353186371127719,1,0.999983
0.6487862727318658,0,0.997116
0.4087651915327667,0,0.997063
0.4178273434471325,0,0.997387
0.3997011124685328,0,0.997304
0.46065836555308826,0,0.996764
0.41130253446694137,0,0.997354
0.5071464684115763,0,0.997550
0.4080007889808228,0,0.997923
0.47337909632865943,0,0.997343
0.4237663604766954,0,0.997521
0.40127340318632676,0,0.997613
0.4242530360209809,0,0.998014
0.4197058975444242,0,0.997932
0.46390030220460565,0,0.998021
0.48976241644004265,0,0.998053
0.5308399141616581,0,0.997121
0.513513174549162,0,0.997884
0.529870455076844,0,0.997695
0.5053008556970339,0,0.998235
0.47143657220552326,0,0.998769
0.3460765958427144,0,0.998582
0.5326452411824423,0,0.997629
0.44084009003898356,0,0.997993
0.45613433924675684,0,0.997925
0.4831089325135689,0,0.998240
0.49922276521726483,1,0.999983
0.553251888876539,0,0.998224
0.47909848902760654,0,0.998304
0.43329802276296364,0,0.998135
0.38914111014013686,0,0.998049
0.46951104385700404,0,0.998139
0.44993956948884434,0,0.998241
0.43789950341403744,0,0.998098
0.596009058768815,0,0.997788
0.6035549597873612,0,0.998470
0.5017921084573828,0,0.998570
0.5287250398371439,0,0.997414
0.482805239471736,0,0.997350
0.5937703535385049,0,0.999194
0.5275634257242438,0,0.997953
0.5871836956462763,0,0.998817
0.5058555985905271,0,0.998652
0.5261604140897105,0,0.998765
0.5228782900680314,1,0.999983
0.48455222861856984,0,0.998087
0.3272839698869909,0,0.998309
0.6471120920097999,0,0.998023
0.722835055717296,0,0.999608
0.7630959908416174,0,0.999656
0.8137794454225306,0,0.998583
0.805813169877539,0,0.998773
0.634943189576565,0,0.996051
0.696023953457245,1,0.999951
0.8136730587784881,0,0.999767
0.8164557869441772,0,0.999364
0.8172160730577721,0,0.997649
0.8172171087119873,0,0.998950
0.005656616792855946,0,0.998202
0.01888332238091953,0,0.998209
0.012123093600289563,1,0.999834
0.01818175424931361,0,0.996049
0.0019328708662610778,0,0.998605
0.030831401297435803,0,0.992125
0.05298995154329504,0,0.999553
0.07877492137214795,0,0.985487
0.21223759133054831,0,0.985857
0.2720095357711551,0,0.993979
0.22883596681250715,0,0.999545
0.31619138231651167,0,0.984744
0.3120215074847667,0,0.997158
0.13383410117527725,0,0.992888
0.20734366985448832,0,0.983375
0.3006009028955624,0,0.999145
0.010689140560617752,0,0.977254
0.010525457712372647,0,0.998729
0.04849637344637442,0,0.996591
0.009680813907704153,0,0.986003
0.06025045314031596,0,0.994383
0.06917021746249989,0,0.997662
0.025537864524668115,0,0.982947
0.02088392423251394,0,0.987025
0.01898735465387436,0,0.994974
0.019270509581919983,0,0.997202
0.020157487995572487,0,0.998873
0.040169926926984824,0,0.982862
0.04882199824591008,0,0.992429
0.047298760346620845,0,0.998752
0.06117442076983464,0,0.995948
0.04787101951420731,0,0.982896
0.038047855063314456,0,0.996574
0.028898133798669297,0,0.987323
0.05108946269216459,0,0.998873
0.08941927582914048,0,0.991987
0.030076074869847716,0,0.984899
0.04338695048836453,0,0.995449
0.08955618578303033,0,0.982775
0.06015298785268164,0,0.980662
0.049040501930476044,0,0.995377
0.017352780622094846,0,0.981083
0.04621988901184623,0,0.991819
0.16879421268748307,0,0.981822
0.16451109754897394,0,0.998692
0.24089174851806366,0,0.998771
0.2720745392644305,0,0.980981
0.025480050809872628,0,0.987104
0.016435273993270532,0,0.979932
0.0010995010864898135,0,0.996480
0.01725980998418585,0,0.981502
0.019231586605303577,0,0.990686
0.024282174526498917,0,0.988959
0.04476772579082664,0,0.993546
0.013001192350278584,0,0.983355
0.03206879998457386,0,0.990749
0.01776365572685077,0,0.981075
0.024130736881253424,0,0.991146
0.021137015909745975,0,0.989594
0.036275931237578676,0,0.995525
0.04758105276703574,0,0.999017
0.07963202727276236,0,0.984490
0.03198751961812213,0,0.989147
0.029725032896331126,0,0.986995
0.026757025696242533,0,0.965719
0.02996573510786595,0,0.995638
0.03335993072693013,0,0.976748
0.041078566066889116,0,0.991492
0.11997728458907334,0,0.998893
0.0139497629894798,0,0.985334
0.025170487406776052,0,0.997987
0.03200051212446284,0,0.998778
0.031827594756282766,0,0.971286
0.03574613112518614,0,0.999609
0.03110875796880283,0,0.997408
0.010045631581150828,0,0.988794
0.01180980543544421,0,0.997117
0.02665561246598954,0,0.985354
0.015149783274671468,0,0.999099
0.03600153593869413,0,0.995279
0.07367610857217882,0,0.989941
0.090421752807023,0,0.999731
0.2582365376242533,0,0.996764
0.09347713268750059,0,0.998419
0.14634775554036172,0,0.990000
0.3831332470261217,0,0.988452
0.051417925021343854,0,0.991161
0.03949806748578436,0,0.985721
0.04245351617205454,0,0.977567
0.04423794868328606,0,0.998717
0.047288989080120525,0,0.999411
0.0822860798812754,0,0.996627
0.09984150100256564,0,0.965253
0.09825062919050544,0,0.988580
0.09749596741773245,0,0.999038
0.0658956612952475,0,0.998245
0.046194583097729384,0,0.998334
0.04768721763436533,0,0.989736
0.049991049347818575,0,0.995545
0.07185704414714493,0,0.988652
0.11203729527582813,0,0.973690
0.06996792248067231,0,0.975680
0.011819520038913955,1,0.999834
0.048251377454184556,0,0.990891
0.04551129925351466,0,0.999264
0.07364029888294725,0,0.981115
0.061327273690602487,0,0.992599
0.0901053242477326,0,0.980982
0.19565350239931498,0,0.997665
0.05918093316498688,0,0.993083
0.27984729828736676,0,0.998888
0.07381511181839037,0,0.998516
0.06231255297280713,0,0.946208
0.0855604381188872,0,0.998569
0.0848964033587577,0,0.995478
0.08750657093366637,0,0.973905
0.08750517762325276,0,0.990182
0.0071685072741960055,0,0.983546
0.013101077654790422,0,0.987189
0.015206494084136192,0,0.987865
0.014863634556197712,0,0.990237
0.011546666065359154,1,0.999978
0.00462890192203266,0,0.980572
0.014019449488000428,0,0.999741
0.12455472368902598,0,0.987760
0.08844936702945087,0,0.975315
0.09029057310421874,0,0.990444
0.010249639350728392,0,0.991503
0.001420565031583025,0,0.997672
0.02117684974282008,0,0.996568
0.013390449258600716,0,0.991911
0.005771773292832601,0,0.982578
0.01331751409291089,0,0.998549
0.04130981588141656,0,0.949683
0.3495429233240504,0,0.982992
0.08157382391100498,0,0.995429
0.08596016102876934,0,0.968166
0.11236651847544536,0,0.992062
0.1072922402038309,0,0.990259
0.12744428121560564,0,0.954161
0.18429724176677717,0,0.962562
0.16817062391822665,0,0.991738
0.3303518596537683,0,0.943220
0.26417942448838333,0,0.965459
0.18158439389758235,0,0.984430
0.23714262114895318,0,0.951334
0.22161361881118222,0,0.981446
0.41082472213986565,0,0.967690
0.301332812627175,0,0.982184
0.20100815030775349,0,0.951951
0.18877572264100617,0,0.984489
0.30003102860114583,0,0.964062
0.3730143286880993,0,0.947327
0.300927574541281,0,0.972946
0.23667747875522627,0,0.955899
0.22313256654951683,0,0.995931
0.23032699053226793,0,0.953572
0.05100369205568133,0,0.973807
0.0490840895785006,0,0.973214
0.04870255835217961,0,0.992220
0.044889063913698894,0,0.983380
0.05315549830069123,0,0.989044
0.0612584715095389,0,0.977216
0.07177767706374694,0,0.963954
0.10651892639950883,0,0.986573
0.08171944630369214,0,0.993130
0.07714808530250815,0,0.987484
0.09278566457828455,0,0.985333
0.10941948326512813,1,0.999982
0.1129161268443487,0,0.989075
0.12319656951298909,1,0.999965
0.133783550517212,0,0.971114
0.1295826698318248,0,0.997773
0.14725582635351714,1,0.999828
0.13631230277197795,0,0.965942
0.13209463399703059,0,0.992109
0.14067066832810218,0,0.971275
0.1581034704666972,0,0.998464
0.15296933414906896,0,0.972251
0.1617307564746404,0,0.971949
0.15113139023784236,0,0.982159
0.16136553962775627,0,0.995170
0.1662624403417251,0,0.970923
0.18093326027233017,0,0.995942
0.04861972825572217,0,0.982596
0.1493858348819562,0,0.998781
0.17028842603245298,0,0.989808
0.1859950193049247,1,0.999965
0.18320283761049597,0,0.992120
0.18834842511848252,0,0.996806
0.18764519879064082,0,0.983479
0.18899653458392082,0,0.978365
0.17853692599406626,0,0.996714
0.18802968702318923,0,0.979548
0.1872760551070048,0,0.993409
0.18834492056864197,0,0.990140
0.18564027084805243,0,0.992827
0.06411185454399584,0,0.996390
0.08687877560228223,0,0.993562
0.20744197174444204,0,0.990264
0.19624180973250543,0,0.980275
0.19253270284154075,0,0.998531
0.20917993908344212,0,0.982694
0.21442694887733244,0,0.982894
0.21026712812586504,0,0.997724
0.21620227752395593,0,0.984692
0.2289982873568674,0,0.986967
0.22862660482390057,0,0.983852
0.2299039546670319,0,0.989538
0.2332362752252286,0,0.982896
0.24178609630371603,0,0.993769
0.24677792618489466,0,0.999182
0.2560965514485112,0,0.982265
0.256134193107159,0,0.993237
0.2474039615254727,0,0.985102
0.2554199490814493,0,0.981690
0.25958292441996333,0,0.994118
0.26307794958699904,1,0.999868
0.26584863236191814,1,0.999983
0.27187850580296086,0,0.984809
0.2646568104526971,1,0.999983
0.27276378160024256,0,0.994467
0.27864766126265805,0,0.998213
0.283849950276359,0,0.990934
0.2842011345525552,0,0.992284
0.2786303667194007,0,0.998588
0.28522194627497344,0,0.998647
0.2864785164531808,0,0.998665
0.2878031736377562,0,0.984825
0.2850331863336378,0,0.988226
0.2947557382404772,0,0.984879
0.297851266203167,0,0.990151
0.2983504670581236,0,0.982626
0.3067120059131534,0,0.998720
0.3041361797577809,0,0.986343
0.2974295420964689,0,0.996165
0.30728662722727784,0,0.999028
0.3152603176455495,0,0.983002
0.3076639308745033,0,0.991822
0.31845014026974505,0,0.986204
0.31885807238721825,0,0.983599
0.3207541214044499,0,0.999331
0.3260384363916261,0,0.984765
0.3306039307241555,0,0.994245
0.33229149252175516,0,0.997099
0.3389295466621095,0,0.984356
0.33976800690931863,0,0.984588
0.3374598934022399,0,0.985724
0.3441689816714909,0,0.980164
0.34032979410495934,0,0.986125
0.35306652099003344,0,0.985879
0.35696644876045797,0,0.990622
0.35611292920861454,0,0.987354
0.35767017785544825,0,0.993274
0.3629848394043615,0,0.991060
0.36444539667108033,0,0.995086
0.3695912630306101,0,0.986834
0.37244226288480764,0,0.998160
0.37499393891019034,0,0.987481
0.37138347391447013,0,0.999658
0.37534241188737016,0,0.990269
0.3869802214204581,0,0.986944
0.3858224068385768,0,0.987698
0.3875609567743967,0,0.993792
0.38753347423811696,0,0.991991
0.38866834311290055,0,0.988809
0.3997466809745495,0,0.999510
0.3937034112085754,0,0.991129
0.3972386400256899,0,0.991157
0.39783749171415744,1,0.999933
0.39849917124192774,0,0.997710
0.4069671740090773,0,0.990148
0.41112227701868054,0,0.991778
0.4147726054646843,0,0.990441
0.4170133982206932,0,0.991934
0.41905646622674986,0,0.992580
0.4204335564372828,0,0.990183
0.42191957095831384,0,0.989980
0.42316176346677103,1,0.999983
0.43134848876131265,0,0.991392
0.432858555197015,0,0.992722
0.440196055584027,0,0.992783
0.4417794395906545,0,0.992747
0.4387059865249,0,0.993370
0.4456081114512202,0,0.988321
0.45234529147158914,0,0.993797
0.4521046855690117,0,0.998211
0.4549737975037009,0,0.990646
0.46648519654005977,0,0.992068
0.46909561646895986,0,0.997263
0.46868418814076607,0,0.997109
0.4624840140628779,0,0.992526
0.46427292902402867,0,0.991242
0.4742865629716394,0,0.992770
0.4765069444657015,1,0.999967
0.4783343398883917,0,0.994037
0.4832624716208136,0,0.993577
0.48613048290205974,0,0.992778
0.49262037049253504,0,0.993314
0.49429217509663953,0,0.994665
0.4973296018153446,0,0.996371
0.49350749553470913,0,0.999814
0.5039620486789143,0,0.995127
0.512337740347602,0,0.996192
0.5168298055256593,0,0.995393
0.4910143091158317,1,0.999950
0.5204011099129716,0,0.995859
0.525646730603154,0,0.999778
0.5300788026260685,0,0.995076
0.5349726440302931,0,0.998510
0.54301551158971,0,0.996582
0.5451140604056736,0,0.999578
0.5451315846355298,0,0.995270
0.5501398085871332,0,0.997798
0.550636778377777,0,0.998031
0.5491269040101747,0,0.998357
0.1340695996659214,0,0.998941
0.14079148664693245,0,0.997540
0.15643147248884404,0,0.997099
0.4224965697064793,0,0.998919
0.5542669569240025,0,0.999310
0.5597182218216339,0,0.993762
0.5597827409346955,0,0.996451
0.564391906336918,1,0.999983
0.5704918847738839,0,0.999050
0.5724870274762947,0,0.996263
0.5742021766095342,0,0.995607
0.579907241918764,0,0.994074
0.5896406499818011,0,0.993872
0.5940057113650365,0,0.993421
0.5917389686197527,1,0.999951
0.5947309515825934,0,0.999197
0.5702478304486962,0,0.998382
0.5920198417433257,0,0.993541
0.5906744545076477,0,0.993756
0.5949175047489841,0,0.993991
0.5949220345975758,0,0.995340
0.5923547291623144,0,0.993807
0.6003971417028622,0,0.994552
0.6081513909079205,0,0.996286
0.6111801803783247,0,0.994367
0.6106540198175621,0,0.994141
0.6062563141581824,0,0.994224
0.6094469759810408,0,0.993854
0.6077930998573612,0,0.995638
0.6219174418250717,0,0.993641
0.6261748746120014,0,0.993524
0.6074709429344033,0,0.997010
0.6080548950247667,0,0.998710
0.6208863549403832,0,0.992872
0.617974111262756,0,0.998986
0.653962400773118,1,0.999917
0.6145264033599265,0,0.998484
0.5006954876040369,0,0.999036
0.7373077281432164,0,0.994369
0.6176680838856234,0,0.995891
0.6656164292475057,0,0.998210
0.6779053698375227,0,0.992520
0.4774733937149599,0,0.993323
0.8359361931254203,0,0.999584
0.7889453816088242,0,0.993473
0.8810300177935776,0,0.993714
0.16290833690442447,0,0.993312
0.5926133023109945,0,0.990471
0.08637172670402714,0,0.965324
0.3024798432431458,0,0.946969
0.5949363742051437,0,0.998281
0.13274452837217068,0,0.993503
0.592419894209155,0,0.997402
0.5812155073930554,0,0.960312
0.6007480326763746,0,0.992573
0.6214819995387886,0,0.998461
0.6216554416461271,0,0.982325
0.6405175411244433,0,0.969045
0.650300210400191,0,0.984180
0.6212570965220762,0,0.979160
0.23698827411916282,0,0.982062
0.7447143797647231,0,0.977527
0.6247997700463958,0,0.961481
0.6252627222479233,0,0.994954
0.6331945940748395,0,0.971146
0.6636966812161473,0,0.954262
0.6554793083226156,0,0.973563
0.40726177275658976,0,0.987577
0.6514372385066926,0,0.982569
0.6400912650034813,0,0.980149
0.6570727924239143,1,0.999984
0.6703120812600852,1,0.999984
0.7106857601995762,0,0.998735
0.29318674071475076,0,0.975668
0.7152600455260877,0,0.973779
0.34824371054087355,0,0.964055
0.37260015385001105,0,0.981858
0.6801825210991433,1,0.999966
0.6833244413037509,0,0.977599
0.6667639484342208,0,0.997992
0.6734583864887353,0,0.977510
0.6752665555949816,0,0.983457
0.6413381346527415,0,0.970631
0.6742236887477087,0,0.999347
0.6826858166872446,0,0.999292
0.6755841811433123,0,0.978402
0.6789744863143495,0,0.990652
0.6864664894181259,1,0.999966
0.689171727815114,0,0.977882
0.7034513713563403,0,0.977400
0.6852064469963282,0,0.979631
0.6845808535072038,1,0.999984
0.6957386835904728,0,0.999151
0.7218091002946466,0,0.989997
0.6929486093227831,0,0.993681
0.6897999322049669,1,0.999983
0.6933999981946526,0,0.999088
0.6838186521016594,0,0.985841
0.6827733251442846,0,0.985211
0.7186859851402592,0,0.991483
0.7132690153759463,0,0.987496
0.7086617288665091,0,0.993584
0.7103381821794256,0,0.989646
0.7471474609567648,0,0.997614
0.7117965087657869,0,0.989011
0.7177371797216234,0,0.998431
0.7142739825646686,0,0.991085
0.7150833243367932,0,0.996393
0.3448334465925575,0,0.998350
0.11244434097498512,0,0.996873
0.1085384001124521,0,0.997825
0.6838545000091647,0,0.997882
0.7683064492753783,0,0.991485
0.7277223682929356,0,0.998663
0.7194443527646014,0,0.988991
0.7239061887687752,0,0.989049
0.7200846757326965,0,0.994943
0.7320223367182704,0,0.991672
0.7282687813286303,0,0.999665
0.7279811019325138,0,0.995520
0.7268792692579933,0,0.998381
0.7321393200877448,0,0.989619
0.7326228218520459,0,0.999349
0.7299084970672932,0,0.990712
0.7422949242301579,0,0.999081
0.7324136224503093,0,0.993107
0.7327156048275514,0,0.995525
0.7449704093761731,0,0.996819
0.7396705918856284,0,0.999259
0.7392165803492177,1,0.999984
0.7434591146426475,0,0.998845
0.7363962261506707,0,0.999515
0.7370173938454783,0,0.992866
0.741164881625796,0,0.995803
0.7454208096601082,0,0.994986
0.7437345681667221,0,0.997482
0.7446110083191135,0,0.993506
0.7430778145332624,0,0.993438
0.7494143543646749,0,0.998337
0.7517496987986317,0,0.994565
0.7468410672297477,0,0.997344
0.7337627452950104,0,0.993591
0.7367290569017141,0,0.995883
0.7169478104440385,0,0.997445
0.6940826949338581,0,0.996237
0.7236468858569853,0,0.995893
0.7477405288680465,0,0.994181
0.7276505654250004,1,0.999934
0.7262242302128245,0,0.995737
0.5842718143113481,0,0.995711
0.5359216607519515,0,0.993435
0.6129841950440668,0,0.996696
0.6277777008831568,0,0.994680
0.5588483930710232,0,0.995660
0.6837170358428674,0,0.998149
0.5601483459796797,1,0.999983
0.5636745685314487,0,0.998111
0.6131358511618556,0,0.999543
0.7388862601400288,1,0.999983
0.5606153275918939,0,0.997767
0.6804558775806253,0,0.995509
0.6488924701940052,0,0.996878
0.6495634165632852,0,0.995048
0.605039050648212,0,0.995111
0.6643378337596544,0,0.997955
0.6689424887314066,0,0.995358
0.7021384552673506,0,0.995653
0.7229100375311007,0,0.996041
0.7187311001205041,0,0.995418
0.6657376960191517,0,0.996186
0.67084714342812,1,0.999983
0.7813800664734604,0,0.996354
0.7423804875460012,0,0.996020
0.7596106872320837,1,0.999917
0.7639219421746902,1,0.999983
0.7518453126336758,0,0.996004
0.6143285533786563,0,0.995637
0.7310050470785538,0,0.996166
0.7897759446864187,0,0.994836
0.7380558946021708,0,0.995845
0.703366131276297,0,0.994566
0.7299053195031227,0,0.996175
0.7874897304723564,0,0.995641
0.7380976625959218,0,0.996594
0.7894394292039845,0,0.999564
0.7905307969191403,0,0.997193
0.8036932304675839,0,0.996986
0.7544825238004507,0,0.998187
0.7480601337733297,0,0.998052
0.7706133698077184,0,0.998069
0.6175700645405996,0,0.997769
0.7791538303453045,0,0.999332
0.8070461559402426,0,0.997491
0.8110416504122175,0,0.998451
0.8017180327528926,0,0.999803
0.6891431714527749,0,0.998980
0.7237271985595428,0,0.996956
0.7813817352729511,0,0.999362
0.7269570272421819,0,0.996818
0.754685099827977,0,0.997171
0.8006237346779191,0,0.998993
0.7300580061032121,0,0.997450
0.8050597135607824,1,0.999850
0.7907956032975987,0,0.996973
0.8190678153737861,0,0.996965
0.8058656344389735,0,0.998297
0.7711096569881912,0,0.999723
0.6975426609347959,1,0.999983
0.7419040768703217,0,0.996858
0.8194137141648957,0,0.996890
0.8224505960268674,0,0.997264
0.7587336355634583,0,0.999033
0.7581118946866474,0,0.997268
0.8177013773586047,0,0.997111
0.6679079717908705,0,0.997304
0.7304347538086069,0,0.996800
0.6741840367608087,0,0.997772
0.7401721731637184,0,0.996397
0.7945443414357468,0,0.996881
0.833959226510545,0,0.997240
0.659885743476073,0,0.997240
0.7851626316729307,0,0.998890
0.8313922378323728,0,0.997570
0.7342905218113909,1,0.999983
0.8045048012852483,0,0.997177
0.8214168168104514,0,0.996949
0.7992001364898956,0,0.997733
0.7764194513020896,0,0.997375
0.836189210799826,0,0.998802
0.7895105637113863,0,0.997043
0.8237472659266432,0,0.996818
0.7569278265694137,0,0.998490
0.8253783474830619,1,0.999967
0.6680269787532958,0,0.997271
0.8449424405205909,0,0.999804
0.7828204137525058,0,0.997325
0.7681856925631716,1,0.999967
0.8194460901633102,0,0.997489
0.7607324259891846,0,0.997471
0.7645559364337905,0,0.997862
0.6377984041061612,0,0.989577
0.5655391808035717,0,0.995076
0.5121258886047322,0,0.992321
0.5104157018711015,0,0.961223
0.506782307314534,0,0.993213
0.5329420568755167,0,0.998837
0.602402260034174,0,0.991186
0.739293281229707,0,0.991790
0.4857711685732326,0,0.999658
0.2342486061663132,0,0.997742
0.5461492909436745,0,0.993531
0.5813090205110062,0,0.997083
0.7289608291694925,0,0.981290
0.5545909555936056,0,0.970003
0.2378473348476213,0,0.999277
0.24345783276961208,1,0.999832
0.34214746629732756,0,0.999321
0.24123275451823825,0,0.997553
0.8276466370106944,1,0.999967
0.5642957621331031,0,0.999360
0.692785496504536,0,0.999556
0.6269487717608944,0,0.993203
0.17385918834145103,0,0.994928
0.14564853971889932,0,0.993398
0.6150002750582649,0,0.994049
0.7827849349091645,0,0.993303
0.8215061648462966,0,0.998334
0.808843000584717,0,0.996917
0.756857430462118,0,0.996621
0.8070449382118685,0,0.993026
0.7014354721906004,0,0.996800
0.7059056643297426,1,0.999835
0.8491505403125834,1,0.999984
0.7880293602984016,1,0.999984
0.7783056703985002,0,0.992329
0.7299447345591963,0,0.993500
0.7080140322628955,0,0.996831
0.6665997328298773,0,0.996655
0.7902230096719551,1,0.999852
0.744014325916349,0,0.993766
0.7391295112456996,0,0.996425
0.7664461677569147,0,0.996849
0.839423770232643,0,0.996541
0.7829718407538651,0,0.993925
0.6947920686831679,0,0.999639
0.8165804393751103,0,0.997166
0.8558924682228659,0,0.995096
0.8165460505868581,0,0.996926
0.8221918570948764,0,0.996991
0.7935112509555444,0,0.996121
0.7915303365228672,1,0.999984
0.8290404087881456,0,0.997077
0.7643186350728636,0,0.996282
0.8475112840035269,0,0.996553
0.8554154861750176,0,0.996896
0.8648748414967256,0,0.996342
0.8010660265437851,0,0.995524
0.6752116718641308,0,0.996200
0.691295750676742,0,0.996425
0.719036159213702,0,0.999754
0.7618463931773589,0,0.998127
0.6994939065277457,0,0.998330
0.6252878438749415,0,0.998404
0.7593664551411191,0,0.998277
0.6440911472846906,0,0.998178
0.7614943687289908,0,0.998721
0.6635572241009206,0,0.997982
0.7738664295409377,0,0.997625
0.854783039430715,0,0.997804
0.7424504392267526,0,0.997739
0.7275354613035537,0,0.998946
0.8313787674978071,0,0.997882
0.8487403272683793,0,0.998257
0.7840558660998423,0,0.998338
0.6994291196391753,0,0.998160
0.8728363536327628,0,0.998191
0.7376342500954959,1,0.999983
0.7539004815177459,1,0.999983
0.7088734816318533,1,0.999967
0.7536458807915435,0,0.998384
0.8056261645153537,0,0.998376
0.7206911495240125,0,0.998002
0.791946299555913,0,0.998734
0.749021716545509,0,0.998750
0.7344002331153258,0,0.998286
0.8389450424243767,0,0.998382
0.8083401035039588,0,0.998211
0.7846316480703062,0,0.998612
0.861842093212707,0,0.998536
0.7575353594866245,0,0.998454
0.8181656025960535,0,0.998081
0.868395468083109,0,0.998448
0.7128590358895528,0,0.999604
0.8693267299635259,0,0.998517
0.7139959180713606,0,0.998750
0.8716577388150908,0,0.998375
0.6917694795659869,0,0.999290
0.7669867096156774,0,0.998645
0.6932186267393573,0,0.998516
0.8668472151481882,0,0.998376
0.8539688963105951,1,0.999835
0.8857696951023826,0,0.998701
0.8751013214816821,0,0.998915
0.3237400960347471,1,0.999845
0.24316031796438273,0,0.999463
0.3525893711721454,0,0.997782
0.37469862179318714,0,0.998688
0.30814501144448575,0,0.998612
0.3080019563870111,0,0.998460
0.3685236643900807,0,0.995941
0.2669993823772746,0,0.997384
0.32125814404460246,0,0.999492
0.393005906516522,1,0.999983
0.35806181940426746,0,0.998172
0.2965012954675666,0,0.996903
0.40693277814545264,1,0.999983
0.22347008326110684,0,0.996929
0.3517153503813282,0,0.995609
0.1889065171956228,0,0.997503
0.42198795871203604,1,0.999950
0.35643882324588166,0,0.998683
0.3683662972501944,0,0.993143
0.4021426505133665,0,0.999698
0.3934676962074132,0,0.994778
0.32730047606921514,0,0.998427
0.3622005778919234,0,0.999194
0.2764497626036113,0,0.993607
0.25829576643658686,0,0.995529
0.35034264694107914,0,0.994436
0.37064029400293275,1,0.999849
0.31550324430179644,0,0.994498
0.32630966144118756,0,0.994141
0.3147345147309288,0,0.999341
0.32344785126928954,0,0.999528
0.6448960436895792,1,0.999984
0.6471429237632698,0,0.997952
0.6499048010898575,0,0.997327
0.6460457854406956,0,0.998259
0.6272499066175757,1,0.999918
0.6367919709477966,0,0.998751
0.6249499018522985,0,0.998736
0.6188515500866097,0,0.998197
0.6202823428155009,0,0.999354
0.6203139574892137,0,0.999443
0.14155218304452988,0,0.998521
0.19657029250962427,0,0.999488
0.11903514843159096,0,0.998111
0.18056297464190413,0,0.998003
0.21154790648119098,0,0.997457
0.04821173846209561,0,0.996727
0.03507669755402976,0,0.998328
0.0343260916044141,0,0.997875
0.09563387475902393,0,0.997706
0.09943264956618073,0,0.997835
0.11522564393250924,0,0.996781
0.5496588501787094,0,0.992083
0.5891990541706532,0,0.996688
0.6939354320790129,0,0.996299
0.19777088169619264,0,0.992230
0.14803322126867788,0,0.996453
0.3014250763282754,0,0.993773
0.496408605237465,0,0.999410
0.5537242717965787,0,0.991996
0.3665258873839486,0,0.993939
0.17541169295290543,0,0.996004
0.1806945058301698,0,0.996736
0.1618548311564713,0,0.996317
0.6738647207699574,0,0.996986
0.15825213563742496,0,0.996493
0.7620034910243642,0,0.997245
0.7906568295579757,0,0.993274
0.8056722610615632,0,0.998104
0.15506708454242016,0,0.999137
0.18684908622829835,1,0.999983
0.2588500907270455,0,0.990050
0.15908100743946507,0,0.993584
0.8808100567934039,0,0.999769
0.4141848535012701,0,0.990383
0.35323387503880915,0,0.993039
0.30163127791720507,0,0.990812
0.40415799120810036,0,0.990475
0.3648113026470336,0,0.996734
0.8353189196977053,0,0.999754
0.8315938343565643,0,0.989406
0.2727644363058328,0,0.996489
0.22554915675301257,0,0.991860
0.501925759522877,0,0.996940
0.348318864186216,0,0.999194
0.42730440200074554,0,0.992338
0.43027465405072873,0,0.990440
0.3226275795729175,0,0.998963
0.3792556925911966,0,0.999582
0.36782222896835454,1,0.999883
0.1353109715793476,0,0.998421
0.31052986958956874,0,0.997791
0.26447130844905964,0,0.998941
0.1557024034498116,0,0.996737
0.23992930968635068,0,0.982745
0.38826573029285794,0,0.980884
0.46798847055716414,0,0.985788
0.44620513369116294,0,0.999784
0.4248171953140209,0,0.999749
0.39807738925457903,1,0.999983
0.3819300993662939,0,0.999785
0.4329629124453742,0,0.997516
0.4054610841613831,0,0.999715
0.4519667868770897,0,0.996384
0.4312119390212812,0,0.997835
0.19233724985070297,1,0.999866
0.018654489109919837,1,0.999916
0.1884243486678072,0,0.998538
0.1431233001640915,0,0.997812
0.14428806899300467,0,0.999213
0.11076881740847566,0,0.997924
0.1390557646277375,0,0.999066
0.5238843861634277,0,0.998949
0.19813897513892562,0,0.996986
0.15277710644741269,0,0.997871
0.20562593670142099,0,0.993640
0.2465020552246622,0,0.996583
0.1608945049518374,0,0.997668
0.7044082471959043,0,0.999475
0.3987262918027814,0,0.999130
0.4773523294867657,0,0.995060
0.4288072899763127,0,0.996113
0.7411734991266816,0,0.999492
0.3966942140294333,0,0.999032
0.3980484658523878,0,0.998465
0.3479590903805807,0,0.999258
0.3742122831986254,0,0.996488
0.33773785486621566,1,0.999951
0.41713931158125694,0,0.995140
0.33912432918625945,0,0.999801
0.0675062654958045,0,0.991806
0.4045324604084051,0,0.991464
0.4201187716484978,0,0.997340
0.10335560647089866,0,0.996222
0.4147278291089279,0,0.996058
0.4016666355258339,0,0.991755
0.4109404220817284,0,0.995193
0.3980526458377421,0,0.996594
0.41100924653240417,1,0.999984
0.13010299350958265,0,0.997399
0.18335710842188524,1,0.999927
0.07398185359465645,0,0.999481
0.07038747503841986,0,0.997648
0.0581380209002864,0,0.999495
0.18564593259942855,0,0.997586
0.041743807564414925,0,0.998744
0.04975808270578056,0,0.998566
0.13761452319361464,0,0.997193
0.2762875358534822,0,0.996942
0.8510082400471852,0,0.995795
0.18216468867669053,0,0.998914
0.20733448395884455,0,0.996727
0.20277603615202555,0,0.999465
0.22177565564385032,0,0.996909
0.19931275001645415,0,0.997264
0.20257337995023797,0,0.999275
0.1419754310394457,0,0.998751
0.2151745230948684,0,0.999042
0.7338508817857667,0,0.997646
0.2115076021900976,0,0.993464
0.7544250817940822,0,0.997172
0.7637503894653082,0,0.990870
0.4372764226101764,0,0.997215
0.1602552000614419,0,0.997421
0.1576702555245474,0,0.996184
0.14316459369995838,0,0.998674
0.07777331862062672,0,0.999403
0.0327811175048731,0,0.999384
0.04302385359148671,0,0.998751
0.04310839036459132,0,0.997557
0.09207684846530965,0,0.998106
0.0938321539833937,0,0.995455
0.13224479762959782,0,0.996846
0.19652184687079186,0,0.990661
0.19557006283351133,0,0.994577
0.21930030490556834,0,0.995780
0.24524589756694207,0,0.991628
0.23863343797740513,0,0.994554
0.11213281830527458,0,0.997791
0.2669272045605292,0,0.999485
0.32562113737550075,1,0.999949
0.33136694118757426,0,0.996555
0.3282892382601562,0,0.990162
0.16502526192756126,0,0.999414
0.035938221975277386,0,0.992390
0.05329686280981134,0,0.998720
0.04778391699914575,0,0.998626
0.036531105710059575,0,0.997096
0.036946243573538616,0,0.999144
0.028022303198928514,0,0.997655
0.307552947748539,0,0.993522
0.08807880152085555,0,0.994262
0.03855006691922478,0,0.996724
0.07221495296659551,0,0.997144
0.25937069735376683,0,0.996359
0.24569211312531553,0,0.998497
0.0475763144797391,0,0.997056
0.0641102575897247,0,0.997097
0.04729051055821976,0,0.998342
0.07304885941254487,0,0.998817
0.03386234024199171,0,0.997749
0.11989341209524476,0,0.998064
0.12911473699348192,0,0.995278
0.24780311383360235,0,0.996435
0.1872737819411598,0,0.996507
0.43796912482577643,0,0.988577
0.4392944648819665,0,0.997571
0.397846665765261,0,0.999328
0.436762379835628,0,0.997020
0.34831570934745015,0,0.998675
0.16266609322071987,0,0.998783
0.22302371002252,0,0.993601
0.4755259183758535,0,0.993435
0.4650999099726738,0,0.993383
0.40912373027275467,1,0.999966
0.47609090201225596,0,0.993467
0.4182330507703236,0,0.997318
0.34377994791974564,0,0.997222
0.3778552624643093,0,0.992064
0.41762059411470565,0,0.997239
0.03893100504151047,0,0.997485
0.18698582192736612,0,0.999227
0.37523401731320266,0,0.999331
0.24042809242972302,0,0.999249
0.4648358442464203,0,0.997542
0.46103124274534285,0,0.997990
0.4588752540279522,0,0.996533
0.5364155083877415,0,0.995304
0.4506170754746633,0,0.995485
0.4723544308316612,0,0.995396
0.4582430959985971,0,0.998917
0.4625309022129218,0,0.996868
0.4459690871010432,0,0.996523
0.3653611009842118,0,0.998813
0.1773932707648516,0,0.996768
0.44915459185294937,0,0.995344
0.30559984617036684,0,0.994809
0.53220891301404,0,0.994232
0.5003561862590654,0,0.995548
0.5550026009813996,0,0.996474
0.532914007037578,0,0.994518
0.490756920492001,0,0.994323
0.462086497806339,0,0.995495
0.4590050202076034,0,0.998861
0.42447436183926457,1,0.999834
0.4052643681227646,0,0.996246
0.2567225370588334,0,0.997090
0.4414124237951765,1,0.999966
0.5831296277593704,0,0.990921
0.5525200920370867,0,0.998813
0.4866531306975909,0,0.998968
0.5821477682159119,0,0.994515
0.4629918002654366,0,0.993561
0.37311384335297254,0,0.999194
0.5765307651035729,1,0.999834
0.5537578581704096,0,0.999800
0.60765588350666,0,0.994077
0.504455089972857,0,0.993674
0.48756748788172194,0,0.999633
0.4661267616614229,0,0.999715
0.48408992860098576,0,0.994542
0.5846894788761274,0,0.998767
0.5358942276091242,1,0.999867
0.5702359758884435,1,0.999900
0.6087983027859035,0,0.999303
0.5794088787979164,0,0.995705
0.5617688111903375,0,0.999572
0.5821637414973991,0,0.999387
0.5497592088477627,0,0.998154
0.6038346781923714,0,0.998411
0.6264239514419863,0,0.998593
0.62436148168911,0,0.996959
0.6062830754541207,0,0.998739
0.5969179187860374,0,0.997617
0.6545433265247269,1,0.999983
0.5890930304584592,0,0.997580
0.5390188823670795,0,0.998359
0.5505018170963315,1,0.999866
0.5978460752703181,0,0.997879
0.5964984381718701,0,0.998650
0.5859512615850981,1,0.999866
0.5910846114549392,0,0.996549
0.5694482389263811,0,0.995806
0.6213469212214735,0,0.996886
0.6095476512278478,0,0.998183
0.646656990662862,0,0.996558
0.6273361338332593,0,0.996246
0.5525116040445077,1,0.999916
0.5646865660080053,0,0.997220
0.663227602510045,0,0.996829
0.6834549905557169,0,0.997864
0.5733412272040315,0,0.998484
0.1327869081913628,0,0.999732
0.1077520504044036,0,0.998367
0.2196147963865497,0,0.999669
0.24178804208188182,0,0.999040
0.05128250874420858,0,0.999040
0.058848872562575705,0,0.998229
0.053885499317544897,0,0.997887
0.047098267192422036,0,0.999367
0.6296946202785146,0,0.998712
0.6373814505045694,0,0.998968
0.6332100497408047,0,0.997790
0.161872352988395,0,0.998754
0.15402087845243195,0,0.997875
0.14382966416862053,0,0.998346
0.15163177390327354,0,0.996855
0.19776911296567987,0,0.998755
0.16264675583420393,0,0.998931
0.12565992864479703,0,0.998902
0.29021875218098364,0,0.998921
0.3984197251543269,0,0.996843
0.2598067903546865,0,0.998972
0.3667058524432275,0,0.999547
0.40762767146834267,0,0.999195
0.4941398094885366,0,0.995237
0.6394155636805059,1,0.999916
0.655005776340099,0,0.997952
0.5854620070174494,0,0.997905
0.5464207335891412,0,0.997543
0.3045034879107401,0,0.998436
0.16341079889925458,0,0.998963
0.052319896214057415,0,0.997727
0.008941622915207727,0,0.996616
0.025054593864794326,0,0.996560
0.023894087120594553,0,0.996309
0.037642935047048035,0,0.997415
0.004313500242671985,0,0.996876
0.006764053740582959,0,0.995531
0.007978256742429916,0,0.997996
0.46386389769448594,0,0.983369
0.35871494423186345,0,0.984680
0.49574239480246773,0,0.996343
0.26735691373273446,0,0.997013
0.4939410480651753,0,0.996121
0.4130021779016634,1,0.999983
0.48226108828877134,0,0.996076
0.439213183435541,0,0.984450
0.40742630000638486,0,0.984075
0.47203011989619775,0,0.994666
0.3700067881258159,1,0.999967
0.24939200977531836,0,0.994750
0.41683530457186413,0,0.981502
0.46805533119959275,0,0.994455
0.34168001851538604,0,0.985491
0.4418948474835709,0,0.998978
0.3463363472493695,0,0.991095
0.3526389781190721,0,0.999292
0.2662014305363472,0,0.999529
0.3033042967031252,0,0.997405
0.3574062715257382,0,0.998254
0.2991670746985455,0,0.996696
0.3911854550820281,0,0.996737
0.32038923237317124,0,0.997234
0.39758839897050957,0,0.998284
0.46099120712571956,0,0.998768
0.29528089683407027,0,0.996756
0.34860093664037334,0,0.998521
0.33964479536198744,0,0.997965
0.3215899352915379,0,0.998758
0.3000774704172598,0,0.999764
0.4284529957009015,0,0.997048
0.3323926630162931,0,0.998934
0.4800297210825148,0,0.998058
0.3434562920914484,0,0.997869
0.3108084463255197,0,0.997694
0.4219430536882815,0,0.996939
0.415046304807082,0,0.998004
0.35800314874419786,1,0.999863
0.46119242391741466,0,0.996678
0.30650431141074075,0,0.998152
0.36962143107053846,1,0.999950
0.4285752852246242,0,0.998395
0.45157423805008556,0,0.999702
0.41951193808503495,0,0.989822
0.30603979411969434,0,0.986872
0.4005347016224434,0,0.993072
0.361913296648338,0,0.984622
0.34462561860218205,0,0.996449
0.3643519867198019,0,0.982364
0.3515086308433381,0,0.995476
0.3793033128319944,0,0.993844
0.34086189541023293,0,0.990029
0.3263975066259021,0,0.996028
0.462622478916664,0,0.990378
0.438370454210891,0,0.993007
0.4253588236013775,0,0.992708
0.42794522464773876,0,0.989886
0.3798205248399498,0,0.990708
0.3777604872564483,1,0.999983
0.42661410021871576,0,0.990839
0.37659987186537963,0,0.991508
0.40387650938565484,1,0.999950
0.39024869457557654,0,0.996142
0.3828249602429307,0,0.998857
0.39117587519344155,1,0.999983
0.4227128857963869,1,0.999983
0.4363905518155679,1,0.999983
0.3987735816427646,0,0.996899
0.46578290520222787,1,0.999950
0.37133327693417,0,0.997147
0.39748432139879947,0,0.999431
0.4025818662251285,0,0.996468
0.4155222014440967,0,0.998336
0.4339618474539857,0,0.996618
0.4287696333309834,0,0.997721
0.46501334298294794,0,0.998247
0.453564557236353,0,0.997009
0.44603534022927765,0,0.996784
0.4690732672477723,1,0.999934
0.42473725812720775,0,0.996684
0.4053294757094826,0,0.996251
0.4502438167185528,0,0.995539
0.5278797288351348,0,0.996590
0.42593943946960544,0,0.999644
0.4709062970183942,0,0.999620
0.44867221176774913,0,0.999651
0.46843478251522785,0,0.999259
0.5088859727078131,0,0.999403
0.5369530912911709,0,0.998345
0.22886072117185957,0,0.996723
0.22025144359558496,0,0.996420
0.5813339346043401,0,0.995275
0.21132764407293197,0,0.994039
0.183718392763895,0,0.998238
0.5122337749694654,0,0.999625
0.5242507964398271,0,0.996537
0.5830716264552399,0,0.994238
0.5790931049090274,0,0.994297
0.31316044077202126,0,0.999762
0.2151226034852309,0,0.997871
0.17788919747994328,0,0.995736
0.10262746674637427,1,0.999927
0.05329622541286511,0,0.996348
0.04842804925593004,0,0.997417
0.051697430943303126,0,0.997837
0.03271538162756329,0,0.997134
0.10115177013933255,0,0.994805
0.07329234769207324,0,0.997684
0.0436574832953748,0,0.996268
0.04019574173048345,0,0.994494
0.05704123768644606,0,0.999227
0.04940091187516242,0,0.997031
0.045389493948948964,0,0.997821
0.0835668344224665,0,0.996248
0.14862504711376684,0,0.995085
0.10654234782196499,0,0.996216
0.0920162939681385,0,0.997618
0.10827841411640365,0,0.994601
0.1502858667784061,0,0.995756
0.06306767714970671,0,0.997195
0.08496265325097507,1,0.999982
0.25868542093890945,0,0.995471
0.13284496552713423,0,0.999405
0.3654790704869525,0,0.997953
0.1304712957647833,0,0.995107
0.1067183751863961,0,0.991682
0.16548980936258442,0,0.997880
0.11352728276897422,0,0.994320
0.09678946073108578,0,0.995813
0.10660390056986438,1,0.999983
0.48837007202486415,0,0.994915
0.5127110701198445,0,0.993784
0.12504783629959934,0,0.997974
0.11929341540139637,0,0.992850
0.4584040241187491,0,0.996699
0.157679290656403,0,0.993374
0.12345612701443383,0,0.998042
0.12168587849448723,0,0.995650
0.19331049234758244,0,0.996292
0.5722175184502301,1,0.999983
0.10558305069887472,0,0.993738
0.12860993216592603,0,0.993350
0.12702621262422642,0,0.997396
0.5438128042416877,0,0.999717
0.5558786238344559,1,0.999967
0.6108107401499041,0,0.993413
0.14163667580027672,0,0.996591
0.14928643403018826,0,0.995351
0.11075135017197223,0,0.999113
0.20225819666001968,0,0.998999
0.10539984811953168,0,0.999116
0.2302245153228649,0,0.998379
0.12557750671733475,0,0.998265
0.12776096483027577,0,0.999033
0.23182214795813771,0,0.995276
0.4786829627660908,0,0.995381
0.5080312012668972,0,0.997530
0.528570220607422,0,0.995226
0.5357116329126379,0,0.995180
0.18013635071274875,0,0.999532
0.1176089020769502,0,0.998323
0.11527617145632468,0,0.996592
0.14594499263322996,0,0.998903
0.12678901657689076,0,0.994590
0.12081065306522522,0,0.997560
0.12412478650603646,0,0.998800
0.1964915038335115,0,0.998351
0.5685529325646554,0,0.995202
0.6103847190435057,0,0.994694
0.6351804659666537,0,0.999770
0.5127881741695077,0,0.994579
0.32449615109260677,0,0.997833
0.49219312167905194,0,0.995209
0.5452827432254246,0,0.998589
0.5502562729007738,0,0.994273
0.5377816679520682,0,0.995463
0.5344079890049928,0,0.994898
0.5396018981707763,0,0.998566
0.625021551895545,0,0.995930
0.5965674299412693,0,0.996731
0.409906961620543,0,0.998451
0.5117436108396568,0,0.996015
0.33615030463410017,0,0.999161
0.4909598557446962,1,0.999983
0.5072623583945938,0,0.994787
0.46732236393122406,0,0.995275
0.5910737866591795,0,0.998404
0.40198360912516773,0,0.999321
0.5151668501811685,1,0.999983
0.5575616279974575,0,0.994888
0.568590221142739,0,0.996154
0.5707272979650713,0,0.995493
0.5634130588214872,0,0.998926
0.2923092623367652,0,0.999636
0.4462336201187467,0,0.998831
0.518630898419691,0,0.997018
0.31139272295174786,0,0.996844
0.21796606813024638,0,0.997653
0.22706046650889034,0,0.997876
0.5548488627092348,0,0.996766
0.5838230272099545,0,0.995390
0.20776338673565659,0,0.997734
0.20061122603168732,0,0.999613
0.0659868173010502,0,0.998505
0.474441856348841,0,0.998990
0.5184575314542775,0,0.996112
0.48827502125481004,0,0.999041
0.19745424397017877,0,0.998606
0.5316360472514673,0,0.992342
0.6258325972906726,0,0.999355
0.27890724417348783,0,0.997501
0.20278482585117147,0,0.994118
0.10829164755508057,0,0.999215
0.13945860499800977,0,0.995026
0.17714485396819643,0,0.997549
0.18830611601282474,0,0.998658
0.16742119235006497,0,0.998138
0.191156569028013,0,0.993734
0.46277213847681303,0,0.992083
0.43145962323199255,0,0.996496
0.25578077289830864,0,0.996191
0.11551898255405978,0,0.999356
0.12282536464774259,0,0.999331
0.19816672648577865,0,0.999114
0.1117733912776788,0,0.998716
0.21101759066551662,0,0.999020
0.3525267758105364,0,0.991974
0.47634224908084766,0,0.996395
0.5163570971099045,0,0.991517
0.5129412297281285,0,0.996311
0.5398945771331337,0,0.994607
0.5548289396476979,0,0.986836
0.504515729213328,0,0.994768
0.5337669329516417,0,0.993858
0.5443738828672211,0,0.993267
0.29073829890237224,0,0.995195
0.2638965293557825,0,0.996551
0.45717224624291775,1,0.999983
0.48063571884493744,0,0.995161
0.40680382094054973,0,0.997275
0.2835484614000094,0,0.997571
0.5756067244633106,1,0.999967
0.5672691461479125,0,0.995824
0.4849703713438411,0,0.993305
0.29774149880596595,0,0.989330
0.45336656696872907,0,0.991157
0.48256938591693144,0,0.991832
0.5178266249753277,0,0.982010
0.560661671005177,0,0.989117
0.5621971919260319,0,0.996931
0.6323397630562463,0,0.997743
0.2653876850500899,0,0.997331
0.6002229619751928,0,0.992634
0.21647564711311426,0,0.996985
0.2243389561320115,0,0.986838
0.20402841090871465,0,0.993497
0.23919799414211415,0,0.995587
0.23268196901356944,0,0.988191
0.21634937164072007,0,0.993442
0.19680088241393012,0,0.988858
0.18552294495823793,0,0.991253
0.19714338125922107,0,0.998601
0.18450202731422766,0,0.995496
0.18540540024973448,0,0.989541
0.22746927453078114,0,0.995027
0.43396838855215286,0,0.995103
0.4717599980480902,0,0.997482
0.5764376272156102,0,0.990138
0.6051022554260652,0,0.988745
0.5989966673696404,0,0.994694
0.6008372876741368,0,0.994285
0.18153570008438424,0,0.997865
0.23145990542851969,0,0.991451
0.1437130369460515,0,0.996919
0.20864517409060937,0,0.991487
0.2684649925197715,0,0.992450
0.520604497394118,0,0.995557
0.3052543395685086,0,0.994368
0.5395915644216108,0,0.996590
0.5627157942729955,0,0.996949
0.43870599402996674,0,0.996246
0.45826123210999464,0,0.996086
0.6059822419662122,0,0.990887
0.5828981487146068,1,0.999884
0.5786680022258318,0,0.995573
0.3065367948747179,0,0.990422
0.20270731975398554,0,0.996948
0.18112132078667412,0,0.998068
0.18858703279949968,0,0.998760
0.40925508544981565,0,0.995975
0.28303470142797743,0,0.998517
0.522096893651219,0,0.995346
0.5980719324206639,0,0.993042
0.4224763281119344,0,0.996463
0.2510115294155652,0,0.996647
0.19584741288526583,0,0.999778
0.12206172690299182,0,0.997701
0.0937904772623004,0,0.999136
0.30355083066098876,0,0.992272
0.2646871145856715,0,0.992733
0.33489297713533295,0,0.997556
0.47973894195605427,0,0.996094
0.45574747316692565,0,0.992858
0.3732905755404449,0,0.994499
0.535492242732627,0,0.989104
0.3176001667816375,0,0.997314
0.3231416562937641,0,0.998768
0.44009356444890196,0,0.999724
0.48345844286798456,0,0.998691
0.5876907290096968,1,0.999984
0.5717671163109135,0,0.998825
0.6121436092344142,0,0.997913
0.5514572660332663,0,0.998442
0.4948828917510332,0,0.999431
0.5287534260130938,0,0.997793
0.619754659078125,0,0.995144
0.6340275520054399,0,0.996473
0.2749156230166522,0,0.992528
0.25096197191804115,0,0.996299
0.48437601923761253,0,0.997159
0.4466002362512737,0,0.994252
0.32342907646134,0,0.995820
0.5651428067096391,0,0.998754
0.5646612170520132,0,0.995696
0.5222041761441251,1,0.999983
0.5456896631897001,0,0.995734
0.5599298177456417,0,0.994941
0.6359478954019248,1,0.999917
0.5756232890364495,0,0.995539
0.3253296247040652,0,0.994787
0.2628298011327086,0,0.994512
0.513839015002177,0,0.994108
0.5882087254885354,0,0.995791
0.6367204087592304,1,0.999983
0.6012738134300049,0,0.995568
0.6008503628838925,1,0.999983
0.6121679046705586,0,0.996237
0.5354033943844794,1,0.999983
0.6180991311240805,0,0.996222
0.6291192488272327,0,0.996122
0.5706821752729533,0,0.996251
0.600974158666079,0,0.995414
0.5695048252802187,0,0.996983
0.6434236557617362,0,0.996135
0.6705166836378667,0,0.994568
0.6212301991370165,1,0.999983
0.6283527780277096,1,0.999933
0.6589392554769082,0,0.995239
0.6388055841523484,0,0.996384
0.602545766806617,0,0.997253
0.6644005085075596,1,0.999901
0.660029206063823,0,0.994939
0.6863358542062092,1,0.999900
0.6241970933614368,0,0.995951
0.6247210405747069,0,0.996241
0.648991083884549,0,0.995900
0.6259332740763147,0,0.997008
0.6814910107110297,0,0.996661
0.6191133467721994,0,0.999302
0.5892442834557619,0,0.996603
0.6007711330944309,0,0.996500
0.6720475644953368,0,0.995986
0.6815995975860639,0,0.995650
0.690581588559916,1,0.999836
0.6588431686052286,0,0.996071
0.6984545309072353,0,0.996070
0.6355991926260502,0,0.996308
0.6727013239744037,0,0.995815
0.6888865817453956,1,0.999967
0.6891215445821678,0,0.996264
0.7002817581411738,1,0.999984
0.7062547786120827,0,0.996769
0.705021971508563,0,0.999243
0.6990783174705166,0,0.996672
0.6943520817146355,0,0.995846
0.6843990954889428,0,0.997590
0.6874712139721654,0,0.996091
0.7195908179971752,0,0.996622
0.7067597405919175,0,0.997261
0.6689453340248916,1,0.999967
0.6863059212630812,0,0.996614
0.6610389232681596,1,0.999967
0.6072812599877476,0,0.999672
0.6391331426295005,1,0.999866
0.6894657467517062,0,0.997690
0.680353145537738,0,0.996635
0.694402583482895,0,0.996059
0.6697966574850968,1,0.999984
0.6572112626098535,0,0.997061
0.6388787722106659,0,0.997095
0.6899274059900186,0,0.996666
0.6550266809815275,1,0.999885
0.6957462886999313,0,0.996413
0.6897932108237652,0,0.997168
0.6772320031461884,0,0.995660
0.3892093909427348,0,0.999464
0.3251185597534742,0,0.998991
0.5393608870530562,0,0.997364
0.6518257786460846,0,0.994590
0.6474138012213795,0,0.997087
0.43953792248538553,0,0.995531
0.453019625016907,1,0.999983
0.4415569330177964,0,0.998701
0.4433672703658729,0,0.995589
0.47735241879320567,1,0.999950
0.4365250234821347,0,0.994567
0.6021605380122098,1,0.999951
0.43943023553233823,0,0.998425
0.3528558851270999,0,0.994613
0.5122503328178033,0,0.995921
0.21466077829170047,0,0.999246
0.6356676608912382,0,0.997950
0.6530432528904979,0,0.994657
0.6747651149366228,0,0.995021
0.6410459276792364,0,0.995561
0.6434627147820624,0,0.995400
0.6612128552750338,0,0.995949
0.640950839554378,0,0.997606
0.6621617660539685,0,0.995387
0.6388533232860003,0,0.997020
0.463846370502389,0,0.993184
0.5782411186348035,0,0.974838
0.35738851576840447,0,0.999217
0.4725154069616421,0,0.987474
0.6672112207151984,0,0.987325
0.6413271377903356,0,0.985747
0.5074651114455072,1,0.999967
0.5822534610316155,0,0.978006
0.33522566850655794,0,0.976249
0.532940188459388,0,0.997233
0.2862600162759405,0,0.985651
0.4904593717272275,0,0.981986
0.4484435032441106,0,0.988870
0.4484459182310749,0,0.996726
0.4715936843209479,0,0.999291
0.5263178782688767,1,0.999984
0.508555921260536,0,0.996117
0.48834461210321495,0,0.999239
0.5143248914588956,0,0.989685
0.501128914101071,0,0.997739
0.48361154163847975,0,0.990151
0.4264966417365342,1,0.999983
0.48886228991060615,0,0.995991
0.4804592236277675,0,0.996766
0.582112933330798,0,0.994915
0.6037805595012539,0,0.996976
0.517206178005114,0,0.998047
0.5778027762306843,1,0.999983
0.6347062289062532,1,0.999984
0.559950732450648,0,0.997058
0.5852504878807263,0,0.999698
0.7195391812103191,0,0.994532
0.7341093514319372,0,0.994861
0.6279583950669837,0,0.996764
0.6585546045474797,0,0.999403
0.736996130263067,0,0.995887
0.5187128840062107,0,0.996835
0.6081674975880715,0,0.995511
0.6845483188501994,0,0.995399
0.49459816611245,0,0.999243
0.5553288364544737,0,0.997705
0.6018431642246905,0,0.994879
0.5406078309045131,0,0.996810
0.5850089141595536,0,0.995050
0.6018943113162744,0,0.996367
0.6358585938302895,0,0.994960
0.7207294182133978,0,0.995325
0.7040603766600564,1,0.999967
0.6921546696676039,0,0.999553
0.5043457354428501,0,0.996355
0.5368018728146515,0,0.996980
0.4819917225180682,0,0.999362
0.6007022378220436,0,0.997176
0.6045119527580799,1,0.999883
0.5537892575172029,0,0.996311
0.5998867440106943,0,0.996750
0.5922796522435434,0,0.997183
0.6313572437703326,1,0.999900
0.2801767451162583,0,0.998973
0.5306655551471778,0,0.995360
0.5928932674833944,0,0.995359
0.49125165342625626,0,0.999484
0.580020252183362,0,0.996191
0.5942689004734169,0,0.997973
0.5780085304799849,1,0.999967
0.5949052890803966,0,0.996156
0.7246536277348744,0,0.996408
0.607417387808521,0,0.996365
0.7310589658840083,0,0.996006
0.6059440679326338,0,0.996248
0.5990248175495599,1,0.999983
0.636806010223378,0,0.999553
0.6882682889167545,0,0.999134
0.6854275543688496,0,0.996542
0.6714729148041627,0,0.997161
0.7610902840801566,1,0.999867
0.6791539111396131,0,0.996157
0.7243743011599295,0,0.995758
0.6686790958636527,0,0.996160
0.7265372860858218,1,0.999984
0.6395789740394444,0,0.996902
0.6843160841312094,0,0.996483
0.7200556685421597,0,0.997019
0.7258833569501043,0,0.994871
0.7228662799819277,0,0.995214
0.712942849242349,0,0.995668
0.7077655092776592,0,0.994981
0.7222743970354556,0,0.999704
0.7210182275097534,0,0.998591
0.7140157042183681,0,0.999524
0.7151936581565034,0,0.999409
0.7007964173131366,0,0.995099
0.719646759510425,0,0.995093
0.6880414692513281,0,0.996700
0.6974629555978383,0,0.995730
0.7305881364552683,0,0.995287
0.7325362448174104,0,0.997528
0.7061652814155891,0,0.996758
0.7099127534717665,0,0.996202
0.6347166306747211,0,0.998427
0.5842094461770388,0,0.997371
0.5625436622488671,0,0.996493
0.5677504613020847,1,0.999967
0.5146506769330537,0,0.996933
0.6005576735790801,0,0.998634
0.6386553696949102,0,0.998713
0.6494841686606706,0,0.998837
0.7558051273922513,0,0.999374
0.673311247868467,0,0.997313
0.6122701465808223,0,0.998920
0.6232046974420886,0,0.998754
0.7496927384454188,0,0.997387
0.7321809485800959,0,0.997680
0.5307422865886325,0,0.999637
0.633382571319819,0,0.999241
0.6052197841658377,0,0.998194
0.667025022466429,0,0.996699
0.6422170302926498,0,0.995151
0.694249127317702,0,0.994990
0.7319279265719627,0,0.994737
0.7049633237327145,0,0.995143
0.7035541564495873,0,0.997204
0.7094428077180994,0,0.995746
0.6845748051993703,0,0.997664
0.48285826089803535,0,0.997417
0.6227727873277957,0,0.996617
0.6852957436653225,0,0.996815
0.7096207500039101,0,0.998654
0.7613202151806121,0,0.998829
0.760674204604682,1,0.999885
0.7331408518066237,0,0.996894
0.35453191122110644,0,0.996369
0.7793873387262255,0,0.995408
0.6936421668294533,0,0.995131
0.7180107520444081,0,0.999673
0.6630761266877799,0,0.996898
0.7367443837521976,0,0.999170
0.6771646969720196,0,0.996528
0.7137079186486849,0,0.996551
0.7587159064342682,0,0.998038
0.7166354096695753,1,0.999951
0.5983557267604542,0,0.995824
0.568977017846122,0,0.998645
0.6139246230319912,0,0.997210
0.7512351045084324,0,0.995091
0.6643538374421178,0,0.997709
0.7469276507769591,0,0.996905
0.6700892463973762,0,0.996918
0.6858591774549645,1,0.999833
0.6355312129876741,0,0.996795
0.669581841073329,0,0.998260
0.6193159896191465,0,0.999050
0.6710135037009383,0,0.996210
0.7322810840552778,1,0.999984
0.658512199193236,1,0.999834
0.6842425143781271,0,0.997236
0.6516069678232971,0,0.997147
0.6913945247662326,0,0.996844
0.6511573759296888,0,0.996716
0.7351872237728999,0,0.996889
0.7228426382119162,0,0.999607
0.7123964538208102,0,0.999771
0.6633695423368307,1,0.999834
0.6715423108148554,0,0.998156
0.7635157527369112,0,0.994657
0.7723409489727447,0,0.996389
0.6547197398334091,0,0.997733
0.7080713956869307,0,0.996513
0.6901517352964875,0,0.998502
0.3470869546458758,0,0.999505
0.7522386857603068,0,0.994452
0.7139873799875055,0,0.996159
0.3994331045647467,0,0.996510
0.5695523282818022,0,0.996252
0.6835102936008557,0,0.999485
0.6487399470189773,0,0.997118
0.7577383369923609,0,0.997746
0.7157150953183558,0,0.998675
0.7505154784753488,0,0.999590
0.6757542234654756,0,0.999042
0.669061796784944,0,0.996681
0.686835029185828,0,0.998885
0.7230722539854689,0,0.995602
0.7378692843154759,0,0.996618
0.7522153895140274,1,0.999851
0.5967336095527707,0,0.999141
0.5968522735940599,0,0.995408
0.552922810398307,0,0.998953
0.6260706517931544,0,0.998123
0.6393993284360623,0,0.993097
0.7094390186856026,0,0.984650
0.5924168233427419,0,0.987195
0.4456799019372352,0,0.991778
0.7696431524656641,1,0.999984
0.7132514913445536,0,0.986444
0.7582813306947118,0,0.995680
0.754468969613887,0,0.999212
0.49639151092007927,0,0.997343
0.6045476140078538,1,0.999951
0.7076173237021458,1,0.999917
0.7280963924977375,1,0.999983
0.651651879619574,0,0.991041
0.7756250204605402,0,0.989282
0.7073075244298057,1,0.999984
0.6506797642702927,0,0.995048
0.5849218692627651,0,0.996991
0.5669548665068486,0,0.994085
0.6362546900763814,0,0.997365
0.577389289731515,0,0.999035
0.6916951561692676,0,0.993864
0.7024312115133476,0,0.998174
0.6714343779496631,0,0.992950
0.6647776800565022,0,0.995637
0.675042583411447,0,0.994747
0.7439450886635064,0,0.993435
0.6127724125342806,0,0.995461
0.7149248276541069,1,0.999933
0.7293978617371469,0,0.996396
0.7840261560354236,0,0.995164
0.7057931537614455,0,0.992316
0.6016807389797425,1,0.999983
0.6243394819296245,0,0.998248
0.6711408832012129,1,0.999984
0.6428544082836938,0,0.994073
0.770630228467392,0,0.994394
0.7617405882335565,0,0.994313
0.7668945235863177,0,0.993132
0.7583159177276946,0,0.993256
0.6759606757211362,0,0.994785
0.6995304503984752,0,0.998861
0.7792350742300226,0,0.993321
0.7620291532767889,0,0.994249
0.7607633346104721,0,0.994408
0.771135915053281,0,0.995420
0.7516074999244549,0,0.996147
0.7678468595479591,0,0.994897
0.7572729460634191,0,0.995630
0.7561986279562115,0,0.996138
0.7654257231034262,0,0.998802
0.6548448012844164,0,0.996126
0.666539554328335,0,0.999654
0.6369073329194289,0,0.998732
0.7629541178184173,1,0.999984
0.756507533074907,0,0.996211
0.7748898286743783,0,0.996112
0.7351501099403014,1,0.999967
0.7359183780128854,0,0.996163
0.754883513982476,1,0.999984
0.7344879436221846,0,0.996435
0.7524056020213834,0,0.997147
0.7437388763741689,0,0.999322
0.738707849410045,0,0.998180
0.7562471078171654,0,0.998394
0.7538658640081927,0,0.996919
0.7574267022354748,0,0.996244
0.7475077464727249,0,0.998051
0.7451956102973933,0,0.997726
0.74801612492444,0,0.996554
0.7339638223555712,0,0.999801
0.722618836451173,0,0.997698
0.6971237123418108,0,0.997003
0.7544339997920184,1,0.999984
0.7605301153721442,0,0.999140
0.7265200990796498,0,0.997698
0.7480803347654988,1,0.999984
0.7486800329107917,0,0.997200
0.7495485222913701,0,0.999541
0.7476439522420844,0,0.998255
0.7330546271101581,0,0.999607
0.7474406763723023,0,0.998501
0.7531170937302862,0,0.998393
0.5067355410404097,0,0.998056
0.4983221720016891,0,0.999526
0.5821108213069711,0,0.997589
0.544619812456836,0,0.999034
0.598438770982066,0,0.998486
0.6644458943008863,0,0.998001
0.698868632544627,0,0.997726
0.778608708412167,0,0.997269
0.7446278394664965,0,0.996878
0.736450653545828,0,0.997507
0.7687806319439325,0,0.997858
0.7772778740223079,0,0.997781
0.75093656699985,0,0.997254
0.7648897266343694,0,0.996496
0.7572914376752944,0,0.996758
0.7450415462491816,1,0.999886
0.7688015939021101,0,0.997057
0.7507590160116684,0,0.996690
0.7490112394920944,0,0.996254
0.7626159230135203,0,0.997073
0.7431628961535292,0,0.996252
0.7486282308464429,0,0.996667
0.7253238003229784,0,0.997353
0.7899582359136994,0,0.996592
0.7477527494757604,0,0.997568
0.7728696540477207,0,0.996471
0.7601402949145378,0,0.999033
0.7398386495359166,0,0.996923
0.7649172612271524,0,0.997103
0.7533831338181275,0,0.998788
0.76232291996236,0,0.999081
0.7513388965686443,0,0.997295
0.7779033098053093,0,0.998142
0.7720628415604904,0,0.998556
0.731557558328551,0,0.998933
0.7410013564194357,1,0.999902
0.744720100945815,0,0.999689
0.7372454138699246,0,0.997621
0.756346442178939,1,0.999983
0.6771947424476179,1,0.999884
0.6708428865165724,0,0.998355
0.6574376109372836,0,0.998099
0.6959781850636491,0,0.998978
0.68778495168744,0,0.998718
0.712055752965315,0,0.998990
0.8104679523928366,0,0.998237
0.29312001267681737,0,0.998419
0.7459450277765378,0,0.998258
0.778236885959077,1,0.999950
0.7468510928498289,0,0.997871
0.7765373314678973,0,0.996740
0.7724255670056344,0,0.997163
0.7647193723210225,0,0.996565
0.7721937184894082,0,0.995533
0.7430664180780892,0,0.997872
0.695658569730402,0,0.998852
0.7213990674669318,0,0.997465
0.7098755428066453,0,0.997175
0.7480615396249841,0,0.999019
0.7238060848895524,0,0.998960
0.798504945680689,0,0.995980
0.7522966017900812,0,0.996571
0.7755028801179288,0,0.996346
0.780066839499772,0,0.995317
0.7851485780361708,0,0.995322
0.7641644672456116,0,0.997298
0.6822283654766218,0,0.998065
0.7777456454177376,0,0.997605
0.7480610503547828,0,0.999622
0.7818349941720804,0,0.998984
0.7800135831858495,1,0.999967
0.7957077941545715,0,0.998392
0.7865228710170572,0,0.998542
0.7707973981592572,0,0.998521
0.7477024609605383,0,0.999022
0.8187170427258235,0,0.996935
0.7922359725064465,0,0.998022
0.7954388835673077,0,0.996811
0.7773600249876607,0,0.997103
0.7042220769908741,0,0.998641
0.7817498351025514,0,0.998431
0.7117900354071091,0,0.998184
0.806286457962194,0,0.997801
0.8044824227797555,0,0.999177
0.7974745654262598,0,0.997578
0.8091004226449613,0,0.998263
0.7577526517978931,0,0.999226
0.751519436229706,0,0.998052
0.7024172650125563,0,0.998492
0.8189896506082522,0,0.997953
0.7993022143608209,0,0.988161
0.7044514666915654,0,0.990520
0.7052182541016184,0,0.995278
0.7114218682697618,0,0.999818
0.673323460434415,0,0.989311
0.6797331159175645,0,0.986008
0.7281205193403201,0,0.989365
0.7593072504458108,0,0.989029
0.7074329203219218,0,0.988030
0.7789144567197803,0,0.989963
0.7612916755064223,0,0.991828
0.6768040990563247,0,0.996863
0.8027730531414424,1,0.999984
0.7440485343781206,0,0.991438
0.8138324168702171,0,0.999293
0.7503338956644541,1,0.999883
0.6630090204902047,0,0.992534
0.659952766327322,0,0.994379
0.6642936426554426,0,0.995962
0.7730099485254983,0,0.995047
0.6932991518137087,0,0.999081
0.6906040056438275,0,0.996740
0.8101439508139092,0,0.994432
0.7750838780252874,0,0.995896
0.6964434158035557,0,0.995291
0.76554108996855,0,0.996585
0.6815364209706977,0,0.998021
0.5358353600416879,0,0.996720
0.7367595914435568,0,0.997365
0.760157216189052,0,0.996542
0.8101921418061602,0,0.997302
0.7913316851111445,1,0.999967
0.7504257383451024,0,0.997344
0.7889410720427511,0,0.999241
0.7254799551001168,0,0.997228
0.7497895104372991,0,0.997713
0.7114243694097114,0,0.998451
0.7599905716041941,0,0.998061
0.7492589077528261,0,0.996695
0.7947032340616056,1,0.999984
0.7918470279986665,0,0.997665
0.7113814225026599,0,0.997609
0.7227255559227733,0,0.997473
0.7418986317555777,0,0.997107
0.7622068495759278,0,0.998245
0.7779394401592735,0,0.997944
0.8086326123956079,0,0.997904
0.7804702117375173,0,0.998458
0.8085105674034773,0,0.998056
0.7686877716657776,1,0.999984
0.769490877478819,0,0.997984
0.7750192104295017,0,0.998123
0.7653142299287011,0,0.997646
0.7845532224479786,0,0.997812
0.8257905658925867,1,0.999984
0.7740549070404421,0,0.998345
0.7425314846992865,0,0.998357
0.7739235600404826,0,0.998458
0.8101526801408371,0,0.998191
0.7409455631146461,1,0.999830
0.33254914758805365,0,0.999663
0.31936274688931865,1,0.999967
0.3097264155465357,0,0.999664
0.3886169010850662,0,0.999676
0.3610391124969977,0,0.999705
0.26637847328473024,1,0.999822
0.3445724604911249,0,0.998098
0.23600776268822837,0,0.997450
0.2275025138286074,0,0.997342
0.20642626341237666,0,0.997414
0.231669404590315,0,0.998351
0.23589077754152105,0,0.996627
0.24644376485780004,0,0.996707
0.26888489198407367,0,0.996218
0.3025801068811093,0,0.998417
0.2684821828300822,0,0.995791
0.3786407409772715,0,0.996443
0.3916892586166609,0,0.995920
0.3210649054458622,0,0.996568
0.36683332709312455,0,0.998685
0.3107238512700679,0,0.996298
0.29138944039856873,1,0.999983
0.28770003566307295,0,0.999626
0.3011701030619723,1,0.999934
0.036896301872726744,1,0.999963
0.26396832991354285,0,0.999779
0.325163111513456,0,0.992775
0.1387018465573752,0,0.996748
0.11981000952605002,0,0.999541
0.3747683587276669,0,0.997247
0.2886465633687052,0,0.997903
0.22458207352223164,0,0.999348
0.07148064872059338,0,0.998380
0.39422439408108295,1,0.999916
0.3757603486865042,0,0.999040
0.3579273236649821,0,0.993840
0.14049140980818908,0,0.995139
0.41836096379035415,0,0.993278
0.3892872875150215,0,0.997140
0.4163506439294427,0,0.995901
0.37516804987178554,0,0.995569
0.153539296109848,0,0.999051
0.16829512271759553,1,0.999983
0.3104527452748354,0,0.997570
0.2930627712543232,0,0.991591
0.40451468737796636,0,0.997921
0.7660016591059214,0,0.997929
0.3909255590828434,0,0.996398
0.46849466339824264,0,0.997058
0.5575202685521125,0,0.994116
0.7254897771310617,0,0.996908
0.45293575924202856,0,0.999565
0.4097413987409987,0,0.997545
0.6372486664961694,0,0.998688
0.6993757945156072,0,0.998313
0.7528977718967709,0,0.995024
0.7617341692857473,0,0.996217
0.7869740993068987,0,0.995990
0.41277426199956496,0,0.998726
0.36733237556751,0,0.998260
0.4121097643809334,0,0.999420
0.7767033156038925,0,0.997616
0.3106533993430458,1,0.999983
0.6935728765906134,0,0.998685
0.5483248807184973,0,0.999643
0.7627417223613943,0,0.998285
0.5685434618380674,0,0.997580
0.7596447227277661,0,0.996797
0.7548139506112973,0,0.997285
0.7609556444536572,0,0.998911
0.7056482958071146,1,0.999834
0.7601169017822331,0,0.998950
0.7578326990821725,0,0.996238
0.7403824074833516,0,0.996499
0.8066225246013272,0,0.995447
0.7820559284867687,0,0.998715
0.8202122252839318,0,0.999802
0.7395775164664069,0,0.998648
0.7665788751322233,1,0.999902
0.738213490124024,0,0.998921
0.3651624093753405,0,0.996288
0.4262911765557645,0,0.999446
0.5345704832000098,0,0.999596
0.6251520349981813,0,0.998205
0.7226301564055796,0,0.998488
0.7574946439946759,0,0.998900
0.13470402041236706,0,0.999646
0.2604531684718523,0,0.999696
0.29422431273451916,0,0.999132
0.35086692325541574,0,0.999545
0.40582089817214895,0,0.999125
0.20254026798497063,0,0.998623
0.2951220167108093,0,0.999182
0.29943473308927976,0,0.998179
0.39998667988208747,0,0.998572
0.2765678284936686,0,0.998196
0.12028920472332945,0,0.999386
0.31127482138636714,0,0.999615
0.30470043712552386,0,0.998350
0.3733313506291006,0,0.998970
0.34573477777433037,0,0.998099
0.30468115354686665,0,0.999104
0.4127081144068386,0,0.999596
0.2942457010195296,1,0.999858
0.3335777971109151,0,0.999342
0.35091017385420165,0,0.998638
0.41513282527346906,0,0.994543
0.35445022869704756,0,0.994218
0.3099333754086769,0,0.998595
0.1597346163149506,0,0.998040
0.13331782875193424,0,0.998372
0.2837986731592258,0,0.997443
0.11690196253590104,0,0.996733
0.06956410656018876,0,0.997546
0.26892557853955223,0,0.998727
0.4262670816644599,0,0.999675
0.31280056598910355,0,0.996173
0.35946475566795466,0,0.992396
0.1460477583999482,0,0.996160
0.29683453009832583,1,0.999915
0.3495362430749179,0,0.996551
0.3140182566940516,0,0.999731
0.15760792762985862,0,0.996042
0.2889703289679415,0,0.997113
0.44711246219802825,1,0.999950
0.3921497310396371,0,0.999780
0.44616140675605304,0,0.998006
0.3645453348523299,0,0.998001
0.38246784585444654,1,0.999883
0.3734775809690123,0,0.997107
0.41438421298011086,0,0.999747
0.34937830970679984,0,0.993215
0.4012335939509688,0,0.992704
0.4051428864327461,0,0.997670
0.2836571277647114,0,0.998628
0.04273317116540118,0,0.996871
0.3133643492905079,0,0.995680
0.45185397924088727,0,0.995953
0.13690077852022217,0,0.998788
0.31734153259867165,0,0.996691
0.42815131479490803,0,0.998018
0.3388181742984154,0,0.996699
0.3912819137031022,1,0.999965
0.31404899669625697,0,0.996689
0.4481577684789647,0,0.997068
0.33924135067116906,0,0.994603
0.4245976676756157,0,0.997384
0.34614277068771376,0,0.997707
0.3602857138960339,0,0.997080
0.42806881686481746,0,0.998686
0.42305325567657676,0,0.999764
0.14635488017214718,0,0.996982
0.162973935943318,0,0.993645
0.12755198061250023,0,0.996849
0.1574831451021966,0,0.996625
0.1582413662967648,0,0.999205
0.09843008380540942,0,0.998321
0.5089387160841782,0,0.998301
0.5486205728215945,0,0.996236
0.569193884551298,1,0.999983
0.7455955964862241,0,0.998425
0.7421175342584487,0,0.999720
0.736506669148439,0,0.999210
0.40338925666425696,1,0.999984
0.7478354865306047,0,0.998740
0.7749969072323684,0,0.999069
0.7267938967456653,0,0.998654
0.6967265971778653,0,0.999068
0.7190809906751616,1,0.999984
0.6434834481440398,0,0.999439
0.6732426996263097,0,0.999003
0.690230351299326,0,0.999030
0.6905082599625016,0,0.998719
0.6936534423295223,0,0.998429
0.7404636945758211,0,0.998454
0.7377923431769698,0,0.998989
0.7352423313043243,0,0.999268
0.8038492264747326,0,0.999103
0.7896244401555087,0,0.996590
0.7788076482578637,0,0.996792
0.7456667052572067,0,0.996796
0.7296475918033282,0,0.997477
0.6790066918234943,0,0.997899
0.7566267773737468,0,0.997815
0.8234523278415844,0,0.999180
0.8202555980732652,1,0.999984
0.7743469311151328,0,0.996671
0.7427162834427644,0,0.996425
0.6005188317762015,0,0.986118
0.6840123561152108,0,0.987106
0.6659362832341721,0,0.994405
0.6887693344390832,0,0.991922
0.8169867794601355,0,0.991578
0.7602834016940386,0,0.999239
0.8142867677470922,1,0.999885
0.2617225845159036,0,0.993363
0.7723344262205386,0,0.999533
0.7563273745277115,0,0.992533
0.7710900854300913,0,0.994904
0.5493623323836868,0,0.995929
0.4643167031770792,0,0.997162
0.44241260358199164,0,0.999410
0.6909562305651771,0,0.988812
0.7331692831873192,0,0.993793
0.733234575385114,0,0.992170
0.7675323059680316,1,0.999967
0.7317536697771282,0,0.990624
0.18184065479396716,0,0.992289
0.802576341244842,1,0.999951
0.7997279692891808,1,0.999836
0.7692603674930937,1,0.999984
0.8179307882476784,0,0.998464
0.7399348632215961,0,0.995157
0.6746816912699732,0,0.996628
0.6841013982518533,0,0.997732
0.7327358284708214,0,0.996368
0.7525675010859731,0,0.998083
0.8289223726810676,0,0.999820
0.7904537025732737,0,0.997477
0.8309451820788065,0,0.998091
0.8131189970074809,1,0.999984
0.8177846812322277,0,0.997910
0.8237900683500893,0,0.997952
0.7934170169815581,0,0.997080
0.80172074008789,0,0.996084
0.7937321913909762,0,0.998952
0.8072384615653707,0,0.998085
0.8098656478149521,0,0.996758
0.6171131086664328,0,0.998347
0.809000990741249,1,0.999984
0.701276686505505,0,0.998804
0.7733656336741317,0,0.998429
0.7973986310564759,0,0.997480
0.7571853905674035,0,0.996822
0.7810968573708976,1,0.999984
0.7934615756543871,0,0.997098
0.8011851958756409,0,0.996885
0.7763305829242135,0,0.998964
0.7364467339003268,1,0.999935
0.834585346122731,0,0.996606
0.812235168620641,1,0.999983
0.7324821555896102,0,0.997084
0.6924837427166547,0,0.995649
0.8035542640713064,0,0.996039
0.7777485241167009,1,0.999984
0.813694923165105,0,0.996684
0.7218723075297163,0,0.997421
0.7545618783466643,0,0.999703
0.7952867969740226,0,0.997015
0.8040680864787972,0,0.998328
0.7642359398381847,1,0.999901
0.7856671470268066,0,0.996869
0.8160988253809958,0,0.997898
0.7753420297264432,1,0.999885
0.8000582254716107,0,0.996992
0.8268072515399507,0,0.999329
0.7929580441028985,0,0.996875
0.7941122762776434,0,0.999721
0.7744116465195813,1,0.999984
0.8167468631307558,0,0.996477
0.8008656644747273,1,0.999852
0.7929571933072579,1,0.999935
0.7718382759396807,1,0.999984
0.777975033913138,1,0.999984
0.7978166257377314,1,0.999984
0.6408528944643366,1,0.999984
0.8026818894635055,0,0.999523
0.7819004621402958,0,0.999752
0.7558767715896928,1,0.999984
0.7497317631170047,1,0.999984
0.7352422798387745,0,0.999672
0.7373105796908072,1,0.999951
0.7771339917129406,0,0.998059
0.7759607834511375,0,0.997679
0.7633246611109267,0,0.998877
0.7566970535015937,0,0.998662
0.7932486011616664,0,0.998420
0.76608842665641,0,0.998136
0.7361533191032411,0,0.998515
0.7438122534587843,0,0.999468
0.7351207148972421,0,0.997135
0.7771122472585655,0,0.997266
0.7770291796451805,0,0.997981
0.7730318329442853,1,0.999900
0.8043026614365214,0,0.998915
0.7779932467881672,0,0.999502
0.7986211661791593,0,0.998765
0.8009315944895088,0,0.998384
0.7761038896157957,1,0.999967
0.7893405336901876,0,0.997411
0.7863328206426428,0,0.997624
0.7724820323943756,0,0.997068
0.794139364924924,0,0.998273
0.808141713929155,0,0.999635
0.7958661413932309,0,0.996812
0.7661592231557929,0,0.997259
0.8048147472426737,0,0.999141
0.7787582082667185,0,0.998030
0.7706164038883186,0,0.999639
0.7362382016318114,0,0.998544
0.7670594125900053,0,0.997806
0.8083303485135123,0,0.997370
0.7669160227435803,0,0.997314
0.7799619052947354,0,0.997546
0.7611075114822035,0,0.996147
0.7789939268999958,0,0.998917
0.7529794632970299,0,0.997268
