0.013166611896955942,0,0.946387
0.05277858400019894,0,0.947181
0.10812279720175708,0,0.947733
0.16171830852792937,0,0.949306
0.47101874539557953,0,0.950168
0.8994646890826035,0,0.950777
0.996286680426787,0,0.952391
0.9999999999986091,1,0.999933
1.0,0,0.949417
1.0,0,0.950075
1.0,0,0.950516
1.0,0,0.950023
1.0,0,0.950553
0.9999999999999962,0,0.950881
0.999999999999998,1,0.999982
1.0,1,0.999983
0.9999999999999986,1,0.999983
1.0,1,0.999983
1.0,1,0.999983
0.9999999999999994,0,0.950704
0.9999999999999998,1,0.999983
0.9999999999999992,0,0.951340
0.9999999999999972,1,0.999982
1.0,1,0.999982
0.999999999999997,1,0.999982
0.9999999999999957,0,0.950814
0.9999999999999989,0,0.951258
1.0,0,0.951492
0.9999999999999901,1,0.999981
0.9999999999999919,0,0.952053
1.0,0,0.951463
0.9999999999999832,0,0.951593
0.9999999999999999,1,0.999982
0.9999999999999991,1,0.999982
1.0,1,0.999982
0.9999999999999988,1,0.999981
0.9999999999999977,0,0.995468
0.9999999999999941,1,0.999981
0.9999999999999922,1,0.999981
1.0,1,0.999981
0.9999999999999982,0,0.995520
1.0,0,0.995586
0.9999999999999987,0,0.995706
0.9999999999999969,1,0.999981
1.0,0,0.995772
0.9999999999999976,0,0.995683
1.0,1,0.999982
1.0,1,0.999981
1.0,0,0.995663
0.9999999999999956,0,0.995930
0.9999999999999977,1,0.999983
1.0,1,0.999983
1.0,1,0.999979
1.0,1,0.999982
1.0,1,0.999958
0.9999999999999962,1,0.999983
0.9999999999999994,0,0.995264
1.0,1,0.999982
0.9999999999999953,1,0.999979
0.9999999999999949,0,0.995740
0.9999999999999981,1,0.999982
0.9999999999999757,1,0.999982
1.0,1,0.999982
0.999999999999991,1,0.999981
1.0,1,0.999983
0.999999999999995,1,0.999982
1.0,1,0.999982
1.0,1,0.999982
0.999999999999992,1,0.999982
1.0,1,0.999983
1.0,1,0.999983
1.0,1,0.999979
1.0,1,0.999979
1.0,1,0.999983
0.9999999999999811,1,0.999983
1.0,1,0.999983
0.9999999999999932,1,0.999983
0.9999999999999925,1,0.999983
1.0,1,0.999983
0.9999999999999982,1,0.999983
0.9999312833827697,1,0.999982
0.9999033012677552,1,0.999982
0.9998922290801963,1,0.999981
0.9998860401722771,1,0.999982
0.9998783092743391,1,0.999981
0.9998763568130029,1,0.999979
0.9998741121477399,1,0.999982
0.999872698151063,1,0.999982
0.9998930101448638,1,0.999981
0.9999058754897212,1,0.999978
0.9999084574751205,1,0.999978
0.9999164356131551,1,0.999982
0.9999400018470138,1,0.999982
0.9999470819475281,1,0.999981
0.9999497097067178,1,0.999977
0.999999785566178,1,0.999982
0.9999998244704251,1,0.999981
0.9999998317655459,1,0.999977
0.9999999724440107,1,0.999982
0.9999999996913753,1,0.999981
0.9999999997116726,1,0.999981
0.9998237632352225,1,0.999975
0.9996920974387675,1,0.999980
0.9997525927489119,1,0.999976
0.9999004353677674,1,0.999976
0.9999728803989979,1,0.999976
0.9999999999994644,1,0.999983
0.9999999999999933,1,0.999982
0.9999999999999879,1,0.999963
0.9999999999999906,1,0.999979
1.0,1,0.999980
0.9999999999999958,1,0.999980
0.9999999999999895,1,0.999979
0.9999999999999942,1,0.999978
1.0,1,0.999982
1.0,1,0.999982
0.9999999999999938,1,0.999982
1.0,1,0.999982
0.9999999999999867,1,0.999981
0.9999999999999846,1,0.999981
1.0,1,0.999980
0.9999999999999912,1,0.999983
1.0,1,0.999982
1.0,1,0.999983
1.0,1,0.999983
1.0,1,0.999983
1.0,1,0.999983
1.0,1,0.999983
0.9999999999999971,1,0.999982
1.0,1,0.999979
0.9999999999999981,1,0.999980
0.999999999999995,1,0.999980
1.0,1,0.999980
0.9999999999999947,1,0.999979
1.0,1,0.999981
1.0,1,0.999980
1.0,1,0.999980
1.0,1,0.999981
1.0,1,0.999982
0.9999999999999983,1,0.999982
0.9999999999999918,1,0.999978
0.9999999999999967,1,0.999981
1.0,1,0.999980
0.9999999999999983,1,0.999980
1.0,1,0.999980
1.0,1,0.999982
1.0,1,0.999981
0.9999999999999968,1,0.999982
1.0,1,0.999981
1.0,1,0.999979
0.9999999999999881,1,0.999981
1.0,1,0.999980
0.9999999999999976,1,0.999981
1.0,1,0.999983
0.9999999999999882,1,0.999982
1.0,1,0.999983
1.0,1,0.999983
1.0,1,0.999983
0.9999999999999949,1,0.999983
1.0,1,0.999982
0.9999999999999976,1,0.999981
0.9999999999999932,1,0.999982
0.999999999999991,1,0.999983
1.0,1,0.999983
1.0,1,0.999982
0.9999999999999987,1,0.999982
1.0,1,0.999979
0.999885794576736,1,0.999979
0.999995139405275,1,0.999977
0.9999968938328364,1,0.999982
0.9999978191134649,1,0.999974
0.9999999999824907,1,0.999977
0.9999999999865633,1,0.999977
0.9999999999979441,1,0.999982
0.9999999999998588,1,0.999980
0.9999999999999257,1,0.999981
0.9999999999999758,1,0.999977
0.9999999999999861,1,0.999977
0.9999999999999871,1,0.999974
1.0,1,0.999981
1.0,1,0.999981
0.999999999999991,1,0.999981
0.999999999999988,1,0.999982
0.9999990072149963,1,0.999982
0.9999999999998054,1,0.999983
0.999999999999979,1,0.999983
0.9999999999999936,1,0.999983
1.0,1,0.999981
0.9999999999999905,1,0.999981
0.9999999999999999,1,0.999981
0.9999999999999953,1,0.999983
0.9997404322581253,1,0.999965
0.9999038354754541,1,0.999983
0.999999993619467,1,0.999983
1.0,1,0.999983
1.0,1,0.999983
0.9999999999999872,1,0.999983
0.9993551896330055,1,0.999983
0.9999999883928575,1,0.999983
0.9999999999999245,1,0.999982
0.9999999999999757,1,0.999983
0.9999999999999986,1,0.999983
1.0,1,0.999983
1.0,1,0.999983
0.9999999998975889,1,0.999983
0.9999999999999929,1,0.999983
0.9999999999999767,1,0.999983
0.9999999999999805,1,0.999983
0.9999999129810431,1,0.999983
0.9999999999999838,1,0.999983
1.0,1,0.999983
1.0,1,0.999983
1.0,1,0.999983
1.0,1,0.999983
0.9998147895864229,1,0.999983
0.9999999999997099,1,0.999983
1.0,1,0.999983
0.9999999999999898,1,0.999983
0.9999999999999917,1,0.999983
0.9999999999999991,1,0.999983
1.0,1,0.999983
0.99995959051848,1,0.999983
0.9999999999999993,1,0.999983
0.9999999998192709,1,0.999983
1.0,1,0.999983
0.9999999999999903,1,0.999983
1.0,1,0.999983
1.0,1,0.999983
0.999999999999999,1,0.999983
0.9999999999999899,1,0.999983
0.9999999999999987,1,0.999983
0.9999999999999961,1,0.999983
0.9999999999999883,1,0.999983
1.0,1,0.999983
0.9999999999999971,1,0.999983
1.0,1,0.999983
0.9999999999999941,1,0.999983
1.0,1,0.999983
1.0,1,0.999983
0.9999933480239821,1,0.999983
0.9999999998703952,1,0.999983
1.0,1,0.999983
1.0,1,0.999983
0.9999999999999978,1,0.999983
0.9999999999999847,1,0.999983
0.9999847432131194,1,0.999983
0.9999999999999906,1,0.999983
0.9999999999999705,1,0.999983
0.9999570958932373,1,0.999983
0.9999999999968685,1,0.999982
0.9999999999999895,1,0.999983
0.999994460426233,1,0.999983
0.9999999999999881,1,0.999983
1.0,1,0.999983
1.0,1,0.999983
0.9999999999999925,1,0.999983
1.0,1,0.999983
0.9999999999999915,1,0.999983
0.9999999999999889,1,0.999983
0.9999999999999828,1,0.999983
0.9999999999999786,1,0.999983
1.0,1,0.999983
1.0,1,0.999983
0.9999999999999961,1,0.999983
0.9999999999999986,1,0.999983
0.9999999999999915,1,0.999982
1.0,1,0.999983
0.9999999999999879,1,0.999983
0.9999999999999546,1,0.999983
1.0,1,0.999983
1.0,1,0.999983
1.0,1,0.999983
0.9999999987322735,1,0.999983
1.0,1,0.999983
0.9999999999850966,1,0.999983
1.0,1,0.999983
1.0,1,0.999983
0.9999644462751691,1,0.999983
0.9999999999999892,1,0.999983
0.9999502508875651,1,0.999983
0.9999999999999915,1,0.999983
1.0,1,0.999983
1.0,1,0.999983
0.9999999999999971,1,0.999983
0.9999985280161957,1,0.999983
0.999999999999975,1,0.999983
1.0,1,0.999983
1.0,1,0.999983
0.9999999999999937,1,0.999983
0.9999999999999839,1,0.999983
1.0,1,0.999983
0.9999999999999918,1,0.999983
0.9999999999999873,1,0.999983
0.9999999999999734,1,0.999983
0.9999999999999984,1,0.999983
1.0,1,0.999983
1.0,1,0.999983
0.9999999999999923,1,0.999983
1.0,1,0.999983
0.9999999999999595,1,0.999983
1.0,1,0.999983
0.9999999999999911,1,0.999983
1.0,1,0.999983
1.0,1,0.999983
0.9999999999999878,1,0.999983
0.999999999999973,1,0.999983
0.9999999999999969,1,0.999983
0.9999999999999942,1,0.999983
1.0,1,0.999983
1.0,1,0.999983
1.0,1,0.999983
0.9999999999999959,1,0.999983
1.0,1,0.999983
1.0,1,0.999983
1.0,1,0.999983
1.0,1,0.999983
0.999999999999992,1,0.999983
0.9999999999999796,1,0.999983
1.0,1,0.999983
0.9999999999999902,1,0.999983
0.9999999676531824,1,0.999983
0.9999999999999775,1,0.999983
0.9999999999999896,1,0.999982
1.0,1,0.999981
1.0,1,0.999981
1.0,1,0.999982
0.9999999999999977,1,0.999982
1.0,1,0.999981
0.9999999999999947,1,0.999981
1.0,1,0.999981
1.0,1,0.999981
1.0,1,0.999982
1.0,1,0.999981
1.0,1,0.999981
1.0,1,0.999981
0.9999999999999977,1,0.999981
0.9999999999999997,1,0.999981
1.0,1,0.999981
1.0,1,0.999981
0.9999999999999991,1,0.999982
0.9999999999999982,1,0.999981
1.0,1,0.999980
1.0,1,0.999980
0.9999999999999963,1,0.999981
0.9999999999999959,1,0.999981
0.9999999999999976,1,0.999982
0.9999999999999997,1,0.999982
0.9999999999999969,1,0.999983
0.9999999999999992,1,0.999981
0.999999999999996,1,0.999981
0.9999999999999994,1,0.999980
0.9999999999999948,1,0.999981
1.0,1,0.999981
0.999999999999989,1,0.999980
0.999999999999995,1,0.999983
0.9999999999999911,1,0.999980
1.0,1,0.999983
1.0,1,0.999980
1.0,1,0.999979
0.9999999999999929,1,0.999979
1.0,1,0.999983
0.9999999999999838,1,0.999983
1.0,1,0.999982
1.0,1,0.999983
0.9999995283543146,1,0.999983
0.9999185975755303,1,0.999982
0.9999999986317252,1,0.999983
1.0,1,0.999983
0.9999999999999842,1,0.999983
0.9999999999999929,1,0.999983
0.9999937241356696,1,0.999983
1.0,1,0.999983
0.9999999999999923,1,0.999983
0.9999999999999909,1,0.999983
1.0,1,0.999983
1.0,1,0.999983
0.9999999999999902,1,0.999983
0.9999999999999925,1,0.999983
0.999999999999987,1,0.999983
0.9999999999999856,1,0.999983
0.9999999999999871,1,0.999982
0.9999999999999992,1,0.999981
1.0,1,0.999981
0.9999999999999988,1,0.999981
0.9999999999999968,1,0.999982
0.9999999999999991,1,0.999980
0.9999999999999997,1,0.999980
0.9999999999999974,1,0.999982
0.9999999999999892,1,0.999982
0.9999999764598235,1,0.999982
0.99999999986107,1,0.999983
0.9999999999965514,1,0.999983
0.9999999999999889,1,0.999983
0.999999999999998,1,0.999983
1.0,1,0.999982
0.9999999999999815,1,0.999981
1.0,1,0.999981
0.9999999999999803,1,0.999981
0.9999999999999997,1,0.999982
1.0,1,0.999983
0.9999999999999913,1,0.999983
0.9999736310633985,1,0.999983
0.9999999998130167,1,0.999982
0.9999999999999584,1,0.999983
0.9999999999999932,1,0.999982
0.9999999999999846,1,0.999983
0.9999999999999942,1,0.999983
0.999999999999986,1,0.999983
0.9999999999999953,1,0.999983
0.9999999999999997,1,0.999983
1.0,1,0.999983
0.9999999999999961,1,0.999983
0.9999999999999916,1,0.999983
1.0,1,0.999983
1.0,1,0.999983
0.9999664736153828,1,0.999983
1.0,1,0.999983
0.9999999999679157,1,0.999983
1.0,1,0.999983
1.0,1,0.999983
0.9999999999999675,1,0.999983
0.9999999999999153,1,0.999983
0.9999935583215189,1,0.999983
0.9999999999990568,1,0.999982
1.0,1,0.999981
1.0,1,0.999982
1.0,1,0.999983
0.9999999999401941,1,0.999983
0.9999999999999668,1,0.999982
1.0,1,0.999983
0.9999999999999936,1,0.999981
0.9999999999999959,1,0.999983
1.0,1,0.999983
0.9999999999999897,1,0.999983
1.0,1,0.999982
1.0,1,0.999983
1.0,1,0.999983
1.0,1,0.999983
0.9999999999999816,1,0.999982
0.9999999924492293,1,0.999983
1.0,1,0.999983
0.9999999999999691,1,0.999983
0.9999999999999757,1,0.999983
1.0,1,0.999983
1.0,1,0.999983
0.9999999999999809,1,0.999983
0.999981284623362,1,0.999983
1.0,1,0.999983
0.9998649794119354,1,0.999983
1.0,1,0.999983
1.0,1,0.999983
0.9999999999999931,1,0.999983
1.0,1,0.999983
0.9999999999999175,1,0.999983
0.9999999999999675,1,0.999982
1.0,1,0.999981
0.9999999999999979,1,0.999980
0.9999999999999933,1,0.999980
0.9999942501382296,1,0.999983
0.9999951926012183,1,0.999982
1.0,1,0.999983
0.9999999636312651,1,0.999982
1.0,1,0.999982
0.9999999999999829,1,0.999983
0.9999999999999895,1,0.999983
0.9999999999999887,1,0.999983
1.0,1,0.999980
0.9999999999999951,1,0.999980
0.9999999999999971,1,0.999979
0.999999999999993,1,0.999978
1.0,1,0.999981
1.0,1,0.999982
0.9999999999999993,1,0.999979
0.9999999999999986,1,0.999978
1.0,1,0.999977
1.0,1,0.999977
0.999999999999998,1,0.999976
0.9999999904934206,1,0.999983
0.9980884852055221,1,0.999966
0.9997150079372236,1,0.999982
0.9999915952497893,1,0.999982
0.9999988964629879,1,0.999982
0.9999993279074153,1,0.999982
0.9999999993871643,1,0.999981
0.9999999999880017,1,0.999982
0.9999999999999999,1,0.999983
0.9999999999999938,1,0.999983
1.0,1,0.999982
1.0,1,0.999982
1.0,1,0.999981
1.0,1,0.999981
1.0,1,0.999979
0.9999999999999833,1,0.999982
1.0,1,0.999980
0.9999999999999988,1,0.999979
0.9999999999999918,1,0.999981
1.0,1,0.999981
0.9999999999999994,1,0.999980
1.0,1,0.999979
0.9999999999999971,1,0.999978
0.9999999999999946,1,0.999977
1.0,1,0.999980
0.9999999999999845,1,0.999978
0.9999999999999952,1,0.999977
0.9999999999999999,1,0.999976
1.0,1,0.999979
0.99999999999999,1,0.999975
0.99999999999999,1,0.999981
0.9999999999999903,1,0.999976
0.999999999999983,1,0.999975
0.9999999999999989,1,0.999981
1.0,1,0.999980
0.9999999999999758,1,0.999975
0.9999999999999823,1,0.999980
0.9999999999999909,1,0.999980
0.9999999999999991,1,0.999981
1.0,1,0.999980
0.9999999999999982,1,0.999979
0.9999999999999897,1,0.999980
0.999999999999993,1,0.999979
0.9999999999999966,1,0.999980
1.0,1,0.999979
0.9999999999999987,1,0.999979
0.9999999999999932,1,0.999978
1.0,1,0.999982
0.999999999999994,1,0.999982
0.9999999999999994,1,0.999979
0.999999999999992,1,0.999980
1.0,1,0.999981
0.9999999999999932,1,0.999979
1.0,1,0.999978
0.9999999999999999,1,0.999982
0.9999999999999795,1,0.999978
1.0,1,0.999978
1.0,1,0.999982
1.0,1,0.999981
1.0,1,0.999977
0.999999999999982,1,0.999980
1.0,1,0.999981
0.999999999999997,1,0.999980
0.9999999999999954,1,0.999978
0.9999999999999828,1,0.999975
0.9999999999999982,1,0.999982
0.9999999999999987,1,0.999978
0.9999999999999976,1,0.999982
1.0,1,0.999982
0.9999999999999982,1,0.999981
1.0,1,0.999982
0.9999999999999969,1,0.999982
0.9999999999999989,1,0.999982
0.9999999999999958,1,0.999980
1.0,1,0.999982
0.999999999999993,1,0.999981
1.0,1,0.999981
1.0,1,0.999980
1.0,1,0.999982
1.0,1,0.999981
1.0,1,0.999980
0.9999999999999978,1,0.999982
0.9999999999999861,1,0.999981
1.0,1,0.999979
1.0,1,0.999982
1.0,1,0.999979
1.0,1,0.999982
0.9999999999999909,1,0.999981
0.999999999999985,1,0.999977
0.9999999999999909,1,0.999982
0.9999999999999986,1,0.999983
0.9999021072770213,1,0.999982
0.9999797139138189,1,0.999981
0.9999010398758604,1,0.999982
0.9999999540966683,1,0.999980
0.9999999999465212,1,0.999978
1.0,1,0.999980
0.9999999999999752,1,0.999980
0.9999999999999931,1,0.999977
0.9999999999999973,1,0.999833
1.0,1,0.999980
1.0,1,0.999978
0.9999999999999966,1,0.999963
0.9999999999999962,1,0.999981
0.9999999999999896,1,0.999980
0.9999999999999918,1,0.999979
0.999999999999987,1,0.999981
1.0,1,0.999982
0.9999839075647812,1,0.999980
0.9999999999958162,1,0.999983
1.0,1,0.999981
0.9999999999999969,1,0.999980
0.9999999999999919,1,0.999979
0.9999999999999978,1,0.999975
0.9999999999999979,1,0.999976
1.0,1,0.999979
1.0,1,0.999980
1.0,1,0.999963
1.0,1,0.999982
1.0,1,0.999964
0.9999999999999979,1,0.999982
0.9999999999999888,1,0.999981
1.0,1,0.999982
1.0,1,0.999983
0.9999653259393413,1,0.999982
0.9997731701145331,1,0.999982
0.9999989234869353,1,0.999980
0.9999996299427252,1,0.999980
0.9999999805016019,1,0.999982
0.9999999999867921,1,0.999983
0.9999999999999946,1,0.999982
1.0,1,0.999982
0.9999999999999922,1,0.999980
1.0,1,0.999982
0.9999999999999826,1,0.999980
0.9999999999999934,1,0.999980
0.9999999999999902,1,0.999979
0.9999999999999998,1,0.999978
0.9999999999999968,1,0.999981
0.9999999999999967,1,0.999977
0.9999613219071971,1,0.999982
0.9999999999657679,1,0.999981
1.0,1,0.999981
1.0,1,0.999980
1.0,1,0.999979
1.0,1,0.999981
0.9999999999999971,1,0.999980
0.9999999999999994,1,0.999979
1.0,1,0.999982
0.9999999999999956,1,0.999982
1.0,1,0.999982
1.0,1,0.999981
0.9999999999999931,1,0.999980
1.0,1,0.999982
1.0,1,0.999982
0.9999999999999968,1,0.999982
1.0,1,0.999983
1.0,1,0.999983
1.0,1,0.999982
0.9999999999999944,1,0.999983
1.0,1,0.999982
0.9999999999999997,1,0.999982
0.9999999999999967,1,0.999983
0.9999999999999991,1,0.999983
1.0,1,0.999982
1.0,1,0.999980
1.0,1,0.999979
1.0,1,0.999978
1.0,1,0.999973
1.0,1,0.999950
0.9999999999999959,1,0.999969
0.9999999999999981,1,0.999982
0.9998503522511907,1,0.999982
0.9989130470356419,1,0.999980
0.9998638002787106,1,0.999981
0.9999996956287963,1,0.999982
0.9999999453452183,1,0.999979
0.999999999903306,1,0.999980
1.0,1,0.999981
0.9999999999999986,1,0.999979
1.0,1,0.999981
0.9999999999999999,1,0.999981
1.0,1,0.999982
1.0,1,0.999983
0.9999999999999933,1,0.999983
0.9999999999999988,1,0.999983
0.999999999999995,1,0.999983
1.0,1,0.999982
0.9999999999999903,1,0.999981
1.0,1,0.999981
0.9999999999999982,1,0.999981
1.0,1,0.999977
1.0,1,0.999979
1.0,1,0.999979
0.9999999999999974,1,0.999978
0.9999999999999922,1,0.999981
0.9999999999999868,1,0.999980
0.9999567589847649,1,0.999983
0.9998004918092878,1,0.999981
0.9999999994136906,1,0.999982
0.9999999999859996,1,0.999981
0.9999999999999895,1,0.999981
0.9999999999999912,1,0.999982
1.0,1,0.999982
1.0,1,0.999982
1.0,1,0.999943
0.9999999999999983,1,0.999982
0.9999478343514387,1,0.999979
0.9999999787456602,1,0.999981
0.9999999999999901,1,0.999981
0.9999999999999803,1,0.999982
1.0,1,0.999980
1.0,1,0.999982
1.0,1,0.999982
0.999999999999986,1,0.999981
1.0,1,0.999980
1.0,1,0.999980
0.9999999999999974,1,0.999979
0.9999999999999988,1,0.999982
1.0,1,0.999981
1.0,1,0.999979
0.9999999999999963,1,0.999982
0.9999999999999992,1,0.999980
1.0,1,0.999981
0.9999999999999982,1,0.999981
0.9999999999999978,1,0.999982
1.0,1,0.999935
1.0,1,0.999981
0.9999999999999861,1,0.999981
1.0,1,0.999982
1.0,1,0.999982
0.9999999999999925,1,0.999980
0.9999999999999882,1,0.999980
0.9999999999999984,1,0.999982
1.0,1,0.999982
0.9999506669275191,1,0.999982
0.9999999990074421,1,0.999981
0.9999999999210506,1,0.999980
0.9999999999999871,1,0.999980
1.0,1,0.999981
0.9999999999999861,1,0.999981
1.0,1,0.999980
0.9997713272930306,1,0.999979
0.9999999997119492,1,0.999981
0.9999999999999835,1,0.999979
1.0,1,0.999979
0.9999999999999881,1,0.999981
0.9999999999999967,1,0.999981
1.0,1,0.999979
1.0,1,0.999981
1.0,1,0.999981
0.9999999999999978,1,0.999980
0.9999999999999998,1,0.999981
1.0,1,0.999980
0.9999999999999941,1,0.999981
1.0,1,0.999981
1.0,1,0.999981
0.9999999999999903,1,0.999982
1.0,1,0.999982
1.0,1,0.999982
1.0,1,0.999983
1.0,1,0.999982
0.9999871831404711,1,0.999981
0.9999999999923486,1,0.999982
0.9999999999999274,1,0.999981
1.0,1,0.999980
1.0,1,0.999975
1.0,1,0.999971
0.999999999999997,1,0.999974
0.9999999999999933,1,0.999971
1.0,1,0.999965
0.9999999999999996,1,0.999968
0.9999999999999818,1,0.999968
0.9999999999999902,1,0.999972
1.0,1,0.999975
1.0,1,0.999975
0.9999999999999976,1,0.999975
1.0,1,0.999975
1.0,1,0.999975
0.9999999999999959,1,0.999975
0.9999999999999802,1,0.999967
0.9999999999999859,1,0.999971
0.9999999999999911,1,0.999963
0.9999999999999805,1,0.999963
1.0,1,0.999973
1.0,1,0.999977
0.999999999999992,1,0.999980
0.9999999999999951,1,0.999981
0.9999999999999912,1,0.999980
0.9999999999999991,1,0.999977
0.9999999999999918,1,0.999974
1.0,1,0.999976
1.0,1,0.999979
1.0,1,0.999978
0.9999999999999997,1,0.999977
1.0,1,0.999977
1.0,1,0.999982
1.0,1,0.999981
0.9998875841630422,1,0.999982
0.9998196225011746,1,0.999981
0.9999190329480521,1,0.999981
0.9999951693630766,1,0.999980
0.9999997443461631,1,0.999981
0.9999998784309203,1,0.999980
0.999999976205963,1,0.999979
0.9999999999290768,1,0.999980
0.9999999999779208,1,0.999982
0.9999999999999225,1,0.999982
0.9999999999999316,1,0.999979
0.9999999999999964,1,0.999982
0.9999999999999871,1,0.999981
0.9999999999999933,1,0.999981
0.9999999999999836,1,0.999982
0.9999999999999865,1,0.999981
1.0,1,0.999982
1.0,1,0.999981
0.9999998410777158,1,0.999982
0.9999999999999881,1,0.999982
0.9999999999999608,1,0.999982
0.9999999999999724,1,0.999980
0.999999999999992,1,0.999980
0.9999898639482294,1,0.999982
0.999999999999832,1,0.999982
0.9996918267100482,1,0.999981
0.9997226803657974,1,0.999980
0.9999988128696262,1,0.999981
0.999999924627774,1,0.999979
0.9999999999773789,1,0.999980
0.9999999999998623,1,0.999978
0.9999999999998931,1,0.999974
0.999999999999999,1,0.999972
1.0,1,0.999978
0.9999999999999958,1,0.999977
1.0,1,0.999978
1.0,1,0.999977
0.9999999999999971,1,0.999980
0.9999999999999956,1,0.999980
0.9999999999999784,1,0.999980
1.0,1,0.999979
0.9999999999999991,1,0.999979
1.0,1,0.999979
0.9999999999999976,1,0.999981
0.9999999999999926,1,0.999979
0.9999999999999957,1,0.999981
0.9999999999999913,1,0.999981
1.0,1,0.999980
1.0,1,0.999980
1.0,1,0.999979
0.9999999999999998,1,0.999983
0.9999999999999954,1,0.999977
0.9999999999999999,1,0.999981
0.9999999999999934,1,0.999979
0.9999999999999996,1,0.999981
1.0,1,0.999981
0.9999999999999968,1,0.999981
1.0,1,0.999982
1.0,1,0.999976
1.0,1,0.999982
0.9999999999999986,1,0.999982
1.0,1,0.999979
0.9999715633873145,1,0.999980
0.9999757473317984,1,0.999978
0.9999932855665737,1,0.999979
0.9999998507176188,1,0.999982
0.9999999986511823,1,0.999982
0.9999999994957407,1,0.999981
0.9999999999999705,1,0.999982
0.9999999999999967,1,0.999978
0.999999999999999,1,0.999975
1.0,1,0.999979
1.0,1,0.999981
1.0,1,0.999981
0.9999999999999896,1,0.999981
1.0,1,0.999981
1.0,1,0.999980
1.0,1,0.999981
0.9999834548413244,1,0.999980
0.9999549587450851,1,0.999978
0.9999967127507265,1,0.999975
0.9999985348860876,1,0.999974
0.9999999995144924,1,0.999981
0.9999999999999434,1,0.999980
0.9999999999999837,1,0.999979
1.0,1,0.999982
1.0,1,0.999981
1.0,1,0.999981
0.9999999999999942,1,0.999983
1.0,1,0.999980
0.9999999802178504,1,0.999982
1.0,1,0.999981
1.0,1,0.999980
0.9999999999999922,1,0.999980
0.9999999999999983,1,0.999980
1.0,1,0.999958
0.9999999999999933,1,0.999978
0.9999999999999903,1,0.999981
1.0,1,0.999983
1.0,1,0.999980
0.999999999999992,1,0.999979
0.9999999999999988,1,0.999979
0.9999999999999984,1,0.999982
1.0,1,0.999979
1.0,1,0.999982
0.9999999999999952,1,0.999980
1.0,1,0.999981
1.0,1,0.999972
0.9998711956033416,1,0.999979
0.9999964627946553,1,0.999976
0.9999994887022183,1,0.999979
0.9997016164663246,1,0.999981
0.9999999998712976,1,0.999981
1.0,1,0.999980
1.0,1,0.999981
1.0,1,0.999978
0.9999999999999999,1,0.999974
1.0,1,0.999981
0.9999999999999918,1,0.999961
1.0,1,0.999980
1.0,1,0.999981
1.0,1,0.999978
1.0,1,0.999972
0.9999999999999958,1,0.999976
0.9999999999999969,1,0.999979
1.0,1,0.999978
0.999999999999997,1,0.999974
1.0,1,0.999981
1.0,1,0.999982
0.999999999999985,1,0.999980
0.9999999999999919,1,0.999976
0.9999999999999981,1,0.999981
0.9999999999999917,1,0.999981
1.0,1,0.999980
0.9999999999999876,1,0.999978
1.0,1,0.999977
0.9999999999999971,1,0.999966
1.0,1,0.999982
1.0,1,0.999982
0.999999999999982,1,0.999981
1.0,1,0.999980
0.9999999999999987,1,0.999982
1.0,1,0.999982
1.0,1,0.999981
0.9999999999999974,1,0.999981
1.0,1,0.999979
0.9999999999999984,1,0.999980
0.9999999999999963,1,0.999977
1.0,1,0.999973
1.0,1,0.999980
0.9999999999999934,1,0.999982
0.9999985112436967,1,0.999981
0.9999992296789793,1,0.999978
0.9999999927280676,1,0.999980
0.9999999999996277,1,0.999975
1.0,1,0.999980
1.0,1,0.999981
0.9999795658042422,1,0.999981
0.9999998419653813,1,0.999981
0.9999999961890232,1,0.999979
0.9999999999988842,1,0.999963
1.0,1,0.999981
0.9998471937245133,1,0.999982
0.9999995120551513,1,0.999980
0.9999999999918548,1,0.999982
0.9999999999999077,1,0.999980
1.0,1,0.999981
1.0,1,0.999982
1.0,1,0.999979
1.0,1,0.999978
0.9999999999999926,1,0.999981
0.9999999999999969,1,0.999982
0.9999999999999996,1,0.999981
0.9999999999999982,1,0.999981
1.0,1,0.999981
1.0,1,0.999982
0.9999999999999979,1,0.999981
1.0,1,0.999982
1.0,1,0.999979
0.999999999999987,1,0.999974
0.9999999999999972,1,0.999978
1.0,1,0.999982
0.9999999999999912,1,0.999980
0.9999999999999986,1,0.999978
0.9999999999999908,1,0.999980
1.0,1,0.999980
1.0,1,0.999973
1.0,1,0.999979
0.9999999999999988,1,0.999978
0.999999999999997,1,0.999981
0.9999319910915471,1,0.999982
0.9999948433156879,1,0.999982
0.9999999936090258,1,0.999977
0.9999999972845621,1,0.999977
0.9999999999983257,1,0.999981
0.9999999999999623,1,0.999981
0.9999999999999913,1,0.999976
1.0,1,0.999978
0.9999999999999982,1,0.999975
1.0,1,0.999977
1.0,1,0.999977
1.0,1,0.999981
0.9999999999999909,1,0.999981
0.9999999999999917,1,0.999982
1.0,1,0.999979
0.999999999999994,1,0.999982
0.9999999999999981,1,0.999980
0.9999999999999971,1,0.999981
1.0,1,0.999978
0.9999999999999982,1,0.999981
0.9999999999999916,1,0.999975
0.9999999999999852,1,0.999981
1.0,1,0.999980
1.0,1,0.999980
0.999999999999998,1,0.999982
0.9999999999999989,1,0.999980
0.9999999999999825,1,0.999978
0.9999999999999962,1,0.999976
1.0,1,0.999970
0.9999999999999959,1,0.999981
0.9999849347360311,1,0.999981
0.9998649754051668,1,0.999977
0.9999993977166719,1,0.999977
0.9999999974457265,1,0.999980
0.999999999974075,1,0.999981
0.9999999999996295,1,0.999979
0.9999999999999981,1,0.999981
1.0,1,0.999980
1.0,1,0.999978
1.0,1,0.999981
0.9999999999999997,1,0.999982
0.9999999999999996,1,0.999978
1.0,1,0.999980
1.0,1,0.999981
0.9999999999999973,1,0.999980
1.0,1,0.999979
0.9999999999999968,1,0.999978
1.0,1,0.999972
0.9999999999999949,1,0.999969
0.9999999999999756,1,0.999975
1.0,1,0.999978
1.0,1,0.999972
1.0,1,0.999975
0.9999999999999828,1,0.999969
1.0,1,0.999971
0.9999999999999997,1,0.999977
0.9999999999999954,1,0.999982
1.0,1,0.999981
0.9999999999999839,1,0.999975
0.9999999999999878,1,0.999978
0.9999999999999905,1,0.999982
1.0,1,0.999979
1.0,1,0.999982
0.9999999999999987,1,0.999982
1.0,1,0.999982
0.9999999999999887,1,0.999982
0.9999999999999787,1,0.999982
1.0,1,0.999982
0.9999999999997283,1,0.999982
1.0,0,0.999434
0.9999999999999922,1,0.999981
0.9998025859194759,1,0.999981
0.9999999993688958,1,0.999982
1.0,1,0.999982
1.0,1,0.999982
1.0,1,0.999978
0.9999999999999994,1,0.999977
1.0,1,0.999982
1.0,1,0.999981
0.9999999999999842,1,0.999982
0.9999999999999867,1,0.999982
1.0,1,0.999981
1.0,1,0.999982
1.0,1,0.999982
0.9999999999999976,1,0.999983
1.0,1,0.999983
1.0,1,0.999982
1.0,1,0.999977
0.9999999999999963,1,0.999979
1.0,1,0.999974
0.9999999999999828,1,0.999973
1.0,1,0.999981
0.9999999999999976,1,0.999977
1.0,1,0.999979
1.0,1,0.999969
1.0,1,0.999968
0.9999999999999736,1,0.999983
1.0,1,0.999982
0.9999999999999911,1,0.999979
0.9999999999999811,1,0.999980
0.9999999999999923,1,0.999982
0.9999999999999987,1,0.999980
0.9999999999999987,1,0.999982
0.9999999999999967,1,0.999979
0.999999999999994,1,0.999982
1.0,1,0.999982
1.0,1,0.999982
0.9999999999999979,1,0.999977
1.0,1,0.999981
0.9999999999999878,1,0.999981
1.0,1,0.999979
1.0,1,0.999982
0.999999999999993,1,0.999977
0.9999999999999939,1,0.999981
0.9999999999999997,1,0.999978
1.0,1,0.999981
0.9999999999999938,1,0.999974
1.0,1,0.999972
0.9999999999999811,1,0.999977
0.9999999999999861,1,0.999979
0.9999999999999832,1,0.999978
1.0,1,0.999977
0.9999999999999979,1,0.999982
1.0,1,0.999979
0.9999999999999968,1,0.999977
1.0,1,0.999982
0.9999999999999981,1,0.999979
0.9999999999999966,1,0.999982
0.9999999999999966,1,0.999981
0.9999999999999963,1,0.999982
0.9996983586047657,1,0.999982
0.9999999999995254,1,0.999980
0.9999999999998322,1,0.999979
0.9999999999999303,1,0.999981
1.0,1,0.999981
1.0,1,0.999980
1.0,1,0.999980
0.9999999999999936,1,0.999980
1.0,1,0.999982
0.9999999999999959,1,0.999981
1.0,1,0.999980
0.9999999999999825,1,0.999972
1.0,1,0.999980
1.0,1,0.999982
1.0,1,0.999977
0.9999999999999988,1,0.999975
1.0,1,0.999980
1.0,1,0.999977
1.0,1,0.999981
1.0,1,0.999980
1.0,1,0.999979
1.0,1,0.999978
1.0,1,0.999977
0.9999999999999968,1,0.999980
0.9997869774599257,1,0.999982
0.9999635051070909,1,0.999981
0.999999954667555,1,0.999980
0.9999999999999979,1,0.999982
0.9999985599499578,1,0.999981
0.9999999580074516,1,0.999979
0.9999691861506118,1,0.999982
0.9999999845303567,1,0.999981
0.999999994659473,1,0.999978
0.9999999999959777,1,0.999976
1.0,1,0.999978
0.9999999999999956,1,0.999974
0.999999999999988,1,0.999974
0.999999999999987,1,0.999980
0.9999999999999895,1,0.999981
0.9999999999999921,1,0.999979
0.9999999999999997,1,0.999975
1.0,1,0.999974
0.9999999999999923,1,0.999980
0.9999999999999896,1,0.999968
0.9999999999999893,1,0.999977
1.0,1,0.999975
1.0,1,0.999976
1.0,1,0.999977
0.9999999999999901,1,0.999980
0.9999999999999956,1,0.999976
1.0,1,0.999975
1.0,1,0.999982
0.9999999999999926,1,0.999982
0.9999999999999986,1,0.999980
0.9997268952460141,1,0.999978
0.9999206891475935,1,0.999981
0.9999450574736845,1,0.999980
0.9997201633683789,1,0.999978
0.9999804869955539,1,0.999981
0.9999995617983045,1,0.999981
0.9999999482100399,1,0.999981
0.9999999875889234,1,0.999980
0.9999999992004597,1,0.999979
0.9999999998907818,1,0.999975
0.9999999999133097,1,0.999980
0.9999999999589702,1,0.999977
0.9999409006680029,1,0.999980
0.9999999999567672,1,0.999982
0.9999999999658578,1,0.999982
1.0,1,0.999981
0.9999999999999706,1,0.999982
1.0,1,0.999980
0.9999999999999938,1,0.999980
0.9999999999999934,1,0.999981
1.0,1,0.999980
1.0,1,0.999977
1.0,1,0.999980
0.9999999999999999,1,0.999982
0.999944109317432,1,0.999982
0.999999999997847,1,0.999982
0.9999675633787449,1,0.999980
0.9999999435762654,1,0.999980
0.9999999999999818,1,0.999982
1.0,1,0.999980
0.999999999999994,1,0.999982
1.0,1,0.999982
1.0,1,0.999982
0.9999999999999905,1,0.999982
0.9999999999999934,1,0.999982
1.0,1,0.999982
0.9999999999999891,1,0.999981
0.999999999999996,1,0.999980
0.9999999999999937,1,0.999982
1.0,1,0.999982
1.0,1,0.999982
1.0,1,0.999982
0.9999999999999963,1,0.999982
1.0,1,0.999981
1.0,1,0.999980
0.9998684427565725,1,0.999979
0.9999779173812956,1,0.999980
0.9998242736080266,1,0.999977
0.9999999994980909,1,0.999980
1.0,1,0.999979
1.0,1,0.999980
0.9999999999999827,1,0.999980
0.9999999999999855,1,0.999979
1.0,1,0.999980
1.0,1,0.999981
0.9999999999999819,1,0.999977
0.9999999999999715,1,0.999981
0.9999999999999787,1,0.999982
1.0,1,0.999981
0.9999999999999979,1,0.999982
0.9999999999999971,1,0.999980
0.9999998662891966,1,0.999981
0.9999999990638356,1,0.999979
1.0,1,0.999982
0.9998947451890747,1,0.999979
0.9997876106247529,1,0.999980
0.9999999720119804,1,0.999982
0.9999999999878547,1,0.999982
1.0,1,0.999978
0.9999999999999789,1,0.999979
0.9998903506560735,1,0.999981
0.9999999999646654,1,0.999981
1.0,1,0.999981
1.0,1,0.999979
0.9999999999883803,1,0.999946
0.9999999999999835,1,0.999981
0.9999999999999832,1,0.999981
0.9999999999999966,1,0.999982
0.9999999999999951,1,0.999982
0.9999999999999923,1,0.999982
0.9999999999999953,1,0.999982
0.9999999999999765,1,0.999981
1.0,1,0.999982
0.9999999999999909,1,0.999981
1.0,1,0.999980
0.9999999999999954,1,0.999979
1.0,1,0.999982
1.0,1,0.999981
0.9999999999999946,1,0.999982
0.9999999999999921,1,0.999982
0.9999999999999892,1,0.999981
0.9999999999999768,1,0.999982
0.9999999999999928,1,0.999982
1.0,1,0.999982
1.0,1,0.999982
0.999999999999986,1,0.999982
1.0,1,0.999981
1.0,1,0.999981
0.9999999999999925,1,0.999982
1.0,1,0.999981
0.9999999999999906,1,0.999980
1.0,1,0.999977
0.999932703480111,1,0.999979
0.9999963343971104,1,0.999976
1.0,1,0.999980
0.9999683233824486,1,0.999980
0.9999996895873112,1,0.999979
0.9999999839566011,1,0.999958
1.0,1,0.999982
0.9999999999999876,1,0.999981
0.9999999999999886,1,0.999980
0.999999988185296,1,0.999979
0.999968389460701,1,0.999982
1.0,1,0.999982
1.0,1,0.999982
0.9999836103960993,1,0.999982
0.9999999998528981,1,0.999981
1.0,1,0.999982
1.0,1,0.999982
1.0,1,0.999981
0.999944683909107,1,0.999982
0.9999999998999495,1,0.999982
0.9999999999999296,1,0.999982
1.0,1,0.999981
0.9999999999999836,1,0.999982
0.9999999999999755,1,0.999981
0.9999999999999885,1,0.999981
1.0,1,0.999981
0.99999999999999,1,0.999982
1.0,1,0.999982
0.9999999999999926,1,0.999982
1.0,1,0.999982
1.0,1,0.999980
1.0,1,0.999980
0.9999999999999903,1,0.999982
1.0,1,0.999981
0.9999999999999933,1,0.999982
1.0,1,0.999982
0.9999999999999819,1,0.999982
1.0,1,0.999982
0.9999998562320146,1,0.999982
0.9999999999999775,1,0.999982
0.9999999794800278,1,0.999978
0.9999999999999732,1,0.999982
1.0,1,0.999981
0.9999999999999979,1,0.999982
1.0,1,0.999982
1.0,1,0.999982
0.9999999999956257,1,0.999982
0.9999999999999817,1,0.999982
0.99999999999998,1,0.999982
1.0,1,0.999982
1.0,1,0.999982
0.9999999999999961,1,0.999982
0.9999999999999968,1,0.999982
1.0,1,0.999982
1.0,1,0.999982
0.9999999999999846,1,0.999981
0.9999999999999913,1,0.999982
0.9999999999999948,1,0.999980
1.0,1,0.999976
1.0,1,0.999981
0.999999999999998,1,0.999981
0.9999999999999796,1,0.999982
0.9999999999999949,1,0.999982
0.9999999999999969,1,0.999982
0.9999830062017643,1,0.999982
0.9999999984644461,1,0.999982
0.9999999999997946,1,0.999982
1.0,1,0.999982
0.9999999999999973,1,0.999982
0.9999999999999911,1,0.999982
0.9999999999999843,1,0.999982
0.9999999999999964,1,0.999982
0.9999999999999903,1,0.999982
1.0,1,0.999982
0.9999999999999823,1,0.999982
1.0,1,0.999981
0.9999999999999846,1,0.999982
0.9999999999999954,1,0.999982
1.0,1,0.999982
1.0,1,0.999982
0.9999998803360779,1,0.999982
0.999999999999932,1,0.999981
1.0,1,0.999981
1.0,1,0.999981
0.9999999999999908,1,0.999982
0.9999999999999956,1,0.999981
0.9999999999999866,1,0.999979
1.0,1,0.999982
0.9999999999999958,1,0.999982
0.999999999999995,1,0.999982
1.0,1,0.999982
1.0,1,0.999981
0.9999999999999899,1,0.999980
1.0,1,0.999980
1.0,1,0.999981
1.0,1,0.999981
0.9999999999999997,1,0.999980
1.0,1,0.999982
0.9999999869719299,1,0.999982
0.9999999999999863,1,0.999982
0.9999999999999909,1,0.999981
1.0,1,0.999982
0.9999999999999959,1,0.999982
1.0,1,0.999979
0.9999999999999878,1,0.999974
1.0,1,0.999977
0.9999999999999941,1,0.999979
0.9999999999999925,1,0.999982
0.9999999999999998,1,0.999979
0.9999999999999952,1,0.999982
0.9999999999999992,1,0.999982
0.9999999999999954,1,0.999978
1.0,1,0.999981
0.9999999999999993,1,0.999982
0.9999919033739174,1,0.999981
0.9999543928225497,1,0.999980
0.9999999926458755,1,0.999981
0.9999999999885204,1,0.999981
0.9999999999995185,1,0.999979
0.9999999999999852,1,0.999978
0.9999999999999845,1,0.999982
1.0,1,0.999982
0.9999999999999949,1,0.999981
0.9999999999999953,1,0.999982
0.9999999999999889,1,0.999982
1.0,1,0.999982
1.0,1,0.999982
1.0,1,0.999980
1.0,1,0.999980
0.9999982407224248,1,0.999982
0.9999998626306671,1,0.999980
0.9999999999999861,1,0.999981
1.0,1,0.999980
0.999999999999985,1,0.999979
0.9999999999999982,1,0.999981
1.0,1,0.999980
0.9999999999999905,1,0.999980
0.9999390031879646,1,0.999981
0.9999999885889542,1,0.999980
1.0,1,0.999982
1.0,1,0.999982
1.0,1,0.999980
1.0,1,0.999982
0.9999999999999932,1,0.999981
0.9997028005608185,1,0.999981
0.9999925243023884,1,0.999980
0.9999999998888562,1,0.999981
0.9999999999999962,1,0.999981
0.9999999999999859,1,0.999981
1.0,1,0.999981
0.9999999999999962,1,0.999980
0.9999999999999851,1,0.999981
1.0,1,0.999980
1.0,1,0.999975
1.0,1,0.999980
0.9999999999999891,1,0.999981
0.9999999999999929,1,0.999979
0.9999999999999969,1,0.999981
0.9999999999999885,1,0.999982
1.0,1,0.999981
0.9999999999999996,1,0.999981
0.999999999999978,1,0.999982
1.0,1,0.999979
1.0,1,0.999979
1.0,1,0.999981
1.0,1,0.999982
0.9999999999999937,1,0.999981
1.0,1,0.999980
1.0,1,0.999982
0.9999999999999779,1,0.999980
1.0,1,0.999981
1.0,1,0.999981
0.999999999999998,1,0.999977
1.0,1,0.999978
1.0,1,0.999981
0.9999999999999956,1,0.999982
0.9999999999999952,1,0.999982
0.999990941245641,1,0.999982
0.9976318073429592,1,0.999978
0.9999999999792946,1,0.999981
0.9999999999999939,1,0.999979
1.0,1,0.999980
1.0,1,0.999981
0.9999999999999978,1,0.999979
0.9999999999999847,1,0.999979
0.9999999999999976,1,0.999982
0.9999999999999701,1,0.999981
1.0,1,0.999980
0.9999999999999922,1,0.999981
0.9999999999999761,1,0.999977
1.0,1,0.999981
1.0,1,0.999982
0.9999999999999962,1,0.999981
1.0,1,0.999979
0.9999999999999932,1,0.999978
0.9999999999999956,1,0.999982
0.9999999999999886,1,0.999981
1.0,1,0.999982
0.9999999999999961,1,0.999978
1.0,1,0.999981
1.0,1,0.999980
0.9999999999999951,1,0.999979
1.0,1,0.999982
1.0,1,0.999982
0.9996828002679212,1,0.999982
0.9999999999871124,1,0.999981
1.0,1,0.999982
1.0,1,0.999980
0.9999999999999925,1,0.999978
1.0,1,0.999981
0.9999999999999994,1,0.999981
0.9999999999999853,1,0.999980
1.0,1,0.999980
0.9999999999999759,1,0.999980
0.9999558275187885,1,0.999982
0.9999999691984165,1,0.999981
0.9999999993302773,1,0.999982
1.0,1,0.999976
1.0,1,0.999982
1.0,1,0.999979
1.0,1,0.999979
1.0,1,0.999976
1.0,1,0.999978
1.0,1,0.999979
1.0,1,0.999979
0.999976843770953,1,0.999982
0.9997373598145473,1,0.999982
0.9997982446853821,1,0.999981
1.0,1,0.999982
0.9999999999999858,1,0.999982
0.9999999999999546,1,0.999982
1.0,1,0.999982
0.9999999915278394,1,0.999982
0.9999800557331167,1,0.999982
0.9999999999915387,1,0.999980
0.999999999999811,1,0.999977
0.9999999999999999,1,0.999982
0.9996718081072858,1,0.999981
0.999999999941948,1,0.999981
0.9999999999999964,1,0.999980
0.9999999999999826,1,0.999981
0.9999999999999949,1,0.999981
0.9999999999999891,1,0.999980
1.0,1,0.999977
1.0,1,0.999981
0.9999999999999911,1,0.999980
1.0,1,0.999975
0.9999999999999977,1,0.999981
1.0,1,0.999981
0.9999999999999936,1,0.999981
0.9999999999999991,1,0.999979
1.0,1,0.999981
0.999999999999999,1,0.999979
0.9999999999999976,1,0.999980
1.0,1,0.999981
0.9999999999999969,1,0.999976
0.9999999999999752,1,0.999981
1.0,1,0.999982
0.9999999999737429,1,0.999980
0.999999999999739,1,0.999980
0.9999999999999861,1,0.999982
0.9999999999999802,1,0.999982
1.0,1,0.999981
1.0,1,0.999981
0.9999999999999981,1,0.999980
0.9999999999999932,1,0.999982
1.0,1,0.999981
1.0,1,0.999981
1.0,1,0.999980
1.0,1,0.999980
0.9999999999999916,1,0.999980
1.0,1,0.999981
1.0,1,0.999981
0.9999999999999986,1,0.999982
1.0,1,0.999980
0.9999999999999938,1,0.999978
0.9999999999999856,1,0.999981
1.0,1,0.999981
1.0,1,0.999980
0.9999999999999873,1,0.999980
1.0,1,0.999980
0.9999999999999895,1,0.999979
0.9999999999999891,1,0.999978
0.999999999999996,1,0.999978
0.9999999999999842,1,0.999976
1.0,1,0.999978
0.9999999999999923,1,0.999981
0.9999999999999932,1,0.999978
0.9999999999999769,1,0.999980
1.0,1,0.999981
0.9999999999999853,1,0.999980
0.9999999999999757,1,0.999981
1.0,1,0.999981
0.9999999999999993,1,0.999979
0.9998870538662391,1,0.999982
0.9999931625608903,1,0.999982
0.9999993945262666,1,0.999980
0.9999999994917793,1,0.999980
0.9999999999999859,1,0.999981
0.9999845148778855,1,0.999981
0.9999999915654507,1,0.999980
1.0,1,0.999980
1.0,1,0.999981
0.9999999999999982,1,0.999979
1.0,1,0.999979
0.9999999999999907,1,0.999980
1.0,1,0.999982
1.0,1,0.999978
0.999998234686881,1,0.999981
0.9999999669845865,1,0.999979
0.999999999877769,1,0.999978
0.9999999999999435,1,0.999979
0.9999999999999977,1,0.999982
0.9999999999999877,1,0.999981
1.0,1,0.999977
0.9999999999999967,1,0.999980
0.9999999999999866,1,0.999979
1.0,1,0.999980
0.9999999999999996,1,0.999979
0.9999999999999771,1,0.999978
0.9999999999999999,1,0.999982
1.0,1,0.999979
1.0,1,0.999982
0.9999999999999799,1,0.999982
0.9999999999999992,1,0.999979
0.9999999999999802,1,0.999977
0.9999999999999988,1,0.999982
0.9999999999999979,1,0.999981
1.0,1,0.999981
0.9999999999999939,1,0.999978
0.9999999999999938,1,0.999981
0.9999999999999974,1,0.999981
1.0,1,0.999981
1.0,1,0.999981
0.9999999999999716,1,0.999982
0.999997121478262,1,0.999981
0.9999909063573494,1,0.999981
0.9999884415796142,1,0.999979
0.9999999952568369,1,0.999978
0.9999999999997061,1,0.999971
1.0,1,0.999975
1.0,1,0.999979
1.0,1,0.999979
0.9999999999999942,1,0.999982
0.999999999999998,1,0.999981
0.9999999999999962,1,0.999980
1.0,1,0.999981
1.0,1,0.999981
1.0,1,0.999982
0.999999999999994,1,0.999982
1.0,1,0.999981
1.0,1,0.999982
1.0,1,0.999981
1.0,1,0.999982
1.0,1,0.999982
0.9999999999999992,1,0.999979
0.9999999999999926,1,0.999979
0.9999999999999793,1,0.999982
1.0,1,0.999981
0.9999999999999978,1,0.999982
0.9999999999999978,1,0.999981
1.0,1,0.999981
1.0,1,0.999977
1.0,1,0.999982
1.0,1,0.999982
0.9999999984707291,1,0.999982
0.9999999999997453,1,0.999980
0.9999999999999893,1,0.999980
1.0,1,0.999981
0.999999999999999,1,0.999981
1.0,1,0.999980
1.0,1,0.999979
1.0,1,0.999979
1.0,1,0.999973
1.0,1,0.999978
1.0,1,0.999982
0.999999959483822,1,0.999982
0.9999999999671507,1,0.999979
0.9999999999853035,1,0.999978
1.0,1,0.999982
1.0,1,0.999981
0.9999999999999996,1,0.999979
1.0,1,0.999979
0.9999999999999916,1,0.999978
0.9999999999999998,1,0.999980
0.9999999999999887,1,0.999978
1.0,1,0.999979
0.9997132340927081,1,0.999980
0.9999999904673676,1,0.999980
0.9999999393318203,1,0.999981
0.9999999869925363,1,0.999980
0.9999999981684187,1,0.999980
0.9999999996915532,1,0.999981
0.9999999999997033,1,0.999980
1.0,1,0.999979
1.0,1,0.999975
1.0,1,0.999979
0.9999999999999947,1,0.999981
1.0,1,0.999978
1.0,1,0.999982
1.0,1,0.999980
0.9999783449564674,1,0.999981
0.9999985053380865,1,0.999979
0.999999999999995,1,0.999982
1.0,1,0.999982
1.0,1,0.999982
1.0,1,0.999982
1.0,1,0.999982
0.9999901413695628,1,0.999982
0.9999991184832527,1,0.999974
0.9999999938346933,1,0.999980
0.9999267780210139,1,0.999982
0.9999997593365637,1,0.999979
0.9997517050447962,1,0.999979
0.9999993129158258,1,0.999977
0.9999999999959102,1,0.999977
0.9999999999999937,1,0.999978
1.0,1,0.999980
1.0,1,0.999981
0.9997484602417275,1,0.999982
0.999999981985702,1,0.999980
0.9999999987106438,1,0.999981
0.9999999999999815,1,0.999979
1.0,1,0.999975
0.9999999999999869,1,0.999980
1.0,1,0.999979
0.999986697160874,1,0.999982
0.9999869945074343,1,0.999980
0.9999967760534618,1,0.999979
0.999999999823836,1,0.999981
0.9999999999885747,1,0.999977
0.9999999999999796,1,0.999982
0.9997841670151277,1,0.999980
0.9999999994958365,1,0.999981
1.0,1,0.999979
0.9999999999999859,1,0.999976
0.9999999999999984,1,0.999982
1.0,1,0.999981
0.999999999999995,1,0.999981
1.0,1,0.999980
0.9999999999999983,1,0.999978
1.0,1,0.999980
0.9999999999999921,1,0.999982
0.9999999999999729,1,0.999980
1.0,1,0.999981
0.9999588028907826,1,0.999977
0.9999999999985952,1,0.999982
1.0,1,0.999981
1.0,1,0.999982
1.0,1,0.999982
1.0,1,0.999980
0.9999999999999897,1,0.999981
1.0,1,0.999978
0.9999999999999977,1,0.999982
0.999941249753235,1,0.999980
0.9999915783709582,1,0.999977
0.9999999996624688,1,0.999980
0.999999999998184,1,0.999976
1.0,1,0.999979
0.9999999999999922,1,0.999981
0.9999999999999893,1,0.999981
1.0,1,0.999979
0.9999999999999842,1,0.999982
0.9999999999999999,1,0.999982
0.9998976626199604,1,0.999981
0.9999999999064394,1,0.999982
0.999999999999892,1,0.999980
1.0,1,0.999975
1.0,1,0.999982
0.9999995370872086,1,0.999981
0.9999999760690027,1,0.999981
0.9999999999139755,1,0.999979
0.999686776001015,1,0.999978
0.999999999229492,1,0.999982
0.9999394278485748,1,0.999982
0.9996914012493444,1,0.999979
0.999997264312199,1,0.999981
0.9999999074837624,1,0.999980
0.9999999980728743,1,0.999974
1.0,1,0.999979
0.9999999999999961,1,0.999976
1.0,1,0.999977
1.0,1,0.999975
0.9999999999999873,1,0.999962
1.0,1,0.999961
0.9999999999999898,1,0.999960
0.9999999999999895,1,0.999960
0.9999999999999994,1,0.999959
0.9999999999999922,1,0.999958
0.9999999999999991,1,0.999961
0.9999999999999994,1,0.999956
1.0,1,0.999950
1.0,1,0.999957
1.0,1,0.999962
1.0,1,0.999961
1.0,1,0.999959
0.9999999999999983,1,0.999960
0.9999999999999929,1,0.999960
0.9999999999999909,1,0.999960
1.0,1,0.999960
1.0,1,0.999961
1.0,1,0.999960
1.0,1,0.999960
0.9999999999999876,1,0.999961
1.0,1,0.999981
0.999999999999999,1,0.999981
0.9999999999999906,1,0.999982
0.9999999999999982,1,0.999982
0.9999999999999971,1,0.999982
0.9999999999999917,1,0.999982
0.9999999999999978,1,0.999980
0.9998428268071885,1,0.999981
0.9999999720205832,1,0.999980
0.9998606562104971,1,0.999980
0.9999999835367026,1,0.999982
0.9999999996311549,1,0.999981
0.9999999999999238,1,0.999982
0.9999991245595682,1,0.999982
0.9999997068958721,1,0.999974
0.9999999919042858,1,0.999979
0.9999999993556372,1,0.999982
0.9999999997804369,1,0.999981
0.9999999999998977,1,0.999980
0.9999999999999468,1,0.999981
0.9999999999999928,1,0.999979
0.9999999999999994,1,0.999981
0.9999999999999883,1,0.999979
1.0,1,0.999973
0.9999999999999989,1,0.999972
1.0,1,0.999970
1.0,1,0.999977
1.0,1,0.999972
0.9999999999999869,1,0.999968
0.9999999999999852,1,0.999968
0.9999999999999992,1,0.999980
0.9999999999999866,1,0.999980
0.9999999999999919,1,0.999979
1.0,1,0.999981
0.9999999999999888,1,0.999980
1.0,1,0.999980
0.9999999999999959,1,0.999980
0.9999999999999937,1,0.999978
0.9999999999999897,1,0.999977
0.9999999999999939,1,0.999978
0.9999999999999928,1,0.999980
1.0,1,0.999979
1.0,1,0.999974
1.0,1,0.999980
1.0,1,0.999980
1.0,1,0.999977
1.0,1,0.999979
1.0,1,0.999975
1.0,1,0.999976
1.0,1,0.999974
0.9999999999999911,1,0.999977
1.0,1,0.999977
1.0,1,0.999975
1.0,1,0.999970
0.9999999999999871,1,0.999976
1.0,1,0.999974
0.9999999999999892,1,0.999982
0.9999999999999919,1,0.999979
1.0,1,0.999978
0.9999999999999949,1,0.999978
0.9999999999999977,1,0.999979
0.999999999999987,1,0.999982
0.9997141443321409,1,0.999978
0.9997624820401138,1,0.999979
0.9999676048888777,1,0.999980
0.9999980307052841,1,0.999980
0.9999995909345246,1,0.999978
0.9999999882959064,1,0.999975
0.9999999996129026,1,0.999981
0.9999999999851876,1,0.999975
0.9999999999998307,1,0.999974
0.9999999999999947,1,0.999981
0.9999999999999991,1,0.999979
0.9999999999999983,1,0.999979
0.9999999999999979,1,0.999976
0.9999999999999997,1,0.999977
0.9999999999999936,1,0.999972
0.9999999999999991,1,0.999981
0.9999999999999994,1,0.999978
1.0,1,0.999976
0.9999999999999969,1,0.999982
1.0,1,0.999980
0.9999999999999833,1,0.999980
0.9999999999999772,1,0.999981
1.0,1,0.999980
1.0,1,0.999978
1.0,1,0.999971
0.9999999999999825,1,0.999979
1.0,1,0.999978
0.999930591756982,1,0.999978
0.9999892092431195,1,0.999980
0.999999896039042,1,0.999976
0.9999999997538663,1,0.999980
0.9999999999994146,1,0.999980
0.9999999999999765,1,0.999980
1.0,1,0.999980
0.9999348066159176,1,0.999980
0.9999301370552911,1,0.999979
0.9999995477434235,1,0.999979
0.9999999999705348,1,0.999979
0.9999999999999954,1,0.999982
1.0,1,0.999980
0.9999999999999954,1,0.999962
0.9999999999999932,1,0.999981
0.9999999999999883,1,0.999982
1.0,1,0.999980
1.0,1,0.999982
0.999999999999999,1,0.999977
1.0,1,0.999979
0.9999999999999997,1,0.999982
1.0,1,0.999981
1.0,1,0.999981
0.9999999999999893,1,0.999981
1.0,1,0.999980
0.9999999999999932,1,0.999979
0.9999999999999843,1,0.999981
1.0,1,0.999977
1.0,1,0.999977
1.0,1,0.999979
1.0,1,0.999975
0.9999999999999897,1,0.999976
1.0,1,0.999979
0.9999999999999791,1,0.999978
1.0,1,0.999979
1.0,1,0.999981
0.9999999999999979,1,0.999981
0.99999999999998,1,0.999981
0.9999999999999925,1,0.999980
1.0,1,0.999979
0.9999999999999818,1,0.999981
1.0,1,0.999980
0.999999999999974,1,0.999979
1.0,1,0.999982
0.9999999999999976,1,0.999978
0.9999999999999868,1,0.999977
1.0,1,0.999980
0.9999999999999862,1,0.999982
1.0,1,0.999976
1.0,1,0.999982
0.9999999999999899,1,0.999982
0.9999999999999784,1,0.999982
1.0,1,0.999979
0.9999999999999952,1,0.999980
1.0,1,0.999981
1.0,1,0.999980
1.0,1,0.999980
1.0,1,0.999978
0.9999999999999979,1,0.999980
0.9999999999999957,1,0.999976
1.0,1,0.999982
0.9999999999999969,1,0.999981
1.0,1,0.999980
1.0,1,0.999980
1.0,1,0.999974
1.0,1,0.999982
0.999999999999995,1,0.999982
1.0,1,0.999979
1.0,1,0.999977
0.9999999999999986,1,0.999979
1.0,1,0.999979
0.999999999999986,1,0.999982
1.0,1,0.999981
0.9999999999999889,1,0.999976
0.9999999999999845,1,0.999981
1.0,1,0.999976
1.0,1,0.999980
1.0,1,0.999980
0.9999999999999954,1,0.999974
1.0,1,0.999980
1.0,1,0.999981
0.9999999999999998,1,0.999981
0.9999999999999948,1,0.999982
0.999999999999989,1,0.999978
1.0,1,0.999982
1.0,1,0.999976
0.9999999999999907,1,0.999980
0.999999999999998,1,0.999981
1.0,1,0.999981
0.9999999999999979,1,0.999982
0.9999999999999956,1,0.999978
0.9999999999999953,1,0.999980
1.0,1,0.999981
0.999999999999993,1,0.999981
0.9998779488005571,1,0.999981
0.9999982529832119,1,0.999980
0.9999999999501537,1,0.999976
1.0,1,0.999977
1.0,1,0.999967
0.9999999999999957,1,0.999978
0.9999148313879848,1,0.999981
0.9999990923213233,1,0.999979
0.9999999894106809,1,0.999977
0.9999999999999455,1,0.999978
1.0,1,0.999978
0.9999999999999907,1,0.999980
1.0,1,0.999982
1.0,1,0.999981
0.9999999999999927,1,0.999976
1.0,1,0.999982
0.9999999999999925,1,0.999977
1.0,1,0.999980
1.0,1,0.999979
0.9999999999999979,1,0.999977
0.9999999999999948,1,0.999980
1.0,1,0.999979
1.0,1,0.999981
0.9999999999999967,1,0.999977
0.9999999999999798,1,0.999978
0.9999999999999873,1,0.999980
0.9999999999999851,1,0.999982
1.0,1,0.999978
0.9999999999999871,1,0.999980
1.0,1,0.999981
1.0,1,0.999982
0.9999999999999956,1,0.999979
0.9999979437268379,1,0.999978
0.9999999999999795,1,0.999981
0.9999999999999831,1,0.999978
0.9999999999999998,1,0.999977
0.9999999999999972,1,0.999980
0.9999999999999984,1,0.999979
0.9999999999999912,1,0.999981
1.0,1,0.999981
0.9999999999999888,1,0.999982
0.9999999999999777,1,0.999978
1.0,1,0.999980
0.9999999999999868,1,0.999977
1.0,1,0.999980
0.999999999999995,1,0.999980
0.999999999999981,1,0.999979
1.0,1,0.999978
1.0,1,0.999978
1.0,1,0.999980
1.0,1,0.999980
0.9999999999999971,1,0.999980
1.0,1,0.999980
0.9999999999999948,1,0.999980
0.9999999999999858,1,0.999981
0.9999999999999961,1,0.999981
1.0,1,0.999981
0.999999999999996,1,0.999978
1.0,1,0.999981
1.0,1,0.999982
1.0,1,0.999977
0.9999999999999989,1,0.999977
1.0,1,0.999979
1.0,1,0.999980
1.0,1,0.999981
1.0,1,0.999975
1.0,1,0.999981
1.0,1,0.999982
0.9999999999999889,1,0.999982
0.9999999999999629,1,0.999978
0.9999999999999816,1,0.999978
1.0,1,0.999981
1.0,1,0.999963
0.9999999999999994,1,0.999980
1.0,1,0.999980
0.9999999999999952,1,0.999981
1.0,1,0.999979
0.9999999999999897,1,0.999980
0.9997706581269328,1,0.999982
0.9999977550248127,1,0.999982
0.999999993372488,1,0.999981
0.9999999996150613,1,0.999981
0.999999999999824,1,0.999980
0.999999999999994,1,0.999980
1.0,1,0.999978
0.9999999999999992,1,0.999977
1.0,1,0.999962
1.0,1,0.999961
1.0,1,0.999955
1.0,1,0.999963
0.9999999999999856,1,0.999982
0.9999999999999867,1,0.999982
1.0,1,0.999981
0.9999999999999969,1,0.999976
1.0,1,0.999978
1.0,1,0.999978
0.9999999999999964,1,0.999979
1.0,1,0.999979
1.0,1,0.999979
0.999999999999998,1,0.999979
0.9999999999999798,1,0.999979
0.9999999999999856,1,0.999977
0.9999613272155378,1,0.999977
0.9997332866450596,1,0.999981
0.9997496427423684,1,0.999981
0.9999958967818184,1,0.999979
0.9999993207686726,1,0.999978
0.9999999748427574,1,0.999979
0.999999999929817,1,0.999922
0.9999999999999994,1,0.999982
1.0,1,0.999981
0.9999999999999977,1,0.999982
0.9999999999999933,1,0.999981
1.0,1,0.999979
1.0,1,0.999980
1.0,1,0.999981
0.9999999999999999,1,0.999982
1.0,1,0.999981
1.0,1,0.999982
0.9999999999999932,1,0.999982
0.9999999999999873,1,0.999981
0.9999999999999978,1,0.999981
0.999999999999995,1,0.999980
1.0,1,0.999980
0.9999999999999866,1,0.999979
0.9999999999999878,1,0.999976
0.9999999999999964,1,0.999981
0.9999999999999943,1,0.999980
1.0,1,0.999982
0.9999999999999887,1,0.999981
0.9999999999999977,1,0.999981
1.0,1,0.999981
0.999999999999997,1,0.999982
0.9999999999999986,1,0.999982
1.0,1,0.999982
0.9999999999999946,1,0.999981
1.0,1,0.999982
0.9999999999999954,1,0.999981
0.9999999999999997,1,0.999977
0.9999999999999967,1,0.999974
1.0,1,0.999972
1.0,1,0.999976
1.0,1,0.999969
0.9999999999999891,1,0.999966
1.0,1,0.999973
0.9999999999999986,1,0.999982
0.99999999999999,1,0.999981
0.999999999999992,1,0.999978
0.9999999999999998,1,0.999980
1.0,1,0.999980
0.9999999999999734,1,0.999978
0.9999999999999972,1,0.999980
0.9999999999999862,1,0.999981
1.0,1,0.999982
1.0,1,0.999978
0.9999999999999872,1,0.999976
0.9999999999999857,1,0.999969
0.9999999999999871,1,0.999977
0.9999999999999978,1,0.999975
0.9999999999999871,1,0.999976
1.0,1,0.999980
0.9999999999999838,1,0.999979
1.0,1,0.999977
0.9999999999999836,1,0.999978
1.0,1,0.999981
1.0,1,0.999982
0.9999999999999911,1,0.999982
0.9999999999999986,1,0.999981
1.0,1,0.999981
1.0,1,0.999982
1.0,1,0.999978
1.0,1,0.999982
1.0,1,0.999981
0.9999999999999859,1,0.999977
0.9999999999999946,1,0.999971
0.9999971520665629,1,0.999981
0.9999998385232429,1,0.999980
1.0,1,0.999981
1.0,1,0.999982
0.999996182732617,1,0.999981
0.9999999827887427,1,0.999981
0.9999999999999925,1,0.999981
0.9999999999999949,1,0.999982
1.0,1,0.999979
0.9999999999999949,1,0.999977
1.0,1,0.999980
1.0,1,0.999979
1.0,1,0.999979
1.0,1,0.999981
0.9999999999999988,1,0.999981
0.9996995442640451,1,0.999980
0.999989196050153,1,0.999978
0.9999999101768411,1,0.999981
0.9999999963639536,1,0.999972
0.9999999999952346,1,0.999976
0.9999999999999969,1,0.999974
0.9999999999999954,1,0.999981
0.9999999999999973,1,0.999981
1.0,1,0.999975
0.9999999999999912,1,0.999973
0.9999999999999855,1,0.999973
0.9999999999999727,1,0.999976
1.0,1,0.999981
0.999999999999998,1,0.999978
0.9999999999999722,1,0.999980
1.0,1,0.999974
1.0,1,0.999981
1.0,1,0.999978
0.999999999999995,1,0.999980
0.9999999999999991,1,0.999981
0.9999999999999934,1,0.999978
0.9999999999999876,1,0.999981
0.9999999999999853,1,0.999980
0.9999999999999993,1,0.999980
1.0,1,0.999982
0.9999999999999996,1,0.999982
0.9999999999999934,1,0.999976
0.9999936923186612,1,0.999982
0.9999891503167185,1,0.999980
0.9999999700458119,1,0.999980
0.9999999999679549,1,0.999981
0.9999999999998852,1,0.999980
0.9999999999999838,1,0.999978
1.0,1,0.999979
1.0,1,0.999980
0.9999999999999889,1,0.999980
1.0,1,0.999982
1.0,1,0.999979
1.0,1,0.999981
1.0,1,0.999980
0.9999999999999934,1,0.999979
1.0,1,0.999980
1.0,1,0.999978
0.9999934874531573,1,0.999980
0.9999950376752407,1,0.999944
0.9999999997413881,1,0.999982
0.9999999999999968,1,0.999975
1.0,1,0.999981
0.9999999999999966,1,0.999979
1.0,1,0.999980
1.0,1,0.999982
0.9999999999999956,1,0.999979
0.9999999999999885,1,0.999982
0.9999999999999968,1,0.999976
0.9999999999999948,1,0.999981
0.999999999999998,1,0.999982
1.0,1,0.999976
0.9999999999999909,1,0.999977
0.9999999999999905,1,0.999982
0.9999999999999963,1,0.999982
0.999999999999991,1,0.999980
0.9999999999999777,1,0.999978
1.0,1,0.999976
0.9999999999999907,1,0.999979
0.9999999999999807,1,0.999982
0.9999999999999962,1,0.999978
0.9999999999999833,1,0.999980
0.9999999999999888,1,0.999977
1.0,1,0.999975
0.9999999999999942,1,0.999980
1.0,1,0.999973
0.999999999999992,1,0.999974
0.9999999999999959,1,0.999960
1.0,1,0.999976
0.9999999999999838,1,0.999978
1.0,1,0.999979
1.0,1,0.999949
1.0,1,0.999981
1.0,1,0.999979
1.0,1,0.999981
0.999999999999996,1,0.999981
0.9999999999999908,1,0.999973
1.0,1,0.999982
1.0,1,0.999977
1.0,1,0.999978
0.9999999999999934,1,0.999980
1.0,1,0.999975
1.0,1,0.999980
1.0,1,0.999981
0.9999999999999867,1,0.999977
1.0,1,0.999981
0.9999873995974541,1,0.999982
0.9999997957602538,1,0.999979
0.9999999996129793,1,0.999981
0.9999999999582496,1,0.999978
0.999999999999939,1,0.999981
0.9999999999999869,1,0.999974
0.9999999999999856,1,0.999981
0.9999999999999847,1,0.999980
0.9999999999999929,1,0.999979
1.0,1,0.999977
1.0,1,0.999981
0.9999976181582383,1,0.999979
0.9999999950765818,1,0.999980
0.9999999999994915,1,0.999978
0.9999999999999976,1,0.999978
1.0,1,0.999980
1.0,1,0.999979
0.9999999999999888,1,0.999981
0.9999999999999961,1,0.999981
1.0,1,0.999982
1.0,1,0.999979
0.99999999999999,1,0.999982
1.0,1,0.999982
1.0,1,0.999982
1.0,1,0.999982
1.0,1,0.999982
0.9999999999999988,1,0.999980
0.9999990978203629,1,0.999978
0.9999999999959537,1,0.999980
1.0,1,0.999979
0.9999999999999811,1,0.999980
0.9999999999999855,1,0.999976
0.9999999999999863,1,0.999974
0.9999999999999908,1,0.999979
0.999999999999991,1,0.999981
1.0,1,0.999980
0.9999999999999865,1,0.999977
1.0,1,0.999978
0.9999917763550139,1,0.999978
0.9999491627321914,1,0.999982
0.9999998989591137,1,0.999982
0.999999823896924,1,0.999981
0.9999999998697862,1,0.999973
1.0,1,0.999972
1.0,1,0.999972
1.0,1,0.999967
0.9999999999999916,1,0.999968
0.9999999999999989,1,0.999966
1.0,1,0.999981
1.0,1,0.999976
0.9999999999999938,1,0.999981
1.0,1,0.999978
0.9999999999999879,1,0.999975
0.9999999999999946,1,0.999982
1.0,1,0.999979
1.0,1,0.999979
0.9999999999999915,1,0.999978
1.0,1,0.999978
0.9999999999999951,1,0.999980
0.9999999999999997,1,0.999981
0.9999999999999789,1,0.999981
0.9999999999999918,1,0.999982
0.9999999999999974,1,0.999976
0.999901735717704,1,0.999980
0.9999976468047416,1,0.999982
0.9999999740345399,1,0.999978
0.9999999999990689,1,0.999979
0.9999999999999218,1,0.999979
1.0,1,0.999978
0.9999999999999849,1,0.999978
1.0,1,0.999980
0.9999999999999912,1,0.999977
1.0,1,0.999979
1.0,1,0.999981
1.0,1,0.999981
1.0,1,0.999978
0.9999999999999991,1,0.999980
0.9999999999999968,1,0.999979
0.9999999999999915,1,0.999981
0.9999999999999896,1,0.999979
1.0,1,0.999981
0.9999999999999983,1,0.999979
1.0,1,0.999981
0.9999999999999925,1,0.999980
0.9999999999999998,1,0.999981
1.0,1,0.999980
0.9999999999999871,1,0.999981
0.9997589144946103,1,0.999981
0.9999978190994678,1,0.999981
0.999999999999979,1,0.999982
1.0,1,0.999980
0.9999999999999832,1,0.999978
1.0,1,0.999981
0.9999999999999809,1,0.999982
0.9999999999999969,1,0.999982
1.0,1,0.999981
0.9999999999999977,1,0.999982
1.0,1,0.999982
1.0,1,0.999981
1.0,1,0.999981
0.9999999999999944,1,0.999981
0.9999999999999906,1,0.999979
1.0,1,0.999974
0.9999809205171599,1,0.999980
0.9999999995023263,1,0.999981
0.9999999999983026,1,0.999982
0.9999999999999882,1,0.999977
1.0,1,0.999977
1.0,1,0.999980
0.9999999999999669,1,0.999977
1.0,1,0.999979
0.999999999999991,1,0.999951
0.9999999999999791,1,0.999979
1.0,1,0.999981
0.9999999999999921,1,0.999980
0.9999999999999908,1,0.999982
0.9999999999999957,1,0.999977
0.9999999999999983,1,0.999974
1.0,1,0.999978
1.0,1,0.999974
0.9999999999999911,1,0.999979
1.0,1,0.999981
0.9999999999999932,1,0.999940
0.9999999999999986,1,0.999981
0.9999999999999967,1,0.999975
1.0,1,0.999982
1.0,1,0.999981
0.9999999999999892,1,0.999981
1.0,1,0.999981
1.0,1,0.999975
1.0,1,0.999975
0.9999999999999825,1,0.999978
1.0,1,0.999977
0.9999999999999996,1,0.999979
0.9999999999999832,1,0.999980
1.0,1,0.999982
0.9999999999999947,1,0.999979
1.0,1,0.999976
0.9999999999999906,1,0.999971
1.0,1,0.999982
1.0,1,0.999978
1.0,1,0.999980
1.0,1,0.999979
0.9999999999999961,1,0.999978
1.0,1,0.999982
0.9999090042856192,1,0.999975
0.9999986576951003,1,0.999980
0.9999999175639639,1,0.999980
0.999999999942053,1,0.999979
0.999999999999746,1,0.999979
0.9999999999999973,1,0.999975
1.0,1,0.999980
0.9999999999999838,1,0.999982
1.0,1,0.999976
1.0,1,0.999978
0.9999999999999952,1,0.999982
0.9999999999999974,1,0.999974
1.0,1,0.999981
0.9999134289188851,1,0.999978
0.9999984086004533,1,0.999980
0.9999999999211052,1,0.999982
0.999999999996074,1,0.999979
0.9999999999999715,1,0.999962
1.0,1,0.999964
0.9999999999999967,1,0.999961
1.0,1,0.999976
0.9997045016005567,1,0.999980
0.9999993110131521,1,0.999982
0.9999996403677339,1,0.999977
0.9999998261957639,1,0.999979
0.9999999845339121,1,0.999973
0.9999999999996313,1,0.999977
0.9999999999999769,1,0.999979
1.0,1,0.999976
0.9999999999999807,1,0.999978
1.0,1,0.999980
1.0,1,0.999977
1.0,1,0.999980
0.9999999999999943,1,0.999977
0.9999999999999821,1,0.999980
0.9999999999999952,1,0.999982
1.0,1,0.999982
1.0,1,0.999977
0.9999999999999972,1,0.999978
1.0,1,0.999976
1.0,1,0.999978
0.9999999999999934,1,0.999981
1.0,1,0.999981
1.0,1,0.999981
1.0,1,0.999979
0.9999999999999847,1,0.999982
0.9999999999999969,1,0.999979
1.0,1,0.999979
1.0,1,0.999981
0.9999999999999967,1,0.999978
1.0,1,0.999980
0.9999999999999952,1,0.999976
1.0,1,0.999976
0.9999999999999979,1,0.999982
0.9999999999999838,1,0.999980
0.9999999999999769,1,0.999980
1.0,1,0.999981
0.9999999999999938,1,0.999971
0.9999999999999954,1,0.999979
0.9999999999999858,1,0.999982
0.9999999999999969,1,0.999976
0.9999999999999938,1,0.999981
1.0,1,0.999977
0.9999999999999709,1,0.999981
0.999999999999994,1,0.999981
0.9999999999999877,1,0.999981
1.0,1,0.999982
0.9996863945166264,1,0.999978
0.9999998429767037,1,0.999981
0.9999999992855813,1,0.999977
0.9999999999998676,1,0.999977
1.0,1,0.999978
0.999999999999996,1,0.999977
1.0,1,0.999980
1.0,1,0.999981
0.9999999999999813,1,0.999979
1.0,1,0.999974
1.0,1,0.999980
0.9999999999999907,1,0.999978
0.9999999999999957,1,0.999958
0.9999999999999976,1,0.999978
0.9999999999999861,1,0.999977
0.999999999999997,1,0.999980
1.0,1,0.999981
1.0,1,0.999979
0.9999999999999969,1,0.999982
0.9999999999999866,1,0.999940
0.9999999999999933,1,0.999978
0.9999999999999958,1,0.999980
1.0,1,0.999977
1.0,1,0.999963
1.0,1,0.999977
0.9999999999999923,1,0.999982
1.0,1,0.999980
0.999999999999984,1,0.999980
1.0,1,0.999976
1.0,1,0.999978
1.0,1,0.999981
0.9999999999999938,1,0.999978
1.0,1,0.999975
1.0,1,0.999972
1.0,1,0.999977
1.0,1,0.999980
1.0,1,0.999980
0.9999999999999889,1,0.999976
0.9993472973356838,1,0.999959
0.9994496254641927,1,0.999978
0.9999997867464263,1,0.999980
0.9999999995986845,1,0.999979
1.0,1,0.999978
1.0,1,0.999976
0.9999999999999852,1,0.999981
0.999999999999986,1,0.999982
1.0,1,0.999981
1.0,1,0.999981
1.0,1,0.999982
1.0,1,0.999982
0.9999999999999954,1,0.999978
1.0,1,0.999978
0.999999999999984,1,0.999976
1.0,1,0.999980
1.0,1,0.999980
1.0,1,0.999982
0.9999999999999846,1,0.999977
0.9999999999999964,1,0.999976
0.9999787251804386,1,0.999982
0.9999999999995172,1,0.999982
0.9999999999999691,1,0.999979
0.9999999999999685,1,0.999980
0.9999999999999915,1,0.999979
1.0,1,0.999973
1.0,1,0.999978
1.0,1,0.999981
0.9999999999999938,1,0.999979
1.0,1,0.999978
1.0,1,0.999980
0.9999999999999937,1,0.999978
1.0,1,0.999981
1.0,1,0.999981
1.0,1,0.999981
1.0,1,0.999978
0.999999999999996,1,0.999982
0.9999999999999902,1,0.999979
1.0,1,0.999980
1.0,1,0.999978
1.0,1,0.999972
0.9999999999999872,1,0.999981
0.9999999999999927,1,0.999980
1.0,1,0.999976
0.9999999999999852,1,0.999977
0.9999999999999883,1,0.999978
1.0,1,0.999982
0.9999999999999919,1,0.999980
0.9999999999999989,1,0.999981
0.9999999999999889,1,0.999982
0.9999999999999973,1,0.999980
0.999999999999986,1,0.999980
1.0,1,0.999973
1.0,1,0.999969
0.999999999999991,1,0.999979
0.9999999999999996,1,0.999982
1.0,1,0.999982
0.9999999999999873,1,0.999978
1.0,1,0.999981
1.0,1,0.999977
0.9999999999999944,1,0.999980
1.0,1,0.999980
1.0,1,0.999977
1.0,1,0.999982
0.9999999999999918,1,0.999982
0.9999999999999953,1,0.999978
0.9999999999999883,1,0.999980
1.0,1,0.999978
1.0,1,0.999977
0.9999999999999841,1,0.999978
1.0,1,0.999979
1.0,1,0.999976
1.0,1,0.999961
1.0,1,0.999978
0.9999999999999954,1,0.999976
0.9999999999999967,1,0.999978
1.0,1,0.999980
1.0,1,0.999980
1.0,1,0.999977
0.9999999999999789,1,0.999977
0.9999999999999947,1,0.999980
0.9999994213063982,1,0.999802
0.9999999999732074,1,0.999956
0.9999999999999801,1,0.999980
1.0,1,0.999978
1.0,1,0.999977
0.9999999999999969,1,0.999971
0.9999999999999863,1,0.999963
1.0,1,0.999977
1.0,1,0.999978
1.0,1,0.999980
0.9999999999999877,1,0.999979
0.9999999999999837,1,0.999977
0.9999999999999928,1,0.999976
1.0,1,0.999973
0.9999999999999928,1,0.999974
1.0,1,0.999972
0.9999999999999816,1,0.999978
0.9999999999999969,1,0.999976
1.0,1,0.999974
0.9999999999999981,1,0.999979
0.9999999999999908,1,0.999977
1.0,1,0.999979
1.0,1,0.999978
1.0,1,0.999980
1.0,1,0.999978
1.0,1,0.999975
0.9999999999999853,1,0.999980
1.0,1,0.999981
1.0,1,0.999981
0.9996784447411399,1,0.999979
0.999999936978368,1,0.999981
0.9999999999716312,1,0.999978
1.0,1,0.999978
0.9999999999999925,1,0.999981
0.9999999999999934,1,0.999981
0.9999999999999736,1,0.999980
1.0,1,0.999978
1.0,1,0.999982
0.9999999999999871,1,0.999981
0.9999999999999803,1,0.999976
1.0,1,0.999981
0.9999999999999876,1,0.999973
0.9999271250759453,1,0.999982
0.9993102088480932,1,0.999960
0.9999103429389192,1,0.999979
0.9999753855756587,1,0.999963
0.9999999908910067,1,0.999978
0.9999999999944043,1,0.999981
0.9999999999999711,1,0.999976
1.0,1,0.999982
0.9999999999999978,1,0.999976
0.9999999999999891,1,0.999976
1.0,1,0.999969
1.0,1,0.999981
0.9999999999999989,1,0.999978
1.0,1,0.999982
0.9999999999999966,1,0.999979
0.9998206840908147,1,0.999981
0.9999922775765114,1,0.999981
0.9999972830041997,1,0.999982
0.9999999586886168,1,0.999980
0.9999999917879837,1,0.999980
0.9999999999492105,1,0.999976
0.9999999999973069,1,0.999975
0.9999999999999942,1,0.999981
1.0,1,0.999979
0.9996748288449792,1,0.999974
0.999987174907097,1,0.999976
0.9999990890147028,1,0.999976
0.9999999999997764,1,0.999978
0.9999999999999691,1,0.999979
0.9999999999999982,1,0.999936
1.0,1,0.999976
1.0,1,0.999977
1.0,1,0.999981
0.9999999999999927,1,0.999981
0.9999999999999921,1,0.999978
0.9999999999999978,1,0.999977
0.9996653197412372,1,0.999981
0.9994501941081589,1,0.999978
0.999999902452753,1,0.999972
0.9999999999934722,1,0.999980
0.9999999999999348,1,0.999979
0.9999999999999964,1,0.999976
1.0,1,0.999977
1.0,1,0.999981
1.0,1,0.999980
0.9999999999999969,1,0.999981
0.9999999999999905,1,0.999981
1.0,1,0.999980
0.9999999999999981,1,0.999981
0.9999999999999927,1,0.999981
0.9999999999999926,1,0.999976
1.0,1,0.999980
1.0,1,0.999981
1.0,1,0.999979
0.999776924965446,1,0.999982
0.9999935852031151,1,0.999978
0.9999985439897991,1,0.999980
0.999999788402411,1,0.999979
0.9999999717970166,1,0.999981
0.9999999999674027,1,0.999978
0.9999999999821285,1,0.999978
0.9999999999992427,1,0.999980
0.999999999999953,1,0.999980
1.0,1,0.999979
0.9999999999999886,1,0.999980
1.0,1,0.999975
1.0,1,0.999977
0.9999999999999889,1,0.999981
0.9999999999999897,1,0.999981
1.0,1,0.999979
0.9999999999999925,1,0.999978
0.9999999999999933,1,0.999980
0.99999999999999,1,0.999978
0.9999999999999996,1,0.999976
0.9999487177552417,1,0.999982
0.9999936872088878,1,0.999979
0.9999990347201975,1,0.999980
0.9999999991452365,1,0.999978
0.9999999999173216,1,0.999980
0.9999999999999907,1,0.999981
1.0,1,0.999980
0.9999999999999892,1,0.999979
1.0,1,0.999980
0.9999999999999977,1,0.999979
0.9999999999999942,1,0.999979
0.9999999999999893,1,0.999980
1.0,1,0.999979
1.0,1,0.999978
1.0,1,0.999981
0.9999999999999917,1,0.999979
0.9999999999999947,1,0.999981
1.0,1,0.999981
0.9999999999999933,1,0.999979
1.0,1,0.999980
0.9999999999999969,1,0.999980
1.0,1,0.999982
1.0,1,0.999975
1.0,1,0.999964
0.9999999999999841,1,0.999963
0.9999999999999991,1,0.999967
0.9999999999999866,1,0.999979
1.0,1,0.999981
1.0,1,0.999980
0.9999999999999926,1,0.999981
0.9999999999999908,1,0.999982
0.9999999999999888,1,0.999937
0.9999999999999931,1,0.999982
0.9999999999999986,1,0.999981
0.9999999999999993,1,0.999981
1.0,1,0.999980
0.9999999999999997,1,0.999981
0.9999999999999933,1,0.999982
0.9999999999999866,1,0.999980
0.9999999999999978,1,0.999981
1.0,1,0.999981
1.0,1,0.999978
1.0,1,0.999977
1.0,1,0.999977
1.0,1,0.999976
0.9999999999999973,1,0.999973
0.999999999999992,1,0.999970
1.0,1,0.999972
1.0,1,0.999968
1.0,1,0.999974
1.0,1,0.999972
1.0,1,0.999892
1.0,1,0.999974
1.0,1,0.999981
1.0,1,0.999979
1.0,1,0.999979
1.0,1,0.999980
1.0,1,0.999980
0.9999999999999879,1,0.999978
1.0,1,0.999980
0.9999376501617123,1,0.999981
0.9998518840830324,1,0.999980
0.9999958417609206,1,0.999982
0.9999996664805618,1,0.999981
0.9999999999999969,1,0.999982
0.9999999999999902,1,0.999977
0.9999999999999928,1,0.999980
1.0,1,0.999979
1.0,1,0.999977
0.9999999999999857,1,0.999978
0.999999999999984,1,0.999980
1.0,1,0.999980
0.9999999999999863,1,0.999982
1.0,1,0.999979
1.0,1,0.999978
1.0,1,0.999981
0.9999999999999973,1,0.999981
0.9999999999999926,1,0.999979
1.0,1,0.999976
0.9999999999999966,1,0.999979
0.9999999999999949,1,0.999979
0.9999999999999961,1,0.999978
1.0,1,0.999981
0.9999999999999823,1,0.999979
1.0,1,0.999978
0.9999999999999853,1,0.999978
0.9999999999999953,1,0.999980
1.0,1,0.999976
1.0,1,0.999977
0.9999999999999887,1,0.999980
0.9999999999999953,1,0.999980
1.0,1,0.999979
1.0,1,0.999977
0.9999999999999851,1,0.999980
1.0,1,0.999977
1.0,1,0.999981
1.0,1,0.999980
0.9999569747275128,1,0.999982
0.9999999999999529,1,0.999982
0.9999999999999941,1,0.999981
0.9999999999999949,1,0.999981
1.0,1,0.999981
0.9999999999999986,1,0.999981
1.0,1,0.999975
0.999999999999998,1,0.999977
0.9999999999999889,1,0.999978
1.0,1,0.999982
0.9999999999999858,1,0.999981
0.9999999999999926,1,0.999980
0.9999999999999915,1,0.999980
0.9999999999999911,1,0.999979
1.0,1,0.999979
0.9999999999999958,1,0.999982
0.999999999999988,1,0.999981
0.9999999999999971,1,0.999980
0.9999999999999893,1,0.999981
0.9999999999999842,1,0.999981
0.9999999999999881,1,0.999979
0.9999999999999951,1,0.999976
1.0,1,0.999970
1.0,1,0.999974
0.9999999999999972,1,0.999974
0.9999999999999836,1,0.999978
1.0,1,0.999978
1.0,1,0.999979
1.0,1,0.999979
1.0,1,0.999980
0.999999999999995,1,0.999976
1.0,1,0.999980
0.9999999999999951,1,0.999978
0.9999999999999895,1,0.999979
0.9999999999999871,1,0.999980
0.9999999999999967,1,0.999982
1.0,1,0.999981
0.9999999999999879,1,0.999979
0.9999999999999979,1,0.999981
1.0,1,0.999979
1.0,1,0.999980
0.9999999999999978,1,0.999913
1.0,1,0.999979
1.0,1,0.999980
0.9999999999999809,1,0.999978
0.9999999999999947,1,0.999978
0.9999999999999781,1,0.999980
0.9999999999999848,1,0.999975
1.0,1,0.999977
0.9999999999999993,1,0.999979
0.9999999999999927,1,0.999979
0.999744370194044,1,0.999981
0.9999880086596653,1,0.999981
0.9999999999946709,1,0.999980
0.9999999999996952,1,0.999979
0.9999999999999711,1,0.999978
1.0,1,0.999980
1.0,1,0.999981
1.0,1,0.999982
1.0,1,0.999979
1.0,1,0.999980
1.0,1,0.999981
0.9999999999999978,1,0.999980
0.9998485900911129,1,0.999980
0.9997959881483853,1,0.999981
0.9999330040968754,1,0.999981
1.0,1,0.999981
0.9999999999999845,1,0.999981
1.0,1,0.999980
1.0,1,0.999978
0.9999999999999993,1,0.999975
1.0,1,0.999981
1.0,1,0.999981
1.0,1,0.999980
0.9999999999999958,1,0.999981
0.999999999999991,1,0.999978
1.0,1,0.999976
1.0,1,0.999976
0.9999999999999917,1,0.999967
1.0,1,0.999979
0.9999999999999906,1,0.999975
1.0,1,0.999979
0.9999999999999957,1,0.999977
0.9999999999999989,1,0.999978
1.0,1,0.999979
0.9999999999999901,1,0.999976
1.0,1,0.999972
0.9999999999999974,1,0.999981
0.9999999999999998,1,0.999981
1.0,1,0.999979
0.9999999999999936,1,0.999980
1.0,1,0.999978
0.9999999999999989,1,0.999979
0.9999999999999898,1,0.999977
1.0,1,0.999981
0.9999999999999951,1,0.999978
1.0,1,0.999976
0.9999999999999999,1,0.999975
1.0,1,0.999978
1.0,1,0.999976
1.0,1,0.999978
1.0,1,0.999978
1.0,1,0.999979
1.0,1,0.999977
0.9999999999999969,1,0.999982
0.9999999999999994,1,0.999980
1.0,1,0.999979
0.9999999999999987,1,0.999978
0.9999999999999937,1,0.999979
1.0,1,0.999982
1.0,1,0.999979
0.999999999999991,1,0.999980
0.9999999999999918,1,0.999982
1.0,1,0.999982
1.0,1,0.999980
0.9999999999999952,1,0.999982
0.9999999999999943,1,0.999982
0.9999999999999992,1,0.999982
0.9999999999999893,1,0.999982
1.0,1,0.999982
0.9999999999999871,1,0.999982
0.9999999999999842,1,0.999982
0.9999999999999858,1,0.999982
0.9999999999999952,1,0.999982
0.9999999999999898,1,0.999981
0.9999999999999886,1,0.999982
1.0,1,0.999980
1.0,1,0.999975
0.9999999999999942,1,0.999980
0.9999999999999937,1,0.999978
0.9999999999999913,1,0.999981
0.9999999999999982,1,0.999979
0.9999999999999991,1,0.999979
1.0,1,0.999981
1.0,1,0.999978
0.9999856782113752,1,0.999981
0.9999983467434279,1,0.999979
0.9999998901651292,1,0.999980
0.9999999990048166,1,0.999978
0.9999999999761255,1,0.999971
0.9999999999999954,1,0.999981
1.0,1,0.999979
0.9999999999999962,1,0.999977
1.0,1,0.999979
0.9999999999999899,1,0.999979
0.9999999999999893,1,0.999979
0.9999999999999993,1,0.999975
1.0,1,0.999971
0.9999999999999787,1,0.999979
0.9999999999999889,1,0.999977
0.9999999999999941,1,0.999978
0.999999999999996,1,0.999980
1.0,1,0.999975
0.9999999999999967,1,0.999974
1.0,1,0.999980
0.9999999999999999,1,0.999980
0.9999999999999957,1,0.999979
0.9999999999999969,1,0.999980
1.0,1,0.999979
1.0,1,0.999978
1.0,1,0.999975
1.0,1,0.999977
1.0,1,0.999979
1.0,1,0.999973
1.0,1,0.999980
1.0,1,0.999979
0.9996894946681627,1,0.999980
0.9999997851041755,1,0.999975
0.9999999970515292,1,0.999979
0.999999999836372,1,0.999981
0.999999999981826,1,0.999979
0.9999999999997184,1,0.999978
0.9999999999999797,1,0.999975
1.0,1,0.999975
1.0,1,0.999978
1.0,1,0.999979
0.9999999999999745,1,0.999976
1.0,1,0.999980
1.0,1,0.999979
0.9999999999999974,1,0.999975
0.9999999999999994,1,0.999978
0.9999999999999963,1,0.999980
1.0,1,0.999980
0.9999999999999991,1,0.999979
1.0,1,0.999977
0.9999999999999867,1,0.999980
1.0,1,0.999977
1.0,1,0.999976
1.0,1,0.999979
0.9999999999999926,1,0.999978
1.0,1,0.999981
0.9998879310367562,1,0.999980
0.9999811155860312,1,0.999980
1.0,1,0.999981
1.0,1,0.999979
1.0,1,0.999976
1.0,1,0.999976
1.0,1,0.999977
1.0,1,0.999981
1.0,1,0.999982
1.0,1,0.999981
0.9999999999999887,1,0.999982
0.9999999999999833,1,0.999982
0.9999999999999886,1,0.999980
1.0,1,0.999981
1.0,1,0.999980
1.0,1,0.999981
0.9999999999999923,1,0.999981
0.9999999999999957,1,0.999982
0.999999999999993,1,0.999982
0.9999999999999968,1,0.999982
0.9999999999999956,1,0.999982
0.9999999999999933,1,0.999975
1.0,1,0.999973
0.9999999999999857,1,0.999973
0.9999999999999978,1,0.999970
0.9999999999999971,1,0.999974
1.0,1,0.999978
1.0,1,0.999978
1.0,1,0.999979
0.9999999999999916,1,0.999979
1.0,1,0.999980
1.0,1,0.999981
1.0,1,0.999979
0.9999999999999828,1,0.999979
0.999999999999989,1,0.999979
0.9999999999999984,1,0.999977
0.9999999999999906,1,0.999978
0.9999999999999966,1,0.999979
0.999999999999994,1,0.999975
0.9987584788996575,1,0.999980
0.9999998978083666,1,0.999980
0.9999999874009131,1,0.999981
0.9999999999958592,1,0.999963
0.9999999999989007,1,0.999981
0.9999999999999929,1,0.999980
1.0,1,0.999981
1.0,1,0.999982
0.999999999999997,1,0.999982
0.9999999999999954,1,0.999982
1.0,1,0.999982
1.0,1,0.999982
1.0,1,0.999981
0.9999999999999766,1,0.999980
1.0,1,0.999979
1.0,1,0.999921
0.999746079441258,1,0.999976
0.999999967015283,1,0.999977
0.9999999848905808,1,0.999980
0.9999999999825736,1,0.999970
1.0,1,0.999976
1.0,1,0.999978
0.9999999999999929,1,0.999981
0.999999941555549,1,0.999977
0.9999999959374442,1,0.999973
0.9999999999985489,1,0.999976
0.9999999999999929,1,0.999977
1.0,1,0.999981
1.0,1,0.999979
0.9999999999999858,1,0.999979
1.0,1,0.999978
0.9999999999999932,1,0.999980
0.999999999999985,1,0.999975
0.9999999999999996,1,0.999978
1.0,1,0.999981
1.0,1,0.999981
0.9999999999999963,1,0.999979
0.999999999999998,1,0.999981
0.9999999999999988,1,0.999981
1.0,1,0.999979
1.0,1,0.999979
0.9999999999999989,1,0.999978
1.0,1,0.999973
1.0,1,0.999972
0.9999999999999947,1,0.999981
1.0,1,0.999980
1.0,1,0.999976
1.0,1,0.999982
0.9999999999999897,1,0.999981
1.0,1,0.999982
1.0,1,0.999982
0.9999999999999933,1,0.999982
1.0,1,0.999978
0.9999999999999934,1,0.999976
0.999999999999999,1,0.999981
1.0,1,0.999979
1.0,1,0.999981
0.9999999999999895,1,0.999981
1.0,1,0.999981
0.9999999999999901,1,0.999980
0.9999999999999949,1,0.999979
1.0,1,0.999978
0.9999999999999982,1,0.999982
1.0,1,0.999980
0.9999999999999867,1,0.999981
1.0,1,0.999981
1.0,1,0.999981
1.0,1,0.999981
0.9999999999999957,1,0.999979
1.0,1,0.999981
0.9999999999999869,1,0.999979
0.9999999999999931,1,0.999979
0.9999999999999881,1,0.999979
1.0,1,0.999962
0.9999999999999984,1,0.999981
1.0,1,0.999980
0.9999999999999908,1,0.999982
0.9999999999999887,1,0.999980
0.9999999999999847,1,0.999971
1.0,1,0.999971
0.9999999999999969,1,0.999972
1.0,1,0.999970
0.9999999999999871,1,0.999973
1.0,1,0.999978
0.9999999999999932,1,0.999976
1.0,1,0.999978
0.9999999999999897,1,0.999978
0.9999999999999943,1,0.999980
1.0,1,0.999979
1.0,1,0.999979
0.9999999999999984,1,0.999978
1.0,1,0.999980
1.0,1,0.999980
0.999999999999994,1,0.999977
0.999999999999999,1,0.999978
1.0,1,0.999975
0.9999999999999958,1,0.999980
1.0,1,0.999980
1.0,1,0.999981
1.0,1,0.999977
1.0,1,0.999977
0.9999999999999882,1,0.999981
0.9999999999999926,1,0.999977
0.9999999999999977,1,0.999980
0.9999999999999971,1,0.999981
1.0,1,0.999978
1.0,1,0.999979
1.0,1,0.999981
0.9999999999999863,1,0.999981
0.9999999999999936,1,0.999980
1.0,1,0.999980
0.9999999999999931,1,0.999980
1.0,1,0.999978
0.9999999999999978,1,0.999974
0.9999999999999886,1,0.999974
1.0,1,0.999976
0.9999999999999942,1,0.999980
1.0,1,0.999980
1.0,1,0.999977
0.9999999999999934,1,0.999977
1.0,1,0.999980
0.9999999999999973,1,0.999979
0.9999999999999986,1,0.999974
0.9999999999999984,1,0.999977
0.9999999999999792,1,0.999982
1.0,1,0.999980
0.9999999999999883,1,0.999981
1.0,1,0.999979
1.0,1,0.999979
1.0,1,0.999981
1.0,1,0.999981
1.0,1,0.999982
0.9999999999999979,1,0.999981
0.9999999999999886,1,0.999982
0.9999999999999971,1,0.999982
1.0,1,0.999979
0.9999999999999979,1,0.999980
0.9999999999999958,1,0.999977
1.0,1,0.999979
0.9999999999999939,1,0.999976
0.9999999999999996,1,0.999943
1.0,1,0.999976
1.0,1,0.999982
1.0,1,0.999980
1.0,1,0.999979
1.0,1,0.999982
0.9999999999999938,1,0.999979
1.0,1,0.999980
0.9999999999999833,1,0.999979
0.9999999999999936,1,0.999976
1.0,1,0.999978
1.0,1,0.999979
1.0,1,0.999973
1.0,1,0.999976
0.9999999999999948,1,0.999973
0.9999999999999893,1,0.999971
0.9999999999999822,1,0.999981
0.9999999999999952,1,0.999979
0.99999999999999,1,0.999978
0.9999999999999934,1,0.999979
0.9999999999999908,1,0.999978
0.9999999999999931,1,0.999976
0.9999999999999942,1,0.999980
1.0,1,0.999978
0.9999999999999944,1,0.999981
0.9999999999999853,1,0.999980
1.0,1,0.999977
0.9999999999999927,1,0.999978
0.9999999999999982,1,0.999982
0.9999999999999886,1,0.999982
0.9999999999999966,1,0.999980
1.0,1,0.999981
1.0,1,0.999982
0.9999999999999977,1,0.999980
0.9999999999999917,1,0.999977
1.0,1,0.999974
0.9999999999999847,1,0.999952
1.0,1,0.999975
0.9999999999999988,1,0.999979
1.0,1,0.999980
0.9999999999999915,1,0.999975
0.9999999999999911,1,0.999972
1.0,1,0.999980
1.0,1,0.999975
0.9999999999999917,1,0.999976
0.9999999999999982,1,0.999972
1.0,1,0.999976
0.9999999999999927,1,0.999982
0.9999999999999962,1,0.999980
0.9999999999999959,1,0.999979
0.9999999999999977,1,0.999981
1.0,1,0.999982
0.9999999999999919,1,0.999982
0.9999999999999869,1,0.999982
0.9999999999999988,1,0.999982
0.9999999999999994,1,0.999981
0.999999999999985,1,0.999981
0.9999999999999974,1,0.999954
1.0,1,0.999975
0.999999999999984,1,0.999978
1.0,1,0.999981
0.9999999999999926,1,0.999978
1.0,1,0.999982
1.0,1,0.999979
1.0,1,0.999979
1.0,1,0.999974
1.0,1,0.999978
0.9999999999999956,1,0.999980
1.0,1,0.999972
1.0,1,0.999976
1.0,1,0.999964
1.0,1,0.999976
0.9999999999999953,1,0.999980
1.0,1,0.999980
1.0,1,0.999975
1.0,1,0.999974
1.0,1,0.999976
0.9999999999999976,1,0.999980
1.0,1,0.999980
1.0,1,0.999977
0.9999999999999979,1,0.999976
1.0,1,0.999974
1.0,1,0.999969
1.0,1,0.999979
1.0,1,0.999977
0.999999999999998,1,0.999982
0.9999999999999973,1,0.999981
1.0,1,0.999979
0.9999999999999979,1,0.999979
1.0,1,0.999979
1.0,1,0.999981
1.0,1,0.999979
1.0,1,0.999978
1.0,1,0.999979
0.9999999999999962,1,0.999975
0.9999999999999892,1,0.999975
1.0,1,0.999959
0.9999999999999974,1,0.999979
1.0,1,0.999979
1.0,1,0.999982
1.0,1,0.999980
0.9999999999999758,1,0.999981
0.9999999999999831,1,0.999973
0.9999999999999974,1,0.999978
1.0,1,0.999977
0.9999999999999994,1,0.999980
0.9999999999999974,1,0.999979
1.0,1,0.999979
1.0,1,0.999969
0.9999999999999819,1,0.999971
0.999999999999987,1,0.999970
0.9999999999999967,1,0.999973
0.9999999999999902,1,0.999970
0.9999999999999845,1,0.999980
0.999999999999999,1,0.999981
0.9999999999999865,1,0.999976
1.0,1,0.999978
0.9999999999999993,1,0.999981
0.999999999999991,1,0.999975
0.9999999999999974,1,0.999977
1.0,1,0.999975
0.9999999999999988,1,0.999974
0.9999999999999926,1,0.999980
0.9999999999999983,1,0.999978
1.0,1,0.999974
1.0,1,0.999981
0.9999999999999893,1,0.999979
0.9999999999999946,1,0.999977
0.9999999999999959,1,0.999974
1.0,1,0.999975
1.0,1,0.999978
1.0,1,0.999976
0.9999999999999909,1,0.999977
1.0,1,0.999981
1.0,1,0.999979
0.9999999999999931,1,0.999981
1.0,1,0.999982
1.0,1,0.999980
1.0,1,0.999982
0.9999999999999941,1,0.999978
0.9999999999999991,1,0.999979
1.0,1,0.999980
1.0,1,0.999981
1.0,1,0.999979
1.0,1,0.999975
0.9999999999999961,1,0.999980
1.0,1,0.999978
0.9999999999999923,1,0.999979
0.999999999999995,1,0.999982
1.0,1,0.999982
1.0,1,0.999977
0.9999999999999959,1,0.999980
1.0,1,0.999978
1.0,1,0.999975
1.0,1,0.999976
0.9999999999999961,1,0.999980
1.0,1,0.999981
0.9999999999999726,1,0.999977
1.0,1,0.999929
0.9999999999999983,1,0.999980
1.0,1,0.999980
1.0,1,0.999976
1.0,1,0.999979
1.0,1,0.999981
1.0,1,0.999981
1.0,1,0.999969
1.0,1,0.999976
1.0,1,0.999979
1.0,1,0.999977
0.999999999999998,1,0.999982
0.9999999999999991,1,0.999980
1.0,1,0.999981
1.0,1,0.999981
0.9999999999999988,1,0.999974
1.0,1,0.999977
0.9999999999999911,1,0.999974
0.9999999999999976,1,0.999982
0.9999999999999998,1,0.999981
0.9999999999999933,1,0.999979
0.9999999999999974,1,0.999982
0.9999999999999907,1,0.999980
1.0,1,0.999982
1.0,1,0.999981
1.0,1,0.999973
0.999999999999984,1,0.999965
1.0,1,0.999949
1.0,1,0.999941
0.9999999999999695,1,0.999942
0.9999999999999963,1,0.999960
0.9999999999999939,1,0.999958
0.9999999999999732,1,0.999969
1.0,1,0.999976
1.0,1,0.999981
1.0,1,0.999981
1.0,1,0.999981
1.0,1,0.999978
0.999999999999996,1,0.999977
0.9999999999999823,1,0.999979
1.0,1,0.999975
1.0,1,0.999978
1.0,1,0.999973
0.9999999999999973,1,0.999973
0.99999999999999,1,0.999975
1.0,1,0.999978
0.9999999999999912,1,0.999973
0.9999999999999848,1,0.999980
0.9999999999999948,1,0.999978
0.9999999999999855,1,0.999980
1.0,1,0.999978
0.9999999999999918,1,0.999980
1.0,1,0.999979
1.0,1,0.999977
0.9999999999999992,1,0.999982
0.9999999999999967,1,0.999974
1.0,1,0.999979
1.0,1,0.999979
0.999999999999991,1,0.999981
0.9999999999999791,1,0.999980
0.9999999999999876,1,0.999964
0.9999999999999961,1,0.999980
1.0,1,0.999979
0.9999999999999865,1,0.999977
1.0,1,0.999977
1.0,1,0.999979
1.0,1,0.999978
1.0,1,0.999974
1.0,1,0.999979
1.0,1,0.999981
0.9999999999999828,1,0.999979
0.9999999999999978,1,0.999978
0.999999999999998,1,0.999978
0.9999999999999911,1,0.999980
0.9999999999999981,1,0.999978
1.0,1,0.999975
0.9999999999999908,1,0.999976
1.0,1,0.999978
0.9999999999999932,1,0.999977
1.0,1,0.999981
1.0,1,0.999979
1.0,1,0.999971
1.0,1,0.999976
1.0,1,0.999982
0.9999999999999933,1,0.999978
0.999999999999994,1,0.999981
1.0,1,0.999978
1.0,1,0.999979
1.0,1,0.999978
0.9999999999999972,1,0.999979
1.0,1,0.999974
1.0,1,0.999978
0.9999999999999933,1,0.999974
1.0,1,0.999979
0.9999999999999977,1,0.999976
1.0,1,0.999979
0.9999999999999778,1,0.999980
0.9999999999999926,1,0.999981
0.9999999999999901,1,0.999982
0.9999999999999957,1,0.999976
0.9999999999999927,1,0.999980
1.0,1,0.999981
0.9999999999999877,1,0.999981
1.0,1,0.999980
1.0,1,0.999974
0.9999999999999897,1,0.999969
0.9999999999999599,1,0.999975
1.0,1,0.999980
1.0,1,0.999980
1.0,1,0.999976
1.0,1,0.999979
1.0,1,0.999981
1.0,1,0.999978
0.9999999999999946,1,0.999981
1.0,1,0.999969
0.999999999999966,1,0.999977
1.0,1,0.999977
0.9999999999999925,1,0.999977
0.9999999999999851,1,0.999978
1.0,1,0.999982
1.0,1,0.999980
0.9999999999999929,1,0.999981
1.0,1,0.999976
0.9999999999999895,1,0.999967
1.0,1,0.999976
1.0,1,0.999979
0.9999999999999837,1,0.999978
0.9999999999999878,1,0.999981
0.9999999999999902,1,0.999979
1.0,1,0.999980
1.0,1,0.999981
1.0,1,0.999981
0.9999999999999946,1,0.999981
1.0,1,0.999976
0.9999999999999969,1,0.999981
1.0,1,0.999981
1.0,1,0.999981
0.9999999999999882,1,0.999981
0.9999999999999932,1,0.999981
1.0,1,0.999979
0.9999999999999999,1,0.999932
0.9999999999999994,1,0.999978
1.0,1,0.999978
0.9999999999999921,1,0.999978
0.9999999999999817,1,0.999981
0.9999999999999952,1,0.999978
1.0,1,0.999979
1.0,1,0.999979
0.9999999999999972,1,0.999979
0.9997546347489534,1,0.999981
0.999834735626866,1,0.999978
0.9999999993689361,1,0.999981
0.9999999999939045,1,0.999981
0.9999999999999409,1,0.999979
1.0,1,0.999978
1.0,1,0.999981
1.0,1,0.999978
0.9999999999999991,1,0.999965
0.9999999999999865,1,0.999966
0.9999999999999827,1,0.999967
0.9999999999999755,1,0.999965
0.9999999999999951,1,0.999962
0.9999999999999951,1,0.999961
0.9999999999999752,1,0.999973
0.9999999999999968,1,0.999981
1.0,1,0.999978
0.9999999999999823,1,0.999975
0.9999999999999971,1,0.999980
1.0,1,0.999979
1.0,1,0.999980
0.9999999999999901,1,0.999979
1.0,1,0.999979
1.0,1,0.999979
1.0,1,0.999981
0.9999999999999964,1,0.999981
0.9999999999999891,1,0.999981
1.0,1,0.999981
1.0,1,0.999977
0.9999999999999767,1,0.999977
0.999999999999991,1,0.999982
0.9999999999999926,1,0.999980
1.0,1,0.999980
1.0,1,0.999981
0.999999999999994,1,0.999982
0.9999999999999999,1,0.999979
0.9999999999999778,1,0.999976
0.9999999999999793,1,0.999981
1.0,1,0.999975
1.0,1,0.999977
0.9999999999999895,1,0.999972
1.0,1,0.999976
0.9999999999999991,1,0.999978
1.0,1,0.999982
1.0,1,0.999980
1.0,1,0.999980
0.9999999999999878,1,0.999977
0.9999999999999913,1,0.999980
1.0,1,0.999981
0.9999999999999808,1,0.999979
1.0,1,0.999980
1.0,1,0.999981
1.0,1,0.999980
1.0,1,0.999975
1.0,1,0.999936
1.0,1,0.999976
0.999999999999989,1,0.999957
0.9999999999999764,1,0.999981
1.0,1,0.999975
1.0,1,0.999969
1.0,1,0.999981
1.0,1,0.999979
0.9999999999999907,1,0.999953
0.9999999999999932,1,0.999981
1.0,1,0.999979
1.0,1,0.999977
0.999999999999997,1,0.999976
1.0,1,0.999975
1.0,1,0.999980
1.0,1,0.999980
1.0,1,0.999978
1.0,1,0.999982
1.0,1,0.999978
0.9999999999999961,1,0.999972
0.9999592815512328,1,0.999976
0.9999997835476112,1,0.999976
0.9999999999999964,1,0.999982
0.9999999999999933,1,0.999978
0.999999999999989,1,0.999977
0.999999999999997,1,0.999979
1.0,1,0.999977
1.0,1,0.999976
0.9999999999999951,1,0.999980
1.0,1,0.999978
0.9999999999999917,1,0.999982
1.0,1,0.999981
1.0,1,0.999982
0.9999999999999912,1,0.999978
1.0,1,0.999982
1.0,1,0.999982
0.999999999999994,1,0.999978
1.0,1,0.999977
1.0,1,0.999977
1.0,1,0.999981
0.9999999999999861,1,0.999978
1.0,1,0.999977
0.9999999999999865,1,0.999978
0.9999999999999934,1,0.999980
1.0,1,0.999976
0.9999999999999872,1,0.999978
1.0,1,0.999976
1.0,1,0.999977
1.0,1,0.999979
0.9999999999999787,1,0.999981
0.9999999999999997,1,0.999974
0.9999999999999974,1,0.999978
0.9999999999999983,1,0.999982
0.9999999999999988,1,0.999968
1.0,1,0.999967
1.0,1,0.999974
1.0,1,0.999977
0.9999999999999973,1,0.999975
0.9999999999999789,1,0.999979
1.0,1,0.999975
0.9999999999999906,1,0.999972
1.0,1,0.999970
1.0,1,0.999960
0.9999999999999931,1,0.999965
0.9999999999999841,1,0.999961
0.9999999999999889,1,0.999982
0.9999999999999902,1,0.999981
0.9999999999999896,1,0.999977
0.9999999999999979,1,0.999981
0.9999999999999993,1,0.999978
0.9999999999999856,1,0.999972
1.0,1,0.999978
1.0,1,0.999982
1.0,1,0.999981
1.0,1,0.999981
1.0,1,0.999980
1.0,1,0.999976
1.0,1,0.999981
1.0,1,0.999978
