NaN,0,0.989534
NaN,0,0.989444
NaN,0,0.989287
NaN,0,0.989108
NaN,0,0.988858
NaN,0,0.988543
NaN,0,0.988149
NaN,0,0.987647
NaN,0,0.986916
NaN,0,0.985730
NaN,0,0.983817
NaN,0,0.981925
NaN,0,0.979817
NaN,0,0.978312
NaN,0,0.977622
NaN,0,0.976987
0.023030487344693044,0,0.963398
0.034439763709996254,0,0.969125
0.034439763709996254,0,0.975148
0.034439763709996254,0,0.959732
0.040076238706807564,0,0.977249
0.040076238706807564,0,0.973049
0.47358871297641536,1,0.999814
0.6586451253463644,0,0.983326
0.6579974047627863,0,0.750325
0.669471424149821,0,0.985850
0.669471424149821,0,0.729097
0.6804199375119352,0,0.723711
0.6908636214787419,0,0.715785
0.7103188006824868,0,0.988462
0.7193707472731469,0,0.720702
0.7362221859723914,0,0.738367
0.8588292744734796,0,0.955829
0.8588292744734796,0,0.697044
0.8786559211256982,0,0.995050
0.8786559211256982,0,0.982456
0.8844890626289049,0,0.995411
0.8844890626289049,0,0.987205
0.8850598420171223,0,0.963891
0.890256270314644,0,0.978545
0.89490669908314,0,0.322711
0.8983758773858422,0,0.209335
0.9002452875448057,0,0.881561
0.9030945532918297,0,0.556020
0.900891321334759,0,0.956911
0.8998417690298217,0,0.580522
0.8999589921850674,0,0.712372
0.8999611163696759,0,0.622401
0.9000688868976237,0,0.991059
0.9005677505285171,0,0.958474
0.9006518964642451,0,0.992050
0.9008940072465236,0,0.950969
0.9010490721252626,0,0.587791
0.9022833695740956,0,0.314238
0.9038883029115958,1,0.999858
0.9043998404636054,0,0.575565
0.9049961756370172,0,0.443459
0.9071271308378609,0,0.602106
0.9076022444919233,0,0.975502
0.9084084845880734,0,0.995028
0.9089398859548605,0,0.561234
0.91023057819847,0,0.472344
0.9108363838519276,1,0.999791
0.9111990720476884,0,0.438954
0.9113401942741982,0,0.534884
0.9113627368148389,0,0.997687
0.9112163577792852,0,0.968949
0.9114577196341277,0,0.967721
0.9110706716211335,0,0.733040
0.9110088834630344,0,0.938733
