NaN,0,0.989611
NaN,0,0.989522
NaN,0,0.989366
NaN,0,0.989189
NaN,0,0.988940
NaN,0,0.988628
NaN,0,0.988236
NaN,0,0.987738
NaN,0,0.987013
NaN,0,0.985836
NaN,0,0.983937
NaN,0,0.982059
NaN,0,0.979966
NaN,0,0.978473
NaN,0,0.977787
NaN,0,0.977157
0.03132620362798539,0,0.963398
0.04526676689626273,0,0.969125
0.04526676689626273,0,0.975148
0.04526676689626273,0,0.959732
0.05148200637722363,0,0.977249
0.05148200637722363,0,0.973035
0.6841667292770491,0,0.966668
0.8004811887698698,0,0.972919
0.8004811887698698,0,0.761760
0.8241593485753163,0,0.757102
0.8345260889887428,0,0.738536
0.8524192504297646,0,0.734978
0.866766814699084,0,0.719977
0.930716264102801,1,0.999911
0.9873769732566128,0,0.482449
0.984225984932109,0,0.377937
0.9920409579367325,0,0.181260
0.988925763164436,1,0.998282
