0.6355488691074607,0,0.190837
0.45365976979755235,0,0.045981
0.4513936930520119,0,0.048968
0.33152330879015635,1,0.997698
0.31051801522328354,0,0.054002
0.4606972899059643,0,0.587022
0.2835128266039657,0,0.225821
0.28364580586249105,0,0.544977
0.2462944221846906,0,0.973460
0.27464845778102054,0,0.932941
0.4797891037237886,0,0.988768
0.4745511658756751,0,0.980343
0.474668915467295,0,0.968303
0.41465773116475096,0,0.976640
0.346958024077199,0,0.958575
0.3541707102095793,0,0.951664
0.3109921667136469,0,0.911853
0.31245975322922614,1,0.997633
0.3920757379496046,0,0.986614
0.4301346185064336,0,0.993847
0.360940549657295,0,0.974495
0.33897147616224965,0,0.973886
0.27595763836252013,0,0.955107
0.2586493894680232,1,0.998403
0.24199915191560678,0,0.988941
0.2742335805082654,1,0.999452
0.3242641725282979,1,0.995703
0.27477387824715066,0,0.148601
0.2218348704543909,1,0.998614
0.20989328831590276,0,0.982365
0.16761055961123464,0,0.406803
0.10120281428049609,0,0.947500
0.279956975759791,0,0.884126
0.25970730615901266,0,0.913208
0.2972161044652584,0,0.996564
0.372640516981457,0,0.864769
0.34458819913660915,0,0.994094
0.4077557517432537,0,0.990619
0.3051354367057267,0,0.959806
0.25334502847954454,0,0.955065
0.21604242227541948,0,0.992063
0.20682015954199293,1,0.997753
0.1833855004788144,0,0.910714
0.26180140181774675,0,0.948218
0.33832397853695134,0,0.885538
0.24890502432533884,0,0.900307
0.1998252576793933,1,0.994163
0.4123288215650782,0,0.926457
0.5117577571202028,0,0.939612
0.5634180822480309,0,0.955972
0.5129194430546875,0,0.963692
0.42137249927149134,0,0.832711
0.4605036120684136,0,0.856168
0.4054709711387839,1,0.999610
0.4209394443692376,1,0.994472
0.3348312050643629,0,0.948104
0.5170714240215267,0,0.927920
0.5937848632915381,0,0.949952
0.5613397069737057,0,0.768268
0.41799337685249693,0,0.984431
0.4970695319992009,0,0.765729
0.5992875637709799,0,0.965672
0.5522468265108645,0,0.854615
0.6623351664125038,0,0.977661
0.4829829880081344,0,0.956224
0.5152655714046105,0,0.914641
0.33453863017922475,1,0.998413
0.3062963164146563,0,0.922454
0.42080762987267945,0,0.874053
0.27579767537443445,1,0.999050
0.5844287506837184,0,0.866819
0.5812828514323705,0,0.942584
0.3705804801374816,0,0.976104
0.3964428949380175,0,0.832642
0.502958136177093,0,0.870462
0.45257495074709586,0,0.834057
0.5073561543537725,1,0.999470
0.5954603597109773,0,0.986585
0.6925393562032255,0,0.987285
0.6628381386493704,0,0.764503
0.2039593880667942,1,0.999348
0.1273297882519073,0,0.975709
0.1665309368844828,0,0.986433
0.1814545272267229,0,0.851121
0.05868616194036212,0,0.963470
0.055421352808106054,0,0.949564
0.08149317949909887,1,0.998713
0.04221914287287526,0,0.878078
0.23642535312771262,0,0.986423
0.3546217931673412,0,0.887920
0.3544229065674079,0,0.701826
0.24886145175038618,0,0.796411
0.23617510088685287,0,0.897940
0.2079049357323766,0,0.943662
0.08187490448526524,0,0.987313
0.05251219301346318,1,0.995082
0.0371493752298075,1,0.998544
0.16148153750850838,1,0.997764
0.024882878292007565,0,0.731931
0.20221159269851083,0,0.845799
0.16226091398170653,0,0.842000
0.0819046717882393,0,0.792833
0.2354302654696796,0,0.980900
0.2577231091755393,0,0.981108
0.29699162715810845,0,0.438738
0.39373736900395656,0,0.813808
0.4071556576572046,0,0.902529
0.3480409630817932,0,0.804410
0.003212316454202951,1,0.994012
0.31608804023135967,0,0.649614
0.27238347838831994,0,0.674935
0.25729085850742756,0,0.683908
0.37509074225053307,0,0.786943
0.5825822985403728,0,0.978541
0.45659923883560216,0,0.872872
0.4016658937294081,0,0.708361
0.4196410708537963,0,0.759597
0.4203336594484135,0,0.939166
0.17738901011045488,0,0.963415
0.37015118823444754,0,0.840000
0.2794746478495017,0,0.902969
0.27371407820625027,1,0.998221
0.5044696137738549,0,0.854097
0.6156345079496681,0,0.910070
0.41970255910429227,1,0.994304
0.30389057207633063,0,0.929423
0.3533145891669969,0,0.862319
0.5457424620239244,1,0.997739
0.4743170965717937,1,0.995301
0.5396072803058332,1,0.998922
0.2820073323873219,0,0.860880
0.11287046481531407,1,0.997925
0.48466937475098504,0,0.920837
0.5160069543799992,0,0.981468
0.5282943618602148,0,0.960727
0.5923197997459358,0,0.941324
0.6508695269877955,0,0.964407
0.6396112052821207,0,0.873163
0.6190272513132169,1,0.997550
0.6001177055909366,0,0.942363
0.5585304522068,0,0.765040
0.4993704011356981,0,0.993459
0.5895217599821688,0,0.762309
0.6126378131146741,0,0.877060
0.6481879287849643,0,0.909196
0.5765915420725696,0,0.962798
0.6546806342210837,0,0.994794
0.620364934330932,0,0.938240
0.645839605054589,0,0.759603
0.5147930872337333,0,0.980622
0.5000219570911143,0,0.446580
0.5116391091251786,0,0.492588
0.38387757502539244,0,0.478345
0.23195269544990826,0,0.868646
0.4482279015580885,0,0.841826
0.45098331048092677,0,0.576623
0.42659690900935615,0,0.776493
0.5077727409939771,0,0.777154
0.3371626298454665,0,0.742248
0.434148081816178,0,0.975081
0.3596029744678269,0,0.542975
0.21306798106614197,0,0.572491
0.2689899725225793,0,0.982021
0.2708002429603431,0,0.888832
0.43390155248723883,0,0.964047
0.3779072238323657,0,0.955975
0.650915065696039,1,0.996237
0.5650424561057883,0,0.935795
0.35361548890202316,0,0.942555
0.45510603488222773,1,0.998504
0.4465338978768134,0,0.978176
0.2770229793894682,0,0.884542
0.6698629120308209,0,0.940155
0.663620148451514,0,0.975565
0.5516225374592902,0,0.657838
0.41737612913585903,0,0.499384
0.36570760408862224,0,0.887616
0.33224616989091754,0,0.952741
0.24990579420230385,0,0.983122
0.29409387706848156,0,0.897693
0.17229804469189025,0,0.739744
0.2949861192300573,0,0.759114
0.41050691539738793,0,0.992221
0.5028805901578146,0,0.977521
0.32524354587187443,0,0.874644
0.3597471006981847,1,0.998822
0.3019189600772495,0,0.887681
0.1718597393675255,0,0.812183
0.03811767191195137,0,0.653025
0.12386474346525893,0,0.655594
0.12257925990441773,0,0.892344
0.20591207329591282,0,0.690385
0.3194014703390551,0,0.444624
0.4751151860222546,0,0.493679
0.600060180918314,0,0.629642
0.5971589570606243,0,0.944048
0.14535103515080092,0,0.857942
0.350580291709767,0,0.945695
0.5659282096150531,0,0.972563
0.6228930692243594,0,0.988435
0.5644271515819237,0,0.933239
0.5851543006097303,0,0.889425
0.5257710167572478,0,0.243902
0.381577629127126,0,0.988586
0.2876838480260873,0,0.566166
0.30330080596068293,0,0.984211
0.33428317597670254,0,0.855319
0.5274868940286155,0,0.808664
0.458731625851637,0,0.873786
0.3479861226674885,0,0.853016
0.41732584116984256,0,0.764612
0.29504051422149113,0,0.770423
0.30857829961910155,0,0.882397
0.2203986001672212,0,0.751603
0.35745880762954246,1,0.997967
0.18599067031176764,0,0.824878
0.17643974459972264,1,0.987842
0.35645977282555297,0,0.660701
0.5332311254912081,0,0.397465
0.4089506542771756,0,0.795355
0.5792281712823002,0,0.903952
0.7484488933826257,0,0.896194
0.45552477306877853,0,0.840686
0.5640246598283911,0,0.945292
0.4890301777624177,1,0.998494
0.44021679975092554,0,0.847582
0.4123794102650306,0,0.854552
0.5166653723124983,0,0.969014
0.5054087367370477,0,0.817774
0.4952351277849589,0,0.943906
0.5218636632263469,0,0.843841
0.5529941519812301,1,0.998554
0.4704313200092389,0,0.936310
0.6015361133475108,0,0.951257
0.5622824799850925,0,0.747544
0.6613372800933239,0,0.966585
0.6000956842395653,0,0.881092
0.6253285632682505,0,0.968254
0.5252887660331401,0,0.899514
0.558853824628777,0,0.923585
0.5956229704943545,0,0.756015
0.5619710684709879,0,0.927988
0.2751328523821209,0,0.940270
0.3292648520868205,0,0.783658
0.39379414377438304,0,0.768589
0.48853409930501623,0,0.860058
0.5377600303149352,0,0.734310
0.5417585524136734,0,0.968118
0.5816483286907699,0,0.913147
0.5938227871785831,0,0.823204
0.5649711960489988,1,0.995131
0.6427914541623799,0,0.830126
0.6884079953944067,0,0.615866
0.667877346901397,0,0.930824
0.6308083888787994,0,0.872761
0.7040345257531638,0,0.979385
0.6689548931322125,0,0.970588
0.5329296132922576,0,0.814682
0.4679485691397951,0,0.887150
0.4358640132254148,0,0.961272
0.6399687894028792,0,0.828184
0.6896686042869459,0,0.976522
0.6800900914817171,0,0.979412
0.7722826844117839,1,0.999242
0.7086977530310173,0,0.868996
0.513653885332308,0,0.883104
0.4924015066581411,0,0.982623
0.47609648411915834,1,0.998829
0.4873260405913548,0,0.863065
0.5293265131649084,0,0.952479
0.5581688143571617,0,0.809207
0.5353869623637947,0,0.989919
0.5205991261214912,0,0.920455
0.6311663561399585,0,0.781310
0.5051254557555626,0,0.679905
0.5065054945780962,0,0.944444
0.5222690668040503,0,0.905054
0.5984732937256109,1,0.998682
0.6532595000648239,0,0.742777
0.7133343468680867,0,0.919123
0.47034638585675953,1,0.995663
0.6093308326935518,0,0.925229
0.6248004950943067,0,0.901503
0.6684793458384741,0,0.916667
0.6534748905155359,0,0.791667
0.4440130699680628,0,0.801887
0.30363489294329626,0,0.812544
0.42405258122148726,0,0.757282
0.29808743271072885,0,0.981916
0.46282774267304067,0,0.888535
0.6146568056875551,0,0.851551
0.7182304656476495,0,0.934475
0.7009225092780585,0,0.825532
0.5532108425080329,0,0.807442
0.24501285679218104,0,0.852556
0.26488960552704316,0,0.790791
0.7182731366128781,0,0.814801
0.7434614667184248,0,0.819057
0.4628000425859387,0,0.465017
0.6091264091057864,0,0.843313
0.5804748668751775,0,0.881988
0.5748251951418224,0,0.831122
0.5828521339102162,1,0.998874
0.7482947902733658,0,0.664968
0.6559545649341079,0,0.763036
0.6660783680072578,0,0.827083
0.4043107185125083,0,0.809367
0.24388488443345951,0,0.941640
0.6507198092409487,1,0.998907
0.6919716752173081,0,0.968000
0.7218991673910848,0,0.869754
0.8050727382776878,0,0.988214
0.7838793914062168,0,0.985393
0.6355204984742912,1,0.996881
0.6809813989510244,1,0.997769
0.7340931541850324,1,0.999192
0.7239052063539141,1,0.999079
0.7655005670255969,0,0.783133
0.7585382664009936,0,0.917135
0.7672255961884253,0,0.984107
0.7507396458334845,0,0.961708
0.7893354891300258,0,0.901305
0.8038302166645986,0,0.916768
0.6910573504071623,0,0.972337
0.3737153010666304,0,0.969427
0.3426507995480157,0,0.876543
0.3626110272545954,0,0.970664
0.31120864453262836,0,0.685039
0.21828941428596943,0,0.608481
0.3573540959187657,0,0.951064
0.30347366241866613,0,0.542277
0.279062801986131,0,0.843458
0.18650781952704676,0,0.577598
0.18949410491637503,0,0.828957
0.3509664074183531,0,0.725490
0.2921700170041808,0,0.940113
0.22919409052083092,0,0.814356
0.19304381354747985,0,0.970329
0.19704970516643508,0,0.858713
0.11035624139113034,0,0.940144
0.2370208133076476,0,0.900826
0.15441139918251107,0,0.882184
0.22936165233173056,0,0.775374
0.22569295394161806,0,0.884247
0.13231690084216408,0,0.960609
0.15625968479619737,0,0.972781
0.17994164322104564,0,0.849246
0.19529537250980378,0,0.987408
0.1293411386407982,1,0.995652
0.4114957269499906,0,0.817723
0.36286606716055947,0,0.900990
0.176762809425808,0,0.830144
0.13650401357960892,0,0.722591
0.15791233092981402,1,0.990528
0.15696153505353605,0,0.852459
0.15507653410567943,0,0.957447
0.7627364731425343,0,0.994197
0.7644259634565048,0,0.981138
0.7308426446997734,0,0.971108
0.8187005882935451,0,0.980655
0.8254219127001491,1,0.999524
0.8316795235719469,0,0.838710
0.7003054251365826,0,0.966333
0.7965398830450684,0,0.972561
0.8277573909584652,0,0.935525
0.8065155679338941,0,0.993197
0.831343869925415,0,0.901529
0.7958059048288415,0,0.982164
0.48746622741910967,0,0.983680
0.2622097014455732,0,0.974143
0.2968936937223978,0,0.906090
0.7076308081391515,0,0.713735
0.35281554258702885,0,0.935372
0.4074708800276422,0,0.931608
0.8539851844216321,0,0.963773
0.8350396086473384,0,0.983513
0.8353868472211732,0,0.927536
0.8496690058677607,0,0.925523
0.8593779047007691,0,0.995862
0.8585786824693071,1,0.996104
0.8738412462194034,1,0.998708
0.8328098146443831,0,0.946752
0.873357693160883,0,0.990408
0.8752749667558077,0,0.892462
0.8783576002422765,0,0.994908
0.8011237516780181,0,0.956796
0.8202977172838329,0,0.935712
0.8895459266274797,0,0.944155
0.8840928097615508,1,0.997388
0.8990282813956548,0,0.994199
0.8838492034890314,0,0.993671
0.8779965337935351,0,0.922477
0.8959347037445623,0,0.994910
0.8968586804307093,0,0.975574
0.8929773910778287,0,0.985782
0.9001527727702003,0,0.987179
0.9051543348829312,0,0.899869
0.8519087071318613,0,0.886542
0.37281009187105313,0,0.963102
0.37376344337123213,0,0.980025
0.5588717123100315,0,0.906589
0.3548463796459606,0,0.897493
0.8571305814933411,0,0.917494
0.2720223967404237,0,0.952603
0.17901150325063378,0,0.879020
0.17529455191151477,0,0.875884
0.14257955677935652,0,0.919192
0.13037508132529865,0,0.969968
0.203818775005393,0,0.844316
0.1507615217098712,0,0.979042
0.16636995792631926,0,0.807071
0.13865422041377307,0,0.924089
0.2878101138417118,0,0.990854
0.25770834836723744,0,0.724283
0.21696373663775284,0,0.883103
0.11524478236201516,0,0.898236
0.05579747869498402,0,0.790349
0.043796280756560904,0,0.830928
0.056220487106956894,0,0.585381
0.12356572945851513,0,0.754460
0.11603692271217055,0,0.645536
0.065347911086797,0,0.973661
0.07220587849680479,0,0.873883
0.11484521706234227,1,0.993569
0.23461865263369258,0,0.975705
0.11104479771437113,0,0.872890
0.28411004923461924,1,0.994819
0.11507975717097946,0,0.841683
0.16724588750530553,0,0.791045
0.1024547032977667,0,0.820926
0.0759915699877285,0,0.795789
0.2150098952352749,0,0.921805
0.13586567856885687,0,0.925234
0.14206588353688693,0,0.863636
0.150632464979775,0,0.823793
0.14441416239614685,0,0.796491
0.09614908366884282,1,0.990172
0.20101158126523588,0,0.825784
0.16743809634032286,0,0.737049
0.11968956042672291,0,0.953450
0.10435605058096002,0,0.789706
0.09399411760919374,0,0.958400
0.05604122039127163,0,0.490546
0.08496759054141485,1,0.987113
0.15688041541533057,0,0.879656
0.22377170387255235,0,0.387050
0.21866649058164428,1,0.998361
0.25303333386546517,0,0.499528
0.211622533283706,0,0.549914
0.27508713706647536,0,0.978495
0.25580513183889314,1,0.994819
0.32902847057000395,0,0.970880
0.2929418848074244,0,0.395229
0.2906253221808333,0,0.429122
0.41810958786633357,0,0.975560
0.44198551014062515,0,0.981629
0.2973419152452465,0,0.659731
0.46956002878749664,0,0.773510
0.2955159431149796,0,0.726394
0.48859065785107697,0,0.881811
0.5149019359150028,0,0.938752
0.27980170993935904,0,0.867597
0.4240749327767804,1,0.997248
0.5053895737938645,0,0.622373
0.5239524571878067,0,0.439370
0.5406389424171041,0,0.885512
0.35093259241143193,0,0.760855
0.34195384494121933,0,0.632427
0.5470302356996379,0,0.869832
0.41373115037443564,0,0.925620
0.45681873426178377,0,0.972056
0.4763930242645671,1,0.996390
0.42469283287566284,1,0.992647
0.4865863270582016,1,0.999143
0.4530447992989776,0,0.894161
0.5005578640544405,0,0.896844
0.3600375167087966,0,0.757640
0.4514400976807872,0,0.375640
0.5183288868364018,0,0.966497
0.4210420349934333,0,0.981371
0.458375909783095,1,0.991667
0.4584543331827283,0,0.974927
0.47301930596977587,0,0.349764
0.5443362492686106,0,0.357073
0.5161039653825981,0,0.986551
0.5850318100572728,0,0.972551
0.5289363476901631,0,0.355305
0.5462392439349304,0,0.935849
0.555767744883265,0,0.324762
0.6037557201801367,0,0.952532
0.6087719094258685,0,0.335994
0.6965928901297247,1,0.998020
0.5190153405874842,0,0.981198
0.3724418275992516,0,0.915162
0.49762033997595573,0,0.613739
0.3961012294321206,1,0.998276
0.5612747092180138,0,0.834795
0.6243700046013069,0,0.979927
0.7407695330419702,1,0.999223
0.3627106644422052,1,0.995733
0.5208399607682846,0,0.932584
0.664817182917132,0,0.932158
0.5343646037082268,0,0.671162
0.5370644353339407,0,0.913371
0.6032891584038153,0,0.919467
0.641590003156854,0,0.921080
0.47651290716784467,1,0.998119
0.7752011646708035,0,0.988346
0.7103350481153442,1,0.998293
0.6278847993393729,0,0.778840
0.7345046868185744,0,0.687293
0.6243411158167249,0,0.892049
0.8516907824345509,0,0.850491
0.5594505580501796,0,0.892993
0.536205543252855,0,0.951053
0.5203332325327329,0,0.709554
0.5810990350867775,0,0.985677
0.395634045742014,0,0.920943
0.5683339849860526,0,0.843489
0.5253882050310853,0,0.536680
0.5809633802320303,0,0.967982
0.6020595597114181,0,0.815875
0.37985214916244253,0,0.626543
0.459935185466958,0,0.701895
0.46976046429058166,0,0.948750
0.5526777695940032,1,0.997277
0.4875944281308108,0,0.902481
0.451652377123373,0,0.944870
0.4428042456659283,0,0.875329
0.41794377382640857,1,0.998783
0.5207722916854485,0,0.986486
0.6173038730207909,0,0.981945
0.6378435251037553,0,0.981582
0.473164697600745,0,0.987676
0.606535767013545,0,0.802000
0.751854094089373,0,0.932311
0.5171979323435905,0,0.995048
0.5807185910069383,0,0.805400
0.4396496331554506,0,0.893714
0.589991124154895,0,0.831444
0.6343439374282432,0,0.974122
0.5662300904427537,0,0.824443
0.49928304703953097,0,0.991202
0.45530826938657315,0,0.872176
0.5450079670714839,0,0.806962
0.5849102303474717,0,0.895568
0.6039681767314126,0,0.981574
0.6364006065800709,0,0.979983
0.6272750626258591,0,0.701458
0.6737231390946365,0,0.969869
0.6421909747008663,0,0.722222
0.6466229090371745,0,0.727737
0.666875644600136,0,0.822350
0.6998849772836442,0,0.939174
0.6701689970107289,0,0.853307
0.6292905294383946,0,0.959327
0.6456981561205576,0,0.632675
0.662380174691687,0,0.994056
0.6465870044203429,0,0.903165
0.49409411700758143,0,0.897092
0.47216342290935465,0,0.973475
0.47200393751843167,0,0.957075
0.3866300964880259,0,0.793103
0.4995228532807846,0,0.909183
0.4510048743938492,0,0.847965
0.6588692948736827,0,0.834665
0.3763857805194605,0,0.974514
0.37490301004209514,0,0.952381
0.7052563286170903,0,0.903903
0.6596398536032975,0,0.709127
0.4102348275664886,0,0.791229
0.5466129006448439,0,0.712195
0.4267624668576835,0,0.896171
0.5734614674118852,0,0.985222
0.2583967231141967,0,0.899351
0.5278977295861307,1,0.997197
0.37255554148879805,0,0.944728
0.3169522397264442,0,0.911074
0.3499537281790383,0,0.851277
0.5208434223620935,1,0.993622
0.4397659914680493,0,0.915541
0.25520764754069997,0,0.689115
0.3841573643621726,0,0.697383
0.33023549270768476,0,0.885860
0.35227458217188956,0,0.920424
0.4274124732153196,0,0.798548
0.4808968301829354,0,0.786587
0.4874054482154201,0,0.527938
0.5012804453210092,0,0.931777
0.4940531309933448,0,0.630578
0.4562951279865292,0,0.820721
0.48124076114628306,0,0.858824
0.5051343407516236,0,0.855408
0.5002629941466733,0,0.895976
0.6609756429386278,0,0.966307
0.5524744516460584,0,0.990417
0.6695623187508416,0,0.975061
0.5959470117555214,0,0.901572
0.6559254816215101,1,0.999149
0.5267008484693175,0,0.859218
0.6510801106514768,0,0.872740
0.674259860134271,0,0.982143
0.6605274064424396,0,0.923422
0.7202261128717905,0,0.740857
0.5607697951588078,0,0.962786
0.712179855684131,0,0.895874
0.7400360680037942,0,0.896852
0.6723629283401406,0,0.651028
0.6793794460744176,0,0.955300
0.5347671643801155,0,0.966205
0.373256209293104,0,0.880203
0.47431323136658277,0,0.787037
0.6760935070110923,0,0.757441
0.5710360481251245,0,0.992153
0.6164977594930116,0,0.968407
0.4434528656151765,0,0.733468
0.59559396197006,0,0.819308
0.7382024363919371,0,0.983871
0.6592887097302287,0,0.939002
0.6101626900203032,0,0.972452
0.575214968636323,0,0.970082
0.6019526239637053,0,0.581554
0.39746318323026364,0,0.895817
0.45946920170712,0,0.882639
0.4307389995997846,0,0.882086
0.5144029809328962,0,0.717985
0.6798077494321175,0,0.799634
0.6947074304630317,0,0.983117
0.6911751774545977,0,0.817757
0.6766881500294658,0,0.904809
0.4806049967339526,0,0.872935
0.7550346432318246,0,0.986005
0.6949949491188089,0,0.923640
0.6838352507886718,0,0.987188
0.7120142728946707,0,0.756373
0.6165616727656558,1,0.996556
0.7298621346725714,0,0.967949
0.7309890877107347,1,0.997460
0.6815368771239035,0,0.863053
0.7115630809147999,0,0.964417
0.6683264510116766,0,0.881661
0.6918531610741444,0,0.987193
0.6550289747984982,0,0.965025
0.6342350059889182,0,0.964813
0.6773499576553021,0,0.967835
0.7255118206139677,0,0.992685
0.7028795002214542,0,0.823434
0.7089398951561662,0,0.672885
0.6675079507837062,0,0.963337
0.6958610440984041,0,0.994830
0.687540351878189,0,0.764195
0.6348336799830827,0,0.987788
0.5667088675819308,0,0.878295
0.4193847713486221,0,0.795196
0.4686013901445055,0,0.838356
0.31234868686522876,0,0.903777
0.5207082855879807,0,0.946244
0.4188324050300001,0,0.987552
0.38738496731689637,0,0.917831
0.40873653300756707,0,0.874798
0.5509984947234695,0,0.854657
0.626254459263288,0,0.605058
0.6236554218942472,0,0.991924
0.48310710641479754,0,0.953289
0.48547403861075555,0,0.976676
0.5424933062463982,0,0.803279
0.7127032328045037,0,0.780292
0.7476535025689451,0,0.655321
0.5939298543484072,0,0.918426
0.7273441804377069,0,0.973419
0.48620045272667195,0,0.856488
0.7786360515737264,0,0.942671
0.7293303138129462,0,0.990056
0.4417772854145684,0,0.921904
0.8045594085218908,0,0.986935
0.7674384944938308,0,0.840807
0.6430607923805227,0,0.986404
0.7401413494605553,0,0.950167
0.7927937264482995,0,0.925216
0.7508546414320587,0,0.985172
0.7148509347745707,0,0.975401
0.4991201209567556,0,0.907350
0.5747662291648122,0,0.879075
0.4338346275634953,0,0.845869
0.4299399600880865,0,0.934696
0.45935381057754104,0,0.866026
0.759473032729681,0,0.712569
0.6755005135173534,0,0.952000
0.3868534096238369,0,0.980015
0.2541683593322425,0,0.970329
0.3740805105032182,0,0.985948
0.36790996292142153,0,0.822163
0.3709656390173245,0,0.937876
0.26701924824163104,0,0.941554
0.4889787651057696,0,0.959916
0.3818633185476943,0,0.898067
0.36443718665361396,0,0.948718
0.20583950834426384,0,0.944206
0.29475243406415064,0,0.917105
0.3904694702347944,0,0.925259
0.2265003533170915,0,0.903525
0.32901201650975176,1,0.996904
0.3398687390161113,0,0.920775
0.30171909674457614,0,0.923379
0.1910748002351218,1,0.998217
0.16208249949673983,0,0.952816
0.23934837988511015,0,0.969231
0.27431971392679233,0,0.493980
0.32380181341067,0,0.893354
0.3080345733719732,0,0.534471
0.3643608207281956,0,0.629808
0.4739496336375108,0,0.939024
0.4465234670258905,0,0.861203
0.3603163427189761,1,0.993865
0.3844854659340322,0,0.948441
0.47550600553893874,0,0.986128
0.27290760620840065,1,0.988950
0.32915723229593213,1,0.981744
0.4527832812181025,0,0.583528
0.4630447010323936,0,0.949832
0.3410140841835055,1,0.997525
0.5032071053942067,0,0.956931
0.42570281675212984,0,0.833405
0.4739533137092607,0,0.598933
0.5049134516608503,0,0.849890
0.4950910218700978,0,0.978906
0.49720912803493406,0,0.600380
0.5224001579451119,1,0.981584
0.6228135764800805,0,0.985007
0.49108389618604226,0,0.893426
0.5735316037397042,0,0.539970
0.4919823654120522,0,0.908537
0.5172139213171275,0,0.982831
0.48914865449319817,0,0.993738
0.4238240326342,1,0.994286
0.4647476486646696,0,0.961091
0.4962845735872004,0,0.790167
0.607373989577579,0,0.967262
0.6189286378507888,0,0.996203
0.575104832655964,0,0.910939
0.6293063631444126,0,0.966190
0.42793778237505914,0,0.941482
0.6490157977432295,0,0.903528
0.8045665040290256,0,0.900685
0.6184845984235265,0,0.984334
0.619190655870356,0,0.841354
0.5624197103938479,0,0.851687
0.4851399233573496,0,0.826154
0.6955180078643137,0,0.844296
0.5540980034653598,0,0.955680
0.604909110109738,0,0.731465
0.5851041824897745,0,0.851636
0.6621965475109954,0,0.793773
0.5445156437907901,0,0.879154
0.6701340773904098,0,0.638685
0.4361351489525518,0,0.871290
0.5916078250980816,0,0.992822
0.6239707490861484,0,0.873022
0.4633032539722918,0,0.822885
0.47704876162459847,0,0.867414
0.4419344908369859,0,0.691835
0.5969382476816727,0,0.796867
0.49224211734221945,1,0.998851
0.5994130368803341,0,0.742347
0.6504847595168384,0,0.957120
0.47378607172868586,0,0.676724
0.6489096838908716,0,0.971188
0.49340057143565924,0,0.892921
0.5538440890904205,0,0.933473
0.47035687713250185,0,0.911455
0.5652877541330116,0,0.638361
0.516303840711146,0,0.879389
0.5790737214959026,0,0.749724
0.5955738631040783,0,0.776909
0.4989932285826935,0,0.605615
0.503059986922219,0,0.990751
0.6503768303844903,0,0.859860
0.6100400673738434,0,0.916556
0.6122246376583044,0,0.888056
0.45991956892882374,0,0.624851
0.48335752049466,0,0.745893
0.6952119424746046,1,0.998425
0.677203750727429,0,0.954774
0.5198450677898732,0,0.973713
0.5454629221693349,0,0.542774
0.6070769662436439,0,0.449640
0.6093114176258617,0,0.748876
0.6059696983910016,0,0.944053
0.6558698285300547,0,0.730610
0.692993505652483,0,0.965385
0.542216480580072,0,0.920925
0.510149931020236,1,0.995392
0.6422619200547731,0,0.995950
0.5753217819198586,0,0.858178
0.5298807973655459,0,0.916849
0.6087906335010624,0,0.785436
0.6130072902401533,0,0.893764
0.5815668353057836,0,0.996053
0.5696612561898992,1,0.996491
0.5600998777641267,0,0.913580
0.5514904645421762,0,0.820359
0.518479982587005,0,0.896781
0.6034208916711941,0,0.800826
0.6064844837107363,0,0.905752
0.6056312864815565,0,0.833144
0.6304240415730686,0,0.917819
0.7110442023924093,0,0.929134
0.5907906708122934,0,0.868681
0.6655593065959899,0,0.958020
0.5106825912734885,0,0.846286
0.5240267400784686,0,0.993074
0.6588259557844426,0,0.863837
0.6794418784776739,0,0.803953
0.6575351624717128,0,0.912894
0.6795316318193861,0,0.965248
0.5173711786791446,0,0.758787
0.6745167779768144,0,0.985679
0.6173025512952582,0,0.838111
0.5840843384388508,0,0.941142
0.6403374131841671,0,0.932432
0.651049740002732,0,0.990445
0.5435038579133943,0,0.992304
0.7379650100606984,0,0.951384
0.5137700270278366,0,0.895482
0.3257615528939253,0,0.830748
0.7198035251454776,0,0.947547
0.7322765664789772,0,0.878768
0.7100272709884191,0,0.932393
0.6694614974529411,0,0.885545
0.6055357041619405,0,0.681758
0.7171435831174816,0,0.992682
0.5966277072263249,0,0.877212
0.6181236561103345,0,0.863841
0.5316947760239911,0,0.988716
0.6612598471501409,0,0.762013
0.5790809681167153,0,0.640947
0.6103472689057968,0,0.809174
0.7037831497613303,0,0.832185
0.7163837268638564,0,0.962535
0.7198163373829529,0,0.718315
0.6645128468132431,0,0.913248
0.7133422848710257,0,0.974265
0.7350338873630464,0,0.885220
0.5486772577340623,0,0.898611
0.4010130999902587,0,0.959970
0.6283435645926254,0,0.648485
0.5912615381124362,1,0.999566
0.5860209611028534,0,0.667440
0.5915689425495729,0,0.813182
0.7307450780072208,0,0.902135
0.5630430087686192,0,0.679964
0.6809571357154995,0,0.932964
0.7112655394882845,0,0.777878
0.6739911709649035,0,0.989885
0.7745268969525475,1,0.998167
0.6568323053764108,0,0.807339
0.6230075423768793,0,0.792350
0.7183901930389311,0,0.818505
0.6506245053459306,0,0.559524
0.6359816678747808,0,0.994676
0.5751438070096058,0,0.701932
0.6576106478043117,0,0.802513
0.5689388809280612,0,0.577483
0.5595365391027335,0,0.986334
0.6952056574839536,0,0.707463
0.6781387035071753,0,0.640657
0.6629700175190169,0,0.601001
0.738723775457604,0,0.686961
0.686093903403826,0,0.808339
0.71477633062282,0,0.662402
0.7007842817248691,0,0.937124
0.6517649711867058,0,0.849673
0.2533984524183681,0,0.853009
0.7041526678593073,0,0.954138
0.6546660134693681,0,0.960932
0.6728607834763688,0,0.881586
0.69640319400118,0,0.949441
0.6133697230784516,0,0.915838
0.7332901672223285,0,0.857637
0.60184753613444,0,0.949181
0.3929928047643782,0,0.787383
0.2965953839838488,0,0.861891
0.6793547638390678,0,0.858527
0.6674360189360315,0,0.922554
0.5941633762303746,0,0.946985
0.6569696681653542,0,0.731100
0.6370913865385598,0,0.986217
0.6683947316655281,0,0.756881
0.6304816602087393,0,0.970423
0.6139781321408629,0,0.823443
0.6437262734292591,0,0.991786
0.6549701065130795,0,0.978089
0.5977462454563663,0,0.638549
0.6265125046939658,0,0.954312
0.7362504644629078,0,0.887617
0.7017360108548967,0,0.577532
0.6980843302702214,0,0.867516
0.7657215230262201,0,0.953516
0.3782025810013794,1,0.994373
0.31805235468897436,0,0.744834
0.24134366398318913,0,0.752390
0.24703365866538654,0,0.736451
0.3355832903276751,0,0.846154
0.39438896160284165,0,0.921028
0.3217725783217369,0,0.964717
0.3624607581543311,0,0.782203
0.37393514262104943,0,0.934905
0.3504506581145741,0,0.774670
0.29541829452622737,0,0.943077
0.28576566111283624,0,0.898295
0.438289696817921,0,0.869776
0.6669605764778624,0,0.870680
0.28236313398424995,0,0.807953
0.5027629320586253,1,0.994911
0.2815293967237314,0,0.639614
0.28546501738041563,0,0.850327
0.28555498661027945,0,0.897216
0.3487398167679315,0,0.982517
0.42881148763700183,0,0.759124
0.43934161760062074,0,0.869981
0.3813978278966059,0,0.544449
0.41607121433047384,0,0.624111
0.39562385925097304,0,0.968661
0.3941205918471243,1,0.993430
0.4660753857579767,0,0.570827
0.39179022056857954,0,0.773069
0.34724522790260304,0,0.763772
0.42976479805336676,1,0.998867
0.3646382424589597,1,0.995246
0.38503182715441014,0,0.613402
0.43205679798767155,0,0.843750
0.3504201489536586,0,0.594802
0.3960627672121817,0,0.674834
0.43537947793122955,0,0.712694
0.3807889781273388,0,0.904067
0.4242939822778311,0,0.932246
0.4376106819066466,0,0.578395
0.42858546852973295,0,0.897848
0.4678543614279244,0,0.972870
0.473004159681006,0,0.659759
0.4680020091765002,0,0.913368
0.49649794886648824,0,0.934632
0.449661477539209,0,0.786730
0.46407467628689086,1,0.997218
0.4708615244455011,0,0.411972
0.5036737760695588,0,0.576305
0.46207486417760846,0,0.594375
0.4872059427037748,0,0.859259
0.48736239382240487,0,0.846959
0.5154511987077655,0,0.985019
0.5612152604244086,0,0.893971
0.4930318262653344,0,0.613670
0.5629457274324876,0,0.923685
0.5371421079434244,0,0.973103
0.5452614229144336,1,0.999059
0.3323215671571591,0,0.887566
0.3799234656995888,0,0.968716
0.4802352855985018,0,0.987537
0.574976387173805,0,0.953997
0.7091582306902263,0,0.983901
0.6555160320823845,0,0.804819
0.5819010060156479,0,0.779607
0.7117021307873694,0,0.983309
0.6442392594410723,0,0.929926
0.6728280362849358,0,0.865860
0.6647877524289727,0,0.694563
0.48499085131475733,0,0.859649
0.3469279357045696,0,0.941298
0.4360289290982045,0,0.924401
0.42755670098392223,0,0.847868
0.6327571389337445,0,0.896774
0.7013341827820395,0,0.881379
0.6677955588452497,0,0.931548
0.6521534821960855,0,0.755744
0.6910544057973349,1,0.997863
0.45336807050663597,0,0.913295
0.4664324564985092,0,0.886043
0.5978256741578454,0,0.922386
0.5979490044461736,0,0.591678
0.5866368033779299,0,0.619753
0.5136738628103937,1,0.998379
0.5730188092268116,0,0.983943
0.6762622710206885,0,0.941058
0.479216316432364,0,0.680208
0.6824807500974974,0,0.765707
0.6882411315857165,0,0.989540
0.6697068087716849,0,0.890026
0.639232590442089,0,0.984557
0.6648214696888926,1,0.998884
0.41783791240838863,0,0.918797
0.41590524213862623,0,0.954465
0.4714263177379243,0,0.723993
0.3182278369277662,0,0.798432
0.5155247269980988,0,0.958264
0.5829819149905652,0,0.963235
0.6157240237475284,0,0.955099
0.4980708361940981,0,0.815259
0.44906714837102024,0,0.947705
0.6202965097773523,0,0.977099
0.5630031624677858,0,0.840147
0.6077194068208506,0,0.946848
0.6097183750344789,0,0.808285
0.6724713106354832,0,0.886608
0.6684555816477288,0,0.981243
0.6720633304573125,0,0.775081
0.7255090866888979,0,0.945026
0.6563981692940306,0,0.984647
0.6486356502667312,0,0.915782
0.6622126956221157,0,0.828653
0.7019232016173834,0,0.994502
0.6191666464997478,0,0.782871
0.6353362302278672,0,0.881635
0.6161960775982507,0,0.995361
0.7284271879964139,0,0.977184
0.6886187713060135,0,0.942271
0.7254487042219692,0,0.971322
0.7054455260619031,0,0.856423
0.7604040008037635,0,0.990149
0.6523698724673052,0,0.978342
0.6794197003449599,1,0.998914
0.6980366049047424,0,0.960873
0.6112263521289392,0,0.933223
0.3091928388451398,0,0.974823
0.43143242299278345,0,0.967199
0.4772517603659712,1,0.998236
0.5496366863060619,0,0.913738
0.41373652288375196,0,0.967573
0.5001431812440232,0,0.679475
0.500692513579631,0,0.550964
0.6432338267440058,0,0.781923
0.7080624504572721,0,0.817618
0.7125313593489395,0,0.852835
0.764322577881209,0,0.993165
0.5683403425842016,0,0.813299
0.7628453399407825,1,0.999136
0.7614599621662135,1,0.999179
0.6859188171059982,1,0.995595
0.6720858352571953,0,0.945166
0.6877968601674241,0,0.957369
0.7177255316717198,0,0.979366
0.7474337785267584,1,0.996024
0.7599432045268664,0,0.738470
0.6988679929910014,0,0.883411
0.6918098187442339,0,0.951268
0.708558709989947,0,0.956147
0.7263426606586376,0,0.697999
0.6553542947104578,0,0.862397
0.5909881615910567,0,0.838762
0.735204372604324,0,0.982796
0.7501438688432802,0,0.987629
0.7508127305962117,0,0.976137
0.7478223330911732,0,0.859098
0.7085223055940846,0,0.847366
0.765613734497166,0,0.968368
0.7121113574846784,0,0.953351
0.5823855014513786,0,0.862881
0.4373274106565633,0,0.968558
0.352532375934715,0,0.881407
0.7386144044003417,0,0.695284
0.6374074326645123,0,0.873551
0.7526030801481186,1,0.994907
0.5800867242972066,0,0.737596
0.7731274126404992,0,0.829042
0.720860467903218,0,0.769266
0.6215943887975471,0,0.963599
0.6828501970807791,0,0.897881
0.694431080666763,0,0.940286
0.6864690735760731,0,0.939460
0.6526533357199507,0,0.882818
0.6585230576686711,0,0.836922
0.7304558220860158,0,0.945392
0.7172246897046946,0,0.789220
0.7486958204702712,0,0.712657
0.7605509531020734,0,0.973410
0.6693093768402362,0,0.988749
0.6889655559557958,1,0.996814
0.7290739631361213,0,0.749448
0.7557746766823071,0,0.906150
0.8237625760041636,0,0.989708
0.8147418706984813,0,0.593834
0.6415511019076541,0,0.974757
0.5553599997139742,0,0.950570
0.69445772740809,0,0.726531
0.7344474090843152,0,0.742750
0.6808408827510652,0,0.893992
0.7366172607787657,0,0.970541
0.8169031438447673,1,0.997494
0.6851316998276916,0,0.827963
0.7129248579247821,0,0.799819
0.824742906833911,0,0.787234
0.5176407467596018,0,0.583278
0.7456134842566177,0,0.741514
0.7069722993253695,1,0.997821
0.8230594752572645,1,0.996608
0.8117675002993686,0,0.966769
0.7416419796782161,0,0.951416
0.7396244085888003,1,0.997319
0.774198886769834,0,0.993296
0.7333044624308642,0,0.924015
0.6080478081356203,0,0.734420
0.44511292823870796,0,0.987179
0.3669843468162396,0,0.441061
0.4435630322419025,0,0.986264
0.44620150461171154,0,0.587879
0.581353064400012,0,0.985091
0.38384679847263803,0,0.972769
0.4843128368502267,0,0.659213
0.6501256344425502,0,0.907087
0.7651767122830911,1,0.999302
0.6931956803654055,0,0.873804
0.7144139905870367,0,0.967596
0.7475172535337772,0,0.870833
0.749308631430697,1,0.994125
0.7104214700324168,0,0.972243
0.5627756055434102,0,0.799642
0.7077239894401789,0,0.899425
0.5663925757160623,0,0.981988
0.4705310052280839,0,0.867731
0.41974081387274953,0,0.895238
0.4585404469229102,0,0.958494
0.3950052951113995,0,0.977778
0.34487550096560526,1,0.996516
0.4497033205412546,0,0.953557
0.5384309575883144,1,0.985417
0.29503078243662545,0,0.955752
0.4157283208099476,1,0.986649
0.4483420259205506,0,0.884367
0.4036444649544082,0,0.504360
0.40485122148779346,0,0.721406
0.39780355799969674,1,0.992565
0.41501351753116766,1,0.994929
0.44562591098446175,0,0.971078
0.47024427989077616,0,0.509870
0.42284727933973215,0,0.508418
0.48824313898351,1,0.999049
0.46254422292049674,0,0.951020
0.4425116380563352,0,0.948387
0.4435720966698402,0,0.616598
0.5143738484297196,0,0.544544
0.490220929847842,0,0.632933
0.4448805970560509,0,0.642217
0.5102606694013395,0,0.579724
0.4941701906908846,1,0.988355
0.5004027264653748,0,0.960331
0.5055036594611247,0,0.980016
0.5236241665274136,0,0.604561
0.4663267020957401,0,0.607497
0.5297120381815552,0,0.610973
0.5203101636764642,0,0.951040
0.5163623719170898,0,0.956254
0.5446438790445771,0,0.965374
0.5092343135935332,0,0.866709
0.5718964316717778,0,0.976839
0.5406049194952292,0,0.933499
0.529137815660278,1,0.998710
0.5676942311380146,0,0.932660
0.5536040752988994,1,0.998319
0.5448233454014928,1,0.997238
0.5794786595506952,1,0.998647
0.5701686221582597,0,0.871397
0.5556770792469893,0,0.992267
0.5887095771543357,1,0.998837
0.5882620529292352,0,0.526214
0.564910713263801,0,0.901639
0.5871308688291184,0,0.983721
0.5954300287723279,0,0.974602
0.5747364647076271,0,0.980132
0.5398641327170923,1,0.996403
0.7806733503109559,0,0.948956
0.8115441694597675,0,0.959988
0.8193034982019032,0,0.891263
0.4869988781268659,1,0.998607
0.46799762323033595,0,0.953887
0.508961048319216,0,0.717577
0.4600264239003431,0,0.712648
0.5135099638608189,0,0.709023
0.5003383150582519,0,0.912021
0.5334485284532541,0,0.811463
0.5478223311339157,1,0.990025
0.5663230758524153,1,0.990893
0.547719260737029,0,0.775961
0.5480145906537428,0,0.987830
0.5445953837658946,0,0.993964
0.5423905209059781,1,0.998344
0.5701555975215656,0,0.760359
0.5285768113032753,0,0.899568
0.7569818181229342,0,0.896200
0.5261364740710146,0,0.810211
0.6107214399781353,0,0.846684
0.5976417291798369,0,0.869464
0.6617556763193713,0,0.986014
0.665343320830615,0,0.941232
0.675816167993548,0,0.791134
0.6998784507428855,1,0.996943
0.7388756632396497,0,0.815116
0.7423118879458042,0,0.984563
0.6835113821296123,0,0.916017
0.7339768613366148,0,0.967093
0.5585704209602744,0,0.758077
0.6992416960320564,0,0.875184
0.7057662394242469,0,0.699852
0.710409486393224,0,0.858472
0.7343702405740298,0,0.993775
0.6218818448193172,0,0.854067
0.44997194910244576,0,0.776882
0.482773372639003,0,0.916894
0.5589092268990776,0,0.774170
0.5480094828773902,0,0.957606
0.5076326505038646,1,0.998459
0.3936025217029867,1,0.993578
0.6493902799664593,0,0.834499
0.7049805550746879,0,0.991996
0.5865920496326011,0,0.936106
0.7263136964151375,0,0.929134
0.7378446319956505,0,0.871830
0.6844962512791265,0,0.857000
0.6447124584617228,0,0.986662
0.6708866616852356,1,0.997967
0.5899974883660895,0,0.578627
0.6293250042398333,0,0.777269
0.4975515625131517,0,0.987538
0.5832107129599833,0,0.824701
0.7963457927595929,0,0.958306
0.45138978105706157,0,0.983927
0.5834262417397664,0,0.969072
0.5031204472996063,0,0.993243
0.4344788293033562,1,0.999124
0.5231062454214641,0,0.783222
0.487434968249643,0,0.766471
0.5266418607110216,0,0.849142
0.585630194824652,1,0.998244
0.6944689145807059,0,0.839868
0.5158114342923652,0,0.625155
0.6395616993471576,0,0.951790
0.6042768671204357,0,0.980555
0.6777874901991928,0,0.977038
0.6226264267049504,0,0.978706
0.5125177280439245,1,0.992640
0.5633617465608677,0,0.956598
0.5339899476140801,0,0.978695
0.5941748872844692,1,0.984183
0.4995479236184722,0,0.834395
0.45611446895491403,1,0.999053
0.4899137036278771,0,0.869852
0.5132145706021185,1,0.991763
0.4753505639394031,0,0.932121
0.5478472196164955,0,0.917079
0.5556169870797383,1,0.992133
0.6090505927961608,0,0.929245
0.6496952391058668,0,0.817490
0.657904122356467,0,0.780380
0.7183107433684349,0,0.980974
0.5128253490106489,0,0.786504
0.5291524465081713,0,0.941775
0.5345073672976932,0,0.928270
0.6035552516588636,0,0.871227
0.5941091828405789,0,0.879276
0.6679751165851572,0,0.754369
0.7012040596941298,0,0.758480
0.6166865585839598,0,0.923218
0.5568463753272518,0,0.954797
0.607163670096071,0,0.803526
0.5960324246921477,0,0.642339
0.6564824881776702,0,0.767066
0.6063791222022694,0,0.671860
0.6136933883560428,0,0.982013
0.548570196637357,0,0.833220
0.6133867241736302,0,0.628302
0.6546808581850778,0,0.925822
0.6754114335674286,0,0.916872
0.47001192257316887,0,0.990521
0.6500973699282876,0,0.941626
0.6854993220270544,0,0.744751
0.6924963638288639,0,0.829714
0.6465487159798835,1,0.999529
0.7176042212705995,0,0.936306
0.7512416826214444,0,0.626893
0.7599665312548278,0,0.941919
0.6655989856962086,0,0.676213
0.6512719330546728,0,0.964901
0.7515269814386532,0,0.984636
0.7697333413896251,0,0.613739
0.7466786792433054,0,0.945258
0.7601184050447564,0,0.994909
0.7328062310205841,0,0.978349
0.7579899609013042,0,0.587741
0.7373413243455225,1,0.998056
0.7453209930139882,1,0.998698
0.7403221027390454,0,0.985314
0.7668854351020649,0,0.966048
0.5468546094755927,0,0.970201
0.48982487064850155,0,0.642026
0.5864665863464741,0,0.875502
0.6935728857214886,0,0.731048
0.7550868977704293,0,0.954289
0.7740980536809631,0,0.692308
0.7716638685122279,0,0.801649
0.6614850569896131,0,0.812738
0.7009690161899261,1,0.995575
0.7557377264927216,0,0.707937
0.7228182557937299,0,0.982808
0.6782699530240428,0,0.715402
0.7150210273766706,1,0.995828
0.6524734950854669,0,0.712722
0.7217244490119306,0,0.717162
0.688804629174854,0,0.775197
0.7391847181638681,0,0.784471
0.6777413376610731,0,0.726430
0.6960941813179593,0,0.989007
0.7333135588319336,0,0.958480
0.7239473525965523,0,0.887915
0.6775210257639486,0,0.876650
0.6941598488105554,0,0.748095
0.5872592129840614,0,0.825816
0.4884114895417618,1,0.998530
0.5198564817389502,0,0.879412
0.5383905118130956,0,0.945718
0.5022423186225732,0,0.982948
0.43284558748221874,1,0.994483
0.6143537373236215,1,0.996021
0.6448358783954428,0,0.994686
0.5546727439207072,0,0.480396
0.5342276607885604,0,0.508170
0.5377940467906367,0,0.917379
0.6653495197419573,0,0.903921
0.5507883497327197,0,0.744255
0.5646848749418916,0,0.537309
0.5834669683703037,0,0.946099
0.5090391002043173,0,0.717678
0.5237678725632096,1,0.995077
0.48633787272268714,0,0.958537
0.5453381415941497,0,0.924109
0.5132791108517224,0,0.543017
0.49305506989037545,0,0.823740
0.5282174471569219,0,0.852117
0.48628657384782065,0,0.976471
0.4825292708772921,0,0.921435
0.5155023712832959,0,0.903915
0.5046826621354106,0,0.981366
0.5478428011227562,0,0.551250
0.5037458263437204,0,0.777154
0.4956694510944991,0,0.921930
0.5160428159289119,1,0.998308
0.48911415675087044,0,0.957411
0.510532715284502,0,0.826459
0.540916271566144,0,0.954326
0.5443845417309154,0,0.600000
0.5346649263261201,0,0.985915
0.495647016402975,0,0.876935
0.6034429468454185,0,0.750626
0.6914803076651578,0,0.853074
0.6478607505356249,0,0.717120
0.5399842020172989,0,0.798993
0.5854139145824794,1,0.996593
0.6261784449525966,1,0.995074
0.5835666911523616,0,0.947130
0.5022160818177833,0,0.930963
0.534143895355867,0,0.713478
0.6141626941844315,0,0.925267
0.5753837220477583,0,0.965294
0.6613506240770615,0,0.706879
0.597149766103088,0,0.774992
0.5915353317239976,0,0.960452
0.578795691178027,0,0.970706
0.672966242395917,1,0.994501
0.5086986559985853,0,0.755763
0.7767235811722659,0,0.621236
0.7829631480587482,0,0.942215
0.6143485644173309,0,0.995617
0.6066254872781238,0,0.876281
0.63178020949974,0,0.822996
0.6924690231137769,0,0.959688
0.7125743891704266,0,0.929805
0.7700407954013436,1,0.999007
0.5885373473555384,0,0.909321
0.6134306517254438,1,0.992938
0.7816235671977144,1,0.998874
0.6040452252654449,0,0.983712
0.5838705314921053,0,0.780632
0.606829293472658,0,0.971810
0.5995106379010398,0,0.937279
0.6182466116265969,0,0.691232
0.6198076284246808,0,0.955045
0.616700523478075,0,0.671167
0.7293158502136589,0,0.885728
0.6987637179795441,0,0.961453
0.6820654887389156,0,0.993856
0.6024388851961596,0,0.966234
0.5844562032867503,0,0.916123
0.5950096536037068,0,0.563541
0.5823407173676315,0,0.826409
0.5956434989916503,0,0.650417
0.532460693155887,0,0.789620
0.670924289506667,0,0.487451
0.6888820798036854,0,0.688575
0.6807427965509826,0,0.907249
0.6322242657936299,1,0.997255
0.6429268955577864,0,0.942885
0.5902809615786917,1,0.998879
0.498114818766658,0,0.715404
0.6760540025313806,0,0.868017
0.6785765170899984,0,0.950671
0.7198617301144965,0,0.866598
0.5748699306393382,0,0.667446
0.634689604207762,0,0.897849
0.7116460216714717,0,0.964387
0.5120196649326814,0,0.840864
0.6200500019410121,0,0.967908
0.5300795609188668,0,0.649757
0.8582447531417865,0,0.963230
0.795603991041009,0,0.876254
0.5438348641855179,0,0.816145
0.6118282088972994,0,0.841058
0.7957800838775,1,0.999528
0.7099396775074275,0,0.969611
0.682967685307753,1,0.998757
0.7325636699644743,0,0.750733
0.7094624939826186,0,0.795819
0.6875825374033436,0,0.883421
0.681220044693243,0,0.940896
0.6392992164010155,0,0.728196
0.5218981056707355,0,0.882539
0.5679652882073215,0,0.978907
0.6170481478699039,0,0.986264
0.8470587683527865,1,0.998227
0.6733150544240935,0,0.978170
0.7103211081125457,0,0.896841
0.6908885084822803,0,0.940659
0.8156561440290312,1,0.990476
0.6146252976534073,1,0.996558
0.8439494516462541,0,0.994312
0.49613072728855695,0,0.722927
0.608651202405946,0,0.775908
0.586733173847682,0,0.963628
0.6101512063379272,0,0.969362
0.5463510064192737,0,0.988689
0.5671236313938758,0,0.947454
0.5148197953675707,0,0.947921
0.5587847645264619,0,0.994048
0.69753351579003,0,0.993299
0.6649155199486952,1,0.995610
0.6357280838039213,0,0.983938
0.6448485592479907,0,0.749004
0.7279971421161308,0,0.925081
0.5604977859734197,0,0.938517
0.6696284030965387,0,0.954527
0.5550588357351758,0,0.969283
0.5923019306221806,0,0.988020
0.5889321860460746,0,0.975179
0.6711492126305126,0,0.798254
0.6272522673423611,0,0.876777
0.5658865575925516,0,0.861241
0.5813148111914344,1,0.997126
0.5804055949158993,0,0.718777
0.6849084168346632,0,0.838472
0.735498470770594,0,0.936312
0.6933976411146163,0,0.901996
0.6329275631573215,0,0.976636
