0.09849350680726475,1,0.999649
0.5673403070476359,0,0.005539
0.5477850936008275,0,0.995337
0.5190633504456506,1,0.997309
0.4851170299608309,1,0.997924
0.4784245784240282,0,0.994255
0.4343264785379199,0,0.979545
0.41959394400386046,0,0.006539
0.3920383803926858,0,0.007081
0.3755663185353979,0,0.956860
0.4562166954625285,0,0.895912
0.5174513991271494,1,0.999679
0.5099326839492708,0,0.993692
0.3086636564409294,1,0.998933
0.3066789765967552,1,0.997045
0.28498005095044193,0,0.007673
0.27789809064578885,1,0.998807
0.2860385102583255,0,0.953003
0.3951728890301467,0,0.940611
0.3905424963693518,0,0.020819
0.3022691214128164,0,0.026677
0.23196672574760213,0,0.022481
0.25431036244618627,0,0.915313
0.2338552848163264,0,0.991383
0.30418883095411153,0,0.989474
0.3019834748737868,1,0.999485
0.32656351261868793,0,0.940288
0.3567629359097279,0,0.923558
0.3682627781214478,1,0.999346
0.30164202598070117,0,0.980929
0.3407276203246848,0,0.995330
0.5818415531996807,0,0.870873
0.6048901131800563,1,0.996691
0.5082282373072371,0,0.968461
0.4793460711306576,0,0.868452
0.49227091832484565,0,0.986201
0.5048327010734153,0,0.869891
0.4173660141919307,1,0.999537
0.44958056013782943,1,0.993594
0.3458261261725963,0,0.954381
0.315594260849339,0,0.948189
0.6154259209847426,0,0.946192
0.5618156542255963,0,0.851097
0.46477194238854075,0,0.969394
0.3937156206530614,1,0.999353
0.28749697099105437,0,0.989604
0.192731891051759,0,0.987097
0.35978405386311696,0,0.992624
0.45745240027274603,0,0.960071
0.34824987464233403,0,0.909434
0.27541078982075307,0,0.958046
0.24256759540014575,1,0.998203
0.2038996640592897,0,0.988235
0.2047995850378068,0,0.983180
0.4163824298781964,0,0.831820
0.5432376111761231,0,0.679753
0.6387956761160595,0,0.763011
0.5245089045448522,0,0.978586
0.4412890344261263,0,0.822453
0.5171212558526779,0,0.978193
0.5760127402868255,0,0.944119
0.6358101515875169,0,0.962317
0.3968345572903514,0,0.945895
0.5104707868382462,0,0.938753
0.5484662892023677,0,0.910101
0.7161811320816487,0,0.989053
0.39532691015946675,0,0.955022
0.2844290850263613,0,0.883710
0.31848517054251574,0,0.977485
0.31000186731727264,0,0.930339
0.14124728462370464,0,0.938259
0.2986024204483777,0,0.846232
0.20636190222588638,0,0.890380
0.12443921057075133,1,0.989766
0.11117212660263356,1,0.987847
0.06116261473475814,0,0.898340
0.15457718946568402,0,0.771778
0.18051328783499077,0,0.928832
0.11037345139439052,0,0.601462
0.16216185864034166,0,0.536562
0.20878036285465762,0,0.930457
0.5702894208131721,0,0.438530
0.722885211863748,0,0.989498
0.6951143107747101,1,0.997573
0.683774036848827,0,0.897541
0.7010983082848469,0,0.976526
0.4644820374598092,0,0.868104
0.5578378138303945,0,0.865941
0.6731133999377891,0,0.826915
0.6889070957056443,0,0.850977
0.7219399462576118,0,0.927481
0.6296881364409249,0,0.920249
0.7059643317817872,0,0.841764
0.6169842325888458,0,0.890901
0.7104122829479661,0,0.964153
0.6492613003118003,0,0.868587
0.7024619844481672,0,0.888208
0.5911849612176366,0,0.952974
0.41253178437407934,0,0.938205
0.41106286316480695,0,0.932993
0.5338691113509341,0,0.916744
0.5310059121434336,0,0.819203
0.49170288560719466,0,0.989498
0.4951575771454893,1,0.998697
0.47642705826150805,0,0.873227
0.5227305753342619,0,0.875000
0.5215807133969033,0,0.814199
0.6810046869552985,0,0.993668
0.6771837317251549,1,0.996174
0.6161879740447324,0,0.831356
0.6656731372388786,0,0.991450
0.652054088964232,0,0.966682
0.7038639216366528,0,0.816478
0.5290539469684706,0,0.785510
0.4999725824254174,0,0.846190
0.5635864513869686,0,0.992333
0.46747607685639386,0,0.810137
0.6216507812095602,0,0.913719
0.564152547447083,0,0.936692
0.6383340109165473,0,0.959872
0.5862188227980617,0,0.847498
0.47234030058593457,0,0.825425
0.4193681097489133,0,0.840460
0.5735653386951471,0,0.954444
0.6437796251602869,0,0.891327
0.6668729542413986,0,0.867058
0.34815144812360393,0,0.955092
0.4027287944728221,0,0.939404
0.6974863210640813,0,0.904216
0.7428769284286066,0,0.849581
0.7872684025489896,0,0.969276
0.6725854829934028,0,0.886476
0.46990244377537455,0,0.924939
0.6826534189446416,0,0.831886
0.5748557034676189,0,0.897672
0.5255200332933638,0,0.963819
0.6459040726838264,0,0.854378
0.6121416974209949,0,0.918288
0.49845914431581917,0,0.978471
0.3885846576899496,0,0.913191
0.3729234519874022,0,0.919740
0.19824632134718004,0,0.903935
0.15624326585316617,0,0.935003
0.11101776182266027,0,0.881407
0.10846145129813607,0,0.870152
0.22524810775515547,0,0.898451
0.1169619939581919,0,0.964467
0.27600564147536555,1,0.997346
0.2502001958416838,0,0.918717
0.09036861848556883,0,0.962894
0.06401365188180744,0,0.971591
0.1762454836124247,0,0.968689
0.23041676253252208,0,0.603137
0.24981166994915563,1,0.997908
0.36143666060949015,0,0.941234
0.35654814189822814,0,0.970653
0.5058190719118806,0,0.853318
0.4816295184407147,0,0.956593
0.43860667054450486,0,0.900093
0.38529668091494107,0,0.719670
0.49442550167857874,0,0.853565
0.4884322024394342,0,0.850940
0.3837224894964339,0,0.857749
0.3360269500354126,0,0.867761
0.1652842661988642,0,0.934142
0.1741648546788642,1,0.993528
0.5811962127698004,0,0.954827
0.6892842013936193,0,0.992556
0.8037639668192308,0,0.566709
0.8159814939824941,1,0.999273
0.418505963881955,0,0.824635
0.6436785174569187,0,0.897899
0.668014327093682,0,0.993907
0.6295949657818665,0,0.941672
0.7549614010785723,0,0.994288
0.7648623320234007,1,0.999432
0.7655445494067249,0,0.990246
0.802902995472536,0,0.861972
0.6749695977542052,0,0.992834
0.6923437469495601,0,0.992727
0.35499446612029817,0,0.841886
0.41328201929973185,0,0.888094
0.37416577166995185,0,0.946502
0.443769663954463,0,0.984310
0.5517723464956055,0,0.944379
0.5771315606100562,0,0.488119
0.8684153759392031,0,0.756531
0.6276779388545637,0,0.992442
0.580201301186683,0,0.982526
0.5541081607434304,0,0.867762
0.4868872199416047,0,0.910677
0.5949876545220151,0,0.968586
0.4047235025244744,0,0.990361
0.6549610704075118,1,0.995006
0.2944043284006826,0,0.975746
0.4407887079293802,0,0.938999
0.7869039220803827,0,0.986532
0.7220016096083183,1,0.995112
0.6770021995214354,0,0.743559
0.7454395001974619,0,0.710862
0.6350786931814569,0,0.955965
0.8151422059209269,0,0.862267
0.8110454277358625,0,0.995012
0.7995102652514865,0,0.814895
0.8040004627584229,0,0.825754
0.7039478920457015,0,0.621058
0.7087688249788565,0,0.862049
0.5953593089333056,0,0.987826
0.4956541413084121,0,0.789589
0.49175167885402465,0,0.816940
0.2983178346495849,0,0.789604
0.3131748095826439,0,0.778039
0.6291013909485148,0,0.832223
0.7147962394673313,0,0.901892
0.7282942861948646,0,0.871931
0.6666928791584764,0,0.893240
0.8215155541969108,0,0.556098
0.8214129498631149,1,0.996811
0.7830514609424772,1,0.999666
0.7696401921421999,0,0.883197
0.7436386451449238,0,0.960717
0.7289973488157899,0,0.965478
0.8122514855475714,0,0.967580
0.5002916044281283,0,0.590471
0.3608293520657035,1,0.995247
0.3795148734629941,0,0.968037
0.4811906527867502,0,0.701782
0.4675219004571506,0,0.954305
0.46853585889387056,1,0.998073
0.548262391019849,0,0.985384
0.5997752050788939,0,0.566823
0.6259272528722712,0,0.958025
0.4480599645652262,0,0.832275
0.4914681749084851,0,0.793433
0.46503002372655067,0,0.953745
0.5783854274516663,0,0.942268
0.7039983197861146,1,0.996269
0.5279575594984605,0,0.901578
0.6244411789175993,0,0.647397
0.651043645416918,0,0.910488
0.5316068173297479,0,0.957722
0.5474129228865572,0,0.949606
0.813239726081539,0,0.893079
0.8847996432827563,0,0.919171
0.5477789777224747,0,0.925623
0.9004600740819879,0,0.994973
0.7363055154652859,0,0.820816
0.7040534315586441,0,0.960657
0.6856575654417192,0,0.966080
0.5639022651865669,0,0.930108
0.5729056709046759,0,0.925234
0.3864202349633659,0,0.962175
0.5737058153247557,0,0.924237
0.5570846406931687,0,0.987405
0.770648318498834,0,0.948294
0.8069507764075731,0,0.904885
0.8379792237548301,0,0.983680
0.7910683138714453,0,0.992958
0.5564355101128596,0,0.940647
0.43456287898593565,0,0.783637
0.6308176221975881,0,0.993537
0.7415477922368103,0,0.986696
0.5665281163600941,0,0.937745
0.5379921375942209,0,0.883491
0.7099503372522202,0,0.783868
0.915361196669006,0,0.978625
0.6811138473331453,0,0.954973
0.6166044431706105,0,0.900978
0.6877591840570827,0,0.764468
0.7244479108117378,0,0.936064
0.48709370241250954,0,0.941501
0.6859161854738706,0,0.984988
0.8778420067779047,0,0.994677
0.6029719474530726,0,0.981775
0.6044729585332179,0,0.934812
0.5991245656066357,0,0.753224
0.6828885987680184,0,0.909527
0.5486050627031246,0,0.921206
0.7532574400055679,0,0.879427
0.44389972140557804,0,0.945598
0.4530871493553384,0,0.884647
0.696779355239816,0,0.903727
0.5039698254844878,0,0.981142
0.6103622614475229,0,0.616197
0.5224199109769619,1,0.999496
0.4656589746071727,0,0.795628
0.4241850316161551,0,0.725149
0.5698542183388898,0,0.935568
0.5236148827269886,0,0.928494
0.5043439392938486,0,0.714762
0.5633204923316276,0,0.830314
0.5248752370343535,0,0.681525
0.5536533627257029,0,0.859770
0.6018570987111267,0,0.850291
0.37014481369463065,1,0.998420
0.3928453836595,0,0.782934
0.7530562918413567,0,0.917244
0.7065125988777674,0,0.552827
0.3919118643166574,1,0.993651
0.5000766064740068,0,0.800000
0.6308295832634692,0,0.908329
0.58225620005544,1,0.999570
0.5871380897362006,0,0.913623
0.604759328110021,0,0.881994
0.4350597091789291,0,0.802095
0.5866092807546494,0,0.801195
0.5931903955727874,0,0.983890
0.301945688527246,0,0.791073
0.4673522568235148,0,0.825000
0.4834245142010256,0,0.821455
0.4439813496290608,0,0.852682
0.3631008709797713,1,0.997619
0.46832333070677634,0,0.879717
0.662483307654192,0,0.510667
0.6344227995413667,1,0.999500
0.5334210806095262,0,0.962917
0.6001151769082579,0,0.907832
0.5837312033000263,0,0.839609
0.5174774356938665,0,0.857905
0.5981820127283827,0,0.949676
0.5390370150396662,0,0.986542
0.7536487764125122,0,0.978642
0.7213815786388026,0,0.860094
0.804892546157356,0,0.808686
0.7951892703544987,0,0.939732
0.7822079748669493,0,0.949715
0.8326634764106676,0,0.904115
0.8405086236722741,0,0.967742
0.8264489325564813,0,0.952412
0.6669704143623099,0,0.826909
0.8233378780969935,0,0.810952
0.8332818781092625,0,0.838898
0.7645586298631848,0,0.762500
0.8301214121457609,0,0.664463
0.5183860502110973,0,0.978132
0.5026420464299151,0,0.871139
0.4998904024678079,0,0.938322
0.678223071644932,0,0.860790
0.6494001900042922,0,0.676268
0.7942185033749964,1,0.998331
0.8372786148245015,1,0.999448
0.7612463147671918,0,0.860234
0.7534491583670103,0,0.798749
0.7876152555906332,0,0.769637
0.7865842771840221,0,0.828536
0.6828664880316587,1,0.998960
0.6916706941314458,0,0.744281
0.6946183781022995,0,0.828018
0.6943354943401415,0,0.860000
0.7628771689910039,0,0.982166
0.7713282890945699,0,0.965018
0.7446656815848378,0,0.816770
0.8157865481116009,0,0.713575
0.7583585541644081,0,0.974270
0.7230724400520187,0,0.835802
0.7270384332036657,0,0.953462
0.6416987255168268,0,0.693483
0.5196459229923219,0,0.965722
0.6933020421263668,0,0.990140
0.8558989054197256,0,0.941984
0.7556464866426048,0,0.849574
0.8308394205552939,0,0.597744
0.8282347842207387,0,0.994380
0.7844456427648213,0,0.992639
0.8570063641522392,1,0.998292
0.7426221306457089,1,0.996917
0.7937201491670035,0,0.785311
0.8472520798059169,0,0.987463
0.7601702782221907,0,0.719840
0.7544551536905871,0,0.749739
0.6986901210126993,0,0.828125
0.8206706363880777,1,0.999614
0.8715686024677006,0,0.989858
0.7863581281048457,0,0.787572
0.8409694518767716,0,0.993115
0.8461795737159388,0,0.964585
0.8251122076121464,0,0.986288
0.6584770878253406,1,0.999483
0.7493418446187778,0,0.962003
0.7534061309066791,0,0.936723
0.8342605034563406,0,0.779732
0.8623331446751891,0,0.759223
0.8657121812535282,0,0.912382
0.8819954889857149,0,0.875155
0.8861715025262868,0,0.983720
0.3612838227375086,0,0.974719
0.2825307279839435,0,0.884250
0.3951610445717258,0,0.657290
0.5598907412016559,0,0.923750
0.5640373398936283,0,0.921235
0.4838810792821493,0,0.908908
0.43059424378886724,1,0.987730
0.5566313230043735,0,0.873239
0.6588956707160459,0,0.983556
0.5906298889081171,0,0.560517
0.6381568589829861,0,0.761127
0.6356347161185056,0,0.960903
0.6673055725849687,0,0.547564
0.6851358730685946,0,0.978816
0.6711061330371745,1,0.989424
0.7336710801621645,0,0.919686
0.6574889363714119,0,0.514306
0.6326791813113806,0,0.720230
0.6178396467883215,0,0.736478
0.6155554183365572,0,0.799048
0.5826834755878728,0,0.957537
0.7565444165298081,1,0.996852
0.7328739348266307,0,0.923913
0.6230711325491995,0,0.877193
0.7343531962369368,0,0.935065
0.7338151473010579,0,0.744298
0.6650198816389276,0,0.721636
0.7246950696096316,0,0.988349
0.7418161069750483,0,0.898130
0.42057569389999805,0,0.943259
0.9260786164739897,0,0.946588
0.7217910570551684,0,0.945525
0.8825500151869233,0,0.890982
0.5863814570871629,0,0.983174
0.5875671148504453,0,0.940528
0.6087988649445526,0,0.899811
0.6332664540616,0,0.967207
0.8380532932197398,0,0.979812
0.6981863880429543,0,0.967308
0.7055710395140573,0,0.695811
0.7996571145911286,0,0.986526
0.5906917610058688,0,0.984788
0.6792743999540021,0,0.985081
0.776547356377728,0,0.886860
0.7965260555886992,0,0.989498
0.45598711090914656,0,0.989633
0.8730021576671395,0,0.989848
0.8291099237963611,0,0.925827
0.818150003376632,0,0.911068
0.6953416839909686,0,0.877099
0.7879295469188513,0,0.909488
0.6523844632297465,1,0.997722
0.8428485155515895,0,0.985294
0.8451295260471645,0,0.938166
0.6189399190460447,0,0.955153
0.745043890222522,0,0.989819
0.8643863798539736,1,0.999117
0.7697156705053508,0,0.928981
0.7177598382425814,1,0.995657
0.7927666848603152,1,0.994550
0.7169077055653437,0,0.977876
0.6615589195597085,0,0.893667
0.679533457949963,0,0.985983
0.7395272291520933,0,0.895480
0.843341376254302,0,0.973827
0.7882680605043645,0,0.986372
0.7911879500752173,1,0.998276
0.7960011424093035,0,0.903981
0.7639537328940815,0,0.981405
0.8125948133033971,0,0.929954
0.7616108370454706,0,0.942086
0.7683592499093911,0,0.929902
0.7569680555934095,0,0.994434
0.8976611363712339,0,0.989456
0.9025274518252858,0,0.985849
0.9007951359543047,0,0.836997
0.7978857504362327,0,0.977764
0.4935193840280585,0,0.979137
0.8055688403384151,0,0.991243
0.6926547082313952,1,0.998695
0.8149662836866294,0,0.930922
0.7008418291832639,0,0.914286
0.5539673335917261,0,0.922884
0.5741563920499219,0,0.935381
0.6373290412068421,0,0.930464
0.7471502072493921,0,0.807580
0.7071296296065956,0,0.824913
0.6655873898177255,0,0.967699
0.6334716251401873,0,0.718310
0.6389235042976776,0,0.977654
0.6332393387215143,0,0.754133
0.6595937743579202,0,0.925827
0.7200751624536605,0,0.915399
0.7391341193368398,1,0.995646
0.7236963453544215,1,0.987805
0.8168971889826042,0,0.996377
0.5565378858976368,1,0.996310
0.537001327997188,0,0.903883
0.6221577783421041,0,0.906210
0.5388607671672853,0,0.792447
0.638392825777831,0,0.973713
0.703206487517038,0,0.985241
0.6388603928991885,0,0.901927
0.6190631406125663,0,0.916438
0.5089100769659672,1,0.992469
0.6458089490244667,0,0.874510
0.6659631024920363,1,0.995068
0.7116874385450088,1,0.999512
0.713525919561437,0,0.940731
0.7777038961263275,0,0.808696
0.650287956624317,0,0.983794
0.753582104666326,0,0.976286
0.727957811029004,1,0.998994
0.7525294675870188,0,0.622287
0.6460517220398402,0,0.908596
0.6494931854593895,0,0.923677
0.6667597870293884,0,0.726021
0.7779239657502945,0,0.983933
0.7338403238605604,0,0.871448
0.7569985653999217,0,0.989334
0.7201017428905354,0,0.900185
0.7363050375522434,1,0.996928
0.7491282401244536,0,0.975844
0.7354806400692846,0,0.525678
0.6257876847748025,0,0.994364
0.6681929428940263,0,0.878127
0.6590269769626428,0,0.875928
0.7093813515679509,0,0.976678
0.7460796346143768,0,0.947613
0.820364192849447,0,0.931639
0.8149822570592548,0,0.978144
0.8345848348818761,0,0.983545
0.7749088398544831,0,0.956004
0.7940799084133681,0,0.862027
0.8509848585517432,0,0.570641
0.8319744708904595,1,0.999566
0.8275088491784712,0,0.708063
0.6966619309056222,0,0.735141
0.8688077622531842,1,0.998495
0.8118205139633505,1,0.991282
0.815285545164777,0,0.989610
0.8507898043493491,0,0.684685
0.7533934513921238,0,0.993827
0.7706515357713972,0,0.941135
0.8062688325005345,0,0.846774
0.8313448475725955,0,0.935885
0.8386650814357561,0,0.885148
0.846467867018257,0,0.899767
0.8532601814469429,0,0.989157
0.8635829379490426,0,0.748111
0.8627473771816183,1,0.998096
0.7931777531859909,0,0.995136
0.8422855258896634,0,0.759052
0.8668638481911015,0,0.879111
0.7827631367622401,0,0.985957
0.7313983587900554,1,0.999627
0.7479289485390417,0,0.710173
0.7456232312683636,0,0.962927
0.7953361028935767,0,0.840124
0.8452337854095221,0,0.814582
0.8587590149454765,0,0.965021
0.7929224810965352,0,0.727463
0.7981190097955536,0,0.654900
0.8673862351416768,0,0.964868
0.8662927500499804,0,0.987569
0.8674986880520026,0,0.642610
0.8718088995416751,0,0.878008
0.8797087182706875,0,0.582928
0.8521311294502585,0,0.664845
0.882078628418872,0,0.969811
0.8648084725589276,0,0.993856
0.8837591763043725,0,0.959011
0.8822291099687973,0,0.980934
0.8994710391920604,0,0.964016
0.8889632433467147,0,0.984715
0.8763206322819739,0,0.971759
0.8732198159952425,0,0.995324
0.9040671000266403,0,0.982829
0.8987957592216752,0,0.662605
0.8943279919677909,0,0.703036
0.8954590149940928,0,0.673804
0.8502849113112501,0,0.761337
0.8158272960342184,0,0.722567
0.884897487365005,0,0.773946
0.860886192293785,1,0.998838
0.8562312829555622,0,0.857459
0.8701928070328611,1,0.996172
0.8811219662424757,1,0.999565
0.8948541530682731,0,0.991450
0.899220009344357,0,0.989418
0.9015410275876748,0,0.956278
