0.32124979650309493,0,0.049247
0.14176300575010398,0,0.318143
0.19870637335447527,0,0.776265
0.16060763119672677,0,0.275426
0.0622769577674532,0,0.450409
0.1738876800689559,0,0.329657
0.16871767163489426,0,0.878268
0.19598906676165703,0,0.178048
0.1133553292504335,0,0.932426
0.11316540424880603,0,0.964063
0.14255981705415005,0,0.662658
0.11272537753126316,0,0.066545
0.122423596164287,0,0.819252
0.20397795707821356,0,0.837349
0.10949581539467282,0,0.069682
0.13390619925300698,1,0.997399
0.2620071310744991,0,0.936281
0.1566833836159421,0,0.824091
0.229566598341314,0,0.977406
0.12203869512808437,0,0.224537
0.125990699577501,0,0.583175
0.12204615080184655,0,0.986918
0.19145029480217057,0,0.959109
0.40348898612464695,0,0.978689
0.4064948544145625,0,0.958207
0.12414548606315648,0,0.638537
0.1232545237997755,0,0.766679
0.14868647878921434,0,0.965314
0.3436368148704195,0,0.894873
0.3354982134882853,0,0.915567
0.08620606445830545,0,0.949049
0.18451076375396505,0,0.966637
0.09156342101460824,0,0.864783
0.2788076911354311,0,0.937453
0.17312965159488092,0,0.973451
0.07719702624569987,0,0.974971
0.18303587562609147,0,0.939489
0.044923487763237846,0,0.467384
0.07854514467682999,0,0.966579
0.19921724040294056,0,0.889323
0.3501563264428399,0,0.884762
0.16486190053936095,0,0.201354
0.13626316425841323,0,0.986967
0.04635810875252936,1,0.994730
0.11173154164346068,0,0.928488
0.08496781097301613,0,0.877298
0.1368270274426903,0,0.842240
0.14453474209835404,0,0.957536
0.329832804127847,0,0.941756
0.2890236031304296,0,0.896619
0.12338050175412621,0,0.793144
0.0656592774018353,0,0.871021
0.20209004906560385,0,0.361897
0.0669570730311557,0,0.975682
0.17638084286626052,0,0.987914
0.17264357907082364,1,0.999459
0.23606937054765864,0,0.920728
0.21281575850536835,0,0.981360
0.4125995372356061,0,0.993331
0.16234370430003878,0,0.896774
0.10420404286782553,0,0.902554
0.1483588403088222,0,0.990964
0.17459611343561762,0,0.980797
0.37692844523976776,0,0.851599
0.1372986943269916,0,0.894710
0.06558459196450438,0,0.990872
0.06761487530047637,0,0.902222
0.09967824663630623,0,0.914648
0.2034918336961562,0,0.967643
0.03531744533504592,0,0.133038
0.025139232121185857,0,0.983939
0.1695599325103519,0,0.851402
0.23667676531645673,0,0.890589
0.25426808567562603,0,0.898380
0.17663200107303476,0,0.722043
0.39367677215634705,1,0.999004
0.535869723714154,1,0.998351
0.5749859342757249,0,0.889792
0.15731072791072584,1,0.999031
0.4724103616452258,0,0.944049
0.17995437589590818,1,0.999248
0.056557792297621805,0,0.925110
0.47944817722546385,0,0.945802
0.1597598867367434,0,0.993056
0.30708765636471014,0,0.805828
0.2461635301910021,0,0.896381
0.32238233665889515,0,0.966987
0.43841394785217574,0,0.972093
0.5332304015067071,0,0.980916
0.6559600715744699,0,0.980696
0.5288536029376382,0,0.966448
0.6295349836669241,0,0.945596
0.44734422652986816,0,0.986580
0.04609528638274221,0,0.970122
0.026106473193176313,1,0.993062
-0.014346947879307946,1,0.998350
-0.0036735090502385604,1,0.993610
0.004964552731765591,0,0.987500
-0.004226172610712798,0,0.933054
-0.011268816164034844,0,0.785134
-0.008299108412676233,0,0.603907
0.10255874910091627,1,0.999454
0.1902643140985475,0,0.900191
0.14533461493634015,0,0.929586
0.020557779736288126,0,0.990627
0.07262226383951453,0,0.736719
0.2637616720181145,0,0.914932
0.23737663888170465,0,0.395667
0.13479063183805723,0,0.896465
0.2913377970121178,0,0.803297
0.697213228344508,1,0.988764
0.462489027283673,0,0.942572
0.6239478193562871,0,0.918351
0.37565518158794725,0,0.875909
0.068868352449751,0,0.955619
0.3665933577070344,0,0.949345
0.4180449883513298,0,0.992012
0.4323668581530589,0,0.806331
0.6430804151362438,0,0.944548
0.6770116054636199,0,0.821233
0.28742161602811644,0,0.878307
0.2560709406328276,0,0.805588
0.6534887041422175,0,0.854353
0.742412336201354,0,0.929056
0.7531183855364078,0,0.908374
0.20227366999575555,1,0.998222
0.38170592063242825,0,0.951779
0.2645275618365881,0,0.923123
0.03449513624061604,0,0.924033
0.2485299049873711,0,0.727501
0.2819760154241545,0,0.768302
0.29050386475929635,0,0.867866
0.2353386325801253,1,0.975728
0.2814107479618747,0,0.827891
0.5032357051957358,0,0.960000
0.5042169707192058,0,0.524942
0.7888894926257477,0,0.970485
0.4764241345473642,0,0.904117
0.49427791583262337,0,0.829639
0.4778629703421498,0,0.983641
0.5598510796573102,0,0.871198
0.34600823401069397,0,0.794305
0.26644238654789537,0,0.854378
0.3995882666527531,0,0.903902
0.4577266864642538,0,0.845912
0.5009017217631772,0,0.828890
0.4612806185519754,0,0.489451
0.45382271850013184,0,0.562463
0.5238515506998199,0,0.986400
0.5551248684167621,0,0.825716
0.36496032983519133,0,0.772222
0.5283223106841272,0,0.487047
0.5448153126349907,0,0.580991
0.5522661735555494,0,0.543564
0.3651143377035485,0,0.864290
0.39703187077082164,0,0.986278
0.5973561159203885,0,0.992996
0.6074189566259883,0,0.990826
0.7130879937559397,0,0.990811
0.708580584302247,0,0.979058
0.7289547955692603,0,0.939631
0.6286104899138337,0,0.917349
0.6209092850347409,0,0.949967
0.6878131499382693,0,0.926892
0.714449619593327,0,0.604426
0.6969636109870512,0,0.939549
0.3871193209905413,0,0.651636
0.3699346532327659,0,0.624392
0.49606546647290767,0,0.439012
0.5329367465092312,0,0.897000
0.5531669944785461,0,0.643607
0.3867682064948252,0,0.857378
0.4035066405502696,0,0.951872
0.42898395656178523,0,0.918564
0.39912130537067303,0,0.478055
0.5798493502125176,0,0.903812
0.3028716589553072,0,0.880575
0.6082220044288335,1,0.999292
0.57140024557647,0,0.798605
0.5843090560936828,0,0.976247
0.21419702103932992,0,0.889358
0.22681313036684952,0,0.567779
0.14442069538179284,0,0.961625
0.650754586848394,0,0.625563
0.2888751459411968,0,0.667111
0.5238120906640285,0,0.512905
0.30582771306258644,0,0.933180
0.7322000920393076,0,0.976664
0.3197446890728227,0,0.990196
0.4726980555733106,0,0.972008
0.5076892110787141,0,0.957552
0.5933246199049296,1,0.998414
0.2831193016955455,0,0.924361
0.30082239700921715,0,0.987302
0.2316084204092198,0,0.782064
0.23488593608134412,0,0.962627
0.24016585590407116,0,0.731098
0.07716229839808658,0,0.850230
0.04773776745788327,0,0.953115
0.09622759998571026,0,0.948667
0.28941118983285985,0,0.956055
0.3387439443287981,0,0.551264
0.4024316797466264,0,0.942636
0.14925006983135902,0,0.983523
0.17588338099252535,1,0.998689
0.22402638166711966,0,0.924964
0.19496824619024167,0,0.467415
0.4108765188076351,1,0.998188
0.545288540743204,0,0.850261
0.36282282766721274,1,0.999100
0.6977607694418143,1,0.991292
0.29899252032661766,0,0.894175
0.45130686494850253,0,0.770036
0.6148914343544035,0,0.799443
0.41662735642356014,0,0.980219
0.6313121495222475,0,0.962199
0.4919317701814525,0,0.864391
0.5091133517364594,1,0.996921
0.6954947689278854,0,0.961078
0.39165247994596,0,0.928815
0.3907952314345693,0,0.969676
0.6247677872220657,0,0.919551
0.6970036900844799,0,0.986853
0.17834490388911217,0,0.971108
0.2381341822827485,0,0.830534
0.6589107385614312,0,0.830130
0.6961347683548353,1,0.994647
0.7389334158829756,0,0.978571
0.4147656437899902,0,0.815594
0.4480837071265957,1,0.990030
0.3698804223999936,0,0.737872
0.5324415916105762,0,0.915512
0.40999798563280243,0,0.783339
0.4657020514425469,1,0.998599
0.5782804422948042,0,0.811009
0.6345543076637573,0,0.936948
0.7514231934551348,0,0.937548
0.4139155536672405,0,0.974965
0.45668076687982245,0,0.964465
0.5294798474848789,0,0.893399
0.5202265330875016,0,0.950047
0.5551440879908177,0,0.719834
0.5371198398294961,0,0.843083
0.47908497407268363,0,0.965492
0.5696514277624612,0,0.991232
0.5484461171406401,0,0.941546
0.5661603175469955,0,0.780939
0.5755557675342634,0,0.782019
0.5368568049363471,0,0.952134
0.4899157229241852,0,0.869067
0.48594508970157935,0,0.939202
0.2866021681839146,0,0.969580
0.37132094132366544,0,0.804463
0.35252344759104437,0,0.980228
0.33162479654670646,0,0.915055
0.3810648226587465,0,0.817999
0.48817094886135515,0,0.981304
0.5811673599475886,0,0.790960
0.4612049096586754,0,0.951288
0.5653310970170721,0,0.986301
0.5172946713615636,0,0.849792
0.407104473676496,1,0.997642
0.4193687583679656,0,0.931366
0.39172097615043705,1,0.997366
0.4169623148835608,0,0.888427
0.5625724317444839,0,0.973947
0.07643642605455325,0,0.984018
0.544069254424631,0,0.630818
0.6432043421618602,0,0.818094
0.6615883443422927,0,0.979705
0.6956817325988361,1,0.996949
0.7383413166730441,0,0.970090
0.630124720168641,0,0.960736
0.5660243405622299,0,0.988900
0.5588388735402344,0,0.851586
0.6404454414003826,0,0.876139
0.6178842901511604,0,0.909161
0.7306047149732442,0,0.979808
0.777278159851542,0,0.827235
0.40319361780360946,0,0.655249
0.2661899198216139,0,0.665433
0.34871861255728553,0,0.978297
0.4236840711026115,0,0.898512
0.40454608901445355,0,0.829268
0.47589755526396615,0,0.989343
0.5161878870268047,0,0.918747
0.5259281938541109,0,0.859486
0.4591405263268119,0,0.846297
0.6504111548159237,0,0.966898
0.646847220893653,0,0.948505
0.6377475169532573,0,0.533464
0.7157057751909887,0,0.809524
0.5429114885748964,0,0.912185
0.6335181204384192,0,0.790995
0.39227176614519127,0,0.646704
0.4808142983631591,0,0.818949
0.39880797049101097,0,0.793210
0.4050154092677461,1,0.999321
0.45303852030695535,0,0.823072
0.6303887122878757,0,0.911542
0.47163575490347565,0,0.984817
0.43194276605836934,0,0.919106
0.5037047957895119,0,0.956208
0.6068169681863146,0,0.720044
0.5257473747848485,0,0.886660
0.5789704041125484,0,0.444878
0.5531692398481829,0,0.838602
0.6245650909205162,0,0.913264
0.5802907293550134,0,0.993795
0.5745195059635675,0,0.544666
0.23998968888368122,0,0.849827
0.5214964319180847,1,0.993446
0.5940782029407701,0,0.837979
0.592517052204135,0,0.951899
0.6576087944337745,0,0.983400
0.6957940467772831,1,0.999486
0.7236685485484502,0,0.878342
0.6433680038796853,0,0.932821
0.6533626822951621,0,0.977152
0.6107334240668392,0,0.800338
0.4782922924015683,0,0.990897
0.6350819253818806,0,0.739858
0.678096868131344,0,0.971344
0.6666391277851172,0,0.995757
0.6138028734117139,0,0.947822
0.5866680570364341,0,0.926512
0.567522524209729,0,0.713523
0.6061925828424535,0,0.900000
0.7174892050475079,0,0.922449
0.6713722941590095,0,0.858156
0.33746667176168754,0,0.966001
0.40353995143841687,0,0.797964
0.7233624982953536,0,0.861063
0.7071541468537018,0,0.967074
0.6952696998441429,0,0.825603
0.6888114491622164,0,0.935586
0.7227064249131046,1,0.999631
0.4542946980358769,0,0.989478
0.725252597717374,0,0.869359
0.4601418332498559,1,0.997991
0.49457901566781937,0,0.941617
0.653486443826252,0,0.953125
0.5035152134340818,0,0.983163
0.49021378806233623,0,0.712049
0.4773115806195024,0,0.911780
0.5226879286228279,0,0.723235
0.6494783445559132,1,0.998447
0.6154405560840904,0,0.838313
0.6587206253582669,0,0.750223
0.7298292700578415,0,0.816397
0.5747513296172588,0,0.742126
0.621703779871137,0,0.958768
0.6887245920066891,0,0.986752
0.7058777059989776,1,0.999019
0.6609575796497484,0,0.776534
0.7681095184230453,0,0.977393
0.7492780105863434,0,0.972848
0.7267887981874158,0,0.810188
0.6309920482255683,0,0.776451
0.6821438243266852,0,0.993892
0.5796816610179444,0,0.864341
0.40364285346809364,0,0.786455
0.3296446131012137,0,0.944597
0.7160249977030351,0,0.933366
0.49687371167723016,0,0.915071
0.7389785375876509,0,0.962245
0.6976863100717314,0,0.766095
0.7928332600265511,0,0.968849
0.7676494824717264,1,0.999457
0.20470140849320223,0,0.830656
0.3985451216931719,0,0.935662
0.1936603935233723,0,0.853442
0.15257475550604815,0,0.849805
0.16848104246901996,0,0.850953
0.20106859119168277,0,0.978947
0.7539204118633603,1,0.999625
0.1829056350011754,0,0.940714
0.3147344914651375,0,0.856265
0.41102609367289705,1,0.999244
0.6500512769420187,0,0.969787
0.3887856709284722,1,0.999556
0.18107969307744676,0,0.859541
0.3043337180988113,0,0.920021
0.20129011126391608,1,0.989599
0.29386667760896623,0,0.926194
0.4323561211852082,0,0.790819
0.4263081622306243,0,0.904023
0.3811049137848036,0,0.964567
0.23744669348982436,1,0.993088
0.2763747952887802,1,0.998647
0.26154859102484124,1,0.980119
0.5725280497652223,1,0.994856
0.0712682111719738,0,0.778351
0.10976028070178488,0,0.943231
0.31354992557975553,0,0.970013
0.33302697137774523,0,0.956239
0.4691303834692276,0,0.898997
0.27190976498021907,0,0.991128
0.17559842451993676,1,0.994859
0.4052434726312322,0,0.947557
0.38908756216760576,0,0.802293
0.30625559088715215,0,0.966576
0.3857611082500709,0,0.903400
0.4973655640755791,1,0.998266
0.22965361929400274,0,0.793761
0.67712381937081,0,0.465578
0.1763575475583902,0,0.447667
0.1241577304998482,0,0.786290
0.5984831472480105,1,0.996708
0.20617830045474003,0,0.419909
0.5697766522227883,0,0.988281
0.6670016970758564,0,0.968424
0.6309851859789565,0,0.966173
0.4388241782134074,0,0.872692
0.33056525894478805,0,0.778574
0.4297351224940933,0,0.855703
0.7071332282168199,0,0.871649
0.7479865441856127,0,0.968770
0.3681230221747629,0,0.953877
0.36399686985254637,0,0.921212
0.33755756714214785,0,0.723776
0.5979172925476537,0,0.817578
0.38383805243732433,1,0.993986
0.6342070930322488,0,0.995892
0.6565308408714011,0,0.947135
0.5850967114526451,0,0.920082
0.5271183880883706,0,0.970912
0.7612434594487317,0,0.948614
0.7974705949370049,0,0.875000
0.4723432486908061,0,0.747346
0.6134905439894768,0,0.641863
0.5850003618096044,0,0.623769
0.5981664846314343,0,0.980130
0.8075361254755816,0,0.935907
0.5883888449759621,0,0.987988
0.6779804287044322,0,0.827844
0.3185582393718369,0,0.907366
0.7917781718972627,0,0.948052
0.6930082239749603,0,0.725490
0.6309588457367569,0,0.953174
0.4312405522923366,0,0.914485
0.6350291282253316,0,0.968332
0.5312743155738872,1,0.999509
0.7243195203058395,1,0.994231
0.5927395860437062,0,0.910750
0.2408497201043214,0,0.896205
0.6203291026980283,0,0.846419
0.22727470587222312,1,0.995833
0.46952216851823747,0,0.940585
0.4886415647479482,0,0.420180
0.49501229153399634,1,0.996305
0.5737758277009241,0,0.979151
0.570473102572564,0,0.983227
0.6745780221559514,0,0.950610
0.5760440240285445,0,0.644452
0.6256742400747521,0,0.907549
0.4748850683013647,0,0.973365
0.6161048898731594,0,0.570621
0.3734760870622979,0,0.733531
0.46562726572436036,0,0.978190
0.32340017306465174,0,0.690285
0.3603164595720637,0,0.643459
0.3285922621261391,0,0.923313
0.6643216461352504,0,0.696287
0.2895706866126564,0,0.940276
0.4391624077017513,0,0.830709
0.5982658793451292,0,0.982724
0.6367177907508808,0,0.530539
0.5747332391895432,0,0.921881
0.6681836753993097,0,0.780405
0.47233426172903165,0,0.864179
0.5651887204888368,1,0.995749
0.4773812009157098,0,0.963368
0.4837471378659981,0,0.900235
0.5140914263793385,0,0.867181
0.5942121727106013,0,0.971963
0.5330713957986305,0,0.881867
0.6096623230672906,0,0.824810
0.536596540466817,0,0.983800
0.4093183473836335,0,0.925246
0.7438273037336727,0,0.844568
0.4328960120078007,0,0.880777
0.3012320288059441,0,0.678705
0.23119831978286404,0,0.943820
0.541136517833624,0,0.938053
0.4292956057938078,0,0.846622
0.6025368208307,0,0.635119
0.6304785126941808,0,0.783286
0.6334276781277959,0,0.674460
0.6746781581705683,0,0.905070
0.602872209492652,0,0.813005
0.5247662375082865,0,0.886670
0.5456946350321388,0,0.814180
0.49120727072034887,0,0.789100
0.6131600113294124,0,0.833333
0.6399332143878853,0,0.972249
0.5914124644737802,0,0.593399
0.5957032897893143,0,0.946619
0.7004549417423247,0,0.985106
0.5587737574140159,0,0.529475
0.5265436110085318,0,0.951114
0.5402950637696207,0,0.905747
0.5482759225970344,0,0.928481
0.492107713192106,0,0.914628
0.5711636695458091,0,0.829876
0.5419437227334492,0,0.951947
0.5479143606765554,0,0.741391
0.5805695146285992,0,0.826572
0.61938332242737,0,0.909125
0.6866575143340323,0,0.994231
0.6269424550881393,0,0.815130
0.6678397303442531,0,0.987204
0.5704330415329885,0,0.944531
0.17279892148810605,0,0.549046
0.5415769739807961,0,0.989232
0.6073623594002926,0,0.839779
0.6742094291941909,0,0.825784
0.6727315164345814,0,0.987184
0.6560074964955376,1,0.997000
0.320782105663896,0,0.836339
0.3232561974373442,1,0.999053
0.35007616189999413,0,0.825040
0.6884530658082785,1,0.999543
0.7406180328408789,0,0.941756
0.6747345620236876,0,0.914739
0.6775901883861482,0,0.821744
0.6742007131672277,0,0.880616
0.30011971495142303,0,0.899256
0.6413231389385349,0,0.841646
0.25834666547041785,0,0.913872
0.6991404277573429,0,0.972460
0.3895052196933706,0,0.753936
0.6614675954249463,0,0.814915
0.6523328728110172,0,0.930824
0.6851566184229482,0,0.977567
0.7433928739546446,0,0.867124
0.7270594397996648,0,0.967509
0.6627671770820912,1,0.999297
0.6912439619130555,0,0.730372
0.7641869837485279,0,0.768233
0.6137652801117863,0,0.557631
0.5817048888430022,0,0.803503
0.6517433377210529,0,0.972909
0.32532917587202154,1,0.991131
0.3784407987902074,0,0.995206
0.39066263101521975,0,0.916544
0.6822541728620027,0,0.914567
0.7464933451238218,0,0.785449
0.7688210558367087,1,0.998747
0.7460415974308939,0,0.984504
0.7687490941401196,0,0.978488
0.743865195419269,0,0.991540
0.7625434886250356,0,0.625000
0.692107292924731,0,0.979702
0.6425483085434126,0,0.871283
0.7308832096661844,0,0.989529
0.7916191003468563,0,0.923804
0.23120394070376998,0,0.763158
0.31387584331272167,0,0.748525
0.3490381311816545,0,0.693040
0.37820342713343663,0,0.963079
0.6884667653306528,0,0.868207
0.6717872831519516,0,0.862136
0.686301710248145,0,0.931129
0.7383985779162305,0,0.992150
0.3156383918613679,0,0.977104
0.2375288406480027,0,0.922368
0.2648390756791868,0,0.935223
0.31476586752125457,0,0.802428
0.7093064635932752,0,0.960908
0.2915270671137752,0,0.974790
0.3991782734900167,1,0.984071
0.2868212872382412,0,0.992465
0.4708956077618468,0,0.884495
0.4444411377433726,0,0.971957
0.31792321460971124,0,0.945904
0.401764065610197,1,0.986357
0.5097740434718852,1,0.997374
0.5974034012337933,0,0.983386
0.5605234002729138,1,0.996940
0.5522916079549549,1,0.992258
0.4770990954475736,0,0.740714
0.5616051426553783,1,0.998837
0.4321137942428098,0,0.958940
0.741619923090297,0,0.887861
0.743565370427088,0,0.970483
0.5547769889718634,0,0.799638
0.713340319182859,0,0.907016
0.8619799198546053,0,0.962041
0.6157927407398129,1,0.999227
0.7153440258708731,0,0.870748
0.7902438430267809,0,0.992428
0.8732412153164615,0,0.977280
0.673630160350501,0,0.978162
0.6229061167615293,1,0.995984
0.6070590304232547,0,0.416411
0.8717585918179198,0,0.988773
0.8712304200552135,0,0.965017
0.7589463266767984,0,0.985451
0.7383973521496204,0,0.910463
0.7077082262187234,0,0.984000
0.8056787946562823,0,0.914241
0.7961469026584694,1,0.994475
0.7708349031552317,0,0.852259
0.6411673178684194,0,0.912000
0.6249936506415001,0,0.864865
0.6276186595383126,1,0.994092
0.6191008927502959,0,0.878567
0.6954502951554341,0,0.992105
0.7702625533046978,0,0.973476
0.7961851055955985,0,0.764225
0.5548166869360297,0,0.886667
0.587293206798699,0,0.984572
0.3714474137669156,0,0.576661
0.4365005658899889,0,0.713271
0.40697280665272034,0,0.934995
0.536642245118663,0,0.933979
0.5925591372274065,0,0.961661
0.612241830194592,0,0.744982
0.7185038603746982,0,0.980207
0.7070054753519527,0,0.990501
0.7400430260508267,0,0.833714
0.6701415744096813,0,0.969064
0.6777122241031689,0,0.960027
0.6465822874128992,0,0.973891
0.7165359499349915,0,0.938424
0.6342322150080187,0,0.971612
0.5049035427850441,0,0.864721
0.5474109998496527,0,0.476399
0.6733253405292743,0,0.960367
0.7392632347330695,0,0.926516
0.7685720192062134,0,0.734324
0.4895685968087749,0,0.981752
0.5385944682504074,0,0.891883
0.6978700286977062,1,0.994452
0.6800428404447456,0,0.945102
0.7305650580265501,1,0.999153
0.7828030823096674,0,0.981766
0.5952534418680238,0,0.891690
0.7734688714474177,0,0.995031
0.4843420163503833,0,0.927629
0.5016337723566994,0,0.937217
0.4199171664752575,0,0.968039
0.5148758209214079,0,0.804400
0.5383066929174569,0,0.763060
0.6031034320565227,0,0.786613
0.6250226174824041,0,0.908167
0.7912999097333484,1,0.997957
0.6873975511121815,0,0.630600
0.5054445036898371,0,0.563231
0.762644950611819,0,0.974207
0.7718053842166454,0,0.942595
0.751845146617297,0,0.956219
0.5341927193589155,0,0.904912
0.5422448604256778,0,0.738739
0.7535781982934675,0,0.975266
0.6984197017428443,0,0.984629
0.7070082053993678,1,0.996385
0.6437663914818703,0,0.592852
0.715572154222345,0,0.956112
0.6904321300940849,0,0.914178
0.7599404652315127,0,0.935872
0.6827994207683782,0,0.960141
0.5130414966903736,0,0.916935
0.57397098701653,0,0.794427
0.5593263745259576,0,0.782178
0.5155496550061952,0,0.775906
0.4647291225729827,1,0.996459
0.5558783975250859,0,0.964368
0.6695338922106706,0,0.796217
0.7258060690872953,0,0.575555
0.665079932733056,0,0.958333
0.6848133103356805,0,0.537043
0.5130870262439257,0,0.996043
0.6510514614416025,0,0.910101
0.7213904131254171,0,0.975937
0.47970717407921304,0,0.878666
0.6797359219490435,1,0.995588
0.6485706227096685,1,0.997487
0.6751559191171944,0,0.948662
0.6286430763083378,0,0.759669
0.6445278647050362,0,0.718641
0.6676747516987467,0,0.899299
0.5193069368614813,0,0.896444
0.6389459550581046,0,0.591954
0.6394376795261062,0,0.578605
0.3356813678803373,0,0.869971
0.5797422326376107,0,0.590005
0.6137374191854643,0,0.867906
0.6471583961096804,0,0.743602
0.6528154035810732,0,0.990297
0.4315742203517065,0,0.916301
0.7094966008224679,0,0.945044
0.5294913804639598,0,0.957565
0.7188582309544411,1,0.997471
0.6278092825118462,0,0.947826
0.6337826233349837,0,0.708057
0.3873208079536751,0,0.917349
0.28855313996601734,0,0.811252
0.3874203209864306,0,0.947399
0.6360375648635023,0,0.854731
0.26314733749074826,0,0.969288
0.3132471081596516,0,0.923345
0.660389409127075,0,0.921234
0.5877327654014641,0,0.960166
0.7001271593496082,0,0.836561
0.6397788163418937,0,0.932584
0.670245850928906,1,0.998767
0.6171127679427243,0,0.932687
0.4720545950801494,0,0.931210
0.7075059849666284,0,0.973089
0.7118498596919808,0,0.987611
0.5767382381324261,0,0.574252
0.3550149970226636,0,0.955797
0.5699036493283051,0,0.825228
0.6796209980874844,0,0.898117
0.671189530613165,0,0.990545
0.6118785378450174,0,0.965629
0.6919021576108592,0,0.993440
0.5589601609358203,0,0.581454
0.6198208206817752,0,0.860329
0.5277011557563455,1,0.998096
0.5626196260217545,0,0.831754
0.5900606060489018,0,0.960458
0.6915331181386418,0,0.951940
0.37940352829732277,0,0.600892
0.6105646646867267,0,0.776903
0.6890037705199138,0,0.975309
0.5242660784321796,0,0.956802
0.5522867820955953,0,0.859732
0.5555198879768384,0,0.971739
0.5518744455926282,0,0.964822
0.6214728547033196,0,0.971877
0.6343004707937315,0,0.971127
0.6316977775444965,0,0.572540
0.6898494255540073,0,0.845355
0.6629981381988693,0,0.963695
0.7429973721652663,0,0.946970
0.7582863971169147,0,0.975170
0.5494282103495298,0,0.985539
0.6418563050933969,0,0.879973
0.6376476107820431,0,0.968160
0.6315363882938412,0,0.765911
0.565325915962411,0,0.835430
0.558187140953395,0,0.878429
0.7337076654807386,1,0.999571
0.642096517274141,0,0.902743
0.7719772418500696,0,0.938997
0.7261544591408371,0,0.993462
0.5836498339035897,0,0.748366
0.7345888405776156,1,0.999290
0.7764307172190056,0,0.669796
0.7810958090018519,0,0.976744
0.7629172427211108,0,0.985530
0.7528881392661212,0,0.767593
0.7052593210207124,0,0.790955
0.6025052347698691,0,0.912040
0.30781459205104217,0,0.970570
0.6594434363378849,0,0.982896
0.30379043765634506,0,0.842593
0.2554567558594675,0,0.931010
0.5439739075039008,0,0.581268
0.6921229325816539,1,0.999570
0.74602315788692,0,0.982468
0.6714302386316476,0,0.928255
0.7243237436441846,0,0.923860
0.7008695168594347,1,0.998942
0.7172908808847999,0,0.996512
0.6798627220359172,0,0.868184
0.7970780769081309,0,0.843533
0.7876800402111518,0,0.741501
0.7558110570813426,0,0.966138
0.753505109353101,0,0.945401
0.7411990048379757,0,0.930773
0.7405950521590619,0,0.979320
0.698008147085976,0,0.886220
0.7805390081510848,0,0.968794
0.7802396203968444,0,0.890000
0.7131307303950299,0,0.719463
0.7454022546583666,0,0.700481
0.26744579795316153,0,0.906905
0.6636097035654325,1,0.997882
0.5948982529292532,0,0.950088
0.6413993777671346,1,0.997740
0.7809680645036985,0,0.977493
0.7940068881440967,0,0.940211
0.807252665202516,0,0.939006
0.6517094589593723,0,0.991209
0.8062663080714545,0,0.834463
0.6791295887439693,0,0.635683
0.611244668060135,0,0.766450
0.7565134378624419,0,0.603994
0.7613750497765694,0,0.915914
0.5670974814202007,0,0.588287
0.5618593981462984,0,0.854520
0.6613770018788199,0,0.548433
0.42937158247929236,0,0.950866
0.5764839006834503,0,0.888991
0.6955292786078996,0,0.960976
0.6424001581836233,0,0.956461
0.7472634608113669,0,0.989740
0.6142697909300616,0,0.933631
0.5623686056380255,0,0.967477
0.5397869314010397,0,0.860146
0.7923588984549821,0,0.912345
0.26219941285826903,1,0.997207
0.24074808280440516,0,0.688799
0.23160643851697485,0,0.965955
0.6334056106928269,0,0.519526
0.718165926480834,1,0.998856
0.4635301731192772,0,0.976585
0.4200040927274492,0,0.964623
0.36057823212861223,0,0.864371
0.6861561110009277,0,0.975416
0.35347896324044803,0,0.928571
0.7348733024065569,0,0.951470
0.65701451593149,0,0.891860
0.8078890230446829,1,0.998437
0.7120642661611168,0,0.872287
0.657660363057083,0,0.915942
0.6687551465326933,0,0.656085
0.789782441060695,0,0.964716
0.8016422420197618,0,0.992908
0.7954847794610672,0,0.744444
0.7971990972456521,0,0.941331
0.7211807419661356,1,0.996152
0.7011687442270723,0,0.894694
0.7696335479402131,0,0.948420
0.12140600645973974,0,0.773386
0.770532703191005,0,0.907577
0.7964586467755379,0,0.865775
0.7888192978095103,0,0.951783
0.3806408859006693,0,0.900289
0.6525337350434844,0,0.943544
0.7612455870002564,0,0.909363
0.806093130367665,1,0.998963
0.8135176307004458,0,0.871312
0.3794662466746045,0,0.898131
0.819606505119214,1,0.997575
0.807767944177608,0,0.913244
0.7124320149348253,0,0.908372
0.3166853871937558,0,0.876404
0.6498501468047936,0,0.990000
0.8125094022921433,0,0.949516
0.1550946103011536,0,0.994861
0.7631652678395823,1,0.997720
0.28093241847841416,0,0.756985
0.6683055314293385,0,0.686902
0.6547227292180949,0,0.739440
0.7912487239706955,0,0.722359
0.3342579828248691,0,0.737705
0.6356814449222657,0,0.985067
0.3612967243056543,0,0.746280
0.6392745803904362,0,0.978082
0.7957098370491411,0,0.984760
0.6337636458201963,0,0.883179
0.6894506117276235,0,0.896673
0.700013581158585,0,0.939005
0.7918584245574314,0,0.923749
0.7843723007376029,0,0.920672
0.7963447762493036,0,0.954567
0.7176738269975952,0,0.792494
0.8293059923593379,0,0.890341
0.7018759365653706,0,0.965223
0.661641329017157,0,0.893137
0.7175240070524985,0,0.977615
0.2907378351468075,1,0.991935
0.339380247960446,0,0.934375
0.7675542669247516,0,0.996280
0.6957061061280012,0,0.524837
0.3305122605693883,0,0.967864
0.3560449123258775,0,0.615385
0.561294810661888,0,0.948443
0.7971617243781497,0,0.898347
0.6638009482586035,0,0.732262
0.6852615465766067,0,0.975209
0.6372429382974489,0,0.981810
0.6466819498576046,0,0.954435
0.5813518399308129,0,0.916667
0.6443511843089205,0,0.784066
0.3169009632780749,0,0.702145
0.3007960870575238,1,0.989807
0.2844918076725234,0,0.570934
0.739295774174885,0,0.821341
0.7589357480618586,0,0.948179
0.6794893213716754,0,0.822326
0.31451173323827236,0,0.858608
0.4606131210167188,0,0.913354
0.34212978422698187,0,0.810890
0.7241452142423325,0,0.938725
0.6897805475177196,0,0.644301
0.7559232094924764,0,0.871482
0.7752958016875232,0,0.954706
0.33837333924435253,0,0.857551
0.7730011411272749,0,0.972960
0.6545305265454076,0,0.918708
0.6839417344259611,0,0.785497
0.6406932060707168,0,0.978703
0.5846151241467155,0,0.894737
0.28437266164987873,0,0.976501
0.6456573689403385,1,0.999471
0.6760885248280161,0,0.546291
0.7123877091854292,0,0.866090
0.647503475194471,0,0.977955
0.728940160149914,0,0.922303
0.28391512861046625,0,0.974648
0.561743904451174,0,0.953785
0.47750619002815725,0,0.588537
0.7544345920808899,0,0.882127
0.7273970321418466,0,0.964182
0.6558326427754246,0,0.916631
0.7371230140692666,0,0.891732
0.6690964940400189,0,0.865154
0.5441588341175049,0,0.753663
0.6460212262882944,0,0.944004
0.6438298952247263,0,0.691345
0.7540032478533705,0,0.986333
0.3230642731784571,0,0.970440
0.3174263097542356,0,0.938214
0.48560718158567395,0,0.977961
0.6028278346949875,0,0.909660
0.716744531444106,0,0.883033
0.7279623952840751,0,0.930511
0.6827963988801988,0,0.959672
0.6910242724481671,0,0.948603
0.7105784649485526,0,0.929946
0.6191174310029799,0,0.856574
0.5593755802321041,1,0.995721
0.7318165144027937,0,0.878208
0.7324383958480789,0,0.860951
0.3132669222643838,0,0.706974
0.14691925405619288,0,0.985314
0.26293397574106747,0,0.938040
0.4100166190249651,1,0.998786
0.42247649594454684,0,0.903599
0.3172497721039009,0,0.977433
0.3020953516012295,1,0.995067
0.49060846104212485,1,0.993490
0.3769057493044429,0,0.502855
0.3563235880201526,1,0.999041
0.5234053701624145,0,0.516667
0.5023424754978217,1,0.998834
0.49311474589743726,0,0.935197
0.46769857098393264,0,0.953575
0.4960978312634095,0,0.994318
0.44305378029567627,0,0.537559
0.41488317962854915,0,0.530530
0.5188178117906268,0,0.962829
0.49044039731515426,0,0.746976
0.48529748220220303,0,0.932532
0.32829571478344477,1,0.995687
0.6299725191537688,0,0.949601
0.4144665360597932,0,0.941429
0.5274851488900388,0,0.982576
0.48132685790174606,0,0.903014
0.2801335975151346,0,0.900826
0.5060168183061863,0,0.988654
0.34315180640667065,0,0.913194
0.34804211582891204,0,0.884302
0.4051311323518209,0,0.813692
0.5082171193468078,0,0.959929
0.6428787030871803,0,0.964528
0.42954623332708314,1,0.989813
0.4417495453968234,0,0.972826
0.48064659059022846,0,0.670577
0.49178279465851393,1,0.998638
0.5434815695847819,0,0.931891
0.601052656672056,0,0.540922
0.6056195987601182,0,0.416317
0.6138492474589817,0,0.557455
0.5377628152644035,0,0.543635
0.5700677216901829,0,0.984482
0.5527055892537754,1,0.994526
0.5796468117933642,0,0.944821
0.591945654092644,1,0.997207
0.6201153937161767,0,0.553902
0.5086147690818625,0,0.892980
0.5185583100735416,0,0.799925
0.590790901698549,0,0.956092
